NPId,Number,RecipientId,DonorId,RangeHolderId,OldRoute,NewRoute,PortDate,RowCount
1000000000403496,77753671582,mKcell,mAltel,mKcell,D07,D02,2017-06-15T10:01:05+06:00,11
1000000000403498,77777019945,mMTS,mKarTel,mKarTel,,D77,2017-06-15T10:06:24+06:00,
1000000000403500,77053392323,mKcell,mKarTel,mKarTel,,D02,2017-06-15T10:07:55+06:00,
1000000000403501,77017600985,mMTS,mKcell,mKcell,,D77,2017-06-15T10:11:42+06:00,
1000000000403502,77029306082,mKarTel,mKcell,mKcell,,D01,2017-06-15T10:12:20+06:00,
1000000000403505,77081670111,mKcell,mAltel,mAltel,D07,D02,2017-06-15T10:15:19+06:00,
1000000000403506,77015167738,mMTS,mKcell,mKcell,,D77,2017-06-15T10:15:13+06:00,
1000000000403507,77751374566,mKarTel,mKcell,mKcell,,D01,2017-06-15T10:16:03+06:00,
1000000000403508,77002000808,mKcell,mAltel,mAltel,,D02,2017-06-15T10:17:30+06:00,
1000000000403510,77017010270,mKarTel,mKcell,mKcell,,D01,2017-06-15T10:19:50+06:00,
1000000000403511,77072000222,mKcell,mMTS,mMTS,,D02,2017-06-15T10:22:00+06:00,
