NPId,Number,RecipientId,DonorId,RangeHolderId,OldRoute,NewRoute,PortDate,RowCount
1000000000274865,77772047294,mKcell,mKarTel,mKarTel,,D02,2016-11-05T21:09:27+06:00,2
1000000000274867,77772484562,mKcell,mKarTel,mKarTel,,D02,2016-11-05T21:24:11+06:00,
