NPId,Number,RecipientId,DonorId,RangeHolderId,OldRoute,NewRoute,PortDate,RowCount
1000000000092775,77027023459,mAltel,mKcell,mKcell,,D07,2016-02-18T19:02:30+06:00,21
1000000000092778,77752592621,mAltel,mKcell,mKcell,,D07,2016-02-18T19:05:43+06:00,
1000000000092781,77013792510,mAltel,mKcell,mKcell,,D07,2016-02-18T19:07:51+06:00,
1000000000092783,77086780082,mMTS,mAltel,mAltel,,D77,2016-02-18T19:09:04+06:00,
1000000000092785,77471216694,mAltel,mMTS,mMTS,,D07,2016-02-18T19:11:13+06:00,
1000000000092786,77759635721,mAltel,mKcell,mKcell,,D07,2016-02-18T19:11:53+06:00,
1000000000092787,77773548618,mAltel,mKarTel,mKarTel,,D07,2016-02-18T19:12:20+06:00,
1000000000092788,77053111002,mKcell,mKarTel,mKarTel,,D02,2016-02-18T19:12:55+06:00,
1000000000092789,77772771211,mKcell,mKarTel,mKarTel,,D02,2016-02-18T19:13:49+06:00,
1000000000092791,77089897806,mKarTel,mAltel,mAltel,,D01,2016-02-18T19:14:37+06:00,
1000000000092792,77018884200,mAltel,mKcell,mKcell,,D07,2016-02-18T19:14:37+06:00,
1000000000092793,77757000949,mMTS,mKcell,mKcell,,D77,2016-02-18T19:14:31+06:00,
1000000000092796,77073612925,mKarTel,mMTS,mMTS,,D01,2016-02-18T19:21:18+06:00,
1000000000092798,77077192777,mAltel,mMTS,mMTS,,D07,2016-02-18T19:23:26+06:00,
1000000000092799,77073612868,mKarTel,mMTS,mMTS,,D01,2016-02-18T19:24:37+06:00,
1000000000092800,77073623855,mKarTel,mMTS,mMTS,,D01,2016-02-18T19:24:39+06:00,
1000000000092801,77089897804,mKarTel,mAltel,mAltel,,D01,2016-02-18T19:24:54+06:00,
1000000000092803,77073612931,mKarTel,mMTS,mMTS,,D01,2016-02-18T19:26:05+06:00,
1000000000092804,77073612867,mKarTel,mMTS,mMTS,,D01,2016-02-18T19:26:57+06:00,
1000000000092806,77073612864,mKarTel,mMTS,mMTS,,D01,2016-02-18T19:27:57+06:00,
1000000000092807,77073612870,mKarTel,mMTS,mMTS,,D01,2016-02-18T19:29:11+06:00,
