NPId,Number,RecipientId,DonorId,RangeHolderId,OldRoute,NewRoute,PortDate,RowCount
1000000000151402,77051906644,mKarTel,mAltel,mKarTel,D07,D01,2016-04-14T09:02:26+06:00,12
1000000000151404,77081888068,mMTS,mAltel,mAltel,,D77,2016-04-14T09:02:00+06:00,
1000000000151405,77083599359,mMTS,mAltel,mAltel,,D77,2016-04-14T09:02:00+06:00,
1000000000151407,77079959920,mKcell,mMTS,mMTS,,D02,2016-04-14T09:10:05+06:00,
1000000000151408,77016237171,mMTS,mKcell,mKcell,,D77,2016-04-14T09:10:21+06:00,
1000000000151409,77029671291,mAltel,mKcell,mKcell,,D07,2016-04-14T09:11:21+06:00,
1000000000151410,77473757088,mKarTel,mMTS,mMTS,,D01,2016-04-14T09:16:06+06:00,
1000000000151411,77013701763,mKcell,mMTS,mKcell,D77,D02,2016-04-14T09:16:44+06:00,
1000000000151412,77087574504,mKarTel,mAltel,mAltel,,D01,2016-04-14T09:17:32+06:00,
1000000000151417,77017771996,mKarTel,mKcell,mKcell,,D01,2016-04-14T09:22:54+06:00,
1000000000151418,77017801177,mKarTel,mKcell,mKcell,,D01,2016-04-14T09:27:30+06:00,
1000000000151419,77072269290,mKarTel,mMTS,mMTS,,D01,2016-04-14T09:28:10+06:00,
