NPId,Number,RecipientId,DonorId,RangeHolderId,OldRoute,NewRoute,PortDate,RowCount
1000000000327914,77001031998,mKcell,mAltel,mAltel,,D02,2017-02-12T19:17:03+06:00,2
1000000000327916,77777070999,mKcell,mKarTel,mKarTel,,D02,2017-02-12T19:29:36+06:00,
