NPId,Number,RecipientId,DonorId,RangeHolderId,OldRoute,NewRoute,PortDate,RowCount
1000000000425276,77077879997,mKcell,mMTS,mMTS,,D02,2017-07-20T15:01:12+06:00,20
1000000000425278,77017401910,mKarTel,mMTS,mKcell,D77,D01,2017-07-20T15:02:27+06:00,
1000000000425279,77770059902,mKcell,mMTS,mKarTel,D77,D02,2017-07-20T15:05:29+06:00,
1000000000425281,77071113030,mKarTel,mMTS,mMTS,,D01,2017-07-20T15:06:52+06:00,
1000000000425282,77012300953,mKarTel,mKcell,mKcell,,D01,2017-07-20T15:07:13+06:00,
1000000000425283,77078970388,mAltel,mMTS,mMTS,,D07,2017-07-20T15:11:21+06:00,
1000000000425285,77757296819,mKarTel,mKcell,mKcell,,D01,2017-07-20T15:13:04+06:00,
1000000000425286,77472555482,mAltel,mMTS,mMTS,,D07,2017-07-20T15:13:21+06:00,
1000000000425287,77077374333,mKarTel,mMTS,mMTS,,D01,2017-07-20T15:13:34+06:00,
1000000000425288,77016646643,mKcell,mMTS,mKcell,D77,D02,2017-07-20T15:14:03+06:00,
1000000000425291,77476684299,mMTS,mKcell,mMTS,D02,D77,2017-07-20T15:14:28+06:00,
1000000000425292,77072051004,mKarTel,mMTS,mMTS,,D01,2017-07-20T15:15:27+06:00,
1000000000425293,77781474656,mMTS,mKcell,mKcell,,D77,2017-07-20T15:16:55+06:00,
1000000000425294,77476684295,mMTS,mKcell,mMTS,D02,D77,2017-07-20T15:17:01+06:00,
1000000000425295,77076799997,mKarTel,mMTS,mMTS,,D01,2017-07-20T15:18:47+06:00,
1000000000425296,77051006605,mKarTel,mKcell,mKarTel,D02,D01,2017-07-20T15:20:18+06:00,
1000000000425297,77014364851,mMTS,mKcell,mKcell,D02,D77,2017-07-20T15:23:23+06:00,
1000000000425299,77075005141,mKarTel,mMTS,mMTS,,D01,2017-07-20T15:25:07+06:00,
1000000000425301,77077598353,mKarTel,mMTS,mMTS,,D01,2017-07-20T15:25:32+06:00,
1000000000425302,77761234000,mAltel,mKarTel,mKarTel,,D07,2017-07-20T15:26:35+06:00,
