NPId,Number,RecipientId,DonorId,RangeHolderId,OldRoute,NewRoute,PortDate,RowCount
1000000000405355,77078288193,mKarTel,mMTS,mMTS,,D01,2017-06-19T11:02:47+06:00,14
1000000000405357,77772004444,mMTS,mKarTel,mKarTel,,D77,2017-06-19T11:03:34+06:00,
1000000000405358,77022690962,mMTS,mKcell,mKcell,,D77,2017-06-19T11:06:11+06:00,
1000000000405361,77013203515,mKcell,mKarTel,mKcell,D01,D02,2017-06-19T11:13:24+06:00,
1000000000405363,77001970326,mKcell,mAltel,mAltel,,D02,2017-06-19T11:16:34+06:00,
1000000000405366,77026913982,mAltel,mKcell,mKcell,,D07,2017-06-19T11:19:40+06:00,
1000000000405367,77019495572,mKarTel,mAltel,mKcell,D07,D01,2017-06-19T11:20:17+06:00,
1000000000405368,77783605959,mAltel,mKcell,mKcell,,D07,2017-06-19T11:20:24+06:00,
1000000000405371,77071112985,mAltel,mMTS,mMTS,,D07,2017-06-19T11:22:29+06:00,
1000000000405372,77476143612,mKarTel,mMTS,mMTS,,D01,2017-06-19T11:23:10+06:00,
1000000000405374,77014081052,mKarTel,mKcell,mKcell,,D01,2017-06-19T11:25:09+06:00,
1000000000405376,77017525148,mMTS,mKcell,mKcell,,D77,2017-06-19T11:25:59+06:00,
1000000000405380,77017461877,mAltel,mKcell,mKcell,,D07,2017-06-19T11:26:25+06:00,
1000000000405381,77019556299,mKarTel,mKcell,mKcell,,D01,2017-06-19T11:27:08+06:00,
