NPId,Number,RecipientId,DonorId,RangeHolderId,OldRoute,NewRoute,PortDate,RowCount
1000000000298376,77018794014,mKarTel,mKcell,mKcell,,D01,2016-12-22T11:54:51+06:00,104
1000000000298376,77018794098,mKarTel,mKcell,mKcell,,D01,2016-12-22T11:54:51+06:00,
1000000000298376,77018794116,mKarTel,mKcell,mKcell,,D01,2016-12-22T11:54:51+06:00,
1000000000298376,77018794122,mKarTel,mKcell,mKcell,,D01,2016-12-22T11:54:51+06:00,
1000000000298376,77018794134,mKarTel,mKcell,mKcell,,D01,2016-12-22T11:54:51+06:00,
1000000000298376,77018794136,mKarTel,mKcell,mKcell,,D01,2016-12-22T11:54:51+06:00,
1000000000298376,77018794139,mKarTel,mKcell,mKcell,,D01,2016-12-22T11:54:51+06:00,
1000000000298376,77018794153,mKarTel,mKcell,mKcell,,D01,2016-12-22T11:54:51+06:00,
1000000000298376,77018794157,mKarTel,mKcell,mKcell,,D01,2016-12-22T11:54:51+06:00,
1000000000298376,77018794175,mKarTel,mKcell,mKcell,,D01,2016-12-22T11:54:51+06:00,
1000000000298376,77018794177,mKarTel,mKcell,mKcell,,D01,2016-12-22T11:54:51+06:00,
1000000000298376,77018794184,mKarTel,mKcell,mKcell,,D01,2016-12-22T11:54:51+06:00,
1000000000298376,77018794185,mKarTel,mKcell,mKcell,,D01,2016-12-22T11:54:51+06:00,
1000000000298376,77018794189,mKarTel,mKcell,mKcell,,D01,2016-12-22T11:54:51+06:00,
1000000000298376,77018794234,mKarTel,mKcell,mKcell,,D01,2016-12-22T11:54:51+06:00,
1000000000298376,77018794238,mKarTel,mKcell,mKcell,,D01,2016-12-22T11:54:51+06:00,
1000000000298376,77018794241,mKarTel,mKcell,mKcell,,D01,2016-12-22T11:54:51+06:00,
1000000000298376,77018794265,mKarTel,mKcell,mKcell,,D01,2016-12-22T11:54:51+06:00,
1000000000298376,77018794281,mKarTel,mKcell,mKcell,,D01,2016-12-22T11:54:51+06:00,
1000000000298376,77018794284,mKarTel,mKcell,mKcell,,D01,2016-12-22T11:54:51+06:00,
1000000000298376,77018794294,mKarTel,mKcell,mKcell,,D01,2016-12-22T11:54:51+06:00,
1000000000298376,77018794295,mKarTel,mKcell,mKcell,,D01,2016-12-22T11:54:51+06:00,
1000000000298376,77018794322,mKarTel,mKcell,mKcell,,D01,2016-12-22T11:54:51+06:00,
1000000000298376,77018794323,mKarTel,mKcell,mKcell,,D01,2016-12-22T11:54:51+06:00,
1000000000298376,77018794337,mKarTel,mKcell,mKcell,,D01,2016-12-22T11:54:51+06:00,
1000000000298376,77018794348,mKarTel,mKcell,mKcell,,D01,2016-12-22T11:54:51+06:00,
1000000000298376,77018794351,mKarTel,mKcell,mKcell,,D01,2016-12-22T11:54:51+06:00,
1000000000298376,77018794355,mKarTel,mKcell,mKcell,,D01,2016-12-22T11:54:51+06:00,
1000000000298376,77018794362,mKarTel,mKcell,mKcell,,D01,2016-12-22T11:54:51+06:00,
1000000000298376,77018794382,mKarTel,mKcell,mKcell,,D01,2016-12-22T11:54:51+06:00,
1000000000298376,77018794401,mKarTel,mKcell,mKcell,,D01,2016-12-22T11:54:51+06:00,
1000000000298376,77018794406,mKarTel,mKcell,mKcell,,D01,2016-12-22T11:54:51+06:00,
1000000000298376,77018794412,mKarTel,mKcell,mKcell,,D01,2016-12-22T11:54:51+06:00,
1000000000298376,77018794416,mKarTel,mKcell,mKcell,,D01,2016-12-22T11:54:51+06:00,
1000000000298376,77018794417,mKarTel,mKcell,mKcell,,D01,2016-12-22T11:54:51+06:00,
1000000000298376,77018794418,mKarTel,mKcell,mKcell,,D01,2016-12-22T11:54:51+06:00,
1000000000298376,77018794423,mKarTel,mKcell,mKcell,,D01,2016-12-22T11:54:51+06:00,
1000000000298376,77018794435,mKarTel,mKcell,mKcell,,D01,2016-12-22T11:54:51+06:00,
1000000000298376,77018794438,mKarTel,mKcell,mKcell,,D01,2016-12-22T11:54:51+06:00,
1000000000298376,77018794443,mKarTel,mKcell,mKcell,,D01,2016-12-22T11:54:51+06:00,
1000000000298376,77018794447,mKarTel,mKcell,mKcell,,D01,2016-12-22T11:54:51+06:00,
1000000000298376,77018794451,mKarTel,mKcell,mKcell,,D01,2016-12-22T11:54:51+06:00,
1000000000298376,77018794456,mKarTel,mKcell,mKcell,,D01,2016-12-22T11:54:51+06:00,
1000000000298376,77018794462,mKarTel,mKcell,mKcell,,D01,2016-12-22T11:54:51+06:00,
1000000000298376,77018794465,mKarTel,mKcell,mKcell,,D01,2016-12-22T11:54:51+06:00,
1000000000298376,77018794472,mKarTel,mKcell,mKcell,,D01,2016-12-22T11:54:51+06:00,
1000000000298376,77018794473,mKarTel,mKcell,mKcell,,D01,2016-12-22T11:54:51+06:00,
1000000000298376,77018794474,mKarTel,mKcell,mKcell,,D01,2016-12-22T11:54:51+06:00,
1000000000298376,77018794484,mKarTel,mKcell,mKcell,,D01,2016-12-22T11:54:51+06:00,
1000000000298376,77018794487,mKarTel,mKcell,mKcell,,D01,2016-12-22T11:54:51+06:00,
1000000000298376,77018794493,mKarTel,mKcell,mKcell,,D01,2016-12-22T11:54:51+06:00,
1000000000298376,77018794507,mKarTel,mKcell,mKcell,,D01,2016-12-22T11:54:51+06:00,
1000000000298376,77018794508,mKarTel,mKcell,mKcell,,D01,2016-12-22T11:54:51+06:00,
1000000000298376,77018794510,mKarTel,mKcell,mKcell,,D01,2016-12-22T11:54:51+06:00,
1000000000298376,77018794511,mKarTel,mKcell,mKcell,,D01,2016-12-22T11:54:51+06:00,
1000000000298376,77018794526,mKarTel,mKcell,mKcell,,D01,2016-12-22T11:54:51+06:00,
1000000000298376,77018794529,mKarTel,mKcell,mKcell,,D01,2016-12-22T11:54:51+06:00,
1000000000298376,77018794537,mKarTel,mKcell,mKcell,,D01,2016-12-22T11:54:51+06:00,
1000000000298376,77018794538,mKarTel,mKcell,mKcell,,D01,2016-12-22T11:54:51+06:00,
1000000000298376,77018794539,mKarTel,mKcell,mKcell,,D01,2016-12-22T11:54:51+06:00,
1000000000298376,77018794552,mKarTel,mKcell,mKcell,,D01,2016-12-22T11:54:51+06:00,
1000000000298376,77018794559,mKarTel,mKcell,mKcell,,D01,2016-12-22T11:54:51+06:00,
1000000000298376,77018794568,mKarTel,mKcell,mKcell,,D01,2016-12-22T11:54:51+06:00,
1000000000298376,77018794569,mKarTel,mKcell,mKcell,,D01,2016-12-22T11:54:51+06:00,
1000000000298376,77018794694,mKarTel,mKcell,mKcell,,D01,2016-12-22T11:54:51+06:00,
1000000000298376,77018794775,mKarTel,mKcell,mKcell,,D01,2016-12-22T11:54:51+06:00,
1000000000298376,77018794805,mKarTel,mKcell,mKcell,,D01,2016-12-22T11:54:51+06:00,
1000000000298376,77018794810,mKarTel,mKcell,mKcell,,D01,2016-12-22T11:54:51+06:00,
1000000000298376,77018794837,mKarTel,mKcell,mKcell,,D01,2016-12-22T11:54:51+06:00,
1000000000298376,77018794918,mKarTel,mKcell,mKcell,,D01,2016-12-22T11:54:51+06:00,
1000000000298376,77018794925,mKarTel,mKcell,mKcell,,D01,2016-12-22T11:54:51+06:00,
1000000000298376,77018794933,mKarTel,mKcell,mKcell,,D01,2016-12-22T11:54:51+06:00,
1000000000298376,77018795003,mKarTel,mKcell,mKcell,,D01,2016-12-22T11:54:51+06:00,
1000000000298376,77018795006,mKarTel,mKcell,mKcell,,D01,2016-12-22T11:54:51+06:00,
1000000000298376,77018795007,mKarTel,mKcell,mKcell,,D01,2016-12-22T11:54:51+06:00,
1000000000298376,77018795018,mKarTel,mKcell,mKcell,,D01,2016-12-22T11:54:51+06:00,
1000000000298376,77018795024,mKarTel,mKcell,mKcell,,D01,2016-12-22T11:54:51+06:00,
1000000000298376,77018795028,mKarTel,mKcell,mKcell,,D01,2016-12-22T11:54:51+06:00,
1000000000298376,77018795032,mKarTel,mKcell,mKcell,,D01,2016-12-22T11:54:51+06:00,
1000000000298376,77018795034,mKarTel,mKcell,mKcell,,D01,2016-12-22T11:54:51+06:00,
1000000000298376,77018795041,mKarTel,mKcell,mKcell,,D01,2016-12-22T11:54:51+06:00,
1000000000298376,77018795046,mKarTel,mKcell,mKcell,,D01,2016-12-22T11:54:51+06:00,
1000000000298376,77018795047,mKarTel,mKcell,mKcell,,D01,2016-12-22T11:54:51+06:00,
1000000000298376,77018795049,mKarTel,mKcell,mKcell,,D01,2016-12-22T11:54:51+06:00,
1000000000298376,77018795141,mKarTel,mKcell,mKcell,,D01,2016-12-22T11:54:51+06:00,
1000000000298376,77018795215,mKarTel,mKcell,mKcell,,D01,2016-12-22T11:54:51+06:00,
1000000000298376,77018795217,mKarTel,mKcell,mKcell,,D01,2016-12-22T11:54:51+06:00,
1000000000298376,77018795262,mKarTel,mKcell,mKcell,,D01,2016-12-22T11:54:51+06:00,
1000000000298376,77018796027,mKarTel,mKcell,mKcell,,D01,2016-12-22T11:54:51+06:00,
1000000000298376,77018796044,mKarTel,mKcell,mKcell,,D01,2016-12-22T11:54:51+06:00,
1000000000298679,77013425492,mAltel,mKcell,mKcell,,D07,2016-12-22T11:31:13+06:00,
1000000000298680,77774606254,mMTS,mKarTel,mKarTel,,D77,2016-12-22T11:32:54+06:00,
1000000000298682,77072556633,mAltel,mMTS,mMTS,,D07,2016-12-22T11:33:08+06:00,
1000000000298683,77011203851,mMTS,mKcell,mKcell,,D77,2016-12-22T11:34:28+06:00,
1000000000298684,77005639070,mKcell,mAltel,mAltel,,D02,2016-12-22T11:34:38+06:00,
1000000000298685,77781111462,mKarTel,mKcell,mKcell,,D01,2016-12-22T11:38:05+06:00,
1000000000298690,77014433388,mMTS,mKcell,mKcell,,D77,2016-12-22T11:44:51+06:00,
1000000000298691,77023408951,mKcell,mMTS,mKcell,D77,D02,2016-12-22T11:46:03+06:00,
1000000000298692,77011910782,mAltel,mKcell,mKcell,D02,D07,2016-12-22T11:48:37+06:00,
1000000000298693,77758458000,mMTS,mKcell,mKcell,,D77,2016-12-22T11:49:12+06:00,
1000000000298694,77779560208,mKarTel,mKcell,mKarTel,D02,D01,2016-12-22T11:50:30+06:00,
1000000000298698,77764166666,mKcell,mKarTel,mKarTel,,D02,2016-12-22T11:54:38+06:00,
1000000000298702,77016517071,mKarTel,mKcell,mKcell,,D01,2016-12-22T11:59:28+06:00,
1000000000298703,77011550025,mMTS,mKcell,mKcell,,D77,2016-12-22T11:59:37+06:00,
