NPId,Number,RecipientId,DonorId,RangeHolderId,OldRoute,NewRoute,PortDate,RowCount
1000000000269413,77015344687,mKarTel,mKcell,mKcell,,D01,2016-10-28T17:46:53+06:00,20
1000000000269413,77019381944,mKarTel,mKcell,mKcell,,D01,2016-10-28T17:46:53+06:00,
1000000000269642,77001522104,mMTS,mAltel,mAltel,,D77,2016-10-28T17:31:22+06:00,
1000000000269643,77078014301,mMTS,mKarTel,mMTS,D01,D77,2016-10-28T17:33:13+06:00,
1000000000269644,77023427177,mMTS,mKcell,mKcell,,D77,2016-10-28T17:34:58+06:00,
1000000000269645,77018867366,mKarTel,mKcell,mKcell,,D01,2016-10-28T17:36:20+06:00,
1000000000269646,77778685551,mMTS,mKarTel,mKarTel,,D77,2016-10-28T17:36:52+06:00,
1000000000269647,77078199944,mMTS,mKarTel,mMTS,D01,D77,2016-10-28T17:39:35+06:00,
1000000000269648,77754769554,mMTS,mKcell,mKcell,,D77,2016-10-28T17:39:16+06:00,
1000000000269649,77785623543,mMTS,mKcell,mKcell,,D77,2016-10-28T17:42:37+06:00,
1000000000269650,77770193758,mMTS,mKarTel,mKarTel,,D77,2016-10-28T17:43:03+06:00,
1000000000269651,77770000503,mMTS,mKarTel,mKarTel,,D77,2016-10-28T17:43:50+06:00,
1000000000269652,77021517888,mAltel,mKcell,mKcell,,D07,2016-10-28T17:47:40+06:00,
1000000000269653,77770147522,mMTS,mKarTel,mKarTel,,D77,2016-10-28T17:47:53+06:00,
1000000000269654,77051705188,mKarTel,mMTS,mKarTel,D77,D01,2016-10-28T17:48:34+06:00,
1000000000269655,77014601110,mAltel,mKcell,mKcell,,D07,2016-10-28T17:51:20+06:00,
1000000000269656,77015338564,mKcell,mKarTel,mKcell,D01,D02,2016-10-28T17:51:55+06:00,
1000000000269659,77754735871,mMTS,mKcell,mKcell,,D77,2016-10-28T17:52:37+06:00,
1000000000269660,77075911555,mKcell,mAltel,mMTS,D07,D02,2016-10-28T17:57:00+06:00,
1000000000269663,77027488464,mMTS,mKcell,mKcell,,D77,2016-10-28T17:59:37+06:00,
