NPId,Number,RecipientId,DonorId,RangeHolderId,OldRoute,NewRoute,PortDate,RowCount
1000000000194559,77773888800,mMTS,mKarTel,mKarTel,,D77,2016-06-16T16:04:50+06:00,27
1000000000194683,77776056600,mMTS,mKarTel,mKarTel,,D77,2016-06-16T16:00:30+06:00,
1000000000194684,77053330898,mMTS,mKarTel,mKarTel,,D77,2016-06-16T16:01:04+06:00,
1000000000194685,77001449438,mMTS,mAltel,mAltel,,D77,2016-06-16T16:01:18+06:00,
1000000000194686,77011201610,mMTS,mKcell,mKcell,,D77,2016-06-16T16:05:55+06:00,
1000000000194687,77055201199,mKarTel,mMTS,mKarTel,D77,D01,2016-06-16T16:04:47+06:00,
1000000000194690,77015145741,mKarTel,mKcell,mKcell,,D01,2016-06-16T16:06:33+06:00,
1000000000194693,77477568050,mKcell,mMTS,mMTS,,D02,2016-06-16T16:07:55+06:00,
1000000000194694,77082942525,mKcell,mAltel,mAltel,,D02,2016-06-16T16:07:56+06:00,
1000000000194696,77078078020,mKcell,mMTS,mMTS,,D02,2016-06-16T16:09:35+06:00,
1000000000194697,77013713059,mMTS,mKcell,mKcell,,D77,2016-06-16T16:10:07+06:00,
1000000000194698,77788886330,mKarTel,mKcell,mKcell,,D01,2016-06-16T16:11:26+06:00,
1000000000194699,77772086060,mKarTel,mMTS,mKarTel,D77,D01,2016-06-16T16:12:22+06:00,
1000000000194700,77787777628,mMTS,mKcell,mKcell,,D77,2016-06-16T16:12:56+06:00,
1000000000194703,77000070222,mMTS,mAltel,mAltel,,D77,2016-06-16T16:14:09+06:00,
1000000000194706,77761870202,mMTS,mAltel,mKarTel,D07,D77,2016-06-16T16:16:24+06:00,
1000000000194707,77081570186,mMTS,mAltel,mAltel,,D77,2016-06-16T16:19:31+06:00,
1000000000194708,77055228371,mKcell,mKarTel,mKarTel,,D02,2016-06-16T16:20:41+06:00,
1000000000194709,77776665101,mKarTel,mMTS,mKarTel,D77,D01,2016-06-16T16:20:08+06:00,
1000000000194711,77027897236,mMTS,mKcell,mKcell,,D77,2016-06-16T16:21:57+06:00,
1000000000194713,77074445415,mKarTel,mMTS,mMTS,,D01,2016-06-16T16:25:11+06:00,
1000000000194715,77089773205,mAltel,mMTS,mAltel,D77,D07,2016-06-16T16:25:48+06:00,
1000000000194716,77019720288,mKarTel,mKcell,mKcell,,D01,2016-06-16T16:27:20+06:00,
1000000000194718,77777888821,mMTS,mKarTel,mKarTel,,D77,2016-06-16T16:27:30+06:00,
1000000000194719,77087489494,mMTS,mAltel,mAltel,,D77,2016-06-16T16:27:26+06:00,
1000000000194720,77015553500,mKcell,mMTS,mKcell,D77,D02,2016-06-16T16:28:38+06:00,
1000000000194722,77019867263,mKcell,mMTS,mKcell,D77,D02,2016-06-16T16:29:24+06:00,
