NPId,Number,RecipientId,DonorId,RangeHolderId,OldRoute,NewRoute,PortDate,RowCount
1000000000381719,77007771999,mMTS,mAltel,mAltel,,D77,2017-05-11T20:00:29+06:00,4
1000000000381720,77007774888,mKarTel,mAltel,mAltel,,D01,2017-05-11T20:11:02+06:00,
1000000000381721,77017117107,mKcell,mMTS,mKcell,D77,D02,2017-05-11T20:12:03+06:00,
1000000000381722,77087117107,mKcell,mMTS,mAltel,D77,D02,2017-05-11T20:22:32+06:00,
