NPId,Number,RecipientId,DonorId,RangeHolderId,OldRoute,NewRoute,PortDate,RowCount
1000000000297796,77476476581,mMTS,mKarTel,mMTS,D01,D77,2016-12-20T17:14:00+06:00,30
1000000000297800,77477064003,mAltel,mMTS,mMTS,,D07,2016-12-20T17:00:15+06:00,
1000000000297801,77751751294,mMTS,mKcell,mKcell,,D77,2016-12-20T17:00:34+06:00,
1000000000297802,77013689329,mAltel,mKcell,mKcell,,D07,2016-12-20T17:01:09+06:00,
1000000000297803,77478056564,mKarTel,mMTS,mMTS,,D01,2016-12-20T17:01:31+06:00,
1000000000297804,77772169418,mMTS,mKarTel,mKarTel,,D77,2016-12-20T17:02:05+06:00,
1000000000297805,77022141817,mMTS,mKcell,mKcell,,D77,2016-12-20T17:01:53+06:00,
1000000000297806,77476476557,mMTS,mKarTel,mMTS,D01,D77,2016-12-20T17:17:58+06:00,
1000000000297807,77052195366,mMTS,mKarTel,mKarTel,,D77,2016-12-20T17:03:49+06:00,
1000000000297809,77020000597,mKcell,mMTS,mKcell,D77,D02,2016-12-20T17:05:40+06:00,
1000000000297810,77750007771,mKarTel,mKcell,mKcell,,D01,2016-12-20T17:06:42+06:00,
1000000000297812,77000950528,mMTS,mAltel,mAltel,,D77,2016-12-20T17:06:48+06:00,
1000000000297814,77475006070,mKcell,mMTS,mMTS,,D02,2016-12-20T17:07:38+06:00,
1000000000297815,77760003130,mMTS,mKcell,mKarTel,D02,D77,2016-12-20T17:08:01+06:00,
1000000000297816,77014215124,mMTS,mKcell,mKcell,,D77,2016-12-20T17:08:58+06:00,
1000000000297818,77029854603,mMTS,mKcell,mKcell,,D77,2016-12-20T17:12:44+06:00,
1000000000297819,77013264079,mMTS,mKcell,mKcell,,D77,2016-12-20T17:13:01+06:00,
1000000000297821,77079833336,mKcell,mMTS,mMTS,,D02,2016-12-20T17:13:20+06:00,
1000000000297823,77023844455,mKcell,mMTS,mKcell,D77,D02,2016-12-20T17:15:12+06:00,
1000000000297824,77002002303,mMTS,mAltel,mAltel,,D77,2016-12-20T17:14:58+06:00,
1000000000297825,77014983498,mKcell,mMTS,mKcell,D77,D02,2016-12-20T17:16:44+06:00,
1000000000297826,77052467777,mAltel,mKarTel,mKarTel,,D07,2016-12-20T17:17:15+06:00,
1000000000297827,77753627669,mKarTel,mKcell,mKcell,,D01,2016-12-20T17:17:21+06:00,
1000000000297828,77054499174,mAltel,mKarTel,mKarTel,,D07,2016-12-20T17:18:07+06:00,
1000000000297829,77017995301,mKarTel,mKcell,mKcell,,D01,2016-12-20T17:19:02+06:00,
1000000000297830,77073330777,mKarTel,mMTS,mMTS,,D01,2016-12-20T17:19:21+06:00,
1000000000297831,77021161578,mKarTel,mKcell,mKcell,,D01,2016-12-20T17:20:39+06:00,
1000000000297833,77758272579,mKcell,mMTS,mKcell,D77,D02,2016-12-20T17:25:27+06:00,
1000000000297835,77011314431,mKarTel,mKcell,mKcell,,D01,2016-12-20T17:24:29+06:00,
1000000000297836,77014989858,mAltel,mKcell,mKcell,D02,D07,2016-12-20T17:25:16+06:00,
