NPId,Number,RecipientId,DonorId,RangeHolderId,OldRoute,NewRoute,PortDate,RowCount
1000000000424657,77029808008,mKcell,mAltel,mKcell,D07,D02,2017-07-19T15:04:58+06:00,26
1000000000424658,77752506960,mKarTel,mKcell,mKcell,,D01,2017-07-19T15:06:57+06:00,
1000000000424659,77776881616,mKarTel,mMTS,mKarTel,D77,D01,2017-07-19T15:07:03+06:00,
1000000000424660,77777178444,mMTS,mKarTel,mKarTel,,D77,2017-07-19T15:07:27+06:00,
1000000000424662,77074008383,mKarTel,mMTS,mMTS,,D01,2017-07-19T15:08:14+06:00,
1000000000424663,77785040269,mKarTel,mKcell,mKcell,,D01,2017-07-19T15:08:25+06:00,
1000000000424664,77015556698,mAltel,mKcell,mKcell,,D07,2017-07-19T15:08:39+06:00,
1000000000424665,77028074757,mKarTel,mKcell,mKcell,,D01,2017-07-19T15:11:33+06:00,
1000000000424666,77073220446,mKarTel,mMTS,mMTS,,D01,2017-07-19T15:12:53+06:00,
1000000000424668,77019592197,mMTS,mKcell,mKcell,,D77,2017-07-19T15:15:27+06:00,
1000000000424670,77012031458,mKcell,mMTS,mKcell,D77,D02,2017-07-19T15:17:04+06:00,
1000000000424673,77756320097,mMTS,mKcell,mKcell,,D77,2017-07-19T15:18:02+06:00,
1000000000424674,77471153761,mKarTel,mMTS,mMTS,,D01,2017-07-19T15:19:27+06:00,
1000000000424675,77786425167,mMTS,mKcell,mKcell,,D77,2017-07-19T15:19:19+06:00,
1000000000424676,77004829932,mMTS,mAltel,mAltel,,D77,2017-07-19T15:20:26+06:00,
1000000000424677,77074267569,mKarTel,mAltel,mMTS,D07,D01,2017-07-19T15:20:49+06:00,
1000000000424678,77012140474,mMTS,mKcell,mKcell,,D77,2017-07-19T15:22:10+06:00,
1000000000424680,77010771117,mKcell,mMTS,mKcell,D77,D02,2017-07-19T15:23:41+06:00,
1000000000424681,77054828281,mKarTel,mMTS,mKarTel,D77,D01,2017-07-19T15:23:57+06:00,
1000000000424682,77077364922,mAltel,mMTS,mMTS,,D07,2017-07-19T15:23:44+06:00,
1000000000424683,77000000101,mKarTel,mAltel,mAltel,,D01,2017-07-19T15:24:12+06:00,
1000000000424684,77012440755,mKarTel,mKcell,mKcell,,D01,2017-07-19T15:24:28+06:00,
1000000000424685,77014306181,mKcell,mMTS,mKcell,D77,D02,2017-07-19T15:24:52+06:00,
1000000000424686,77781000078,mKcell,mMTS,mKcell,D77,D02,2017-07-19T15:25:20+06:00,
1000000000424689,77473898250,mMTS,mKarTel,mMTS,D01,D77,2017-07-19T15:27:19+06:00,
1000000000424690,77017238836,mKcell,mAltel,mKcell,D07,D02,2017-07-19T15:29:43+06:00,
