NPId,Number,RecipientId,DonorId,RangeHolderId,OldRoute,NewRoute,PortDate,RowCount
1000000000180204,77089665389,mMTS,mAltel,mAltel,,D77,2016-05-25T17:30:24+06:00,17
1000000000180941,77017664749,mKcell,mKarTel,mKcell,D01,D02,2016-05-25T17:33:21+06:00,
1000000000180957,77751999666,mMTS,mKcell,mKcell,,D77,2016-05-25T17:32:51+06:00,
1000000000180958,77783666000,mMTS,mKcell,mKcell,,D77,2016-05-25T17:32:51+06:00,
1000000000180960,77770444457,mKarTel,mMTS,mKarTel,D77,D01,2016-05-25T17:36:33+06:00,
1000000000180962,77472224680,mKcell,mMTS,mMTS,,D02,2016-05-25T17:41:02+06:00,
1000000000180963,77072775254,mAltel,mMTS,mMTS,,D07,2016-05-25T17:41:07+06:00,
1000000000180965,77768056600,mMTS,mKarTel,mKarTel,,D77,2016-05-25T17:43:04+06:00,
1000000000180967,77771600000,mKarTel,mAltel,mKarTel,D07,D01,2016-05-25T17:44:32+06:00,
1000000000180968,77777691910,mMTS,mAltel,mKarTel,D07,D77,2016-05-25T17:46:17+06:00,
1000000000180971,77012204040,mMTS,mKcell,mKcell,,D77,2016-05-25T17:47:44+06:00,
1000000000180972,77083540416,mKcell,mAltel,mAltel,,D02,2016-05-25T17:47:45+06:00,
1000000000180973,77089799114,mMTS,mAltel,mAltel,,D77,2016-05-25T17:48:30+06:00,
1000000000180974,77004592809,mMTS,mAltel,mAltel,,D77,2016-05-25T17:48:32+06:00,
1000000000180977,77781660882,mKcell,mAltel,mKcell,D07,D02,2016-05-25T17:52:36+06:00,
1000000000180978,77022498084,mMTS,mKcell,mKcell,,D77,2016-05-25T17:55:04+06:00,
1000000000180979,77775255550,mMTS,mKarTel,mKarTel,,D77,2016-05-25T17:57:49+06:00,
