NPId,Number,RecipientId,DonorId,RangeHolderId,OldRoute,NewRoute,PortDate,RowCount
1000000000344692,77773308283,mMTS,mKarTel,mKarTel,,D77,2017-03-11T10:09:04+06:00,11
1000000000344693,77077730070,mMTS,mKarTel,mMTS,D01,D77,2017-03-11T10:09:10+06:00,
1000000000344694,77773835558,mMTS,mKarTel,mKarTel,,D77,2017-03-11T10:11:51+06:00,
1000000000344695,77079897070,mMTS,mKcell,mMTS,D02,D77,2017-03-11T10:13:18+06:00,
1000000000344696,77054143001,mAltel,mKarTel,mKarTel,,D07,2017-03-11T10:15:39+06:00,
1000000000344697,77017505588,mKcell,mMTS,mKcell,D77,D02,2017-03-11T10:15:55+06:00,
1000000000344698,77785550277,mKcell,mMTS,mKcell,D77,D02,2017-03-11T10:18:37+06:00,
1000000000344699,77754033971,mKcell,mMTS,mKcell,D77,D02,2017-03-11T10:19:11+06:00,
1000000000344701,77027728828,mKarTel,mMTS,mKcell,D77,D01,2017-03-11T10:21:51+06:00,
1000000000344702,77012991845,mMTS,mKcell,mKcell,,D77,2017-03-11T10:22:51+06:00,
1000000000344704,77789007773,mMTS,mKcell,mKcell,,D77,2017-03-11T10:26:30+06:00,
