NPId,Number,RecipientId,DonorId,RangeHolderId,OldRoute,NewRoute,PortDate,RowCount
1000000000276985,77781859654,mMTS,mKcell,mKcell,,D77,2016-11-10T09:14:44+06:00,3
1000000000276987,77771696822,mMTS,mKarTel,mKarTel,,D77,2016-11-10T09:21:47+06:00,
1000000000276990,77071110530,mKarTel,mMTS,mMTS,,D01,2016-11-10T09:29:28+06:00,
