NPId,Number,RecipientId,DonorId,RangeHolderId,OldRoute,NewRoute,PortDate,RowCount
1000000000297839,77021115709,mKarTel,mKcell,mKcell,,D01,2016-12-20T17:30:21+06:00,31
1000000000297840,77052265662,mKarTel,mKcell,mKarTel,D02,D01,2016-12-20T17:30:21+06:00,
1000000000297841,77013255995,mMTS,mKcell,mKcell,,D77,2016-12-20T17:30:21+06:00,
1000000000297842,77001113550,mAltel,mMTS,mAltel,D77,D07,2016-12-20T17:30:21+06:00,
1000000000297843,77000071777,mKcell,mAltel,mAltel,,D02,2016-12-20T17:30:54+06:00,
1000000000297844,77774495234,mMTS,mKarTel,mKarTel,,D77,2016-12-20T17:32:40+06:00,
1000000000297846,77476476549,mMTS,mKarTel,mMTS,D01,D77,2016-12-20T17:50:22+06:00,
1000000000297847,77079917581,mKarTel,mMTS,mMTS,,D01,2016-12-20T17:35:18+06:00,
1000000000297848,77757611117,mAltel,mKcell,mKcell,,D07,2016-12-20T17:36:06+06:00,
1000000000297852,77013856065,mMTS,mKcell,mKcell,,D77,2016-12-20T17:42:02+06:00,
1000000000297853,77710014111,mKcell,mKarTel,mKarTel,,D02,2016-12-20T17:42:31+06:00,
1000000000297854,77089709882,mMTS,mAltel,mAltel,,D77,2016-12-20T17:42:14+06:00,
1000000000297855,77083125926,mMTS,mAltel,mAltel,,D77,2016-12-20T17:42:36+06:00,
1000000000297857,77014094199,mMTS,mKcell,mKcell,,D77,2016-12-20T17:42:56+06:00,
1000000000297858,77019531576,mMTS,mKcell,mKcell,,D77,2016-12-20T17:44:38+06:00,
1000000000297861,77772169320,mMTS,mKarTel,mKarTel,,D77,2016-12-20T17:47:53+06:00,
1000000000297863,77051832495,mKcell,mKarTel,mKarTel,,D02,2016-12-20T17:49:02+06:00,
1000000000297864,77473450017,mKcell,mMTS,mMTS,,D02,2016-12-20T17:48:56+06:00,
1000000000297865,77475552488,mKcell,mMTS,mMTS,,D02,2016-12-20T17:48:55+06:00,
1000000000297866,77051848389,mAltel,mKarTel,mKarTel,,D07,2016-12-20T17:48:58+06:00,
1000000000297868,77078209971,mAltel,mMTS,mMTS,,D07,2016-12-20T17:49:38+06:00,
1000000000297869,77011118009,mKcell,mMTS,mKcell,D77,D02,2016-12-20T17:50:40+06:00,
1000000000297870,77772750385,mKcell,mKarTel,mKarTel,,D02,2016-12-20T17:52:17+06:00,
1000000000297872,77073665050,mAltel,mMTS,mMTS,,D07,2016-12-20T17:53:45+06:00,
1000000000297873,77004777181,mKarTel,mAltel,mAltel,,D01,2016-12-20T17:54:02+06:00,
1000000000297874,77782369111,mMTS,mKcell,mKcell,,D77,2016-12-20T17:54:35+06:00,
1000000000297875,77019627543,mMTS,mKcell,mKcell,,D77,2016-12-20T17:56:57+06:00,
1000000000297876,77019553390,mAltel,mKcell,mKcell,,D07,2016-12-20T17:56:05+06:00,
1000000000297877,77779009470,mAltel,mKarTel,mKarTel,,D07,2016-12-20T17:56:53+06:00,
1000000000297878,77474996858,mKarTel,mMTS,mMTS,,D01,2016-12-20T17:57:27+06:00,
1000000000297879,77016766669,mAltel,mKcell,mKcell,D02,D07,2016-12-20T17:57:58+06:00,
