NPId,Number,RecipientId,DonorId,RangeHolderId,OldRoute,NewRoute,PortDate,RowCount
1000000000109233,77752441010,mKarTel,mKcell,mKcell,,D01,2016-03-07T15:05:29+06:00,24
1000000000109235,77028515858,mMTS,mKcell,mKcell,,D77,2016-03-07T15:06:05+06:00,
1000000000109236,77087610377,mKarTel,mAltel,mAltel,,D01,2016-03-07T15:06:19+06:00,
1000000000109237,77022344484,mMTS,mKcell,mKcell,,D77,2016-03-07T15:06:59+06:00,
1000000000109238,77013768811,mAltel,mKcell,mKcell,,D07,2016-03-07T15:07:00+06:00,
1000000000109239,77029005051,mAltel,mKcell,mKcell,,D07,2016-03-07T15:07:59+06:00,
1000000000109242,77750006640,mMTS,mKcell,mKcell,,D77,2016-03-07T15:09:39+06:00,
1000000000109243,77081473287,mKcell,mAltel,mAltel,,D02,2016-03-07T15:10:05+06:00,
1000000000109244,77087503617,mKcell,mAltel,mAltel,,D02,2016-03-07T15:10:06+06:00,
1000000000109245,77715819388,mAltel,mKarTel,mKarTel,,D07,2016-03-07T15:10:21+06:00,
1000000000109249,77751318939,mAltel,mKcell,mKcell,,D07,2016-03-07T15:13:25+06:00,
1000000000109251,77758830335,mMTS,mKcell,mKcell,,D77,2016-03-07T15:15:07+06:00,
1000000000109252,77082404040,mKcell,mAltel,mAltel,,D02,2016-03-07T15:15:28+06:00,
1000000000109253,77015384190,mKarTel,mKcell,mKcell,,D01,2016-03-07T15:16:25+06:00,
1000000000109254,77078518410,mKarTel,mMTS,mMTS,,D01,2016-03-07T15:17:58+06:00,
1000000000109256,77773363662,mAltel,mKarTel,mKarTel,,D07,2016-03-07T15:19:28+06:00,
1000000000109257,77024089814,mMTS,mKcell,mKcell,,D77,2016-03-07T15:19:17+06:00,
1000000000109258,77051919755,mAltel,mKarTel,mKarTel,,D07,2016-03-07T15:20:47+06:00,
1000000000109260,77019927041,mKarTel,mKcell,mKcell,,D01,2016-03-07T15:22:02+06:00,
1000000000109261,77766662025,mAltel,mKarTel,mKarTel,,D07,2016-03-07T15:22:42+06:00,
1000000000109262,77012238324,mMTS,mKcell,mKcell,,D77,2016-03-07T15:22:44+06:00,
1000000000109264,77776542637,mMTS,mKarTel,mKarTel,,D77,2016-03-07T15:23:51+06:00,
1000000000109265,77024589213,mAltel,mKcell,mKcell,,D07,2016-03-07T15:25:46+06:00,
1000000000109268,77015181321,mAltel,mKcell,mKcell,,D07,2016-03-07T15:28:39+06:00,
