NPId,Number,RecipientId,DonorId,RangeHolderId,OldRoute,NewRoute,PortDate,RowCount
1000000000200317,77783014428,mMTS,mKcell,mKcell,,D77,2016-06-26T18:42:37+06:00,2
1000000000200318,77085239552,mKarTel,mAltel,mAltel,,D01,2016-06-26T18:53:39+06:00,
