NPId,Number,RecipientId,DonorId,RangeHolderId,OldRoute,NewRoute,PortDate,RowCount
1000000000341250,77089555153,mAltel,mKarTel,mAltel,D01,D07,2017-03-05T15:32:43+06:00,16
1000000000341251,77773532670,mMTS,mKarTel,mKarTel,,D77,2017-03-05T15:33:26+06:00,
1000000000341252,77012272817,mAltel,mKcell,mKcell,,D07,2017-03-05T15:34:03+06:00,
1000000000341253,77058105533,mMTS,mKarTel,mKarTel,,D77,2017-03-05T15:38:15+06:00,
1000000000341254,77015982810,mKarTel,mKcell,mKcell,,D01,2017-03-05T15:43:35+06:00,
1000000000341255,77074977144,mKcell,mMTS,mMTS,,D02,2017-03-05T15:45:36+06:00,
1000000000341256,77017479093,mKarTel,mKcell,mKcell,,D01,2017-03-05T15:46:46+06:00,
1000000000341257,77759634594,mMTS,mKcell,mKcell,,D77,2017-03-05T15:48:36+06:00,
1000000000341258,77012429324,mKarTel,mKcell,mKcell,,D01,2017-03-05T15:50:19+06:00,
1000000000341259,77088018884,mMTS,mAltel,mAltel,,D77,2017-03-05T15:50:22+06:00,
1000000000341261,77071449366,mMTS,mAltel,mMTS,D07,D77,2017-03-05T15:51:52+06:00,
1000000000341263,77754296108,mMTS,mKcell,mKcell,,D77,2017-03-05T15:53:51+06:00,
1000000000341264,77000926926,mKcell,mAltel,mAltel,,D02,2017-03-05T15:54:09+06:00,
1000000000341265,77007771595,mKarTel,mAltel,mAltel,,D01,2017-03-05T15:54:50+06:00,
1000000000341266,77076002155,mKcell,mMTS,mMTS,,D02,2017-03-05T15:54:52+06:00,
1000000000341267,77754296109,mMTS,mKcell,mKcell,,D77,2017-03-05T15:57:42+06:00,
