NPId,Number,RecipientId,DonorId,RangeHolderId,OldRoute,NewRoute,PortDate,RowCount
1000000000198148,77085279644,mKcell,mAltel,mAltel,,D02,2016-06-22T21:02:35+06:00,3
1000000000198150,77086726166,mKcell,mAltel,mAltel,,D02,2016-06-22T21:18:59+06:00,
1000000000198151,77017736651,mMTS,mKcell,mKcell,,D77,2016-06-22T21:21:16+06:00,
