NPId,Number,RecipientId,DonorId,RangeHolderId,OldRoute,NewRoute,PortDate,RowCount
1000000000389984,77016096080,mKarTel,mKcell,mKcell,,D01,2017-05-25T20:20:44+06:00,2
1000000000389985,77073676634,mKcell,mMTS,mMTS,,D02,2017-05-25T20:23:22+06:00,
