NPId,Number,RecipientId,DonorId,RangeHolderId,OldRoute,NewRoute,PortDate,RowCount
1000000000295947,77052653807,mKarTel,mKcell,mKarTel,D02,D01,2016-12-16T11:05:19+06:00,7
1000000000295948,77052653802,mKarTel,mKcell,mKarTel,D02,D01,2016-12-16T11:06:22+06:00,
1000000000295951,77017898914,mKcell,mMTS,mKcell,D77,D02,2016-12-16T11:12:09+06:00,
1000000000295954,77750000138,mKcell,mMTS,mKcell,D77,D02,2016-12-16T11:21:01+06:00,
1000000000295955,77753455507,mAltel,mKcell,mKcell,,D07,2016-12-16T11:21:16+06:00,
1000000000295956,77052653803,mKarTel,mKcell,mKarTel,D02,D01,2016-12-16T11:26:16+06:00,
1000000000295957,77052653806,mKarTel,mKcell,mKarTel,D02,D01,2016-12-16T11:27:49+06:00,
