NPId,Number,RecipientId,DonorId,RangeHolderId,OldRoute,NewRoute,PortDate,RowCount
1000000000195138,77017714050,mKarTel,mKcell,mKcell,,D01,2016-06-17T14:01:15+06:00,27
1000000000195139,77088501208,mMTS,mAltel,mAltel,,D77,2016-06-17T14:01:09+06:00,
1000000000195140,77024690007,mKcell,mAltel,mKcell,D07,D02,2016-06-17T14:02:27+06:00,
1000000000195142,77059049640,mMTS,mKarTel,mKarTel,,D77,2016-06-17T14:02:24+06:00,
1000000000195143,77024600707,mMTS,mKcell,mKcell,,D77,2016-06-17T14:03:30+06:00,
1000000000195145,77015271612,mKcell,mMTS,mKcell,D77,D02,2016-06-17T14:06:44+06:00,
1000000000195146,77753333307,mKarTel,mAltel,mKcell,D07,D01,2016-06-17T14:06:40+06:00,
1000000000195148,77023292457,mKcell,mMTS,mKcell,D77,D02,2016-06-17T14:10:35+06:00,
1000000000195149,77478701417,mKarTel,mMTS,mMTS,,D01,2016-06-17T14:10:13+06:00,
1000000000195150,77778734128,mAltel,mKarTel,mKarTel,,D07,2016-06-17T14:11:01+06:00,
1000000000195151,77015267041,mMTS,mKcell,mKcell,,D77,2016-06-17T14:14:40+06:00,
1000000000195152,77783424169,mMTS,mKcell,mKcell,,D77,2016-06-17T14:13:09+06:00,
1000000000195153,77088501210,mMTS,mAltel,mAltel,,D77,2016-06-17T14:12:12+06:00,
1000000000195154,77027712030,mMTS,mKcell,mKcell,,D77,2016-06-17T14:13:09+06:00,
1000000000195157,77018986988,mMTS,mKcell,mKcell,,D77,2016-06-17T14:14:12+06:00,
1000000000195158,77009194348,mMTS,mAltel,mAltel,,D77,2016-06-17T14:17:11+06:00,
1000000000195159,77770223205,mMTS,mKarTel,mKarTel,,D77,2016-06-17T14:17:36+06:00,
1000000000195161,77752816161,mMTS,mKcell,mKcell,,D77,2016-06-17T14:19:30+06:00,
1000000000195162,77781116666,mMTS,mKcell,mKcell,,D77,2016-06-17T14:21:39+06:00,
1000000000195164,77770223193,mMTS,mKarTel,mKarTel,,D77,2016-06-17T14:22:34+06:00,
1000000000195165,77778188153,mKcell,mKarTel,mKarTel,,D02,2016-06-17T14:23:05+06:00,
1000000000195166,77772129618,mMTS,mKarTel,mKarTel,,D77,2016-06-17T14:23:08+06:00,
1000000000195167,77759839696,mKarTel,mMTS,mKcell,D77,D01,2016-06-17T14:23:17+06:00,
1000000000195169,77017897006,mAltel,mKcell,mKcell,,D07,2016-06-17T14:26:03+06:00,
1000000000195170,77003949411,mKcell,mAltel,mAltel,,D02,2016-06-17T14:26:48+06:00,
1000000000195171,77072327997,mKarTel,mMTS,mMTS,,D01,2016-06-17T14:27:03+06:00,
1000000000195173,77012265603,mMTS,mKcell,mKcell,,D77,2016-06-17T14:28:34+06:00,
