NPId,Number,RecipientId,DonorId,RangeHolderId,OldRoute,NewRoute,PortDate,RowCount
1000000000321540,77771477690,mKcell,mKarTel,mKarTel,,D02,2017-02-01T17:00:14+06:00,53
1000000000321541,77052036500,mMTS,mKarTel,mKarTel,,D77,2017-02-01T17:15:03+06:00,
1000000000321542,77772347856,mMTS,mKarTel,mKarTel,D01,D77,2017-02-01T17:00:03+06:00,
1000000000321543,77017719312,mMTS,mKcell,mKcell,,D77,2017-02-01T17:03:05+06:00,
1000000000321544,77772742169,mMTS,mKarTel,mKarTel,,D77,2017-02-01T17:15:56+06:00,
1000000000321545,77013408787,mKcell,mKarTel,mKcell,D01,D02,2017-02-01T17:01:30+06:00,
1000000000321546,77054500826,mMTS,mKarTel,mKarTel,,D77,2017-02-01T17:16:44+06:00,
1000000000321549,77772813522,mMTS,mKarTel,mKarTel,,D77,2017-02-01T17:17:38+06:00,
1000000000321550,77025105717,mMTS,mKcell,mKcell,,D77,2017-02-01T17:02:46+06:00,
1000000000321551,77771582131,mMTS,mKarTel,mKarTel,,D77,2017-02-01T17:03:06+06:00,
1000000000321552,77775449160,mMTS,mKarTel,mKarTel,,D77,2017-02-01T17:18:32+06:00,
1000000000321553,77051054000,mKarTel,mMTS,mKarTel,D77,D01,2017-02-01T17:03:41+06:00,
1000000000321556,77019089791,mKcell,mKarTel,mKcell,D01,D02,2017-02-01T17:07:34+06:00,
1000000000321557,77714853004,mKcell,mKarTel,mKarTel,,D02,2017-02-01T17:07:44+06:00,
1000000000321558,77471931939,mAltel,mKcell,mMTS,D02,D07,2017-02-01T17:07:28+06:00,
1000000000321560,77772103028,mAltel,mKarTel,mKarTel,,D07,2017-02-01T17:23:44+06:00,
1000000000321561,77003530286,mKcell,mAltel,mAltel,,D02,2017-02-01T17:08:47+06:00,
1000000000321562,77772156102,mAltel,mKarTel,mKarTel,,D07,2017-02-01T17:24:15+06:00,
1000000000321565,77772444950,mAltel,mKarTel,mKarTel,,D07,2017-02-01T17:25:15+06:00,
1000000000321566,77717897502,mAltel,mKarTel,mKarTel,,D07,2017-02-01T17:25:39+06:00,
1000000000321567,77019516661,mKcell,mMTS,mKcell,D77,D02,2017-02-01T17:10:31+06:00,
1000000000321568,77717897504,mAltel,mKarTel,mKarTel,,D07,2017-02-01T17:26:14+06:00,
1000000000321569,77471616200,mKarTel,mMTS,mMTS,,D01,2017-02-01T17:11:09+06:00,
1000000000321570,77760065111,mMTS,mKarTel,mKarTel,,D77,2017-02-01T17:11:17+06:00,
1000000000321571,77771582838,mMTS,mKarTel,mKarTel,,D77,2017-02-01T17:11:31+06:00,
1000000000321572,77718007329,mAltel,mKarTel,mKarTel,,D07,2017-02-01T17:26:51+06:00,
1000000000321573,77012888895,mAltel,mKcell,mKcell,,D07,2017-02-01T17:11:48+06:00,
1000000000321575,77710311003,mKcell,mKarTel,mKarTel,,D02,2017-02-01T17:12:26+06:00,
1000000000321577,77089107003,mMTS,mAltel,mAltel,,D77,2017-02-01T17:12:39+06:00,
1000000000321578,77018334008,mAltel,mKarTel,mKcell,D01,D07,2017-02-01T17:13:07+06:00,
1000000000321579,77075289441,mAltel,mMTS,mMTS,,D07,2017-02-01T17:14:32+06:00,
1000000000321580,77015522818,mAltel,mKcell,mKcell,,D07,2017-02-01T17:15:01+06:00,
1000000000321581,77018334009,mAltel,mKarTel,mKcell,D01,D07,2017-02-01T17:15:56+06:00,
1000000000321582,77475031005,mKarTel,mMTS,mMTS,,D01,2017-02-01T17:15:53+06:00,
1000000000321584,77080778800,mKcell,mAltel,mAltel,D07,D02,2017-02-01T17:16:49+06:00,
1000000000321585,77075336838,mKcell,mKarTel,mMTS,D01,D02,2017-02-01T17:17:23+06:00,
1000000000321587,77776696049,mAltel,mKarTel,mKarTel,,D07,2017-02-01T17:17:51+06:00,
1000000000321588,77774142023,mKarTel,mMTS,mKarTel,D77,D01,2017-02-01T17:17:48+06:00,
1000000000321589,77781896666,mAltel,mKcell,mKcell,D02,D07,2017-02-01T17:18:10+06:00,
1000000000321591,77010900049,mKarTel,mAltel,mKcell,D07,D01,2017-02-01T17:19:23+06:00,
1000000000321592,77019212058,mKarTel,mKcell,mKcell,,D01,2017-02-01T17:21:12+06:00,
1000000000321593,77017162325,mKcell,mKarTel,mKcell,D01,D02,2017-02-01T17:21:26+06:00,
1000000000321594,77474705747,mAltel,mMTS,mMTS,,D07,2017-02-01T17:22:08+06:00,
1000000000321596,77479064429,mKcell,mMTS,mMTS,,D02,2017-02-01T17:23:45+06:00,
1000000000321597,77072209250,mKarTel,mMTS,mMTS,,D01,2017-02-01T17:24:02+06:00,
1000000000321598,77774828282,mKarTel,mAltel,mKarTel,D07,D01,2017-02-01T17:24:45+06:00,
1000000000321599,77717486076,mKarTel,mAltel,mKarTel,D07,D01,2017-02-01T17:26:15+06:00,
1000000000321600,77475000088,mMTS,mKcell,mMTS,D02,D77,2017-02-01T17:26:53+06:00,
1000000000321602,77018055800,mAltel,mKcell,mKcell,,D07,2017-02-01T17:27:08+06:00,
1000000000321603,77001109800,mMTS,mAltel,mAltel,,D77,2017-02-01T17:27:45+06:00,
1000000000321604,77018876454,mAltel,mKcell,mKcell,,D07,2017-02-01T17:28:43+06:00,
1000000000321605,77076712712,mKcell,mMTS,mMTS,,D02,2017-02-01T17:29:01+06:00,
1000000000321606,77005511220,mMTS,mAltel,mAltel,,D77,2017-02-01T17:29:01+06:00,
