NPId,Number,RecipientId,DonorId,RangeHolderId,OldRoute,NewRoute,PortDate,RowCount
1000000000098459,77475180384,mAltel,mMTS,mMTS,,D07,2016-02-24T18:00:03+06:00,29
1000000000098461,77757517007,mMTS,mKcell,mKcell,,D77,2016-02-24T18:01:51+06:00,
1000000000098462,77757625742,mKarTel,mKcell,mKcell,,D01,2016-02-24T18:02:08+06:00,
1000000000098463,77014450003,mMTS,mKcell,mKcell,,D77,2016-02-24T18:02:26+06:00,
1000000000098464,77769306600,mMTS,mKarTel,mKarTel,,D77,2016-02-24T18:04:05+06:00,
1000000000098465,77054322990,mMTS,mKarTel,mKarTel,,D77,2016-02-24T18:07:10+06:00,
1000000000098466,77056079554,mMTS,mKarTel,mKarTel,,D77,2016-02-24T18:07:12+06:00,
1000000000098467,77015558355,mAltel,mKcell,mKcell,,D07,2016-02-24T18:07:42+06:00,
1000000000098468,77072843533,mAltel,mMTS,mMTS,,D07,2016-02-24T18:08:11+06:00,
1000000000098469,77771170003,mMTS,mKarTel,mKarTel,,D77,2016-02-24T18:09:59+06:00,
1000000000098470,77082559199,mMTS,mAltel,mAltel,,D77,2016-02-24T18:10:52+06:00,
1000000000098471,77079741991,mAltel,mMTS,mMTS,,D07,2016-02-24T18:12:21+06:00,
1000000000098472,77018884043,mAltel,mKcell,mKcell,,D07,2016-02-24T18:13:01+06:00,
1000000000098473,77751464696,mAltel,mKcell,mKcell,,D07,2016-02-24T18:15:09+06:00,
1000000000098475,77023333874,mMTS,mKcell,mKcell,,D77,2016-02-24T18:18:36+06:00,
1000000000098476,77011044447,mAltel,mKcell,mKcell,,D07,2016-02-24T18:18:49+06:00,
1000000000098477,77052999221,mKcell,mKarTel,mKarTel,,D02,2016-02-24T18:20:06+06:00,
1000000000098478,77028873166,mMTS,mKcell,mKcell,,D77,2016-02-24T18:19:35+06:00,
1000000000098479,77477840777,mAltel,mMTS,mMTS,,D07,2016-02-24T18:20:48+06:00,
1000000000098481,77769882171,mKcell,mKarTel,mKarTel,,D02,2016-02-24T18:23:24+06:00,
1000000000098482,77056966668,mAltel,mKarTel,mKarTel,,D07,2016-02-24T18:23:44+06:00,
1000000000098484,77019936190,mMTS,mKcell,mKcell,,D77,2016-02-24T18:24:01+06:00,
1000000000098485,77025633355,mMTS,mKcell,mKcell,,D77,2016-02-24T18:24:15+06:00,
1000000000098486,77018804515,mAltel,mKcell,mKcell,,D07,2016-02-24T18:24:13+06:00,
1000000000098487,77757739394,mAltel,mKcell,mKcell,,D07,2016-02-24T18:26:16+06:00,
1000000000098488,77025664566,mMTS,mKcell,mKcell,,D77,2016-02-24T18:26:42+06:00,
1000000000098491,77718256519,mMTS,mKarTel,mKarTel,,D77,2016-02-24T18:27:14+06:00,
1000000000098496,77787334305,mKarTel,mKcell,mKcell,,D01,2016-02-24T18:29:16+06:00,
1000000000098498,77026010986,mAltel,mKcell,mKcell,,D07,2016-02-24T18:29:09+06:00,
