NPId,Number,RecipientId,DonorId,RangeHolderId,OldRoute,NewRoute,PortDate,RowCount
1000000000375236,77775292636,mKarTel,mKcell,mKarTel,D02,D01,2017-04-30T17:30:28+06:00,34
1000000000375237,77473437850,mKarTel,mMTS,mMTS,,D01,2017-04-30T17:30:37+06:00,
1000000000375238,77777570011,mAltel,mKarTel,mKarTel,D01,D07,2017-04-30T17:31:07+06:00,
1000000000375239,77071900557,mMTS,mAltel,mMTS,D07,D77,2017-04-30T17:31:10+06:00,
1000000000375240,77024733997,mKarTel,mMTS,mKcell,D77,D01,2017-04-30T17:32:46+06:00,
1000000000375241,77005000489,mKcell,mAltel,mAltel,,D02,2017-04-30T17:33:36+06:00,
1000000000375242,77002300024,mMTS,mAltel,mAltel,,D77,2017-04-30T17:33:46+06:00,
1000000000375243,77713094370,mAltel,mKarTel,mKarTel,,D07,2017-04-30T17:34:16+06:00,
1000000000375244,77005000481,mKcell,mAltel,mAltel,,D02,2017-04-30T17:35:13+06:00,
1000000000375245,77076651566,mAltel,mMTS,mMTS,,D07,2017-04-30T17:36:22+06:00,
1000000000375247,77005000286,mKcell,mAltel,mAltel,,D02,2017-04-30T17:38:48+06:00,
1000000000375248,77005000483,mKcell,mAltel,mAltel,,D02,2017-04-30T17:39:00+06:00,
1000000000375249,77774700006,mMTS,mKarTel,mKarTel,,D77,2017-04-30T17:39:20+06:00,
1000000000375250,77751598581,mMTS,mKcell,mKcell,D02,D77,2017-04-30T17:39:19+06:00,
1000000000375251,77005000184,mKcell,mAltel,mAltel,,D02,2017-04-30T17:39:31+06:00,
1000000000375252,77005000982,mKcell,mAltel,mAltel,,D02,2017-04-30T17:39:56+06:00,
1000000000375254,77711024567,mKcell,mKarTel,mKarTel,,D02,2017-04-30T17:43:00+06:00,
1000000000375255,77765810606,mMTS,mKarTel,mKarTel,,D77,2017-04-30T17:43:04+06:00,
1000000000375256,77051381367,mMTS,mKarTel,mKarTel,,D77,2017-04-30T17:43:04+06:00,
1000000000375257,77007773870,mKcell,mAltel,mAltel,,D02,2017-04-30T17:43:22+06:00,
1000000000375258,77083210191,mKarTel,mAltel,mAltel,,D01,2017-04-30T17:43:45+06:00,
1000000000375259,77764590909,mMTS,mKarTel,mKarTel,,D77,2017-04-30T17:43:55+06:00,
1000000000375260,77015265949,mAltel,mKcell,mKcell,D02,D07,2017-04-30T17:43:57+06:00,
1000000000375261,77755577678,mKarTel,mKcell,mKcell,,D01,2017-04-30T17:44:39+06:00,
1000000000375262,77018008823,mKarTel,mMTS,mKcell,D77,D01,2017-04-30T17:44:39+06:00,
1000000000375263,77081115701,mKcell,mAltel,mAltel,,D02,2017-04-30T17:44:37+06:00,
1000000000375265,77025423202,mMTS,mKarTel,mKcell,D01,D77,2017-04-30T17:50:18+06:00,
1000000000375266,77779000969,mKarTel,mKcell,mKarTel,D02,D01,2017-04-30T17:50:31+06:00,
1000000000375267,77082110793,mKarTel,mAltel,mAltel,,D01,2017-04-30T17:52:15+06:00,
1000000000375270,77072629790,mKarTel,mMTS,mMTS,,D01,2017-04-30T17:53:29+06:00,
1000000000375271,77017700022,mAltel,mKcell,mKcell,,D07,2017-04-30T17:56:31+06:00,
1000000000375273,77001005055,mKcell,mAltel,mAltel,,D02,2017-04-30T17:57:38+06:00,
1000000000375274,77012415555,mKcell,mAltel,mKcell,D07,D02,2017-04-30T17:57:54+06:00,
1000000000375275,77017467372,mMTS,mKcell,mKcell,,D77,2017-04-30T17:57:53+06:00,
