NPId,Number,RecipientId,DonorId,RangeHolderId,OldRoute,NewRoute,PortDate,RowCount
1000000000299281,77077957255,mMTS,mKcell,mMTS,D02,D77,2016-12-23T16:32:59+06:00,38
1000000000299564,77001041990,mMTS,mAltel,mAltel,,D77,2016-12-23T16:30:33+06:00,
1000000000299565,77007778775,mKarTel,mAltel,mAltel,,D01,2016-12-23T16:31:18+06:00,
1000000000299566,77022853254,mMTS,mKcell,mKcell,,D77,2016-12-23T16:31:36+06:00,
1000000000299567,77053311405,mKcell,mKarTel,mKarTel,,D02,2016-12-23T16:32:10+06:00,
1000000000299569,77767787776,mMTS,mKarTel,mKarTel,,D77,2016-12-23T16:33:22+06:00,
1000000000299570,77075811818,mAltel,mMTS,mMTS,,D07,2016-12-23T16:34:21+06:00,
1000000000299571,77007772775,mKarTel,mAltel,mAltel,,D01,2016-12-23T16:34:43+06:00,
1000000000299572,77022106060,mKarTel,mKcell,mKcell,,D01,2016-12-23T16:37:00+06:00,
1000000000299573,77028880370,mKarTel,mKcell,mKcell,,D01,2016-12-23T16:37:38+06:00,
1000000000299574,77007772778,mKarTel,mAltel,mAltel,,D01,2016-12-23T16:37:42+06:00,
1000000000299575,77011150165,mKcell,mMTS,mKcell,D77,D02,2016-12-23T16:38:07+06:00,
1000000000299579,77089199525,mMTS,mAltel,mAltel,,D77,2016-12-23T16:40:47+06:00,
1000000000299581,77007775787,mKarTel,mAltel,mAltel,,D01,2016-12-23T16:42:24+06:00,
1000000000299582,77079177710,mMTS,mAltel,mMTS,D07,D77,2016-12-23T16:42:37+06:00,
1000000000299583,77011521111,mAltel,mKcell,mKcell,,D07,2016-12-23T16:43:10+06:00,
1000000000299585,77017233598,mMTS,mKcell,mKcell,,D77,2016-12-23T16:43:39+06:00,
1000000000299588,77783280069,mKarTel,mKcell,mKcell,,D01,2016-12-23T16:44:00+06:00,
1000000000299589,77001000739,mKcell,mAltel,mAltel,,D02,2016-12-23T16:44:01+06:00,
1000000000299590,77473115408,mAltel,mMTS,mMTS,,D07,2016-12-23T16:43:53+06:00,
1000000000299591,77001000734,mKcell,mAltel,mAltel,,D02,2016-12-23T16:45:05+06:00,
1000000000299592,77014125934,mKcell,mMTS,mKcell,D77,D02,2016-12-23T16:46:52+06:00,
1000000000299593,77001000754,mKcell,mAltel,mAltel,,D02,2016-12-23T16:46:55+06:00,
1000000000299594,77015380620,mKarTel,mKcell,mKcell,,D01,2016-12-23T16:47:14+06:00,
1000000000299595,77019895329,mKarTel,mKcell,mKcell,,D01,2016-12-23T16:48:05+06:00,
1000000000299596,77017057837,mMTS,mKcell,mKcell,,D77,2016-12-23T16:48:05+06:00,
1000000000299599,77071488525,mKcell,mMTS,mMTS,,D02,2016-12-23T16:49:48+06:00,
1000000000299600,77001000681,mKcell,mAltel,mAltel,,D02,2016-12-23T16:49:48+06:00,
1000000000299602,77017555560,mMTS,mAltel,mKcell,D07,D77,2016-12-23T16:50:41+06:00,
1000000000299603,77017057840,mMTS,mKcell,mKcell,,D77,2016-12-23T16:53:33+06:00,
1000000000299604,77001000684,mKcell,mAltel,mAltel,,D02,2016-12-23T16:52:38+06:00,
1000000000299605,77771563308,mKcell,mMTS,mKarTel,D77,D02,2016-12-23T16:52:35+06:00,
1000000000299606,77782683067,mMTS,mKcell,mKcell,,D77,2016-12-23T16:57:03+06:00,
1000000000299607,77013204778,mKcell,mMTS,mKcell,D77,D02,2016-12-23T16:53:16+06:00,
1000000000299609,77001000583,mKcell,mAltel,mAltel,,D02,2016-12-23T16:54:43+06:00,
1000000000299612,77028222214,mMTS,mKcell,mKcell,,D77,2016-12-23T16:57:06+06:00,
1000000000299613,77788601009,mMTS,mKcell,mKcell,,D77,2016-12-23T16:57:45+06:00,
1000000000299614,77011114100,mAltel,mKcell,mKcell,,D07,2016-12-23T16:58:04+06:00,
