NPId,Number,RecipientId,DonorId,RangeHolderId,OldRoute,NewRoute,PortDate,RowCount
1000000000308201,77071353856,mKcell,mMTS,mMTS,,D02,2017-01-09T20:39:56+06:00,2
1000000000308202,77755758171,mKcell,mMTS,mKcell,D77,D02,2017-01-09T20:45:08+06:00,
