NPId,Number,RecipientId,DonorId,RangeHolderId,OldRoute,NewRoute,PortDate,RowCount
1000000000394964,77781841666,mKcell,mKarTel,mKcell,D01,D02,2017-06-05T16:16:07+06:00,34
1000000000397344,77017214320,mKarTel,mKcell,mKcell,,D01,2017-06-05T16:05:06+06:00,
1000000000397344,77017214362,mKarTel,mKcell,mKcell,,D01,2017-06-05T16:05:06+06:00,
1000000000397772,77755602323,mKarTel,mKcell,mKcell,,D01,2017-06-05T16:03:08+06:00,
1000000000397773,77017121202,mKcell,mMTS,mKcell,D77,D02,2017-06-05T16:03:35+06:00,
1000000000397774,77007000791,mAltel,mKcell,mAltel,D02,D07,2017-06-05T16:03:54+06:00,
1000000000397776,77089153317,mMTS,mAltel,mAltel,,D77,2017-06-05T16:05:14+06:00,
1000000000397777,77014057993,mMTS,mKcell,mKcell,,D77,2017-06-05T16:06:08+06:00,
1000000000397778,77014408661,mKarTel,mKcell,mKcell,,D01,2017-06-05T16:06:59+06:00,
1000000000397779,77019991197,mKarTel,mKcell,mKcell,,D01,2017-06-05T16:07:08+06:00,
1000000000397780,77017272215,mMTS,mKcell,mKcell,,D77,2017-06-05T16:08:03+06:00,
1000000000397781,77775239841,mMTS,mKarTel,mKarTel,,D77,2017-06-05T16:09:45+06:00,
1000000000397782,77713803033,mMTS,mKarTel,mKarTel,,D77,2017-06-05T16:09:58+06:00,
1000000000397783,77472675610,mAltel,mMTS,mMTS,,D07,2017-06-05T16:10:28+06:00,
1000000000397786,77479505659,mAltel,mMTS,mMTS,,D07,2017-06-05T16:13:46+06:00,
1000000000397787,77777417655,mKcell,mKarTel,mKarTel,,D02,2017-06-05T16:14:54+06:00,
1000000000397788,77078957383,mKcell,mMTS,mMTS,,D02,2017-06-05T16:14:39+06:00,
1000000000397790,77073167661,mAltel,mMTS,mMTS,,D07,2017-06-05T16:16:04+06:00,
1000000000397792,77014974756,mAltel,mKcell,mKcell,,D07,2017-06-05T16:18:23+06:00,
1000000000397793,77078497635,mAltel,mMTS,mMTS,,D07,2017-06-05T16:18:47+06:00,
1000000000397794,77754906060,mAltel,mKcell,mKcell,,D07,2017-06-05T16:20:24+06:00,
1000000000397795,77015783320,mMTS,mKcell,mKcell,,D77,2017-06-05T16:21:27+06:00,
1000000000397796,77072571657,mAltel,mMTS,mMTS,,D07,2017-06-05T16:21:42+06:00,
1000000000397797,77714234210,mMTS,mKarTel,mKarTel,,D77,2017-06-05T16:22:13+06:00,
1000000000397798,77028883833,mAltel,mKcell,mKcell,,D07,2017-06-05T16:22:13+06:00,
1000000000397799,77011114802,mKarTel,mKcell,mKcell,,D01,2017-06-05T16:22:45+06:00,
1000000000397803,77022620440,mKcell,mAltel,mKcell,D07,D02,2017-06-05T16:24:22+06:00,
1000000000397804,77478603235,mAltel,mMTS,mMTS,,D07,2017-06-05T16:25:46+06:00,
1000000000397805,77079545448,mKcell,mMTS,mMTS,,D02,2017-06-05T16:26:29+06:00,
1000000000397806,77011817978,mMTS,mKcell,mKcell,,D77,2017-06-05T16:27:52+06:00,
1000000000397807,77478292884,mKarTel,mMTS,mMTS,,D01,2017-06-05T16:28:11+06:00,
1000000000397808,77079571657,mAltel,mMTS,mMTS,,D07,2017-06-05T16:28:05+06:00,
1000000000397809,77752596227,mMTS,mKcell,mKcell,,D77,2017-06-05T16:28:15+06:00,
1000000000397810,77076012701,mKcell,mMTS,mMTS,,D02,2017-06-05T16:28:31+06:00,
