NPId,Number,RecipientId,DonorId,RangeHolderId,OldRoute,NewRoute,PortDate,RowCount
1000000000336830,77022145366,mKarTel,mKcell,mKcell,,D01,2017-02-28T12:01:14+06:00,50
1000000000336831,77471484877,mKcell,mMTS,mMTS,,D02,2017-02-28T12:01:16+06:00,
1000000000336832,77777628144,mMTS,mKarTel,mKarTel,,D77,2017-02-28T12:02:06+06:00,
1000000000336833,77781120003,mKcell,mKarTel,mKcell,D01,D02,2017-02-28T12:02:26+06:00,
1000000000336839,77015385888,mKarTel,mKcell,mKcell,,D01,2017-02-28T12:02:42+06:00,
1000000000336840,77015183326,mKarTel,mKcell,mKcell,,D01,2017-02-28T12:03:06+06:00,
1000000000336849,77054112237,mMTS,mKarTel,mKarTel,,D77,2017-02-28T12:05:47+06:00,
1000000000336854,77022145367,mKarTel,mKcell,mKcell,,D01,2017-02-28T12:07:21+06:00,
1000000000336860,77761118006,mKcell,mKarTel,mKarTel,,D02,2017-02-28T12:08:53+06:00,
1000000000336865,77083585642,mKarTel,mAltel,mAltel,,D01,2017-02-28T12:09:46+06:00,
1000000000336866,77761118009,mKcell,mKarTel,mKarTel,,D02,2017-02-28T12:10:09+06:00,
1000000000336870,77015318454,mMTS,mKcell,mKcell,,D77,2017-02-28T12:10:21+06:00,
1000000000336874,77015053303,mMTS,mKcell,mKcell,D02,D77,2017-02-28T12:11:50+06:00,
1000000000336875,77788789391,mKarTel,mKcell,mKcell,,D01,2017-02-28T12:12:18+06:00,
1000000000336877,77075388843,mAltel,mMTS,mMTS,D77,D07,2017-02-28T12:12:13+06:00,
1000000000336878,77055525470,mMTS,mKarTel,mKarTel,,D77,2017-02-28T12:12:53+06:00,
1000000000336879,77001002120,mMTS,mAltel,mAltel,,D77,2017-02-28T12:12:41+06:00,
1000000000336880,77772325492,mMTS,mKarTel,mKarTel,,D77,2017-02-28T12:13:05+06:00,
1000000000336882,77008000408,mMTS,mAltel,mAltel,,D77,2017-02-28T12:14:17+06:00,
1000000000336883,77019989355,mKcell,mKarTel,mKcell,D01,D02,2017-02-28T12:15:16+06:00,
1000000000336885,77029831840,mKcell,mMTS,mKcell,D77,D02,2017-02-28T12:15:06+06:00,
1000000000336887,77011212441,mKcell,mMTS,mKcell,D77,D02,2017-02-28T12:15:44+06:00,
1000000000336888,77015183300,mKarTel,mKcell,mKcell,,D01,2017-02-28T12:15:55+06:00,
1000000000336889,77475727459,mKcell,mMTS,mMTS,,D02,2017-02-28T12:15:53+06:00,
1000000000336890,77756869703,mAltel,mKcell,mKcell,,D07,2017-02-28T12:16:17+06:00,
1000000000336891,77765999901,mMTS,mKarTel,mKarTel,,D77,2017-02-28T12:16:29+06:00,
1000000000336892,77786932831,mKarTel,mMTS,mKcell,D77,D01,2017-02-28T12:17:08+06:00,
1000000000336894,77785943367,mMTS,mKcell,mKcell,,D77,2017-02-28T12:17:49+06:00,
1000000000336895,77786350227,mKarTel,mKcell,mKcell,,D01,2017-02-28T12:18:41+06:00,
1000000000336896,77055036263,mKcell,mKarTel,mKarTel,,D02,2017-02-28T12:19:28+06:00,
1000000000336897,77015113525,mKarTel,mKcell,mKcell,,D01,2017-02-28T12:19:41+06:00,
1000000000336898,77013361450,mKarTel,mKcell,mKcell,,D01,2017-02-28T12:19:54+06:00,
1000000000336899,77017252639,mMTS,mKcell,mKcell,,D77,2017-02-28T12:19:56+06:00,
1000000000336900,77015440959,mKcell,mKarTel,mKcell,D01,D02,2017-02-28T12:20:35+06:00,
1000000000336903,77078484300,mAltel,mMTS,mMTS,,D07,2017-02-28T12:21:00+06:00,
1000000000336904,77055155500,mMTS,mKarTel,mKarTel,,D77,2017-02-28T12:22:04+06:00,
1000000000336905,77017493321,mAltel,mKcell,mKcell,,D07,2017-02-28T12:21:37+06:00,
1000000000336906,77761118090,mKcell,mKarTel,mKarTel,,D02,2017-02-28T12:22:34+06:00,
1000000000336907,77009181636,mAltel,mMTS,mAltel,D77,D07,2017-02-28T12:22:10+06:00,
1000000000336909,77753012254,mMTS,mKcell,mKcell,,D77,2017-02-28T12:22:49+06:00,
1000000000336910,77011409030,mMTS,mKcell,mKcell,,D77,2017-02-28T12:22:53+06:00,
1000000000336913,77756282820,mAltel,mKcell,mKcell,,D07,2017-02-28T12:24:38+06:00,
1000000000336914,77761119002,mKcell,mKarTel,mKarTel,,D02,2017-02-28T12:25:45+06:00,
1000000000336916,77029723777,mKcell,mKarTel,mKcell,D01,D02,2017-02-28T12:26:34+06:00,
1000000000336917,77015183325,mKarTel,mKcell,mKcell,,D01,2017-02-28T12:26:41+06:00,
1000000000336918,77754939332,mAltel,mKcell,mKcell,,D07,2017-02-28T12:26:39+06:00,
1000000000336920,77766055535,mKcell,mKarTel,mKarTel,,D02,2017-02-28T12:28:05+06:00,
1000000000336921,77774606844,mMTS,mKarTel,mKarTel,,D77,2017-02-28T12:28:07+06:00,
1000000000336922,77052914040,mMTS,mKarTel,mKarTel,,D77,2017-02-28T12:28:07+06:00,
1000000000336925,77477742707,mKcell,mMTS,mMTS,,D02,2017-02-28T12:29:27+06:00,
