NPId,Number,RecipientId,DonorId,RangeHolderId,OldRoute,NewRoute,PortDate,RowCount
1000000000394436,77010145158,mKarTel,mKcell,mKcell,,D01,2017-06-01T20:51:10+06:00,56
1000000000394436,77010145458,mKarTel,mKcell,mKcell,,D01,2017-06-01T20:51:10+06:00,
1000000000394436,77010145878,mKarTel,mKcell,mKcell,,D01,2017-06-01T20:51:10+06:00,
1000000000394436,77010145898,mKarTel,mKcell,mKcell,,D01,2017-06-01T20:51:10+06:00,
1000000000394436,77010984401,mKarTel,mKcell,mKcell,,D01,2017-06-01T20:51:10+06:00,
1000000000394436,77010984402,mKarTel,mKcell,mKcell,,D01,2017-06-01T20:51:10+06:00,
1000000000394436,77012251133,mKarTel,mKcell,mKcell,,D01,2017-06-01T20:51:10+06:00,
1000000000394436,77015069810,mKarTel,mKcell,mKcell,,D01,2017-06-01T20:51:10+06:00,
1000000000394436,77015069820,mKarTel,mKcell,mKcell,,D01,2017-06-01T20:51:10+06:00,
1000000000394436,77015069830,mKarTel,mKcell,mKcell,,D01,2017-06-01T20:51:10+06:00,
1000000000394436,77015069840,mKarTel,mKcell,mKcell,,D01,2017-06-01T20:51:10+06:00,
1000000000394436,77015069850,mKarTel,mKcell,mKcell,,D01,2017-06-01T20:51:10+06:00,
1000000000394436,77015122928,mKarTel,mKcell,mKcell,,D01,2017-06-01T20:51:10+06:00,
1000000000394436,77015124048,mKarTel,mKcell,mKcell,,D01,2017-06-01T20:51:10+06:00,
1000000000394436,77015507330,mKarTel,mKcell,mKcell,,D01,2017-06-01T20:51:10+06:00,
1000000000394436,77017052767,mKarTel,mKcell,mKcell,,D01,2017-06-01T20:51:10+06:00,
1000000000394436,77017058303,mKarTel,mKcell,mKcell,,D01,2017-06-01T20:51:10+06:00,
1000000000394436,77017214298,mKarTel,mKcell,mKcell,,D01,2017-06-01T20:51:10+06:00,
1000000000394436,77017214299,mKarTel,mKcell,mKcell,,D01,2017-06-01T20:51:10+06:00,
1000000000394436,77017214300,mKarTel,mKcell,mKcell,,D01,2017-06-01T20:51:10+06:00,
1000000000394436,77017214325,mKarTel,mKcell,mKcell,,D01,2017-06-01T20:51:10+06:00,
1000000000394436,77017214328,mKarTel,mKcell,mKcell,,D01,2017-06-01T20:51:10+06:00,
1000000000394436,77017214332,mKarTel,mKcell,mKcell,,D01,2017-06-01T20:51:10+06:00,
1000000000394436,77017214335,mKarTel,mKcell,mKcell,,D01,2017-06-01T20:51:10+06:00,
1000000000394436,77017214337,mKarTel,mKcell,mKcell,,D01,2017-06-01T20:51:10+06:00,
1000000000394436,77017214377,mKarTel,mKcell,mKcell,,D01,2017-06-01T20:51:10+06:00,
1000000000394436,77017214391,mKarTel,mKcell,mKcell,,D01,2017-06-01T20:51:10+06:00,
1000000000394436,77017214396,mKarTel,mKcell,mKcell,,D01,2017-06-01T20:51:10+06:00,
1000000000394436,77017214418,mKarTel,mKcell,mKcell,,D01,2017-06-01T20:51:10+06:00,
1000000000394436,77017214427,mKarTel,mKcell,mKcell,,D01,2017-06-01T20:51:10+06:00,
1000000000394436,77017214435,mKarTel,mKcell,mKcell,,D01,2017-06-01T20:51:10+06:00,
1000000000394436,77017214450,mKarTel,mKcell,mKcell,,D01,2017-06-01T20:51:10+06:00,
1000000000394436,77017214456,mKarTel,mKcell,mKcell,,D01,2017-06-01T20:51:10+06:00,
1000000000394436,77017214472,mKarTel,mKcell,mKcell,,D01,2017-06-01T20:51:10+06:00,
1000000000394436,77017214476,mKarTel,mKcell,mKcell,,D01,2017-06-01T20:51:10+06:00,
1000000000394436,77017214481,mKarTel,mKcell,mKcell,,D01,2017-06-01T20:51:10+06:00,
1000000000394436,77017551818,mKarTel,mKcell,mKcell,,D01,2017-06-01T20:51:10+06:00,
1000000000394436,77019853242,mKarTel,mKcell,mKcell,,D01,2017-06-01T20:51:10+06:00,
1000000000394436,77019859719,mKarTel,mKcell,mKcell,,D01,2017-06-01T20:51:10+06:00,
1000000000394436,77019859726,mKarTel,mKcell,mKcell,,D01,2017-06-01T20:51:10+06:00,
1000000000394436,77019859728,mKarTel,mKcell,mKcell,,D01,2017-06-01T20:51:10+06:00,
1000000000394436,77019859730,mKarTel,mKcell,mKcell,,D01,2017-06-01T20:51:10+06:00,
1000000000394436,77019859731,mKarTel,mKcell,mKcell,,D01,2017-06-01T20:51:10+06:00,
1000000000394436,77019951548,mKarTel,mKcell,mKcell,,D01,2017-06-01T20:51:10+06:00,
1000000000394436,77019951568,mKarTel,mKcell,mKcell,,D01,2017-06-01T20:51:10+06:00,
1000000000394436,77019951578,mKarTel,mKcell,mKcell,,D01,2017-06-01T20:51:10+06:00,
1000000000394436,77019955035,mKarTel,mKcell,mKcell,,D01,2017-06-01T20:51:10+06:00,
1000000000394436,77019955135,mKarTel,mKcell,mKcell,,D01,2017-06-01T20:51:10+06:00,
1000000000394436,77019956023,mKarTel,mKcell,mKcell,,D01,2017-06-01T20:51:10+06:00,
1000000000394436,77019956029,mKarTel,mKcell,mKcell,,D01,2017-06-01T20:51:10+06:00,
1000000000394436,77019956034,mKarTel,mKcell,mKcell,,D01,2017-06-01T20:51:10+06:00,
1000000000394436,77019956038,mKarTel,mKcell,mKcell,,D01,2017-06-01T20:51:10+06:00,
1000000000395522,77011118231,mMTS,mKarTel,mKcell,D01,D77,2017-06-01T20:35:00+06:00,
1000000000395523,77715656956,mKcell,mKarTel,mKarTel,,D02,2017-06-01T20:40:57+06:00,
1000000000395524,77071320282,mKarTel,mMTS,mMTS,,D01,2017-06-01T20:45:31+06:00,
1000000000395526,77015510051,mKarTel,mKcell,mKcell,D02,D01,2017-06-01T20:55:54+06:00,
