NPId,Number,RecipientId,DonorId,RangeHolderId,OldRoute,NewRoute,PortDate,RowCount
1000000000266630,77023906990,mKarTel,mKcell,mKcell,,D01,2016-10-22T16:31:53+06:00,24
1000000000266631,77078092020,mMTS,mAltel,mMTS,D07,D77,2016-10-22T16:32:30+06:00,
1000000000266633,77077291275,mKcell,mMTS,mMTS,,D02,2016-10-22T16:34:34+06:00,
1000000000266634,77007571972,mKcell,mAltel,mAltel,,D02,2016-10-22T16:35:34+06:00,
1000000000266635,77751502602,mKarTel,mKcell,mKcell,,D01,2016-10-22T16:35:48+06:00,
1000000000266636,77051011137,mMTS,mKarTel,mKarTel,,D77,2016-10-22T16:36:53+06:00,
1000000000266637,77071110072,mKcell,mMTS,mMTS,D77,D02,2016-10-22T16:39:24+06:00,
1000000000266639,77021118697,mMTS,mKcell,mKcell,,D77,2016-10-22T16:42:22+06:00,
1000000000266640,77070001972,mKcell,mMTS,mMTS,,D02,2016-10-22T16:44:17+06:00,
1000000000266641,77018512886,mMTS,mKcell,mKcell,,D77,2016-10-22T16:44:18+06:00,
1000000000266642,77751328300,mMTS,mKcell,mKcell,,D77,2016-10-22T16:44:32+06:00,
1000000000266643,77786462424,mMTS,mKcell,mKcell,,D77,2016-10-22T16:44:34+06:00,
1000000000266644,77013302353,mKcell,mMTS,mKcell,D77,D02,2016-10-22T16:45:12+06:00,
1000000000266645,77075269636,mKarTel,mMTS,mMTS,,D01,2016-10-22T16:45:23+06:00,
1000000000266646,77077333506,mMTS,mKcell,mMTS,D02,D77,2016-10-22T16:46:15+06:00,
1000000000266647,77054583610,mKarTel,mMTS,mKarTel,D77,D01,2016-10-22T16:47:19+06:00,
1000000000266649,77751633319,mAltel,mKcell,mKcell,,D07,2016-10-22T16:48:29+06:00,
1000000000266650,77757997953,mKarTel,mKcell,mKcell,,D01,2016-10-22T16:48:47+06:00,
1000000000266651,77758823400,mMTS,mKcell,mKcell,,D77,2016-10-22T16:49:30+06:00,
1000000000266652,77017732254,mKcell,mKarTel,mKcell,D01,D02,2016-10-22T16:50:37+06:00,
1000000000266653,77786782828,mKarTel,mKcell,mKcell,,D01,2016-10-22T16:51:59+06:00,
1000000000266654,77786231260,mAltel,mMTS,mKcell,D77,D07,2016-10-22T16:53:45+06:00,
1000000000266655,77754444433,mMTS,mKcell,mKcell,,D77,2016-10-22T16:54:48+06:00,
1000000000266656,77789461737,mMTS,mKcell,mKcell,,D77,2016-10-22T16:57:38+06:00,
