NPId,Number,RecipientId,DonorId,RangeHolderId,OldRoute,NewRoute,PortDate,RowCount
1000000000167499,77075549191,mAltel,mMTS,mMTS,,D07,2016-05-04T17:00:16+06:00,51
1000000000167500,77081889111,mMTS,mAltel,mAltel,,D77,2016-05-04T17:00:34+06:00,
1000000000167501,77774144871,mMTS,mKarTel,mKarTel,,D77,2016-05-04T17:01:06+06:00,
1000000000167502,77754111927,mMTS,mKcell,mKcell,,D77,2016-05-04T17:01:34+06:00,
1000000000167505,77055613352,mKcell,mKarTel,mKarTel,,D02,2016-05-04T17:02:29+06:00,
1000000000167506,77004534091,mKcell,mAltel,mAltel,,D02,2016-05-04T17:02:43+06:00,
1000000000167508,77023332282,mMTS,mKcell,mKcell,,D77,2016-05-04T17:06:00+06:00,
1000000000167509,77759592000,mMTS,mAltel,mKcell,D07,D77,2016-05-04T17:05:56+06:00,
1000000000167510,77071110325,mKarTel,mMTS,mMTS,,D01,2016-05-04T17:06:13+06:00,
1000000000167511,77775169363,mKcell,mKarTel,mKarTel,,D02,2016-05-04T17:06:58+06:00,
1000000000167512,77752244402,mKcell,mKarTel,mKcell,D01,D02,2016-05-04T17:07:15+06:00,
1000000000167513,77773186254,mMTS,mKarTel,mKarTel,,D77,2016-05-04T17:06:50+06:00,
1000000000167514,77015191980,mMTS,mAltel,mKcell,D07,D77,2016-05-04T17:06:44+06:00,
1000000000167515,77712299581,mMTS,mKarTel,mKarTel,,D77,2016-05-04T17:07:09+06:00,
1000000000167516,77011915837,mMTS,mKcell,mKcell,,D77,2016-05-04T17:07:15+06:00,
1000000000167518,77776567070,mAltel,mKarTel,mKarTel,,D07,2016-05-04T17:08:20+06:00,
1000000000167520,77004077400,mMTS,mAltel,mAltel,,D77,2016-05-04T17:08:49+06:00,
1000000000167521,77783398787,mKcell,mKarTel,mKcell,D01,D02,2016-05-04T17:10:25+06:00,
1000000000167522,77754268156,mKarTel,mKcell,mKcell,,D01,2016-05-04T17:10:04+06:00,
1000000000167523,77017430735,mMTS,mKcell,mKcell,,D77,2016-05-04T17:09:52+06:00,
1000000000167524,77076305000,mKarTel,mMTS,mMTS,,D01,2016-05-04T17:09:57+06:00,
1000000000167526,77013898848,mMTS,mKcell,mKcell,,D77,2016-05-04T17:11:32+06:00,
1000000000167527,77077770844,mKarTel,mMTS,mMTS,,D01,2016-05-04T17:12:00+06:00,
1000000000167528,77079070971,mKarTel,mMTS,mMTS,,D01,2016-05-04T17:12:41+06:00,
1000000000167529,77762762377,mKarTel,mMTS,mKarTel,D77,D01,2016-05-04T17:14:10+06:00,
1000000000167530,77777777873,mMTS,mKarTel,mKarTel,,D77,2016-05-04T17:15:04+06:00,
1000000000167531,77015798176,mKarTel,mKcell,mKcell,,D01,2016-05-04T17:15:51+06:00,
1000000000167532,77028720808,mKarTel,mKcell,mKcell,,D01,2016-05-04T17:16:12+06:00,
1000000000167533,77773113777,mMTS,mKarTel,mKarTel,,D77,2016-05-04T17:16:41+06:00,
1000000000167534,77766863232,mKcell,mKarTel,mKarTel,,D02,2016-05-04T17:17:12+06:00,
1000000000167536,77018488818,mKarTel,mKcell,mKcell,,D01,2016-05-04T17:17:41+06:00,
1000000000167537,77054428367,mKcell,mKarTel,mKarTel,,D02,2016-05-04T17:18:08+06:00,
1000000000167538,77011404786,mKarTel,mKcell,mKcell,,D01,2016-05-04T17:17:57+06:00,
1000000000167539,77017564534,mMTS,mKcell,mKcell,,D77,2016-05-04T17:18:28+06:00,
1000000000167540,77755222001,mMTS,mKcell,mKcell,,D77,2016-05-04T17:19:18+06:00,
1000000000167541,77077600070,mKarTel,mAltel,mMTS,D07,D01,2016-05-04T17:19:17+06:00,
1000000000167542,77772228221,mAltel,mKarTel,mKarTel,,D07,2016-05-04T17:21:50+06:00,
1000000000167543,77755448335,mMTS,mKcell,mKcell,,D77,2016-05-04T17:21:45+06:00,
1000000000167544,77085430292,mMTS,mAltel,mAltel,,D77,2016-05-04T17:21:44+06:00,
1000000000167545,77784241995,mMTS,mKcell,mKcell,,D77,2016-05-04T17:22:38+06:00,
1000000000167546,77471306131,mMTS,mAltel,mMTS,D07,D77,2016-05-04T17:22:52+06:00,
1000000000167547,77719993832,mMTS,mKarTel,mKarTel,,D77,2016-05-04T17:23:20+06:00,
1000000000167548,77782770080,mMTS,mKcell,mKcell,,D77,2016-05-04T17:23:28+06:00,
1000000000167549,77012772804,mMTS,mKcell,mKcell,,D77,2016-05-04T17:26:30+06:00,
1000000000167551,77082703366,mMTS,mAltel,mAltel,,D77,2016-05-04T17:25:11+06:00,
1000000000167552,77775799154,mKarTel,mAltel,mKarTel,D07,D01,2016-05-04T17:25:32+06:00,
1000000000167553,77759557171,mMTS,mKcell,mKcell,,D77,2016-05-04T17:26:34+06:00,
1000000000167554,77081127535,mMTS,mAltel,mAltel,,D77,2016-05-04T17:26:18+06:00,
1000000000167555,77007222322,mKcell,mAltel,mAltel,,D02,2016-05-04T17:28:42+06:00,
1000000000167556,77011248090,mMTS,mKcell,mKcell,,D77,2016-05-04T17:27:51+06:00,
1000000000167558,77024004441,mMTS,mKcell,mKcell,,D77,2016-05-04T17:28:29+06:00,
