NPId,Number,RecipientId,DonorId,RangeHolderId,OldRoute,NewRoute,PortDate,RowCount
1000000000343381,77014812929,mMTS,mKcell,mKcell,,D77,2017-03-08T14:01:44+06:00,6
1000000000343384,77026156333,mMTS,mKcell,mKcell,,D77,2017-03-08T14:16:52+06:00,
1000000000343385,77076103787,mAltel,mMTS,mMTS,,D07,2017-03-08T14:18:27+06:00,
1000000000343386,77781777724,mMTS,mKcell,mKcell,,D77,2017-03-08T14:19:40+06:00,
1000000000343387,77002431524,mKarTel,mAltel,mAltel,,D01,2017-03-08T14:21:09+06:00,
1000000000343390,77753658027,mKarTel,mKcell,mKcell,D02,D01,2017-03-08T14:24:44+06:00,
