NPId,Number,RecipientId,DonorId,RangeHolderId,OldRoute,NewRoute,PortDate,RowCount
1000000000325880,77074747414,mKcell,mMTS,mMTS,,D02,2017-02-08T15:32:44+06:00,27
1000000000325881,77762200111,mMTS,mKarTel,mKarTel,,D77,2017-02-08T15:33:06+06:00,
1000000000325882,77029730363,mMTS,mKcell,mKcell,,D77,2017-02-08T15:32:53+06:00,
1000000000325883,77054440047,mKcell,mKarTel,mKarTel,,D02,2017-02-08T15:33:54+06:00,
1000000000325884,77071868866,mKcell,mMTS,mMTS,,D02,2017-02-08T15:34:28+06:00,
1000000000325885,77073362010,mAltel,mMTS,mMTS,,D07,2017-02-08T15:34:50+06:00,
1000000000325886,77058759000,mAltel,mMTS,mKarTel,D77,D07,2017-02-08T15:35:22+06:00,
1000000000325888,77752673533,mMTS,mKcell,mKcell,,D77,2017-02-08T15:36:44+06:00,
1000000000325891,77053172008,mKarTel,mMTS,mKarTel,D77,D01,2017-02-08T15:40:20+06:00,
1000000000325894,77770785507,mKcell,mKarTel,mKarTel,,D02,2017-02-08T15:57:47+06:00,
1000000000325895,77774161000,mKarTel,mMTS,mKarTel,D77,D01,2017-02-08T15:43:16+06:00,
1000000000325896,77015336823,mMTS,mKcell,mKcell,,D77,2017-02-08T15:45:17+06:00,
1000000000325897,77055552156,mAltel,mKarTel,mKarTel,,D07,2017-02-08T15:48:18+06:00,
1000000000325898,77717750355,mKcell,mKarTel,mKarTel,,D02,2017-02-08T15:48:37+06:00,
1000000000325900,77713608800,mKcell,mKarTel,mKarTel,,D02,2017-02-08T15:50:51+06:00,
1000000000325902,77763981818,mMTS,mKarTel,mKarTel,,D77,2017-02-08T15:51:52+06:00,
1000000000325903,77770785508,mKcell,mKarTel,mKarTel,,D02,2017-02-08T15:52:25+06:00,
1000000000325904,77473330087,mKcell,mMTS,mMTS,,D02,2017-02-08T15:52:25+06:00,
1000000000325905,77788367661,mMTS,mKcell,mKcell,,D77,2017-02-08T15:52:51+06:00,
1000000000325906,77015999837,mKcell,mMTS,mKcell,D77,D02,2017-02-08T15:53:05+06:00,
1000000000325907,77711354400,mKcell,mKarTel,mKarTel,,D02,2017-02-08T15:55:03+06:00,
1000000000325908,77017742042,mKarTel,mKcell,mKcell,,D01,2017-02-08T15:54:55+06:00,
1000000000325911,77012778056,mKarTel,mKcell,mKcell,,D01,2017-02-08T15:56:31+06:00,
1000000000325912,77019176700,mKarTel,mKcell,mKcell,,D01,2017-02-08T15:56:41+06:00,
1000000000325913,77007120611,mKcell,mAltel,mAltel,,D02,2017-02-08T15:58:06+06:00,
1000000000325914,77772771203,mKcell,mKarTel,mKarTel,,D02,2017-02-08T15:59:13+06:00,
1000000000325915,77758282854,mKarTel,mKcell,mKcell,,D01,2017-02-08T15:59:07+06:00,
