NPId,Number,RecipientId,DonorId,RangeHolderId,OldRoute,NewRoute,PortDate,RowCount
1000000000267034,77768582626,mMTS,mKarTel,mKarTel,,D77,2016-10-24T10:01:46+06:00,15
1000000000267035,77015206616,mMTS,mKcell,mKcell,,D77,2016-10-24T10:02:36+06:00,
1000000000267037,77474969005,mAltel,mMTS,mMTS,,D07,2016-10-24T10:03:49+06:00,
1000000000267038,77078078584,mAltel,mMTS,mMTS,,D07,2016-10-24T10:04:48+06:00,
1000000000267040,77779820814,mKcell,mKarTel,mKarTel,,D02,2016-10-24T10:10:56+06:00,
1000000000267042,77083599906,mKcell,mAltel,mAltel,,D02,2016-10-24T10:11:18+06:00,
1000000000267043,77078070797,mKcell,mMTS,mMTS,,D02,2016-10-24T10:14:58+06:00,
1000000000267045,77781002324,mKcell,mMTS,mKcell,D77,D02,2016-10-24T10:16:56+06:00,
1000000000267046,77774701902,mKarTel,mKcell,mKarTel,D02,D01,2016-10-24T10:18:42+06:00,
1000000000267047,77012263638,mKarTel,mKcell,mKcell,,D01,2016-10-24T10:18:47+06:00,
1000000000267048,77775373778,mMTS,mKarTel,mKarTel,,D77,2016-10-24T10:25:20+06:00,
1000000000267049,77787773877,mKarTel,mKcell,mKcell,,D01,2016-10-24T10:25:41+06:00,
1000000000267050,77014772550,mKarTel,mKcell,mKcell,,D01,2016-10-24T10:27:10+06:00,
1000000000267051,77017668481,mKarTel,mKcell,mKcell,,D01,2016-10-24T10:28:15+06:00,
1000000000267052,77085012016,mKcell,mAltel,mAltel,,D02,2016-10-24T10:28:23+06:00,
