NPId,Number,RecipientId,DonorId,RangeHolderId,OldRoute,NewRoute,PortDate,RowCount
1000000000285952,77071012345,mKcell,mMTS,mMTS,,D02,2016-11-29T12:04:23+06:00,15
1000000000285954,77003377735,mMTS,mAltel,mAltel,,D77,2016-11-29T12:07:31+06:00,
1000000000285955,77757080818,mAltel,mKcell,mKcell,,D07,2016-11-29T12:08:05+06:00,
1000000000285956,77027872447,mMTS,mKcell,mKcell,,D77,2016-11-29T12:09:08+06:00,
1000000000285957,77759134868,mKcell,mMTS,mKcell,D77,D02,2016-11-29T12:12:56+06:00,
1000000000285958,77013493401,mMTS,mKcell,mKcell,,D77,2016-11-29T12:12:54+06:00,
1000000000285960,77072342050,mAltel,mMTS,mMTS,,D07,2016-11-29T12:15:22+06:00,
1000000000285961,77754990951,mAltel,mKcell,mKcell,,D07,2016-11-29T12:15:46+06:00,
1000000000285962,77013333134,mKarTel,mKcell,mKcell,D02,D01,2016-11-29T12:16:36+06:00,
1000000000285963,77718017085,mKcell,mKarTel,mKarTel,,D02,2016-11-29T12:22:23+06:00,
1000000000285964,77753687786,mMTS,mKcell,mKcell,,D77,2016-11-29T12:23:40+06:00,
1000000000285965,77751293759,mKcell,mMTS,mKcell,D77,D02,2016-11-29T12:23:49+06:00,
1000000000285966,77086936735,mAltel,mMTS,mAltel,D77,D07,2016-11-29T12:24:50+06:00,
1000000000285967,77052848787,mMTS,mKarTel,mKarTel,,D77,2016-11-29T12:27:00+06:00,
1000000000285970,77716036345,mMTS,mKarTel,mKarTel,,D77,2016-11-29T12:29:28+06:00,
