NPId,Number,RecipientId,DonorId,RangeHolderId,OldRoute,NewRoute,PortDate,RowCount
1000000000127446,77771776700,mMTS,mKarTel,mKarTel,,D77,2016-03-17T12:30:11+06:00,23
1000000000127450,77715837575,mMTS,mKarTel,mKarTel,,D77,2016-03-17T12:36:15+06:00,
1000000000127451,77015594549,mMTS,mKcell,mKcell,,D77,2016-03-17T12:36:03+06:00,
1000000000127452,77783239999,mMTS,mAltel,mKcell,D07,D77,2016-03-17T12:36:05+06:00,
1000000000127454,77017238686,mMTS,mKcell,mKcell,,D77,2016-03-17T12:39:40+06:00,
1000000000127456,77718156886,mAltel,mKarTel,mKarTel,,D07,2016-03-17T12:41:41+06:00,
1000000000127460,77714242055,mMTS,mKarTel,mKarTel,,D77,2016-03-17T12:42:53+06:00,
1000000000127461,77027977435,mMTS,mKcell,mKcell,,D77,2016-03-17T12:42:47+06:00,
1000000000127462,77016864614,mAltel,mKcell,mKcell,,D07,2016-03-17T12:42:32+06:00,
1000000000127463,77016629099,mAltel,mKcell,mKcell,,D07,2016-03-17T12:44:02+06:00,
1000000000127464,77474075977,mAltel,mMTS,mMTS,,D07,2016-03-17T12:45:07+06:00,
1000000000127468,77027982150,mMTS,mKcell,mKcell,,D77,2016-03-17T12:48:32+06:00,
1000000000127469,77003707888,mKcell,mAltel,mAltel,,D02,2016-03-17T12:50:03+06:00,
1000000000127474,77717777745,mMTS,mKarTel,mKarTel,,D77,2016-03-17T12:52:53+06:00,
1000000000127476,77003505888,mKcell,mAltel,mAltel,,D02,2016-03-17T12:52:36+06:00,
1000000000127477,77755102010,mMTS,mKcell,mKcell,,D77,2016-03-17T12:52:41+06:00,
1000000000127478,77089084355,mMTS,mAltel,mAltel,,D77,2016-03-17T12:52:30+06:00,
1000000000127481,77013770700,mAltel,mKcell,mKcell,,D07,2016-03-17T12:55:19+06:00,
1000000000127482,77011331193,mAltel,mKcell,mKcell,,D07,2016-03-17T12:56:05+06:00,
1000000000127483,77017777233,mMTS,mKcell,mKcell,,D77,2016-03-17T12:56:42+06:00,
1000000000127485,77014450919,mAltel,mKcell,mKcell,,D07,2016-03-17T12:58:18+06:00,
1000000000127486,77051401101,mKarTel,mMTS,mKarTel,D77,D01,2016-03-17T12:59:49+06:00,
1000000000127487,77012227004,mMTS,mKcell,mKcell,,D77,2016-03-17T12:59:54+06:00,
