NPId,Number,RecipientId,DonorId,RangeHolderId,OldRoute,NewRoute,PortDate,RowCount
1000000000443977,77015443812,mKarTel,mKcell,mKcell,,D01,2017-08-22T17:30:02+06:00,21
1000000000443980,77775070103,mMTS,mKarTel,mKarTel,,D77,2017-08-22T17:30:32+06:00,
1000000000443981,77076847983,mKarTel,mMTS,mMTS,,D01,2017-08-22T17:30:30+06:00,
1000000000443984,77716168989,mMTS,mKarTel,mKarTel,,D77,2017-08-22T17:33:32+06:00,
1000000000443988,77016886626,mAltel,mKcell,mKcell,,D07,2017-08-22T17:36:21+06:00,
1000000000443989,77754574971,mKarTel,mKcell,mKcell,,D01,2017-08-22T17:37:47+06:00,
1000000000443990,77023526365,mMTS,mKcell,mKcell,D02,D77,2017-08-22T17:37:44+06:00,
1000000000443992,77016979797,mMTS,mKcell,mKcell,,D77,2017-08-22T17:42:23+06:00,
1000000000443993,77013156592,mMTS,mKcell,mKcell,,D77,2017-08-22T17:42:48+06:00,
1000000000443994,77754599292,mKarTel,mKcell,mKcell,,D01,2017-08-22T17:43:02+06:00,
1000000000443995,77751146664,mMTS,mKcell,mKcell,,D77,2017-08-22T17:42:53+06:00,
1000000000443997,77000005050,mMTS,mAltel,mAltel,,D77,2017-08-22T17:43:47+06:00,
1000000000443998,77028525588,mKarTel,mKcell,mKcell,,D01,2017-08-22T17:44:40+06:00,
1000000000444002,77017255453,mMTS,mKcell,mKcell,,D77,2017-08-22T17:50:09+06:00,
1000000000444004,77078551612,mKcell,mMTS,mMTS,,D02,2017-08-22T17:54:37+06:00,
1000000000444005,77000000772,mKcell,mAltel,mAltel,,D02,2017-08-22T17:57:03+06:00,
1000000000444006,77470368997,mMTS,mAltel,mMTS,D07,D77,2017-08-22T17:56:57+06:00,
1000000000444007,77023943653,mAltel,mKcell,mKcell,,D07,2017-08-22T17:57:09+06:00,
1000000000444008,77016200931,mAltel,mKcell,mKcell,,D07,2017-08-22T17:58:41+06:00,
1000000000444009,77057665287,mAltel,mKarTel,mKarTel,,D07,2017-08-22T17:59:00+06:00,
1000000000444010,77014162848,mMTS,mKcell,mKcell,,D77,2017-08-22T17:58:52+06:00,
