NPId,Number,RecipientId,DonorId,RangeHolderId,OldRoute,NewRoute,PortDate,RowCount
1000000000216124,77004536166,mKcell,mAltel,mAltel,,D02,2016-07-23T16:30:02+06:00,16
1000000000216125,77059606007,mMTS,mKarTel,mKarTel,,D77,2016-07-23T16:31:02+06:00,
1000000000216127,77051840276,mMTS,mKarTel,mKarTel,,D77,2016-07-23T16:31:31+06:00,
1000000000216128,77014301858,mMTS,mKcell,mKcell,,D77,2016-07-23T16:30:29+06:00,
1000000000216129,77078152508,mKarTel,mMTS,mMTS,,D01,2016-07-23T16:32:07+06:00,
1000000000216131,77054031458,mMTS,mKarTel,mKarTel,,D77,2016-07-23T16:33:40+06:00,
1000000000216132,77786799989,mKarTel,mKcell,mKcell,,D01,2016-07-23T16:33:16+06:00,
1000000000216134,77016361086,mKarTel,mKcell,mKcell,,D01,2016-07-23T16:34:09+06:00,
1000000000216135,77058882848,mKcell,mKarTel,mKarTel,,D02,2016-07-23T16:35:32+06:00,
1000000000216136,77778013332,mMTS,mKarTel,mKarTel,,D77,2016-07-23T16:35:56+06:00,
1000000000216141,77771959070,mAltel,mKarTel,mKarTel,D01,D07,2016-07-23T16:41:46+06:00,
1000000000216142,77783105674,mMTS,mKcell,mKcell,,D77,2016-07-23T16:42:19+06:00,
1000000000216144,77055064570,mMTS,mKarTel,mKarTel,,D77,2016-07-23T16:46:09+06:00,
1000000000216145,77017935453,mMTS,mKcell,mKcell,,D77,2016-07-23T16:48:19+06:00,
1000000000216147,77751808161,mMTS,mKcell,mKcell,,D77,2016-07-23T16:52:21+06:00,
1000000000216149,77471496679,mAltel,mMTS,mMTS,,D07,2016-07-23T16:54:56+06:00,
