NPId,Number,RecipientId,DonorId,RangeHolderId,OldRoute,NewRoute,PortDate,RowCount
1000000000424327,77072563284,mKcell,mMTS,mMTS,,D02,2017-07-19T10:01:26+06:00,7
1000000000424328,77776059827,mMTS,mKarTel,mKarTel,,D77,2017-07-19T10:02:20+06:00,
1000000000424329,77011061220,mKcell,mMTS,mKcell,D77,D02,2017-07-19T10:02:49+06:00,
1000000000424332,77019500754,mKcell,mMTS,mKcell,D77,D02,2017-07-19T10:17:59+06:00,
1000000000424333,77710120000,mKarTel,mAltel,mKarTel,D07,D01,2017-07-19T10:18:22+06:00,
1000000000424334,77021793742,mKarTel,mKcell,mKcell,,D01,2017-07-19T10:19:43+06:00,
1000000000424335,77003681802,mAltel,mMTS,mAltel,D77,D07,2017-07-19T10:23:14+06:00,
