NPId,Number,RecipientId,DonorId,RangeHolderId,OldRoute,NewRoute,PortDate,RowCount
1000000000445190,77017621459,mKarTel,mKcell,mKcell,,D01,2017-08-24T17:30:29+06:00,29
1000000000445191,77788001111,mAltel,mKcell,mKcell,,D07,2017-08-24T17:31:49+06:00,
1000000000445193,77750940388,mKarTel,mKcell,mKcell,,D01,2017-08-24T17:32:24+06:00,
1000000000445197,77029999748,mKarTel,mKcell,mKcell,,D01,2017-08-24T17:36:38+06:00,
1000000000445198,77477891976,mAltel,mMTS,mMTS,,D07,2017-08-24T17:36:34+06:00,
1000000000445200,77085222716,mMTS,mAltel,mAltel,,D77,2017-08-24T17:39:15+06:00,
1000000000445201,77059062180,mAltel,mKarTel,mKarTel,,D07,2017-08-24T17:41:41+06:00,
1000000000445203,77013618752,mKcell,mAltel,mKcell,D07,D02,2017-08-24T17:43:12+06:00,
1000000000445204,77754927722,mMTS,mKcell,mKcell,,D77,2017-08-24T17:43:28+06:00,
1000000000445205,77012818686,mKcell,mMTS,mKcell,D77,D02,2017-08-24T17:45:20+06:00,
1000000000445209,77753810133,mAltel,mKcell,mKcell,,D07,2017-08-24T17:48:04+06:00,
1000000000445210,77755664477,mMTS,mKarTel,mKcell,D01,D77,2017-08-24T17:48:52+06:00,
1000000000445211,77072496904,mKarTel,mMTS,mMTS,,D01,2017-08-24T17:49:14+06:00,
1000000000445212,77057566600,mMTS,mKarTel,mKarTel,,D77,2017-08-24T17:50:03+06:00,
1000000000445213,77071484787,mKarTel,mMTS,mMTS,,D01,2017-08-24T17:50:10+06:00,
1000000000445214,77012350303,mKarTel,mKcell,mKcell,,D01,2017-08-24T17:51:00+06:00,
1000000000445215,77071492348,mKarTel,mMTS,mMTS,,D01,2017-08-24T17:51:24+06:00,
1000000000445216,77017138210,mMTS,mKcell,mKcell,,D77,2017-08-24T17:51:52+06:00,
1000000000445218,77071997507,mAltel,mMTS,mMTS,,D07,2017-08-24T17:52:13+06:00,
1000000000445219,77027041080,mMTS,mKcell,mKcell,,D77,2017-08-24T17:52:34+06:00,
1000000000445220,77086345874,mKarTel,mAltel,mAltel,,D01,2017-08-24T17:52:56+06:00,
1000000000445221,77752095507,mKcell,mMTS,mKcell,D77,D02,2017-08-24T17:53:29+06:00,
1000000000445223,77777066686,mKcell,mKarTel,mKarTel,,D02,2017-08-24T17:54:06+06:00,
1000000000445224,77472063224,mKcell,mMTS,mMTS,,D02,2017-08-24T17:53:48+06:00,
1000000000445226,77787777793,mAltel,mKcell,mKcell,,D07,2017-08-24T17:54:14+06:00,
1000000000445227,77075157293,mAltel,mMTS,mMTS,,D07,2017-08-24T17:54:34+06:00,
1000000000445228,77025229955,mKarTel,mKcell,mKcell,,D01,2017-08-24T17:56:13+06:00,
1000000000445230,77079777428,mKcell,mMTS,mMTS,,D02,2017-08-24T17:58:13+06:00,
1000000000445231,77758081221,mMTS,mKcell,mKcell,,D77,2017-08-24T17:59:57+06:00,
