NPId,Number,RecipientId,DonorId,RangeHolderId,OldRoute,NewRoute,PortDate,RowCount
1000000000198931,77000005727,mMTS,mAltel,mAltel,,D77,2016-06-24T15:31:03+06:00,46
1000000000198932,77083353530,mMTS,mAltel,mAltel,,D77,2016-06-24T15:31:29+06:00,
1000000000198937,77012998467,mMTS,mAltel,mKcell,D07,D77,2016-06-24T15:32:15+06:00,
1000000000198942,77000005021,mMTS,mAltel,mAltel,,D77,2016-06-24T15:34:06+06:00,
1000000000198944,77000005321,mMTS,mAltel,mAltel,,D77,2016-06-24T15:34:47+06:00,
1000000000198946,77001585693,mMTS,mAltel,mAltel,,D77,2016-06-24T15:35:31+06:00,
1000000000198947,77000005758,mMTS,mAltel,mAltel,,D77,2016-06-24T15:35:35+06:00,
1000000000198948,77074442805,mKcell,mMTS,mMTS,,D02,2016-06-24T15:47:24+06:00,
1000000000198952,77086787722,mKcell,mAltel,mAltel,,D02,2016-06-24T15:39:57+06:00,
1000000000198953,77024663548,mKcell,mAltel,mKcell,D07,D02,2016-06-24T15:39:58+06:00,
1000000000199094,77017070077,mKarTel,mKcell,mKcell,,D01,2016-06-24T15:49:33+06:00,
1000000000199155,77000700046,mMTS,mAltel,mAltel,,D77,2016-06-24T15:34:30+06:00,
1000000000199157,77087692097,mMTS,mAltel,mAltel,,D77,2016-06-24T15:34:30+06:00,
1000000000199167,77001110554,mMTS,mAltel,mAltel,,D77,2016-06-24T15:34:30+06:00,
1000000000199173,77772444994,mKarTel,mAltel,mKarTel,D07,D01,2016-06-24T15:34:48+06:00,
1000000000199180,77083926813,mMTS,mAltel,mAltel,,D77,2016-06-24T15:34:30+06:00,
1000000000199184,77081273271,mKcell,mAltel,mAltel,,D02,2016-06-24T15:36:17+06:00,
1000000000199205,77077117177,mKcell,mMTS,mMTS,,D02,2016-06-24T15:30:04+06:00,
1000000000199206,77075060199,mKcell,mMTS,mMTS,,D02,2016-06-24T15:30:56+06:00,
1000000000199207,77017245379,mKarTel,mKcell,mKcell,,D01,2016-06-24T15:30:57+06:00,
1000000000199208,77057688266,mKarTel,mMTS,mKarTel,D77,D01,2016-06-24T15:30:33+06:00,
1000000000199209,77712628844,mMTS,mKarTel,mKarTel,,D77,2016-06-24T15:30:58+06:00,
1000000000199210,77085100058,mMTS,mAltel,mAltel,,D77,2016-06-24T15:30:40+06:00,
1000000000199211,77054049436,mMTS,mKarTel,mKarTel,,D77,2016-06-24T15:32:33+06:00,
1000000000199212,77768680111,mKcell,mKarTel,mKarTel,,D02,2016-06-24T15:36:18+06:00,
1000000000199213,77011090661,mKcell,mMTS,mKcell,D77,D02,2016-06-24T15:38:20+06:00,
1000000000199214,77077778965,mMTS,mAltel,mMTS,D07,D77,2016-06-24T15:35:35+06:00,
1000000000199215,77022222222,mKcell,mKarTel,mKcell,D01,D02,2016-06-24T15:37:28+06:00,
1000000000199216,77058880986,mMTS,mKarTel,mKarTel,,D77,2016-06-24T15:36:24+06:00,
1000000000199219,77024227393,mKcell,mMTS,mKcell,D77,D02,2016-06-24T15:40:28+06:00,
1000000000199221,77016645647,mKarTel,mKcell,mKcell,,D01,2016-06-24T15:39:05+06:00,
1000000000199222,77014556898,mKcell,mMTS,mKcell,D77,D02,2016-06-24T15:38:48+06:00,
1000000000199223,77073266866,mKarTel,mMTS,mMTS,,D01,2016-06-24T15:39:33+06:00,
1000000000199224,77778650365,mKcell,mKarTel,mKarTel,,D02,2016-06-24T15:41:26+06:00,
1000000000199225,77776579445,mMTS,mKarTel,mKarTel,,D77,2016-06-24T15:40:54+06:00,
1000000000199226,77783556868,mMTS,mKcell,mKcell,,D77,2016-06-24T15:42:51+06:00,
1000000000199228,77776555564,mMTS,mKarTel,mKarTel,,D77,2016-06-24T15:47:29+06:00,
1000000000199229,77057233337,mAltel,mKarTel,mKarTel,,D07,2016-06-24T15:48:18+06:00,
1000000000199230,77086327017,mMTS,mAltel,mAltel,,D77,2016-06-24T15:52:03+06:00,
1000000000199231,77089874609,mMTS,mAltel,mAltel,,D77,2016-06-24T15:52:09+06:00,
1000000000199232,77056734775,mMTS,mKarTel,mKarTel,,D77,2016-06-24T15:52:35+06:00,
1000000000199233,77057050980,mMTS,mKarTel,mKarTel,,D77,2016-06-24T15:53:06+06:00,
1000000000199234,77776768000,mAltel,mKarTel,mKarTel,,D07,2016-06-24T15:54:05+06:00,
1000000000199235,77762112323,mMTS,mKarTel,mKarTel,,D77,2016-06-24T15:54:51+06:00,
1000000000199237,77017077776,mKcell,mKarTel,mKcell,D01,D02,2016-06-24T15:56:20+06:00,
1000000000199241,77012285887,mMTS,mKcell,mKcell,,D77,2016-06-24T15:58:41+06:00,
