NPId,Number,RecipientId,DonorId,RangeHolderId,OldRoute,NewRoute,PortDate,RowCount
1000000000287516,77719992801,mAltel,mKarTel,mKarTel,,D07,2016-12-01T10:24:56+06:00,6
1000000000287518,77015143378,mMTS,mKcell,mKcell,,D77,2016-12-01T10:15:16+06:00,
1000000000287519,77770002888,mMTS,mKarTel,mKarTel,,D77,2016-12-01T10:08:35+06:00,
1000000000287520,77015994658,mMTS,mKcell,mKcell,,D77,2016-12-01T10:15:20+06:00,
1000000000287525,77080508508,mMTS,mAltel,mAltel,,D77,2016-12-01T10:22:48+06:00,
1000000000287527,77075053414,mMTS,mAltel,mMTS,D07,D77,2016-12-01T10:24:59+06:00,
