NPId,Number,RecipientId,DonorId,RangeHolderId,OldRoute,NewRoute,PortDate,RowCount
1000000000300583,77017142913,mKarTel,mKcell,mKcell,,D01,2016-12-26T11:25:42+06:00,23
1000000000300583,77017180294,mKarTel,mKcell,mKcell,,D01,2016-12-26T11:25:42+06:00,
1000000000300583,77017204335,mKarTel,mKcell,mKcell,,D01,2016-12-26T11:25:42+06:00,
1000000000300583,77017204356,mKarTel,mKcell,mKcell,,D01,2016-12-26T11:25:42+06:00,
1000000000300583,77017258429,mKarTel,mKcell,mKcell,,D01,2016-12-26T11:25:42+06:00,
1000000000300583,77017258692,mKarTel,mKcell,mKcell,,D01,2016-12-26T11:25:42+06:00,
1000000000300583,77017258738,mKarTel,mKcell,mKcell,,D01,2016-12-26T11:25:42+06:00,
1000000000300583,77017560319,mKarTel,mKcell,mKcell,,D01,2016-12-26T11:25:42+06:00,
1000000000300583,77017665272,mKarTel,mKcell,mKcell,,D01,2016-12-26T11:25:42+06:00,
1000000000300583,77017883081,mKarTel,mKcell,mKcell,,D01,2016-12-26T11:25:42+06:00,
1000000000300640,77775069111,mMTS,mKarTel,mKarTel,,D77,2016-12-26T11:00:59+06:00,
1000000000300641,77052491113,mMTS,mKarTel,mKarTel,,D77,2016-12-26T11:02:32+06:00,
1000000000300642,77475190147,mKcell,mMTS,mMTS,,D02,2016-12-26T11:04:07+06:00,
1000000000300643,77016667050,mMTS,mKcell,mKcell,,D77,2016-12-26T11:04:34+06:00,
1000000000300644,77019717198,mKcell,mKarTel,mKcell,D01,D02,2016-12-26T11:21:59+06:00,
1000000000300646,77052749807,mMTS,mKarTel,mKarTel,,D77,2016-12-26T11:07:56+06:00,
1000000000300647,77015709994,mMTS,mKcell,mKcell,,D77,2016-12-26T11:07:41+06:00,
1000000000300648,77081355569,mMTS,mAltel,mAltel,,D77,2016-12-26T11:09:31+06:00,
1000000000300649,77714110140,mMTS,mKarTel,mKarTel,,D77,2016-12-26T11:11:11+06:00,
1000000000300652,77767511414,mMTS,mKarTel,mKarTel,,D77,2016-12-26T11:13:25+06:00,
1000000000300654,77788820650,mKcell,mKarTel,mKcell,D01,D02,2016-12-26T11:16:22+06:00,
1000000000300655,77753182074,mMTS,mKcell,mKcell,,D77,2016-12-26T11:17:44+06:00,
1000000000300657,77023531535,mMTS,mKcell,mKcell,,D77,2016-12-26T11:24:43+06:00,
