NPId,Number,RecipientId,DonorId,RangeHolderId,OldRoute,NewRoute,PortDate,RowCount
1000000000237763,77766970063,mMTS,mKarTel,mKarTel,,D77,2016-08-31T21:42:51+06:00,2
1000000000237765,77766807959,mMTS,mKarTel,mKarTel,,D77,2016-08-31T21:57:51+06:00,
