NPId,Number,RecipientId,DonorId,RangeHolderId,OldRoute,NewRoute,PortDate,RowCount
1000000000408986,77079840709,mKarTel,mMTS,mMTS,,D01,2017-06-24T15:31:58+06:00,21
1000000000408987,77778057997,mKcell,mKarTel,mKarTel,,D02,2017-06-24T15:32:58+06:00,
1000000000408988,77024181918,mKcell,mMTS,mKcell,D77,D02,2017-06-24T15:33:20+06:00,
1000000000408989,77016226698,mMTS,mKcell,mKcell,,D77,2017-06-24T15:33:37+06:00,
1000000000408990,77718804538,mKarTel,mAltel,mKarTel,D07,D01,2017-06-24T15:35:01+06:00,
1000000000408991,77017859323,mKarTel,mKcell,mKcell,,D01,2017-06-24T15:35:34+06:00,
1000000000408993,77073997696,mKarTel,mAltel,mMTS,D07,D01,2017-06-24T15:36:11+06:00,
1000000000408994,77075007050,mMTS,mAltel,mMTS,D07,D77,2017-06-24T15:36:15+06:00,
1000000000408996,77775581490,mKcell,mKarTel,mKarTel,,D02,2017-06-24T15:37:55+06:00,
1000000000408997,77000010197,mMTS,mAltel,mAltel,,D77,2017-06-24T15:37:16+06:00,
1000000000408998,77769180397,mAltel,mKarTel,mKarTel,,D07,2017-06-24T15:37:43+06:00,
1000000000408999,77015518084,mMTS,mKcell,mKcell,,D77,2017-06-24T15:38:30+06:00,
1000000000409000,77017266282,mMTS,mKcell,mKcell,,D77,2017-06-24T15:39:09+06:00,
1000000000409002,77772258585,mKarTel,mKcell,mKarTel,D02,D01,2017-06-24T15:43:58+06:00,
1000000000409003,77022453705,mAltel,mKcell,mKcell,,D07,2017-06-24T15:44:22+06:00,
1000000000409006,77051418888,mMTS,mKarTel,mKarTel,,D77,2017-06-24T15:51:57+06:00,
1000000000409007,77076989162,mKarTel,mMTS,mMTS,,D01,2017-06-24T15:52:00+06:00,
1000000000409008,77075753210,mKarTel,mMTS,mMTS,,D01,2017-06-24T15:55:23+06:00,
1000000000409009,77788123728,mMTS,mKcell,mKcell,,D77,2017-06-24T15:56:47+06:00,
1000000000409010,77019829855,mMTS,mKcell,mKcell,,D77,2017-06-24T15:56:54+06:00,
1000000000409011,77014129137,mKarTel,mKcell,mKcell,,D01,2017-06-24T15:59:41+06:00,
