NPId,Number,RecipientId,DonorId,RangeHolderId,OldRoute,NewRoute,PortDate,RowCount
1000000000173775,77772775825,mKcell,mKarTel,mKarTel,,D02,2016-05-13T20:01:12+06:00,7
1000000000173776,77073415986,mKcell,mMTS,mMTS,,D02,2016-05-13T20:05:23+06:00,
1000000000173777,77082447712,mKcell,mAltel,mAltel,,D02,2016-05-13T20:06:25+06:00,
1000000000173778,77011110272,mAltel,mKcell,mKcell,,D07,2016-05-13T20:06:11+06:00,
1000000000173779,77026907518,mAltel,mKcell,mKcell,,D07,2016-05-13T20:13:24+06:00,
1000000000173780,77015409792,mKarTel,mKcell,mKcell,,D01,2016-05-13T20:14:50+06:00,
1000000000173781,77015236386,mKarTel,mKcell,mKcell,,D01,2016-05-13T20:15:08+06:00,
