NPId,Number,RecipientId,DonorId,RangeHolderId,OldRoute,NewRoute,PortDate,RowCount
1000000000216251,77011419030,mMTS,mKcell,mKcell,,D77,2016-07-24T11:19:53+06:00,4
1000000000216252,77085326606,mMTS,mAltel,mAltel,,D77,2016-07-24T11:17:38+06:00,
1000000000216253,77081020967,mKcell,mAltel,mAltel,,D02,2016-07-24T11:20:48+06:00,
1000000000216255,77072400090,mKarTel,mMTS,mMTS,,D01,2016-07-24T11:24:26+06:00,
