NPId,Number,RecipientId,DonorId,RangeHolderId,OldRoute,NewRoute,PortDate,RowCount
1000000000107569,77013211145,mKarTel,mKcell,mKcell,,D01,2016-03-05T11:00:20+06:00,21
1000000000107570,77025127060,mKarTel,mKcell,mKcell,,D01,2016-03-05T11:00:55+06:00,
1000000000107572,77028647007,mAltel,mKcell,mKcell,,D07,2016-03-05T11:00:37+06:00,
1000000000107573,77784742080,mMTS,mKcell,mKcell,,D77,2016-03-05T11:02:54+06:00,
1000000000107574,77074175637,mAltel,mMTS,mMTS,,D07,2016-03-05T11:04:15+06:00,
1000000000107576,77076264424,mAltel,mMTS,mMTS,,D07,2016-03-05T11:05:45+06:00,
1000000000107577,77772088808,mKcell,mKarTel,mKarTel,,D02,2016-03-05T11:06:40+06:00,
1000000000107578,77058900777,mAltel,mKarTel,mKarTel,,D07,2016-03-05T11:07:51+06:00,
1000000000107580,77026800048,mAltel,mKcell,mKcell,,D07,2016-03-05T11:08:04+06:00,
1000000000107584,77476663374,mAltel,mMTS,mMTS,,D07,2016-03-05T11:09:48+06:00,
1000000000107585,77017115875,mKarTel,mKcell,mKcell,,D01,2016-03-05T11:11:10+06:00,
1000000000107586,77759996985,mKarTel,mKcell,mKcell,,D01,2016-03-05T11:11:09+06:00,
1000000000107590,77784949520,mAltel,mKcell,mKcell,,D07,2016-03-05T11:14:12+06:00,
1000000000107591,77753931439,mKarTel,mKcell,mKcell,,D01,2016-03-05T11:15:40+06:00,
1000000000107595,77753360619,mAltel,mKcell,mKcell,,D07,2016-03-05T11:17:16+06:00,
1000000000107597,77753708669,mKarTel,mKcell,mKcell,,D01,2016-03-05T11:19:17+06:00,
1000000000107600,77775559706,mAltel,mKarTel,mKarTel,,D07,2016-03-05T11:22:06+06:00,
1000000000107606,77711433737,mKcell,mKarTel,mKarTel,,D02,2016-03-05T11:25:30+06:00,
1000000000107607,77019627542,mAltel,mKcell,mKcell,,D07,2016-03-05T11:25:36+06:00,
1000000000107608,77759551166,mMTS,mKcell,mKcell,,D77,2016-03-05T11:25:56+06:00,
1000000000107609,77774587614,mMTS,mKarTel,mKarTel,,D77,2016-03-05T11:27:18+06:00,
