NPId,Number,RecipientId,DonorId,RangeHolderId,OldRoute,NewRoute,PortDate,RowCount
1000000000169398,77755228023,mKcell,mAltel,mKcell,D07,D02,2016-05-06T19:00:48+06:00,20
1000000000169399,77025500544,mMTS,mKcell,mKcell,,D77,2016-05-06T19:01:30+06:00,
1000000000169400,77777700913,mKcell,mKarTel,mKarTel,,D02,2016-05-06T19:01:42+06:00,
1000000000169402,77083442854,mMTS,mAltel,mAltel,,D77,2016-05-06T19:03:35+06:00,
1000000000169403,77029299795,mKcell,mAltel,mKcell,D07,D02,2016-05-06T19:06:14+06:00,
1000000000169404,77774161000,mMTS,mKarTel,mKarTel,,D77,2016-05-06T19:06:16+06:00,
1000000000169405,77085585444,mMTS,mAltel,mAltel,,D77,2016-05-06T19:06:24+06:00,
1000000000169406,77088613484,mMTS,mAltel,mAltel,,D77,2016-05-06T19:06:54+06:00,
1000000000169408,77017657217,mMTS,mKcell,mKcell,,D77,2016-05-06T19:07:23+06:00,
1000000000169409,77779998822,mKcell,mKarTel,mKarTel,,D02,2016-05-06T19:08:17+06:00,
1000000000169410,77089191010,mKcell,mAltel,mAltel,,D02,2016-05-06T19:08:57+06:00,
1000000000169411,77754208885,mAltel,mKcell,mKcell,,D07,2016-05-06T19:11:07+06:00,
1000000000169412,77078811505,mKarTel,mMTS,mMTS,,D01,2016-05-06T19:10:50+06:00,
1000000000169413,77015130649,mKcell,mAltel,mKcell,D07,D02,2016-05-06T19:11:41+06:00,
1000000000169414,77782143828,mMTS,mKcell,mKcell,,D77,2016-05-06T19:12:31+06:00,
1000000000169416,77089898170,mMTS,mAltel,mAltel,,D77,2016-05-06T19:18:52+06:00,
1000000000169418,77014203951,mMTS,mKcell,mKcell,,D77,2016-05-06T19:22:11+06:00,
1000000000169419,77085505585,mMTS,mAltel,mAltel,,D77,2016-05-06T19:22:17+06:00,
1000000000169420,77013966524,mKarTel,mKcell,mKcell,,D01,2016-05-06T19:25:50+06:00,
1000000000169422,77027424224,mAltel,mKcell,mKcell,,D07,2016-05-06T19:26:21+06:00,
