NPId,Number,RecipientId,DonorId,RangeHolderId,OldRoute,NewRoute,PortDate,RowCount
1000000000233384,77017233344,mKcell,mAltel,mKcell,D07,D02,2016-08-24T17:30:09+06:00,24
1000000000233629,77775949449,mKcell,mKarTel,mKarTel,,D02,2016-08-24T17:34:11+06:00,
1000000000233632,77777800903,mKcell,mKarTel,mKarTel,,D02,2016-08-24T17:38:25+06:00,
1000000000233641,77059006050,mKcell,mKarTel,mKarTel,,D02,2016-08-24T17:41:24+06:00,
1000000000233645,77778955783,mMTS,mKarTel,mKarTel,,D77,2016-08-24T17:30:01+06:00,
1000000000233650,77003939420,mMTS,mAltel,mAltel,,D77,2016-08-24T17:30:15+06:00,
1000000000233651,77053102222,mMTS,mKarTel,mKarTel,,D77,2016-08-24T17:33:58+06:00,
1000000000233652,77007171737,mAltel,mMTS,mAltel,D77,D07,2016-08-24T17:35:24+06:00,
1000000000233654,77775547252,mKarTel,mMTS,mKarTel,D77,D01,2016-08-24T17:36:26+06:00,
1000000000233656,77758124323,mKcell,mMTS,mKcell,D77,D02,2016-08-24T17:43:03+06:00,
1000000000233657,77079952686,mKarTel,mMTS,mMTS,,D01,2016-08-24T17:48:51+06:00,
1000000000233658,77019218888,mKarTel,mKcell,mKcell,,D01,2016-08-24T17:49:28+06:00,
1000000000233660,77016733307,mMTS,mKcell,mKcell,,D77,2016-08-24T17:49:43+06:00,
1000000000233661,77027994959,mKarTel,mKcell,mKcell,,D01,2016-08-24T17:51:56+06:00,
1000000000233662,77078884948,mAltel,mKcell,mMTS,D02,D07,2016-08-24T17:51:45+06:00,
1000000000233663,77766224222,mMTS,mKarTel,mKarTel,,D77,2016-08-24T17:54:01+06:00,
1000000000233664,77015309846,mMTS,mKcell,mKcell,,D77,2016-08-24T17:52:16+06:00,
1000000000233665,77086673673,mKarTel,mMTS,mAltel,D77,D01,2016-08-24T17:53:29+06:00,
1000000000233666,77017736863,mKarTel,mKcell,mKcell,,D01,2016-08-24T17:53:30+06:00,
1000000000233667,77054053452,mMTS,mKarTel,mKarTel,,D77,2016-08-24T17:54:37+06:00,
1000000000233669,77016828079,mKcell,mKarTel,mKcell,D01,D02,2016-08-24T17:56:05+06:00,
1000000000233670,77029687274,mKcell,mMTS,mKcell,D77,D02,2016-08-24T17:55:19+06:00,
1000000000233672,77029030802,mMTS,mKcell,mKcell,,D77,2016-08-24T17:57:13+06:00,
1000000000233674,77003914155,mKarTel,mAltel,mAltel,,D01,2016-08-24T17:58:58+06:00,
