NPId,Number,RecipientId,DonorId,RangeHolderId,OldRoute,NewRoute,PortDate,RowCount
1000000000416687,77712183031,mKcell,mKarTel,mKarTel,,D02,2017-07-05T12:30:34+06:00,56
1000000000416764,77788299512,mMTS,mKcell,mKcell,,D77,2017-07-05T12:31:08+06:00,
1000000000416767,77057969300,mMTS,mKarTel,mKarTel,,D77,2017-07-05T12:33:19+06:00,
1000000000416768,77023081251,mMTS,mKcell,mKcell,,D77,2017-07-05T12:33:07+06:00,
1000000000416769,77078964729,mKcell,mMTS,mMTS,,D02,2017-07-05T12:33:52+06:00,
1000000000416771,77077500038,mKarTel,mMTS,mMTS,,D01,2017-07-05T12:34:46+06:00,
1000000000416772,77758569388,mMTS,mKcell,mKcell,,D77,2017-07-05T12:34:40+06:00,
1000000000416773,77014263675,mMTS,mKcell,mKcell,,D77,2017-07-05T12:35:29+06:00,
1000000000416774,77017370037,mMTS,mKcell,mKcell,,D77,2017-07-05T12:36:13+06:00,
1000000000416775,77014875430,mMTS,mKcell,mKcell,,D77,2017-07-05T12:36:15+06:00,
1000000000416776,77014865034,mMTS,mKcell,mKcell,,D77,2017-07-05T12:37:34+06:00,
1000000000416777,77753650561,mMTS,mKcell,mKcell,,D77,2017-07-05T12:38:04+06:00,
1000000000416780,77788493596,mMTS,mKcell,mKcell,,D77,2017-07-05T12:39:47+06:00,
1000000000416781,77751044445,mAltel,mKcell,mKcell,,D07,2017-07-05T12:40:08+06:00,
1000000000416782,77057121319,mMTS,mKarTel,mKarTel,,D77,2017-07-05T12:40:46+06:00,
1000000000416784,77758817336,mMTS,mKcell,mKcell,,D77,2017-07-05T12:40:58+06:00,
1000000000416785,77473120288,mKarTel,mMTS,mMTS,,D01,2017-07-05T12:42:42+06:00,
1000000000416786,77023082178,mMTS,mKcell,mKcell,,D77,2017-07-05T12:42:43+06:00,
1000000000416787,77002232005,mMTS,mAltel,mAltel,,D77,2017-07-05T12:42:37+06:00,
1000000000416789,77788422126,mMTS,mKcell,mKcell,,D77,2017-07-05T12:43:56+06:00,
1000000000416790,77001004097,mMTS,mAltel,mAltel,,D77,2017-07-05T12:45:08+06:00,
1000000000416791,77022901780,mMTS,mKcell,mKcell,,D77,2017-07-05T12:45:42+06:00,
1000000000416792,77777555257,mAltel,mMTS,mKarTel,D77,D07,2017-07-05T12:45:47+06:00,
1000000000416793,77003606056,mMTS,mAltel,mAltel,,D77,2017-07-05T12:45:50+06:00,
1000000000416794,77758812458,mMTS,mKcell,mKcell,,D77,2017-07-05T12:47:09+06:00,
1000000000416796,77081117097,mMTS,mKcell,mAltel,D02,D77,2017-07-05T12:47:13+06:00,
1000000000416797,77089699774,mKarTel,mAltel,mAltel,,D01,2017-07-05T12:47:28+06:00,
1000000000416798,77019644101,mAltel,mKcell,mKcell,,D07,2017-07-05T12:47:50+06:00,
1000000000416800,77754026200,mKarTel,mKcell,mKcell,,D01,2017-07-05T12:48:31+06:00,
1000000000416801,77022901207,mMTS,mKcell,mKcell,,D77,2017-07-05T12:48:32+06:00,
1000000000416802,77758563518,mMTS,mKcell,mKcell,,D77,2017-07-05T12:49:45+06:00,
1000000000416803,77771205050,mMTS,mKarTel,mKarTel,,D77,2017-07-05T12:50:19+06:00,
1000000000416804,77760650166,mMTS,mKcell,mKarTel,D02,D77,2017-07-05T12:50:50+06:00,
1000000000416805,77023080516,mMTS,mKcell,mKcell,,D77,2017-07-05T12:50:58+06:00,
1000000000416806,77478256294,mAltel,mMTS,mMTS,D77,D07,2017-07-05T12:51:13+06:00,
1000000000416807,77758627163,mMTS,mKcell,mKcell,,D77,2017-07-05T12:52:11+06:00,
1000000000416808,77053659829,mMTS,mKarTel,mKarTel,,D77,2017-07-05T12:52:47+06:00,
1000000000416809,77710966677,mAltel,mMTS,mKarTel,D77,D07,2017-07-05T12:52:22+06:00,
1000000000416810,77010141410,mAltel,mKarTel,mKcell,D01,D07,2017-07-05T12:52:50+06:00,
1000000000416811,77761117096,mMTS,mKcell,mKarTel,D02,D77,2017-07-05T12:53:18+06:00,
1000000000416812,77011257318,mKcell,mMTS,mKcell,D77,D02,2017-07-05T12:53:29+06:00,
1000000000416813,77777691857,mMTS,mKarTel,mKarTel,,D77,2017-07-05T12:53:53+06:00,
1000000000416814,77018399998,mMTS,mKcell,mKcell,,D77,2017-07-05T12:53:30+06:00,
1000000000416815,77781256427,mMTS,mKcell,mKcell,,D77,2017-07-05T12:53:33+06:00,
1000000000416816,77788548356,mMTS,mKcell,mKcell,,D77,2017-07-05T12:54:42+06:00,
1000000000416818,77071971989,mMTS,mKcell,mMTS,D02,D77,2017-07-05T12:55:18+06:00,
1000000000416819,77023083547,mMTS,mKcell,mKcell,,D77,2017-07-05T12:56:25+06:00,
1000000000416820,77015603368,mMTS,mKcell,mKcell,,D77,2017-07-05T12:56:40+06:00,
1000000000416821,77001772014,mMTS,mKcell,mAltel,D02,D77,2017-07-05T12:57:07+06:00,
1000000000416822,77787885859,mKarTel,mKcell,mKcell,,D01,2017-07-05T12:57:42+06:00,
1000000000416823,77788299645,mMTS,mKcell,mKcell,,D77,2017-07-05T12:57:31+06:00,
1000000000416825,77051008035,mAltel,mKarTel,mKarTel,,D07,2017-07-05T12:57:58+06:00,
1000000000416827,77758565716,mMTS,mKcell,mKcell,,D77,2017-07-05T12:58:41+06:00,
1000000000416829,77059664739,mAltel,mKarTel,mKarTel,,D07,2017-07-05T12:59:27+06:00,
1000000000416830,77081110787,mMTS,mKcell,mAltel,D02,D77,2017-07-05T12:59:12+06:00,
1000000000416831,77710960308,mAltel,mMTS,mKarTel,D77,D07,2017-07-05T12:59:47+06:00,
