NPId,Number,RecipientId,DonorId,RangeHolderId,OldRoute,NewRoute,PortDate,RowCount
1000000000421411,77015428309,mKcell,mKarTel,mKcell,D01,D02,2017-07-13T19:37:04+06:00,7
1000000000421412,77752125711,mMTS,mKcell,mKcell,,D77,2017-07-13T19:39:10+06:00,
1000000000421413,77016241300,mKcell,mKarTel,mKcell,D01,D02,2017-07-13T19:41:42+06:00,
1000000000421414,77025504829,mMTS,mKcell,mKcell,,D77,2017-07-13T19:44:02+06:00,
1000000000421415,77025505192,mMTS,mKcell,mKcell,,D77,2017-07-13T19:52:04+06:00,
1000000000421416,77025505219,mMTS,mKcell,mKcell,,D77,2017-07-13T19:54:56+06:00,
1000000000421417,77015277377,mAltel,mKcell,mKcell,,D07,2017-07-13T19:59:48+06:00,
