NPId,Number,RecipientId,DonorId,RangeHolderId,OldRoute,NewRoute,PortDate,RowCount
1000000000416986,77075737588,mKcell,mMTS,mMTS,,D02,2017-07-05T14:30:02+06:00,23
1000000000416988,77769444499,mMTS,mKarTel,mKarTel,D01,D77,2017-07-05T14:32:27+06:00,
1000000000416989,77081022845,mKarTel,mAltel,mAltel,,D01,2017-07-05T14:34:10+06:00,
1000000000416990,77075888848,mKcell,mMTS,mMTS,,D02,2017-07-05T14:34:31+06:00,
1000000000416992,77023991010,mAltel,mKcell,mKcell,,D07,2017-07-05T14:37:36+06:00,
1000000000416996,77001182709,mKcell,mAltel,mAltel,,D02,2017-07-05T14:43:32+06:00,
1000000000416997,77714074963,mMTS,mKarTel,mKarTel,,D77,2017-07-05T14:44:04+06:00,
1000000000416999,77017262960,mKarTel,mKcell,mKcell,,D01,2017-07-05T14:45:31+06:00,
1000000000417000,77003546047,mMTS,mKarTel,mAltel,D01,D77,2017-07-05T14:45:46+06:00,
1000000000417001,77010531620,mMTS,mKcell,mKcell,,D77,2017-07-05T14:46:10+06:00,
1000000000417002,77054144653,mMTS,mKarTel,mKarTel,,D77,2017-07-05T14:46:50+06:00,
1000000000417006,77772870127,mAltel,mKarTel,mKarTel,,D07,2017-07-05T14:50:16+06:00,
1000000000417007,77019022444,mAltel,mKcell,mKcell,,D07,2017-07-05T14:50:11+06:00,
1000000000417009,77003289170,mMTS,mKarTel,mAltel,D01,D77,2017-07-05T14:52:31+06:00,
1000000000417010,77051462448,mMTS,mKarTel,mKarTel,,D77,2017-07-05T14:52:35+06:00,
1000000000417011,77015450800,mKarTel,mKcell,mKcell,,D01,2017-07-05T14:52:49+06:00,
1000000000417014,77773704128,mMTS,mKarTel,mKarTel,,D77,2017-07-05T14:53:47+06:00,
1000000000417015,77004087789,mMTS,mAltel,mAltel,,D77,2017-07-05T14:55:06+06:00,
1000000000417016,77772314461,mKcell,mMTS,mKarTel,D77,D02,2017-07-05T14:58:03+06:00,
1000000000417017,77789112839,mMTS,mKcell,mKcell,,D77,2017-07-05T14:57:57+06:00,
1000000000417018,77014721660,mKarTel,mKcell,mKcell,,D01,2017-07-05T14:58:26+06:00,
1000000000417019,77085427540,mMTS,mAltel,mAltel,,D77,2017-07-05T14:58:27+06:00,
1000000000417020,77089635569,mMTS,mAltel,mAltel,,D77,2017-07-05T14:59:22+06:00,
