NPId,Number,RecipientId,DonorId,RangeHolderId,OldRoute,NewRoute,PortDate,RowCount
1000000000309387,77713701633,mMTS,mKarTel,mKarTel,,D77,2017-01-12T11:32:58+06:00,18
1000000000309388,77760055580,mMTS,mAltel,mKarTel,D07,D77,2017-01-12T11:36:26+06:00,
1000000000309389,77769544445,mKcell,mKarTel,mKarTel,,D02,2017-01-12T11:40:15+06:00,
1000000000309390,77016296197,mKarTel,mKcell,mKcell,,D01,2017-01-12T11:41:18+06:00,
1000000000309391,77714365550,mMTS,mKarTel,mKarTel,,D77,2017-01-12T11:43:08+06:00,
1000000000309392,77077352956,mAltel,mMTS,mMTS,,D07,2017-01-12T11:43:51+06:00,
1000000000309393,77028598171,mMTS,mKcell,mKcell,,D77,2017-01-12T11:47:45+06:00,
1000000000309394,77021590297,mMTS,mKcell,mKcell,,D77,2017-01-12T11:48:17+06:00,
1000000000309395,77014662258,mMTS,mKcell,mKcell,,D77,2017-01-12T11:49:58+06:00,
1000000000309396,77029565646,mKcell,mAltel,mKcell,D07,D02,2017-01-12T11:50:57+06:00,
1000000000309397,77015164946,mKarTel,mKcell,mKcell,,D01,2017-01-12T11:51:43+06:00,
1000000000309398,77021092659,mKcell,mMTS,mKcell,D77,D02,2017-01-12T11:52:25+06:00,
1000000000309399,77714365288,mMTS,mKarTel,mKarTel,,D77,2017-01-12T11:52:59+06:00,
1000000000309401,77059069999,mAltel,mKarTel,mKarTel,,D07,2017-01-12T11:53:41+06:00,
1000000000309405,77712986368,mAltel,mKarTel,mKarTel,,D07,2017-01-12T11:57:43+06:00,
1000000000309406,77479498318,mKarTel,mMTS,mMTS,,D01,2017-01-12T11:57:55+06:00,
1000000000309407,77016762493,mMTS,mKcell,mKcell,,D77,2017-01-12T11:58:01+06:00,
1000000000309408,77057934895,mMTS,mKarTel,mKarTel,,D77,2017-01-12T11:59:44+06:00,
