NPId,Number,RecipientId,DonorId,RangeHolderId,OldRoute,NewRoute,PortDate,RowCount
1000000000270552,77476483765,mKcell,mMTS,mMTS,,D02,2016-10-30T19:08:41+06:00,3
1000000000270555,77053782304,mAltel,mKarTel,mKarTel,,D07,2016-10-30T19:18:44+06:00,
1000000000270556,77472033807,mMTS,mKcell,mMTS,D02,D77,2016-10-30T19:27:29+06:00,
