NPId,Number,RecipientId,DonorId,RangeHolderId,OldRoute,NewRoute,PortDate,RowCount
1000000000278108,77053830001,mAltel,mKarTel,mKarTel,,D07,2016-11-12T12:02:07+06:00,13
1000000000278109,77071690099,mAltel,mKcell,mMTS,D02,D07,2016-11-12T12:03:33+06:00,
1000000000278111,77071453030,mKarTel,mMTS,mMTS,,D01,2016-11-12T12:04:08+06:00,
1000000000278112,77712113090,mAltel,mKarTel,mKarTel,,D07,2016-11-12T12:05:14+06:00,
1000000000278113,77751178802,mMTS,mKcell,mKcell,,D77,2016-11-12T12:06:13+06:00,
1000000000278114,77051610538,mMTS,mKarTel,mKarTel,,D77,2016-11-12T12:11:19+06:00,
1000000000278116,77075352683,mKarTel,mMTS,mMTS,,D01,2016-11-12T12:13:12+06:00,
1000000000278117,77012660909,mKarTel,mKcell,mKcell,,D01,2016-11-12T12:14:12+06:00,
1000000000278119,77019482788,mMTS,mKcell,mKcell,,D77,2016-11-12T12:15:15+06:00,
1000000000278120,77714563775,mAltel,mKarTel,mKarTel,,D07,2016-11-12T12:17:08+06:00,
1000000000278122,77011401805,mAltel,mKcell,mKcell,,D07,2016-11-12T12:21:33+06:00,
1000000000278123,77015714196,mAltel,mKcell,mKcell,,D07,2016-11-12T12:20:37+06:00,
1000000000278124,77786994930,mKarTel,mKcell,mKcell,,D01,2016-11-12T12:21:47+06:00,
