NPId,Number,RecipientId,DonorId,RangeHolderId,OldRoute,NewRoute,PortDate,RowCount
1000000000228291,77015616175,mKcell,mAltel,mKcell,D07,D02,2016-08-15T18:47:38+06:00,27
1000000000229410,77774294444,mKcell,mKarTel,mKarTel,,D02,2016-08-15T18:31:15+06:00,
1000000000229413,77077676866,mKarTel,mMTS,mMTS,,D01,2016-08-15T18:33:12+06:00,
1000000000229414,77077676899,mKarTel,mMTS,mMTS,,D01,2016-08-15T18:33:13+06:00,
1000000000229415,77077587211,mKarTel,mMTS,mMTS,,D01,2016-08-15T18:33:13+06:00,
1000000000229417,77071118259,mKarTel,mKcell,mMTS,D02,D01,2016-08-15T18:33:49+06:00,
1000000000229418,77077004162,mKarTel,mMTS,mMTS,,D01,2016-08-15T18:35:30+06:00,
1000000000229421,77086266138,mMTS,mAltel,mAltel,,D77,2016-08-15T18:37:42+06:00,
1000000000229422,77755869774,mKcell,mAltel,mKcell,D07,D02,2016-08-15T18:39:11+06:00,
1000000000229423,77713911999,mKcell,mKarTel,mKarTel,,D02,2016-08-15T18:41:49+06:00,
1000000000229424,77012373099,mKarTel,mKcell,mKcell,,D01,2016-08-15T18:41:29+06:00,
1000000000229425,77079777711,mKcell,mMTS,mMTS,,D02,2016-08-15T18:41:04+06:00,
1000000000229426,77767555001,mKcell,mKarTel,mKarTel,,D02,2016-08-15T18:43:38+06:00,
1000000000229427,77751774061,mMTS,mKcell,mKcell,,D77,2016-08-15T18:42:24+06:00,
1000000000229428,77476703764,mAltel,mMTS,mMTS,,D07,2016-08-15T18:42:33+06:00,
1000000000229429,77470596352,mKcell,mMTS,mMTS,,D02,2016-08-15T18:45:49+06:00,
1000000000229430,77079707043,mKarTel,mMTS,mMTS,,D01,2016-08-15T18:47:17+06:00,
1000000000229432,77013382177,mKcell,mMTS,mKcell,D77,D02,2016-08-15T18:48:54+06:00,
1000000000229433,77021899929,mKarTel,mKcell,mKcell,,D01,2016-08-15T18:50:12+06:00,
1000000000229434,77777362028,mAltel,mKarTel,mKarTel,,D07,2016-08-15T18:51:14+06:00,
1000000000229435,77761633333,mMTS,mKarTel,mKarTel,,D77,2016-08-15T18:52:21+06:00,
1000000000229436,77055832789,mMTS,mKarTel,mKarTel,,D77,2016-08-15T18:52:57+06:00,
1000000000229437,77479479414,mKcell,mMTS,mMTS,,D02,2016-08-15T18:52:39+06:00,
1000000000229438,77073031031,mKcell,mMTS,mMTS,,D02,2016-08-15T18:53:59+06:00,
1000000000229439,77784949944,mKcell,mMTS,mKcell,D77,D02,2016-08-15T18:54:28+06:00,
1000000000229440,77078293602,mKarTel,mMTS,mMTS,,D01,2016-08-15T18:56:29+06:00,
1000000000229442,77055609742,mMTS,mKarTel,mKarTel,,D77,2016-08-15T18:59:10+06:00,
