NPId,Number,RecipientId,DonorId,RangeHolderId,OldRoute,NewRoute,PortDate,RowCount
1000000000174338,77772848206,mAltel,mKarTel,mKarTel,,D07,2016-05-14T17:30:04+06:00,30
1000000000174339,77077010555,mKarTel,mMTS,mMTS,,D01,2016-05-14T17:31:49+06:00,
1000000000174340,77004608513,mMTS,mAltel,mAltel,,D77,2016-05-14T17:31:47+06:00,
1000000000174341,77475904011,mKcell,mMTS,mMTS,,D02,2016-05-14T17:32:47+06:00,
1000000000174346,77773881189,mMTS,mKarTel,mKarTel,,D77,2016-05-14T17:37:22+06:00,
1000000000174347,77017536956,mAltel,mKcell,mKcell,,D07,2016-05-14T17:38:31+06:00,
1000000000174348,77009666564,mMTS,mAltel,mAltel,,D77,2016-05-14T17:39:59+06:00,
1000000000174349,77078100002,mAltel,mKcell,mMTS,D02,D07,2016-05-14T17:40:36+06:00,
1000000000174350,77017690967,mKcell,mKarTel,mKcell,D01,D02,2016-05-14T17:41:51+06:00,
1000000000174352,77760018809,mMTS,mKarTel,mKarTel,,D77,2016-05-14T17:41:12+06:00,
1000000000174353,77089053984,mMTS,mAltel,mAltel,,D77,2016-05-14T17:41:00+06:00,
1000000000174355,77028709991,mMTS,mKcell,mKcell,,D77,2016-05-14T17:42:47+06:00,
1000000000174356,77778077770,mMTS,mAltel,mKarTel,D07,D77,2016-05-14T17:42:02+06:00,
1000000000174357,77002264264,mKcell,mAltel,mAltel,,D02,2016-05-14T17:43:09+06:00,
1000000000174358,77017666087,mMTS,mKcell,mKcell,,D77,2016-05-14T17:43:23+06:00,
1000000000174359,77018558819,mMTS,mKcell,mKcell,,D77,2016-05-14T17:44:38+06:00,
1000000000174360,77011742985,mKcell,mAltel,mKcell,D07,D02,2016-05-14T17:48:22+06:00,
1000000000174361,77017925318,mAltel,mKcell,mKcell,,D07,2016-05-14T17:48:12+06:00,
1000000000174362,77772117192,mKcell,mKarTel,mKarTel,,D02,2016-05-14T17:49:32+06:00,
1000000000174363,77712724955,mKcell,mKarTel,mKarTel,,D02,2016-05-14T17:50:32+06:00,
1000000000174364,77072731322,mKcell,mMTS,mMTS,,D02,2016-05-14T17:51:30+06:00,
1000000000174365,77073333753,mKarTel,mMTS,mMTS,,D01,2016-05-14T17:51:45+06:00,
1000000000174366,77027036992,mMTS,mKcell,mKcell,,D77,2016-05-14T17:53:10+06:00,
1000000000174367,77080252745,mMTS,mAltel,mAltel,,D77,2016-05-14T17:54:05+06:00,
1000000000174368,77075120520,mKcell,mMTS,mMTS,,D02,2016-05-14T17:56:39+06:00,
1000000000174369,77013472358,mKcell,mMTS,mKcell,D77,D02,2016-05-14T17:56:58+06:00,
1000000000174370,77011910601,mKcell,mMTS,mKcell,D77,D02,2016-05-14T17:56:56+06:00,
1000000000174371,77756276461,mMTS,mKcell,mKcell,,D77,2016-05-14T17:57:47+06:00,
1000000000174372,77075129980,mKcell,mMTS,mMTS,,D02,2016-05-14T17:58:52+06:00,
1000000000174373,77016812222,mKarTel,mKcell,mKcell,,D01,2016-05-14T17:58:55+06:00,
