NPId,Number,RecipientId,DonorId,RangeHolderId,OldRoute,NewRoute,PortDate,RowCount
1000000000443024,77077177958,mMTS,mKarTel,mMTS,D01,D77,2017-08-21T13:00:44+06:00,23
1000000000443025,77767741175,mMTS,mKarTel,mKarTel,,D77,2017-08-21T13:02:02+06:00,
1000000000443026,77083629956,mKarTel,mAltel,mAltel,,D01,2017-08-21T13:01:48+06:00,
1000000000443028,77471688860,mKarTel,mMTS,mMTS,,D01,2017-08-21T13:05:23+06:00,
1000000000443029,77075661201,mMTS,mAltel,mMTS,D07,D77,2017-08-21T13:05:52+06:00,
1000000000443031,77083629958,mKarTel,mAltel,mAltel,,D01,2017-08-21T13:08:40+06:00,
1000000000443032,77475958195,mKcell,mMTS,mMTS,,D02,2017-08-21T13:11:20+06:00,
1000000000443033,77022308555,mKcell,mKarTel,mKcell,D01,D02,2017-08-21T13:11:57+06:00,
1000000000443034,77011342415,mAltel,mKcell,mKcell,,D07,2017-08-21T13:12:06+06:00,
1000000000443035,77011607878,mKarTel,mKcell,mKcell,,D01,2017-08-21T13:12:23+06:00,
1000000000443036,77762705000,mKcell,mKarTel,mKarTel,,D02,2017-08-21T13:13:39+06:00,
1000000000443037,77007166678,mMTS,mAltel,mAltel,,D77,2017-08-21T13:14:27+06:00,
1000000000443038,77052044449,mKcell,mAltel,mKarTel,D07,D02,2017-08-21T13:14:43+06:00,
1000000000443040,77076090782,mKarTel,mMTS,mMTS,D77,D01,2017-08-21T13:16:29+06:00,
1000000000443041,77778006642,mMTS,mKarTel,mKarTel,,D77,2017-08-21T13:17:34+06:00,
1000000000443042,77758881502,mMTS,mKcell,mKcell,,D77,2017-08-21T13:19:04+06:00,
1000000000443044,77000800805,mKcell,mAltel,mAltel,,D02,2017-08-21T13:20:14+06:00,
1000000000443045,77782055800,mMTS,mKcell,mKcell,,D77,2017-08-21T13:20:37+06:00,
1000000000443046,77713137396,mMTS,mKarTel,mKarTel,,D77,2017-08-21T13:23:12+06:00,
1000000000443047,77001570872,mMTS,mAltel,mAltel,,D77,2017-08-21T13:23:24+06:00,
1000000000443048,77016687710,mMTS,mKcell,mKcell,,D77,2017-08-21T13:26:02+06:00,
1000000000443049,77077842794,mKcell,mMTS,mMTS,,D02,2017-08-21T13:26:42+06:00,
1000000000443051,77027691651,mMTS,mKcell,mKcell,,D77,2017-08-21T13:27:37+06:00,
