NPId,Number,RecipientId,DonorId,RangeHolderId,OldRoute,NewRoute,PortDate,RowCount
1000000000346320,77004820116,mMTS,mAltel,mAltel,,D77,2017-03-14T13:00:45+06:00,18
1000000000346323,77019997194,mAltel,mKarTel,mKcell,D01,D07,2017-03-14T13:02:24+06:00,
1000000000346324,77077902442,mAltel,mMTS,mMTS,,D07,2017-03-14T13:03:17+06:00,
1000000000346330,77077490633,mAltel,mMTS,mMTS,,D07,2017-03-14T13:11:46+06:00,
1000000000346332,77021116998,mMTS,mKcell,mKcell,,D77,2017-03-14T13:13:03+06:00,
1000000000346333,77477021077,mMTS,mAltel,mMTS,D07,D77,2017-03-14T13:13:33+06:00,
1000000000346334,77777461166,mMTS,mKarTel,mKarTel,D01,D77,2017-03-14T13:14:18+06:00,
1000000000346335,77762211666,mMTS,mKarTel,mKarTel,,D77,2017-03-14T13:14:18+06:00,
1000000000346336,77715358962,mMTS,mKarTel,mKarTel,,D77,2017-03-14T13:17:13+06:00,
1000000000346340,77021901211,mMTS,mKcell,mKcell,,D77,2017-03-14T13:19:06+06:00,
1000000000346341,77017767754,mAltel,mKcell,mKcell,,D07,2017-03-14T13:19:39+06:00,
1000000000346343,77079440402,mKcell,mMTS,mMTS,,D02,2017-03-14T13:21:37+06:00,
1000000000346345,77001001995,mKcell,mMTS,mAltel,D77,D02,2017-03-14T13:23:23+06:00,
1000000000346350,77007774668,mMTS,mAltel,mAltel,,D77,2017-03-14T13:26:13+06:00,
1000000000346352,77785830368,mMTS,mKarTel,mKcell,D01,D77,2017-03-14T13:27:33+06:00,
1000000000346354,77785788893,mMTS,mKcell,mKcell,,D77,2017-03-14T13:28:33+06:00,
1000000000346355,77077902424,mAltel,mMTS,mMTS,,D07,2017-03-14T13:28:49+06:00,
1000000000346356,77083000397,mMTS,mAltel,mAltel,,D77,2017-03-14T13:29:41+06:00,
