NPId,Number,RecipientId,DonorId,RangeHolderId,OldRoute,NewRoute,PortDate,RowCount
1000000000293881,77089059668,mKcell,mMTS,mAltel,D77,D02,2016-12-12T13:31:03+06:00,27
1000000000293883,77073657022,mMTS,mKcell,mMTS,D02,D77,2016-12-12T13:32:42+06:00,
1000000000293884,77479777085,mMTS,mKcell,mMTS,D02,D77,2016-12-12T13:32:42+06:00,
1000000000293886,77013915968,mKarTel,mKcell,mKcell,,D01,2016-12-12T13:33:48+06:00,
1000000000293888,77015557823,mKarTel,mKcell,mKcell,,D01,2016-12-12T13:35:21+06:00,
1000000000293891,77770469121,mMTS,mKarTel,mKarTel,,D77,2016-12-12T13:36:06+06:00,
1000000000293895,77016483804,mMTS,mKcell,mKcell,,D77,2016-12-12T13:37:41+06:00,
1000000000293896,77756041664,mMTS,mAltel,mKcell,D07,D77,2016-12-12T13:37:41+06:00,
1000000000293897,77076797603,mMTS,mAltel,mMTS,D07,D77,2016-12-12T13:37:56+06:00,
1000000000293900,77076221285,mMTS,mKcell,mMTS,D02,D77,2016-12-12T13:39:24+06:00,
1000000000293901,77013930583,mMTS,mKcell,mKcell,,D77,2016-12-12T13:40:06+06:00,
1000000000293904,77775230333,mAltel,mKarTel,mKarTel,,D07,2016-12-12T13:43:16+06:00,
1000000000293905,77026480112,mAltel,mKcell,mKcell,,D07,2016-12-12T13:43:37+06:00,
1000000000293906,77013129423,mKarTel,mKcell,mKcell,,D01,2016-12-12T13:46:35+06:00,
1000000000293908,77013449413,mKarTel,mKcell,mKcell,,D01,2016-12-12T13:51:05+06:00,
1000000000293909,77014036213,mAltel,mKcell,mKcell,,D07,2016-12-12T13:48:45+06:00,
1000000000293910,77075720222,mMTS,mKcell,mMTS,D02,D77,2016-12-12T13:49:53+06:00,
1000000000293911,77056291574,mMTS,mKarTel,mKarTel,,D77,2016-12-12T13:50:08+06:00,
1000000000293912,77029347094,mKcell,mMTS,mKcell,D77,D02,2016-12-12T13:51:22+06:00,
1000000000293914,77771317810,mKcell,mKarTel,mKarTel,,D02,2016-12-12T13:51:43+06:00,
1000000000293915,77022965553,mKarTel,mKcell,mKcell,,D01,2016-12-12T13:55:17+06:00,
1000000000293916,77014378868,mKcell,mAltel,mKcell,D07,D02,2016-12-12T13:55:12+06:00,
1000000000293917,77785672565,mAltel,mKcell,mKcell,,D07,2016-12-12T13:55:37+06:00,
1000000000293918,77760072050,mMTS,mKarTel,mKarTel,,D77,2016-12-12T13:55:57+06:00,
1000000000293919,77756033053,mMTS,mKcell,mKcell,,D77,2016-12-12T13:57:41+06:00,
1000000000293920,77773800843,mMTS,mKarTel,mKarTel,,D77,2016-12-12T13:58:00+06:00,
1000000000293921,77086925318,mKarTel,mMTS,mAltel,D77,D01,2016-12-12T13:57:51+06:00,
