NPId,Number,RecipientId,DonorId,RangeHolderId,OldRoute,NewRoute,PortDate,RowCount
1000000000320166,77003332878,mKcell,mAltel,mAltel,,D02,2017-01-31T15:01:26+06:00,32
1000000000320167,77765966668,mKcell,mKarTel,mKarTel,,D02,2017-01-31T15:01:56+06:00,
1000000000320168,77028867822,mMTS,mKcell,mKcell,,D77,2017-01-31T15:02:14+06:00,
1000000000320170,77475132313,mKarTel,mMTS,mMTS,,D01,2017-01-31T15:06:40+06:00,
1000000000320172,77072204521,mKcell,mMTS,mMTS,,D02,2017-01-31T15:06:38+06:00,
1000000000320173,77004447828,mKcell,mAltel,mAltel,,D02,2017-01-31T15:06:48+06:00,
1000000000320175,77052231819,mMTS,mKarTel,mKarTel,,D77,2017-01-31T15:07:20+06:00,
1000000000320176,77785050600,mKcell,mKarTel,mKcell,D01,D02,2017-01-31T15:07:55+06:00,
1000000000320178,77768494949,mMTS,mKarTel,mKarTel,,D77,2017-01-31T15:08:30+06:00,
1000000000320179,77765822223,mKcell,mKarTel,mKarTel,,D02,2017-01-31T15:08:50+06:00,
1000000000320180,77077502252,mKarTel,mMTS,mMTS,,D01,2017-01-31T15:09:19+06:00,
1000000000320182,77070405529,mMTS,mKarTel,mMTS,D01,D77,2017-01-31T15:26:03+06:00,
1000000000320184,77070441973,mMTS,mKarTel,mMTS,D01,D77,2017-01-31T15:26:43+06:00,
1000000000320186,77073888354,mMTS,mKarTel,mMTS,D01,D77,2017-01-31T15:27:20+06:00,
1000000000320187,77073888426,mMTS,mKarTel,mMTS,D01,D77,2017-01-31T15:27:56+06:00,
1000000000320188,77076477777,mMTS,mKarTel,mMTS,D01,D77,2017-01-31T15:28:29+06:00,
1000000000320191,77781177007,mKarTel,mKcell,mKcell,,D01,2017-01-31T15:14:07+06:00,
1000000000320192,77078393176,mMTS,mKarTel,mMTS,D01,D77,2017-01-31T15:29:25+06:00,
1000000000320193,77052432617,mMTS,mKarTel,mKarTel,,D77,2017-01-31T15:14:20+06:00,
1000000000320194,77017075407,mKarTel,mKcell,mKcell,,D01,2017-01-31T15:14:55+06:00,
1000000000320195,77015012222,mKarTel,mKcell,mKcell,,D01,2017-01-31T15:15:33+06:00,
1000000000320198,77059006399,mMTS,mKarTel,mKarTel,,D77,2017-01-31T15:16:39+06:00,
1000000000320202,77071129690,mAltel,mMTS,mMTS,,D07,2017-01-31T15:18:17+06:00,
1000000000320205,77004447929,mKcell,mAltel,mAltel,,D02,2017-01-31T15:20:34+06:00,
1000000000320207,77025222003,mMTS,mKcell,mKcell,,D77,2017-01-31T15:22:17+06:00,
1000000000320209,77715745705,mMTS,mKarTel,mKarTel,,D77,2017-01-31T15:23:20+06:00,
1000000000320210,77003336919,mKcell,mAltel,mAltel,,D02,2017-01-31T15:23:28+06:00,
1000000000320211,77774696277,mMTS,mKarTel,mKarTel,,D77,2017-01-31T15:23:27+06:00,
1000000000320212,77771777593,mMTS,mKarTel,mKarTel,,D77,2017-01-31T15:25:49+06:00,
1000000000320214,77011998818,mKarTel,mKcell,mKcell,,D01,2017-01-31T15:27:11+06:00,
1000000000320215,77757344293,mMTS,mKcell,mKcell,,D77,2017-01-31T15:27:14+06:00,
1000000000320216,77714360000,mKarTel,mMTS,mKarTel,D77,D01,2017-01-31T15:29:33+06:00,
