NPId,Number,RecipientId,DonorId,RangeHolderId,OldRoute,NewRoute,PortDate,RowCount
1000000000199443,77073939393,mMTS,mAltel,mMTS,D07,D77,2016-06-24T19:01:08+06:00,14
1000000000199444,77074449201,mMTS,mAltel,mMTS,D07,D77,2016-06-24T19:01:11+06:00,
1000000000199445,77477577677,mKarTel,mMTS,mMTS,,D01,2016-06-24T19:05:01+06:00,
1000000000199448,77764444878,mMTS,mKarTel,mKarTel,,D77,2016-06-24T19:12:12+06:00,
1000000000199449,77082207077,mMTS,mAltel,mAltel,,D77,2016-06-24T19:12:12+06:00,
1000000000199450,77016120452,mKcell,mKarTel,mKcell,D01,D02,2016-06-24T19:13:24+06:00,
1000000000199451,77011236889,mMTS,mKcell,mKcell,,D77,2016-06-24T19:21:06+06:00,
1000000000199452,77753510735,mKcell,mAltel,mKcell,D07,D02,2016-06-24T19:23:27+06:00,
1000000000199454,77077977999,mKcell,mMTS,mMTS,,D02,2016-06-24T19:25:18+06:00,
1000000000199455,77023803529,mKarTel,mMTS,mKcell,D77,D01,2016-06-24T19:25:14+06:00,
1000000000199457,77007775037,mKarTel,mAltel,mAltel,,D01,2016-06-24T19:26:28+06:00,
1000000000199458,77786483893,mMTS,mKcell,mKcell,,D77,2016-06-24T19:27:13+06:00,
1000000000199459,77760907070,mKcell,mKarTel,mKarTel,,D02,2016-06-24T19:27:53+06:00,
1000000000199461,77017247810,mAltel,mKcell,mKcell,,D07,2016-06-24T19:28:58+06:00,
