NPId,Number,RecipientId,DonorId,RangeHolderId,OldRoute,NewRoute,PortDate,RowCount
1000000000278247,77052653773,mKarTel,mKcell,mKarTel,D02,D01,2016-11-12T14:30:18+06:00,42
1000000000278248,77714929966,mKarTel,mMTS,mKarTel,D77,D01,2016-11-12T14:30:25+06:00,
1000000000278249,77759499811,mAltel,mKcell,mKcell,,D07,2016-11-12T14:30:25+06:00,
1000000000278250,77761166006,mKcell,mMTS,mKarTel,D77,D02,2016-11-12T14:31:43+06:00,
1000000000278251,77714929955,mKarTel,mMTS,mKarTel,D77,D01,2016-11-12T14:32:20+06:00,
1000000000278252,77014118770,mMTS,mKcell,mKcell,,D77,2016-11-12T14:32:19+06:00,
1000000000278253,77714003102,mKcell,mKarTel,mKarTel,,D02,2016-11-12T14:33:14+06:00,
1000000000278254,77023350105,mKcell,mAltel,mKcell,D07,D02,2016-11-12T14:34:03+06:00,
1000000000278255,77714929900,mKarTel,mMTS,mKarTel,D77,D01,2016-11-12T14:34:16+06:00,
1000000000278256,77028996969,mKcell,mMTS,mKcell,D77,D02,2016-11-12T14:34:19+06:00,
1000000000278257,77052653767,mKarTel,mKcell,mKarTel,D02,D01,2016-11-12T14:35:11+06:00,
1000000000278258,77017193216,mKcell,mKarTel,mKcell,D01,D02,2016-11-12T14:35:44+06:00,
1000000000278260,77052653766,mKarTel,mKcell,mKarTel,D02,D01,2016-11-12T14:37:22+06:00,
1000000000278261,77774798602,mMTS,mKarTel,mKarTel,,D77,2016-11-12T14:37:26+06:00,
1000000000278262,77777060888,mAltel,mKarTel,mKarTel,,D07,2016-11-12T14:37:36+06:00,
1000000000278263,77760700060,mAltel,mKarTel,mKarTel,,D07,2016-11-12T14:37:54+06:00,
1000000000278264,77021603737,mAltel,mKcell,mKcell,,D07,2016-11-12T14:37:43+06:00,
1000000000278265,77007412040,mKcell,mAltel,mAltel,,D02,2016-11-12T14:39:04+06:00,
1000000000278266,77476144758,mKcell,mMTS,mMTS,,D02,2016-11-12T14:39:08+06:00,
1000000000278267,77052653756,mKarTel,mKcell,mKarTel,D02,D01,2016-11-12T14:40:03+06:00,
1000000000278268,77054233210,mAltel,mKarTel,mKarTel,,D07,2016-11-12T14:40:14+06:00,
1000000000278269,77015596907,mKcell,mMTS,mKcell,D77,D02,2016-11-12T14:40:30+06:00,
1000000000278270,77052653758,mKarTel,mKcell,mKarTel,D02,D01,2016-11-12T14:41:24+06:00,
1000000000278273,77781769632,mKcell,mAltel,mKcell,D07,D02,2016-11-12T14:43:13+06:00,
1000000000278274,77016863936,mMTS,mKcell,mKcell,,D77,2016-11-12T14:43:30+06:00,
1000000000278275,77024333040,mKcell,mMTS,mKcell,D77,D02,2016-11-12T14:43:59+06:00,
1000000000278277,77057145525,mAltel,mKarTel,mKarTel,,D07,2016-11-12T14:45:02+06:00,
1000000000278278,77007412044,mKcell,mAltel,mAltel,,D02,2016-11-12T14:46:16+06:00,
1000000000278280,77775817779,mKcell,mKarTel,mKarTel,,D02,2016-11-12T14:47:15+06:00,
1000000000278281,77772705771,mMTS,mKarTel,mKarTel,,D77,2016-11-12T14:47:02+06:00,
1000000000278284,77027080973,mMTS,mKcell,mKcell,,D77,2016-11-12T14:47:57+06:00,
1000000000278285,77715785969,mMTS,mKarTel,mKarTel,,D77,2016-11-12T14:48:57+06:00,
1000000000278286,77026443516,mKcell,mMTS,mKcell,D77,D02,2016-11-12T14:48:52+06:00,
1000000000278287,77773616201,mMTS,mKarTel,mKarTel,,D77,2016-11-12T14:50:43+06:00,
1000000000278288,77771329900,mMTS,mKarTel,mKarTel,,D77,2016-11-12T14:50:52+06:00,
1000000000278289,77711515161,mAltel,mKarTel,mKarTel,,D07,2016-11-12T14:52:09+06:00,
1000000000278290,77028765649,mKcell,mAltel,mKcell,D07,D02,2016-11-12T14:52:28+06:00,
1000000000278291,77014049062,mKcell,mMTS,mKcell,D77,D02,2016-11-12T14:52:54+06:00,
1000000000278292,77711777171,mKcell,mKarTel,mKarTel,,D02,2016-11-12T14:52:53+06:00,
1000000000278293,77085501052,mKcell,mAltel,mAltel,,D02,2016-11-12T14:52:28+06:00,
1000000000278294,77775820496,mKcell,mKarTel,mKarTel,,D02,2016-11-12T14:57:03+06:00,
1000000000278296,77768502002,mKcell,mKarTel,mKarTel,,D02,2016-11-12T14:59:57+06:00,
