NPId,Number,RecipientId,DonorId,RangeHolderId,OldRoute,NewRoute,PortDate,RowCount
1000000000440273,77011811527,mKarTel,mKcell,mKcell,,D01,2017-08-15T14:30:41+06:00,20
1000000000440274,77026302018,mMTS,mKcell,mKcell,,D77,2017-08-15T14:31:45+06:00,
1000000000440275,77029702213,mKarTel,mKcell,mKcell,,D01,2017-08-15T14:32:17+06:00,
1000000000440276,77019129919,mAltel,mKcell,mKcell,,D07,2017-08-15T14:35:54+06:00,
1000000000440277,77058885686,mKarTel,mMTS,mKarTel,D77,D01,2017-08-15T14:38:30+06:00,
1000000000440279,77017838292,mKcell,mMTS,mKcell,D77,D02,2017-08-15T14:39:43+06:00,
1000000000440280,77072432300,mAltel,mMTS,mMTS,,D07,2017-08-15T14:40:37+06:00,
1000000000440281,77003332299,mKcell,mAltel,mAltel,,D02,2017-08-15T14:42:21+06:00,
1000000000440283,77073629191,mKcell,mMTS,mMTS,,D02,2017-08-15T14:43:46+06:00,
1000000000440285,77022229696,mAltel,mMTS,mKcell,D77,D07,2017-08-15T14:43:59+06:00,
1000000000440286,77774191992,mKcell,mKarTel,mKarTel,,D02,2017-08-15T14:45:30+06:00,
1000000000440288,77015551061,mMTS,mKcell,mKcell,,D77,2017-08-15T14:45:51+06:00,
1000000000440292,77052479487,mKarTel,mMTS,mKarTel,D77,D01,2017-08-15T14:47:24+06:00,
1000000000440293,77004495000,mKcell,mAltel,mAltel,,D02,2017-08-15T14:49:06+06:00,
1000000000440294,77783788882,mKarTel,mMTS,mKcell,D77,D01,2017-08-15T14:51:31+06:00,
1000000000440295,77075516977,mAltel,mMTS,mMTS,,D07,2017-08-15T14:51:30+06:00,
1000000000440296,77765218842,mMTS,mKarTel,mKarTel,,D77,2017-08-15T14:53:21+06:00,
1000000000440298,77054144788,mAltel,mKarTel,mKarTel,,D07,2017-08-15T14:55:25+06:00,
1000000000440301,77755912124,mKcell,mAltel,mKcell,D07,D02,2017-08-15T14:58:26+06:00,
1000000000440302,77751096185,mMTS,mKcell,mKcell,,D77,2017-08-15T14:58:21+06:00,
