NPId,Number,RecipientId,DonorId,RangeHolderId,OldRoute,NewRoute,PortDate,RowCount
1000000000434845,77019909770,mKarTel,mKcell,mKcell,,D01,2017-08-04T15:06:53+06:00,24
1000000000434846,77079550011,mKcell,mKarTel,mMTS,D01,D02,2017-08-04T15:07:20+06:00,
1000000000434849,77775900303,mKarTel,mMTS,mKarTel,D77,D01,2017-08-04T15:08:46+06:00,
1000000000434850,77055870244,mMTS,mKarTel,mKarTel,,D77,2017-08-04T15:08:51+06:00,
1000000000434851,77081909199,mAltel,mMTS,mAltel,D77,D07,2017-08-04T15:08:44+06:00,
1000000000434852,77000707272,mMTS,mAltel,mAltel,,D77,2017-08-04T15:08:47+06:00,
1000000000434856,77751511101,mKcell,mMTS,mKcell,D77,D02,2017-08-04T15:11:23+06:00,
1000000000434857,77026580187,mMTS,mKcell,mKcell,,D77,2017-08-04T15:11:24+06:00,
1000000000434863,77078221449,mAltel,mMTS,mMTS,,D07,2017-08-04T15:13:04+06:00,
1000000000434868,77054610500,mKcell,mAltel,mKarTel,D07,D02,2017-08-04T15:14:27+06:00,
1000000000434869,77027374725,mKarTel,mKcell,mKcell,,D01,2017-08-04T15:14:35+06:00,
1000000000434870,77019991073,mKarTel,mKcell,mKcell,,D01,2017-08-04T15:24:29+06:00,
1000000000434871,77078221412,mAltel,mMTS,mMTS,,D07,2017-08-04T15:15:08+06:00,
1000000000434872,77020006081,mMTS,mKcell,mKcell,,D77,2017-08-04T15:15:44+06:00,
1000000000434873,77072881011,mMTS,mKcell,mMTS,D02,D77,2017-08-04T15:17:33+06:00,
1000000000434876,77072592979,mKarTel,mMTS,mMTS,,D01,2017-08-04T15:25:06+06:00,
1000000000434877,77754666620,mMTS,mKcell,mKcell,,D77,2017-08-04T15:20:08+06:00,
1000000000434878,77015766071,mMTS,mKcell,mKcell,,D77,2017-08-04T15:20:39+06:00,
1000000000434880,77026369396,mMTS,mKcell,mKcell,,D77,2017-08-04T15:22:09+06:00,
1000000000434881,77017476901,mKarTel,mKcell,mKcell,,D01,2017-08-04T15:25:51+06:00,
1000000000434883,77012141313,mKarTel,mKcell,mKcell,,D01,2017-08-04T15:26:10+06:00,
1000000000434884,77017977171,mKarTel,mKcell,mKcell,,D01,2017-08-04T15:25:53+06:00,
1000000000434885,77776083852,mKcell,mKarTel,mKarTel,,D02,2017-08-04T15:25:59+06:00,
1000000000434886,77007327320,mKcell,mAltel,mAltel,,D02,2017-08-04T15:27:34+06:00,
