NPId,Number,RecipientId,DonorId,RangeHolderId,OldRoute,NewRoute,PortDate,RowCount
1000000000143738,77019587670,mKarTel,mKcell,mKcell,,D01,2016-04-06T15:47:24+06:00,108
1000000000143738,77019587671,mKarTel,mKcell,mKcell,,D01,2016-04-06T15:47:24+06:00,
1000000000143738,77019587672,mKarTel,mKcell,mKcell,,D01,2016-04-06T15:47:24+06:00,
1000000000143738,77019587673,mKarTel,mKcell,mKcell,,D01,2016-04-06T15:47:24+06:00,
1000000000143738,77019587679,mKarTel,mKcell,mKcell,,D01,2016-04-06T15:47:24+06:00,
1000000000143738,77019587681,mKarTel,mKcell,mKcell,,D01,2016-04-06T15:47:24+06:00,
1000000000143738,77019826825,mKarTel,mKcell,mKcell,,D01,2016-04-06T15:47:24+06:00,
1000000000143823,77010276137,mKarTel,mKcell,mKcell,,D01,2016-04-06T15:36:05+06:00,
1000000000143823,77010280574,mKarTel,mKcell,mKcell,,D01,2016-04-06T15:36:05+06:00,
1000000000143823,77010290734,mKarTel,mKcell,mKcell,,D01,2016-04-06T15:36:05+06:00,
1000000000143823,77010329325,mKarTel,mKcell,mKcell,,D01,2016-04-06T15:36:05+06:00,
1000000000143823,77010344571,mKarTel,mKcell,mKcell,,D01,2016-04-06T15:36:05+06:00,
1000000000143823,77010344576,mKarTel,mKcell,mKcell,,D01,2016-04-06T15:36:05+06:00,
1000000000143823,77010344578,mKarTel,mKcell,mKcell,,D01,2016-04-06T15:36:05+06:00,
1000000000143823,77010344590,mKarTel,mKcell,mKcell,,D01,2016-04-06T15:36:05+06:00,
1000000000143823,77010919808,mKarTel,mKcell,mKcell,,D01,2016-04-06T15:36:05+06:00,
1000000000143823,77012045707,mKarTel,mKcell,mKcell,,D01,2016-04-06T15:36:05+06:00,
1000000000143823,77012060191,mKarTel,mKcell,mKcell,,D01,2016-04-06T15:36:05+06:00,
1000000000143823,77012085090,mKarTel,mKcell,mKcell,,D01,2016-04-06T15:36:05+06:00,
1000000000143823,77012213354,mKarTel,mKcell,mKcell,,D01,2016-04-06T15:36:05+06:00,
1000000000143823,77012217459,mKarTel,mKcell,mKcell,,D01,2016-04-06T15:36:05+06:00,
1000000000143823,77012669687,mKarTel,mKcell,mKcell,,D01,2016-04-06T15:36:05+06:00,
1000000000143823,77015113249,mKarTel,mKcell,mKcell,,D01,2016-04-06T15:36:05+06:00,
1000000000143823,77015116529,mKarTel,mKcell,mKcell,,D01,2016-04-06T15:36:05+06:00,
1000000000143823,77015191010,mKarTel,mKcell,mKcell,,D01,2016-04-06T15:36:05+06:00,
1000000000143823,77015233621,mKarTel,mKcell,mKcell,,D01,2016-04-06T15:36:05+06:00,
1000000000143823,77015272159,mKarTel,mKcell,mKcell,,D01,2016-04-06T15:36:05+06:00,
1000000000143823,77015300044,mKarTel,mKcell,mKcell,,D01,2016-04-06T15:36:05+06:00,
1000000000143823,77015388887,mKarTel,mKcell,mKcell,,D01,2016-04-06T15:36:05+06:00,
1000000000143823,77015442976,mKarTel,mKcell,mKcell,,D01,2016-04-06T15:36:05+06:00,
1000000000143823,77015712943,mKarTel,mKcell,mKcell,,D01,2016-04-06T15:36:05+06:00,
1000000000143823,77015773333,mKarTel,mKcell,mKcell,,D01,2016-04-06T15:36:05+06:00,
1000000000143823,77015997346,mKarTel,mKcell,mKcell,,D01,2016-04-06T15:36:05+06:00,
1000000000143823,77017121895,mKarTel,mKcell,mKcell,,D01,2016-04-06T15:36:05+06:00,
1000000000143823,77017201799,mKarTel,mKcell,mKcell,,D01,2016-04-06T15:36:05+06:00,
1000000000143823,77017624064,mKarTel,mKcell,mKcell,,D01,2016-04-06T15:36:05+06:00,
1000000000143823,77017669101,mKarTel,mKcell,mKcell,,D01,2016-04-06T15:36:05+06:00,
1000000000143823,77017827012,mKarTel,mKcell,mKcell,,D01,2016-04-06T15:36:05+06:00,
1000000000143823,77017875702,mKarTel,mKcell,mKcell,,D01,2016-04-06T15:36:05+06:00,
1000000000143823,77017959514,mKarTel,mKcell,mKcell,,D01,2016-04-06T15:36:05+06:00,
1000000000143823,77017977838,mKarTel,mKcell,mKcell,,D01,2016-04-06T15:36:05+06:00,
1000000000143823,77019513909,mKarTel,mKcell,mKcell,,D01,2016-04-06T15:36:05+06:00,
1000000000143823,77019938221,mKarTel,mKcell,mKcell,,D01,2016-04-06T15:36:05+06:00,
1000000000143823,77022070770,mKarTel,mKcell,mKcell,,D01,2016-04-06T15:36:05+06:00,
1000000000143823,77022207600,mKarTel,mKcell,mKcell,,D01,2016-04-06T15:36:05+06:00,
1000000000143824,77010280604,mKarTel,mKcell,mKcell,,D01,2016-04-06T15:47:34+06:00,
1000000000143824,77010281858,mKarTel,mKcell,mKcell,,D01,2016-04-06T15:47:34+06:00,
1000000000143824,77012240217,mKarTel,mKcell,mKcell,,D01,2016-04-06T15:47:34+06:00,
1000000000143824,77015189491,mKarTel,mKcell,mKcell,,D01,2016-04-06T15:47:34+06:00,
1000000000143824,77015322338,mKarTel,mKcell,mKcell,,D01,2016-04-06T15:47:34+06:00,
1000000000143824,77017641013,mKarTel,mKcell,mKcell,,D01,2016-04-06T15:47:34+06:00,
1000000000143824,77019513922,mKarTel,mKcell,mKcell,,D01,2016-04-06T15:47:34+06:00,
1000000000143824,77019514810,mKarTel,mKcell,mKcell,,D01,2016-04-06T15:47:34+06:00,
1000000000144082,77017108800,mKarTel,mKcell,mKcell,,D01,2016-04-06T15:56:08+06:00,
1000000000144358,77717807001,mMTS,mKarTel,mKarTel,,D77,2016-04-06T15:36:43+06:00,
1000000000144385,77779213796,mMTS,mKarTel,mKarTel,,D77,2016-04-06T15:30:33+06:00,
1000000000144387,77022801155,mMTS,mKcell,mKcell,,D77,2016-04-06T15:30:53+06:00,
1000000000144388,77076933207,mMTS,mAltel,mMTS,D07,D77,2016-04-06T15:30:39+06:00,
1000000000144390,77082584808,mKarTel,mAltel,mAltel,,D01,2016-04-06T15:31:35+06:00,
1000000000144391,77059029352,mMTS,mKarTel,mKarTel,,D77,2016-04-06T15:32:43+06:00,
1000000000144392,77005237665,mKcell,mAltel,mAltel,,D02,2016-04-06T15:31:58+06:00,
1000000000144393,77029698822,mMTS,mKcell,mKcell,,D77,2016-04-06T15:31:49+06:00,
1000000000144395,77089858815,mMTS,mAltel,mAltel,,D77,2016-04-06T15:32:09+06:00,
1000000000144396,77056077661,mKcell,mKarTel,mKarTel,,D02,2016-04-06T15:35:06+06:00,
1000000000144397,77752622696,mMTS,mKcell,mKcell,,D77,2016-04-06T15:34:43+06:00,
1000000000144398,77017957309,mKcell,mAltel,mKcell,D07,D02,2016-04-06T15:36:56+06:00,
1000000000144399,77770066100,mKcell,mKarTel,mKarTel,,D02,2016-04-06T15:37:27+06:00,
1000000000144400,77028376768,mMTS,mKcell,mKcell,,D77,2016-04-06T15:37:26+06:00,
1000000000144401,77076421805,mAltel,mMTS,mMTS,,D07,2016-04-06T15:35:38+06:00,
1000000000144403,77017467310,mKcell,mAltel,mKcell,D07,D02,2016-04-06T15:38:39+06:00,
1000000000144404,77018886239,mAltel,mKcell,mKcell,,D07,2016-04-06T15:38:36+06:00,
1000000000144405,77751000025,mKcell,mAltel,mKcell,D07,D02,2016-04-06T15:38:55+06:00,
1000000000144406,77004130199,mKcell,mAltel,mAltel,,D02,2016-04-06T15:39:14+06:00,
1000000000144409,77007100090,mMTS,mAltel,mAltel,,D77,2016-04-06T15:40:17+06:00,
1000000000144410,77027509360,mKcell,mMTS,mKcell,D77,D02,2016-04-06T15:41:58+06:00,
1000000000144413,77081041787,mMTS,mAltel,mAltel,,D77,2016-04-06T15:41:53+06:00,
1000000000144414,77022304812,mMTS,mKcell,mKcell,,D77,2016-04-06T15:43:24+06:00,
1000000000144415,77004525446,mKcell,mAltel,mAltel,,D02,2016-04-06T15:43:52+06:00,
1000000000144416,77010980101,mMTS,mKcell,mKcell,,D77,2016-04-06T15:43:40+06:00,
1000000000144417,77086330454,mKcell,mAltel,mAltel,,D02,2016-04-06T15:45:14+06:00,
1000000000144418,77011065533,mMTS,mKcell,mKcell,,D77,2016-04-06T15:44:36+06:00,
1000000000144419,77011742429,mAltel,mKcell,mKcell,,D07,2016-04-06T15:44:56+06:00,
1000000000144420,77017883121,mMTS,mKcell,mKcell,,D77,2016-04-06T15:44:56+06:00,
1000000000144421,77004076459,mMTS,mAltel,mAltel,,D77,2016-04-06T15:44:40+06:00,
1000000000144422,77088888201,mKarTel,mAltel,mAltel,,D01,2016-04-06T15:45:18+06:00,
1000000000144423,77017843539,mAltel,mKcell,mKcell,,D07,2016-04-06T15:46:03+06:00,
1000000000144424,77085309243,mMTS,mAltel,mAltel,,D77,2016-04-06T15:45:02+06:00,
1000000000144425,77751416676,mMTS,mKcell,mKcell,,D77,2016-04-06T15:46:28+06:00,
1000000000144429,77759526475,mMTS,mKcell,mKcell,,D77,2016-04-06T15:46:53+06:00,
1000000000144431,77759355400,mKarTel,mKcell,mKcell,,D01,2016-04-06T15:48:08+06:00,
1000000000144432,77004525420,mKcell,mAltel,mAltel,,D02,2016-04-06T15:48:01+06:00,
1000000000144434,77477772393,mKcell,mMTS,mMTS,,D02,2016-04-06T15:48:11+06:00,
1000000000144435,77017554938,mMTS,mKcell,mKcell,,D77,2016-04-06T15:48:09+06:00,
1000000000144436,77772674348,mMTS,mKarTel,mKarTel,,D77,2016-04-06T15:51:07+06:00,
1000000000144439,77786218388,mMTS,mKcell,mKcell,,D77,2016-04-06T15:51:07+06:00,
1000000000144440,77017292554,mMTS,mKcell,mKcell,,D77,2016-04-06T15:51:18+06:00,
1000000000144442,77010808580,mMTS,mKcell,mKcell,,D77,2016-04-06T15:51:25+06:00,
1000000000144443,77004817215,mMTS,mAltel,mAltel,,D77,2016-04-06T15:51:48+06:00,
1000000000144444,77012962308,mMTS,mKcell,mKcell,,D77,2016-04-06T15:52:13+06:00,
1000000000144445,77764275577,mMTS,mKarTel,mKarTel,,D77,2016-04-06T15:53:41+06:00,
1000000000144446,77017753713,mMTS,mKcell,mKcell,,D77,2016-04-06T15:54:10+06:00,
1000000000144447,77772452296,mMTS,mKarTel,mKarTel,,D77,2016-04-06T15:56:10+06:00,
1000000000144448,77027257668,mMTS,mKcell,mKcell,,D77,2016-04-06T15:54:28+06:00,
1000000000144449,77072222277,mKcell,mMTS,mMTS,,D02,2016-04-06T15:54:53+06:00,
1000000000144451,77754873431,mMTS,mKcell,mKcell,,D77,2016-04-06T15:57:13+06:00,
1000000000144452,77004515932,mKcell,mAltel,mAltel,,D02,2016-04-06T15:58:32+06:00,
1000000000144453,77753316600,mMTS,mKcell,mKcell,,D77,2016-04-06T15:58:51+06:00,
1000000000144454,77024052389,mKarTel,mKcell,mKcell,,D01,2016-04-06T15:59:41+06:00,
