NPId,Number,RecipientId,DonorId,RangeHolderId,OldRoute,NewRoute,PortDate,RowCount
1000000000372594,77079098404,mKcell,mMTS,mMTS,,D02,2017-04-26T20:31:22+06:00,10
1000000000372595,77005000817,mKcell,mAltel,mAltel,,D02,2017-04-26T20:33:20+06:00,
1000000000372596,77005000837,mKcell,mAltel,mAltel,,D02,2017-04-26T20:37:30+06:00,
1000000000372597,77005000647,mKcell,mAltel,mAltel,,D02,2017-04-26T20:39:56+06:00,
1000000000372598,77007778795,mKcell,mAltel,mAltel,,D02,2017-04-26T20:47:29+06:00,
1000000000372599,77005000967,mKcell,mAltel,mAltel,,D02,2017-04-26T20:47:32+06:00,
1000000000372604,77005005073,mKcell,mAltel,mAltel,,D02,2017-04-26T20:48:39+06:00,
1000000000372606,77005005069,mKcell,mAltel,mAltel,,D02,2017-04-26T20:51:33+06:00,
1000000000372607,77005005079,mKcell,mAltel,mAltel,,D02,2017-04-26T20:56:31+06:00,
1000000000372608,77058327606,mKcell,mKarTel,mKarTel,,D02,2017-04-26T20:58:45+06:00,
