NPId,Number,RecipientId,DonorId,RangeHolderId,OldRoute,NewRoute,PortDate,RowCount
1000000000184351,77017813249,mKarTel,mKcell,mKcell,,D01,2016-05-31T14:20:09+06:00,69
1000000000184351,77017869127,mKarTel,mKcell,mKcell,,D01,2016-05-31T14:20:09+06:00,
1000000000184351,77017869135,mKarTel,mKcell,mKcell,,D01,2016-05-31T14:20:09+06:00,
1000000000184351,77017869212,mKarTel,mKcell,mKcell,,D01,2016-05-31T14:20:09+06:00,
1000000000184351,77019515944,mKarTel,mKcell,mKcell,,D01,2016-05-31T14:20:09+06:00,
1000000000184379,77010233303,mKcell,mKarTel,mKcell,D01,D02,2016-05-31T14:27:12+06:00,
1000000000184379,77010281700,mKcell,mKarTel,mKcell,D01,D02,2016-05-31T14:27:12+06:00,
1000000000184379,77010281747,mKcell,mKarTel,mKcell,D01,D02,2016-05-31T14:27:12+06:00,
1000000000184379,77010290501,mKcell,mKarTel,mKcell,D01,D02,2016-05-31T14:27:12+06:00,
1000000000184379,77010292623,mKcell,mKarTel,mKcell,D01,D02,2016-05-31T14:27:12+06:00,
1000000000184379,77010343812,mKcell,mKarTel,mKcell,D01,D02,2016-05-31T14:27:12+06:00,
1000000000184379,77010348829,mKcell,mKarTel,mKcell,D01,D02,2016-05-31T14:27:12+06:00,
1000000000184379,77012178539,mKcell,mKarTel,mKcell,D01,D02,2016-05-31T14:27:12+06:00,
1000000000184379,77012185601,mKcell,mKarTel,mKcell,D01,D02,2016-05-31T14:27:12+06:00,
1000000000184379,77012185625,mKcell,mKarTel,mKcell,D01,D02,2016-05-31T14:27:12+06:00,
1000000000184379,77015191683,mKcell,mKarTel,mKcell,D01,D02,2016-05-31T14:27:12+06:00,
1000000000184379,77015191684,mKcell,mKarTel,mKcell,D01,D02,2016-05-31T14:27:12+06:00,
1000000000184379,77015191685,mKcell,mKarTel,mKcell,D01,D02,2016-05-31T14:27:12+06:00,
1000000000184379,77015191686,mKcell,mKarTel,mKcell,D01,D02,2016-05-31T14:27:12+06:00,
1000000000184379,77015191687,mKcell,mKarTel,mKcell,D01,D02,2016-05-31T14:27:12+06:00,
1000000000184379,77015191688,mKcell,mKarTel,mKcell,D01,D02,2016-05-31T14:27:12+06:00,
1000000000184379,77015191689,mKcell,mKarTel,mKcell,D01,D02,2016-05-31T14:27:12+06:00,
1000000000184379,77015191690,mKcell,mKarTel,mKcell,D01,D02,2016-05-31T14:27:12+06:00,
1000000000184379,77015193867,mKcell,mKarTel,mKcell,D01,D02,2016-05-31T14:27:12+06:00,
1000000000184379,77015194097,mKcell,mKarTel,mKcell,D01,D02,2016-05-31T14:27:12+06:00,
1000000000184379,77015194160,mKcell,mKarTel,mKcell,D01,D02,2016-05-31T14:27:12+06:00,
1000000000184379,77015194161,mKcell,mKarTel,mKcell,D01,D02,2016-05-31T14:27:12+06:00,
1000000000184379,77015194163,mKcell,mKarTel,mKcell,D01,D02,2016-05-31T14:27:12+06:00,
1000000000184379,77017135496,mKcell,mKarTel,mKcell,D01,D02,2016-05-31T14:27:12+06:00,
1000000000184379,77017632233,mKcell,mKarTel,mKcell,D01,D02,2016-05-31T14:27:12+06:00,
1000000000184379,77017666226,mKcell,mKarTel,mKcell,D01,D02,2016-05-31T14:27:12+06:00,
1000000000184379,77017666266,mKcell,mKarTel,mKcell,D01,D02,2016-05-31T14:27:12+06:00,
1000000000184379,77017873766,mKcell,mKarTel,mKcell,D01,D02,2016-05-31T14:27:12+06:00,
1000000000184379,77017959559,mKcell,mKarTel,mKcell,D01,D02,2016-05-31T14:27:12+06:00,
1000000000184379,77019304791,mKcell,mKarTel,mKcell,D01,D02,2016-05-31T14:27:12+06:00,
1000000000184379,77787122464,mKcell,mKarTel,mKcell,D01,D02,2016-05-31T14:27:12+06:00,
1000000000184379,77719939041,mKcell,mKarTel,mKarTel,,D02,2016-05-31T14:27:12+06:00,
1000000000184379,77719939042,mKcell,mKarTel,mKarTel,,D02,2016-05-31T14:27:12+06:00,
1000000000184580,77081181692,mKcell,mAltel,mAltel,,D02,2016-05-31T14:00:42+06:00,
1000000000184581,77053029557,mKcell,mKarTel,mKarTel,,D02,2016-05-31T14:01:09+06:00,
1000000000184583,77052786849,mAltel,mKarTel,mKarTel,,D07,2016-05-31T14:01:45+06:00,
1000000000184584,77751989911,mMTS,mKcell,mKcell,,D77,2016-05-31T14:02:32+06:00,
1000000000184585,77015398875,mMTS,mKcell,mKcell,,D77,2016-05-31T14:03:16+06:00,
1000000000184586,77754991079,mKarTel,mKcell,mKcell,,D01,2016-05-31T14:03:29+06:00,
1000000000184587,77779850999,mKarTel,mMTS,mKarTel,D77,D01,2016-05-31T14:03:21+06:00,
1000000000184588,77058822110,mKarTel,mAltel,mKarTel,D07,D01,2016-05-31T14:05:12+06:00,
1000000000184589,77711554515,mKcell,mAltel,mKarTel,D07,D02,2016-05-31T14:05:27+06:00,
1000000000184592,77019294038,mAltel,mKcell,mKcell,,D07,2016-05-31T14:07:55+06:00,
1000000000184595,77776691185,mAltel,mKarTel,mKarTel,,D07,2016-05-31T14:09:00+06:00,
1000000000184596,77471840122,mKarTel,mMTS,mMTS,,D01,2016-05-31T14:09:05+06:00,
1000000000184597,77083622656,mKcell,mAltel,mAltel,,D02,2016-05-31T14:09:54+06:00,
1000000000184598,77052598888,mKcell,mKarTel,mKarTel,,D02,2016-05-31T14:11:57+06:00,
1000000000184600,77051058114,mKarTel,mKcell,mKarTel,D02,D01,2016-05-31T14:11:54+06:00,
1000000000184601,77783536200,mMTS,mKcell,mKcell,,D77,2016-05-31T14:12:33+06:00,
1000000000184602,77003000545,mMTS,mAltel,mAltel,,D77,2016-05-31T14:12:43+06:00,
1000000000184603,77087857785,mKcell,mAltel,mAltel,,D02,2016-05-31T14:16:00+06:00,
1000000000184606,77768761111,mAltel,mKarTel,mKarTel,,D07,2016-05-31T14:16:29+06:00,
1000000000184607,77012229404,mMTS,mKarTel,mKcell,D01,D77,2016-05-31T14:17:54+06:00,
1000000000184609,77005788008,mKcell,mAltel,mAltel,,D02,2016-05-31T14:19:06+06:00,
1000000000184610,77711116222,mKcell,mKarTel,mKarTel,,D02,2016-05-31T14:19:32+06:00,
1000000000184612,77002470313,mMTS,mAltel,mAltel,,D77,2016-05-31T14:19:22+06:00,
1000000000184615,77017110109,mAltel,mKcell,mKcell,,D07,2016-05-31T14:21:38+06:00,
1000000000184617,77784693566,mMTS,mKcell,mKcell,,D77,2016-05-31T14:21:37+06:00,
1000000000184620,77052632588,mMTS,mKarTel,mKarTel,,D77,2016-05-31T14:22:26+06:00,
1000000000184622,77777557255,mMTS,mKarTel,mKarTel,,D77,2016-05-31T14:23:22+06:00,
1000000000184624,77009999926,mKcell,mAltel,mAltel,,D02,2016-05-31T14:24:47+06:00,
1000000000184626,77005530453,mMTS,mAltel,mAltel,,D77,2016-05-31T14:24:19+06:00,
1000000000184628,77015001131,mMTS,mKcell,mKcell,,D77,2016-05-31T14:26:13+06:00,
1000000000184630,77775772870,mMTS,mKarTel,mKarTel,,D77,2016-05-31T14:26:43+06:00,
