NPId,Number,RecipientId,DonorId,RangeHolderId,OldRoute,NewRoute,PortDate,RowCount
1000000000239878,77788588583,mAltel,mKcell,mKcell,,D07,2016-09-03T18:00:53+06:00,8
1000000000239879,77054188719,mKcell,mKarTel,mKarTel,,D02,2016-09-03T18:03:32+06:00,
1000000000239884,77772947773,mMTS,mKarTel,mKarTel,,D77,2016-09-03T18:07:24+06:00,
1000000000239885,77053305460,mAltel,mKarTel,mKarTel,,D07,2016-09-03T18:10:38+06:00,
1000000000239890,77051911911,mAltel,mKarTel,mKarTel,,D07,2016-09-03T18:17:38+06:00,
1000000000239891,77015441138,mKarTel,mKcell,mKcell,,D01,2016-09-03T18:21:42+06:00,
1000000000239892,77075312041,mKarTel,mMTS,mMTS,,D01,2016-09-03T18:21:15+06:00,
1000000000239894,77477879595,mKarTel,mMTS,mMTS,,D01,2016-09-03T18:23:20+06:00,
