NPId,Number,RecipientId,DonorId,RangeHolderId,OldRoute,NewRoute,PortDate,RowCount
1000000000123313,77774179625,mMTS,mKarTel,mKarTel,,D77,2016-03-12T14:30:26+06:00,27
1000000000123314,77776999478,mKcell,mKarTel,mKarTel,,D02,2016-03-12T14:32:19+06:00,
1000000000123315,77775572892,mKcell,mKarTel,mKarTel,,D02,2016-03-12T14:32:19+06:00,
1000000000123316,77018558383,mMTS,mKcell,mKcell,,D77,2016-03-12T14:31:46+06:00,
1000000000123317,77015328080,mAltel,mKcell,mKcell,,D07,2016-03-12T14:31:52+06:00,
1000000000123319,77759643583,mMTS,mKcell,mKcell,,D77,2016-03-12T14:33:22+06:00,
1000000000123321,77017226070,mAltel,mKcell,mKcell,,D07,2016-03-12T14:34:23+06:00,
1000000000123322,77013808185,mKarTel,mKcell,mKcell,,D01,2016-03-12T14:34:51+06:00,
1000000000123323,77071801800,mAltel,mMTS,mMTS,,D07,2016-03-12T14:36:30+06:00,
1000000000123326,77028012798,mMTS,mKcell,mKcell,,D77,2016-03-12T14:37:34+06:00,
1000000000123327,77017292380,mKarTel,mKcell,mKcell,,D01,2016-03-12T14:38:33+06:00,
1000000000123328,77754109218,mAltel,mKcell,mKcell,,D07,2016-03-12T14:38:20+06:00,
1000000000123329,77788745922,mMTS,mKcell,mKcell,,D77,2016-03-12T14:38:44+06:00,
1000000000123330,77017810799,mAltel,mKcell,mKcell,,D07,2016-03-12T14:40:39+06:00,
1000000000123333,77052061807,mAltel,mKarTel,mKarTel,,D07,2016-03-12T14:44:01+06:00,
1000000000123334,77015354709,mKcell,mAltel,mKcell,D07,D02,2016-03-12T14:44:28+06:00,
1000000000123335,77774847967,mMTS,mKarTel,mKarTel,,D77,2016-03-12T14:46:15+06:00,
1000000000123336,77077089933,mKcell,mMTS,mMTS,,D02,2016-03-12T14:46:15+06:00,
1000000000123337,77015327067,mKcell,mAltel,mKcell,D07,D02,2016-03-12T14:46:32+06:00,
1000000000123338,77776191390,mMTS,mKarTel,mKarTel,,D77,2016-03-12T14:47:21+06:00,
1000000000123339,77082002611,mKarTel,mAltel,mAltel,,D01,2016-03-12T14:47:41+06:00,
1000000000123340,77015211244,mKcell,mAltel,mKcell,D07,D02,2016-03-12T14:48:33+06:00,
1000000000123341,77014070567,mMTS,mKcell,mKcell,,D77,2016-03-12T14:48:46+06:00,
1000000000123342,77781581064,mAltel,mKcell,mKcell,,D07,2016-03-12T14:49:26+06:00,
1000000000123345,77773147047,mMTS,mKarTel,mKarTel,,D77,2016-03-12T14:52:24+06:00,
1000000000123346,77472287879,mAltel,mMTS,mMTS,,D07,2016-03-12T14:52:48+06:00,
1000000000123348,77754920137,mAltel,mKcell,mKcell,,D07,2016-03-12T14:58:48+06:00,
