NPId,Number,RecipientId,DonorId,RangeHolderId,OldRoute,NewRoute,PortDate,RowCount
1000000000321905,77015449219,mKarTel,mKcell,mKcell,,D01,2017-02-02T10:00:12+06:00,21
1000000000321906,77024751894,mMTS,mKcell,mKcell,,D77,2017-02-02T10:02:23+06:00,
1000000000321907,77029997567,mMTS,mKcell,mKcell,,D77,2017-02-02T10:02:52+06:00,
1000000000321910,77017686883,mKarTel,mKcell,mKcell,,D01,2017-02-02T10:07:25+06:00,
1000000000321913,77004524418,mKarTel,mAltel,mAltel,,D01,2017-02-02T10:11:59+06:00,
1000000000321914,77078708777,mMTS,mKcell,mMTS,D02,D77,2017-02-02T10:12:48+06:00,
1000000000321917,77001521123,mMTS,mAltel,mAltel,,D77,2017-02-02T10:16:31+06:00,
1000000000321918,77760040096,mMTS,mKarTel,mKarTel,,D77,2017-02-02T10:17:17+06:00,
1000000000321919,77764447704,mMTS,mKarTel,mKarTel,,D77,2017-02-02T10:17:35+06:00,
1000000000321920,77471881974,mMTS,mKarTel,mMTS,D01,D77,2017-02-02T10:18:02+06:00,
1000000000321922,77779915121,mKarTel,mMTS,mKarTel,D77,D01,2017-02-02T10:18:20+06:00,
1000000000321925,77770417765,mAltel,mKarTel,mKarTel,,D07,2017-02-02T10:22:17+06:00,
1000000000321926,77779333666,mKarTel,mKcell,mKarTel,D02,D01,2017-02-02T10:22:43+06:00,
1000000000321928,77785550345,mAltel,mKcell,mKcell,,D07,2017-02-02T10:22:46+06:00,
1000000000321929,77002251997,mMTS,mAltel,mAltel,,D77,2017-02-02T10:23:17+06:00,
1000000000321930,77015017302,mKarTel,mKcell,mKcell,,D01,2017-02-02T10:23:46+06:00,
1000000000321934,77015345335,mKarTel,mKcell,mKcell,,D01,2017-02-02T10:25:52+06:00,
1000000000321937,77057738833,mMTS,mKarTel,mKarTel,,D77,2017-02-02T10:28:21+06:00,
1000000000321938,77082320910,mAltel,mMTS,mAltel,D77,D07,2017-02-02T10:28:31+06:00,
1000000000321939,77010805570,mMTS,mKcell,mKcell,,D77,2017-02-02T10:29:32+06:00,
1000000000321944,77029993389,mMTS,mKcell,mKcell,,D77,2017-02-02T10:29:57+06:00,
