NPId,Number,RecipientId,DonorId,RangeHolderId,OldRoute,NewRoute,PortDate,RowCount
1000000000258275,77076969979,mKcell,mMTS,mMTS,,D02,2016-10-07T10:01:35+06:00,16
1000000000258276,77082202082,mAltel,mKarTel,mAltel,D01,D07,2016-10-07T10:06:26+06:00,
1000000000258279,77019130833,mKcell,mMTS,mKcell,D77,D02,2016-10-07T10:02:51+06:00,
1000000000258280,77772611677,mMTS,mKarTel,mKarTel,,D77,2016-10-07T10:07:56+06:00,
1000000000258281,77076040460,mAltel,mMTS,mMTS,,D07,2016-10-07T10:04:06+06:00,
1000000000258282,77479889990,mMTS,mKarTel,mMTS,D01,D77,2016-10-07T10:09:32+06:00,
1000000000258283,77711331157,mMTS,mKarTel,mKarTel,,D77,2016-10-07T10:15:55+06:00,
1000000000258285,77770316292,mKarTel,mKcell,mKarTel,D02,D01,2016-10-07T10:15:46+06:00,
1000000000258286,77015182581,mMTS,mKarTel,mKcell,D01,D77,2016-10-07T10:20:39+06:00,
1000000000258287,77026930233,mKcell,mMTS,mKcell,D77,D02,2016-10-07T10:19:07+06:00,
1000000000258288,77770316290,mKarTel,mKcell,mKarTel,D02,D01,2016-10-07T10:20:46+06:00,
1000000000258289,77089579323,mAltel,mMTS,mAltel,D77,D07,2016-10-07T10:19:40+06:00,
1000000000258290,77770316286,mKarTel,mKcell,mKarTel,D02,D01,2016-10-07T10:25:30+06:00,
1000000000258291,77017340213,mKarTel,mKcell,mKcell,,D01,2016-10-07T10:25:29+06:00,
1000000000258294,77022278882,mKcell,mAltel,mKcell,D07,D02,2016-10-07T10:29:04+06:00,
1000000000258295,77086858428,mMTS,mAltel,mAltel,,D77,2016-10-07T10:28:49+06:00,
