NPId,Number,RecipientId,DonorId,RangeHolderId,OldRoute,NewRoute,PortDate,RowCount
1000000000274932,77019374446,mMTS,mKcell,mKcell,,D77,2016-11-06T13:00:35+06:00,11
1000000000274933,77753381499,mMTS,mKcell,mKcell,,D77,2016-11-06T13:00:11+06:00,
1000000000274934,77756968833,mMTS,mKcell,mKcell,,D77,2016-11-06T13:03:57+06:00,
1000000000274935,77757990437,mMTS,mKcell,mKcell,,D77,2016-11-06T13:02:36+06:00,
1000000000274938,77776923674,mMTS,mKarTel,mKarTel,,D77,2016-11-06T13:07:21+06:00,
1000000000274939,77012998537,mAltel,mKcell,mKcell,,D07,2016-11-06T13:07:27+06:00,
1000000000274942,77758080089,mMTS,mKcell,mKcell,,D77,2016-11-06T13:15:16+06:00,
1000000000274943,77777452546,mMTS,mKarTel,mKarTel,,D77,2016-11-06T13:16:11+06:00,
1000000000274944,77772458755,mMTS,mKarTel,mKarTel,,D77,2016-11-06T13:22:58+06:00,
1000000000274946,77014949940,mMTS,mKcell,mKcell,,D77,2016-11-06T13:25:19+06:00,
1000000000274947,77785873899,mMTS,mKcell,mKcell,,D77,2016-11-06T13:27:45+06:00,
