NPId,Number,RecipientId,DonorId,RangeHolderId,OldRoute,NewRoute,PortDate,RowCount
1000000000181820,77789565262,mKarTel,mKcell,mKcell,,D01,2016-05-26T20:02:46+06:00,5
1000000000181821,77056310100,mKcell,mKarTel,mKarTel,,D02,2016-05-26T20:04:38+06:00,
1000000000181822,77021968888,mKcell,mAltel,mKcell,D07,D02,2016-05-26T20:05:40+06:00,
1000000000181823,77021881111,mKcell,mMTS,mKcell,D77,D02,2016-05-26T20:05:53+06:00,
1000000000181827,77471461255,mKcell,mMTS,mMTS,,D02,2016-05-26T20:18:36+06:00,
