NPId,Number,RecipientId,DonorId,RangeHolderId,OldRoute,NewRoute,PortDate,RowCount
1000000000433115,77015707565,mMTS,mKcell,mKcell,,D77,2017-08-02T09:34:39+06:00,22
1000000000433116,77752245427,mAltel,mKcell,mKcell,,D07,2017-08-02T09:34:39+06:00,
1000000000433117,77772721442,mMTS,mKarTel,mKarTel,,D77,2017-08-02T09:35:15+06:00,
1000000000433119,77475000770,mMTS,mKcell,mMTS,D02,D77,2017-08-02T09:38:54+06:00,
1000000000433120,77015770858,mKcell,mAltel,mKcell,D07,D02,2017-08-02T09:39:11+06:00,
1000000000433121,77014784470,mMTS,mKcell,mKcell,,D77,2017-08-02T09:40:48+06:00,
1000000000433123,77775000770,mMTS,mKcell,mKarTel,D02,D77,2017-08-02T09:41:42+06:00,
1000000000433126,77057085477,mKarTel,mAltel,mKarTel,D07,D01,2017-08-02T09:43:33+06:00,
1000000000433127,77017796446,mKarTel,mKcell,mKcell,,D01,2017-08-02T09:44:03+06:00,
1000000000433128,77002753878,mAltel,mMTS,mAltel,D77,D07,2017-08-02T09:43:59+06:00,
1000000000433129,77055000770,mMTS,mKcell,mKarTel,D02,D77,2017-08-02T09:45:08+06:00,
1000000000433130,77015358787,mKarTel,mKcell,mKcell,,D01,2017-08-02T09:46:19+06:00,
1000000000433132,77714010008,mMTS,mKarTel,mKarTel,,D77,2017-08-02T09:47:45+06:00,
1000000000433133,77085190793,mAltel,mMTS,mAltel,D77,D07,2017-08-02T09:47:24+06:00,
1000000000433135,77027001570,mKarTel,mAltel,mKcell,D07,D01,2017-08-02T09:48:12+06:00,
1000000000433136,77019542866,mKarTel,mKcell,mKcell,,D01,2017-08-02T09:48:52+06:00,
1000000000433137,77714010009,mMTS,mKarTel,mKarTel,,D77,2017-08-02T09:51:28+06:00,
1000000000433138,77072550870,mAltel,mMTS,mMTS,,D07,2017-08-02T09:51:01+06:00,
1000000000433139,77077130317,mAltel,mMTS,mMTS,,D07,2017-08-02T09:53:14+06:00,
1000000000433143,77785000770,mMTS,mKcell,mKcell,,D77,2017-08-02T09:56:23+06:00,
1000000000433144,77017713568,mKarTel,mKcell,mKcell,,D01,2017-08-02T09:57:01+06:00,
1000000000433146,77715000770,mMTS,mKcell,mKarTel,D02,D77,2017-08-02T09:59:45+06:00,
