NPId,Number,RecipientId,DonorId,RangeHolderId,OldRoute,NewRoute,PortDate,RowCount
1000000000136894,77015559778,mMTS,mKcell,mKcell,,D77,2016-03-29T21:49:32+06:00,2
1000000000136895,77754788584,mKcell,mAltel,mKcell,D07,D02,2016-03-29T21:50:03+06:00,
