NPId,Number,RecipientId,DonorId,RangeHolderId,OldRoute,NewRoute,PortDate,RowCount
1000000000238885,77012217234,mKarTel,mKcell,mKcell,,D01,2016-09-02T16:47:15+06:00,88
1000000000238885,77012217235,mKarTel,mKcell,mKcell,,D01,2016-09-02T16:47:15+06:00,
1000000000238885,77012217236,mKarTel,mKcell,mKcell,,D01,2016-09-02T16:47:15+06:00,
1000000000238885,77012217237,mKarTel,mKcell,mKcell,,D01,2016-09-02T16:47:15+06:00,
1000000000238885,77012217238,mKarTel,mKcell,mKcell,,D01,2016-09-02T16:47:15+06:00,
1000000000238885,77012217239,mKarTel,mKcell,mKcell,,D01,2016-09-02T16:47:15+06:00,
1000000000238885,77012217240,mKarTel,mKcell,mKcell,,D01,2016-09-02T16:47:15+06:00,
1000000000238885,77012217241,mKarTel,mKcell,mKcell,,D01,2016-09-02T16:47:15+06:00,
1000000000238885,77012217242,mKarTel,mKcell,mKcell,,D01,2016-09-02T16:47:15+06:00,
1000000000238885,77012217243,mKarTel,mKcell,mKcell,,D01,2016-09-02T16:47:15+06:00,
1000000000238885,77012217244,mKarTel,mKcell,mKcell,,D01,2016-09-02T16:47:15+06:00,
1000000000238885,77012217245,mKarTel,mKcell,mKcell,,D01,2016-09-02T16:47:15+06:00,
1000000000238885,77015299896,mKarTel,mKcell,mKcell,,D01,2016-09-02T16:47:15+06:00,
1000000000238885,77015299897,mKarTel,mKcell,mKcell,,D01,2016-09-02T16:47:15+06:00,
1000000000238885,77015299899,mKarTel,mKcell,mKcell,,D01,2016-09-02T16:47:15+06:00,
1000000000238885,77015299929,mKarTel,mKcell,mKcell,,D01,2016-09-02T16:47:15+06:00,
1000000000238885,77015299930,mKarTel,mKcell,mKcell,,D01,2016-09-02T16:47:15+06:00,
1000000000238885,77015299939,mKarTel,mKcell,mKcell,,D01,2016-09-02T16:47:15+06:00,
1000000000238885,77015299940,mKarTel,mKcell,mKcell,,D01,2016-09-02T16:47:15+06:00,
1000000000238885,77015299950,mKarTel,mKcell,mKcell,,D01,2016-09-02T16:47:15+06:00,
1000000000238885,77015299959,mKarTel,mKcell,mKcell,,D01,2016-09-02T16:47:15+06:00,
1000000000238885,77015299960,mKarTel,mKcell,mKcell,,D01,2016-09-02T16:47:15+06:00,
1000000000238885,77015299969,mKarTel,mKcell,mKcell,,D01,2016-09-02T16:47:15+06:00,
1000000000238885,77015299970,mKarTel,mKcell,mKcell,,D01,2016-09-02T16:47:15+06:00,
1000000000238885,77015311932,mKarTel,mKcell,mKcell,,D01,2016-09-02T16:47:15+06:00,
1000000000238885,77015374236,mKarTel,mKcell,mKcell,,D01,2016-09-02T16:47:15+06:00,
1000000000238885,77017582179,mKarTel,mKcell,mKcell,,D01,2016-09-02T16:47:15+06:00,
1000000000238885,77017615664,mKarTel,mKcell,mKcell,,D01,2016-09-02T16:47:15+06:00,
1000000000238885,77017815113,mKarTel,mKcell,mKcell,,D01,2016-09-02T16:47:15+06:00,
1000000000238885,77018037333,mKarTel,mKcell,mKcell,,D01,2016-09-02T16:47:15+06:00,
1000000000238885,77019164588,mKarTel,mKcell,mKcell,,D01,2016-09-02T16:47:15+06:00,
1000000000238885,77019173278,mKarTel,mKcell,mKcell,,D01,2016-09-02T16:47:15+06:00,
1000000000238885,77019175831,mKarTel,mKcell,mKcell,,D01,2016-09-02T16:47:15+06:00,
1000000000238885,77019295886,mKarTel,mKcell,mKcell,,D01,2016-09-02T16:47:15+06:00,
1000000000238885,77019295887,mKarTel,mKcell,mKcell,,D01,2016-09-02T16:47:15+06:00,
1000000000238885,77022247144,mKarTel,mKcell,mKcell,,D01,2016-09-02T16:47:15+06:00,
1000000000238885,77027760062,mKarTel,mKcell,mKcell,,D01,2016-09-02T16:47:15+06:00,
1000000000238885,77027760892,mKarTel,mKcell,mKcell,,D01,2016-09-02T16:47:15+06:00,
1000000000238885,77028891228,mKarTel,mKcell,mKcell,,D01,2016-09-02T16:47:15+06:00,
1000000000238885,77028891229,mKarTel,mKcell,mKcell,,D01,2016-09-02T16:47:15+06:00,
1000000000239152,77776649449,mMTS,mKarTel,mKarTel,,D77,2016-09-02T16:30:30+06:00,
1000000000239153,77476853914,mMTS,mAltel,mMTS,D07,D77,2016-09-02T16:30:02+06:00,
1000000000239155,77073535350,mAltel,mMTS,mMTS,,D07,2016-09-02T16:30:52+06:00,
1000000000239157,77059781847,mKcell,mKarTel,mKarTel,,D02,2016-09-02T16:32:08+06:00,
1000000000239158,77070405516,mKarTel,mMTS,mMTS,,D01,2016-09-02T16:32:30+06:00,
1000000000239158,77070405517,mKarTel,mMTS,mMTS,,D01,2016-09-02T16:32:30+06:00,
1000000000239158,77070405518,mKarTel,mMTS,mMTS,,D01,2016-09-02T16:32:30+06:00,
1000000000239158,77070405528,mKarTel,mMTS,mMTS,,D01,2016-09-02T16:32:30+06:00,
1000000000239158,77070405529,mKarTel,mMTS,mMTS,,D01,2016-09-02T16:32:30+06:00,
1000000000239158,77070441971,mKarTel,mMTS,mMTS,,D01,2016-09-02T16:32:30+06:00,
1000000000239158,77070441973,mKarTel,mMTS,mMTS,,D01,2016-09-02T16:32:30+06:00,
1000000000239158,77070441974,mKarTel,mMTS,mMTS,,D01,2016-09-02T16:32:30+06:00,
1000000000239158,77073880304,mKarTel,mMTS,mMTS,,D01,2016-09-02T16:32:30+06:00,
1000000000239158,77078392471,mKarTel,mMTS,mMTS,,D01,2016-09-02T16:32:30+06:00,
1000000000239158,77078392473,mKarTel,mMTS,mMTS,,D01,2016-09-02T16:32:30+06:00,
1000000000239158,77078393176,mKarTel,mMTS,mMTS,,D01,2016-09-02T16:32:30+06:00,
1000000000239158,77078393190,mKarTel,mMTS,mMTS,,D01,2016-09-02T16:32:30+06:00,
1000000000239158,77079277777,mKarTel,mMTS,mMTS,,D01,2016-09-02T16:32:30+06:00,
1000000000239158,77479809285,mKarTel,mMTS,mMTS,,D01,2016-09-02T16:32:30+06:00,
1000000000239158,77479809286,mKarTel,mMTS,mMTS,,D01,2016-09-02T16:32:30+06:00,
1000000000239159,77013532818,mKcell,mKarTel,mKcell,D01,D02,2016-09-02T16:35:20+06:00,
1000000000239160,77078137206,mKarTel,mMTS,mMTS,,D01,2016-09-02T16:35:39+06:00,
1000000000239161,77017291791,mMTS,mKcell,mKcell,,D77,2016-09-02T16:38:19+06:00,
1000000000239162,77766877070,mMTS,mKarTel,mKarTel,,D77,2016-09-02T16:39:23+06:00,
1000000000239165,77028261941,mMTS,mKcell,mKcell,,D77,2016-09-02T16:41:05+06:00,
1000000000239166,77009992115,mMTS,mAltel,mAltel,,D77,2016-09-02T16:44:02+06:00,
1000000000239168,77010885999,mAltel,mKcell,mKcell,,D07,2016-09-02T16:44:44+06:00,
1000000000239169,77018543229,mMTS,mKcell,mKcell,,D77,2016-09-02T16:45:55+06:00,
1000000000239170,77766878080,mMTS,mKarTel,mKarTel,,D77,2016-09-02T16:46:45+06:00,
1000000000239171,77784064006,mKcell,mKarTel,mKcell,D01,D02,2016-09-02T16:47:20+06:00,
1000000000239172,77004992459,mMTS,mAltel,mAltel,,D77,2016-09-02T16:46:46+06:00,
1000000000239173,77779322233,mKarTel,mMTS,mKarTel,D77,D01,2016-09-02T16:47:44+06:00,
1000000000239174,77022770975,mKcell,mMTS,mKcell,D77,D02,2016-09-02T16:48:13+06:00,
1000000000239179,77751003434,mMTS,mKcell,mKcell,,D77,2016-09-02T16:50:20+06:00,
1000000000239180,77052225095,mKarTel,mKcell,mKarTel,D02,D01,2016-09-02T16:50:56+06:00,
1000000000239181,77755564666,mKcell,mMTS,mKcell,D77,D02,2016-09-02T16:50:59+06:00,
1000000000239182,77083599683,mMTS,mAltel,mAltel,,D77,2016-09-02T16:50:57+06:00,
1000000000239183,77012226630,mKcell,mMTS,mKcell,D77,D02,2016-09-02T16:52:16+06:00,
1000000000239184,77019585885,mMTS,mKcell,mKcell,,D77,2016-09-02T16:53:48+06:00,
1000000000239186,77765542288,mKcell,mKarTel,mKarTel,,D02,2016-09-02T16:56:12+06:00,
1000000000239188,77027159910,mMTS,mKcell,mKcell,,D77,2016-09-02T16:55:58+06:00,
1000000000239191,77780000822,mAltel,mKarTel,mKcell,D01,D07,2016-09-02T16:56:53+06:00,
1000000000239192,77073614118,mKarTel,mMTS,mMTS,,D01,2016-09-02T16:57:26+06:00,
1000000000239193,77073614226,mKarTel,mMTS,mMTS,,D01,2016-09-02T16:57:45+06:00,
1000000000239194,77774603029,mMTS,mKarTel,mKarTel,,D77,2016-09-02T16:58:05+06:00,
1000000000239195,77012496080,mKcell,mAltel,mKcell,D07,D02,2016-09-02T16:57:46+06:00,
1000000000239196,77019164493,mMTS,mKarTel,mKcell,D01,D77,2016-09-02T16:58:47+06:00,
1000000000239197,77058284160,mMTS,mKarTel,mKarTel,,D77,2016-09-02T16:59:29+06:00,
