NPId,Number,RecipientId,DonorId,RangeHolderId,OldRoute,NewRoute,PortDate,RowCount
1000000000432832,77017012781,mKcell,mKarTel,mKcell,D01,D02,2017-08-01T18:32:46+06:00,34
1000000000432835,77018041079,mKcell,mKarTel,mKcell,D01,D02,2017-08-01T18:36:39+06:00,
1000000000432853,77018041080,mKcell,mKarTel,mKcell,D01,D02,2017-08-01T18:44:54+06:00,
1000000000432862,77019892609,mKcell,mKarTel,mKcell,D01,D02,2017-08-01T18:48:32+06:00,
1000000000432864,77019892644,mKcell,mKarTel,mKcell,D01,D02,2017-08-01T18:50:20+06:00,
1000000000432867,77017865753,mKcell,mKarTel,mKcell,D01,D02,2017-08-01T18:52:38+06:00,
1000000000432872,77717092892,mKcell,mKarTel,mKarTel,,D02,2017-08-01T18:56:23+06:00,
1000000000432875,77019892654,mKcell,mKarTel,mKcell,D01,D02,2017-08-01T18:59:29+06:00,
1000000000432948,77788096969,mMTS,mKarTel,mKcell,D01,D77,2017-08-01T18:30:37+06:00,
1000000000432952,77052271248,mMTS,mKarTel,mKarTel,,D77,2017-08-01T18:31:28+06:00,
1000000000432953,77711168886,mMTS,mKarTel,mKarTel,,D77,2017-08-01T18:33:46+06:00,
1000000000432956,77718380669,mKarTel,mKcell,mKarTel,D02,D01,2017-08-01T18:30:09+06:00,
1000000000432959,77017355575,mKarTel,mKcell,mKcell,,D01,2017-08-01T18:32:15+06:00,
1000000000432961,77077017222,mKcell,mMTS,mMTS,,D02,2017-08-01T18:32:03+06:00,
1000000000432963,77017416016,mMTS,mKcell,mKcell,,D77,2017-08-01T18:32:18+06:00,
1000000000432964,77012204322,mKarTel,mKcell,mKcell,,D01,2017-08-01T18:35:47+06:00,
1000000000432966,77059888879,mKcell,mKarTel,mKarTel,,D02,2017-08-01T18:45:00+06:00,
1000000000432967,77071684009,mMTS,mKarTel,mMTS,D01,D77,2017-08-01T18:45:10+06:00,
1000000000432970,77014025956,mMTS,mKcell,mKcell,,D77,2017-08-01T18:35:56+06:00,
1000000000432971,77714581969,mMTS,mKarTel,mKarTel,,D77,2017-08-01T18:48:21+06:00,
1000000000432972,77789642181,mMTS,mKcell,mKcell,,D77,2017-08-01T18:37:40+06:00,
1000000000432974,77711619813,mMTS,mKcell,mKarTel,D02,D77,2017-08-01T18:38:21+06:00,
1000000000432975,77772772402,mKcell,mKarTel,mKarTel,,D02,2017-08-01T18:49:55+06:00,
1000000000432979,77751285209,mKcell,mMTS,mKcell,D77,D02,2017-08-01T18:42:56+06:00,
1000000000432981,77058138741,mKcell,mKarTel,mKarTel,,D02,2017-08-01T18:54:08+06:00,
1000000000432982,77016010124,mMTS,mKcell,mKcell,,D77,2017-08-01T18:43:42+06:00,
1000000000432983,77016050448,mMTS,mKcell,mKcell,,D77,2017-08-01T18:44:41+06:00,
1000000000432984,77015159456,mAltel,mMTS,mKcell,D77,D07,2017-08-01T18:44:47+06:00,
1000000000432985,77074825888,mAltel,mMTS,mMTS,,D07,2017-08-01T18:45:33+06:00,
1000000000432987,77473663357,mKcell,mMTS,mMTS,,D02,2017-08-01T18:47:55+06:00,
1000000000432988,77089784511,mKarTel,mAltel,mAltel,,D01,2017-08-01T18:50:56+06:00,
1000000000432989,77017541418,mKarTel,mKcell,mKcell,,D01,2017-08-01T18:51:12+06:00,
1000000000432994,77025353939,mMTS,mKcell,mKcell,,D77,2017-08-01T18:57:18+06:00,
1000000000432995,77016598537,mMTS,mKcell,mKcell,,D77,2017-08-01T18:58:29+06:00,
