NPId,Number,RecipientId,DonorId,RangeHolderId,OldRoute,NewRoute,PortDate,RowCount
1000000000275757,77719010979,mKcell,mKarTel,mKarTel,,D02,2016-11-07T20:32:31+06:00,2
1000000000275759,77077777059,mKcell,mMTS,mMTS,,D02,2016-11-07T20:50:39+06:00,
