NPId,Number,RecipientId,DonorId,RangeHolderId,OldRoute,NewRoute,PortDate,RowCount
1000000000376653,77006362001,mMTS,mAltel,mAltel,,D77,2017-05-02T17:31:18+06:00,60
1000000000376654,77002898699,mMTS,mKcell,mAltel,D02,D77,2017-05-02T17:32:30+06:00,
1000000000376656,77472232236,mKarTel,mMTS,mMTS,,D01,2017-05-02T17:33:19+06:00,
1000000000376657,77784245990,mAltel,mMTS,mKcell,D77,D07,2017-05-02T17:33:17+06:00,
1000000000376658,77479707043,mKarTel,mMTS,mMTS,,D01,2017-05-02T17:33:40+06:00,
1000000000376659,77010718747,mKarTel,mKcell,mKcell,,D01,2017-05-02T17:59:16+06:00,
1000000000376659,77717581151,mKarTel,mKcell,mKarTel,D02,D01,2017-05-02T17:59:16+06:00,
1000000000376659,77717581248,mKarTel,mKcell,mKarTel,D02,D01,2017-05-02T17:59:16+06:00,
1000000000376659,77717581250,mKarTel,mKcell,mKarTel,D02,D01,2017-05-02T17:59:16+06:00,
1000000000376659,77717581317,mKarTel,mKcell,mKarTel,D02,D01,2017-05-02T17:59:16+06:00,
1000000000376659,77717583306,mKarTel,mKcell,mKarTel,D02,D01,2017-05-02T17:59:16+06:00,
1000000000376659,77717583445,mKarTel,mKcell,mKarTel,D02,D01,2017-05-02T17:59:16+06:00,
1000000000376659,77717583458,mKarTel,mKcell,mKarTel,D02,D01,2017-05-02T17:59:16+06:00,
1000000000376659,77717588544,mKarTel,mKcell,mKarTel,D02,D01,2017-05-02T17:59:16+06:00,
1000000000376659,77717588559,mKarTel,mKcell,mKarTel,D02,D01,2017-05-02T17:59:16+06:00,
1000000000376659,77717588569,mKarTel,mKcell,mKarTel,D02,D01,2017-05-02T17:59:16+06:00,
1000000000376659,77717588585,mKarTel,mKcell,mKarTel,D02,D01,2017-05-02T17:59:16+06:00,
1000000000376659,77717588898,mKarTel,mKcell,mKarTel,D02,D01,2017-05-02T17:59:16+06:00,
1000000000376661,77052925557,mKcell,mKarTel,mKarTel,,D02,2017-05-02T17:36:33+06:00,
1000000000376662,77774597490,mAltel,mKarTel,mKarTel,,D07,2017-05-02T17:36:36+06:00,
1000000000376665,77019956545,mMTS,mKcell,mKcell,,D77,2017-05-02T17:37:13+06:00,
1000000000376667,77764444343,mAltel,mKarTel,mKarTel,,D07,2017-05-02T17:38:12+06:00,
1000000000376668,77085035154,mAltel,mMTS,mAltel,D77,D07,2017-05-02T17:37:52+06:00,
1000000000376669,77004003009,mKarTel,mAltel,mAltel,,D01,2017-05-02T17:38:10+06:00,
1000000000376670,77004003007,mKarTel,mAltel,mAltel,,D01,2017-05-02T17:38:15+06:00,
1000000000376672,77026827700,mAltel,mKcell,mKcell,,D07,2017-05-02T17:39:11+06:00,
1000000000376673,77056630099,mKarTel,mAltel,mKarTel,D07,D01,2017-05-02T17:39:53+06:00,
1000000000376674,77763001383,mKarTel,mMTS,mKarTel,D77,D01,2017-05-02T17:39:58+06:00,
1000000000376675,77051150480,mMTS,mKarTel,mKarTel,,D77,2017-05-02T17:40:12+06:00,
1000000000376677,77752902393,mMTS,mKcell,mKcell,,D77,2017-05-02T17:40:49+06:00,
1000000000376678,77015273125,mKarTel,mKcell,mKcell,,D01,2017-05-02T17:42:18+06:00,
1000000000376679,77079007794,mAltel,mMTS,mMTS,,D07,2017-05-02T17:42:14+06:00,
1000000000376680,77778400440,mKarTel,mMTS,mKarTel,D77,D01,2017-05-02T17:43:32+06:00,
1000000000376681,77004793623,mAltel,mMTS,mAltel,D77,D07,2017-05-02T17:43:35+06:00,
1000000000376683,77758356696,mKarTel,mKcell,mKcell,,D01,2017-05-02T17:44:18+06:00,
1000000000376684,77057778696,mAltel,mKarTel,mKarTel,,D07,2017-05-02T17:44:25+06:00,
1000000000376685,77752557755,mKarTel,mKcell,mKcell,,D01,2017-05-02T17:44:57+06:00,
1000000000376687,77712342170,mKarTel,mAltel,mKarTel,D07,D01,2017-05-02T17:45:43+06:00,
1000000000376688,77474451044,mKarTel,mMTS,mMTS,,D01,2017-05-02T17:45:53+06:00,
1000000000376692,77019452527,mKarTel,mKcell,mKcell,,D01,2017-05-02T17:47:26+06:00,
1000000000376694,77021012841,mKarTel,mKcell,mKcell,,D01,2017-05-02T17:48:02+06:00,
1000000000376696,77779555666,mKcell,mKarTel,mKarTel,,D02,2017-05-02T17:49:04+06:00,
1000000000376697,77029791103,mAltel,mKcell,mKcell,,D07,2017-05-02T17:49:31+06:00,
1000000000376698,77078430899,mMTS,mKcell,mMTS,D02,D77,2017-05-02T17:50:33+06:00,
1000000000376699,77776089008,mMTS,mKarTel,mKarTel,,D77,2017-05-02T17:51:29+06:00,
1000000000376700,77012536033,mKarTel,mKcell,mKcell,,D01,2017-05-02T17:51:38+06:00,
1000000000376702,77017301128,mKcell,mKarTel,mKcell,D01,D02,2017-05-02T17:52:43+06:00,
1000000000376703,77782338523,mMTS,mKcell,mKcell,,D77,2017-05-02T17:52:21+06:00,
1000000000376704,77073751191,mKarTel,mKcell,mMTS,D02,D01,2017-05-02T17:54:38+06:00,
1000000000376705,77756777647,mAltel,mKcell,mKcell,,D07,2017-05-02T17:55:50+06:00,
1000000000376706,77012227850,mMTS,mKcell,mKcell,,D77,2017-05-02T17:56:12+06:00,
1000000000376707,77017432535,mKcell,mKarTel,mKcell,D01,D02,2017-05-02T17:56:56+06:00,
1000000000376708,77774580701,mKarTel,mMTS,mKarTel,D77,D01,2017-05-02T17:57:15+06:00,
1000000000376710,77012238015,mMTS,mKcell,mKcell,,D77,2017-05-02T17:57:51+06:00,
1000000000376711,77019551855,mMTS,mKcell,mKcell,,D77,2017-05-02T17:58:17+06:00,
1000000000376712,77783648385,mKcell,mAltel,mKcell,D07,D02,2017-05-02T17:58:40+06:00,
1000000000376713,77052685564,mMTS,mKarTel,mKarTel,,D77,2017-05-02T17:59:12+06:00,
1000000000376715,77058206605,mMTS,mKarTel,mKarTel,,D77,2017-05-02T17:59:31+06:00,
1000000000376716,77475741920,mAltel,mMTS,mMTS,,D07,2017-05-02T17:59:15+06:00,
1000000000376718,77056633222,mAltel,mKarTel,mKarTel,,D07,2017-05-02T17:59:41+06:00,
