NPId,Number,RecipientId,DonorId,RangeHolderId,OldRoute,NewRoute,PortDate,RowCount
1000000000404318,77009998180,mMTS,mAltel,mAltel,,D77,2017-06-16T14:31:57+06:00,19
1000000000404319,77773616961,mKcell,mKarTel,mKarTel,,D02,2017-06-16T14:32:49+06:00,
1000000000404321,77473526355,mKarTel,mMTS,mMTS,,D01,2017-06-16T14:33:45+06:00,
1000000000404322,77057017740,mAltel,mKarTel,mKarTel,,D07,2017-06-16T14:34:13+06:00,
1000000000404323,77051779990,mKarTel,mMTS,mKarTel,D77,D01,2017-06-16T14:34:41+06:00,
1000000000404324,77013484676,mKarTel,mKcell,mKcell,,D01,2017-06-16T14:34:56+06:00,
1000000000404326,77085774506,mMTS,mAltel,mAltel,,D77,2017-06-16T14:35:48+06:00,
1000000000404328,77027055446,mMTS,mKcell,mKcell,,D77,2017-06-16T14:39:31+06:00,
1000000000404329,77017717792,mMTS,mKcell,mKcell,,D77,2017-06-16T14:41:21+06:00,
1000000000404330,77477329743,mKcell,mMTS,mMTS,D77,D02,2017-06-16T14:41:33+06:00,
1000000000404331,77027821215,mKarTel,mKcell,mKcell,,D01,2017-06-16T14:41:56+06:00,
1000000000404332,77017775009,mKarTel,mKcell,mKcell,,D01,2017-06-16T14:42:15+06:00,
1000000000404335,77017175104,mKcell,mAltel,mKcell,D07,D02,2017-06-16T14:45:59+06:00,
1000000000404336,77071404930,mKarTel,mMTS,mMTS,,D01,2017-06-16T14:46:42+06:00,
1000000000404339,77781220360,mMTS,mKcell,mKcell,,D77,2017-06-16T14:53:18+06:00,
1000000000404340,77052628888,mKcell,mKarTel,mKarTel,,D02,2017-06-16T14:54:12+06:00,
1000000000404341,77082127797,mMTS,mKcell,mAltel,D02,D77,2017-06-16T14:56:32+06:00,
1000000000404342,77077009127,mKcell,mMTS,mMTS,D77,D02,2017-06-16T14:58:32+06:00,
1000000000404343,77078866231,mKcell,mMTS,mMTS,,D02,2017-06-16T14:59:22+06:00,
