NPId,Number,RecipientId,DonorId,RangeHolderId,OldRoute,NewRoute,PortDate,RowCount
1000000000429236,77080708222,mKarTel,mAltel,mAltel,,D01,2017-07-27T13:31:05+06:00,14
1000000000429239,77014699695,mMTS,mKcell,mKcell,,D77,2017-07-27T13:37:29+06:00,
1000000000429241,77025861648,mMTS,mKcell,mKcell,,D77,2017-07-27T13:38:26+06:00,
1000000000429242,77011111452,mKarTel,mKcell,mKcell,,D01,2017-07-27T13:41:11+06:00,
1000000000429244,77027994697,mKarTel,mKcell,mKcell,,D01,2017-07-27T13:44:04+06:00,
1000000000429245,77077801917,mKcell,mMTS,mMTS,,D02,2017-07-27T13:45:18+06:00,
1000000000429247,77472037855,mMTS,mAltel,mMTS,D07,D77,2017-07-27T13:48:40+06:00,
1000000000429248,77471351806,mKarTel,mMTS,mMTS,,D01,2017-07-27T13:49:54+06:00,
1000000000429249,77014703283,mMTS,mKarTel,mKcell,D01,D77,2017-07-27T13:50:42+06:00,
1000000000429250,77762303880,mMTS,mKarTel,mKarTel,,D77,2017-07-27T13:51:43+06:00,
1000000000429251,77013865080,mKcell,mKarTel,mKcell,D01,D02,2017-07-27T13:53:06+06:00,
1000000000429254,77784700607,mKcell,mMTS,mKcell,D77,D02,2017-07-27T13:54:28+06:00,
1000000000429257,77773645303,mKarTel,mMTS,mKarTel,D77,D01,2017-07-27T13:56:58+06:00,
1000000000429258,77776386276,mMTS,mKarTel,mKarTel,,D77,2017-07-27T13:58:35+06:00,
