NPId,Number,RecipientId,DonorId,RangeHolderId,OldRoute,NewRoute,PortDate,RowCount
1000000000409284,77019484848,mMTS,mKcell,mKcell,,D77,2017-06-25T13:03:11+06:00,16
1000000000409285,77012577735,mKcell,mMTS,mKcell,D77,D02,2017-06-25T13:04:59+06:00,
1000000000409286,77022668506,mMTS,mKcell,mKcell,,D77,2017-06-25T13:05:18+06:00,
1000000000409287,77078933636,mKcell,mMTS,mMTS,,D02,2017-06-25T13:05:51+06:00,
1000000000409290,77773271333,mKarTel,mKcell,mKarTel,D02,D01,2017-06-25T13:11:48+06:00,
1000000000409291,77057656426,mMTS,mKarTel,mKarTel,,D77,2017-06-25T13:13:21+06:00,
1000000000409292,77772554430,mMTS,mKarTel,mKarTel,,D77,2017-06-25T13:14:27+06:00,
1000000000409294,77014802887,mAltel,mKcell,mKcell,,D07,2017-06-25T13:15:09+06:00,
1000000000409295,77015502255,mKarTel,mKcell,mKcell,,D01,2017-06-25T13:17:40+06:00,
1000000000409296,77003094728,mMTS,mAltel,mAltel,,D77,2017-06-25T13:18:01+06:00,
1000000000409297,77019130602,mAltel,mKcell,mKcell,,D07,2017-06-25T13:20:35+06:00,
1000000000409298,77017579408,mMTS,mKcell,mKcell,,D77,2017-06-25T13:21:49+06:00,
1000000000409299,77714598643,mMTS,mKarTel,mKarTel,,D77,2017-06-25T13:23:20+06:00,
1000000000409300,77773274333,mKarTel,mKcell,mKarTel,D02,D01,2017-06-25T13:24:26+06:00,
1000000000409301,77710666607,mKarTel,mMTS,mKarTel,D77,D01,2017-06-25T13:25:41+06:00,
1000000000409303,77773275333,mKarTel,mKcell,mKarTel,D02,D01,2017-06-25T13:29:49+06:00,
