NPId,Number,RecipientId,DonorId,RangeHolderId,OldRoute,NewRoute,PortDate,RowCount
1000000000262541,77015129765,mKarTel,mKcell,mKcell,,D01,2016-10-14T19:39:50+06:00,9
1000000000262607,77015242820,mKarTel,mKcell,mKcell,,D01,2016-10-14T19:39:28+06:00,
1000000000262647,77786077774,mKarTel,mMTS,mKcell,D77,D01,2016-10-14T19:34:53+06:00,
1000000000262648,77002250077,mKcell,mAltel,mAltel,,D02,2016-10-14T19:37:09+06:00,
1000000000262649,77716200000,mAltel,mKarTel,mKarTel,,D07,2016-10-14T19:38:16+06:00,
1000000000262650,77083408683,mKcell,mAltel,mAltel,,D02,2016-10-14T19:39:22+06:00,
1000000000262651,77757942044,mAltel,mKcell,mKcell,,D07,2016-10-14T19:40:22+06:00,
1000000000262655,77081551988,mAltel,mKcell,mAltel,D02,D07,2016-10-14T19:57:07+06:00,
1000000000262656,77017104752,mKarTel,mAltel,mKcell,D07,D01,2016-10-14T19:57:23+06:00,
