NPId,Number,RecipientId,DonorId,RangeHolderId,OldRoute,NewRoute,PortDate,RowCount
1000000000198110,77710111101,mKcell,mKarTel,mKarTel,,D02,2016-06-22T19:06:30+06:00,11
1000000000198114,77755508889,mMTS,mKcell,mKcell,,D77,2016-06-22T19:01:37+06:00,
1000000000198115,77715368970,mMTS,mKarTel,mKarTel,,D77,2016-06-22T19:01:49+06:00,
1000000000198117,77018023160,mMTS,mKcell,mKcell,,D77,2016-06-22T19:03:14+06:00,
1000000000198118,77013736677,mKcell,mAltel,mKcell,D07,D02,2016-06-22T19:06:31+06:00,
1000000000198119,77072066620,mMTS,mAltel,mMTS,D07,D77,2016-06-22T19:05:53+06:00,
1000000000198121,77086797327,mMTS,mAltel,mAltel,,D77,2016-06-22T19:10:13+06:00,
1000000000198122,77760960696,mAltel,mKarTel,mKarTel,,D07,2016-06-22T19:16:37+06:00,
1000000000198123,77789538686,mMTS,mKcell,mKcell,,D77,2016-06-22T19:22:48+06:00,
1000000000198124,77783206358,mMTS,mKcell,mKcell,,D77,2016-06-22T19:27:25+06:00,
1000000000198125,77023939141,mMTS,mKcell,mKcell,,D77,2016-06-22T19:27:50+06:00,
