NPId,Number,RecipientId,DonorId,RangeHolderId,OldRoute,NewRoute,PortDate,RowCount
1000000000419417,77783882828,mKcell,mAltel,mKcell,D07,D02,2017-07-10T19:30:21+06:00,6
1000000000419419,77015102063,mKcell,mMTS,mKcell,D77,D02,2017-07-10T19:39:18+06:00,
1000000000419420,77054720222,mAltel,mKarTel,mKarTel,,D07,2017-07-10T19:44:24+06:00,
1000000000419422,77772484781,mKcell,mKarTel,mKarTel,,D02,2017-07-10T19:49:40+06:00,
1000000000419424,77058272828,mAltel,mKarTel,mKarTel,,D07,2017-07-10T19:52:41+06:00,
1000000000419425,77771586888,mKarTel,mMTS,mKarTel,D77,D01,2017-07-10T19:53:31+06:00,
