NPId,Number,RecipientId,DonorId,RangeHolderId,OldRoute,NewRoute,PortDate,RowCount
1000000000360601,77056970350,mAltel,mKarTel,mKarTel,,D07,2017-04-05T18:30:18+06:00,28
1000000000360602,77767833483,mAltel,mMTS,mKarTel,D77,D07,2017-04-05T18:30:16+06:00,
1000000000360603,77026872992,mKarTel,mKcell,mKcell,,D01,2017-04-05T18:32:33+06:00,
1000000000360604,77004442676,mKcell,mAltel,mAltel,,D02,2017-04-05T18:34:18+06:00,
1000000000360605,77756030078,mKcell,mKarTel,mKcell,D01,D02,2017-04-05T18:34:50+06:00,
1000000000360606,77761321919,mMTS,mKarTel,mKarTel,,D77,2017-04-05T18:37:13+06:00,
1000000000360607,77028465590,mMTS,mKcell,mKcell,,D77,2017-04-05T18:37:50+06:00,
1000000000360608,77755384167,mAltel,mKcell,mKcell,,D07,2017-04-05T18:38:01+06:00,
1000000000360609,77017071359,mKarTel,mKcell,mKcell,,D01,2017-04-05T18:38:27+06:00,
1000000000360611,77778009297,mAltel,mKarTel,mKarTel,,D07,2017-04-05T18:38:46+06:00,
1000000000360614,77001971991,mAltel,mKcell,mAltel,D02,D07,2017-04-05T18:41:20+06:00,
1000000000360615,77014360666,mMTS,mKcell,mKcell,,D77,2017-04-05T18:41:30+06:00,
1000000000360616,77089424895,mMTS,mAltel,mAltel,,D77,2017-04-05T18:42:54+06:00,
1000000000360617,77019888008,mKcell,mAltel,mKcell,D07,D02,2017-04-05T18:43:30+06:00,
1000000000360618,77003337585,mKcell,mAltel,mAltel,,D02,2017-04-05T18:44:26+06:00,
1000000000360620,77004440656,mKcell,mAltel,mAltel,,D02,2017-04-05T18:45:50+06:00,
1000000000360621,77771002843,mKcell,mKarTel,mKarTel,,D02,2017-04-05T18:46:34+06:00,
1000000000360623,77089497016,mKcell,mAltel,mAltel,,D02,2017-04-05T18:46:26+06:00,
1000000000360624,77771654510,mMTS,mKarTel,mKarTel,,D77,2017-04-05T18:47:51+06:00,
1000000000360626,77005150101,mAltel,mMTS,mAltel,D77,D07,2017-04-05T18:47:42+06:00,
1000000000360628,77021349626,mKarTel,mKcell,mKcell,,D01,2017-04-05T18:49:42+06:00,
1000000000360629,77027648047,mAltel,mKcell,mKcell,,D07,2017-04-05T18:50:11+06:00,
1000000000360630,77014008676,mAltel,mKcell,mKcell,,D07,2017-04-05T18:51:56+06:00,
1000000000360632,77773113313,mKcell,mKarTel,mKarTel,,D02,2017-04-05T18:56:05+06:00,
1000000000360633,77003338525,mKcell,mAltel,mAltel,,D02,2017-04-05T18:55:49+06:00,
1000000000360634,77775565673,mKcell,mKarTel,mKarTel,,D02,2017-04-05T18:56:35+06:00,
1000000000360636,77753222226,mKarTel,mKcell,mKcell,,D01,2017-04-05T18:57:56+06:00,
1000000000360637,77713745455,mMTS,mKarTel,mKarTel,,D77,2017-04-05T18:59:12+06:00,
