NPId,Number,RecipientId,DonorId,RangeHolderId,OldRoute,NewRoute,PortDate,RowCount
1000000000370834,77017133277,mAltel,mKcell,mKcell,,D07,2017-04-24T14:30:24+06:00,33
1000000000370835,77075585457,mKarTel,mMTS,mMTS,,D01,2017-04-24T14:30:36+06:00,
1000000000370836,77780004567,mKcell,mAltel,mKcell,D07,D02,2017-04-24T14:30:36+06:00,
1000000000370838,77786631254,mMTS,mKcell,mKcell,,D77,2017-04-24T14:32:52+06:00,
1000000000370839,77017071172,mKarTel,mKcell,mKcell,,D01,2017-04-24T14:34:19+06:00,
1000000000370842,77476661766,mKcell,mMTS,mMTS,,D02,2017-04-24T14:36:00+06:00,
1000000000370843,77024024232,mAltel,mKcell,mKcell,,D07,2017-04-24T14:36:04+06:00,
1000000000370845,77085993467,mKcell,mAltel,mAltel,,D02,2017-04-24T14:36:37+06:00,
1000000000370846,77079115758,mKarTel,mAltel,mMTS,D07,D01,2017-04-24T14:36:42+06:00,
1000000000370847,77761044411,mKcell,mKarTel,mKarTel,,D02,2017-04-24T14:37:20+06:00,
1000000000370848,77075866992,mMTS,mKarTel,mMTS,D01,D77,2017-04-24T14:38:01+06:00,
1000000000370849,77018808911,mKcell,mMTS,mKcell,D77,D02,2017-04-24T14:39:47+06:00,
1000000000370850,77074003333,mKarTel,mAltel,mMTS,D07,D01,2017-04-24T14:40:59+06:00,
1000000000370851,77028591407,mKcell,mMTS,mKcell,D77,D02,2017-04-24T14:42:45+06:00,
1000000000370852,77006465665,mMTS,mAltel,mAltel,,D77,2017-04-24T14:42:38+06:00,
1000000000370853,77015240378,mMTS,mAltel,mKcell,D07,D77,2017-04-24T14:42:53+06:00,
1000000000370856,77051783561,mKcell,mKarTel,mKarTel,D01,D02,2017-04-24T14:45:58+06:00,
1000000000370857,77023444412,mKcell,mMTS,mKcell,D77,D02,2017-04-24T14:47:05+06:00,
1000000000370858,77788886988,mAltel,mMTS,mKcell,D77,D07,2017-04-24T14:47:23+06:00,
1000000000370859,77077841202,mMTS,mKarTel,mMTS,D01,D77,2017-04-24T14:48:00+06:00,
1000000000370862,77472982829,mKcell,mAltel,mMTS,D07,D02,2017-04-24T14:50:14+06:00,
1000000000370863,77784904848,mMTS,mKcell,mKcell,D02,D77,2017-04-24T14:51:23+06:00,
1000000000370864,77023802080,mMTS,mKcell,mKcell,,D77,2017-04-24T14:53:14+06:00,
1000000000370865,77771808981,mMTS,mKarTel,mKarTel,,D77,2017-04-24T14:54:26+06:00,
1000000000370867,77075050830,mKarTel,mMTS,mMTS,,D01,2017-04-24T14:56:14+06:00,
1000000000370868,77787880848,mMTS,mKcell,mKcell,D02,D77,2017-04-24T14:56:46+06:00,
1000000000370869,77019765796,mAltel,mKcell,mKcell,,D07,2017-04-24T14:57:13+06:00,
1000000000370870,77764223222,mMTS,mKarTel,mKarTel,,D77,2017-04-24T14:58:05+06:00,
1000000000370872,77059871570,mMTS,mKarTel,mKarTel,,D77,2017-04-24T14:58:05+06:00,
1000000000370873,77012505631,mKarTel,mKcell,mKcell,,D01,2017-04-24T14:58:34+06:00,
1000000000370874,77784899252,mKcell,mMTS,mKcell,D77,D02,2017-04-24T14:59:04+06:00,
1000000000370875,77072135353,mAltel,mMTS,mMTS,,D07,2017-04-24T14:58:52+06:00,
1000000000370877,77017287052,mMTS,mKcell,mKcell,,D77,2017-04-24T14:59:59+06:00,
