NPId,Number,RecipientId,DonorId,RangeHolderId,OldRoute,NewRoute,PortDate,RowCount
1000000000227655,77758200979,mKcell,mAltel,mKcell,D07,D02,2016-08-11T17:02:16+06:00,23
1000000000227656,77018478496,mKcell,mMTS,mKcell,D77,D02,2016-08-11T17:02:16+06:00,
1000000000227658,77074768290,mKarTel,mMTS,mMTS,,D01,2016-08-11T17:01:03+06:00,
1000000000227661,77776230774,mMTS,mKarTel,mKarTel,,D77,2016-08-11T17:03:54+06:00,
1000000000227663,77774353988,mMTS,mKarTel,mKarTel,,D77,2016-08-11T17:03:54+06:00,
1000000000227665,77017187117,mKcell,mAltel,mKcell,D07,D02,2016-08-11T17:05:10+06:00,
1000000000227666,77053326288,mMTS,mKarTel,mKarTel,,D77,2016-08-11T17:06:49+06:00,
1000000000227667,77055874492,mMTS,mKarTel,mKarTel,,D77,2016-08-11T17:07:27+06:00,
1000000000227668,77011361893,mKarTel,mKcell,mKcell,,D01,2016-08-11T17:07:20+06:00,
1000000000227669,77076606155,mKcell,mMTS,mMTS,,D02,2016-08-11T17:07:25+06:00,
1000000000227672,77474081992,mKcell,mMTS,mMTS,,D02,2016-08-11T17:09:49+06:00,
1000000000227675,77776502000,mKcell,mKarTel,mKarTel,,D02,2016-08-11T17:11:42+06:00,
1000000000227677,77071828227,mMTS,mAltel,mMTS,D07,D77,2016-08-11T17:10:33+06:00,
1000000000227680,77759779837,mKarTel,mKcell,mKcell,,D01,2016-08-11T17:12:46+06:00,
1000000000227681,77478187027,mKcell,mMTS,mMTS,,D02,2016-08-11T17:12:04+06:00,
1000000000227683,77774410109,mMTS,mKarTel,mKarTel,,D77,2016-08-11T17:15:23+06:00,
1000000000227684,77753706650,mKarTel,mKcell,mKcell,,D01,2016-08-11T17:17:01+06:00,
1000000000227688,77776144293,mMTS,mKarTel,mKarTel,,D77,2016-08-11T17:24:31+06:00,
1000000000227689,77772040412,mKcell,mKarTel,mKarTel,,D02,2016-08-11T17:25:21+06:00,
1000000000227690,77022888858,mKcell,mMTS,mKcell,D77,D02,2016-08-11T17:23:47+06:00,
1000000000227691,77012080250,mAltel,mKcell,mKcell,,D07,2016-08-11T17:23:35+06:00,
1000000000227693,77000000040,mKcell,mAltel,mAltel,,D02,2016-08-11T17:25:48+06:00,
1000000000227694,77079953004,mAltel,mMTS,mMTS,,D07,2016-08-11T17:27:20+06:00,
