NPId,Number,RecipientId,DonorId,RangeHolderId,OldRoute,NewRoute,PortDate,RowCount
1000000000241422,77002931177,mKcell,mAltel,mAltel,,D02,2016-09-06T19:31:33+06:00,13
1000000000241424,77021125520,mKcell,mAltel,mKcell,D07,D02,2016-09-06T19:33:13+06:00,
1000000000241425,77773682010,mAltel,mKarTel,mKarTel,,D07,2016-09-06T19:35:38+06:00,
1000000000241426,77770191199,mKcell,mKarTel,mKarTel,,D02,2016-09-06T19:40:14+06:00,
1000000000241427,77079353565,mKcell,mMTS,mMTS,,D02,2016-09-06T19:46:19+06:00,
1000000000241428,77777731618,mKcell,mAltel,mKarTel,D07,D02,2016-09-06T19:47:05+06:00,
1000000000241429,77072023757,mAltel,mMTS,mMTS,,D07,2016-09-06T19:48:03+06:00,
1000000000241430,77769333325,mKarTel,mAltel,mKarTel,D07,D01,2016-09-06T19:52:28+06:00,
1000000000241431,77077295935,mKarTel,mMTS,mMTS,,D01,2016-09-06T19:53:21+06:00,
1000000000241432,77023511741,mKarTel,mKcell,mKcell,,D01,2016-09-06T19:57:25+06:00,
1000000000241433,77029999718,mKcell,mAltel,mKcell,D07,D02,2016-09-06T19:57:22+06:00,
1000000000241434,77017720727,mMTS,mKcell,mKcell,,D77,2016-09-06T19:59:18+06:00,
1000000000241435,77027400499,mKcell,mMTS,mKcell,D77,D02,2016-09-06T19:59:56+06:00,
