NPId,Number,RecipientId,DonorId,RangeHolderId,OldRoute,NewRoute,PortDate,RowCount
1000000000314526,77767078784,mKcell,mKarTel,mKarTel,,D02,2017-01-22T10:21:21+06:00,4
1000000000314527,77012473844,mAltel,mKcell,mKcell,,D07,2017-01-22T10:21:09+06:00,
1000000000314528,77017419121,mAltel,mKcell,mKcell,,D07,2017-01-22T10:22:48+06:00,
1000000000314529,77019910372,mAltel,mKcell,mKcell,,D07,2017-01-22T10:27:16+06:00,
