NPId,Number,RecipientId,DonorId,RangeHolderId,OldRoute,NewRoute,PortDate,RowCount
1000000000228802,77052069495,mMTS,mKarTel,mKarTel,,D77,2016-08-14T14:33:02+06:00,14
1000000000228805,77000090000,mMTS,mAltel,mAltel,,D77,2016-08-14T14:32:58+06:00,
1000000000228806,77000994040,mMTS,mAltel,mAltel,,D77,2016-08-14T14:34:21+06:00,
1000000000228807,77017456697,mKarTel,mKcell,mKcell,,D01,2016-08-14T14:42:30+06:00,
1000000000228808,77028330034,mMTS,mKcell,mKcell,,D77,2016-08-14T14:42:28+06:00,
1000000000228809,77756415585,mMTS,mKcell,mKcell,,D77,2016-08-14T14:42:57+06:00,
1000000000228810,77000550000,mMTS,mAltel,mAltel,,D77,2016-08-14T14:42:57+06:00,
1000000000228811,77051935930,mAltel,mKarTel,mKarTel,,D07,2016-08-14T14:46:41+06:00,
1000000000228812,77015234843,mKarTel,mAltel,mKcell,D07,D01,2016-08-14T14:46:02+06:00,
1000000000228813,77757723526,mMTS,mKcell,mKcell,,D77,2016-08-14T14:45:54+06:00,
1000000000228814,77769999002,mKarTel,mAltel,mKarTel,D07,D01,2016-08-14T14:47:21+06:00,
1000000000228815,77000000106,mMTS,mAltel,mAltel,,D77,2016-08-14T14:50:34+06:00,
1000000000228817,77769999004,mKarTel,mAltel,mKarTel,D07,D01,2016-08-14T14:52:54+06:00,
1000000000228818,77765528787,mMTS,mKarTel,mKarTel,,D77,2016-08-14T14:57:44+06:00,
