NPId,Number,RecipientId,DonorId,RangeHolderId,OldRoute,NewRoute,PortDate,RowCount
1000000000108921,77017712236,mAltel,mKcell,mKcell,,D07,2016-03-07T10:02:07+06:00,19
1000000000108922,77017187205,mAltel,mKcell,mKcell,,D07,2016-03-07T10:02:12+06:00,
1000000000108923,77019996200,mMTS,mKcell,mKcell,,D77,2016-03-07T10:02:11+06:00,
1000000000108925,77758805848,mMTS,mKcell,mKcell,,D77,2016-03-07T10:02:07+06:00,
1000000000108926,77017723727,mMTS,mKcell,mKcell,,D77,2016-03-07T10:02:11+06:00,
1000000000108927,77019590215,mMTS,mKcell,mKcell,,D77,2016-03-07T10:02:11+06:00,
1000000000108928,77755544433,mMTS,mKcell,mKcell,,D77,2016-03-07T10:02:11+06:00,
1000000000108931,77026278880,mMTS,mKarTel,mKcell,D01,D77,2016-03-07T10:02:31+06:00,
1000000000108932,77016162250,mMTS,mKcell,mKcell,,D77,2016-03-07T10:02:35+06:00,
1000000000108933,77779441444,mMTS,mKarTel,mKarTel,,D77,2016-03-07T10:02:31+06:00,
1000000000108936,77059878000,mKcell,mAltel,mKarTel,D07,D02,2016-03-07T10:10:44+06:00,
1000000000108940,77014483299,mKarTel,mKcell,mKcell,,D01,2016-03-07T10:18:06+06:00,
1000000000108942,77081972700,mMTS,mAltel,mAltel,,D77,2016-03-07T10:18:11+06:00,
1000000000108945,77071055443,mAltel,mMTS,mMTS,,D07,2016-03-07T10:20:54+06:00,
1000000000108946,77789889998,mAltel,mKcell,mKcell,,D07,2016-03-07T10:21:37+06:00,
1000000000108947,77017133837,mMTS,mKcell,mKcell,,D77,2016-03-07T10:22:17+06:00,
1000000000108948,77011203465,mMTS,mKcell,mKcell,,D77,2016-03-07T10:24:16+06:00,
1000000000108950,77755244888,mMTS,mKcell,mKcell,,D77,2016-03-07T10:27:05+06:00,
1000000000108951,77057008099,mMTS,mKarTel,mKarTel,,D77,2016-03-07T10:28:20+06:00,
