NPId,Number,RecipientId,DonorId,RangeHolderId,OldRoute,NewRoute,PortDate,RowCount
1000000000343963,77754774080,mMTS,mKcell,mKcell,,D77,2017-03-09T18:00:21+06:00,24
1000000000343964,77783788848,mMTS,mKarTel,mKcell,D01,D77,2017-03-09T18:00:48+06:00,
1000000000343965,77026248461,mMTS,mKcell,mKcell,,D77,2017-03-09T18:01:58+06:00,
1000000000343966,77773079768,mMTS,mKarTel,mKarTel,,D77,2017-03-09T18:02:20+06:00,
1000000000343967,77018494038,mMTS,mKcell,mKcell,,D77,2017-03-09T18:03:39+06:00,
1000000000343969,77716789696,mKcell,mKarTel,mKarTel,,D02,2017-03-09T18:06:29+06:00,
1000000000343970,77017589059,mKarTel,mKcell,mKcell,,D01,2017-03-09T18:07:02+06:00,
1000000000343971,77014097959,mMTS,mKcell,mKcell,,D77,2017-03-09T18:07:52+06:00,
1000000000343973,77053319300,mKarTel,mAltel,mKarTel,D07,D01,2017-03-09T18:11:13+06:00,
1000000000343975,77781196859,mMTS,mKcell,mKcell,,D77,2017-03-09T18:12:51+06:00,
1000000000343976,77025780111,mMTS,mKcell,mKcell,,D77,2017-03-09T18:13:38+06:00,
1000000000343978,77086326963,mAltel,mKarTel,mAltel,D01,D07,2017-03-09T18:14:43+06:00,
1000000000343979,77770906677,mKarTel,mAltel,mKarTel,D07,D01,2017-03-09T18:14:50+06:00,
1000000000343980,77025379392,mAltel,mKcell,mKcell,,D07,2017-03-09T18:15:45+06:00,
1000000000343981,77059772223,mKarTel,mAltel,mKarTel,D07,D01,2017-03-09T18:19:59+06:00,
1000000000343982,77017775607,mKarTel,mKcell,mKcell,,D01,2017-03-09T18:22:15+06:00,
1000000000343983,77057477007,mKcell,mKarTel,mKarTel,,D02,2017-03-09T18:22:31+06:00,
1000000000343987,77014045445,mKarTel,mKcell,mKcell,,D01,2017-03-09T18:24:53+06:00,
1000000000343988,77775550059,mKcell,mKarTel,mKarTel,,D02,2017-03-09T18:27:18+06:00,
1000000000343989,77775550095,mKcell,mKarTel,mKarTel,,D02,2017-03-09T18:28:16+06:00,
1000000000343991,77087682627,mMTS,mKarTel,mAltel,D01,D77,2017-03-09T18:28:14+06:00,
1000000000343992,77021515457,mMTS,mKcell,mKcell,,D77,2017-03-09T18:28:46+06:00,
1000000000343993,77754661666,mKarTel,mKcell,mKcell,,D01,2017-03-09T18:29:17+06:00,
1000000000343994,77778880807,mKcell,mKarTel,mKarTel,,D02,2017-03-09T18:29:39+06:00,
