NPId,Number,RecipientId,DonorId,RangeHolderId,OldRoute,NewRoute,PortDate,RowCount
1000000000301504,77472239397,mKarTel,mMTS,mMTS,,D01,2016-12-27T14:00:05+06:00,22
1000000000301505,77073085689,mKarTel,mMTS,mMTS,,D01,2016-12-27T14:00:33+06:00,
1000000000301507,77051166603,mAltel,mKarTel,mKarTel,,D07,2016-12-27T14:01:27+06:00,
1000000000301509,77712631043,mKarTel,mMTS,mKarTel,D77,D01,2016-12-27T14:02:09+06:00,
1000000000301510,77477000550,mAltel,mKarTel,mMTS,D01,D07,2016-12-27T14:03:49+06:00,
1000000000301511,77021123403,mKarTel,mKcell,mKcell,,D01,2016-12-27T14:04:20+06:00,
1000000000301513,77077556879,mKarTel,mMTS,mMTS,,D01,2016-12-27T14:04:26+06:00,
1000000000301514,77073450509,mKcell,mMTS,mMTS,,D02,2016-12-27T14:07:30+06:00,
1000000000301517,77016230030,mAltel,mKcell,mKcell,,D07,2016-12-27T14:10:26+06:00,
1000000000301518,77719130180,mKarTel,mMTS,mKarTel,D77,D01,2016-12-27T14:12:06+06:00,
1000000000301519,77028665455,mKarTel,mKcell,mKcell,,D01,2016-12-27T14:12:25+06:00,
1000000000301520,77766800357,mMTS,mKarTel,mKarTel,,D77,2016-12-27T14:12:55+06:00,
1000000000301521,77057199021,mMTS,mKarTel,mKarTel,,D77,2016-12-27T14:15:01+06:00,
1000000000301522,77766800320,mMTS,mKarTel,mKarTel,,D77,2016-12-27T14:18:00+06:00,
1000000000301523,77014977505,mMTS,mKcell,mKcell,,D77,2016-12-27T14:19:57+06:00,
1000000000301524,77054737371,mMTS,mKarTel,mKarTel,,D77,2016-12-27T14:21:35+06:00,
1000000000301525,77017540212,mKarTel,mKcell,mKcell,,D01,2016-12-27T14:21:53+06:00,
1000000000301526,77017796234,mMTS,mKcell,mKcell,,D77,2016-12-27T14:21:55+06:00,
1000000000301528,77753859941,mKarTel,mKcell,mKcell,,D01,2016-12-27T14:22:45+06:00,
1000000000301529,77082680405,mMTS,mAltel,mAltel,,D77,2016-12-27T14:27:14+06:00,
1000000000301530,77017882540,mKarTel,mKcell,mKcell,,D01,2016-12-27T14:27:35+06:00,
1000000000301531,77766800321,mMTS,mKarTel,mKarTel,,D77,2016-12-27T14:27:54+06:00,
