NPId,Number,RecipientId,DonorId,RangeHolderId,OldRoute,NewRoute,PortDate,RowCount
1000000000399960,77710409880,mKcell,mKarTel,mKarTel,,D02,2017-06-08T17:36:53+06:00,27
1000000000400031,77780004377,mMTS,mKcell,mKcell,,D77,2017-06-08T17:30:28+06:00,
1000000000400032,77078190915,mKarTel,mMTS,mMTS,,D01,2017-06-08T17:30:33+06:00,
1000000000400033,77772929948,mMTS,mKarTel,mKarTel,,D77,2017-06-08T17:31:30+06:00,
1000000000400035,77756888393,mMTS,mKcell,mKcell,,D77,2017-06-08T17:32:20+06:00,
1000000000400038,77477184285,mKcell,mMTS,mMTS,,D02,2017-06-08T17:35:34+06:00,
1000000000400039,77088987950,mMTS,mAltel,mAltel,,D77,2017-06-08T17:36:24+06:00,
1000000000400041,77010191001,mMTS,mKcell,mKcell,,D77,2017-06-08T17:37:15+06:00,
1000000000400042,77089990909,mKcell,mAltel,mAltel,,D02,2017-06-08T17:38:03+06:00,
1000000000400043,77472787913,mKarTel,mMTS,mMTS,,D01,2017-06-08T17:38:46+06:00,
1000000000400044,77055365656,mKcell,mKarTel,mKarTel,,D02,2017-06-08T17:39:38+06:00,
1000000000400045,77785997969,mAltel,mKcell,mKcell,,D07,2017-06-08T17:40:50+06:00,
1000000000400051,77022172001,mKcell,mMTS,mKcell,D77,D02,2017-06-08T17:48:37+06:00,
1000000000400053,77013737707,mKarTel,mKcell,mKcell,,D01,2017-06-08T17:49:22+06:00,
1000000000400054,77078016517,mKarTel,mMTS,mMTS,,D01,2017-06-08T17:49:29+06:00,
1000000000400055,77018050522,mAltel,mKarTel,mKcell,D01,D07,2017-06-08T17:50:12+06:00,
1000000000400056,77089990999,mKcell,mAltel,mAltel,,D02,2017-06-08T17:50:06+06:00,
1000000000400057,77711187766,mMTS,mKarTel,mKarTel,,D77,2017-06-08T17:50:19+06:00,
1000000000400058,77023888244,mAltel,mKcell,mKcell,,D07,2017-06-08T17:50:52+06:00,
1000000000400059,77089999979,mKcell,mAltel,mAltel,,D02,2017-06-08T17:52:41+06:00,
1000000000400060,77087528025,mKcell,mAltel,mAltel,,D02,2017-06-08T17:53:18+06:00,
1000000000400061,77026039263,mKcell,mMTS,mKcell,D77,D02,2017-06-08T17:54:01+06:00,
1000000000400062,77787881855,mMTS,mKcell,mKcell,,D77,2017-06-08T17:54:56+06:00,
1000000000400063,77078016516,mKarTel,mMTS,mMTS,,D01,2017-06-08T17:56:19+06:00,
1000000000400066,77012226442,mKcell,mKarTel,mKcell,D01,D02,2017-06-08T17:58:35+06:00,
1000000000400067,77025555295,mKcell,mMTS,mKcell,D77,D02,2017-06-08T17:59:30+06:00,
1000000000400068,77753138883,mKarTel,mKcell,mKcell,,D01,2017-06-08T17:59:49+06:00,
