NPId,Number,RecipientId,DonorId,RangeHolderId,OldRoute,NewRoute,PortDate,RowCount
1000000000372633,77010291350,mKcell,mKarTel,mKcell,D01,D02,2017-04-27T10:48:37+06:00,29
1000000000372635,77010291351,mKcell,mKarTel,mKcell,D01,D02,2017-04-27T10:54:47+06:00,
1000000000372670,77782182279,mMTS,mKcell,mKcell,,D77,2017-04-27T10:32:50+06:00,
1000000000372671,77083127514,mMTS,mAltel,mAltel,,D77,2017-04-27T10:32:45+06:00,
1000000000372672,77021282235,mKarTel,mKcell,mKcell,,D01,2017-04-27T10:35:34+06:00,
1000000000372673,77011111493,mKarTel,mKcell,mKcell,,D01,2017-04-27T10:36:11+06:00,
1000000000372674,77054136987,mMTS,mKarTel,mKarTel,,D77,2017-04-27T10:38:06+06:00,
1000000000372675,77718611194,mMTS,mKarTel,mKarTel,,D77,2017-04-27T10:38:07+06:00,
1000000000372676,77054136746,mMTS,mKarTel,mKarTel,,D77,2017-04-27T10:38:12+06:00,
1000000000372678,77759821331,mKarTel,mKcell,mKcell,,D01,2017-04-27T10:38:54+06:00,
1000000000372680,77773646324,mMTS,mKarTel,mKarTel,,D77,2017-04-27T10:41:31+06:00,
1000000000372681,77777292992,mKcell,mKarTel,mKarTel,,D02,2017-04-27T10:42:52+06:00,
1000000000372682,77019129199,mAltel,mKcell,mKcell,,D07,2017-04-27T10:42:42+06:00,
1000000000372683,77070818888,mKarTel,mMTS,mMTS,,D01,2017-04-27T10:47:15+06:00,
1000000000372684,77018013444,mMTS,mKcell,mKcell,,D77,2017-04-27T10:47:46+06:00,
1000000000372685,77718611193,mMTS,mKarTel,mKarTel,,D77,2017-04-27T10:48:08+06:00,
1000000000372686,77053968946,mMTS,mKarTel,mKarTel,,D77,2017-04-27T10:48:08+06:00,
1000000000372687,77017231681,mKarTel,mKcell,mKcell,,D01,2017-04-27T10:48:19+06:00,
1000000000372688,77017134078,mKarTel,mKcell,mKcell,,D01,2017-04-27T10:51:06+06:00,
1000000000372689,77758878385,mKarTel,mKcell,mKcell,,D01,2017-04-27T10:52:07+06:00,
1000000000372690,77053968962,mMTS,mKarTel,mKarTel,,D77,2017-04-27T10:53:05+06:00,
1000000000372691,77082725136,mMTS,mAltel,mAltel,,D77,2017-04-27T10:52:46+06:00,
1000000000372692,77078929976,mAltel,mMTS,mMTS,,D07,2017-04-27T10:55:16+06:00,
1000000000372693,77718997237,mKcell,mKarTel,mKarTel,,D02,2017-04-27T10:56:25+06:00,
1000000000372695,77718611711,mMTS,mKarTel,mKarTel,,D77,2017-04-27T10:58:06+06:00,
1000000000372696,77026600727,mMTS,mKcell,mKcell,,D77,2017-04-27T10:57:57+06:00,
1000000000372697,77051724931,mMTS,mKarTel,mKarTel,,D77,2017-04-27T10:58:06+06:00,
1000000000372698,77761407926,mKcell,mKarTel,mKarTel,,D02,2017-04-27T10:58:44+06:00,
1000000000372699,77012267612,mKcell,mKarTel,mKcell,D01,D02,2017-04-27T10:58:48+06:00,
