NPId,Number,RecipientId,DonorId,RangeHolderId,OldRoute,NewRoute,PortDate,RowCount
1000000000281173,77775847036,mKarTel,mAltel,mKarTel,D07,D01,2016-11-19T09:34:16+06:00,3
1000000000281174,77778695695,mKcell,mKarTel,mKarTel,,D02,2016-11-19T09:54:06+06:00,
1000000000281175,77022466661,mKarTel,mKcell,mKcell,,D01,2016-11-19T09:58:29+06:00,
