NPId,Number,RecipientId,DonorId,RangeHolderId,OldRoute,NewRoute,PortDate,RowCount
1000000000182512,77015290989,mMTS,mKcell,mKcell,,D77,2016-05-27T20:31:22+06:00,4
1000000000182514,77089705915,mKcell,mAltel,mAltel,,D02,2016-05-27T20:43:42+06:00,
1000000000182515,77075155811,mKcell,mMTS,mMTS,,D02,2016-05-27T20:45:04+06:00,
1000000000182516,77755625001,mMTS,mKcell,mKcell,,D77,2016-05-27T20:46:57+06:00,
