NPId,Number,RecipientId,DonorId,RangeHolderId,OldRoute,NewRoute,PortDate,RowCount
1000000000261244,77713001259,mKcell,mKarTel,mKarTel,,D02,2016-10-12T15:37:56+06:00,22
1000000000261265,77057657808,mMTS,mKarTel,mKarTel,,D77,2016-10-12T15:32:23+06:00,
1000000000261266,77711277728,mMTS,mKarTel,mKarTel,,D77,2016-10-12T15:32:23+06:00,
1000000000261267,77758033747,mKcell,mKarTel,mKcell,D01,D02,2016-10-12T15:34:28+06:00,
1000000000261268,77025709806,mAltel,mKcell,mKcell,,D07,2016-10-12T15:30:12+06:00,
1000000000261269,77022455558,mMTS,mKcell,mKcell,,D77,2016-10-12T15:34:16+06:00,
1000000000261270,77019402979,mKcell,mAltel,mKcell,D07,D02,2016-10-12T15:35:01+06:00,
1000000000261271,77773649777,mMTS,mKarTel,mKarTel,,D77,2016-10-12T15:41:20+06:00,
1000000000261272,77786123304,mAltel,mKcell,mKcell,,D07,2016-10-12T15:38:29+06:00,
1000000000261273,77476244441,mAltel,mMTS,mMTS,,D07,2016-10-12T15:39:36+06:00,
1000000000261274,77013230939,mKcell,mAltel,mKcell,D07,D02,2016-10-12T15:40:06+06:00,
1000000000261275,77087000119,mMTS,mAltel,mAltel,,D77,2016-10-12T15:42:27+06:00,
1000000000261276,77027277431,mKarTel,mKcell,mKcell,,D01,2016-10-12T15:46:58+06:00,
1000000000261277,77023910199,mMTS,mKcell,mKcell,,D77,2016-10-12T15:44:57+06:00,
1000000000261279,77759091989,mAltel,mKcell,mKcell,,D07,2016-10-12T15:46:16+06:00,
1000000000261280,77753997525,mMTS,mKcell,mKcell,,D77,2016-10-12T15:46:55+06:00,
1000000000261281,77021001046,mKarTel,mKcell,mKcell,,D01,2016-10-12T15:48:53+06:00,
1000000000261284,77025667517,mAltel,mKcell,mKcell,,D07,2016-10-12T15:48:17+06:00,
1000000000261290,77023062587,mKarTel,mKcell,mKcell,,D01,2016-10-12T15:55:11+06:00,
1000000000261293,77072138187,mAltel,mMTS,mMTS,,D07,2016-10-12T15:55:53+06:00,
1000000000261295,77479000268,mKcell,mMTS,mMTS,,D02,2016-10-12T15:59:10+06:00,
1000000000261297,77012440955,mKcell,mAltel,mKcell,D07,D02,2016-10-12T15:59:57+06:00,
