NPId,Number,RecipientId,DonorId,RangeHolderId,OldRoute,NewRoute,PortDate,RowCount
1000000000264657,77772333222,mMTS,mKarTel,mKarTel,,D77,2016-10-18T20:37:49+06:00,3
1000000000264660,77078929299,mKcell,mMTS,mMTS,,D02,2016-10-18T20:46:52+06:00,
1000000000264661,77028316404,mMTS,mKcell,mKcell,,D77,2016-10-18T20:51:05+06:00,
