NPId,Number,RecipientId,DonorId,RangeHolderId,OldRoute,NewRoute,PortDate,RowCount
1000000000165557,77779999449,mKarTel,mMTS,mKarTel,D77,D01,2016-05-02T16:30:14+06:00,27
1000000000165559,77057703366,mKcell,mKarTel,mKarTel,,D02,2016-05-02T16:32:11+06:00,
1000000000165561,77076073355,mKarTel,mMTS,mMTS,,D01,2016-05-02T16:33:21+06:00,
1000000000165562,77074844900,mMTS,mAltel,mMTS,D07,D77,2016-05-02T16:34:07+06:00,
1000000000165563,77011569701,mKcell,mAltel,mKcell,D07,D02,2016-05-02T16:35:05+06:00,
1000000000165564,77752683363,mMTS,mKcell,mKcell,,D77,2016-05-02T16:36:03+06:00,
1000000000165566,77017068800,mMTS,mKcell,mKcell,,D77,2016-05-02T16:39:29+06:00,
1000000000165570,77027611180,mKcell,mAltel,mKcell,D07,D02,2016-05-02T16:42:16+06:00,
1000000000165571,77762000220,mKcell,mAltel,mKarTel,D07,D02,2016-05-02T16:45:28+06:00,
1000000000165572,77075829202,mKcell,mAltel,mMTS,D07,D02,2016-05-02T16:46:08+06:00,
1000000000165574,77784855421,mMTS,mAltel,mKcell,D07,D77,2016-05-02T16:47:02+06:00,
1000000000165575,77013880609,mMTS,mAltel,mKcell,D07,D77,2016-05-02T16:47:02+06:00,
1000000000165576,77051793636,mMTS,mKarTel,mKarTel,,D77,2016-05-02T16:47:40+06:00,
1000000000165577,77776667700,mKcell,mKarTel,mKarTel,,D02,2016-05-02T16:48:46+06:00,
1000000000165578,77085104545,mMTS,mAltel,mAltel,,D77,2016-05-02T16:47:44+06:00,
1000000000165579,77052042084,mKarTel,mAltel,mKarTel,D07,D01,2016-05-02T16:51:39+06:00,
1000000000165580,77716111195,mMTS,mKarTel,mKarTel,,D77,2016-05-02T16:51:52+06:00,
1000000000165581,77073442542,mKcell,mMTS,mMTS,,D02,2016-05-02T16:55:30+06:00,
1000000000165582,77025903736,mKarTel,mKcell,mKcell,,D01,2016-05-02T16:56:40+06:00,
1000000000165583,77015018088,mKarTel,mKcell,mKcell,,D01,2016-05-02T16:56:46+06:00,
1000000000165584,77017720034,mKcell,mAltel,mKcell,D07,D02,2016-05-02T16:56:50+06:00,
1000000000165586,77081856689,mKcell,mAltel,mAltel,,D02,2016-05-02T16:56:50+06:00,
1000000000165588,77017837210,mMTS,mKcell,mKcell,,D77,2016-05-02T16:57:12+06:00,
1000000000165589,77057751940,mMTS,mKarTel,mKarTel,,D77,2016-05-02T16:57:43+06:00,
1000000000165591,77087618081,mMTS,mAltel,mAltel,,D77,2016-05-02T16:57:45+06:00,
1000000000165592,77082449277,mMTS,mAltel,mAltel,,D77,2016-05-02T16:58:15+06:00,
1000000000165594,77025526600,mMTS,mKcell,mKcell,,D77,2016-05-02T16:59:44+06:00,
