NPId,Number,RecipientId,DonorId,RangeHolderId,OldRoute,NewRoute,PortDate,RowCount
1000000000446806,77055555000,mKarTel,mKcell,mKarTel,D02,D01,2017-08-27T19:39:03+06:00,5
1000000000446807,77024748208,mKarTel,mKcell,mKcell,,D01,2017-08-27T19:41:18+06:00,
1000000000446808,77783580146,mKarTel,mKcell,mKcell,,D01,2017-08-27T19:45:26+06:00,
1000000000446809,77075621532,mKcell,mMTS,mMTS,,D02,2017-08-27T19:46:09+06:00,
1000000000446810,77075621552,mKcell,mMTS,mMTS,,D02,2017-08-27T19:53:51+06:00,
