NPId,Number,RecipientId,DonorId,RangeHolderId,OldRoute,NewRoute,PortDate,RowCount
1000000000311029,77075177317,mAltel,mMTS,mMTS,,D07,2017-01-15T17:30:55+06:00,14
1000000000311030,77026787329,mMTS,mKcell,mKcell,,D77,2017-01-15T17:33:25+06:00,
1000000000311031,77089779377,mKarTel,mAltel,mAltel,,D01,2017-01-15T17:33:32+06:00,
1000000000311032,77019828555,mMTS,mKcell,mKcell,,D77,2017-01-15T17:35:45+06:00,
1000000000311033,77059600923,mMTS,mKarTel,mKarTel,,D77,2017-01-15T17:37:44+06:00,
1000000000311034,77781464692,mMTS,mKcell,mKcell,,D77,2017-01-15T17:40:05+06:00,
1000000000311035,77077714581,mAltel,mMTS,mMTS,,D07,2017-01-15T17:41:41+06:00,
1000000000311036,77076699888,mKcell,mMTS,mMTS,,D02,2017-01-15T17:43:54+06:00,
1000000000311037,77018869798,mKarTel,mKcell,mKcell,,D01,2017-01-15T17:50:47+06:00,
1000000000311038,77056041053,mMTS,mKarTel,mKarTel,,D77,2017-01-15T17:51:34+06:00,
1000000000311039,77077625495,mMTS,mAltel,mMTS,D07,D77,2017-01-15T17:52:39+06:00,
1000000000311040,77078783075,mAltel,mMTS,mMTS,,D07,2017-01-15T17:53:30+06:00,
1000000000311041,77027211494,mMTS,mKcell,mKcell,,D77,2017-01-15T17:54:09+06:00,
1000000000311042,77009993031,mMTS,mAltel,mAltel,,D77,2017-01-15T17:55:29+06:00,
