NPId,Number,RecipientId,DonorId,RangeHolderId,OldRoute,NewRoute,PortDate,RowCount
1000000000310390,77714200008,mMTS,mKarTel,mKarTel,,D77,2017-01-16T08:46:28+06:00,2
1000000000311084,77004445797,mKcell,mAltel,mAltel,,D02,2017-01-16T08:56:12+06:00,
