NPId,Number,RecipientId,DonorId,RangeHolderId,OldRoute,NewRoute,PortDate,RowCount
1000000000346127,77710967678,mMTS,mKarTel,mKarTel,,D77,2017-03-14T10:44:24+06:00,26
1000000000346154,77471570076,mKcell,mMTS,mMTS,,D02,2017-03-14T10:30:12+06:00,
1000000000346155,77001444702,mKarTel,mAltel,mAltel,,D01,2017-03-14T10:30:26+06:00,
1000000000346156,77779797431,mKarTel,mAltel,mKarTel,D07,D01,2017-03-14T10:30:39+06:00,
1000000000346157,77029960996,mKcell,mAltel,mKcell,D07,D02,2017-03-14T10:30:49+06:00,
1000000000346158,77476584296,mKcell,mMTS,mMTS,,D02,2017-03-14T10:32:20+06:00,
1000000000346159,77073919177,mKcell,mMTS,mMTS,,D02,2017-03-14T10:32:57+06:00,
1000000000346160,77715757810,mMTS,mKarTel,mKarTel,,D77,2017-03-14T10:33:08+06:00,
1000000000346161,77071205781,mKarTel,mMTS,mMTS,,D01,2017-03-14T10:33:15+06:00,
1000000000346162,77079095434,mAltel,mKcell,mMTS,D02,D07,2017-03-14T10:34:11+06:00,
1000000000346164,77071921313,mMTS,mKcell,mMTS,D02,D77,2017-03-14T10:35:19+06:00,
1000000000346165,77471570040,mKcell,mMTS,mMTS,,D02,2017-03-14T10:36:31+06:00,
1000000000346167,77471570060,mKcell,mMTS,mMTS,,D02,2017-03-14T10:39:18+06:00,
1000000000346168,77078545260,mKcell,mMTS,mMTS,,D02,2017-03-14T10:41:01+06:00,
1000000000346169,77017249672,mKcell,mMTS,mKcell,D77,D02,2017-03-14T10:43:03+06:00,
1000000000346170,77016076522,mKcell,mMTS,mKcell,D77,D02,2017-03-14T10:44:28+06:00,
1000000000346171,77056508762,mMTS,mKarTel,mKarTel,,D77,2017-03-14T10:44:59+06:00,
1000000000346172,77078545275,mKcell,mMTS,mMTS,,D02,2017-03-14T10:45:02+06:00,
1000000000346173,77018378785,mAltel,mKcell,mKcell,,D07,2017-03-14T10:46:24+06:00,
1000000000346174,77750000236,mKarTel,mKcell,mKcell,,D01,2017-03-14T10:46:44+06:00,
1000000000346175,77078545272,mKcell,mMTS,mMTS,,D02,2017-03-14T10:49:07+06:00,
1000000000346176,77023606551,mMTS,mKcell,mKcell,,D77,2017-03-14T10:49:54+06:00,
1000000000346177,77056003924,mAltel,mKarTel,mKarTel,,D07,2017-03-14T10:50:55+06:00,
1000000000346178,77773139439,mMTS,mKarTel,mKarTel,,D77,2017-03-14T10:53:13+06:00,
1000000000346179,77787007248,mKarTel,mKcell,mKcell,,D01,2017-03-14T10:56:07+06:00,
1000000000346182,77013730916,mKcell,mMTS,mKcell,D77,D02,2017-03-14T10:57:30+06:00,
