NPId,Number,RecipientId,DonorId,RangeHolderId,OldRoute,NewRoute,PortDate,RowCount
1000000000248149,77019240818,mKcell,mKarTel,mKcell,D01,D02,2016-09-19T20:05:39+06:00,4
1000000000248150,77079006037,mKcell,mMTS,mMTS,,D02,2016-09-19T20:04:26+06:00,
1000000000248152,77016612901,mKcell,mAltel,mKcell,D07,D02,2016-09-19T20:08:11+06:00,
1000000000248156,77053833309,mKcell,mKarTel,mKarTel,,D02,2016-09-19T20:28:18+06:00,
