NPId,Number,RecipientId,DonorId,RangeHolderId,OldRoute,NewRoute,PortDate,RowCount
1000000000433928,77017777746,mKcell,mKarTel,mKcell,D01,D02,2017-08-03T11:33:45+06:00,24
1000000000433941,77012069155,mKcell,mKarTel,mKcell,D01,D02,2017-08-03T11:46:39+06:00,
1000000000433990,77773130264,mKarTel,mMTS,mKarTel,D77,D01,2017-08-03T11:30:05+06:00,
1000000000433992,77007707867,mMTS,mAltel,mAltel,,D77,2017-08-03T11:33:34+06:00,
1000000000433993,77026939777,mKarTel,mKcell,mKcell,,D01,2017-08-03T11:34:08+06:00,
1000000000433994,77027770612,mKarTel,mKcell,mKcell,,D01,2017-08-03T11:34:18+06:00,
1000000000433996,77015192770,mMTS,mKcell,mKcell,,D77,2017-08-03T11:36:13+06:00,
1000000000433997,77000272200,mMTS,mAltel,mAltel,,D77,2017-08-03T11:37:15+06:00,
1000000000433998,77089205170,mKcell,mMTS,mAltel,D77,D02,2017-08-03T11:38:03+06:00,
1000000000434000,77769111229,mKcell,mKarTel,mKarTel,,D02,2017-08-03T11:39:54+06:00,
1000000000434001,77471042030,mAltel,mMTS,mMTS,,D07,2017-08-03T11:41:00+06:00,
1000000000434003,77071050641,mKarTel,mMTS,mMTS,,D01,2017-08-03T11:42:18+06:00,
1000000000434004,77012081300,mKarTel,mAltel,mKcell,D07,D01,2017-08-03T11:42:49+06:00,
1000000000434005,77789009994,mAltel,mKcell,mKcell,,D07,2017-08-03T11:42:52+06:00,
1000000000434006,77782651686,mMTS,mKcell,mKcell,,D77,2017-08-03T11:43:03+06:00,
1000000000434007,77760109111,mKcell,mKarTel,mKarTel,,D02,2017-08-03T11:43:44+06:00,
1000000000434009,77018461985,mKarTel,mKcell,mKcell,,D01,2017-08-03T11:45:18+06:00,
1000000000434010,77015548262,mKcell,mMTS,mKcell,D77,D02,2017-08-03T11:46:43+06:00,
1000000000434011,77082260102,mKcell,mMTS,mAltel,D77,D02,2017-08-03T11:47:11+06:00,
1000000000434012,77769063000,mKcell,mKarTel,mKarTel,,D02,2017-08-03T11:47:39+06:00,
1000000000434014,77016194917,mAltel,mKcell,mKcell,,D07,2017-08-03T11:47:22+06:00,
1000000000434021,77764442777,mKarTel,mKcell,mKarTel,D02,D01,2017-08-03T11:49:58+06:00,
1000000000434022,77052363023,mKcell,mKarTel,mKarTel,,D02,2017-08-03T11:50:28+06:00,
1000000000434026,77789506666,mKarTel,mKcell,mKcell,,D01,2017-08-03T11:54:37+06:00,
