NPId,Number,RecipientId,DonorId,RangeHolderId,OldRoute,NewRoute,PortDate,RowCount
1000000000363923,77078968707,mMTS,mKcell,mMTS,D02,D77,2017-04-11T13:33:22+06:00,21
1000000000363924,77775007271,mKcell,mKarTel,mKarTel,,D02,2017-04-11T13:35:05+06:00,
1000000000363927,77777987470,mKarTel,mKcell,mKarTel,D02,D01,2017-04-11T13:38:23+06:00,
1000000000363928,77784724289,mAltel,mKcell,mKcell,,D07,2017-04-11T13:39:07+06:00,
1000000000363930,77751770663,mKcell,mMTS,mKcell,D77,D02,2017-04-11T13:40:47+06:00,
1000000000363931,77087694282,mKarTel,mAltel,mAltel,,D01,2017-04-11T13:43:32+06:00,
1000000000363932,77755177882,mKarTel,mMTS,mKcell,D77,D01,2017-04-11T13:43:33+06:00,
1000000000363933,77085365111,mKcell,mAltel,mAltel,,D02,2017-04-11T13:44:21+06:00,
1000000000363936,77771352362,mAltel,mKarTel,mKarTel,,D07,2017-04-11T13:46:20+06:00,
1000000000363937,77021018250,mKarTel,mKcell,mKcell,,D01,2017-04-11T13:46:59+06:00,
1000000000363939,77025475461,mKcell,mAltel,mKcell,D07,D02,2017-04-11T13:50:23+06:00,
1000000000363941,77753415355,mKcell,mAltel,mKcell,D07,D02,2017-04-11T13:51:06+06:00,
1000000000363942,77082320132,mAltel,mKcell,mAltel,D02,D07,2017-04-11T13:51:16+06:00,
1000000000363944,77787774946,mAltel,mKcell,mKcell,,D07,2017-04-11T13:51:53+06:00,
1000000000363945,77051861917,mMTS,mKarTel,mKarTel,,D77,2017-04-11T13:53:07+06:00,
1000000000363946,77783644604,mKarTel,mKcell,mKcell,,D01,2017-04-11T13:55:11+06:00,
1000000000363947,77751837777,mKcell,mMTS,mKcell,D77,D02,2017-04-11T13:55:37+06:00,
1000000000363948,77076913900,mKcell,mMTS,mMTS,,D02,2017-04-11T13:56:54+06:00,
1000000000363950,77756010360,mKcell,mKarTel,mKcell,D01,D02,2017-04-11T13:57:40+06:00,
1000000000363951,77771354069,mMTS,mKarTel,mKarTel,,D77,2017-04-11T13:57:28+06:00,
1000000000363953,77088955484,mMTS,mAltel,mAltel,,D77,2017-04-11T13:57:43+06:00,
