NPId,Number,RecipientId,DonorId,RangeHolderId,OldRoute,NewRoute,PortDate,RowCount
1000000000193702,77017189583,mKarTel,mKcell,mKcell,,D01,2016-06-15T10:39:42+06:00,16
1000000000193702,77017220023,mKarTel,mKcell,mKcell,,D01,2016-06-15T10:39:42+06:00,
1000000000193702,77017299546,mKarTel,mKcell,mKcell,,D01,2016-06-15T10:39:42+06:00,
1000000000193702,77017992324,mKarTel,mKcell,mKcell,,D01,2016-06-15T10:39:42+06:00,
1000000000193732,77011287939,mMTS,mKcell,mKcell,,D77,2016-06-15T10:32:33+06:00,
1000000000193738,77013979709,mKarTel,mKcell,mKcell,,D01,2016-06-15T10:42:06+06:00,
1000000000193740,77755555533,mAltel,mKcell,mKcell,,D07,2016-06-15T10:43:22+06:00,
1000000000193741,77012315192,mMTS,mKcell,mKcell,,D77,2016-06-15T10:45:10+06:00,
1000000000193742,77071612223,mKcell,mMTS,mMTS,,D02,2016-06-15T10:51:17+06:00,
1000000000193743,77021554430,mAltel,mKcell,mKcell,,D07,2016-06-15T10:50:36+06:00,
1000000000193745,77052814405,mMTS,mKarTel,mKarTel,,D77,2016-06-15T10:50:07+06:00,
1000000000193746,77004859765,mMTS,mAltel,mAltel,,D77,2016-06-15T10:51:36+06:00,
1000000000193747,77089358507,mMTS,mAltel,mAltel,,D77,2016-06-15T10:52:09+06:00,
1000000000193749,77779832505,mMTS,mKarTel,mKarTel,,D77,2016-06-15T10:53:31+06:00,
1000000000193752,77771028118,mMTS,mKarTel,mKarTel,,D77,2016-06-15T10:57:32+06:00,
1000000000193753,77056221642,mKarTel,mMTS,mKarTel,D77,D01,2016-06-15T10:58:12+06:00,
