NPId,Number,RecipientId,DonorId,RangeHolderId,OldRoute,NewRoute,PortDate,RowCount
1000000000265125,77017643150,mKarTel,mKcell,mKcell,,D01,2016-10-19T17:30:08+06:00,37
1000000000265127,77024710706,mAltel,mKcell,mKcell,,D07,2016-10-19T17:32:01+06:00,
1000000000265128,77028174512,mMTS,mKcell,mKcell,,D77,2016-10-19T17:32:25+06:00,
1000000000265129,77477730012,mMTS,mKcell,mMTS,D02,D77,2016-10-19T17:32:31+06:00,
1000000000265130,77014311206,mMTS,mKcell,mKcell,,D77,2016-10-19T17:32:37+06:00,
1000000000265131,77001417923,mMTS,mAltel,mAltel,,D77,2016-10-19T17:33:52+06:00,
1000000000265133,77077730018,mMTS,mKcell,mMTS,D02,D77,2016-10-19T17:36:55+06:00,
1000000000265134,77758400024,mMTS,mKcell,mKcell,,D77,2016-10-19T17:37:32+06:00,
1000000000265135,77027083377,mKarTel,mKcell,mKcell,,D01,2016-10-19T17:39:18+06:00,
1000000000265136,77477730018,mMTS,mKcell,mMTS,D02,D77,2016-10-19T17:39:45+06:00,
1000000000265138,77007773099,mKarTel,mAltel,mAltel,,D01,2016-10-19T17:41:07+06:00,
1000000000265139,77752364546,mKcell,mKarTel,mKcell,D01,D02,2016-10-19T17:42:59+06:00,
1000000000265140,77781095263,mAltel,mKcell,mKcell,,D07,2016-10-19T17:42:39+06:00,
1000000000265141,77781643885,mMTS,mKcell,mKcell,,D77,2016-10-19T17:42:39+06:00,
1000000000265142,77767003700,mMTS,mKarTel,mKarTel,,D77,2016-10-19T17:42:52+06:00,
1000000000265144,77477730021,mMTS,mKcell,mMTS,D02,D77,2016-10-19T17:43:25+06:00,
1000000000265145,77026419590,mKcell,mMTS,mKcell,D77,D02,2016-10-19T17:44:12+06:00,
1000000000265147,77017109382,mKarTel,mKcell,mKcell,,D01,2016-10-19T17:44:40+06:00,
1000000000265149,77053328613,mAltel,mKarTel,mKarTel,,D07,2016-10-19T17:46:21+06:00,
1000000000265150,77477730028,mMTS,mKcell,mMTS,D02,D77,2016-10-19T17:46:12+06:00,
1000000000265153,77016070114,mKarTel,mKcell,mKcell,,D01,2016-10-19T17:46:46+06:00,
1000000000265155,77473232992,mAltel,mMTS,mMTS,,D07,2016-10-19T17:46:55+06:00,
1000000000265156,77718457900,mKcell,mKarTel,mKarTel,,D02,2016-10-19T17:47:59+06:00,
1000000000265157,77477301128,mKarTel,mMTS,mMTS,,D01,2016-10-19T17:48:24+06:00,
1000000000265158,77021690005,mMTS,mKcell,mKcell,,D77,2016-10-19T17:48:28+06:00,
1000000000265159,77477730016,mMTS,mKcell,mMTS,D02,D77,2016-10-19T17:48:50+06:00,
1000000000265161,77079995114,mKarTel,mMTS,mMTS,,D01,2016-10-19T17:49:24+06:00,
1000000000265162,77005000170,mKcell,mAltel,mAltel,,D02,2016-10-19T17:49:27+06:00,
1000000000265164,77077970070,mKarTel,mMTS,mMTS,,D01,2016-10-19T17:51:14+06:00,
1000000000265166,77009722830,mMTS,mAltel,mAltel,,D77,2016-10-19T17:54:20+06:00,
1000000000265169,77759316780,mMTS,mKcell,mKcell,,D77,2016-10-19T17:57:22+06:00,
1000000000265170,77025876043,mMTS,mKcell,mKcell,,D77,2016-10-19T17:57:36+06:00,
1000000000265171,77781643825,mMTS,mKcell,mKcell,,D77,2016-10-19T17:57:36+06:00,
1000000000265172,77475542854,mKcell,mMTS,mMTS,,D02,2016-10-19T17:57:47+06:00,
1000000000265173,77775583216,mAltel,mKarTel,mKarTel,,D07,2016-10-19T17:58:10+06:00,
1000000000265174,77017552206,mMTS,mKcell,mKcell,,D77,2016-10-19T17:58:25+06:00,
1000000000265176,77085547628,mKarTel,mAltel,mAltel,,D01,2016-10-19T17:59:45+06:00,
