NPId,Number,RecipientId,DonorId,RangeHolderId,OldRoute,NewRoute,PortDate,RowCount
1000000000247336,77089159094,mMTS,mAltel,mAltel,,D77,2016-09-18T10:32:25+06:00,6
1000000000247337,77012040105,mMTS,mKcell,mKcell,,D77,2016-09-18T10:32:38+06:00,
1000000000247339,77776444840,mMTS,mKarTel,mKarTel,,D77,2016-09-18T10:42:46+06:00,
1000000000247340,77771804134,mMTS,mKarTel,mKarTel,,D77,2016-09-18T10:43:59+06:00,
1000000000247341,77079645159,mAltel,mMTS,mMTS,,D07,2016-09-18T10:43:59+06:00,
1000000000247342,77779855599,mMTS,mAltel,mKarTel,D07,D77,2016-09-18T10:56:50+06:00,
