NPId,Number,RecipientId,DonorId,RangeHolderId,OldRoute,NewRoute,PortDate,RowCount
1000000000315950,77082557715,mKarTel,mAltel,mAltel,,D01,2017-01-24T18:00:02+06:00,29
1000000000315952,77015581837,mKarTel,mKcell,mKcell,,D01,2017-01-24T18:00:59+06:00,
1000000000315953,77018889936,mKcell,mKarTel,mKcell,D01,D02,2017-01-24T18:02:09+06:00,
1000000000315956,77018130055,mKcell,mAltel,mKcell,D07,D02,2017-01-24T18:02:19+06:00,
1000000000315957,77071110150,mKcell,mMTS,mMTS,,D02,2017-01-24T18:02:29+06:00,
1000000000315958,77054470500,mAltel,mKarTel,mKarTel,,D07,2017-01-24T18:02:53+06:00,
1000000000315961,77075550115,mMTS,mKarTel,mMTS,D01,D77,2017-01-24T18:05:44+06:00,
1000000000315964,77015719548,mMTS,mKcell,mKcell,,D77,2017-01-24T18:05:50+06:00,
1000000000315965,77075529125,mMTS,mKcell,mMTS,D02,D77,2017-01-24T18:05:55+06:00,
1000000000315966,77753908080,mMTS,mKcell,mKcell,,D77,2017-01-24T18:06:06+06:00,
1000000000315968,77024403494,mAltel,mKcell,mKcell,,D07,2017-01-24T18:08:51+06:00,
1000000000315969,77012433555,mMTS,mKcell,mKcell,,D77,2017-01-24T18:09:09+06:00,
1000000000315971,77009299824,mKarTel,mAltel,mAltel,,D01,2017-01-24T18:09:36+06:00,
1000000000315973,77028612837,mKarTel,mKcell,mKcell,,D01,2017-01-24T18:10:19+06:00,
1000000000315975,77758180017,mAltel,mKcell,mKcell,,D07,2017-01-24T18:10:12+06:00,
1000000000315977,77082278539,mKarTel,mAltel,mAltel,,D01,2017-01-24T18:10:43+06:00,
1000000000315978,77015864061,mMTS,mKcell,mKcell,,D77,2017-01-24T18:10:49+06:00,
1000000000315979,77001009505,mKcell,mAltel,mAltel,,D02,2017-01-24T18:11:35+06:00,
1000000000315980,77001008303,mKcell,mAltel,mAltel,,D02,2017-01-24T18:11:50+06:00,
1000000000315981,77474131028,mMTS,mKarTel,mMTS,D01,D77,2017-01-24T18:12:21+06:00,
1000000000315982,77006006670,mMTS,mAltel,mAltel,,D77,2017-01-24T18:12:44+06:00,
1000000000315983,77001006909,mKcell,mAltel,mAltel,,D02,2017-01-24T18:14:12+06:00,
1000000000315984,77029637729,mMTS,mAltel,mKcell,D07,D77,2017-01-24T18:14:15+06:00,
1000000000315985,77089039001,mAltel,mKcell,mAltel,D02,D07,2017-01-24T18:15:01+06:00,
1000000000315986,77001002808,mKcell,mAltel,mAltel,,D02,2017-01-24T18:15:07+06:00,
1000000000315987,77001009606,mKcell,mAltel,mAltel,,D02,2017-01-24T18:17:14+06:00,
1000000000315988,77025295473,mAltel,mKcell,mKcell,,D07,2017-01-24T18:18:11+06:00,
1000000000315992,77474383597,mKarTel,mMTS,mMTS,,D01,2017-01-24T18:25:27+06:00,
1000000000315993,77772207766,mKcell,mKarTel,mKarTel,,D02,2017-01-24T18:28:26+06:00,
