NPId,Number,RecipientId,DonorId,RangeHolderId,OldRoute,NewRoute,PortDate,RowCount
1000000000362859,77054100522,mMTS,mKarTel,mKarTel,,D77,2017-04-09T16:03:51+06:00,21
1000000000362860,77001115676,mKcell,mAltel,mAltel,,D02,2017-04-09T16:04:13+06:00,
1000000000362862,77057774200,mKarTel,mMTS,mKarTel,D77,D01,2017-04-09T16:07:26+06:00,
1000000000362865,77757319666,mMTS,mKcell,mKcell,,D77,2017-04-09T16:07:54+06:00,
1000000000362866,77006060677,mKcell,mAltel,mAltel,,D02,2017-04-09T16:10:15+06:00,
1000000000362867,77012660602,mKarTel,mMTS,mKcell,D77,D01,2017-04-09T16:10:13+06:00,
1000000000362869,77777534000,mMTS,mKarTel,mKarTel,,D77,2017-04-09T16:12:46+06:00,
1000000000362870,77773929492,mMTS,mKarTel,mKarTel,,D77,2017-04-09T16:13:08+06:00,
1000000000362871,77001113595,mKcell,mAltel,mAltel,,D02,2017-04-09T16:13:08+06:00,
1000000000362873,77076664437,mKarTel,mMTS,mMTS,,D01,2017-04-09T16:15:51+06:00,
1000000000362876,77057975123,mMTS,mKarTel,mKarTel,,D77,2017-04-09T16:20:09+06:00,
1000000000362877,77782716080,mAltel,mKcell,mKcell,,D07,2017-04-09T16:20:04+06:00,
1000000000362878,77019997195,mAltel,mKarTel,mKcell,D01,D07,2017-04-09T16:20:50+06:00,
1000000000362879,77782955999,mMTS,mKcell,mKcell,,D77,2017-04-09T16:21:33+06:00,
1000000000362881,77014661566,mMTS,mKcell,mKcell,,D77,2017-04-09T16:23:01+06:00,
1000000000362884,77057008686,mAltel,mKarTel,mKarTel,D01,D07,2017-04-09T16:24:52+06:00,
1000000000362885,77075674985,mKcell,mMTS,mMTS,,D02,2017-04-09T16:24:46+06:00,
1000000000362887,77053324142,mMTS,mKarTel,mKarTel,,D77,2017-04-09T16:25:59+06:00,
1000000000362888,77056656666,mMTS,mKarTel,mKarTel,,D77,2017-04-09T16:26:04+06:00,
1000000000362890,77781588364,mAltel,mKcell,mKcell,D02,D07,2017-04-09T16:27:05+06:00,
1000000000362892,77020974788,mMTS,mKcell,mKcell,,D77,2017-04-09T16:27:46+06:00,
