NPId,Number,RecipientId,DonorId,RangeHolderId,OldRoute,NewRoute,PortDate,RowCount
1000000000340924,77017508539,mMTS,mKcell,mKcell,,D77,2017-03-04T16:32:55+06:00,23
1000000000340925,77024436748,mMTS,mKcell,mKcell,,D77,2017-03-04T16:33:02+06:00,
1000000000340926,77012278389,mKarTel,mKcell,mKcell,,D01,2017-03-04T16:34:26+06:00,
1000000000340927,77776250600,mAltel,mKarTel,mKarTel,,D07,2017-03-04T16:35:34+06:00,
1000000000340928,77770569991,mAltel,mKarTel,mKarTel,,D07,2017-03-04T16:36:12+06:00,
1000000000340930,77015210881,mKarTel,mKcell,mKcell,,D01,2017-03-04T16:36:57+06:00,
1000000000340931,77769997221,mMTS,mKarTel,mKarTel,,D77,2017-03-04T16:37:27+06:00,
1000000000340933,77772648877,mAltel,mKarTel,mKarTel,,D07,2017-03-04T16:38:26+06:00,
1000000000340934,77717717770,mAltel,mKarTel,mKarTel,,D07,2017-03-04T16:38:54+06:00,
1000000000340935,77012649707,mAltel,mKcell,mKcell,,D07,2017-03-04T16:39:14+06:00,
1000000000340936,77005556013,mKcell,mAltel,mAltel,,D02,2017-03-04T16:39:19+06:00,
1000000000340937,77012279089,mKarTel,mKcell,mKcell,,D01,2017-03-04T16:39:57+06:00,
1000000000340939,77476765569,mAltel,mMTS,mMTS,,D07,2017-03-04T16:41:40+06:00,
1000000000340941,77774004445,mMTS,mKarTel,mKarTel,,D77,2017-03-04T16:42:25+06:00,
1000000000340942,77025035411,mAltel,mKcell,mKcell,,D07,2017-03-04T16:43:45+06:00,
1000000000340943,77026038711,mKarTel,mKcell,mKcell,,D01,2017-03-04T16:44:32+06:00,
1000000000340944,77018005908,mMTS,mKcell,mKcell,,D77,2017-03-04T16:44:24+06:00,
1000000000340945,77756369111,mMTS,mKcell,mKcell,,D77,2017-03-04T16:45:02+06:00,
1000000000340946,77751155222,mKarTel,mMTS,mKcell,D77,D01,2017-03-04T16:45:36+06:00,
1000000000340950,77053331983,mKarTel,mAltel,mKarTel,D07,D01,2017-03-04T16:53:32+06:00,
1000000000340951,77761660707,mMTS,mKarTel,mKarTel,,D77,2017-03-04T16:55:59+06:00,
1000000000340952,77055523393,mMTS,mKarTel,mKarTel,,D77,2017-03-04T16:56:47+06:00,
1000000000340957,77016805965,mKarTel,mKcell,mKcell,,D01,2017-03-04T16:59:59+06:00,
