NPId,Number,RecipientId,DonorId,RangeHolderId,OldRoute,NewRoute,PortDate,RowCount
1000000000294947,77022904565,mMTS,mKcell,mKcell,,D77,2016-12-14T11:35:01+06:00,23
1000000000294948,77777689791,mMTS,mKarTel,mKarTel,,D77,2016-12-14T11:35:26+06:00,
1000000000294949,77089301267,mKarTel,mAltel,mAltel,,D01,2016-12-14T11:36:38+06:00,
1000000000294950,77003155003,mKcell,mAltel,mAltel,,D02,2016-12-14T11:37:29+06:00,
1000000000294951,77022906395,mMTS,mKcell,mKcell,,D77,2016-12-14T11:37:48+06:00,
1000000000294955,77017773443,mKarTel,mKcell,mKcell,,D01,2016-12-14T11:41:36+06:00,
1000000000294956,77075750575,mKcell,mMTS,mMTS,,D02,2016-12-14T11:41:56+06:00,
1000000000294958,77017770726,mKarTel,mKcell,mKcell,,D01,2016-12-14T11:42:57+06:00,
1000000000294959,77022916015,mMTS,mKcell,mKcell,,D77,2016-12-14T11:43:01+06:00,
1000000000294960,77084000997,mKcell,mAltel,mAltel,,D02,2016-12-14T11:43:24+06:00,
1000000000294961,77059789370,mMTS,mKarTel,mKarTel,,D77,2016-12-14T11:43:55+06:00,
1000000000294964,77022916979,mMTS,mKcell,mKcell,,D77,2016-12-14T11:45:29+06:00,
1000000000294965,77025544832,mMTS,mKcell,mKcell,,D77,2016-12-14T11:47:06+06:00,
1000000000294967,77758564471,mMTS,mKcell,mKcell,,D77,2016-12-14T11:47:42+06:00,
1000000000294968,77022912470,mMTS,mKcell,mKcell,,D77,2016-12-14T11:48:15+06:00,
1000000000294971,77022911497,mMTS,mKcell,mKcell,,D77,2016-12-14T11:52:27+06:00,
1000000000294972,77013869599,mMTS,mKcell,mKcell,,D77,2016-12-14T11:52:44+06:00,
1000000000294973,77773173945,mKcell,mKarTel,mKarTel,,D02,2016-12-14T11:54:57+06:00,
1000000000294974,77012804660,mKarTel,mKcell,mKcell,,D01,2016-12-14T11:57:17+06:00,
1000000000294976,77071195640,mMTS,mKarTel,mMTS,D01,D77,2016-12-14T11:55:58+06:00,
1000000000294977,77073337453,mKarTel,mMTS,mMTS,,D01,2016-12-14T11:56:40+06:00,
1000000000294978,77754848881,mMTS,mKcell,mKcell,,D77,2016-12-14T11:58:59+06:00,
1000000000294979,77055017855,mKarTel,mMTS,mKarTel,D77,D01,2016-12-14T11:59:41+06:00,
