NPId,Number,RecipientId,DonorId,RangeHolderId,OldRoute,NewRoute,PortDate,RowCount
1000000000165065,77079254647,mKcell,mMTS,mMTS,,D02,2016-05-01T19:02:24+06:00,6
1000000000165066,77018730132,mMTS,mKcell,mKcell,,D77,2016-05-01T19:02:19+06:00,
1000000000165067,77757957174,mMTS,mKcell,mKcell,,D77,2016-05-01T19:17:12+06:00,
1000000000165068,77715168899,mKcell,mKarTel,mKarTel,,D02,2016-05-01T19:18:13+06:00,
1000000000165069,77017743130,mKcell,mAltel,mKcell,D07,D02,2016-05-01T19:20:41+06:00,
1000000000165070,77087615743,mMTS,mAltel,mAltel,,D77,2016-05-01T19:22:03+06:00,
