NPId,Number,RecipientId,DonorId,RangeHolderId,OldRoute,NewRoute,PortDate,RowCount
1000000000352518,77756236202,mKarTel,mKcell,mKcell,,D01,2017-03-27T09:28:28+06:00,5
1000000000352807,77773646509,mKarTel,mAltel,mKarTel,D07,D01,2017-03-27T09:02:53+06:00,
1000000000352808,77075060301,mKcell,mMTS,mMTS,,D02,2017-03-27T09:10:23+06:00,
1000000000352809,77077000162,mAltel,mMTS,mMTS,,D07,2017-03-27T09:20:51+06:00,
1000000000352810,77776481222,mMTS,mKarTel,mKarTel,,D77,2017-03-27T09:22:01+06:00,
