NPId,Number,RecipientId,DonorId,RangeHolderId,OldRoute,NewRoute,PortDate,RowCount
1000000000193276,77781118920,mMTS,mKcell,mKcell,,D77,2016-06-14T13:07:20+06:00,18
1000000000193277,77027171724,mKarTel,mKcell,mKcell,,D01,2016-06-14T13:09:29+06:00,
1000000000193278,77055533138,mKcell,mKarTel,mKarTel,,D02,2016-06-14T13:10:52+06:00,
1000000000193279,77754444801,mAltel,mKcell,mKcell,,D07,2016-06-14T13:09:40+06:00,
1000000000193280,77756334496,mMTS,mKcell,mKcell,,D77,2016-06-14T13:10:28+06:00,
1000000000193281,77075552826,mKcell,mMTS,mMTS,,D02,2016-06-14T13:12:11+06:00,
1000000000193283,77079102847,mAltel,mMTS,mMTS,,D07,2016-06-14T13:12:15+06:00,
1000000000193284,77472859597,mKarTel,mMTS,mMTS,,D01,2016-06-14T13:15:18+06:00,
1000000000193285,77015381212,mKarTel,mKcell,mKcell,,D01,2016-06-14T13:17:04+06:00,
1000000000193286,77477343562,mKcell,mMTS,mMTS,,D02,2016-06-14T13:19:42+06:00,
1000000000193290,77088888887,mKcell,mKarTel,mAltel,D01,D02,2016-06-14T13:24:34+06:00,
1000000000193292,77054366683,mMTS,mKarTel,mKarTel,,D77,2016-06-14T13:25:37+06:00,
1000000000193293,77754142001,mMTS,mAltel,mKcell,D07,D77,2016-06-14T13:25:35+06:00,
1000000000193294,77004167110,mKcell,mAltel,mAltel,,D02,2016-06-14T13:27:08+06:00,
1000000000193295,77711677777,mKcell,mKarTel,mKarTel,,D02,2016-06-14T13:28:05+06:00,
1000000000193296,77713345226,mKcell,mAltel,mKarTel,D07,D02,2016-06-14T13:29:24+06:00,
1000000000193297,77029009020,mKcell,mKarTel,mKcell,D01,D02,2016-06-14T13:29:41+06:00,
1000000000193298,77472070150,mAltel,mMTS,mMTS,,D07,2016-06-14T13:28:48+06:00,
