NPId,Number,RecipientId,DonorId,RangeHolderId,OldRoute,NewRoute,PortDate,RowCount
1000000000316003,77010524286,mKarTel,mKcell,mKcell,,D01,2017-01-25T11:01:19+06:00,32
1000000000316003,77015125715,mKarTel,mKcell,mKcell,,D01,2017-01-25T11:01:19+06:00,
1000000000316003,77017227665,mKarTel,mKcell,mKcell,,D01,2017-01-25T11:01:19+06:00,
1000000000316003,77017492207,mKarTel,mKcell,mKcell,,D01,2017-01-25T11:01:19+06:00,
1000000000316003,77017613901,mKarTel,mKcell,mKcell,,D01,2017-01-25T11:01:19+06:00,
1000000000316003,77017828678,mKarTel,mKcell,mKcell,,D01,2017-01-25T11:01:19+06:00,
1000000000316003,77019520268,mKarTel,mKcell,mKcell,,D01,2017-01-25T11:01:19+06:00,
1000000000316003,77019521046,mKarTel,mKcell,mKcell,,D01,2017-01-25T11:01:19+06:00,
1000000000316003,77019523156,mKarTel,mKcell,mKcell,,D01,2017-01-25T11:01:19+06:00,
1000000000316003,77019525519,mKarTel,mKcell,mKcell,,D01,2017-01-25T11:01:19+06:00,
1000000000316003,77019526496,mKarTel,mKcell,mKcell,,D01,2017-01-25T11:01:19+06:00,
1000000000316003,77019526534,mKarTel,mKcell,mKcell,,D01,2017-01-25T11:01:19+06:00,
1000000000316003,77019526714,mKarTel,mKcell,mKcell,,D01,2017-01-25T11:01:19+06:00,
1000000000316003,77019528563,mKarTel,mKcell,mKcell,,D01,2017-01-25T11:01:19+06:00,
1000000000316003,77022279130,mKarTel,mKcell,mKcell,,D01,2017-01-25T11:01:19+06:00,
1000000000316133,77072023264,mAltel,mMTS,mMTS,,D07,2017-01-25T11:02:28+06:00,
1000000000316134,77771881144,mMTS,mKarTel,mKarTel,,D77,2017-01-25T11:03:38+06:00,
1000000000316136,77012087880,mKarTel,mKcell,mKcell,,D01,2017-01-25T11:06:34+06:00,
1000000000316137,77053144422,mKcell,mKarTel,mKarTel,,D02,2017-01-25T11:08:00+06:00,
1000000000316138,77754431020,mAltel,mKcell,mKcell,,D07,2017-01-25T11:08:43+06:00,
1000000000316139,77022019239,mAltel,mKcell,mKcell,,D07,2017-01-25T11:09:11+06:00,
1000000000316141,77773946454,mMTS,mKarTel,mKarTel,,D77,2017-01-25T11:11:47+06:00,
1000000000316142,77015366696,mAltel,mKcell,mKcell,,D07,2017-01-25T11:11:42+06:00,
1000000000316143,77772496853,mKcell,mKarTel,mKarTel,,D02,2017-01-25T11:14:09+06:00,
1000000000316144,77753301330,mMTS,mKcell,mKcell,,D77,2017-01-25T11:14:32+06:00,
1000000000316145,77753479004,mMTS,mKcell,mKcell,,D77,2017-01-25T11:17:47+06:00,
1000000000316146,77471898085,mAltel,mMTS,mMTS,,D07,2017-01-25T11:17:45+06:00,
1000000000316147,77773248383,mKarTel,mMTS,mKarTel,D77,D01,2017-01-25T11:19:00+06:00,
1000000000316148,77473371347,mKarTel,mMTS,mMTS,,D01,2017-01-25T11:21:42+06:00,
1000000000316149,77711410003,mKarTel,mMTS,mKarTel,D77,D01,2017-01-25T11:23:41+06:00,
1000000000316150,77016311360,mMTS,mKcell,mKcell,,D77,2017-01-25T11:27:07+06:00,
1000000000316151,77753082627,mMTS,mKcell,mKcell,,D77,2017-01-25T11:27:55+06:00,
