NPId,Number,RecipientId,DonorId,RangeHolderId,OldRoute,NewRoute,PortDate,RowCount
1000000000125283,77052562037,mAltel,mKarTel,mKarTel,,D07,2016-03-15T13:17:45+06:00,38
1000000000125284,77052112269,mMTS,mKarTel,mKarTel,,D77,2016-03-15T13:18:36+06:00,
1000000000125286,77058376046,mAltel,mKarTel,mKarTel,,D07,2016-03-15T13:18:12+06:00,
1000000000125289,77058721244,mAltel,mKarTel,mKarTel,,D07,2016-03-15T13:18:40+06:00,
1000000000125493,77764697788,mMTS,mKarTel,mKarTel,,D77,2016-03-15T13:01:59+06:00,
1000000000125494,77015556851,mAltel,mKcell,mKcell,,D07,2016-03-15T13:03:06+06:00,
1000000000125495,77024562282,mKarTel,mKcell,mKcell,,D01,2016-03-15T13:04:38+06:00,
1000000000125496,77770188838,mMTS,mKarTel,mKarTel,,D77,2016-03-15T13:05:42+06:00,
1000000000125497,77772545533,mMTS,mKarTel,mKarTel,,D77,2016-03-15T13:06:07+06:00,
1000000000125498,77016587209,mMTS,mKcell,mKcell,,D77,2016-03-15T13:06:11+06:00,
1000000000125499,77013777728,mKcell,mMTS,mKcell,D77,D02,2016-03-15T13:07:29+06:00,
1000000000125504,77019999505,mAltel,mKcell,mKcell,,D07,2016-03-15T13:11:42+06:00,
1000000000125505,77783688741,mMTS,mKcell,mKcell,,D77,2016-03-15T13:13:42+06:00,
1000000000125506,77017139644,mKarTel,mKcell,mKcell,,D01,2016-03-15T13:14:44+06:00,
1000000000125507,77017945250,mKarTel,mKcell,mKcell,,D01,2016-03-15T13:15:35+06:00,
1000000000125509,77017744289,mMTS,mKcell,mKcell,,D77,2016-03-15T13:15:54+06:00,
1000000000125510,77771886908,mMTS,mKarTel,mKarTel,,D77,2016-03-15T13:16:28+06:00,
1000000000125512,77079000539,mAltel,mMTS,mMTS,,D07,2016-03-15T13:16:25+06:00,
1000000000125514,77013477717,mKarTel,mAltel,mKcell,D07,D01,2016-03-15T13:17:30+06:00,
1000000000125515,77016833097,mAltel,mKcell,mKcell,,D07,2016-03-15T13:17:53+06:00,
1000000000125517,77057583115,mAltel,mKarTel,mKarTel,,D07,2016-03-15T13:19:54+06:00,
1000000000125518,77779004259,mAltel,mKarTel,mKarTel,,D07,2016-03-15T13:20:07+06:00,
1000000000125519,77778366633,mAltel,mKarTel,mKarTel,,D07,2016-03-15T13:20:06+06:00,
1000000000125522,77788797975,mAltel,mKcell,mKcell,,D07,2016-03-15T13:20:47+06:00,
1000000000125524,77071111194,mMTS,mKcell,mMTS,D02,D77,2016-03-15T13:22:05+06:00,
1000000000125526,77074177098,mAltel,mMTS,mMTS,,D07,2016-03-15T13:22:36+06:00,
1000000000125529,77015017150,mAltel,mKcell,mKcell,,D07,2016-03-15T13:23:58+06:00,
1000000000125530,77058880266,mKcell,mKarTel,mKarTel,,D02,2016-03-15T13:25:03+06:00,
1000000000125531,77017393840,mMTS,mKcell,mKcell,,D77,2016-03-15T13:24:47+06:00,
1000000000125532,77785550146,mAltel,mKcell,mKcell,,D07,2016-03-15T13:24:56+06:00,
1000000000125534,77761749494,mMTS,mKarTel,mKarTel,,D77,2016-03-15T13:26:21+06:00,
1000000000125536,77777234530,mAltel,mKarTel,mKarTel,,D07,2016-03-15T13:27:02+06:00,
1000000000125537,77024434411,mAltel,mKcell,mKcell,,D07,2016-03-15T13:26:26+06:00,
1000000000125538,77015304546,mMTS,mKcell,mKcell,,D77,2016-03-15T13:26:39+06:00,
1000000000125539,77058060024,mMTS,mKarTel,mKarTel,,D77,2016-03-15T13:28:03+06:00,
1000000000125540,77077003013,mAltel,mMTS,mMTS,,D07,2016-03-15T13:27:28+06:00,
1000000000125541,77770645818,mMTS,mKarTel,mKarTel,,D77,2016-03-15T13:29:17+06:00,
1000000000125542,77015216215,mAltel,mKcell,mKcell,,D07,2016-03-15T13:29:15+06:00,
