NPId,Number,RecipientId,DonorId,RangeHolderId,OldRoute,NewRoute,PortDate,RowCount
1000000000309317,77006008505,mKcell,mAltel,mAltel,,D02,2017-01-11T20:01:32+06:00,9
1000000000309318,77051268989,mKcell,mMTS,mKarTel,D77,D02,2017-01-11T20:05:07+06:00,
1000000000309319,77006007505,mKcell,mAltel,mAltel,,D02,2017-01-11T20:06:11+06:00,
1000000000309320,77750005413,mMTS,mKcell,mKcell,,D77,2017-01-11T20:15:04+06:00,
1000000000309321,77071133205,mKcell,mMTS,mMTS,,D02,2017-01-11T20:14:42+06:00,
1000000000309322,77006003505,mKcell,mAltel,mAltel,,D02,2017-01-11T20:14:54+06:00,
1000000000309323,77006004505,mKcell,mAltel,mAltel,,D02,2017-01-11T20:17:38+06:00,
1000000000309324,77025411300,mKcell,mAltel,mKcell,D07,D02,2017-01-11T20:20:48+06:00,
1000000000309325,77022165648,mKcell,mMTS,mKcell,D77,D02,2017-01-11T20:22:19+06:00,
