NPId,Number,RecipientId,DonorId,RangeHolderId,OldRoute,NewRoute,PortDate,RowCount
1000000000413079,77010532243,mKcell,mKarTel,mKcell,D01,D02,2017-06-30T15:32:27+06:00,36
1000000000413086,77010532196,mKcell,mKarTel,mKcell,D01,D02,2017-06-30T15:37:33+06:00,
1000000000413087,77010532207,mKcell,mKarTel,mKcell,D01,D02,2017-06-30T15:39:24+06:00,
1000000000413097,77010532209,mKcell,mKarTel,mKcell,D01,D02,2017-06-30T15:46:53+06:00,
1000000000413108,77010532210,mKcell,mKarTel,mKcell,D01,D02,2017-06-30T15:52:36+06:00,
1000000000413114,77010532213,mKcell,mKarTel,mKcell,D01,D02,2017-06-30T15:54:45+06:00,
1000000000413175,77751309999,mKarTel,mKcell,mKcell,,D01,2017-06-30T15:32:10+06:00,
1000000000413176,77772265254,mKcell,mKarTel,mKarTel,,D02,2017-06-30T15:33:13+06:00,
1000000000413177,77770169969,mMTS,mKarTel,mKarTel,,D77,2017-06-30T15:33:01+06:00,
1000000000413179,77007211170,mAltel,mMTS,mAltel,D77,D07,2017-06-30T15:33:29+06:00,
1000000000413182,77029991614,mKarTel,mKcell,mKcell,,D01,2017-06-30T15:35:27+06:00,
1000000000413187,77759038109,mKarTel,mKcell,mKcell,,D01,2017-06-30T15:36:52+06:00,
1000000000413188,77781319468,mMTS,mKcell,mKcell,,D77,2017-06-30T15:36:49+06:00,
1000000000413189,77051427070,mKcell,mKarTel,mKarTel,,D02,2017-06-30T15:37:27+06:00,
1000000000413191,77015441890,mAltel,mKcell,mKcell,,D07,2017-06-30T15:39:58+06:00,
1000000000413194,77010455545,mAltel,mKarTel,mKcell,D01,D07,2017-06-30T15:41:59+06:00,
1000000000413197,77015218371,mAltel,mKcell,mKcell,,D07,2017-06-30T15:42:29+06:00,
1000000000413198,77021260700,mMTS,mKcell,mKcell,,D77,2017-06-30T15:42:52+06:00,
1000000000413200,77017579291,mMTS,mKarTel,mKcell,D01,D77,2017-06-30T15:47:46+06:00,
1000000000413201,77471112355,mAltel,mMTS,mMTS,,D07,2017-06-30T15:47:23+06:00,
1000000000413202,77010455544,mAltel,mKarTel,mKcell,D01,D07,2017-06-30T15:48:25+06:00,
1000000000413203,77784774556,mMTS,mKcell,mKcell,,D77,2017-06-30T15:48:49+06:00,
1000000000413204,77051446668,mKcell,mKarTel,mKarTel,,D02,2017-06-30T15:49:48+06:00,
1000000000413210,77781093651,mMTS,mKcell,mKcell,,D77,2017-06-30T15:51:49+06:00,
1000000000413211,77082811273,mKarTel,mAltel,mAltel,,D01,2017-06-30T15:52:11+06:00,
1000000000413212,77471112366,mAltel,mMTS,mMTS,,D07,2017-06-30T15:52:01+06:00,
1000000000413213,77019716454,mKarTel,mAltel,mKcell,D07,D01,2017-06-30T15:52:12+06:00,
1000000000413218,77073461236,mMTS,mKarTel,mMTS,D01,D77,2017-06-30T15:54:21+06:00,
1000000000413219,77080811272,mKarTel,mAltel,mAltel,,D01,2017-06-30T15:54:47+06:00,
1000000000413220,77772008844,mKarTel,mKcell,mKarTel,D02,D01,2017-06-30T15:55:07+06:00,
1000000000413222,77058306565,mMTS,mKarTel,mKarTel,,D77,2017-06-30T15:56:18+06:00,
1000000000413223,77056699789,mAltel,mKarTel,mKarTel,,D07,2017-06-30T15:56:16+06:00,
1000000000413224,77022927245,mKarTel,mKcell,mKcell,,D01,2017-06-30T15:57:03+06:00,
1000000000413226,77471200681,mKcell,mMTS,mMTS,,D02,2017-06-30T15:57:30+06:00,
1000000000413229,77770180403,mKcell,mKarTel,mKarTel,,D02,2017-06-30T15:59:47+06:00,
1000000000413230,77009935093,mMTS,mAltel,mAltel,,D77,2017-06-30T15:59:57+06:00,
