NPId,Number,RecipientId,DonorId,RangeHolderId,OldRoute,NewRoute,PortDate,RowCount
1000000000247325,77013015019,mKcell,mMTS,mKcell,D77,D02,2016-09-20T15:58:49+06:00,25
1000000000248486,77015995819,mAltel,mKcell,mKcell,,D07,2016-09-20T15:31:38+06:00,
1000000000248491,77012346815,mMTS,mKcell,mKcell,,D77,2016-09-20T15:36:39+06:00,
1000000000248492,77785430507,mMTS,mKcell,mKcell,,D77,2016-09-20T15:36:39+06:00,
1000000000248494,77016592044,mMTS,mKcell,mKcell,,D77,2016-09-20T15:36:39+06:00,
1000000000248495,77024424922,mKcell,mMTS,mKcell,D77,D02,2016-09-20T15:35:48+06:00,
1000000000248496,77775555576,mMTS,mKarTel,mKarTel,,D77,2016-09-20T15:39:53+06:00,
1000000000248497,77760600990,mMTS,mKarTel,mKarTel,,D77,2016-09-20T15:40:41+06:00,
1000000000248498,77772240066,mMTS,mKarTel,mKarTel,,D77,2016-09-20T15:41:30+06:00,
1000000000248499,77011118393,mKarTel,mKcell,mKcell,,D01,2016-09-20T15:42:14+06:00,
1000000000248501,77089442549,mKcell,mAltel,mAltel,,D02,2016-09-20T15:45:07+06:00,
1000000000248502,77718327387,mMTS,mAltel,mKarTel,D07,D77,2016-09-20T15:46:09+06:00,
1000000000248503,77077251181,mKcell,mMTS,mMTS,,D02,2016-09-20T15:46:26+06:00,
1000000000248505,77089079712,mMTS,mAltel,mAltel,,D77,2016-09-20T15:49:34+06:00,
1000000000248506,77475610210,mKcell,mMTS,mMTS,,D02,2016-09-20T15:50:16+06:00,
1000000000248507,77775515458,mMTS,mKarTel,mKarTel,,D77,2016-09-20T15:52:55+06:00,
1000000000248508,77081448748,mAltel,mMTS,mAltel,D77,D07,2016-09-20T15:51:27+06:00,
1000000000248509,77714555411,mMTS,mKarTel,mKarTel,,D77,2016-09-20T15:54:36+06:00,
1000000000248510,77019889696,mKarTel,mKcell,mKcell,,D01,2016-09-20T15:53:46+06:00,
1000000000248512,77017133766,mKarTel,mKcell,mKcell,,D01,2016-09-20T15:54:35+06:00,
1000000000248515,77711410011,mKarTel,mMTS,mKarTel,D77,D01,2016-09-20T15:56:14+06:00,
1000000000248517,77055801142,mMTS,mKarTel,mKarTel,,D77,2016-09-20T15:59:43+06:00,
1000000000248519,77010458888,mMTS,mKcell,mKcell,,D77,2016-09-20T15:57:53+06:00,
1000000000248521,77022136329,mMTS,mKcell,mKcell,,D77,2016-09-20T15:58:26+06:00,
1000000000248524,77477180992,mKcell,mMTS,mMTS,,D02,2016-09-20T15:59:47+06:00,
