NPId,Number,RecipientId,DonorId,RangeHolderId,OldRoute,NewRoute,PortDate,RowCount
1000000000293661,77770910707,mMTS,mKarTel,mKarTel,,D77,2016-12-11T19:37:57+06:00,4
1000000000293663,77001000761,mKcell,mAltel,mAltel,,D02,2016-12-11T19:52:44+06:00,
1000000000293664,77771041313,mMTS,mKarTel,mKarTel,,D77,2016-12-11T19:57:54+06:00,
1000000000293665,77001000420,mKcell,mAltel,mAltel,,D02,2016-12-11T19:59:51+06:00,
