NPId,Number,RecipientId,DonorId,RangeHolderId,OldRoute,NewRoute,PortDate,RowCount
1000000000415863,77772291988,mKarTel,mMTS,mKarTel,D77,D01,2017-07-04T10:06:37+06:00,20
1000000000415864,77785555558,mKarTel,mKcell,mKcell,,D01,2017-07-04T10:08:00+06:00,
1000000000415866,77019605770,mKarTel,mKcell,mKcell,,D01,2017-07-04T10:11:41+06:00,
1000000000415867,77752439635,mMTS,mKcell,mKcell,,D77,2017-07-04T10:11:59+06:00,
1000000000415868,77051888681,mMTS,mKarTel,mKarTel,,D77,2017-07-04T10:13:29+06:00,
1000000000415870,77778345544,mMTS,mKarTel,mKarTel,,D77,2017-07-04T10:17:13+06:00,
1000000000415871,77769998899,mAltel,mKarTel,mKarTel,,D07,2017-07-04T10:19:54+06:00,
1000000000415872,77055020332,mKarTel,mMTS,mKarTel,D77,D01,2017-07-04T10:19:46+06:00,
1000000000415873,77017114447,mMTS,mKcell,mKcell,,D77,2017-07-04T10:20:04+06:00,
1000000000415874,77759983726,mKarTel,mKcell,mKcell,,D01,2017-07-04T10:20:42+06:00,
1000000000415875,77773023083,mAltel,mKarTel,mKarTel,,D07,2017-07-04T10:21:17+06:00,
1000000000415877,77023902700,mMTS,mKcell,mKcell,,D77,2017-07-04T10:22:33+06:00,
1000000000415879,77014459853,mAltel,mKcell,mKcell,,D07,2017-07-04T10:24:08+06:00,
1000000000415880,77073841307,mAltel,mMTS,mMTS,,D07,2017-07-04T10:25:03+06:00,
1000000000415882,77471698871,mAltel,mMTS,mMTS,,D07,2017-07-04T10:26:33+06:00,
1000000000415883,77086737878,mKcell,mAltel,mAltel,,D02,2017-07-04T10:27:41+06:00,
1000000000415885,77025616050,mKcell,mAltel,mKcell,D07,D02,2017-07-04T10:28:18+06:00,
1000000000415887,77476108425,mKcell,mMTS,mMTS,,D02,2017-07-04T10:29:14+06:00,
1000000000415888,77710964030,mAltel,mMTS,mKarTel,D77,D07,2017-07-04T10:28:54+06:00,
1000000000415889,77029211177,mMTS,mKcell,mKcell,,D77,2017-07-04T10:29:41+06:00,
