NPId,Number,RecipientId,DonorId,RangeHolderId,OldRoute,NewRoute,PortDate,RowCount
1000000000290607,77025965368,mMTS,mKcell,mKcell,,D77,2016-12-06T11:04:35+06:00,17
1000000000290611,77075717270,mAltel,mMTS,mMTS,,D07,2016-12-06T11:06:32+06:00,
1000000000290613,77021958710,mMTS,mKcell,mKcell,,D77,2016-12-06T11:07:45+06:00,
1000000000290614,77015299810,mKarTel,mKcell,mKcell,,D01,2016-12-06T11:08:32+06:00,
1000000000290615,77772231859,mMTS,mKarTel,mKarTel,,D77,2016-12-06T11:09:08+06:00,
1000000000290620,77017150059,mMTS,mKcell,mKcell,,D77,2016-12-06T11:12:40+06:00,
1000000000290625,77012599750,mKcell,mKarTel,mKcell,D01,D02,2016-12-06T11:14:39+06:00,
1000000000290630,77010650221,mKarTel,mKcell,mKcell,,D01,2016-12-06T11:17:16+06:00,
1000000000290632,77014031625,mMTS,mKcell,mKcell,,D77,2016-12-06T11:17:27+06:00,
1000000000290633,77772090022,mKarTel,mKcell,mKarTel,D02,D01,2016-12-06T11:17:59+06:00,
1000000000290634,77015130400,mMTS,mKcell,mKcell,,D77,2016-12-06T11:21:39+06:00,
1000000000290636,77771403661,mMTS,mKarTel,mKarTel,,D77,2016-12-06T11:24:46+06:00,
1000000000290637,77017865832,mKarTel,mKcell,mKcell,,D01,2016-12-06T11:25:48+06:00,
1000000000290638,77768508585,mMTS,mKarTel,mKarTel,,D77,2016-12-06T11:26:49+06:00,
1000000000290639,77476750833,mMTS,mAltel,mMTS,D07,D77,2016-12-06T11:26:51+06:00,
1000000000290640,77007374005,mKcell,mAltel,mAltel,,D02,2016-12-06T11:27:42+06:00,
1000000000290641,77058711523,mMTS,mKarTel,mKarTel,,D77,2016-12-06T11:27:55+06:00,
