NPId,Number,RecipientId,DonorId,RangeHolderId,OldRoute,NewRoute,PortDate,RowCount
1000000000090489,77011803985,mMTS,mKcell,mKcell,,D77,2016-02-16T18:32:45+06:00,30
1000000000090490,77757030267,mMTS,mKcell,mKcell,,D77,2016-02-16T18:33:05+06:00,
1000000000090491,77075310006,mKcell,mMTS,mMTS,,D02,2016-02-16T18:34:50+06:00,
1000000000090492,77015222047,mKarTel,mKcell,mKcell,,D01,2016-02-16T18:35:45+06:00,
1000000000090493,77073232998,mKarTel,mMTS,mMTS,,D01,2016-02-16T18:36:34+06:00,
1000000000090496,77025152022,mAltel,mKcell,mKcell,,D07,2016-02-16T18:36:53+06:00,
1000000000090498,77772258737,mAltel,mKarTel,mKarTel,,D07,2016-02-16T18:38:35+06:00,
1000000000090499,77776516261,mMTS,mKarTel,mKarTel,,D77,2016-02-16T18:39:29+06:00,
1000000000090500,77016986311,mKarTel,mKcell,mKcell,,D01,2016-02-16T18:40:48+06:00,
1000000000090501,77475698609,mAltel,mMTS,mMTS,,D07,2016-02-16T18:41:13+06:00,
1000000000090502,77079635353,mAltel,mMTS,mMTS,,D07,2016-02-16T18:41:19+06:00,
1000000000090503,77028490099,mKarTel,mKcell,mKcell,,D01,2016-02-16T18:42:49+06:00,
1000000000090504,77011000892,mAltel,mKcell,mKcell,,D07,2016-02-16T18:44:17+06:00,
1000000000090505,77011055392,mMTS,mKcell,mKcell,,D77,2016-02-16T18:44:35+06:00,
1000000000090506,77759904334,mAltel,mKcell,mKcell,,D07,2016-02-16T18:44:35+06:00,
1000000000090507,77752716634,mKarTel,mKcell,mKcell,,D01,2016-02-16T18:45:46+06:00,
1000000000090508,77771346512,mAltel,mKarTel,mKarTel,,D07,2016-02-16T18:45:54+06:00,
1000000000090510,77752723123,mKarTel,mKcell,mKcell,,D01,2016-02-16T18:47:03+06:00,
1000000000090511,77783666264,mAltel,mKcell,mKcell,,D07,2016-02-16T18:48:43+06:00,
1000000000090513,77762885888,mAltel,mKarTel,mKarTel,,D07,2016-02-16T18:50:08+06:00,
1000000000090514,77073611459,mKarTel,mMTS,mMTS,,D01,2016-02-16T18:50:39+06:00,
1000000000090515,77029453379,mMTS,mKcell,mKcell,,D77,2016-02-16T18:51:51+06:00,
1000000000090516,77015031238,mKarTel,mKcell,mKcell,,D01,2016-02-16T18:53:25+06:00,
1000000000090517,77751863666,mMTS,mKcell,mKcell,,D77,2016-02-16T18:53:54+06:00,
1000000000090518,77073302183,mAltel,mMTS,mMTS,,D07,2016-02-16T18:54:59+06:00,
1000000000090519,77014111692,mMTS,mKcell,mKcell,,D77,2016-02-16T18:55:37+06:00,
1000000000090520,77073235001,mKcell,mMTS,mMTS,,D02,2016-02-16T18:55:47+06:00,
1000000000090521,77015183128,mAltel,mKcell,mKcell,,D07,2016-02-16T18:56:03+06:00,
1000000000090522,77778033007,mAltel,mKarTel,mKarTel,,D07,2016-02-16T18:56:24+06:00,
1000000000090524,77077433139,mAltel,mMTS,mMTS,,D07,2016-02-16T18:57:48+06:00,
