NPId,Number,RecipientId,DonorId,RangeHolderId,OldRoute,NewRoute,PortDate,RowCount
1000000000213749,77078933369,mKcell,mMTS,mMTS,,D02,2016-07-20T10:05:32+06:00,18
1000000000213961,77017194194,mKarTel,mKcell,mKcell,,D01,2016-07-20T10:00:56+06:00,
1000000000213962,77772801271,mMTS,mKarTel,mKarTel,,D77,2016-07-20T10:00:18+06:00,
1000000000213965,77759731608,mMTS,mKcell,mKcell,,D77,2016-07-20T10:06:54+06:00,
1000000000213967,77051769500,mMTS,mKarTel,mKarTel,,D77,2016-07-20T10:09:02+06:00,
1000000000213968,77089128579,mKarTel,mAltel,mAltel,,D01,2016-07-20T10:10:09+06:00,
1000000000213969,77777800888,mMTS,mKarTel,mKarTel,,D77,2016-07-20T10:27:01+06:00,
1000000000213970,77777076277,mMTS,mKarTel,mKarTel,,D77,2016-07-20T10:29:29+06:00,
1000000000213975,77012273046,mMTS,mKcell,mKcell,,D77,2016-07-20T10:15:52+06:00,
1000000000213976,77013693595,mMTS,mKcell,mKcell,,D77,2016-07-20T10:17:19+06:00,
1000000000213977,77015666626,mMTS,mKcell,mKcell,,D77,2016-07-20T10:18:37+06:00,
1000000000213978,77077333020,mKcell,mMTS,mMTS,,D02,2016-07-20T10:20:20+06:00,
1000000000213979,77072121016,mKcell,mMTS,mMTS,,D02,2016-07-20T10:21:33+06:00,
1000000000213981,77011070927,mMTS,mKcell,mKcell,,D77,2016-07-20T10:24:55+06:00,
1000000000213982,77081091914,mMTS,mAltel,mAltel,,D77,2016-07-20T10:24:50+06:00,
1000000000213984,77015004595,mAltel,mKcell,mKcell,,D07,2016-07-20T10:28:50+06:00,
1000000000213985,77017940653,mKarTel,mKcell,mKcell,,D01,2016-07-20T10:29:46+06:00,
1000000000213986,77014400363,mMTS,mKcell,mKcell,,D77,2016-07-20T10:29:55+06:00,
