NPId,Number,RecipientId,DonorId,RangeHolderId,OldRoute,NewRoute,PortDate,RowCount
1000000000154883,77758255258,mMTS,mKcell,mKcell,,D77,2016-04-18T16:00:03+06:00,38
1000000000154884,77783389587,mMTS,mKcell,mKcell,,D77,2016-04-18T16:00:18+06:00,
1000000000154886,77773843354,mMTS,mKarTel,mKarTel,,D77,2016-04-18T16:01:08+06:00,
1000000000154887,77004245552,mMTS,mAltel,mAltel,,D77,2016-04-18T16:01:00+06:00,
1000000000154888,77085050095,mMTS,mAltel,mAltel,,D77,2016-04-18T16:01:00+06:00,
1000000000154890,77085050093,mMTS,mAltel,mAltel,,D77,2016-04-18T16:01:31+06:00,
1000000000154891,77019333301,mMTS,mKcell,mKcell,,D77,2016-04-18T16:03:22+06:00,
1000000000154892,77011052510,mKcell,mKarTel,mKcell,D01,D02,2016-04-18T16:04:34+06:00,
1000000000154893,77473543784,mMTS,mAltel,mMTS,D07,D77,2016-04-18T16:03:46+06:00,
1000000000154896,77022610200,mMTS,mKcell,mKcell,,D77,2016-04-18T16:04:36+06:00,
1000000000154897,77088177788,mMTS,mAltel,mAltel,,D77,2016-04-18T16:04:48+06:00,
1000000000154898,77002228758,mKarTel,mAltel,mAltel,,D01,2016-04-18T16:05:24+06:00,
1000000000154899,77019333302,mMTS,mKcell,mKcell,,D77,2016-04-18T16:07:01+06:00,
1000000000154900,77019582843,mMTS,mKcell,mKcell,,D77,2016-04-18T16:07:18+06:00,
1000000000154902,77777333733,mKcell,mKarTel,mKarTel,,D02,2016-04-18T16:08:21+06:00,
1000000000154906,77014213863,mMTS,mKcell,mKcell,,D77,2016-04-18T16:09:07+06:00,
1000000000154907,77029333301,mMTS,mKcell,mKcell,,D77,2016-04-18T16:09:19+06:00,
1000000000154908,77007810007,mMTS,mAltel,mAltel,,D77,2016-04-18T16:09:35+06:00,
1000000000154909,77083030483,mMTS,mAltel,mAltel,,D77,2016-04-18T16:10:11+06:00,
1000000000154911,77029333302,mMTS,mKcell,mKcell,,D77,2016-04-18T16:11:36+06:00,
1000000000154912,77087350080,mKarTel,mAltel,mAltel,,D01,2016-04-18T16:11:52+06:00,
1000000000154914,77024828448,mKcell,mAltel,mKcell,D07,D02,2016-04-18T16:14:36+06:00,
1000000000154915,77087656888,mMTS,mAltel,mAltel,,D77,2016-04-18T16:14:19+06:00,
1000000000154916,77017188596,mAltel,mKcell,mKcell,,D07,2016-04-18T16:16:08+06:00,
1000000000154917,77071944226,mAltel,mMTS,mMTS,,D07,2016-04-18T16:15:50+06:00,
1000000000154918,77052336508,mMTS,mKarTel,mKarTel,,D77,2016-04-18T16:16:32+06:00,
1000000000154919,77015159358,mMTS,mAltel,mKcell,D07,D77,2016-04-18T16:16:44+06:00,
1000000000154920,77085227069,mMTS,mAltel,mAltel,,D77,2016-04-18T16:19:30+06:00,
1000000000154921,77089084940,mMTS,mAltel,mAltel,,D77,2016-04-18T16:20:27+06:00,
1000000000154922,77024721098,mMTS,mKcell,mKcell,,D77,2016-04-18T16:20:52+06:00,
1000000000154923,77058997244,mMTS,mKarTel,mKarTel,,D77,2016-04-18T16:21:06+06:00,
1000000000154924,77786450622,mMTS,mKcell,mKcell,,D77,2016-04-18T16:21:00+06:00,
1000000000154925,77070480131,mAltel,mMTS,mMTS,,D07,2016-04-18T16:21:11+06:00,
1000000000154927,77777450647,mMTS,mKarTel,mKarTel,,D77,2016-04-18T16:22:19+06:00,
1000000000154931,77019770096,mKarTel,mKcell,mKcell,,D01,2016-04-18T16:29:55+06:00,
1000000000154932,77781313814,mMTS,mKcell,mKcell,,D77,2016-04-18T16:29:40+06:00,
1000000000154934,77054402121,mMTS,mKarTel,mKarTel,,D77,2016-04-18T16:27:35+06:00,
1000000000154936,77055273308,mMTS,mKarTel,mKarTel,,D77,2016-04-18T16:27:47+06:00,
