NPId,Number,RecipientId,DonorId,RangeHolderId,OldRoute,NewRoute,PortDate,RowCount
1000000000294980,77078275941,mAltel,mKarTel,mMTS,D01,D07,2016-12-14T12:00:50+06:00,16
1000000000294981,77023054038,mMTS,mKcell,mKcell,,D77,2016-12-14T12:01:42+06:00,
1000000000294982,77023000366,mMTS,mKcell,mKcell,,D77,2016-12-14T12:01:57+06:00,
1000000000294984,77711082627,mKarTel,mAltel,mKarTel,D07,D01,2016-12-14T12:05:16+06:00,
1000000000294985,77011481833,mKarTel,mKcell,mKcell,,D01,2016-12-14T12:05:27+06:00,
1000000000294988,77079669662,mKarTel,mMTS,mMTS,,D01,2016-12-14T12:06:18+06:00,
1000000000294990,77755440086,mAltel,mKcell,mKcell,,D07,2016-12-14T12:06:29+06:00,
1000000000294991,77771266170,mKarTel,mMTS,mKarTel,D77,D01,2016-12-14T12:07:09+06:00,
1000000000294992,77015535811,mAltel,mKcell,mKcell,,D07,2016-12-14T12:08:19+06:00,
1000000000294993,77074223045,mAltel,mMTS,mMTS,,D07,2016-12-14T12:10:00+06:00,
1000000000294996,77770268959,mMTS,mKarTel,mKarTel,,D77,2016-12-14T12:14:02+06:00,
1000000000294999,77753734148,mKarTel,mKcell,mKcell,,D01,2016-12-14T12:20:04+06:00,
1000000000295000,77072929599,mAltel,mMTS,mMTS,,D07,2016-12-14T12:23:23+06:00,
1000000000295001,77051620866,mKarTel,mMTS,mKarTel,D77,D01,2016-12-14T12:25:33+06:00,
1000000000295002,77774444111,mMTS,mKarTel,mKarTel,,D77,2016-12-14T12:26:16+06:00,
1000000000295003,77075233677,mAltel,mMTS,mMTS,,D07,2016-12-14T12:28:54+06:00,
