NPId,Number,RecipientId,DonorId,RangeHolderId,OldRoute,NewRoute,PortDate,RowCount
1000000000358325,77776003613,mMTS,mKarTel,mKarTel,,D77,2017-04-03T11:13:05+06:00,18
1000000000358330,77776003612,mMTS,mKarTel,mKarTel,,D77,2017-04-03T11:17:12+06:00,
1000000000358335,77776003611,mMTS,mKarTel,mKarTel,,D77,2017-04-03T11:23:31+06:00,
1000000000358382,77052214774,mMTS,mKarTel,mKarTel,,D77,2017-04-03T11:01:40+06:00,
1000000000358383,77714173526,mMTS,mKarTel,mKarTel,,D77,2017-04-03T11:02:06+06:00,
1000000000358386,77018885713,mMTS,mKcell,mKcell,,D77,2017-04-03T11:05:27+06:00,
1000000000358387,77081280711,mMTS,mAltel,mAltel,,D77,2017-04-03T11:06:40+06:00,
1000000000358390,77017554663,mMTS,mKcell,mKcell,,D77,2017-04-03T11:10:07+06:00,
1000000000358392,77071717498,mKcell,mMTS,mMTS,,D02,2017-04-03T11:13:31+06:00,
1000000000358393,77022019702,mKarTel,mKcell,mKcell,D02,D01,2017-04-03T11:15:22+06:00,
1000000000358394,77768600010,mKcell,mKarTel,mKarTel,,D02,2017-04-03T11:18:22+06:00,
1000000000358396,77012924468,mKarTel,mKcell,mKcell,,D01,2017-04-03T11:20:29+06:00,
1000000000358397,77010642121,mAltel,mKcell,mKcell,,D07,2017-04-03T11:21:14+06:00,
1000000000358399,77017190835,mKarTel,mKcell,mKcell,,D01,2017-04-03T11:25:59+06:00,
1000000000358400,77015336632,mKarTel,mKcell,mKcell,,D01,2017-04-03T11:26:11+06:00,
1000000000358401,77019879354,mMTS,mKcell,mKcell,,D77,2017-04-03T11:27:46+06:00,
1000000000358403,77777750949,mKcell,mKarTel,mKarTel,,D02,2017-04-03T11:29:29+06:00,
1000000000358404,77471910777,mKarTel,mMTS,mMTS,,D01,2017-04-03T11:29:36+06:00,
