NPId,Number,RecipientId,DonorId,RangeHolderId,OldRoute,NewRoute,PortDate,RowCount
1000000000268148,77786979779,mKarTel,mKcell,mKcell,,D01,2016-10-25T19:01:44+06:00,8
1000000000268149,77019999553,mMTS,mKcell,mKcell,,D77,2016-10-25T19:05:20+06:00,
1000000000268151,77753911240,mAltel,mKcell,mKcell,,D07,2016-10-25T19:11:21+06:00,
1000000000268152,77775550093,mKcell,mAltel,mKarTel,D07,D02,2016-10-25T19:13:42+06:00,
1000000000268153,77017400013,mKcell,mMTS,mKcell,D77,D02,2016-10-25T19:15:03+06:00,
1000000000268154,77070492249,mAltel,mMTS,mMTS,,D07,2016-10-25T19:15:28+06:00,
1000000000268158,77768181993,mMTS,mKarTel,mKarTel,,D77,2016-10-25T19:25:16+06:00,
1000000000268159,77076655078,mKarTel,mMTS,mMTS,,D01,2016-10-25T19:26:21+06:00,
