NPId,Number,RecipientId,DonorId,RangeHolderId,OldRoute,NewRoute,PortDate,RowCount
1000000000354119,77015265755,mKcell,mAltel,mKcell,D07,D02,2017-03-28T15:31:09+06:00,16
1000000000354121,77779398080,mKarTel,mMTS,mKarTel,D77,D01,2017-03-28T15:33:24+06:00,
1000000000354122,77013180006,mKarTel,mKcell,mKcell,,D01,2017-03-28T15:34:21+06:00,
1000000000354123,77018060639,mAltel,mKcell,mKcell,,D07,2017-03-28T15:34:38+06:00,
1000000000354124,77078343411,mKcell,mMTS,mMTS,,D02,2017-03-28T15:36:17+06:00,
1000000000354125,77765900005,mKcell,mKarTel,mKarTel,,D02,2017-03-28T15:37:12+06:00,
1000000000354128,77715689090,mMTS,mKarTel,mKarTel,,D77,2017-03-28T15:38:59+06:00,
1000000000354130,77023731991,mKcell,mMTS,mKcell,D77,D02,2017-03-28T15:40:47+06:00,
1000000000354131,77004993999,mKcell,mAltel,mAltel,,D02,2017-03-28T15:43:45+06:00,
1000000000354132,77027974474,mMTS,mKcell,mKcell,,D77,2017-03-28T15:45:33+06:00,
1000000000354137,77054457374,mMTS,mKarTel,mKarTel,,D77,2017-03-28T15:53:06+06:00,
1000000000354139,77072555055,mMTS,mKarTel,mMTS,D01,D77,2017-03-28T15:55:27+06:00,
1000000000354140,77006222018,mKcell,mAltel,mAltel,,D02,2017-03-28T15:55:35+06:00,
1000000000354141,77768855007,mKcell,mKarTel,mKarTel,,D02,2017-03-28T15:56:38+06:00,
1000000000354142,77752912115,mKarTel,mKcell,mKcell,,D01,2017-03-28T15:57:17+06:00,
1000000000354143,77014054136,mMTS,mKcell,mKcell,,D77,2017-03-28T15:57:52+06:00,
