NPId,Number,RecipientId,DonorId,RangeHolderId,OldRoute,NewRoute,PortDate,RowCount
1000000000266129,77752188880,mKarTel,mKcell,mKcell,,D01,2016-10-21T16:30:39+06:00,16
1000000000266130,77077766061,mAltel,mMTS,mMTS,,D07,2016-10-21T16:31:04+06:00,
1000000000266133,77057181888,mMTS,mKarTel,mKarTel,,D77,2016-10-21T16:50:21+06:00,
1000000000266136,77054193479,mMTS,mKarTel,mKarTel,,D77,2016-10-21T16:38:38+06:00,
1000000000266139,77012201344,mMTS,mKcell,mKcell,,D77,2016-10-21T16:39:22+06:00,
1000000000266141,77014849095,mMTS,mKcell,mKcell,,D77,2016-10-21T16:43:27+06:00,
1000000000266143,77759322030,mAltel,mKcell,mKcell,,D07,2016-10-21T16:45:55+06:00,
1000000000266144,77075196304,mKcell,mMTS,mMTS,,D02,2016-10-21T16:46:06+06:00,
1000000000266145,77000912291,mKcell,mAltel,mAltel,,D02,2016-10-21T16:46:45+06:00,
1000000000266147,77051766012,mKarTel,mMTS,mKarTel,D77,D01,2016-10-21T16:47:34+06:00,
1000000000266151,77016158945,mKcell,mKarTel,mKcell,D01,D02,2016-10-21T16:49:59+06:00,
1000000000266152,77751448902,mKarTel,mKcell,mKcell,,D01,2016-10-21T16:53:10+06:00,
1000000000266153,77016098372,mMTS,mKcell,mKcell,,D77,2016-10-21T16:53:52+06:00,
1000000000266154,77051554379,mMTS,mKarTel,mKarTel,,D77,2016-10-21T16:54:29+06:00,
1000000000266156,77005101097,mKarTel,mAltel,mAltel,D07,D01,2016-10-21T16:55:44+06:00,
1000000000266157,77087421819,mKcell,mAltel,mAltel,,D02,2016-10-21T16:57:09+06:00,
