NPId,Number,RecipientId,DonorId,RangeHolderId,OldRoute,NewRoute,PortDate,RowCount
1000000000246443,77024068570,mMTS,mKcell,mKcell,,D77,2016-09-16T14:01:47+06:00,21
1000000000246444,77007666666,mAltel,mKcell,mAltel,D02,D07,2016-09-16T14:01:48+06:00,
1000000000246445,77017775500,mKarTel,mKcell,mKcell,,D01,2016-09-16T14:03:09+06:00,
1000000000246446,77027900020,mKcell,mMTS,mKcell,D77,D02,2016-09-16T14:04:36+06:00,
1000000000246447,77078543480,mAltel,mMTS,mMTS,,D07,2016-09-16T14:04:53+06:00,
1000000000246449,77713000000,mKcell,mKarTel,mKarTel,,D02,2016-09-16T14:07:25+06:00,
1000000000246451,77755577551,mMTS,mKcell,mKcell,,D77,2016-09-16T14:08:49+06:00,
1000000000246452,77760190707,mMTS,mKarTel,mKarTel,,D77,2016-09-16T14:13:38+06:00,
1000000000246453,77012223011,mKcell,mMTS,mKcell,D77,D02,2016-09-16T14:13:31+06:00,
1000000000246457,77772253565,mKcell,mKarTel,mKarTel,,D02,2016-09-16T14:19:10+06:00,
1000000000246458,77027522225,mMTS,mKcell,mKcell,,D77,2016-09-16T14:18:20+06:00,
1000000000246462,77087589694,mKarTel,mAltel,mAltel,,D01,2016-09-16T14:21:54+06:00,
1000000000246463,77789173977,mMTS,mKcell,mKcell,,D77,2016-09-16T14:22:27+06:00,
1000000000246466,77074942439,mKarTel,mMTS,mMTS,,D01,2016-09-16T14:23:11+06:00,
1000000000246467,77075811634,mKarTel,mMTS,mMTS,,D01,2016-09-16T14:23:31+06:00,
1000000000246468,77713777032,mMTS,mKarTel,mKarTel,,D77,2016-09-16T14:25:06+06:00,
1000000000246470,77021676656,mMTS,mKcell,mKcell,,D77,2016-09-16T14:24:51+06:00,
1000000000246471,77475761674,mAltel,mMTS,mMTS,,D07,2016-09-16T14:24:56+06:00,
1000000000246472,77773800796,mKcell,mKarTel,mKarTel,,D02,2016-09-16T14:25:46+06:00,
1000000000246473,77771833968,mKcell,mAltel,mKarTel,D07,D02,2016-09-16T14:28:02+06:00,
1000000000246474,77051836108,mKcell,mKarTel,mKarTel,,D02,2016-09-16T14:28:50+06:00,
