NPId,Number,RecipientId,DonorId,RangeHolderId,OldRoute,NewRoute,PortDate,RowCount
1000000000005418,77015303860,mAltel,mKcell,mKcell,,D07,2016-01-09T12:02:33+06:00,14
1000000000005419,77759333311,mAltel,mKcell,mKcell,,D07,2016-01-09T12:06:17+06:00,
1000000000005420,77022210122,mAltel,mKcell,mKcell,,D07,2016-01-09T12:06:30+06:00,
1000000000005422,77753881000,mAltel,mKcell,mKcell,,D07,2016-01-09T12:08:13+06:00,
1000000000005425,77765244444,mKcell,mKarTel,mKarTel,,D02,2016-01-09T12:11:29+06:00,
1000000000005426,77017894447,mAltel,mKcell,mKcell,,D07,2016-01-09T12:11:53+06:00,
1000000000005427,77477011101,mAltel,mMTS,mMTS,,D07,2016-01-09T12:14:05+06:00,
1000000000005429,77054600015,mKcell,mKarTel,mKarTel,,D02,2016-01-09T12:17:30+06:00,
1000000000005430,77773194677,mAltel,mKarTel,mKarTel,,D07,2016-01-09T12:18:07+06:00,
1000000000005431,77763191995,mAltel,mKarTel,mKarTel,,D07,2016-01-09T12:20:20+06:00,
1000000000005433,77776544149,mAltel,mKarTel,mKarTel,,D07,2016-01-09T12:22:59+06:00,
1000000000005434,77079030508,mAltel,mMTS,mMTS,,D07,2016-01-09T12:23:33+06:00,
1000000000005435,77017720034,mAltel,mKcell,mKcell,,D07,2016-01-09T12:24:17+06:00,
1000000000005436,77029623158,mAltel,mKcell,mKcell,,D07,2016-01-09T12:28:41+06:00,
