NPId,Number,RecipientId,DonorId,RangeHolderId,OldRoute,NewRoute,PortDate,RowCount
1000000000148023,77015289062,mKarTel,mKcell,mKcell,,D01,2016-04-11T17:09:26+06:00,66
1000000000148900,77082483808,mMTS,mAltel,mAltel,,D77,2016-04-11T17:00:13+06:00,
1000000000148901,77479546813,mKcell,mMTS,mMTS,,D02,2016-04-11T17:00:29+06:00,
1000000000148902,77478983484,mKcell,mMTS,mMTS,,D02,2016-04-11T17:01:13+06:00,
1000000000148903,77075721059,mKcell,mMTS,mMTS,,D02,2016-04-11T17:02:02+06:00,
1000000000148904,77004577145,mMTS,mAltel,mAltel,,D77,2016-04-11T17:02:53+06:00,
1000000000148905,77477001888,mMTS,mAltel,mMTS,D07,D77,2016-04-11T17:03:18+06:00,
1000000000148906,77056939371,mMTS,mKarTel,mKarTel,,D77,2016-04-11T17:05:08+06:00,
1000000000148908,77755158884,mMTS,mAltel,mKcell,D07,D77,2016-04-11T17:04:33+06:00,
1000000000148909,77014993347,mMTS,mKcell,mKcell,,D77,2016-04-11T17:05:03+06:00,
1000000000148910,77753522260,mMTS,mKcell,mKcell,,D77,2016-04-11T17:05:15+06:00,
1000000000148911,77081775580,mMTS,mAltel,mAltel,,D77,2016-04-11T17:05:14+06:00,
1000000000148912,77057897745,mMTS,mKarTel,mKarTel,,D77,2016-04-11T17:07:19+06:00,
1000000000148913,77757517127,mKarTel,mKcell,mKcell,,D01,2016-04-11T17:07:15+06:00,
1000000000148915,77751882805,mMTS,mAltel,mKcell,D07,D77,2016-04-11T17:06:42+06:00,
1000000000148916,77085867989,mMTS,mAltel,mAltel,,D77,2016-04-11T17:06:56+06:00,
1000000000148917,77021476760,mMTS,mKcell,mKcell,,D77,2016-04-11T17:07:20+06:00,
1000000000148921,77087427913,mKcell,mAltel,mAltel,,D02,2016-04-11T17:07:56+06:00,
1000000000148922,77003327071,mMTS,mAltel,mAltel,,D77,2016-04-11T17:07:50+06:00,
1000000000148923,77085208263,mMTS,mAltel,mAltel,,D77,2016-04-11T17:08:21+06:00,
1000000000148924,77785167792,mMTS,mKcell,mKcell,,D77,2016-04-11T17:09:33+06:00,
1000000000148926,77085091976,mMTS,mAltel,mAltel,,D77,2016-04-11T17:09:49+06:00,
1000000000148927,77479546814,mKcell,mMTS,mMTS,,D02,2016-04-11T17:10:22+06:00,
1000000000148928,77719999749,mKcell,mAltel,mKarTel,D07,D02,2016-04-11T17:11:02+06:00,
1000000000148929,77472268463,mMTS,mAltel,mMTS,D07,D77,2016-04-11T17:10:35+06:00,
1000000000148932,77787292979,mMTS,mKcell,mKcell,,D77,2016-04-11T17:12:03+06:00,
1000000000148933,77000890404,mMTS,mAltel,mAltel,,D77,2016-04-11T17:12:07+06:00,
1000000000148934,77757668690,mMTS,mKcell,mKcell,,D77,2016-04-11T17:12:15+06:00,
1000000000148935,77714554552,mKcell,mKarTel,mKarTel,,D02,2016-04-11T17:15:04+06:00,
1000000000148936,77087427914,mKcell,mAltel,mAltel,,D02,2016-04-11T17:13:36+06:00,
1000000000148937,77752434318,mMTS,mKcell,mKcell,,D77,2016-04-11T17:14:08+06:00,
1000000000148938,77083100396,mMTS,mAltel,mAltel,,D77,2016-04-11T17:14:30+06:00,
1000000000148939,77755534680,mMTS,mKcell,mKcell,,D77,2016-04-11T17:17:07+06:00,
1000000000148940,77086628200,mMTS,mAltel,mAltel,,D77,2016-04-11T17:16:59+06:00,
1000000000148941,77005888887,mKcell,mAltel,mAltel,,D02,2016-04-11T17:17:18+06:00,
1000000000148942,77087427915,mKcell,mAltel,mAltel,,D02,2016-04-11T17:17:48+06:00,
1000000000148943,77014675737,mKcell,mMTS,mKcell,D77,D02,2016-04-11T17:17:49+06:00,
1000000000148944,77087602945,mKcell,mAltel,mAltel,,D02,2016-04-11T17:18:08+06:00,
1000000000148946,77757780042,mMTS,mAltel,mKcell,D07,D77,2016-04-11T17:19:56+06:00,
1000000000148948,77479546811,mKcell,mMTS,mMTS,,D02,2016-04-11T17:21:38+06:00,
1000000000148949,77089879910,mMTS,mAltel,mAltel,,D77,2016-04-11T17:21:02+06:00,
1000000000148950,77019858795,mMTS,mKcell,mKcell,,D77,2016-04-11T17:22:07+06:00,
1000000000148951,77775098513,mKarTel,mMTS,mKarTel,D77,D01,2016-04-11T17:21:55+06:00,
1000000000148953,77082250714,mMTS,mAltel,mAltel,,D77,2016-04-11T17:21:36+06:00,
1000000000148955,77073455557,mMTS,mAltel,mMTS,D07,D77,2016-04-11T17:21:59+06:00,
1000000000148956,77775098591,mKarTel,mMTS,mKarTel,D77,D01,2016-04-11T17:22:48+06:00,
1000000000148957,77019229888,mAltel,mKcell,mKcell,,D07,2016-04-11T17:23:20+06:00,
1000000000148958,77771900132,mMTS,mKarTel,mKarTel,,D77,2016-04-11T17:24:25+06:00,
1000000000148959,77012578773,mMTS,mKcell,mKcell,,D77,2016-04-11T17:23:29+06:00,
1000000000148960,77087427916,mKcell,mAltel,mAltel,,D02,2016-04-11T17:23:50+06:00,
1000000000148962,77479546810,mKcell,mMTS,mMTS,,D02,2016-04-11T17:23:50+06:00,
1000000000148963,77775098598,mKarTel,mMTS,mKarTel,D77,D01,2016-04-11T17:24:13+06:00,
1000000000148964,77016392342,mMTS,mKcell,mKcell,,D77,2016-04-11T17:24:24+06:00,
1000000000148965,77003335556,mMTS,mAltel,mAltel,,D77,2016-04-11T17:23:38+06:00,
1000000000148967,77026714417,mKarTel,mKcell,mKcell,,D01,2016-04-11T17:24:55+06:00,
1000000000148968,77012555657,mMTS,mKcell,mKcell,,D77,2016-04-11T17:24:58+06:00,
1000000000148970,77777760712,mKcell,mKarTel,mKarTel,,D02,2016-04-11T17:29:01+06:00,
1000000000148971,77756780800,mMTS,mKcell,mKcell,,D77,2016-04-11T17:27:18+06:00,
1000000000148972,77051656462,mMTS,mKarTel,mKarTel,,D77,2016-04-11T17:28:23+06:00,
1000000000148973,77052589340,mMTS,mKarTel,mKarTel,,D77,2016-04-11T17:28:22+06:00,
1000000000148974,77758424225,mMTS,mKcell,mKcell,,D77,2016-04-11T17:27:17+06:00,
1000000000148975,77009288587,mMTS,mAltel,mAltel,,D77,2016-04-11T17:27:02+06:00,
1000000000148977,77077514334,mMTS,mAltel,mMTS,D07,D77,2016-04-11T17:27:09+06:00,
1000000000148978,77072020300,mKcell,mMTS,mMTS,,D02,2016-04-11T17:29:10+06:00,
1000000000148979,77000732177,mKarTel,mAltel,mAltel,,D01,2016-04-11T17:29:42+06:00,
1000000000148980,77087427966,mKcell,mAltel,mAltel,,D02,2016-04-11T17:29:21+06:00,
