NPId,Number,RecipientId,DonorId,RangeHolderId,OldRoute,NewRoute,PortDate,RowCount
1000000000434566,77778672938,mKcell,mMTS,mKarTel,D77,D02,2017-08-03T19:33:09+06:00,4
1000000000434567,77779993583,mKcell,mKarTel,mKarTel,,D02,2017-08-03T19:44:03+06:00,
1000000000434569,77081117621,mKarTel,mAltel,mAltel,,D01,2017-08-03T19:52:42+06:00,
1000000000434572,77079630013,mKarTel,mMTS,mMTS,,D01,2017-08-03T19:56:39+06:00,
