NPId,Number,RecipientId,DonorId,RangeHolderId,OldRoute,NewRoute,PortDate,RowCount
1000000000263103,77077647474,mKcell,mMTS,mMTS,,D02,2016-10-15T18:01:48+06:00,15
1000000000263106,77014606419,mMTS,mKcell,mKcell,,D77,2016-10-15T18:06:04+06:00,
1000000000263107,77029168316,mMTS,mKcell,mKcell,,D77,2016-10-15T18:06:04+06:00,
1000000000263108,77005557808,mKcell,mAltel,mAltel,,D02,2016-10-15T18:06:23+06:00,
1000000000263110,77005554808,mKcell,mAltel,mAltel,,D02,2016-10-15T18:07:48+06:00,
1000000000263111,77025010444,mKarTel,mKcell,mKcell,,D01,2016-10-15T18:09:32+06:00,
1000000000263112,77005558202,mKcell,mAltel,mAltel,,D02,2016-10-15T18:10:58+06:00,
1000000000263113,77017771552,mKcell,mKarTel,mKcell,D01,D02,2016-10-15T18:13:17+06:00,
1000000000263115,77003339707,mKcell,mAltel,mAltel,,D02,2016-10-15T18:16:31+06:00,
1000000000263116,77718881555,mKcell,mKarTel,mKarTel,,D02,2016-10-15T18:17:10+06:00,
1000000000263117,77001113707,mKcell,mAltel,mAltel,,D02,2016-10-15T18:17:56+06:00,
1000000000263118,77071119335,mKcell,mMTS,mMTS,,D02,2016-10-15T18:20:12+06:00,
1000000000263119,77079529402,mKarTel,mMTS,mMTS,,D01,2016-10-15T18:18:33+06:00,
1000000000263120,77029800554,mAltel,mKcell,mKcell,,D07,2016-10-15T18:23:54+06:00,
1000000000263121,77478493685,mKarTel,mMTS,mMTS,,D01,2016-10-15T18:27:52+06:00,
