NPId,Number,RecipientId,DonorId,RangeHolderId,OldRoute,NewRoute,PortDate,RowCount
1000000000091717,77471958137,mKcell,mMTS,mMTS,,D02,2016-02-17T21:31:59+06:00,2
1000000000091718,77084048787,mKcell,mAltel,mAltel,,D02,2016-02-17T21:34:54+06:00,
