NPId,Number,RecipientId,DonorId,RangeHolderId,OldRoute,NewRoute,PortDate,RowCount
1000000000272902,77017117473,mKcell,mKarTel,mKcell,D01,D02,2016-11-02T18:30:12+06:00,22
1000000000272903,77017277279,mKcell,mKarTel,mKcell,D01,D02,2016-11-02T18:30:13+06:00,
1000000000272905,77788888126,mAltel,mKcell,mKcell,,D07,2016-11-02T18:31:00+06:00,
1000000000272906,77474432674,mKcell,mMTS,mMTS,,D02,2016-11-02T18:31:11+06:00,
1000000000272907,77028713328,mMTS,mKcell,mKcell,,D77,2016-11-02T18:32:38+06:00,
1000000000272908,77017292942,mKcell,mKarTel,mKcell,D01,D02,2016-11-02T18:33:23+06:00,
1000000000272909,77753285772,mMTS,mKcell,mKcell,,D77,2016-11-02T18:34:07+06:00,
1000000000272911,77007707042,mKcell,mAltel,mAltel,,D02,2016-11-02T18:37:28+06:00,
1000000000272912,77785860067,mMTS,mKcell,mKcell,,D77,2016-11-02T18:37:42+06:00,
1000000000272913,77015440313,mKarTel,mKcell,mKcell,,D01,2016-11-02T18:37:56+06:00,
1000000000272916,77089584151,mKcell,mAltel,mAltel,,D02,2016-11-02T18:41:03+06:00,
1000000000272917,77055566077,mKcell,mKarTel,mKarTel,,D02,2016-11-02T18:42:55+06:00,
1000000000272918,77017867749,mMTS,mKcell,mKcell,,D77,2016-11-02T18:42:30+06:00,
1000000000272919,77018864188,mMTS,mKcell,mKcell,,D77,2016-11-02T18:46:17+06:00,
1000000000272920,77783407172,mMTS,mKcell,mKcell,,D77,2016-11-02T18:47:13+06:00,
1000000000272922,77751895509,mMTS,mKcell,mKcell,,D77,2016-11-02T18:47:41+06:00,
1000000000272923,77786050890,mMTS,mKcell,mKcell,,D77,2016-11-02T18:48:22+06:00,
1000000000272924,77770001979,mKarTel,mMTS,mKarTel,D77,D01,2016-11-02T18:49:30+06:00,
1000000000272925,77053153067,mMTS,mKarTel,mKarTel,,D77,2016-11-02T18:50:19+06:00,
1000000000272926,77072393314,mKarTel,mMTS,mMTS,,D01,2016-11-02T18:52:30+06:00,
1000000000272929,77079141084,mKcell,mMTS,mMTS,,D02,2016-11-02T18:55:35+06:00,
1000000000272930,77014207111,mMTS,mKcell,mKcell,,D77,2016-11-02T18:59:57+06:00,
