NPId,Number,RecipientId,DonorId,RangeHolderId,OldRoute,NewRoute,PortDate,RowCount
1000000000210211,77022130706,mKarTel,mKcell,mKcell,,D01,2016-07-12T18:00:21+06:00,19
1000000000210212,77021667999,mAltel,mKcell,mKcell,,D07,2016-07-12T18:00:07+06:00,
1000000000210213,77005191777,mKcell,mAltel,mAltel,,D02,2016-07-12T18:01:17+06:00,
1000000000210214,77770235679,mMTS,mKarTel,mKarTel,,D77,2016-07-12T18:02:33+06:00,
1000000000210215,77771186450,mMTS,mKarTel,mKarTel,,D77,2016-07-12T18:02:44+06:00,
1000000000210217,77056205651,mMTS,mKarTel,mKarTel,,D77,2016-07-12T18:04:43+06:00,
1000000000210218,77007880027,mMTS,mAltel,mAltel,,D77,2016-07-12T18:06:47+06:00,
1000000000210219,77014449655,mMTS,mKcell,mKcell,,D77,2016-07-12T18:07:56+06:00,
1000000000210220,77789259402,mMTS,mKcell,mKcell,,D77,2016-07-12T18:08:10+06:00,
1000000000210223,77019430733,mMTS,mKcell,mKcell,,D77,2016-07-12T18:13:56+06:00,
1000000000210224,77765551500,mKcell,mKarTel,mKarTel,,D02,2016-07-12T18:16:20+06:00,
1000000000210225,77782880223,mAltel,mMTS,mKcell,D77,D07,2016-07-12T18:16:38+06:00,
1000000000210226,77019837676,mMTS,mKcell,mKcell,,D77,2016-07-12T18:17:38+06:00,
1000000000210227,77016479368,mKcell,mAltel,mKcell,D07,D02,2016-07-12T18:18:22+06:00,
1000000000210231,77782763800,mKarTel,mKcell,mKcell,,D01,2016-07-12T18:22:18+06:00,
1000000000210232,77023702170,mKarTel,mKcell,mKcell,,D01,2016-07-12T18:23:08+06:00,
1000000000210235,77782982850,mAltel,mKcell,mKcell,,D07,2016-07-12T18:27:54+06:00,
1000000000210236,77051995207,mKarTel,mMTS,mKarTel,D77,D01,2016-07-12T18:28:35+06:00,
1000000000210237,77016127140,mMTS,mKcell,mKcell,,D77,2016-07-12T18:29:37+06:00,
