NPId,Number,RecipientId,DonorId,RangeHolderId,OldRoute,NewRoute,PortDate,RowCount
1000000000426613,77714260303,mKarTel,mMTS,mKarTel,D77,D01,2017-07-23T13:02:55+06:00,13
1000000000426614,77779249074,mMTS,mKarTel,mKarTel,,D77,2017-07-23T13:05:18+06:00,
1000000000426615,77075102777,mAltel,mMTS,mMTS,,D07,2017-07-23T13:05:11+06:00,
1000000000426616,77016711656,mMTS,mKcell,mKcell,,D77,2017-07-23T13:07:30+06:00,
1000000000426617,77473941669,mKarTel,mMTS,mMTS,,D01,2017-07-23T13:11:39+06:00,
1000000000426618,77770070759,mMTS,mKarTel,mKarTel,,D77,2017-07-23T13:11:59+06:00,
1000000000426619,77003758722,mAltel,mMTS,mAltel,D77,D07,2017-07-23T13:15:38+06:00,
1000000000426620,77473941667,mKarTel,mMTS,mMTS,,D01,2017-07-23T13:19:38+06:00,
1000000000426621,77011881818,mAltel,mKcell,mKcell,D02,D07,2017-07-23T13:22:59+06:00,
1000000000426622,77017204490,mKcell,mKarTel,mKcell,D01,D02,2017-07-23T13:26:09+06:00,
1000000000426623,77751777636,mAltel,mKcell,mKcell,,D07,2017-07-23T13:26:52+06:00,
1000000000426624,77006032696,mMTS,mKarTel,mAltel,D01,D77,2017-07-23T13:27:05+06:00,
1000000000426625,77071999998,mKcell,mMTS,mMTS,,D02,2017-07-23T13:28:15+06:00,
