NPId,Number,RecipientId,DonorId,RangeHolderId,OldRoute,NewRoute,PortDate,RowCount
1000000000144906,77023482701,mKcell,mAltel,mKcell,D07,D02,2016-04-06T20:02:10+06:00,7
1000000000144907,77009189992,mKarTel,mAltel,mAltel,,D01,2016-04-06T20:03:31+06:00,
1000000000144909,77000000258,mKcell,mAltel,mAltel,,D02,2016-04-06T20:13:09+06:00,
1000000000144911,77017183533,mKcell,mAltel,mKcell,D07,D02,2016-04-06T20:18:08+06:00,
1000000000144912,77072911963,mAltel,mMTS,mMTS,,D07,2016-04-06T20:25:00+06:00,
1000000000144913,77077991100,mAltel,mMTS,mMTS,,D07,2016-04-06T20:26:17+06:00,
1000000000144914,77082080208,mKcell,mAltel,mAltel,,D02,2016-04-06T20:27:08+06:00,
