NPId,Number,RecipientId,DonorId,RangeHolderId,OldRoute,NewRoute,PortDate,RowCount
1000000000326166,77027156745,mKarTel,mKcell,mKcell,,D01,2017-02-09T09:14:12+06:00,3
1000000000326168,77012226395,mKcell,mMTS,mKcell,D77,D02,2017-02-09T09:22:16+06:00,
1000000000326170,77072180818,mKarTel,mMTS,mMTS,,D01,2017-02-09T09:25:32+06:00,
