NPId,Number,RecipientId,DonorId,RangeHolderId,OldRoute,NewRoute,PortDate,RowCount
1000000000350187,77014448274,mKarTel,mAltel,mKcell,D07,D01,2017-03-20T16:32:35+06:00,22
1000000000350188,77053162942,mMTS,mKarTel,mKarTel,,D77,2017-03-20T16:33:11+06:00,
1000000000350189,77779702700,mMTS,mKarTel,mKarTel,,D77,2017-03-20T16:33:16+06:00,
1000000000350191,77774224424,mKcell,mKarTel,mKarTel,,D02,2017-03-20T16:34:12+06:00,
1000000000350194,77716777755,mKarTel,mAltel,mKarTel,D07,D01,2017-03-20T16:37:03+06:00,
1000000000350195,77018095559,mMTS,mKcell,mKcell,,D77,2017-03-20T16:37:45+06:00,
1000000000350196,77015330097,mMTS,mKcell,mKcell,,D77,2017-03-20T16:37:53+06:00,
1000000000350197,77771107021,mKcell,mKarTel,mKarTel,,D02,2017-03-20T16:39:22+06:00,
1000000000350200,77474391993,mMTS,mKcell,mMTS,D02,D77,2017-03-20T16:43:26+06:00,
1000000000350201,77771002455,mKcell,mKarTel,mKarTel,,D02,2017-03-20T16:45:48+06:00,
1000000000350202,77004306754,mMTS,mAltel,mAltel,,D77,2017-03-20T16:45:47+06:00,
1000000000350203,77003507575,mAltel,mMTS,mAltel,D77,D07,2017-03-20T16:47:13+06:00,
1000000000350205,77756492111,mMTS,mKcell,mKcell,,D77,2017-03-20T16:48:18+06:00,
1000000000350206,77762313343,mKcell,mKarTel,mKarTel,,D02,2017-03-20T16:49:30+06:00,
1000000000350207,77027437773,mMTS,mKcell,mKcell,,D77,2017-03-20T16:49:08+06:00,
1000000000350208,77788908952,mKcell,mMTS,mKcell,D77,D02,2017-03-20T16:50:07+06:00,
1000000000350210,77015140190,mKarTel,mKcell,mKcell,,D01,2017-03-20T16:52:50+06:00,
1000000000350211,77755353383,mKcell,mKarTel,mKcell,D01,D02,2017-03-20T16:54:42+06:00,
1000000000350212,77710185742,mMTS,mKarTel,mKarTel,,D77,2017-03-20T16:55:21+06:00,
1000000000350213,77025187422,mMTS,mKcell,mKcell,,D77,2017-03-20T16:55:35+06:00,
1000000000350215,77023279338,mAltel,mKcell,mKcell,,D07,2017-03-20T16:56:07+06:00,
1000000000350216,77001788819,mMTS,mAltel,mAltel,,D77,2017-03-20T16:57:19+06:00,
