NPId,Number,RecipientId,DonorId,RangeHolderId,OldRoute,NewRoute,PortDate,RowCount
1000000000404112,77052717497,mMTS,mKarTel,mKarTel,,D77,2017-06-16T10:01:07+06:00,8
1000000000404118,77015358513,mAltel,mKcell,mKcell,,D07,2017-06-16T10:10:00+06:00,
1000000000404119,77026666651,mMTS,mKcell,mKcell,,D77,2017-06-16T10:11:41+06:00,
1000000000404121,77088380088,mMTS,mAltel,mAltel,,D77,2017-06-16T10:17:15+06:00,
1000000000404122,77017282913,mKarTel,mKcell,mKcell,,D01,2017-06-16T10:20:18+06:00,
1000000000404123,77054442020,mKcell,mKarTel,mKarTel,,D02,2017-06-16T10:21:59+06:00,
1000000000404125,77077537050,mAltel,mMTS,mMTS,,D07,2017-06-16T10:22:16+06:00,
1000000000404127,77021062311,mMTS,mKcell,mKcell,,D77,2017-06-16T10:25:37+06:00,
