NPId,Number,RecipientId,DonorId,RangeHolderId,OldRoute,NewRoute,PortDate,RowCount
1000000000406780,77059152555,mKcell,mKarTel,mKarTel,,D02,2017-06-21T13:01:07+06:00,11
1000000000406783,77015096655,mKcell,mMTS,mKcell,D77,D02,2017-06-21T13:04:51+06:00,
1000000000406785,77712273326,mMTS,mKarTel,mKarTel,,D77,2017-06-21T13:06:11+06:00,
1000000000406787,77089445890,mAltel,mKarTel,mAltel,D01,D07,2017-06-21T13:07:01+06:00,
1000000000406789,77775776868,mKcell,mKarTel,mKarTel,,D02,2017-06-21T13:09:01+06:00,
1000000000406791,77026699662,mKarTel,mKcell,mKcell,,D01,2017-06-21T13:11:26+06:00,
1000000000406792,77772080088,mAltel,mKarTel,mKarTel,,D07,2017-06-21T13:16:27+06:00,
1000000000406794,77023779237,mAltel,mMTS,mKcell,D77,D07,2017-06-21T13:20:20+06:00,
1000000000406795,77017752997,mAltel,mKcell,mKcell,,D07,2017-06-21T13:22:27+06:00,
1000000000406796,77018884554,mMTS,mKcell,mKcell,D02,D77,2017-06-21T13:22:37+06:00,
1000000000406797,77016020735,mAltel,mMTS,mKcell,D77,D07,2017-06-21T13:26:26+06:00,
