NPId,Number,RecipientId,DonorId,RangeHolderId,OldRoute,NewRoute,PortDate,RowCount
1000000000436010,77010525421,mAltel,mKcell,mKcell,,D07,2017-08-07T14:53:18+06:00,24
1000000000436146,77771239999,mKcell,mKarTel,mKarTel,,D02,2017-08-07T14:33:16+06:00,
1000000000436147,77072624137,mKarTel,mMTS,mMTS,,D01,2017-08-07T14:34:39+06:00,
1000000000436149,77770848922,mMTS,mKarTel,mKarTel,,D77,2017-08-07T14:36:49+06:00,
1000000000436151,77788000048,mMTS,mKcell,mKcell,,D77,2017-08-07T14:37:28+06:00,
1000000000436152,77770670963,mKarTel,mMTS,mKarTel,D77,D01,2017-08-07T14:38:02+06:00,
1000000000436154,77051898260,mMTS,mKarTel,mKarTel,,D77,2017-08-07T14:40:23+06:00,
1000000000436156,77760707040,mMTS,mKarTel,mKarTel,,D77,2017-08-07T14:42:36+06:00,
1000000000436157,77711839911,mAltel,mKarTel,mKarTel,,D07,2017-08-07T14:43:22+06:00,
1000000000436158,77028388011,mMTS,mKcell,mKcell,,D77,2017-08-07T14:43:10+06:00,
1000000000436160,77018418252,mMTS,mKcell,mKcell,,D77,2017-08-07T14:43:45+06:00,
1000000000436161,77076773799,mKarTel,mMTS,mMTS,,D01,2017-08-07T14:44:37+06:00,
1000000000436162,77029370000,mMTS,mKcell,mKcell,,D77,2017-08-07T14:46:46+06:00,
1000000000436164,77757900007,mAltel,mKcell,mKcell,,D07,2017-08-07T14:49:20+06:00,
1000000000436165,77013652433,mMTS,mKcell,mKcell,,D77,2017-08-07T14:52:21+06:00,
1000000000436166,77077878948,mKarTel,mMTS,mMTS,,D01,2017-08-07T14:52:42+06:00,
1000000000436168,77012887339,mKarTel,mKcell,mKcell,,D01,2017-08-07T14:53:39+06:00,
1000000000436169,77083283787,mAltel,mKarTel,mAltel,D01,D07,2017-08-07T14:54:12+06:00,
1000000000436170,77028368886,mKcell,mAltel,mKcell,D07,D02,2017-08-07T14:54:14+06:00,
1000000000436171,77001010887,mMTS,mAltel,mAltel,,D77,2017-08-07T14:54:49+06:00,
1000000000436173,77762273737,mKcell,mKarTel,mKarTel,,D02,2017-08-07T14:56:46+06:00,
1000000000436174,77019443777,mMTS,mKcell,mKcell,,D77,2017-08-07T14:57:02+06:00,
1000000000436177,77023554500,mAltel,mKcell,mKcell,,D07,2017-08-07T14:58:19+06:00,
1000000000436178,77479911183,mKcell,mMTS,mMTS,,D02,2017-08-07T14:59:38+06:00,
