NPId,Number,RecipientId,DonorId,RangeHolderId,OldRoute,NewRoute,PortDate,RowCount
1000000000206245,77014208599,mKarTel,mKcell,mKcell,,D01,2016-07-06T18:34:26+06:00,6
1000000000206246,77786226220,mKcell,mAltel,mKcell,D07,D02,2016-07-06T18:39:39+06:00,
1000000000206248,77779995530,mKarTel,mAltel,mKarTel,D07,D01,2016-07-06T18:46:15+06:00,
1000000000206249,77081140363,mMTS,mKcell,mAltel,D02,D77,2016-07-06T18:46:24+06:00,
1000000000206253,77779995540,mKarTel,mAltel,mKarTel,D07,D01,2016-07-06T18:52:17+06:00,
1000000000206254,77013731505,mAltel,mKcell,mKcell,,D07,2016-07-06T18:52:49+06:00,
