NPId,Number,RecipientId,DonorId,RangeHolderId,OldRoute,NewRoute,PortDate,RowCount
1000000000315437,77474734527,mKcell,mMTS,mMTS,,D02,2017-01-23T19:03:32+06:00,12
1000000000315438,77079922636,mAltel,mMTS,mMTS,,D07,2017-01-23T19:05:33+06:00,
1000000000315439,77478280101,mAltel,mMTS,mMTS,,D07,2017-01-23T19:07:05+06:00,
1000000000315440,77789891919,mKcell,mMTS,mKcell,D77,D02,2017-01-23T19:07:26+06:00,
1000000000315441,77017572109,mAltel,mKcell,mKcell,,D07,2017-01-23T19:07:43+06:00,
1000000000315443,77478280404,mAltel,mMTS,mMTS,,D07,2017-01-23T19:11:56+06:00,
1000000000315444,77775361717,mAltel,mKarTel,mKarTel,,D07,2017-01-23T19:14:50+06:00,
1000000000315445,77005557950,mKcell,mAltel,mAltel,,D02,2017-01-23T19:17:25+06:00,
1000000000315446,77713713333,mKcell,mKarTel,mKarTel,,D02,2017-01-23T19:18:59+06:00,
1000000000315447,77005557150,mKcell,mAltel,mAltel,,D02,2017-01-23T19:19:06+06:00,
1000000000315448,77005557350,mKcell,mAltel,mAltel,,D02,2017-01-23T19:21:47+06:00,
1000000000315449,77714774443,mMTS,mKarTel,mKarTel,,D77,2017-01-23T19:25:46+06:00,
