NPId,Number,RecipientId,DonorId,RangeHolderId,OldRoute,NewRoute,PortDate,RowCount
1000000000102963,77055555668,mKcell,mKarTel,mKarTel,,D02,2016-02-29T19:05:01+06:00,38
1000000000102968,77018387758,mAltel,mKcell,mKcell,,D07,2016-02-29T19:00:49+06:00,
1000000000102970,77022444410,mAltel,mKcell,mKcell,,D07,2016-02-29T19:00:49+06:00,
1000000000102971,77026501397,mMTS,mKcell,mKcell,,D77,2016-02-29T19:00:49+06:00,
1000000000102974,77012338361,mMTS,mKcell,mKcell,,D77,2016-02-29T19:00:49+06:00,
1000000000102977,77752255374,mKarTel,mKcell,mKcell,,D01,2016-02-29T19:01:09+06:00,
1000000000102979,77011888436,mAltel,mKcell,mKcell,,D07,2016-02-29T19:00:49+06:00,
1000000000102982,77028188009,mAltel,mKcell,mKcell,,D07,2016-02-29T19:00:49+06:00,
1000000000102989,77789435161,mMTS,mKcell,mKcell,,D77,2016-02-29T19:13:35+06:00,
1000000000102992,77754950121,mAltel,mKcell,mKcell,,D07,2016-02-29T19:13:35+06:00,
1000000000102994,77758357723,mKarTel,mKcell,mKcell,,D01,2016-02-29T19:13:47+06:00,
1000000000102995,77756842736,mKarTel,mKcell,mKcell,,D01,2016-02-29T19:13:44+06:00,
1000000000102996,77758420724,mKarTel,mKcell,mKcell,,D01,2016-02-29T19:13:47+06:00,
1000000000102997,77758370430,mKarTel,mKcell,mKcell,,D01,2016-02-29T19:13:48+06:00,
1000000000103002,77015755700,mAltel,mKcell,mKcell,,D07,2016-02-29T19:13:34+06:00,
1000000000103003,77023285727,mAltel,mKcell,mKcell,,D07,2016-02-29T19:13:35+06:00,
1000000000103008,77015210569,mMTS,mKcell,mKcell,,D77,2016-02-29T19:13:29+06:00,
1000000000103011,77775374309,mMTS,mKarTel,mKarTel,,D77,2016-02-29T19:00:42+06:00,
1000000000103012,77012121653,mKarTel,mKcell,mKcell,,D01,2016-02-29T19:13:48+06:00,
1000000000103014,77775374318,mMTS,mKarTel,mKarTel,,D77,2016-02-29T19:06:28+06:00,
1000000000103015,77764011118,mKcell,mKarTel,mKarTel,,D02,2016-02-29T19:26:06+06:00,
1000000000103016,77475243167,mKcell,mMTS,mMTS,,D02,2016-02-29T19:26:05+06:00,
1000000000103017,77475243116,mKcell,mMTS,mMTS,,D02,2016-02-29T19:26:05+06:00,
1000000000103018,77714051084,mMTS,mKarTel,mKarTel,,D77,2016-02-29T19:06:57+06:00,
1000000000103020,77076785787,mKarTel,mMTS,mMTS,,D01,2016-02-29T19:09:04+06:00,
1000000000103021,77773313180,mMTS,mKarTel,mKarTel,,D77,2016-02-29T19:09:57+06:00,
1000000000103024,77775374319,mMTS,mKarTel,mKarTel,,D77,2016-02-29T19:13:53+06:00,
1000000000103026,77775374320,mMTS,mKarTel,mKarTel,,D77,2016-02-29T19:16:37+06:00,
1000000000103028,77763611112,mKcell,mKarTel,mKarTel,,D02,2016-02-29T19:26:06+06:00,
1000000000103029,77777332973,mKcell,mKarTel,mKarTel,,D02,2016-02-29T19:26:06+06:00,
1000000000103031,77474944358,mAltel,mMTS,mMTS,,D07,2016-02-29T19:18:22+06:00,
1000000000103033,77775374321,mMTS,mKarTel,mKarTel,,D77,2016-02-29T19:20:42+06:00,
1000000000103037,77055566611,mAltel,mKarTel,mKarTel,,D07,2016-02-29T19:20:52+06:00,
1000000000103042,77076785833,mKarTel,mMTS,mMTS,,D01,2016-02-29T19:23:04+06:00,
1000000000103043,77775374322,mMTS,mKarTel,mKarTel,,D77,2016-02-29T19:24:29+06:00,
1000000000103045,77772627779,mAltel,mKarTel,mKarTel,,D07,2016-02-29T19:24:29+06:00,
1000000000103047,77051113383,mAltel,mKarTel,mKarTel,,D07,2016-02-29T19:26:59+06:00,
1000000000103049,77775374324,mMTS,mKarTel,mKarTel,,D77,2016-02-29T19:28:25+06:00,
