NPId,Number,RecipientId,DonorId,RangeHolderId,OldRoute,NewRoute,PortDate,RowCount
1000000000399766,77052266633,mAltel,mKarTel,mKarTel,,D07,2017-06-08T13:35:19+06:00,15
1000000000399767,77011127777,mKcell,mKarTel,mKcell,D01,D02,2017-06-08T13:37:49+06:00,
1000000000399768,77016736510,mKcell,mKarTel,mKcell,D01,D02,2017-06-08T13:38:26+06:00,
1000000000399769,77019914829,mKcell,mKarTel,mKcell,D01,D02,2017-06-08T13:39:09+06:00,
1000000000399770,77009839552,mKarTel,mAltel,mAltel,,D01,2017-06-08T13:39:19+06:00,
1000000000399771,77071191053,mKcell,mMTS,mMTS,,D02,2017-06-08T13:41:08+06:00,
1000000000399772,77779380170,mKcell,mKarTel,mKarTel,,D02,2017-06-08T13:41:51+06:00,
1000000000399773,77017502224,mMTS,mKcell,mKcell,,D77,2017-06-08T13:44:41+06:00,
1000000000399775,77766434747,mKcell,mKarTel,mKarTel,,D02,2017-06-08T13:46:21+06:00,
1000000000399777,77752236430,mKarTel,mKcell,mKcell,,D01,2017-06-08T13:47:36+06:00,
1000000000399778,77019889221,mMTS,mKcell,mKcell,,D77,2017-06-08T13:47:57+06:00,
1000000000399782,77012222514,mKarTel,mKcell,mKcell,,D01,2017-06-08T13:53:14+06:00,
1000000000399783,77028001177,mKcell,mAltel,mKcell,D07,D02,2017-06-08T13:57:04+06:00,
1000000000399784,77055517744,mMTS,mKcell,mKarTel,D02,D77,2017-06-08T13:57:13+06:00,
1000000000399786,77757486982,mMTS,mKcell,mKcell,,D77,2017-06-08T13:59:19+06:00,
