NPId,Number,RecipientId,DonorId,RangeHolderId,OldRoute,NewRoute,PortDate,RowCount
1000000000203173,77074444147,mMTS,mKarTel,mMTS,D01,D77,2016-06-30T14:01:13+06:00,27
1000000000203174,77011664858,mMTS,mKcell,mKcell,,D77,2016-06-30T14:02:25+06:00,
1000000000203175,77015667670,mKarTel,mKcell,mKcell,,D01,2016-06-30T14:04:04+06:00,
1000000000203176,77021334444,mKcell,mAltel,mKcell,D07,D02,2016-06-30T14:03:31+06:00,
1000000000203177,77479005050,mKarTel,mKcell,mMTS,D02,D01,2016-06-30T14:05:23+06:00,
1000000000203178,77773448008,mAltel,mKarTel,mKarTel,,D07,2016-06-30T14:04:43+06:00,
1000000000203179,77013841884,mMTS,mKcell,mKcell,,D77,2016-06-30T14:05:24+06:00,
1000000000203180,77022057148,mAltel,mKcell,mKcell,,D07,2016-06-30T14:07:07+06:00,
1000000000203181,77058440066,mKarTel,mMTS,mKarTel,D77,D01,2016-06-30T14:06:47+06:00,
1000000000203182,77082145571,mMTS,mAltel,mAltel,,D77,2016-06-30T14:06:35+06:00,
1000000000203183,77085509707,mKcell,mAltel,mAltel,,D02,2016-06-30T14:08:08+06:00,
1000000000203186,77770562277,mMTS,mKarTel,mKarTel,,D77,2016-06-30T14:08:18+06:00,
1000000000203187,77012404640,mKcell,mMTS,mKcell,D77,D02,2016-06-30T14:08:48+06:00,
1000000000203189,77772724196,mMTS,mKarTel,mKarTel,,D77,2016-06-30T14:11:16+06:00,
1000000000203191,77089991110,mKarTel,mAltel,mAltel,,D01,2016-06-30T14:11:33+06:00,
1000000000203196,77001114850,mKarTel,mAltel,mAltel,,D01,2016-06-30T14:15:48+06:00,
1000000000203198,77015700511,mKarTel,mKcell,mKcell,,D01,2016-06-30T14:18:56+06:00,
1000000000203199,77770180444,mKcell,mAltel,mKarTel,D07,D02,2016-06-30T14:20:09+06:00,
1000000000203200,77471975265,mKcell,mMTS,mMTS,,D02,2016-06-30T14:20:10+06:00,
1000000000203202,77011116338,mMTS,mKcell,mKcell,,D77,2016-06-30T14:22:05+06:00,
1000000000203203,77751075687,mMTS,mKcell,mKcell,,D77,2016-06-30T14:23:14+06:00,
1000000000203204,77779009997,mMTS,mKarTel,mKarTel,,D77,2016-06-30T14:23:14+06:00,
1000000000203205,77077161938,mMTS,mKarTel,mMTS,D01,D77,2016-06-30T14:24:14+06:00,
1000000000203206,77023871028,mMTS,mKcell,mKcell,,D77,2016-06-30T14:24:37+06:00,
1000000000203207,77772177333,mMTS,mKarTel,mKarTel,,D77,2016-06-30T14:24:43+06:00,
1000000000203208,77076797603,mAltel,mMTS,mMTS,,D07,2016-06-30T14:24:45+06:00,
1000000000203209,77757491995,mMTS,mKcell,mKcell,,D77,2016-06-30T14:27:50+06:00,
