NPId,Number,RecipientId,DonorId,RangeHolderId,OldRoute,NewRoute,PortDate,RowCount
1000000000291890,77776418867,mMTS,mKarTel,mKarTel,,D77,2016-12-08T11:00:48+06:00,21
1000000000291891,77025236003,mMTS,mKcell,mKcell,,D77,2016-12-08T11:01:38+06:00,
1000000000291892,77028999933,mAltel,mKcell,mKcell,,D07,2016-12-08T11:02:14+06:00,
1000000000291893,77758443991,mMTS,mKcell,mKcell,,D77,2016-12-08T11:02:55+06:00,
1000000000291894,77718433999,mAltel,mKarTel,mKarTel,,D07,2016-12-08T11:03:33+06:00,
1000000000291895,77778336036,mKarTel,mAltel,mKarTel,D07,D01,2016-12-08T11:04:53+06:00,
1000000000291896,77759664266,mKcell,mMTS,mKcell,D77,D02,2016-12-08T11:06:34+06:00,
1000000000291897,77051782901,mMTS,mKarTel,mKarTel,,D77,2016-12-08T11:10:05+06:00,
1000000000291899,77758449173,mMTS,mKcell,mKcell,,D77,2016-12-08T11:11:08+06:00,
1000000000291900,77771800617,mMTS,mKarTel,mKarTel,,D77,2016-12-08T11:13:17+06:00,
1000000000291902,77010650264,mKarTel,mKcell,mKcell,,D01,2016-12-08T11:16:30+06:00,
1000000000291903,77010650254,mKarTel,mKcell,mKcell,,D01,2016-12-08T11:17:15+06:00,
1000000000291904,77715594030,mMTS,mKarTel,mKarTel,,D77,2016-12-08T11:17:55+06:00,
1000000000291905,77017346431,mMTS,mKcell,mKcell,,D77,2016-12-08T11:17:39+06:00,
1000000000291909,77758446813,mMTS,mKcell,mKcell,,D77,2016-12-08T11:23:41+06:00,
1000000000291910,77002411987,mMTS,mAltel,mAltel,,D77,2016-12-08T11:24:42+06:00,
1000000000291912,77010157770,mKcell,mKarTel,mKcell,D01,D02,2016-12-08T11:26:17+06:00,
1000000000291913,77003671160,mMTS,mAltel,mAltel,,D77,2016-12-08T11:26:43+06:00,
1000000000291914,77015246514,mAltel,mKcell,mKcell,,D07,2016-12-08T11:27:31+06:00,
1000000000291915,77475775050,mMTS,mKarTel,mMTS,D01,D77,2016-12-08T11:27:59+06:00,
1000000000291916,77472211501,mKarTel,mMTS,mMTS,,D01,2016-12-08T11:28:04+06:00,
