NPId,Number,RecipientId,DonorId,RangeHolderId,OldRoute,NewRoute,PortDate,RowCount
1000000000250231,77772857993,mMTS,mKarTel,mKarTel,,D77,2016-09-23T18:02:27+06:00,26
1000000000250232,77002000298,mKcell,mAltel,mAltel,,D02,2016-09-23T18:01:51+06:00,
1000000000250233,77713138707,mKcell,mKarTel,mKarTel,,D02,2016-09-23T18:05:21+06:00,
1000000000250234,77003000347,mKcell,mAltel,mAltel,,D02,2016-09-23T18:03:31+06:00,
1000000000250236,77004000485,mKcell,mAltel,mAltel,,D02,2016-09-23T18:04:14+06:00,
1000000000250237,77763339694,mKcell,mKarTel,mKarTel,,D02,2016-09-23T18:07:11+06:00,
1000000000250238,77055488181,mKarTel,mMTS,mKarTel,D77,D01,2016-09-23T18:05:10+06:00,
1000000000250239,77020002605,mAltel,mMTS,mKcell,D77,D07,2016-09-23T18:05:17+06:00,
1000000000250240,77006000632,mKcell,mAltel,mAltel,,D02,2016-09-23T18:06:09+06:00,
1000000000250242,77071111458,mKcell,mMTS,mMTS,,D02,2016-09-23T18:06:52+06:00,
1000000000250243,77007773807,mKcell,mAltel,mAltel,,D02,2016-09-23T18:09:57+06:00,
1000000000250244,77059134820,mKcell,mKarTel,mKarTel,,D02,2016-09-23T18:14:51+06:00,
1000000000250245,77077218855,mKcell,mMTS,mMTS,,D02,2016-09-23T18:11:46+06:00,
1000000000250247,77001604166,mMTS,mAltel,mAltel,,D77,2016-09-23T18:12:24+06:00,
1000000000250248,77007774307,mKcell,mAltel,mAltel,,D02,2016-09-23T18:15:09+06:00,
1000000000250249,77759686161,mMTS,mKcell,mKcell,,D77,2016-09-23T18:13:31+06:00,
1000000000250251,77007774507,mKcell,mAltel,mAltel,,D02,2016-09-23T18:14:20+06:00,
1000000000250252,77022888150,mAltel,mKcell,mKcell,,D07,2016-09-23T18:15:29+06:00,
1000000000250253,77015149862,mKarTel,mKcell,mKcell,,D01,2016-09-23T18:17:04+06:00,
1000000000250254,77087580127,mKarTel,mAltel,mAltel,,D01,2016-09-23T18:17:04+06:00,
1000000000250255,77077152772,mKarTel,mMTS,mMTS,,D01,2016-09-23T18:18:01+06:00,
1000000000250256,77756905357,mKcell,mAltel,mKcell,D07,D02,2016-09-23T18:22:28+06:00,
1000000000250257,77753094888,mKcell,mKarTel,mKcell,D01,D02,2016-09-23T18:24:50+06:00,
1000000000250258,77077309101,mKcell,mMTS,mMTS,,D02,2016-09-23T18:27:46+06:00,
1000000000250259,77759823188,mAltel,mKcell,mKcell,,D07,2016-09-23T18:26:00+06:00,
1000000000250260,77029052887,mMTS,mKcell,mKcell,,D77,2016-09-23T18:27:29+06:00,
