NPId,Number,RecipientId,DonorId,RangeHolderId,OldRoute,NewRoute,PortDate,RowCount
1000000000257330,77072593223,mKarTel,mMTS,mMTS,,D01,2016-10-06T09:07:32+06:00,13
1000000000257414,77017946150,mKarTel,mKcell,mKcell,,D01,2016-10-06T09:08:58+06:00,
1000000000257421,77017658247,mKarTel,mKcell,mKcell,,D01,2016-10-06T09:13:19+06:00,
1000000000257477,77012998066,mKarTel,mKcell,mKcell,,D01,2016-10-06T09:14:51+06:00,
1000000000257536,77775778037,mKarTel,mMTS,mKarTel,D77,D01,2016-10-06T09:17:53+06:00,
1000000000257567,77074448884,mKarTel,mMTS,mMTS,,D01,2016-10-06T09:19:22+06:00,
1000000000257664,77778222259,mKarTel,mMTS,mKarTel,D77,D01,2016-10-06T09:07:32+06:00,
1000000000257665,77778925998,mAltel,mKarTel,mKarTel,,D07,2016-10-06T09:13:23+06:00,
1000000000257666,77773143812,mKcell,mKarTel,mKarTel,,D02,2016-10-06T09:18:08+06:00,
1000000000257667,77016239409,mKcell,mMTS,mKcell,D77,D02,2016-10-06T09:13:33+06:00,
1000000000257671,77473114068,mKarTel,mMTS,mMTS,,D01,2016-10-06T09:23:48+06:00,
1000000000257674,77015206621,mKarTel,mKcell,mKcell,,D01,2016-10-06T09:25:14+06:00,
1000000000257675,77473114019,mKarTel,mMTS,mMTS,,D01,2016-10-06T09:28:14+06:00,
