NPId,Number,RecipientId,DonorId,RangeHolderId,OldRoute,NewRoute,PortDate,RowCount
1000000000212186,77786036730,mMTS,mKcell,mKcell,,D77,2016-07-16T12:01:23+06:00,17
1000000000212187,77015267209,mMTS,mKcell,mKcell,,D77,2016-07-16T12:01:23+06:00,
1000000000212189,77087723394,mKarTel,mMTS,mAltel,D77,D01,2016-07-16T12:00:50+06:00,
1000000000212190,77789858888,mMTS,mKcell,mKcell,,D77,2016-07-16T12:04:19+06:00,
1000000000212191,77080780888,mKcell,mAltel,mAltel,,D02,2016-07-16T12:07:00+06:00,
1000000000212192,77026621101,mKcell,mAltel,mKcell,D07,D02,2016-07-16T12:07:00+06:00,
1000000000212193,77013201268,mKcell,mMTS,mKcell,D77,D02,2016-07-16T12:08:42+06:00,
1000000000212195,77027303238,mKcell,mAltel,mKcell,D07,D02,2016-07-16T12:08:40+06:00,
1000000000212196,77012633882,mMTS,mKcell,mKcell,,D77,2016-07-16T12:10:16+06:00,
1000000000212197,77012558993,mKarTel,mKcell,mKcell,,D01,2016-07-16T12:10:49+06:00,
1000000000212198,77019383902,mAltel,mKcell,mKcell,,D07,2016-07-16T12:11:29+06:00,
1000000000212199,77077127973,mKarTel,mMTS,mMTS,,D01,2016-07-16T12:12:21+06:00,
1000000000212201,77015441916,mMTS,mKcell,mKcell,,D77,2016-07-16T12:17:44+06:00,
1000000000212202,77785338281,mMTS,mKcell,mKcell,,D77,2016-07-16T12:17:44+06:00,
1000000000212205,77025057316,mKarTel,mKcell,mKcell,,D01,2016-07-16T12:23:22+06:00,
1000000000212207,77085283736,mMTS,mAltel,mAltel,,D77,2016-07-16T12:27:14+06:00,
1000000000212208,77711981981,mMTS,mKarTel,mKarTel,,D77,2016-07-16T12:29:57+06:00,
