NPId,Number,RecipientId,DonorId,RangeHolderId,OldRoute,NewRoute,PortDate,RowCount
1000000000411501,77004404085,mKcell,mAltel,mAltel,,D02,2017-06-28T16:00:52+06:00,26
1000000000411502,77752799993,mMTS,mAltel,mKcell,D07,D77,2017-06-28T16:01:17+06:00,
1000000000411503,77016006707,mKarTel,mKcell,mKcell,,D01,2017-06-28T16:03:50+06:00,
1000000000411504,77025965898,mKcell,mMTS,mKcell,D77,D02,2017-06-28T16:05:23+06:00,
1000000000411506,77002002289,mKcell,mAltel,mAltel,,D02,2017-06-28T16:06:25+06:00,
1000000000411507,77015100459,mMTS,mKcell,mKcell,,D77,2017-06-28T16:06:53+06:00,
1000000000411508,77083878007,mMTS,mAltel,mAltel,,D77,2017-06-28T16:07:56+06:00,
1000000000411509,77057993555,mMTS,mKarTel,mKarTel,,D77,2017-06-28T16:08:36+06:00,
1000000000411510,77018817181,mKarTel,mKcell,mKcell,,D01,2017-06-28T16:08:36+06:00,
1000000000411511,77756804000,mKcell,mKarTel,mKcell,D01,D02,2017-06-28T16:09:06+06:00,
1000000000411512,77087070790,mMTS,mAltel,mAltel,,D77,2017-06-28T16:08:32+06:00,
1000000000411513,77000220763,mMTS,mAltel,mAltel,,D77,2017-06-28T16:09:40+06:00,
1000000000411517,77714006669,mKarTel,mAltel,mKarTel,D07,D01,2017-06-28T16:15:09+06:00,
1000000000411518,77758801202,mKarTel,mKcell,mKcell,,D01,2017-06-28T16:16:23+06:00,
1000000000411519,77018883563,mKarTel,mKcell,mKcell,,D01,2017-06-28T16:17:13+06:00,
1000000000411520,77012928899,mAltel,mKcell,mKcell,,D07,2017-06-28T16:17:48+06:00,
1000000000411521,77007501014,mMTS,mAltel,mAltel,,D77,2017-06-28T16:18:51+06:00,
1000000000411523,77767778727,mKcell,mKarTel,mKarTel,,D02,2017-06-28T16:20:47+06:00,
1000000000411526,77023521686,mKcell,mMTS,mKcell,D77,D02,2017-06-28T16:22:13+06:00,
1000000000411528,77767797972,mKcell,mKarTel,mKarTel,,D02,2017-06-28T16:24:03+06:00,
1000000000411529,77017160643,mMTS,mKcell,mKcell,,D77,2017-06-28T16:25:17+06:00,
1000000000411530,77762137072,mAltel,mKarTel,mKarTel,,D07,2017-06-28T16:25:32+06:00,
1000000000411531,77018497288,mAltel,mKcell,mKcell,,D07,2017-06-28T16:25:34+06:00,
1000000000411532,77771332333,mMTS,mKarTel,mKarTel,,D77,2017-06-28T16:26:24+06:00,
1000000000411533,77011347474,mMTS,mKcell,mKcell,,D77,2017-06-28T16:26:24+06:00,
1000000000411536,77770999001,mKarTel,mKcell,mKarTel,D02,D01,2017-06-28T16:29:30+06:00,
