NPId,Number,RecipientId,DonorId,RangeHolderId,OldRoute,NewRoute,PortDate,RowCount
1000000000314931,77715011087,mKcell,mKarTel,mKarTel,,D02,2017-01-23T12:04:05+06:00,22
1000000000314942,77011020400,mKcell,mMTS,mKcell,D77,D02,2017-01-23T12:04:28+06:00,
1000000000314944,77768033132,mKcell,mKarTel,mKarTel,,D02,2017-01-23T12:09:45+06:00,
1000000000314945,77756181177,mMTS,mKcell,mKcell,,D77,2017-01-23T12:10:10+06:00,
1000000000314946,77781151046,mKarTel,mKcell,mKcell,,D01,2017-01-23T12:10:44+06:00,
1000000000314947,77017773182,mAltel,mKcell,mKcell,,D07,2017-01-23T12:10:56+06:00,
1000000000314949,77077066067,mKcell,mKarTel,mMTS,D01,D02,2017-01-23T12:13:18+06:00,
1000000000314950,77768911966,mKcell,mKarTel,mKarTel,,D02,2017-01-23T12:13:36+06:00,
1000000000314951,77760060672,mKcell,mKarTel,mKarTel,,D02,2017-01-23T12:14:31+06:00,
1000000000314952,77776904018,mAltel,mKarTel,mKarTel,,D07,2017-01-23T12:15:37+06:00,
1000000000314955,77015334459,mKarTel,mKcell,mKcell,,D01,2017-01-23T12:17:35+06:00,
1000000000314956,77002002222,mKcell,mAltel,mAltel,,D02,2017-01-23T12:17:43+06:00,
1000000000314958,77752350883,mKarTel,mKcell,mKcell,,D01,2017-01-23T12:19:23+06:00,
1000000000314959,77477001960,mAltel,mMTS,mMTS,,D07,2017-01-23T12:19:55+06:00,
1000000000314960,77018208201,mAltel,mKcell,mKcell,,D07,2017-01-23T12:21:03+06:00,
1000000000314962,77071194319,mKarTel,mMTS,mMTS,,D01,2017-01-23T12:22:50+06:00,
1000000000314964,77765080988,mKcell,mKarTel,mKarTel,,D02,2017-01-23T12:23:24+06:00,
1000000000314966,77712447766,mKcell,mKarTel,mKarTel,,D02,2017-01-23T12:25:44+06:00,
1000000000314969,77760597900,mKcell,mKarTel,mKarTel,,D02,2017-01-23T12:27:30+06:00,
1000000000314970,77758968282,mMTS,mKcell,mKcell,,D77,2017-01-23T12:28:29+06:00,
1000000000314971,77009764344,mKarTel,mAltel,mAltel,,D01,2017-01-23T12:28:44+06:00,
1000000000314972,77714518150,mMTS,mKarTel,mKarTel,,D77,2017-01-23T12:29:41+06:00,
