NPId,Number,RecipientId,DonorId,RangeHolderId,OldRoute,NewRoute,PortDate,RowCount
1000000000383380,77772718277,mKarTel,mMTS,mKarTel,D77,D01,2017-05-15T15:30:24+06:00,32
1000000000383385,77073324475,mKarTel,mMTS,mMTS,,D01,2017-05-15T15:32:24+06:00,
1000000000383387,77019531041,mKarTel,mKcell,mKcell,,D01,2017-05-15T15:32:39+06:00,
1000000000383389,77056887732,mAltel,mKarTel,mKarTel,,D07,2017-05-15T15:33:57+06:00,
1000000000383392,77075112256,mKcell,mMTS,mMTS,,D02,2017-05-15T15:34:31+06:00,
1000000000383393,77475377644,mMTS,mAltel,mMTS,D07,D77,2017-05-15T15:35:47+06:00,
1000000000383394,77071389229,mKarTel,mMTS,mMTS,,D01,2017-05-15T15:36:07+06:00,
1000000000383395,77015292071,mMTS,mAltel,mKcell,D07,D77,2017-05-15T15:37:14+06:00,
1000000000383396,77017186056,mKarTel,mKcell,mKcell,,D01,2017-05-15T15:37:41+06:00,
1000000000383399,77776777022,mKcell,mMTS,mKarTel,D77,D02,2017-05-15T15:39:25+06:00,
1000000000383400,77711101702,mAltel,mMTS,mKarTel,D77,D07,2017-05-15T15:39:42+06:00,
1000000000383402,77769333999,mAltel,mKarTel,mKarTel,,D07,2017-05-15T15:41:00+06:00,
1000000000383405,77475417050,mMTS,mAltel,mMTS,D07,D77,2017-05-15T15:42:36+06:00,
1000000000383406,77765557535,mMTS,mKarTel,mKarTel,,D77,2017-05-15T15:43:09+06:00,
1000000000383407,77760666628,mMTS,mKarTel,mKarTel,,D77,2017-05-15T15:43:07+06:00,
1000000000383408,77757844783,mKarTel,mMTS,mKcell,D77,D01,2017-05-15T15:43:42+06:00,
1000000000383410,77474857817,mMTS,mAltel,mMTS,D07,D77,2017-05-15T15:44:01+06:00,
1000000000383411,77712901873,mMTS,mKarTel,mKarTel,,D77,2017-05-15T15:44:32+06:00,
1000000000383412,77019523523,mKcell,mMTS,mKcell,D77,D02,2017-05-15T15:45:05+06:00,
1000000000383413,77475418280,mMTS,mAltel,mMTS,D07,D77,2017-05-15T15:45:28+06:00,
1000000000383414,77015777075,mKarTel,mMTS,mKcell,D77,D01,2017-05-15T15:48:00+06:00,
1000000000383415,77009175585,mKcell,mAltel,mAltel,,D02,2017-05-15T15:48:01+06:00,
1000000000383416,77762255055,mKcell,mKarTel,mKarTel,,D02,2017-05-15T15:49:05+06:00,
1000000000383417,77073662012,mAltel,mMTS,mMTS,,D07,2017-05-15T15:49:09+06:00,
1000000000383419,77751865711,mMTS,mAltel,mKcell,D07,D77,2017-05-15T15:50:33+06:00,
1000000000383420,77764066505,mMTS,mAltel,mKarTel,D07,D77,2017-05-15T15:52:07+06:00,
1000000000383421,77719990201,mKarTel,mKcell,mKarTel,D02,D01,2017-05-15T15:52:52+06:00,
1000000000383423,77015122404,mKarTel,mKcell,mKcell,,D01,2017-05-15T15:54:50+06:00,
1000000000383424,77016474107,mKcell,mAltel,mKcell,D07,D02,2017-05-15T15:55:49+06:00,
1000000000383425,77787475104,mMTS,mKcell,mKcell,,D77,2017-05-15T15:56:14+06:00,
1000000000383426,77712579005,mMTS,mKarTel,mKarTel,,D77,2017-05-15T15:59:09+06:00,
1000000000383427,77026263454,mKcell,mAltel,mKcell,D07,D02,2017-05-15T15:59:56+06:00,
