NPId,Number,RecipientId,DonorId,RangeHolderId,OldRoute,NewRoute,PortDate,RowCount
1000000000387139,77754691797,mMTS,mKcell,mKcell,,D77,2017-05-22T16:00:53+06:00,21
1000000000387140,77017252954,mAltel,mKcell,mKcell,,D07,2017-05-22T16:01:31+06:00,
1000000000387141,77019182222,mMTS,mKcell,mKcell,,D77,2017-05-22T16:02:53+06:00,
1000000000387142,77055459219,mKcell,mKarTel,mKarTel,,D02,2017-05-22T16:03:26+06:00,
1000000000387144,77073830681,mKarTel,mMTS,mMTS,,D01,2017-05-22T16:04:09+06:00,
1000000000387145,77052862070,mMTS,mKarTel,mKarTel,,D77,2017-05-22T16:04:46+06:00,
1000000000387146,77073601307,mKcell,mMTS,mMTS,,D02,2017-05-22T16:08:31+06:00,
1000000000387147,77026700539,mAltel,mKcell,mKcell,,D07,2017-05-22T16:09:19+06:00,
1000000000387148,77771389246,mMTS,mKarTel,mKarTel,,D77,2017-05-22T16:11:01+06:00,
1000000000387149,77017870297,mKarTel,mKcell,mKcell,,D01,2017-05-22T16:14:22+06:00,
1000000000387151,77077059093,mAltel,mMTS,mMTS,,D07,2017-05-22T16:18:28+06:00,
1000000000387154,77753375426,mAltel,mKcell,mKcell,,D07,2017-05-22T16:19:53+06:00,
1000000000387155,77763331230,mKarTel,mKcell,mKarTel,D02,D01,2017-05-22T16:20:33+06:00,
1000000000387156,77011007310,mKarTel,mKcell,mKcell,,D01,2017-05-22T16:20:49+06:00,
1000000000387157,77051339099,mMTS,mKarTel,mKarTel,,D77,2017-05-22T16:21:05+06:00,
1000000000387159,77071568323,mAltel,mMTS,mMTS,,D07,2017-05-22T16:22:28+06:00,
1000000000387160,77775950088,mKcell,mMTS,mKarTel,D77,D02,2017-05-22T16:22:55+06:00,
1000000000387161,77775758811,mMTS,mKarTel,mKarTel,,D77,2017-05-22T16:24:17+06:00,
1000000000387162,77082888818,mMTS,mAltel,mAltel,,D77,2017-05-22T16:24:38+06:00,
1000000000387163,77074552565,mKcell,mMTS,mMTS,D77,D02,2017-05-22T16:26:02+06:00,
1000000000387167,77777077742,mKcell,mAltel,mKarTel,D07,D02,2017-05-22T16:29:36+06:00,
