NPId,Number,RecipientId,DonorId,RangeHolderId,OldRoute,NewRoute,PortDate,RowCount
1000000000445420,77017278858,mKarTel,mKcell,mKcell,,D01,2017-08-25T13:49:36+06:00,15
1000000000445607,77770554595,mKcell,mMTS,mKarTel,D77,D02,2017-08-25T13:31:45+06:00,
1000000000445608,77012221286,mAltel,mKcell,mKcell,,D07,2017-08-25T13:31:59+06:00,
1000000000445609,77759055800,mAltel,mKcell,mKcell,,D07,2017-08-25T13:32:09+06:00,
1000000000445610,77775129777,mAltel,mKarTel,mKarTel,,D07,2017-08-25T13:36:12+06:00,
1000000000445611,77077553540,mKcell,mMTS,mMTS,,D02,2017-08-25T13:36:46+06:00,
1000000000445613,77088087988,mKarTel,mAltel,mAltel,,D01,2017-08-25T13:39:53+06:00,
1000000000445614,77752303721,mMTS,mKcell,mKcell,,D77,2017-08-25T13:40:31+06:00,
1000000000445615,77772270807,mKarTel,mMTS,mKarTel,D77,D01,2017-08-25T13:42:31+06:00,
1000000000445616,77714157855,mMTS,mKarTel,mKarTel,,D77,2017-08-25T13:43:46+06:00,
1000000000445617,77015362356,mKarTel,mKcell,mKcell,,D01,2017-08-25T13:45:42+06:00,
1000000000445619,77076006707,mKcell,mMTS,mMTS,,D02,2017-08-25T13:48:55+06:00,
1000000000445620,77025469716,mKcell,mMTS,mKcell,D77,D02,2017-08-25T13:50:05+06:00,
1000000000445621,77785153071,mMTS,mKcell,mKcell,,D77,2017-08-25T13:55:28+06:00,
1000000000445622,77015554003,mAltel,mKcell,mKcell,,D07,2017-08-25T13:55:40+06:00,
