NPId,Number,RecipientId,DonorId,RangeHolderId,OldRoute,NewRoute,PortDate,RowCount
1000000000244296,77073820200,mKarTel,mMTS,mMTS,,D01,2016-09-12T12:39:42+06:00,6
1000000000244297,77017304364,mAltel,mKcell,mKcell,,D07,2016-09-12T12:39:28+06:00,
1000000000244299,77029647264,mMTS,mKcell,mKcell,,D77,2016-09-12T12:46:49+06:00,
1000000000244300,77471553790,mKarTel,mMTS,mMTS,,D01,2016-09-12T12:49:30+06:00,
1000000000244301,77011416320,mAltel,mKcell,mKcell,D02,D07,2016-09-12T12:50:26+06:00,
1000000000244304,77015339049,mKarTel,mKcell,mKcell,,D01,2016-09-12T12:59:01+06:00,
