NPId,Number,RecipientId,DonorId,RangeHolderId,OldRoute,NewRoute,PortDate,RowCount
1000000000313932,77023099449,mAltel,mKcell,mKcell,,D07,2017-01-20T18:00:18+06:00,23
1000000000313933,77763627292,mKcell,mKarTel,mKarTel,,D02,2017-01-20T18:02:49+06:00,
1000000000313934,77017631734,mKcell,mMTS,mKcell,D77,D02,2017-01-20T18:02:36+06:00,
1000000000313935,77021941914,mKarTel,mKcell,mKcell,,D01,2017-01-20T18:03:27+06:00,
1000000000313937,77077330732,mKarTel,mMTS,mMTS,,D01,2017-01-20T18:06:44+06:00,
1000000000313941,77477330732,mKarTel,mMTS,mMTS,,D01,2017-01-20T18:08:46+06:00,
1000000000313942,77083060888,mMTS,mAltel,mAltel,,D77,2017-01-20T18:09:14+06:00,
1000000000313944,77024846400,mAltel,mKcell,mKcell,,D07,2017-01-20T18:11:35+06:00,
1000000000313946,77083140427,mMTS,mAltel,mAltel,,D77,2017-01-20T18:12:40+06:00,
1000000000313948,77773540585,mMTS,mKarTel,mKarTel,,D77,2017-01-20T18:16:34+06:00,
1000000000313949,77089682589,mMTS,mAltel,mAltel,,D77,2017-01-20T18:16:15+06:00,
1000000000313950,77477101492,mAltel,mMTS,mMTS,,D07,2017-01-20T18:17:02+06:00,
1000000000313952,77787881629,mAltel,mKcell,mKcell,,D07,2017-01-20T18:18:33+06:00,
1000000000313953,77755751888,mMTS,mKcell,mKcell,,D77,2017-01-20T18:19:11+06:00,
1000000000313954,77758038303,mMTS,mKcell,mKcell,,D77,2017-01-20T18:20:31+06:00,
1000000000313955,77758038878,mMTS,mKcell,mKcell,,D77,2017-01-20T18:22:07+06:00,
1000000000313956,77752791000,mMTS,mKcell,mKcell,,D77,2017-01-20T18:23:13+06:00,
1000000000313957,77758038838,mMTS,mAltel,mKcell,D07,D77,2017-01-20T18:23:32+06:00,
1000000000313959,77773997604,mMTS,mKarTel,mKarTel,,D77,2017-01-20T18:26:16+06:00,
1000000000313960,77075652699,mMTS,mKarTel,mMTS,D01,D77,2017-01-20T18:26:55+06:00,
1000000000313961,77763262666,mMTS,mKarTel,mKarTel,,D77,2017-01-20T18:27:05+06:00,
1000000000313962,77782617775,mKarTel,mAltel,mKcell,D07,D01,2017-01-20T18:28:49+06:00,
1000000000313964,77059944111,mKcell,mMTS,mKarTel,D77,D02,2017-01-20T18:29:27+06:00,
