NPId,Number,RecipientId,DonorId,RangeHolderId,OldRoute,NewRoute,PortDate,RowCount
1000000000447546,77774649222,mKarTel,mKcell,mKarTel,D02,D01,2017-08-29T09:03:08+06:00,6
1000000000447547,77003757936,mMTS,mAltel,mAltel,,D77,2017-08-29T09:04:59+06:00,
1000000000447548,77472551213,mAltel,mMTS,mMTS,,D07,2017-08-29T09:11:41+06:00,
1000000000447550,77058960096,mKarTel,mMTS,mKarTel,D77,D01,2017-08-29T09:19:27+06:00,
1000000000447551,77078306582,mKcell,mMTS,mMTS,,D02,2017-08-29T09:22:24+06:00,
1000000000447552,77007700069,mKarTel,mAltel,mAltel,,D01,2017-08-29T09:26:24+06:00,
