NPId,Number,RecipientId,DonorId,RangeHolderId,OldRoute,NewRoute,PortDate,RowCount
1000000000404045,77013821076,mMTS,mKcell,mKcell,,D77,2017-06-15T19:00:10+06:00,17
1000000000404046,77016731111,mAltel,mKcell,mKcell,D02,D07,2017-06-15T19:01:55+06:00,
1000000000404047,77004449054,mKcell,mAltel,mAltel,,D02,2017-06-15T19:03:04+06:00,
1000000000404048,77089998878,mKcell,mAltel,mAltel,,D02,2017-06-15T19:03:29+06:00,
1000000000404049,77474444747,mKcell,mAltel,mMTS,D07,D02,2017-06-15T19:05:19+06:00,
1000000000404050,77025900001,mMTS,mKcell,mKcell,,D77,2017-06-15T19:06:04+06:00,
1000000000404051,77777772622,mKcell,mKarTel,mKarTel,,D02,2017-06-15T19:07:22+06:00,
1000000000404052,77003339053,mKcell,mAltel,mAltel,,D02,2017-06-15T19:07:09+06:00,
1000000000404053,77016945173,mAltel,mKcell,mKcell,,D07,2017-06-15T19:07:45+06:00,
1000000000404054,77004447063,mKcell,mAltel,mAltel,,D02,2017-06-15T19:09:22+06:00,
1000000000404055,77027971360,mKarTel,mKcell,mKcell,,D01,2017-06-15T19:09:50+06:00,
1000000000404056,77019922114,mKarTel,mKcell,mKcell,,D01,2017-06-15T19:09:51+06:00,
1000000000404057,77014444000,mKarTel,mKcell,mKcell,,D01,2017-06-15T19:10:51+06:00,
1000000000404058,77051006068,mMTS,mKarTel,mKarTel,,D77,2017-06-15T19:11:54+06:00,
1000000000404060,77089990091,mKcell,mAltel,mAltel,,D02,2017-06-15T19:15:20+06:00,
1000000000404061,77007776070,mKcell,mAltel,mAltel,,D02,2017-06-15T19:18:08+06:00,
1000000000404062,77789520380,mAltel,mKcell,mKcell,,D07,2017-06-15T19:28:52+06:00,
