NPId,Number,RecipientId,DonorId,RangeHolderId,OldRoute,NewRoute,PortDate,RowCount
1000000000437503,77024215192,mKarTel,mKcell,mKcell,,D01,2017-08-09T18:30:15+06:00,21
1000000000437504,77715050050,mMTS,mKarTel,mKarTel,,D77,2017-08-09T18:31:17+06:00,
1000000000437506,77011720010,mKcell,mAltel,mKcell,D07,D02,2017-08-09T18:34:01+06:00,
1000000000437508,77768510101,mMTS,mKarTel,mKarTel,,D77,2017-08-09T18:37:14+06:00,
1000000000437510,77085360620,mMTS,mAltel,mAltel,,D77,2017-08-09T18:37:47+06:00,
1000000000437511,77014313197,mMTS,mKcell,mKcell,,D77,2017-08-09T18:38:24+06:00,
1000000000437514,77014751690,mMTS,mKcell,mKcell,,D77,2017-08-09T18:42:26+06:00,
1000000000437515,77710006613,mKarTel,mMTS,mKarTel,D77,D01,2017-08-09T18:43:13+06:00,
1000000000437517,77071656543,mAltel,mMTS,mMTS,,D07,2017-08-09T18:46:56+06:00,
1000000000437519,77001112299,mKarTel,mMTS,mAltel,D77,D01,2017-08-09T18:48:38+06:00,
1000000000437520,77001112277,mKarTel,mMTS,mAltel,D77,D01,2017-08-09T18:49:37+06:00,
1000000000437521,77011610101,mKarTel,mKcell,mKcell,,D01,2017-08-09T18:51:05+06:00,
1000000000437522,77089839359,mMTS,mAltel,mAltel,,D77,2017-08-09T18:52:17+06:00,
1000000000437523,77056130016,mMTS,mKarTel,mKarTel,,D77,2017-08-09T18:53:00+06:00,
1000000000437524,77079282059,mKcell,mMTS,mMTS,,D02,2017-08-09T18:53:15+06:00,
1000000000437526,77760200001,mMTS,mKarTel,mKarTel,,D77,2017-08-09T18:54:34+06:00,
1000000000437527,77004142011,mKcell,mAltel,mAltel,,D02,2017-08-09T18:56:02+06:00,
1000000000437528,77003032013,mKcell,mAltel,mAltel,,D02,2017-08-09T18:56:42+06:00,
1000000000437529,77757945757,mKcell,mAltel,mKcell,D07,D02,2017-08-09T18:56:51+06:00,
1000000000437530,77089839358,mMTS,mAltel,mAltel,,D77,2017-08-09T18:57:15+06:00,
1000000000437531,77774723227,mKcell,mKarTel,mKarTel,,D02,2017-08-09T18:59:39+06:00,
