NPId,Number,RecipientId,DonorId,RangeHolderId,OldRoute,NewRoute,PortDate,RowCount
1000000000379603,77014945615,mMTS,mKcell,mKcell,,D77,2017-05-07T12:01:43+06:00,3
1000000000379605,77022152635,mMTS,mKcell,mKcell,,D77,2017-05-07T12:12:50+06:00,
1000000000379607,77015526515,mMTS,mKcell,mKcell,,D77,2017-05-07T12:27:15+06:00,
