NPId,Number,RecipientId,DonorId,RangeHolderId,OldRoute,NewRoute,PortDate,RowCount
1000000000194563,77018888814,mKcell,mAltel,mKcell,D07,D02,2016-06-16T14:37:48+06:00,7
1000000000194566,77019922957,mKcell,mMTS,mKcell,D77,D02,2016-06-16T14:42:58+06:00,
1000000000194568,77789888810,mKcell,mMTS,mKcell,D77,D02,2016-06-16T14:46:09+06:00,
1000000000194569,77016178820,mKcell,mMTS,mKcell,D77,D02,2016-06-16T14:49:10+06:00,
1000000000194570,77001168616,mAltel,mKarTel,mAltel,D01,D07,2016-06-16T14:50:56+06:00,
1000000000194571,77007604001,mKarTel,mAltel,mAltel,,D01,2016-06-16T14:50:59+06:00,
1000000000194572,77080370037,mMTS,mAltel,mAltel,,D77,2016-06-16T14:51:18+06:00,
