NPId,Number,RecipientId,DonorId,RangeHolderId,OldRoute,NewRoute,PortDate,RowCount
1000000000355882,77019960228,mKcell,mKarTel,mKcell,D01,D02,2017-03-30T17:34:12+06:00,31
1000000000355980,77768060055,mMTS,mKarTel,mKarTel,,D77,2017-03-30T17:31:47+06:00,
1000000000355981,77078763395,mKarTel,mMTS,mMTS,,D01,2017-03-30T17:32:13+06:00,
1000000000355984,77076614692,mKarTel,mMTS,mMTS,,D01,2017-03-30T17:33:54+06:00,
1000000000355986,77076074795,mKarTel,mMTS,mMTS,,D01,2017-03-30T17:35:12+06:00,
1000000000355988,77772642621,mMTS,mKarTel,mKarTel,,D77,2017-03-30T17:39:21+06:00,
1000000000355991,77752836634,mMTS,mKcell,mKcell,,D77,2017-03-30T17:41:13+06:00,
1000000000355992,77789993716,mMTS,mKcell,mKcell,,D77,2017-03-30T17:41:54+06:00,
1000000000355993,77017990750,mKcell,mKarTel,mKcell,D01,D02,2017-03-30T17:42:16+06:00,
1000000000355995,77006005096,mKcell,mAltel,mAltel,,D02,2017-03-30T17:43:28+06:00,
1000000000355996,77010142001,mMTS,mKcell,mKcell,,D77,2017-03-30T17:43:24+06:00,
1000000000355997,77001112509,mKcell,mAltel,mAltel,,D02,2017-03-30T17:43:34+06:00,
1000000000356000,77058758755,mAltel,mKarTel,mKarTel,,D07,2017-03-30T17:45:40+06:00,
1000000000356002,77017725227,mKarTel,mKcell,mKcell,,D01,2017-03-30T17:46:45+06:00,
1000000000356003,77006005098,mKcell,mAltel,mAltel,,D02,2017-03-30T17:46:48+06:00,
1000000000356004,77718008975,mKarTel,mKcell,mKarTel,D02,D01,2017-03-30T17:47:11+06:00,
1000000000356007,77007772967,mKcell,mAltel,mAltel,,D02,2017-03-30T17:47:58+06:00,
1000000000356008,77776291324,mMTS,mKarTel,mKarTel,,D77,2017-03-30T17:49:11+06:00,
1000000000356009,77058728677,mMTS,mKarTel,mKarTel,,D77,2017-03-30T17:49:09+06:00,
1000000000356010,77006141696,mKcell,mAltel,mAltel,,D02,2017-03-30T17:49:08+06:00,
1000000000356011,77006010166,mKcell,mAltel,mAltel,,D02,2017-03-30T17:49:18+06:00,
1000000000356012,77759241516,mMTS,mKcell,mKcell,,D77,2017-03-30T17:50:37+06:00,
1000000000356013,77012218825,mMTS,mKarTel,mKcell,D01,D77,2017-03-30T17:51:06+06:00,
1000000000356014,77017013303,mKcell,mMTS,mKcell,D77,D02,2017-03-30T17:51:59+06:00,
1000000000356015,77007772086,mKcell,mAltel,mAltel,,D02,2017-03-30T17:53:13+06:00,
1000000000356016,77713605054,mKarTel,mMTS,mKarTel,D77,D01,2017-03-30T17:53:32+06:00,
1000000000356017,77789543537,mMTS,mKcell,mKcell,,D77,2017-03-30T17:54:10+06:00,
1000000000356023,77021799464,mKarTel,mKcell,mKcell,,D01,2017-03-30T17:57:43+06:00,
1000000000356024,77024002001,mMTS,mKcell,mKcell,,D77,2017-03-30T17:58:36+06:00,
1000000000356025,77029966663,mKcell,mMTS,mKcell,D77,D02,2017-03-30T17:58:36+06:00,
1000000000356027,77003750320,mMTS,mAltel,mAltel,,D77,2017-03-30T17:59:14+06:00,
