NPId,Number,RecipientId,DonorId,RangeHolderId,OldRoute,NewRoute,PortDate,RowCount
1000000000230981,77079973667,mKcell,mMTS,mMTS,,D02,2016-08-18T17:00:26+06:00,22
1000000000230983,77021105956,mMTS,mKcell,mKcell,,D77,2016-08-18T17:01:26+06:00,
1000000000230985,77019516441,mMTS,mKcell,mKcell,,D77,2016-08-18T17:04:55+06:00,
1000000000230987,77017664031,mKarTel,mAltel,mKcell,D07,D01,2016-08-18T17:09:15+06:00,
1000000000230988,77024444082,mMTS,mKcell,mKcell,,D77,2016-08-18T17:09:09+06:00,
1000000000230989,77777000074,mMTS,mKarTel,mKarTel,,D77,2016-08-18T17:12:13+06:00,
1000000000230990,77074669626,mKarTel,mMTS,mMTS,,D01,2016-08-18T17:12:08+06:00,
1000000000230991,77014620186,mKarTel,mKcell,mKcell,,D01,2016-08-18T17:12:50+06:00,
1000000000230992,77026040812,mMTS,mKcell,mKcell,,D77,2016-08-18T17:15:12+06:00,
1000000000230993,77025839990,mAltel,mKcell,mKcell,,D07,2016-08-18T17:14:37+06:00,
1000000000230995,77017555503,mMTS,mKcell,mKcell,,D77,2016-08-18T17:16:47+06:00,
1000000000230996,77015221666,mKcell,mMTS,mKcell,D77,D02,2016-08-18T17:21:07+06:00,
1000000000230997,77472543984,mKarTel,mMTS,mMTS,,D01,2016-08-18T17:19:10+06:00,
1000000000230999,77004830455,mMTS,mAltel,mAltel,,D77,2016-08-18T17:24:21+06:00,
1000000000231000,77757347561,mMTS,mKcell,mKcell,,D77,2016-08-18T17:24:39+06:00,
1000000000231001,77058260000,mKarTel,mAltel,mKarTel,D07,D01,2016-08-18T17:25:43+06:00,
1000000000231002,77018076730,mMTS,mKcell,mKcell,,D77,2016-08-18T17:26:12+06:00,
1000000000231003,77011112694,mKcell,mMTS,mKcell,D77,D02,2016-08-18T17:26:42+06:00,
1000000000231004,77019101119,mKarTel,mKcell,mKcell,,D01,2016-08-18T17:28:39+06:00,
1000000000231006,77021416815,mKcell,mMTS,mKcell,D77,D02,2016-08-18T17:28:56+06:00,
1000000000231007,77009967820,mMTS,mAltel,mAltel,,D77,2016-08-18T17:29:41+06:00,
1000000000231008,77019998210,mAltel,mKcell,mKcell,,D07,2016-08-18T17:29:55+06:00,
