NPId,Number,RecipientId,DonorId,RangeHolderId,OldRoute,NewRoute,PortDate,RowCount
1000000000300395,77017630934,mKarTel,mKcell,mKcell,,D01,2016-12-25T14:32:15+06:00,13
1000000000300398,77001951994,mMTS,mAltel,mAltel,,D77,2016-12-25T14:35:37+06:00,
1000000000300400,77002500605,mMTS,mAltel,mAltel,,D77,2016-12-25T14:37:27+06:00,
1000000000300401,77010330220,mKarTel,mKcell,mKcell,,D01,2016-12-25T14:42:20+06:00,
1000000000300402,77779992509,mAltel,mKarTel,mKarTel,,D07,2016-12-25T14:41:17+06:00,
1000000000300403,77009992921,mKarTel,mAltel,mAltel,,D01,2016-12-25T14:46:32+06:00,
1000000000300404,77771010401,mMTS,mKarTel,mKarTel,,D77,2016-12-25T14:48:03+06:00,
1000000000300405,77028880678,mAltel,mMTS,mKcell,D77,D07,2016-12-25T14:48:05+06:00,
1000000000300406,77760699993,mMTS,mKarTel,mKarTel,,D77,2016-12-25T14:49:45+06:00,
1000000000300407,77771840000,mKcell,mKarTel,mKarTel,D01,D02,2016-12-25T14:51:49+06:00,
1000000000300408,77072761913,mMTS,mKarTel,mMTS,D01,D77,2016-12-25T14:52:58+06:00,
1000000000300410,77021942648,mMTS,mKcell,mKcell,,D77,2016-12-25T14:55:50+06:00,
1000000000300411,77006005758,mKarTel,mAltel,mAltel,,D01,2016-12-25T14:59:31+06:00,
