NPId,Number,RecipientId,DonorId,RangeHolderId,OldRoute,NewRoute,PortDate,RowCount
1000000000245816,77055785054,mMTS,mKarTel,mKarTel,,D77,2016-09-15T12:35:15+06:00,14
1000000000245817,77779536915,mMTS,mKarTel,mKarTel,,D77,2016-09-15T12:50:34+06:00,
1000000000245820,77756332244,mMTS,mKcell,mKcell,,D77,2016-09-15T12:42:14+06:00,
1000000000245821,77017864385,mMTS,mKcell,mKcell,,D77,2016-09-15T12:40:26+06:00,
1000000000245825,77782801244,mKcell,mMTS,mKcell,D77,D02,2016-09-15T12:47:16+06:00,
1000000000245828,77776320100,mAltel,mKarTel,mKarTel,,D07,2016-09-15T12:49:50+06:00,
1000000000245830,77783207651,mKarTel,mKcell,mKcell,,D01,2016-09-15T12:52:16+06:00,
1000000000245831,77013399660,mKarTel,mKcell,mKcell,,D01,2016-09-15T12:54:59+06:00,
1000000000245832,77015999097,mAltel,mKcell,mKcell,,D07,2016-09-15T12:54:03+06:00,
1000000000245833,77058121620,mKarTel,mMTS,mKarTel,D77,D01,2016-09-15T12:54:11+06:00,
1000000000245834,77023667442,mAltel,mKcell,mKcell,,D07,2016-09-15T12:54:30+06:00,
1000000000245836,77751002211,mAltel,mKcell,mKcell,,D07,2016-09-15T12:55:46+06:00,
1000000000245837,77772290347,mMTS,mKarTel,mKarTel,,D77,2016-09-15T12:56:54+06:00,
1000000000245839,77776711763,mKarTel,mMTS,mKarTel,D77,D01,2016-09-15T12:59:08+06:00,
