NPId,Number,RecipientId,DonorId,RangeHolderId,OldRoute,NewRoute,PortDate,RowCount
1000000000417560,77762226996,mKarTel,mMTS,mKarTel,D77,D01,2017-07-06T14:32:48+06:00,15
1000000000417561,77022904670,mAltel,mKcell,mKcell,,D07,2017-07-06T14:33:12+06:00,
1000000000417565,77000001804,mMTS,mAltel,mAltel,,D77,2017-07-06T14:40:06+06:00,
1000000000417566,77083000975,mKcell,mAltel,mAltel,,D02,2017-07-06T14:40:55+06:00,
1000000000417567,77029673449,mKarTel,mKcell,mKcell,,D01,2017-07-06T14:41:46+06:00,
1000000000417570,77083534499,mKarTel,mMTS,mAltel,D77,D01,2017-07-06T14:43:41+06:00,
1000000000417571,77000002816,mMTS,mAltel,mAltel,,D77,2017-07-06T14:44:31+06:00,
1000000000417575,77058705613,mKcell,mKarTel,mKarTel,,D02,2017-07-06T14:49:29+06:00,
1000000000417577,77012990071,mAltel,mKcell,mKcell,,D07,2017-07-06T14:51:00+06:00,
1000000000417578,77071700028,mKcell,mMTS,mMTS,,D02,2017-07-06T14:51:51+06:00,
1000000000417579,77058407582,mMTS,mKarTel,mKarTel,,D77,2017-07-06T14:52:18+06:00,
1000000000417581,77077211398,mAltel,mMTS,mMTS,,D07,2017-07-06T14:53:57+06:00,
1000000000417583,77051703210,mKcell,mKarTel,mKarTel,,D02,2017-07-06T14:57:24+06:00,
1000000000417584,77751767579,mKcell,mMTS,mKcell,D77,D02,2017-07-06T14:57:27+06:00,
1000000000417585,77771570991,mAltel,mKarTel,mKarTel,,D07,2017-07-06T14:59:03+06:00,
