NPId,Number,RecipientId,DonorId,RangeHolderId,OldRoute,NewRoute,PortDate,RowCount
1000000000423864,77072775994,mKcell,mKarTel,mMTS,D01,D02,2017-07-18T17:34:27+06:00,32
1000000000424112,77000880428,mKcell,mAltel,mAltel,,D02,2017-07-18T17:30:46+06:00,
1000000000424113,77017744289,mKcell,mMTS,mKcell,D77,D02,2017-07-18T17:31:27+06:00,
1000000000424114,77772313187,mKcell,mMTS,mKarTel,D77,D02,2017-07-18T17:31:20+06:00,
1000000000424115,77781611161,mKarTel,mAltel,mKcell,D07,D01,2017-07-18T17:32:45+06:00,
1000000000424117,77012224142,mAltel,mKcell,mKcell,,D07,2017-07-18T17:33:58+06:00,
1000000000424119,77022221162,mKarTel,mMTS,mKcell,D77,D01,2017-07-18T17:35:15+06:00,
1000000000424120,77028888415,mKarTel,mMTS,mKcell,D77,D01,2017-07-18T17:35:26+06:00,
1000000000424121,77077999559,mKarTel,mMTS,mMTS,,D01,2017-07-18T17:35:41+06:00,
1000000000424122,77019240643,mMTS,mKcell,mKcell,,D77,2017-07-18T17:37:13+06:00,
1000000000424123,77478861486,mKarTel,mMTS,mMTS,,D01,2017-07-18T17:40:48+06:00,
1000000000424124,77073809534,mKarTel,mMTS,mMTS,,D01,2017-07-18T17:41:18+06:00,
1000000000424125,77022222243,mKarTel,mKcell,mKcell,,D01,2017-07-18T17:41:54+06:00,
1000000000424128,77078490032,mKarTel,mKcell,mMTS,D02,D01,2017-07-18T17:44:49+06:00,
1000000000424129,77019381782,mKarTel,mKcell,mKcell,,D01,2017-07-18T17:44:59+06:00,
1000000000424130,77072376886,mKcell,mMTS,mMTS,,D02,2017-07-18T17:45:07+06:00,
1000000000424132,77071318282,mKcell,mMTS,mMTS,,D02,2017-07-18T17:47:21+06:00,
1000000000424133,77028458977,mKarTel,mMTS,mKcell,D77,D01,2017-07-18T17:48:43+06:00,
1000000000424134,77782233737,mKcell,mMTS,mKcell,D77,D02,2017-07-18T17:49:08+06:00,
1000000000424135,77075212021,mKarTel,mMTS,mMTS,,D01,2017-07-18T17:50:02+06:00,
1000000000424137,77074081698,mKcell,mMTS,mMTS,,D02,2017-07-18T17:50:31+06:00,
1000000000424138,77075212031,mKarTel,mMTS,mMTS,,D01,2017-07-18T17:50:47+06:00,
1000000000424139,77472376886,mKcell,mMTS,mMTS,,D02,2017-07-18T17:51:35+06:00,
1000000000424140,77083329498,mKcell,mAltel,mAltel,,D02,2017-07-18T17:52:13+06:00,
1000000000424141,77772785115,mMTS,mKarTel,mKarTel,,D77,2017-07-18T17:52:24+06:00,
1000000000424142,77071113419,mKarTel,mMTS,mMTS,,D01,2017-07-18T17:52:15+06:00,
1000000000424143,77475254835,mKarTel,mMTS,mMTS,D77,D01,2017-07-18T17:52:56+06:00,
1000000000424145,77773387111,mMTS,mKarTel,mKarTel,,D77,2017-07-18T17:54:22+06:00,
1000000000424146,77025817738,mKcell,mMTS,mKcell,D77,D02,2017-07-18T17:55:35+06:00,
1000000000424149,77755681994,mAltel,mKcell,mKcell,,D07,2017-07-18T17:56:48+06:00,
1000000000424150,77081476947,mKarTel,mAltel,mAltel,,D01,2017-07-18T17:59:12+06:00,
1000000000424151,77017815275,mKcell,mMTS,mKcell,D77,D02,2017-07-18T17:59:18+06:00,
