NPId,Number,RecipientId,DonorId,RangeHolderId,OldRoute,NewRoute,PortDate,RowCount
1000000000278637,77012047634,mMTS,mKcell,mKcell,,D77,2016-11-13T16:00:57+06:00,14
1000000000278638,77012170077,mKarTel,mKcell,mKcell,,D01,2016-11-13T16:02:48+06:00,
1000000000278640,77018334008,mKarTel,mMTS,mKcell,D77,D01,2016-11-13T16:08:44+06:00,
1000000000278641,77077009115,mKarTel,mMTS,mMTS,,D01,2016-11-13T16:10:23+06:00,
1000000000278642,77018334009,mKarTel,mMTS,mKcell,D77,D01,2016-11-13T16:11:25+06:00,
1000000000278643,77025555744,mAltel,mKcell,mKcell,,D07,2016-11-13T16:11:40+06:00,
1000000000278644,77053018498,mMTS,mKarTel,mKarTel,,D77,2016-11-13T16:12:56+06:00,
1000000000278645,77021805616,mMTS,mKcell,mKcell,,D77,2016-11-13T16:14:32+06:00,
1000000000278646,77750282901,mAltel,mKcell,mKcell,,D07,2016-11-13T16:18:05+06:00,
1000000000278647,77474094244,mKarTel,mMTS,mMTS,,D01,2016-11-13T16:19:06+06:00,
1000000000278648,77474094249,mKarTel,mMTS,mMTS,,D01,2016-11-13T16:20:34+06:00,
1000000000278649,77475000010,mKarTel,mMTS,mMTS,,D01,2016-11-13T16:25:49+06:00,
1000000000278650,77771773626,mMTS,mKarTel,mKarTel,,D77,2016-11-13T16:27:06+06:00,
1000000000278651,77011582995,mMTS,mKcell,mKcell,,D77,2016-11-13T16:27:12+06:00,
