NPId,Number,RecipientId,DonorId,RangeHolderId,OldRoute,NewRoute,PortDate,RowCount
1000000000430340,77019890015,mKarTel,mKcell,mKcell,,D01,2017-07-31T13:00:17+06:00,28
1000000000431072,77019518158,mKcell,mKarTel,mKcell,D01,D02,2017-07-31T13:15:42+06:00,
1000000000431074,77055669000,mMTS,mKarTel,mKarTel,,D77,2017-07-31T13:17:35+06:00,
1000000000431141,77753762532,mMTS,mKcell,mKcell,,D77,2017-07-31T13:00:35+06:00,
1000000000431143,77019444485,mMTS,mKcell,mKcell,,D77,2017-07-31T13:00:57+06:00,
1000000000431145,77018832737,mAltel,mKcell,mKcell,,D07,2017-07-31T13:04:00+06:00,
1000000000431146,77071016178,mKarTel,mMTS,mMTS,,D01,2017-07-31T13:04:53+06:00,
1000000000431147,77055600585,mMTS,mKarTel,mKarTel,,D77,2017-07-31T13:06:12+06:00,
1000000000431148,77783126727,mKarTel,mKcell,mKcell,,D01,2017-07-31T13:06:37+06:00,
1000000000431149,77071410201,mAltel,mMTS,mMTS,,D07,2017-07-31T13:06:23+06:00,
1000000000431150,77759940049,mMTS,mKcell,mKcell,,D77,2017-07-31T13:07:27+06:00,
1000000000431151,77005500700,mAltel,mMTS,mAltel,D77,D07,2017-07-31T13:07:23+06:00,
1000000000431152,77001212144,mKarTel,mAltel,mAltel,,D01,2017-07-31T13:08:31+06:00,
1000000000431153,77051410201,mAltel,mMTS,mKarTel,D77,D07,2017-07-31T13:08:36+06:00,
1000000000431155,77078136666,mMTS,mKarTel,mMTS,D01,D77,2017-07-31T13:10:38+06:00,
1000000000431156,77772570148,mMTS,mKarTel,mKarTel,,D77,2017-07-31T13:10:39+06:00,
1000000000431157,77079194992,mMTS,mAltel,mMTS,D07,D77,2017-07-31T13:11:22+06:00,
1000000000431161,77753109699,mMTS,mKcell,mKcell,,D77,2017-07-31T13:16:05+06:00,
1000000000431163,77478881540,mAltel,mMTS,mMTS,,D07,2017-07-31T13:18:54+06:00,
1000000000431164,77771312552,mAltel,mKarTel,mKarTel,,D07,2017-07-31T13:19:24+06:00,
1000000000431165,77015871644,mAltel,mKcell,mKcell,,D07,2017-07-31T13:19:42+06:00,
1000000000431166,77478881530,mAltel,mMTS,mMTS,,D07,2017-07-31T13:21:01+06:00,
1000000000431169,77055771791,mAltel,mKarTel,mKarTel,,D07,2017-07-31T13:23:37+06:00,
1000000000431170,77078543630,mAltel,mMTS,mMTS,,D07,2017-07-31T13:23:36+06:00,
1000000000431171,77017403888,mMTS,mKcell,mKcell,,D77,2017-07-31T13:23:54+06:00,
1000000000431172,77017010120,mKarTel,mKcell,mKcell,,D01,2017-07-31T13:24:42+06:00,
1000000000431175,77054114332,mKarTel,mMTS,mKarTel,D77,D01,2017-07-31T13:29:09+06:00,
1000000000431176,77770777107,mMTS,mKarTel,mKarTel,,D77,2017-07-31T13:29:38+06:00,
