NPId,Number,RecipientId,DonorId,RangeHolderId,OldRoute,NewRoute,PortDate,RowCount
1000000000169153,77010270634,mKarTel,mKcell,mKcell,,D01,2016-05-06T17:11:21+06:00,168
1000000000169153,77010270638,mKarTel,mKcell,mKcell,,D01,2016-05-06T17:11:21+06:00,
1000000000169153,77010270640,mKarTel,mKcell,mKcell,,D01,2016-05-06T17:11:21+06:00,
1000000000169153,77010272380,mKarTel,mKcell,mKcell,,D01,2016-05-06T17:11:21+06:00,
1000000000169153,77010272383,mKarTel,mKcell,mKcell,,D01,2016-05-06T17:11:21+06:00,
1000000000169153,77012033531,mKarTel,mKcell,mKcell,,D01,2016-05-06T17:11:21+06:00,
1000000000169153,77012206971,mKarTel,mKcell,mKcell,,D01,2016-05-06T17:11:21+06:00,
1000000000169153,77012206972,mKarTel,mKcell,mKcell,,D01,2016-05-06T17:11:21+06:00,
1000000000169153,77012206973,mKarTel,mKcell,mKcell,,D01,2016-05-06T17:11:21+06:00,
1000000000169153,77012206975,mKarTel,mKcell,mKcell,,D01,2016-05-06T17:11:21+06:00,
1000000000169153,77012216735,mKarTel,mKcell,mKcell,,D01,2016-05-06T17:11:21+06:00,
1000000000169153,77012216736,mKarTel,mKcell,mKcell,,D01,2016-05-06T17:11:21+06:00,
1000000000169153,77012252792,mKarTel,mKcell,mKcell,,D01,2016-05-06T17:11:21+06:00,
1000000000169153,77012252793,mKarTel,mKcell,mKcell,,D01,2016-05-06T17:11:21+06:00,
1000000000169153,77012282591,mKarTel,mKcell,mKcell,,D01,2016-05-06T17:11:21+06:00,
1000000000169153,77012282593,mKarTel,mKcell,mKcell,,D01,2016-05-06T17:11:21+06:00,
1000000000169153,77012282594,mKarTel,mKcell,mKcell,,D01,2016-05-06T17:11:21+06:00,
1000000000169153,77012282596,mKarTel,mKcell,mKcell,,D01,2016-05-06T17:11:21+06:00,
1000000000169153,77015037780,mKarTel,mKcell,mKcell,,D01,2016-05-06T17:11:21+06:00,
1000000000169153,77015037808,mKarTel,mKcell,mKcell,,D01,2016-05-06T17:11:21+06:00,
1000000000169153,77015314207,mKarTel,mKcell,mKcell,,D01,2016-05-06T17:11:21+06:00,
1000000000169153,77015314214,mKarTel,mKcell,mKcell,,D01,2016-05-06T17:11:21+06:00,
1000000000169153,77015314223,mKarTel,mKcell,mKcell,,D01,2016-05-06T17:11:21+06:00,
1000000000169153,77015314235,mKarTel,mKcell,mKcell,,D01,2016-05-06T17:11:21+06:00,
1000000000169153,77015314236,mKarTel,mKcell,mKcell,,D01,2016-05-06T17:11:21+06:00,
1000000000169153,77015314241,mKarTel,mKcell,mKcell,,D01,2016-05-06T17:11:21+06:00,
1000000000169153,77017130263,mKarTel,mKcell,mKcell,,D01,2016-05-06T17:11:21+06:00,
1000000000169153,77017130264,mKarTel,mKcell,mKcell,,D01,2016-05-06T17:11:21+06:00,
1000000000169153,77017130267,mKarTel,mKcell,mKcell,,D01,2016-05-06T17:11:21+06:00,
1000000000169153,77017130268,mKarTel,mKcell,mKcell,,D01,2016-05-06T17:11:21+06:00,
1000000000169153,77017130269,mKarTel,mKcell,mKcell,,D01,2016-05-06T17:11:21+06:00,
1000000000169153,77017130271,mKarTel,mKcell,mKcell,,D01,2016-05-06T17:11:21+06:00,
1000000000169153,77017130273,mKarTel,mKcell,mKcell,,D01,2016-05-06T17:11:21+06:00,
1000000000169153,77017130276,mKarTel,mKcell,mKcell,,D01,2016-05-06T17:11:21+06:00,
1000000000169153,77017130278,mKarTel,mKcell,mKcell,,D01,2016-05-06T17:11:21+06:00,
1000000000169153,77017130279,mKarTel,mKcell,mKcell,,D01,2016-05-06T17:11:21+06:00,
1000000000169153,77017130283,mKarTel,mKcell,mKcell,,D01,2016-05-06T17:11:21+06:00,
1000000000169161,77017130290,mKarTel,mKcell,mKcell,,D01,2016-05-06T17:06:46+06:00,
1000000000169161,77017130293,mKarTel,mKcell,mKcell,,D01,2016-05-06T17:06:46+06:00,
1000000000169161,77017130295,mKarTel,mKcell,mKcell,,D01,2016-05-06T17:06:46+06:00,
1000000000169161,77017130296,mKarTel,mKcell,mKcell,,D01,2016-05-06T17:06:46+06:00,
1000000000169161,77017130297,mKarTel,mKcell,mKcell,,D01,2016-05-06T17:06:46+06:00,
1000000000169161,77017130298,mKarTel,mKcell,mKcell,,D01,2016-05-06T17:06:46+06:00,
1000000000169161,77017130316,mKarTel,mKcell,mKcell,,D01,2016-05-06T17:06:46+06:00,
1000000000169161,77017130319,mKarTel,mKcell,mKcell,,D01,2016-05-06T17:06:46+06:00,
1000000000169161,77017130321,mKarTel,mKcell,mKcell,,D01,2016-05-06T17:06:46+06:00,
1000000000169161,77017130324,mKarTel,mKcell,mKcell,,D01,2016-05-06T17:06:46+06:00,
1000000000169161,77017130325,mKarTel,mKcell,mKcell,,D01,2016-05-06T17:06:46+06:00,
1000000000169161,77017130335,mKarTel,mKcell,mKcell,,D01,2016-05-06T17:06:46+06:00,
1000000000169161,77017133038,mKarTel,mKcell,mKcell,,D01,2016-05-06T17:06:46+06:00,
1000000000169161,77017133041,mKarTel,mKcell,mKcell,,D01,2016-05-06T17:06:46+06:00,
1000000000169161,77017133057,mKarTel,mKcell,mKcell,,D01,2016-05-06T17:06:46+06:00,
1000000000169161,77017133059,mKarTel,mKcell,mKcell,,D01,2016-05-06T17:06:46+06:00,
1000000000169161,77017133061,mKarTel,mKcell,mKcell,,D01,2016-05-06T17:06:46+06:00,
1000000000169161,77017133063,mKarTel,mKcell,mKcell,,D01,2016-05-06T17:06:46+06:00,
1000000000169161,77017133064,mKarTel,mKcell,mKcell,,D01,2016-05-06T17:06:46+06:00,
1000000000169161,77017133068,mKarTel,mKcell,mKcell,,D01,2016-05-06T17:06:46+06:00,
1000000000169161,77017133072,mKarTel,mKcell,mKcell,,D01,2016-05-06T17:06:46+06:00,
1000000000169161,77017133074,mKarTel,mKcell,mKcell,,D01,2016-05-06T17:06:46+06:00,
1000000000169161,77017613730,mKarTel,mKcell,mKcell,,D01,2016-05-06T17:06:46+06:00,
1000000000169161,77017613731,mKarTel,mKcell,mKcell,,D01,2016-05-06T17:06:46+06:00,
1000000000169161,77017613732,mKarTel,mKcell,mKcell,,D01,2016-05-06T17:06:46+06:00,
1000000000169161,77017613733,mKarTel,mKcell,mKcell,,D01,2016-05-06T17:06:46+06:00,
1000000000169161,77017613735,mKarTel,mKcell,mKcell,,D01,2016-05-06T17:06:46+06:00,
1000000000169161,77017613736,mKarTel,mKcell,mKcell,,D01,2016-05-06T17:06:46+06:00,
1000000000169161,77017613738,mKarTel,mKcell,mKcell,,D01,2016-05-06T17:06:46+06:00,
1000000000169161,77017613739,mKarTel,mKcell,mKcell,,D01,2016-05-06T17:06:46+06:00,
1000000000169161,77017613740,mKarTel,mKcell,mKcell,,D01,2016-05-06T17:06:46+06:00,
1000000000169161,77017613741,mKarTel,mKcell,mKcell,,D01,2016-05-06T17:06:46+06:00,
1000000000169161,77017613742,mKarTel,mKcell,mKcell,,D01,2016-05-06T17:06:46+06:00,
1000000000169161,77017613743,mKarTel,mKcell,mKcell,,D01,2016-05-06T17:06:46+06:00,
1000000000169161,77017614792,mKarTel,mKcell,mKcell,,D01,2016-05-06T17:06:46+06:00,
1000000000169161,77017648742,mKarTel,mKcell,mKcell,,D01,2016-05-06T17:06:46+06:00,
1000000000169161,77017860530,mKarTel,mKcell,mKcell,,D01,2016-05-06T17:06:46+06:00,
1000000000169177,77010270635,mKarTel,mKcell,mKcell,,D01,2016-05-06T17:03:31+06:00,
1000000000169177,77010270637,mKarTel,mKcell,mKcell,,D01,2016-05-06T17:03:31+06:00,
1000000000169177,77010270639,mKarTel,mKcell,mKcell,,D01,2016-05-06T17:03:31+06:00,
1000000000169177,77010270641,mKarTel,mKcell,mKcell,,D01,2016-05-06T17:03:31+06:00,
1000000000169177,77010270642,mKarTel,mKcell,mKcell,,D01,2016-05-06T17:03:31+06:00,
1000000000169177,77010270643,mKarTel,mKcell,mKcell,,D01,2016-05-06T17:03:31+06:00,
1000000000169177,77010270644,mKarTel,mKcell,mKcell,,D01,2016-05-06T17:03:31+06:00,
1000000000169177,77010270645,mKarTel,mKcell,mKcell,,D01,2016-05-06T17:03:31+06:00,
1000000000169177,77010270646,mKarTel,mKcell,mKcell,,D01,2016-05-06T17:03:31+06:00,
1000000000169177,77010270647,mKarTel,mKcell,mKcell,,D01,2016-05-06T17:03:31+06:00,
1000000000169177,77010270648,mKarTel,mKcell,mKcell,,D01,2016-05-06T17:03:31+06:00,
1000000000169177,77010272378,mKarTel,mKcell,mKcell,,D01,2016-05-06T17:03:31+06:00,
1000000000169177,77010272379,mKarTel,mKcell,mKcell,,D01,2016-05-06T17:03:31+06:00,
1000000000169177,77010272381,mKarTel,mKcell,mKcell,,D01,2016-05-06T17:03:31+06:00,
1000000000169177,77010272382,mKarTel,mKcell,mKcell,,D01,2016-05-06T17:03:31+06:00,
1000000000169177,77010272384,mKarTel,mKcell,mKcell,,D01,2016-05-06T17:03:31+06:00,
1000000000169177,77010272385,mKarTel,mKcell,mKcell,,D01,2016-05-06T17:03:31+06:00,
1000000000169177,77010272386,mKarTel,mKcell,mKcell,,D01,2016-05-06T17:03:31+06:00,
1000000000169177,77010272387,mKarTel,mKcell,mKcell,,D01,2016-05-06T17:03:31+06:00,
1000000000169177,77015314211,mKarTel,mKcell,mKcell,,D01,2016-05-06T17:03:31+06:00,
1000000000169177,77015314239,mKarTel,mKcell,mKcell,,D01,2016-05-06T17:03:31+06:00,
1000000000169177,77017860531,mKarTel,mKcell,mKcell,,D01,2016-05-06T17:03:31+06:00,
1000000000169177,77017869069,mKarTel,mKcell,mKcell,,D01,2016-05-06T17:03:31+06:00,
1000000000169177,77017873454,mKarTel,mKcell,mKcell,,D01,2016-05-06T17:03:31+06:00,
1000000000169177,77017873455,mKarTel,mKcell,mKcell,,D01,2016-05-06T17:03:31+06:00,
1000000000169177,77017873456,mKarTel,mKcell,mKcell,,D01,2016-05-06T17:03:31+06:00,
1000000000169177,77017873457,mKarTel,mKcell,mKcell,,D01,2016-05-06T17:03:31+06:00,
1000000000169177,77017873458,mKarTel,mKcell,mKcell,,D01,2016-05-06T17:03:31+06:00,
1000000000169177,77017873459,mKarTel,mKcell,mKcell,,D01,2016-05-06T17:03:31+06:00,
1000000000169177,77017896179,mKarTel,mKcell,mKcell,,D01,2016-05-06T17:03:31+06:00,
1000000000169177,77019532785,mKarTel,mKcell,mKcell,,D01,2016-05-06T17:03:31+06:00,
1000000000169177,77019532786,mKarTel,mKcell,mKcell,,D01,2016-05-06T17:03:31+06:00,
1000000000169177,77019532859,mKarTel,mKcell,mKcell,,D01,2016-05-06T17:03:31+06:00,
1000000000169177,77019532891,mKarTel,mKcell,mKcell,,D01,2016-05-06T17:03:31+06:00,
1000000000169177,77019532893,mKarTel,mKcell,mKcell,,D01,2016-05-06T17:03:31+06:00,
1000000000169177,77019532896,mKarTel,mKcell,mKcell,,D01,2016-05-06T17:03:31+06:00,
1000000000169177,77019533221,mKarTel,mKcell,mKcell,,D01,2016-05-06T17:03:31+06:00,
1000000000169177,77019857163,mKarTel,mKcell,mKcell,,D01,2016-05-06T17:03:31+06:00,
1000000000169177,77019857164,mKarTel,mKcell,mKcell,,D01,2016-05-06T17:03:31+06:00,
1000000000169177,77019857174,mKarTel,mKcell,mKcell,,D01,2016-05-06T17:03:31+06:00,
1000000000169177,77019857176,mKarTel,mKcell,mKcell,,D01,2016-05-06T17:03:31+06:00,
1000000000169177,77019857182,mKarTel,mKcell,mKcell,,D01,2016-05-06T17:03:31+06:00,
1000000000169177,77019857209,mKarTel,mKcell,mKcell,,D01,2016-05-06T17:03:31+06:00,
1000000000169177,77019857217,mKarTel,mKcell,mKcell,,D01,2016-05-06T17:03:31+06:00,
1000000000169212,77017141410,mKarTel,mKcell,mKcell,,D01,2016-05-06T17:13:34+06:00,
1000000000169235,77012372233,mMTS,mKcell,mKcell,,D77,2016-05-06T17:00:01+06:00,
1000000000169236,77073801436,mKarTel,mMTS,mMTS,,D01,2016-05-06T17:01:01+06:00,
1000000000169238,77021272717,mMTS,mKcell,mKcell,,D77,2016-05-06T17:03:07+06:00,
1000000000169239,77016351831,mMTS,mKcell,mKcell,,D77,2016-05-06T17:05:51+06:00,
1000000000169240,77778007008,mKarTel,mAltel,mKarTel,D07,D01,2016-05-06T17:03:57+06:00,
1000000000169241,77772417959,mMTS,mKarTel,mKarTel,,D77,2016-05-06T17:04:16+06:00,
1000000000169243,77009908880,mKarTel,mAltel,mAltel,,D01,2016-05-06T17:05:01+06:00,
1000000000169244,77005184506,mKarTel,mAltel,mAltel,,D01,2016-05-06T17:05:21+06:00,
1000000000169246,77026876343,mKcell,mAltel,mKcell,D07,D02,2016-05-06T17:08:53+06:00,
1000000000169247,77759876782,mMTS,mKcell,mKcell,,D77,2016-05-06T17:08:48+06:00,
1000000000169248,77058045983,mKarTel,mKcell,mKarTel,D02,D01,2016-05-06T17:09:04+06:00,
1000000000169249,77017854441,mMTS,mKcell,mKcell,,D77,2016-05-06T17:08:47+06:00,
1000000000169250,77089061947,mKarTel,mAltel,mAltel,,D01,2016-05-06T17:08:08+06:00,
1000000000169252,77771155570,mKarTel,mAltel,mKarTel,D07,D01,2016-05-06T17:08:53+06:00,
1000000000169253,77476476211,mKarTel,mMTS,mMTS,,D01,2016-05-06T17:09:21+06:00,
1000000000169253,77476476212,mKarTel,mMTS,mMTS,,D01,2016-05-06T17:09:21+06:00,
1000000000169253,77476476213,mKarTel,mMTS,mMTS,,D01,2016-05-06T17:09:21+06:00,
1000000000169253,77476476214,mKarTel,mMTS,mMTS,,D01,2016-05-06T17:09:21+06:00,
1000000000169253,77476476215,mKarTel,mMTS,mMTS,,D01,2016-05-06T17:09:21+06:00,
1000000000169253,77476476217,mKarTel,mMTS,mMTS,,D01,2016-05-06T17:09:21+06:00,
1000000000169253,77478460633,mKarTel,mMTS,mMTS,,D01,2016-05-06T17:09:21+06:00,
1000000000169254,77789342105,mAltel,mKcell,mKcell,,D07,2016-05-06T17:11:18+06:00,
1000000000169255,77776738997,mKarTel,mAltel,mKarTel,D07,D01,2016-05-06T17:10:13+06:00,
1000000000169257,77081041040,mMTS,mAltel,mAltel,,D77,2016-05-06T17:12:37+06:00,
1000000000169258,77029367770,mKarTel,mKcell,mKcell,,D01,2016-05-06T17:14:32+06:00,
1000000000169259,77759706043,mMTS,mKcell,mKcell,,D77,2016-05-06T17:15:07+06:00,
1000000000169260,77072073353,mKarTel,mMTS,mMTS,,D01,2016-05-06T17:14:44+06:00,
1000000000169261,77475625858,mMTS,mAltel,mMTS,D07,D77,2016-05-06T17:14:33+06:00,
1000000000169262,77083133139,mKarTel,mAltel,mAltel,,D01,2016-05-06T17:16:08+06:00,
1000000000169264,77017718810,mKarTel,mKcell,mKcell,,D01,2016-05-06T17:18:42+06:00,
1000000000169265,77052180605,mMTS,mKarTel,mKarTel,,D77,2016-05-06T17:17:20+06:00,
1000000000169266,77018482414,mMTS,mKcell,mKcell,,D77,2016-05-06T17:18:26+06:00,
1000000000169267,77028380361,mMTS,mKcell,mKcell,,D77,2016-05-06T17:19:57+06:00,
1000000000169268,77089818050,mKarTel,mAltel,mAltel,,D01,2016-05-06T17:20:10+06:00,
1000000000169269,77783199931,mMTS,mKcell,mKcell,,D77,2016-05-06T17:20:47+06:00,
1000000000169271,77018881500,mKcell,mMTS,mKcell,D77,D02,2016-05-06T17:22:19+06:00,
1000000000169272,77712618585,mKcell,mKarTel,mKarTel,,D02,2016-05-06T17:22:44+06:00,
1000000000169273,77086988448,mMTS,mAltel,mAltel,,D77,2016-05-06T17:22:00+06:00,
1000000000169274,77079135599,mKarTel,mMTS,mMTS,,D01,2016-05-06T17:23:05+06:00,
1000000000169276,77089418968,mMTS,mAltel,mAltel,,D77,2016-05-06T17:24:13+06:00,
1000000000169277,77080477717,mKarTel,mAltel,mAltel,,D01,2016-05-06T17:25:14+06:00,
1000000000169278,77017771500,mKcell,mMTS,mKcell,D77,D02,2016-05-06T17:26:09+06:00,
1000000000169279,77007647645,mKarTel,mAltel,mAltel,,D01,2016-05-06T17:26:17+06:00,
1000000000169280,77016270616,mMTS,mKcell,mKcell,,D77,2016-05-06T17:27:20+06:00,
1000000000169281,77759001077,mMTS,mKcell,mKcell,,D77,2016-05-06T17:27:20+06:00,
1000000000169283,77081060950,mKcell,mAltel,mAltel,,D02,2016-05-06T17:28:17+06:00,
1000000000169284,77080447888,mKarTel,mAltel,mAltel,,D01,2016-05-06T17:28:34+06:00,
1000000000169285,77088889343,mMTS,mAltel,mAltel,,D77,2016-05-06T17:29:26+06:00,
1000000000169286,77080488818,mKarTel,mAltel,mAltel,,D01,2016-05-06T17:29:42+06:00,
