NPId,Number,RecipientId,DonorId,RangeHolderId,OldRoute,NewRoute,PortDate,RowCount
1000000000246526,77022184133,mKcell,mKarTel,mKcell,D01,D02,2016-09-16T15:32:09+06:00,27
1000000000246544,77477536734,mKcell,mMTS,mMTS,,D02,2016-09-16T15:30:38+06:00,
1000000000246545,77018692901,mMTS,mKcell,mKcell,,D77,2016-09-16T15:30:34+06:00,
1000000000246546,77083003321,mAltel,mMTS,mAltel,D77,D07,2016-09-16T15:31:06+06:00,
1000000000246547,77017571090,mKcell,mKarTel,mKcell,D01,D02,2016-09-16T15:48:26+06:00,
1000000000246548,77473627292,mKcell,mMTS,mMTS,,D02,2016-09-16T15:37:01+06:00,
1000000000246550,77083003317,mAltel,mMTS,mAltel,D77,D07,2016-09-16T15:36:03+06:00,
1000000000246551,77001111159,mKarTel,mAltel,mAltel,,D01,2016-09-16T15:37:03+06:00,
1000000000246552,77783957148,mMTS,mKcell,mKcell,,D77,2016-09-16T15:38:07+06:00,
1000000000246553,77075353506,mAltel,mMTS,mMTS,,D07,2016-09-16T15:37:41+06:00,
1000000000246554,77079090502,mKcell,mMTS,mMTS,,D02,2016-09-16T15:38:15+06:00,
1000000000246555,77089601602,mKcell,mAltel,mAltel,,D02,2016-09-16T15:40:18+06:00,
1000000000246557,77078296536,mKarTel,mMTS,mMTS,,D01,2016-09-16T15:41:46+06:00,
1000000000246558,77078296534,mKarTel,mMTS,mMTS,,D01,2016-09-16T15:42:35+06:00,
1000000000246559,77759069596,mMTS,mKcell,mKcell,,D77,2016-09-16T15:42:38+06:00,
1000000000246560,77478227730,mKarTel,mMTS,mMTS,,D01,2016-09-16T15:43:23+06:00,
1000000000246561,77003350535,mKcell,mAltel,mAltel,,D02,2016-09-16T15:44:24+06:00,
1000000000246562,77013210680,mMTS,mAltel,mKcell,D07,D77,2016-09-16T15:44:16+06:00,
1000000000246563,77757041904,mKcell,mMTS,mKcell,D77,D02,2016-09-16T15:47:10+06:00,
1000000000246564,77072525208,mAltel,mMTS,mMTS,,D07,2016-09-16T15:48:26+06:00,
1000000000246565,77028383077,mMTS,mKcell,mKcell,,D77,2016-09-16T15:48:52+06:00,
1000000000246566,77770060622,mMTS,mKarTel,mKarTel,,D77,2016-09-16T15:50:17+06:00,
1000000000246567,77751198373,mAltel,mKcell,mKcell,,D07,2016-09-16T15:52:40+06:00,
1000000000246568,77777862002,mKarTel,mMTS,mKarTel,D77,D01,2016-09-16T15:54:18+06:00,
1000000000246569,77087668685,mMTS,mAltel,mAltel,,D77,2016-09-16T15:54:03+06:00,
1000000000246570,77788549797,mMTS,mKcell,mKcell,,D77,2016-09-16T15:54:43+06:00,
1000000000246571,77053836946,mKarTel,mMTS,mKarTel,D77,D01,2016-09-16T15:55:59+06:00,
