NPId,Number,RecipientId,DonorId,RangeHolderId,OldRoute,NewRoute,PortDate,RowCount
1000000000298575,77005000173,mKcell,mAltel,mAltel,,D02,2016-12-21T20:41:29+06:00,11
1000000000298576,77005000798,mKcell,mAltel,mAltel,,D02,2016-12-21T20:43:25+06:00,
1000000000298577,77074356161,mMTS,mKcell,mMTS,D02,D77,2016-12-21T20:50:05+06:00,
1000000000298578,77785186092,mMTS,mKcell,mKcell,,D77,2016-12-21T20:50:05+06:00,
1000000000298579,77002000430,mKcell,mAltel,mAltel,,D02,2016-12-21T20:49:19+06:00,
1000000000298580,77002000640,mKcell,mAltel,mAltel,,D02,2016-12-21T20:54:34+06:00,
1000000000298581,77018726005,mMTS,mKcell,mKcell,,D77,2016-12-21T20:53:31+06:00,
1000000000298582,77005559626,mKcell,mAltel,mAltel,,D02,2016-12-21T20:57:13+06:00,
1000000000298583,77004000560,mKcell,mAltel,mAltel,,D02,2016-12-21T20:57:28+06:00,
1000000000298584,77005551484,mKcell,mAltel,mAltel,,D02,2016-12-21T20:57:41+06:00,
1000000000298585,77785188371,mMTS,mKcell,mKcell,,D77,2016-12-21T20:57:44+06:00,
