NPId,Number,RecipientId,DonorId,RangeHolderId,OldRoute,NewRoute,PortDate,RowCount
1000000000180363,77012885533,mMTS,mKcell,mKcell,,D77,2016-05-25T09:25:00+06:00,6
1000000000180414,77012040054,mKarTel,mKcell,mKcell,,D01,2016-05-25T09:12:05+06:00,
1000000000180416,77717071888,mKcell,mKarTel,mKarTel,,D02,2016-05-25T09:24:08+06:00,
1000000000180416,77773116601,mKcell,mKarTel,mKarTel,,D02,2016-05-25T09:24:08+06:00,
1000000000180420,77077451161,mKarTel,mMTS,mMTS,,D01,2016-05-25T09:19:56+06:00,
1000000000180421,77015943242,mMTS,mKcell,mKcell,,D77,2016-05-25T09:22:37+06:00,
