NPId,Number,RecipientId,DonorId,RangeHolderId,OldRoute,NewRoute,PortDate,RowCount
1000000000231650,77058078312,mMTS,mKarTel,mKarTel,,D77,2016-08-20T12:32:17+06:00,14
1000000000231651,77001447547,mMTS,mAltel,mAltel,,D77,2016-08-20T12:31:20+06:00,
1000000000231652,77053792016,mKarTel,mMTS,mKarTel,D77,D01,2016-08-20T12:33:00+06:00,
1000000000231653,77079277818,mAltel,mMTS,mMTS,,D07,2016-08-20T12:33:17+06:00,
1000000000231654,77479003906,mKcell,mMTS,mMTS,,D02,2016-08-20T12:33:52+06:00,
1000000000231655,77787588048,mMTS,mKcell,mKcell,,D77,2016-08-20T12:33:35+06:00,
1000000000231656,77083217861,mMTS,mKcell,mAltel,D02,D77,2016-08-20T12:35:54+06:00,
1000000000231657,77079564400,mKarTel,mMTS,mMTS,,D01,2016-08-20T12:38:45+06:00,
1000000000231659,77021213585,mAltel,mKcell,mKcell,,D07,2016-08-20T12:44:10+06:00,
1000000000231660,77789116666,mKcell,mAltel,mKcell,D07,D02,2016-08-20T12:48:31+06:00,
1000000000231663,77018548076,mAltel,mKcell,mKcell,,D07,2016-08-20T12:48:47+06:00,
1000000000231664,77471080828,mAltel,mMTS,mMTS,,D07,2016-08-20T12:50:15+06:00,
1000000000231665,77471341144,mMTS,mAltel,mMTS,D07,D77,2016-08-20T12:50:40+06:00,
1000000000231666,77017489835,mMTS,mKcell,mKcell,,D77,2016-08-20T12:53:40+06:00,
