NPId,Number,RecipientId,DonorId,RangeHolderId,OldRoute,NewRoute,PortDate,RowCount
1000000000284751,77756178888,mKcell,mMTS,mKcell,D77,D02,2016-11-26T17:00:29+06:00,18
1000000000284754,77077101114,mKarTel,mMTS,mMTS,,D01,2016-11-26T17:01:15+06:00,
1000000000284755,77752861045,mAltel,mKcell,mKcell,,D07,2016-11-26T17:04:03+06:00,
1000000000284756,77014224280,mAltel,mKcell,mKcell,,D07,2016-11-26T17:05:40+06:00,
1000000000284757,77015206802,mMTS,mKcell,mKcell,,D77,2016-11-26T17:07:44+06:00,
1000000000284758,77012179932,mMTS,mKcell,mKcell,,D77,2016-11-26T17:07:44+06:00,
1000000000284759,77077526492,mKcell,mMTS,mMTS,,D02,2016-11-26T17:08:07+06:00,
1000000000284761,77014719092,mMTS,mKcell,mKcell,,D77,2016-11-26T17:12:08+06:00,
1000000000284762,77021663604,mKarTel,mMTS,mKcell,D77,D01,2016-11-26T17:12:41+06:00,
1000000000284763,77017728548,mAltel,mKcell,mKcell,,D07,2016-11-26T17:13:57+06:00,
1000000000284764,77016152578,mMTS,mKcell,mKcell,,D77,2016-11-26T17:14:28+06:00,
1000000000284765,77073377139,mKcell,mMTS,mMTS,,D02,2016-11-26T17:14:54+06:00,
1000000000284767,77071077487,mAltel,mMTS,mMTS,,D07,2016-11-26T17:16:57+06:00,
1000000000284768,77000886006,mMTS,mAltel,mAltel,,D77,2016-11-26T17:17:32+06:00,
1000000000284769,77474117478,mAltel,mMTS,mMTS,,D07,2016-11-26T17:18:04+06:00,
1000000000284771,77002402189,mMTS,mAltel,mAltel,,D77,2016-11-26T17:22:33+06:00,
1000000000284773,77775607171,mMTS,mKarTel,mKarTel,,D77,2016-11-26T17:27:58+06:00,
1000000000284774,77472706600,mAltel,mMTS,mMTS,,D07,2016-11-26T17:29:31+06:00,
