NPId,Number,RecipientId,DonorId,RangeHolderId,OldRoute,NewRoute,PortDate,RowCount
1000000000199507,77074553952,mKcell,mMTS,mMTS,,D02,2016-06-25T10:30:41+06:00,18
1000000000199509,77023359587,mMTS,mKcell,mKcell,,D77,2016-06-25T10:30:51+06:00,
1000000000199510,77071122265,mKcell,mMTS,mMTS,,D02,2016-06-25T10:32:12+06:00,
1000000000199511,77013880774,mKcell,mMTS,mKcell,D77,D02,2016-06-25T10:35:11+06:00,
1000000000199515,77474869826,mKcell,mMTS,mMTS,,D02,2016-06-25T10:40:52+06:00,
1000000000199516,77024485299,mMTS,mKcell,mKcell,,D77,2016-06-25T10:42:28+06:00,
1000000000199517,77022139070,mMTS,mKcell,mKcell,,D77,2016-06-25T10:42:27+06:00,
1000000000199518,77056008003,mKarTel,mMTS,mKarTel,D77,D01,2016-06-25T10:46:32+06:00,
1000000000199519,77018188120,mMTS,mKcell,mKcell,,D77,2016-06-25T10:47:28+06:00,
1000000000199520,77014171377,mMTS,mAltel,mKcell,D07,D77,2016-06-25T10:47:10+06:00,
1000000000199521,77717778811,mKcell,mKarTel,mKarTel,,D02,2016-06-25T10:48:16+06:00,
1000000000199522,77471993366,mKcell,mMTS,mMTS,,D02,2016-06-25T10:49:24+06:00,
1000000000199523,77012138859,mKarTel,mKcell,mKcell,,D01,2016-06-25T10:50:19+06:00,
1000000000199524,77026407111,mMTS,mKcell,mKcell,,D77,2016-06-25T10:51:40+06:00,
1000000000199525,77051881745,mKarTel,mAltel,mKarTel,D07,D01,2016-06-25T10:51:49+06:00,
1000000000199526,77052963650,mMTS,mKarTel,mKarTel,,D77,2016-06-25T10:52:31+06:00,
1000000000199527,77018353133,mKcell,mMTS,mKcell,D77,D02,2016-06-25T10:54:24+06:00,
1000000000199530,77000001415,mKcell,mAltel,mAltel,,D02,2016-06-25T10:57:17+06:00,
