NPId,Number,RecipientId,DonorId,RangeHolderId,OldRoute,NewRoute,PortDate,RowCount
1000000000317464,77000981313,mMTS,mAltel,mAltel,,D77,2017-01-27T13:00:59+06:00,22
1000000000317465,77029557569,mMTS,mKcell,mKcell,,D77,2017-01-27T13:02:06+06:00,
1000000000317466,77473203135,mAltel,mMTS,mMTS,,D07,2017-01-27T13:03:24+06:00,
1000000000317468,77077378816,mAltel,mMTS,mMTS,,D07,2017-01-27T13:04:55+06:00,
1000000000317470,77710299044,mKarTel,mKcell,mKarTel,D02,D01,2017-01-27T13:08:28+06:00,
1000000000317471,77016059595,mKarTel,mKcell,mKcell,,D01,2017-01-27T13:09:12+06:00,
1000000000317472,77770666888,mAltel,mKcell,mKarTel,D02,D07,2017-01-27T13:11:01+06:00,
1000000000317475,77059190909,mAltel,mKarTel,mKarTel,,D07,2017-01-27T13:12:46+06:00,
1000000000317476,77024973214,mAltel,mKcell,mKcell,,D07,2017-01-27T13:13:03+06:00,
1000000000317477,77072800864,mKarTel,mMTS,mMTS,,D01,2017-01-27T13:13:11+06:00,
1000000000317478,77025431213,mKcell,mMTS,mKcell,D77,D02,2017-01-27T13:15:59+06:00,
1000000000317479,77771166659,mMTS,mKarTel,mKarTel,,D77,2017-01-27T13:16:45+06:00,
1000000000317480,77015120563,mMTS,mKcell,mKcell,,D77,2017-01-27T13:18:50+06:00,
1000000000317481,77755338877,mMTS,mKcell,mKcell,D02,D77,2017-01-27T13:18:50+06:00,
1000000000317484,77017980258,mAltel,mKcell,mKcell,,D07,2017-01-27T13:21:38+06:00,
1000000000317485,77756407017,mAltel,mKcell,mKcell,,D07,2017-01-27T13:21:50+06:00,
1000000000317486,77071531505,mAltel,mMTS,mMTS,,D07,2017-01-27T13:22:15+06:00,
1000000000317487,77759649282,mKcell,mMTS,mKcell,D77,D02,2017-01-27T13:23:07+06:00,
1000000000317489,77078072828,mKcell,mMTS,mMTS,,D02,2017-01-27T13:24:53+06:00,
1000000000317490,77004412340,mMTS,mAltel,mAltel,,D77,2017-01-27T13:25:36+06:00,
1000000000317491,77029016736,mMTS,mKcell,mKcell,,D77,2017-01-27T13:29:25+06:00,
1000000000317492,77754639972,mMTS,mKcell,mKcell,,D77,2017-01-27T13:29:29+06:00,
