NPId,Number,RecipientId,DonorId,RangeHolderId,OldRoute,NewRoute,PortDate,RowCount
1000000000175526,77017899063,mMTS,mAltel,mKcell,D07,D77,2016-05-16T20:32:02+06:00,8
1000000000175527,77019528771,mKcell,mMTS,mKcell,D77,D02,2016-05-16T20:36:15+06:00,
1000000000175528,77083301099,mMTS,mAltel,mAltel,,D77,2016-05-16T20:37:09+06:00,
1000000000175529,77073173434,mMTS,mAltel,mMTS,D07,D77,2016-05-16T20:38:03+06:00,
1000000000175530,77024208106,mAltel,mKcell,mKcell,,D07,2016-05-16T20:41:01+06:00,
1000000000175534,77777770396,mKarTel,mAltel,mKarTel,D07,D01,2016-05-16T20:53:21+06:00,
1000000000175535,77787398888,mAltel,mKcell,mKcell,,D07,2016-05-16T20:53:45+06:00,
1000000000175536,77718579997,mKarTel,mAltel,mKarTel,D07,D01,2016-05-16T20:59:38+06:00,
