NPId,Number,RecipientId,DonorId,RangeHolderId,OldRoute,NewRoute,PortDate,RowCount
1000000000438849,77077127377,mKcell,mMTS,mMTS,,D02,2017-08-12T13:00:54+06:00,21
1000000000438850,77769511888,mMTS,mKarTel,mKarTel,,D77,2017-08-12T13:01:51+06:00,
1000000000438851,77000909941,mKcell,mAltel,mAltel,,D02,2017-08-12T13:02:07+06:00,
1000000000438852,77471557080,mAltel,mMTS,mMTS,,D07,2017-08-12T13:03:14+06:00,
1000000000438853,77786552677,mMTS,mKcell,mKcell,,D77,2017-08-12T13:03:21+06:00,
1000000000438854,77075842629,mKarTel,mMTS,mMTS,,D01,2017-08-12T13:05:29+06:00,
1000000000438855,77000808851,mKcell,mAltel,mAltel,,D02,2017-08-12T13:06:36+06:00,
1000000000438859,77476257694,mAltel,mMTS,mMTS,,D07,2017-08-12T13:10:15+06:00,
1000000000438861,77013797516,mKarTel,mKcell,mKcell,,D01,2017-08-12T13:12:16+06:00,
1000000000438862,77051452754,mMTS,mKarTel,mKarTel,,D77,2017-08-12T13:14:44+06:00,
1000000000438863,77022069455,mMTS,mKcell,mKcell,,D77,2017-08-12T13:14:36+06:00,
1000000000438864,77016246362,mKarTel,mKcell,mKcell,,D01,2017-08-12T13:15:09+06:00,
1000000000438865,77000909692,mKcell,mAltel,mAltel,,D02,2017-08-12T13:15:38+06:00,
1000000000438867,77024282010,mAltel,mKcell,mKcell,,D07,2017-08-12T13:18:37+06:00,
1000000000438868,77715599055,mKcell,mKarTel,mKarTel,,D02,2017-08-12T13:19:58+06:00,
1000000000438870,77081601215,mMTS,mAltel,mAltel,,D77,2017-08-12T13:20:45+06:00,
1000000000438871,77715586977,mKarTel,mKcell,mKarTel,D02,D01,2017-08-12T13:23:43+06:00,
1000000000438872,77773023737,mKcell,mKarTel,mKarTel,,D02,2017-08-12T13:25:37+06:00,
1000000000438873,77471511112,mKarTel,mMTS,mMTS,,D01,2017-08-12T13:25:30+06:00,
1000000000438874,77071466305,mMTS,mKarTel,mMTS,D01,D77,2017-08-12T13:28:46+06:00,
1000000000438875,77758571758,mAltel,mKcell,mKcell,,D07,2017-08-12T13:29:37+06:00,
