NPId,Number,RecipientId,DonorId,RangeHolderId,OldRoute,NewRoute,PortDate,RowCount
1000000000199532,77780008979,mKarTel,mKcell,mKcell,,D01,2016-06-25T11:04:42+06:00,8
1000000000199533,77058890001,mMTS,mKarTel,mKarTel,,D77,2016-06-25T11:07:03+06:00,
1000000000199534,77017555389,mKarTel,mKcell,mKcell,,D01,2016-06-25T11:09:55+06:00,
1000000000199536,77077222027,mKcell,mMTS,mMTS,,D02,2016-06-25T11:14:02+06:00,
1000000000199538,77029411678,mMTS,mKcell,mKcell,,D77,2016-06-25T11:19:50+06:00,
1000000000199542,77007452004,mKarTel,mAltel,mAltel,,D01,2016-06-25T11:24:20+06:00,
1000000000199543,77005745766,mMTS,mAltel,mAltel,,D77,2016-06-25T11:25:43+06:00,
1000000000199544,77087608008,mKcell,mAltel,mAltel,,D02,2016-06-25T11:27:10+06:00,
