NPId,Number,RecipientId,DonorId,RangeHolderId,OldRoute,NewRoute,PortDate,RowCount
1000000000278522,77756911471,mMTS,mKcell,mKcell,,D77,2016-11-13T12:04:51+06:00,6
1000000000278523,77026074377,mAltel,mKcell,mKcell,,D07,2016-11-13T12:07:42+06:00,
1000000000278524,77016477137,mMTS,mKcell,mKcell,,D77,2016-11-13T12:08:59+06:00,
1000000000278526,77079185530,mKcell,mMTS,mMTS,,D02,2016-11-13T12:10:41+06:00,
1000000000278528,77783385333,mMTS,mKcell,mKcell,,D77,2016-11-13T12:13:34+06:00,
1000000000278530,77771245344,mMTS,mKarTel,mKarTel,,D77,2016-11-13T12:25:05+06:00,
