NPId,Number,RecipientId,DonorId,RangeHolderId,OldRoute,NewRoute,PortDate,RowCount
1000000000431596,77017460498,mKarTel,mKcell,mKcell,,D01,2017-08-01T11:32:45+06:00,33
1000000000432100,77015033190,mKarTel,mKcell,mKcell,,D01,2017-08-01T11:38:18+06:00,
1000000000432212,77078843158,mKarTel,mMTS,mMTS,,D01,2017-08-01T11:30:17+06:00,
1000000000432212,77471336261,mKarTel,mMTS,mMTS,,D01,2017-08-01T11:30:17+06:00,
1000000000432212,77472218409,mKarTel,mMTS,mMTS,,D01,2017-08-01T11:30:17+06:00,
1000000000432212,77475104858,mKarTel,mMTS,mMTS,,D01,2017-08-01T11:30:17+06:00,
1000000000432213,77078274746,mKarTel,mMTS,mMTS,,D01,2017-08-01T11:30:43+06:00,
1000000000432214,77017113423,mKarTel,mKcell,mKcell,,D01,2017-08-01T11:31:58+06:00,
1000000000432215,77015190063,mKarTel,mKcell,mKcell,,D01,2017-08-01T11:32:24+06:00,
1000000000432217,77017658579,mKcell,mAltel,mKcell,D07,D02,2017-08-01T11:32:54+06:00,
1000000000432220,77075794254,mKarTel,mMTS,mMTS,,D01,2017-08-01T11:34:16+06:00,
1000000000432224,77017232852,mMTS,mKcell,mKcell,,D77,2017-08-01T11:39:04+06:00,
1000000000432225,77753782601,mKcell,mMTS,mKcell,D77,D02,2017-08-01T11:39:32+06:00,
1000000000432228,77075183201,mKarTel,mMTS,mMTS,,D01,2017-08-01T11:40:35+06:00,
1000000000432230,77079505455,mKarTel,mMTS,mMTS,,D01,2017-08-01T11:42:21+06:00,
1000000000432231,77017672802,mMTS,mKcell,mKcell,,D77,2017-08-01T11:42:58+06:00,
1000000000432232,77714945676,mMTS,mKarTel,mKarTel,,D77,2017-08-01T11:43:16+06:00,
1000000000432234,77711748335,mAltel,mMTS,mKarTel,D77,D07,2017-08-01T11:45:30+06:00,
1000000000432235,77021174751,mKarTel,mMTS,mKcell,D77,D01,2017-08-01T11:46:33+06:00,
1000000000432237,77003625778,mMTS,mAltel,mAltel,,D77,2017-08-01T11:47:25+06:00,
1000000000432238,77017352063,mAltel,mKcell,mKcell,,D07,2017-08-01T11:47:39+06:00,
1000000000432241,77012835037,mKarTel,mKcell,mKcell,,D01,2017-08-01T11:52:04+06:00,
1000000000432242,77774110990,mKcell,mKarTel,mKarTel,,D02,2017-08-01T11:53:05+06:00,
1000000000432243,77051943337,mKarTel,mAltel,mKarTel,D07,D01,2017-08-01T11:52:59+06:00,
1000000000432245,77774477709,mKcell,mKarTel,mKarTel,D01,D02,2017-08-01T11:54:52+06:00,
1000000000432246,77017308088,mKarTel,mKcell,mKcell,,D01,2017-08-01T11:55:08+06:00,
1000000000432247,77016104573,mKarTel,mKcell,mKcell,,D01,2017-08-01T11:55:32+06:00,
1000000000432248,77015210628,mKcell,mMTS,mKcell,D77,D02,2017-08-01T11:55:32+06:00,
1000000000432250,77017769811,mMTS,mKcell,mKcell,D02,D77,2017-08-01T11:56:37+06:00,
1000000000432252,77007779787,mKcell,mAltel,mAltel,,D02,2017-08-01T11:57:47+06:00,
1000000000432253,77027391421,mKarTel,mKcell,mKcell,,D01,2017-08-01T11:58:39+06:00,
1000000000432254,77015019851,mKarTel,mKcell,mKcell,,D01,2017-08-01T11:58:50+06:00,
1000000000432255,77017473306,mMTS,mKcell,mKcell,,D77,2017-08-01T11:58:53+06:00,
