NPId,Number,RecipientId,DonorId,RangeHolderId,OldRoute,NewRoute,PortDate,RowCount
1000000000135939,77773083405,mKarTel,mMTS,mKarTel,D77,D01,2016-03-28T20:44:56+06:00,3
1000000000135940,77785220330,mAltel,mKcell,mKcell,,D07,2016-03-28T20:48:01+06:00,
1000000000135941,77026021535,mAltel,mKcell,mKcell,,D07,2016-03-28T20:54:07+06:00,
