NPId,Number,RecipientId,DonorId,RangeHolderId,OldRoute,NewRoute,PortDate,RowCount
1000000000358910,77015196351,mKarTel,mKcell,mKcell,,D01,2017-04-03T17:00:06+06:00,35
1000000000358914,77074254949,mKcell,mMTS,mMTS,,D02,2017-04-03T17:02:37+06:00,
1000000000358917,77016550063,mKcell,mMTS,mKcell,D77,D02,2017-04-03T17:04:30+06:00,
1000000000358919,77054441111,mKcell,mKarTel,mKarTel,,D02,2017-04-03T17:06:04+06:00,
1000000000358920,77779972644,mAltel,mKarTel,mKarTel,,D07,2017-04-03T17:06:14+06:00,
1000000000358921,77052891965,mAltel,mKarTel,mKarTel,,D07,2017-04-03T17:06:32+06:00,
1000000000358923,77054458175,mKcell,mKarTel,mKarTel,,D02,2017-04-03T17:07:30+06:00,
1000000000358924,77775329398,mKarTel,mMTS,mKarTel,D77,D01,2017-04-03T17:07:18+06:00,
1000000000358925,77472777019,mAltel,mMTS,mMTS,,D07,2017-04-03T17:07:53+06:00,
1000000000358926,77071433361,mKcell,mMTS,mMTS,,D02,2017-04-03T17:08:41+06:00,
1000000000358927,77759359903,mKarTel,mKcell,mKcell,,D01,2017-04-03T17:09:01+06:00,
1000000000358929,77751469771,mMTS,mKcell,mKcell,,D77,2017-04-03T17:10:19+06:00,
1000000000358930,77711001277,mKarTel,mMTS,mKarTel,D77,D01,2017-04-03T17:10:25+06:00,
1000000000358932,77075707972,mAltel,mMTS,mMTS,,D07,2017-04-03T17:12:20+06:00,
1000000000358933,77076866114,mKcell,mMTS,mMTS,,D02,2017-04-03T17:12:50+06:00,
1000000000358934,77751688880,mMTS,mKcell,mKcell,,D77,2017-04-03T17:13:10+06:00,
1000000000358935,77758090058,mMTS,mKcell,mKcell,,D77,2017-04-03T17:13:21+06:00,
1000000000358936,77473880338,mMTS,mKarTel,mMTS,D01,D77,2017-04-03T17:14:04+06:00,
1000000000358937,77016369294,mKarTel,mKcell,mKcell,,D01,2017-04-03T17:14:38+06:00,
1000000000358941,77772715553,mMTS,mKarTel,mKarTel,,D77,2017-04-03T17:19:16+06:00,
1000000000358942,77003338111,mKarTel,mAltel,mAltel,,D01,2017-04-03T17:20:11+06:00,
1000000000358943,77719999140,mAltel,mKarTel,mKarTel,,D07,2017-04-03T17:20:33+06:00,
1000000000358945,77764000031,mMTS,mKarTel,mKarTel,,D77,2017-04-03T17:22:39+06:00,
1000000000358947,77760006650,mAltel,mMTS,mKarTel,D77,D07,2017-04-03T17:22:53+06:00,
1000000000358948,77756901190,mKcell,mKarTel,mKcell,D01,D02,2017-04-03T17:23:45+06:00,
1000000000358949,77015324803,mAltel,mKcell,mKcell,,D07,2017-04-03T17:23:24+06:00,
1000000000358950,77751039586,mKarTel,mKcell,mKcell,,D01,2017-04-03T17:23:41+06:00,
1000000000358952,77086636379,mKcell,mAltel,mAltel,,D02,2017-04-03T17:24:06+06:00,
1000000000358954,77015034922,mAltel,mKcell,mKcell,,D07,2017-04-03T17:26:57+06:00,
1000000000358954,77015225370,mAltel,mKcell,mKcell,,D07,2017-04-03T17:26:57+06:00,
1000000000358954,77015240922,mAltel,mKcell,mKcell,,D07,2017-04-03T17:26:57+06:00,
1000000000358954,77017820156,mAltel,mKcell,mKcell,,D07,2017-04-03T17:26:57+06:00,
1000000000358954,77017820157,mAltel,mKcell,mKcell,,D07,2017-04-03T17:26:57+06:00,
1000000000358955,77751535952,mAltel,mKcell,mKcell,,D07,2017-04-03T17:27:03+06:00,
1000000000358957,77077130002,mKcell,mMTS,mMTS,,D02,2017-04-03T17:28:48+06:00,
