NPId,Number,RecipientId,DonorId,RangeHolderId,OldRoute,NewRoute,PortDate,RowCount
1000000000100548,77789460786,mMTS,mKcell,mKcell,,D77,2016-02-27T10:30:10+06:00,27
1000000000100549,77022339943,mAltel,mKcell,mKcell,,D07,2016-02-27T10:32:05+06:00,
1000000000100550,77072920002,mAltel,mMTS,mMTS,,D07,2016-02-27T10:32:21+06:00,
1000000000100552,77017882422,mMTS,mKcell,mKcell,,D77,2016-02-27T10:33:45+06:00,
1000000000100553,77005450201,mMTS,mAltel,mAltel,,D77,2016-02-27T10:35:00+06:00,
1000000000100554,77028572287,mAltel,mKcell,mKcell,,D07,2016-02-27T10:37:42+06:00,
1000000000100555,77762011616,mMTS,mKarTel,mKarTel,,D77,2016-02-27T10:38:14+06:00,
1000000000100557,77762110676,mKcell,mKarTel,mKarTel,,D02,2016-02-27T10:40:27+06:00,
1000000000100558,77715316661,mMTS,mKarTel,mKarTel,,D77,2016-02-27T10:40:32+06:00,
1000000000100559,77714199990,mMTS,mKarTel,mKarTel,,D77,2016-02-27T10:41:21+06:00,
1000000000100560,77717311945,mMTS,mKarTel,mKarTel,,D77,2016-02-27T10:41:21+06:00,
1000000000100561,77051809014,mAltel,mKarTel,mKarTel,,D07,2016-02-27T10:42:50+06:00,
1000000000100562,77779372575,mMTS,mKarTel,mKarTel,,D77,2016-02-27T10:43:08+06:00,
1000000000100564,77071443535,mKarTel,mMTS,mMTS,,D01,2016-02-27T10:45:12+06:00,
1000000000100565,77774078876,mMTS,mKarTel,mKarTel,,D77,2016-02-27T10:45:21+06:00,
1000000000100566,77010448844,mAltel,mKcell,mKcell,,D07,2016-02-27T10:45:52+06:00,
1000000000100567,77785558191,mKarTel,mKcell,mKcell,,D01,2016-02-27T10:46:34+06:00,
1000000000100568,77717318645,mMTS,mKarTel,mKarTel,,D77,2016-02-27T10:46:36+06:00,
1000000000100570,77471112040,mKarTel,mMTS,mMTS,,D01,2016-02-27T10:48:05+06:00,
1000000000100571,77019425426,mMTS,mKcell,mKcell,,D77,2016-02-27T10:48:53+06:00,
1000000000100572,77077717773,mKcell,mMTS,mMTS,,D02,2016-02-27T10:50:09+06:00,
1000000000100573,77055637770,mAltel,mKarTel,mKarTel,,D07,2016-02-27T10:50:33+06:00,
1000000000100574,77761651065,mMTS,mKarTel,mKarTel,,D77,2016-02-27T10:52:03+06:00,
1000000000100575,77017629488,mMTS,mKcell,mKcell,,D77,2016-02-27T10:52:45+06:00,
1000000000100578,77789290651,mMTS,mKcell,mKcell,,D77,2016-02-27T10:54:52+06:00,
1000000000100580,77082479504,mMTS,mAltel,mAltel,,D77,2016-02-27T10:58:34+06:00,
1000000000100581,77762333367,mKcell,mKarTel,mKarTel,,D02,2016-02-27T10:59:35+06:00,
