NPId,Number,RecipientId,DonorId,RangeHolderId,OldRoute,NewRoute,PortDate,RowCount
1000000000370346,77052504660,mKarTel,mKcell,mKarTel,D02,D01,2017-04-23T12:42:47+06:00,3
1000000000370348,77012557973,mAltel,mKcell,mKcell,,D07,2017-04-23T12:46:15+06:00,
1000000000370350,77083622821,mKcell,mAltel,mAltel,,D02,2017-04-23T12:47:10+06:00,
