NPId,Number,RecipientId,DonorId,RangeHolderId,OldRoute,NewRoute,PortDate,RowCount
1000000000279187,77052159991,mAltel,mKarTel,mKarTel,,D07,2016-11-14T18:00:34+06:00,29
1000000000279188,77752769465,mMTS,mKcell,mKcell,,D77,2016-11-14T18:01:38+06:00,
1000000000279189,77714172717,mMTS,mKarTel,mKarTel,,D77,2016-11-14T18:02:04+06:00,
1000000000279190,77782223863,mAltel,mKcell,mKcell,,D07,2016-11-14T18:02:04+06:00,
1000000000279191,77755743380,mKarTel,mKcell,mKcell,,D01,2016-11-14T18:02:42+06:00,
1000000000279192,77767131313,mKcell,mMTS,mKarTel,D77,D02,2016-11-14T18:03:48+06:00,
1000000000279193,77012656255,mMTS,mKcell,mKcell,,D77,2016-11-14T18:05:07+06:00,
1000000000279194,77013648017,mMTS,mKcell,mKcell,,D77,2016-11-14T18:05:34+06:00,
1000000000279195,77761091956,mKcell,mKarTel,mKarTel,,D02,2016-11-14T18:05:58+06:00,
1000000000279196,77021178345,mMTS,mKcell,mKcell,,D77,2016-11-14T18:06:51+06:00,
1000000000279198,77078387711,mMTS,mKarTel,mMTS,D01,D77,2016-11-14T18:07:54+06:00,
1000000000279199,77077893102,mKarTel,mMTS,mMTS,,D01,2016-11-14T18:07:53+06:00,
1000000000279200,77758855566,mKarTel,mKcell,mKcell,,D01,2016-11-14T18:10:15+06:00,
1000000000279202,77751407020,mMTS,mKcell,mKcell,,D77,2016-11-14T18:12:41+06:00,
1000000000279203,77015218404,mKcell,mMTS,mKcell,D77,D02,2016-11-14T18:13:30+06:00,
1000000000279204,77056919494,mMTS,mKarTel,mKarTel,,D77,2016-11-14T18:14:06+06:00,
1000000000279205,77784313216,mKarTel,mKcell,mKcell,,D01,2016-11-14T18:14:37+06:00,
1000000000279206,77074788840,mKcell,mMTS,mMTS,,D02,2016-11-14T18:18:00+06:00,
1000000000279207,77029020377,mKcell,mKarTel,mKcell,D01,D02,2016-11-14T18:16:25+06:00,
1000000000279208,77029637148,mMTS,mKcell,mKcell,,D77,2016-11-14T18:17:20+06:00,
1000000000279210,77027039873,mMTS,mKcell,mKcell,,D77,2016-11-14T18:17:37+06:00,
1000000000279211,77018588841,mKcell,mKarTel,mKcell,D01,D02,2016-11-14T18:19:06+06:00,
1000000000279214,77477812121,mKcell,mMTS,mMTS,,D02,2016-11-14T18:20:32+06:00,
1000000000279216,77071919787,mKcell,mMTS,mMTS,,D02,2016-11-14T18:22:39+06:00,
1000000000279217,77789401636,mKarTel,mKcell,mKcell,,D01,2016-11-14T18:23:02+06:00,
1000000000279218,77024465001,mKarTel,mKcell,mKcell,,D01,2016-11-14T18:23:57+06:00,
1000000000279221,77779190004,mMTS,mKarTel,mKarTel,,D77,2016-11-14T18:24:54+06:00,
1000000000279222,77770820248,mMTS,mKarTel,mKarTel,,D77,2016-11-14T18:25:46+06:00,
1000000000279223,77021170842,mMTS,mKcell,mKcell,,D77,2016-11-14T18:26:37+06:00,
