NPId,Number,RecipientId,DonorId,RangeHolderId,OldRoute,NewRoute,PortDate,RowCount
1000000000204539,77052259954,mKarTel,mMTS,mKarTel,D77,D01,2016-07-04T09:02:18+06:00,3
1000000000204541,77024562114,mKcell,mMTS,mKcell,D77,D02,2016-07-04T09:16:09+06:00,
1000000000204542,77007775520,mKcell,mAltel,mAltel,,D02,2016-07-04T09:29:34+06:00,
