NPId,Number,RecipientId,DonorId,RangeHolderId,OldRoute,NewRoute,PortDate,RowCount
1000000000411095,77057463486,mAltel,mKarTel,mKarTel,,D07,2017-06-28T11:00:22+06:00,22
1000000000411096,77780001424,mKarTel,mKcell,mKcell,,D01,2017-06-28T11:00:31+06:00,
1000000000411098,77778069191,mMTS,mKarTel,mKarTel,,D77,2017-06-28T11:02:13+06:00,
1000000000411102,77073032123,mKcell,mMTS,mMTS,,D02,2017-06-28T11:04:01+06:00,
1000000000411104,77771657777,mAltel,mKarTel,mKarTel,,D07,2017-06-28T11:06:04+06:00,
1000000000411107,77779661212,mKarTel,mKcell,mKarTel,D02,D01,2017-06-28T11:08:36+06:00,
1000000000411108,77011624739,mKcell,mMTS,mKcell,D77,D02,2017-06-28T11:10:13+06:00,
1000000000411109,77755231941,mMTS,mKcell,mKcell,,D77,2017-06-28T11:11:55+06:00,
1000000000411110,77017226644,mMTS,mKcell,mKcell,,D77,2017-06-28T11:13:57+06:00,
1000000000411112,77781501833,mKarTel,mKcell,mKcell,,D01,2017-06-28T11:14:53+06:00,
1000000000411113,77007772773,mAltel,mKarTel,mAltel,D01,D07,2017-06-28T11:15:09+06:00,
1000000000411114,77077226644,mMTS,mKcell,mMTS,D02,D77,2017-06-28T11:15:18+06:00,
1000000000411116,77776333555,mMTS,mKarTel,mKarTel,,D77,2017-06-28T11:15:50+06:00,
1000000000411118,77770759765,mAltel,mKarTel,mKarTel,,D07,2017-06-28T11:16:25+06:00,
1000000000411120,77716059357,mMTS,mKarTel,mKarTel,,D77,2017-06-28T11:17:15+06:00,
1000000000411126,77757025222,mKcell,mMTS,mKcell,D77,D02,2017-06-28T11:21:34+06:00,
1000000000411129,77071310490,mAltel,mMTS,mMTS,,D07,2017-06-28T11:23:44+06:00,
1000000000411130,77022773032,mMTS,mKcell,mKcell,,D77,2017-06-28T11:24:48+06:00,
1000000000411133,77006370407,mMTS,mAltel,mAltel,,D77,2017-06-28T11:26:42+06:00,
1000000000411134,77072001324,mMTS,mKarTel,mMTS,D01,D77,2017-06-28T11:27:57+06:00,
1000000000411136,77002111983,mMTS,mAltel,mAltel,,D77,2017-06-28T11:28:42+06:00,
1000000000411137,77053237171,mMTS,mKarTel,mKarTel,,D77,2017-06-28T11:29:27+06:00,
