NPId,Number,RecipientId,DonorId,RangeHolderId,OldRoute,NewRoute,PortDate,RowCount
1000000000293103,77779897689,mKcell,mKarTel,mKarTel,,D02,2016-12-10T14:01:53+06:00,22
1000000000293106,77089254242,mMTS,mAltel,mAltel,,D77,2016-12-10T14:01:37+06:00,
1000000000293108,77027146300,mMTS,mKcell,mKcell,,D77,2016-12-10T14:03:46+06:00,
1000000000293109,77017268524,mMTS,mKcell,mKcell,,D77,2016-12-10T14:04:05+06:00,
1000000000293110,77004151536,mAltel,mKarTel,mAltel,D01,D07,2016-12-10T14:05:07+06:00,
1000000000293111,77089112234,mAltel,mKarTel,mAltel,D01,D07,2016-12-10T14:06:20+06:00,
1000000000293113,77024629454,mMTS,mKcell,mKcell,,D77,2016-12-10T14:07:13+06:00,
1000000000293114,77768681414,mMTS,mKarTel,mKarTel,,D77,2016-12-10T14:07:59+06:00,
1000000000293115,77017950227,mMTS,mKarTel,mKcell,D01,D77,2016-12-10T14:12:03+06:00,
1000000000293116,77057010351,mMTS,mKarTel,mKarTel,,D77,2016-12-10T14:12:18+06:00,
1000000000293117,77774841616,mKcell,mKarTel,mKarTel,,D02,2016-12-10T14:14:51+06:00,
1000000000293118,77081747708,mKarTel,mMTS,mAltel,D77,D01,2016-12-10T14:14:35+06:00,
1000000000293119,77711193490,mMTS,mKarTel,mKarTel,,D77,2016-12-10T14:16:24+06:00,
1000000000293120,77075642558,mKarTel,mKcell,mMTS,D02,D01,2016-12-10T14:18:17+06:00,
1000000000293121,77029786420,mMTS,mKcell,mKcell,,D77,2016-12-10T14:18:06+06:00,
1000000000293122,77087370555,mMTS,mAltel,mAltel,,D77,2016-12-10T14:17:12+06:00,
1000000000293124,77787588464,mAltel,mKcell,mKcell,,D07,2016-12-10T14:18:05+06:00,
1000000000293125,77026227011,mKarTel,mKcell,mKcell,,D01,2016-12-10T14:18:49+06:00,
1000000000293126,77078170404,mAltel,mMTS,mMTS,,D07,2016-12-10T14:19:43+06:00,
1000000000293127,77714535603,mMTS,mKarTel,mKarTel,,D77,2016-12-10T14:23:32+06:00,
1000000000293129,77754848403,mMTS,mKcell,mKcell,,D77,2016-12-10T14:26:57+06:00,
1000000000293130,77021821262,mMTS,mKcell,mKcell,,D77,2016-12-10T14:29:53+06:00,
