NPId,Number,RecipientId,DonorId,RangeHolderId,OldRoute,NewRoute,PortDate,RowCount
1000000000104824,77014774875,mKarTel,mKcell,mKcell,,D01,2016-03-03T09:00:49+06:00,11
1000000000104825,77758856179,mMTS,mKcell,mKcell,,D77,2016-03-03T09:00:45+06:00,
1000000000104827,77019588369,mMTS,mKcell,mKcell,,D77,2016-03-03T09:04:05+06:00,
1000000000104830,77017607452,mMTS,mKcell,mKcell,,D77,2016-03-03T09:06:44+06:00,
1000000000105399,77075317577,mKarTel,mMTS,mMTS,,D01,2016-03-03T09:01:58+06:00,
1000000000105400,77012158585,mMTS,mKcell,mKcell,,D77,2016-03-03T09:04:42+06:00,
1000000000105401,77086801303,mMTS,mAltel,mAltel,,D77,2016-03-03T09:06:02+06:00,
1000000000105402,77013773736,mAltel,mKcell,mKcell,,D07,2016-03-03T09:20:58+06:00,
1000000000105403,77029999774,mAltel,mKcell,mKcell,,D07,2016-03-03T09:23:36+06:00,
1000000000105406,77082346856,mMTS,mAltel,mAltel,,D77,2016-03-03T09:27:11+06:00,
1000000000105409,77019380541,mKarTel,mKcell,mKcell,,D01,2016-03-03T09:29:59+06:00,
