NPId,Number,RecipientId,DonorId,RangeHolderId,OldRoute,NewRoute,PortDate,RowCount
1000000000221695,77783881834,mAltel,mKcell,mKcell,,D07,2016-08-02T11:00:06+06:00,19
1000000000221697,77022064781,mKarTel,mKcell,mKcell,,D01,2016-08-02T11:03:15+06:00,
1000000000221698,77771251586,mKcell,mKarTel,mKarTel,,D02,2016-08-02T11:04:43+06:00,
1000000000221699,77017992921,mMTS,mKcell,mKcell,,D77,2016-08-02T11:04:26+06:00,
1000000000221701,77087518404,mMTS,mAltel,mAltel,,D77,2016-08-02T11:10:24+06:00,
1000000000221702,77017310736,mKarTel,mKcell,mKcell,,D01,2016-08-02T11:17:21+06:00,
1000000000221703,77016102391,mMTS,mKcell,mKcell,,D77,2016-08-02T11:16:53+06:00,
1000000000221704,77772450505,mKcell,mKarTel,mKarTel,,D02,2016-08-02T11:29:13+06:00,
1000000000221706,77017393399,mMTS,mKcell,mKcell,,D77,2016-08-02T11:16:59+06:00,
1000000000221707,77025507766,mAltel,mKcell,mKcell,,D07,2016-08-02T11:20:23+06:00,
1000000000221708,77079519091,mMTS,mKcell,mMTS,D02,D77,2016-08-02T11:16:59+06:00,
1000000000221711,77015666221,mKarTel,mKcell,mKcell,,D01,2016-08-02T11:18:14+06:00,
1000000000221712,77011514261,mMTS,mKcell,mKcell,,D77,2016-08-02T11:20:23+06:00,
1000000000221713,77026804068,mMTS,mKcell,mKcell,,D77,2016-08-02T11:20:25+06:00,
1000000000221714,77055555668,mKarTel,mKcell,mKarTel,D02,D01,2016-08-02T11:20:38+06:00,
1000000000221716,77007771973,mKarTel,mAltel,mAltel,,D01,2016-08-02T11:24:14+06:00,
1000000000221717,77002221973,mKarTel,mAltel,mAltel,,D01,2016-08-02T11:24:53+06:00,
1000000000221719,77082221873,mKarTel,mAltel,mAltel,,D01,2016-08-02T11:25:48+06:00,
1000000000221720,77753268864,mKcell,mMTS,mKcell,D77,D02,2016-08-02T11:27:51+06:00,
