NPId,Number,RecipientId,DonorId,RangeHolderId,OldRoute,NewRoute,PortDate,RowCount
1000000000358760,77021333823,mKcell,mAltel,mKcell,D07,D02,2017-04-03T15:30:17+06:00,39
1000000000358761,77017552808,mAltel,mKcell,mKcell,,D07,2017-04-03T15:31:44+06:00,
1000000000358764,77076940840,mAltel,mMTS,mMTS,,D07,2017-04-03T15:33:36+06:00,
1000000000358765,77005770010,mMTS,mAltel,mAltel,,D77,2017-04-03T15:33:48+06:00,
1000000000358766,77058354068,mMTS,mKarTel,mKarTel,,D77,2017-04-03T15:34:25+06:00,
1000000000358767,77076567744,mKarTel,mMTS,mMTS,,D01,2017-04-03T15:34:16+06:00,
1000000000358769,77768330307,mMTS,mKarTel,mKarTel,,D77,2017-04-03T15:35:25+06:00,
1000000000358770,77056401000,mAltel,mKarTel,mKarTel,,D07,2017-04-03T15:35:53+06:00,
1000000000358771,77760918190,mMTS,mKarTel,mKarTel,,D77,2017-04-03T15:37:27+06:00,
1000000000358772,77056665975,mAltel,mKarTel,mKarTel,,D07,2017-04-03T15:37:46+06:00,
1000000000358773,77017396181,mMTS,mKcell,mKcell,,D77,2017-04-03T15:37:54+06:00,
1000000000358775,77077776366,mAltel,mMTS,mMTS,,D07,2017-04-03T15:38:49+06:00,
1000000000358776,77074422211,mKcell,mMTS,mMTS,,D02,2017-04-03T15:40:22+06:00,
1000000000358777,77027882221,mMTS,mKarTel,mKcell,D01,D77,2017-04-03T15:41:07+06:00,
1000000000358779,77058194122,mKcell,mKarTel,mKarTel,,D02,2017-04-03T15:42:14+06:00,
1000000000358780,77471116022,mAltel,mMTS,mMTS,,D07,2017-04-03T15:41:45+06:00,
1000000000358781,77756555878,mKarTel,mKcell,mKcell,,D01,2017-04-03T15:42:31+06:00,
1000000000358784,77018880876,mMTS,mKcell,mKcell,,D77,2017-04-03T15:42:49+06:00,
1000000000358785,77772509291,mAltel,mKarTel,mKarTel,,D07,2017-04-03T15:43:27+06:00,
1000000000358787,77076549780,mKarTel,mMTS,mMTS,,D01,2017-04-03T15:45:21+06:00,
1000000000358790,77000005529,mMTS,mAltel,mAltel,,D77,2017-04-03T15:46:56+06:00,
1000000000358792,77012122727,mAltel,mKcell,mKcell,,D07,2017-04-03T15:47:50+06:00,
1000000000358794,77073000800,mKarTel,mMTS,mMTS,,D01,2017-04-03T15:49:03+06:00,
1000000000358795,77015956666,mKarTel,mKcell,mKcell,,D01,2017-04-03T15:50:16+06:00,
1000000000358796,77004452100,mKcell,mAltel,mAltel,,D02,2017-04-03T15:52:04+06:00,
1000000000358797,77019930070,mMTS,mKarTel,mKcell,D01,D77,2017-04-03T15:52:44+06:00,
1000000000358800,77012811963,mKcell,mAltel,mKcell,D07,D02,2017-04-03T15:54:42+06:00,
1000000000358802,77775976744,mKarTel,mKcell,mKarTel,D02,D01,2017-04-03T15:55:53+06:00,
1000000000358803,77055957575,mMTS,mKcell,mKarTel,D02,D77,2017-04-03T15:56:09+06:00,
1000000000358805,77476844686,mKcell,mMTS,mMTS,,D02,2017-04-03T15:57:14+06:00,
1000000000358806,77779019680,mKarTel,mMTS,mKarTel,D77,D01,2017-04-03T15:57:22+06:00,
1000000000358807,77017655466,mMTS,mKcell,mKcell,,D77,2017-04-03T15:57:15+06:00,
1000000000358809,77016864486,mAltel,mKcell,mKcell,,D07,2017-04-03T15:58:14+06:00,
1000000000358810,77777796914,mMTS,mKarTel,mKarTel,,D77,2017-04-03T15:58:42+06:00,
1000000000358811,77026080004,mMTS,mKcell,mKcell,,D77,2017-04-03T15:58:27+06:00,
1000000000358812,77012214088,mAltel,mKcell,mKcell,,D07,2017-04-03T15:58:46+06:00,
1000000000358813,77026117406,mMTS,mKcell,mKcell,,D77,2017-04-03T15:59:24+06:00,
1000000000358814,77057121929,mMTS,mKarTel,mKarTel,,D77,2017-04-03T15:59:55+06:00,
1000000000358816,77479050997,mKcell,mMTS,mMTS,,D02,2017-04-03T15:59:47+06:00,
