NPId,Number,RecipientId,DonorId,RangeHolderId,OldRoute,NewRoute,PortDate,RowCount
1000000000292381,77085558844,mKcell,mMTS,mAltel,D77,D02,2016-12-08T22:30:45+06:00,2
1000000000292382,77718575026,mMTS,mKarTel,mKarTel,,D77,2016-12-08T22:47:53+06:00,
