NPId,Number,RecipientId,DonorId,RangeHolderId,OldRoute,NewRoute,PortDate,RowCount
1000000000200561,77010551500,mKcell,mMTS,mKcell,D77,D02,2016-06-27T13:31:20+06:00,34
1000000000200562,77082256221,mAltel,mMTS,mAltel,D77,D07,2016-06-27T13:31:53+06:00,
1000000000200563,77471112993,mMTS,mKcell,mMTS,D02,D77,2016-06-27T13:32:29+06:00,
1000000000200564,77055146666,mMTS,mKarTel,mKarTel,,D77,2016-06-27T13:34:39+06:00,
1000000000200565,77001541520,mMTS,mAltel,mAltel,,D77,2016-06-27T13:34:23+06:00,
1000000000200566,77778044699,mKcell,mKarTel,mKarTel,,D02,2016-06-27T13:35:51+06:00,
1000000000200567,77476407316,mAltel,mMTS,mMTS,,D07,2016-06-27T13:36:41+06:00,
1000000000200569,77789162025,mKcell,mAltel,mKcell,D07,D02,2016-06-27T13:37:24+06:00,
1000000000200570,77004141682,mKarTel,mAltel,mAltel,,D01,2016-06-27T13:38:24+06:00,
1000000000200571,77072695838,mKcell,mMTS,mMTS,,D02,2016-06-27T13:44:16+06:00,
1000000000200572,77083256221,mAltel,mMTS,mAltel,D77,D07,2016-06-27T13:39:33+06:00,
1000000000200573,77023814054,mMTS,mAltel,mKcell,D07,D77,2016-06-27T13:40:19+06:00,
1000000000200574,77781209990,mMTS,mKcell,mKcell,,D77,2016-06-27T13:44:35+06:00,
1000000000200575,77017950527,mMTS,mKarTel,mKcell,D01,D77,2016-06-27T13:42:09+06:00,
1000000000200577,77053557722,mMTS,mKarTel,mKarTel,,D77,2016-06-27T13:43:34+06:00,
1000000000200578,77759622230,mKarTel,mKcell,mKcell,,D01,2016-06-27T13:45:09+06:00,
1000000000200580,77019517549,mMTS,mKarTel,mKcell,D01,D77,2016-06-27T13:46:36+06:00,
1000000000200583,77051189784,mMTS,mKarTel,mKarTel,,D77,2016-06-27T13:47:34+06:00,
1000000000200584,77023348445,mMTS,mKcell,mKcell,,D77,2016-06-27T13:47:34+06:00,
1000000000200585,77017117686,mKarTel,mAltel,mKcell,D07,D01,2016-06-27T13:47:56+06:00,
1000000000200587,77009842961,mMTS,mAltel,mAltel,,D77,2016-06-27T13:49:03+06:00,
1000000000200588,77015778087,mMTS,mKcell,mKcell,,D77,2016-06-27T13:52:59+06:00,
1000000000200590,77014315583,mMTS,mKcell,mKcell,,D77,2016-06-27T13:51:15+06:00,
1000000000200591,77778992574,mMTS,mKarTel,mKarTel,,D77,2016-06-27T13:52:37+06:00,
1000000000200592,77761122212,mKcell,mKarTel,mKarTel,,D02,2016-06-27T13:54:10+06:00,
1000000000200594,77015553021,mKarTel,mKcell,mKcell,,D01,2016-06-27T13:54:41+06:00,
1000000000200595,77017364791,mKcell,mMTS,mKcell,D77,D02,2016-06-27T13:54:09+06:00,
1000000000200596,77015336542,mKcell,mAltel,mKcell,D07,D02,2016-06-27T13:55:32+06:00,
1000000000200597,77057103107,mKarTel,mAltel,mKarTel,D07,D01,2016-06-27T13:55:50+06:00,
1000000000200598,77756646664,mMTS,mKcell,mKcell,,D77,2016-06-27T13:57:10+06:00,
1000000000200599,77029002943,mMTS,mKcell,mKcell,,D77,2016-06-27T13:57:26+06:00,
1000000000200600,77071156044,mKarTel,mMTS,mMTS,,D01,2016-06-27T13:57:17+06:00,
1000000000200601,77003000085,mKcell,mAltel,mAltel,,D02,2016-06-27T13:57:57+06:00,
1000000000200602,77753746362,mMTS,mKcell,mKcell,,D77,2016-06-27T13:57:50+06:00,
