NPId,Number,RecipientId,DonorId,RangeHolderId,OldRoute,NewRoute,PortDate,RowCount
1000000000098941,77013777653,mMTS,mKcell,mKcell,,D77,2016-02-25T17:14:23+06:00,44
1000000000099384,77018252615,mMTS,mKcell,mKcell,,D77,2016-02-25T17:01:14+06:00,
1000000000099385,77775989204,mAltel,mKarTel,mKarTel,,D07,2016-02-25T17:02:49+06:00,
1000000000099386,77056833331,mAltel,mKarTel,mKarTel,,D07,2016-02-25T17:04:43+06:00,
1000000000099387,77022877706,mAltel,mKcell,mKcell,,D07,2016-02-25T17:03:21+06:00,
1000000000099388,77023337731,mMTS,mKcell,mKcell,,D77,2016-02-25T17:04:18+06:00,
1000000000099389,77022388177,mMTS,mKcell,mKcell,,D77,2016-02-25T17:05:14+06:00,
1000000000099391,77018559161,mKarTel,mKcell,mKcell,,D01,2016-02-25T17:05:43+06:00,
1000000000099392,77076694151,mKarTel,mMTS,mMTS,,D01,2016-02-25T17:06:13+06:00,
1000000000099393,77019922740,mKarTel,mKcell,mKcell,,D01,2016-02-25T17:07:07+06:00,
1000000000099396,77757770078,mAltel,mKcell,mKcell,,D07,2016-02-25T17:08:30+06:00,
1000000000099397,77057076464,mKcell,mKarTel,mKarTel,,D02,2016-02-25T17:10:31+06:00,
1000000000099398,77076694134,mKarTel,mMTS,mMTS,,D01,2016-02-25T17:09:08+06:00,
1000000000099400,77754511100,mMTS,mKcell,mKcell,,D77,2016-02-25T17:09:39+06:00,
1000000000099401,77078884301,mAltel,mMTS,mMTS,,D07,2016-02-25T17:09:39+06:00,
1000000000099404,77052154573,mMTS,mKarTel,mKarTel,,D77,2016-02-25T17:11:01+06:00,
1000000000099406,77776667509,mKcell,mKarTel,mKarTel,,D02,2016-02-25T17:13:17+06:00,
1000000000099407,77011828357,mAltel,mKcell,mKcell,,D07,2016-02-25T17:14:11+06:00,
1000000000099408,77784607086,mAltel,mKcell,mKcell,,D07,2016-02-25T17:14:36+06:00,
1000000000099409,77059962978,mKcell,mKarTel,mKarTel,,D02,2016-02-25T17:15:18+06:00,
1000000000099412,77019499785,mMTS,mKcell,mKcell,,D77,2016-02-25T17:16:55+06:00,
1000000000099413,77719997968,mKcell,mKarTel,mKarTel,,D02,2016-02-25T17:17:35+06:00,
1000000000099415,77021204630,mAltel,mKcell,mKcell,,D07,2016-02-25T17:18:12+06:00,
1000000000099416,77082140791,mKcell,mAltel,mAltel,,D02,2016-02-25T17:18:46+06:00,
1000000000099417,77018830358,mMTS,mKcell,mKcell,,D77,2016-02-25T17:18:54+06:00,
1000000000099418,77015342230,mMTS,mKcell,mKcell,,D77,2016-02-25T17:19:16+06:00,
1000000000099419,77029226607,mMTS,mKcell,mKcell,,D77,2016-02-25T17:19:22+06:00,
1000000000099420,77076278262,mKarTel,mMTS,mMTS,,D01,2016-02-25T17:19:37+06:00,
1000000000099421,77758012181,mKarTel,mKcell,mKcell,,D01,2016-02-25T17:20:21+06:00,
1000000000099422,77019853271,mKarTel,mKcell,mKcell,,D01,2016-02-25T17:20:50+06:00,
1000000000099423,77022939963,mKarTel,mKcell,mKcell,,D01,2016-02-25T17:20:50+06:00,
1000000000099424,77076694136,mKarTel,mMTS,mMTS,,D01,2016-02-25T17:21:20+06:00,
1000000000099425,77021204624,mAltel,mKcell,mKcell,,D07,2016-02-25T17:22:44+06:00,
1000000000099426,77778294757,mAltel,mKarTel,mKarTel,,D07,2016-02-25T17:23:06+06:00,
1000000000099427,77788760077,mAltel,mKcell,mKcell,,D07,2016-02-25T17:23:21+06:00,
1000000000099428,77781574145,mMTS,mKcell,mKcell,,D77,2016-02-25T17:24:58+06:00,
1000000000099432,77017776419,mMTS,mKcell,mKcell,,D77,2016-02-25T17:26:51+06:00,
1000000000099433,77712405957,mKcell,mKarTel,mKarTel,,D02,2016-02-25T17:28:33+06:00,
1000000000099434,77012234040,mMTS,mKcell,mKcell,,D77,2016-02-25T17:28:39+06:00,
1000000000099435,77476633134,mKcell,mMTS,mMTS,,D02,2016-02-25T17:28:45+06:00,
1000000000099436,77076694147,mKarTel,mMTS,mMTS,,D01,2016-02-25T17:29:16+06:00,
1000000000099437,77014227637,mMTS,mKcell,mKcell,,D77,2016-02-25T17:29:15+06:00,
1000000000099438,77760006609,mMTS,mKarTel,mKarTel,,D77,2016-02-25T17:29:44+06:00,
1000000000099439,77077278262,mKarTel,mMTS,mMTS,,D01,2016-02-25T17:29:42+06:00,
