NPId,Number,RecipientId,DonorId,RangeHolderId,OldRoute,NewRoute,PortDate,RowCount
1000000000368333,77023158044,mAltel,mKcell,mKcell,,D07,2017-04-19T14:00:41+06:00,20
1000000000368334,77001691717,mKarTel,mAltel,mAltel,,D01,2017-04-19T14:01:49+06:00,
1000000000368336,77772326673,mMTS,mKarTel,mKarTel,,D77,2017-04-19T14:02:03+06:00,
1000000000368337,77476744476,mKarTel,mMTS,mMTS,,D01,2017-04-19T14:03:06+06:00,
1000000000368339,77070005151,mKcell,mMTS,mMTS,,D02,2017-04-19T14:05:38+06:00,
1000000000368340,77007007042,mKcell,mAltel,mAltel,,D02,2017-04-19T14:09:26+06:00,
1000000000368342,77007007043,mKcell,mAltel,mAltel,,D02,2017-04-19T14:11:00+06:00,
1000000000368343,77713778384,mAltel,mKarTel,mKarTel,,D07,2017-04-19T14:12:18+06:00,
1000000000368344,77784162393,mKarTel,mKcell,mKcell,,D01,2017-04-19T14:13:17+06:00,
1000000000368345,77771444044,mAltel,mKarTel,mKarTel,,D07,2017-04-19T14:13:27+06:00,
1000000000368346,77769077737,mMTS,mKarTel,mKarTel,,D77,2017-04-19T14:15:10+06:00,
1000000000368348,77024658002,mAltel,mKcell,mKcell,,D07,2017-04-19T14:16:32+06:00,
1000000000368349,77017637021,mMTS,mKcell,mKcell,,D77,2017-04-19T14:17:21+06:00,
1000000000368350,77017654433,mMTS,mKcell,mKcell,,D77,2017-04-19T14:20:06+06:00,
1000000000368351,77023333810,mAltel,mKcell,mKcell,,D07,2017-04-19T14:21:24+06:00,
1000000000368352,77011906973,mMTS,mKcell,mKcell,,D77,2017-04-19T14:21:37+06:00,
1000000000368353,77775094147,mKarTel,mKcell,mKarTel,D02,D01,2017-04-19T14:24:18+06:00,
1000000000368354,77015267385,mKcell,mKarTel,mKcell,D01,D02,2017-04-19T14:25:00+06:00,
1000000000368356,77007007053,mKcell,mAltel,mAltel,,D02,2017-04-19T14:27:14+06:00,
1000000000368357,77015559401,mKcell,mAltel,mKcell,D07,D02,2017-04-19T14:29:39+06:00,
