NPId,Number,RecipientId,DonorId,RangeHolderId,OldRoute,NewRoute,PortDate,RowCount
1000000000330974,77025517357,mAltel,mKcell,mKcell,,D07,2017-02-18T15:30:46+06:00,27
1000000000330975,77777631337,mMTS,mKarTel,mKarTel,,D77,2017-02-18T15:35:03+06:00,
1000000000330976,77779992968,mKcell,mMTS,mKarTel,D77,D02,2017-02-18T15:35:48+06:00,
1000000000330978,77087047272,mKcell,mKarTel,mAltel,D01,D02,2017-02-18T15:38:12+06:00,
1000000000330979,77088257272,mKcell,mKarTel,mAltel,D01,D02,2017-02-18T15:39:04+06:00,
1000000000330980,77013451123,mMTS,mKcell,mKcell,,D77,2017-02-18T15:38:37+06:00,
1000000000330981,77026069292,mKarTel,mKcell,mKcell,,D01,2017-02-18T15:39:46+06:00,
1000000000330982,77074137777,mAltel,mMTS,mMTS,,D07,2017-02-18T15:40:10+06:00,
1000000000330983,77783331112,mKcell,mMTS,mKcell,D77,D02,2017-02-18T15:42:28+06:00,
1000000000330984,77014833555,mMTS,mKcell,mKcell,,D77,2017-02-18T15:42:43+06:00,
1000000000330985,77012337750,mMTS,mKcell,mKcell,,D77,2017-02-18T15:42:51+06:00,
1000000000330986,77087357272,mKcell,mKarTel,mAltel,D01,D02,2017-02-18T15:44:21+06:00,
1000000000330987,77056203992,mAltel,mKarTel,mKarTel,,D07,2017-02-18T15:44:11+06:00,
1000000000330988,77769999211,mKcell,mKarTel,mKarTel,,D02,2017-02-18T15:44:55+06:00,
1000000000330989,77017241268,mMTS,mKcell,mKcell,,D77,2017-02-18T15:45:30+06:00,
1000000000330990,77087137272,mKcell,mKarTel,mAltel,D01,D02,2017-02-18T15:47:19+06:00,
1000000000330991,77012278552,mMTS,mKcell,mKcell,,D77,2017-02-18T15:47:56+06:00,
1000000000330994,77022149918,mKarTel,mKcell,mKcell,,D01,2017-02-18T15:52:24+06:00,
1000000000330996,77783475673,mMTS,mKcell,mKcell,,D77,2017-02-18T15:52:50+06:00,
1000000000330997,77011918171,mKcell,mKarTel,mKcell,D01,D02,2017-02-18T15:53:43+06:00,
1000000000330999,77026261380,mMTS,mKcell,mKcell,,D77,2017-02-18T15:53:54+06:00,
1000000000331000,77087565650,mKcell,mKarTel,mAltel,D01,D02,2017-02-18T15:55:17+06:00,
1000000000331001,77001167095,mKcell,mAltel,mAltel,,D02,2017-02-18T15:56:37+06:00,
1000000000331002,77006003969,mKcell,mAltel,mAltel,,D02,2017-02-18T15:57:14+06:00,
1000000000331003,77087565628,mKcell,mKarTel,mAltel,D01,D02,2017-02-18T15:59:22+06:00,
1000000000331004,77755222944,mKarTel,mAltel,mKcell,D07,D01,2017-02-18T15:58:54+06:00,
1000000000331005,77758060389,mMTS,mKcell,mKcell,,D77,2017-02-18T15:59:03+06:00,
