NPId,Number,RecipientId,DonorId,RangeHolderId,OldRoute,NewRoute,PortDate,RowCount
1000000000183152,77055526417,mMTS,mKarTel,mKarTel,,D77,2016-05-29T13:01:24+06:00,14
1000000000183153,77774457919,mMTS,mKarTel,mKarTel,,D77,2016-05-29T13:01:24+06:00,
1000000000183154,77774075066,mAltel,mKarTel,mKarTel,,D07,2016-05-29T13:02:50+06:00,
1000000000183156,77077886644,mMTS,mKarTel,mMTS,D01,D77,2016-05-29T13:03:26+06:00,
1000000000183157,77086731210,mMTS,mAltel,mAltel,,D77,2016-05-29T13:03:27+06:00,
1000000000183158,77072791555,mKcell,mMTS,mMTS,,D02,2016-05-29T13:06:42+06:00,
1000000000183159,77782339199,mKarTel,mKcell,mKcell,,D01,2016-05-29T13:07:10+06:00,
1000000000183160,77087749933,mMTS,mAltel,mAltel,,D77,2016-05-29T13:07:22+06:00,
1000000000183162,77005555554,mKarTel,mAltel,mAltel,,D01,2016-05-29T13:08:04+06:00,
1000000000183164,77018320390,mMTS,mAltel,mKcell,D07,D77,2016-05-29T13:09:17+06:00,
1000000000183165,77012202182,mKarTel,mAltel,mKcell,D07,D01,2016-05-29T13:10:16+06:00,
1000000000183167,77772444844,mMTS,mKarTel,mKarTel,,D77,2016-05-29T13:11:24+06:00,
1000000000183168,77018705507,mMTS,mKcell,mKcell,,D77,2016-05-29T13:12:27+06:00,
1000000000183171,77018705509,mMTS,mKcell,mKcell,,D77,2016-05-29T13:27:16+06:00,
