NPId,Number,RecipientId,DonorId,RangeHolderId,OldRoute,NewRoute,PortDate,RowCount
1000000000254462,77027001995,mKarTel,mKcell,mKcell,,D01,2016-10-01T09:02:50+06:00,5
1000000000254463,77017544628,mKarTel,mKcell,mKcell,,D01,2016-10-01T09:02:51+06:00,
1000000000254464,77775690910,mKarTel,mMTS,mKarTel,D77,D01,2016-10-01T09:02:49+06:00,
1000000000254467,77015110704,mKarTel,mKcell,mKcell,,D01,2016-10-01T09:03:08+06:00,
1000000000254468,77752177736,mKarTel,mKcell,mKcell,,D01,2016-10-01T09:03:09+06:00,
