NPId,Number,RecipientId,DonorId,RangeHolderId,OldRoute,NewRoute,PortDate,RowCount
1000000000310437,77052341111,mMTS,mKarTel,mKarTel,,D77,2017-01-14T11:33:14+06:00,10
1000000000310439,77001500876,mKcell,mAltel,mAltel,,D02,2017-01-14T11:36:59+06:00,
1000000000310440,77781081845,mMTS,mKcell,mKcell,,D77,2017-01-14T11:40:27+06:00,
1000000000310442,77784303004,mMTS,mKcell,mKcell,,D77,2017-01-14T11:43:51+06:00,
1000000000310443,77019506741,mKarTel,mKcell,mKcell,,D01,2017-01-14T11:44:55+06:00,
1000000000310444,77782508878,mMTS,mKcell,mKcell,,D77,2017-01-14T11:45:49+06:00,
1000000000310447,77054551984,mMTS,mKarTel,mKarTel,,D77,2017-01-14T11:53:48+06:00,
1000000000310448,77718571164,mAltel,mKarTel,mKarTel,,D07,2017-01-14T11:55:13+06:00,
1000000000310450,77019135439,mAltel,mKcell,mKcell,,D07,2017-01-14T11:58:53+06:00,
1000000000310451,77471237774,mKarTel,mMTS,mMTS,,D01,2017-01-14T11:59:00+06:00,
