NPId,Number,RecipientId,DonorId,RangeHolderId,OldRoute,NewRoute,PortDate,RowCount
1000000000422496,77073016752,mAltel,mMTS,mMTS,,D07,2017-07-15T16:33:47+06:00,19
1000000000422497,77756666937,mKcell,mAltel,mKcell,D07,D02,2017-07-15T16:36:50+06:00,
1000000000422498,77087741089,mMTS,mAltel,mAltel,,D77,2017-07-15T16:37:29+06:00,
1000000000422500,77024567337,mMTS,mKcell,mKcell,,D77,2017-07-15T16:38:51+06:00,
1000000000422501,77025111171,mAltel,mKcell,mKcell,,D07,2017-07-15T16:39:50+06:00,
1000000000422502,77759194716,mAltel,mKcell,mKcell,,D07,2017-07-15T16:42:03+06:00,
1000000000422503,77773590449,mMTS,mKarTel,mKarTel,,D77,2017-07-15T16:42:17+06:00,
1000000000422504,77475804171,mKarTel,mAltel,mMTS,D07,D01,2017-07-15T16:42:46+06:00,
1000000000422505,77078788332,mKcell,mMTS,mMTS,,D02,2017-07-15T16:44:24+06:00,
1000000000422506,77003620029,mKcell,mAltel,mAltel,,D02,2017-07-15T16:44:46+06:00,
1000000000422507,77782328448,mKarTel,mKcell,mKcell,,D01,2017-07-15T16:45:53+06:00,
1000000000422508,77071983702,mMTS,mKarTel,mMTS,D01,D77,2017-07-15T16:46:13+06:00,
1000000000422509,77014966897,mKarTel,mKcell,mKcell,,D01,2017-07-15T16:48:50+06:00,
1000000000422510,77085049961,mKarTel,mAltel,mAltel,,D01,2017-07-15T16:49:04+06:00,
1000000000422513,77009999998,mKarTel,mAltel,mAltel,,D01,2017-07-15T16:54:02+06:00,
1000000000422514,77056647380,mKarTel,mMTS,mKarTel,D77,D01,2017-07-15T16:54:49+06:00,
1000000000422515,77016550315,mKcell,mAltel,mKcell,D07,D02,2017-07-15T16:55:25+06:00,
1000000000422516,77789572448,mAltel,mKcell,mKcell,,D07,2017-07-15T16:55:30+06:00,
1000000000422517,77767601919,mKarTel,mKcell,mKarTel,D02,D01,2017-07-15T16:58:31+06:00,
