NPId,Number,RecipientId,DonorId,RangeHolderId,OldRoute,NewRoute,PortDate,RowCount
1000000000443348,77057252020,mKarTel,mMTS,mKarTel,D77,D01,2017-08-21T17:31:56+06:00,26
1000000000443349,77023260001,mKcell,mMTS,mKcell,D77,D02,2017-08-21T17:32:32+06:00,
1000000000443350,77023200036,mMTS,mKcell,mKcell,,D77,2017-08-21T17:32:31+06:00,
1000000000443351,77072563706,mAltel,mMTS,mMTS,,D07,2017-08-21T17:32:24+06:00,
1000000000443352,77475047885,mKarTel,mMTS,mMTS,,D01,2017-08-21T17:34:27+06:00,
1000000000443353,77083481828,mKcell,mAltel,mAltel,,D02,2017-08-21T17:34:51+06:00,
1000000000443354,77006080608,mMTS,mAltel,mAltel,,D77,2017-08-21T17:34:50+06:00,
1000000000443355,77750736501,mKarTel,mKcell,mKcell,,D01,2017-08-21T17:36:25+06:00,
1000000000443356,77756145046,mMTS,mKcell,mKcell,,D77,2017-08-21T17:36:22+06:00,
1000000000443358,77012797971,mAltel,mKcell,mKcell,,D07,2017-08-21T17:37:28+06:00,
1000000000443359,77056526170,mKcell,mKarTel,mKarTel,,D02,2017-08-21T17:38:37+06:00,
1000000000443360,77079064979,mAltel,mMTS,mMTS,,D07,2017-08-21T17:39:18+06:00,
1000000000443361,77073317813,mAltel,mMTS,mMTS,,D07,2017-08-21T17:40:45+06:00,
1000000000443362,77027555557,mMTS,mKcell,mKcell,,D77,2017-08-21T17:41:35+06:00,
1000000000443363,77075424555,mKarTel,mMTS,mMTS,,D01,2017-08-21T17:42:38+06:00,
1000000000443365,77014149149,mKcell,mMTS,mKcell,D77,D02,2017-08-21T17:43:00+06:00,
1000000000443366,77085555599,mAltel,mKarTel,mAltel,D01,D07,2017-08-21T17:43:04+06:00,
1000000000443367,77078105367,mAltel,mMTS,mMTS,,D07,2017-08-21T17:43:53+06:00,
1000000000443368,77056030489,mAltel,mMTS,mKarTel,D77,D07,2017-08-21T17:45:17+06:00,
1000000000443369,77772848474,mMTS,mKarTel,mKarTel,,D77,2017-08-21T17:45:37+06:00,
1000000000443370,77017411119,mMTS,mKcell,mKcell,,D77,2017-08-21T17:45:37+06:00,
1000000000443371,77017528249,mKarTel,mKcell,mKcell,,D01,2017-08-21T17:48:22+06:00,
1000000000443372,77075689997,mKcell,mMTS,mMTS,,D02,2017-08-21T17:48:02+06:00,
1000000000443374,77478424202,mKarTel,mMTS,mMTS,,D01,2017-08-21T17:48:22+06:00,
1000000000443376,77762575555,mMTS,mKarTel,mKarTel,,D77,2017-08-21T17:50:09+06:00,
1000000000443380,77774395526,mKcell,mKarTel,mKarTel,,D02,2017-08-21T17:59:21+06:00,
