NPId,Number,RecipientId,DonorId,RangeHolderId,OldRoute,NewRoute,PortDate,RowCount
1000000000138588,77054698740,mMTS,mKarTel,mKarTel,,D77,2016-03-31T17:00:19+06:00,45
1000000000138590,77710060088,mMTS,mKarTel,mKarTel,,D77,2016-03-31T17:00:49+06:00,
1000000000138591,77015580022,mAltel,mKcell,mKcell,,D07,2016-03-31T17:00:03+06:00,
1000000000138592,77022333332,mMTS,mKcell,mKcell,,D77,2016-03-31T17:01:01+06:00,
1000000000138593,77013434648,mMTS,mKcell,mKcell,,D77,2016-03-31T17:01:02+06:00,
1000000000138594,77078281284,mKcell,mMTS,mMTS,,D02,2016-03-31T17:01:41+06:00,
1000000000138596,77083012636,mMTS,mAltel,mAltel,,D77,2016-03-31T17:02:02+06:00,
1000000000138598,77752026725,mMTS,mKcell,mKcell,,D77,2016-03-31T17:03:46+06:00,
1000000000138599,77024768759,mMTS,mKcell,mKcell,,D77,2016-03-31T17:03:59+06:00,
1000000000138601,77766230003,mMTS,mKarTel,mKarTel,,D77,2016-03-31T17:07:12+06:00,
1000000000138602,77774038687,mKcell,mKarTel,mKarTel,,D02,2016-03-31T17:07:56+06:00,
1000000000138603,77023818771,mMTS,mKcell,mKcell,,D77,2016-03-31T17:07:04+06:00,
1000000000138604,77014462546,mMTS,mKcell,mKcell,,D77,2016-03-31T17:07:54+06:00,
1000000000138605,77771057555,mAltel,mKarTel,mKarTel,,D07,2016-03-31T17:09:31+06:00,
1000000000138606,77768313010,mMTS,mKarTel,mKarTel,,D77,2016-03-31T17:11:23+06:00,
1000000000138607,77028980949,mMTS,mKcell,mKcell,,D77,2016-03-31T17:10:43+06:00,
1000000000138608,77017587465,mMTS,mKcell,mKcell,,D77,2016-03-31T17:10:43+06:00,
1000000000138609,77770778888,mKcell,mKarTel,mKarTel,,D02,2016-03-31T17:12:34+06:00,
1000000000138611,77057777351,mAltel,mKarTel,mKarTel,,D07,2016-03-31T17:13:44+06:00,
1000000000138612,77015163160,mAltel,mKcell,mKcell,,D07,2016-03-31T17:12:38+06:00,
1000000000138614,77026060642,mMTS,mKcell,mKcell,,D77,2016-03-31T17:15:08+06:00,
1000000000138617,77710500909,mMTS,mKarTel,mKarTel,,D77,2016-03-31T17:17:32+06:00,
1000000000138618,77085787100,mKcell,mAltel,mAltel,,D02,2016-03-31T17:16:25+06:00,
1000000000138619,77016438757,mMTS,mAltel,mKcell,D07,D77,2016-03-31T17:16:49+06:00,
1000000000138621,77072444476,mKcell,mMTS,mMTS,,D02,2016-03-31T17:17:30+06:00,
1000000000138623,77013747470,mMTS,mKcell,mKcell,,D77,2016-03-31T17:17:50+06:00,
1000000000138624,77754441451,mMTS,mKcell,mKcell,,D77,2016-03-31T17:18:02+06:00,
1000000000138625,77759888668,mKarTel,mKcell,mKcell,,D01,2016-03-31T17:19:24+06:00,
1000000000138627,77772830872,mMTS,mKarTel,mKarTel,,D77,2016-03-31T17:21:21+06:00,
1000000000138628,77781299944,mMTS,mKcell,mKcell,,D77,2016-03-31T17:20:14+06:00,
1000000000138629,77753736771,mMTS,mKcell,mKcell,,D77,2016-03-31T17:20:33+06:00,
1000000000138630,77012457345,mAltel,mKcell,mKcell,,D07,2016-03-31T17:20:39+06:00,
1000000000138636,77759414625,mMTS,mKcell,mKcell,,D77,2016-03-31T17:22:53+06:00,
1000000000138637,77051207007,mAltel,mKarTel,mKarTel,,D07,2016-03-31T17:24:11+06:00,
1000000000138639,77026938783,mMTS,mKcell,mKcell,,D77,2016-03-31T17:23:40+06:00,
1000000000138640,77085168924,mMTS,mAltel,mAltel,,D77,2016-03-31T17:24:06+06:00,
1000000000138642,77784734473,mKcell,mMTS,mKcell,D77,D02,2016-03-31T17:24:45+06:00,
1000000000138644,77028088838,mAltel,mKcell,mKcell,,D07,2016-03-31T17:25:17+06:00,
1000000000138645,77751821285,mMTS,mKcell,mKcell,,D77,2016-03-31T17:25:22+06:00,
1000000000138646,77772822822,mMTS,mKarTel,mKarTel,,D77,2016-03-31T17:28:01+06:00,
1000000000138647,77013275104,mMTS,mKcell,mKcell,,D77,2016-03-31T17:26:47+06:00,
1000000000138648,77019995207,mAltel,mKcell,mKcell,,D07,2016-03-31T17:27:02+06:00,
1000000000138649,77755601977,mKarTel,mKcell,mKcell,,D01,2016-03-31T17:27:29+06:00,
1000000000138650,77770310300,mMTS,mKarTel,mKarTel,,D77,2016-03-31T17:28:30+06:00,
1000000000138651,77006220102,mMTS,mAltel,mAltel,,D77,2016-03-31T17:27:48+06:00,
