NPId,Number,RecipientId,DonorId,RangeHolderId,OldRoute,NewRoute,PortDate,RowCount
1000000000271941,77079922819,mKcell,mMTS,mMTS,,D02,2016-11-01T15:04:46+06:00,22
1000000000271942,77017800018,mKcell,mMTS,mKcell,D77,D02,2016-11-01T15:05:03+06:00,
1000000000271943,77018649686,mKcell,mMTS,mKcell,D77,D02,2016-11-01T15:05:02+06:00,
1000000000271945,77715071422,mKcell,mKarTel,mKarTel,,D02,2016-11-01T15:22:19+06:00,
1000000000271946,77028113356,mKarTel,mKcell,mKcell,,D01,2016-11-01T15:01:11+06:00,
1000000000271947,77779375073,mMTS,mKarTel,mKarTel,,D77,2016-11-01T15:09:46+06:00,
1000000000271948,77755667711,mKcell,mAltel,mKcell,D07,D02,2016-11-01T15:01:50+06:00,
1000000000271951,77771937579,mKcell,mKarTel,mKarTel,,D02,2016-11-01T15:08:41+06:00,
1000000000271952,77719934432,mKcell,mKarTel,mKarTel,,D02,2016-11-01T15:27:33+06:00,
1000000000271953,77012522375,mKarTel,mKcell,mKcell,,D01,2016-11-01T15:06:35+06:00,
1000000000271954,77784070888,mKarTel,mKcell,mKcell,,D01,2016-11-01T15:06:41+06:00,
1000000000271955,77072960065,mKarTel,mMTS,mMTS,,D01,2016-11-01T15:16:13+06:00,
1000000000271956,77012335351,mKcell,mMTS,mKcell,D77,D02,2016-11-01T15:16:18+06:00,
1000000000271957,77078740802,mMTS,mKarTel,mMTS,D01,D77,2016-11-01T15:16:13+06:00,
1000000000271959,77476653960,mKcell,mMTS,mMTS,,D02,2016-11-01T15:16:25+06:00,
1000000000271960,77019998838,mKarTel,mKcell,mKcell,,D01,2016-11-01T15:17:26+06:00,
1000000000271961,77771892842,mKarTel,mMTS,mKarTel,D77,D01,2016-11-01T15:19:43+06:00,
1000000000271966,77774754095,mKcell,mKarTel,mKarTel,,D02,2016-11-01T15:23:36+06:00,
1000000000271967,77081114707,mKcell,mAltel,mAltel,,D02,2016-11-01T15:23:36+06:00,
1000000000271968,77714861590,mKarTel,mAltel,mKarTel,D07,D01,2016-11-01T15:24:59+06:00,
1000000000271970,77018872127,mKarTel,mKcell,mKcell,,D01,2016-11-01T15:26:47+06:00,
1000000000271971,77017855003,mKarTel,mKcell,mKcell,,D01,2016-11-01T15:28:38+06:00,
