NPId,Number,RecipientId,DonorId,RangeHolderId,OldRoute,NewRoute,PortDate,RowCount
1000000000428116,77013498057,mAltel,mKcell,mKcell,,D07,2017-07-25T17:30:20+06:00,27
1000000000428117,77014152788,mMTS,mKcell,mKcell,,D77,2017-07-25T17:30:31+06:00,
1000000000428118,77013250309,mKcell,mMTS,mKcell,D77,D02,2017-07-25T17:31:18+06:00,
1000000000428121,77006060292,mKcell,mAltel,mAltel,,D02,2017-07-25T17:34:06+06:00,
1000000000428122,77021975351,mMTS,mKcell,mKcell,,D77,2017-07-25T17:34:10+06:00,
1000000000428124,77014744747,mMTS,mKarTel,mKcell,D01,D77,2017-07-25T17:38:27+06:00,
1000000000428125,77009673372,mAltel,mMTS,mAltel,D77,D07,2017-07-25T17:40:00+06:00,
1000000000428126,77058365636,mKarTel,mMTS,mKarTel,D77,D01,2017-07-25T17:40:18+06:00,
1000000000428127,77775503737,mKcell,mKarTel,mKarTel,,D02,2017-07-25T17:41:26+06:00,
1000000000428128,77010713223,mKarTel,mKcell,mKcell,,D01,2017-07-25T17:42:20+06:00,
1000000000428129,77472964076,mMTS,mAltel,mMTS,D07,D77,2017-07-25T17:42:04+06:00,
1000000000428130,77776193275,mAltel,mKarTel,mKarTel,,D07,2017-07-25T17:46:05+06:00,
1000000000428131,77000210071,mMTS,mKcell,mAltel,D02,D77,2017-07-25T17:46:05+06:00,
1000000000428132,77787889245,mKarTel,mKcell,mKcell,,D01,2017-07-25T17:46:59+06:00,
1000000000428133,77757485753,mKcell,mMTS,mKcell,D77,D02,2017-07-25T17:48:17+06:00,
1000000000428134,77757927087,mAltel,mKcell,mKcell,,D07,2017-07-25T17:49:06+06:00,
1000000000428136,77087577928,mKcell,mAltel,mAltel,,D02,2017-07-25T17:51:33+06:00,
1000000000428138,77004350515,mMTS,mAltel,mAltel,,D77,2017-07-25T17:52:05+06:00,
1000000000428140,77021041571,mMTS,mKcell,mKcell,,D77,2017-07-25T17:55:39+06:00,
1000000000428141,77087224503,mMTS,mAltel,mAltel,,D77,2017-07-25T17:55:28+06:00,
1000000000428142,77474117508,mAltel,mMTS,mMTS,,D07,2017-07-25T17:55:55+06:00,
1000000000428143,77056934657,mMTS,mKarTel,mKarTel,,D77,2017-07-25T17:57:05+06:00,
1000000000428144,77011906465,mKarTel,mKcell,mKcell,,D01,2017-07-25T17:57:13+06:00,
1000000000428146,77013294997,mAltel,mKcell,mKcell,,D07,2017-07-25T17:58:02+06:00,
1000000000428148,77089191021,mKcell,mAltel,mAltel,,D02,2017-07-25T17:59:29+06:00,
1000000000428149,77077539423,mKarTel,mMTS,mMTS,,D01,2017-07-25T17:59:29+06:00,
1000000000428151,77025000422,mAltel,mKcell,mKcell,,D07,2017-07-25T17:59:40+06:00,
