NPId,Number,RecipientId,DonorId,RangeHolderId,OldRoute,NewRoute,PortDate,RowCount
1000000000435743,77018999554,mMTS,mKcell,mKcell,,D77,2017-08-06T16:01:46+06:00,8
1000000000435744,77761991099,mMTS,mKarTel,mKarTel,,D77,2017-08-06T16:12:45+06:00,
1000000000435745,77012202005,mMTS,mKcell,mKcell,,D77,2017-08-06T16:12:32+06:00,
1000000000435746,77753814128,mMTS,mKcell,mKcell,,D77,2017-08-06T16:13:11+06:00,
1000000000435748,77473491995,mKarTel,mMTS,mMTS,,D01,2017-08-06T16:22:08+06:00,
1000000000435749,77756208833,mMTS,mKcell,mKcell,,D77,2017-08-06T16:22:24+06:00,
1000000000435750,77768010289,mKcell,mKarTel,mKarTel,,D02,2017-08-06T16:27:41+06:00,
1000000000435751,77759629444,mAltel,mKarTel,mKcell,D01,D07,2017-08-06T16:29:18+06:00,
