NPId,Number,RecipientId,DonorId,RangeHolderId,OldRoute,NewRoute,PortDate,RowCount
1000000000406455,77073035558,mMTS,mKarTel,mMTS,D01,D77,2017-06-27T10:55:39+06:00,26
1000000000410038,77772153636,mKarTel,mKcell,mKarTel,D02,D01,2017-06-27T10:53:13+06:00,
1000000000410276,77029402272,mMTS,mKarTel,mKcell,D01,D77,2017-06-27T10:32:10+06:00,
1000000000410278,77718400608,mKcell,mKarTel,mKarTel,,D02,2017-06-27T10:35:16+06:00,
1000000000410279,77011056588,mAltel,mKcell,mKcell,,D07,2017-06-27T10:35:01+06:00,
1000000000410280,77770409919,mKcell,mKarTel,mKarTel,,D02,2017-06-27T10:38:27+06:00,
1000000000410281,77005705007,mKcell,mAltel,mAltel,,D02,2017-06-27T10:39:37+06:00,
1000000000410283,77003000766,mMTS,mAltel,mAltel,,D77,2017-06-27T10:39:58+06:00,
1000000000410284,77052702131,mKarTel,mAltel,mKarTel,D07,D01,2017-06-27T10:40:38+06:00,
1000000000410287,77022723530,mMTS,mKcell,mKcell,,D77,2017-06-27T10:41:57+06:00,
1000000000410288,77785485373,mAltel,mKcell,mKcell,,D07,2017-06-27T10:42:07+06:00,
1000000000410289,77479872091,mAltel,mMTS,mMTS,,D07,2017-06-27T10:42:19+06:00,
1000000000410290,77014411047,mMTS,mKcell,mKcell,,D77,2017-06-27T10:46:03+06:00,
1000000000410292,77021128323,mMTS,mKcell,mKcell,,D77,2017-06-27T10:46:29+06:00,
1000000000410293,77051011638,mMTS,mKcell,mKarTel,D02,D77,2017-06-27T10:47:35+06:00,
1000000000410295,77763968835,mKarTel,mMTS,mKarTel,D77,D01,2017-06-27T10:49:27+06:00,
1000000000410296,77077275748,mKarTel,mMTS,mMTS,,D01,2017-06-27T10:49:57+06:00,
1000000000410297,77017770604,mKcell,mAltel,mKcell,D07,D02,2017-06-27T10:51:32+06:00,
1000000000410298,77027175460,mMTS,mKcell,mKcell,,D77,2017-06-27T10:51:20+06:00,
1000000000410300,77767765885,mKcell,mKarTel,mKarTel,,D02,2017-06-27T10:53:22+06:00,
1000000000410301,77089994070,mKcell,mAltel,mAltel,,D02,2017-06-27T10:52:54+06:00,
1000000000410302,77055970177,mMTS,mKarTel,mKarTel,,D77,2017-06-27T10:54:18+06:00,
1000000000410303,77761707776,mMTS,mKcell,mKarTel,D02,D77,2017-06-27T10:54:29+06:00,
1000000000410305,77767765665,mKcell,mKarTel,mKarTel,,D02,2017-06-27T10:59:21+06:00,
1000000000410306,77073224280,mKarTel,mMTS,mMTS,,D01,2017-06-27T10:58:54+06:00,
1000000000410307,77085500300,mKarTel,mAltel,mAltel,D07,D01,2017-06-27T10:59:05+06:00,
