NPId,Number,RecipientId,DonorId,RangeHolderId,OldRoute,NewRoute,PortDate,RowCount
1000000000295182,77018690960,mMTS,mKcell,mKcell,,D77,2016-12-14T15:33:06+06:00,16
1000000000295185,77026675797,mAltel,mKcell,mKcell,,D07,2016-12-14T15:35:59+06:00,
1000000000295186,77766888810,mMTS,mKarTel,mKarTel,,D77,2016-12-14T15:37:56+06:00,
1000000000295189,77778970755,mMTS,mKarTel,mKarTel,,D77,2016-12-14T15:42:12+06:00,
1000000000295190,77762303188,mKcell,mKarTel,mKarTel,,D02,2016-12-14T15:44:22+06:00,
1000000000295192,77079855777,mKcell,mMTS,mMTS,,D02,2016-12-14T15:46:17+06:00,
1000000000295194,77072409292,mKarTel,mMTS,mMTS,,D01,2016-12-14T15:47:16+06:00,
1000000000295196,77781804888,mMTS,mKcell,mKcell,,D77,2016-12-14T15:47:40+06:00,
1000000000295198,77757550210,mKcell,mKarTel,mKcell,D01,D02,2016-12-14T15:48:37+06:00,
1000000000295199,77015286889,mMTS,mKcell,mKcell,,D77,2016-12-14T15:48:14+06:00,
1000000000295200,77077687680,mKcell,mMTS,mMTS,,D02,2016-12-14T15:48:49+06:00,
1000000000295204,77051850452,mAltel,mKarTel,mKarTel,,D07,2016-12-14T15:51:43+06:00,
1000000000295206,77479052464,mKcell,mMTS,mMTS,,D02,2016-12-14T15:53:31+06:00,
1000000000295209,77077687684,mKcell,mMTS,mMTS,,D02,2016-12-14T15:55:58+06:00,
1000000000295210,77019401005,mMTS,mKcell,mKcell,,D77,2016-12-14T15:56:41+06:00,
1000000000295211,77784290008,mMTS,mKcell,mKcell,,D77,2016-12-14T15:57:22+06:00,
