NPId,Number,RecipientId,DonorId,RangeHolderId,OldRoute,NewRoute,PortDate,RowCount
1000000000272809,77089199036,mMTS,mAltel,mAltel,,D77,2016-11-30T14:31:17+06:00,37
1000000000272967,77775951010,mMTS,mAltel,mKarTel,D07,D77,2016-11-30T14:30:43+06:00,
1000000000286948,77710006668,mMTS,mKarTel,mKarTel,,D77,2016-11-30T14:31:25+06:00,
1000000000286949,77007774431,mMTS,mAltel,mAltel,,D77,2016-11-30T14:31:15+06:00,
1000000000286950,77015332313,mMTS,mKcell,mKcell,,D77,2016-11-30T14:31:49+06:00,
1000000000286951,77775662728,mMTS,mKarTel,mKarTel,,D77,2016-11-30T14:32:18+06:00,
1000000000286954,77775122956,mMTS,mKarTel,mKarTel,,D77,2016-11-30T14:32:56+06:00,
1000000000286957,77013965768,mMTS,mKcell,mKcell,,D77,2016-11-30T14:33:54+06:00,
1000000000286958,77762219988,mMTS,mKarTel,mKarTel,,D77,2016-11-30T14:34:14+06:00,
1000000000286960,77072559096,mAltel,mMTS,mMTS,,D07,2016-11-30T14:35:25+06:00,
1000000000286961,77009998855,mKcell,mAltel,mAltel,,D02,2016-11-30T14:35:43+06:00,
1000000000286963,77027530975,mAltel,mKcell,mKcell,,D07,2016-11-30T14:36:48+06:00,
1000000000286964,77054910105,mKarTel,mMTS,mKarTel,D77,D01,2016-11-30T14:36:11+06:00,
1000000000286967,77766971053,mMTS,mKarTel,mKarTel,,D77,2016-11-30T14:37:57+06:00,
1000000000286968,77056085390,mMTS,mKarTel,mKarTel,,D77,2016-11-30T14:37:58+06:00,
1000000000286969,77756320261,mKarTel,mKcell,mKcell,,D01,2016-11-30T14:39:43+06:00,
1000000000286971,77029407900,mKcell,mKarTel,mKcell,D01,D02,2016-11-30T14:41:20+06:00,
1000000000286972,77074255390,mAltel,mMTS,mMTS,,D07,2016-11-30T14:40:43+06:00,
1000000000286974,77012462332,mMTS,mKcell,mKcell,,D77,2016-11-30T14:41:25+06:00,
1000000000286975,77012902229,mMTS,mKcell,mKcell,,D77,2016-11-30T14:41:57+06:00,
1000000000286976,77753333066,mKcell,mMTS,mKcell,D77,D02,2016-11-30T14:44:10+06:00,
1000000000286977,77017818200,mKarTel,mKcell,mKcell,,D01,2016-11-30T14:44:34+06:00,
1000000000286980,77071215181,mMTS,mKcell,mMTS,D02,D77,2016-11-30T14:46:21+06:00,
1000000000286982,77017843575,mKcell,mMTS,mKcell,D77,D02,2016-11-30T14:46:12+06:00,
1000000000286984,77013554450,mMTS,mKcell,mKcell,,D77,2016-11-30T14:49:00+06:00,
1000000000286985,77017995389,mMTS,mKcell,mKcell,,D77,2016-11-30T14:49:00+06:00,
1000000000286987,77773038841,mMTS,mKarTel,mKarTel,,D77,2016-11-30T14:51:31+06:00,
1000000000286988,77015356682,mKarTel,mKcell,mKcell,,D01,2016-11-30T14:51:51+06:00,
1000000000286989,77017387669,mKarTel,mKcell,mKcell,,D01,2016-11-30T14:51:51+06:00,
1000000000286991,77015716784,mKarTel,mKcell,mKcell,,D01,2016-11-30T14:53:28+06:00,
1000000000286992,77018677477,mMTS,mKcell,mKcell,,D77,2016-11-30T14:54:01+06:00,
1000000000286993,77023443097,mKcell,mMTS,mKcell,D77,D02,2016-11-30T14:55:02+06:00,
1000000000286995,77076003079,mKcell,mMTS,mMTS,,D02,2016-11-30T14:56:58+06:00,
1000000000286996,77010192525,mMTS,mKcell,mKcell,,D77,2016-11-30T14:56:58+06:00,
1000000000286999,77014442004,mKcell,mKarTel,mKcell,D01,D02,2016-11-30T14:58:18+06:00,
1000000000287000,77013042736,mAltel,mKcell,mKcell,,D07,2016-11-30T14:58:32+06:00,
1000000000287001,77011022003,mAltel,mKcell,mKcell,,D07,2016-11-30T14:58:49+06:00,
