NPId,Number,RecipientId,DonorId,RangeHolderId,OldRoute,NewRoute,PortDate,RowCount
1000000000435985,77767556565,mKcell,mKarTel,mKarTel,,D02,2017-08-07T12:31:03+06:00,28
1000000000435986,77017375111,mMTS,mKcell,mKcell,,D77,2017-08-07T12:32:59+06:00,
1000000000435987,77787289393,mMTS,mKcell,mKcell,,D77,2017-08-07T12:33:13+06:00,
1000000000435988,77015289998,mKcell,mMTS,mKcell,D77,D02,2017-08-07T12:33:37+06:00,
1000000000435990,77072490199,mAltel,mMTS,mMTS,,D07,2017-08-07T12:34:22+06:00,
1000000000435991,77478603235,mMTS,mAltel,mMTS,D07,D77,2017-08-07T12:34:23+06:00,
1000000000435992,77759531111,mMTS,mKcell,mKcell,,D77,2017-08-07T12:36:42+06:00,
1000000000435993,77477718278,mAltel,mMTS,mMTS,,D07,2017-08-07T12:37:13+06:00,
1000000000435995,77785009139,mMTS,mKcell,mKcell,,D77,2017-08-07T12:37:32+06:00,
1000000000435997,77078746814,mKarTel,mMTS,mMTS,,D01,2017-08-07T12:39:51+06:00,
1000000000435998,77471654185,mKarTel,mMTS,mMTS,,D01,2017-08-07T12:39:51+06:00,
1000000000436000,77778088884,mKcell,mKarTel,mKarTel,D01,D02,2017-08-07T12:43:02+06:00,
1000000000436001,77022200008,mMTS,mKcell,mKcell,,D77,2017-08-07T12:42:50+06:00,
1000000000436002,77013524111,mKarTel,mKcell,mKcell,,D01,2017-08-07T12:43:47+06:00,
1000000000436003,77075353491,mKcell,mKarTel,mMTS,D01,D02,2017-08-07T12:44:36+06:00,
1000000000436005,77020000421,mKcell,mKarTel,mKcell,D01,D02,2017-08-07T12:46:43+06:00,
1000000000436006,77477718279,mAltel,mMTS,mMTS,,D07,2017-08-07T12:46:20+06:00,
1000000000436008,77475022645,mAltel,mMTS,mMTS,,D07,2017-08-07T12:48:29+06:00,
1000000000436015,77077251227,mKarTel,mMTS,mMTS,,D01,2017-08-07T12:51:07+06:00,
1000000000436021,77472295286,mMTS,mKcell,mMTS,D02,D77,2017-08-07T12:52:24+06:00,
1000000000436026,77077094447,mMTS,mAltel,mMTS,D07,D77,2017-08-07T12:53:25+06:00,
1000000000436027,77083000808,mKarTel,mAltel,mAltel,,D01,2017-08-07T12:53:37+06:00,
1000000000436029,77476577773,mKarTel,mMTS,mMTS,,D01,2017-08-07T12:54:23+06:00,
1000000000436030,77011278105,mKcell,mMTS,mKcell,D77,D02,2017-08-07T12:54:46+06:00,
1000000000436033,77774721488,mKcell,mKarTel,mKarTel,,D02,2017-08-07T12:56:41+06:00,
1000000000436034,77017113882,mKcell,mMTS,mKcell,D77,D02,2017-08-07T12:56:44+06:00,
1000000000436035,77013228713,mKcell,mMTS,mKcell,D77,D02,2017-08-07T12:59:28+06:00,
1000000000436036,77476577772,mKarTel,mMTS,mMTS,,D01,2017-08-07T12:59:30+06:00,
