NPId,Number,RecipientId,DonorId,RangeHolderId,OldRoute,NewRoute,PortDate,RowCount
1000000000362103,77003230440,mKcell,mAltel,mAltel,,D02,2017-04-08T10:31:07+06:00,22
1000000000362104,77012231522,mMTS,mKcell,mKcell,,D77,2017-04-08T10:33:32+06:00,
1000000000362105,77769900012,mAltel,mKarTel,mKarTel,,D07,2017-04-08T10:34:12+06:00,
1000000000362106,77779999713,mKcell,mKarTel,mKarTel,,D02,2017-04-08T10:35:23+06:00,
1000000000362109,77016612661,mKarTel,mKcell,mKcell,,D01,2017-04-08T10:36:50+06:00,
1000000000362110,77475939194,mKcell,mMTS,mMTS,,D02,2017-04-08T10:37:19+06:00,
1000000000362112,77015224485,mMTS,mKcell,mKcell,,D77,2017-04-08T10:38:14+06:00,
1000000000362113,77017203184,mKarTel,mKcell,mKcell,,D01,2017-04-08T10:38:35+06:00,
1000000000362114,77766698777,mMTS,mKarTel,mKarTel,,D77,2017-04-08T10:38:46+06:00,
1000000000362115,77785000071,mKcell,mMTS,mKcell,D77,D02,2017-04-08T10:39:03+06:00,
1000000000362116,77753149996,mMTS,mKcell,mKcell,,D77,2017-04-08T10:41:04+06:00,
1000000000362117,77759152636,mKcell,mKarTel,mKcell,D01,D02,2017-04-08T10:41:51+06:00,
1000000000362119,77017330954,mMTS,mKcell,mKcell,,D77,2017-04-08T10:44:40+06:00,
1000000000362120,77028927799,mMTS,mKcell,mKcell,,D77,2017-04-08T10:47:12+06:00,
1000000000362122,77767166555,mMTS,mKarTel,mKarTel,,D77,2017-04-08T10:50:28+06:00,
1000000000362123,77007796444,mAltel,mMTS,mAltel,D77,D07,2017-04-08T10:50:44+06:00,
1000000000362124,77018325000,mAltel,mKcell,mKcell,,D07,2017-04-08T10:51:32+06:00,
1000000000362125,77015216560,mKarTel,mKcell,mKcell,,D01,2017-04-08T10:52:54+06:00,
1000000000362126,77759870660,mKarTel,mKcell,mKcell,D02,D01,2017-04-08T10:54:41+06:00,
1000000000362127,77027608489,mKcell,mAltel,mKcell,D07,D02,2017-04-08T10:55:30+06:00,
1000000000362128,77051534040,mMTS,mKarTel,mKarTel,,D77,2017-04-08T10:56:05+06:00,
1000000000362129,77017203186,mKarTel,mAltel,mKcell,D07,D01,2017-04-08T10:56:44+06:00,
