NPId,Number,RecipientId,DonorId,RangeHolderId,OldRoute,NewRoute,PortDate,RowCount
1000000000141123,77012300003,mMTS,mKcell,mKcell,,D77,2016-04-03T05:42:24+06:00,2
1000000000141124,77029232323,mMTS,mKcell,mKcell,,D77,2016-04-03T05:57:17+06:00,
