NPId,Number,RecipientId,DonorId,RangeHolderId,OldRoute,NewRoute,PortDate,RowCount
1000000000274445,77081721987,mMTS,mAltel,mAltel,,D77,2016-11-25T19:32:54+06:00,6
1000000000284381,77011518383,mAltel,mKcell,mKcell,,D07,2016-11-25T19:38:06+06:00,
1000000000284382,77018010414,mMTS,mKcell,mKcell,,D77,2016-11-25T19:41:34+06:00,
1000000000284383,77771999066,mKcell,mAltel,mKarTel,D07,D02,2016-11-25T19:43:08+06:00,
1000000000284385,77757164430,mKarTel,mKcell,mKcell,,D01,2016-11-25T19:54:24+06:00,
1000000000284386,77016358264,mKarTel,mKcell,mKcell,,D01,2016-11-25T19:56:34+06:00,
