NPId,Number,RecipientId,DonorId,RangeHolderId,OldRoute,NewRoute,PortDate,RowCount
1000000000328250,77787907799,mAltel,mKcell,mKcell,,D07,2017-02-13T15:00:36+06:00,21
1000000000328251,77770870591,mKarTel,mAltel,mKarTel,D07,D01,2017-02-13T15:02:07+06:00,
1000000000328252,77027472416,mAltel,mKcell,mKcell,,D07,2017-02-13T15:02:51+06:00,
1000000000328253,77029006603,mAltel,mKcell,mKcell,,D07,2017-02-13T15:04:08+06:00,
1000000000328255,77081993321,mKcell,mAltel,mAltel,,D02,2017-02-13T15:06:01+06:00,
1000000000328256,77071120295,mAltel,mMTS,mMTS,,D07,2017-02-13T15:05:57+06:00,
1000000000328258,77089102695,mMTS,mAltel,mAltel,,D77,2017-02-13T15:09:36+06:00,
1000000000328259,77771303380,mMTS,mKarTel,mKarTel,,D77,2017-02-13T15:11:02+06:00,
1000000000328261,77003340921,mMTS,mAltel,mAltel,,D77,2017-02-13T15:11:16+06:00,
1000000000328262,77756237703,mAltel,mKcell,mKcell,,D07,2017-02-13T15:11:22+06:00,
1000000000328263,77003238989,mKcell,mAltel,mAltel,,D02,2017-02-13T15:13:16+06:00,
1000000000328264,77772454810,mKcell,mKarTel,mKarTel,,D02,2017-02-13T15:14:05+06:00,
1000000000328266,77020000582,mAltel,mKcell,mKcell,,D07,2017-02-13T15:16:25+06:00,
1000000000328272,77003334491,mKcell,mAltel,mAltel,,D02,2017-02-13T15:21:24+06:00,
1000000000328273,77772401140,mMTS,mKarTel,mKarTel,,D77,2017-02-13T15:22:28+06:00,
1000000000328274,77015012131,mMTS,mKarTel,mKcell,D01,D77,2017-02-13T15:23:10+06:00,
1000000000328275,77751422773,mMTS,mKcell,mKcell,,D77,2017-02-13T15:23:33+06:00,
1000000000328278,77078803946,mKarTel,mMTS,mMTS,,D01,2017-02-13T15:25:26+06:00,
1000000000328279,77755995849,mKarTel,mKcell,mKcell,,D01,2017-02-13T15:27:07+06:00,
1000000000328280,77473830677,mKcell,mMTS,mMTS,,D02,2017-02-13T15:27:49+06:00,
1000000000328281,77006069494,mKcell,mAltel,mAltel,,D02,2017-02-13T15:28:02+06:00,
