NPId,Number,RecipientId,DonorId,RangeHolderId,OldRoute,NewRoute,PortDate,RowCount
1000000000358248,77010770370,mKcell,mMTS,mKcell,D77,D02,2017-04-02T20:01:58+06:00,5
1000000000358249,77017677799,mKarTel,mKcell,mKcell,,D01,2017-04-02T20:14:01+06:00,
1000000000358250,77776183058,mKcell,mKarTel,mKarTel,,D02,2017-04-02T20:18:52+06:00,
1000000000358251,77786430008,mKarTel,mKcell,mKcell,,D01,2017-04-02T20:24:48+06:00,
1000000000358252,77775937433,mKcell,mKarTel,mKarTel,,D02,2017-04-02T20:26:41+06:00,
