NPId,Number,RecipientId,DonorId,RangeHolderId,OldRoute,NewRoute,PortDate,RowCount
1000000000308064,77017839144,mKcell,mKarTel,mKcell,D01,D02,2017-01-09T18:07:16+06:00,33
1000000000308085,77019331450,mKcell,mKarTel,mKcell,D01,D02,2017-01-09T18:09:28+06:00,
1000000000308091,77015533361,mMTS,mKcell,mKcell,,D77,2017-01-09T18:00:05+06:00,
1000000000308092,77477030984,mKarTel,mMTS,mMTS,,D01,2017-01-09T18:00:54+06:00,
1000000000308093,77022765676,mMTS,mKcell,mKcell,,D77,2017-01-09T18:04:12+06:00,
1000000000308095,77772564697,mMTS,mKarTel,mKarTel,,D77,2017-01-09T18:02:16+06:00,
1000000000308096,77012210938,mKcell,mKarTel,mKcell,D01,D02,2017-01-09T18:18:03+06:00,
1000000000308097,77073121803,mKcell,mMTS,mMTS,,D02,2017-01-09T18:02:52+06:00,
1000000000308099,77000888625,mKcell,mAltel,mAltel,,D02,2017-01-09T18:04:56+06:00,
1000000000308100,77019997382,mKcell,mMTS,mKcell,D77,D02,2017-01-09T18:04:59+06:00,
1000000000308102,77017567083,mMTS,mKcell,mKcell,,D77,2017-01-09T18:06:30+06:00,
1000000000308103,77012210223,mKcell,mKarTel,mKcell,D01,D02,2017-01-09T18:22:08+06:00,
1000000000308104,77059009719,mMTS,mKcell,mKarTel,D02,D77,2017-01-09T18:07:02+06:00,
1000000000308105,77000888315,mKcell,mAltel,mAltel,,D02,2017-01-09T18:07:16+06:00,
1000000000308106,77053269090,mKcell,mMTS,mKarTel,D77,D02,2017-01-09T18:07:47+06:00,
1000000000308108,77779398185,mKarTel,mAltel,mKarTel,D07,D01,2017-01-09T18:08:56+06:00,
1000000000308109,77000888465,mKcell,mAltel,mAltel,,D02,2017-01-09T18:09:07+06:00,
1000000000308110,77019535863,mMTS,mKcell,mKcell,,D77,2017-01-09T18:09:17+06:00,
1000000000308111,77012774748,mKcell,mMTS,mKcell,D77,D02,2017-01-09T18:10:08+06:00,
1000000000308112,77752500200,mKcell,mMTS,mKcell,D77,D02,2017-01-09T18:11:45+06:00,
1000000000308114,77017680897,mMTS,mKcell,mKcell,,D77,2017-01-09T18:16:35+06:00,
1000000000308115,77003382500,mMTS,mAltel,mAltel,,D77,2017-01-09T18:16:44+06:00,
1000000000308116,77073269090,mKcell,mMTS,mMTS,,D02,2017-01-09T18:17:11+06:00,
1000000000308117,77776286037,mMTS,mKarTel,mKarTel,,D77,2017-01-09T18:18:00+06:00,
1000000000308118,77756518523,mMTS,mKcell,mKcell,,D77,2017-01-09T18:17:50+06:00,
1000000000308119,77023063436,mAltel,mKcell,mKcell,,D07,2017-01-09T18:18:00+06:00,
1000000000308120,77018873767,mMTS,mKcell,mKcell,,D77,2017-01-09T18:18:02+06:00,
1000000000308121,77055577393,mKcell,mMTS,mKarTel,D77,D02,2017-01-09T18:19:46+06:00,
1000000000308123,77052996633,mKcell,mKarTel,mKarTel,,D02,2017-01-09T18:20:01+06:00,
1000000000308126,77082880070,mKarTel,mAltel,mAltel,,D01,2017-01-09T18:22:27+06:00,
1000000000308127,77472080891,mAltel,mMTS,mMTS,,D07,2017-01-09T18:23:24+06:00,
1000000000308131,77004933330,mMTS,mAltel,mAltel,,D77,2017-01-09T18:24:28+06:00,
1000000000308132,77786448885,mMTS,mKcell,mKcell,,D77,2017-01-09T18:26:03+06:00,
