NPId,Number,RecipientId,DonorId,RangeHolderId,OldRoute,NewRoute,PortDate,RowCount
1000000000279993,77774740063,mKarTel,mMTS,mKarTel,D77,D01,2016-11-16T15:01:57+06:00,17
1000000000279995,77754298787,mMTS,mKcell,mKcell,,D77,2016-11-16T15:03:16+06:00,
1000000000279996,77017116009,mMTS,mKcell,mKcell,,D77,2016-11-16T15:03:48+06:00,
1000000000279997,77789214444,mKarTel,mKcell,mKcell,,D01,2016-11-16T15:07:00+06:00,
1000000000279999,77788266868,mMTS,mKcell,mKcell,,D77,2016-11-16T15:08:05+06:00,
1000000000280000,77017125614,mMTS,mKcell,mKcell,,D77,2016-11-16T15:08:15+06:00,
1000000000280002,77077743976,mKarTel,mMTS,mMTS,,D01,2016-11-16T15:10:24+06:00,
1000000000280003,77019903624,mKarTel,mKcell,mKcell,,D01,2016-11-16T15:12:14+06:00,
1000000000280005,77753641086,mAltel,mKcell,mKcell,,D07,2016-11-16T15:15:18+06:00,
1000000000280006,77076370457,mKcell,mMTS,mMTS,,D02,2016-11-16T15:15:24+06:00,
1000000000280007,77075393007,mMTS,mKcell,mMTS,D02,D77,2016-11-16T15:16:17+06:00,
1000000000280008,77058181881,mKcell,mKarTel,mKarTel,D01,D02,2016-11-16T15:17:18+06:00,
1000000000280010,77054574454,mAltel,mKarTel,mKarTel,,D07,2016-11-16T15:19:27+06:00,
1000000000280011,77777027078,mMTS,mKarTel,mKarTel,,D77,2016-11-16T15:19:51+06:00,
1000000000280015,77775555771,mKcell,mKarTel,mKarTel,,D02,2016-11-16T15:24:51+06:00,
1000000000280018,77767150606,mMTS,mKarTel,mKarTel,,D77,2016-11-16T15:26:19+06:00,
1000000000280019,77471997771,mKarTel,mMTS,mMTS,,D01,2016-11-16T15:27:26+06:00,
