NPId,Number,RecipientId,DonorId,RangeHolderId,OldRoute,NewRoute,PortDate,RowCount
1000000000281482,77016582215,mAltel,mKcell,mKcell,,D07,2016-11-19T18:02:37+06:00,12
1000000000281483,77051744784,mMTS,mKarTel,mKarTel,,D77,2016-11-19T18:07:52+06:00,
1000000000281485,77015542342,mKcell,mMTS,mKcell,D77,D02,2016-11-19T18:09:47+06:00,
1000000000281486,77750002102,mKcell,mMTS,mKcell,D77,D02,2016-11-19T18:10:20+06:00,
1000000000281487,77012889161,mAltel,mKcell,mKcell,,D07,2016-11-19T18:12:13+06:00,
1000000000281488,77023605253,mKcell,mKarTel,mKcell,D01,D02,2016-11-19T18:13:39+06:00,
1000000000281489,77766864040,mMTS,mKarTel,mKarTel,,D77,2016-11-19T18:17:55+06:00,
1000000000281490,77051010438,mMTS,mKarTel,mKarTel,,D77,2016-11-19T18:17:55+06:00,
1000000000281491,77768889999,mKcell,mKarTel,mKarTel,,D02,2016-11-19T18:20:37+06:00,
1000000000281492,77029096686,mKcell,mAltel,mKcell,D07,D02,2016-11-19T18:20:52+06:00,
1000000000281493,77014366885,mMTS,mKcell,mKcell,,D77,2016-11-19T18:22:34+06:00,
1000000000281494,77089008468,mKcell,mAltel,mAltel,,D02,2016-11-19T18:27:01+06:00,
