NPId,Number,RecipientId,DonorId,RangeHolderId,OldRoute,NewRoute,PortDate,RowCount
1000000000328384,77055805599,mAltel,mKarTel,mKarTel,,D07,2017-02-13T17:00:19+06:00,21
1000000000328385,77772555882,mMTS,mKarTel,mKarTel,,D77,2017-02-13T17:02:05+06:00,
1000000000328386,77021535155,mMTS,mKcell,mKcell,,D77,2017-02-13T17:01:50+06:00,
1000000000328388,77714182907,mAltel,mKarTel,mKarTel,,D07,2017-02-13T17:02:47+06:00,
1000000000328389,77026906237,mMTS,mKcell,mKcell,,D77,2017-02-13T17:02:53+06:00,
1000000000328391,77054996890,mKarTel,mAltel,mKarTel,D07,D01,2017-02-13T17:06:13+06:00,
1000000000328392,77014690575,mMTS,mKcell,mKcell,,D77,2017-02-13T17:08:19+06:00,
1000000000328393,77025918282,mKcell,mAltel,mKcell,D07,D02,2017-02-13T17:11:13+06:00,
1000000000328396,77471222247,mKarTel,mKcell,mMTS,D02,D01,2017-02-13T17:11:26+06:00,
1000000000328397,77087733976,mMTS,mKarTel,mAltel,D01,D77,2017-02-13T17:12:24+06:00,
1000000000328398,77772303308,mMTS,mKarTel,mKarTel,,D77,2017-02-13T17:13:03+06:00,
1000000000328400,77087733975,mMTS,mKarTel,mAltel,D01,D77,2017-02-13T17:13:54+06:00,
1000000000328403,77003999303,mMTS,mAltel,mAltel,,D77,2017-02-13T17:15:33+06:00,
1000000000328406,77027048616,mKarTel,mKcell,mKcell,,D01,2017-02-13T17:19:20+06:00,
1000000000328408,77017245670,mKarTel,mKcell,mKcell,,D01,2017-02-13T17:23:17+06:00,
1000000000328409,77084097176,mKarTel,mAltel,mAltel,,D01,2017-02-13T17:23:17+06:00,
1000000000328410,77088410604,mKcell,mAltel,mAltel,,D02,2017-02-13T17:23:46+06:00,
1000000000328411,77027811993,mMTS,mKcell,mKcell,,D77,2017-02-13T17:24:42+06:00,
1000000000328412,77019132810,mMTS,mKcell,mKcell,,D77,2017-02-13T17:26:01+06:00,
1000000000328413,77783900529,mMTS,mKcell,mKcell,,D77,2017-02-13T17:27:10+06:00,
1000000000328416,77788786888,mKcell,mMTS,mKcell,D77,D02,2017-02-13T17:28:50+06:00,
