NPId,Number,RecipientId,DonorId,RangeHolderId,OldRoute,NewRoute,PortDate,RowCount
1000000000223291,77779959566,mKcell,mKarTel,mKarTel,,D02,2016-08-04T13:01:16+06:00,14
1000000000223292,77017310397,mKcell,mKarTel,mKcell,D01,D02,2016-08-04T13:02:21+06:00,
1000000000223296,77755334008,mKcell,mKarTel,mKcell,D01,D02,2016-08-04T13:10:32+06:00,
1000000000223297,77762388882,mKcell,mKarTel,mKarTel,,D02,2016-08-04T13:11:18+06:00,
1000000000223298,77054007763,mKarTel,mAltel,mKarTel,D07,D01,2016-08-04T13:09:49+06:00,
1000000000223299,77003266777,mKcell,mAltel,mAltel,,D02,2016-08-04T13:10:17+06:00,
1000000000223301,77079498590,mMTS,mAltel,mMTS,D07,D77,2016-08-04T13:11:51+06:00,
1000000000223303,77018802408,mMTS,mKcell,mKcell,,D77,2016-08-04T13:17:33+06:00,
1000000000223305,77015335713,mKarTel,mKcell,mKcell,,D01,2016-08-04T13:18:53+06:00,
1000000000223306,77051118118,mMTS,mKarTel,mKarTel,,D77,2016-08-04T13:21:58+06:00,
1000000000223308,77052050267,mKarTel,mMTS,mKarTel,D77,D01,2016-08-04T13:22:40+06:00,
1000000000223309,77018313565,mAltel,mKcell,mKcell,,D07,2016-08-04T13:25:54+06:00,
1000000000223310,77072878063,mAltel,mMTS,mMTS,,D07,2016-08-04T13:27:13+06:00,
1000000000223314,77077873475,mKarTel,mAltel,mMTS,D07,D01,2016-08-04T13:29:02+06:00,
