NPId,Number,RecipientId,DonorId,RangeHolderId,OldRoute,NewRoute,PortDate,RowCount
1000000000274196,77777410375,mKarTel,mMTS,mKarTel,D77,D01,2016-11-04T17:00:27+06:00,17
1000000000274200,77716310000,mKcell,mKarTel,mKarTel,,D02,2016-11-04T17:06:42+06:00,
1000000000274201,77771988848,mAltel,mKarTel,mKarTel,,D07,2016-11-04T17:09:56+06:00,
1000000000274204,77759230000,mKcell,mMTS,mKcell,D77,D02,2016-11-04T17:12:23+06:00,
1000000000274205,77056504644,mAltel,mKarTel,mKarTel,,D07,2016-11-04T17:12:51+06:00,
1000000000274206,77473444463,mKarTel,mMTS,mMTS,,D01,2016-11-04T17:13:29+06:00,
1000000000274207,77004455007,mKcell,mMTS,mAltel,D77,D02,2016-11-04T17:14:12+06:00,
1000000000274208,77716057777,mKarTel,mAltel,mKarTel,D07,D01,2016-11-04T17:14:25+06:00,
1000000000274209,77012700955,mMTS,mKcell,mKcell,,D77,2016-11-04T17:14:23+06:00,
1000000000274210,77756792852,mMTS,mKcell,mKcell,,D77,2016-11-04T17:17:53+06:00,
1000000000274211,77716670357,mMTS,mKarTel,mKarTel,,D77,2016-11-04T17:18:13+06:00,
1000000000274215,77778008880,mAltel,mKarTel,mKarTel,,D07,2016-11-04T17:24:42+06:00,
1000000000274216,77017419146,mKarTel,mKcell,mKcell,,D01,2016-11-04T17:25:10+06:00,
1000000000274219,77014752112,mMTS,mKcell,mKcell,,D77,2016-11-04T17:27:02+06:00,
1000000000274221,77074043034,mKarTel,mMTS,mMTS,,D01,2016-11-04T17:27:34+06:00,
1000000000274222,77029449444,mKarTel,mKcell,mKcell,,D01,2016-11-04T17:28:36+06:00,
1000000000274223,77761133666,mMTS,mKarTel,mKarTel,,D77,2016-11-04T17:29:04+06:00,
