NPId,Number,RecipientId,DonorId,RangeHolderId,OldRoute,NewRoute,PortDate,RowCount
1000000000223689,77753118101,mMTS,mKcell,mKcell,,D77,2016-08-04T18:31:57+06:00,19
1000000000223690,77072758150,mKcell,mMTS,mMTS,,D02,2016-08-04T18:32:18+06:00,
1000000000223693,77769178008,mMTS,mKarTel,mKarTel,,D77,2016-08-04T18:39:02+06:00,
1000000000223694,77004411044,mMTS,mAltel,mAltel,,D77,2016-08-04T18:37:37+06:00,
1000000000223695,77755238995,mMTS,mKcell,mKcell,,D77,2016-08-04T18:40:33+06:00,
1000000000223696,77080231373,mAltel,mKarTel,mAltel,D01,D07,2016-08-04T18:42:15+06:00,
1000000000223697,77010555576,mAltel,mKcell,mKcell,,D07,2016-08-04T18:42:44+06:00,
1000000000223698,77771762138,mMTS,mKarTel,mKarTel,,D77,2016-08-04T18:44:46+06:00,
1000000000223699,77017391574,mMTS,mKcell,mKcell,,D77,2016-08-04T18:46:38+06:00,
1000000000223702,77087396979,mAltel,mMTS,mAltel,D77,D07,2016-08-04T18:48:37+06:00,
1000000000223703,77021377239,mKarTel,mKcell,mKcell,,D01,2016-08-04T18:51:13+06:00,
1000000000223704,77760866066,mKcell,mKarTel,mKarTel,,D02,2016-08-04T18:52:19+06:00,
1000000000223705,77758842897,mMTS,mKcell,mKcell,,D77,2016-08-04T18:52:08+06:00,
1000000000223706,77016970484,mKcell,mMTS,mKcell,D77,D02,2016-08-04T18:52:46+06:00,
1000000000223707,77071710100,mAltel,mMTS,mMTS,,D07,2016-08-04T18:53:59+06:00,
1000000000223708,77087170100,mAltel,mMTS,mAltel,D77,D07,2016-08-04T18:54:03+06:00,
1000000000223709,77013738366,mKcell,mMTS,mKcell,D77,D02,2016-08-04T18:54:31+06:00,
1000000000223710,77075350340,mKarTel,mMTS,mMTS,,D01,2016-08-04T18:56:29+06:00,
1000000000223711,77014805151,mKcell,mMTS,mKcell,D77,D02,2016-08-04T18:58:30+06:00,
