NPId,Number,RecipientId,DonorId,RangeHolderId,OldRoute,NewRoute,PortDate,RowCount
1000000000278056,77714022429,mKarTel,mKcell,mKarTel,D02,D01,2016-11-12T09:40:29+06:00,2
1000000000278057,77019166454,mKarTel,mMTS,mKcell,D77,D01,2016-11-12T09:51:59+06:00,
