NPId,Number,RecipientId,DonorId,RangeHolderId,OldRoute,NewRoute,PortDate,RowCount
1000000000368145,77024444379,mAltel,mKcell,mKcell,,D07,2017-04-19T11:01:56+06:00,19
1000000000368146,77713278777,mKcell,mKarTel,mKarTel,,D02,2017-04-19T11:03:06+06:00,
1000000000368147,77017088758,mKarTel,mKcell,mKcell,,D01,2017-04-19T11:04:46+06:00,
1000000000368148,77015260830,mKarTel,mKcell,mKcell,,D01,2017-04-19T11:07:39+06:00,
1000000000368149,77052311276,mMTS,mKarTel,mKarTel,,D77,2017-04-19T11:08:57+06:00,
1000000000368151,77028675535,mAltel,mKcell,mKcell,,D07,2017-04-19T11:09:45+06:00,
1000000000368152,77777770008,mKcell,mKarTel,mKarTel,,D02,2017-04-19T11:11:39+06:00,
1000000000368153,77758601160,mKarTel,mKcell,mKcell,,D01,2017-04-19T11:13:19+06:00,
1000000000368154,77014474598,mKarTel,mKcell,mKcell,,D01,2017-04-19T11:14:25+06:00,
1000000000368157,77083130713,mKcell,mAltel,mAltel,,D02,2017-04-19T11:19:23+06:00,
1000000000368160,77052418050,mAltel,mKarTel,mKarTel,,D07,2017-04-19T11:22:15+06:00,
1000000000368161,77776135704,mMTS,mKarTel,mKarTel,,D77,2017-04-19T11:23:09+06:00,
1000000000368162,77758880178,mMTS,mKarTel,mKcell,D01,D77,2017-04-19T11:25:04+06:00,
1000000000368164,77755550001,mKarTel,mAltel,mKcell,D07,D01,2017-04-19T11:26:58+06:00,
1000000000368165,77015569469,mAltel,mKcell,mKcell,,D07,2017-04-19T11:26:59+06:00,
1000000000368166,77087025555,mKarTel,mAltel,mAltel,,D01,2017-04-19T11:27:23+06:00,
1000000000368167,77077764267,mKcell,mMTS,mMTS,,D02,2017-04-19T11:27:40+06:00,
1000000000368170,77711667890,mKarTel,mMTS,mKarTel,D77,D01,2017-04-19T11:29:17+06:00,
1000000000368171,77071236003,mAltel,mMTS,mMTS,,D07,2017-04-19T11:29:06+06:00,
