NPId,Number,RecipientId,DonorId,RangeHolderId,OldRoute,NewRoute,PortDate,RowCount
1000000000427420,77788300333,mKcell,mKarTel,mKcell,D01,D02,2017-07-24T17:30:08+06:00,30
1000000000427424,77074777796,mMTS,mKarTel,mMTS,D01,D77,2017-07-24T17:31:23+06:00,
1000000000427426,77017801696,mKcell,mAltel,mKcell,D07,D02,2017-07-24T17:31:33+06:00,
1000000000427427,77026436092,mMTS,mKcell,mKcell,,D77,2017-07-24T17:32:38+06:00,
1000000000427428,77002005724,mMTS,mAltel,mAltel,,D77,2017-07-24T17:33:19+06:00,
1000000000427430,77007707525,mKcell,mAltel,mAltel,,D02,2017-07-24T17:34:08+06:00,
1000000000427432,77055555107,mKarTel,mAltel,mKarTel,D07,D01,2017-07-24T17:34:59+06:00,
1000000000427433,77007702575,mKcell,mAltel,mAltel,,D02,2017-07-24T17:36:20+06:00,
1000000000427436,77007703565,mKcell,mAltel,mAltel,,D02,2017-07-24T17:39:37+06:00,
1000000000427437,77022669922,mAltel,mKarTel,mKcell,D01,D07,2017-07-24T17:39:58+06:00,
1000000000427438,77015218885,mKarTel,mKcell,mKcell,,D01,2017-07-24T17:40:08+06:00,
1000000000427439,77077434683,mKcell,mMTS,mMTS,,D02,2017-07-24T17:40:17+06:00,
1000000000427440,77078218787,mMTS,mAltel,mMTS,D07,D77,2017-07-24T17:40:39+06:00,
1000000000427441,77000009874,mKcell,mAltel,mAltel,,D02,2017-07-24T17:42:15+06:00,
1000000000427442,77018356062,mMTS,mKcell,mKcell,,D77,2017-07-24T17:42:14+06:00,
1000000000427443,77757161132,mAltel,mKcell,mKcell,,D07,2017-07-24T17:42:35+06:00,
1000000000427444,77075418668,mAltel,mMTS,mMTS,,D07,2017-07-24T17:42:54+06:00,
1000000000427445,77088080881,mKcell,mAltel,mAltel,,D02,2017-07-24T17:43:20+06:00,
1000000000427449,77074446417,mKarTel,mMTS,mMTS,,D01,2017-07-24T17:45:12+06:00,
1000000000427450,77022020704,mAltel,mKcell,mKcell,,D07,2017-07-24T17:45:42+06:00,
1000000000427451,77076668689,mKarTel,mMTS,mMTS,,D01,2017-07-24T17:45:52+06:00,
1000000000427452,77077789097,mKcell,mMTS,mMTS,,D02,2017-07-24T17:48:33+06:00,
1000000000427454,77072223949,mKcell,mMTS,mMTS,,D02,2017-07-24T17:51:57+06:00,
1000000000427455,77781749676,mKarTel,mKcell,mKcell,D02,D01,2017-07-24T17:52:03+06:00,
1000000000427456,77004401494,mMTS,mAltel,mAltel,,D77,2017-07-24T17:53:15+06:00,
1000000000427457,77074892006,mKcell,mMTS,mMTS,,D02,2017-07-24T17:53:59+06:00,
1000000000427458,77474422318,mKarTel,mMTS,mMTS,,D01,2017-07-24T17:54:41+06:00,
1000000000427459,77789977701,mKarTel,mKcell,mKcell,,D01,2017-07-24T17:55:41+06:00,
1000000000427460,77006662096,mMTS,mAltel,mAltel,,D77,2017-07-24T17:56:05+06:00,
1000000000427463,77472278797,mKcell,mMTS,mMTS,,D02,2017-07-24T17:57:53+06:00,
