NPId,Number,RecipientId,DonorId,RangeHolderId,OldRoute,NewRoute,PortDate,RowCount
1000000000383023,77773628340,mAltel,mKarTel,mKarTel,,D07,2017-05-15T09:31:07+06:00,10
1000000000383024,77472478049,mMTS,mAltel,mMTS,D07,D77,2017-05-15T09:31:32+06:00,
1000000000383025,77751034512,mKcell,mMTS,mKcell,D77,D02,2017-05-15T09:32:35+06:00,
1000000000383026,77472880120,mMTS,mAltel,mMTS,D07,D77,2017-05-15T09:32:26+06:00,
1000000000383027,77019516323,mKarTel,mKcell,mKcell,,D01,2017-05-15T09:33:39+06:00,
1000000000383028,77474086314,mKarTel,mMTS,mMTS,,D01,2017-05-15T09:39:02+06:00,
1000000000383029,77075215213,mKarTel,mMTS,mMTS,,D01,2017-05-15T09:41:25+06:00,
1000000000383030,77089447860,mMTS,mAltel,mAltel,,D77,2017-05-15T09:44:06+06:00,
1000000000383031,77759869307,mKcell,mKarTel,mKcell,D01,D02,2017-05-15T09:53:25+06:00,
1000000000383032,77082777699,mKcell,mAltel,mAltel,,D02,2017-05-15T09:57:07+06:00,
