NPId,Number,RecipientId,DonorId,RangeHolderId,OldRoute,NewRoute,PortDate,RowCount
1000000000282872,77712145574,mKcell,mKarTel,mKarTel,,D02,2016-11-23T12:32:57+06:00,30
1000000000282874,77473943921,mKcell,mKarTel,mMTS,D01,D02,2016-11-23T12:33:39+06:00,
1000000000282876,77712145575,mKcell,mKarTel,mKarTel,,D02,2016-11-23T12:35:47+06:00,
1000000000282877,77473943923,mKcell,mKarTel,mMTS,D01,D02,2016-11-23T12:36:18+06:00,
1000000000282881,77473943913,mKcell,mKarTel,mMTS,D01,D02,2016-11-23T12:38:31+06:00,
1000000000282882,77473943962,mKcell,mKarTel,mMTS,D01,D02,2016-11-23T12:38:43+06:00,
1000000000282889,77473944016,mKcell,mKarTel,mMTS,D01,D02,2016-11-23T12:41:14+06:00,
1000000000282891,77473943932,mKcell,mKarTel,mMTS,D01,D02,2016-11-23T12:41:51+06:00,
1000000000282892,77473944015,mKcell,mKarTel,mMTS,D01,D02,2016-11-23T12:42:52+06:00,
1000000000282894,77473943991,mKcell,mKarTel,mMTS,D01,D02,2016-11-23T12:43:47+06:00,
1000000000282895,77473943934,mKcell,mKarTel,mMTS,D01,D02,2016-11-23T12:43:48+06:00,
1000000000282901,77767077273,mMTS,mKarTel,mKarTel,,D77,2016-11-23T12:31:07+06:00,
1000000000282904,77004984090,mKcell,mAltel,mAltel,,D02,2016-11-23T12:33:36+06:00,
1000000000282905,77015773633,mKarTel,mKcell,mKcell,,D01,2016-11-23T12:34:06+06:00,
1000000000282906,77473943945,mKcell,mKarTel,mMTS,D01,D02,2016-11-23T12:50:27+06:00,
1000000000282908,77473943950,mKcell,mKarTel,mMTS,D01,D02,2016-11-23T12:51:52+06:00,
1000000000282909,77073501636,mKarTel,mMTS,mMTS,,D01,2016-11-23T12:37:03+06:00,
1000000000282911,77753222222,mAltel,mKcell,mKcell,,D07,2016-11-23T12:38:04+06:00,
1000000000282912,77019898847,mMTS,mKcell,mKcell,,D77,2016-11-23T12:38:08+06:00,
1000000000282914,77473943951,mKcell,mKarTel,mMTS,D01,D02,2016-11-23T12:54:05+06:00,
1000000000282915,77786216021,mKarTel,mKcell,mKcell,,D01,2016-11-23T12:39:49+06:00,
1000000000282916,77028777766,mAltel,mKcell,mKcell,,D07,2016-11-23T12:40:26+06:00,
1000000000282921,77770100190,mMTS,mKarTel,mKarTel,,D77,2016-11-23T12:47:55+06:00,
1000000000282922,77776155309,mMTS,mKarTel,mKarTel,,D77,2016-11-23T12:50:53+06:00,
1000000000282923,77771008222,mAltel,mKarTel,mKarTel,,D07,2016-11-23T12:52:46+06:00,
1000000000282924,77013915896,mMTS,mKcell,mKcell,,D77,2016-11-23T12:52:40+06:00,
1000000000282925,77079609600,mKarTel,mMTS,mMTS,,D01,2016-11-23T12:54:07+06:00,
1000000000282926,77776250625,mKarTel,mMTS,mKarTel,D77,D01,2016-11-23T12:55:35+06:00,
1000000000282928,77028822223,mMTS,mKcell,mKcell,,D77,2016-11-23T12:57:42+06:00,
1000000000282929,77078074723,mAltel,mMTS,mMTS,,D07,2016-11-23T12:58:58+06:00,
