NPId,Number,RecipientId,DonorId,RangeHolderId,OldRoute,NewRoute,PortDate,RowCount
1000000000222931,77017951314,mKcell,mKarTel,mKcell,D01,D02,2016-08-03T17:08:03+06:00,29
1000000000222936,77017259222,mKcell,mKarTel,mKcell,D01,D02,2016-08-03T17:12:11+06:00,
1000000000222941,77012452005,mKcell,mKarTel,mKcell,D01,D02,2016-08-03T17:17:10+06:00,
1000000000222942,77079038846,mKcell,mKarTel,mMTS,D01,D02,2016-08-03T17:19:57+06:00,
1000000000222942,77079038856,mKcell,mKarTel,mMTS,D01,D02,2016-08-03T17:19:57+06:00,
1000000000222942,77079038864,mKcell,mKarTel,mMTS,D01,D02,2016-08-03T17:19:57+06:00,
1000000000222942,77777321535,mKcell,mKarTel,mKarTel,,D02,2016-08-03T17:19:57+06:00,
1000000000222943,77017118328,mKarTel,mKcell,mKcell,,D01,2016-08-03T17:00:56+06:00,
1000000000222946,77073673567,mKarTel,mMTS,mMTS,,D01,2016-08-03T17:06:44+06:00,
1000000000222948,77028260204,mKarTel,mKcell,mKcell,,D01,2016-08-03T17:09:05+06:00,
1000000000222949,77024584000,mKarTel,mKcell,mKcell,,D01,2016-08-03T17:08:56+06:00,
1000000000222951,77755706039,mMTS,mKcell,mKcell,,D77,2016-08-03T17:09:10+06:00,
1000000000222952,77055005800,mMTS,mKarTel,mKarTel,,D77,2016-08-03T17:10:55+06:00,
1000000000222955,77085236655,mKcell,mAltel,mAltel,,D02,2016-08-03T17:10:25+06:00,
1000000000222956,77713015717,mMTS,mKarTel,mKarTel,,D77,2016-08-03T17:12:32+06:00,
1000000000222958,77781887066,mMTS,mKcell,mKcell,,D77,2016-08-03T17:12:20+06:00,
1000000000222960,77783598333,mMTS,mKcell,mKcell,,D77,2016-08-03T17:15:13+06:00,
1000000000222961,77054568933,mMTS,mKarTel,mKarTel,,D77,2016-08-03T17:17:04+06:00,
1000000000222963,77021101188,mAltel,mKcell,mKcell,,D07,2016-08-03T17:16:04+06:00,
1000000000222965,77771800404,mKarTel,mAltel,mKarTel,D07,D01,2016-08-03T17:18:49+06:00,
1000000000222966,77081717108,mKarTel,mAltel,mAltel,,D01,2016-08-03T17:19:23+06:00,
1000000000222967,77774005585,mKarTel,mKcell,mKarTel,D02,D01,2016-08-03T17:22:35+06:00,
1000000000222968,77015544458,mKarTel,mKcell,mKcell,,D01,2016-08-03T17:22:35+06:00,
1000000000222969,77775973747,mAltel,mKarTel,mKarTel,,D07,2016-08-03T17:24:16+06:00,
1000000000222971,77753024463,mKarTel,mKcell,mKcell,,D01,2016-08-03T17:24:58+06:00,
1000000000222972,77773627777,mMTS,mKcell,mKarTel,D02,D77,2016-08-03T17:25:02+06:00,
1000000000222974,77054624950,mMTS,mKarTel,mKarTel,,D77,2016-08-03T17:26:45+06:00,
1000000000222975,77055555720,mKarTel,mAltel,mKarTel,D07,D01,2016-08-03T17:26:08+06:00,
1000000000222976,77019659265,mKarTel,mKcell,mKcell,,D01,2016-08-03T17:27:20+06:00,
