NPId,Number,RecipientId,DonorId,RangeHolderId,OldRoute,NewRoute,PortDate,RowCount
1000000000290548,77475505050,mKarTel,mKcell,mMTS,D02,D01,2016-12-06T10:03:37+06:00,21
1000000000290550,77751999910,mMTS,mKcell,mKcell,,D77,2016-12-06T10:04:13+06:00,
1000000000290551,77071250150,mKarTel,mMTS,mMTS,,D01,2016-12-06T10:04:59+06:00,
1000000000290553,77051217021,mMTS,mKarTel,mKarTel,,D77,2016-12-06T10:05:55+06:00,
1000000000290554,77013501282,mKarTel,mKcell,mKcell,,D01,2016-12-06T10:10:26+06:00,
1000000000290555,77022020919,mAltel,mKcell,mKcell,,D07,2016-12-06T10:14:47+06:00,
1000000000290556,77766098989,mMTS,mKarTel,mKarTel,,D77,2016-12-06T10:15:37+06:00,
1000000000290557,77750005260,mMTS,mKcell,mKcell,,D77,2016-12-06T10:16:19+06:00,
1000000000290558,77025759127,mKarTel,mKcell,mKcell,,D01,2016-12-06T10:16:42+06:00,
1000000000290559,77715062801,mMTS,mKarTel,mKarTel,,D77,2016-12-06T10:18:02+06:00,
1000000000290560,77011411190,mKarTel,mKcell,mKcell,,D01,2016-12-06T10:18:11+06:00,
1000000000290561,77715062802,mMTS,mKarTel,mKarTel,,D77,2016-12-06T10:19:27+06:00,
1000000000290563,77074973535,mKcell,mMTS,mMTS,,D02,2016-12-06T10:22:23+06:00,
1000000000290564,77089611718,mAltel,mMTS,mAltel,D77,D07,2016-12-06T10:20:35+06:00,
1000000000290566,77054016307,mKarTel,mMTS,mKarTel,D77,D01,2016-12-06T10:24:08+06:00,
1000000000290567,77715062803,mMTS,mKarTel,mKarTel,,D77,2016-12-06T10:26:55+06:00,
1000000000290568,77715062804,mMTS,mKarTel,mKarTel,,D77,2016-12-06T10:27:44+06:00,
1000000000290569,77757059690,mMTS,mKcell,mKcell,,D77,2016-12-06T10:27:37+06:00,
1000000000290570,77715062805,mMTS,mKarTel,mKarTel,,D77,2016-12-06T10:28:35+06:00,
1000000000290571,77075288852,mKarTel,mMTS,mMTS,,D01,2016-12-06T10:28:22+06:00,
1000000000290572,77715062806,mMTS,mKarTel,mKarTel,,D77,2016-12-06T10:29:26+06:00,
