NPId,Number,RecipientId,DonorId,RangeHolderId,OldRoute,NewRoute,PortDate,RowCount
1000000000153875,77016311136,mMTS,mKcell,mKcell,,D77,2016-04-17T10:37:12+06:00,7
1000000000153876,77012669338,mMTS,mKcell,mKcell,,D77,2016-04-17T10:40:19+06:00,
1000000000153877,77771300054,mAltel,mKarTel,mKarTel,,D07,2016-04-17T10:43:16+06:00,
1000000000153878,77007707500,mMTS,mAltel,mAltel,,D77,2016-04-17T10:41:33+06:00,
1000000000153879,77013883878,mKarTel,mKcell,mKcell,,D01,2016-04-17T10:45:15+06:00,
1000000000153882,77023281222,mMTS,mKcell,mKcell,,D77,2016-04-17T10:50:00+06:00,
1000000000153883,77007889388,mMTS,mAltel,mAltel,,D77,2016-04-17T10:50:46+06:00,
