NPId,Number,RecipientId,DonorId,RangeHolderId,OldRoute,NewRoute,PortDate,RowCount
1000000000322502,77001001292,mKcell,mAltel,mAltel,,D02,2017-02-02T17:30:34+06:00,44
1000000000322503,77714702639,mAltel,mMTS,mKarTel,D77,D07,2017-02-02T17:30:26+06:00,
1000000000322505,77029561733,mMTS,mKcell,mKcell,,D77,2017-02-02T17:31:43+06:00,
1000000000322506,77001001595,mKcell,mAltel,mAltel,,D02,2017-02-02T17:32:15+06:00,
1000000000322508,77774384302,mMTS,mKarTel,mKarTel,,D77,2017-02-02T17:32:49+06:00,
1000000000322509,77760028689,mMTS,mKarTel,mKarTel,,D77,2017-02-02T17:34:01+06:00,
1000000000322510,77754502072,mMTS,mKcell,mKcell,,D77,2017-02-02T17:34:21+06:00,
1000000000322511,77711027678,mKarTel,mKcell,mKarTel,D02,D01,2017-02-02T17:35:34+06:00,
1000000000322512,77021745678,mKarTel,mKcell,mKcell,,D01,2017-02-02T17:36:52+06:00,
1000000000322513,77015514801,mKcell,mMTS,mKcell,D77,D02,2017-02-02T17:37:36+06:00,
1000000000322514,77073639990,mMTS,mAltel,mMTS,D07,D77,2017-02-02T17:37:45+06:00,
1000000000322515,77017331954,mAltel,mKcell,mKcell,,D07,2017-02-02T17:38:25+06:00,
1000000000322516,77760010030,mMTS,mKarTel,mKarTel,,D77,2017-02-02T17:39:15+06:00,
1000000000322517,77779818899,mMTS,mKarTel,mKarTel,,D77,2017-02-02T17:39:58+06:00,
1000000000322518,77015268612,mMTS,mKcell,mKcell,,D77,2017-02-02T17:40:08+06:00,
1000000000322519,77022165386,mKarTel,mKcell,mKcell,,D01,2017-02-02T17:40:31+06:00,
1000000000322520,77001001696,mKcell,mAltel,mAltel,,D02,2017-02-02T17:40:38+06:00,
1000000000322521,77026060100,mKcell,mKarTel,mKcell,D01,D02,2017-02-02T17:41:09+06:00,
1000000000322523,77017655703,mAltel,mKcell,mKcell,,D07,2017-02-02T17:41:46+06:00,
1000000000322524,77771630420,mAltel,mKarTel,mKarTel,,D07,2017-02-02T17:42:24+06:00,
1000000000322525,77088222490,mAltel,mKcell,mAltel,D02,D07,2017-02-02T17:42:57+06:00,
1000000000322526,77772524434,mKcell,mKarTel,mKarTel,,D02,2017-02-02T17:44:38+06:00,
1000000000322527,77760191900,mAltel,mKarTel,mKarTel,,D07,2017-02-02T17:44:47+06:00,
1000000000322528,77759135416,mMTS,mKcell,mKcell,,D77,2017-02-02T17:45:17+06:00,
1000000000322529,77774422051,mAltel,mKarTel,mKarTel,,D07,2017-02-02T17:45:30+06:00,
1000000000322531,77027848330,mKcell,mKarTel,mKcell,D01,D02,2017-02-02T17:47:56+06:00,
1000000000322533,77772977755,mAltel,mKarTel,mKarTel,,D07,2017-02-02T17:49:01+06:00,
1000000000322534,77075110181,mAltel,mMTS,mMTS,,D07,2017-02-02T17:49:27+06:00,
1000000000322535,77015448245,mKarTel,mKcell,mKcell,,D01,2017-02-02T17:50:04+06:00,
1000000000322536,77772524044,mKcell,mKarTel,mKarTel,,D02,2017-02-02T17:50:42+06:00,
1000000000322537,77711771771,mKcell,mAltel,mKarTel,D07,D02,2017-02-02T17:50:52+06:00,
1000000000322538,77773702000,mKcell,mKarTel,mKarTel,,D02,2017-02-02T17:51:28+06:00,
1000000000322539,77781588900,mMTS,mKcell,mKcell,,D77,2017-02-02T17:51:24+06:00,
1000000000322541,77017492575,mAltel,mMTS,mKcell,D77,D07,2017-02-02T17:51:20+06:00,
1000000000322542,77076540540,mAltel,mMTS,mMTS,,D07,2017-02-02T17:51:45+06:00,
1000000000322543,77771809009,mMTS,mKarTel,mKarTel,,D77,2017-02-02T17:53:01+06:00,
1000000000322544,77056241330,mMTS,mKarTel,mKarTel,,D77,2017-02-02T17:53:32+06:00,
1000000000322545,77053660888,mAltel,mKarTel,mKarTel,,D07,2017-02-02T17:53:50+06:00,
1000000000322546,77786786992,mAltel,mKcell,mKcell,,D07,2017-02-02T17:56:16+06:00,
1000000000322547,77075009585,mAltel,mMTS,mMTS,,D07,2017-02-02T17:56:52+06:00,
1000000000322549,77057228989,mKcell,mKarTel,mKarTel,,D02,2017-02-02T17:59:03+06:00,
1000000000322550,77013898784,mKcell,mKarTel,mKcell,D01,D02,2017-02-02T17:58:59+06:00,
1000000000322551,77025004091,mAltel,mKcell,mKcell,,D07,2017-02-02T17:58:41+06:00,
1000000000322552,77765059855,mAltel,mKarTel,mKarTel,,D07,2017-02-02T17:59:50+06:00,
