NPId,Number,RecipientId,DonorId,RangeHolderId,OldRoute,NewRoute,PortDate,RowCount
1000000000384954,77753344553,mAltel,mKcell,mKcell,D02,D07,2017-05-18T11:03:09+06:00,24
1000000000384955,77781694543,mMTS,mKcell,mKcell,,D77,2017-05-18T11:03:39+06:00,
1000000000384956,77026666504,mKcell,mAltel,mKcell,D07,D02,2017-05-18T11:04:09+06:00,
1000000000384957,77770507272,mAltel,mKarTel,mKarTel,,D07,2017-05-18T11:04:52+06:00,
1000000000384958,77056677111,mMTS,mKarTel,mKarTel,,D77,2017-05-18T11:08:06+06:00,
1000000000384959,77007133555,mMTS,mAltel,mAltel,,D77,2017-05-18T11:07:45+06:00,
1000000000384960,77028445176,mMTS,mKcell,mKcell,,D77,2017-05-18T11:08:57+06:00,
1000000000384961,77005858085,mMTS,mAltel,mAltel,,D77,2017-05-18T11:08:58+06:00,
1000000000384962,77015123693,mKarTel,mKcell,mKcell,,D01,2017-05-18T11:09:36+06:00,
1000000000384963,77755152155,mKcell,mAltel,mKcell,D07,D02,2017-05-18T11:10:59+06:00,
1000000000384964,77770122272,mKcell,mKarTel,mKarTel,,D02,2017-05-18T11:11:42+06:00,
1000000000384965,77016063165,mKcell,mMTS,mKcell,D77,D02,2017-05-18T11:11:55+06:00,
1000000000384966,77077008081,mKcell,mMTS,mMTS,,D02,2017-05-18T11:11:55+06:00,
1000000000384967,77756166313,mMTS,mKcell,mKcell,,D77,2017-05-18T11:12:18+06:00,
1000000000384969,77774900130,mMTS,mKarTel,mKarTel,,D77,2017-05-18T11:13:05+06:00,
1000000000384970,77077004015,mKarTel,mMTS,mMTS,,D01,2017-05-18T11:14:50+06:00,
1000000000384971,77059705555,mKarTel,mAltel,mKarTel,D07,D01,2017-05-18T11:15:41+06:00,
1000000000384972,77776403708,mAltel,mMTS,mKarTel,D77,D07,2017-05-18T11:15:32+06:00,
1000000000384973,77056518484,mKarTel,mMTS,mKarTel,D77,D01,2017-05-18T11:16:14+06:00,
1000000000384974,77085230320,mKcell,mAltel,mAltel,,D02,2017-05-18T11:16:30+06:00,
1000000000384977,77476251744,mAltel,mMTS,mMTS,,D07,2017-05-18T11:17:18+06:00,
1000000000384979,77025255522,mMTS,mKcell,mKcell,,D77,2017-05-18T11:22:20+06:00,
1000000000384980,77022230909,mMTS,mKcell,mKcell,,D77,2017-05-18T11:24:52+06:00,
1000000000384982,77089109212,mKarTel,mMTS,mAltel,D77,D01,2017-05-18T11:27:26+06:00,
