NPId,Number,RecipientId,DonorId,RangeHolderId,OldRoute,NewRoute,PortDate,RowCount
1000000000441313,77774654444,mMTS,mKarTel,mKarTel,,D77,2017-08-17T12:01:55+06:00,18
1000000000441314,77021927966,mMTS,mKcell,mKcell,,D77,2017-08-17T12:01:41+06:00,
1000000000441315,77712377778,mKcell,mKarTel,mKarTel,,D02,2017-08-17T12:03:25+06:00,
1000000000441316,77078333221,mKcell,mMTS,mMTS,,D02,2017-08-17T12:06:50+06:00,
1000000000441318,77718595725,mMTS,mKarTel,mKarTel,,D77,2017-08-17T12:07:57+06:00,
1000000000441320,77753343894,mMTS,mKcell,mKcell,,D77,2017-08-17T12:11:07+06:00,
1000000000441322,77757309204,mKcell,mKarTel,mKcell,D01,D02,2017-08-17T12:12:20+06:00,
1000000000441323,77071908356,mMTS,mKcell,mMTS,D02,D77,2017-08-17T12:12:38+06:00,
1000000000441324,77072070891,mKcell,mMTS,mMTS,,D02,2017-08-17T12:14:32+06:00,
1000000000441325,77056260384,mKarTel,mMTS,mKarTel,D77,D01,2017-08-17T12:17:09+06:00,
1000000000441326,77789002224,mAltel,mKcell,mKcell,,D07,2017-08-17T12:17:06+06:00,
1000000000441327,77077677578,mAltel,mKcell,mMTS,D02,D07,2017-08-17T12:17:25+06:00,
1000000000441329,77777954024,mKarTel,mKcell,mKarTel,D02,D01,2017-08-17T12:18:47+06:00,
1000000000441330,77071066780,mKcell,mMTS,mMTS,,D02,2017-08-17T12:20:02+06:00,
1000000000441331,77027477662,mKarTel,mKcell,mKcell,,D01,2017-08-17T12:22:39+06:00,
1000000000441332,77054442804,mAltel,mKarTel,mKarTel,,D07,2017-08-17T12:23:00+06:00,
1000000000441333,77057327358,mAltel,mKarTel,mKarTel,,D07,2017-08-17T12:23:46+06:00,
1000000000441336,77017230093,mMTS,mKcell,mKcell,,D77,2017-08-17T12:29:50+06:00,
