NPId,Number,RecipientId,DonorId,RangeHolderId,OldRoute,NewRoute,PortDate,RowCount
1000000000420049,77767760557,mMTS,mKarTel,mKarTel,,D77,2017-07-11T19:01:17+06:00,12
1000000000420053,77472404242,mKarTel,mMTS,mMTS,,D01,2017-07-11T19:05:10+06:00,
1000000000420054,77757456555,mKcell,mKarTel,mKcell,D01,D02,2017-07-11T19:05:48+06:00,
1000000000420056,77470829212,mKarTel,mMTS,mMTS,,D01,2017-07-11T19:09:22+06:00,
1000000000420057,77017044587,mAltel,mKcell,mKcell,,D07,2017-07-11T19:13:19+06:00,
1000000000420058,77015278549,mKarTel,mAltel,mKcell,D07,D01,2017-07-11T19:14:11+06:00,
1000000000420059,77026755710,mKcell,mMTS,mKcell,D77,D02,2017-07-11T19:15:36+06:00,
1000000000420060,77019302339,mKarTel,mMTS,mKcell,D77,D01,2017-07-11T19:17:22+06:00,
1000000000420061,77781662080,mKarTel,mKcell,mKcell,,D01,2017-07-11T19:19:43+06:00,
1000000000420062,77017331100,mKarTel,mKcell,mKcell,,D01,2017-07-11T19:21:15+06:00,
1000000000420063,77013900735,mKarTel,mKcell,mKcell,,D01,2017-07-11T19:23:01+06:00,
1000000000420064,77089145074,mMTS,mAltel,mAltel,,D77,2017-07-11T19:23:16+06:00,
