NPId,Number,RecipientId,DonorId,RangeHolderId,OldRoute,NewRoute,PortDate,RowCount
1000000000158638,77019480202,mMTS,mKcell,mKcell,,D77,2016-04-23T13:01:18+06:00,26
1000000000158639,77007170786,mMTS,mAltel,mAltel,,D77,2016-04-23T13:00:29+06:00,
1000000000158640,77024277401,mKarTel,mKcell,mKcell,,D01,2016-04-23T13:01:56+06:00,
1000000000158641,77714522758,mMTS,mKarTel,mKarTel,,D77,2016-04-23T13:02:21+06:00,
1000000000158642,77012202363,mKarTel,mKcell,mKcell,,D01,2016-04-23T13:03:14+06:00,
1000000000158644,77077127788,mMTS,mAltel,mMTS,D07,D77,2016-04-23T13:03:19+06:00,
1000000000158645,77015331637,mMTS,mKcell,mKcell,,D77,2016-04-23T13:04:58+06:00,
1000000000158646,77003422272,mMTS,mAltel,mAltel,,D77,2016-04-23T13:05:28+06:00,
1000000000158647,77013137893,mKcell,mMTS,mKcell,D77,D02,2016-04-23T13:06:16+06:00,
1000000000158650,77017546220,mKarTel,mKcell,mKcell,,D01,2016-04-23T13:10:23+06:00,
1000000000158651,77071070988,mKarTel,mMTS,mMTS,,D01,2016-04-23T13:11:22+06:00,
1000000000158652,77012355570,mKcell,mMTS,mKcell,D77,D02,2016-04-23T13:12:40+06:00,
1000000000158654,77004140442,mKcell,mAltel,mAltel,,D02,2016-04-23T13:14:20+06:00,
1000000000158655,77055351770,mKcell,mAltel,mKarTel,D07,D02,2016-04-23T13:14:21+06:00,
1000000000158657,77074046330,mMTS,mAltel,mMTS,D07,D77,2016-04-23T13:16:14+06:00,
1000000000158658,77028181018,mMTS,mKcell,mKcell,,D77,2016-04-23T13:17:21+06:00,
1000000000158659,77012414263,mMTS,mKcell,mKcell,,D77,2016-04-23T13:19:17+06:00,
1000000000158660,77055351771,mKcell,mAltel,mKarTel,D07,D02,2016-04-23T13:19:54+06:00,
1000000000158661,77073322099,mMTS,mKcell,mMTS,D02,D77,2016-04-23T13:21:56+06:00,
1000000000158663,77009932110,mKarTel,mAltel,mAltel,,D01,2016-04-23T13:22:09+06:00,
1000000000158664,77013330130,mMTS,mKcell,mKcell,,D77,2016-04-23T13:22:54+06:00,
1000000000158665,77089205005,mMTS,mAltel,mAltel,,D77,2016-04-23T13:25:25+06:00,
1000000000158667,77052415927,mMTS,mKarTel,mKarTel,,D77,2016-04-23T13:26:56+06:00,
1000000000158668,77000006606,mKcell,mAltel,mAltel,,D02,2016-04-23T13:27:32+06:00,
1000000000158669,77018800018,mMTS,mKcell,mKcell,,D77,2016-04-23T13:27:29+06:00,
1000000000158671,77058023985,mMTS,mKarTel,mKarTel,,D77,2016-04-23T13:29:33+06:00,
