NPId,Number,RecipientId,DonorId,RangeHolderId,OldRoute,NewRoute,PortDate,RowCount
1000000000378442,77017450207,mKcell,mKarTel,mKcell,D01,D02,2017-05-05T12:19:37+06:00,30
1000000000378494,77025667918,mAltel,mKcell,mKcell,,D07,2017-05-05T12:01:54+06:00,
1000000000378495,77071062926,mKcell,mMTS,mMTS,,D02,2017-05-05T12:01:57+06:00,
1000000000378496,77715376267,mMTS,mKarTel,mKarTel,,D77,2017-05-05T12:02:50+06:00,
1000000000378497,77001781817,mKcell,mAltel,mAltel,,D02,2017-05-05T12:03:40+06:00,
1000000000378498,77083235398,mMTS,mAltel,mAltel,,D77,2017-05-05T12:06:34+06:00,
1000000000378500,77778571136,mMTS,mKarTel,mKarTel,,D77,2017-05-05T12:07:58+06:00,
1000000000378502,77004241993,mMTS,mAltel,mAltel,,D77,2017-05-05T12:08:06+06:00,
1000000000378503,77019905490,mMTS,mKcell,mKcell,,D77,2017-05-05T12:10:59+06:00,
1000000000378504,77026203470,mKarTel,mKcell,mKcell,,D01,2017-05-05T12:11:52+06:00,
1000000000378506,77024001434,mMTS,mKcell,mKcell,,D77,2017-05-05T12:12:24+06:00,
1000000000378507,77017512404,mMTS,mKcell,mKcell,,D77,2017-05-05T12:14:02+06:00,
1000000000378508,77059195151,mAltel,mKarTel,mKarTel,,D07,2017-05-05T12:14:13+06:00,
1000000000378509,77024451084,mMTS,mKcell,mKcell,,D77,2017-05-05T12:14:07+06:00,
1000000000378510,77472601493,mAltel,mMTS,mMTS,,D07,2017-05-05T12:14:19+06:00,
1000000000378512,77054448899,mKarTel,mAltel,mKarTel,D07,D01,2017-05-05T12:14:47+06:00,
1000000000378513,77077993774,mKarTel,mMTS,mMTS,,D01,2017-05-05T12:15:08+06:00,
1000000000378515,77776297103,mMTS,mKarTel,mKarTel,,D77,2017-05-05T12:16:34+06:00,
1000000000378517,77012233959,mMTS,mKcell,mKcell,,D77,2017-05-05T12:16:27+06:00,
1000000000378518,77015067099,mMTS,mKcell,mKcell,,D77,2017-05-05T12:18:09+06:00,
1000000000378520,77476121177,mKarTel,mMTS,mMTS,,D01,2017-05-05T12:18:35+06:00,
1000000000378522,77007715701,mMTS,mAltel,mAltel,,D77,2017-05-05T12:20:11+06:00,
1000000000378523,77770550211,mAltel,mKarTel,mKarTel,,D07,2017-05-05T12:21:13+06:00,
1000000000378524,77779999114,mMTS,mKarTel,mKarTel,,D77,2017-05-05T12:22:25+06:00,
1000000000378525,77014064662,mMTS,mKcell,mKcell,,D77,2017-05-05T12:22:56+06:00,
1000000000378529,77012448058,mKcell,mMTS,mKcell,D77,D02,2017-05-05T12:24:11+06:00,
1000000000378531,77021206499,mKcell,mAltel,mKcell,D07,D02,2017-05-05T12:26:03+06:00,
1000000000378533,77015398429,mMTS,mKcell,mKcell,,D77,2017-05-05T12:26:50+06:00,
1000000000378534,77015770168,mMTS,mKcell,mKcell,,D77,2017-05-05T12:26:58+06:00,
1000000000378535,77014698961,mKarTel,mKcell,mKcell,,D01,2017-05-05T12:27:56+06:00,
