NPId,Number,RecipientId,DonorId,RangeHolderId,OldRoute,NewRoute,PortDate,RowCount
1000000000182925,77013555066,mKarTel,mKcell,mKcell,,D01,2016-05-28T16:00:29+06:00,27
1000000000182926,77773562939,mKcell,mKarTel,mKarTel,,D02,2016-05-28T16:01:35+06:00,
1000000000182927,77026799600,mKcell,mAltel,mKcell,D07,D02,2016-05-28T16:01:37+06:00,
1000000000182929,77779489030,mMTS,mKarTel,mKarTel,,D77,2016-05-28T16:01:30+06:00,
1000000000182930,77029015490,mMTS,mKcell,mKcell,,D77,2016-05-28T16:01:59+06:00,
1000000000182931,77082390093,mMTS,mAltel,mAltel,,D77,2016-05-28T16:02:04+06:00,
1000000000182932,77714497000,mMTS,mKarTel,mKarTel,,D77,2016-05-28T16:04:20+06:00,
1000000000182933,77055023074,mKarTel,mMTS,mKarTel,D77,D01,2016-05-28T16:04:49+06:00,
1000000000182934,77012797925,mMTS,mKcell,mKcell,,D77,2016-05-28T16:05:30+06:00,
1000000000182936,77784344556,mAltel,mKcell,mKcell,,D07,2016-05-28T16:09:23+06:00,
1000000000182937,77013083255,mKcell,mMTS,mKcell,D77,D02,2016-05-28T16:12:16+06:00,
1000000000182939,77074000084,mMTS,mKcell,mMTS,D02,D77,2016-05-28T16:12:31+06:00,
1000000000182940,77057998016,mAltel,mKarTel,mKarTel,,D07,2016-05-28T16:13:57+06:00,
1000000000182941,77001074485,mKcell,mAltel,mAltel,,D02,2016-05-28T16:15:17+06:00,
1000000000182942,77714040460,mMTS,mKarTel,mKarTel,,D77,2016-05-28T16:15:25+06:00,
1000000000182943,77015228393,mMTS,mKcell,mKcell,,D77,2016-05-28T16:15:29+06:00,
1000000000182944,77755707174,mMTS,mKcell,mKcell,,D77,2016-05-28T16:16:50+06:00,
1000000000182946,77079215360,mKcell,mMTS,mMTS,,D02,2016-05-28T16:17:45+06:00,
1000000000182947,77027178877,mMTS,mKcell,mKcell,,D77,2016-05-28T16:18:41+06:00,
1000000000182948,77019938834,mKarTel,mKcell,mKcell,,D01,2016-05-28T16:21:54+06:00,
1000000000182949,77711138787,mKcell,mKarTel,mKarTel,,D02,2016-05-28T16:22:16+06:00,
1000000000182950,77013720257,mMTS,mKcell,mKcell,,D77,2016-05-28T16:22:36+06:00,
1000000000182952,77714650764,mMTS,mKarTel,mKarTel,,D77,2016-05-28T16:23:20+06:00,
1000000000182953,77014120086,mMTS,mKcell,mKcell,,D77,2016-05-28T16:24:37+06:00,
1000000000182954,77753137788,mMTS,mAltel,mKcell,D07,D77,2016-05-28T16:25:15+06:00,
1000000000182956,77015110964,mKarTel,mKcell,mKcell,,D01,2016-05-28T16:27:22+06:00,
1000000000182957,77015253555,mKarTel,mKcell,mKcell,,D01,2016-05-28T16:28:59+06:00,
