NPId,Number,RecipientId,DonorId,RangeHolderId,OldRoute,NewRoute,PortDate,RowCount
1000000000175553,77082229433,mMTS,mAltel,mAltel,,D77,2016-05-17T10:01:04+06:00,22
1000000000175554,77085431335,mMTS,mAltel,mAltel,,D77,2016-05-17T10:02:09+06:00,
1000000000175555,77785886775,mAltel,mKcell,mKcell,,D07,2016-05-17T10:03:45+06:00,
1000000000175556,77770727472,mAltel,mKarTel,mKarTel,,D07,2016-05-17T10:07:04+06:00,
1000000000175557,77770007600,mKcell,mKarTel,mKarTel,,D02,2016-05-17T10:07:50+06:00,
1000000000175558,77019164493,mKarTel,mKcell,mKcell,,D01,2016-05-17T10:10:30+06:00,
1000000000175559,77022838007,mMTS,mKcell,mKcell,,D77,2016-05-17T10:10:15+06:00,
1000000000175560,77082213083,mMTS,mAltel,mAltel,,D77,2016-05-17T10:10:09+06:00,
1000000000175563,77075567558,mKcell,mMTS,mMTS,,D02,2016-05-17T10:15:05+06:00,
1000000000175564,77764808585,mKarTel,mKcell,mKarTel,D02,D01,2016-05-17T10:16:03+06:00,
1000000000175565,77776239307,mMTS,mKarTel,mKarTel,,D77,2016-05-17T10:17:26+06:00,
1000000000175566,77779814576,mMTS,mKarTel,mKarTel,,D77,2016-05-17T10:18:08+06:00,
1000000000175567,77775053985,mKarTel,mAltel,mKarTel,D07,D01,2016-05-17T10:18:22+06:00,
1000000000175568,77057554005,mMTS,mKarTel,mKarTel,,D77,2016-05-17T10:19:57+06:00,
1000000000175569,77015103305,mMTS,mKcell,mKcell,,D77,2016-05-17T10:22:23+06:00,
1000000000175570,77059882222,mKarTel,mMTS,mKarTel,D77,D01,2016-05-17T10:25:55+06:00,
1000000000175571,77014835230,mMTS,mKcell,mKcell,,D77,2016-05-17T10:27:22+06:00,
1000000000175572,77714534713,mMTS,mKarTel,mKarTel,,D77,2016-05-17T10:27:28+06:00,
1000000000175573,77752016586,mKarTel,mKcell,mKcell,,D01,2016-05-17T10:28:26+06:00,
1000000000175575,77777090435,mKarTel,mMTS,mKarTel,D77,D01,2016-05-17T10:28:41+06:00,
1000000000175576,77012040718,mMTS,mKcell,mKcell,,D77,2016-05-17T10:29:16+06:00,
1000000000175577,77004494999,mMTS,mAltel,mAltel,,D77,2016-05-17T10:29:38+06:00,
