NPId,Number,RecipientId,DonorId,RangeHolderId,OldRoute,NewRoute,PortDate,RowCount
1000000000358111,77007775400,mMTS,mAltel,mAltel,,D77,2017-04-02T16:32:49+06:00,22
1000000000358113,77077290490,mAltel,mMTS,mMTS,,D07,2017-04-02T16:35:26+06:00,
1000000000358114,77714811031,mMTS,mKarTel,mKarTel,,D77,2017-04-02T16:37:25+06:00,
1000000000358115,77028883438,mKarTel,mAltel,mKcell,D07,D01,2017-04-02T16:37:21+06:00,
1000000000358116,77021070541,mMTS,mKcell,mKcell,,D77,2017-04-02T16:37:22+06:00,
1000000000358117,77088558373,mKcell,mAltel,mAltel,,D02,2017-04-02T16:37:40+06:00,
1000000000358119,77017958350,mMTS,mKcell,mKcell,,D77,2017-04-02T16:37:51+06:00,
1000000000358120,77082020313,mMTS,mAltel,mAltel,,D77,2017-04-02T16:38:13+06:00,
1000000000358122,77014607050,mKcell,mMTS,mKcell,D77,D02,2017-04-02T16:38:39+06:00,
1000000000358123,77787954901,mAltel,mKcell,mKcell,D02,D07,2017-04-02T16:38:40+06:00,
1000000000358124,77003586086,mMTS,mAltel,mAltel,,D77,2017-04-02T16:38:57+06:00,
1000000000358125,77476656167,mKarTel,mMTS,mMTS,,D01,2017-04-02T16:39:43+06:00,
1000000000358127,77017582490,mKarTel,mAltel,mKcell,D07,D01,2017-04-02T16:41:12+06:00,
1000000000358128,77007775800,mMTS,mAltel,mAltel,,D77,2017-04-02T16:42:53+06:00,
1000000000358129,77026059400,mMTS,mKcell,mKcell,,D77,2017-04-02T16:43:02+06:00,
1000000000358130,77472868384,mKarTel,mMTS,mMTS,,D01,2017-04-02T16:45:05+06:00,
1000000000358131,77076648781,mKarTel,mMTS,mMTS,,D01,2017-04-02T16:47:48+06:00,
1000000000358132,77017848711,mAltel,mKcell,mKcell,,D07,2017-04-02T16:49:21+06:00,
1000000000358134,77001110152,mKcell,mAltel,mAltel,,D02,2017-04-02T16:50:52+06:00,
1000000000358135,77024754041,mMTS,mKcell,mKcell,,D77,2017-04-02T16:52:50+06:00,
1000000000358136,77007775404,mMTS,mAltel,mAltel,,D77,2017-04-02T16:52:53+06:00,
1000000000358138,77052379031,mMTS,mKarTel,mKarTel,,D77,2017-04-02T16:57:28+06:00,
