NPId,Number,RecipientId,DonorId,RangeHolderId,OldRoute,NewRoute,PortDate,RowCount
1000000000314370,77772030366,mMTS,mKarTel,mKarTel,,D77,2017-01-21T16:33:00+06:00,28
1000000000314371,77751131339,mMTS,mKcell,mKcell,,D77,2017-01-21T16:32:48+06:00,
1000000000314373,77015017951,mMTS,mKcell,mKcell,,D77,2017-01-21T16:33:53+06:00,
1000000000314376,77714436847,mMTS,mKarTel,mKarTel,,D77,2017-01-21T16:36:05+06:00,
1000000000314377,77784770277,mMTS,mKcell,mKcell,,D77,2017-01-21T16:36:39+06:00,
1000000000314380,77074984673,mKcell,mMTS,mMTS,,D02,2017-01-21T16:37:11+06:00,
1000000000314382,77058699999,mAltel,mKarTel,mKarTel,D01,D07,2017-01-21T16:42:15+06:00,
1000000000314383,77078883456,mAltel,mMTS,mMTS,,D07,2017-01-21T16:42:28+06:00,
1000000000314384,77771938125,mAltel,mKarTel,mKarTel,,D07,2017-01-21T16:42:48+06:00,
1000000000314385,77017160796,mMTS,mKcell,mKcell,,D77,2017-01-21T16:42:55+06:00,
1000000000314386,77715369840,mKcell,mKarTel,mKarTel,,D02,2017-01-21T16:44:16+06:00,
1000000000314387,77027287075,mMTS,mKarTel,mKcell,D01,D77,2017-01-21T16:44:33+06:00,
1000000000314388,77779817077,mKarTel,mMTS,mKarTel,D77,D01,2017-01-21T16:45:44+06:00,
1000000000314389,77000010096,mKcell,mAltel,mAltel,,D02,2017-01-21T16:46:55+06:00,
1000000000314390,77075156666,mKarTel,mMTS,mMTS,,D01,2017-01-21T16:48:14+06:00,
1000000000314391,77783402530,mMTS,mKcell,mKcell,,D77,2017-01-21T16:48:49+06:00,
1000000000314392,77477174817,mKcell,mMTS,mMTS,,D02,2017-01-21T16:49:10+06:00,
1000000000314393,77001112807,mKcell,mAltel,mAltel,,D02,2017-01-21T16:49:11+06:00,
1000000000314394,77073434887,mMTS,mKarTel,mMTS,D01,D77,2017-01-21T16:49:33+06:00,
1000000000314395,77011017035,mAltel,mMTS,mKcell,D77,D07,2017-01-21T16:49:42+06:00,
1000000000314396,77767769035,mMTS,mKarTel,mKarTel,,D77,2017-01-21T16:54:50+06:00,
1000000000314397,77017757005,mKarTel,mKcell,mKcell,,D01,2017-01-21T16:56:00+06:00,
1000000000314398,77003030371,mKcell,mAltel,mAltel,,D02,2017-01-21T16:56:11+06:00,
1000000000314399,77007662006,mMTS,mAltel,mAltel,,D77,2017-01-21T16:56:18+06:00,
1000000000314400,77471255525,mKcell,mMTS,mMTS,,D02,2017-01-21T16:57:06+06:00,
1000000000314401,77055017681,mKcell,mKarTel,mKarTel,,D02,2017-01-21T16:58:07+06:00,
1000000000314402,77027020852,mMTS,mAltel,mKcell,D07,D77,2017-01-21T16:57:40+06:00,
1000000000314403,77055281259,mKarTel,mKcell,mKarTel,D02,D01,2017-01-21T16:58:51+06:00,
