NPId,Number,RecipientId,DonorId,RangeHolderId,OldRoute,NewRoute,PortDate,RowCount
1000000000348886,77776456464,mKcell,mKarTel,mKarTel,,D02,2017-03-17T18:02:57+06:00,22
1000000000348887,77076572529,mMTS,mKarTel,mMTS,D01,D77,2017-03-17T18:02:50+06:00,
1000000000348888,77007171993,mKcell,mAltel,mAltel,,D02,2017-03-17T18:07:41+06:00,
1000000000348889,77019334753,mMTS,mKcell,mKcell,,D77,2017-03-17T18:07:59+06:00,
1000000000348891,77075342037,mKarTel,mMTS,mMTS,,D01,2017-03-17T18:13:05+06:00,
1000000000348892,77087239923,mKcell,mMTS,mAltel,D77,D02,2017-03-17T18:14:12+06:00,
1000000000348893,77015380508,mKarTel,mKcell,mKcell,,D01,2017-03-17T18:15:29+06:00,
1000000000348894,77768368383,mKcell,mKarTel,mKarTel,,D02,2017-03-17T18:17:59+06:00,
1000000000348895,77773253053,mKcell,mKarTel,mKarTel,,D02,2017-03-17T18:20:31+06:00,
1000000000348896,77789844444,mKcell,mMTS,mKcell,D77,D02,2017-03-17T18:20:38+06:00,
1000000000348897,77001116701,mKcell,mAltel,mAltel,,D02,2017-03-17T18:21:30+06:00,
1000000000348898,77011672161,mKcell,mAltel,mKcell,D07,D02,2017-03-17T18:23:01+06:00,
1000000000348899,77053162894,mMTS,mKarTel,mKarTel,,D77,2017-03-17T18:23:11+06:00,
1000000000348900,77781560073,mMTS,mKcell,mKcell,,D77,2017-03-17T18:22:58+06:00,
1000000000348901,77752530574,mMTS,mKcell,mKcell,,D77,2017-03-17T18:22:59+06:00,
1000000000348902,77027674542,mMTS,mKcell,mKcell,,D77,2017-03-17T18:24:36+06:00,
1000000000348903,77772693499,mMTS,mKarTel,mKarTel,,D77,2017-03-17T18:26:11+06:00,
1000000000348905,77015380507,mKarTel,mKcell,mKcell,,D01,2017-03-17T18:26:14+06:00,
1000000000348906,77085401155,mKcell,mMTS,mAltel,D77,D02,2017-03-17T18:26:33+06:00,
1000000000348907,77007774702,mKcell,mAltel,mAltel,,D02,2017-03-17T18:27:35+06:00,
1000000000348908,77087125253,mMTS,mAltel,mAltel,,D77,2017-03-17T18:28:11+06:00,
1000000000348909,77087125255,mMTS,mAltel,mAltel,,D77,2017-03-17T18:29:07+06:00,
