NPId,Number,RecipientId,DonorId,RangeHolderId,OldRoute,NewRoute,PortDate,RowCount
1000000000326680,77019999484,mKarTel,mKcell,mKcell,,D01,2017-02-10T09:30:05+06:00,6
1000000000326681,77003330968,mMTS,mAltel,mAltel,,D77,2017-02-10T09:31:32+06:00,
1000000000326682,77076828495,mAltel,mMTS,mMTS,,D07,2017-02-10T09:37:59+06:00,
1000000000326685,77016287359,mMTS,mKcell,mKcell,,D77,2017-02-10T09:45:48+06:00,
1000000000326686,77757464945,mAltel,mKcell,mKcell,,D07,2017-02-10T09:50:32+06:00,
1000000000326687,77009232575,mAltel,mMTS,mAltel,D77,D07,2017-02-10T09:52:46+06:00,
