NPId,Number,RecipientId,DonorId,RangeHolderId,OldRoute,NewRoute,PortDate,RowCount
1000000000392429,77017989615,mKcell,mKarTel,mKcell,D01,D02,2017-05-30T11:52:05+06:00,31
1000000000392476,77787771555,mKcell,mKarTel,mKcell,D01,D02,2017-05-30T11:31:31+06:00,
1000000000392477,77011002696,mKarTel,mKcell,mKcell,,D01,2017-05-30T11:31:42+06:00,
1000000000392479,77011010675,mKcell,mAltel,mKcell,D07,D02,2017-05-30T11:32:44+06:00,
1000000000392480,77762104120,mMTS,mKarTel,mKarTel,,D77,2017-05-30T11:33:01+06:00,
1000000000392481,77055580084,mMTS,mKarTel,mKarTel,,D77,2017-05-30T11:33:08+06:00,
1000000000392482,77017655555,mKcell,mAltel,mKcell,D07,D02,2017-05-30T11:34:46+06:00,
1000000000392483,77752221110,mKarTel,mKcell,mKcell,,D01,2017-05-30T11:37:04+06:00,
1000000000392484,77023787595,mKarTel,mKcell,mKcell,,D01,2017-05-30T11:37:43+06:00,
1000000000392485,77002855555,mKcell,mAltel,mAltel,,D02,2017-05-30T11:37:55+06:00,
1000000000392486,77003563504,mMTS,mAltel,mAltel,D07,D77,2017-05-30T11:37:44+06:00,
1000000000392487,77054832525,mMTS,mKarTel,mKarTel,,D77,2017-05-30T11:38:12+06:00,
1000000000392489,77473751373,mKarTel,mMTS,mMTS,,D01,2017-05-30T11:39:30+06:00,
1000000000392490,77014751617,mKarTel,mAltel,mKcell,D07,D01,2017-05-30T11:40:21+06:00,
1000000000392491,77071708600,mKcell,mMTS,mMTS,,D02,2017-05-30T11:40:59+06:00,
1000000000392493,77012855555,mKcell,mAltel,mKcell,D07,D02,2017-05-30T11:41:09+06:00,
1000000000392494,77019799898,mAltel,mKcell,mKcell,D02,D07,2017-05-30T11:42:05+06:00,
1000000000392495,77012449697,mKcell,mKarTel,mKcell,D01,D02,2017-05-30T11:43:23+06:00,
1000000000392496,77785487311,mMTS,mKcell,mKcell,,D77,2017-05-30T11:42:53+06:00,
1000000000392498,77003051059,mMTS,mAltel,mAltel,,D77,2017-05-30T11:47:46+06:00,
1000000000392499,77787676606,mKcell,mAltel,mKcell,D07,D02,2017-05-30T11:49:29+06:00,
1000000000392500,77077880988,mKarTel,mMTS,mMTS,,D01,2017-05-30T11:50:33+06:00,
1000000000392501,77074231432,mKcell,mMTS,mMTS,,D02,2017-05-30T11:51:25+06:00,
1000000000392502,77015447733,mKarTel,mKcell,mKcell,,D01,2017-05-30T11:52:00+06:00,
1000000000392504,77788734074,mMTS,mKcell,mKcell,,D77,2017-05-30T11:52:54+06:00,
1000000000392505,77077779613,mKarTel,mMTS,mMTS,,D01,2017-05-30T11:53:21+06:00,
1000000000392506,77024007747,mAltel,mKcell,mKcell,,D07,2017-05-30T11:53:59+06:00,
1000000000392509,77784123946,mMTS,mKcell,mKcell,,D77,2017-05-30T11:57:50+06:00,
1000000000392510,77476267528,mKarTel,mMTS,mMTS,,D01,2017-05-30T11:58:20+06:00,
1000000000392511,77075231991,mKcell,mMTS,mMTS,D77,D02,2017-05-30T11:58:58+06:00,
1000000000392512,77012521213,mAltel,mKarTel,mKcell,D01,D07,2017-05-30T11:59:20+06:00,
