NPId,Number,RecipientId,DonorId,RangeHolderId,OldRoute,NewRoute,PortDate,RowCount
1000000000194239,77004702605,mKcell,mAltel,mAltel,,D02,2016-06-15T18:30:54+06:00,16
1000000000194241,77082721994,mMTS,mAltel,mAltel,,D77,2016-06-15T18:37:51+06:00,
1000000000194242,77082373237,mMTS,mAltel,mAltel,,D77,2016-06-15T18:39:00+06:00,
1000000000194243,77782771777,mKarTel,mKcell,mKcell,,D01,2016-06-15T18:42:31+06:00,
1000000000194244,77016351471,mMTS,mKcell,mKcell,,D77,2016-06-15T18:43:14+06:00,
1000000000194245,77750008187,mMTS,mKcell,mKcell,,D77,2016-06-15T18:44:21+06:00,
1000000000194246,77777776622,mKcell,mKarTel,mKarTel,,D02,2016-06-15T18:47:23+06:00,
1000000000194247,77784002886,mMTS,mAltel,mKcell,D07,D77,2016-06-15T18:47:10+06:00,
1000000000194248,77029384189,mKarTel,mKcell,mKcell,,D01,2016-06-15T18:48:41+06:00,
1000000000194249,77072762236,mKarTel,mAltel,mMTS,D07,D01,2016-06-15T18:48:57+06:00,
1000000000194250,77083651050,mMTS,mAltel,mAltel,,D77,2016-06-15T18:53:19+06:00,
1000000000194251,77016900556,mKarTel,mKcell,mKcell,,D01,2016-06-15T18:57:37+06:00,
1000000000194252,77076889533,mMTS,mKcell,mMTS,D02,D77,2016-06-15T18:57:23+06:00,
1000000000194253,77077752285,mKarTel,mMTS,mMTS,,D01,2016-06-15T18:55:44+06:00,
1000000000194254,77012107332,mKarTel,mKcell,mKcell,,D01,2016-06-15T18:57:38+06:00,
1000000000194256,77075773455,mKcell,mMTS,mMTS,,D02,2016-06-15T18:59:17+06:00,
