NPId,Number,RecipientId,DonorId,RangeHolderId,OldRoute,NewRoute,PortDate,RowCount
1000000000325963,77715539214,mKcell,mKarTel,mKarTel,,D02,2017-02-13T11:34:34+06:00,27
1000000000328028,77017830249,mMTS,mKcell,mKcell,D02,D77,2017-02-13T11:31:33+06:00,
1000000000328029,77770687999,mKarTel,mMTS,mKarTel,D77,D01,2017-02-13T11:32:09+06:00,
1000000000328030,77712825959,mMTS,mKarTel,mKarTel,,D77,2017-02-13T11:32:43+06:00,
1000000000328031,77053671021,mMTS,mKarTel,mKarTel,,D77,2017-02-13T11:33:01+06:00,
1000000000328032,77752613486,mMTS,mKcell,mKcell,,D77,2017-02-13T11:32:50+06:00,
1000000000328033,77772779027,mKarTel,mMTS,mKarTel,D77,D01,2017-02-13T11:36:35+06:00,
1000000000328034,77021001501,mKcell,mKarTel,mKcell,D01,D02,2017-02-13T11:37:36+06:00,
1000000000328035,77754206808,mAltel,mKcell,mKcell,,D07,2017-02-13T11:38:19+06:00,
1000000000328036,77089153094,mKarTel,mKcell,mAltel,D02,D01,2017-02-13T11:39:06+06:00,
1000000000328037,77081100351,mKarTel,mAltel,mAltel,,D01,2017-02-13T11:39:42+06:00,
1000000000328038,77086635785,mKcell,mAltel,mAltel,,D02,2017-02-13T11:42:05+06:00,
1000000000328041,77001102100,mKcell,mAltel,mAltel,,D02,2017-02-13T11:44:51+06:00,
1000000000328042,77081802180,mAltel,mMTS,mAltel,D77,D07,2017-02-13T11:45:17+06:00,
1000000000328043,77056412424,mKarTel,mKcell,mKarTel,D02,D01,2017-02-13T11:46:04+06:00,
1000000000328044,77018909092,mMTS,mKcell,mKcell,,D77,2017-02-13T11:46:25+06:00,
1000000000328045,77072196468,mMTS,mKarTel,mMTS,D01,D77,2017-02-13T11:49:18+06:00,
1000000000328046,77476444204,mAltel,mMTS,mMTS,,D07,2017-02-13T11:49:00+06:00,
1000000000328047,77022515257,mMTS,mKcell,mKcell,,D77,2017-02-13T11:50:31+06:00,
1000000000328048,77011040506,mAltel,mKcell,mKcell,,D07,2017-02-13T11:51:18+06:00,
1000000000328050,77078105247,mAltel,mMTS,mMTS,D77,D07,2017-02-13T11:52:16+06:00,
1000000000328052,77012045904,mKcell,mKarTel,mKcell,D01,D02,2017-02-13T11:55:45+06:00,
1000000000328054,77013264770,mKcell,mMTS,mKcell,D77,D02,2017-02-13T11:56:21+06:00,
1000000000328055,77011070927,mKcell,mMTS,mKcell,D77,D02,2017-02-13T11:57:01+06:00,
1000000000328056,77775021110,mKcell,mKarTel,mKarTel,,D02,2017-02-13T11:57:53+06:00,
1000000000328057,77017659531,mMTS,mKcell,mKcell,,D77,2017-02-13T11:57:52+06:00,
1000000000328059,77071557707,mKarTel,mMTS,mMTS,,D01,2017-02-13T11:59:55+06:00,
