NPId,Number,RecipientId,DonorId,RangeHolderId,OldRoute,NewRoute,PortDate,RowCount
1000000000430737,77470388133,mKarTel,mMTS,mMTS,,D01,2017-07-30T13:31:11+06:00,19
1000000000430738,77058103035,mMTS,mKarTel,mKarTel,,D77,2017-07-30T13:31:38+06:00,
1000000000430739,77085232326,mMTS,mAltel,mAltel,,D77,2017-07-30T13:32:52+06:00,
1000000000430741,77472011177,mAltel,mMTS,mMTS,,D07,2017-07-30T13:36:02+06:00,
1000000000430743,77013116715,mMTS,mKcell,mKcell,,D77,2017-07-30T13:37:45+06:00,
1000000000430744,77019415883,mKarTel,mKcell,mKcell,,D01,2017-07-30T13:40:04+06:00,
1000000000430745,77012888804,mAltel,mKcell,mKcell,,D07,2017-07-30T13:41:41+06:00,
1000000000430746,77058260242,mMTS,mKarTel,mKarTel,,D77,2017-07-30T13:42:06+06:00,
1000000000430747,77017440896,mKarTel,mKcell,mKcell,,D01,2017-07-30T13:42:47+06:00,
1000000000430748,77021097699,mKarTel,mKcell,mKcell,,D01,2017-07-30T13:47:08+06:00,
1000000000430749,77773076266,mMTS,mKarTel,mKarTel,,D77,2017-07-30T13:47:37+06:00,
1000000000430750,77777777343,mMTS,mKarTel,mKarTel,,D77,2017-07-30T13:48:22+06:00,
1000000000430751,77771083753,mMTS,mKarTel,mKarTel,,D77,2017-07-30T13:48:39+06:00,
1000000000430752,77071115883,mMTS,mKarTel,mMTS,D01,D77,2017-07-30T13:49:04+06:00,
1000000000430756,77019960035,mMTS,mKcell,mKcell,,D77,2017-07-30T13:54:37+06:00,
1000000000430758,77051624230,mMTS,mKarTel,mKarTel,,D77,2017-07-30T13:57:37+06:00,
1000000000430759,77014058795,mMTS,mKcell,mKcell,,D77,2017-07-30T13:57:25+06:00,
1000000000430760,77471115883,mMTS,mKarTel,mMTS,D01,D77,2017-07-30T13:57:59+06:00,
1000000000430761,77059832438,mAltel,mKarTel,mKarTel,,D07,2017-07-30T13:58:43+06:00,
