NPId,Number,RecipientId,DonorId,RangeHolderId,OldRoute,NewRoute,PortDate,RowCount
1000000000203666,77772397878,mAltel,mKarTel,mKarTel,,D07,2016-07-07T14:45:09+06:00,36
1000000000206769,77772004840,mAltel,mKarTel,mKarTel,,D07,2016-07-07T14:30:27+06:00,
1000000000206771,77756677281,mMTS,mKcell,mKcell,,D77,2016-07-07T14:32:58+06:00,
1000000000206773,77017601752,mKarTel,mKcell,mKcell,,D01,2016-07-07T14:32:11+06:00,
1000000000206782,77088111030,mMTS,mAltel,mAltel,,D77,2016-07-07T14:33:54+06:00,
1000000000206784,77003681802,mMTS,mAltel,mAltel,,D77,2016-07-07T14:35:09+06:00,
1000000000206785,77077270487,mAltel,mMTS,mMTS,,D07,2016-07-07T14:35:41+06:00,
1000000000206786,77763280186,mKcell,mKarTel,mKarTel,,D02,2016-07-07T14:41:33+06:00,
1000000000206792,77753308555,mMTS,mKcell,mKcell,,D77,2016-07-07T14:39:23+06:00,
1000000000206794,77089681995,mMTS,mAltel,mAltel,,D77,2016-07-07T14:37:29+06:00,
1000000000206795,77052223636,mAltel,mKarTel,mKarTel,,D07,2016-07-07T14:40:56+06:00,
1000000000206796,77717855989,mMTS,mKarTel,mKarTel,,D77,2016-07-07T14:40:55+06:00,
1000000000206799,77015480844,mMTS,mKcell,mKcell,,D77,2016-07-07T14:41:24+06:00,
1000000000206800,77027179844,mMTS,mKcell,mKcell,,D77,2016-07-07T14:42:33+06:00,
1000000000206801,77001450904,mMTS,mAltel,mAltel,,D77,2016-07-07T14:43:36+06:00,
1000000000206802,77770870591,mMTS,mKarTel,mKarTel,,D77,2016-07-07T14:44:13+06:00,
1000000000206803,77004525801,mKcell,mAltel,mAltel,,D02,2016-07-07T14:44:13+06:00,
1000000000206805,77089530092,mKarTel,mMTS,mAltel,D77,D01,2016-07-07T14:44:27+06:00,
1000000000206806,77017307240,mMTS,mKcell,mKcell,,D77,2016-07-07T14:46:17+06:00,
1000000000206808,77088111020,mMTS,mAltel,mAltel,,D77,2016-07-07T14:46:16+06:00,
1000000000206809,77769094515,mKcell,mKarTel,mKarTel,,D02,2016-07-07T14:47:12+06:00,
1000000000206811,77022697595,mMTS,mKcell,mKcell,,D77,2016-07-07T14:48:12+06:00,
1000000000206812,77027257535,mMTS,mKcell,mKcell,,D77,2016-07-07T14:48:45+06:00,
1000000000206815,77089873935,mMTS,mAltel,mAltel,,D77,2016-07-07T14:49:35+06:00,
1000000000206818,77027374331,mKarTel,mKcell,mKcell,,D01,2016-07-07T14:50:48+06:00,
1000000000206824,77085331411,mMTS,mAltel,mAltel,,D77,2016-07-07T14:51:44+06:00,
1000000000206825,77017741950,mMTS,mKcell,mKcell,,D77,2016-07-07T14:52:17+06:00,
1000000000206827,77051897637,mKcell,mKarTel,mKarTel,,D02,2016-07-07T14:52:51+06:00,
1000000000206828,77052619166,mMTS,mKarTel,mKarTel,,D77,2016-07-07T14:52:34+06:00,
1000000000206829,77059518355,mKarTel,mMTS,mKarTel,D77,D01,2016-07-07T14:52:43+06:00,
1000000000206830,77017176667,mMTS,mKcell,mKcell,,D77,2016-07-07T14:52:41+06:00,
1000000000206833,77017393306,mMTS,mKcell,mKcell,,D77,2016-07-07T14:54:31+06:00,
1000000000206834,77004289815,mMTS,mAltel,mAltel,,D77,2016-07-07T14:55:19+06:00,
1000000000206838,77081773145,mKarTel,mAltel,mAltel,,D01,2016-07-07T14:58:08+06:00,
1000000000206842,77475372040,mKcell,mMTS,mMTS,,D02,2016-07-07T14:59:07+06:00,
1000000000206844,77017236680,mKarTel,mKcell,mKcell,,D01,2016-07-07T14:59:52+06:00,
