NPId,Number,RecipientId,DonorId,RangeHolderId,OldRoute,NewRoute,PortDate,RowCount
1000000000445545,77024904884,mKarTel,mKcell,mKcell,,D01,2017-08-25T12:30:19+06:00,25
1000000000445546,77755780045,mMTS,mKcell,mKcell,,D77,2017-08-25T12:31:52+06:00,
1000000000445547,77024785287,mKarTel,mKcell,mKcell,,D01,2017-08-25T12:32:50+06:00,
1000000000445548,77770084404,mKarTel,mAltel,mKarTel,D07,D01,2017-08-25T12:32:51+06:00,
1000000000445550,77786988621,mKarTel,mKcell,mKcell,,D01,2017-08-25T12:33:38+06:00,
1000000000445551,77055079898,mKarTel,mKcell,mKarTel,D02,D01,2017-08-25T12:34:40+06:00,
1000000000445553,77017261823,mKarTel,mKcell,mKcell,,D01,2017-08-25T12:35:38+06:00,
1000000000445554,77010330051,mKarTel,mKcell,mKcell,,D01,2017-08-25T12:36:14+06:00,
1000000000445555,77751644097,mKcell,mMTS,mKcell,D77,D02,2017-08-25T12:36:12+06:00,
1000000000445556,77022150559,mAltel,mKcell,mKcell,D02,D07,2017-08-25T12:37:37+06:00,
1000000000445559,77021978360,mAltel,mKcell,mKcell,,D07,2017-08-25T12:45:37+06:00,
1000000000445562,77071095960,mKcell,mMTS,mMTS,,D02,2017-08-25T12:46:06+06:00,
1000000000445563,77073014947,mAltel,mMTS,mMTS,,D07,2017-08-25T12:46:05+06:00,
1000000000445564,77015552794,mKarTel,mKcell,mKcell,,D01,2017-08-25T12:46:35+06:00,
1000000000445566,77011029518,mMTS,mKcell,mKcell,,D77,2017-08-25T12:49:00+06:00,
1000000000445567,77055156655,mKarTel,mMTS,mKarTel,D77,D01,2017-08-25T12:49:43+06:00,
1000000000445571,77017171081,mKarTel,mKcell,mKcell,,D01,2017-08-25T12:54:27+06:00,
1000000000445572,77783492316,mMTS,mKcell,mKcell,,D77,2017-08-25T12:54:52+06:00,
1000000000445573,77051856666,mKcell,mKarTel,mKarTel,,D02,2017-08-25T12:55:27+06:00,
1000000000445574,77781100588,mKcell,mKarTel,mKcell,D01,D02,2017-08-25T12:56:10+06:00,
1000000000445575,77053213055,mAltel,mKarTel,mKarTel,,D07,2017-08-25T12:56:35+06:00,
1000000000445577,77058005679,mAltel,mMTS,mKarTel,D77,D07,2017-08-25T12:56:41+06:00,
1000000000445578,77011367986,mKarTel,mKcell,mKcell,,D01,2017-08-25T12:58:29+06:00,
1000000000445579,77077000707,mKcell,mMTS,mMTS,,D02,2017-08-25T12:58:42+06:00,
1000000000445580,77710111990,mKarTel,mKcell,mKarTel,D02,D01,2017-08-25T12:59:12+06:00,
