NPId,Number,RecipientId,DonorId,RangeHolderId,OldRoute,NewRoute,PortDate,RowCount
1000000000108482,77052056590,mMTS,mKarTel,mKarTel,,D77,2016-03-06T11:06:32+06:00,13
1000000000108484,77017161828,mMTS,mKarTel,mKcell,D01,D77,2016-03-06T11:10:50+06:00,
1000000000108486,77028989890,mMTS,mKcell,mKcell,,D77,2016-03-06T11:12:35+06:00,
1000000000108487,77772212131,mKarTel,mKcell,mKarTel,D02,D01,2016-03-06T11:13:18+06:00,
1000000000108489,77076205417,mAltel,mMTS,mMTS,,D07,2016-03-06T11:14:34+06:00,
1000000000108491,77012684475,mMTS,mKcell,mKcell,,D77,2016-03-06T11:17:18+06:00,
1000000000108493,77051625933,mMTS,mKarTel,mKarTel,,D77,2016-03-06T11:20:08+06:00,
1000000000108494,77779367484,mMTS,mKarTel,mKarTel,,D77,2016-03-06T11:21:51+06:00,
1000000000108495,77007788886,mMTS,mAltel,mAltel,,D77,2016-03-06T11:22:03+06:00,
1000000000108497,77009994455,mKarTel,mAltel,mAltel,,D01,2016-03-06T11:23:15+06:00,
1000000000108499,77011588303,mAltel,mKcell,mKcell,,D07,2016-03-06T11:26:41+06:00,
1000000000108500,77052489573,mMTS,mKarTel,mKarTel,,D77,2016-03-06T11:27:17+06:00,
1000000000108501,77073261222,mKarTel,mMTS,mMTS,,D01,2016-03-06T11:29:02+06:00,
