NPId,Number,RecipientId,DonorId,RangeHolderId,OldRoute,NewRoute,PortDate,RowCount
1000000000217124,77765466662,mKcell,mKarTel,mKarTel,,D02,2016-07-25T19:32:08+06:00,12
1000000000217125,77077779324,mKcell,mMTS,mMTS,,D02,2016-07-25T19:33:40+06:00,
1000000000217126,77089308899,mKcell,mAltel,mAltel,,D02,2016-07-25T19:36:07+06:00,
1000000000217128,77015991501,mKarTel,mKcell,mKcell,,D01,2016-07-25T19:42:51+06:00,
1000000000217129,77022177770,mMTS,mKcell,mKcell,,D77,2016-07-25T19:42:17+06:00,
1000000000217130,77765944443,mKcell,mKarTel,mKarTel,,D02,2016-07-25T19:43:47+06:00,
1000000000217131,77015550611,mMTS,mKcell,mKcell,,D77,2016-07-25T19:49:04+06:00,
1000000000217132,77023766764,mKcell,mAltel,mKcell,D07,D02,2016-07-25T19:50:59+06:00,
1000000000217133,77772713570,mKcell,mMTS,mKarTel,D77,D02,2016-07-25T19:51:05+06:00,
1000000000217134,77789052521,mKarTel,mKcell,mKcell,,D01,2016-07-25T19:54:51+06:00,
1000000000217135,77017858865,mKarTel,mKcell,mKcell,,D01,2016-07-25T19:55:15+06:00,
1000000000217136,77028939888,mKcell,mAltel,mKcell,D07,D02,2016-07-25T19:54:55+06:00,
