NPId,Number,RecipientId,DonorId,RangeHolderId,OldRoute,NewRoute,PortDate,RowCount
1000000000293745,77711213220,mKcell,mKarTel,mKarTel,,D02,2016-12-12T16:34:16+06:00,36
1000000000293758,77711213219,mKcell,mKarTel,mKarTel,,D02,2016-12-12T16:51:01+06:00,
1000000000293764,77711213242,mKcell,mKarTel,mKarTel,,D02,2016-12-12T16:53:27+06:00,
1000000000293792,77015118037,mKarTel,mKcell,mKcell,,D01,2016-12-12T16:54:32+06:00,
1000000000294045,77055851346,mKcell,mKarTel,mKarTel,,D02,2016-12-12T16:47:37+06:00,
1000000000294051,77017755503,mMTS,mKcell,mKcell,,D77,2016-12-12T16:30:55+06:00,
1000000000294052,77087417417,mAltel,mMTS,mAltel,D77,D07,2016-12-12T16:30:57+06:00,
1000000000294054,77753939333,mAltel,mKcell,mKcell,,D07,2016-12-12T16:31:56+06:00,
1000000000294056,77013669909,mMTS,mKarTel,mKcell,D01,D77,2016-12-12T16:47:21+06:00,
1000000000294058,77011010660,mAltel,mKcell,mKcell,,D07,2016-12-12T16:39:05+06:00,
1000000000294059,77054464940,mAltel,mKarTel,mKarTel,,D07,2016-12-12T16:47:28+06:00,
1000000000294060,77005553292,mKcell,mAltel,mAltel,,D02,2016-12-12T16:38:05+06:00,
1000000000294063,77089369612,mAltel,mMTS,mAltel,D77,D07,2016-12-12T16:38:31+06:00,
1000000000294064,77781770387,mMTS,mKcell,mKcell,,D77,2016-12-12T16:38:50+06:00,
1000000000294065,77074812770,mAltel,mMTS,mMTS,,D07,2016-12-12T16:39:02+06:00,
1000000000294066,77782630794,mMTS,mKcell,mKcell,,D77,2016-12-12T16:39:23+06:00,
1000000000294067,77071180777,mMTS,mKarTel,mMTS,D01,D77,2016-12-12T16:46:00+06:00,
1000000000294068,77071717272,mMTS,mKarTel,mMTS,D01,D77,2016-12-12T16:47:29+06:00,
1000000000294070,77018695697,mKcell,mAltel,mKcell,D07,D02,2016-12-12T16:41:46+06:00,
1000000000294071,77013279694,mMTS,mKcell,mKcell,,D77,2016-12-12T16:42:06+06:00,
1000000000294072,77017385646,mAltel,mKcell,mKcell,,D07,2016-12-12T16:42:41+06:00,
1000000000294073,77071470206,mAltel,mMTS,mMTS,,D07,2016-12-12T16:43:25+06:00,
1000000000294075,77760428787,mKcell,mKarTel,mKarTel,,D02,2016-12-12T16:48:02+06:00,
1000000000294076,77082423003,mMTS,mKarTel,mAltel,D01,D77,2016-12-12T16:46:21+06:00,
1000000000294077,77071187770,mMTS,mKarTel,mMTS,D01,D77,2016-12-12T16:46:41+06:00,
1000000000294078,77782196969,mMTS,mKcell,mKcell,,D77,2016-12-12T16:49:33+06:00,
1000000000294079,77717070757,mMTS,mKarTel,mKarTel,,D77,2016-12-12T16:47:42+06:00,
1000000000294080,77773456969,mAltel,mKarTel,mKarTel,,D07,2016-12-12T16:48:52+06:00,
1000000000294081,77057869323,mMTS,mKarTel,mKarTel,,D77,2016-12-12T16:49:41+06:00,
1000000000294084,77752125922,mMTS,mKcell,mKcell,,D77,2016-12-12T16:52:16+06:00,
1000000000294085,77028885424,mKarTel,mKcell,mKcell,,D01,2016-12-12T16:52:40+06:00,
1000000000294087,77012783978,mMTS,mKcell,mKcell,,D77,2016-12-12T16:55:49+06:00,
1000000000294089,77751218653,mKcell,mMTS,mKcell,D77,D02,2016-12-12T16:56:41+06:00,
1000000000294090,77774222233,mKarTel,mMTS,mKarTel,D77,D01,2016-12-12T16:56:43+06:00,
1000000000294092,77014646586,mKarTel,mKcell,mKcell,,D01,2016-12-12T16:58:56+06:00,
1000000000294095,77078247358,mKarTel,mMTS,mMTS,,D01,2016-12-12T16:59:21+06:00,
