NPId,Number,RecipientId,DonorId,RangeHolderId,OldRoute,NewRoute,PortDate,RowCount
1000000000310401,77080613030,mAltel,mKcell,mAltel,D02,D07,2017-01-14T10:03:14+06:00,5
1000000000310402,77753534633,mKcell,mAltel,mKcell,D07,D02,2017-01-14T10:10:30+06:00,
1000000000310403,77051444046,mMTS,mKarTel,mKarTel,,D77,2017-01-14T10:11:04+06:00,
1000000000310404,77000241094,mMTS,mAltel,mAltel,,D77,2017-01-14T10:13:40+06:00,
1000000000310406,77076097989,mKarTel,mMTS,mMTS,,D01,2017-01-14T10:25:53+06:00,
