NPId,Number,RecipientId,DonorId,RangeHolderId,OldRoute,NewRoute,PortDate,RowCount
1000000000140225,77027035823,mMTS,mKcell,mKcell,,D77,2016-04-02T11:03:39+06:00,28
1000000000140226,77015117078,mAltel,mKcell,mKcell,,D07,2016-04-02T11:03:39+06:00,
1000000000140228,77778023333,mAltel,mKarTel,mKarTel,,D07,2016-04-02T11:00:42+06:00,
1000000000140229,77015301020,mAltel,mKcell,mKcell,,D07,2016-04-02T11:04:19+06:00,
1000000000140230,77471985999,mMTS,mAltel,mMTS,D07,D77,2016-04-02T11:01:48+06:00,
1000000000140231,77770505133,mMTS,mKarTel,mKarTel,,D77,2016-04-02T11:03:39+06:00,
1000000000140233,77056466645,mAltel,mKarTel,mKarTel,,D07,2016-04-02T11:04:43+06:00,
1000000000140234,77071228070,mKcell,mMTS,mMTS,,D02,2016-04-02T11:04:43+06:00,
1000000000140235,77055012310,mKcell,mKarTel,mKarTel,,D02,2016-04-02T11:06:00+06:00,
1000000000140236,77765755050,mMTS,mKarTel,mKarTel,,D77,2016-04-02T11:07:04+06:00,
1000000000140237,77015404352,mMTS,mKcell,mKcell,,D77,2016-04-02T11:06:15+06:00,
1000000000140238,77776971753,mMTS,mKarTel,mKarTel,,D77,2016-04-02T11:07:34+06:00,
1000000000140239,77012882289,mMTS,mKcell,mKcell,,D77,2016-04-02T11:07:16+06:00,
1000000000140240,77026746841,mMTS,mKcell,mKcell,,D77,2016-04-02T11:12:36+06:00,
1000000000140242,77018000086,mMTS,mKcell,mKcell,,D77,2016-04-02T11:16:13+06:00,
1000000000140243,77013846085,mKcell,mAltel,mKcell,D07,D02,2016-04-02T11:17:19+06:00,
1000000000140246,77017480672,mMTS,mKcell,mKcell,,D77,2016-04-02T11:19:31+06:00,
1000000000140247,77471534966,mAltel,mMTS,mMTS,,D07,2016-04-02T11:19:47+06:00,
1000000000140249,77086641108,mMTS,mAltel,mAltel,,D77,2016-04-02T11:22:03+06:00,
1000000000140250,77054245817,mMTS,mKarTel,mKarTel,,D77,2016-04-02T11:24:06+06:00,
1000000000140251,77023640984,mAltel,mKcell,mKcell,,D07,2016-04-02T11:24:04+06:00,
1000000000140252,77712351885,mKarTel,mMTS,mKarTel,D77,D01,2016-04-02T11:25:38+06:00,
1000000000140253,77025421703,mMTS,mKcell,mKcell,,D77,2016-04-02T11:26:00+06:00,
1000000000140254,77014177895,mKarTel,mKcell,mKcell,,D01,2016-04-02T11:27:05+06:00,
1000000000140255,77711001277,mMTS,mKarTel,mKarTel,,D77,2016-04-02T11:28:08+06:00,
1000000000140256,77714512861,mMTS,mKarTel,mKarTel,,D77,2016-04-02T11:28:42+06:00,
1000000000140257,77753801488,mAltel,mKcell,mKcell,,D07,2016-04-02T11:28:18+06:00,
1000000000140258,77788212314,mMTS,mKcell,mKcell,,D77,2016-04-02T11:29:08+06:00,
