NPId,Number,RecipientId,DonorId,RangeHolderId,OldRoute,NewRoute,PortDate,RowCount
1000000000423960,77777720727,mMTS,mKarTel,mKarTel,,D77,2017-07-18T16:45:34+06:00,24
1000000000424035,77017282833,mKcell,mMTS,mKcell,D77,D02,2017-07-18T16:30:33+06:00,
1000000000424038,77001405002,mKcell,mAltel,mAltel,,D02,2017-07-18T16:36:19+06:00,
1000000000424041,77024162125,mAltel,mKcell,mKcell,,D07,2017-07-18T16:38:20+06:00,
1000000000424042,77478437949,mKcell,mMTS,mMTS,,D02,2017-07-18T16:38:30+06:00,
1000000000424045,77776662620,mKarTel,mKcell,mKarTel,D02,D01,2017-07-18T16:42:01+06:00,
1000000000424047,77472555179,mKarTel,mMTS,mMTS,,D01,2017-07-18T16:42:53+06:00,
1000000000424049,77014168127,mKcell,mMTS,mKcell,D77,D02,2017-07-18T16:43:45+06:00,
1000000000424050,77776662260,mKcell,mKarTel,mKarTel,,D02,2017-07-18T16:45:11+06:00,
1000000000424051,77055274427,mMTS,mKarTel,mKarTel,,D77,2017-07-18T16:45:30+06:00,
1000000000424052,77776616066,mKcell,mKarTel,mKarTel,,D02,2017-07-18T16:47:53+06:00,
1000000000424054,77719994565,mAltel,mKarTel,mKarTel,,D07,2017-07-18T16:49:22+06:00,
1000000000424055,77059876964,mKarTel,mMTS,mKarTel,D77,D01,2017-07-18T16:51:31+06:00,
1000000000424056,77082697551,mKcell,mAltel,mAltel,,D02,2017-07-18T16:52:40+06:00,
1000000000424057,77055552729,mKarTel,mMTS,mKarTel,D77,D01,2017-07-18T16:53:14+06:00,
1000000000424058,77758880178,mKcell,mMTS,mKcell,D77,D02,2017-07-18T16:53:23+06:00,
1000000000424059,77089020020,mKcell,mAltel,mAltel,,D02,2017-07-18T16:55:14+06:00,
1000000000424060,77783677774,mKarTel,mMTS,mKcell,D77,D01,2017-07-18T16:56:05+06:00,
1000000000424061,77077153900,mKarTel,mMTS,mMTS,,D01,2017-07-18T16:56:35+06:00,
1000000000424062,77076153900,mKarTel,mMTS,mMTS,,D01,2017-07-18T16:57:33+06:00,
1000000000424063,77474113282,mKarTel,mMTS,mMTS,,D01,2017-07-18T16:57:58+06:00,
1000000000424064,77017711267,mKarTel,mKcell,mKcell,,D01,2017-07-18T16:58:23+06:00,
1000000000424065,77073252525,mKcell,mMTS,mMTS,,D02,2017-07-18T16:59:44+06:00,
1000000000424066,77773466666,mKarTel,mMTS,mKarTel,D77,D01,2017-07-18T16:59:40+06:00,
