NPId,Number,RecipientId,DonorId,RangeHolderId,OldRoute,NewRoute,PortDate,RowCount
1000000000256944,77755602981,mKcell,mMTS,mKcell,D77,D02,2016-10-04T18:00:59+06:00,18
1000000000256947,77770316318,mKarTel,mKcell,mKarTel,D02,D01,2016-10-04T18:04:43+06:00,
1000000000256948,77770316311,mKarTel,mKcell,mKarTel,D02,D01,2016-10-04T18:09:32+06:00,
1000000000256950,77018411008,mAltel,mKcell,mKcell,,D07,2016-10-04T18:11:00+06:00,
1000000000256951,77773025000,mMTS,mKarTel,mKarTel,,D77,2016-10-04T18:11:55+06:00,
1000000000256952,77000989000,mKcell,mAltel,mAltel,,D02,2016-10-04T18:12:42+06:00,
1000000000256953,77770316314,mKarTel,mKcell,mKarTel,D02,D01,2016-10-04T18:13:12+06:00,
1000000000256954,77787883534,mKcell,mMTS,mKcell,D77,D02,2016-10-04T18:13:25+06:00,
1000000000256955,77712988398,mKcell,mAltel,mKarTel,D07,D02,2016-10-04T18:14:53+06:00,
1000000000256956,77026187084,mKarTel,mKcell,mKcell,,D01,2016-10-04T18:18:48+06:00,
1000000000256958,77770316312,mKarTel,mKcell,mKarTel,D02,D01,2016-10-04T18:17:28+06:00,
1000000000256959,77018888683,mKcell,mAltel,mKcell,D07,D02,2016-10-04T18:17:44+06:00,
1000000000256960,77770316315,mKarTel,mKcell,mKarTel,D02,D01,2016-10-04T18:20:59+06:00,
1000000000256961,77029962444,mAltel,mKcell,mKcell,,D07,2016-10-04T18:21:24+06:00,
1000000000256963,77774005843,mAltel,mKarTel,mKarTel,,D07,2016-10-04T18:23:00+06:00,
1000000000256965,77774005844,mAltel,mKarTel,mKarTel,,D07,2016-10-04T18:24:22+06:00,
1000000000256966,77773444040,mMTS,mKarTel,mKarTel,,D77,2016-10-04T18:24:50+06:00,
1000000000256968,77071780001,mAltel,mMTS,mMTS,,D07,2016-10-04T18:29:46+06:00,
