NPId,Number,RecipientId,DonorId,RangeHolderId,OldRoute,NewRoute,PortDate,RowCount
1000000000230312,77715537114,mKcell,mKarTel,mKarTel,,D02,2016-08-17T15:32:49+06:00,30
1000000000230313,77775527080,mKcell,mKarTel,mKarTel,,D02,2016-08-17T15:32:52+06:00,
1000000000230315,77715537125,mKcell,mKarTel,mKarTel,,D02,2016-08-17T15:31:30+06:00,
1000000000230320,77779501562,mKcell,mKarTel,mKarTel,,D02,2016-08-17T15:36:44+06:00,
1000000000230324,77715580859,mKcell,mKarTel,mKarTel,,D02,2016-08-17T15:37:39+06:00,
1000000000230326,77715537116,mKcell,mKarTel,mKarTel,,D02,2016-08-17T15:38:28+06:00,
1000000000230332,77715522748,mKcell,mKarTel,mKarTel,,D02,2016-08-17T15:42:55+06:00,
1000000000230335,77717093567,mKcell,mKarTel,mKarTel,,D02,2016-08-17T15:44:36+06:00,
1000000000230336,77715034537,mKcell,mKarTel,mKarTel,,D02,2016-08-17T15:44:36+06:00,
1000000000230337,77782196861,mMTS,mKcell,mKcell,,D77,2016-08-17T15:36:46+06:00,
1000000000230339,77019924441,mKcell,mAltel,mKcell,D07,D02,2016-08-17T15:36:02+06:00,
1000000000230340,77715076353,mKcell,mKarTel,mKarTel,,D02,2016-08-17T15:51:43+06:00,
1000000000230341,77077339947,mAltel,mMTS,mMTS,,D07,2016-08-17T15:36:00+06:00,
1000000000230342,77777766444,mMTS,mKarTel,mKarTel,,D77,2016-08-17T15:38:52+06:00,
1000000000230343,77052595555,mKarTel,mMTS,mKarTel,D77,D01,2016-08-17T15:38:40+06:00,
1000000000230345,77071112411,mMTS,mKarTel,mMTS,D01,D77,2016-08-17T15:40:03+06:00,
1000000000230346,77717799420,mKcell,mKarTel,mKarTel,,D02,2016-08-17T15:55:46+06:00,
1000000000230347,77003810532,mAltel,mMTS,mAltel,D77,D07,2016-08-17T15:40:35+06:00,
1000000000230348,77083498760,mAltel,mMTS,mAltel,D77,D07,2016-08-17T15:42:37+06:00,
1000000000230350,77789990304,mAltel,mKcell,mKcell,,D07,2016-08-17T15:42:59+06:00,
1000000000230351,77777380420,mMTS,mKarTel,mKarTel,,D77,2016-08-17T15:44:14+06:00,
1000000000230352,77789990203,mAltel,mKcell,mKcell,,D07,2016-08-17T15:45:11+06:00,
1000000000230353,77017588348,mMTS,mKcell,mKcell,,D77,2016-08-17T15:45:13+06:00,
1000000000230354,77013352380,mKarTel,mKcell,mKcell,,D01,2016-08-17T15:45:51+06:00,
1000000000230355,77056666693,mMTS,mKarTel,mKarTel,,D77,2016-08-17T15:46:17+06:00,
1000000000230356,77016252573,mKarTel,mKcell,mKcell,,D01,2016-08-17T15:50:58+06:00,
1000000000230357,77073194665,mAltel,mMTS,mMTS,,D07,2016-08-17T15:50:49+06:00,
1000000000230359,77013627177,mKarTel,mKcell,mKcell,,D01,2016-08-17T15:57:09+06:00,
1000000000230361,77471945022,mKcell,mMTS,mMTS,,D02,2016-08-17T15:58:27+06:00,
1000000000230363,77015349636,mKcell,mKarTel,mKcell,D01,D02,2016-08-17T15:59:49+06:00,
