NPId,Number,RecipientId,DonorId,RangeHolderId,OldRoute,NewRoute,PortDate,RowCount
1000000000445014,77015393836,mKarTel,mKcell,mKcell,,D01,2017-08-24T15:00:10+06:00,22
1000000000445018,77077750183,mAltel,mMTS,mMTS,,D07,2017-08-24T15:02:03+06:00,
1000000000445019,77783093290,mMTS,mKcell,mKcell,,D77,2017-08-24T15:02:46+06:00,
1000000000445020,77077564650,mKarTel,mMTS,mMTS,,D01,2017-08-24T15:05:22+06:00,
1000000000445021,77712192323,mAltel,mKarTel,mKarTel,,D07,2017-08-24T15:06:19+06:00,
1000000000445024,77757380037,mKcell,mAltel,mKcell,D07,D02,2017-08-24T15:06:49+06:00,
1000000000445029,77017998991,mKarTel,mKcell,mKcell,,D01,2017-08-24T15:13:28+06:00,
1000000000445031,77776382592,mMTS,mKarTel,mKarTel,,D77,2017-08-24T15:16:07+06:00,
1000000000445033,77752294607,mKcell,mKarTel,mKcell,D01,D02,2017-08-24T15:19:58+06:00,
1000000000445034,77014604235,mMTS,mKcell,mKcell,,D77,2017-08-24T15:20:27+06:00,
1000000000445035,77077701972,mKcell,mMTS,mMTS,,D02,2017-08-24T15:21:59+06:00,
1000000000445036,77773291986,mMTS,mAltel,mKarTel,D07,D77,2017-08-24T15:21:49+06:00,
1000000000445037,77077701964,mKcell,mMTS,mMTS,,D02,2017-08-24T15:23:19+06:00,
1000000000445038,77000200600,mKarTel,mAltel,mAltel,,D01,2017-08-24T15:24:02+06:00,
1000000000445039,77075000755,mKcell,mMTS,mMTS,,D02,2017-08-24T15:24:54+06:00,
1000000000445040,77077175888,mMTS,mKcell,mMTS,D02,D77,2017-08-24T15:26:05+06:00,
1000000000445041,77011010410,mKarTel,mKcell,mKcell,,D01,2017-08-24T15:26:22+06:00,
1000000000445042,77013244212,mKarTel,mKcell,mKcell,,D01,2017-08-24T15:26:43+06:00,
1000000000445043,77003761432,mKarTel,mAltel,mAltel,,D01,2017-08-24T15:27:03+06:00,
1000000000445044,77013438423,mAltel,mKcell,mKcell,,D07,2017-08-24T15:27:20+06:00,
1000000000445046,77783812399,mKarTel,mAltel,mKcell,D07,D01,2017-08-24T15:29:55+06:00,
1000000000445047,77782555255,mKcell,mMTS,mKcell,D77,D02,2017-08-24T15:29:57+06:00,
