NPId,Number,RecipientId,DonorId,RangeHolderId,OldRoute,NewRoute,PortDate,RowCount
1000000000441651,77015038547,mKarTel,mKcell,mKcell,,D01,2017-08-18T15:20:44+06:00,34
1000000000441651,77015038550,mKarTel,mKcell,mKcell,,D01,2017-08-18T15:20:44+06:00,
1000000000441651,77017315041,mKarTel,mKcell,mKcell,,D01,2017-08-18T15:20:44+06:00,
1000000000441651,77019209055,mKarTel,mKcell,mKcell,,D01,2017-08-18T15:20:44+06:00,
1000000000441677,77017315059,mKarTel,mKcell,mKcell,,D01,2017-08-18T15:23:03+06:00,
1000000000441943,77079256080,mKarTel,mKcell,mMTS,D02,D01,2017-08-18T15:20:30+06:00,
1000000000442020,77082508888,mKarTel,mMTS,mAltel,D77,D01,2017-08-18T15:00:34+06:00,
1000000000442022,77012228974,mMTS,mKcell,mKcell,,D77,2017-08-18T15:04:47+06:00,
1000000000442023,77002000020,mKcell,mAltel,mAltel,,D02,2017-08-18T15:06:28+06:00,
1000000000442024,77003951955,mMTS,mAltel,mAltel,,D77,2017-08-18T15:06:09+06:00,
1000000000442025,77012550825,mKcell,mKarTel,mKcell,D01,D02,2017-08-18T15:07:11+06:00,
1000000000442026,77001354444,mKcell,mAltel,mAltel,,D02,2017-08-18T15:07:02+06:00,
1000000000442027,77006708936,mMTS,mAltel,mAltel,,D77,2017-08-18T15:07:34+06:00,
1000000000442028,77784963667,mMTS,mKcell,mKcell,,D77,2017-08-18T15:08:58+06:00,
1000000000442029,77001574444,mKcell,mAltel,mAltel,,D02,2017-08-18T15:09:29+06:00,
1000000000442030,77773434434,mKcell,mKarTel,mKarTel,,D02,2017-08-18T15:11:14+06:00,
1000000000442031,77078202081,mAltel,mMTS,mMTS,,D07,2017-08-18T15:10:47+06:00,
1000000000442032,77024006691,mKarTel,mKcell,mKcell,,D01,2017-08-18T15:11:29+06:00,
1000000000442033,77477555683,mKarTel,mMTS,mMTS,,D01,2017-08-18T15:11:29+06:00,
1000000000442034,77053200900,mMTS,mKarTel,mKarTel,,D77,2017-08-18T15:12:53+06:00,
1000000000442035,77714523435,mKarTel,mMTS,mKarTel,D77,D01,2017-08-18T15:14:08+06:00,
1000000000442036,77058016888,mMTS,mKarTel,mKarTel,,D77,2017-08-18T15:14:48+06:00,
1000000000442037,77079033688,mKcell,mMTS,mMTS,,D02,2017-08-18T15:17:12+06:00,
1000000000442038,77079816168,mMTS,mKarTel,mMTS,D01,D77,2017-08-18T15:17:51+06:00,
1000000000442039,77055704727,mKarTel,mMTS,mKarTel,D77,D01,2017-08-18T15:19:06+06:00,
1000000000442041,77714157675,mKarTel,mMTS,mKarTel,D77,D01,2017-08-18T15:21:04+06:00,
1000000000442042,77017446612,mKarTel,mAltel,mKcell,D07,D01,2017-08-18T15:21:46+06:00,
1000000000442043,77071706272,mMTS,mKarTel,mMTS,D01,D77,2017-08-18T15:22:54+06:00,
1000000000442044,77051016181,mMTS,mKarTel,mKarTel,,D77,2017-08-18T15:23:28+06:00,
1000000000442045,77004190033,mKcell,mAltel,mAltel,,D02,2017-08-18T15:25:07+06:00,
1000000000442046,77053358283,mKcell,mMTS,mKarTel,D77,D02,2017-08-18T15:25:13+06:00,
1000000000442047,77017202133,mAltel,mKcell,mKcell,,D07,2017-08-18T15:25:11+06:00,
1000000000442048,77012206041,mKarTel,mKcell,mKcell,,D01,2017-08-18T15:25:34+06:00,
1000000000442049,77011660551,mKarTel,mKcell,mKcell,,D01,2017-08-18T15:26:09+06:00,
