NPId,Number,RecipientId,DonorId,RangeHolderId,OldRoute,NewRoute,PortDate,RowCount
1000000000418727,77006465665,mKcell,mMTS,mAltel,D77,D02,2017-07-10T09:02:58+06:00,5
1000000000418729,77011188725,mMTS,mKcell,mKcell,,D77,2017-07-10T09:07:50+06:00,
1000000000418730,77779349581,mMTS,mKarTel,mKarTel,,D77,2017-07-10T09:08:43+06:00,
1000000000418731,77014059299,mKarTel,mKcell,mKcell,,D01,2017-07-10T09:21:31+06:00,
1000000000418732,77004346041,mKarTel,mAltel,mAltel,,D01,2017-07-10T09:27:18+06:00,
