NPId,Number,RecipientId,DonorId,RangeHolderId,OldRoute,NewRoute,PortDate,RowCount
1000000000359855,77758923774,mMTS,mKcell,mKcell,,D77,2017-04-04T19:01:08+06:00,25
1000000000359857,77758923672,mMTS,mKcell,mKcell,,D77,2017-04-04T19:03:24+06:00,
1000000000359858,77758922069,mMTS,mKcell,mKcell,,D77,2017-04-04T19:06:10+06:00,
1000000000359859,77756753373,mKarTel,mKcell,mKcell,,D01,2017-04-04T19:08:54+06:00,
1000000000359860,77758921735,mMTS,mKcell,mKcell,,D77,2017-04-04T19:08:46+06:00,
1000000000359861,77014388122,mKarTel,mKcell,mKcell,,D01,2017-04-04T19:10:31+06:00,
1000000000359863,77758920927,mMTS,mKcell,mKcell,,D77,2017-04-04T19:11:03+06:00,
1000000000359864,77019587836,mAltel,mKcell,mKcell,,D07,2017-04-04T19:11:22+06:00,
1000000000359866,77758920640,mMTS,mKcell,mKcell,,D77,2017-04-04T19:12:51+06:00,
1000000000359867,77071103199,mKarTel,mMTS,mMTS,,D01,2017-04-04T19:13:10+06:00,
1000000000359868,77758920306,mMTS,mKcell,mKcell,,D77,2017-04-04T19:15:21+06:00,
1000000000359869,77770131212,mKarTel,mMTS,mKarTel,D77,D01,2017-04-04T19:16:03+06:00,
1000000000359870,77015316999,mKcell,mMTS,mKcell,D77,D02,2017-04-04T19:17:03+06:00,
1000000000359871,77781003929,mMTS,mKcell,mKcell,,D77,2017-04-04T19:17:42+06:00,
1000000000359872,77017777436,mMTS,mKcell,mKcell,,D77,2017-04-04T19:18:23+06:00,
1000000000359873,77015140066,mKcell,mMTS,mKcell,D77,D02,2017-04-04T19:19:00+06:00,
1000000000359875,77781003183,mMTS,mKcell,mKcell,,D77,2017-04-04T19:20:36+06:00,
1000000000359876,77755906391,mMTS,mKcell,mKcell,,D77,2017-04-04T19:20:52+06:00,
1000000000359877,77781003158,mMTS,mKcell,mKcell,,D77,2017-04-04T19:22:12+06:00,
1000000000359878,77781003115,mMTS,mKcell,mKcell,,D77,2017-04-04T19:24:16+06:00,
1000000000359880,77017551900,mKcell,mAltel,mKcell,D07,D02,2017-04-04T19:26:36+06:00,
1000000000359881,77781002468,mMTS,mKcell,mKcell,,D77,2017-04-04T19:27:35+06:00,
1000000000359882,77021409679,mKcell,mMTS,mKcell,D77,D02,2017-04-04T19:28:23+06:00,
1000000000359883,77018867030,mKarTel,mKcell,mKcell,,D01,2017-04-04T19:29:12+06:00,
1000000000359884,77017886994,mMTS,mKcell,mKcell,,D77,2017-04-04T19:29:14+06:00,
