NPId,Number,RecipientId,DonorId,RangeHolderId,OldRoute,NewRoute,PortDate,RowCount
1000000000324738,77083673207,mMTS,mAltel,mAltel,,D77,2017-02-06T17:00:31+06:00,24
1000000000324739,77079084000,mKcell,mKarTel,mMTS,D01,D02,2017-02-06T17:02:05+06:00,
1000000000324740,77009476725,mKarTel,mAltel,mAltel,,D01,2017-02-06T17:03:30+06:00,
1000000000324741,77072340017,mKarTel,mMTS,mMTS,,D01,2017-02-06T17:03:51+06:00,
1000000000324742,77012360007,mAltel,mKcell,mKcell,,D07,2017-02-06T17:04:04+06:00,
1000000000324743,77012413140,mKarTel,mKcell,mKcell,,D01,2017-02-06T17:07:16+06:00,
1000000000324744,77710700080,mKcell,mKarTel,mKarTel,,D02,2017-02-06T17:07:45+06:00,
1000000000324747,77029279030,mMTS,mKcell,mKcell,,D77,2017-02-06T17:10:54+06:00,
1000000000324748,77014579931,mKarTel,mKcell,mKcell,,D01,2017-02-06T17:11:25+06:00,
1000000000324749,77058833886,mKcell,mKarTel,mKarTel,,D02,2017-02-06T17:12:22+06:00,
1000000000324751,77075156644,mAltel,mMTS,mMTS,,D07,2017-02-06T17:13:33+06:00,
1000000000324752,77779869627,mKarTel,mMTS,mKarTel,D77,D01,2017-02-06T17:14:03+06:00,
1000000000324754,77787785474,mAltel,mKcell,mKcell,,D07,2017-02-06T17:14:12+06:00,
1000000000324755,77007676730,mKcell,mAltel,mAltel,,D02,2017-02-06T17:14:46+06:00,
1000000000324757,77754060404,mAltel,mKcell,mKcell,,D07,2017-02-06T17:16:28+06:00,
1000000000324758,77052183685,mKarTel,mKcell,mKarTel,D02,D01,2017-02-06T17:17:24+06:00,
1000000000324760,77711736357,mMTS,mKarTel,mKarTel,,D77,2017-02-06T17:17:41+06:00,
1000000000324761,77053379009,mKarTel,mKcell,mKarTel,D02,D01,2017-02-06T17:18:28+06:00,
1000000000324763,77078958373,mKcell,mMTS,mMTS,D77,D02,2017-02-06T17:20:23+06:00,
1000000000324764,77019411590,mMTS,mKcell,mKcell,,D77,2017-02-06T17:21:15+06:00,
1000000000324765,77759200404,mAltel,mKcell,mKcell,,D07,2017-02-06T17:22:42+06:00,
1000000000324766,77007373780,mKcell,mAltel,mAltel,,D02,2017-02-06T17:23:51+06:00,
1000000000324767,77474252296,mKarTel,mMTS,mMTS,,D01,2017-02-06T17:23:59+06:00,
1000000000324769,77028869885,mAltel,mKcell,mKcell,,D07,2017-02-06T17:26:31+06:00,
