NPId,Number,RecipientId,DonorId,RangeHolderId,OldRoute,NewRoute,PortDate,RowCount
1000000000304401,77783576266,mKcell,mMTS,mKcell,D77,D02,2017-01-02T17:35:08+06:00,6
1000000000304403,77016726010,mAltel,mKcell,mKcell,,D07,2017-01-02T17:37:47+06:00,
1000000000304404,77012350700,mKarTel,mKcell,mKcell,,D01,2017-01-02T17:39:44+06:00,
1000000000304405,77012350800,mKarTel,mKcell,mKcell,,D01,2017-01-02T17:46:25+06:00,
1000000000304406,77058782737,mKcell,mKarTel,mKarTel,,D02,2017-01-02T17:47:00+06:00,
1000000000304407,77779990996,mKcell,mKarTel,mKarTel,D01,D02,2017-01-02T17:48:00+06:00,
