NPId,Number,RecipientId,DonorId,RangeHolderId,OldRoute,NewRoute,PortDate,RowCount
1000000000372346,77010263669,mKarTel,mKcell,mKcell,,D01,2017-04-27T13:58:33+06:00,50
1000000000372346,77010292298,mKarTel,mKcell,mKcell,,D01,2017-04-27T13:58:33+06:00,
1000000000372346,77010341745,mKarTel,mKcell,mKcell,,D01,2017-04-27T13:58:33+06:00,
1000000000372346,77010354526,mKarTel,mKcell,mKcell,,D01,2017-04-27T13:58:33+06:00,
1000000000372346,77010354621,mKarTel,mKcell,mKcell,,D01,2017-04-27T13:58:33+06:00,
1000000000372346,77010354952,mKarTel,mKcell,mKcell,,D01,2017-04-27T13:58:33+06:00,
1000000000372346,77012206203,mKarTel,mKcell,mKcell,,D01,2017-04-27T13:58:33+06:00,
1000000000372346,77012216475,mKarTel,mKcell,mKcell,,D01,2017-04-27T13:58:33+06:00,
1000000000372346,77017300550,mKarTel,mKcell,mKcell,,D01,2017-04-27T13:58:33+06:00,
1000000000372346,77017578012,mKarTel,mKcell,mKcell,,D01,2017-04-27T13:58:33+06:00,
1000000000372346,77017578020,mKarTel,mKcell,mKcell,,D01,2017-04-27T13:58:33+06:00,
1000000000372346,77017580909,mKarTel,mKcell,mKcell,,D01,2017-04-27T13:58:33+06:00,
1000000000372346,77017588167,mKarTel,mKcell,mKcell,,D01,2017-04-27T13:58:33+06:00,
1000000000372346,77017619717,mKarTel,mKcell,mKcell,,D01,2017-04-27T13:58:33+06:00,
1000000000372346,77017649253,mKarTel,mKcell,mKcell,,D01,2017-04-27T13:58:33+06:00,
1000000000372346,77017652739,mKarTel,mKcell,mKcell,,D01,2017-04-27T13:58:33+06:00,
1000000000372346,77017652796,mKarTel,mKcell,mKcell,,D01,2017-04-27T13:58:33+06:00,
1000000000372346,77017652863,mKarTel,mKcell,mKcell,,D01,2017-04-27T13:58:33+06:00,
1000000000372346,77019079348,mKarTel,mKcell,mKcell,,D01,2017-04-27T13:58:33+06:00,
1000000000372346,77019240607,mKarTel,mKcell,mKcell,,D01,2017-04-27T13:58:33+06:00,
1000000000372916,77085245064,mAltel,mMTS,mAltel,D77,D07,2017-04-27T13:30:12+06:00,
1000000000372918,77015433336,mMTS,mKcell,mKcell,,D77,2017-04-27T13:31:50+06:00,
1000000000372919,77000856282,mMTS,mAltel,mAltel,,D77,2017-04-27T13:31:48+06:00,
1000000000372921,77057048305,mAltel,mKarTel,mKarTel,D01,D07,2017-04-27T13:34:34+06:00,
1000000000372922,77013445510,mMTS,mKcell,mKcell,,D77,2017-04-27T13:34:46+06:00,
1000000000372923,77071110311,mAltel,mMTS,mMTS,,D07,2017-04-27T13:35:50+06:00,
1000000000372924,77029172455,mKarTel,mKcell,mKcell,,D01,2017-04-27T13:36:33+06:00,
1000000000372925,77785888308,mMTS,mKcell,mKcell,,D77,2017-04-27T13:36:47+06:00,
1000000000372926,77007000808,mMTS,mKarTel,mAltel,D01,D77,2017-04-27T13:38:54+06:00,
1000000000372927,77010772707,mKarTel,mKcell,mKcell,,D01,2017-04-27T13:38:58+06:00,
1000000000372928,77071535516,mAltel,mMTS,mMTS,,D07,2017-04-27T13:38:47+06:00,
1000000000372929,77759850114,mKarTel,mKcell,mKcell,,D01,2017-04-27T13:39:20+06:00,
1000000000372930,77022496640,mAltel,mKcell,mKcell,,D07,2017-04-27T13:41:43+06:00,
1000000000372931,77772633010,mMTS,mKarTel,mKarTel,,D77,2017-04-27T13:42:33+06:00,
1000000000372932,77074505058,mKarTel,mMTS,mMTS,,D01,2017-04-27T13:42:33+06:00,
1000000000372933,77057644501,mKarTel,mKcell,mKarTel,D02,D01,2017-04-27T13:42:53+06:00,
1000000000372934,77787347055,mMTS,mKcell,mKcell,,D77,2017-04-27T13:42:56+06:00,
1000000000372936,77011101331,mKcell,mKarTel,mKcell,D01,D02,2017-04-27T13:44:46+06:00,
1000000000372937,77077444432,mKcell,mMTS,mMTS,,D02,2017-04-27T13:44:31+06:00,
1000000000372938,77013731645,mMTS,mKcell,mKcell,,D77,2017-04-27T13:44:54+06:00,
1000000000372939,77714412233,mAltel,mKarTel,mKarTel,,D07,2017-04-27T13:45:44+06:00,
1000000000372941,77027097878,mMTS,mKcell,mKcell,,D77,2017-04-27T13:46:27+06:00,
1000000000372942,77073279113,mKcell,mMTS,mMTS,,D02,2017-04-27T13:48:43+06:00,
1000000000372943,77089090084,mKcell,mAltel,mAltel,,D02,2017-04-27T13:50:33+06:00,
1000000000372945,77089091984,mKcell,mAltel,mAltel,,D02,2017-04-27T13:52:26+06:00,
1000000000372946,77785758939,mKcell,mAltel,mKcell,D07,D02,2017-04-27T13:53:34+06:00,
1000000000372947,77029402211,mKarTel,mKcell,mKcell,,D01,2017-04-27T13:54:37+06:00,
1000000000372948,77087650883,mKarTel,mAltel,mAltel,,D01,2017-04-27T13:54:41+06:00,
1000000000372949,77784111622,mMTS,mKcell,mKcell,,D77,2017-04-27T13:57:14+06:00,
1000000000372950,77003721207,mMTS,mAltel,mAltel,,D77,2017-04-27T13:58:05+06:00,
