NPId,Number,RecipientId,DonorId,RangeHolderId,OldRoute,NewRoute,PortDate,RowCount
1000000000257166,77017779098,mKarTel,mKcell,mKcell,,D01,2016-10-05T14:42:15+06:00,23
1000000000257184,77057795096,mMTS,mKarTel,mKarTel,,D77,2016-10-05T14:42:48+06:00,
1000000000257191,77772271010,mKcell,mKarTel,mKarTel,,D02,2016-10-05T14:43:02+06:00,
1000000000257200,77777064611,mAltel,mKarTel,mKarTel,,D07,2016-10-05T14:42:53+06:00,
1000000000257301,77017781526,mKarTel,mKcell,mKcell,,D01,2016-10-05T14:30:29+06:00,
1000000000257305,77754375987,mMTS,mKcell,mKcell,,D77,2016-10-05T14:33:33+06:00,
1000000000257306,77775804282,mAltel,mKarTel,mKarTel,,D07,2016-10-05T14:35:24+06:00,
1000000000257307,77003230407,mKarTel,mAltel,mAltel,,D01,2016-10-05T14:36:41+06:00,
1000000000257312,77016761825,mMTS,mKcell,mKcell,,D77,2016-10-05T14:42:37+06:00,
1000000000257313,77017973057,mMTS,mKcell,mKcell,,D77,2016-10-05T14:42:46+06:00,
1000000000257314,77017359702,mKarTel,mKcell,mKcell,,D01,2016-10-05T14:43:04+06:00,
1000000000257315,77017585051,mMTS,mAltel,mKcell,D07,D77,2016-10-05T14:42:55+06:00,
1000000000257317,77011003748,mKarTel,mKcell,mKcell,,D01,2016-10-05T14:44:54+06:00,
1000000000257320,77472666692,mKcell,mMTS,mMTS,,D02,2016-10-05T14:48:35+06:00,
1000000000257322,77767000171,mKcell,mKarTel,mKarTel,,D02,2016-10-05T14:51:13+06:00,
1000000000257323,77013884246,mMTS,mKcell,mKcell,,D77,2016-10-05T14:51:11+06:00,
1000000000257324,77772944716,mMTS,mKarTel,mKarTel,,D77,2016-10-05T14:52:08+06:00,
1000000000257325,77783333308,mKcell,mMTS,mKcell,D77,D02,2016-10-05T14:53:27+06:00,
1000000000257326,77015302277,mKarTel,mKcell,mKcell,,D01,2016-10-05T14:55:12+06:00,
1000000000257327,77767300030,mKcell,mKarTel,mKarTel,,D02,2016-10-05T14:55:40+06:00,
1000000000257328,77071110187,mAltel,mMTS,mMTS,,D07,2016-10-05T14:55:02+06:00,
1000000000257331,77752770008,mMTS,mKcell,mKcell,,D77,2016-10-05T14:58:06+06:00,
1000000000257332,77027810474,mMTS,mKcell,mKcell,,D77,2016-10-05T14:59:28+06:00,
