NPId,Number,RecipientId,DonorId,RangeHolderId,OldRoute,NewRoute,PortDate,RowCount
1000000000439158,77022070707,mMTS,mKcell,mKcell,,D77,2017-08-13T11:01:33+06:00,7
1000000000439159,77052794478,mKcell,mMTS,mKarTel,D77,D02,2017-08-13T11:02:38+06:00,
1000000000439162,77766444482,mMTS,mKarTel,mKarTel,,D77,2017-08-13T11:25:56+06:00,
1000000000439163,77077503119,mAltel,mKarTel,mMTS,D01,D07,2017-08-13T11:26:14+06:00,
1000000000439164,77051814121,mKarTel,mAltel,mKarTel,D07,D01,2017-08-13T11:26:34+06:00,
1000000000439165,77756166391,mMTS,mKcell,mKcell,,D77,2017-08-13T11:27:08+06:00,
1000000000439166,77075494992,mKarTel,mMTS,mMTS,,D01,2017-08-13T11:29:28+06:00,
