NPId,Number,RecipientId,DonorId,RangeHolderId,OldRoute,NewRoute,PortDate,RowCount
1000000000248322,77007707900,mMTS,mAltel,mAltel,,D77,2016-09-20T12:32:03+06:00,6
1000000000248324,77754611560,mKarTel,mKcell,mKcell,,D01,2016-09-20T12:36:25+06:00,
1000000000248327,77077570100,mKarTel,mMTS,mMTS,,D01,2016-09-20T12:42:09+06:00,
1000000000248328,77017223045,mMTS,mKcell,mKcell,,D77,2016-09-20T12:45:51+06:00,
1000000000248329,77075877728,mAltel,mMTS,mMTS,,D07,2016-09-20T12:48:57+06:00,
1000000000248338,77767121396,mAltel,mKarTel,mKarTel,,D07,2016-09-20T12:59:24+06:00,
