NPId,Number,RecipientId,DonorId,RangeHolderId,OldRoute,NewRoute,PortDate,RowCount
1000000000321784,77078533338,mKcell,mMTS,mMTS,,D02,2017-02-01T19:00:02+06:00,19
1000000000321785,77017107788,mMTS,mKcell,mKcell,,D77,2017-02-01T19:00:15+06:00,
1000000000321786,77764105553,mKcell,mKarTel,mKarTel,,D02,2017-02-01T19:01:34+06:00,
1000000000321788,77774796860,mKarTel,mKcell,mKarTel,D02,D01,2017-02-01T19:04:01+06:00,
1000000000321791,77019637466,mMTS,mKcell,mKcell,,D77,2017-02-01T19:06:28+06:00,
1000000000321794,77022205220,mMTS,mKcell,mKcell,,D77,2017-02-01T19:08:04+06:00,
1000000000321795,77010718838,mKarTel,mKcell,mKcell,,D01,2017-02-01T19:09:04+06:00,
1000000000321797,77019972128,mKarTel,mKcell,mKcell,,D01,2017-02-01T19:11:53+06:00,
1000000000321798,77079077349,mKarTel,mMTS,mMTS,,D01,2017-02-01T19:16:24+06:00,
1000000000321799,77756443928,mAltel,mKcell,mKcell,,D07,2017-02-01T19:16:36+06:00,
1000000000321802,77052643112,mMTS,mKarTel,mKarTel,,D77,2017-02-01T19:18:01+06:00,
1000000000321805,77026392003,mAltel,mKcell,mKcell,,D07,2017-02-01T19:20:36+06:00,
1000000000321806,77052655494,mMTS,mKarTel,mKarTel,,D77,2017-02-01T19:23:02+06:00,
1000000000321807,77076639262,mMTS,mKarTel,mMTS,D01,D77,2017-02-01T19:24:12+06:00,
1000000000321808,77002004044,mKcell,mAltel,mAltel,,D02,2017-02-01T19:24:12+06:00,
1000000000321809,77017656915,mKarTel,mKcell,mKcell,,D01,2017-02-01T19:26:27+06:00,
1000000000321810,77012555634,mKcell,mKarTel,mKcell,D01,D02,2017-02-01T19:27:06+06:00,
1000000000321811,77714848888,mMTS,mKarTel,mKarTel,,D77,2017-02-01T19:26:44+06:00,
1000000000321812,77071200110,mKarTel,mKcell,mMTS,D02,D01,2017-02-01T19:28:55+06:00,
