NPId,Number,RecipientId,DonorId,RangeHolderId,OldRoute,NewRoute,PortDate,RowCount
1000000000410971,77772671007,mMTS,mKarTel,mKarTel,,D77,2017-06-27T20:02:07+06:00,6
1000000000410972,77716876715,mMTS,mKarTel,mKarTel,,D77,2017-06-27T20:07:08+06:00,
1000000000410973,77765551122,mMTS,mKarTel,mKarTel,,D77,2017-06-27T20:17:04+06:00,
1000000000410974,77081505310,mKcell,mAltel,mAltel,,D02,2017-06-27T20:20:19+06:00,
1000000000410976,77716876328,mMTS,mKarTel,mKarTel,,D77,2017-06-27T20:27:08+06:00,
1000000000410977,77017397833,mMTS,mKcell,mKcell,,D77,2017-06-27T20:26:50+06:00,
