NPId,Number,RecipientId,DonorId,RangeHolderId,OldRoute,NewRoute,PortDate,RowCount
1000000000206033,77775691459,mMTS,mKarTel,mKarTel,,D77,2016-07-06T15:31:19+06:00,22
1000000000206034,77751014506,mMTS,mKcell,mKcell,,D77,2016-07-06T15:31:23+06:00,
1000000000206035,77018900190,mKcell,mAltel,mKcell,D07,D02,2016-07-06T15:31:54+06:00,
1000000000206037,77051741113,mAltel,mKarTel,mKarTel,,D07,2016-07-06T15:32:41+06:00,
1000000000206038,77055439495,mKarTel,mMTS,mKarTel,D77,D01,2016-07-06T15:32:37+06:00,
1000000000206039,77474348636,mKarTel,mMTS,mMTS,,D01,2016-07-06T15:36:52+06:00,
1000000000206042,77011858528,mKarTel,mKcell,mKcell,,D01,2016-07-06T15:40:18+06:00,
1000000000206043,77028796406,mMTS,mKcell,mKcell,,D77,2016-07-06T15:40:16+06:00,
1000000000206044,77081076059,mKcell,mAltel,mAltel,,D02,2016-07-06T15:40:20+06:00,
1000000000206046,77475030922,mAltel,mMTS,mMTS,,D07,2016-07-06T15:40:27+06:00,
1000000000206047,77054552040,mMTS,mKarTel,mKarTel,,D77,2016-07-06T15:41:29+06:00,
1000000000206048,77755343606,mAltel,mKcell,mKcell,,D07,2016-07-06T15:43:16+06:00,
1000000000206050,77782360322,mAltel,mKcell,mKcell,,D07,2016-07-06T15:45:18+06:00,
1000000000206054,77781941111,mKarTel,mKcell,mKcell,,D01,2016-07-06T15:47:51+06:00,
1000000000206055,77784969016,mAltel,mKcell,mKcell,,D07,2016-07-06T15:49:01+06:00,
1000000000206056,77055551440,mMTS,mKarTel,mKarTel,,D77,2016-07-06T15:49:35+06:00,
1000000000206057,77012517474,mAltel,mKcell,mKcell,,D07,2016-07-06T15:50:25+06:00,
1000000000206058,77021703963,mMTS,mKcell,mKcell,,D77,2016-07-06T15:50:54+06:00,
1000000000206067,77476515479,mAltel,mMTS,mMTS,,D07,2016-07-06T15:55:07+06:00,
1000000000206068,77003049142,mKarTel,mAltel,mAltel,,D01,2016-07-06T15:55:22+06:00,
1000000000206072,77772650703,mMTS,mKarTel,mKarTel,,D77,2016-07-06T15:57:52+06:00,
1000000000206073,77759088188,mMTS,mKcell,mKcell,,D77,2016-07-06T15:58:49+06:00,
