NPId,Number,RecipientId,DonorId,RangeHolderId,OldRoute,NewRoute,PortDate,RowCount
1000000000131526,77771127446,mKcell,mKarTel,mKarTel,,D02,2016-03-23T17:30:35+06:00,41
1000000000131528,77773348201,mMTS,mKarTel,mKarTel,,D77,2016-03-23T17:30:55+06:00,
1000000000131529,77015208274,mKarTel,mKcell,mKcell,,D01,2016-03-23T17:30:54+06:00,
1000000000131530,77017292943,mMTS,mKcell,mKcell,,D77,2016-03-23T17:31:43+06:00,
1000000000131532,77771127305,mKcell,mKarTel,mKarTel,,D02,2016-03-23T17:36:05+06:00,
1000000000131534,77753990514,mMTS,mKcell,mKcell,,D77,2016-03-23T17:35:45+06:00,
1000000000131535,77760003366,mMTS,mKarTel,mKarTel,,D77,2016-03-23T17:37:36+06:00,
1000000000131536,77771127307,mKcell,mKarTel,mKarTel,,D02,2016-03-23T17:38:24+06:00,
1000000000131540,77771127251,mKcell,mKarTel,mKarTel,,D02,2016-03-23T17:39:16+06:00,
1000000000131541,77771127213,mKcell,mKarTel,mKarTel,,D02,2016-03-23T17:40:55+06:00,
1000000000131544,77052411561,mMTS,mKarTel,mKarTel,,D77,2016-03-23T17:41:17+06:00,
1000000000131545,77076610431,mKarTel,mMTS,mMTS,,D01,2016-03-23T17:41:15+06:00,
1000000000131546,77018875989,mMTS,mKcell,mKcell,,D77,2016-03-23T17:41:35+06:00,
1000000000131547,77771127188,mKcell,mKarTel,mKarTel,,D02,2016-03-23T17:43:15+06:00,
1000000000131548,77771127190,mKcell,mKarTel,mKarTel,,D02,2016-03-23T17:44:04+06:00,
1000000000131549,77751590840,mMTS,mKcell,mKcell,,D77,2016-03-23T17:43:44+06:00,
1000000000131550,77771127199,mKcell,mKarTel,mKarTel,,D02,2016-03-23T17:46:21+06:00,
1000000000131551,77775506226,mMTS,mKarTel,mKarTel,,D77,2016-03-23T17:44:56+06:00,
1000000000131552,77789737970,mKarTel,mKcell,mKcell,,D01,2016-03-23T17:45:45+06:00,
1000000000131553,77051624691,mMTS,mKarTel,mKarTel,,D77,2016-03-23T17:45:48+06:00,
1000000000131555,77771127201,mKcell,mKarTel,mKarTel,,D02,2016-03-23T17:47:47+06:00,
1000000000131556,77012704632,mAltel,mKcell,mKcell,,D07,2016-03-23T17:47:13+06:00,
1000000000131557,77763836777,mKcell,mKarTel,mKarTel,,D02,2016-03-23T17:48:35+06:00,
1000000000131558,77771127206,mKcell,mKarTel,mKarTel,,D02,2016-03-23T17:48:35+06:00,
1000000000131559,77771127208,mKcell,mKarTel,mKarTel,,D02,2016-03-23T17:49:39+06:00,
1000000000131560,77012373094,mAltel,mKcell,mKcell,,D07,2016-03-23T17:48:38+06:00,
1000000000131561,77077877873,mKarTel,mMTS,mMTS,,D01,2016-03-23T17:50:56+06:00,
1000000000131562,77089999898,mKcell,mAltel,mAltel,,D02,2016-03-23T17:51:07+06:00,
1000000000131563,77012373095,mAltel,mKcell,mKcell,,D07,2016-03-23T17:51:33+06:00,
1000000000131564,77472269552,mAltel,mMTS,mMTS,,D07,2016-03-23T17:51:29+06:00,
1000000000131565,77056387325,mAltel,mKarTel,mKarTel,,D07,2016-03-23T17:53:44+06:00,
1000000000131566,77771127209,mKcell,mKarTel,mKarTel,,D02,2016-03-23T17:55:43+06:00,
1000000000131567,77077976268,mKcell,mMTS,mMTS,,D02,2016-03-23T17:55:06+06:00,
1000000000131568,77051835824,mAltel,mKarTel,mKarTel,,D07,2016-03-23T17:55:45+06:00,
1000000000131569,77071114852,mMTS,mAltel,mMTS,D07,D77,2016-03-23T17:54:56+06:00,
1000000000131570,77771127359,mKcell,mKarTel,mKarTel,,D02,2016-03-23T17:56:46+06:00,
1000000000131572,77771127360,mKcell,mKarTel,mKarTel,,D02,2016-03-23T17:57:25+06:00,
1000000000131573,77007944442,mMTS,mAltel,mAltel,,D77,2016-03-23T17:56:29+06:00,
1000000000131574,77771127365,mKcell,mKarTel,mKarTel,,D02,2016-03-23T17:58:52+06:00,
1000000000131575,77022666139,mAltel,mKcell,mKcell,,D07,2016-03-23T17:57:35+06:00,
1000000000131577,77071073038,mKcell,mMTS,mMTS,,D02,2016-03-23T17:59:39+06:00,
