NPId,Number,RecipientId,DonorId,RangeHolderId,OldRoute,NewRoute,PortDate,RowCount
1000000000104334,77714986740,mKcell,mKarTel,mKarTel,,D02,2016-03-01T20:01:33+06:00,4
1000000000104338,77787411882,mAltel,mKcell,mKcell,,D07,2016-03-01T20:20:54+06:00,
1000000000104339,77772285511,mKcell,mKarTel,mKarTel,,D02,2016-03-01T20:24:54+06:00,
1000000000104340,77021555291,mAltel,mKcell,mKcell,,D07,2016-03-01T20:25:08+06:00,
