NPId,Number,RecipientId,DonorId,RangeHolderId,OldRoute,NewRoute,PortDate,RowCount
1000000000320093,77017426370,mMTS,mKcell,mKcell,,D77,2017-02-01T09:30:11+06:00,76
1000000000320129,77017426239,mMTS,mKcell,mKcell,,D77,2017-02-01T09:37:31+06:00,
1000000000320156,77012181173,mKarTel,mKcell,mKcell,,D01,2017-02-01T09:38:29+06:00,
1000000000320156,77015215945,mKarTel,mKcell,mKcell,,D01,2017-02-01T09:38:29+06:00,
1000000000320156,77015215947,mKarTel,mKcell,mKcell,,D01,2017-02-01T09:38:29+06:00,
1000000000320156,77017247770,mKarTel,mKcell,mKcell,,D01,2017-02-01T09:38:29+06:00,
1000000000320156,77017254714,mKarTel,mKcell,mKcell,,D01,2017-02-01T09:38:29+06:00,
1000000000320156,77017254715,mKarTel,mKcell,mKcell,,D01,2017-02-01T09:38:29+06:00,
1000000000320156,77017582158,mKarTel,mKcell,mKcell,,D01,2017-02-01T09:38:29+06:00,
1000000000320156,77017582342,mKarTel,mKcell,mKcell,,D01,2017-02-01T09:38:29+06:00,
1000000000320156,77017610217,mKarTel,mKcell,mKcell,,D01,2017-02-01T09:38:29+06:00,
1000000000320156,77017863798,mKarTel,mKcell,mKcell,,D01,2017-02-01T09:38:29+06:00,
1000000000320156,77019324216,mKarTel,mKcell,mKcell,,D01,2017-02-01T09:38:29+06:00,
1000000000320156,77019589904,mKarTel,mKcell,mKcell,,D01,2017-02-01T09:38:29+06:00,
1000000000320156,77019589948,mKarTel,mKcell,mKcell,,D01,2017-02-01T09:38:29+06:00,
1000000000320667,77012068958,mKarTel,mKcell,mKcell,,D01,2017-02-01T09:48:04+06:00,
1000000000320667,77012204024,mKarTel,mKcell,mKcell,,D01,2017-02-01T09:48:04+06:00,
1000000000320667,77012205135,mKarTel,mKcell,mKcell,,D01,2017-02-01T09:48:04+06:00,
1000000000320667,77015031346,mKarTel,mKcell,mKcell,,D01,2017-02-01T09:48:04+06:00,
1000000000320667,77015038412,mKarTel,mKcell,mKcell,,D01,2017-02-01T09:48:04+06:00,
1000000000320667,77015038429,mKarTel,mKcell,mKcell,,D01,2017-02-01T09:48:04+06:00,
1000000000320667,77015038436,mKarTel,mKcell,mKcell,,D01,2017-02-01T09:48:04+06:00,
1000000000320667,77015038437,mKarTel,mKcell,mKcell,,D01,2017-02-01T09:48:04+06:00,
1000000000320667,77015114124,mKarTel,mKcell,mKcell,,D01,2017-02-01T09:48:04+06:00,
1000000000320667,77015148723,mKarTel,mKcell,mKcell,,D01,2017-02-01T09:48:04+06:00,
1000000000320667,77015219202,mKarTel,mKcell,mKcell,,D01,2017-02-01T09:48:04+06:00,
1000000000320667,77015244194,mKarTel,mKcell,mKcell,,D01,2017-02-01T09:48:04+06:00,
1000000000320667,77015257604,mKarTel,mKcell,mKcell,,D01,2017-02-01T09:48:04+06:00,
1000000000320667,77015291018,mKarTel,mKcell,mKcell,,D01,2017-02-01T09:48:04+06:00,
1000000000320667,77015291501,mKarTel,mKcell,mKcell,,D01,2017-02-01T09:48:04+06:00,
1000000000320667,77015379581,mKarTel,mKcell,mKcell,,D01,2017-02-01T09:48:04+06:00,
1000000000320667,77015379583,mKarTel,mKcell,mKcell,,D01,2017-02-01T09:48:04+06:00,
1000000000320667,77015387949,mKarTel,mKcell,mKcell,,D01,2017-02-01T09:48:04+06:00,
1000000000320667,77015394218,mKarTel,mKcell,mKcell,,D01,2017-02-01T09:48:04+06:00,
1000000000320667,77015432855,mKarTel,mKcell,mKcell,,D01,2017-02-01T09:48:04+06:00,
1000000000320667,77015432865,mKarTel,mKcell,mKcell,,D01,2017-02-01T09:48:04+06:00,
1000000000320667,77015432974,mKarTel,mKcell,mKcell,,D01,2017-02-01T09:48:04+06:00,
1000000000320667,77015432976,mKarTel,mKcell,mKcell,,D01,2017-02-01T09:48:04+06:00,
1000000000320667,77015992884,mKarTel,mKcell,mKcell,,D01,2017-02-01T09:48:04+06:00,
1000000000320667,77015992885,mKarTel,mKcell,mKcell,,D01,2017-02-01T09:48:04+06:00,
1000000000320667,77017314869,mKarTel,mKcell,mKcell,,D01,2017-02-01T09:48:04+06:00,
1000000000320667,77017314874,mKarTel,mKcell,mKcell,,D01,2017-02-01T09:48:04+06:00,
1000000000320667,77017942066,mKarTel,mKcell,mKcell,,D01,2017-02-01T09:48:04+06:00,
1000000000320667,77017963026,mKarTel,mKcell,mKcell,,D01,2017-02-01T09:48:04+06:00,
1000000000320667,77019209097,mKarTel,mKcell,mKcell,,D01,2017-02-01T09:48:04+06:00,
1000000000320667,77019209522,mKarTel,mKcell,mKcell,,D01,2017-02-01T09:48:04+06:00,
1000000000320667,77019209523,mKarTel,mKcell,mKcell,,D01,2017-02-01T09:48:04+06:00,
1000000000320667,77019209524,mKarTel,mKcell,mKcell,,D01,2017-02-01T09:48:04+06:00,
1000000000320667,77019209525,mKarTel,mKcell,mKcell,,D01,2017-02-01T09:48:04+06:00,
1000000000320667,77019772062,mKarTel,mKcell,mKcell,,D01,2017-02-01T09:48:04+06:00,
1000000000320667,77019772068,mKarTel,mKcell,mKcell,,D01,2017-02-01T09:48:04+06:00,
1000000000320667,77019780123,mKarTel,mKcell,mKcell,,D01,2017-02-01T09:48:04+06:00,
1000000000320667,77019780129,mKarTel,mKcell,mKcell,,D01,2017-02-01T09:48:04+06:00,
1000000000320667,77019902362,mKarTel,mKcell,mKcell,,D01,2017-02-01T09:48:04+06:00,
1000000000320667,77019902367,mKarTel,mKcell,mKcell,,D01,2017-02-01T09:48:04+06:00,
1000000000320667,77019902415,mKarTel,mKcell,mKcell,,D01,2017-02-01T09:48:04+06:00,
1000000000320667,77019902417,mKarTel,mKcell,mKcell,,D01,2017-02-01T09:48:04+06:00,
1000000000320667,77019902418,mKarTel,mKcell,mKcell,,D01,2017-02-01T09:48:04+06:00,
1000000000320667,77022032146,mKarTel,mKcell,mKcell,,D01,2017-02-01T09:48:04+06:00,
1000000000320670,77011208186,mKarTel,mKcell,mKcell,,D01,2017-02-01T09:45:02+06:00,
1000000000320670,77017428686,mKarTel,mKcell,mKcell,,D01,2017-02-01T09:45:02+06:00,
1000000000320670,77028777446,mKarTel,mKcell,mKcell,,D01,2017-02-01T09:45:02+06:00,
1000000000320740,77019982265,mKcell,mKarTel,mKcell,D01,D02,2017-02-01T09:39:47+06:00,
1000000000320745,77756767750,mKarTel,mKcell,mKcell,,D01,2017-02-01T09:30:09+06:00,
1000000000320748,77472226395,mKcell,mMTS,mMTS,,D02,2017-02-01T09:30:56+06:00,
1000000000320750,77783371466,mKarTel,mKcell,mKcell,,D01,2017-02-01T09:34:00+06:00,
1000000000320751,77057074503,mMTS,mKarTel,mKarTel,D01,D77,2017-02-01T09:34:42+06:00,
1000000000320752,77054188879,mMTS,mKarTel,mKarTel,D01,D77,2017-02-01T09:34:55+06:00,
1000000000320755,77026337646,mKarTel,mMTS,mKcell,D77,D01,2017-02-01T09:37:58+06:00,
1000000000320756,77717987323,mMTS,mKarTel,mKarTel,,D77,2017-02-01T09:54:43+06:00,
1000000000320757,77019501136,mKcell,mKarTel,mKcell,D01,D02,2017-02-01T09:55:21+06:00,
1000000000320768,77028582917,mKcell,mMTS,mKcell,D77,D02,2017-02-01T09:47:30+06:00,
1000000000320775,77017626498,mMTS,mKcell,mKcell,,D77,2017-02-01T09:49:44+06:00,
1000000000320778,77058019656,mMTS,mKarTel,mKarTel,,D77,2017-02-01T09:53:04+06:00,
1000000000320779,77753299338,mKarTel,mKcell,mKcell,,D01,2017-02-01T09:56:30+06:00,
1000000000320781,77786250011,mKcell,mKarTel,mKcell,D01,D02,2017-02-01T09:58:57+06:00,
