NPId,Number,RecipientId,DonorId,RangeHolderId,OldRoute,NewRoute,PortDate,RowCount
1000000000419681,77476757787,mKcell,mMTS,mMTS,,D02,2017-07-11T14:00:59+06:00,11
1000000000419682,77015303691,mMTS,mKcell,mKcell,,D77,2017-07-11T14:01:32+06:00,
1000000000419683,77022399650,mAltel,mMTS,mKcell,D77,D07,2017-07-11T14:04:14+06:00,
1000000000419685,77077779673,mKarTel,mMTS,mMTS,,D01,2017-07-11T14:04:56+06:00,
1000000000419686,77076959500,mMTS,mAltel,mMTS,D07,D77,2017-07-11T14:05:34+06:00,
1000000000419687,77026210735,mMTS,mKcell,mKcell,,D77,2017-07-11T14:05:55+06:00,
1000000000419689,77775333353,mMTS,mKarTel,mKarTel,,D77,2017-07-11T14:11:24+06:00,
1000000000419694,77017776291,mKarTel,mKcell,mKcell,,D01,2017-07-11T14:19:15+06:00,
1000000000419695,77775771026,mKcell,mKarTel,mKarTel,,D02,2017-07-11T14:21:02+06:00,
1000000000419699,77751724929,mMTS,mKcell,mKcell,,D77,2017-07-11T14:27:06+06:00,
1000000000419700,77000000903,mAltel,mKcell,mAltel,D02,D07,2017-07-11T14:28:31+06:00,
