NPId,Number,RecipientId,DonorId,RangeHolderId,OldRoute,NewRoute,PortDate,RowCount
1000000000137000,77053333211,mAltel,mKarTel,mKarTel,,D07,2016-03-30T11:00:04+06:00,20
1000000000137003,77017224484,mKcell,mKarTel,mKcell,D01,D02,2016-03-30T11:04:22+06:00,
1000000000137005,77054467779,mKcell,mKarTel,mKarTel,,D02,2016-03-30T11:06:00+06:00,
1000000000137006,77017485626,mKcell,mKarTel,mKcell,D01,D02,2016-03-30T11:06:50+06:00,
1000000000137008,77023546574,mAltel,mKcell,mKcell,,D07,2016-03-30T11:06:55+06:00,
1000000000137009,77028484466,mMTS,mKcell,mKcell,,D77,2016-03-30T11:07:10+06:00,
1000000000137010,77755574801,mAltel,mKcell,mKcell,,D07,2016-03-30T11:07:24+06:00,
1000000000137011,77772506553,mMTS,mKarTel,mKarTel,,D77,2016-03-30T11:08:53+06:00,
1000000000137013,77082006869,mKcell,mAltel,mAltel,,D02,2016-03-30T11:07:56+06:00,
1000000000137014,77780002223,mMTS,mAltel,mKcell,D07,D77,2016-03-30T11:09:37+06:00,
1000000000137018,77014161001,mMTS,mKcell,mKcell,,D77,2016-03-30T11:10:37+06:00,
1000000000137020,77477776221,mAltel,mMTS,mMTS,,D07,2016-03-30T11:13:39+06:00,
1000000000137025,77053413565,mMTS,mKarTel,mKarTel,,D77,2016-03-30T11:18:08+06:00,
1000000000137026,77476663306,mAltel,mMTS,mMTS,,D07,2016-03-30T11:17:14+06:00,
1000000000137027,77018650007,mAltel,mKcell,mKcell,,D07,2016-03-30T11:17:59+06:00,
1000000000137028,77472006714,mAltel,mMTS,mMTS,,D07,2016-03-30T11:17:44+06:00,
1000000000137029,77077170711,mAltel,mMTS,mMTS,,D07,2016-03-30T11:18:20+06:00,
1000000000137031,77022706570,mMTS,mAltel,mKcell,D07,D77,2016-03-30T11:21:53+06:00,
1000000000137035,77015555669,mMTS,mKcell,mKcell,,D77,2016-03-30T11:26:23+06:00,
1000000000137036,77017172179,mMTS,mKcell,mKcell,,D77,2016-03-30T11:28:34+06:00,
