NPId,Number,RecipientId,DonorId,RangeHolderId,OldRoute,NewRoute,PortDate,RowCount
1000000000348327,77081605363,mKcell,mAltel,mAltel,,D02,2017-03-17T10:03:22+06:00,8
1000000000348329,77075558975,mKcell,mMTS,mMTS,,D02,2017-03-17T10:08:50+06:00,
1000000000348333,77017159053,mMTS,mKcell,mKcell,,D77,2017-03-17T10:17:51+06:00,
1000000000348334,77024344433,mMTS,mKcell,mKcell,,D77,2017-03-17T10:17:56+06:00,
1000000000348335,77013730692,mAltel,mKcell,mKcell,,D07,2017-03-17T10:18:57+06:00,
1000000000348342,77083380529,mMTS,mAltel,mAltel,,D77,2017-03-17T10:27:42+06:00,
1000000000348343,77076186742,mAltel,mMTS,mMTS,,D07,2017-03-17T10:27:50+06:00,
1000000000348344,77073882448,mAltel,mMTS,mMTS,,D07,2017-03-17T10:27:56+06:00,
