NPId,Number,RecipientId,DonorId,RangeHolderId,OldRoute,NewRoute,PortDate,RowCount
1000000000198372,77769775516,mAltel,mKarTel,mKarTel,,D07,2016-06-23T18:41:10+06:00,68
1000000000198379,77072888533,mAltel,mKarTel,mMTS,D01,D07,2016-06-23T18:41:20+06:00,
1000000000198430,77009832744,mMTS,mAltel,mAltel,,D77,2016-06-23T18:41:16+06:00,
1000000000198434,77752300003,mKcell,mAltel,mKcell,D07,D02,2016-06-23T18:45:08+06:00,
1000000000198447,77003795264,mMTS,mAltel,mAltel,,D77,2016-06-23T18:41:16+06:00,
1000000000198448,77087550543,mMTS,mAltel,mAltel,,D77,2016-06-23T18:41:16+06:00,
1000000000198453,77028009222,mKcell,mAltel,mKcell,D07,D02,2016-06-23T18:45:38+06:00,
1000000000198459,77081120763,mMTS,mAltel,mAltel,,D77,2016-06-23T18:41:16+06:00,
1000000000198460,77089122115,mKcell,mAltel,mAltel,,D02,2016-06-23T18:45:36+06:00,
1000000000198461,77087592242,mKcell,mAltel,mAltel,,D02,2016-06-23T18:45:37+06:00,
1000000000198470,77009947236,mMTS,mAltel,mAltel,,D77,2016-06-23T18:41:18+06:00,
1000000000198474,77081655514,mMTS,mAltel,mAltel,,D77,2016-06-23T18:41:18+06:00,
1000000000198505,77007661111,mKarTel,mAltel,mAltel,D07,D01,2016-06-23T18:41:49+06:00,
1000000000198506,77009855391,mKarTel,mAltel,mAltel,,D01,2016-06-23T18:41:48+06:00,
1000000000198507,77015543818,mKarTel,mAltel,mKcell,D07,D01,2016-06-23T18:41:48+06:00,
1000000000198511,77071400008,mKarTel,mAltel,mMTS,D07,D01,2016-06-23T18:41:49+06:00,
1000000000198541,77082085051,mMTS,mAltel,mAltel,,D77,2016-06-23T18:41:12+06:00,
1000000000198562,77027329045,mMTS,mAltel,mKcell,D07,D77,2016-06-23T18:41:18+06:00,
1000000000198563,77081985079,mMTS,mAltel,mAltel,,D77,2016-06-23T18:41:18+06:00,
1000000000198568,77079099102,mMTS,mAltel,mMTS,D07,D77,2016-06-23T18:41:12+06:00,
1000000000198570,77000002530,mMTS,mAltel,mAltel,,D77,2016-06-23T18:41:22+06:00,
1000000000198571,77000002540,mMTS,mAltel,mAltel,,D77,2016-06-23T18:41:13+06:00,
1000000000198593,77007607007,mMTS,mAltel,mAltel,,D77,2016-06-23T18:41:12+06:00,
1000000000198636,77052195025,mKarTel,mAltel,mKarTel,D07,D01,2016-06-23T18:41:47+06:00,
1000000000198638,77081109899,mKarTel,mAltel,mAltel,,D01,2016-06-23T18:41:47+06:00,
1000000000198639,77774000144,mKarTel,mAltel,mKarTel,D07,D01,2016-06-23T18:41:47+06:00,
1000000000198644,77004834383,mKcell,mAltel,mAltel,,D02,2016-06-23T18:45:38+06:00,
1000000000198648,77754443363,mKcell,mAltel,mKcell,D07,D02,2016-06-23T18:45:09+06:00,
1000000000198675,77083263939,mMTS,mAltel,mAltel,,D77,2016-06-23T18:41:10+06:00,
1000000000198676,77003290570,mMTS,mAltel,mAltel,,D77,2016-06-23T18:41:10+06:00,
1000000000198679,77018879994,mAltel,mKcell,mKcell,,D07,2016-06-23T18:42:36+06:00,
1000000000198680,77075221295,mKcell,mAltel,mMTS,D07,D02,2016-06-23T18:45:08+06:00,
1000000000198681,77012082564,mMTS,mAltel,mKcell,D07,D77,2016-06-23T18:41:10+06:00,
1000000000198685,77756662270,mAltel,mKcell,mKcell,,D07,2016-06-23T18:42:36+06:00,
1000000000198688,77007242553,mMTS,mAltel,mAltel,,D77,2016-06-23T18:41:10+06:00,
1000000000198692,77472662233,mMTS,mAltel,mMTS,D07,D77,2016-06-23T18:41:10+06:00,
1000000000198705,77003368781,mMTS,mAltel,mAltel,,D77,2016-06-23T18:41:06+06:00,
1000000000198706,77771778000,mKarTel,mAltel,mKarTel,D07,D01,2016-06-23T18:41:23+06:00,
1000000000198707,77007071993,mMTS,mAltel,mAltel,,D77,2016-06-23T18:41:05+06:00,
1000000000198723,77001518284,mMTS,mAltel,mAltel,,D77,2016-06-23T18:41:22+06:00,
1000000000198732,77078805555,mMTS,mAltel,mMTS,D07,D77,2016-06-23T18:41:06+06:00,
1000000000198733,77003726815,mMTS,mAltel,mAltel,,D77,2016-06-23T18:41:05+06:00,
1000000000198741,77003726814,mMTS,mAltel,mAltel,,D77,2016-06-23T18:41:22+06:00,
1000000000198747,77058888323,mAltel,mKarTel,mKarTel,,D07,2016-06-23T18:42:57+06:00,
1000000000198748,77080010101,mKcell,mAltel,mAltel,,D02,2016-06-23T18:45:11+06:00,
1000000000198751,77083788127,mMTS,mAltel,mAltel,,D77,2016-06-23T18:41:22+06:00,
1000000000198752,77082985157,mMTS,mAltel,mAltel,,D77,2016-06-23T18:41:24+06:00,
1000000000198754,77076662210,mAltel,mMTS,mMTS,,D07,2016-06-23T18:42:56+06:00,
1000000000198760,77003789593,mMTS,mAltel,mAltel,,D77,2016-06-23T18:41:24+06:00,
1000000000198773,77015558977,mKarTel,mKcell,mKcell,,D01,2016-06-23T18:34:15+06:00,
1000000000198774,77711515191,mMTS,mKarTel,mKarTel,,D77,2016-06-23T18:34:03+06:00,
1000000000198775,77059940707,mKcell,mKarTel,mKarTel,,D02,2016-06-23T18:37:02+06:00,
1000000000198776,77051900954,mMTS,mKarTel,mKarTel,,D77,2016-06-23T18:36:47+06:00,
1000000000198781,77021851746,mKcell,mAltel,mKcell,D07,D02,2016-06-23T18:40:15+06:00,
1000000000198783,77788533350,mKarTel,mKcell,mKcell,,D01,2016-06-23T18:40:54+06:00,
1000000000198784,77079951000,mMTS,mKarTel,mMTS,D01,D77,2016-06-23T18:42:07+06:00,
1000000000198785,77071988817,mMTS,mKcell,mMTS,D02,D77,2016-06-23T18:45:20+06:00,
1000000000198786,77015460123,mKarTel,mKcell,mKcell,,D01,2016-06-23T18:45:38+06:00,
1000000000198787,77086673673,mMTS,mAltel,mAltel,,D77,2016-06-23T18:43:06+06:00,
1000000000198788,77003996102,mMTS,mAltel,mAltel,,D77,2016-06-23T18:43:06+06:00,
1000000000198789,77012032846,mMTS,mKcell,mKcell,,D77,2016-06-23T18:45:20+06:00,
1000000000198791,77756804646,mMTS,mKcell,mKcell,,D77,2016-06-23T18:46:56+06:00,
1000000000198792,77473150535,mKarTel,mMTS,mMTS,,D01,2016-06-23T18:47:00+06:00,
1000000000198794,77018357208,mKarTel,mKcell,mKcell,,D01,2016-06-23T18:49:18+06:00,
1000000000198796,77786324581,mKcell,mAltel,mKcell,D07,D02,2016-06-23T18:52:32+06:00,
1000000000198798,77078460045,mKcell,mMTS,mMTS,,D02,2016-06-23T18:53:06+06:00,
1000000000198799,77777601333,mMTS,mKarTel,mKarTel,,D77,2016-06-23T18:52:31+06:00,
1000000000198800,77769378888,mKcell,mKarTel,mKarTel,,D02,2016-06-23T18:56:17+06:00,
