NPId,Number,RecipientId,DonorId,RangeHolderId,OldRoute,NewRoute,PortDate,RowCount
1000000000365213,77058719090,mKcell,mKarTel,mKarTel,,D02,2017-04-13T13:05:26+06:00,13
1000000000365214,77715299012,mMTS,mKarTel,mKarTel,,D77,2017-04-13T13:05:24+06:00,
1000000000365215,77760080016,mKcell,mKarTel,mKarTel,,D02,2017-04-13T13:05:48+06:00,
1000000000365216,77071188079,mMTS,mKcell,mMTS,D02,D77,2017-04-13T13:06:22+06:00,
1000000000365218,77081812619,mMTS,mAltel,mAltel,,D77,2017-04-13T13:06:46+06:00,
1000000000365219,77083602028,mKarTel,mAltel,mAltel,,D01,2017-04-13T13:13:20+06:00,
1000000000365220,77011114205,mKarTel,mKcell,mKcell,,D01,2017-04-13T13:14:06+06:00,
1000000000365222,77788816247,mMTS,mKcell,mKcell,,D77,2017-04-13T13:17:55+06:00,
1000000000365223,77777222228,mMTS,mKarTel,mKarTel,,D77,2017-04-13T13:21:19+06:00,
1000000000365224,77774776852,mAltel,mKarTel,mKarTel,,D07,2017-04-13T13:22:23+06:00,
1000000000365225,77015884732,mAltel,mMTS,mKcell,D77,D07,2017-04-13T13:23:39+06:00,
1000000000365226,77477132500,mAltel,mMTS,mMTS,,D07,2017-04-13T13:24:42+06:00,
1000000000365228,77017802277,mMTS,mKcell,mKcell,,D77,2017-04-13T13:29:48+06:00,
