NPId,Number,RecipientId,DonorId,RangeHolderId,OldRoute,NewRoute,PortDate,RowCount
1000000000440060,77076421839,mKarTel,mMTS,mMTS,,D01,2017-08-15T09:02:57+06:00,2
1000000000440062,77054336036,mMTS,mKarTel,mKarTel,,D77,2017-08-15T09:12:55+06:00,
