NPId,Number,RecipientId,DonorId,RangeHolderId,OldRoute,NewRoute,PortDate,RowCount
1000000000380252,77474625274,mAltel,mMTS,mMTS,,D07,2017-05-09T13:35:34+06:00,4
1000000000380253,77760009971,mKcell,mKarTel,mKarTel,,D02,2017-05-09T13:38:29+06:00,
1000000000380254,77072352541,mMTS,mAltel,mMTS,D07,D77,2017-05-09T13:38:45+06:00,
1000000000380257,77025545323,mMTS,mKcell,mKcell,,D77,2017-05-09T13:55:29+06:00,
