NPId,Number,RecipientId,DonorId,RangeHolderId,OldRoute,NewRoute,PortDate,RowCount
1000000000196818,77772973643,mMTS,mKarTel,mKarTel,,D77,2016-06-20T17:30:16+06:00,21
1000000000196820,77026556132,mMTS,mKcell,mKcell,,D77,2016-06-20T17:32:28+06:00,
1000000000196821,77471615995,mKcell,mAltel,mMTS,D07,D02,2016-06-20T17:34:00+06:00,
1000000000196822,77754475666,mAltel,mKcell,mKcell,,D07,2016-06-20T17:37:32+06:00,
1000000000196823,77083926652,mMTS,mAltel,mAltel,,D77,2016-06-20T17:37:10+06:00,
1000000000196826,77023920509,mMTS,mKcell,mKcell,,D77,2016-06-20T17:41:18+06:00,
1000000000196827,77477002755,mKcell,mMTS,mMTS,,D02,2016-06-20T17:45:54+06:00,
1000000000196828,77077002555,mKcell,mMTS,mMTS,,D02,2016-06-20T17:45:53+06:00,
1000000000196829,77052580825,mKarTel,mAltel,mKarTel,D07,D01,2016-06-20T17:43:11+06:00,
1000000000196831,77052144741,mMTS,mKarTel,mKarTel,,D77,2016-06-20T17:46:06+06:00,
1000000000196832,77771798778,mMTS,mAltel,mKarTel,D07,D77,2016-06-20T17:47:00+06:00,
1000000000196833,77057777753,mKcell,mKarTel,mKarTel,,D02,2016-06-20T17:50:34+06:00,
1000000000196835,77022332737,mKarTel,mKcell,mKcell,,D01,2016-06-20T17:50:01+06:00,
1000000000196836,77004041987,mKarTel,mAltel,mAltel,,D01,2016-06-20T17:47:29+06:00,
1000000000196837,77777767772,mKcell,mMTS,mKarTel,D77,D02,2016-06-20T17:48:12+06:00,
1000000000196840,77769566666,mAltel,mKarTel,mKarTel,,D07,2016-06-20T17:49:14+06:00,
1000000000196841,77081151514,mMTS,mAltel,mAltel,,D77,2016-06-20T17:50:46+06:00,
1000000000196842,77024801801,mKcell,mMTS,mKcell,D77,D02,2016-06-20T17:58:37+06:00,
1000000000196843,77077002755,mKcell,mMTS,mMTS,,D02,2016-06-20T17:56:39+06:00,
1000000000196844,77023322223,mMTS,mKcell,mKcell,,D77,2016-06-20T17:57:44+06:00,
1000000000196845,77083541654,mKarTel,mKcell,mAltel,D02,D01,2016-06-20T17:59:32+06:00,
