NPId,Number,RecipientId,DonorId,RangeHolderId,OldRoute,NewRoute,PortDate,RowCount
1000000000379056,77477400000,mKcell,mKarTel,mMTS,D01,D02,2017-05-08T13:25:50+06:00,21
1000000000379867,77078880803,mMTS,mKcell,mMTS,D02,D77,2017-05-08T13:00:24+06:00,
1000000000379868,77088254807,mMTS,mAltel,mAltel,,D77,2017-05-08T13:01:00+06:00,
1000000000379869,77017138386,mKcell,mMTS,mKcell,D77,D02,2017-05-08T13:01:08+06:00,
1000000000379870,77052650095,mMTS,mKarTel,mKarTel,,D77,2017-05-08T13:01:26+06:00,
1000000000379871,77086779258,mKcell,mAltel,mAltel,,D02,2017-05-08T13:01:18+06:00,
1000000000379876,77012124322,mMTS,mKcell,mKcell,,D77,2017-05-08T13:06:25+06:00,
1000000000379877,77054239099,mMTS,mKarTel,mKarTel,,D77,2017-05-08T13:06:51+06:00,
1000000000379878,77771809310,mMTS,mKarTel,mKarTel,,D77,2017-05-08T13:07:24+06:00,
1000000000379879,77788942186,mMTS,mKcell,mKcell,,D77,2017-05-08T13:09:57+06:00,
1000000000379880,77477779974,mKcell,mMTS,mMTS,D77,D02,2017-05-08T13:10:47+06:00,
1000000000379883,77025050001,mMTS,mKcell,mKcell,,D77,2017-05-08T13:16:18+06:00,
1000000000379884,77089368727,mKcell,mAltel,mAltel,,D02,2017-05-08T13:17:15+06:00,
1000000000379885,77766223838,mKcell,mKarTel,mKarTel,,D02,2017-05-08T13:17:43+06:00,
1000000000379886,77014102006,mAltel,mKcell,mKcell,,D07,2017-05-08T13:19:28+06:00,
1000000000379887,77051114844,mMTS,mKcell,mKarTel,D02,D77,2017-05-08T13:19:49+06:00,
1000000000379888,77021616157,mMTS,mKcell,mKcell,,D77,2017-05-08T13:20:15+06:00,
1000000000379891,77054752281,mMTS,mKarTel,mKarTel,,D77,2017-05-08T13:25:30+06:00,
1000000000379893,77756060140,mMTS,mKcell,mKcell,,D77,2017-05-08T13:27:24+06:00,
1000000000379894,77760010223,mKcell,mKarTel,mKarTel,,D02,2017-05-08T13:28:01+06:00,
1000000000379895,77783311924,mAltel,mKcell,mKcell,,D07,2017-05-08T13:29:46+06:00,
