NPId,Number,RecipientId,DonorId,RangeHolderId,OldRoute,NewRoute,PortDate,RowCount
1000000000439615,77015219602,mKarTel,mKcell,mKcell,,D01,2017-08-14T13:30:43+06:00,21
1000000000439616,77019366660,mKcell,mMTS,mKcell,D77,D02,2017-08-14T13:32:30+06:00,
1000000000439617,77029606094,mMTS,mKcell,mKcell,,D77,2017-08-14T13:32:38+06:00,
1000000000439619,77073656001,mKcell,mMTS,mMTS,,D02,2017-08-14T13:34:36+06:00,
1000000000439620,77479752770,mMTS,mAltel,mMTS,D07,D77,2017-08-14T13:34:47+06:00,
1000000000439621,77019996867,mKcell,mKarTel,mKcell,D01,D02,2017-08-14T13:37:37+06:00,
1000000000439624,77053867446,mMTS,mKarTel,mKarTel,,D77,2017-08-14T13:41:54+06:00,
1000000000439625,77007151072,mKarTel,mAltel,mAltel,,D01,2017-08-14T13:42:48+06:00,
1000000000439626,77073345233,mKarTel,mMTS,mMTS,,D01,2017-08-14T13:47:10+06:00,
1000000000439627,77075759988,mKarTel,mKcell,mMTS,D02,D01,2017-08-14T13:47:31+06:00,
1000000000439629,77717422205,mAltel,mKarTel,mKarTel,,D07,2017-08-14T13:49:06+06:00,
1000000000439630,77011004505,mMTS,mKcell,mKcell,,D77,2017-08-14T13:49:03+06:00,
1000000000439631,77073553521,mKcell,mMTS,mMTS,,D02,2017-08-14T13:49:51+06:00,
1000000000439632,77017550564,mKcell,mKarTel,mKcell,D01,D02,2017-08-14T13:50:37+06:00,
1000000000439636,77017333911,mKcell,mMTS,mKcell,D77,D02,2017-08-14T13:52:35+06:00,
1000000000439637,77014599799,mKcell,mMTS,mKcell,D77,D02,2017-08-14T13:52:36+06:00,
1000000000439639,77025510155,mKarTel,mKcell,mKcell,,D01,2017-08-14T13:54:42+06:00,
1000000000439641,77019911301,mKarTel,mKcell,mKcell,,D01,2017-08-14T13:56:13+06:00,
1000000000439643,77715278203,mAltel,mKarTel,mKarTel,,D07,2017-08-14T13:57:53+06:00,
1000000000439644,77078740802,mKarTel,mMTS,mMTS,D77,D01,2017-08-14T13:57:52+06:00,
1000000000439645,77777715777,mKarTel,mMTS,mKarTel,D77,D01,2017-08-14T13:58:39+06:00,
