NPId,Number,RecipientId,DonorId,RangeHolderId,OldRoute,NewRoute,PortDate,RowCount
1000000000240888,77012777154,mKarTel,mKcell,mKcell,,D01,2016-09-06T14:49:33+06:00,14
1000000000241103,77783577704,mKcell,mKarTel,mKcell,D01,D02,2016-09-06T14:46:42+06:00,
1000000000241190,77766780220,mKcell,mKarTel,mKarTel,,D02,2016-09-06T14:41:06+06:00,
1000000000241191,77017655370,mAltel,mKcell,mKcell,,D07,2016-09-06T14:41:44+06:00,
1000000000241192,77013780019,mKcell,mAltel,mKcell,D07,D02,2016-09-06T14:42:49+06:00,
1000000000241193,77771821021,mAltel,mKarTel,mKarTel,,D07,2016-09-06T14:43:09+06:00,
1000000000241200,77779905535,mKcell,mKarTel,mKarTel,,D02,2016-09-06T14:48:28+06:00,
1000000000241202,77017273384,mAltel,mKcell,mKcell,,D07,2016-09-06T14:48:14+06:00,
1000000000241203,77769279955,mKcell,mKarTel,mKarTel,,D02,2016-09-06T14:49:20+06:00,
1000000000241206,77075771771,mKcell,mAltel,mMTS,D07,D02,2016-09-06T14:50:54+06:00,
1000000000241210,77078500600,mKcell,mAltel,mMTS,D07,D02,2016-09-06T14:52:57+06:00,
1000000000241211,77085883236,mKarTel,mAltel,mAltel,,D01,2016-09-06T14:55:06+06:00,
1000000000241213,77054263285,mKcell,mKarTel,mKarTel,,D02,2016-09-06T14:59:57+06:00,
1000000000241214,77089152341,mKarTel,mAltel,mAltel,,D01,2016-09-06T14:59:06+06:00,
