NPId,Number,RecipientId,DonorId,RangeHolderId,OldRoute,NewRoute,PortDate,RowCount
1000000000249829,77055881771,mMTS,mKarTel,mKarTel,,D77,2016-09-23T10:34:01+06:00,14
1000000000249830,77773237227,mAltel,mKarTel,mKarTel,,D07,2016-09-23T10:36:42+06:00,
1000000000249831,77778558223,mMTS,mKarTel,mKarTel,D01,D77,2016-09-23T10:38:32+06:00,
1000000000249832,77772302393,mMTS,mKarTel,mKarTel,,D77,2016-09-23T10:43:26+06:00,
1000000000249833,77072627557,mKarTel,mMTS,mMTS,,D01,2016-09-23T10:42:26+06:00,
1000000000249836,77771861366,mMTS,mKarTel,mKarTel,,D77,2016-09-23T10:46:24+06:00,
1000000000249837,77077103911,mKarTel,mMTS,mMTS,,D01,2016-09-23T10:46:24+06:00,
1000000000249839,77716646464,mMTS,mKarTel,mKarTel,,D77,2016-09-23T10:49:11+06:00,
1000000000249840,77017205112,mKarTel,mKcell,mKcell,,D01,2016-09-23T10:50:56+06:00,
1000000000249841,77028999802,mMTS,mKcell,mKcell,,D77,2016-09-23T10:49:54+06:00,
1000000000249842,77003050548,mKarTel,mAltel,mAltel,,D01,2016-09-23T10:52:45+06:00,
1000000000249843,77018816063,mKarTel,mKcell,mKcell,,D01,2016-09-23T10:53:37+06:00,
1000000000249844,77016694566,mMTS,mKcell,mKcell,,D77,2016-09-23T10:53:34+06:00,
1000000000249845,77078388126,mKcell,mMTS,mMTS,,D02,2016-09-23T10:57:14+06:00,
