NPId,Number,RecipientId,DonorId,RangeHolderId,OldRoute,NewRoute,PortDate,RowCount
1000000000349063,77017264034,mAltel,mKcell,mKcell,,D07,2017-03-18T10:00:20+06:00,9
1000000000349064,77000999057,mKarTel,mAltel,mAltel,,D01,2017-03-18T10:02:45+06:00,
1000000000349065,77021213491,mKcell,mAltel,mKcell,D07,D02,2017-03-18T10:06:34+06:00,
1000000000349066,77015139075,mAltel,mKcell,mKcell,,D07,2017-03-18T10:09:10+06:00,
1000000000349067,77088444808,mMTS,mAltel,mAltel,,D77,2017-03-18T10:10:12+06:00,
1000000000349068,77786726733,mAltel,mKcell,mKcell,,D07,2017-03-18T10:13:32+06:00,
1000000000349071,77019768884,mAltel,mKcell,mKcell,,D07,2017-03-18T10:20:04+06:00,
1000000000349072,77024811125,mAltel,mKcell,mKcell,,D07,2017-03-18T10:20:57+06:00,
1000000000349073,77012888138,mAltel,mKcell,mKcell,,D07,2017-03-18T10:21:42+06:00,
