NPId,Number,RecipientId,DonorId,RangeHolderId,OldRoute,NewRoute,PortDate,RowCount
1000000000360486,77011711218,mMTS,mKcell,mKcell,,D77,2017-04-05T17:32:58+06:00,39
1000000000360487,77013013131,mMTS,mKcell,mKcell,,D77,2017-04-05T17:34:50+06:00,
1000000000360488,77781844986,mMTS,mKcell,mKcell,,D77,2017-04-05T17:35:19+06:00,
1000000000360489,77712222303,mKcell,mKarTel,mKarTel,,D02,2017-04-05T17:36:50+06:00,
1000000000360490,77772478767,mMTS,mKarTel,mKarTel,,D77,2017-04-05T17:37:12+06:00,
1000000000360491,77751020242,mKarTel,mKcell,mKcell,,D01,2017-04-05T17:38:13+06:00,
1000000000360492,77015253160,mKcell,mMTS,mKcell,D77,D02,2017-04-05T17:38:15+06:00,
1000000000360493,77004443252,mKcell,mAltel,mAltel,,D02,2017-04-05T17:39:43+06:00,
1000000000360495,77027339595,mMTS,mKcell,mKcell,,D77,2017-04-05T17:40:28+06:00,
1000000000360496,77004445951,mKcell,mAltel,mAltel,,D02,2017-04-05T17:40:45+06:00,
1000000000360497,77760000147,mAltel,mKarTel,mKarTel,,D07,2017-04-05T17:41:19+06:00,
1000000000360498,77051205327,mAltel,mKarTel,mKarTel,,D07,2017-04-05T17:41:33+06:00,
1000000000360500,77027159910,mKcell,mMTS,mKcell,D77,D02,2017-04-05T17:43:23+06:00,
1000000000360501,77471931939,mKcell,mAltel,mMTS,D07,D02,2017-04-05T17:43:20+06:00,
1000000000360502,77082813442,mKcell,mAltel,mAltel,,D02,2017-04-05T17:44:19+06:00,
1000000000360504,77014874345,mKarTel,mKcell,mKcell,,D01,2017-04-05T17:45:31+06:00,
1000000000360505,77012554422,mKarTel,mKcell,mKcell,,D01,2017-04-05T17:45:41+06:00,
1000000000360506,77003545464,mKcell,mAltel,mAltel,,D02,2017-04-05T17:45:45+06:00,
1000000000360507,77079266145,mKarTel,mMTS,mMTS,,D01,2017-04-05T17:46:19+06:00,
1000000000360511,77027139393,mAltel,mKcell,mKcell,,D07,2017-04-05T17:48:10+06:00,
1000000000360512,77015111181,mKarTel,mKcell,mKcell,,D01,2017-04-05T17:49:26+06:00,
1000000000360513,77005558287,mKcell,mAltel,mAltel,,D02,2017-04-05T17:49:22+06:00,
1000000000360514,77004442898,mKcell,mAltel,mAltel,,D02,2017-04-05T17:50:31+06:00,
1000000000360516,77477803358,mAltel,mMTS,mMTS,,D07,2017-04-05T17:50:39+06:00,
1000000000360517,77028886681,mKarTel,mKcell,mKcell,,D01,2017-04-05T17:50:55+06:00,
1000000000360523,77004443931,mKcell,mAltel,mAltel,,D02,2017-04-05T17:52:37+06:00,
1000000000360524,77076617399,mKarTel,mMTS,mMTS,,D01,2017-04-05T17:52:45+06:00,
1000000000360527,77759712020,mAltel,mKcell,mKcell,,D07,2017-04-05T17:53:03+06:00,
1000000000360528,77754301905,mMTS,mKcell,mKcell,,D77,2017-04-05T17:53:11+06:00,
1000000000360530,77058363600,mKcell,mKarTel,mKarTel,,D02,2017-04-05T17:55:15+06:00,
1000000000360531,77001112726,mKcell,mAltel,mAltel,,D02,2017-04-05T17:55:15+06:00,
1000000000360532,77055863844,mMTS,mKarTel,mKarTel,,D77,2017-04-05T17:55:48+06:00,
1000000000360533,77054666833,mKarTel,mMTS,mKarTel,D77,D01,2017-04-05T17:55:58+06:00,
1000000000360534,77003336505,mKcell,mAltel,mAltel,,D02,2017-04-05T17:56:20+06:00,
1000000000360535,77004854134,mMTS,mAltel,mAltel,,D77,2017-04-05T17:56:08+06:00,
1000000000360536,77475598313,mAltel,mMTS,mMTS,,D07,2017-04-05T17:56:58+06:00,
1000000000360537,77017544217,mAltel,mKcell,mKcell,,D07,2017-04-05T17:57:10+06:00,
1000000000360538,77051682979,mMTS,mKarTel,mKarTel,,D77,2017-04-05T17:59:47+06:00,
1000000000360541,77026772777,mKcell,mAltel,mKcell,D07,D02,2017-04-05T17:59:59+06:00,
