NPId,Number,RecipientId,DonorId,RangeHolderId,OldRoute,NewRoute,PortDate,RowCount
1000000000283020,77012128162,mKarTel,mKcell,mKcell,,D01,2016-11-23T14:32:40+06:00,17
1000000000283023,77072000479,mKarTel,mMTS,mMTS,,D01,2016-11-23T14:39:17+06:00,
1000000000283024,77476566046,mKcell,mMTS,mMTS,,D02,2016-11-23T14:40:07+06:00,
1000000000283026,77475557225,mAltel,mMTS,mMTS,,D07,2016-11-23T14:41:24+06:00,
1000000000283027,77782223718,mAltel,mKcell,mKcell,,D07,2016-11-23T14:43:00+06:00,
1000000000283028,77021777790,mKarTel,mKcell,mKcell,,D01,2016-11-23T14:43:25+06:00,
1000000000283029,77772167586,mAltel,mKarTel,mKarTel,,D07,2016-11-23T14:44:31+06:00,
1000000000283030,77771497349,mKarTel,mMTS,mKarTel,D77,D01,2016-11-23T14:46:05+06:00,
1000000000283031,77756616555,mMTS,mKcell,mKcell,,D77,2016-11-23T14:47:36+06:00,
1000000000283033,77783301608,mMTS,mKcell,mKcell,,D77,2016-11-23T14:48:28+06:00,
1000000000283034,77023399355,mKcell,mMTS,mKcell,D77,D02,2016-11-23T14:52:21+06:00,
1000000000283035,77774816260,mKarTel,mAltel,mKarTel,D07,D01,2016-11-23T14:53:54+06:00,
1000000000283037,77712295576,mMTS,mKarTel,mKarTel,,D77,2016-11-23T14:56:22+06:00,
1000000000283038,77754517093,mMTS,mKcell,mKcell,,D77,2016-11-23T14:56:52+06:00,
1000000000283040,77073442662,mMTS,mKcell,mMTS,D02,D77,2016-11-23T14:57:07+06:00,
1000000000283041,77754030525,mKarTel,mKcell,mKcell,,D01,2016-11-23T14:57:47+06:00,
1000000000283042,77781001002,mMTS,mKarTel,mKcell,D01,D77,2016-11-23T14:59:08+06:00,
