NPId,Number,RecipientId,DonorId,RangeHolderId,OldRoute,NewRoute,PortDate,RowCount
1000000000257624,77472728494,mKcell,mMTS,mMTS,,D02,2016-10-05T19:00:36+06:00,14
1000000000257625,77055371234,mMTS,mKarTel,mKarTel,,D77,2016-10-05T19:01:43+06:00,
1000000000257626,77026285264,mMTS,mKcell,mKcell,,D77,2016-10-05T19:01:32+06:00,
1000000000257627,77058781248,mMTS,mKarTel,mKarTel,,D77,2016-10-05T19:02:24+06:00,
1000000000257628,77013219252,mKarTel,mKcell,mKcell,,D01,2016-10-05T19:02:51+06:00,
1000000000257629,77002447273,mKcell,mAltel,mAltel,,D02,2016-10-05T19:02:40+06:00,
1000000000257631,77770464688,mKarTel,mKcell,mKarTel,D02,D01,2016-10-05T19:09:03+06:00,
1000000000257632,77077400187,mKarTel,mMTS,mMTS,,D01,2016-10-05T19:11:03+06:00,
1000000000257633,77018884094,mKcell,mAltel,mKcell,D07,D02,2016-10-05T19:11:45+06:00,
1000000000257634,77027093888,mAltel,mKcell,mKcell,,D07,2016-10-05T19:14:10+06:00,
1000000000257638,77015030302,mAltel,mKcell,mKcell,,D07,2016-10-05T19:24:52+06:00,
1000000000257639,77714515669,mAltel,mMTS,mKarTel,D77,D07,2016-10-05T19:25:28+06:00,
1000000000257641,77083118057,mAltel,mMTS,mAltel,D77,D07,2016-10-05T19:27:41+06:00,
1000000000257642,77769191980,mAltel,mKarTel,mKarTel,,D07,2016-10-05T19:28:59+06:00,
