NPId,Number,RecipientId,DonorId,RangeHolderId,OldRoute,NewRoute,PortDate,RowCount
1000000000347382,77717755096,mMTS,mKarTel,mKarTel,,D77,2017-03-15T16:44:12+06:00,31
1000000000347435,77471061522,mKcell,mMTS,mMTS,,D02,2017-03-15T16:33:01+06:00,
1000000000347436,77017631235,mAltel,mKcell,mKcell,,D07,2017-03-15T16:34:19+06:00,
1000000000347437,77004805080,mKcell,mAltel,mAltel,,D02,2017-03-15T16:34:50+06:00,
1000000000347438,77785505559,mKarTel,mKcell,mKcell,,D01,2017-03-15T16:35:06+06:00,
1000000000347439,77762427272,mMTS,mKarTel,mKarTel,,D77,2017-03-15T16:36:49+06:00,
1000000000347440,77004803080,mKcell,mAltel,mAltel,,D02,2017-03-15T16:36:39+06:00,
1000000000347441,77004806080,mKcell,mAltel,mAltel,,D02,2017-03-15T16:38:11+06:00,
1000000000347442,77079556655,mKarTel,mMTS,mMTS,,D01,2017-03-15T16:38:23+06:00,
1000000000347443,77017743000,mMTS,mKcell,mKcell,,D77,2017-03-15T16:40:37+06:00,
1000000000347444,77001806080,mKcell,mAltel,mAltel,,D02,2017-03-15T16:40:49+06:00,
1000000000347445,77783760606,mMTS,mKcell,mKcell,,D77,2017-03-15T16:42:50+06:00,
1000000000347447,77002223004,mKarTel,mAltel,mAltel,,D01,2017-03-15T16:43:47+06:00,
1000000000347449,77770998887,mMTS,mKarTel,mKarTel,,D77,2017-03-15T16:45:40+06:00,
1000000000347450,77757055051,mMTS,mKcell,mKcell,,D77,2017-03-15T16:45:35+06:00,
1000000000347451,77017747817,mMTS,mKcell,mKcell,,D77,2017-03-15T16:46:10+06:00,
1000000000347453,77017522255,mMTS,mKcell,mKcell,,D77,2017-03-15T16:46:45+06:00,
1000000000347454,77007306030,mKcell,mAltel,mAltel,,D02,2017-03-15T16:48:02+06:00,
1000000000347455,77784111078,mAltel,mKcell,mKcell,,D07,2017-03-15T16:48:09+06:00,
1000000000347457,77718658047,mKcell,mKarTel,mKarTel,,D02,2017-03-15T16:49:42+06:00,
1000000000347458,77073941839,mKcell,mMTS,mMTS,,D02,2017-03-15T16:49:30+06:00,
1000000000347459,77472624165,mAltel,mMTS,mMTS,,D07,2017-03-15T16:50:54+06:00,
1000000000347460,77002746248,mKarTel,mAltel,mAltel,,D01,2017-03-15T16:51:24+06:00,
1000000000347461,77002223005,mKarTel,mAltel,mAltel,,D01,2017-03-15T16:51:38+06:00,
1000000000347463,77711961588,mMTS,mKarTel,mKarTel,,D77,2017-03-15T16:52:13+06:00,
1000000000347465,77762888088,mAltel,mKarTel,mKarTel,,D07,2017-03-15T16:53:56+06:00,
1000000000347467,77025955425,mAltel,mKcell,mKcell,,D07,2017-03-15T16:54:04+06:00,
1000000000347475,77001003575,mKcell,mAltel,mAltel,,D02,2017-03-15T16:56:17+06:00,
1000000000347478,77019990033,mKcell,mMTS,mKcell,D77,D02,2017-03-15T16:56:51+06:00,
1000000000347479,77752807787,mMTS,mKcell,mKcell,,D77,2017-03-15T16:56:53+06:00,
1000000000347480,77776823658,mMTS,mKarTel,mKarTel,,D77,2017-03-15T16:57:58+06:00,
