NPId,Number,RecipientId,DonorId,RangeHolderId,OldRoute,NewRoute,PortDate,RowCount
1000000000386208,77088000456,mKcell,mAltel,mAltel,,D02,2017-05-20T13:31:29+06:00,12
1000000000386209,77777099096,mMTS,mKarTel,mKarTel,,D77,2017-05-20T13:35:43+06:00,
1000000000386210,77014111637,mKarTel,mKcell,mKcell,,D01,2017-05-20T13:36:42+06:00,
1000000000386213,77010155513,mAltel,mKcell,mKcell,,D07,2017-05-20T13:40:09+06:00,
1000000000386214,77014918181,mKarTel,mKcell,mKcell,,D01,2017-05-20T13:42:08+06:00,
1000000000386215,77079050595,mAltel,mMTS,mMTS,,D07,2017-05-20T13:43:53+06:00,
1000000000386216,77770720018,mMTS,mKarTel,mKarTel,,D77,2017-05-20T13:47:32+06:00,
1000000000386217,77023057050,mKcell,mAltel,mKcell,D07,D02,2017-05-20T13:47:33+06:00,
1000000000386219,77072531994,mMTS,mKarTel,mMTS,D01,D77,2017-05-20T13:48:48+06:00,
1000000000386221,77773643939,mMTS,mKarTel,mKarTel,,D77,2017-05-20T13:51:30+06:00,
1000000000386224,77015596666,mKcell,mAltel,mKcell,D07,D02,2017-05-20T13:57:01+06:00,
1000000000386225,77075009007,mAltel,mMTS,mMTS,,D07,2017-05-20T13:56:48+06:00,
