NPId,Number,RecipientId,DonorId,RangeHolderId,OldRoute,NewRoute,PortDate,RowCount
1000000000244154,77081111483,mMTS,mAltel,mAltel,,D77,2016-09-11T16:00:39+06:00,12
1000000000244155,77027200001,mMTS,mKcell,mKcell,,D77,2016-09-11T16:00:55+06:00,
1000000000244156,77019512159,mMTS,mKcell,mKcell,,D77,2016-09-11T16:07:36+06:00,
1000000000244157,77781417940,mMTS,mKcell,mKcell,,D77,2016-09-11T16:07:38+06:00,
1000000000244158,77019305096,mMTS,mKcell,mKcell,,D77,2016-09-11T16:12:11+06:00,
1000000000244161,77758434316,mMTS,mKcell,mKcell,,D77,2016-09-11T16:18:00+06:00,
1000000000244163,77771303500,mKarTel,mAltel,mKarTel,D07,D01,2016-09-11T16:19:50+06:00,
1000000000244164,77753811453,mMTS,mKcell,mKcell,,D77,2016-09-11T16:20:15+06:00,
1000000000244165,77026771939,mMTS,mKcell,mKcell,,D77,2016-09-11T16:21:08+06:00,
1000000000244166,77781050606,mMTS,mKcell,mKcell,,D77,2016-09-11T16:22:31+06:00,
1000000000244167,77017855640,mMTS,mKcell,mKcell,,D77,2016-09-11T16:23:04+06:00,
1000000000244168,77059992634,mMTS,mKarTel,mKarTel,,D77,2016-09-11T16:25:09+06:00,
