NPId,Number,RecipientId,DonorId,RangeHolderId,OldRoute,NewRoute,PortDate,RowCount
1000000000393539,77012286423,mKcell,mKarTel,mKcell,D01,D02,2017-05-31T14:08:22+06:00,48
1000000000393553,77012286418,mKcell,mKarTel,mKcell,D01,D02,2017-05-31T14:13:38+06:00,
1000000000393555,77017850462,mKcell,mKarTel,mKcell,D01,D02,2017-05-31T14:15:53+06:00,
1000000000393559,77017850463,mKcell,mKarTel,mKcell,D01,D02,2017-05-31T14:18:22+06:00,
1000000000393561,77017850468,mKcell,mKarTel,mKcell,D01,D02,2017-05-31T14:20:14+06:00,
1000000000393562,77017241183,mKcell,mKarTel,mKcell,D01,D02,2017-05-31T14:20:26+06:00,
1000000000393566,77022182153,mKcell,mKarTel,mKcell,D01,D02,2017-05-31T14:22:30+06:00,
1000000000393574,77022182154,mKcell,mKarTel,mKcell,D01,D02,2017-05-31T14:25:35+06:00,
1000000000393586,77017241189,mKcell,mKarTel,mKcell,D01,D02,2017-05-31T14:29:56+06:00,
1000000000393646,77071248686,mAltel,mMTS,mMTS,,D07,2017-05-31T14:00:12+06:00,
1000000000393647,77081468405,mKarTel,mAltel,mAltel,,D01,2017-05-31T14:00:41+06:00,
1000000000393648,77711769825,mMTS,mKarTel,mKarTel,,D77,2017-05-31T14:03:12+06:00,
1000000000393649,77022135075,mKcell,mKarTel,mKcell,D01,D02,2017-05-31T14:03:26+06:00,
1000000000393650,77475777723,mKarTel,mMTS,mMTS,,D01,2017-05-31T14:03:09+06:00,
1000000000393651,77718175144,mMTS,mKarTel,mKarTel,,D77,2017-05-31T14:04:05+06:00,
1000000000393652,77017274804,mMTS,mKcell,mKcell,,D77,2017-05-31T14:04:01+06:00,
1000000000393653,77077255225,mKarTel,mMTS,mMTS,,D01,2017-05-31T14:04:36+06:00,
1000000000393656,77774067633,mMTS,mKarTel,mKarTel,,D77,2017-05-31T14:05:09+06:00,
1000000000393658,77056411110,mMTS,mKarTel,mKarTel,,D77,2017-05-31T14:05:58+06:00,
1000000000393660,77017610711,mKarTel,mKcell,mKcell,,D01,2017-05-31T14:06:59+06:00,
1000000000393661,77017867731,mMTS,mKcell,mKcell,,D77,2017-05-31T14:07:17+06:00,
1000000000393665,77477788373,mAltel,mMTS,mMTS,,D07,2017-05-31T14:09:54+06:00,
1000000000393666,77019968337,mKarTel,mKcell,mKcell,,D01,2017-05-31T14:10:17+06:00,
1000000000393667,77081902729,mKcell,mAltel,mAltel,,D02,2017-05-31T14:10:41+06:00,
1000000000393670,77017561217,mAltel,mKcell,mKcell,,D07,2017-05-31T14:10:41+06:00,
1000000000393672,77772358484,mMTS,mKarTel,mKarTel,,D77,2017-05-31T14:11:14+06:00,
1000000000393674,77474647689,mKarTel,mMTS,mMTS,,D01,2017-05-31T14:13:28+06:00,
1000000000393675,77018887889,mAltel,mKcell,mKcell,,D07,2017-05-31T14:14:04+06:00,
1000000000393677,77786661555,mAltel,mKcell,mKcell,,D07,2017-05-31T14:14:43+06:00,
1000000000393678,77477959191,mMTS,mKcell,mMTS,D02,D77,2017-05-31T14:15:06+06:00,
1000000000393679,77753782601,mMTS,mKcell,mKcell,,D77,2017-05-31T14:15:35+06:00,
1000000000393680,77027762207,mKarTel,mKcell,mKcell,,D01,2017-05-31T14:16:11+06:00,
1000000000393682,77001910007,mAltel,mMTS,mAltel,D77,D07,2017-05-31T14:15:59+06:00,
1000000000393685,77051801030,mMTS,mKarTel,mKarTel,,D77,2017-05-31T14:17:45+06:00,
1000000000393686,77776667474,mMTS,mKarTel,mKarTel,,D77,2017-05-31T14:18:07+06:00,
1000000000393687,77012777600,mKarTel,mAltel,mKcell,D07,D01,2017-05-31T14:19:30+06:00,
1000000000393689,77478238387,mKcell,mMTS,mMTS,,D02,2017-05-31T14:20:01+06:00,
1000000000393690,77089418832,mMTS,mAltel,mAltel,,D77,2017-05-31T14:20:29+06:00,
1000000000393691,77751333508,mKarTel,mKcell,mKcell,,D01,2017-05-31T14:21:40+06:00,
1000000000393692,77753258484,mKcell,mMTS,mKcell,D77,D02,2017-05-31T14:21:53+06:00,
1000000000393694,77015315753,mMTS,mKarTel,mKcell,D01,D77,2017-05-31T14:23:26+06:00,
1000000000393696,77474364334,mAltel,mKcell,mMTS,D02,D07,2017-05-31T14:23:57+06:00,
1000000000393699,77759697989,mKarTel,mKcell,mKcell,,D01,2017-05-31T14:26:04+06:00,
1000000000393700,77773177777,mMTS,mKarTel,mKarTel,,D77,2017-05-31T14:26:21+06:00,
1000000000393701,77083333303,mKarTel,mAltel,mAltel,,D01,2017-05-31T14:26:20+06:00,
1000000000393702,77755095659,mMTS,mKcell,mKcell,,D77,2017-05-31T14:26:32+06:00,
1000000000393703,77781002118,mKcell,mMTS,mKcell,D77,D02,2017-05-31T14:27:13+06:00,
1000000000393705,77015594323,mKarTel,mKcell,mKcell,,D01,2017-05-31T14:28:20+06:00,
