NPId,Number,RecipientId,DonorId,RangeHolderId,OldRoute,NewRoute,PortDate,RowCount
1000000000267742,77011071413,mMTS,mKcell,mKcell,,D77,2016-10-25T13:00:47+06:00,36
1000000000267744,77025973027,mKarTel,mKcell,mKcell,,D01,2016-10-25T13:02:32+06:00,
1000000000267747,77711744424,mKcell,mKarTel,mKarTel,,D02,2016-10-25T13:01:28+06:00,
1000000000267748,77023251384,mKarTel,mKcell,mKcell,,D01,2016-10-25T13:01:52+06:00,
1000000000267749,77071119389,mKcell,mMTS,mMTS,,D02,2016-10-25T13:02:25+06:00,
1000000000267750,77089179117,mMTS,mAltel,mAltel,,D77,2016-10-25T13:02:17+06:00,
1000000000267751,77773173046,mAltel,mKarTel,mKarTel,,D07,2016-10-25T13:03:22+06:00,
1000000000267752,77476072507,mKcell,mMTS,mMTS,,D02,2016-10-25T13:04:30+06:00,
1000000000267753,77052600085,mMTS,mKarTel,mKarTel,,D77,2016-10-25T13:05:08+06:00,
1000000000267754,77023689851,mMTS,mKcell,mKcell,,D77,2016-10-25T13:05:07+06:00,
1000000000267755,77787776115,mAltel,mKcell,mKcell,,D07,2016-10-25T13:06:05+06:00,
1000000000267757,77004500000,mKcell,mAltel,mAltel,,D02,2016-10-25T13:06:21+06:00,
1000000000267758,77027880966,mAltel,mKcell,mKcell,,D07,2016-10-25T13:07:07+06:00,
1000000000267759,77761116601,mKcell,mKarTel,mKarTel,,D02,2016-10-25T13:07:34+06:00,
1000000000267760,77775081604,mMTS,mKarTel,mKarTel,,D77,2016-10-25T13:08:00+06:00,
1000000000267761,77016556200,mAltel,mKcell,mKcell,,D07,2016-10-25T13:08:59+06:00,
1000000000267763,77783526151,mAltel,mKcell,mKcell,,D07,2016-10-25T13:10:03+06:00,
1000000000267764,77082038946,mKarTel,mAltel,mAltel,,D01,2016-10-25T13:12:32+06:00,
1000000000267766,77710245616,mMTS,mKarTel,mKarTel,,D77,2016-10-25T13:13:36+06:00,
1000000000267767,77754331118,mKarTel,mKcell,mKcell,,D01,2016-10-25T13:13:34+06:00,
1000000000267768,77025899879,mKcell,mAltel,mKcell,D07,D02,2016-10-25T13:16:21+06:00,
1000000000267769,77756771881,mKcell,mMTS,mKcell,D77,D02,2016-10-25T13:17:16+06:00,
1000000000267770,77002051988,mKcell,mAltel,mAltel,,D02,2016-10-25T13:17:31+06:00,
1000000000267771,77083485848,mMTS,mAltel,mAltel,,D77,2016-10-25T13:17:29+06:00,
1000000000267773,77017350314,mKarTel,mKcell,mKcell,,D01,2016-10-25T13:18:09+06:00,
1000000000267774,77025668408,mAltel,mKcell,mKcell,,D07,2016-10-25T13:18:35+06:00,
1000000000267776,77071783775,mKarTel,mMTS,mMTS,,D01,2016-10-25T13:20:30+06:00,
1000000000267777,77072151370,mAltel,mMTS,mMTS,,D07,2016-10-25T13:21:05+06:00,
1000000000267778,77785486738,mMTS,mKcell,mKcell,,D77,2016-10-25T13:21:41+06:00,
1000000000267779,77760070737,mAltel,mKarTel,mKarTel,,D07,2016-10-25T13:22:04+06:00,
1000000000267780,77778095283,mAltel,mKarTel,mKarTel,,D07,2016-10-25T13:22:04+06:00,
1000000000267782,77770100805,mKcell,mKarTel,mKarTel,,D02,2016-10-25T13:24:03+06:00,
1000000000267783,77761121177,mMTS,mKarTel,mKarTel,,D77,2016-10-25T13:24:17+06:00,
1000000000267784,77478477444,mKcell,mMTS,mMTS,,D02,2016-10-25T13:26:07+06:00,
1000000000267785,77028915228,mMTS,mKcell,mKcell,,D77,2016-10-25T13:26:26+06:00,
1000000000267786,77081801510,mKcell,mAltel,mAltel,,D02,2016-10-25T13:27:43+06:00,
