NPId,Number,RecipientId,DonorId,RangeHolderId,OldRoute,NewRoute,PortDate,RowCount
1000000000331419,77076999129,mKcell,mMTS,mMTS,,D02,2017-02-19T21:05:44+06:00,2
1000000000331420,77018888192,mKcell,mAltel,mKcell,D07,D02,2017-02-19T21:10:01+06:00,
