NPId,Number,RecipientId,DonorId,RangeHolderId,OldRoute,NewRoute,PortDate,RowCount
1000000000173800,77089055465,mKarTel,mAltel,mAltel,,D01,2016-05-14T09:30:03+06:00,3
1000000000173801,77760300093,mKcell,mKarTel,mKarTel,,D02,2016-05-14T09:35:18+06:00,
1000000000173802,77714656511,mKarTel,mAltel,mKarTel,D07,D01,2016-05-14T09:40:53+06:00,
