NPId,Number,RecipientId,DonorId,RangeHolderId,OldRoute,NewRoute,PortDate,RowCount
1000000000208210,77019533292,mKarTel,mKcell,mKcell,,D01,2016-07-09T09:03:03+06:00,2
1000000000208211,77013725858,mMTS,mKcell,mKcell,,D77,2016-07-09T09:07:37+06:00,
