NPId,Number,RecipientId,DonorId,RangeHolderId,OldRoute,NewRoute,PortDate,RowCount
1000000000280742,77024607215,mMTS,mKcell,mKcell,,D77,2016-11-18T11:01:22+06:00,13
1000000000280744,77771110895,mAltel,mKarTel,mKarTel,,D07,2016-11-18T11:02:56+06:00,
1000000000280749,77754991431,mAltel,mKcell,mKcell,,D07,2016-11-18T11:14:11+06:00,
1000000000280750,77754702541,mKarTel,mKcell,mKcell,,D01,2016-11-18T11:14:53+06:00,
1000000000280752,77013954491,mKarTel,mKcell,mKcell,,D01,2016-11-18T11:16:12+06:00,
1000000000280753,77057377880,mMTS,mKarTel,mKarTel,,D77,2016-11-18T11:16:11+06:00,
1000000000280757,77054235274,mKcell,mKarTel,mKarTel,,D02,2016-11-18T11:23:28+06:00,
1000000000280759,77773589845,mMTS,mKarTel,mKarTel,,D77,2016-11-18T11:23:52+06:00,
1000000000280760,77054343544,mKarTel,mMTS,mKarTel,D77,D01,2016-11-18T11:25:52+06:00,
1000000000280761,77012516470,mKcell,mKarTel,mKcell,D01,D02,2016-11-18T11:26:35+06:00,
1000000000280762,77757336919,mKcell,mMTS,mKcell,D77,D02,2016-11-18T11:26:13+06:00,
1000000000280763,77013633479,mMTS,mKcell,mKcell,,D77,2016-11-18T11:27:36+06:00,
1000000000280765,77021980655,mMTS,mKcell,mKcell,,D77,2016-11-18T11:29:08+06:00,
