NPId,Number,RecipientId,DonorId,RangeHolderId,OldRoute,NewRoute,PortDate,RowCount
1000000000404781,77079919693,mKarTel,mMTS,mMTS,,D01,2017-06-17T13:30:00+06:00,10
1000000000404783,77000272027,mKarTel,mKcell,mAltel,D02,D01,2017-06-17T13:36:49+06:00,
1000000000404784,77778767772,mKarTel,mAltel,mKarTel,D07,D01,2017-06-17T13:38:00+06:00,
1000000000404785,77755355702,mKarTel,mKcell,mKcell,,D01,2017-06-17T13:42:17+06:00,
1000000000404787,77007001975,mKcell,mAltel,mAltel,,D02,2017-06-17T13:43:28+06:00,
1000000000404788,77010969690,mMTS,mKcell,mKcell,,D77,2017-06-17T13:44:37+06:00,
1000000000404789,77007001978,mKcell,mAltel,mAltel,,D02,2017-06-17T13:44:57+06:00,
1000000000404790,77007553191,mAltel,mKarTel,mAltel,D01,D07,2017-06-17T13:47:19+06:00,
1000000000404793,77001389815,mMTS,mAltel,mAltel,,D77,2017-06-17T13:51:07+06:00,
1000000000404794,77753291963,mAltel,mKcell,mKcell,,D07,2017-06-17T13:56:41+06:00,
