NPId,Number,RecipientId,DonorId,RangeHolderId,OldRoute,NewRoute,PortDate,RowCount
1000000000177347,77019557748,mMTS,mAltel,mKcell,D07,D77,2016-05-19T15:31:05+06:00,36
1000000000177348,77080777000,mKcell,mAltel,mAltel,,D02,2016-05-19T15:31:43+06:00,
1000000000177350,77055838018,mMTS,mKarTel,mKarTel,,D77,2016-05-19T15:33:00+06:00,
1000000000177351,77770683483,mMTS,mKarTel,mKarTel,,D77,2016-05-19T15:34:01+06:00,
1000000000177354,77777772503,mMTS,mKarTel,mKarTel,,D77,2016-05-19T15:36:40+06:00,
1000000000177357,77089587709,mMTS,mAltel,mAltel,,D77,2016-05-19T15:37:04+06:00,
1000000000177358,77019299692,mKarTel,mKcell,mKcell,,D01,2016-05-19T15:38:19+06:00,
1000000000177361,77001567903,mMTS,mAltel,mAltel,,D77,2016-05-19T15:42:05+06:00,
1000000000177362,77026820925,mMTS,mKcell,mKcell,,D77,2016-05-19T15:42:53+06:00,
1000000000177363,77788699864,mAltel,mKcell,mKcell,,D07,2016-05-19T15:43:18+06:00,
1000000000177364,77711482732,mMTS,mKarTel,mKarTel,,D77,2016-05-19T15:43:37+06:00,
1000000000177365,77472524353,mMTS,mAltel,mMTS,D07,D77,2016-05-19T15:44:30+06:00,
1000000000177366,77016336643,mMTS,mKcell,mKcell,,D77,2016-05-19T15:44:44+06:00,
1000000000177367,77078146983,mMTS,mAltel,mMTS,D07,D77,2016-05-19T15:45:13+06:00,
1000000000177368,77772473472,mAltel,mKarTel,mKarTel,,D07,2016-05-19T15:45:45+06:00,
1000000000177370,77786000088,mKcell,mMTS,mKcell,D77,D02,2016-05-19T15:46:31+06:00,
1000000000177371,77024923170,mMTS,mKcell,mKcell,,D77,2016-05-19T15:46:51+06:00,
1000000000177373,77751055145,mMTS,mKcell,mKcell,,D77,2016-05-19T15:48:04+06:00,
1000000000177374,77052227757,mKcell,mKarTel,mKarTel,,D02,2016-05-19T15:49:26+06:00,
1000000000177375,77052227747,mKcell,mKarTel,mKarTel,,D02,2016-05-19T15:49:04+06:00,
1000000000177376,77774633333,mKcell,mKarTel,mKarTel,,D02,2016-05-19T15:50:36+06:00,
1000000000177377,77758018115,mMTS,mKcell,mKcell,,D77,2016-05-19T15:50:23+06:00,
1000000000177378,77051119434,mMTS,mKarTel,mKarTel,,D77,2016-05-19T15:49:59+06:00,
1000000000177379,77009699764,mMTS,mAltel,mAltel,,D77,2016-05-19T15:50:23+06:00,
1000000000177384,77057505070,mMTS,mKarTel,mKarTel,,D77,2016-05-19T15:54:12+06:00,
1000000000177387,77754103656,mKarTel,mKcell,mKcell,,D01,2016-05-19T15:54:57+06:00,
1000000000177388,77755949321,mKcell,mAltel,mKcell,D07,D02,2016-05-19T15:55:33+06:00,
1000000000177389,77753003200,mMTS,mKcell,mKcell,,D77,2016-05-19T15:55:50+06:00,
1000000000177390,77081046454,mMTS,mAltel,mAltel,,D77,2016-05-19T15:55:44+06:00,
1000000000177391,77027115790,mMTS,mKcell,mKcell,,D77,2016-05-19T15:56:21+06:00,
1000000000177392,77051846214,mMTS,mKarTel,mKarTel,,D77,2016-05-19T15:56:43+06:00,
1000000000177393,77086265438,mMTS,mAltel,mAltel,,D77,2016-05-19T15:57:03+06:00,
1000000000177396,77089086935,mMTS,mAltel,mAltel,,D77,2016-05-19T15:57:03+06:00,
1000000000177399,77476662993,mKarTel,mMTS,mMTS,,D01,2016-05-19T15:57:46+06:00,
1000000000177400,77778532222,mKcell,mKarTel,mKarTel,,D02,2016-05-19T15:59:20+06:00,
1000000000177401,77082333809,mAltel,mMTS,mAltel,D77,D07,2016-05-19T15:59:05+06:00,
