NPId,Number,RecipientId,DonorId,RangeHolderId,OldRoute,NewRoute,PortDate,RowCount
1000000000383683,77773302355,mKcell,mKarTel,mKarTel,,D02,2017-05-15T19:34:45+06:00,9
1000000000383684,77015555129,mKcell,mKarTel,mKcell,D01,D02,2017-05-15T19:40:18+06:00,
1000000000383685,77021364884,mKarTel,mKcell,mKcell,,D01,2017-05-15T19:45:03+06:00,
1000000000383686,77018886540,mKcell,mKarTel,mKcell,D01,D02,2017-05-15T19:49:34+06:00,
1000000000383687,77767777317,mMTS,mKarTel,mKarTel,,D77,2017-05-15T19:50:01+06:00,
1000000000383688,77772543225,mKarTel,mMTS,mKarTel,D77,D01,2017-05-15T19:51:41+06:00,
1000000000383689,77477066808,mKcell,mMTS,mMTS,,D02,2017-05-15T19:55:47+06:00,
1000000000383690,77006067082,mKcell,mAltel,mAltel,,D02,2017-05-15T19:58:25+06:00,
1000000000383691,77714543944,mAltel,mKcell,mKarTel,D02,D07,2017-05-15T19:59:50+06:00,
