NPId,Number,RecipientId,DonorId,RangeHolderId,OldRoute,NewRoute,PortDate,RowCount
1000000000332629,77077771686,mKcell,mMTS,mMTS,,D02,2017-02-21T20:30:29+06:00,5
1000000000332630,77023729520,mAltel,mKcell,mKcell,,D07,2017-02-21T20:36:42+06:00,
1000000000332631,77025757999,mKcell,mKarTel,mKcell,D01,D02,2017-02-21T20:53:41+06:00,
1000000000332632,77000900660,mKcell,mAltel,mAltel,,D02,2017-02-21T20:55:56+06:00,
1000000000332633,77072246458,mKcell,mKarTel,mMTS,D01,D02,2017-02-21T20:59:51+06:00,
