NPId,Number,RecipientId,DonorId,RangeHolderId,OldRoute,NewRoute,PortDate,RowCount
1000000000375119,77078277077,mMTS,mKarTel,mMTS,D01,D77,2017-04-30T15:31:17+06:00,21
1000000000375120,77004450000,mMTS,mKarTel,mAltel,D01,D77,2017-04-30T15:31:37+06:00,
1000000000375121,77024404303,mMTS,mKcell,mKcell,,D77,2017-04-30T15:32:37+06:00,
1000000000375122,77777766667,mMTS,mKarTel,mKarTel,,D77,2017-04-30T15:35:44+06:00,
1000000000375123,77084903150,mMTS,mAltel,mAltel,,D77,2017-04-30T15:37:47+06:00,
1000000000375124,77474351536,mKarTel,mMTS,mMTS,,D01,2017-04-30T15:39:01+06:00,
1000000000375125,77017660558,mKarTel,mKcell,mKcell,,D01,2017-04-30T15:40:13+06:00,
1000000000375126,77471064207,mMTS,mKarTel,mMTS,D01,D77,2017-04-30T15:40:11+06:00,
1000000000375127,77022888099,mKcell,mKarTel,mKcell,D01,D02,2017-04-30T15:40:36+06:00,
1000000000375128,77078857821,mAltel,mMTS,mMTS,,D07,2017-04-30T15:41:43+06:00,
1000000000375130,77077441624,mAltel,mMTS,mMTS,,D07,2017-04-30T15:41:58+06:00,
1000000000375133,77755211842,mMTS,mKcell,mKcell,,D77,2017-04-30T15:43:02+06:00,
1000000000375134,77053882222,mAltel,mKarTel,mKarTel,,D07,2017-04-30T15:44:25+06:00,
1000000000375136,77075210680,mKarTel,mMTS,mMTS,,D01,2017-04-30T15:45:34+06:00,
1000000000375138,77769550050,mMTS,mKarTel,mKarTel,,D77,2017-04-30T15:48:04+06:00,
1000000000375139,77075431654,mKcell,mMTS,mMTS,,D02,2017-04-30T15:48:07+06:00,
1000000000375140,77754188147,mMTS,mKcell,mKcell,,D77,2017-04-30T15:52:51+06:00,
1000000000375141,77753633373,mKarTel,mKcell,mKcell,,D01,2017-04-30T15:53:31+06:00,
1000000000375143,77785588211,mMTS,mKcell,mKcell,,D77,2017-04-30T15:55:04+06:00,
1000000000375144,77072175080,mKcell,mMTS,mMTS,,D02,2017-04-30T15:57:08+06:00,
1000000000375145,77751237799,mKarTel,mAltel,mKcell,D07,D01,2017-04-30T15:57:36+06:00,
