NPId,Number,RecipientId,DonorId,RangeHolderId,OldRoute,NewRoute,PortDate,RowCount
1000000000237317,77017613182,mKarTel,mKcell,mKcell,,D01,2016-09-01T13:04:50+06:00,57
1000000000237317,77017613184,mKarTel,mKcell,mKcell,,D01,2016-09-01T13:04:50+06:00,
1000000000237317,77017613185,mKarTel,mKcell,mKcell,,D01,2016-09-01T13:04:50+06:00,
1000000000237317,77017613452,mKarTel,mKcell,mKcell,,D01,2016-09-01T13:04:50+06:00,
1000000000237317,77017613454,mKarTel,mKcell,mKcell,,D01,2016-09-01T13:04:50+06:00,
1000000000237325,77015145100,mKarTel,mKcell,mKcell,,D01,2016-09-01T13:17:32+06:00,
1000000000237325,77017631050,mKarTel,mKcell,mKcell,,D01,2016-09-01T13:17:32+06:00,
1000000000237325,77017656345,mKarTel,mKcell,mKcell,,D01,2016-09-01T13:17:32+06:00,
1000000000237325,77017656348,mKarTel,mKcell,mKcell,,D01,2016-09-01T13:17:32+06:00,
1000000000237325,77019761478,mKarTel,mKcell,mKcell,,D01,2016-09-01T13:17:32+06:00,
1000000000237325,77019781774,mKarTel,mKcell,mKcell,,D01,2016-09-01T13:17:32+06:00,
1000000000237325,77019781779,mKarTel,mKcell,mKcell,,D01,2016-09-01T13:17:32+06:00,
1000000000237325,77019781780,mKarTel,mKcell,mKcell,,D01,2016-09-01T13:17:32+06:00,
1000000000237325,77019781781,mKarTel,mKcell,mKcell,,D01,2016-09-01T13:17:32+06:00,
1000000000237325,77019842469,mKarTel,mKcell,mKcell,,D01,2016-09-01T13:17:32+06:00,
1000000000237325,77019842471,mKarTel,mKcell,mKcell,,D01,2016-09-01T13:17:32+06:00,
1000000000237346,77713008948,mKarTel,mKcell,mKarTel,D02,D01,2016-09-01T13:15:45+06:00,
1000000000237346,77715067497,mKarTel,mKcell,mKarTel,D02,D01,2016-09-01T13:15:45+06:00,
1000000000237527,77011912025,mKcell,mMTS,mKcell,D77,D02,2016-09-01T13:12:29+06:00,
1000000000237740,77073511103,mMTS,mKcell,mMTS,D02,D77,2016-09-01T13:00:03+06:00,
1000000000237998,77019308631,mKcell,mKarTel,mKcell,D01,D02,2016-09-01T13:17:56+06:00,
1000000000238098,77022222434,mKarTel,mKcell,mKcell,,D01,2016-09-01T13:00:11+06:00,
1000000000238100,77017615550,mKarTel,mMTS,mKcell,D77,D01,2016-09-01T13:02:18+06:00,
1000000000238101,77787882753,mKarTel,mKcell,mKcell,,D01,2016-09-01T13:02:18+06:00,
1000000000238102,77018882036,mMTS,mKcell,mKcell,,D77,2016-09-01T13:02:06+06:00,
1000000000238103,77015537161,mMTS,mKcell,mKcell,,D77,2016-09-01T13:02:35+06:00,
1000000000238106,77001000011,mMTS,mAltel,mAltel,,D77,2016-09-01T13:05:23+06:00,
1000000000238107,77074058241,mKcell,mMTS,mMTS,,D02,2016-09-01T13:05:49+06:00,
1000000000238108,77023099760,mKarTel,mKcell,mKcell,,D01,2016-09-01T13:07:36+06:00,
1000000000238109,77058344482,mMTS,mKarTel,mKarTel,,D77,2016-09-01T13:09:37+06:00,
1000000000238110,77773714805,mMTS,mKarTel,mKarTel,,D77,2016-09-01T13:11:05+06:00,
1000000000238111,77477610727,mKarTel,mMTS,mMTS,,D01,2016-09-01T13:09:36+06:00,
1000000000238112,77086241447,mMTS,mAltel,mAltel,,D77,2016-09-01T13:09:53+06:00,
1000000000238113,77057811177,mAltel,mKarTel,mKarTel,,D07,2016-09-01T13:11:48+06:00,
1000000000238114,77776270182,mMTS,mKarTel,mKarTel,,D77,2016-09-01T13:12:28+06:00,
1000000000238115,77057222270,mMTS,mKarTel,mKarTel,,D77,2016-09-01T13:14:03+06:00,
1000000000238116,77771983388,mKcell,mKarTel,mKarTel,,D02,2016-09-01T13:14:55+06:00,
1000000000238117,77015625296,mMTS,mKcell,mKcell,,D77,2016-09-01T13:13:09+06:00,
1000000000238119,77772452434,mMTS,mKarTel,mKarTel,,D77,2016-09-01T13:17:32+06:00,
1000000000238120,77017176949,mKarTel,mKcell,mKcell,,D01,2016-09-01T13:15:44+06:00,
1000000000238121,77081752191,mMTS,mAltel,mAltel,,D77,2016-09-01T13:15:53+06:00,
1000000000238123,77767400009,mMTS,mKarTel,mKarTel,,D77,2016-09-01T13:19:09+06:00,
1000000000238124,77788838283,mMTS,mKcell,mKcell,,D77,2016-09-01T13:17:28+06:00,
1000000000238125,77017772397,mAltel,mKcell,mKcell,,D07,2016-09-01T13:18:17+06:00,
1000000000238126,77760070997,mMTS,mKarTel,mKarTel,,D77,2016-09-01T13:20:45+06:00,
1000000000238127,77071970746,mKarTel,mMTS,mMTS,,D01,2016-09-01T13:19:58+06:00,
1000000000238129,77772739260,mMTS,mKarTel,mKarTel,,D77,2016-09-01T13:21:26+06:00,
1000000000238130,77004122981,mKarTel,mAltel,mAltel,,D01,2016-09-01T13:20:44+06:00,
1000000000238131,77089999116,mMTS,mKcell,mAltel,D02,D77,2016-09-01T13:21:12+06:00,
1000000000238133,77774664999,mMTS,mKarTel,mKarTel,,D77,2016-09-01T13:25:22+06:00,
1000000000238134,77085612454,mKarTel,mAltel,mAltel,,D01,2016-09-01T13:26:47+06:00,
1000000000238135,77019153339,mKarTel,mKcell,mKcell,,D01,2016-09-01T13:27:31+06:00,
1000000000238137,77018534555,mAltel,mKcell,mKcell,,D07,2016-09-01T13:27:53+06:00,
1000000000238138,77476915527,mKcell,mMTS,mMTS,,D02,2016-09-01T13:28:01+06:00,
1000000000238140,77078115903,mAltel,mMTS,mMTS,,D07,2016-09-01T13:28:39+06:00,
1000000000238141,77019570000,mAltel,mKcell,mKcell,,D07,2016-09-01T13:29:04+06:00,
1000000000238142,77076943924,mKarTel,mMTS,mMTS,,D01,2016-09-01T13:29:44+06:00,
