NPId,Number,RecipientId,DonorId,RangeHolderId,OldRoute,NewRoute,PortDate,RowCount
1000000000129984,77023740004,mAltel,mKcell,mKcell,,D07,2016-03-20T16:30:12+06:00,19
1000000000129988,77057571057,mKcell,mKarTel,mKarTel,,D02,2016-03-20T16:35:28+06:00,
1000000000129990,77029127278,mMTS,mKcell,mKcell,,D77,2016-03-20T16:34:57+06:00,
1000000000129991,77778694062,mMTS,mKarTel,mKarTel,,D77,2016-03-20T16:35:55+06:00,
1000000000129993,77776241777,mMTS,mKarTel,mKarTel,,D77,2016-03-20T16:37:52+06:00,
1000000000129995,77015599806,mAltel,mKcell,mKcell,,D07,2016-03-20T16:37:39+06:00,
1000000000129999,77752168989,mAltel,mKcell,mKcell,,D07,2016-03-20T16:46:26+06:00,
1000000000130000,77781899996,mMTS,mKcell,mKcell,,D77,2016-03-20T16:47:07+06:00,
1000000000130001,77016436433,mMTS,mKcell,mKcell,,D77,2016-03-20T16:47:56+06:00,
1000000000130002,77081151213,mMTS,mAltel,mAltel,,D77,2016-03-20T16:47:50+06:00,
1000000000130003,77011323581,mMTS,mKcell,mKcell,,D77,2016-03-20T16:48:44+06:00,
1000000000130004,77751654441,mMTS,mKcell,mKcell,,D77,2016-03-20T16:48:48+06:00,
1000000000130005,77028516989,mMTS,mKcell,mKcell,,D77,2016-03-20T16:49:33+06:00,
1000000000130007,77771842888,mMTS,mKarTel,mKarTel,,D77,2016-03-20T16:51:03+06:00,
1000000000130008,77005555790,mKarTel,mAltel,mAltel,,D01,2016-03-20T16:51:48+06:00,
1000000000130009,77772632692,mMTS,mKarTel,mKarTel,,D77,2016-03-20T16:53:00+06:00,
1000000000130010,77017706660,mMTS,mKcell,mKcell,,D77,2016-03-20T16:57:35+06:00,
1000000000130011,77021204982,mAltel,mKcell,mKcell,,D07,2016-03-20T16:59:37+06:00,
1000000000130012,77001551980,mMTS,mAltel,mAltel,,D77,2016-03-20T16:59:50+06:00,
