NPId,Number,RecipientId,DonorId,RangeHolderId,OldRoute,NewRoute,PortDate,RowCount
1000000000272348,77077099770,mMTS,mAltel,mMTS,D07,D77,2016-11-10T16:30:46+06:00,36
1000000000273386,77023382255,mMTS,mAltel,mKcell,D07,D77,2016-11-10T16:33:05+06:00,
1000000000273739,77073013001,mAltel,mMTS,mMTS,,D07,2016-11-10T16:34:02+06:00,
1000000000274217,77086913686,mMTS,mAltel,mAltel,,D77,2016-11-10T16:32:13+06:00,
1000000000274453,77081501784,mMTS,mAltel,mAltel,,D77,2016-11-10T16:37:43+06:00,
1000000000274480,77083219291,mMTS,mAltel,mAltel,,D77,2016-11-10T16:35:59+06:00,
1000000000274996,77711926644,mMTS,mAltel,mKarTel,D07,D77,2016-11-10T16:35:18+06:00,
1000000000276942,77478793383,mMTS,mAltel,mMTS,D07,D77,2016-11-10T16:38:23+06:00,
1000000000277339,77014864234,mMTS,mKcell,mKcell,,D77,2016-11-10T16:31:03+06:00,
1000000000277340,77015595691,mMTS,mKcell,mKcell,,D77,2016-11-10T16:31:56+06:00,
1000000000277341,77022477744,mAltel,mKcell,mKcell,,D07,2016-11-10T16:31:58+06:00,
1000000000277342,77014903225,mMTS,mKcell,mKcell,,D77,2016-11-10T16:32:05+06:00,
1000000000277343,77081575484,mMTS,mKarTel,mAltel,D01,D77,2016-11-10T16:32:54+06:00,
1000000000277344,77777099499,mKarTel,mMTS,mKarTel,D77,D01,2016-11-10T16:34:06+06:00,
1000000000277345,77779585858,mAltel,mKarTel,mKarTel,,D07,2016-11-10T16:35:53+06:00,
1000000000277347,77013788899,mAltel,mKcell,mKcell,,D07,2016-11-10T16:37:16+06:00,
1000000000277348,77011566960,mMTS,mKcell,mKcell,,D77,2016-11-10T16:37:34+06:00,
1000000000277349,77017298810,mMTS,mKcell,mKcell,,D77,2016-11-10T16:39:44+06:00,
1000000000277350,77058888088,mAltel,mKarTel,mKarTel,,D07,2016-11-10T16:40:31+06:00,
1000000000277351,77007704077,mKcell,mAltel,mAltel,,D02,2016-11-10T16:40:21+06:00,
1000000000277353,77010335888,mMTS,mKcell,mKcell,,D77,2016-11-10T16:42:20+06:00,
1000000000277356,77013590983,mMTS,mKcell,mKcell,,D77,2016-11-10T16:43:17+06:00,
1000000000277357,77054493959,mMTS,mKarTel,mKarTel,,D77,2016-11-10T16:43:46+06:00,
1000000000277359,77058200682,mKarTel,mMTS,mKarTel,D77,D01,2016-11-10T16:44:30+06:00,
1000000000277360,77789910307,mMTS,mKcell,mKcell,,D77,2016-11-10T16:44:51+06:00,
1000000000277361,77772978852,mKarTel,mMTS,mKarTel,D77,D01,2016-11-10T16:45:27+06:00,
1000000000277364,77012951868,mMTS,mKcell,mKcell,,D77,2016-11-10T16:47:36+06:00,
1000000000277367,77028772746,mMTS,mKcell,mKcell,,D77,2016-11-10T16:50:32+06:00,
1000000000277368,77007870438,mKcell,mAltel,mAltel,,D02,2016-11-10T16:53:49+06:00,
1000000000277369,77011527817,mMTS,mKcell,mKcell,,D77,2016-11-10T16:54:51+06:00,
1000000000277370,77012204609,mMTS,mKcell,mKcell,,D77,2016-11-10T16:55:03+06:00,
1000000000277371,77779073450,mMTS,mKarTel,mKarTel,,D77,2016-11-10T16:53:55+06:00,
1000000000277372,77757144444,mMTS,mKcell,mKcell,,D77,2016-11-10T16:54:13+06:00,
1000000000277374,77006608811,mKcell,mAltel,mAltel,,D02,2016-11-10T16:56:18+06:00,
1000000000277375,77751184444,mAltel,mKcell,mKcell,,D07,2016-11-10T16:58:18+06:00,
1000000000277376,77758368422,mKarTel,mKcell,mKcell,,D01,2016-11-10T16:59:21+06:00,
