NPId,Number,RecipientId,DonorId,RangeHolderId,OldRoute,NewRoute,PortDate,RowCount
1000000000228387,77019248815,mAltel,mKcell,mKcell,,D07,2016-08-13T12:31:55+06:00,18
1000000000228389,77015111891,mKarTel,mAltel,mKcell,D07,D01,2016-08-13T12:32:44+06:00,
1000000000228391,77012101966,mAltel,mKcell,mKcell,,D07,2016-08-13T12:34:56+06:00,
1000000000228393,77754229966,mMTS,mKcell,mKcell,,D77,2016-08-13T12:36:03+06:00,
1000000000228394,77772143999,mAltel,mKarTel,mKarTel,,D07,2016-08-13T12:37:22+06:00,
1000000000228395,77754377584,mMTS,mKcell,mKcell,,D77,2016-08-13T12:37:30+06:00,
1000000000228396,77077267360,mKcell,mMTS,mMTS,,D02,2016-08-13T12:37:57+06:00,
1000000000228397,77016469063,mAltel,mKcell,mKcell,,D07,2016-08-13T12:42:37+06:00,
1000000000228398,77776627777,mKcell,mKarTel,mKarTel,,D02,2016-08-13T12:48:30+06:00,
1000000000228399,77056109539,mMTS,mKarTel,mKarTel,,D77,2016-08-13T12:49:05+06:00,
1000000000228401,77015552652,mKcell,mAltel,mKcell,D07,D02,2016-08-13T12:50:03+06:00,
1000000000228402,77004747137,mKarTel,mAltel,mAltel,,D01,2016-08-13T12:51:00+06:00,
1000000000228403,77754376982,mMTS,mKcell,mKcell,,D77,2016-08-13T12:52:29+06:00,
1000000000228404,77012775998,mAltel,mKcell,mKcell,,D07,2016-08-13T12:53:19+06:00,
1000000000228405,77003000407,mMTS,mAltel,mAltel,,D77,2016-08-13T12:54:17+06:00,
1000000000228406,77012665044,mAltel,mKcell,mKcell,,D07,2016-08-13T12:54:48+06:00,
1000000000228407,77019398898,mKcell,mAltel,mKcell,D07,D02,2016-08-13T12:55:26+06:00,
1000000000228409,77075566555,mMTS,mKcell,mMTS,D02,D77,2016-08-13T12:59:08+06:00,
