NPId,Number,RecipientId,DonorId,RangeHolderId,OldRoute,NewRoute,PortDate,RowCount
1000000000409926,77015241950,mKcell,mKarTel,mKcell,D01,D02,2017-06-26T16:01:21+06:00,36
1000000000409927,77772356076,mAltel,mKarTel,mKarTel,,D07,2017-06-26T16:00:59+06:00,
1000000000409929,77470810672,mAltel,mMTS,mMTS,,D07,2017-06-26T16:01:29+06:00,
1000000000409930,77055872882,mKarTel,mAltel,mKarTel,D07,D01,2017-06-26T16:03:17+06:00,
1000000000409932,77765444857,mMTS,mKcell,mKarTel,D02,D77,2017-06-26T16:04:20+06:00,
1000000000409933,77764800888,mAltel,mKcell,mKarTel,D02,D07,2017-06-26T16:05:09+06:00,
1000000000409934,77053012107,mMTS,mKarTel,mKarTel,,D77,2017-06-26T16:05:33+06:00,
1000000000409935,77017291188,mKarTel,mKcell,mKcell,,D01,2017-06-26T16:05:30+06:00,
1000000000409936,77027597717,mMTS,mKcell,mKcell,,D77,2017-06-26T16:05:32+06:00,
1000000000409937,77767774857,mMTS,mKcell,mKarTel,D02,D77,2017-06-26T16:07:48+06:00,
1000000000409939,77711311133,mKarTel,mMTS,mKarTel,D77,D01,2017-06-26T16:08:19+06:00,
1000000000409940,77762010605,mMTS,mKcell,mKarTel,D02,D77,2017-06-26T16:09:39+06:00,
1000000000409941,77079074049,mAltel,mMTS,mMTS,,D07,2017-06-26T16:10:21+06:00,
1000000000409942,77077774777,mKcell,mKarTel,mMTS,D01,D02,2017-06-26T16:11:22+06:00,
1000000000409943,77011611110,mMTS,mKcell,mKcell,D02,D77,2017-06-26T16:11:53+06:00,
1000000000409945,77077020270,mKarTel,mMTS,mMTS,,D01,2017-06-26T16:12:49+06:00,
1000000000409946,77088179872,mMTS,mAltel,mAltel,,D77,2017-06-26T16:14:06+06:00,
1000000000409949,77072132311,mKarTel,mMTS,mMTS,,D01,2017-06-26T16:15:39+06:00,
1000000000409950,77764190271,mMTS,mKarTel,mKarTel,,D77,2017-06-26T16:17:16+06:00,
1000000000409953,77474706453,mAltel,mMTS,mMTS,,D07,2017-06-26T16:16:50+06:00,
1000000000409955,77476489220,mAltel,mMTS,mMTS,,D07,2017-06-26T16:17:25+06:00,
1000000000409957,77759222922,mKarTel,mKcell,mKcell,,D01,2017-06-26T16:19:12+06:00,
1000000000409959,77759960038,mKcell,mKarTel,mKcell,D01,D02,2017-06-26T16:21:18+06:00,
1000000000409960,77019457776,mAltel,mKcell,mKcell,,D07,2017-06-26T16:21:23+06:00,
1000000000409961,77077522691,mAltel,mMTS,mMTS,,D07,2017-06-26T16:21:41+06:00,
1000000000409962,77018008205,mKarTel,mKcell,mKcell,,D01,2017-06-26T16:22:30+06:00,
1000000000409963,77788278741,mKarTel,mKcell,mKcell,,D01,2017-06-26T16:22:50+06:00,
1000000000409964,77017776446,mAltel,mKcell,mKcell,,D07,2017-06-26T16:22:49+06:00,
1000000000409965,77017554266,mAltel,mKcell,mKcell,,D07,2017-06-26T16:22:49+06:00,
1000000000409966,77056239134,mAltel,mKarTel,mKarTel,,D07,2017-06-26T16:25:15+06:00,
1000000000409969,77754350782,mMTS,mKcell,mKcell,,D77,2017-06-26T16:25:55+06:00,
1000000000409970,77019457772,mAltel,mKcell,mKcell,,D07,2017-06-26T16:26:21+06:00,
1000000000409971,77071924066,mAltel,mMTS,mMTS,,D07,2017-06-26T16:28:34+06:00,
1000000000409972,77477650403,mAltel,mMTS,mMTS,,D07,2017-06-26T16:28:58+06:00,
1000000000409973,77773166634,mMTS,mKarTel,mKarTel,,D77,2017-06-26T16:29:39+06:00,
1000000000409974,77019450090,mAltel,mKcell,mKcell,,D07,2017-06-26T16:29:42+06:00,
