NPId,Number,RecipientId,DonorId,RangeHolderId,OldRoute,NewRoute,PortDate,RowCount
1000000000256435,77073673567,mMTS,mKarTel,mMTS,D01,D77,2016-10-04T11:03:35+06:00,58
1000000000256436,77778434241,mMTS,mKarTel,mKarTel,,D77,2016-10-04T11:06:27+06:00,
1000000000256437,77009474065,mKarTel,mAltel,mAltel,,D01,2016-10-04T11:10:46+06:00,
1000000000256438,77755709333,mKcell,mMTS,mKcell,D77,D02,2016-10-04T11:11:53+06:00,
1000000000256439,77013661322,mMTS,mKcell,mKcell,,D77,2016-10-04T11:12:29+06:00,
1000000000256440,77771355476,mKcell,mKarTel,mKarTel,,D02,2016-10-04T11:14:00+06:00,
1000000000256441,77007477727,mKarTel,mAltel,mAltel,,D01,2016-10-04T11:14:23+06:00,
1000000000256442,77015520716,mKcell,mKarTel,mKcell,D01,D02,2016-10-04T11:14:49+06:00,
1000000000256443,77012034358,mKarTel,mKcell,mKcell,,D01,2016-10-04T11:16:36+06:00,
1000000000256443,77012034383,mKarTel,mKcell,mKcell,,D01,2016-10-04T11:16:36+06:00,
1000000000256443,77012034394,mKarTel,mKcell,mKcell,,D01,2016-10-04T11:16:36+06:00,
1000000000256443,77015016746,mKarTel,mKcell,mKcell,,D01,2016-10-04T11:16:36+06:00,
1000000000256443,77015016802,mKarTel,mKcell,mKcell,,D01,2016-10-04T11:16:36+06:00,
1000000000256443,77015016803,mKarTel,mKcell,mKcell,,D01,2016-10-04T11:16:36+06:00,
1000000000256443,77015016827,mKarTel,mKcell,mKcell,,D01,2016-10-04T11:16:36+06:00,
1000000000256443,77015016835,mKarTel,mKcell,mKcell,,D01,2016-10-04T11:16:36+06:00,
1000000000256443,77015016836,mKarTel,mKcell,mKcell,,D01,2016-10-04T11:16:36+06:00,
1000000000256443,77015112633,mKarTel,mKcell,mKcell,,D01,2016-10-04T11:16:36+06:00,
1000000000256443,77015115057,mKarTel,mKcell,mKcell,,D01,2016-10-04T11:16:36+06:00,
1000000000256443,77015124982,mKarTel,mKcell,mKcell,,D01,2016-10-04T11:16:36+06:00,
1000000000256443,77015156920,mKarTel,mKcell,mKcell,,D01,2016-10-04T11:16:36+06:00,
1000000000256443,77015264630,mKarTel,mKcell,mKcell,,D01,2016-10-04T11:16:36+06:00,
1000000000256443,77015278992,mKarTel,mKcell,mKcell,,D01,2016-10-04T11:16:36+06:00,
1000000000256443,77015278993,mKarTel,mKcell,mKcell,,D01,2016-10-04T11:16:36+06:00,
1000000000256443,77015287270,mKarTel,mKcell,mKcell,,D01,2016-10-04T11:16:36+06:00,
1000000000256443,77015287276,mKarTel,mKcell,mKcell,,D01,2016-10-04T11:16:36+06:00,
1000000000256443,77015287279,mKarTel,mKcell,mKcell,,D01,2016-10-04T11:16:36+06:00,
1000000000256443,77015291947,mKarTel,mKcell,mKcell,,D01,2016-10-04T11:16:36+06:00,
1000000000256443,77015291956,mKarTel,mKcell,mKcell,,D01,2016-10-04T11:16:36+06:00,
1000000000256443,77015291966,mKarTel,mKcell,mKcell,,D01,2016-10-04T11:16:36+06:00,
1000000000256443,77015291969,mKarTel,mKcell,mKcell,,D01,2016-10-04T11:16:36+06:00,
1000000000256443,77015321355,mKarTel,mKcell,mKcell,,D01,2016-10-04T11:16:36+06:00,
1000000000256443,77015321382,mKarTel,mKcell,mKcell,,D01,2016-10-04T11:16:36+06:00,
1000000000256443,77015321384,mKarTel,mKcell,mKcell,,D01,2016-10-04T11:16:36+06:00,
1000000000256443,77015347800,mKarTel,mKcell,mKcell,,D01,2016-10-04T11:16:36+06:00,
1000000000256443,77015347812,mKarTel,mKcell,mKcell,,D01,2016-10-04T11:16:36+06:00,
1000000000256443,77015368324,mKarTel,mKcell,mKcell,,D01,2016-10-04T11:16:36+06:00,
1000000000256443,77015368343,mKarTel,mKcell,mKcell,,D01,2016-10-04T11:16:36+06:00,
1000000000256443,77015368362,mKarTel,mKcell,mKcell,,D01,2016-10-04T11:16:36+06:00,
1000000000256443,77015443862,mKarTel,mKcell,mKcell,,D01,2016-10-04T11:16:36+06:00,
1000000000256443,77015887980,mKarTel,mKcell,mKcell,,D01,2016-10-04T11:16:36+06:00,
1000000000256443,77017943578,mKarTel,mKcell,mKcell,,D01,2016-10-04T11:16:36+06:00,
1000000000256443,77019131007,mKarTel,mKcell,mKcell,,D01,2016-10-04T11:16:36+06:00,
1000000000256443,77019131009,mKarTel,mKcell,mKcell,,D01,2016-10-04T11:16:36+06:00,
1000000000256443,77019821028,mKarTel,mKcell,mKcell,,D01,2016-10-04T11:16:36+06:00,
1000000000256444,77079888059,mKarTel,mMTS,mMTS,,D01,2016-10-04T11:16:02+06:00,
1000000000256447,77015839021,mAltel,mKcell,mKcell,,D07,2016-10-04T11:17:15+06:00,
1000000000256451,77001111165,mKcell,mAltel,mAltel,,D02,2016-10-04T11:23:02+06:00,
1000000000256452,77788828821,mMTS,mKcell,mKcell,,D77,2016-10-04T11:23:02+06:00,
1000000000256453,77078205222,mAltel,mMTS,mMTS,,D07,2016-10-04T11:23:15+06:00,
1000000000256454,77074288988,mKarTel,mMTS,mMTS,,D01,2016-10-04T11:23:39+06:00,
1000000000256455,77073808746,mKarTel,mMTS,mMTS,,D01,2016-10-04T11:25:05+06:00,
1000000000256456,77477635040,mKarTel,mMTS,mMTS,,D01,2016-10-04T11:26:07+06:00,
1000000000256457,77074801600,mKarTel,mMTS,mMTS,,D01,2016-10-04T11:26:08+06:00,
1000000000256458,77770001984,mKcell,mKarTel,mKarTel,,D02,2016-10-04T11:27:07+06:00,
1000000000256461,77077508647,mKarTel,mMTS,mMTS,,D01,2016-10-04T11:27:25+06:00,
1000000000256462,77015241710,mKarTel,mKcell,mKcell,,D01,2016-10-04T11:28:28+06:00,
1000000000256463,77012184164,mAltel,mKcell,mKcell,,D07,2016-10-04T11:29:08+06:00,
