NPId,Number,RecipientId,DonorId,RangeHolderId,OldRoute,NewRoute,PortDate,RowCount
1000000000307189,77077773884,mKcell,mMTS,mMTS,,D02,2017-01-07T17:00:55+06:00,13
1000000000307190,77762130754,mMTS,mKarTel,mKarTel,,D77,2017-01-07T17:02:06+06:00,
1000000000307191,77756724444,mMTS,mAltel,mKcell,D07,D77,2017-01-07T17:03:38+06:00,
1000000000307192,77076882020,mAltel,mMTS,mMTS,,D07,2017-01-07T17:04:28+06:00,
1000000000307193,77015125697,mMTS,mKcell,mKcell,,D77,2017-01-07T17:08:31+06:00,
1000000000307195,77772272228,mMTS,mKarTel,mKarTel,,D77,2017-01-07T17:12:56+06:00,
1000000000307196,77762222281,mKcell,mKarTel,mKarTel,,D02,2017-01-07T17:16:46+06:00,
1000000000307198,77769260970,mKcell,mKarTel,mKarTel,,D02,2017-01-07T17:18:35+06:00,
1000000000307199,77078951833,mKcell,mMTS,mMTS,,D02,2017-01-07T17:18:36+06:00,
1000000000307200,77787868686,mMTS,mKcell,mKcell,,D77,2017-01-07T17:22:25+06:00,
1000000000307201,77015375853,mMTS,mKcell,mKcell,,D77,2017-01-07T17:22:46+06:00,
1000000000307204,77007351024,mKarTel,mAltel,mAltel,,D01,2017-01-07T17:27:12+06:00,
1000000000307206,77020003222,mMTS,mKcell,mKcell,,D77,2017-01-07T17:28:23+06:00,
