NPId,Number,RecipientId,DonorId,RangeHolderId,OldRoute,NewRoute,PortDate,RowCount
1000000000428937,77012728829,mMTS,mKcell,mKcell,,D77,2017-07-26T18:31:01+06:00,17
1000000000428938,77072345667,mKarTel,mAltel,mMTS,D07,D01,2017-07-26T18:31:05+06:00,
1000000000428939,77052464785,mKarTel,mAltel,mKarTel,D07,D01,2017-07-26T18:34:20+06:00,
1000000000428940,77004446055,mKarTel,mAltel,mAltel,,D01,2017-07-26T18:34:20+06:00,
1000000000428941,77002100300,mMTS,mAltel,mAltel,,D77,2017-07-26T18:34:13+06:00,
1000000000428942,77765905995,mMTS,mKarTel,mKarTel,,D77,2017-07-26T18:36:57+06:00,
1000000000428943,77022235700,mKarTel,mKcell,mKcell,,D01,2017-07-26T18:37:24+06:00,
1000000000428944,77018003839,mKcell,mMTS,mKcell,D77,D02,2017-07-26T18:37:25+06:00,
1000000000428946,77056204807,mKcell,mAltel,mKarTel,D07,D02,2017-07-26T18:40:03+06:00,
1000000000428947,77009683620,mMTS,mAltel,mAltel,,D77,2017-07-26T18:42:09+06:00,
1000000000428948,77016294219,mMTS,mKcell,mKcell,,D77,2017-07-26T18:42:21+06:00,
1000000000428949,77785055660,mMTS,mKcell,mKcell,,D77,2017-07-26T18:45:28+06:00,
1000000000428950,77072464787,mMTS,mAltel,mMTS,D07,D77,2017-07-26T18:46:10+06:00,
1000000000428952,77058064082,mMTS,mKarTel,mKarTel,,D77,2017-07-26T18:52:51+06:00,
1000000000428953,77076537201,mKarTel,mMTS,mMTS,,D01,2017-07-26T18:55:05+06:00,
1000000000428954,77016160961,mAltel,mKcell,mKcell,,D07,2017-07-26T18:58:30+06:00,
1000000000428955,77026151849,mAltel,mKcell,mKcell,,D07,2017-07-26T18:59:52+06:00,
