NPId,Number,RecipientId,DonorId,RangeHolderId,OldRoute,NewRoute,PortDate,RowCount
1000000000147775,77079446600,mMTS,mAltel,mMTS,D07,D77,2016-04-11T07:06:57+06:00,2
1000000000147776,77054140004,mMTS,mKarTel,mKarTel,,D77,2016-04-11T07:13:48+06:00,
