NPId,Number,RecipientId,DonorId,RangeHolderId,OldRoute,NewRoute,PortDate,RowCount
1000000000318334,77785952240,mKarTel,mKcell,mKcell,,D01,2017-01-28T17:07:55+06:00,22
1000000000318336,77785313629,mMTS,mKcell,mKcell,,D77,2017-01-28T17:07:41+06:00,
1000000000318339,77027269393,mMTS,mKcell,mKcell,,D77,2017-01-28T17:07:46+06:00,
1000000000318340,77015211294,mKarTel,mKcell,mKcell,,D01,2017-01-28T17:08:06+06:00,
1000000000318341,77011717716,mKarTel,mKcell,mKcell,,D01,2017-01-28T17:08:00+06:00,
1000000000318343,77756220048,mMTS,mKcell,mKcell,,D77,2017-01-28T17:07:48+06:00,
1000000000318344,77017688571,mAltel,mKcell,mKcell,,D07,2017-01-28T17:07:52+06:00,
1000000000318348,77773931075,mKcell,mKarTel,mKarTel,,D02,2017-01-28T17:01:53+06:00,
1000000000318349,77087601059,mKcell,mAltel,mAltel,,D02,2017-01-28T17:01:53+06:00,
1000000000318350,77076070705,mKcell,mMTS,mMTS,,D02,2017-01-28T17:01:54+06:00,
1000000000318352,77058787854,mMTS,mKarTel,mKarTel,,D77,2017-01-28T17:01:59+06:00,
1000000000318353,77778397267,mAltel,mKarTel,mKarTel,,D07,2017-01-28T17:03:58+06:00,
1000000000318354,77078636666,mMTS,mKcell,mMTS,D02,D77,2017-01-28T17:07:48+06:00,
1000000000318356,77051022277,mMTS,mKarTel,mKarTel,,D77,2017-01-28T17:07:56+06:00,
1000000000318357,77778397163,mAltel,mKarTel,mKarTel,,D07,2017-01-28T17:07:57+06:00,
1000000000318361,77713240903,mMTS,mKarTel,mKarTel,,D77,2017-01-28T17:11:30+06:00,
1000000000318362,77779117760,mMTS,mKarTel,mKarTel,,D77,2017-01-28T17:13:21+06:00,
1000000000318363,77772278863,mAltel,mKarTel,mKarTel,,D07,2017-01-28T17:15:51+06:00,
1000000000318364,77776602955,mMTS,mKarTel,mKarTel,,D77,2017-01-28T17:16:38+06:00,
1000000000318369,77775519922,mKarTel,mAltel,mKarTel,D07,D01,2017-01-28T17:27:41+06:00,
1000000000318370,77775519911,mKarTel,mAltel,mKarTel,D07,D01,2017-01-28T17:27:46+06:00,
1000000000318374,77770915273,mMTS,mKarTel,mKarTel,,D77,2017-01-28T17:29:12+06:00,
