NPId,Number,RecipientId,DonorId,RangeHolderId,OldRoute,NewRoute,PortDate,RowCount
1000000000352839,77010349347,mKarTel,mKcell,mKcell,,D01,2017-03-27T16:18:00+06:00,35
1000000000352839,77010541365,mKarTel,mKcell,mKcell,,D01,2017-03-27T16:18:00+06:00,
1000000000352839,77010716304,mKarTel,mKcell,mKcell,,D01,2017-03-27T16:18:00+06:00,
1000000000352839,77015433101,mKarTel,mKcell,mKcell,,D01,2017-03-27T16:18:00+06:00,
1000000000353306,77019920008,mAltel,mKcell,mKcell,,D07,2017-03-27T16:00:12+06:00,
1000000000353309,77712880009,mMTS,mKcell,mKarTel,D02,D77,2017-03-27T16:00:47+06:00,
1000000000353310,77779886848,mMTS,mKarTel,mKarTel,,D77,2017-03-27T16:02:07+06:00,
1000000000353311,77759700083,mKarTel,mKcell,mKcell,,D01,2017-03-27T16:02:36+06:00,
1000000000353312,77471570072,mKcell,mMTS,mMTS,,D02,2017-03-27T16:03:50+06:00,
1000000000353313,77088999628,mMTS,mAltel,mAltel,,D77,2017-03-27T16:04:26+06:00,
1000000000353314,77003339683,mMTS,mAltel,mAltel,,D77,2017-03-27T16:05:31+06:00,
1000000000353315,77471115864,mKcell,mMTS,mMTS,,D02,2017-03-27T16:05:49+06:00,
1000000000353316,77027299158,mAltel,mKcell,mKcell,,D07,2017-03-27T16:06:03+06:00,
1000000000353317,77473983240,mKcell,mMTS,mMTS,,D02,2017-03-27T16:06:32+06:00,
1000000000353318,77089039257,mKarTel,mAltel,mAltel,,D01,2017-03-27T16:08:40+06:00,
1000000000353320,77471570073,mKcell,mMTS,mMTS,,D02,2017-03-27T16:09:41+06:00,
1000000000353321,77779777600,mKcell,mKarTel,mKarTel,,D02,2017-03-27T16:12:05+06:00,
1000000000353322,77001489000,mMTS,mAltel,mAltel,,D77,2017-03-27T16:10:18+06:00,
1000000000353324,77011871080,mKcell,mAltel,mKcell,D07,D02,2017-03-27T16:11:37+06:00,
1000000000353325,77007772937,mKcell,mAltel,mAltel,,D02,2017-03-27T16:13:43+06:00,
1000000000353326,77752244574,mKcell,mMTS,mKcell,D77,D02,2017-03-27T16:14:08+06:00,
1000000000353328,77471110177,mKcell,mMTS,mMTS,,D02,2017-03-27T16:13:21+06:00,
1000000000353329,77007772650,mKcell,mAltel,mAltel,,D02,2017-03-27T16:15:33+06:00,
1000000000353331,77013887247,mMTS,mKcell,mKcell,,D77,2017-03-27T16:16:48+06:00,
1000000000353333,77029827055,mAltel,mKcell,mKcell,,D07,2017-03-27T16:16:53+06:00,
1000000000353334,77772872881,mMTS,mKarTel,mKarTel,,D77,2017-03-27T16:18:11+06:00,
1000000000353337,77015276690,mMTS,mKcell,mKcell,,D77,2017-03-27T16:20:16+06:00,
1000000000353338,77089642938,mKcell,mAltel,mAltel,,D02,2017-03-27T16:20:29+06:00,
1000000000353339,77000007026,mKcell,mAltel,mAltel,,D02,2017-03-27T16:21:51+06:00,
1000000000353340,77017324964,mKcell,mAltel,mKcell,D07,D02,2017-03-27T16:22:04+06:00,
1000000000353342,77471110188,mKcell,mMTS,mMTS,,D02,2017-03-27T16:24:33+06:00,
1000000000353345,77015409101,mKcell,mMTS,mKcell,D77,D02,2017-03-27T16:27:33+06:00,
1000000000353346,77025335500,mKarTel,mMTS,mKcell,D77,D01,2017-03-27T16:27:01+06:00,
1000000000353348,77014507541,mKarTel,mKcell,mKcell,,D01,2017-03-27T16:28:52+06:00,
1000000000353349,77756311908,mAltel,mKcell,mKcell,,D07,2017-03-27T16:29:35+06:00,
