NPId,Number,RecipientId,DonorId,RangeHolderId,OldRoute,NewRoute,PortDate,RowCount
1000000000369822,77013778565,mKarTel,mAltel,mKcell,D07,D01,2017-04-22T09:02:46+06:00,3
1000000000369823,77711290488,mKcell,mKarTel,mKarTel,,D02,2017-04-22T09:06:06+06:00,
1000000000369825,77029868118,mKarTel,mAltel,mKcell,D07,D01,2017-04-22T09:11:01+06:00,
