NPId,Number,RecipientId,DonorId,RangeHolderId,OldRoute,NewRoute,PortDate,RowCount
1000000000152232,77053813634,mKcell,mKarTel,mKarTel,,D02,2016-04-14T21:15:05+06:00,2
1000000000152234,77015764510,mMTS,mKcell,mKcell,,D77,2016-04-14T21:21:53+06:00,
