NPId,Number,RecipientId,DonorId,RangeHolderId,OldRoute,NewRoute,PortDate,RowCount
1000000000272543,77053323328,mKcell,mKarTel,mKarTel,,D02,2016-11-02T14:02:22+06:00,27
1000000000272545,77024190059,mMTS,mKcell,mKcell,,D77,2016-11-02T14:02:45+06:00,
1000000000272546,77026882243,mMTS,mKcell,mKcell,,D77,2016-11-02T14:03:33+06:00,
1000000000272549,77015557548,mMTS,mKcell,mKcell,,D77,2016-11-02T14:06:31+06:00,
1000000000272550,77028761848,mKarTel,mKcell,mKcell,,D01,2016-11-02T14:06:42+06:00,
1000000000272551,77015219818,mMTS,mKcell,mKcell,,D77,2016-11-02T14:07:08+06:00,
1000000000272552,77019302767,mMTS,mKcell,mKcell,,D77,2016-11-02T14:07:40+06:00,
1000000000272553,77074443155,mKcell,mMTS,mMTS,,D02,2016-11-02T14:10:16+06:00,
1000000000272554,77758791888,mKcell,mKarTel,mKcell,D01,D02,2016-11-02T14:09:16+06:00,
1000000000272555,77019341966,mKcell,mMTS,mKcell,D77,D02,2016-11-02T14:09:17+06:00,
1000000000272556,77784963401,mKarTel,mKcell,mKcell,,D01,2016-11-02T14:11:18+06:00,
1000000000272557,77711700770,mKcell,mKarTel,mKarTel,,D02,2016-11-02T14:11:52+06:00,
1000000000272559,77073574656,mKarTel,mMTS,mMTS,,D01,2016-11-02T14:13:16+06:00,
1000000000272560,77771328617,mMTS,mKarTel,mKarTel,,D77,2016-11-02T14:15:02+06:00,
1000000000272561,77023754722,mKarTel,mKcell,mKcell,,D01,2016-11-02T14:14:54+06:00,
1000000000272562,77017802778,mKcell,mMTS,mKcell,D77,D02,2016-11-02T14:15:21+06:00,
1000000000272563,77059111001,mKcell,mKarTel,mKarTel,,D02,2016-11-02T14:16:55+06:00,
1000000000272564,77019970111,mKcell,mKarTel,mKcell,D01,D02,2016-11-02T14:17:01+06:00,
1000000000272565,77022888816,mKarTel,mKcell,mKcell,,D01,2016-11-02T14:17:53+06:00,
1000000000272566,77014342232,mMTS,mKcell,mKcell,,D77,2016-11-02T14:17:38+06:00,
1000000000272567,77078780722,mKarTel,mMTS,mMTS,,D01,2016-11-02T14:18:16+06:00,
1000000000272569,77078880122,mKarTel,mMTS,mMTS,,D01,2016-11-02T14:20:04+06:00,
1000000000272572,77078880120,mKarTel,mMTS,mMTS,,D01,2016-11-02T14:22:05+06:00,
1000000000272577,77000918191,mKcell,mAltel,mAltel,,D02,2016-11-02T14:27:38+06:00,
1000000000272578,77761131730,mMTS,mKarTel,mKarTel,,D77,2016-11-02T14:27:52+06:00,
1000000000272580,77022688830,mMTS,mKcell,mKcell,,D77,2016-11-02T14:28:19+06:00,
1000000000272581,77758879299,mMTS,mKcell,mKcell,,D77,2016-11-02T14:29:03+06:00,
