NPId,Number,RecipientId,DonorId,RangeHolderId,OldRoute,NewRoute,PortDate,RowCount
1000000000159125,77081005586,mMTS,mAltel,mAltel,,D77,2016-04-24T12:30:55+06:00,17
1000000000159126,77774457918,mMTS,mKarTel,mKarTel,,D77,2016-04-24T12:32:19+06:00,
1000000000159128,77026092904,mMTS,mKcell,mKcell,,D77,2016-04-24T12:33:46+06:00,
1000000000159129,77011515600,mKcell,mAltel,mKcell,D07,D02,2016-04-24T12:34:02+06:00,
1000000000159130,77017411844,mMTS,mKcell,mKcell,,D77,2016-04-24T12:34:31+06:00,
1000000000159131,77751981919,mMTS,mKcell,mKcell,,D77,2016-04-24T12:36:53+06:00,
1000000000159132,77017994792,mMTS,mKcell,mKcell,,D77,2016-04-24T12:38:54+06:00,
1000000000159133,77085184474,mMTS,mAltel,mAltel,,D77,2016-04-24T12:39:22+06:00,
1000000000159134,77783397222,mMTS,mKcell,mKcell,,D77,2016-04-24T12:42:12+06:00,
1000000000159135,77781458881,mMTS,mKcell,mKcell,,D77,2016-04-24T12:46:11+06:00,
1000000000159139,77011051021,mMTS,mKcell,mKcell,,D77,2016-04-24T12:51:06+06:00,
1000000000159140,77017854012,mMTS,mKcell,mKcell,,D77,2016-04-24T12:52:06+06:00,
1000000000159141,77767702007,mMTS,mKarTel,mKarTel,,D77,2016-04-24T12:52:24+06:00,
1000000000159142,77003009940,mKcell,mAltel,mAltel,,D02,2016-04-24T12:52:34+06:00,
1000000000159144,77019825760,mAltel,mMTS,mKcell,D77,D07,2016-04-24T12:55:20+06:00,
1000000000159145,77081020901,mMTS,mAltel,mAltel,,D77,2016-04-24T12:56:58+06:00,
1000000000159148,77004200005,mKarTel,mAltel,mAltel,,D01,2016-04-24T12:59:43+06:00,
