NPId,Number,RecipientId,DonorId,RangeHolderId,OldRoute,NewRoute,PortDate,RowCount
1000000000093394,77010273415,mKarTel,mKcell,mKcell,,D01,2016-02-19T17:32:04+06:00,50
1000000000093394,77012185488,mKarTel,mKcell,mKcell,,D01,2016-02-19T17:32:04+06:00,
1000000000093394,77015314816,mKarTel,mKcell,mKcell,,D01,2016-02-19T17:32:04+06:00,
1000000000093394,77015345693,mKarTel,mKcell,mKcell,,D01,2016-02-19T17:32:04+06:00,
1000000000093394,77015715866,mKarTel,mKcell,mKcell,,D01,2016-02-19T17:32:04+06:00,
1000000000093394,77017484236,mKarTel,mKcell,mKcell,,D01,2016-02-19T17:32:04+06:00,
1000000000093394,77017658227,mKarTel,mKcell,mKcell,,D01,2016-02-19T17:32:04+06:00,
1000000000093394,77017843012,mKarTel,mKcell,mKcell,,D01,2016-02-19T17:32:04+06:00,
1000000000093394,77019723225,mKarTel,mKcell,mKcell,,D01,2016-02-19T17:32:04+06:00,
1000000000093394,77022101877,mKarTel,mKcell,mKcell,,D01,2016-02-19T17:32:04+06:00,
1000000000093394,77022101882,mKarTel,mKcell,mKcell,,D01,2016-02-19T17:32:04+06:00,
1000000000093394,77022103866,mKarTel,mKcell,mKcell,,D01,2016-02-19T17:32:04+06:00,
1000000000093394,77022136525,mKarTel,mKcell,mKcell,,D01,2016-02-19T17:32:04+06:00,
1000000000093733,77085835457,mKarTel,mAltel,mAltel,,D01,2016-02-19T17:30:28+06:00,
1000000000093734,77787888108,mMTS,mKcell,mKcell,,D77,2016-02-19T17:30:45+06:00,
1000000000093735,77085835452,mKarTel,mAltel,mAltel,,D01,2016-02-19T17:31:41+06:00,
1000000000093736,77770766969,mKcell,mKarTel,mKarTel,,D02,2016-02-19T17:32:37+06:00,
1000000000093738,77015203804,mKarTel,mKcell,mKcell,,D01,2016-02-19T17:32:44+06:00,
1000000000093739,77017665259,mMTS,mKcell,mKcell,,D77,2016-02-19T17:32:29+06:00,
1000000000093742,77012775056,mAltel,mKcell,mKcell,,D07,2016-02-19T17:33:30+06:00,
1000000000093743,77760200050,mMTS,mKarTel,mKarTel,,D77,2016-02-19T17:34:04+06:00,
1000000000093745,77711344705,mMTS,mKarTel,mKarTel,,D77,2016-02-19T17:34:10+06:00,
1000000000093746,77077104639,mAltel,mMTS,mMTS,,D07,2016-02-19T17:34:07+06:00,
1000000000093747,77714236665,mKcell,mKarTel,mKarTel,,D02,2016-02-19T17:34:43+06:00,
1000000000093748,77017630858,mAltel,mKcell,mKcell,,D07,2016-02-19T17:35:25+06:00,
1000000000093749,77085835469,mKarTel,mAltel,mAltel,,D01,2016-02-19T17:35:28+06:00,
1000000000093753,77013614136,mMTS,mKcell,mKcell,,D77,2016-02-19T17:37:42+06:00,
1000000000093754,77017662667,mAltel,mKcell,mKcell,,D07,2016-02-19T17:39:07+06:00,
1000000000093755,77011012400,mAltel,mKcell,mKcell,,D07,2016-02-19T17:39:32+06:00,
1000000000093756,77072219275,mKarTel,mMTS,mMTS,,D01,2016-02-19T17:40:53+06:00,
1000000000093758,77766888188,mAltel,mKarTel,mKarTel,,D07,2016-02-19T17:41:59+06:00,
1000000000093759,77025757527,mMTS,mKcell,mKcell,,D77,2016-02-19T17:41:50+06:00,
1000000000093761,77014560029,mMTS,mKcell,mKcell,,D77,2016-02-19T17:43:17+06:00,
1000000000093762,77085835498,mKarTel,mAltel,mAltel,,D01,2016-02-19T17:46:49+06:00,
1000000000093763,77085835493,mKarTel,mAltel,mAltel,,D01,2016-02-19T17:47:17+06:00,
1000000000093764,77023314191,mAltel,mKcell,mKcell,,D07,2016-02-19T17:47:40+06:00,
1000000000093766,77781142003,mAltel,mKcell,mKcell,,D07,2016-02-19T17:48:11+06:00,
1000000000093767,77012704271,mMTS,mKcell,mKcell,,D77,2016-02-19T17:48:27+06:00,
1000000000093770,77073623416,mKarTel,mMTS,mMTS,,D01,2016-02-19T17:50:39+06:00,
1000000000093771,77774774444,mKcell,mKarTel,mKarTel,,D02,2016-02-19T17:51:36+06:00,
1000000000093772,77017278210,mAltel,mKcell,mKcell,,D07,2016-02-19T17:51:23+06:00,
1000000000093773,77775189608,mAltel,mKarTel,mKarTel,,D07,2016-02-19T17:51:34+06:00,
1000000000093774,77085835479,mKarTel,mAltel,mAltel,,D01,2016-02-19T17:53:05+06:00,
1000000000093775,77718401987,mKcell,mKarTel,mKarTel,,D02,2016-02-19T17:56:03+06:00,
1000000000093776,77085835473,mKarTel,mAltel,mAltel,,D01,2016-02-19T17:54:50+06:00,
1000000000093778,77085835636,mKarTel,mAltel,mAltel,,D01,2016-02-19T17:56:42+06:00,
1000000000093779,77078928863,mAltel,mMTS,mMTS,,D07,2016-02-19T17:57:07+06:00,
1000000000093780,77781599996,mAltel,mKcell,mKcell,,D07,2016-02-19T17:58:26+06:00,
1000000000093781,77753517431,mMTS,mKcell,mKcell,,D77,2016-02-19T17:59:08+06:00,
1000000000093783,77779162130,mMTS,mKarTel,mKarTel,,D77,2016-02-19T17:59:46+06:00,
