NPId,Number,RecipientId,DonorId,RangeHolderId,OldRoute,NewRoute,PortDate,RowCount
1000000000157382,77754344582,mMTS,mKcell,mKcell,,D77,2016-04-21T15:31:39+06:00,28
1000000000157383,77003097613,mKarTel,mAltel,mAltel,,D01,2016-04-21T15:31:54+06:00,
1000000000157384,77082968866,mMTS,mAltel,mAltel,,D77,2016-04-21T15:32:14+06:00,
1000000000157386,77022221341,mKcell,mMTS,mKcell,D77,D02,2016-04-21T15:33:24+06:00,
1000000000157387,77785078607,mMTS,mKcell,mKcell,,D77,2016-04-21T15:34:17+06:00,
1000000000157390,77764977770,mMTS,mKarTel,mKarTel,,D77,2016-04-21T15:36:58+06:00,
1000000000157391,77762202003,mKcell,mKarTel,mKarTel,,D02,2016-04-21T15:37:39+06:00,
1000000000157394,77014746413,mMTS,mKcell,mKcell,,D77,2016-04-21T15:39:55+06:00,
1000000000157396,77013816661,mMTS,mAltel,mKcell,D07,D77,2016-04-21T15:40:01+06:00,
1000000000157397,77005157745,mMTS,mAltel,mAltel,,D77,2016-04-21T15:40:29+06:00,
1000000000157399,77055557121,mMTS,mAltel,mKarTel,D07,D77,2016-04-21T15:42:13+06:00,
1000000000157400,77752361439,mMTS,mKcell,mKcell,,D77,2016-04-21T15:43:15+06:00,
1000000000157401,77016200927,mAltel,mKcell,mKcell,,D07,2016-04-21T15:43:57+06:00,
1000000000157402,77477759999,mKarTel,mMTS,mMTS,,D01,2016-04-21T15:45:19+06:00,
1000000000157403,77016586669,mMTS,mKcell,mKcell,,D77,2016-04-21T15:49:34+06:00,
1000000000157405,77089115010,mMTS,mAltel,mAltel,,D77,2016-04-21T15:46:10+06:00,
1000000000157406,77788201000,mMTS,mKcell,mKcell,,D77,2016-04-21T15:49:34+06:00,
1000000000157407,77027951222,mMTS,mKcell,mKcell,,D77,2016-04-21T15:49:34+06:00,
1000000000157409,77056537000,mAltel,mKarTel,mKarTel,,D07,2016-04-21T15:50:59+06:00,
1000000000157411,77013762805,mMTS,mKcell,mKcell,,D77,2016-04-21T15:52:02+06:00,
1000000000157413,77071226077,mMTS,mKcell,mMTS,D02,D77,2016-04-21T15:52:47+06:00,
1000000000157414,77774156699,mMTS,mKarTel,mKarTel,,D77,2016-04-21T15:52:53+06:00,
1000000000157415,77475209595,mKcell,mMTS,mMTS,,D02,2016-04-21T15:53:14+06:00,
1000000000157416,77785360600,mKcell,mMTS,mKcell,D77,D02,2016-04-21T15:53:13+06:00,
1000000000157417,77086249859,mMTS,mAltel,mAltel,,D77,2016-04-21T15:55:21+06:00,
1000000000157418,77000840804,mKcell,mAltel,mAltel,,D02,2016-04-21T15:57:20+06:00,
1000000000157419,77026415641,mMTS,mKcell,mKcell,,D77,2016-04-21T15:57:52+06:00,
1000000000157420,77084444400,mKcell,mAltel,mAltel,,D02,2016-04-21T15:58:41+06:00,
