NPId,Number,RecipientId,DonorId,RangeHolderId,OldRoute,NewRoute,PortDate,RowCount
1000000000183865,77770407755,mKarTel,mAltel,mKarTel,D07,D01,2016-05-30T15:30:24+06:00,15
1000000000183866,77077823517,mMTS,mKarTel,mMTS,D01,D77,2016-05-30T15:30:34+06:00,
1000000000183867,77777990000,mKarTel,mAltel,mKarTel,D07,D01,2016-05-30T15:30:49+06:00,
1000000000183868,77075334723,mKarTel,mMTS,mMTS,,D01,2016-05-30T15:33:01+06:00,
1000000000183874,77082410056,mKarTel,mAltel,mAltel,,D01,2016-05-30T15:39:22+06:00,
1000000000183875,77007749779,mMTS,mAltel,mAltel,,D77,2016-05-30T15:39:55+06:00,
1000000000183880,77771809306,mMTS,mKarTel,mKarTel,,D77,2016-05-30T15:45:58+06:00,
1000000000183881,77005683828,mMTS,mAltel,mAltel,,D77,2016-05-30T15:45:50+06:00,
1000000000183882,77767701010,mMTS,mKarTel,mKarTel,,D77,2016-05-30T15:46:44+06:00,
1000000000183883,77776724446,mMTS,mKarTel,mKarTel,,D77,2016-05-30T15:47:04+06:00,
1000000000183888,77072050002,mAltel,mMTS,mMTS,,D07,2016-05-30T15:51:23+06:00,
1000000000183892,77002171996,mMTS,mAltel,mAltel,,D77,2016-05-30T15:53:07+06:00,
1000000000183894,77776312703,mKarTel,mAltel,mKarTel,D07,D01,2016-05-30T15:54:19+06:00,
1000000000183895,77013669941,mKarTel,mMTS,mKcell,D77,D01,2016-05-30T15:56:30+06:00,
1000000000183898,77076115223,mKarTel,mMTS,mMTS,,D01,2016-05-30T15:58:30+06:00,
