NPId,Number,RecipientId,DonorId,RangeHolderId,OldRoute,NewRoute,PortDate,RowCount
1000000000233838,77028188884,mKcell,mMTS,mKcell,D77,D02,2016-08-25T11:30:43+06:00,17
1000000000233840,77021405325,mKcell,mMTS,mKcell,D77,D02,2016-08-25T11:34:09+06:00,
1000000000233842,77000880002,mKcell,mAltel,mAltel,,D02,2016-08-25T11:39:10+06:00,
1000000000233843,77026351531,mAltel,mKcell,mKcell,,D07,2016-08-25T11:39:40+06:00,
1000000000233844,77017798220,mKarTel,mKcell,mKcell,,D01,2016-08-25T11:41:54+06:00,
1000000000233845,77758271823,mMTS,mKcell,mKcell,,D77,2016-08-25T11:42:39+06:00,
1000000000233846,77009676041,mMTS,mAltel,mAltel,,D77,2016-08-25T11:43:39+06:00,
1000000000233848,77004326070,mAltel,mKcell,mAltel,D02,D07,2016-08-25T11:45:46+06:00,
1000000000233849,77017842397,mKcell,mMTS,mKcell,D77,D02,2016-08-25T11:47:17+06:00,
1000000000233850,77087533260,mMTS,mAltel,mAltel,,D77,2016-08-25T11:47:19+06:00,
1000000000233851,77051116622,mAltel,mKarTel,mKarTel,,D07,2016-08-25T11:49:40+06:00,
1000000000233853,77027400303,mMTS,mKcell,mKcell,,D77,2016-08-25T11:52:02+06:00,
1000000000233855,77011116622,mAltel,mKcell,mKcell,,D07,2016-08-25T11:52:36+06:00,
1000000000233856,77051179707,mMTS,mKarTel,mKarTel,,D77,2016-08-25T11:54:00+06:00,
1000000000233859,77759388628,mMTS,mKcell,mKcell,,D77,2016-08-25T11:57:27+06:00,
1000000000233860,77089497067,mMTS,mAltel,mAltel,,D77,2016-08-25T11:58:17+06:00,
1000000000233861,77775979808,mKarTel,mMTS,mKarTel,D77,D01,2016-08-25T11:58:39+06:00,
