NPId,Number,RecipientId,DonorId,RangeHolderId,OldRoute,NewRoute,PortDate,RowCount
1000000000367531,77787314666,mKarTel,mKcell,mKcell,,D01,2017-04-18T10:04:29+06:00,10
1000000000367532,77719197575,mKarTel,mMTS,mKarTel,D77,D01,2017-04-18T10:04:49+06:00,
1000000000367533,77015114302,mMTS,mKcell,mKcell,,D77,2017-04-18T10:04:48+06:00,
1000000000367534,77001982808,mMTS,mAltel,mAltel,,D77,2017-04-18T10:07:48+06:00,
1000000000367535,77786252530,mMTS,mKcell,mKcell,,D77,2017-04-18T10:11:12+06:00,
1000000000367536,77055581058,mKarTel,mAltel,mKarTel,D07,D01,2017-04-18T10:14:24+06:00,
1000000000367539,77471202733,mKcell,mMTS,mMTS,,D02,2017-04-18T10:20:44+06:00,
1000000000367540,77078491973,mMTS,mAltel,mMTS,D07,D77,2017-04-18T10:20:52+06:00,
1000000000367542,77072752342,mKcell,mMTS,mMTS,,D02,2017-04-18T10:28:06+06:00,
1000000000367543,77080286666,mKarTel,mAltel,mAltel,,D01,2017-04-18T10:28:02+06:00,
