NPId,Number,RecipientId,DonorId,RangeHolderId,OldRoute,NewRoute,PortDate,RowCount
1000000000317575,77016294742,mAltel,mKcell,mKcell,,D07,2017-01-27T14:31:46+06:00,21
1000000000317576,77081585899,mKarTel,mAltel,mAltel,,D01,2017-01-27T14:33:29+06:00,
1000000000317577,77716977774,mKcell,mKarTel,mKarTel,,D02,2017-01-27T14:35:47+06:00,
1000000000317578,77019571120,mMTS,mKcell,mKcell,,D77,2017-01-27T14:36:32+06:00,
1000000000317579,77017091053,mKcell,mKarTel,mKcell,D01,D02,2017-01-27T14:37:33+06:00,
1000000000317581,77013372209,mMTS,mKcell,mKcell,,D77,2017-01-27T14:37:12+06:00,
1000000000317582,77774619981,mMTS,mKarTel,mKarTel,,D77,2017-01-27T14:38:02+06:00,
1000000000317583,77009992031,mMTS,mAltel,mAltel,,D77,2017-01-27T14:38:34+06:00,
1000000000317584,77475792999,mMTS,mKcell,mMTS,D02,D77,2017-01-27T14:41:09+06:00,
1000000000317586,77776192589,mAltel,mKarTel,mKarTel,,D07,2017-01-27T14:42:53+06:00,
1000000000317588,77784745869,mMTS,mKcell,mKcell,D02,D77,2017-01-27T14:42:47+06:00,
1000000000317589,77012355130,mMTS,mKcell,mKcell,,D77,2017-01-27T14:42:47+06:00,
1000000000317590,77018001870,mKarTel,mKcell,mKcell,,D01,2017-01-27T14:43:16+06:00,
1000000000317593,77022736999,mMTS,mKcell,mKcell,,D77,2017-01-27T14:46:32+06:00,
1000000000317594,77055224313,mMTS,mKarTel,mKarTel,,D77,2017-01-27T14:47:55+06:00,
1000000000317595,77075900009,mKarTel,mMTS,mMTS,,D01,2017-01-27T14:48:55+06:00,
1000000000317596,77017769977,mMTS,mKcell,mKcell,,D77,2017-01-27T14:48:54+06:00,
1000000000317597,77088890966,mKcell,mAltel,mAltel,,D02,2017-01-27T14:51:44+06:00,
1000000000317598,77786518651,mKarTel,mKcell,mKcell,,D01,2017-01-27T14:54:42+06:00,
1000000000317599,77005552407,mMTS,mAltel,mAltel,,D77,2017-01-27T14:57:51+06:00,
1000000000317600,77479090723,mKcell,mMTS,mMTS,,D02,2017-01-27T14:58:50+06:00,
