NPId,Number,RecipientId,DonorId,RangeHolderId,OldRoute,NewRoute,PortDate,RowCount
1000000000224622,77779650162,mMTS,mKarTel,mKarTel,,D77,2016-08-06T15:36:32+06:00,14
1000000000224624,77774054478,mMTS,mKarTel,mKarTel,,D77,2016-08-06T15:39:42+06:00,
1000000000224627,77771696906,mKcell,mKarTel,mKarTel,,D02,2016-08-06T15:41:37+06:00,
1000000000224628,77009626461,mMTS,mAltel,mAltel,,D77,2016-08-06T15:42:17+06:00,
1000000000224629,77027652568,mMTS,mKcell,mKcell,,D77,2016-08-06T15:44:48+06:00,
1000000000224632,77017470035,mKcell,mKarTel,mKcell,D01,D02,2016-08-06T15:45:16+06:00,
1000000000224633,77081196371,mMTS,mAltel,mAltel,,D77,2016-08-06T15:43:23+06:00,
1000000000224635,77057389480,mKcell,mKarTel,mKarTel,,D02,2016-08-06T15:50:24+06:00,
1000000000224637,77007973739,mMTS,mAltel,mAltel,,D77,2016-08-06T15:48:09+06:00,
1000000000224638,77082090200,mAltel,mMTS,mAltel,D77,D07,2016-08-06T15:49:49+06:00,
1000000000224639,77016690569,mKcell,mAltel,mKcell,D07,D02,2016-08-06T15:54:55+06:00,
1000000000224640,77051683184,mKcell,mKarTel,mKarTel,,D02,2016-08-06T15:54:25+06:00,
1000000000224645,77022669151,mKarTel,mKcell,mKcell,,D01,2016-08-06T15:55:49+06:00,
1000000000224648,77072260584,mAltel,mMTS,mMTS,,D07,2016-08-06T15:58:22+06:00,
