NPId,Number,RecipientId,DonorId,RangeHolderId,OldRoute,NewRoute,PortDate,RowCount
1000000000192391,77784831301,mKcell,mAltel,mKcell,D07,D02,2016-06-13T11:30:34+06:00,35
1000000000192394,77718479594,mKcell,mKarTel,mKarTel,,D02,2016-06-13T11:34:15+06:00,
1000000000192395,77772570680,mMTS,mKarTel,mKarTel,,D77,2016-06-13T11:32:54+06:00,
1000000000192396,77770377778,mMTS,mKarTel,mKarTel,,D77,2016-06-13T11:33:20+06:00,
1000000000192397,77085283447,mMTS,mAltel,mAltel,,D77,2016-06-13T11:33:56+06:00,
1000000000192398,77072889088,mMTS,mKarTel,mMTS,D01,D77,2016-06-13T11:34:24+06:00,
1000000000192399,77025592323,mKcell,mMTS,mKcell,D77,D02,2016-06-13T11:35:24+06:00,
1000000000192400,77714100383,mKcell,mKarTel,mKarTel,,D02,2016-06-13T11:36:18+06:00,
1000000000192401,77022578653,mMTS,mKcell,mKcell,,D77,2016-06-13T11:37:01+06:00,
1000000000192402,77718479597,mKcell,mKarTel,mKarTel,,D02,2016-06-13T11:39:59+06:00,
1000000000192404,77774557545,mAltel,mKarTel,mKarTel,,D07,2016-06-13T11:40:13+06:00,
1000000000192405,77774998555,mMTS,mKarTel,mKarTel,,D77,2016-06-13T11:40:25+06:00,
1000000000192406,77756126169,mMTS,mKcell,mKcell,,D77,2016-06-13T11:41:31+06:00,
1000000000192407,77013093885,mMTS,mKcell,mKcell,,D77,2016-06-13T11:42:16+06:00,
1000000000192408,77761192755,mMTS,mKarTel,mKarTel,,D77,2016-06-13T11:42:28+06:00,
1000000000192410,77772229390,mKcell,mKarTel,mKarTel,,D02,2016-06-13T11:43:25+06:00,
1000000000192411,77013270579,mKcell,mMTS,mKcell,D77,D02,2016-06-13T11:43:09+06:00,
1000000000192412,77017302200,mKcell,mMTS,mKcell,D77,D02,2016-06-13T11:43:10+06:00,
1000000000192413,77784071611,mAltel,mKcell,mKcell,,D07,2016-06-13T11:43:35+06:00,
1000000000192414,77777621970,mMTS,mKarTel,mKarTel,,D77,2016-06-13T11:45:11+06:00,
1000000000192415,77077474983,mKcell,mMTS,mMTS,,D02,2016-06-13T11:45:38+06:00,
1000000000192416,77771119093,mKcell,mKarTel,mKarTel,,D02,2016-06-13T11:46:13+06:00,
1000000000192417,77715779474,mKcell,mKarTel,mKarTel,,D02,2016-06-13T11:46:28+06:00,
1000000000192420,77010155777,mKarTel,mKcell,mKcell,,D01,2016-06-13T11:48:13+06:00,
1000000000192421,77073570080,mKarTel,mMTS,mMTS,,D01,2016-06-13T11:48:25+06:00,
1000000000192422,77052531384,mAltel,mKarTel,mKarTel,,D07,2016-06-13T11:50:04+06:00,
1000000000192423,77777717558,mKarTel,mKcell,mKarTel,D02,D01,2016-06-13T11:50:43+06:00,
1000000000192425,77718479598,mKcell,mKarTel,mKarTel,,D02,2016-06-13T11:53:40+06:00,
1000000000192426,77014457400,mKcell,mMTS,mKcell,D77,D02,2016-06-13T11:53:39+06:00,
1000000000192427,77014187179,mKcell,mAltel,mKcell,D07,D02,2016-06-13T11:53:57+06:00,
1000000000192428,77073430082,mKcell,mMTS,mMTS,,D02,2016-06-13T11:54:13+06:00,
1000000000192431,77776396689,mKarTel,mMTS,mKarTel,D77,D01,2016-06-13T11:55:18+06:00,
1000000000192432,77019990985,mMTS,mKcell,mKcell,,D77,2016-06-13T11:55:50+06:00,
1000000000192433,77003641798,mMTS,mAltel,mAltel,,D77,2016-06-13T11:57:09+06:00,
1000000000192434,77011721451,mMTS,mKcell,mKcell,,D77,2016-06-13T11:57:31+06:00,
