NPId,Number,RecipientId,DonorId,RangeHolderId,OldRoute,NewRoute,PortDate,RowCount
1000000000426072,77017719193,mKarTel,mMTS,mKcell,D77,D01,2017-07-21T19:00:23+06:00,13
1000000000426073,77777062460,mKarTel,mMTS,mKarTel,D77,D01,2017-07-21T19:00:34+06:00,
1000000000426074,77075065001,mAltel,mMTS,mMTS,,D07,2017-07-21T19:01:42+06:00,
1000000000426075,77760555353,mKcell,mKarTel,mKarTel,,D02,2017-07-21T19:03:03+06:00,
1000000000426077,77022956306,mKarTel,mKcell,mKcell,,D01,2017-07-21T19:03:07+06:00,
1000000000426078,77754145414,mKarTel,mKcell,mKcell,,D01,2017-07-21T19:04:03+06:00,
1000000000426080,77769911515,mKcell,mKarTel,mKarTel,,D02,2017-07-21T19:04:40+06:00,
1000000000426086,77761112004,mKcell,mKarTel,mKarTel,,D02,2017-07-21T19:12:25+06:00,
1000000000426087,77024444424,mKcell,mAltel,mKcell,D07,D02,2017-07-21T19:14:41+06:00,
1000000000426088,77022862024,mMTS,mKcell,mKcell,,D77,2017-07-21T19:14:41+06:00,
1000000000426090,77475151511,mKarTel,mMTS,mMTS,,D01,2017-07-21T19:19:38+06:00,
1000000000426091,77085414447,mKarTel,mAltel,mAltel,,D01,2017-07-21T19:27:01+06:00,
1000000000426092,77017074217,mKcell,mMTS,mKcell,D77,D02,2017-07-21T19:26:58+06:00,
