NPId,Number,RecipientId,DonorId,RangeHolderId,OldRoute,NewRoute,PortDate,RowCount
1000000000395690,77026253262,mMTS,mKcell,mKcell,,D77,2017-06-02T12:00:50+06:00,31
1000000000395691,77024383828,mAltel,mKcell,mKcell,,D07,2017-06-02T12:01:46+06:00,
1000000000395692,77774009990,mMTS,mKarTel,mKarTel,,D77,2017-06-02T12:02:17+06:00,
1000000000395693,77017144380,mMTS,mKcell,mKcell,,D77,2017-06-02T12:02:58+06:00,
1000000000395694,77472934215,mMTS,mKarTel,mMTS,D01,D77,2017-06-02T12:04:15+06:00,
1000000000395695,77015116938,mKarTel,mKcell,mKcell,,D01,2017-06-02T12:05:02+06:00,
1000000000395696,77019381111,mKcell,mKarTel,mKcell,D01,D02,2017-06-02T12:06:13+06:00,
1000000000395698,77015214033,mMTS,mKcell,mKcell,,D77,2017-06-02T12:08:03+06:00,
1000000000395699,77019805377,mKarTel,mKcell,mKcell,,D01,2017-06-02T12:08:52+06:00,
1000000000395700,77775155553,mKarTel,mMTS,mKarTel,D77,D01,2017-06-02T12:10:04+06:00,
1000000000395702,77072525073,mAltel,mMTS,mMTS,,D07,2017-06-02T12:10:17+06:00,
1000000000395703,77782065330,mAltel,mKcell,mKcell,,D07,2017-06-02T12:10:44+06:00,
1000000000395704,77777825755,mKarTel,mMTS,mKarTel,D77,D01,2017-06-02T12:11:16+06:00,
1000000000395705,77479800790,mMTS,mKarTel,mMTS,D01,D77,2017-06-02T12:11:51+06:00,
1000000000395706,77018879031,mKarTel,mKcell,mKcell,,D01,2017-06-02T12:11:49+06:00,
1000000000395707,77775630275,mMTS,mKarTel,mKarTel,,D77,2017-06-02T12:12:34+06:00,
1000000000395708,77087423055,mKarTel,mAltel,mAltel,,D01,2017-06-02T12:12:27+06:00,
1000000000395709,77011505552,mKcell,mAltel,mKcell,D07,D02,2017-06-02T12:12:38+06:00,
1000000000395710,77476760858,mMTS,mKarTel,mMTS,D01,D77,2017-06-02T12:13:22+06:00,
1000000000395711,77479800784,mMTS,mKarTel,mMTS,D01,D77,2017-06-02T12:14:44+06:00,
1000000000395712,77475647222,mKarTel,mMTS,mMTS,,D01,2017-06-02T12:15:21+06:00,
1000000000395713,77003003272,mMTS,mAltel,mAltel,,D77,2017-06-02T12:16:17+06:00,
1000000000395714,77778843876,mAltel,mKarTel,mKarTel,,D07,2017-06-02T12:17:14+06:00,
1000000000395715,77756007700,mMTS,mAltel,mKcell,D07,D77,2017-06-02T12:18:12+06:00,
1000000000395717,77773933333,mKcell,mKarTel,mKarTel,,D02,2017-06-02T12:19:47+06:00,
1000000000395719,77015260674,mKcell,mKarTel,mKcell,D01,D02,2017-06-02T12:22:32+06:00,
1000000000395720,77027000926,mKcell,mMTS,mKcell,D77,D02,2017-06-02T12:22:39+06:00,
1000000000395721,77077323861,mKcell,mMTS,mMTS,,D02,2017-06-02T12:22:55+06:00,
1000000000395722,77053333862,mMTS,mKarTel,mKarTel,,D77,2017-06-02T12:25:18+06:00,
1000000000395725,77055381618,mMTS,mKarTel,mKarTel,,D77,2017-06-02T12:28:14+06:00,
1000000000395727,77056802028,mMTS,mKarTel,mKarTel,,D77,2017-06-02T12:29:11+06:00,
