NPId,Number,RecipientId,DonorId,RangeHolderId,OldRoute,NewRoute,PortDate,RowCount
1000000000271228,77717758539,mKcell,mKarTel,mKarTel,,D02,2016-10-31T16:35:35+06:00,29
1000000000271237,77019988900,mKcell,mKarTel,mKcell,D01,D02,2016-10-31T16:30:37+06:00,
1000000000271238,77005556414,mKcell,mAltel,mAltel,,D02,2016-10-31T16:30:13+06:00,
1000000000271248,77077630057,mMTS,mKarTel,mMTS,D01,D77,2016-10-31T16:30:17+06:00,
1000000000271250,77053272987,mMTS,mKarTel,mKarTel,,D77,2016-10-31T16:30:43+06:00,
1000000000271251,77014555822,mMTS,mKcell,mKcell,,D77,2016-10-31T16:30:37+06:00,
1000000000271252,77005556434,mKcell,mAltel,mAltel,,D02,2016-10-31T16:36:57+06:00,
1000000000271253,77012896659,mMTS,mKarTel,mKcell,D01,D77,2016-10-31T16:31:30+06:00,
1000000000271254,77782225451,mKarTel,mKcell,mKcell,,D01,2016-10-31T16:32:27+06:00,
1000000000271256,77074175834,mKcell,mMTS,mMTS,,D02,2016-10-31T16:33:24+06:00,
1000000000271258,77782222334,mKcell,mMTS,mKcell,D77,D02,2016-10-31T16:33:40+06:00,
1000000000271259,77015265688,mKarTel,mKcell,mKcell,,D01,2016-10-31T16:33:45+06:00,
1000000000271260,77713001286,mKcell,mKarTel,mKarTel,,D02,2016-10-31T16:51:13+06:00,
1000000000271261,77052266699,mKarTel,mMTS,mKarTel,D77,D01,2016-10-31T16:36:55+06:00,
1000000000271262,77079709030,mKarTel,mMTS,mMTS,,D01,2016-10-31T16:37:15+06:00,
1000000000271263,77776505292,mKarTel,mMTS,mKarTel,D77,D01,2016-10-31T16:37:20+06:00,
1000000000271264,77011410632,mMTS,mKcell,mKcell,,D77,2016-10-31T16:38:42+06:00,
1000000000271267,77058830388,mKarTel,mAltel,mKarTel,D07,D01,2016-10-31T16:41:40+06:00,
1000000000271268,77056076782,mMTS,mKarTel,mKarTel,,D77,2016-10-31T16:42:09+06:00,
1000000000271270,77755383608,mMTS,mKcell,mKcell,,D77,2016-10-31T16:43:55+06:00,
1000000000271271,77756975690,mAltel,mKcell,mKcell,,D07,2016-10-31T16:44:45+06:00,
1000000000271273,77762447254,mMTS,mKarTel,mKarTel,,D77,2016-10-31T16:46:35+06:00,
1000000000271277,77015182582,mMTS,mKcell,mKcell,,D77,2016-10-31T16:51:20+06:00,
1000000000271278,77754663338,mKarTel,mKcell,mKcell,,D01,2016-10-31T16:51:44+06:00,
1000000000271281,77756975680,mAltel,mKcell,mKcell,,D07,2016-10-31T16:56:05+06:00,
1000000000271283,77473926292,mAltel,mMTS,mMTS,,D07,2016-10-31T16:54:05+06:00,
1000000000271285,77021192515,mAltel,mKcell,mKcell,,D07,2016-10-31T16:58:35+06:00,
1000000000271287,77054804448,mAltel,mKarTel,mKarTel,,D07,2016-10-31T16:56:13+06:00,
1000000000271289,77054740906,mAltel,mKarTel,mKarTel,,D07,2016-10-31T16:59:56+06:00,
