NPId,Number,RecipientId,DonorId,RangeHolderId,OldRoute,NewRoute,PortDate,RowCount
1000000000264090,77015111800,mAltel,mKcell,mKcell,,D07,2016-10-18T09:09:28+06:00,3
1000000000264093,77000009987,mAltel,mMTS,mAltel,D77,D07,2016-10-18T09:22:32+06:00,
1000000000264095,77713528500,mKcell,mKarTel,mKarTel,,D02,2016-10-18T09:28:25+06:00,
