NPId,Number,RecipientId,DonorId,RangeHolderId,OldRoute,NewRoute,PortDate,RowCount
1000000000148543,77015381150,mMTS,mKcell,mKcell,,D77,2016-04-11T16:43:59+06:00,65
1000000000148756,77082000080,mKcell,mAltel,mAltel,,D02,2016-04-11T16:48:57+06:00,
1000000000148803,77014144768,mKcell,mKarTel,mKcell,D01,D02,2016-04-11T16:47:00+06:00,
1000000000148810,77073613236,mKcell,mMTS,mMTS,,D02,2016-04-11T16:48:55+06:00,
1000000000148811,77018888705,mMTS,mKcell,mKcell,,D77,2016-04-11T16:43:53+06:00,
1000000000148812,77025590555,mMTS,mKcell,mKcell,,D77,2016-04-11T16:44:00+06:00,
1000000000148815,77022977849,mMTS,mKcell,mKcell,,D77,2016-04-11T16:43:59+06:00,
1000000000148817,77024256382,mMTS,mKcell,mKcell,,D77,2016-04-11T16:43:59+06:00,
1000000000148818,77781007117,mMTS,mKcell,mKcell,,D77,2016-04-11T16:43:57+06:00,
1000000000148824,77019001339,mMTS,mKcell,mKcell,,D77,2016-04-11T16:43:57+06:00,
1000000000148826,77021218075,mMTS,mKcell,mKcell,,D77,2016-04-11T16:44:00+06:00,
1000000000148827,77029533556,mMTS,mKcell,mKcell,,D77,2016-04-11T16:43:57+06:00,
1000000000148829,77762111797,mKarTel,mKcell,mKarTel,D02,D01,2016-04-11T16:44:40+06:00,
1000000000148830,77785408080,mMTS,mKcell,mKcell,,D77,2016-04-11T16:43:57+06:00,
1000000000148831,77011840940,mAltel,mKcell,mKcell,,D07,2016-04-11T16:43:59+06:00,
1000000000148832,77007573388,mMTS,mAltel,mAltel,,D77,2016-04-11T16:37:23+06:00,
1000000000148835,77015272317,mAltel,mKcell,mKcell,,D07,2016-04-11T16:43:53+06:00,
1000000000148839,77015527873,mKarTel,mKcell,mKcell,,D01,2016-04-11T16:44:42+06:00,
1000000000148840,77077877767,mMTS,mAltel,mMTS,D07,D77,2016-04-11T16:41:54+06:00,
1000000000148841,77757471704,mMTS,mKcell,mKcell,,D77,2016-04-11T16:44:04+06:00,
1000000000148842,77758464666,mMTS,mKcell,mKcell,,D77,2016-04-11T16:43:53+06:00,
1000000000148844,77019297051,mAltel,mKcell,mKcell,,D07,2016-04-11T16:43:58+06:00,
1000000000148845,77024608260,mMTS,mKcell,mKcell,,D77,2016-04-11T16:48:47+06:00,
1000000000148846,77000888880,mMTS,mAltel,mAltel,,D77,2016-04-11T16:44:06+06:00,
1000000000148848,77026156602,mKarTel,mKcell,mKcell,,D01,2016-04-11T16:49:19+06:00,
1000000000148849,77003241010,mMTS,mAltel,mAltel,,D77,2016-04-11T16:46:24+06:00,
1000000000148850,77758720181,mMTS,mKcell,mKcell,,D77,2016-04-11T16:48:47+06:00,
1000000000148852,77781038723,mMTS,mKcell,mKcell,,D77,2016-04-11T16:48:42+06:00,
1000000000148854,77007878797,mKcell,mAltel,mAltel,,D02,2016-04-11T16:48:57+06:00,
1000000000148855,77716091010,mKcell,mKarTel,mKarTel,,D02,2016-04-11T16:51:40+06:00,
1000000000148856,77073612975,mKcell,mMTS,mMTS,,D02,2016-04-11T16:50:20+06:00,
1000000000148857,77479546816,mKcell,mMTS,mMTS,,D02,2016-04-11T16:50:18+06:00,
1000000000148858,77478983482,mKcell,mMTS,mMTS,,D02,2016-04-11T16:50:18+06:00,
1000000000148859,77019392144,mKcell,mAltel,mKcell,D07,D02,2016-04-11T16:50:19+06:00,
1000000000148860,77005555290,mKcell,mAltel,mAltel,,D02,2016-04-11T16:50:21+06:00,
1000000000148862,77753330800,mKcell,mMTS,mKcell,D77,D02,2016-04-11T16:50:21+06:00,
1000000000148863,77003314972,mKcell,mAltel,mAltel,,D02,2016-04-11T16:50:20+06:00,
1000000000148864,77073613148,mKcell,mMTS,mMTS,,D02,2016-04-11T16:50:22+06:00,
1000000000148865,77478983483,mKcell,mMTS,mMTS,,D02,2016-04-11T16:50:22+06:00,
1000000000148866,77017955867,mKcell,mKarTel,mKcell,D01,D02,2016-04-11T16:51:40+06:00,
1000000000148868,77479230634,mKcell,mMTS,mMTS,,D02,2016-04-11T16:50:22+06:00,
1000000000148869,77479546815,mKcell,mMTS,mMTS,,D02,2016-04-11T16:50:23+06:00,
1000000000148870,77010669993,mKcell,mMTS,mKcell,D77,D02,2016-04-11T16:51:03+06:00,
1000000000148873,77475550252,mKcell,mMTS,mMTS,,D02,2016-04-11T16:51:02+06:00,
1000000000148874,77073622346,mKcell,mMTS,mMTS,,D02,2016-04-11T16:50:22+06:00,
1000000000148875,77017705940,mKcell,mMTS,mKcell,D77,D02,2016-04-11T16:51:03+06:00,
1000000000148876,77027349332,mKcell,mAltel,mKcell,D07,D02,2016-04-11T16:50:23+06:00,
1000000000148877,77057048305,mKarTel,mAltel,mKarTel,D07,D01,2016-04-11T16:50:11+06:00,
1000000000148878,77056406667,mKarTel,mMTS,mKarTel,D77,D01,2016-04-11T16:50:10+06:00,
1000000000148881,77026599004,mMTS,mKcell,mKcell,,D77,2016-04-11T16:51:41+06:00,
1000000000148882,77051015612,mAltel,mKarTel,mKarTel,,D07,2016-04-11T16:53:20+06:00,
1000000000148883,77752066557,mMTS,mKcell,mKcell,,D77,2016-04-11T16:52:03+06:00,
1000000000148884,77085136071,mKcell,mAltel,mAltel,,D02,2016-04-11T16:52:41+06:00,
1000000000148885,77057923291,mMTS,mKarTel,mKarTel,,D77,2016-04-11T16:54:42+06:00,
1000000000148886,77025671940,mKarTel,mKcell,mKcell,,D01,2016-04-11T16:53:58+06:00,
1000000000148887,77479546817,mKcell,mMTS,mMTS,,D02,2016-04-11T16:54:21+06:00,
1000000000148888,77075651871,mKarTel,mMTS,mMTS,,D01,2016-04-11T16:54:39+06:00,
1000000000148890,77003367656,mMTS,mAltel,mAltel,,D77,2016-04-11T16:54:10+06:00,
1000000000148891,77479546818,mKcell,mMTS,mMTS,,D02,2016-04-11T16:54:43+06:00,
1000000000148892,77478983481,mKcell,mMTS,mMTS,,D02,2016-04-11T16:54:59+06:00,
1000000000148893,77786796016,mKarTel,mKcell,mKcell,,D01,2016-04-11T16:56:45+06:00,
1000000000148894,77022330973,mMTS,mKcell,mKcell,,D77,2016-04-11T16:56:18+06:00,
1000000000148896,77001082522,mMTS,mAltel,mAltel,,D77,2016-04-11T16:56:48+06:00,
1000000000148897,77752523613,mMTS,mKcell,mKcell,,D77,2016-04-11T16:57:18+06:00,
1000000000148899,77479546812,mKcell,mMTS,mMTS,,D02,2016-04-11T16:59:51+06:00,
