Number,OwnerId,MNC,Route,PortDate,RowCount
77000222000,mKcell,02,D02,2015-12-31T14:47:53+06:00,389
77006428143,mMTS,77,D77,2015-12-04T11:49:30+06:00,
77006428440,mMTS,77,D77,2015-12-15T10:51:52+06:00,
77006428441,mMTS,77,D77,2015-12-14T11:49:51+06:00,
77006428854,mMTS,77,D77,2015-12-08T16:53:34+06:00,
77006428855,mMTS,77,D77,2015-12-09T10:00:41+06:00,
77006428856,mMTS,77,D77,2015-12-15T16:18:14+06:00,
77007771705,mKcell,02,D02,2015-12-09T15:42:39+06:00,
77011966858,mKarTel,01,D01,2015-12-08T15:54:20+06:00,
77013040044,mAltel,07,D07,2015-12-11T16:24:21+06:00,
77014682010,mAltel,07,D07,2016-01-04T16:06:48+06:00,
77015122251,mKarTel,01,D01,2015-12-25T19:13:53+06:00,
77015122725,mKarTel,01,D01,2015-12-14T16:42:37+06:00,
77015218724,mKarTel,01,D01,2015-12-25T18:40:07+06:00,
77015558890,mKarTel,01,D01,2015-12-14T16:21:42+06:00,
77017434947,mKarTel,01,D01,2016-01-04T18:49:05+06:00,
77017475149,mAltel,07,D07,2016-01-04T18:27:51+06:00,
77017661772,mMTS,77,D77,2015-12-29T10:01:38+06:00,
77017996333,mKcell,02,D02,2015-12-24T17:20:22+06:00,
77018038004,mKarTel,01,D01,2016-01-04T09:01:49+06:00,
77018038005,mKarTel,01,D01,2016-01-04T09:01:50+06:00,
77019999990,mKarTel,01,D01,2015-12-25T19:08:17+06:00,
77022065697,mMTS,77,D77,2015-12-30T16:47:36+06:00,
77022068017,mKarTel,01,D01,2015-12-22T10:39:32+06:00,
77022068018,mKarTel,01,D01,2015-12-22T10:39:32+06:00,
77022226391,mMTS,77,D77,2015-12-29T12:58:22+06:00,
77024446668,mMTS,77,D77,2015-12-25T19:28:59+06:00,
77025439879,mAltel,07,D07,2016-01-04T15:04:07+06:00,
77026660505,mKarTel,01,D01,2016-01-04T18:38:27+06:00,
77051050336,mKcell,02,D02,2015-12-21T18:58:30+06:00,
77051123381,mKcell,02,D02,2015-12-23T16:49:29+06:00,
77051138116,mKcell,02,D02,2015-12-25T14:46:46+06:00,
77051377450,mAltel,07,D07,2016-01-04T14:53:25+06:00,
77051413974,mKcell,02,D02,2015-12-21T19:14:52+06:00,
77051965823,mKcell,02,D02,2015-12-25T12:16:24+06:00,
77051965960,mKcell,02,D02,2015-12-18T10:21:43+06:00,
77051966084,mKcell,02,D02,2015-12-25T11:55:22+06:00,
77051966103,mKcell,02,D02,2015-12-25T12:20:30+06:00,
77051966338,mKcell,02,D02,2015-12-26T19:37:43+06:00,
77051966684,mKcell,02,D02,2015-12-25T12:08:27+06:00,
77051967655,mKcell,02,D02,2015-12-24T19:10:51+06:00,
77051967672,mKcell,02,D02,2015-12-24T18:01:12+06:00,
77051968177,mKcell,02,D02,2015-12-24T16:09:45+06:00,
77051968447,mKcell,02,D02,2015-12-14T13:08:58+06:00,
77051968455,mKcell,02,D02,2015-12-25T17:44:15+06:00,
77051968473,mKcell,02,D02,2015-12-18T14:04:19+06:00,
77051968566,mKcell,02,D02,2015-12-31T14:19:53+06:00,
77051968724,mKcell,02,D02,2015-12-18T20:08:41+06:00,
77051968774,mKcell,02,D02,2015-12-15T19:39:29+06:00,
77051968824,mKcell,02,D02,2015-12-18T19:57:55+06:00,
77051968954,mKcell,02,D02,2015-12-14T18:58:12+06:00,
77051968959,mKcell,02,D02,2015-12-15T11:12:43+06:00,
77053827086,mKcell,02,D02,2015-12-16T11:55:07+06:00,
77056502957,mKcell,02,D02,2015-12-14T15:03:42+06:00,
77056803815,mKcell,02,D02,2015-12-31T14:58:04+06:00,
77057399403,mKcell,02,D02,2015-12-23T01:36:19+06:00,
77057410403,mKcell,02,D02,2015-12-21T12:22:36+06:00,
77057421273,mKcell,02,D02,2015-12-31T11:41:08+06:00,
77057754330,mMTS,77,D77,2016-01-01T18:23:55+06:00,
77057754356,mMTS,77,D77,2016-01-01T18:30:18+06:00,
77057754361,mMTS,77,D77,2016-01-01T18:33:41+06:00,
77057754412,mMTS,77,D77,2016-01-01T18:35:29+06:00,
77057754473,mMTS,77,D77,2016-01-01T18:37:42+06:00,
77057754495,mMTS,77,D77,2016-01-01T18:53:51+06:00,
77057754624,mMTS,77,D77,2016-01-01T18:40:20+06:00,
77057754671,mMTS,77,D77,2016-01-01T18:43:43+06:00,
77057754678,mMTS,77,D77,2016-01-01T18:48:27+06:00,
77057754696,mMTS,77,D77,2016-01-01T18:51:38+06:00,
77058891071,mKcell,02,D02,2015-12-18T20:16:23+06:00,
77058891288,mKcell,02,D02,2015-12-18T20:14:58+06:00,
77059652820,mKcell,02,D02,2015-12-14T12:57:42+06:00,
77059652821,mKcell,02,D02,2015-12-14T19:35:21+06:00,
77059652838,mKcell,02,D02,2015-12-31T14:38:14+06:00,
77071052642,mAltel,07,D07,2015-12-24T11:45:19+06:00,
77073130544,mKcell,02,D02,2016-01-04T16:23:57+06:00,
77073135477,mAltel,07,D07,2015-12-08T17:21:24+06:00,
77074037826,mKcell,02,D02,2015-12-25T13:10:30+06:00,
77074507978,mKcell,02,D02,2015-12-27T16:44:06+06:00,
77074667947,mKcell,02,D02,2015-12-29T11:22:22+06:00,
77075828183,mKcell,02,D02,2016-01-04T00:01:41+06:00,
77075979997,mKcell,02,D02,2015-12-25T12:19:23+06:00,
77076420187,mAltel,07,D07,2015-12-24T11:46:39+06:00,
77076420383,mAltel,07,D07,2015-12-22T12:49:54+06:00,
77076420388,mAltel,07,D07,2015-12-10T15:25:30+06:00,
77076420391,mAltel,07,D07,2015-12-24T11:43:49+06:00,
77076421241,mAltel,07,D07,2015-12-15T10:57:11+06:00,
77076421242,mAltel,07,D07,2015-12-15T10:47:42+06:00,
77076421257,mKarTel,01,D01,2015-12-07T15:08:48+06:00,
77076421271,mKarTel,01,D01,2015-12-14T09:02:23+06:00,
77076421279,mKarTel,01,D01,2015-12-04T11:53:11+06:00,
77076421280,mKarTel,01,D01,2015-12-14T15:27:19+06:00,
77076421282,mKarTel,01,D01,2015-12-07T15:35:00+06:00,
77076421284,mKarTel,01,D01,2015-12-04T18:00:26+06:00,
77076421285,mKarTel,01,D01,2015-12-07T16:12:48+06:00,
77076421286,mKarTel,01,D01,2015-12-03T12:40:06+06:00,
77076421287,mKarTel,01,D01,2015-12-11T11:57:15+06:00,
77076421288,mKarTel,01,D01,2015-12-03T10:38:53+06:00,
77076421289,mKarTel,01,D01,2015-12-09T09:01:39+06:00,
77076421290,mKarTel,01,D01,2015-12-08T15:51:55+06:00,
77076421295,mKarTel,01,D01,2015-12-04T09:38:23+06:00,
77076421296,mKarTel,01,D01,2015-12-02T12:27:47+06:00,
77076421297,mKarTel,01,D01,2015-12-04T10:07:19+06:00,
77076421298,mKarTel,01,D01,2015-12-04T19:25:50+06:00,
77076421353,mAltel,07,D07,2015-12-30T14:33:07+06:00,
77076421389,mMTS,77,D77,2015-12-09T11:17:33+06:00,
77076421501,mAltel,07,D07,2015-12-03T11:40:00+06:00,
77076421504,mAltel,07,D07,2015-12-08T18:34:51+06:00,
77076421506,mAltel,07,D07,2015-12-24T11:48:08+06:00,
77076421518,mAltel,07,D07,2015-12-14T14:42:36+06:00,
77076421528,mAltel,07,D07,2015-12-11T19:40:25+06:00,
77076421529,mAltel,07,D07,2015-12-11T19:49:47+06:00,
77076421561,mAltel,07,D07,2015-12-09T09:53:26+06:00,
77076421562,mAltel,07,D07,2015-12-09T15:26:59+06:00,
77076421563,mAltel,07,D07,2015-12-09T15:26:59+06:00,
77076421564,mAltel,07,D07,2015-12-09T15:26:59+06:00,
77076421565,mAltel,07,D07,2015-12-09T15:26:59+06:00,
77076421566,mAltel,07,D07,2015-12-09T11:04:50+06:00,
77076421574,mAltel,07,D07,2015-12-09T15:26:59+06:00,
77076421575,mAltel,07,D07,2015-12-09T15:26:59+06:00,
77076421576,mAltel,07,D07,2015-12-09T15:26:59+06:00,
77076421577,mAltel,07,D07,2015-12-09T15:26:59+06:00,
77076421578,mAltel,07,D07,2015-12-09T15:26:59+06:00,
77076421579,mAltel,07,D07,2015-12-09T15:26:59+06:00,
77077769012,mKcell,02,D02,2015-12-14T14:16:10+06:00,
77077769013,mKcell,02,D02,2015-12-14T12:31:58+06:00,
77077769015,mKcell,02,D02,2015-12-31T14:16:43+06:00,
77078030139,mKcell,02,D02,2015-12-28T21:31:30+06:00,
77078030710,mKcell,02,D02,2015-12-28T21:41:34+06:00,
77078030723,mKcell,02,D02,2015-12-28T21:58:18+06:00,
77078070064,mKcell,02,D02,2016-01-02T17:55:08+06:00,
77078394501,mAltel,07,D07,2015-12-31T11:56:03+06:00,
77078736033,mKcell,02,D02,2015-12-25T13:02:25+06:00,
77078736035,mKcell,02,D02,2015-12-25T12:05:00+06:00,
77078736036,mKcell,02,D02,2015-12-25T15:21:48+06:00,
77078736037,mKcell,02,D02,2015-12-24T15:02:36+06:00,
77078736087,mKcell,02,D02,2015-12-25T12:44:12+06:00,
77078736089,mKcell,02,D02,2015-12-25T14:53:29+06:00,
77079037101,mAltel,07,D07,2015-12-14T16:40:33+06:00,
77081056507,mKcell,02,D02,2015-12-14T19:26:29+06:00,
77081206700,mKcell,02,D02,2015-12-23T16:46:50+06:00,
77081206702,mKcell,02,D02,2015-12-24T17:37:37+06:00,
77081206703,mKcell,02,D02,2015-12-24T17:33:17+06:00,
77082226019,mKcell,02,D02,2015-12-16T15:11:35+06:00,
77083150417,mKcell,02,D02,2015-12-29T12:19:23+06:00,
77083657723,mKcell,02,D02,2015-12-25T16:51:22+06:00,
77083657726,mKcell,02,D02,2015-12-25T16:59:48+06:00,
77083767405,mKcell,02,D02,2015-12-25T12:38:03+06:00,
77083767406,mKcell,02,D02,2015-12-24T14:21:23+06:00,
77083767450,mKcell,02,D02,2015-12-24T19:05:23+06:00,
77083767452,mKcell,02,D02,2015-12-25T18:55:52+06:00,
77083767453,mKcell,02,D02,2015-12-24T15:00:29+06:00,
77083767515,mKcell,02,D02,2015-12-24T14:06:27+06:00,
77084144496,mKcell,02,D02,2015-12-25T11:09:51+06:00,
77084144718,mKcell,02,D02,2015-12-28T16:21:17+06:00,
77084144719,mKcell,02,D02,2015-12-28T16:27:01+06:00,
77084145447,mKcell,02,D02,2016-01-04T18:54:21+06:00,
77085352534,mKcell,02,D02,2015-12-25T09:27:33+06:00,
77085352543,mKcell,02,D02,2015-12-23T16:34:43+06:00,
77085359146,mKcell,02,D02,2015-12-18T13:03:26+06:00,
77085600841,mKcell,02,D02,2015-12-22T09:51:18+06:00,
77085600859,mKcell,02,D02,2015-12-21T17:27:19+06:00,
77085600860,mKcell,02,D02,2015-12-25T19:41:44+06:00,
77085600861,mKcell,02,D02,2015-12-21T19:11:16+06:00,
77085600864,mKcell,02,D02,2015-12-22T10:13:49+06:00,
77085600868,mKcell,02,D02,2015-12-25T18:21:28+06:00,
77085600871,mKcell,02,D02,2015-12-22T09:51:25+06:00,
77085600872,mKcell,02,D02,2015-12-21T17:26:11+06:00,
77085600883,mKcell,02,D02,2015-12-21T17:08:24+06:00,
77085600889,mKcell,02,D02,2015-12-15T11:14:32+06:00,
77085600892,mKcell,02,D02,2015-12-21T10:16:54+06:00,
77085600893,mKcell,02,D02,2015-12-21T10:41:55+06:00,
77085600898,mKcell,02,D02,2015-12-21T18:53:43+06:00,
77085600912,mKcell,02,D02,2015-12-21T17:17:40+06:00,
77085600913,mKcell,02,D02,2015-12-22T10:00:08+06:00,
77085600940,mKcell,02,D02,2015-12-28T09:30:45+06:00,
77086295470,mKcell,02,D02,2015-12-26T11:34:58+06:00,
77086295471,mKcell,02,D02,2015-12-25T15:01:41+06:00,
77086295472,mKcell,02,D02,2015-12-25T15:30:17+06:00,
77086324989,mKcell,02,D02,2015-12-28T21:17:47+06:00,
77086324990,mKcell,02,D02,2015-12-31T16:17:38+06:00,
77086324991,mKcell,02,D02,2015-12-28T21:37:53+06:00,
77086324993,mKcell,02,D02,2015-12-31T15:49:01+06:00,
77086326035,mKcell,02,D02,2015-12-21T20:07:21+06:00,
77086350056,mMTS,77,D77,2015-12-09T10:04:30+06:00,
77086350057,mMTS,77,D77,2015-12-09T10:02:17+06:00,
77086350151,mAltel,07,D07,2015-12-18T16:43:17+06:00,
77086351603,mMTS,77,D77,2015-12-14T14:42:11+06:00,
77086354144,mMTS,77,D77,2015-12-15T16:22:22+06:00,
77086354173,mMTS,77,D77,2015-12-14T15:07:24+06:00,
77086529671,mKcell,02,D02,2015-12-21T10:03:43+06:00,
77086529672,mKcell,02,D02,2015-12-17T21:24:04+06:00,
77086529673,mKcell,02,D02,2015-12-21T10:07:01+06:00,
77086529674,mKcell,02,D02,2015-12-31T15:48:15+06:00,
77086529678,mKcell,02,D02,2015-12-21T19:19:24+06:00,
77086529679,mKcell,02,D02,2015-12-17T18:14:47+06:00,
77086529680,mKcell,02,D02,2015-12-31T14:43:46+06:00,
77086529681,mKcell,02,D02,2015-12-16T17:32:09+06:00,
77086529682,mKcell,02,D02,2015-12-16T11:30:46+06:00,
77086530486,mKcell,02,D02,2015-12-29T12:08:38+06:00,
77086684221,mKcell,02,D02,2015-12-24T17:37:53+06:00,
77086684233,mKcell,02,D02,2015-12-24T13:14:45+06:00,
77086684248,mKcell,02,D02,2015-12-24T17:37:42+06:00,
77086684353,mKcell,02,D02,2015-12-24T13:37:41+06:00,
77086776364,mKcell,02,D02,2015-12-18T11:42:06+06:00,
77086779856,mKcell,02,D02,2015-12-16T18:29:12+06:00,
77086856834,mKcell,02,D02,2015-12-15T20:20:38+06:00,
77086865801,mKcell,02,D02,2015-12-25T10:46:55+06:00,
77086865802,mKcell,02,D02,2015-12-25T09:42:16+06:00,
77086865803,mKcell,02,D02,2015-12-25T09:32:23+06:00,
77086865804,mKcell,02,D02,2015-12-25T15:58:27+06:00,
77086865807,mKcell,02,D02,2015-12-25T10:13:44+06:00,
77086872297,mKcell,02,D02,2015-12-18T11:30:31+06:00,
77086872407,mKcell,02,D02,2015-12-22T11:43:21+06:00,
77086872413,mKcell,02,D02,2015-12-23T12:55:33+06:00,
77086874923,mKcell,02,D02,2015-12-22T15:53:27+06:00,
77086875809,mKcell,02,D02,2015-12-18T17:02:56+06:00,
77086880552,mKcell,02,D02,2015-12-28T21:10:00+06:00,
77086880553,mKcell,02,D02,2015-12-28T21:37:17+06:00,
77086880554,mKcell,02,D02,2015-12-18T22:27:58+06:00,
77086880556,mKcell,02,D02,2015-12-18T22:01:50+06:00,
77086880557,mKcell,02,D02,2015-12-18T21:52:01+06:00,
77086880558,mKcell,02,D02,2015-12-18T21:45:12+06:00,
77086880559,mKcell,02,D02,2015-12-18T21:39:50+06:00,
77086880560,mKcell,02,D02,2015-12-28T21:45:35+06:00,
77086880561,mKcell,02,D02,2015-12-18T19:53:33+06:00,
77086881610,mKcell,02,D02,2015-12-28T16:15:00+06:00,
77086884990,mKcell,02,D02,2015-12-15T18:07:57+06:00,
77086889627,mKcell,02,D02,2015-12-22T09:41:15+06:00,
77086889628,mKcell,02,D02,2015-12-21T18:11:22+06:00,
77087087111,mMTS,77,D77,2015-12-14T16:41:49+06:00,
77087644568,mKcell,02,D02,2015-12-31T18:31:48+06:00,
77089233491,mKcell,02,D02,2015-12-18T17:22:16+06:00,
77089259908,mKcell,02,D02,2015-12-25T17:41:35+06:00,
77089259946,mKcell,02,D02,2016-01-01T00:01:34+06:00,
77089259957,mKcell,02,D02,2015-12-25T12:07:11+06:00,
77089260047,mKcell,02,D02,2015-12-28T09:57:57+06:00,
77089260256,mKcell,02,D02,2015-12-31T14:54:50+06:00,
77089260262,mKcell,02,D02,2015-12-25T17:43:31+06:00,
77089260266,mKcell,02,D02,2015-12-31T13:56:53+06:00,
77089264886,mKcell,02,D02,2015-12-24T20:45:08+06:00,
77089264996,mKcell,02,D02,2015-12-31T14:24:47+06:00,
77089265004,mKcell,02,D02,2015-12-25T17:48:39+06:00,
77089265006,mKcell,02,D02,2015-12-25T18:34:50+06:00,
77089265008,mKcell,02,D02,2015-12-31T19:55:45+06:00,
77089265009,mKcell,02,D02,2015-12-25T12:25:58+06:00,
77089265010,mKcell,02,D02,2015-12-25T12:00:43+06:00,
77089265016,mKcell,02,D02,2015-12-28T21:01:55+06:00,
77089265089,mKcell,02,D02,2015-12-14T14:51:33+06:00,
77089265195,mKcell,02,D02,2015-12-21T10:56:25+06:00,
77089265268,mKcell,02,D02,2015-12-15T20:09:17+06:00,
77089265278,mKcell,02,D02,2015-12-15T10:45:29+06:00,
77471152716,mAltel,07,D07,2016-01-04T16:16:51+06:00,
77473652847,mKcell,02,D02,2015-12-24T20:44:41+06:00,
77474083268,mKcell,02,D02,2015-12-25T16:25:11+06:00,
77474458137,mKcell,02,D02,2015-12-31T15:47:21+06:00,
77475630824,mKcell,02,D02,2015-12-28T19:47:50+06:00,
77478085596,mKcell,02,D02,2015-12-31T16:33:41+06:00,
77478880000,mAltel,07,D07,2016-01-04T17:40:22+06:00,
77479067381,mKcell,02,D02,2015-12-25T10:14:26+06:00,
77479067385,mKcell,02,D02,2015-12-25T09:32:44+06:00,
77479067399,mKcell,02,D02,2015-12-25T20:15:05+06:00,
77479067406,mKcell,02,D02,2015-12-25T14:25:35+06:00,
77479067408,mKcell,02,D02,2015-12-25T14:00:30+06:00,
77479067411,mKcell,02,D02,2015-12-24T20:32:10+06:00,
77479067412,mKcell,02,D02,2015-12-24T20:43:45+06:00,
77479067413,mKcell,02,D02,2015-12-24T20:37:23+06:00,
77479067417,mKcell,02,D02,2015-12-25T15:22:15+06:00,
77479067418,mKcell,02,D02,2015-12-24T21:16:45+06:00,
77479067419,mKcell,02,D02,2015-12-25T09:55:40+06:00,
77479067421,mKcell,02,D02,2015-12-25T10:33:17+06:00,
77479067423,mKcell,02,D02,2015-12-25T14:21:22+06:00,
77479067424,mKcell,02,D02,2015-12-25T13:54:55+06:00,
77479067427,mKcell,02,D02,2015-12-24T20:59:02+06:00,
77479067431,mKcell,02,D02,2015-12-24T20:54:46+06:00,
77479067432,mKcell,02,D02,2015-12-24T21:07:02+06:00,
77479067434,mKcell,02,D02,2015-12-25T15:16:52+06:00,
77479067435,mKcell,02,D02,2015-12-24T20:43:23+06:00,
77479067452,mKcell,02,D02,2015-12-25T10:34:11+06:00,
77479067460,mKcell,02,D02,2015-12-24T20:01:00+06:00,
77479067461,mKcell,02,D02,2015-12-25T09:40:41+06:00,
77479067462,mKcell,02,D02,2015-12-25T11:28:02+06:00,
77479067463,mKcell,02,D02,2015-12-24T20:52:31+06:00,
77479067464,mKcell,02,D02,2015-12-25T15:09:39+06:00,
77479067467,mKcell,02,D02,2015-12-25T09:53:33+06:00,
77479067469,mKcell,02,D02,2015-12-24T21:37:27+06:00,
77479067482,mKcell,02,D02,2015-12-25T09:31:02+06:00,
77479067487,mKcell,02,D02,2015-12-24T20:10:24+06:00,
77479067497,mKcell,02,D02,2015-12-24T20:34:08+06:00,
77479067513,mKcell,02,D02,2015-12-25T09:45:39+06:00,
77479067526,mKcell,02,D02,2015-12-24T21:25:12+06:00,
77479067527,mKcell,02,D02,2015-12-24T20:27:49+06:00,
77479067528,mKcell,02,D02,2015-12-25T09:16:22+06:00,
77479067529,mKcell,02,D02,2015-12-25T10:18:09+06:00,
77479067530,mKcell,02,D02,2015-12-24T19:35:59+06:00,
77479067532,mKcell,02,D02,2015-12-24T19:49:48+06:00,
77479067534,mKcell,02,D02,2015-12-24T20:09:38+06:00,
77479067537,mKcell,02,D02,2015-12-24T20:22:12+06:00,
77479067548,mKcell,02,D02,2015-12-24T20:35:41+06:00,
77479067553,mKcell,02,D02,2015-12-25T12:14:36+06:00,
77479067554,mKcell,02,D02,2015-12-25T12:29:52+06:00,
77479067558,mKcell,02,D02,2015-12-25T15:10:53+06:00,
77479067559,mKcell,02,D02,2015-12-25T12:34:38+06:00,
77479067563,mKcell,02,D02,2015-12-25T10:23:12+06:00,
77479067567,mKcell,02,D02,2015-12-25T11:58:51+06:00,
77479262201,mKcell,02,D02,2015-12-31T14:04:38+06:00,
77710801533,mKcell,02,D02,2015-12-21T17:23:20+06:00,
77711064082,mKcell,02,D02,2015-12-28T18:02:58+06:00,
77711064087,mKcell,02,D02,2015-12-28T19:46:27+06:00,
77711129239,mKcell,02,D02,2015-12-18T12:10:33+06:00,
77711138767,mKcell,02,D02,2015-12-21T11:43:54+06:00,
77711926684,mKcell,02,D02,2015-12-21T19:37:05+06:00,
77712087494,mKcell,02,D02,2015-12-18T11:22:55+06:00,
77712196138,mKcell,02,D02,2015-12-31T15:38:19+06:00,
77712196139,mKcell,02,D02,2015-12-29T11:10:56+06:00,
77712196158,mKcell,02,D02,2015-12-29T11:21:40+06:00,
77712196172,mKcell,02,D02,2015-12-28T17:57:27+06:00,
77712196173,mKcell,02,D02,2015-12-28T17:55:14+06:00,
77712196189,mKcell,02,D02,2015-12-28T17:57:19+06:00,
77712196213,mKcell,02,D02,2015-12-28T18:22:59+06:00,
77712196228,mKcell,02,D02,2015-12-29T10:14:57+06:00,
77712196229,mKcell,02,D02,2015-12-28T20:01:26+06:00,
77712196232,mKcell,02,D02,2015-12-31T16:33:43+06:00,
77712196317,mKcell,02,D02,2015-12-29T11:24:38+06:00,
77712196319,mKcell,02,D02,2015-12-28T18:52:57+06:00,
77712710170,mKcell,02,D02,2015-12-18T11:55:49+06:00,
77712959955,mKcell,02,D02,2016-01-02T18:30:27+06:00,
77713440611,mKcell,02,D02,2015-12-28T19:16:41+06:00,
77713928853,mKcell,02,D02,2015-12-17T18:36:03+06:00,
77714202018,mKcell,02,D02,2015-12-15T18:09:56+06:00,
77714202021,mKcell,02,D02,2015-12-15T15:16:53+06:00,
77714202024,mKcell,02,D02,2015-12-18T13:30:46+06:00,
77714202027,mKcell,02,D02,2015-12-15T12:35:43+06:00,
77714275983,mKcell,02,D02,2015-12-21T13:39:25+06:00,
77714276049,mKcell,02,D02,2015-12-25T15:52:16+06:00,
77714276381,mKcell,02,D02,2015-12-21T10:11:53+06:00,
77714276382,mKcell,02,D02,2015-12-21T10:57:38+06:00,
77714664501,mAltel,07,D07,2015-12-09T16:32:17+06:00,
77714673068,mAltel,07,D07,2015-12-09T16:38:31+06:00,
77714727627,mKcell,02,D02,2015-12-11T17:53:08+06:00,
77714727628,mKcell,02,D02,2015-12-11T21:00:50+06:00,
77714727630,mKcell,02,D02,2015-12-11T16:51:09+06:00,
77714727631,mKcell,02,D02,2015-12-11T19:10:05+06:00,
77714727633,mKcell,02,D02,2015-12-11T17:53:05+06:00,
77715956074,mKcell,02,D02,2015-12-16T12:52:54+06:00,
77715956342,mKcell,02,D02,2015-12-16T19:06:37+06:00,
77716961305,mKcell,02,D02,2015-12-24T16:21:08+06:00,
77716961307,mKcell,02,D02,2015-12-24T16:02:59+06:00,
77716961365,mKcell,02,D02,2015-12-23T17:31:07+06:00,
77716961783,mKcell,02,D02,2015-12-24T14:42:42+06:00,
77716961786,mKcell,02,D02,2015-12-21T20:07:47+06:00,
77717924533,mKcell,02,D02,2015-12-15T12:56:24+06:00,
77751052090,mMTS,77,D77,2015-12-30T16:34:11+06:00,
77751059560,mKcell,02,D02,2015-12-23T17:05:40+06:00,
77757770344,mKarTel,01,D01,2015-12-25T19:00:54+06:00,
77758304855,mAltel,07,D07,2016-01-04T15:06:38+06:00,
77760722007,mKcell,02,D02,2016-01-04T20:16:34+06:00,
77760722008,mKcell,02,D02,2016-01-04T20:30:38+06:00,
77767656060,mKcell,02,D02,2015-12-15T19:53:28+06:00,
77767770782,mKcell,02,D02,2016-01-04T20:39:05+06:00,
77768888998,mMTS,77,D77,2015-12-29T18:14:12+06:00,
77770077011,mKarTel,01,D01,2015-12-29T15:26:27+06:00,
77770569114,mKcell,02,D02,2015-12-25T14:58:42+06:00,
77770569133,mKcell,02,D02,2015-12-23T10:42:36+06:00,
77770569148,mKcell,02,D02,2015-12-18T17:06:16+06:00,
77770569216,mKcell,02,D02,2015-12-17T16:55:51+06:00,
77771737738,mKcell,02,D02,2015-12-31T15:44:04+06:00,
77771737791,mKcell,02,D02,2015-12-15T17:10:02+06:00,
77771738355,mKcell,02,D02,2015-12-15T18:20:16+06:00,
77772222747,mMTS,77,D77,2015-12-25T19:09:18+06:00,
77773849718,mMTS,77,D77,2015-12-25T17:15:28+06:00,
77773849829,mKcell,02,D02,2015-12-09T16:04:28+06:00,
77774376350,mKcell,02,D02,2015-12-24T20:04:01+06:00,
77774376414,mKcell,02,D02,2015-12-24T20:15:19+06:00,
77774376768,mKcell,02,D02,2015-12-24T20:21:55+06:00,
77774977159,mKarTel,01,D01,2015-12-10T15:05:17+06:00,
77775000002,mKcell,02,D02,2015-12-21T19:50:47+06:00,
77775555333,mKcell,02,D02,2015-12-25T19:22:19+06:00,
77776666600,mKcell,02,D02,2015-12-15T16:22:46+06:00,
77777044449,mKcell,02,D02,2016-01-02T18:34:57+06:00,
77778801369,mKcell,02,D02,2015-12-22T13:35:55+06:00,
77779919336,mKcell,02,D02,2015-12-21T18:35:39+06:00,
77779963221,mKcell,02,D02,2015-12-21T10:08:24+06:00,
77780007101,mKarTel,01,D01,2016-01-04T13:46:32+06:00,
77781087788,mMTS,77,D77,2016-01-04T14:03:29+06:00,
77783300048,mKarTel,01,D01,2016-01-04T09:01:53+06:00,
77788995161,mKarTel,01,D01,2015-12-31T14:55:09+06:00,
77788995162,mKarTel,01,D01,2015-12-31T15:15:56+06:00,
77788995184,mKarTel,01,D01,2015-12-23T17:53:49+06:00,
77789990354,mAltel,07,D07,2016-01-04T16:10:16+06:00,
