NPId,Number,RecipientId,DonorId,RangeHolderId,OldRoute,NewRoute,PortDate,RowCount
1000000000146947,77027509657,mMTS,mKcell,mKcell,,D77,2016-04-10T08:46:15+06:00,85
1000000000146948,77015994763,mKcell,mAltel,mKcell,D07,D02,2016-04-10T08:49:02+06:00,
1000000000146950,77777775474,mKcell,mKarTel,mKarTel,,D02,2016-04-10T08:49:11+06:00,
1000000000146953,77027311333,mKcell,mAltel,mKcell,D07,D02,2016-04-10T08:49:05+06:00,
1000000000146954,77077780091,mKcell,mMTS,mMTS,,D02,2016-04-10T08:49:03+06:00,
1000000000146957,77015999492,mKcell,mAltel,mKcell,D07,D02,2016-04-10T08:49:02+06:00,
1000000000146959,77052099159,mKcell,mKarTel,mKarTel,,D02,2016-04-10T08:49:05+06:00,
1000000000146960,77029642057,mKcell,mMTS,mKcell,D77,D02,2016-04-10T08:49:02+06:00,
1000000000146961,77080700203,mKcell,mAltel,mAltel,,D02,2016-04-10T08:49:13+06:00,
1000000000146963,77001114999,mKcell,mAltel,mAltel,,D02,2016-04-10T08:49:06+06:00,
1000000000146965,77788811516,mKcell,mAltel,mKcell,D07,D02,2016-04-10T08:49:04+06:00,
1000000000146966,77056477777,mKcell,mKarTel,mKarTel,,D02,2016-04-10T08:49:37+06:00,
1000000000146968,77773042142,mKcell,mKarTel,mKarTel,,D02,2016-04-10T08:49:13+06:00,
1000000000146969,77477747470,mKcell,mMTS,mMTS,,D02,2016-04-10T08:49:03+06:00,
1000000000146970,77088056870,mKcell,mAltel,mAltel,,D02,2016-04-10T08:49:37+06:00,
1000000000146973,77009397449,mKcell,mAltel,mAltel,,D02,2016-04-10T08:49:36+06:00,
1000000000146974,77005509559,mKcell,mAltel,mAltel,,D02,2016-04-10T08:49:10+06:00,
1000000000146975,77073012055,mKcell,mMTS,mMTS,,D02,2016-04-10T08:49:07+06:00,
1000000000146977,77012522127,mKcell,mMTS,mKcell,D77,D02,2016-04-10T08:49:37+06:00,
1000000000146978,77012239259,mKcell,mAltel,mKcell,D07,D02,2016-04-10T08:49:04+06:00,
1000000000146979,77778333999,mKcell,mKarTel,mKarTel,,D02,2016-04-10T08:49:06+06:00,
1000000000146980,77084883375,mKcell,mAltel,mAltel,,D02,2016-04-10T08:49:08+06:00,
1000000000146981,77083344331,mKcell,mAltel,mAltel,,D02,2016-04-10T08:49:06+06:00,
1000000000146982,77751529883,mKcell,mAltel,mKcell,D07,D02,2016-04-10T08:49:13+06:00,
1000000000146983,77001122742,mKcell,mAltel,mAltel,,D02,2016-04-10T08:49:07+06:00,
1000000000146984,77087777798,mKcell,mAltel,mAltel,,D02,2016-04-10T08:49:37+06:00,
1000000000146985,77009101101,mKcell,mAltel,mAltel,,D02,2016-04-10T08:49:37+06:00,
1000000000146986,77717666613,mKcell,mKarTel,mKarTel,,D02,2016-04-10T08:49:08+06:00,
1000000000146987,77772244488,mKcell,mKarTel,mKarTel,,D02,2016-04-10T08:49:11+06:00,
1000000000146988,77714150500,mKcell,mKarTel,mKarTel,,D02,2016-04-10T08:49:36+06:00,
1000000000146989,77757743779,mKcell,mAltel,mKcell,D07,D02,2016-04-10T08:49:12+06:00,
1000000000146990,77022097777,mKcell,mMTS,mKcell,D77,D02,2016-04-10T08:49:21+06:00,
1000000000146991,77019651031,mKcell,mAltel,mKcell,D07,D02,2016-04-10T08:49:38+06:00,
1000000000146992,77013920592,mKcell,mMTS,mKcell,D77,D02,2016-04-10T08:49:08+06:00,
1000000000146993,77073021313,mKcell,mMTS,mMTS,,D02,2016-04-10T08:49:09+06:00,
1000000000146994,77075701807,mKcell,mMTS,mMTS,,D02,2016-04-10T08:49:09+06:00,
1000000000146995,77019651030,mKcell,mAltel,mKcell,D07,D02,2016-04-10T08:49:03+06:00,
1000000000146996,77005509558,mKcell,mAltel,mAltel,,D02,2016-04-10T08:49:11+06:00,
1000000000147003,77754542290,mKcell,mMTS,mKcell,D77,D02,2016-04-10T08:49:11+06:00,
1000000000147004,77777478475,mKcell,mKarTel,mKarTel,,D02,2016-04-10T08:49:13+06:00,
1000000000147006,77089153482,mKcell,mAltel,mAltel,,D02,2016-04-10T08:49:14+06:00,
1000000000147007,77072076317,mKcell,mMTS,mMTS,,D02,2016-04-10T08:49:15+06:00,
1000000000147008,77477020707,mKcell,mMTS,mMTS,,D02,2016-04-10T08:49:16+06:00,
1000000000147009,77077000103,mKcell,mMTS,mMTS,,D02,2016-04-10T08:49:16+06:00,
1000000000147010,77080122222,mKcell,mAltel,mAltel,,D02,2016-04-10T08:49:18+06:00,
1000000000147011,77074471024,mKcell,mMTS,mMTS,,D02,2016-04-10T08:49:19+06:00,
1000000000147013,77472041670,mKcell,mMTS,mMTS,,D02,2016-04-10T08:49:37+06:00,
1000000000147014,77472041674,mKcell,mMTS,mMTS,,D02,2016-04-10T08:49:20+06:00,
1000000000147015,77472041662,mKcell,mMTS,mMTS,,D02,2016-04-10T08:49:22+06:00,
1000000000147016,77714077329,mKcell,mAltel,mKarTel,D07,D02,2016-04-10T08:49:22+06:00,
1000000000147017,77472041663,mKcell,mMTS,mMTS,,D02,2016-04-10T08:49:23+06:00,
1000000000147018,77472041584,mKcell,mMTS,mMTS,,D02,2016-04-10T08:49:26+06:00,
1000000000147019,77472041660,mKcell,mMTS,mMTS,,D02,2016-04-10T08:49:25+06:00,
1000000000147020,77472041684,mKcell,mMTS,mMTS,,D02,2016-04-10T08:49:26+06:00,
1000000000147021,77714071398,mKcell,mAltel,mKarTel,D07,D02,2016-04-10T08:49:27+06:00,
1000000000147022,77055995995,mKcell,mAltel,mKarTel,D07,D02,2016-04-10T08:49:28+06:00,
1000000000147023,77472041564,mKcell,mMTS,mMTS,,D02,2016-04-10T08:49:29+06:00,
1000000000147024,77771519977,mKcell,mAltel,mKarTel,D07,D02,2016-04-10T08:49:30+06:00,
1000000000147025,77472041587,mKcell,mMTS,mMTS,,D02,2016-04-10T08:49:30+06:00,
1000000000147027,77472041567,mKcell,mMTS,mMTS,,D02,2016-04-10T08:49:38+06:00,
1000000000147028,77472041575,mKcell,mMTS,mMTS,,D02,2016-04-10T08:49:30+06:00,
1000000000147029,77472041646,mKcell,mMTS,mMTS,,D02,2016-04-10T08:49:31+06:00,
1000000000147030,77472041561,mKcell,mMTS,mMTS,,D02,2016-04-10T08:49:31+06:00,
1000000000147032,77472041654,mKcell,mMTS,mMTS,,D02,2016-04-10T08:49:32+06:00,
1000000000147033,77472041630,mKcell,mMTS,mMTS,,D02,2016-04-10T08:49:33+06:00,
1000000000147036,77472041624,mKcell,mMTS,mMTS,,D02,2016-04-10T08:49:33+06:00,
1000000000147037,77472041659,mKcell,mMTS,mMTS,,D02,2016-04-10T08:49:37+06:00,
1000000000147038,77471914549,mKcell,mMTS,mMTS,,D02,2016-04-10T08:49:33+06:00,
1000000000147039,77472041560,mKcell,mMTS,mMTS,,D02,2016-04-10T08:49:34+06:00,
1000000000147040,77472041611,mKcell,mMTS,mMTS,,D02,2016-04-10T08:49:34+06:00,
1000000000147041,77472041554,mKcell,mMTS,mMTS,,D02,2016-04-10T08:49:35+06:00,
1000000000147042,77472041640,mKcell,mMTS,mMTS,,D02,2016-04-10T08:49:35+06:00,
1000000000147043,77472041614,mKcell,mMTS,mMTS,,D02,2016-04-10T08:49:35+06:00,
1000000000147044,77472041645,mKcell,mMTS,mMTS,,D02,2016-04-10T08:49:35+06:00,
1000000000147045,77472041637,mKcell,mMTS,mMTS,,D02,2016-04-10T08:49:36+06:00,
1000000000147046,77472041636,mKcell,mMTS,mMTS,,D02,2016-04-10T08:49:36+06:00,
1000000000147048,77087778909,mKcell,mAltel,mAltel,,D02,2016-04-10T08:49:13+06:00,
1000000000147051,77023326063,mKcell,mAltel,mKcell,D07,D02,2016-04-10T08:49:14+06:00,
1000000000147054,77009278112,mKcell,mAltel,mAltel,,D02,2016-04-10T08:49:15+06:00,
1000000000147055,77057888829,mKcell,mKarTel,mKarTel,,D02,2016-04-10T08:49:16+06:00,
1000000000147058,77777954747,mKcell,mKarTel,mKarTel,,D02,2016-04-10T08:49:17+06:00,
1000000000147060,77777777952,mKcell,mKarTel,mKarTel,,D02,2016-04-10T08:49:18+06:00,
1000000000147061,77015157557,mKcell,mMTS,mKcell,D77,D02,2016-04-10T08:49:38+06:00,
1000000000147063,77051646989,mKcell,mKarTel,mKarTel,,D02,2016-04-10T08:49:19+06:00,
1000000000147066,77029369155,mKcell,mAltel,mKcell,D07,D02,2016-04-10T08:49:21+06:00,
