NPId,Number,RecipientId,DonorId,RangeHolderId,OldRoute,NewRoute,PortDate,RowCount
1000000000383634,77017514659,mMTS,mKcell,mKcell,,D77,2017-05-15T18:32:34+06:00,24
1000000000383636,77471697207,mAltel,mMTS,mMTS,,D07,2017-05-15T18:33:22+06:00,
1000000000383637,77054551286,mKcell,mKarTel,mKarTel,,D02,2017-05-15T18:34:16+06:00,
1000000000383639,77018886418,mKarTel,mKcell,mKcell,,D01,2017-05-15T18:37:12+06:00,
1000000000383640,77014502195,mKarTel,mKcell,mKcell,,D01,2017-05-15T18:40:06+06:00,
1000000000383641,77774585377,mMTS,mKarTel,mKarTel,,D77,2017-05-15T18:41:07+06:00,
1000000000383642,77776245484,mKcell,mKarTel,mKarTel,,D02,2017-05-15T18:41:30+06:00,
1000000000383643,77711194371,mAltel,mKarTel,mKarTel,,D07,2017-05-15T18:42:20+06:00,
1000000000383645,77784937323,mMTS,mKcell,mKcell,,D77,2017-05-15T18:42:56+06:00,
1000000000383646,77015083894,mKarTel,mKcell,mKcell,,D01,2017-05-15T18:43:59+06:00,
1000000000383647,77073337703,mKcell,mAltel,mMTS,D07,D02,2017-05-15T18:44:00+06:00,
1000000000383648,77766611611,mKcell,mKarTel,mKarTel,,D02,2017-05-15T18:46:02+06:00,
1000000000383649,77054439503,mMTS,mKarTel,mKarTel,,D77,2017-05-15T18:46:22+06:00,
1000000000383650,77007654420,mKarTel,mAltel,mAltel,D07,D01,2017-05-15T18:46:47+06:00,
1000000000383651,77788040007,mKarTel,mKcell,mKcell,,D01,2017-05-15T18:46:58+06:00,
1000000000383652,77024910225,mMTS,mKcell,mKcell,,D77,2017-05-15T18:47:47+06:00,
1000000000383653,77051977090,mKcell,mKarTel,mKarTel,D01,D02,2017-05-15T18:48:46+06:00,
1000000000383654,77779512747,mAltel,mKarTel,mKarTel,,D07,2017-05-15T18:49:59+06:00,
1000000000383655,77056600006,mAltel,mKarTel,mKarTel,D01,D07,2017-05-15T18:50:47+06:00,
1000000000383656,77017394408,mKarTel,mKcell,mKcell,,D01,2017-05-15T18:53:05+06:00,
1000000000383657,77781811087,mMTS,mKcell,mKcell,,D77,2017-05-15T18:53:48+06:00,
1000000000383658,77019745940,mAltel,mMTS,mKcell,D77,D07,2017-05-15T18:56:35+06:00,
1000000000383661,77072110206,mKcell,mKarTel,mMTS,D01,D02,2017-05-15T18:57:41+06:00,
1000000000383662,77784937291,mMTS,mKcell,mKcell,,D77,2017-05-15T18:57:50+06:00,
