NPId,Number,RecipientId,DonorId,RangeHolderId,OldRoute,NewRoute,PortDate,RowCount
1000000000173313,77003342464,mKarTel,mAltel,mAltel,,D01,2016-05-13T13:30:45+06:00,28
1000000000173315,77000003003,mKarTel,mAltel,mAltel,,D01,2016-05-13T13:31:25+06:00,
1000000000173316,77775999837,mMTS,mKarTel,mKarTel,,D77,2016-05-13T13:32:23+06:00,
1000000000173317,77051628424,mAltel,mKarTel,mKarTel,,D07,2016-05-13T13:32:36+06:00,
1000000000173319,77029599021,mMTS,mKcell,mKcell,,D77,2016-05-13T13:33:58+06:00,
1000000000173320,77781315947,mKarTel,mKcell,mKcell,,D01,2016-05-13T13:35:22+06:00,
1000000000173321,77772827543,mKarTel,mMTS,mKarTel,D77,D01,2016-05-13T13:35:03+06:00,
1000000000173322,77017186708,mMTS,mKcell,mKcell,,D77,2016-05-13T13:37:09+06:00,
1000000000173323,77773575774,mMTS,mKcell,mKarTel,D02,D77,2016-05-13T13:37:21+06:00,
1000000000173324,77782223282,mAltel,mKcell,mKcell,,D07,2016-05-13T13:38:39+06:00,
1000000000173327,77076172751,mMTS,mAltel,mMTS,D07,D77,2016-05-13T13:40:36+06:00,
1000000000173328,77019443827,mAltel,mKcell,mKcell,,D07,2016-05-13T13:42:44+06:00,
1000000000173329,77017201258,mKarTel,mKcell,mKcell,,D01,2016-05-13T13:42:58+06:00,
1000000000173330,77085237707,mKcell,mAltel,mAltel,,D02,2016-05-13T13:44:38+06:00,
1000000000173332,77010987070,mMTS,mKcell,mKcell,,D77,2016-05-13T13:44:50+06:00,
1000000000173333,77005515555,mKarTel,mAltel,mAltel,,D01,2016-05-13T13:45:12+06:00,
1000000000173334,77017453044,mKcell,mAltel,mKcell,D07,D02,2016-05-13T13:46:46+06:00,
1000000000173336,77476564001,mKcell,mMTS,mMTS,,D02,2016-05-13T13:47:21+06:00,
1000000000173337,77078273705,mAltel,mMTS,mMTS,,D07,2016-05-13T13:48:20+06:00,
1000000000173338,77028577567,mMTS,mKcell,mKcell,,D77,2016-05-13T13:48:32+06:00,
1000000000173339,77008881881,mKcell,mAltel,mAltel,,D02,2016-05-13T13:49:53+06:00,
1000000000173340,77059519393,mAltel,mKarTel,mKarTel,,D07,2016-05-13T13:49:57+06:00,
1000000000173341,77017408877,mMTS,mKcell,mKcell,,D77,2016-05-13T13:51:39+06:00,
1000000000173343,77026569186,mMTS,mKcell,mKcell,,D77,2016-05-13T13:54:23+06:00,
1000000000173344,77003642972,mMTS,mAltel,mAltel,,D77,2016-05-13T13:55:47+06:00,
1000000000173345,77478432623,mKcell,mKarTel,mMTS,D01,D02,2016-05-13T13:56:46+06:00,
1000000000173347,77023930772,mMTS,mKcell,mKcell,,D77,2016-05-13T13:59:09+06:00,
1000000000173348,77001377699,mMTS,mAltel,mAltel,,D77,2016-05-13T13:59:39+06:00,
