NPId,Number,RecipientId,DonorId,RangeHolderId,OldRoute,NewRoute,PortDate,RowCount
1000000000318742,77019471177,mKcell,mKarTel,mKcell,D01,D02,2017-01-29T20:12:21+06:00,3
1000000000318743,77057256781,mMTS,mKarTel,mKarTel,,D77,2017-01-29T20:01:58+06:00,
1000000000318744,77776661452,mMTS,mKarTel,mKarTel,,D77,2017-01-29T20:17:59+06:00,
