NPId,Number,RecipientId,DonorId,RangeHolderId,OldRoute,NewRoute,PortDate,RowCount
1000000000356139,77772622221,mKcell,mKarTel,mKarTel,,D02,2017-03-30T21:33:00+06:00,4
1000000000356140,77026131444,mMTS,mAltel,mKcell,D07,D77,2017-03-30T21:42:28+06:00,
1000000000356141,77787650225,mMTS,mKcell,mKcell,,D77,2017-03-30T21:42:57+06:00,
1000000000356142,77787609813,mMTS,mKcell,mKcell,,D77,2017-03-30T21:52:58+06:00,
