NPId,Number,RecipientId,DonorId,RangeHolderId,OldRoute,NewRoute,PortDate,RowCount
1000000000310397,77015145578,mKcell,mMTS,mKcell,D77,D02,2017-01-16T15:41:51+06:00,26
1000000000311118,77017170865,mKcell,mAltel,mKcell,D07,D02,2017-01-16T15:36:36+06:00,
1000000000311400,77016418783,mMTS,mKcell,mKcell,,D77,2017-01-16T15:30:00+06:00,
1000000000311401,77771418183,mMTS,mKarTel,mKarTel,,D77,2017-01-16T15:30:21+06:00,
1000000000311402,77759995065,mAltel,mKcell,mKcell,,D07,2017-01-16T15:30:50+06:00,
1000000000311403,77003335848,mKcell,mAltel,mAltel,,D02,2017-01-16T15:30:59+06:00,
1000000000311407,77781594904,mMTS,mKcell,mKcell,,D77,2017-01-16T15:32:49+06:00,
1000000000311408,77003336898,mKcell,mAltel,mAltel,,D02,2017-01-16T15:33:25+06:00,
1000000000311410,77782423258,mKcell,mMTS,mKcell,D77,D02,2017-01-16T15:34:23+06:00,
1000000000311413,77779555559,mKcell,mKarTel,mKarTel,,D02,2017-01-16T15:38:31+06:00,
1000000000311416,77057780800,mAltel,mKarTel,mKarTel,,D07,2017-01-16T15:42:48+06:00,
1000000000311418,77079476969,mAltel,mMTS,mMTS,D77,D07,2017-01-16T15:43:57+06:00,
1000000000311419,77475545735,mAltel,mMTS,mMTS,,D07,2017-01-16T15:44:05+06:00,
1000000000311420,77777916885,mKarTel,mAltel,mKarTel,D07,D01,2017-01-16T15:44:35+06:00,
1000000000311422,77013880760,mKcell,mMTS,mKcell,D77,D02,2017-01-16T15:46:02+06:00,
1000000000311423,77755025205,mKcell,mMTS,mKcell,D77,D02,2017-01-16T15:46:03+06:00,
1000000000311425,77003331868,mKcell,mAltel,mAltel,,D02,2017-01-16T15:46:30+06:00,
1000000000311426,77018442118,mKcell,mAltel,mKcell,D07,D02,2017-01-16T15:46:49+06:00,
1000000000311427,77711341973,mMTS,mKarTel,mKarTel,,D77,2017-01-16T15:47:00+06:00,
1000000000311428,77078444604,mAltel,mMTS,mMTS,,D07,2017-01-16T15:46:46+06:00,
1000000000311430,77071111786,mKarTel,mMTS,mMTS,,D01,2017-01-16T15:50:32+06:00,
1000000000311431,77056463967,mMTS,mKarTel,mKarTel,,D77,2017-01-16T15:50:56+06:00,
1000000000311433,77076008599,mMTS,mAltel,mMTS,D07,D77,2017-01-16T15:52:43+06:00,
1000000000311435,77473645927,mKcell,mMTS,mMTS,,D02,2017-01-16T15:56:39+06:00,
1000000000311437,77074000002,mKarTel,mMTS,mMTS,,D01,2017-01-16T15:58:22+06:00,
1000000000311438,77003334898,mKcell,mAltel,mAltel,,D02,2017-01-16T15:59:53+06:00,
