NPId,Number,RecipientId,DonorId,RangeHolderId,OldRoute,NewRoute,PortDate,RowCount
1000000000173954,77013596945,mKcell,mAltel,mKcell,D07,D02,2016-05-14T12:31:14+06:00,33
1000000000173955,77774117414,mMTS,mKarTel,mKarTel,,D77,2016-05-14T12:31:17+06:00,
1000000000173956,77028777718,mMTS,mKcell,mKcell,,D77,2016-05-14T12:31:49+06:00,
1000000000173957,77770372744,mMTS,mKarTel,mKarTel,,D77,2016-05-14T12:32:26+06:00,
1000000000173958,77772414444,mKcell,mKarTel,mKarTel,,D02,2016-05-14T12:33:27+06:00,
1000000000173960,77761666166,mMTS,mKarTel,mKarTel,,D77,2016-05-14T12:33:02+06:00,
1000000000173961,77018880796,mAltel,mKcell,mKcell,,D07,2016-05-14T12:34:19+06:00,
1000000000173962,77019122486,mMTS,mKcell,mKcell,,D77,2016-05-14T12:34:18+06:00,
1000000000173964,77002333377,mKcell,mAltel,mAltel,,D02,2016-05-14T12:35:20+06:00,
1000000000173967,77025888889,mKcell,mAltel,mKcell,D07,D02,2016-05-14T12:37:46+06:00,
1000000000173968,77075779297,mKcell,mMTS,mMTS,,D02,2016-05-14T12:37:46+06:00,
1000000000173969,77772317978,mKcell,mKarTel,mKarTel,,D02,2016-05-14T12:39:07+06:00,
1000000000173970,77052640095,mMTS,mKarTel,mKarTel,,D77,2016-05-14T12:41:54+06:00,
1000000000173971,77773472002,mMTS,mKarTel,mKarTel,,D77,2016-05-14T12:42:06+06:00,
1000000000173972,77777354626,mMTS,mKarTel,mKarTel,,D77,2016-05-14T12:42:06+06:00,
1000000000173973,77017846657,mMTS,mKcell,mKcell,,D77,2016-05-14T12:42:06+06:00,
1000000000173975,77015321092,mKcell,mKarTel,mKcell,D01,D02,2016-05-14T12:45:43+06:00,
1000000000173978,77077278362,mKarTel,mMTS,mMTS,,D01,2016-05-14T12:47:37+06:00,
1000000000173979,77080780787,mKcell,mAltel,mAltel,,D02,2016-05-14T12:48:39+06:00,
1000000000173980,77715289043,mMTS,mKarTel,mKarTel,,D77,2016-05-14T12:49:33+06:00,
1000000000173981,77052731717,mMTS,mKarTel,mKarTel,,D77,2016-05-14T12:50:30+06:00,
1000000000173982,77758127560,mMTS,mKcell,mKcell,,D77,2016-05-14T12:50:46+06:00,
1000000000173983,77017883779,mKarTel,mKcell,mKcell,,D01,2016-05-14T12:51:39+06:00,
1000000000173984,77016550427,mMTS,mKcell,mKcell,,D77,2016-05-14T12:53:31+06:00,
1000000000173985,77714487717,mAltel,mKarTel,mKarTel,,D07,2016-05-14T12:53:36+06:00,
1000000000173986,77058172004,mKarTel,mAltel,mKarTel,D07,D01,2016-05-14T12:53:55+06:00,
1000000000173988,77781812141,mMTS,mKcell,mKcell,,D77,2016-05-14T12:54:46+06:00,
1000000000173990,77007040070,mMTS,mAltel,mAltel,,D77,2016-05-14T12:54:58+06:00,
1000000000173991,77085442458,mMTS,mAltel,mAltel,,D77,2016-05-14T12:56:23+06:00,
1000000000173992,77025555280,mKcell,mMTS,mKcell,D77,D02,2016-05-14T12:56:59+06:00,
1000000000173993,77027692559,mMTS,mAltel,mKcell,D07,D77,2016-05-14T12:56:55+06:00,
1000000000173994,77756695174,mKarTel,mKcell,mKcell,,D01,2016-05-14T12:57:41+06:00,
1000000000173995,77081108292,mMTS,mAltel,mAltel,,D77,2016-05-14T12:58:14+06:00,
