NPId,Number,RecipientId,DonorId,RangeHolderId,OldRoute,NewRoute,PortDate,RowCount
1000000000150355,77714028520,mKcell,mKarTel,mKarTel,,D02,2016-04-12T19:00:55+06:00,18
1000000000150356,77012223137,mKcell,mAltel,mKcell,D07,D02,2016-04-12T19:00:29+06:00,
1000000000150360,77714959941,mMTS,mKarTel,mKarTel,,D77,2016-04-12T19:03:51+06:00,
1000000000150361,77015543830,mKarTel,mKcell,mKcell,,D01,2016-04-12T19:03:47+06:00,
1000000000150362,77012414339,mMTS,mKcell,mKcell,,D77,2016-04-12T19:03:16+06:00,
1000000000150363,77014412998,mKcell,mMTS,mKcell,D77,D02,2016-04-12T19:04:08+06:00,
1000000000150364,77022789000,mMTS,mKcell,mKcell,,D77,2016-04-12T19:07:13+06:00,
1000000000150365,77718893030,mMTS,mKarTel,mKarTel,,D77,2016-04-12T19:08:54+06:00,
1000000000150366,77057306608,mMTS,mKarTel,mKarTel,,D77,2016-04-12T19:10:54+06:00,
1000000000150367,77082333727,mKcell,mAltel,mAltel,,D02,2016-04-12T19:14:10+06:00,
1000000000150368,77019983050,mKarTel,mKcell,mKcell,,D01,2016-04-12T19:14:39+06:00,
1000000000150369,77007700270,mKcell,mAltel,mAltel,,D02,2016-04-12T19:15:12+06:00,
1000000000150370,77075546648,mKarTel,mMTS,mMTS,,D01,2016-04-12T19:17:12+06:00,
1000000000150371,77023395445,mMTS,mKcell,mKcell,,D77,2016-04-12T19:19:24+06:00,
1000000000150374,77016355926,mMTS,mKcell,mKcell,,D77,2016-04-12T19:21:03+06:00,
1000000000150375,77714960547,mMTS,mKarTel,mKarTel,,D77,2016-04-12T19:23:39+06:00,
1000000000150376,77715781698,mMTS,mKarTel,mKarTel,,D77,2016-04-12T19:29:18+06:00,
1000000000150377,77011114766,mMTS,mKarTel,mKcell,D01,D77,2016-04-12T19:29:56+06:00,
