NPId,Number,RecipientId,DonorId,RangeHolderId,OldRoute,NewRoute,PortDate,RowCount
1000000000347679,77052183665,mKcell,mKarTel,mKarTel,,D02,2017-03-16T10:05:32+06:00,12
1000000000347680,77773253257,mMTS,mKcell,mKarTel,D02,D77,2017-03-16T10:06:07+06:00,
1000000000347682,77751403951,mAltel,mKcell,mKcell,,D07,2017-03-16T10:10:06+06:00,
1000000000347683,77019934735,mMTS,mKcell,mKcell,,D77,2017-03-16T10:14:58+06:00,
1000000000347684,77777747700,mKcell,mKarTel,mKarTel,,D02,2017-03-16T10:15:58+06:00,
1000000000347685,77078097013,mMTS,mAltel,mMTS,D07,D77,2017-03-16T10:16:37+06:00,
1000000000347687,77765506040,mAltel,mKarTel,mKarTel,,D07,2017-03-16T10:17:54+06:00,
1000000000347689,77051670936,mMTS,mKarTel,mKarTel,,D77,2017-03-16T10:21:02+06:00,
1000000000347691,77057645865,mMTS,mKarTel,mKarTel,,D77,2017-03-16T10:24:37+06:00,
1000000000347692,77019166994,mKcell,mMTS,mKcell,D77,D02,2017-03-16T10:26:17+06:00,
1000000000347693,77081107010,mMTS,mAltel,mAltel,,D77,2017-03-16T10:28:11+06:00,
1000000000347694,77017991148,mMTS,mKcell,mKcell,,D77,2017-03-16T10:28:46+06:00,
