NPId,Number,RecipientId,DonorId,RangeHolderId,OldRoute,NewRoute,PortDate,RowCount
1000000000249768,77079332601,mKcell,mMTS,mMTS,,D02,2016-09-22T20:01:55+06:00,3
1000000000249769,77013859319,mKarTel,mKcell,mKcell,,D01,2016-09-22T20:23:29+06:00,
1000000000249771,77022619988,mKcell,mAltel,mKcell,D07,D02,2016-09-22T20:29:45+06:00,
