NPId,Number,RecipientId,DonorId,RangeHolderId,OldRoute,NewRoute,PortDate,RowCount
1000000000109296,77011501113,mAltel,mKcell,mKcell,,D07,2016-03-07T16:00:40+06:00,25
1000000000109297,77083748084,mKarTel,mAltel,mAltel,,D01,2016-03-07T16:00:48+06:00,
1000000000109298,77023100900,mMTS,mKcell,mKcell,,D77,2016-03-07T16:02:32+06:00,
1000000000109300,77475580027,mAltel,mMTS,mMTS,,D07,2016-03-07T16:03:33+06:00,
1000000000109302,77756900368,mMTS,mKcell,mKcell,,D77,2016-03-07T16:08:21+06:00,
1000000000109303,77076785727,mKarTel,mMTS,mMTS,,D01,2016-03-07T16:08:47+06:00,
1000000000109304,77758436233,mAltel,mKcell,mKcell,,D07,2016-03-07T16:09:03+06:00,
1000000000109305,77478961006,mAltel,mMTS,mMTS,,D07,2016-03-07T16:09:56+06:00,
1000000000109306,77052080807,mMTS,mKarTel,mKarTel,,D77,2016-03-07T16:12:23+06:00,
1000000000109308,77019972420,mKarTel,mKcell,mKcell,,D01,2016-03-07T16:12:49+06:00,
1000000000109309,77011747129,mKarTel,mKcell,mKcell,,D01,2016-03-07T16:12:51+06:00,
1000000000109310,77011341345,mKarTel,mKcell,mKcell,,D01,2016-03-07T16:13:38+06:00,
1000000000109312,77028222189,mMTS,mKcell,mKcell,,D77,2016-03-07T16:14:16+06:00,
1000000000109314,77018973378,mKarTel,mKcell,mKcell,,D01,2016-03-07T16:15:25+06:00,
1000000000109315,77078878782,mAltel,mMTS,mMTS,,D07,2016-03-07T16:15:17+06:00,
1000000000109317,77051625058,mMTS,mKarTel,mKarTel,,D77,2016-03-07T16:15:46+06:00,
1000000000109318,77781667399,mAltel,mKcell,mKcell,,D07,2016-03-07T16:15:49+06:00,
1000000000109320,77029339704,mMTS,mKcell,mKcell,,D77,2016-03-07T16:17:17+06:00,
1000000000109322,77789007744,mMTS,mKcell,mKcell,,D77,2016-03-07T16:19:16+06:00,
1000000000109325,77014976220,mKarTel,mKcell,mKcell,,D01,2016-03-07T16:22:11+06:00,
1000000000109326,77757211121,mKarTel,mKcell,mKcell,,D01,2016-03-07T16:22:39+06:00,
1000000000109327,77757464626,mMTS,mKcell,mKcell,,D77,2016-03-07T16:24:10+06:00,
1000000000109328,77053904858,mKcell,mKarTel,mKarTel,,D02,2016-03-07T16:26:19+06:00,
1000000000109329,77022930777,mAltel,mKcell,mKcell,,D07,2016-03-07T16:26:18+06:00,
1000000000109330,77058885688,mMTS,mKarTel,mKarTel,,D77,2016-03-07T16:27:30+06:00,
