NPId,Number,RecipientId,DonorId,RangeHolderId,OldRoute,NewRoute,PortDate,RowCount
1000000000187984,77756684505,mMTS,mKcell,mKcell,,D77,2016-06-04T18:00:12+06:00,12
1000000000187985,77026776795,mKarTel,mKcell,mKcell,,D01,2016-06-04T18:01:52+06:00,
1000000000187988,77002651234,mAltel,mKarTel,mAltel,D01,D07,2016-06-04T18:03:22+06:00,
1000000000187991,77775057983,mMTS,mKarTel,mKarTel,,D77,2016-06-04T18:08:48+06:00,
1000000000187993,77479974171,mKarTel,mMTS,mMTS,,D01,2016-06-04T18:14:55+06:00,
1000000000187994,77051883905,mMTS,mKarTel,mKarTel,,D77,2016-06-04T18:16:30+06:00,
1000000000188000,77083391626,mMTS,mAltel,mAltel,,D77,2016-06-04T18:22:08+06:00,
1000000000188001,77021882808,mAltel,mKcell,mKcell,,D07,2016-06-04T18:23:12+06:00,
1000000000188002,77776518903,mMTS,mKarTel,mKarTel,,D77,2016-06-04T18:23:23+06:00,
1000000000188003,77776154128,mMTS,mKarTel,mKarTel,,D77,2016-06-04T18:23:59+06:00,
1000000000188004,77073080091,mAltel,mMTS,mMTS,,D07,2016-06-04T18:24:58+06:00,
1000000000188005,77779999700,mKarTel,mKcell,mKarTel,D02,D01,2016-06-04T18:28:22+06:00,
