NPId,Number,RecipientId,DonorId,RangeHolderId,OldRoute,NewRoute,PortDate,RowCount
1000000000238648,77010526659,mKcell,mAltel,mKcell,D07,D02,2016-09-01T20:01:39+06:00,7
1000000000238649,77017261491,mKcell,mAltel,mKcell,D07,D02,2016-09-01T20:02:16+06:00,
1000000000238650,77017261492,mKcell,mAltel,mKcell,D07,D02,2016-09-01T20:05:33+06:00,
1000000000238652,77017261493,mKcell,mAltel,mKcell,D07,D02,2016-09-01T20:08:29+06:00,
1000000000238653,77077005998,mKcell,mMTS,mMTS,,D02,2016-09-01T20:08:57+06:00,
1000000000238655,77017697643,mKarTel,mKcell,mKcell,,D01,2016-09-01T20:13:02+06:00,
1000000000238656,77019210021,mKarTel,mKcell,mKcell,,D01,2016-09-01T20:19:51+06:00,
