NPId,Number,RecipientId,DonorId,RangeHolderId,OldRoute,NewRoute,PortDate,RowCount
1000000000380402,77077151013,mKarTel,mMTS,mMTS,,D01,2017-05-09T20:06:48+06:00,3
1000000000380403,77000222895,mKcell,mAltel,mAltel,,D02,2017-05-09T20:19:45+06:00,
1000000000380404,77000222635,mKcell,mAltel,mAltel,,D02,2017-05-09T20:22:20+06:00,
