NPId,Number,RecipientId,DonorId,RangeHolderId,OldRoute,NewRoute,PortDate,RowCount
1000000000358159,77051728080,mAltel,mKarTel,mKarTel,,D07,2017-04-02T17:30:39+06:00,27
1000000000358160,77015555615,mKarTel,mKcell,mKcell,,D01,2017-04-02T17:31:25+06:00,
1000000000358161,77013151212,mKcell,mMTS,mKcell,D77,D02,2017-04-02T17:32:29+06:00,
1000000000358162,77011005004,mKarTel,mKcell,mKcell,,D01,2017-04-02T17:32:31+06:00,
1000000000358163,77076055551,mMTS,mKcell,mMTS,D02,D77,2017-04-02T17:32:57+06:00,
1000000000358164,77007110607,mMTS,mAltel,mAltel,,D77,2017-04-02T17:34:04+06:00,
1000000000358165,77055566611,mKcell,mAltel,mKarTel,D07,D02,2017-04-02T17:34:28+06:00,
1000000000358166,77772443312,mMTS,mKarTel,mKarTel,,D77,2017-04-02T17:34:48+06:00,
1000000000358167,77003333033,mMTS,mAltel,mAltel,,D77,2017-04-02T17:35:01+06:00,
1000000000358170,77057447123,mAltel,mKarTel,mKarTel,,D07,2017-04-02T17:36:32+06:00,
1000000000358171,77017898983,mMTS,mKcell,mKcell,,D77,2017-04-02T17:38:28+06:00,
1000000000358172,77769172171,mMTS,mKarTel,mKarTel,,D77,2017-04-02T17:40:14+06:00,
1000000000358173,77753213434,mAltel,mKcell,mKcell,,D07,2017-04-02T17:40:26+06:00,
1000000000358174,77087608660,mAltel,mMTS,mAltel,D77,D07,2017-04-02T17:41:02+06:00,
1000000000358175,77020777004,mKarTel,mKcell,mKcell,,D01,2017-04-02T17:41:29+06:00,
1000000000358176,77057007788,mMTS,mKarTel,mKarTel,,D77,2017-04-02T17:41:35+06:00,
1000000000358177,77023080191,mKarTel,mMTS,mKcell,D77,D01,2017-04-02T17:42:06+06:00,
1000000000358179,77017686468,mMTS,mKcell,mKcell,,D77,2017-04-02T17:46:00+06:00,
1000000000358180,77475305330,mAltel,mMTS,mMTS,,D07,2017-04-02T17:46:12+06:00,
1000000000358181,77007773205,mKcell,mAltel,mAltel,,D02,2017-04-02T17:49:47+06:00,
1000000000358182,77476475461,mMTS,mAltel,mMTS,D07,D77,2017-04-02T17:50:16+06:00,
1000000000358183,77081036923,mKarTel,mAltel,mAltel,,D01,2017-04-02T17:51:43+06:00,
1000000000358184,77025502237,mAltel,mKcell,mKcell,,D07,2017-04-02T17:52:35+06:00,
1000000000358185,77018576462,mKcell,mMTS,mKcell,D77,D02,2017-04-02T17:53:56+06:00,
1000000000358186,77007772405,mKcell,mAltel,mAltel,,D02,2017-04-02T17:55:08+06:00,
1000000000358187,77007772105,mKcell,mAltel,mAltel,,D02,2017-04-02T17:55:08+06:00,
1000000000358188,77017010400,mKarTel,mKcell,mKcell,,D01,2017-04-02T17:58:49+06:00,
