NPId,Number,RecipientId,DonorId,RangeHolderId,OldRoute,NewRoute,PortDate,RowCount
1000000000230561,77715205006,mKcell,mKarTel,mKarTel,,D02,2016-08-17T20:04:04+06:00,4
1000000000230562,77773711215,mKcell,mKarTel,mKarTel,,D02,2016-08-17T20:16:39+06:00,
1000000000230563,77075020878,mKcell,mMTS,mMTS,,D02,2016-08-17T20:17:46+06:00,
1000000000230564,77075231198,mKcell,mMTS,mMTS,,D02,2016-08-17T20:26:06+06:00,
