NPId,Number,RecipientId,DonorId,RangeHolderId,OldRoute,NewRoute,PortDate,RowCount
1000000000327739,77019997590,mKarTel,mKcell,mKcell,,D01,2017-02-12T13:32:25+06:00,16
1000000000327740,77777218834,mMTS,mKarTel,mKarTel,,D77,2017-02-12T13:34:49+06:00,
1000000000327741,77015701336,mAltel,mKcell,mKcell,,D07,2017-02-12T13:35:50+06:00,
1000000000327742,77756559818,mMTS,mKcell,mKcell,,D77,2017-02-12T13:36:21+06:00,
1000000000327743,77054619709,mMTS,mKarTel,mKarTel,,D77,2017-02-12T13:36:58+06:00,
1000000000327744,77754710519,mAltel,mKcell,mKcell,,D07,2017-02-12T13:43:28+06:00,
1000000000327745,77760100550,mMTS,mKcell,mKarTel,D02,D77,2017-02-12T13:44:07+06:00,
1000000000327746,77012121777,mKarTel,mKcell,mKcell,,D01,2017-02-12T13:45:11+06:00,
1000000000327747,77005551601,mKcell,mAltel,mAltel,,D02,2017-02-12T13:47:51+06:00,
1000000000327748,77078379973,mMTS,mKarTel,mMTS,D01,D77,2017-02-12T13:48:00+06:00,
1000000000327749,77757760163,mMTS,mKcell,mKcell,,D77,2017-02-12T13:47:47+06:00,
1000000000327750,77757760149,mMTS,mKcell,mKcell,,D77,2017-02-12T13:47:51+06:00,
1000000000327751,77011999050,mMTS,mKcell,mKcell,,D77,2017-02-12T13:49:48+06:00,
1000000000327752,77079755500,mAltel,mMTS,mMTS,,D07,2017-02-12T13:51:48+06:00,
1000000000327753,77757760141,mMTS,mKcell,mKcell,,D77,2017-02-12T13:57:51+06:00,
1000000000327754,77757760144,mMTS,mKcell,mKcell,,D77,2017-02-12T13:57:53+06:00,
