NPId,Number,RecipientId,DonorId,RangeHolderId,OldRoute,NewRoute,PortDate,RowCount
1000000000130458,77022147526,mMTS,mKcell,mKcell,,D77,2016-03-21T15:33:32+06:00,14
1000000000130460,77754744545,mMTS,mKcell,mKcell,,D77,2016-03-21T15:34:42+06:00,
1000000000130462,77756336067,mKarTel,mKcell,mKcell,,D01,2016-03-21T15:37:13+06:00,
1000000000130465,77712705050,mMTS,mKarTel,mKarTel,,D77,2016-03-21T15:39:16+06:00,
1000000000130469,77712705055,mMTS,mKarTel,mKarTel,,D77,2016-03-21T15:45:14+06:00,
1000000000130470,77714043820,mMTS,mKarTel,mKarTel,,D77,2016-03-21T15:48:01+06:00,
1000000000130471,77018572077,mKcell,mKarTel,mKcell,D01,D02,2016-03-21T15:48:55+06:00,
1000000000130472,77781108066,mAltel,mKcell,mKcell,,D07,2016-03-21T15:47:43+06:00,
1000000000130473,77077470112,mKarTel,mMTS,mMTS,,D01,2016-03-21T15:50:00+06:00,
1000000000130474,77011434344,mMTS,mKcell,mKcell,,D77,2016-03-21T15:50:32+06:00,
1000000000130475,77081230101,mMTS,mAltel,mAltel,,D77,2016-03-21T15:51:53+06:00,
1000000000130477,77005604444,mMTS,mAltel,mAltel,,D77,2016-03-21T15:57:44+06:00,
1000000000130478,77056687888,mMTS,mKarTel,mKarTel,,D77,2016-03-21T15:58:49+06:00,
1000000000130480,77753991726,mMTS,mKcell,mKcell,,D77,2016-03-21T15:59:37+06:00,
