NPId,Number,RecipientId,DonorId,RangeHolderId,OldRoute,NewRoute,PortDate,RowCount
1000000000328555,77753414445,mKcell,mMTS,mKcell,D77,D02,2017-02-13T21:11:14+06:00,2
1000000000328556,77789334455,mKcell,mMTS,mKcell,D77,D02,2017-02-13T21:26:10+06:00,
