NPId,Number,RecipientId,DonorId,RangeHolderId,OldRoute,NewRoute,PortDate,RowCount
1000000000161226,77080777770,mKcell,mAltel,mAltel,,D02,2016-04-26T22:10:02+06:00,2
1000000000161227,77082262022,mMTS,mAltel,mAltel,,D77,2016-04-26T22:27:01+06:00,
