NPId,Number,RecipientId,DonorId,RangeHolderId,OldRoute,NewRoute,PortDate,RowCount
1000000000244722,77015191655,mKarTel,mKcell,mKcell,,D01,2016-09-14T12:52:36+06:00,31
1000000000244722,77017951586,mKarTel,mKcell,mKcell,,D01,2016-09-14T12:52:36+06:00,
1000000000244722,77019130544,mKarTel,mKcell,mKcell,,D01,2016-09-14T12:52:36+06:00,
1000000000245201,77059722322,mMTS,mKarTel,mKarTel,,D77,2016-09-14T12:30:19+06:00,
1000000000245202,77717588589,mKcell,mKarTel,mKarTel,,D02,2016-09-14T12:32:04+06:00,
1000000000245203,77471949036,mKarTel,mMTS,mMTS,,D01,2016-09-14T12:31:06+06:00,
1000000000245204,77753392369,mMTS,mKcell,mKcell,,D77,2016-09-14T12:30:32+06:00,
1000000000245205,77017589810,mAltel,mKcell,mKcell,,D07,2016-09-14T12:32:14+06:00,
1000000000245207,77477499488,mKarTel,mMTS,mMTS,,D01,2016-09-14T12:34:14+06:00,
1000000000245208,77015265138,mKcell,mMTS,mKcell,D77,D02,2016-09-14T12:34:03+06:00,
1000000000245209,77059184844,mMTS,mKarTel,mKarTel,,D77,2016-09-14T12:35:48+06:00,
1000000000245210,77717588545,mKcell,mKarTel,mKarTel,,D02,2016-09-14T12:36:01+06:00,
1000000000245211,77014052840,mKcell,mMTS,mKcell,D77,D02,2016-09-14T12:34:20+06:00,
1000000000245213,77012126474,mAltel,mKcell,mKcell,,D07,2016-09-14T12:36:26+06:00,
1000000000245214,77051299348,mKarTel,mAltel,mKarTel,D07,D01,2016-09-14T12:37:19+06:00,
1000000000245215,77019555522,mKarTel,mKcell,mKcell,,D01,2016-09-14T12:37:20+06:00,
1000000000245217,77089691885,mMTS,mAltel,mAltel,,D77,2016-09-14T12:38:37+06:00,
1000000000245219,77717588567,mKcell,mKarTel,mKarTel,,D02,2016-09-14T12:45:04+06:00,
1000000000245220,77072958313,mMTS,mAltel,mMTS,D07,D77,2016-09-14T12:43:58+06:00,
1000000000245221,77772977290,mKcell,mKarTel,mKarTel,,D02,2016-09-14T12:46:17+06:00,
1000000000245222,77072030977,mMTS,mAltel,mMTS,D07,D77,2016-09-14T12:45:26+06:00,
1000000000245223,77025674323,mKcell,mAltel,mKcell,D07,D02,2016-09-14T12:45:59+06:00,
1000000000245227,77013703717,mMTS,mKcell,mKcell,,D77,2016-09-14T12:46:54+06:00,
1000000000245228,77015092390,mMTS,mKcell,mKcell,,D77,2016-09-14T12:47:30+06:00,
1000000000245229,77080707288,mKarTel,mAltel,mAltel,,D01,2016-09-14T12:49:03+06:00,
1000000000245230,77015964021,mKcell,mMTS,mKcell,D77,D02,2016-09-14T12:50:22+06:00,
1000000000245231,77752209466,mMTS,mKcell,mKcell,,D77,2016-09-14T12:50:25+06:00,
1000000000245232,77786620803,mMTS,mKcell,mKcell,,D77,2016-09-14T12:51:11+06:00,
1000000000245233,77015396193,mKcell,mMTS,mKcell,D77,D02,2016-09-14T12:52:50+06:00,
1000000000245234,77026996999,mKarTel,mKcell,mKcell,,D01,2016-09-14T12:56:16+06:00,
1000000000245236,77788732469,mAltel,mKcell,mKcell,,D07,2016-09-14T12:57:51+06:00,
