NPId,Number,RecipientId,DonorId,RangeHolderId,OldRoute,NewRoute,PortDate,RowCount
1000000000221607,77761212144,mKcell,mKarTel,mKarTel,,D02,2016-08-01T20:32:36+06:00,5
1000000000221608,77003170555,mKcell,mAltel,mAltel,,D02,2016-08-01T20:35:39+06:00,
1000000000221610,77005999999,mKcell,mAltel,mAltel,,D02,2016-08-01T20:38:42+06:00,
1000000000221612,77078882208,mKcell,mMTS,mMTS,,D02,2016-08-01T20:56:24+06:00,
1000000000221613,77771903888,mMTS,mKarTel,mKarTel,,D77,2016-08-01T20:57:48+06:00,
