NPId,Number,RecipientId,DonorId,RangeHolderId,OldRoute,NewRoute,PortDate,RowCount
1000000000281213,77077300606,mMTS,mKcell,mMTS,D02,D77,2016-11-19T11:31:00+06:00,13
1000000000281214,77782281492,mMTS,mKcell,mKcell,,D77,2016-11-19T11:32:39+06:00,
1000000000281215,77017371534,mKcell,mKarTel,mKcell,D01,D02,2016-11-19T11:33:31+06:00,
1000000000281216,77012368712,mMTS,mKcell,mKcell,,D77,2016-11-19T11:35:47+06:00,
1000000000281217,77078334400,mAltel,mMTS,mMTS,,D07,2016-11-19T11:37:04+06:00,
1000000000281219,77015141012,mKarTel,mKcell,mKcell,,D01,2016-11-19T11:45:18+06:00,
1000000000281221,77773042035,mKarTel,mAltel,mKarTel,D07,D01,2016-11-19T11:48:55+06:00,
1000000000281222,77077358198,mKcell,mKarTel,mMTS,D01,D02,2016-11-19T11:49:48+06:00,
1000000000281224,77027770789,mMTS,mKcell,mKcell,,D77,2016-11-19T11:52:42+06:00,
1000000000281225,77757677803,mKcell,mMTS,mKcell,D77,D02,2016-11-19T11:55:35+06:00,
1000000000281226,77070512211,mAltel,mMTS,mMTS,,D07,2016-11-19T11:55:21+06:00,
1000000000281227,77759221922,mKcell,mMTS,mKcell,D77,D02,2016-11-19T11:56:40+06:00,
1000000000281228,77019894398,mMTS,mKcell,mKcell,,D77,2016-11-19T11:58:57+06:00,
