NPId,Number,RecipientId,DonorId,RangeHolderId,OldRoute,NewRoute,PortDate,RowCount
1000000000436038,77078423085,mKarTel,mMTS,mMTS,,D01,2017-08-07T13:03:16+06:00,24
1000000000436039,77076637492,mAltel,mMTS,mMTS,,D07,2017-08-07T13:03:58+06:00,
1000000000436040,77055417442,mMTS,mKarTel,mKarTel,,D77,2017-08-07T13:05:27+06:00,
1000000000436041,77051057777,mKcell,mKarTel,mKarTel,D01,D02,2017-08-07T13:05:37+06:00,
1000000000436046,77470624909,mAltel,mMTS,mMTS,,D07,2017-08-07T13:08:34+06:00,
1000000000436047,77750909581,mMTS,mKcell,mKcell,,D77,2017-08-07T13:08:43+06:00,
1000000000436048,77076121550,mKcell,mMTS,mMTS,,D02,2017-08-07T13:09:27+06:00,
1000000000436049,77014213005,mKarTel,mKcell,mKcell,,D01,2017-08-07T13:09:39+06:00,
1000000000436050,77079971986,mMTS,mAltel,mMTS,D07,D77,2017-08-07T13:09:36+06:00,
1000000000436051,77760998833,mKcell,mKarTel,mKarTel,,D02,2017-08-07T13:11:58+06:00,
1000000000436053,77012076867,mMTS,mKcell,mKcell,,D77,2017-08-07T13:14:28+06:00,
1000000000436056,77028223516,mMTS,mKcell,mKcell,,D77,2017-08-07T13:17:26+06:00,
1000000000436057,77029084122,mAltel,mKcell,mKcell,,D07,2017-08-07T13:19:08+06:00,
1000000000436058,77750000609,mKarTel,mAltel,mKcell,D07,D01,2017-08-07T13:19:45+06:00,
1000000000436059,77076298595,mKcell,mMTS,mMTS,,D02,2017-08-07T13:20:23+06:00,
1000000000436063,77001070781,mMTS,mAltel,mAltel,,D77,2017-08-07T13:21:06+06:00,
1000000000436065,77082242300,mKarTel,mAltel,mAltel,,D01,2017-08-07T13:23:01+06:00,
1000000000436068,77016666335,mKcell,mMTS,mKcell,D77,D02,2017-08-07T13:25:08+06:00,
1000000000436069,77089509324,mMTS,mAltel,mAltel,,D77,2017-08-07T13:25:09+06:00,
1000000000436070,77752663656,mKarTel,mKcell,mKcell,,D01,2017-08-07T13:25:43+06:00,
1000000000436071,77765965956,mAltel,mMTS,mKarTel,D77,D07,2017-08-07T13:26:59+06:00,
1000000000436072,77087605710,mKarTel,mAltel,mAltel,,D01,2017-08-07T13:27:21+06:00,
1000000000436073,77078496688,mKcell,mMTS,mMTS,,D02,2017-08-07T13:29:26+06:00,
1000000000436074,77472900489,mKarTel,mMTS,mMTS,,D01,2017-08-07T13:29:54+06:00,
