NPId,Number,RecipientId,DonorId,RangeHolderId,OldRoute,NewRoute,PortDate,RowCount
1000000000151179,77012664119,mAltel,mKcell,mKcell,,D07,2016-04-13T17:30:27+06:00,55
1000000000151181,77004441084,mKcell,mAltel,mAltel,,D02,2016-04-13T17:30:56+06:00,
1000000000151182,77086600640,mKcell,mAltel,mAltel,,D02,2016-04-13T17:31:38+06:00,
1000000000151183,77087329162,mMTS,mAltel,mAltel,,D77,2016-04-13T17:30:41+06:00,
1000000000151184,77015180060,mMTS,mKcell,mKcell,,D77,2016-04-13T17:31:16+06:00,
1000000000151185,77710806868,mKcell,mKarTel,mKarTel,,D02,2016-04-13T17:33:48+06:00,
1000000000151186,77016685591,mKcell,mAltel,mKcell,D07,D02,2016-04-13T17:31:52+06:00,
1000000000151187,77077347127,mKcell,mMTS,mMTS,,D02,2016-04-13T17:31:52+06:00,
1000000000151189,77076018522,mAltel,mMTS,mMTS,,D07,2016-04-13T17:31:16+06:00,
1000000000151190,77078973284,mKcell,mMTS,mMTS,,D02,2016-04-13T17:31:53+06:00,
1000000000151192,77017340221,mMTS,mKcell,mKcell,,D77,2016-04-13T17:32:22+06:00,
1000000000151193,77083558456,mKcell,mAltel,mAltel,,D02,2016-04-13T17:34:20+06:00,
1000000000151194,77472033807,mKcell,mMTS,mMTS,,D02,2016-04-13T17:34:53+06:00,
1000000000151195,77004077472,mMTS,mAltel,mAltel,,D77,2016-04-13T17:34:48+06:00,
1000000000151196,77086632054,mMTS,mAltel,mAltel,,D77,2016-04-13T17:34:48+06:00,
1000000000151198,77781044496,mAltel,mKcell,mKcell,,D07,2016-04-13T17:36:59+06:00,
1000000000151199,77762181722,mMTS,mKarTel,mKarTel,,D77,2016-04-13T17:38:14+06:00,
1000000000151200,77022873030,mAltel,mKcell,mKcell,,D07,2016-04-13T17:37:06+06:00,
1000000000151201,77763302830,mKcell,mKarTel,mKarTel,,D02,2016-04-13T17:39:26+06:00,
1000000000151203,77089509403,mMTS,mAltel,mAltel,,D77,2016-04-13T17:37:31+06:00,
1000000000151204,77783333231,mMTS,mKcell,mKcell,,D77,2016-04-13T17:38:13+06:00,
1000000000151206,77777511551,mAltel,mKarTel,mKarTel,,D07,2016-04-13T17:40:24+06:00,
1000000000151207,77752150400,mMTS,mKcell,mKcell,,D77,2016-04-13T17:39:13+06:00,
1000000000151208,77089252827,mMTS,mAltel,mAltel,,D77,2016-04-13T17:39:28+06:00,
1000000000151209,77011858800,mKcell,mAltel,mKcell,D07,D02,2016-04-13T17:41:19+06:00,
1000000000151210,77085030640,mMTS,mAltel,mAltel,,D77,2016-04-13T17:41:01+06:00,
1000000000151211,77085224640,mMTS,mAltel,mAltel,,D77,2016-04-13T17:41:44+06:00,
1000000000151212,77009973214,mKarTel,mAltel,mAltel,,D01,2016-04-13T17:42:18+06:00,
1000000000151213,77003573741,mMTS,mAltel,mAltel,,D77,2016-04-13T17:42:36+06:00,
1000000000151214,77011114304,mMTS,mKcell,mKcell,,D77,2016-04-13T17:43:09+06:00,
1000000000151215,77762004848,mAltel,mKarTel,mKarTel,,D07,2016-04-13T17:44:54+06:00,
1000000000151216,77073177772,mKcell,mMTS,mMTS,,D02,2016-04-13T17:44:37+06:00,
1000000000151218,77015311666,mAltel,mKcell,mKcell,,D07,2016-04-13T17:45:58+06:00,
1000000000151220,77002501111,mKarTel,mAltel,mAltel,,D01,2016-04-13T17:46:57+06:00,
1000000000151221,77774969626,mKarTel,mAltel,mKarTel,D07,D01,2016-04-13T17:46:59+06:00,
1000000000151223,77775574258,mMTS,mKarTel,mKarTel,,D77,2016-04-13T17:49:01+06:00,
1000000000151224,77014791756,mMTS,mKcell,mKcell,,D77,2016-04-13T17:47:55+06:00,
1000000000151225,77022156876,mMTS,mKcell,mKcell,,D77,2016-04-13T17:48:14+06:00,
1000000000151226,77475054545,mKarTel,mMTS,mMTS,,D01,2016-04-13T17:48:57+06:00,
1000000000151226,77477992999,mKarTel,mMTS,mMTS,,D01,2016-04-13T17:48:57+06:00,
1000000000151227,77775001005,mKarTel,mKcell,mKarTel,D02,D01,2016-04-13T17:49:37+06:00,
1000000000151228,77077006500,mKcell,mMTS,mMTS,,D02,2016-04-13T17:49:52+06:00,
1000000000151229,77083415812,mMTS,mAltel,mAltel,,D77,2016-04-13T17:49:35+06:00,
1000000000151230,77085501051,mKcell,mAltel,mAltel,,D02,2016-04-13T17:50:31+06:00,
1000000000151231,77021497067,mMTS,mKcell,mKcell,,D77,2016-04-13T17:50:31+06:00,
1000000000151232,77029994664,mMTS,mKcell,mKcell,,D77,2016-04-13T17:51:08+06:00,
1000000000151233,77002887939,mKcell,mAltel,mAltel,,D02,2016-04-13T17:53:32+06:00,
1000000000151234,77085219590,mMTS,mAltel,mAltel,,D77,2016-04-13T17:51:04+06:00,
1000000000151235,77017322089,mMTS,mKcell,mKcell,,D77,2016-04-13T17:53:06+06:00,
1000000000151236,77762181761,mMTS,mKarTel,mKarTel,,D77,2016-04-13T17:53:04+06:00,
1000000000151238,77772890619,mMTS,mKarTel,mKarTel,,D77,2016-04-13T17:54:29+06:00,
1000000000151240,77081504545,mMTS,mAltel,mAltel,,D77,2016-04-13T17:54:54+06:00,
1000000000151242,77762181758,mMTS,mKarTel,mKarTel,,D77,2016-04-13T17:59:47+06:00,
1000000000151243,77007708650,mMTS,mAltel,mAltel,,D77,2016-04-13T17:57:53+06:00,
1000000000151245,77085334308,mMTS,mAltel,mAltel,,D77,2016-04-13T17:59:15+06:00,
