NPId,Number,RecipientId,DonorId,RangeHolderId,OldRoute,NewRoute,PortDate,RowCount
1000000000378458,77056082828,mAltel,mKarTel,mKarTel,,D07,2017-05-05T11:31:23+06:00,28
1000000000378459,77770766635,mMTS,mKarTel,mKarTel,,D77,2017-05-05T11:33:07+06:00,
1000000000378462,77012271145,mKcell,mKarTel,mKcell,D01,D02,2017-05-05T11:34:52+06:00,
1000000000378464,77786111982,mKcell,mMTS,mKcell,D77,D02,2017-05-05T11:35:35+06:00,
1000000000378465,77025074883,mAltel,mKcell,mKcell,,D07,2017-05-05T11:35:39+06:00,
1000000000378466,77003702005,mKcell,mAltel,mAltel,,D02,2017-05-05T11:36:59+06:00,
1000000000378467,77785825282,mMTS,mKcell,mKcell,,D77,2017-05-05T11:38:31+06:00,
1000000000378468,77471275090,mMTS,mAltel,mMTS,D07,D77,2017-05-05T11:38:24+06:00,
1000000000378469,77776300077,mAltel,mKarTel,mKarTel,,D07,2017-05-05T11:39:44+06:00,
1000000000378470,77770077752,mMTS,mKarTel,mKarTel,,D77,2017-05-05T11:40:15+06:00,
1000000000378471,77714454424,mKcell,mKarTel,mKarTel,,D02,2017-05-05T11:40:40+06:00,
1000000000378473,77768989899,mMTS,mKarTel,mKarTel,,D77,2017-05-05T11:43:06+06:00,
1000000000378474,77052219074,mKarTel,mKcell,mKarTel,D02,D01,2017-05-05T11:43:14+06:00,
1000000000378476,77052219067,mKarTel,mKcell,mKarTel,D02,D01,2017-05-05T11:44:39+06:00,
1000000000378477,77052219072,mKarTel,mKcell,mKarTel,D02,D01,2017-05-05T11:46:13+06:00,
1000000000378478,77757198451,mMTS,mKcell,mKcell,,D77,2017-05-05T11:46:17+06:00,
1000000000378480,77078220185,mKcell,mMTS,mMTS,,D02,2017-05-05T11:47:28+06:00,
1000000000378481,77052219073,mKarTel,mKcell,mKarTel,D02,D01,2017-05-05T11:47:58+06:00,
1000000000378482,77768248844,mKarTel,mKcell,mKarTel,D02,D01,2017-05-05T11:49:50+06:00,
1000000000378483,77082281125,mMTS,mAltel,mAltel,,D77,2017-05-05T11:49:52+06:00,
1000000000378484,77088420690,mKcell,mAltel,mAltel,,D02,2017-05-05T11:50:17+06:00,
1000000000378485,77022152926,mKcell,mMTS,mKcell,D77,D02,2017-05-05T11:50:20+06:00,
1000000000378486,77071814047,mAltel,mMTS,mMTS,,D07,2017-05-05T11:52:19+06:00,
1000000000378488,77001781718,mKcell,mAltel,mAltel,,D02,2017-05-05T11:53:25+06:00,
1000000000378490,77085391125,mMTS,mAltel,mAltel,,D77,2017-05-05T11:54:36+06:00,
1000000000378491,77021789161,mMTS,mKcell,mKcell,,D77,2017-05-05T11:55:30+06:00,
1000000000378492,77018553055,mKcell,mAltel,mKcell,D07,D02,2017-05-05T11:57:42+06:00,
1000000000378493,77756291171,mKarTel,mKcell,mKcell,,D01,2017-05-05T11:59:52+06:00,
