NPId,Number,RecipientId,DonorId,RangeHolderId,OldRoute,NewRoute,PortDate,RowCount
1000000000365057,77052230451,mKarTel,mKcell,mKarTel,D02,D01,2017-04-12T19:30:12+06:00,9
1000000000365058,77761614771,mKarTel,mKcell,mKarTel,D02,D01,2017-04-12T19:38:37+06:00,
1000000000365059,77716006050,mKcell,mKarTel,mKarTel,,D02,2017-04-12T19:39:05+06:00,
1000000000365060,77079686580,mKarTel,mMTS,mMTS,,D01,2017-04-12T19:38:47+06:00,
1000000000365061,77011119421,mKcell,mKarTel,mKcell,D01,D02,2017-04-12T19:39:52+06:00,
1000000000365062,77073210887,mKarTel,mAltel,mMTS,D07,D01,2017-04-12T19:44:42+06:00,
1000000000365063,77775500667,mKarTel,mMTS,mKarTel,D77,D01,2017-04-12T19:46:07+06:00,
1000000000365064,77757322596,mKarTel,mKcell,mKcell,,D01,2017-04-12T19:48:23+06:00,
1000000000365065,77057188811,mMTS,mKarTel,mKarTel,,D77,2017-04-12T19:53:12+06:00,
