NPId,Number,RecipientId,DonorId,RangeHolderId,OldRoute,NewRoute,PortDate,RowCount
1000000000253619,77052797923,mMTS,mKarTel,mKarTel,,D77,2016-09-29T19:00:19+06:00,8
1000000000253620,77711115582,mAltel,mKarTel,mKarTel,,D07,2016-09-29T19:07:38+06:00,
1000000000253622,77782348737,mMTS,mKcell,mKcell,,D77,2016-09-29T19:07:36+06:00,
1000000000253623,77016946434,mAltel,mKarTel,mKcell,D01,D07,2016-09-29T19:18:28+06:00,
1000000000253625,77772443799,mMTS,mKarTel,mKarTel,,D77,2016-09-29T19:24:07+06:00,
1000000000253626,77027890476,mKarTel,mMTS,mKcell,D77,D01,2016-09-29T19:26:49+06:00,
1000000000253627,77785584997,mMTS,mKcell,mKcell,,D77,2016-09-29T19:27:30+06:00,
1000000000253628,77752665448,mKarTel,mKcell,mKcell,,D01,2016-09-29T19:29:34+06:00,
