NPId,Number,RecipientId,DonorId,RangeHolderId,OldRoute,NewRoute,PortDate,RowCount
1000000000448395,77754956048,mMTS,mKcell,mKcell,,D77,2017-08-30T11:32:55+06:00,27
1000000000448396,77014411047,mKarTel,mMTS,mKcell,D77,D01,2017-08-30T11:33:30+06:00,
1000000000448397,77774014685,mAltel,mKarTel,mKarTel,,D07,2017-08-30T11:34:03+06:00,
1000000000448398,77471813300,mKarTel,mMTS,mMTS,,D01,2017-08-30T11:39:50+06:00,
1000000000448400,77777521121,mKarTel,mMTS,mKarTel,D77,D01,2017-08-30T11:41:42+06:00,
1000000000448401,77715177639,mAltel,mKarTel,mKarTel,,D07,2017-08-30T11:42:01+06:00,
1000000000448403,77758339993,mKcell,mAltel,mKcell,D07,D02,2017-08-30T11:43:00+06:00,
1000000000448405,77079717270,mKcell,mMTS,mMTS,,D02,2017-08-30T11:45:27+06:00,
1000000000448406,77785909990,mKarTel,mKcell,mKcell,,D01,2017-08-30T11:45:26+06:00,
1000000000448408,77021113553,mKarTel,mKcell,mKcell,,D01,2017-08-30T11:47:00+06:00,
1000000000448410,77774861194,mKcell,mKarTel,mKarTel,,D02,2017-08-30T11:48:02+06:00,
1000000000448411,77754974186,mMTS,mKcell,mKcell,,D77,2017-08-30T11:47:56+06:00,
1000000000448412,77752438363,mMTS,mKcell,mKcell,,D77,2017-08-30T11:48:35+06:00,
1000000000448414,77079403700,mKarTel,mMTS,mMTS,,D01,2017-08-30T11:51:52+06:00,
1000000000448415,77014268077,mKcell,mKarTel,mKcell,D01,D02,2017-08-30T11:52:19+06:00,
1000000000448416,77477507090,mMTS,mKcell,mMTS,D02,D77,2017-08-30T11:52:00+06:00,
1000000000448417,77772324442,mAltel,mKarTel,mKarTel,,D07,2017-08-30T11:52:29+06:00,
1000000000448418,77079403701,mKarTel,mMTS,mMTS,,D01,2017-08-30T11:52:55+06:00,
1000000000448420,77079403800,mKarTel,mMTS,mMTS,,D01,2017-08-30T11:54:14+06:00,
1000000000448421,77758906268,mMTS,mKcell,mKcell,,D77,2017-08-30T11:55:04+06:00,
1000000000448425,77076807301,mKarTel,mMTS,mMTS,,D01,2017-08-30T11:56:38+06:00,
1000000000448427,77473330309,mMTS,mKcell,mMTS,D02,D77,2017-08-30T11:56:57+06:00,
1000000000448428,77022151715,mAltel,mKcell,mKcell,D02,D07,2017-08-30T11:57:51+06:00,
1000000000448430,77754958394,mMTS,mKcell,mKcell,,D77,2017-08-30T11:57:58+06:00,
1000000000448431,77009919114,mAltel,mMTS,mAltel,D77,D07,2017-08-30T11:58:16+06:00,
1000000000448432,77013048400,mAltel,mMTS,mKcell,D77,D07,2017-08-30T11:58:26+06:00,
1000000000448433,77009997700,mKarTel,mKcell,mAltel,D02,D01,2017-08-30T11:59:46+06:00,
