NPId,Number,RecipientId,DonorId,RangeHolderId,OldRoute,NewRoute,PortDate,RowCount
1000000000153817,77784801827,mKcell,mAltel,mKcell,D07,D02,2016-04-16T18:36:53+06:00,10
1000000000153818,77777711193,mKcell,mKarTel,mKarTel,,D02,2016-04-16T18:41:23+06:00,
1000000000153819,77013002812,mMTS,mKcell,mKcell,,D77,2016-04-16T18:39:37+06:00,
1000000000153820,77085257888,mMTS,mAltel,mAltel,,D77,2016-04-16T18:41:57+06:00,
1000000000153821,77089206598,mMTS,mAltel,mAltel,,D77,2016-04-16T18:41:57+06:00,
1000000000153822,77085555566,mKarTel,mAltel,mAltel,,D01,2016-04-16T18:45:54+06:00,
1000000000153824,77089449144,mMTS,mAltel,mAltel,,D77,2016-04-16T18:49:30+06:00,
1000000000153825,77785277079,mKcell,mAltel,mKcell,D07,D02,2016-04-16T18:51:09+06:00,
1000000000153826,77784315148,mMTS,mKcell,mKcell,,D77,2016-04-16T18:54:19+06:00,
1000000000153827,77017510940,mKarTel,mKcell,mKcell,,D01,2016-04-16T18:59:08+06:00,
