NPId,Number,RecipientId,DonorId,RangeHolderId,OldRoute,NewRoute,PortDate,RowCount
1000000000181908,77762071053,mMTS,mKarTel,mKarTel,,D77,2016-05-27T11:00:32+06:00,26
1000000000181909,77072184108,mKcell,mMTS,mMTS,,D02,2016-05-27T11:01:49+06:00,
1000000000181910,77774120662,mMTS,mKarTel,mKarTel,,D77,2016-05-27T11:03:15+06:00,
1000000000181911,77011701524,mKcell,mAltel,mKcell,D07,D02,2016-05-27T11:04:33+06:00,
1000000000181914,77071244200,mMTS,mAltel,mMTS,D07,D77,2016-05-27T11:08:34+06:00,
1000000000181915,77003061616,mMTS,mAltel,mAltel,,D77,2016-05-27T11:11:37+06:00,
1000000000181917,77028909059,mKcell,mAltel,mKcell,D07,D02,2016-05-27T11:16:45+06:00,
1000000000181918,77084984333,mKarTel,mAltel,mAltel,,D01,2016-05-27T11:12:43+06:00,
1000000000181919,77714025565,mAltel,mKarTel,mKarTel,,D07,2016-05-27T11:13:13+06:00,
1000000000181921,77472877955,mKarTel,mMTS,mMTS,,D01,2016-05-27T11:15:31+06:00,
1000000000181922,77770995380,mMTS,mKarTel,mKarTel,,D77,2016-05-27T11:16:33+06:00,
1000000000181923,77002870777,mMTS,mAltel,mAltel,,D77,2016-05-27T11:17:03+06:00,
1000000000181924,77756664647,mAltel,mKcell,mKcell,,D07,2016-05-27T11:17:46+06:00,
1000000000181925,77027032824,mMTS,mKcell,mKcell,,D77,2016-05-27T11:18:14+06:00,
1000000000181926,77057192200,mKcell,mKarTel,mKarTel,,D02,2016-05-27T11:21:46+06:00,
1000000000181927,77053333456,mKarTel,mMTS,mKarTel,D77,D01,2016-05-27T11:21:15+06:00,
1000000000181928,77086775276,mMTS,mAltel,mAltel,,D77,2016-05-27T11:21:04+06:00,
1000000000181929,77021500498,mMTS,mKcell,mKcell,,D77,2016-05-27T11:21:52+06:00,
1000000000181930,77013804326,mMTS,mKcell,mKcell,,D77,2016-05-27T11:22:18+06:00,
1000000000181931,77013166902,mMTS,mKcell,mKcell,,D77,2016-05-27T11:22:36+06:00,
1000000000181932,77081040526,mMTS,mAltel,mAltel,,D77,2016-05-27T11:22:16+06:00,
1000000000181933,77757180578,mMTS,mKcell,mKcell,,D77,2016-05-27T11:23:55+06:00,
1000000000181934,77029967092,mKarTel,mKcell,mKcell,,D01,2016-05-27T11:25:46+06:00,
1000000000181935,77752286890,mAltel,mKcell,mKcell,,D07,2016-05-27T11:26:00+06:00,
1000000000181936,77075990110,mKcell,mMTS,mMTS,,D02,2016-05-27T11:26:33+06:00,
1000000000181937,77778260000,mKarTel,mAltel,mKarTel,D07,D01,2016-05-27T11:27:15+06:00,
