NPId,Number,RecipientId,DonorId,RangeHolderId,OldRoute,NewRoute,PortDate,RowCount
1000000000314641,77758073777,mMTS,mKcell,mKcell,,D77,2017-01-22T15:05:25+06:00,10
1000000000314645,77021900160,mAltel,mKcell,mKcell,,D07,2017-01-22T15:07:02+06:00,
1000000000314647,77028254769,mAltel,mKcell,mKcell,,D07,2017-01-22T15:08:38+06:00,
1000000000314649,77023371772,mKcell,mMTS,mKcell,D77,D02,2017-01-22T15:18:37+06:00,
1000000000314651,77085234373,mMTS,mAltel,mAltel,,D77,2017-01-22T15:22:39+06:00,
1000000000314652,77754347210,mMTS,mKcell,mKcell,,D77,2017-01-22T15:24:09+06:00,
1000000000314653,77022626007,mAltel,mKcell,mKcell,,D07,2017-01-22T15:26:37+06:00,
1000000000314654,77025552410,mAltel,mKcell,mKcell,,D07,2017-01-22T15:26:41+06:00,
1000000000314656,77021119627,mKcell,mAltel,mKcell,D07,D02,2017-01-22T15:27:50+06:00,
1000000000314657,77085234545,mMTS,mKcell,mAltel,D02,D77,2017-01-22T15:27:48+06:00,
