NPId,Number,RecipientId,DonorId,RangeHolderId,OldRoute,NewRoute,PortDate,RowCount
1000000000215162,77717057334,mKcell,mKarTel,mKarTel,,D02,2016-07-22T11:43:48+06:00,658
1000000000215162,77717057335,mKcell,mKarTel,mKarTel,,D02,2016-07-22T11:43:48+06:00,
1000000000215162,77717057336,mKcell,mKarTel,mKarTel,,D02,2016-07-22T11:43:48+06:00,
1000000000215162,77717057338,mKcell,mKarTel,mKarTel,,D02,2016-07-22T11:43:48+06:00,
1000000000215162,77717057339,mKcell,mKarTel,mKarTel,,D02,2016-07-22T11:43:48+06:00,
1000000000215162,77717057340,mKcell,mKarTel,mKarTel,,D02,2016-07-22T11:43:48+06:00,
1000000000215162,77717057341,mKcell,mKarTel,mKarTel,,D02,2016-07-22T11:43:48+06:00,
1000000000215162,77717057342,mKcell,mKarTel,mKarTel,,D02,2016-07-22T11:43:48+06:00,
1000000000215162,77717057343,mKcell,mKarTel,mKarTel,,D02,2016-07-22T11:43:48+06:00,
1000000000215162,77717057344,mKcell,mKarTel,mKarTel,,D02,2016-07-22T11:43:48+06:00,
1000000000215162,77717057345,mKcell,mKarTel,mKarTel,,D02,2016-07-22T11:43:48+06:00,
1000000000215162,77717057346,mKcell,mKarTel,mKarTel,,D02,2016-07-22T11:43:48+06:00,
1000000000215162,77717057347,mKcell,mKarTel,mKarTel,,D02,2016-07-22T11:43:48+06:00,
1000000000215162,77717057348,mKcell,mKarTel,mKarTel,,D02,2016-07-22T11:43:48+06:00,
1000000000215162,77717057349,mKcell,mKarTel,mKarTel,,D02,2016-07-22T11:43:48+06:00,
1000000000215162,77717057350,mKcell,mKarTel,mKarTel,,D02,2016-07-22T11:43:48+06:00,
1000000000215162,77717057351,mKcell,mKarTel,mKarTel,,D02,2016-07-22T11:43:48+06:00,
1000000000215162,77717057352,mKcell,mKarTel,mKarTel,,D02,2016-07-22T11:43:48+06:00,
1000000000215162,77717057353,mKcell,mKarTel,mKarTel,,D02,2016-07-22T11:43:48+06:00,
1000000000215162,77717057354,mKcell,mKarTel,mKarTel,,D02,2016-07-22T11:43:48+06:00,
1000000000215162,77717057355,mKcell,mKarTel,mKarTel,,D02,2016-07-22T11:43:48+06:00,
1000000000215162,77717057356,mKcell,mKarTel,mKarTel,,D02,2016-07-22T11:43:48+06:00,
1000000000215162,77717057357,mKcell,mKarTel,mKarTel,,D02,2016-07-22T11:43:48+06:00,
1000000000215162,77717057358,mKcell,mKarTel,mKarTel,,D02,2016-07-22T11:43:48+06:00,
1000000000215162,77717057359,mKcell,mKarTel,mKarTel,,D02,2016-07-22T11:43:48+06:00,
1000000000215162,77717057360,mKcell,mKarTel,mKarTel,,D02,2016-07-22T11:43:48+06:00,
1000000000215162,77717057361,mKcell,mKarTel,mKarTel,,D02,2016-07-22T11:43:48+06:00,
1000000000215162,77717057362,mKcell,mKarTel,mKarTel,,D02,2016-07-22T11:43:48+06:00,
1000000000215162,77717057363,mKcell,mKarTel,mKarTel,,D02,2016-07-22T11:43:48+06:00,
1000000000215162,77717057364,mKcell,mKarTel,mKarTel,,D02,2016-07-22T11:43:48+06:00,
1000000000215162,77717057365,mKcell,mKarTel,mKarTel,,D02,2016-07-22T11:43:48+06:00,
1000000000215162,77717057366,mKcell,mKarTel,mKarTel,,D02,2016-07-22T11:43:48+06:00,
1000000000215162,77717057367,mKcell,mKarTel,mKarTel,,D02,2016-07-22T11:43:48+06:00,
1000000000215162,77717057368,mKcell,mKarTel,mKarTel,,D02,2016-07-22T11:43:48+06:00,
1000000000215162,77717057369,mKcell,mKarTel,mKarTel,,D02,2016-07-22T11:43:48+06:00,
1000000000215162,77717057370,mKcell,mKarTel,mKarTel,,D02,2016-07-22T11:43:48+06:00,
1000000000215162,77717057371,mKcell,mKarTel,mKarTel,,D02,2016-07-22T11:43:48+06:00,
1000000000215162,77717057372,mKcell,mKarTel,mKarTel,,D02,2016-07-22T11:43:48+06:00,
1000000000215162,77717059728,mKcell,mKarTel,mKarTel,,D02,2016-07-22T11:43:48+06:00,
1000000000215162,77717059729,mKcell,mKarTel,mKarTel,,D02,2016-07-22T11:43:48+06:00,
1000000000215162,77717059730,mKcell,mKarTel,mKarTel,,D02,2016-07-22T11:43:48+06:00,
1000000000215162,77717059731,mKcell,mKarTel,mKarTel,,D02,2016-07-22T11:43:48+06:00,
1000000000215162,77717059732,mKcell,mKarTel,mKarTel,,D02,2016-07-22T11:43:48+06:00,
1000000000215162,77717059733,mKcell,mKarTel,mKarTel,,D02,2016-07-22T11:43:48+06:00,
1000000000215162,77717059734,mKcell,mKarTel,mKarTel,,D02,2016-07-22T11:43:48+06:00,
1000000000215162,77717059735,mKcell,mKarTel,mKarTel,,D02,2016-07-22T11:43:48+06:00,
1000000000215162,77717059736,mKcell,mKarTel,mKarTel,,D02,2016-07-22T11:43:48+06:00,
1000000000215162,77717059737,mKcell,mKarTel,mKarTel,,D02,2016-07-22T11:43:48+06:00,
1000000000215162,77717059738,mKcell,mKarTel,mKarTel,,D02,2016-07-22T11:43:48+06:00,
1000000000215162,77717059739,mKcell,mKarTel,mKarTel,,D02,2016-07-22T11:43:48+06:00,
1000000000215162,77717059740,mKcell,mKarTel,mKarTel,,D02,2016-07-22T11:43:48+06:00,
1000000000215162,77717059741,mKcell,mKarTel,mKarTel,,D02,2016-07-22T11:43:48+06:00,
1000000000215162,77717059742,mKcell,mKarTel,mKarTel,,D02,2016-07-22T11:43:48+06:00,
1000000000215162,77717059743,mKcell,mKarTel,mKarTel,,D02,2016-07-22T11:43:48+06:00,
1000000000215162,77717059744,mKcell,mKarTel,mKarTel,,D02,2016-07-22T11:43:48+06:00,
1000000000215162,77717059745,mKcell,mKarTel,mKarTel,,D02,2016-07-22T11:43:48+06:00,
1000000000215162,77717059746,mKcell,mKarTel,mKarTel,,D02,2016-07-22T11:43:48+06:00,
1000000000215162,77717059747,mKcell,mKarTel,mKarTel,,D02,2016-07-22T11:43:48+06:00,
1000000000215162,77717059748,mKcell,mKarTel,mKarTel,,D02,2016-07-22T11:43:48+06:00,
1000000000215162,77717059749,mKcell,mKarTel,mKarTel,,D02,2016-07-22T11:43:48+06:00,
1000000000215162,77717059750,mKcell,mKarTel,mKarTel,,D02,2016-07-22T11:43:48+06:00,
1000000000215162,77717059751,mKcell,mKarTel,mKarTel,,D02,2016-07-22T11:43:48+06:00,
1000000000215162,77717059752,mKcell,mKarTel,mKarTel,,D02,2016-07-22T11:43:48+06:00,
1000000000215162,77717581065,mKcell,mKarTel,mKarTel,,D02,2016-07-22T11:43:48+06:00,
1000000000215162,77717581069,mKcell,mKarTel,mKarTel,,D02,2016-07-22T11:43:48+06:00,
1000000000215162,77717581090,mKcell,mKarTel,mKarTel,,D02,2016-07-22T11:43:48+06:00,
1000000000215162,77717581098,mKcell,mKarTel,mKarTel,,D02,2016-07-22T11:43:48+06:00,
1000000000215162,77717581262,mKcell,mKarTel,mKarTel,,D02,2016-07-22T11:43:48+06:00,
1000000000215162,77717581284,mKcell,mKarTel,mKarTel,,D02,2016-07-22T11:43:48+06:00,
1000000000215162,77717581287,mKcell,mKarTel,mKarTel,,D02,2016-07-22T11:43:48+06:00,
1000000000215162,77717581353,mKcell,mKarTel,mKarTel,,D02,2016-07-22T11:43:48+06:00,
1000000000215162,77717581476,mKcell,mKarTel,mKarTel,,D02,2016-07-22T11:43:48+06:00,
1000000000215162,77717581506,mKcell,mKarTel,mKarTel,,D02,2016-07-22T11:43:48+06:00,
1000000000215162,77717581508,mKcell,mKarTel,mKarTel,,D02,2016-07-22T11:43:48+06:00,
1000000000215162,77717581509,mKcell,mKarTel,mKarTel,,D02,2016-07-22T11:43:48+06:00,
1000000000215162,77717581518,mKcell,mKarTel,mKarTel,,D02,2016-07-22T11:43:48+06:00,
1000000000215162,77717581531,mKcell,mKarTel,mKarTel,,D02,2016-07-22T11:43:48+06:00,
1000000000215162,77717581532,mKcell,mKarTel,mKarTel,,D02,2016-07-22T11:43:48+06:00,
1000000000215162,77717581534,mKcell,mKarTel,mKarTel,,D02,2016-07-22T11:43:48+06:00,
1000000000215162,77717581539,mKcell,mKarTel,mKarTel,,D02,2016-07-22T11:43:48+06:00,
1000000000215162,77717581548,mKcell,mKarTel,mKarTel,,D02,2016-07-22T11:43:48+06:00,
1000000000215162,77717581549,mKcell,mKarTel,mKarTel,,D02,2016-07-22T11:43:48+06:00,
1000000000215162,77717581556,mKcell,mKarTel,mKarTel,,D02,2016-07-22T11:43:48+06:00,
1000000000215162,77717581563,mKcell,mKarTel,mKarTel,,D02,2016-07-22T11:43:48+06:00,
1000000000215162,77717581568,mKcell,mKarTel,mKarTel,,D02,2016-07-22T11:43:48+06:00,
1000000000215162,77717581573,mKcell,mKarTel,mKarTel,,D02,2016-07-22T11:43:48+06:00,
1000000000215162,77717581576,mKcell,mKarTel,mKarTel,,D02,2016-07-22T11:43:48+06:00,
1000000000215162,77717581579,mKcell,mKarTel,mKarTel,,D02,2016-07-22T11:43:48+06:00,
1000000000215162,77717581581,mKcell,mKarTel,mKarTel,,D02,2016-07-22T11:43:48+06:00,
1000000000215162,77717581582,mKcell,mKarTel,mKarTel,,D02,2016-07-22T11:43:48+06:00,
1000000000215162,77717581584,mKcell,mKarTel,mKarTel,,D02,2016-07-22T11:43:48+06:00,
1000000000215162,77717581596,mKcell,mKarTel,mKarTel,,D02,2016-07-22T11:43:48+06:00,
1000000000215162,77717581597,mKcell,mKarTel,mKarTel,,D02,2016-07-22T11:43:48+06:00,
1000000000215162,77717581613,mKcell,mKarTel,mKarTel,,D02,2016-07-22T11:43:48+06:00,
1000000000215162,77717581619,mKcell,mKarTel,mKarTel,,D02,2016-07-22T11:43:48+06:00,
1000000000215162,77717581621,mKcell,mKarTel,mKarTel,,D02,2016-07-22T11:43:48+06:00,
1000000000215162,77717581623,mKcell,mKarTel,mKarTel,,D02,2016-07-22T11:43:48+06:00,
1000000000215162,77717581624,mKcell,mKarTel,mKarTel,,D02,2016-07-22T11:43:48+06:00,
1000000000215162,77717581625,mKcell,mKarTel,mKarTel,,D02,2016-07-22T11:43:48+06:00,
1000000000215165,77717587290,mKcell,mKarTel,mKarTel,,D02,2016-07-22T11:44:57+06:00,
1000000000215165,77717587292,mKcell,mKarTel,mKarTel,,D02,2016-07-22T11:44:57+06:00,
1000000000215165,77717587293,mKcell,mKarTel,mKarTel,,D02,2016-07-22T11:44:57+06:00,
1000000000215165,77717587294,mKcell,mKarTel,mKarTel,,D02,2016-07-22T11:44:57+06:00,
1000000000215165,77717587295,mKcell,mKarTel,mKarTel,,D02,2016-07-22T11:44:57+06:00,
1000000000215165,77717587296,mKcell,mKarTel,mKarTel,,D02,2016-07-22T11:44:57+06:00,
1000000000215165,77717587301,mKcell,mKarTel,mKarTel,,D02,2016-07-22T11:44:57+06:00,
1000000000215165,77717587305,mKcell,mKarTel,mKarTel,,D02,2016-07-22T11:44:57+06:00,
1000000000215165,77717587306,mKcell,mKarTel,mKarTel,,D02,2016-07-22T11:44:57+06:00,
1000000000215165,77717587307,mKcell,mKarTel,mKarTel,,D02,2016-07-22T11:44:57+06:00,
1000000000215165,77717587308,mKcell,mKarTel,mKarTel,,D02,2016-07-22T11:44:57+06:00,
1000000000215165,77717587309,mKcell,mKarTel,mKarTel,,D02,2016-07-22T11:44:57+06:00,
1000000000215165,77717587310,mKcell,mKarTel,mKarTel,,D02,2016-07-22T11:44:57+06:00,
1000000000215165,77717587311,mKcell,mKarTel,mKarTel,,D02,2016-07-22T11:44:57+06:00,
1000000000215165,77717587312,mKcell,mKarTel,mKarTel,,D02,2016-07-22T11:44:57+06:00,
1000000000215165,77717587314,mKcell,mKarTel,mKarTel,,D02,2016-07-22T11:44:57+06:00,
1000000000215165,77717587315,mKcell,mKarTel,mKarTel,,D02,2016-07-22T11:44:57+06:00,
1000000000215165,77717587318,mKcell,mKarTel,mKarTel,,D02,2016-07-22T11:44:57+06:00,
1000000000215165,77717587319,mKcell,mKarTel,mKarTel,,D02,2016-07-22T11:44:57+06:00,
1000000000215165,77717587320,mKcell,mKarTel,mKarTel,,D02,2016-07-22T11:44:57+06:00,
1000000000215165,77717587322,mKcell,mKarTel,mKarTel,,D02,2016-07-22T11:44:57+06:00,
1000000000215165,77717587324,mKcell,mKarTel,mKarTel,,D02,2016-07-22T11:44:57+06:00,
1000000000215165,77717587325,mKcell,mKarTel,mKarTel,,D02,2016-07-22T11:44:57+06:00,
1000000000215165,77717587326,mKcell,mKarTel,mKarTel,,D02,2016-07-22T11:44:57+06:00,
1000000000215165,77717587327,mKcell,mKarTel,mKarTel,,D02,2016-07-22T11:44:57+06:00,
1000000000215165,77717587328,mKcell,mKarTel,mKarTel,,D02,2016-07-22T11:44:57+06:00,
1000000000215165,77717587329,mKcell,mKarTel,mKarTel,,D02,2016-07-22T11:44:57+06:00,
1000000000215165,77717587330,mKcell,mKarTel,mKarTel,,D02,2016-07-22T11:44:57+06:00,
1000000000215165,77717587331,mKcell,mKarTel,mKarTel,,D02,2016-07-22T11:44:57+06:00,
1000000000215165,77717587332,mKcell,mKarTel,mKarTel,,D02,2016-07-22T11:44:57+06:00,
1000000000215165,77717587342,mKcell,mKarTel,mKarTel,,D02,2016-07-22T11:44:57+06:00,
1000000000215165,77717587343,mKcell,mKarTel,mKarTel,,D02,2016-07-22T11:44:57+06:00,
1000000000215165,77717587344,mKcell,mKarTel,mKarTel,,D02,2016-07-22T11:44:57+06:00,
1000000000215165,77717587345,mKcell,mKarTel,mKarTel,,D02,2016-07-22T11:44:57+06:00,
1000000000215165,77717587346,mKcell,mKarTel,mKarTel,,D02,2016-07-22T11:44:57+06:00,
1000000000215165,77717587347,mKcell,mKarTel,mKarTel,,D02,2016-07-22T11:44:57+06:00,
1000000000215165,77717587349,mKcell,mKarTel,mKarTel,,D02,2016-07-22T11:44:57+06:00,
1000000000215165,77717587350,mKcell,mKarTel,mKarTel,,D02,2016-07-22T11:44:57+06:00,
1000000000215165,77717587351,mKcell,mKarTel,mKarTel,,D02,2016-07-22T11:44:57+06:00,
1000000000215165,77717587352,mKcell,mKarTel,mKarTel,,D02,2016-07-22T11:44:57+06:00,
1000000000215165,77717587353,mKcell,mKarTel,mKarTel,,D02,2016-07-22T11:44:57+06:00,
1000000000215165,77717587354,mKcell,mKarTel,mKarTel,,D02,2016-07-22T11:44:57+06:00,
1000000000215165,77717587355,mKcell,mKarTel,mKarTel,,D02,2016-07-22T11:44:57+06:00,
1000000000215165,77717587357,mKcell,mKarTel,mKarTel,,D02,2016-07-22T11:44:57+06:00,
1000000000215165,77717587358,mKcell,mKarTel,mKarTel,,D02,2016-07-22T11:44:57+06:00,
1000000000215165,77717587367,mKcell,mKarTel,mKarTel,,D02,2016-07-22T11:44:57+06:00,
1000000000215165,77717587368,mKcell,mKarTel,mKarTel,,D02,2016-07-22T11:44:57+06:00,
1000000000215165,77717587369,mKcell,mKarTel,mKarTel,,D02,2016-07-22T11:44:57+06:00,
1000000000215165,77717587370,mKcell,mKarTel,mKarTel,,D02,2016-07-22T11:44:57+06:00,
1000000000215165,77717587371,mKcell,mKarTel,mKarTel,,D02,2016-07-22T11:44:57+06:00,
1000000000215165,77717587372,mKcell,mKarTel,mKarTel,,D02,2016-07-22T11:44:57+06:00,
1000000000215165,77717587374,mKcell,mKarTel,mKarTel,,D02,2016-07-22T11:44:57+06:00,
1000000000215165,77717587376,mKcell,mKarTel,mKarTel,,D02,2016-07-22T11:44:57+06:00,
1000000000215165,77717587377,mKcell,mKarTel,mKarTel,,D02,2016-07-22T11:44:57+06:00,
1000000000215165,77717587379,mKcell,mKarTel,mKarTel,,D02,2016-07-22T11:44:57+06:00,
1000000000215165,77717587380,mKcell,mKarTel,mKarTel,,D02,2016-07-22T11:44:57+06:00,
1000000000215165,77717587381,mKcell,mKarTel,mKarTel,,D02,2016-07-22T11:44:57+06:00,
1000000000215165,77717587382,mKcell,mKarTel,mKarTel,,D02,2016-07-22T11:44:57+06:00,
1000000000215165,77717587384,mKcell,mKarTel,mKarTel,,D02,2016-07-22T11:44:57+06:00,
1000000000215165,77717587385,mKcell,mKarTel,mKarTel,,D02,2016-07-22T11:44:57+06:00,
1000000000215165,77717587386,mKcell,mKarTel,mKarTel,,D02,2016-07-22T11:44:57+06:00,
1000000000215165,77717587387,mKcell,mKarTel,mKarTel,,D02,2016-07-22T11:44:57+06:00,
1000000000215165,77717587388,mKcell,mKarTel,mKarTel,,D02,2016-07-22T11:44:57+06:00,
1000000000215165,77717587390,mKcell,mKarTel,mKarTel,,D02,2016-07-22T11:44:57+06:00,
1000000000215165,77717587391,mKcell,mKarTel,mKarTel,,D02,2016-07-22T11:44:57+06:00,
1000000000215165,77717587392,mKcell,mKarTel,mKarTel,,D02,2016-07-22T11:44:57+06:00,
1000000000215165,77717587394,mKcell,mKarTel,mKarTel,,D02,2016-07-22T11:44:57+06:00,
1000000000215165,77717587395,mKcell,mKarTel,mKarTel,,D02,2016-07-22T11:44:57+06:00,
1000000000215165,77717587396,mKcell,mKarTel,mKarTel,,D02,2016-07-22T11:44:57+06:00,
1000000000215165,77717587397,mKcell,mKarTel,mKarTel,,D02,2016-07-22T11:44:57+06:00,
1000000000215165,77717587398,mKcell,mKarTel,mKarTel,,D02,2016-07-22T11:44:57+06:00,
1000000000215165,77717587399,mKcell,mKarTel,mKarTel,,D02,2016-07-22T11:44:57+06:00,
1000000000215165,77717587401,mKcell,mKarTel,mKarTel,,D02,2016-07-22T11:44:57+06:00,
1000000000215165,77717587402,mKcell,mKarTel,mKarTel,,D02,2016-07-22T11:44:57+06:00,
1000000000215165,77717587403,mKcell,mKarTel,mKarTel,,D02,2016-07-22T11:44:57+06:00,
1000000000215165,77717587405,mKcell,mKarTel,mKarTel,,D02,2016-07-22T11:44:57+06:00,
1000000000215165,77717587406,mKcell,mKarTel,mKarTel,,D02,2016-07-22T11:44:57+06:00,
1000000000215165,77717587407,mKcell,mKarTel,mKarTel,,D02,2016-07-22T11:44:57+06:00,
1000000000215165,77717587409,mKcell,mKarTel,mKarTel,,D02,2016-07-22T11:44:57+06:00,
1000000000215165,77717587410,mKcell,mKarTel,mKarTel,,D02,2016-07-22T11:44:57+06:00,
1000000000215165,77717587411,mKcell,mKarTel,mKarTel,,D02,2016-07-22T11:44:57+06:00,
1000000000215165,77717587412,mKcell,mKarTel,mKarTel,,D02,2016-07-22T11:44:57+06:00,
1000000000215165,77717587413,mKcell,mKarTel,mKarTel,,D02,2016-07-22T11:44:57+06:00,
1000000000215165,77717587415,mKcell,mKarTel,mKarTel,,D02,2016-07-22T11:44:57+06:00,
1000000000215165,77717587416,mKcell,mKarTel,mKarTel,,D02,2016-07-22T11:44:57+06:00,
1000000000215165,77717587417,mKcell,mKarTel,mKarTel,,D02,2016-07-22T11:44:57+06:00,
1000000000215165,77717587418,mKcell,mKarTel,mKarTel,,D02,2016-07-22T11:44:57+06:00,
1000000000215165,77717587419,mKcell,mKarTel,mKarTel,,D02,2016-07-22T11:44:57+06:00,
1000000000215165,77717587420,mKcell,mKarTel,mKarTel,,D02,2016-07-22T11:44:57+06:00,
1000000000215165,77717587422,mKcell,mKarTel,mKarTel,,D02,2016-07-22T11:44:57+06:00,
1000000000215165,77717587423,mKcell,mKarTel,mKarTel,,D02,2016-07-22T11:44:57+06:00,
1000000000215165,77717587424,mKcell,mKarTel,mKarTel,,D02,2016-07-22T11:44:57+06:00,
1000000000215165,77717587425,mKcell,mKarTel,mKarTel,,D02,2016-07-22T11:44:57+06:00,
1000000000215165,77717587426,mKcell,mKarTel,mKarTel,,D02,2016-07-22T11:44:57+06:00,
1000000000215165,77717587427,mKcell,mKarTel,mKarTel,,D02,2016-07-22T11:44:57+06:00,
1000000000215165,77717587428,mKcell,mKarTel,mKarTel,,D02,2016-07-22T11:44:57+06:00,
1000000000215165,77717587429,mKcell,mKarTel,mKarTel,,D02,2016-07-22T11:44:57+06:00,
1000000000215165,77717587431,mKcell,mKarTel,mKarTel,,D02,2016-07-22T11:44:57+06:00,
1000000000215165,77717587432,mKcell,mKarTel,mKarTel,,D02,2016-07-22T11:44:57+06:00,
1000000000215165,77717587433,mKcell,mKarTel,mKarTel,,D02,2016-07-22T11:44:57+06:00,
1000000000215166,77717587436,mKcell,mKarTel,mKarTel,,D02,2016-07-22T11:44:56+06:00,
1000000000215166,77717587437,mKcell,mKarTel,mKarTel,,D02,2016-07-22T11:44:56+06:00,
1000000000215166,77717587438,mKcell,mKarTel,mKarTel,,D02,2016-07-22T11:44:56+06:00,
1000000000215166,77717587439,mKcell,mKarTel,mKarTel,,D02,2016-07-22T11:44:56+06:00,
1000000000215166,77717587440,mKcell,mKarTel,mKarTel,,D02,2016-07-22T11:44:56+06:00,
1000000000215166,77717587441,mKcell,mKarTel,mKarTel,,D02,2016-07-22T11:44:56+06:00,
1000000000215166,77717587442,mKcell,mKarTel,mKarTel,,D02,2016-07-22T11:44:56+06:00,
1000000000215166,77717587445,mKcell,mKarTel,mKarTel,,D02,2016-07-22T11:44:56+06:00,
1000000000215166,77717587448,mKcell,mKarTel,mKarTel,,D02,2016-07-22T11:44:56+06:00,
1000000000215166,77717587449,mKcell,mKarTel,mKarTel,,D02,2016-07-22T11:44:56+06:00,
1000000000215166,77717587450,mKcell,mKarTel,mKarTel,,D02,2016-07-22T11:44:56+06:00,
1000000000215166,77717587451,mKcell,mKarTel,mKarTel,,D02,2016-07-22T11:44:56+06:00,
1000000000215166,77717587452,mKcell,mKarTel,mKarTel,,D02,2016-07-22T11:44:56+06:00,
1000000000215166,77717587453,mKcell,mKarTel,mKarTel,,D02,2016-07-22T11:44:56+06:00,
1000000000215166,77717587454,mKcell,mKarTel,mKarTel,,D02,2016-07-22T11:44:56+06:00,
1000000000215166,77717587455,mKcell,mKarTel,mKarTel,,D02,2016-07-22T11:44:56+06:00,
1000000000215166,77717587456,mKcell,mKarTel,mKarTel,,D02,2016-07-22T11:44:56+06:00,
1000000000215166,77717587458,mKcell,mKarTel,mKarTel,,D02,2016-07-22T11:44:56+06:00,
1000000000215166,77717587459,mKcell,mKarTel,mKarTel,,D02,2016-07-22T11:44:56+06:00,
1000000000215166,77717587460,mKcell,mKarTel,mKarTel,,D02,2016-07-22T11:44:56+06:00,
1000000000215166,77717587461,mKcell,mKarTel,mKarTel,,D02,2016-07-22T11:44:56+06:00,
1000000000215167,77710566165,mKcell,mKarTel,mKarTel,,D02,2016-07-22T11:45:22+06:00,
1000000000215167,77710566167,mKcell,mKarTel,mKarTel,,D02,2016-07-22T11:45:22+06:00,
1000000000215167,77710566168,mKcell,mKarTel,mKarTel,,D02,2016-07-22T11:45:22+06:00,
1000000000215167,77710566169,mKcell,mKarTel,mKarTel,,D02,2016-07-22T11:45:22+06:00,
1000000000215167,77710566170,mKcell,mKarTel,mKarTel,,D02,2016-07-22T11:45:22+06:00,
1000000000215167,77710566171,mKcell,mKarTel,mKarTel,,D02,2016-07-22T11:45:22+06:00,
1000000000215167,77710566172,mKcell,mKarTel,mKarTel,,D02,2016-07-22T11:45:22+06:00,
1000000000215167,77710566173,mKcell,mKarTel,mKarTel,,D02,2016-07-22T11:45:22+06:00,
1000000000215167,77710566174,mKcell,mKarTel,mKarTel,,D02,2016-07-22T11:45:22+06:00,
1000000000215167,77710566175,mKcell,mKarTel,mKarTel,,D02,2016-07-22T11:45:22+06:00,
1000000000215167,77710566176,mKcell,mKarTel,mKarTel,,D02,2016-07-22T11:45:22+06:00,
1000000000215167,77710566177,mKcell,mKarTel,mKarTel,,D02,2016-07-22T11:45:22+06:00,
1000000000215167,77710566178,mKcell,mKarTel,mKarTel,,D02,2016-07-22T11:45:22+06:00,
1000000000215167,77710566179,mKcell,mKarTel,mKarTel,,D02,2016-07-22T11:45:22+06:00,
1000000000215167,77710566180,mKcell,mKarTel,mKarTel,,D02,2016-07-22T11:45:22+06:00,
1000000000215167,77710566181,mKcell,mKarTel,mKarTel,,D02,2016-07-22T11:45:22+06:00,
1000000000215167,77710566182,mKcell,mKarTel,mKarTel,,D02,2016-07-22T11:45:22+06:00,
1000000000215167,77710566183,mKcell,mKarTel,mKarTel,,D02,2016-07-22T11:45:22+06:00,
1000000000215167,77710566184,mKcell,mKarTel,mKarTel,,D02,2016-07-22T11:45:22+06:00,
1000000000215167,77710566185,mKcell,mKarTel,mKarTel,,D02,2016-07-22T11:45:22+06:00,
1000000000215167,77710566186,mKcell,mKarTel,mKarTel,,D02,2016-07-22T11:45:22+06:00,
1000000000215167,77710566187,mKcell,mKarTel,mKarTel,,D02,2016-07-22T11:45:22+06:00,
1000000000215167,77710566188,mKcell,mKarTel,mKarTel,,D02,2016-07-22T11:45:22+06:00,
1000000000215167,77710566189,mKcell,mKarTel,mKarTel,,D02,2016-07-22T11:45:22+06:00,
1000000000215167,77710566190,mKcell,mKarTel,mKarTel,,D02,2016-07-22T11:45:22+06:00,
1000000000215167,77710566191,mKcell,mKarTel,mKarTel,,D02,2016-07-22T11:45:22+06:00,
1000000000215167,77710566192,mKcell,mKarTel,mKarTel,,D02,2016-07-22T11:45:22+06:00,
1000000000215167,77710566193,mKcell,mKarTel,mKarTel,,D02,2016-07-22T11:45:22+06:00,
1000000000215167,77710566194,mKcell,mKarTel,mKarTel,,D02,2016-07-22T11:45:22+06:00,
1000000000215167,77710566195,mKcell,mKarTel,mKarTel,,D02,2016-07-22T11:45:22+06:00,
1000000000215167,77710566196,mKcell,mKarTel,mKarTel,,D02,2016-07-22T11:45:22+06:00,
1000000000215167,77710566197,mKcell,mKarTel,mKarTel,,D02,2016-07-22T11:45:22+06:00,
1000000000215167,77710566198,mKcell,mKarTel,mKarTel,,D02,2016-07-22T11:45:22+06:00,
1000000000215167,77710566199,mKcell,mKarTel,mKarTel,,D02,2016-07-22T11:45:22+06:00,
1000000000215167,77710566200,mKcell,mKarTel,mKarTel,,D02,2016-07-22T11:45:22+06:00,
1000000000215167,77710566201,mKcell,mKarTel,mKarTel,,D02,2016-07-22T11:45:22+06:00,
1000000000215167,77710566202,mKcell,mKarTel,mKarTel,,D02,2016-07-22T11:45:22+06:00,
1000000000215167,77710566203,mKcell,mKarTel,mKarTel,,D02,2016-07-22T11:45:22+06:00,
1000000000215167,77710566204,mKcell,mKarTel,mKarTel,,D02,2016-07-22T11:45:22+06:00,
1000000000215167,77710566205,mKcell,mKarTel,mKarTel,,D02,2016-07-22T11:45:22+06:00,
1000000000215167,77710566206,mKcell,mKarTel,mKarTel,,D02,2016-07-22T11:45:22+06:00,
1000000000215167,77710566207,mKcell,mKarTel,mKarTel,,D02,2016-07-22T11:45:22+06:00,
1000000000215167,77710566208,mKcell,mKarTel,mKarTel,,D02,2016-07-22T11:45:22+06:00,
1000000000215167,77710566209,mKcell,mKarTel,mKarTel,,D02,2016-07-22T11:45:22+06:00,
1000000000215167,77710566210,mKcell,mKarTel,mKarTel,,D02,2016-07-22T11:45:22+06:00,
1000000000215167,77710566211,mKcell,mKarTel,mKarTel,,D02,2016-07-22T11:45:22+06:00,
1000000000215167,77710566212,mKcell,mKarTel,mKarTel,,D02,2016-07-22T11:45:22+06:00,
1000000000215167,77710566213,mKcell,mKarTel,mKarTel,,D02,2016-07-22T11:45:22+06:00,
1000000000215167,77710566214,mKcell,mKarTel,mKarTel,,D02,2016-07-22T11:45:22+06:00,
1000000000215167,77710566215,mKcell,mKarTel,mKarTel,,D02,2016-07-22T11:45:22+06:00,
1000000000215167,77710566216,mKcell,mKarTel,mKarTel,,D02,2016-07-22T11:45:22+06:00,
1000000000215167,77710566217,mKcell,mKarTel,mKarTel,,D02,2016-07-22T11:45:22+06:00,
1000000000215167,77710566218,mKcell,mKarTel,mKarTel,,D02,2016-07-22T11:45:22+06:00,
1000000000215167,77710566219,mKcell,mKarTel,mKarTel,,D02,2016-07-22T11:45:22+06:00,
1000000000215167,77710566220,mKcell,mKarTel,mKarTel,,D02,2016-07-22T11:45:22+06:00,
1000000000215167,77710566221,mKcell,mKarTel,mKarTel,,D02,2016-07-22T11:45:22+06:00,
1000000000215167,77710566223,mKcell,mKarTel,mKarTel,,D02,2016-07-22T11:45:22+06:00,
1000000000215167,77710566224,mKcell,mKarTel,mKarTel,,D02,2016-07-22T11:45:22+06:00,
1000000000215167,77710566225,mKcell,mKarTel,mKarTel,,D02,2016-07-22T11:45:22+06:00,
1000000000215167,77710566227,mKcell,mKarTel,mKarTel,,D02,2016-07-22T11:45:22+06:00,
1000000000215167,77710566228,mKcell,mKarTel,mKarTel,,D02,2016-07-22T11:45:22+06:00,
1000000000215167,77710566229,mKcell,mKarTel,mKarTel,,D02,2016-07-22T11:45:22+06:00,
1000000000215167,77710566231,mKcell,mKarTel,mKarTel,,D02,2016-07-22T11:45:22+06:00,
1000000000215167,77710566232,mKcell,mKarTel,mKarTel,,D02,2016-07-22T11:45:22+06:00,
1000000000215167,77710566233,mKcell,mKarTel,mKarTel,,D02,2016-07-22T11:45:22+06:00,
1000000000215167,77710566234,mKcell,mKarTel,mKarTel,,D02,2016-07-22T11:45:22+06:00,
1000000000215167,77710566235,mKcell,mKarTel,mKarTel,,D02,2016-07-22T11:45:22+06:00,
1000000000215167,77710566237,mKcell,mKarTel,mKarTel,,D02,2016-07-22T11:45:22+06:00,
1000000000215167,77710566238,mKcell,mKarTel,mKarTel,,D02,2016-07-22T11:45:22+06:00,
1000000000215167,77710566239,mKcell,mKarTel,mKarTel,,D02,2016-07-22T11:45:22+06:00,
1000000000215167,77710566240,mKcell,mKarTel,mKarTel,,D02,2016-07-22T11:45:22+06:00,
1000000000215167,77710566241,mKcell,mKarTel,mKarTel,,D02,2016-07-22T11:45:22+06:00,
1000000000215167,77710566242,mKcell,mKarTel,mKarTel,,D02,2016-07-22T11:45:22+06:00,
1000000000215167,77710566244,mKcell,mKarTel,mKarTel,,D02,2016-07-22T11:45:22+06:00,
1000000000215167,77710566245,mKcell,mKarTel,mKarTel,,D02,2016-07-22T11:45:22+06:00,
1000000000215167,77710566246,mKcell,mKarTel,mKarTel,,D02,2016-07-22T11:45:22+06:00,
1000000000215167,77710566247,mKcell,mKarTel,mKarTel,,D02,2016-07-22T11:45:22+06:00,
1000000000215167,77710566249,mKcell,mKarTel,mKarTel,,D02,2016-07-22T11:45:22+06:00,
1000000000215167,77710566250,mKcell,mKarTel,mKarTel,,D02,2016-07-22T11:45:22+06:00,
1000000000215167,77710566251,mKcell,mKarTel,mKarTel,,D02,2016-07-22T11:45:22+06:00,
1000000000215167,77710566253,mKcell,mKarTel,mKarTel,,D02,2016-07-22T11:45:22+06:00,
1000000000215167,77710566254,mKcell,mKarTel,mKarTel,,D02,2016-07-22T11:45:22+06:00,
1000000000215167,77710566255,mKcell,mKarTel,mKarTel,,D02,2016-07-22T11:45:22+06:00,
1000000000215167,77710566257,mKcell,mKarTel,mKarTel,,D02,2016-07-22T11:45:22+06:00,
1000000000215167,77710566258,mKcell,mKarTel,mKarTel,,D02,2016-07-22T11:45:22+06:00,
1000000000215167,77710566259,mKcell,mKarTel,mKarTel,,D02,2016-07-22T11:45:22+06:00,
1000000000215167,77710566260,mKcell,mKarTel,mKarTel,,D02,2016-07-22T11:45:22+06:00,
1000000000215167,77710566261,mKcell,mKarTel,mKarTel,,D02,2016-07-22T11:45:22+06:00,
1000000000215167,77710566263,mKcell,mKarTel,mKarTel,,D02,2016-07-22T11:45:22+06:00,
1000000000215167,77710566264,mKcell,mKarTel,mKarTel,,D02,2016-07-22T11:45:22+06:00,
1000000000215167,77710566265,mKcell,mKarTel,mKarTel,,D02,2016-07-22T11:45:22+06:00,
1000000000215167,77710566267,mKcell,mKarTel,mKarTel,,D02,2016-07-22T11:45:22+06:00,
1000000000215167,77710566268,mKcell,mKarTel,mKarTel,,D02,2016-07-22T11:45:22+06:00,
1000000000215167,77710566269,mKcell,mKarTel,mKarTel,,D02,2016-07-22T11:45:22+06:00,
1000000000215167,77710566277,mKcell,mKarTel,mKarTel,,D02,2016-07-22T11:45:22+06:00,
1000000000215167,77710566362,mKcell,mKarTel,mKarTel,,D02,2016-07-22T11:45:22+06:00,
1000000000215167,77714099700,mKcell,mKarTel,mKarTel,,D02,2016-07-22T11:45:22+06:00,
1000000000215167,77717585857,mKcell,mKarTel,mKarTel,,D02,2016-07-22T11:45:22+06:00,
1000000000215167,77717585885,mKcell,mKarTel,mKarTel,,D02,2016-07-22T11:45:22+06:00,
1000000000215167,77717585893,mKcell,mKarTel,mKarTel,,D02,2016-07-22T11:45:22+06:00,
1000000000215177,77717587606,mKcell,mKarTel,mKarTel,,D02,2016-07-22T11:45:58+06:00,
1000000000215177,77717587607,mKcell,mKarTel,mKarTel,,D02,2016-07-22T11:45:58+06:00,
1000000000215177,77717587608,mKcell,mKarTel,mKarTel,,D02,2016-07-22T11:45:58+06:00,
1000000000215177,77717587609,mKcell,mKarTel,mKarTel,,D02,2016-07-22T11:45:58+06:00,
1000000000215177,77717587610,mKcell,mKarTel,mKarTel,,D02,2016-07-22T11:45:58+06:00,
1000000000215177,77717587611,mKcell,mKarTel,mKarTel,,D02,2016-07-22T11:45:58+06:00,
1000000000215177,77717587612,mKcell,mKarTel,mKarTel,,D02,2016-07-22T11:45:58+06:00,
1000000000215177,77717587613,mKcell,mKarTel,mKarTel,,D02,2016-07-22T11:45:58+06:00,
1000000000215177,77717587614,mKcell,mKarTel,mKarTel,,D02,2016-07-22T11:45:58+06:00,
1000000000215177,77717587615,mKcell,mKarTel,mKarTel,,D02,2016-07-22T11:45:58+06:00,
1000000000215177,77717587617,mKcell,mKarTel,mKarTel,,D02,2016-07-22T11:45:58+06:00,
1000000000215177,77717587618,mKcell,mKarTel,mKarTel,,D02,2016-07-22T11:45:58+06:00,
1000000000215177,77717587619,mKcell,mKarTel,mKarTel,,D02,2016-07-22T11:45:58+06:00,
1000000000215177,77717587620,mKcell,mKarTel,mKarTel,,D02,2016-07-22T11:45:58+06:00,
1000000000215177,77717587621,mKcell,mKarTel,mKarTel,,D02,2016-07-22T11:45:58+06:00,
1000000000215177,77717587622,mKcell,mKarTel,mKarTel,,D02,2016-07-22T11:45:58+06:00,
1000000000215177,77717587623,mKcell,mKarTel,mKarTel,,D02,2016-07-22T11:45:58+06:00,
1000000000215177,77717587624,mKcell,mKarTel,mKarTel,,D02,2016-07-22T11:45:58+06:00,
1000000000215177,77717587625,mKcell,mKarTel,mKarTel,,D02,2016-07-22T11:45:58+06:00,
1000000000215177,77717587626,mKcell,mKarTel,mKarTel,,D02,2016-07-22T11:45:58+06:00,
1000000000215177,77717587627,mKcell,mKarTel,mKarTel,,D02,2016-07-22T11:45:58+06:00,
1000000000215177,77717587629,mKcell,mKarTel,mKarTel,,D02,2016-07-22T11:45:58+06:00,
1000000000215177,77717587630,mKcell,mKarTel,mKarTel,,D02,2016-07-22T11:45:58+06:00,
1000000000215177,77717587631,mKcell,mKarTel,mKarTel,,D02,2016-07-22T11:45:58+06:00,
1000000000215177,77717587632,mKcell,mKarTel,mKarTel,,D02,2016-07-22T11:45:58+06:00,
1000000000215177,77717587633,mKcell,mKarTel,mKarTel,,D02,2016-07-22T11:45:58+06:00,
1000000000215177,77717587635,mKcell,mKarTel,mKarTel,,D02,2016-07-22T11:45:58+06:00,
1000000000215177,77717587636,mKcell,mKarTel,mKarTel,,D02,2016-07-22T11:45:58+06:00,
1000000000215177,77717587637,mKcell,mKarTel,mKarTel,,D02,2016-07-22T11:45:58+06:00,
1000000000215177,77717587638,mKcell,mKarTel,mKarTel,,D02,2016-07-22T11:45:58+06:00,
1000000000215177,77717587639,mKcell,mKarTel,mKarTel,,D02,2016-07-22T11:45:58+06:00,
1000000000215177,77717587640,mKcell,mKarTel,mKarTel,,D02,2016-07-22T11:45:58+06:00,
1000000000215177,77717587641,mKcell,mKarTel,mKarTel,,D02,2016-07-22T11:45:58+06:00,
1000000000215177,77717587642,mKcell,mKarTel,mKarTel,,D02,2016-07-22T11:45:58+06:00,
1000000000215177,77717587643,mKcell,mKarTel,mKarTel,,D02,2016-07-22T11:45:58+06:00,
1000000000215177,77717587644,mKcell,mKarTel,mKarTel,,D02,2016-07-22T11:45:58+06:00,
1000000000215177,77717587645,mKcell,mKarTel,mKarTel,,D02,2016-07-22T11:45:58+06:00,
1000000000215177,77717587646,mKcell,mKarTel,mKarTel,,D02,2016-07-22T11:45:58+06:00,
1000000000215177,77717587647,mKcell,mKarTel,mKarTel,,D02,2016-07-22T11:45:58+06:00,
1000000000215177,77717587648,mKcell,mKarTel,mKarTel,,D02,2016-07-22T11:45:58+06:00,
1000000000215177,77717587649,mKcell,mKarTel,mKarTel,,D02,2016-07-22T11:45:58+06:00,
1000000000215177,77717587650,mKcell,mKarTel,mKarTel,,D02,2016-07-22T11:45:58+06:00,
1000000000215177,77717587651,mKcell,mKarTel,mKarTel,,D02,2016-07-22T11:45:58+06:00,
1000000000215177,77717587652,mKcell,mKarTel,mKarTel,,D02,2016-07-22T11:45:58+06:00,
1000000000215177,77717587653,mKcell,mKarTel,mKarTel,,D02,2016-07-22T11:45:58+06:00,
1000000000215177,77717587654,mKcell,mKarTel,mKarTel,,D02,2016-07-22T11:45:58+06:00,
1000000000215177,77717587655,mKcell,mKarTel,mKarTel,,D02,2016-07-22T11:45:58+06:00,
1000000000215177,77717587656,mKcell,mKarTel,mKarTel,,D02,2016-07-22T11:45:58+06:00,
1000000000215177,77717587658,mKcell,mKarTel,mKarTel,,D02,2016-07-22T11:45:58+06:00,
1000000000215177,77717587659,mKcell,mKarTel,mKarTel,,D02,2016-07-22T11:45:58+06:00,
1000000000215177,77717587660,mKcell,mKarTel,mKarTel,,D02,2016-07-22T11:45:58+06:00,
1000000000215177,77717587661,mKcell,mKarTel,mKarTel,,D02,2016-07-22T11:45:58+06:00,
1000000000215177,77717587662,mKcell,mKarTel,mKarTel,,D02,2016-07-22T11:45:58+06:00,
1000000000215177,77717587663,mKcell,mKarTel,mKarTel,,D02,2016-07-22T11:45:58+06:00,
1000000000215177,77717587664,mKcell,mKarTel,mKarTel,,D02,2016-07-22T11:45:58+06:00,
1000000000215177,77717587677,mKcell,mKarTel,mKarTel,,D02,2016-07-22T11:45:58+06:00,
1000000000215177,77717587678,mKcell,mKarTel,mKarTel,,D02,2016-07-22T11:45:58+06:00,
1000000000215177,77717587680,mKcell,mKarTel,mKarTel,,D02,2016-07-22T11:45:58+06:00,
1000000000215177,77717587681,mKcell,mKarTel,mKarTel,,D02,2016-07-22T11:45:58+06:00,
1000000000215177,77717587682,mKcell,mKarTel,mKarTel,,D02,2016-07-22T11:45:58+06:00,
1000000000215177,77717587683,mKcell,mKarTel,mKarTel,,D02,2016-07-22T11:45:58+06:00,
1000000000215177,77717587684,mKcell,mKarTel,mKarTel,,D02,2016-07-22T11:45:58+06:00,
1000000000215177,77717587685,mKcell,mKarTel,mKarTel,,D02,2016-07-22T11:45:58+06:00,
1000000000215177,77717587686,mKcell,mKarTel,mKarTel,,D02,2016-07-22T11:45:58+06:00,
1000000000215177,77717587687,mKcell,mKarTel,mKarTel,,D02,2016-07-22T11:45:58+06:00,
1000000000215177,77717587688,mKcell,mKarTel,mKarTel,,D02,2016-07-22T11:45:58+06:00,
1000000000215177,77717587689,mKcell,mKarTel,mKarTel,,D02,2016-07-22T11:45:58+06:00,
1000000000215177,77717587690,mKcell,mKarTel,mKarTel,,D02,2016-07-22T11:45:58+06:00,
1000000000215177,77717587691,mKcell,mKarTel,mKarTel,,D02,2016-07-22T11:45:58+06:00,
1000000000215177,77717587692,mKcell,mKarTel,mKarTel,,D02,2016-07-22T11:45:58+06:00,
1000000000215177,77717587693,mKcell,mKarTel,mKarTel,,D02,2016-07-22T11:45:58+06:00,
1000000000215177,77717587694,mKcell,mKarTel,mKarTel,,D02,2016-07-22T11:45:58+06:00,
1000000000215177,77717587695,mKcell,mKarTel,mKarTel,,D02,2016-07-22T11:45:58+06:00,
1000000000215177,77717587696,mKcell,mKarTel,mKarTel,,D02,2016-07-22T11:45:58+06:00,
1000000000215177,77717587697,mKcell,mKarTel,mKarTel,,D02,2016-07-22T11:45:58+06:00,
1000000000215177,77717587698,mKcell,mKarTel,mKarTel,,D02,2016-07-22T11:45:58+06:00,
1000000000215177,77717587699,mKcell,mKarTel,mKarTel,,D02,2016-07-22T11:45:58+06:00,
1000000000215177,77717587701,mKcell,mKarTel,mKarTel,,D02,2016-07-22T11:45:58+06:00,
1000000000215177,77717587702,mKcell,mKarTel,mKarTel,,D02,2016-07-22T11:45:58+06:00,
1000000000215177,77717587703,mKcell,mKarTel,mKarTel,,D02,2016-07-22T11:45:58+06:00,
1000000000215177,77717587704,mKcell,mKarTel,mKarTel,,D02,2016-07-22T11:45:58+06:00,
1000000000215177,77717587705,mKcell,mKarTel,mKarTel,,D02,2016-07-22T11:45:58+06:00,
1000000000215177,77717587706,mKcell,mKarTel,mKarTel,,D02,2016-07-22T11:45:58+06:00,
1000000000215177,77717587708,mKcell,mKarTel,mKarTel,,D02,2016-07-22T11:45:58+06:00,
1000000000215177,77717587709,mKcell,mKarTel,mKarTel,,D02,2016-07-22T11:45:58+06:00,
1000000000215177,77717587710,mKcell,mKarTel,mKarTel,,D02,2016-07-22T11:45:58+06:00,
1000000000215177,77717587712,mKcell,mKarTel,mKarTel,,D02,2016-07-22T11:45:58+06:00,
1000000000215177,77717587713,mKcell,mKarTel,mKarTel,,D02,2016-07-22T11:45:58+06:00,
1000000000215177,77717587714,mKcell,mKarTel,mKarTel,,D02,2016-07-22T11:45:58+06:00,
1000000000215177,77717587715,mKcell,mKarTel,mKarTel,,D02,2016-07-22T11:45:58+06:00,
1000000000215177,77717587716,mKcell,mKarTel,mKarTel,,D02,2016-07-22T11:45:58+06:00,
1000000000215177,77717587718,mKcell,mKarTel,mKarTel,,D02,2016-07-22T11:45:58+06:00,
1000000000215177,77717587719,mKcell,mKarTel,mKarTel,,D02,2016-07-22T11:45:58+06:00,
1000000000215177,77717587720,mKcell,mKarTel,mKarTel,,D02,2016-07-22T11:45:58+06:00,
1000000000215177,77717587721,mKcell,mKarTel,mKarTel,,D02,2016-07-22T11:45:58+06:00,
1000000000215177,77717587722,mKcell,mKarTel,mKarTel,,D02,2016-07-22T11:45:58+06:00,
1000000000215177,77717587723,mKcell,mKarTel,mKarTel,,D02,2016-07-22T11:45:58+06:00,
1000000000215177,77717587724,mKcell,mKarTel,mKarTel,,D02,2016-07-22T11:45:58+06:00,
1000000000215177,77717587725,mKcell,mKarTel,mKarTel,,D02,2016-07-22T11:45:58+06:00,
1000000000215177,77717587726,mKcell,mKarTel,mKarTel,,D02,2016-07-22T11:45:58+06:00,
1000000000215183,77710566023,mKcell,mKarTel,mKarTel,,D02,2016-07-22T11:46:32+06:00,
1000000000215183,77710566024,mKcell,mKarTel,mKarTel,,D02,2016-07-22T11:46:32+06:00,
1000000000215183,77710566025,mKcell,mKarTel,mKarTel,,D02,2016-07-22T11:46:32+06:00,
1000000000215183,77710566027,mKcell,mKarTel,mKarTel,,D02,2016-07-22T11:46:32+06:00,
1000000000215183,77710566028,mKcell,mKarTel,mKarTel,,D02,2016-07-22T11:46:32+06:00,
1000000000215183,77710566029,mKcell,mKarTel,mKarTel,,D02,2016-07-22T11:46:32+06:00,
1000000000215183,77710566030,mKcell,mKarTel,mKarTel,,D02,2016-07-22T11:46:32+06:00,
1000000000215183,77710566031,mKcell,mKarTel,mKarTel,,D02,2016-07-22T11:46:32+06:00,
1000000000215183,77710566032,mKcell,mKarTel,mKarTel,,D02,2016-07-22T11:46:32+06:00,
1000000000215183,77710566033,mKcell,mKarTel,mKarTel,,D02,2016-07-22T11:46:32+06:00,
1000000000215183,77710566034,mKcell,mKarTel,mKarTel,,D02,2016-07-22T11:46:32+06:00,
1000000000215183,77710566035,mKcell,mKarTel,mKarTel,,D02,2016-07-22T11:46:32+06:00,
1000000000215183,77710566036,mKcell,mKarTel,mKarTel,,D02,2016-07-22T11:46:32+06:00,
1000000000215183,77710566041,mKcell,mKarTel,mKarTel,,D02,2016-07-22T11:46:32+06:00,
1000000000215183,77710566042,mKcell,mKarTel,mKarTel,,D02,2016-07-22T11:46:32+06:00,
1000000000215183,77710566043,mKcell,mKarTel,mKarTel,,D02,2016-07-22T11:46:32+06:00,
1000000000215183,77710566045,mKcell,mKarTel,mKarTel,,D02,2016-07-22T11:46:32+06:00,
1000000000215183,77710566046,mKcell,mKarTel,mKarTel,,D02,2016-07-22T11:46:32+06:00,
1000000000215183,77710566047,mKcell,mKarTel,mKarTel,,D02,2016-07-22T11:46:32+06:00,
1000000000215183,77710566048,mKcell,mKarTel,mKarTel,,D02,2016-07-22T11:46:32+06:00,
1000000000215183,77710566049,mKcell,mKarTel,mKarTel,,D02,2016-07-22T11:46:32+06:00,
1000000000215183,77710566050,mKcell,mKarTel,mKarTel,,D02,2016-07-22T11:46:32+06:00,
1000000000215183,77710566051,mKcell,mKarTel,mKarTel,,D02,2016-07-22T11:46:32+06:00,
1000000000215183,77710566052,mKcell,mKarTel,mKarTel,,D02,2016-07-22T11:46:32+06:00,
1000000000215183,77710566053,mKcell,mKarTel,mKarTel,,D02,2016-07-22T11:46:32+06:00,
1000000000215183,77710566054,mKcell,mKarTel,mKarTel,,D02,2016-07-22T11:46:32+06:00,
1000000000215183,77710566055,mKcell,mKarTel,mKarTel,,D02,2016-07-22T11:46:32+06:00,
1000000000215183,77710566056,mKcell,mKarTel,mKarTel,,D02,2016-07-22T11:46:32+06:00,
1000000000215183,77710566057,mKcell,mKarTel,mKarTel,,D02,2016-07-22T11:46:32+06:00,
1000000000215183,77710566058,mKcell,mKarTel,mKarTel,,D02,2016-07-22T11:46:32+06:00,
1000000000215183,77710566059,mKcell,mKarTel,mKarTel,,D02,2016-07-22T11:46:32+06:00,
1000000000215183,77710566061,mKcell,mKarTel,mKarTel,,D02,2016-07-22T11:46:32+06:00,
1000000000215183,77710566062,mKcell,mKarTel,mKarTel,,D02,2016-07-22T11:46:32+06:00,
1000000000215183,77710566063,mKcell,mKarTel,mKarTel,,D02,2016-07-22T11:46:32+06:00,
1000000000215183,77710566064,mKcell,mKarTel,mKarTel,,D02,2016-07-22T11:46:32+06:00,
1000000000215183,77710566065,mKcell,mKarTel,mKarTel,,D02,2016-07-22T11:46:32+06:00,
1000000000215183,77710566066,mKcell,mKarTel,mKarTel,,D02,2016-07-22T11:46:32+06:00,
1000000000215183,77710566068,mKcell,mKarTel,mKarTel,,D02,2016-07-22T11:46:32+06:00,
1000000000215183,77710566069,mKcell,mKarTel,mKarTel,,D02,2016-07-22T11:46:32+06:00,
1000000000215183,77710566070,mKcell,mKarTel,mKarTel,,D02,2016-07-22T11:46:32+06:00,
1000000000215183,77710566071,mKcell,mKarTel,mKarTel,,D02,2016-07-22T11:46:32+06:00,
1000000000215183,77710566072,mKcell,mKarTel,mKarTel,,D02,2016-07-22T11:46:32+06:00,
1000000000215183,77710566073,mKcell,mKarTel,mKarTel,,D02,2016-07-22T11:46:32+06:00,
1000000000215183,77710566074,mKcell,mKarTel,mKarTel,,D02,2016-07-22T11:46:32+06:00,
1000000000215183,77710566075,mKcell,mKarTel,mKarTel,,D02,2016-07-22T11:46:32+06:00,
1000000000215183,77710566077,mKcell,mKarTel,mKarTel,,D02,2016-07-22T11:46:32+06:00,
1000000000215183,77710566078,mKcell,mKarTel,mKarTel,,D02,2016-07-22T11:46:32+06:00,
1000000000215183,77710566079,mKcell,mKarTel,mKarTel,,D02,2016-07-22T11:46:32+06:00,
1000000000215183,77710566080,mKcell,mKarTel,mKarTel,,D02,2016-07-22T11:46:32+06:00,
1000000000215183,77710566081,mKcell,mKarTel,mKarTel,,D02,2016-07-22T11:46:32+06:00,
1000000000215183,77710566082,mKcell,mKarTel,mKarTel,,D02,2016-07-22T11:46:32+06:00,
1000000000215183,77710566083,mKcell,mKarTel,mKarTel,,D02,2016-07-22T11:46:32+06:00,
1000000000215183,77710566084,mKcell,mKarTel,mKarTel,,D02,2016-07-22T11:46:32+06:00,
1000000000215183,77710566085,mKcell,mKarTel,mKarTel,,D02,2016-07-22T11:46:32+06:00,
1000000000215183,77710566087,mKcell,mKarTel,mKarTel,,D02,2016-07-22T11:46:32+06:00,
1000000000215183,77710566088,mKcell,mKarTel,mKarTel,,D02,2016-07-22T11:46:32+06:00,
1000000000215183,77710566089,mKcell,mKarTel,mKarTel,,D02,2016-07-22T11:46:32+06:00,
1000000000215183,77710566090,mKcell,mKarTel,mKarTel,,D02,2016-07-22T11:46:32+06:00,
1000000000215183,77710566091,mKcell,mKarTel,mKarTel,,D02,2016-07-22T11:46:32+06:00,
1000000000215183,77710566092,mKcell,mKarTel,mKarTel,,D02,2016-07-22T11:46:32+06:00,
1000000000215183,77710566094,mKcell,mKarTel,mKarTel,,D02,2016-07-22T11:46:32+06:00,
1000000000215183,77710566096,mKcell,mKarTel,mKarTel,,D02,2016-07-22T11:46:32+06:00,
1000000000215183,77710566097,mKcell,mKarTel,mKarTel,,D02,2016-07-22T11:46:32+06:00,
1000000000215183,77710566098,mKcell,mKarTel,mKarTel,,D02,2016-07-22T11:46:32+06:00,
1000000000215183,77710566099,mKcell,mKarTel,mKarTel,,D02,2016-07-22T11:46:32+06:00,
1000000000215183,77710566100,mKcell,mKarTel,mKarTel,,D02,2016-07-22T11:46:32+06:00,
1000000000215183,77710566101,mKcell,mKarTel,mKarTel,,D02,2016-07-22T11:46:32+06:00,
1000000000215183,77710566102,mKcell,mKarTel,mKarTel,,D02,2016-07-22T11:46:32+06:00,
1000000000215183,77710566103,mKcell,mKarTel,mKarTel,,D02,2016-07-22T11:46:32+06:00,
1000000000215183,77710566104,mKcell,mKarTel,mKarTel,,D02,2016-07-22T11:46:32+06:00,
1000000000215183,77710566105,mKcell,mKarTel,mKarTel,,D02,2016-07-22T11:46:32+06:00,
1000000000215183,77710566106,mKcell,mKarTel,mKarTel,,D02,2016-07-22T11:46:32+06:00,
1000000000215183,77710566107,mKcell,mKarTel,mKarTel,,D02,2016-07-22T11:46:32+06:00,
1000000000215183,77710566108,mKcell,mKarTel,mKarTel,,D02,2016-07-22T11:46:32+06:00,
1000000000215183,77710566109,mKcell,mKarTel,mKarTel,,D02,2016-07-22T11:46:32+06:00,
1000000000215183,77710566110,mKcell,mKarTel,mKarTel,,D02,2016-07-22T11:46:32+06:00,
1000000000215183,77710566112,mKcell,mKarTel,mKarTel,,D02,2016-07-22T11:46:32+06:00,
1000000000215183,77710566113,mKcell,mKarTel,mKarTel,,D02,2016-07-22T11:46:32+06:00,
1000000000215183,77710566114,mKcell,mKarTel,mKarTel,,D02,2016-07-22T11:46:32+06:00,
1000000000215183,77710566115,mKcell,mKarTel,mKarTel,,D02,2016-07-22T11:46:32+06:00,
1000000000215183,77710566117,mKcell,mKarTel,mKarTel,,D02,2016-07-22T11:46:32+06:00,
1000000000215183,77710566118,mKcell,mKarTel,mKarTel,,D02,2016-07-22T11:46:32+06:00,
1000000000215183,77710566119,mKcell,mKarTel,mKarTel,,D02,2016-07-22T11:46:32+06:00,
1000000000215183,77710566120,mKcell,mKarTel,mKarTel,,D02,2016-07-22T11:46:32+06:00,
1000000000215183,77710566121,mKcell,mKarTel,mKarTel,,D02,2016-07-22T11:46:32+06:00,
1000000000215183,77710566122,mKcell,mKarTel,mKarTel,,D02,2016-07-22T11:46:32+06:00,
1000000000215183,77710566123,mKcell,mKarTel,mKarTel,,D02,2016-07-22T11:46:32+06:00,
1000000000215183,77710566124,mKcell,mKarTel,mKarTel,,D02,2016-07-22T11:46:32+06:00,
1000000000215183,77710566125,mKcell,mKarTel,mKarTel,,D02,2016-07-22T11:46:32+06:00,
1000000000215183,77710566126,mKcell,mKarTel,mKarTel,,D02,2016-07-22T11:46:32+06:00,
1000000000215183,77710566127,mKcell,mKarTel,mKarTel,,D02,2016-07-22T11:46:32+06:00,
1000000000215183,77710566128,mKcell,mKarTel,mKarTel,,D02,2016-07-22T11:46:32+06:00,
1000000000215183,77710566129,mKcell,mKarTel,mKarTel,,D02,2016-07-22T11:46:32+06:00,
1000000000215183,77710566130,mKcell,mKarTel,mKarTel,,D02,2016-07-22T11:46:32+06:00,
1000000000215183,77710566131,mKcell,mKarTel,mKarTel,,D02,2016-07-22T11:46:32+06:00,
1000000000215183,77710566132,mKcell,mKarTel,mKarTel,,D02,2016-07-22T11:46:32+06:00,
1000000000215183,77710566133,mKcell,mKarTel,mKarTel,,D02,2016-07-22T11:46:32+06:00,
1000000000215183,77710566134,mKcell,mKarTel,mKarTel,,D02,2016-07-22T11:46:32+06:00,
1000000000215183,77710566136,mKcell,mKarTel,mKarTel,,D02,2016-07-22T11:46:32+06:00,
1000000000215183,77710566137,mKcell,mKarTel,mKarTel,,D02,2016-07-22T11:46:32+06:00,
1000000000215186,77710566139,mKcell,mKarTel,mKarTel,,D02,2016-07-22T11:58:28+06:00,
1000000000215186,77710566140,mKcell,mKarTel,mKarTel,,D02,2016-07-22T11:58:28+06:00,
1000000000215186,77710566141,mKcell,mKarTel,mKarTel,,D02,2016-07-22T11:58:28+06:00,
1000000000215186,77710566142,mKcell,mKarTel,mKarTel,,D02,2016-07-22T11:58:28+06:00,
1000000000215186,77710566143,mKcell,mKarTel,mKarTel,,D02,2016-07-22T11:58:28+06:00,
1000000000215186,77710566144,mKcell,mKarTel,mKarTel,,D02,2016-07-22T11:58:28+06:00,
1000000000215186,77710566145,mKcell,mKarTel,mKarTel,,D02,2016-07-22T11:58:28+06:00,
1000000000215186,77710566146,mKcell,mKarTel,mKarTel,,D02,2016-07-22T11:58:28+06:00,
1000000000215186,77710566147,mKcell,mKarTel,mKarTel,,D02,2016-07-22T11:58:28+06:00,
1000000000215186,77710566148,mKcell,mKarTel,mKarTel,,D02,2016-07-22T11:58:28+06:00,
1000000000215186,77710566149,mKcell,mKarTel,mKarTel,,D02,2016-07-22T11:58:28+06:00,
1000000000215186,77710566150,mKcell,mKarTel,mKarTel,,D02,2016-07-22T11:58:28+06:00,
1000000000215186,77710566151,mKcell,mKarTel,mKarTel,,D02,2016-07-22T11:58:28+06:00,
1000000000215186,77710566152,mKcell,mKarTel,mKarTel,,D02,2016-07-22T11:58:28+06:00,
1000000000215186,77710566153,mKcell,mKarTel,mKarTel,,D02,2016-07-22T11:58:28+06:00,
1000000000215186,77710566154,mKcell,mKarTel,mKarTel,,D02,2016-07-22T11:58:28+06:00,
1000000000215186,77710566155,mKcell,mKarTel,mKarTel,,D02,2016-07-22T11:58:28+06:00,
1000000000215186,77710566156,mKcell,mKarTel,mKarTel,,D02,2016-07-22T11:58:28+06:00,
1000000000215186,77710566157,mKcell,mKarTel,mKarTel,,D02,2016-07-22T11:58:28+06:00,
1000000000215186,77710566158,mKcell,mKarTel,mKarTel,,D02,2016-07-22T11:58:28+06:00,
1000000000215186,77710566159,mKcell,mKarTel,mKarTel,,D02,2016-07-22T11:58:28+06:00,
1000000000215186,77710566160,mKcell,mKarTel,mKarTel,,D02,2016-07-22T11:58:28+06:00,
1000000000215186,77710566162,mKcell,mKarTel,mKarTel,,D02,2016-07-22T11:58:28+06:00,
1000000000215186,77710566163,mKcell,mKarTel,mKarTel,,D02,2016-07-22T11:58:28+06:00,
1000000000215186,77710566243,mKcell,mKarTel,mKarTel,,D02,2016-07-22T11:58:28+06:00,
1000000000215188,77717056897,mKcell,mKarTel,mKarTel,,D02,2016-07-22T11:59:33+06:00,
1000000000215188,77717056898,mKcell,mKarTel,mKarTel,,D02,2016-07-22T11:59:33+06:00,
1000000000215188,77717056899,mKcell,mKarTel,mKarTel,,D02,2016-07-22T11:59:33+06:00,
1000000000215188,77717056943,mKcell,mKarTel,mKarTel,,D02,2016-07-22T11:59:33+06:00,
1000000000215188,77717056944,mKcell,mKarTel,mKarTel,,D02,2016-07-22T11:59:33+06:00,
1000000000215188,77717056945,mKcell,mKarTel,mKarTel,,D02,2016-07-22T11:59:33+06:00,
1000000000215188,77717056946,mKcell,mKarTel,mKarTel,,D02,2016-07-22T11:59:33+06:00,
1000000000215188,77717056947,mKcell,mKarTel,mKarTel,,D02,2016-07-22T11:59:33+06:00,
1000000000215188,77717056948,mKcell,mKarTel,mKarTel,,D02,2016-07-22T11:59:33+06:00,
1000000000215188,77717057046,mKcell,mKarTel,mKarTel,,D02,2016-07-22T11:59:33+06:00,
1000000000215188,77717057047,mKcell,mKarTel,mKarTel,,D02,2016-07-22T11:59:33+06:00,
1000000000215188,77717057048,mKcell,mKarTel,mKarTel,,D02,2016-07-22T11:59:33+06:00,
1000000000215188,77717057049,mKcell,mKarTel,mKarTel,,D02,2016-07-22T11:59:33+06:00,
1000000000215188,77717057050,mKcell,mKarTel,mKarTel,,D02,2016-07-22T11:59:33+06:00,
1000000000215188,77717057051,mKcell,mKarTel,mKarTel,,D02,2016-07-22T11:59:33+06:00,
1000000000215188,77717057052,mKcell,mKarTel,mKarTel,,D02,2016-07-22T11:59:33+06:00,
1000000000215188,77717057053,mKcell,mKarTel,mKarTel,,D02,2016-07-22T11:59:33+06:00,
1000000000215188,77717057054,mKcell,mKarTel,mKarTel,,D02,2016-07-22T11:59:33+06:00,
1000000000215188,77717057055,mKcell,mKarTel,mKarTel,,D02,2016-07-22T11:59:33+06:00,
1000000000215188,77717057057,mKcell,mKarTel,mKarTel,,D02,2016-07-22T11:59:33+06:00,
1000000000215188,77717057058,mKcell,mKarTel,mKarTel,,D02,2016-07-22T11:59:33+06:00,
1000000000215188,77717057059,mKcell,mKarTel,mKarTel,,D02,2016-07-22T11:59:33+06:00,
1000000000215188,77717057060,mKcell,mKarTel,mKarTel,,D02,2016-07-22T11:59:33+06:00,
1000000000215188,77717057061,mKcell,mKarTel,mKarTel,,D02,2016-07-22T11:59:33+06:00,
1000000000215188,77717057062,mKcell,mKarTel,mKarTel,,D02,2016-07-22T11:59:33+06:00,
1000000000215188,77717057069,mKcell,mKarTel,mKarTel,,D02,2016-07-22T11:59:33+06:00,
1000000000215188,77717057082,mKcell,mKarTel,mKarTel,,D02,2016-07-22T11:59:33+06:00,
1000000000215188,77717058181,mKcell,mKarTel,mKarTel,,D02,2016-07-22T11:59:33+06:00,
1000000000215188,77717058282,mKcell,mKarTel,mKarTel,,D02,2016-07-22T11:59:33+06:00,
1000000000215188,77717058484,mKcell,mKarTel,mKarTel,,D02,2016-07-22T11:59:33+06:00,
1000000000215188,77717058558,mKcell,mKarTel,mKarTel,,D02,2016-07-22T11:59:33+06:00,
1000000000215188,77717058989,mKcell,mKarTel,mKarTel,,D02,2016-07-22T11:59:33+06:00,
1000000000215188,77717059797,mKcell,mKarTel,mKarTel,,D02,2016-07-22T11:59:33+06:00,
1000000000215188,77717059898,mKcell,mKarTel,mKarTel,,D02,2016-07-22T11:59:33+06:00,
1000000000215188,77717059966,mKcell,mKarTel,mKarTel,,D02,2016-07-22T11:59:33+06:00,
1000000000215188,77717059977,mKcell,mKarTel,mKarTel,,D02,2016-07-22T11:59:33+06:00,
1000000000215188,77717580148,mKcell,mKarTel,mKarTel,,D02,2016-07-22T11:59:33+06:00,
1000000000215188,77717580394,mKcell,mKarTel,mKarTel,,D02,2016-07-22T11:59:33+06:00,
1000000000215188,77717580395,mKcell,mKarTel,mKarTel,,D02,2016-07-22T11:59:33+06:00,
1000000000215188,77717580650,mKcell,mKarTel,mKarTel,,D02,2016-07-22T11:59:33+06:00,
1000000000215188,77717580735,mKcell,mKarTel,mKarTel,,D02,2016-07-22T11:59:33+06:00,
1000000000215188,77717580750,mKcell,mKarTel,mKarTel,,D02,2016-07-22T11:59:33+06:00,
1000000000215188,77717580755,mKcell,mKarTel,mKarTel,,D02,2016-07-22T11:59:33+06:00,
1000000000215188,77717580797,mKcell,mKarTel,mKarTel,,D02,2016-07-22T11:59:33+06:00,
1000000000215188,77717580804,mKcell,mKarTel,mKarTel,,D02,2016-07-22T11:59:33+06:00,
1000000000215188,77717580809,mKcell,mKarTel,mKarTel,,D02,2016-07-22T11:59:33+06:00,
1000000000215188,77717580810,mKcell,mKarTel,mKarTel,,D02,2016-07-22T11:59:33+06:00,
1000000000215188,77717580811,mKcell,mKarTel,mKarTel,,D02,2016-07-22T11:59:33+06:00,
1000000000215188,77717580813,mKcell,mKarTel,mKarTel,,D02,2016-07-22T11:59:33+06:00,
1000000000215188,77717580814,mKcell,mKarTel,mKarTel,,D02,2016-07-22T11:59:33+06:00,
1000000000215188,77717580815,mKcell,mKarTel,mKarTel,,D02,2016-07-22T11:59:33+06:00,
1000000000215188,77717580816,mKcell,mKarTel,mKarTel,,D02,2016-07-22T11:59:33+06:00,
1000000000215188,77717580817,mKcell,mKarTel,mKarTel,,D02,2016-07-22T11:59:33+06:00,
1000000000215188,77717580818,mKcell,mKarTel,mKarTel,,D02,2016-07-22T11:59:33+06:00,
1000000000215188,77717580819,mKcell,mKarTel,mKarTel,,D02,2016-07-22T11:59:33+06:00,
1000000000215188,77717580821,mKcell,mKarTel,mKarTel,,D02,2016-07-22T11:59:33+06:00,
1000000000215188,77717580823,mKcell,mKarTel,mKarTel,,D02,2016-07-22T11:59:33+06:00,
1000000000215188,77717580824,mKcell,mKarTel,mKarTel,,D02,2016-07-22T11:59:33+06:00,
1000000000215188,77717580825,mKcell,mKarTel,mKarTel,,D02,2016-07-22T11:59:33+06:00,
1000000000215188,77717580826,mKcell,mKarTel,mKarTel,,D02,2016-07-22T11:59:33+06:00,
1000000000215188,77717580827,mKcell,mKarTel,mKarTel,,D02,2016-07-22T11:59:33+06:00,
1000000000215188,77717580831,mKcell,mKarTel,mKarTel,,D02,2016-07-22T11:59:33+06:00,
1000000000215188,77717580832,mKcell,mKarTel,mKarTel,,D02,2016-07-22T11:59:33+06:00,
1000000000215188,77717580833,mKcell,mKarTel,mKarTel,,D02,2016-07-22T11:59:33+06:00,
1000000000215188,77717580834,mKcell,mKarTel,mKarTel,,D02,2016-07-22T11:59:33+06:00,
1000000000215188,77717580835,mKcell,mKarTel,mKarTel,,D02,2016-07-22T11:59:33+06:00,
1000000000215188,77717580840,mKcell,mKarTel,mKarTel,,D02,2016-07-22T11:59:33+06:00,
1000000000215188,77717580842,mKcell,mKarTel,mKarTel,,D02,2016-07-22T11:59:33+06:00,
1000000000215188,77717580844,mKcell,mKarTel,mKarTel,,D02,2016-07-22T11:59:33+06:00,
1000000000215188,77717580845,mKcell,mKarTel,mKarTel,,D02,2016-07-22T11:59:33+06:00,
1000000000215188,77717580846,mKcell,mKarTel,mKarTel,,D02,2016-07-22T11:59:33+06:00,
1000000000215188,77717580847,mKcell,mKarTel,mKarTel,,D02,2016-07-22T11:59:33+06:00,
1000000000215188,77717580848,mKcell,mKarTel,mKarTel,,D02,2016-07-22T11:59:33+06:00,
1000000000215188,77717580859,mKcell,mKarTel,mKarTel,,D02,2016-07-22T11:59:33+06:00,
1000000000215188,77717580861,mKcell,mKarTel,mKarTel,,D02,2016-07-22T11:59:33+06:00,
1000000000215188,77717580866,mKcell,mKarTel,mKarTel,,D02,2016-07-22T11:59:33+06:00,
1000000000215188,77717580867,mKcell,mKarTel,mKarTel,,D02,2016-07-22T11:59:33+06:00,
1000000000215188,77717580868,mKcell,mKarTel,mKarTel,,D02,2016-07-22T11:59:33+06:00,
1000000000215188,77717580869,mKcell,mKarTel,mKarTel,,D02,2016-07-22T11:59:33+06:00,
1000000000215188,77717580871,mKcell,mKarTel,mKarTel,,D02,2016-07-22T11:59:33+06:00,
1000000000215188,77717580873,mKcell,mKarTel,mKarTel,,D02,2016-07-22T11:59:33+06:00,
1000000000215188,77717580874,mKcell,mKarTel,mKarTel,,D02,2016-07-22T11:59:33+06:00,
1000000000215188,77717580876,mKcell,mKarTel,mKarTel,,D02,2016-07-22T11:59:33+06:00,
1000000000215188,77717580877,mKcell,mKarTel,mKarTel,,D02,2016-07-22T11:59:33+06:00,
1000000000215188,77717580879,mKcell,mKarTel,mKarTel,,D02,2016-07-22T11:59:33+06:00,
1000000000215188,77717580880,mKcell,mKarTel,mKarTel,,D02,2016-07-22T11:59:33+06:00,
1000000000215188,77717580881,mKcell,mKarTel,mKarTel,,D02,2016-07-22T11:59:33+06:00,
1000000000215188,77717580882,mKcell,mKarTel,mKarTel,,D02,2016-07-22T11:59:33+06:00,
1000000000215188,77717580883,mKcell,mKarTel,mKarTel,,D02,2016-07-22T11:59:33+06:00,
1000000000215188,77717580884,mKcell,mKarTel,mKarTel,,D02,2016-07-22T11:59:33+06:00,
1000000000215188,77717580885,mKcell,mKarTel,mKarTel,,D02,2016-07-22T11:59:33+06:00,
1000000000215188,77717580886,mKcell,mKarTel,mKarTel,,D02,2016-07-22T11:59:33+06:00,
1000000000215188,77717580887,mKcell,mKarTel,mKarTel,,D02,2016-07-22T11:59:33+06:00,
1000000000215188,77717580903,mKcell,mKarTel,mKarTel,,D02,2016-07-22T11:59:33+06:00,
1000000000215188,77717580905,mKcell,mKarTel,mKarTel,,D02,2016-07-22T11:59:33+06:00,
1000000000215188,77717580955,mKcell,mKarTel,mKarTel,,D02,2016-07-22T11:59:33+06:00,
1000000000215188,77717580956,mKcell,mKarTel,mKarTel,,D02,2016-07-22T11:59:33+06:00,
1000000000215188,77717580957,mKcell,mKarTel,mKarTel,,D02,2016-07-22T11:59:33+06:00,
1000000000215188,77717580959,mKcell,mKarTel,mKarTel,,D02,2016-07-22T11:59:33+06:00,
1000000000215188,77717580961,mKcell,mKarTel,mKarTel,,D02,2016-07-22T11:59:33+06:00,
1000000000215325,77080505157,mKcell,mAltel,mAltel,,D02,2016-07-22T11:37:18+06:00,
1000000000215326,77085411255,mKcell,mAltel,mAltel,,D02,2016-07-22T11:37:18+06:00,
1000000000215327,77077105298,mKarTel,mMTS,mMTS,,D01,2016-07-22T11:32:22+06:00,
1000000000215329,77055104561,mMTS,mKarTel,mKarTel,,D77,2016-07-22T11:32:56+06:00,
1000000000215330,77757340292,mMTS,mKcell,mKcell,,D77,2016-07-22T11:32:15+06:00,
1000000000215331,77475060804,mKarTel,mMTS,mMTS,,D01,2016-07-22T11:34:28+06:00,
1000000000215332,77017011076,mKarTel,mKcell,mKcell,,D01,2016-07-22T11:37:34+06:00,
1000000000215334,77755674400,mKarTel,mKcell,mKcell,,D01,2016-07-22T11:43:11+06:00,
1000000000215335,77759393214,mMTS,mKcell,mKcell,,D77,2016-07-22T11:45:43+06:00,
1000000000215336,77475062160,mKarTel,mMTS,mMTS,,D01,2016-07-22T11:43:37+06:00,
1000000000215337,77022355558,mAltel,mKcell,mKcell,,D07,2016-07-22T11:45:46+06:00,
1000000000215338,77022130506,mMTS,mKcell,mKcell,,D77,2016-07-22T11:51:00+06:00,
1000000000215342,77016858717,mKcell,mMTS,mKcell,D77,D02,2016-07-22T11:56:21+06:00,
