NPId,Number,RecipientId,DonorId,RangeHolderId,OldRoute,NewRoute,PortDate,RowCount
1000000000162404,77012459971,mKcell,mMTS,mKcell,D77,D02,2016-04-28T13:00:08+06:00,24
1000000000162405,77051354110,mMTS,mKarTel,mKarTel,,D77,2016-04-28T13:00:09+06:00,
1000000000162407,77023113646,mMTS,mKcell,mKcell,,D77,2016-04-28T13:01:26+06:00,
1000000000162408,77026870002,mKarTel,mKcell,mKcell,,D01,2016-04-28T13:02:21+06:00,
1000000000162410,77754124444,mKarTel,mKcell,mKcell,,D01,2016-04-28T13:05:58+06:00,
1000000000162411,77077405000,mMTS,mAltel,mMTS,D07,D77,2016-04-28T13:05:46+06:00,
1000000000162413,77778665807,mMTS,mKarTel,mKarTel,,D77,2016-04-28T13:07:17+06:00,
1000000000162414,77014025593,mKarTel,mKcell,mKcell,,D01,2016-04-28T13:07:30+06:00,
1000000000162416,77764770770,mMTS,mAltel,mKarTel,D07,D77,2016-04-28T13:08:41+06:00,
1000000000162417,77076353804,mMTS,mAltel,mMTS,D07,D77,2016-04-28T13:08:49+06:00,
1000000000162418,77082030398,mMTS,mAltel,mAltel,,D77,2016-04-28T13:09:15+06:00,
1000000000162419,77772765539,mKcell,mKarTel,mKarTel,,D02,2016-04-28T13:10:11+06:00,
1000000000162420,77013353037,mKarTel,mKcell,mKcell,,D01,2016-04-28T13:10:04+06:00,
1000000000162421,77014269555,mMTS,mKcell,mKcell,,D77,2016-04-28T13:12:31+06:00,
1000000000162423,77771770199,mKcell,mKarTel,mKarTel,,D02,2016-04-28T13:15:23+06:00,
1000000000162426,77027957656,mKarTel,mKcell,mKcell,,D01,2016-04-28T13:17:54+06:00,
1000000000162427,77013238778,mKarTel,mKcell,mKcell,,D01,2016-04-28T13:18:51+06:00,
1000000000162428,77718928686,mMTS,mKarTel,mKarTel,,D77,2016-04-28T13:19:00+06:00,
1000000000162431,77086609966,mMTS,mAltel,mAltel,,D77,2016-04-28T13:21:49+06:00,
1000000000162433,77076784640,mKarTel,mMTS,mMTS,,D01,2016-04-28T13:22:42+06:00,
1000000000162434,77015250644,mKarTel,mKcell,mKcell,,D01,2016-04-28T13:23:22+06:00,
1000000000162435,77028652877,mMTS,mKcell,mKcell,,D77,2016-04-28T13:24:18+06:00,
1000000000162436,77787400707,mKcell,mAltel,mKcell,D07,D02,2016-04-28T13:25:20+06:00,
1000000000162437,77017700869,mAltel,mKcell,mKcell,,D07,2016-04-28T13:25:51+06:00,
