NPId,Number,RecipientId,DonorId,RangeHolderId,OldRoute,NewRoute,PortDate,RowCount
1000000000435635,77014499411,mMTS,mKcell,mKcell,,D77,2017-08-06T12:10:07+06:00,6
1000000000435637,77081083888,mAltel,mKcell,mAltel,D02,D07,2017-08-06T12:10:49+06:00,
1000000000435638,77778346388,mMTS,mKarTel,mKarTel,,D77,2017-08-06T12:12:51+06:00,
1000000000435641,77023925208,mMTS,mKcell,mKcell,,D77,2017-08-06T12:21:30+06:00,
1000000000435643,77079004477,mAltel,mMTS,mMTS,,D07,2017-08-06T12:24:00+06:00,
1000000000435644,77017015085,mKcell,mKarTel,mKcell,D01,D02,2017-08-06T12:28:00+06:00,
