NPId,Number,RecipientId,DonorId,RangeHolderId,OldRoute,NewRoute,PortDate,RowCount
1000000000304157,77003337881,mMTS,mAltel,mAltel,,D77,2017-01-01T14:11:12+06:00,3
1000000000304158,77002102012,mMTS,mAltel,mAltel,,D77,2017-01-01T14:12:11+06:00,
1000000000304160,77051056660,mMTS,mKarTel,mKarTel,,D77,2017-01-01T14:16:16+06:00,
