NPId,Number,RecipientId,DonorId,RangeHolderId,OldRoute,NewRoute,PortDate,RowCount
1000000000313685,77477779066,mKcell,mMTS,mMTS,,D02,2017-01-20T14:30:29+06:00,21
1000000000313687,77774772097,mMTS,mKarTel,mKarTel,,D77,2017-01-20T14:33:02+06:00,
1000000000313688,77754443363,mMTS,mKcell,mKcell,D02,D77,2017-01-20T14:36:09+06:00,
1000000000313689,77015537928,mKarTel,mKcell,mKcell,,D01,2017-01-20T14:36:42+06:00,
1000000000313691,77017661140,mKarTel,mKcell,mKcell,,D01,2017-01-20T14:37:56+06:00,
1000000000313694,77781499901,mMTS,mKcell,mKcell,,D77,2017-01-20T14:42:17+06:00,
1000000000313695,77755125939,mAltel,mKcell,mKcell,,D07,2017-01-20T14:43:37+06:00,
1000000000313697,77000999359,mMTS,mAltel,mAltel,,D77,2017-01-20T14:45:53+06:00,
1000000000313699,77785186129,mMTS,mKcell,mKcell,,D77,2017-01-20T14:47:49+06:00,
1000000000313701,77016522598,mAltel,mKcell,mKcell,,D07,2017-01-20T14:51:17+06:00,
1000000000313702,77074448308,mKarTel,mMTS,mMTS,,D01,2017-01-20T14:53:09+06:00,
1000000000313704,77054482999,mMTS,mKarTel,mKarTel,,D77,2017-01-20T14:54:09+06:00,
1000000000313705,77022522858,mKarTel,mKcell,mKcell,,D01,2017-01-20T14:56:53+06:00,
1000000000313706,77087829091,mMTS,mAltel,mAltel,,D77,2017-01-20T14:54:58+06:00,
1000000000313707,77075811565,mMTS,mKcell,mMTS,D02,D77,2017-01-20T14:55:09+06:00,
1000000000313708,77013783953,mKarTel,mKcell,mKcell,,D01,2017-01-20T14:55:36+06:00,
1000000000313709,77778820088,mKarTel,mAltel,mKarTel,D07,D01,2017-01-20T14:56:27+06:00,
1000000000313710,77028799933,mKarTel,mKcell,mKcell,,D01,2017-01-20T14:57:45+06:00,
1000000000313711,77023658184,mKarTel,mKcell,mKcell,,D01,2017-01-20T14:58:04+06:00,
1000000000313712,77757950447,mMTS,mKcell,mKcell,,D77,2017-01-20T14:58:27+06:00,
1000000000313713,77052470441,mMTS,mKarTel,mKarTel,,D77,2017-01-20T14:59:57+06:00,
