NPId,Number,RecipientId,DonorId,RangeHolderId,OldRoute,NewRoute,PortDate,RowCount
1000000000374884,77003197689,mKarTel,mAltel,mAltel,,D01,2017-04-29T19:01:25+06:00,6
1000000000374885,77059894649,mKcell,mKarTel,mKarTel,,D02,2017-04-29T19:03:35+06:00,
1000000000374886,77789267681,mMTS,mKcell,mKcell,,D77,2017-04-29T19:07:55+06:00,
1000000000374888,77479615852,mMTS,mAltel,mMTS,D07,D77,2017-04-29T19:08:45+06:00,
1000000000374889,77021372025,mMTS,mKcell,mKcell,,D77,2017-04-29T19:17:51+06:00,
1000000000374890,77788730744,mMTS,mKcell,mKcell,,D77,2017-04-29T19:27:57+06:00,
