NPId,Number,RecipientId,DonorId,RangeHolderId,OldRoute,NewRoute,PortDate,RowCount
1000000000258240,77761999984,mKcell,mKarTel,mKarTel,,D02,2016-10-06T20:01:23+06:00,7
1000000000258241,77004442692,mKcell,mAltel,mAltel,,D02,2016-10-06T20:02:18+06:00,
1000000000258242,77768052222,mKarTel,mMTS,mKarTel,D77,D01,2016-10-06T20:05:46+06:00,
1000000000258244,77072000662,mKcell,mMTS,mMTS,,D02,2016-10-06T20:07:29+06:00,
1000000000258245,77013132315,mKarTel,mKcell,mKcell,,D01,2016-10-06T20:16:41+06:00,
1000000000258246,77019414242,mKcell,mKarTel,mKcell,D01,D02,2016-10-06T20:23:20+06:00,
1000000000258247,77079450201,mKcell,mMTS,mMTS,,D02,2016-10-06T20:20:22+06:00,
