NPId,Number,RecipientId,DonorId,RangeHolderId,OldRoute,NewRoute,PortDate,RowCount
1000000000414633,77003073070,mKarTel,mMTS,mAltel,D77,D01,2017-07-01T20:20:24+06:00,2
1000000000414634,77015122712,mMTS,mKcell,mKcell,,D77,2017-07-01T20:21:52+06:00,
