NPId,Number,RecipientId,DonorId,RangeHolderId,OldRoute,NewRoute,PortDate,RowCount
1000000000313049,77018458631,mKcell,mAltel,mKcell,D07,D02,2017-01-19T13:01:21+06:00,34
1000000000313050,77751328696,mMTS,mKcell,mKcell,,D77,2017-01-19T13:03:22+06:00,
1000000000313051,77019302342,mMTS,mKcell,mKcell,,D77,2017-01-19T13:05:16+06:00,
1000000000313052,77082356035,mAltel,mMTS,mAltel,D77,D07,2017-01-19T13:07:46+06:00,
1000000000313053,77783366558,mKarTel,mKcell,mKcell,,D01,2017-01-19T13:11:18+06:00,
1000000000313054,77071505101,mMTS,mKcell,mMTS,D02,D77,2017-01-19T13:11:02+06:00,
1000000000313055,77757059709,mKarTel,mKcell,mKcell,,D01,2017-01-19T13:12:09+06:00,
1000000000313056,77479090404,mKcell,mMTS,mMTS,,D02,2017-01-19T13:12:21+06:00,
1000000000313057,77772428751,mMTS,mKarTel,mKarTel,,D77,2017-01-19T13:12:57+06:00,
1000000000313058,77019458666,mKarTel,mKcell,mKcell,,D01,2017-01-19T13:13:06+06:00,
1000000000313059,77479000997,mKcell,mMTS,mMTS,,D02,2017-01-19T13:13:16+06:00,
1000000000313060,77476660510,mAltel,mMTS,mMTS,,D07,2017-01-19T13:14:03+06:00,
1000000000313061,77057604744,mMTS,mKarTel,mKarTel,,D77,2017-01-19T13:15:03+06:00,
1000000000313062,77086671222,mAltel,mMTS,mAltel,D77,D07,2017-01-19T13:15:27+06:00,
1000000000313063,77011254242,mKarTel,mKcell,mKcell,,D01,2017-01-19T13:19:23+06:00,
1000000000313064,77025555912,mAltel,mKcell,mKcell,,D07,2017-01-19T13:17:43+06:00,
1000000000313065,77082105747,mAltel,mMTS,mAltel,D77,D07,2017-01-19T13:18:00+06:00,
1000000000313066,77025825516,mMTS,mKcell,mKcell,,D77,2017-01-19T13:19:06+06:00,
1000000000313067,77052044449,mAltel,mKcell,mKarTel,D02,D07,2017-01-19T13:19:06+06:00,
1000000000313068,77013495453,mKarTel,mKcell,mKcell,,D01,2017-01-19T13:19:40+06:00,
1000000000313069,77479090333,mKcell,mMTS,mMTS,,D02,2017-01-19T13:20:00+06:00,
1000000000313070,77001012009,mKcell,mAltel,mAltel,,D02,2017-01-19T13:20:13+06:00,
1000000000313071,77001012014,mKcell,mAltel,mAltel,,D02,2017-01-19T13:20:52+06:00,
1000000000313072,77003563059,mAltel,mMTS,mAltel,D77,D07,2017-01-19T13:20:40+06:00,
1000000000313073,77778555562,mMTS,mAltel,mKarTel,D07,D77,2017-01-19T13:21:43+06:00,
1000000000313074,77014263626,mKarTel,mKcell,mKcell,,D01,2017-01-19T13:22:06+06:00,
1000000000313075,77005771976,mKcell,mAltel,mAltel,,D02,2017-01-19T13:22:03+06:00,
1000000000313076,77018950950,mAltel,mKcell,mKcell,,D07,2017-01-19T13:22:45+06:00,
1000000000313077,77004771995,mKcell,mAltel,mAltel,,D02,2017-01-19T13:24:24+06:00,
1000000000313078,77000975875,mKarTel,mAltel,mAltel,,D01,2017-01-19T13:25:29+06:00,
1000000000313079,77058372227,mKarTel,mAltel,mKarTel,D07,D01,2017-01-19T13:25:29+06:00,
1000000000313080,77023681515,mKcell,mAltel,mKcell,D07,D02,2017-01-19T13:25:34+06:00,
1000000000313081,77007701978,mKcell,mAltel,mAltel,,D02,2017-01-19T13:26:10+06:00,
1000000000313083,77776768670,mMTS,mKarTel,mKarTel,,D77,2017-01-19T13:29:21+06:00,
