NPId,Number,RecipientId,DonorId,RangeHolderId,OldRoute,NewRoute,PortDate,RowCount
1000000000048427,77015184426,mKarTel,mKcell,mKcell,,D01,2016-02-15T12:00:39+06:00,37
1000000000048428,77079333466,mAltel,mMTS,mMTS,,D07,2016-02-15T12:00:23+06:00,
1000000000048429,77775799367,mMTS,mKarTel,mKarTel,,D77,2016-02-15T12:00:53+06:00,
1000000000048431,77013333887,mAltel,mKcell,mKcell,,D07,2016-02-15T12:01:48+06:00,
1000000000048432,77012975012,mAltel,mKcell,mKcell,,D07,2016-02-15T12:01:48+06:00,
1000000000048433,77770660667,mMTS,mKarTel,mKarTel,,D77,2016-02-15T12:03:26+06:00,
1000000000048434,77789655065,mAltel,mKcell,mKcell,,D07,2016-02-15T12:04:46+06:00,
1000000000048436,77026200900,mMTS,mKcell,mKcell,,D77,2016-02-15T12:05:22+06:00,
1000000000048437,77015608002,mMTS,mKcell,mKcell,,D77,2016-02-15T12:05:23+06:00,
1000000000048438,77015709376,mKarTel,mKcell,mKcell,,D01,2016-02-15T12:07:23+06:00,
1000000000048439,77011114482,mKarTel,mKcell,mKcell,,D01,2016-02-15T12:07:25+06:00,
1000000000048440,77772244443,mMTS,mKarTel,mKarTel,,D77,2016-02-15T12:05:49+06:00,
1000000000048442,77011116685,mKarTel,mKcell,mKcell,,D01,2016-02-15T12:07:37+06:00,
1000000000048443,77055634949,mKcell,mKarTel,mKarTel,,D02,2016-02-15T12:08:12+06:00,
1000000000048444,77771832215,mAltel,mKarTel,mKarTel,,D07,2016-02-15T12:07:38+06:00,
1000000000048445,77779816096,mKcell,mKarTel,mKarTel,,D02,2016-02-15T12:08:13+06:00,
1000000000048446,77022221424,mKarTel,mKcell,mKcell,,D01,2016-02-15T12:08:14+06:00,
1000000000048447,77014552231,mKarTel,mKcell,mKcell,,D01,2016-02-15T12:08:15+06:00,
1000000000048451,77052508442,mMTS,mKarTel,mKarTel,,D77,2016-02-15T12:08:46+06:00,
1000000000048452,77078012099,mAltel,mMTS,mMTS,,D07,2016-02-15T12:08:58+06:00,
1000000000048453,77784135580,mAltel,mKcell,mKcell,,D07,2016-02-15T12:09:16+06:00,
1000000000048454,77470594036,mAltel,mMTS,mMTS,,D07,2016-02-15T12:10:01+06:00,
1000000000048456,77072420000,mAltel,mMTS,mMTS,,D07,2016-02-15T12:14:22+06:00,
1000000000048457,77015843073,mMTS,mKcell,mKcell,,D77,2016-02-15T12:15:10+06:00,
1000000000048458,77015389749,mKarTel,mKcell,mKcell,,D01,2016-02-15T12:16:06+06:00,
1000000000048459,77775586608,mAltel,mKarTel,mKarTel,,D07,2016-02-15T12:16:35+06:00,
1000000000048460,77024219888,mMTS,mKcell,mKcell,,D77,2016-02-15T12:17:14+06:00,
1000000000048461,77015129908,mMTS,mKcell,mKcell,,D77,2016-02-15T12:17:15+06:00,
1000000000048462,77778167778,mMTS,mKarTel,mKarTel,,D77,2016-02-15T12:17:14+06:00,
1000000000048463,77073173895,mKcell,mMTS,mMTS,,D02,2016-02-15T12:19:01+06:00,
1000000000048466,77471311769,mAltel,mMTS,mMTS,,D07,2016-02-15T12:20:31+06:00,
1000000000048467,77078368695,mKcell,mMTS,mMTS,,D02,2016-02-15T12:21:50+06:00,
1000000000048468,77022013075,mMTS,mKcell,mKcell,,D77,2016-02-15T12:22:33+06:00,
1000000000048469,77027037471,mMTS,mKcell,mKcell,,D77,2016-02-15T12:24:11+06:00,
1000000000048470,77714195788,mKcell,mKarTel,mKarTel,,D02,2016-02-15T12:25:16+06:00,
1000000000048473,77081831991,mMTS,mAltel,mAltel,,D77,2016-02-15T12:26:14+06:00,
1000000000048477,77013880023,mAltel,mKcell,mKcell,,D07,2016-02-15T12:29:59+06:00,
