NPId,Number,RecipientId,DonorId,RangeHolderId,OldRoute,NewRoute,PortDate,RowCount
1000000000397268,77053415757,mMTS,mKarTel,mKarTel,,D77,2017-06-04T18:01:21+06:00,8
1000000000397269,77052229994,mKcell,mKarTel,mKarTel,,D02,2017-06-04T18:02:56+06:00,
1000000000397270,77071272703,mKcell,mMTS,mMTS,,D02,2017-06-04T18:07:45+06:00,
1000000000397271,77009916818,mMTS,mAltel,mAltel,,D77,2017-06-04T18:07:45+06:00,
1000000000397272,77012260898,mKarTel,mKcell,mKcell,,D01,2017-06-04T18:18:49+06:00,
1000000000397273,77026061640,mKarTel,mKcell,mKcell,,D01,2017-06-04T18:26:08+06:00,
1000000000397274,77773010404,mKcell,mKarTel,mKarTel,,D02,2017-06-04T18:27:24+06:00,
1000000000397275,77016363373,mAltel,mKcell,mKcell,,D07,2017-06-04T18:28:05+06:00,
