NPId,Number,RecipientId,DonorId,RangeHolderId,OldRoute,NewRoute,PortDate,RowCount
1000000000209665,77078830144,mKcell,mMTS,mMTS,,D02,2016-07-11T19:32:36+06:00,9
1000000000209667,77085284189,mAltel,mMTS,mAltel,D77,D07,2016-07-11T19:35:14+06:00,
1000000000209671,77017630164,mKcell,mMTS,mKcell,D77,D02,2016-07-11T19:40:29+06:00,
1000000000209672,77019911447,mKarTel,mAltel,mKcell,D07,D01,2016-07-11T19:39:19+06:00,
1000000000209674,77028211557,mMTS,mKcell,mKcell,,D77,2016-07-11T19:43:50+06:00,
1000000000209675,77015534625,mMTS,mKcell,mKcell,,D77,2016-07-11T19:46:52+06:00,
1000000000209677,77078098059,mKarTel,mMTS,mMTS,,D01,2016-07-11T19:50:58+06:00,
1000000000209678,77076194189,mKarTel,mMTS,mMTS,,D01,2016-07-11T19:51:39+06:00,
1000000000209680,77021288288,mKcell,mMTS,mKcell,D77,D02,2016-07-11T19:55:11+06:00,
