NPId,Number,RecipientId,DonorId,RangeHolderId,OldRoute,NewRoute,PortDate,RowCount
1000000000245992,77018006611,mKarTel,mKcell,mKcell,,D01,2016-09-16T11:03:48+06:00,29
1000000000246288,77765488888,mMTS,mKarTel,mKarTel,,D77,2016-09-16T11:02:56+06:00,
1000000000246289,77478041211,mKcell,mMTS,mMTS,,D02,2016-09-16T11:02:37+06:00,
1000000000246290,77470538860,mKcell,mMTS,mMTS,,D02,2016-09-16T11:02:56+06:00,
1000000000246292,77012039149,mKarTel,mKcell,mKcell,,D01,2016-09-16T11:05:03+06:00,
1000000000246293,77473422950,mKarTel,mMTS,mMTS,,D01,2016-09-16T11:05:41+06:00,
1000000000246294,77000717130,mAltel,mMTS,mAltel,D77,D07,2016-09-16T11:05:29+06:00,
1000000000246295,77478253864,mKcell,mMTS,mMTS,,D02,2016-09-16T11:06:10+06:00,
1000000000246297,77777025757,mMTS,mKarTel,mKarTel,,D77,2016-09-16T11:08:02+06:00,
1000000000246298,77000717131,mAltel,mMTS,mAltel,D77,D07,2016-09-16T11:08:30+06:00,
1000000000246299,77083063600,mAltel,mMTS,mAltel,D77,D07,2016-09-16T11:11:09+06:00,
1000000000246300,77000717132,mAltel,mMTS,mAltel,D77,D07,2016-09-16T11:11:22+06:00,
1000000000246301,77076888053,mKarTel,mMTS,mMTS,,D01,2016-09-16T11:12:34+06:00,
1000000000246303,77055483333,mMTS,mKarTel,mKarTel,,D77,2016-09-16T11:13:58+06:00,
1000000000246304,77077858838,mMTS,mAltel,mMTS,D07,D77,2016-09-16T11:13:25+06:00,
1000000000246305,77000717136,mAltel,mMTS,mAltel,D77,D07,2016-09-16T11:15:03+06:00,
1000000000246306,77057006432,mMTS,mKarTel,mKarTel,,D77,2016-09-16T11:15:51+06:00,
1000000000246307,77022309723,mKcell,mMTS,mKcell,D77,D02,2016-09-16T11:16:52+06:00,
1000000000246308,77757749961,mAltel,mKcell,mKcell,,D07,2016-09-16T11:16:46+06:00,
1000000000246309,77000717123,mAltel,mMTS,mAltel,D77,D07,2016-09-16T11:18:22+06:00,
1000000000246311,77774101432,mMTS,mKarTel,mKarTel,,D77,2016-09-16T11:21:02+06:00,
1000000000246312,77088111060,mAltel,mMTS,mAltel,D77,D07,2016-09-16T11:21:00+06:00,
1000000000246313,77476690566,mKarTel,mMTS,mMTS,,D01,2016-09-16T11:21:35+06:00,
1000000000246314,77475556702,mKcell,mMTS,mMTS,,D02,2016-09-16T11:21:27+06:00,
1000000000246315,77755358676,mKcell,mMTS,mKcell,D77,D02,2016-09-16T11:22:31+06:00,
1000000000246318,77476690565,mKarTel,mMTS,mMTS,,D01,2016-09-16T11:26:06+06:00,
1000000000246319,77000717120,mAltel,mMTS,mAltel,D77,D07,2016-09-16T11:26:53+06:00,
1000000000246320,77012503271,mKarTel,mKcell,mKcell,,D01,2016-09-16T11:27:52+06:00,
1000000000246321,77475558174,mKcell,mMTS,mMTS,,D02,2016-09-16T11:29:45+06:00,
