NPId,Number,RecipientId,DonorId,RangeHolderId,OldRoute,NewRoute,PortDate,RowCount
1000000000172904,77053841111,mMTS,mKarTel,mKarTel,,D77,2016-05-12T17:33:05+06:00,41
1000000000172906,77051852373,mMTS,mKarTel,mKarTel,,D77,2016-05-12T17:33:38+06:00,
1000000000172907,77013281719,mMTS,mKcell,mKcell,,D77,2016-05-12T17:35:09+06:00,
1000000000172908,77017525234,mMTS,mKcell,mKcell,,D77,2016-05-12T17:36:55+06:00,
1000000000172909,77753188995,mMTS,mKcell,mKcell,,D77,2016-05-12T17:36:57+06:00,
1000000000172910,77056800303,mMTS,mKarTel,mKarTel,,D77,2016-05-12T17:37:19+06:00,
1000000000172911,77025070000,mMTS,mKcell,mKcell,,D77,2016-05-12T17:37:37+06:00,
1000000000172912,77716116060,mKcell,mKarTel,mKarTel,,D02,2016-05-12T17:38:25+06:00,
1000000000172913,77770201444,mKcell,mKarTel,mKarTel,,D02,2016-05-12T17:38:47+06:00,
1000000000172914,77078321010,mKcell,mAltel,mMTS,D07,D02,2016-05-12T17:38:24+06:00,
1000000000172915,77089203257,mMTS,mAltel,mAltel,,D77,2016-05-12T17:37:50+06:00,
1000000000172917,77001137644,mMTS,mAltel,mAltel,,D77,2016-05-12T17:38:14+06:00,
1000000000172918,77015311623,mMTS,mKcell,mKcell,,D77,2016-05-12T17:38:46+06:00,
1000000000172919,77712874287,mKcell,mKarTel,mKarTel,,D02,2016-05-12T17:39:55+06:00,
1000000000172921,77012783163,mMTS,mKcell,mKcell,,D77,2016-05-12T17:39:29+06:00,
1000000000172923,77017491580,mMTS,mKcell,mKcell,,D77,2016-05-12T17:39:44+06:00,
1000000000172924,77086333914,mMTS,mAltel,mAltel,,D77,2016-05-12T17:39:59+06:00,
1000000000172925,77017398646,mMTS,mKcell,mKcell,,D77,2016-05-12T17:40:21+06:00,
1000000000172926,77085810881,mMTS,mAltel,mAltel,,D77,2016-05-12T17:40:27+06:00,
1000000000172927,77086123333,mMTS,mAltel,mAltel,,D77,2016-05-12T17:41:31+06:00,
1000000000172928,77017491640,mMTS,mKcell,mKcell,,D77,2016-05-12T17:42:26+06:00,
1000000000172930,77017491590,mMTS,mKcell,mKcell,,D77,2016-05-12T17:44:23+06:00,
1000000000172931,77017491620,mMTS,mKcell,mKcell,,D77,2016-05-12T17:46:36+06:00,
1000000000172932,77023700437,mAltel,mKcell,mKcell,,D07,2016-05-12T17:46:36+06:00,
1000000000172933,77471982888,mKcell,mMTS,mMTS,,D02,2016-05-12T17:47:25+06:00,
1000000000172934,77013146919,mMTS,mKcell,mKcell,,D77,2016-05-12T17:47:42+06:00,
1000000000172935,77081660102,mMTS,mAltel,mAltel,,D77,2016-05-12T17:47:20+06:00,
1000000000172936,77078371316,mAltel,mMTS,mMTS,,D07,2016-05-12T17:48:15+06:00,
1000000000172937,77017491720,mMTS,mKcell,mKcell,,D77,2016-05-12T17:49:03+06:00,
1000000000172938,77017491820,mMTS,mKcell,mKcell,,D77,2016-05-12T17:51:26+06:00,
1000000000172940,77003048215,mMTS,mAltel,mAltel,,D77,2016-05-12T17:52:03+06:00,
1000000000172941,77018002076,mAltel,mKcell,mKcell,,D07,2016-05-12T17:54:04+06:00,
1000000000172942,77017491780,mMTS,mKcell,mKcell,,D77,2016-05-12T17:54:03+06:00,
1000000000172943,77024504502,mMTS,mKcell,mKcell,,D77,2016-05-12T17:54:18+06:00,
1000000000172944,77021712025,mKcell,mAltel,mKcell,D07,D02,2016-05-12T17:54:24+06:00,
1000000000172946,77087071088,mMTS,mAltel,mAltel,,D77,2016-05-12T17:54:52+06:00,
1000000000172947,77017491920,mMTS,mKcell,mKcell,,D77,2016-05-12T17:57:05+06:00,
1000000000172948,77089706346,mMTS,mAltel,mAltel,,D77,2016-05-12T17:57:05+06:00,
1000000000172949,77056660828,mMTS,mKarTel,mKarTel,,D77,2016-05-12T17:57:39+06:00,
1000000000172950,77017492070,mMTS,mKcell,mKcell,,D77,2016-05-12T17:58:52+06:00,
1000000000172951,77011380640,mKcell,mAltel,mKcell,D07,D02,2016-05-12T17:59:29+06:00,
