NPId,Number,RecipientId,DonorId,RangeHolderId,OldRoute,NewRoute,PortDate,RowCount
1000000000240645,77019513962,mKarTel,mKcell,mKcell,,D01,2016-09-06T11:36:05+06:00,4
1000000000241070,77012210664,mKarTel,mKcell,mKcell,,D01,2016-09-06T11:31:49+06:00,
1000000000241072,77082229091,mKcell,mAltel,mAltel,,D02,2016-09-06T11:39:38+06:00,
1000000000241083,77754088019,mKarTel,mKcell,mKcell,,D01,2016-09-06T11:59:13+06:00,
