NPId,Number,RecipientId,DonorId,RangeHolderId,OldRoute,NewRoute,PortDate,RowCount
1000000000198806,77027370474,mMTS,mKcell,mKcell,,D77,2016-06-23T19:01:56+06:00,13
1000000000198807,77775817580,mKarTel,mMTS,mKarTel,D77,D01,2016-06-23T19:02:29+06:00,
1000000000198809,77013102220,mKarTel,mKcell,mKcell,,D01,2016-06-23T19:06:02+06:00,
1000000000198810,77053025300,mKarTel,mMTS,mKarTel,D77,D01,2016-06-23T19:05:22+06:00,
1000000000198811,77014697350,mKarTel,mKcell,mKcell,,D01,2016-06-23T19:06:42+06:00,
1000000000198812,77717516655,mKarTel,mAltel,mKarTel,D07,D01,2016-06-23T19:06:18+06:00,
1000000000198813,77081903090,mMTS,mAltel,mAltel,,D77,2016-06-23T19:08:53+06:00,
1000000000198814,77071674787,mKcell,mMTS,mMTS,,D02,2016-06-23T19:12:48+06:00,
1000000000198816,77711500006,mKcell,mKarTel,mKarTel,,D02,2016-06-23T19:22:05+06:00,
1000000000198817,77755980101,mMTS,mKcell,mKcell,,D77,2016-06-23T19:22:09+06:00,
1000000000198819,77752763128,mKcell,mMTS,mKcell,D77,D02,2016-06-23T19:25:56+06:00,
1000000000198820,77022266708,mKarTel,mKcell,mKcell,,D01,2016-06-23T19:25:40+06:00,
1000000000198821,77015533195,mAltel,mKcell,mKcell,,D07,2016-06-23T19:28:20+06:00,
