NPId,Number,RecipientId,DonorId,RangeHolderId,OldRoute,NewRoute,PortDate,RowCount
1000000000355407,77018721792,mKarTel,mKcell,mKcell,,D01,2017-03-30T16:47:25+06:00,35
1000000000355407,77018722341,mKarTel,mKcell,mKcell,,D01,2017-03-30T16:47:25+06:00,
1000000000355407,77018722518,mKarTel,mKcell,mKcell,,D01,2017-03-30T16:47:25+06:00,
1000000000355877,77007772497,mKcell,mAltel,mAltel,,D02,2017-03-30T16:30:20+06:00,
1000000000355879,77000950018,mKarTel,mAltel,mAltel,,D01,2017-03-30T16:32:18+06:00,
1000000000355880,77712051238,mMTS,mKarTel,mKarTel,,D77,2017-03-30T16:33:05+06:00,
1000000000355883,77007772657,mKcell,mAltel,mAltel,,D02,2017-03-30T16:34:28+06:00,
1000000000355885,77011026289,mMTS,mKcell,mKcell,,D77,2017-03-30T16:34:55+06:00,
1000000000355886,77022971999,mAltel,mKcell,mKcell,,D07,2017-03-30T16:35:07+06:00,
1000000000355887,77029019095,mKarTel,mKcell,mKcell,,D01,2017-03-30T16:36:14+06:00,
1000000000355888,77081234894,mMTS,mAltel,mAltel,,D77,2017-03-30T16:36:02+06:00,
1000000000355889,77772653830,mKcell,mKarTel,mKarTel,,D02,2017-03-30T16:37:05+06:00,
1000000000355890,77075570097,mMTS,mKcell,mMTS,D02,D77,2017-03-30T16:37:31+06:00,
1000000000355892,77022049196,mKarTel,mKcell,mKcell,,D01,2017-03-30T16:39:33+06:00,
1000000000355893,77019212556,mKcell,mKarTel,mKcell,D01,D02,2017-03-30T16:40:13+06:00,
1000000000355896,77021703963,mKcell,mMTS,mKcell,D77,D02,2017-03-30T16:45:30+06:00,
1000000000355898,77785880503,mAltel,mKcell,mKcell,,D07,2017-03-30T16:47:32+06:00,
1000000000355899,77772649316,mMTS,mKarTel,mKarTel,,D77,2017-03-30T16:48:06+06:00,
1000000000355901,77476805262,mKcell,mMTS,mMTS,,D02,2017-03-30T16:49:20+06:00,
1000000000355902,77055931855,mKarTel,mKcell,mKarTel,D02,D01,2017-03-30T16:51:21+06:00,
1000000000355904,77007774527,mKcell,mAltel,mAltel,,D02,2017-03-30T16:53:28+06:00,
1000000000355905,77000000725,mKarTel,mAltel,mAltel,,D01,2017-03-30T16:54:55+06:00,
1000000000355906,77757302400,mKarTel,mKcell,mKcell,,D01,2017-03-30T16:55:26+06:00,
1000000000355907,77017952898,mKarTel,mKcell,mKcell,D02,D01,2017-03-30T16:55:36+06:00,
1000000000355908,77078870878,mAltel,mMTS,mMTS,,D07,2017-03-30T16:55:20+06:00,
1000000000355909,77017725257,mKarTel,mKcell,mKcell,,D01,2017-03-30T16:56:13+06:00,
1000000000355910,77007774257,mKcell,mAltel,mAltel,,D02,2017-03-30T16:56:21+06:00,
1000000000355911,77056781276,mKcell,mKarTel,mKarTel,,D02,2017-03-30T16:57:37+06:00,
1000000000355912,77007774267,mKcell,mAltel,mAltel,,D02,2017-03-30T16:57:34+06:00,
1000000000355913,77027046480,mMTS,mAltel,mKcell,D07,D77,2017-03-30T16:57:28+06:00,
1000000000355915,77767744488,mKcell,mKarTel,mKarTel,,D02,2017-03-30T16:58:20+06:00,
1000000000355916,77024201610,mKarTel,mKcell,mKcell,,D01,2017-03-30T16:58:54+06:00,
1000000000355917,77713620022,mKcell,mKarTel,mKarTel,D01,D02,2017-03-30T16:59:24+06:00,
1000000000355919,77075162768,mKcell,mMTS,mMTS,,D02,2017-03-30T16:59:39+06:00,
1000000000355920,77478423014,mAltel,mMTS,mMTS,,D07,2017-03-30T16:59:34+06:00,
