NPId,Number,RecipientId,DonorId,RangeHolderId,OldRoute,NewRoute,PortDate,RowCount
1000000000365888,77787094484,mKarTel,mMTS,mKcell,D77,D01,2017-04-14T15:00:40+06:00,31
1000000000365889,77029862812,mAltel,mKcell,mKcell,,D07,2017-04-14T15:03:32+06:00,
1000000000365891,77773491021,mMTS,mKarTel,mKarTel,,D77,2017-04-14T15:06:29+06:00,
1000000000365892,77022162272,mKcell,mAltel,mKcell,D07,D02,2017-04-14T15:04:51+06:00,
1000000000365893,77015217546,mKcell,mAltel,mKcell,D07,D02,2017-04-14T15:04:51+06:00,
1000000000365894,77028881221,mKcell,mAltel,mKcell,D07,D02,2017-04-14T15:05:10+06:00,
1000000000365895,77022617337,mKcell,mKarTel,mKcell,D01,D02,2017-04-14T15:06:57+06:00,
1000000000365896,77017297799,mKcell,mAltel,mKcell,D07,D02,2017-04-14T15:06:14+06:00,
1000000000365897,77017426370,mKcell,mMTS,mKcell,D77,D02,2017-04-14T15:06:48+06:00,
1000000000365898,77017426239,mKcell,mMTS,mKcell,D77,D02,2017-04-14T15:08:47+06:00,
1000000000365899,77771114807,mKcell,mKarTel,mKarTel,,D02,2017-04-14T15:09:48+06:00,
1000000000365900,77017426284,mKcell,mMTS,mKcell,D77,D02,2017-04-14T15:10:30+06:00,
1000000000365901,77086167767,mMTS,mAltel,mAltel,,D77,2017-04-14T15:10:42+06:00,
1000000000365903,77022310090,mAltel,mKcell,mKcell,,D07,2017-04-14T15:13:07+06:00,
1000000000365904,77752222769,mMTS,mKcell,mKcell,,D77,2017-04-14T15:13:30+06:00,
1000000000365905,77058889337,mKarTel,mAltel,mKarTel,D07,D01,2017-04-14T15:15:36+06:00,
1000000000365906,77000404040,mKarTel,mAltel,mAltel,,D01,2017-04-14T15:15:37+06:00,
1000000000365907,77000303030,mKarTel,mAltel,mAltel,,D01,2017-04-14T15:17:12+06:00,
1000000000365909,77089307959,mKcell,mAltel,mAltel,,D02,2017-04-14T15:17:55+06:00,
1000000000365910,77000606060,mKarTel,mAltel,mAltel,,D01,2017-04-14T15:17:53+06:00,
1000000000365911,77019474843,mKarTel,mKcell,mKcell,,D01,2017-04-14T15:19:11+06:00,
1000000000365912,77013254398,mKcell,mAltel,mKcell,D07,D02,2017-04-14T15:19:39+06:00,
1000000000365913,77769889899,mMTS,mKarTel,mKarTel,,D77,2017-04-14T15:20:42+06:00,
1000000000365917,77017778694,mAltel,mKcell,mKcell,,D07,2017-04-14T15:22:55+06:00,
1000000000365918,77016036660,mAltel,mKcell,mKcell,,D07,2017-04-14T15:24:48+06:00,
1000000000365919,77711818880,mMTS,mKarTel,mKarTel,,D77,2017-04-14T15:25:03+06:00,
1000000000365920,77758866725,mKcell,mAltel,mKcell,D07,D02,2017-04-14T15:25:10+06:00,
1000000000365921,77022756848,mMTS,mKcell,mKcell,,D77,2017-04-14T15:25:41+06:00,
1000000000365923,77774426482,mKarTel,mMTS,mKarTel,D77,D01,2017-04-14T15:27:54+06:00,
1000000000365924,77754131645,mMTS,mKcell,mKcell,,D77,2017-04-14T15:28:30+06:00,
1000000000365925,77021007595,mAltel,mKcell,mKcell,D02,D07,2017-04-14T15:28:31+06:00,
