NPId,Number,RecipientId,DonorId,RangeHolderId,OldRoute,NewRoute,PortDate,RowCount
1000000000350763,77051181530,mKcell,mKarTel,mKarTel,,D02,2017-03-22T14:31:01+06:00,13
1000000000350764,77710400303,mKcell,mKarTel,mKarTel,,D02,2017-03-22T14:31:34+06:00,
1000000000350765,77754640303,mKcell,mMTS,mKcell,D77,D02,2017-03-22T14:32:12+06:00,
1000000000350767,77001115140,mKcell,mAltel,mAltel,,D02,2017-03-22T14:39:09+06:00,
1000000000350768,77007774230,mKcell,mAltel,mAltel,,D02,2017-03-22T14:39:30+06:00,
1000000000350770,77757747840,mKarTel,mKcell,mKcell,,D01,2017-03-22T14:40:27+06:00,
1000000000350771,77007174000,mKcell,mAltel,mAltel,,D02,2017-03-22T14:40:50+06:00,
1000000000350772,77758034043,mKarTel,mKcell,mKcell,,D01,2017-03-22T14:41:26+06:00,
1000000000350774,77075206474,mKarTel,mMTS,mMTS,,D01,2017-03-22T14:47:23+06:00,
1000000000350775,77771141919,mKarTel,mMTS,mKarTel,D77,D01,2017-03-22T14:47:37+06:00,
1000000000350777,77012201403,mMTS,mKcell,mKcell,,D77,2017-03-22T14:51:58+06:00,
1000000000350778,77077770970,mKcell,mMTS,mMTS,,D02,2017-03-22T14:56:37+06:00,
1000000000350779,77016877212,mMTS,mKcell,mKcell,,D77,2017-03-22T14:59:19+06:00,
