NPId,Number,RecipientId,DonorId,RangeHolderId,OldRoute,NewRoute,PortDate,RowCount
1000000000188282,77081164039,mMTS,mAltel,mAltel,,D77,2016-06-05T17:32:36+06:00,7
1000000000188283,77005507767,mMTS,mAltel,mAltel,,D77,2016-06-05T17:34:00+06:00,
1000000000188285,77773904174,mMTS,mKarTel,mKarTel,,D77,2016-06-05T17:38:06+06:00,
1000000000188286,77015668787,mMTS,mKcell,mKcell,,D77,2016-06-05T17:40:23+06:00,
1000000000188289,77789035196,mMTS,mKcell,mKcell,,D77,2016-06-05T17:52:30+06:00,
1000000000188290,77082171313,mMTS,mAltel,mAltel,,D77,2016-06-05T17:52:34+06:00,
1000000000188291,77010700181,mMTS,mKcell,mKcell,,D77,2016-06-05T17:53:37+06:00,
