NPId,Number,RecipientId,DonorId,RangeHolderId,OldRoute,NewRoute,PortDate,RowCount
1000000000269115,77055651323,mMTS,mKarTel,mKarTel,,D77,2016-10-27T18:32:50+06:00,13
1000000000269116,77072155552,mKarTel,mMTS,mMTS,,D01,2016-10-27T18:34:34+06:00,
1000000000269118,77052731793,mMTS,mKarTel,mKarTel,,D77,2016-10-27T18:37:49+06:00,
1000000000269119,77771234503,mKarTel,mAltel,mKarTel,D07,D01,2016-10-27T18:38:38+06:00,
1000000000269120,77015335563,mAltel,mKcell,mKcell,,D07,2016-10-27T18:38:41+06:00,
1000000000269121,77778787874,mKarTel,mMTS,mKarTel,D77,D01,2016-10-27T18:40:10+06:00,
1000000000269122,77011410044,mKcell,mKarTel,mKcell,D01,D02,2016-10-27T18:41:47+06:00,
1000000000269124,77714534124,mMTS,mKarTel,mKarTel,,D77,2016-10-27T18:42:52+06:00,
1000000000269125,77028957900,mMTS,mKcell,mKcell,,D77,2016-10-27T18:42:40+06:00,
1000000000269127,77751602020,mMTS,mKcell,mKcell,,D77,2016-10-27T18:47:57+06:00,
1000000000269128,77051073367,mMTS,mKarTel,mKarTel,,D77,2016-10-27T18:51:31+06:00,
1000000000269129,77770106005,mMTS,mKarTel,mKarTel,,D77,2016-10-27T18:54:05+06:00,
1000000000269131,77003030309,mMTS,mAltel,mAltel,,D77,2016-10-27T18:59:45+06:00,
