NPId,Number,RecipientId,DonorId,RangeHolderId,OldRoute,NewRoute,PortDate,RowCount
1000000000390169,77019966664,mKarTel,mKcell,mKcell,,D01,2017-05-26T14:36:06+06:00,18
1000000000390248,77011117278,mKarTel,mKcell,mKcell,,D01,2017-05-26T14:32:58+06:00,
1000000000390249,77003620607,mMTS,mAltel,mAltel,,D77,2017-05-26T14:32:45+06:00,
1000000000390250,77071994070,mKcell,mMTS,mMTS,,D02,2017-05-26T14:33:23+06:00,
1000000000390251,77010688883,mMTS,mKcell,mKcell,,D77,2017-05-26T14:37:55+06:00,
1000000000390252,77057689901,mMTS,mKarTel,mKarTel,,D77,2017-05-26T14:41:25+06:00,
1000000000390253,77057474555,mKarTel,mAltel,mKarTel,D07,D01,2017-05-26T14:43:42+06:00,
1000000000390254,77017243861,mMTS,mKcell,mKcell,,D77,2017-05-26T14:44:48+06:00,
1000000000390256,77059518989,mMTS,mKarTel,mKarTel,,D77,2017-05-26T14:46:44+06:00,
1000000000390257,77029973333,mMTS,mKcell,mKcell,,D77,2017-05-26T14:47:51+06:00,
1000000000390258,77015383358,mKarTel,mKcell,mKcell,,D01,2017-05-26T14:48:49+06:00,
1000000000390260,77015137476,mKarTel,mKcell,mKcell,,D01,2017-05-26T14:49:36+06:00,
1000000000390261,77477332121,mAltel,mMTS,mMTS,,D07,2017-05-26T14:49:13+06:00,
1000000000390262,77029110303,mKcell,mMTS,mKcell,D77,D02,2017-05-26T14:49:50+06:00,
1000000000390263,77072449339,mAltel,mMTS,mMTS,,D07,2017-05-26T14:50:07+06:00,
1000000000390264,77021478020,mAltel,mKcell,mKcell,,D07,2017-05-26T14:55:53+06:00,
1000000000390265,77001119640,mMTS,mAltel,mAltel,,D77,2017-05-26T14:57:11+06:00,
1000000000390266,77073001484,mAltel,mMTS,mMTS,,D07,2017-05-26T14:57:40+06:00,
