NPId,Number,RecipientId,DonorId,RangeHolderId,OldRoute,NewRoute,PortDate,RowCount
1000000000278796,77073940721,mAltel,mKarTel,mMTS,D01,D07,2016-11-14T12:01:16+06:00,12
1000000000278799,77077620971,mKarTel,mMTS,mMTS,,D01,2016-11-14T12:04:10+06:00,
1000000000278800,77024700531,mKarTel,mKcell,mKcell,,D01,2016-11-14T12:06:01+06:00,
1000000000278801,77027226708,mKarTel,mKcell,mKcell,,D01,2016-11-14T12:07:44+06:00,
1000000000278802,77751044061,mKarTel,mKcell,mKcell,,D01,2016-11-14T12:07:59+06:00,
1000000000278803,77784656456,mMTS,mKcell,mKcell,,D77,2016-11-14T12:08:33+06:00,
1000000000278804,77056363750,mKcell,mKarTel,mKarTel,,D02,2016-11-14T12:10:11+06:00,
1000000000278805,77012337598,mKarTel,mKcell,mKcell,,D01,2016-11-14T12:10:03+06:00,
1000000000278806,77018515151,mKarTel,mKcell,mKcell,,D01,2016-11-14T12:12:40+06:00,
1000000000278808,77766171980,mKarTel,mKcell,mKarTel,D02,D01,2016-11-14T12:14:16+06:00,
1000000000278812,77778759000,mMTS,mKarTel,mKarTel,,D77,2016-11-14T12:20:55+06:00,
1000000000278813,77022964266,mKcell,mMTS,mKcell,D77,D02,2016-11-14T12:28:08+06:00,
