NPId,Number,RecipientId,DonorId,RangeHolderId,OldRoute,NewRoute,PortDate,RowCount
1000000000119896,77053691010,mKcell,mKarTel,mKarTel,,D02,2016-03-09T10:30:45+06:00,38
1000000000119899,77013675752,mMTS,mKcell,mKcell,,D77,2016-03-09T10:31:49+06:00,
1000000000119900,77010830505,mKarTel,mKcell,mKcell,,D01,2016-03-09T10:32:30+06:00,
1000000000119901,77026821053,mMTS,mKcell,mKcell,,D77,2016-03-09T10:32:13+06:00,
1000000000119902,77015255329,mKarTel,mKcell,mKcell,,D01,2016-03-09T10:33:56+06:00,
1000000000119903,77009677529,mKarTel,mAltel,mAltel,,D01,2016-03-09T10:34:45+06:00,
1000000000119905,77774446222,mAltel,mKarTel,mKarTel,,D07,2016-03-09T10:36:11+06:00,
1000000000119906,77781188880,mAltel,mKcell,mKcell,,D07,2016-03-09T10:35:59+06:00,
1000000000119910,77077111831,mAltel,mMTS,mMTS,,D07,2016-03-09T10:38:36+06:00,
1000000000119911,77759068090,mAltel,mKcell,mKcell,,D07,2016-03-09T10:39:18+06:00,
1000000000119912,77017011101,mMTS,mKcell,mKcell,,D77,2016-03-09T10:39:27+06:00,
1000000000119913,77016056197,mMTS,mKcell,mKcell,,D77,2016-03-09T10:40:04+06:00,
1000000000119915,77715125454,mAltel,mKarTel,mKarTel,,D07,2016-03-09T10:41:49+06:00,
1000000000119916,77767053434,mMTS,mKarTel,mKarTel,,D77,2016-03-09T10:41:59+06:00,
1000000000119917,77071041975,mMTS,mAltel,mMTS,D07,D77,2016-03-09T10:41:53+06:00,
1000000000119918,77052121111,mKcell,mKarTel,mKarTel,,D02,2016-03-09T10:43:16+06:00,
1000000000119920,77778555576,mMTS,mKarTel,mKarTel,,D77,2016-03-09T10:43:52+06:00,
1000000000119922,77015168577,mAltel,mKcell,mKcell,,D07,2016-03-09T10:45:41+06:00,
1000000000119923,77054459921,mMTS,mKarTel,mKarTel,,D77,2016-03-09T10:45:54+06:00,
1000000000119924,77015344818,mKarTel,mKcell,mKcell,,D01,2016-03-09T10:52:52+06:00,
1000000000119925,77013191699,mMTS,mKcell,mKcell,,D77,2016-03-09T10:46:00+06:00,
1000000000119926,77750002626,mMTS,mKcell,mKcell,,D77,2016-03-09T10:46:35+06:00,
1000000000119927,77771963505,mMTS,mKarTel,mKarTel,,D77,2016-03-09T10:46:41+06:00,
1000000000119928,77781801424,mAltel,mKcell,mKcell,,D07,2016-03-09T10:46:35+06:00,
1000000000119930,77015325249,mAltel,mKcell,mKcell,,D07,2016-03-09T10:46:49+06:00,
1000000000119931,77014704551,mKarTel,mKcell,mKcell,,D01,2016-03-09T10:47:20+06:00,
1000000000119932,77015231734,mMTS,mKcell,mKcell,,D77,2016-03-09T10:47:06+06:00,
1000000000119934,77010222225,mAltel,mKcell,mKcell,,D07,2016-03-09T10:47:49+06:00,
1000000000119936,77012590025,mMTS,mKcell,mKcell,,D77,2016-03-09T10:48:47+06:00,
1000000000119940,77007700500,mMTS,mAltel,mAltel,,D77,2016-03-09T10:50:20+06:00,
1000000000119942,77019518006,mKarTel,mKcell,mKcell,,D01,2016-03-09T10:51:43+06:00,
1000000000119943,77053030707,mKcell,mKarTel,mKarTel,,D02,2016-03-09T10:52:27+06:00,
1000000000119944,77021192066,mMTS,mKcell,mKcell,,D77,2016-03-09T10:53:39+06:00,
1000000000119945,77789529990,mKarTel,mKcell,mKcell,,D01,2016-03-09T10:55:25+06:00,
1000000000119946,77772461400,mAltel,mKarTel,mKarTel,,D07,2016-03-09T10:55:38+06:00,
1000000000119947,77018880822,mAltel,mKcell,mKcell,,D07,2016-03-09T10:55:46+06:00,
1000000000119948,77017372003,mAltel,mKcell,mKcell,,D07,2016-03-09T10:57:27+06:00,
1000000000119951,77017361586,mAltel,mKcell,mKcell,,D07,2016-03-09T10:57:53+06:00,
