NPId,Number,RecipientId,DonorId,RangeHolderId,OldRoute,NewRoute,PortDate,RowCount
1000000000176934,77018009011,mKcell,mAltel,mKcell,D07,D02,2016-05-19T10:00:34+06:00,25
1000000000176935,77015886192,mMTS,mKcell,mKcell,,D77,2016-05-19T10:05:32+06:00,
1000000000176936,77787100189,mMTS,mKcell,mKcell,,D77,2016-05-19T10:05:28+06:00,
1000000000176937,77011447479,mMTS,mKcell,mKcell,,D77,2016-05-19T10:05:28+06:00,
1000000000176938,77072060992,mMTS,mKcell,mMTS,D02,D77,2016-05-19T10:05:28+06:00,
1000000000176939,77021612708,mMTS,mKcell,mKcell,,D77,2016-05-19T10:05:29+06:00,
1000000000176940,77082991210,mMTS,mAltel,mAltel,,D77,2016-05-19T10:02:07+06:00,
1000000000176941,77051888449,mMTS,mKarTel,mKarTel,,D77,2016-05-19T10:04:04+06:00,
1000000000176942,77017763770,mKcell,mAltel,mKcell,D07,D02,2016-05-19T10:05:56+06:00,
1000000000176943,77083577348,mMTS,mAltel,mAltel,,D77,2016-05-19T10:05:40+06:00,
1000000000176944,77777666844,mKcell,mAltel,mKarTel,D07,D02,2016-05-19T10:07:57+06:00,
1000000000176945,77770596860,mMTS,mKarTel,mKarTel,,D77,2016-05-19T10:11:43+06:00,
1000000000176946,77025373434,mAltel,mMTS,mKcell,D77,D07,2016-05-19T10:11:54+06:00,
1000000000176948,77059881889,mMTS,mKarTel,mKarTel,,D77,2016-05-19T10:13:14+06:00,
1000000000176949,77784929691,mKcell,mAltel,mKcell,D07,D02,2016-05-19T10:13:48+06:00,
1000000000176950,77713738282,mKcell,mKarTel,mKarTel,,D02,2016-05-19T10:15:42+06:00,
1000000000176951,77755115158,mMTS,mKcell,mKcell,,D77,2016-05-19T10:17:40+06:00,
1000000000176952,77003546386,mMTS,mAltel,mAltel,,D77,2016-05-19T10:18:37+06:00,
1000000000176953,77004626456,mMTS,mAltel,mAltel,,D77,2016-05-19T10:19:02+06:00,
1000000000176955,77778298889,mMTS,mKarTel,mKarTel,,D77,2016-05-19T10:23:55+06:00,
1000000000176956,77013589639,mMTS,mKcell,mKcell,,D77,2016-05-19T10:24:31+06:00,
1000000000176958,77055743131,mKarTel,mMTS,mKarTel,D77,D01,2016-05-19T10:25:27+06:00,
1000000000176959,77781311852,mMTS,mKcell,mKcell,,D77,2016-05-19T10:26:42+06:00,
1000000000176960,77085623832,mMTS,mAltel,mAltel,,D77,2016-05-19T10:26:18+06:00,
1000000000176961,77757770066,mAltel,mKcell,mKcell,,D07,2016-05-19T10:28:15+06:00,
