NPId,Number,RecipientId,DonorId,RangeHolderId,OldRoute,NewRoute,PortDate,RowCount
1000000000265261,77772053260,mKarTel,mMTS,mKarTel,D77,D01,2016-10-19T19:34:20+06:00,5
1000000000265262,77077315105,mKcell,mMTS,mMTS,,D02,2016-10-19T19:39:33+06:00,
1000000000265263,77785444445,mMTS,mKcell,mKcell,,D77,2016-10-19T19:40:00+06:00,
1000000000265264,77071516168,mKarTel,mMTS,mMTS,,D01,2016-10-19T19:41:46+06:00,
1000000000265265,77071561296,mKcell,mMTS,mMTS,,D02,2016-10-19T19:59:41+06:00,
