NPId,Number,RecipientId,DonorId,RangeHolderId,OldRoute,NewRoute,PortDate,RowCount
1000000000106189,77073888899,mKcell,mMTS,mMTS,,D02,2016-03-03T17:30:35+06:00,57
1000000000106194,77016495566,mAltel,mKcell,mKcell,,D07,2016-03-03T17:30:20+06:00,
1000000000106197,77751946677,mAltel,mKcell,mKcell,,D07,2016-03-03T17:30:24+06:00,
1000000000106199,77021204638,mAltel,mKcell,mKcell,,D07,2016-03-03T17:30:24+06:00,
1000000000106200,77016274687,mAltel,mKcell,mKcell,,D07,2016-03-03T17:30:24+06:00,
1000000000106201,77015358442,mAltel,mKcell,mKcell,,D07,2016-03-03T17:30:23+06:00,
1000000000106202,77017634273,mKarTel,mKcell,mKcell,,D01,2016-03-03T17:30:37+06:00,
1000000000106203,77751049654,mMTS,mKcell,mKcell,,D77,2016-03-03T17:30:23+06:00,
1000000000106209,77022291875,mMTS,mKcell,mKcell,,D77,2016-03-03T17:34:14+06:00,
1000000000106210,77754044301,mMTS,mKcell,mKcell,,D77,2016-03-03T17:34:10+06:00,
1000000000106211,77012246994,mMTS,mKcell,mKcell,,D77,2016-03-03T17:34:14+06:00,
1000000000106214,77022746496,mMTS,mKcell,mKcell,,D77,2016-03-03T17:34:14+06:00,
1000000000106215,77017057174,mKarTel,mKcell,mKcell,,D01,2016-03-03T17:35:22+06:00,
1000000000106217,77079514162,mKcell,mMTS,mMTS,,D02,2016-03-03T17:37:29+06:00,
1000000000106218,77470362250,mKcell,mMTS,mMTS,,D02,2016-03-03T17:37:30+06:00,
1000000000106219,77052883037,mAltel,mKarTel,mKarTel,,D07,2016-03-03T17:35:57+06:00,
1000000000106220,77776894122,mMTS,mKarTel,mKarTel,,D77,2016-03-03T17:37:05+06:00,
1000000000106221,77713238888,mAltel,mKarTel,mKarTel,,D07,2016-03-03T17:37:54+06:00,
1000000000106222,77715273737,mAltel,mKarTel,mKarTel,,D07,2016-03-03T17:39:35+06:00,
1000000000106223,77773427889,mAltel,mKarTel,mKarTel,,D07,2016-03-03T17:39:41+06:00,
1000000000106224,77766464850,mAltel,mKarTel,mKarTel,,D07,2016-03-03T17:39:49+06:00,
1000000000106225,77771760985,mAltel,mKarTel,mKarTel,,D07,2016-03-03T17:40:54+06:00,
1000000000106227,77019188819,mKarTel,mKcell,mKcell,,D01,2016-03-03T17:42:17+06:00,
1000000000106229,77756854890,mMTS,mKcell,mKcell,,D77,2016-03-03T17:42:00+06:00,
1000000000106231,77776669392,mMTS,mKarTel,mKarTel,,D77,2016-03-03T17:42:12+06:00,
1000000000106232,77754339944,mMTS,mKcell,mKcell,,D77,2016-03-03T17:42:00+06:00,
1000000000106233,77080515611,mMTS,mAltel,mAltel,,D77,2016-03-03T17:41:52+06:00,
1000000000106234,77077084116,mAltel,mMTS,mMTS,,D07,2016-03-03T17:42:19+06:00,
1000000000106235,77079555510,mAltel,mMTS,mMTS,,D07,2016-03-03T17:42:28+06:00,
1000000000106236,77017221112,mAltel,mKcell,mKcell,,D07,2016-03-03T17:43:47+06:00,
1000000000106238,77776078760,mMTS,mKarTel,mKarTel,,D77,2016-03-03T17:44:54+06:00,
1000000000106239,77714039634,mAltel,mKarTel,mKarTel,,D07,2016-03-03T17:45:32+06:00,
1000000000106240,77754444770,mAltel,mKcell,mKcell,,D07,2016-03-03T17:46:07+06:00,
1000000000106242,77017167205,mMTS,mKcell,mKcell,,D77,2016-03-03T17:47:27+06:00,
1000000000106243,77751818888,mAltel,mKcell,mKcell,,D07,2016-03-03T17:47:28+06:00,
1000000000106245,77713131395,mMTS,mKarTel,mKarTel,,D77,2016-03-03T17:47:03+06:00,
1000000000106246,77760003301,mMTS,mKarTel,mKarTel,,D77,2016-03-03T17:47:15+06:00,
1000000000106247,77011316339,mAltel,mKcell,mKcell,,D07,2016-03-03T17:47:28+06:00,
1000000000106249,77057200020,mMTS,mKarTel,mKarTel,,D77,2016-03-03T17:49:26+06:00,
1000000000106250,77775771533,mAltel,mKarTel,mKarTel,,D07,2016-03-03T17:49:32+06:00,
1000000000106252,77071396888,mAltel,mMTS,mMTS,,D07,2016-03-03T17:49:59+06:00,
1000000000106253,77074898489,mAltel,mMTS,mMTS,,D07,2016-03-03T17:50:03+06:00,
1000000000106254,77760000394,mAltel,mKarTel,mKarTel,,D07,2016-03-03T17:50:33+06:00,
1000000000106256,77774038877,mMTS,mKarTel,mKarTel,,D77,2016-03-03T17:51:03+06:00,
1000000000106258,77021764203,mKarTel,mKcell,mKcell,,D01,2016-03-03T17:52:36+06:00,
1000000000106259,77773358317,mMTS,mKarTel,mKarTel,,D77,2016-03-03T17:52:46+06:00,
1000000000106260,77052737887,mAltel,mKarTel,mKarTel,,D07,2016-03-03T17:53:11+06:00,
1000000000106261,77759699003,mMTS,mKcell,mKcell,,D77,2016-03-03T17:53:38+06:00,
1000000000106262,77076172751,mAltel,mMTS,mMTS,,D07,2016-03-03T17:53:11+06:00,
1000000000106263,77011100214,mAltel,mKcell,mKcell,,D07,2016-03-03T17:54:11+06:00,
1000000000106264,77009758525,mKcell,mAltel,mAltel,,D02,2016-03-03T17:54:41+06:00,
1000000000106265,77078787456,mAltel,mMTS,mMTS,,D07,2016-03-03T17:55:03+06:00,
1000000000106267,77059688777,mMTS,mKarTel,mKarTel,,D77,2016-03-03T17:56:48+06:00,
1000000000106268,77015280668,mKarTel,mKcell,mKcell,,D01,2016-03-03T17:57:24+06:00,
1000000000106269,77078344915,mAltel,mMTS,mMTS,,D07,2016-03-03T17:57:00+06:00,
1000000000106270,77051615554,mMTS,mKarTel,mKarTel,,D77,2016-03-03T17:58:25+06:00,
1000000000106271,77071110621,mAltel,mMTS,mMTS,,D07,2016-03-03T17:58:17+06:00,
