NPId,Number,RecipientId,DonorId,RangeHolderId,OldRoute,NewRoute,PortDate,RowCount
1000000000302556,77021232007,mKarTel,mKcell,mKcell,,D01,2016-12-28T20:03:56+06:00,7
1000000000302557,77771005557,mAltel,mKarTel,mKarTel,,D07,2016-12-28T20:04:55+06:00,
1000000000302558,77001000943,mKcell,mAltel,mAltel,,D02,2016-12-28T20:07:14+06:00,
1000000000302560,77477872811,mKarTel,mMTS,mMTS,,D01,2016-12-28T20:09:40+06:00,
1000000000302561,77473918303,mKarTel,mMTS,mMTS,,D01,2016-12-28T20:18:15+06:00,
1000000000302562,77075450405,mKarTel,mMTS,mMTS,,D01,2016-12-28T20:18:20+06:00,
1000000000302563,77001000243,mKcell,mAltel,mAltel,,D02,2016-12-28T20:19:00+06:00,
