NPId,Number,RecipientId,DonorId,RangeHolderId,OldRoute,NewRoute,PortDate,RowCount
1000000000219065,77718888837,mKcell,mKarTel,mKarTel,,D02,2016-07-29T11:30:23+06:00,29
1000000000219066,77054098989,mKcell,mKarTel,mKarTel,,D02,2016-07-29T11:30:23+06:00,
1000000000219067,77777973393,mMTS,mKarTel,mKarTel,,D77,2016-07-29T11:30:11+06:00,
1000000000219068,77755976320,mAltel,mKcell,mKcell,,D07,2016-07-29T11:30:35+06:00,
1000000000219069,77777979175,mMTS,mKarTel,mKarTel,,D77,2016-07-29T11:32:00+06:00,
1000000000219071,77075353530,mKcell,mMTS,mMTS,,D02,2016-07-29T11:31:57+06:00,
1000000000219072,77752375540,mMTS,mKcell,mKcell,,D77,2016-07-29T11:32:23+06:00,
1000000000219074,77471977791,mMTS,mAltel,mMTS,D07,D77,2016-07-29T11:33:24+06:00,
1000000000219075,77077811300,mMTS,mKcell,mMTS,D02,D77,2016-07-29T11:34:55+06:00,
1000000000219076,77786480000,mMTS,mKcell,mKcell,,D77,2016-07-29T11:35:39+06:00,
1000000000219077,77751010303,mKcell,mAltel,mKcell,D07,D02,2016-07-29T11:36:01+06:00,
1000000000219078,77716488440,mKarTel,mMTS,mKarTel,D77,D01,2016-07-29T11:36:53+06:00,
1000000000219079,77012060835,mKarTel,mKcell,mKcell,,D01,2016-07-29T11:37:52+06:00,
1000000000219080,77759064574,mMTS,mKcell,mKcell,,D77,2016-07-29T11:37:16+06:00,
1000000000219082,77755999957,mKarTel,mMTS,mKcell,D77,D01,2016-07-29T11:38:40+06:00,
1000000000219083,77024410035,mKcell,mMTS,mKcell,D77,D02,2016-07-29T11:39:26+06:00,
1000000000219084,77473253984,mAltel,mMTS,mMTS,,D07,2016-07-29T11:39:29+06:00,
1000000000219085,77717092194,mKcell,mKarTel,mKarTel,,D02,2016-07-29T11:56:26+06:00,
1000000000219086,77076706060,mMTS,mKarTel,mMTS,D01,D77,2016-07-29T11:41:21+06:00,
1000000000219089,77055649893,mMTS,mKarTel,mKarTel,,D77,2016-07-29T11:44:07+06:00,
1000000000219090,77021356609,mKcell,mMTS,mKcell,D77,D02,2016-07-29T11:43:25+06:00,
1000000000219092,77757727023,mMTS,mKcell,mKcell,,D77,2016-07-29T11:45:29+06:00,
1000000000219095,77752375461,mMTS,mKcell,mKcell,,D77,2016-07-29T11:47:20+06:00,
1000000000219099,77016873101,mKcell,mMTS,mKcell,D77,D02,2016-07-29T11:51:58+06:00,
1000000000219100,77752375554,mMTS,mKcell,mKcell,,D77,2016-07-29T11:52:36+06:00,
1000000000219101,77003668074,mKcell,mAltel,mAltel,,D02,2016-07-29T11:52:46+06:00,
1000000000219103,77015361221,mKarTel,mKcell,mKcell,,D01,2016-07-29T11:55:06+06:00,
1000000000219104,77772125262,mMTS,mKarTel,mKarTel,,D77,2016-07-29T11:57:00+06:00,
1000000000219106,77086671967,mAltel,mMTS,mAltel,D77,D07,2016-07-29T11:58:46+06:00,
