NPId,Number,RecipientId,DonorId,RangeHolderId,OldRoute,NewRoute,PortDate,RowCount
1000000000293415,77016306626,mAltel,mKcell,mKcell,,D07,2016-12-11T10:31:07+06:00,7
1000000000293416,77028549619,mKarTel,mKcell,mKcell,,D01,2016-12-11T10:33:28+06:00,
1000000000293417,77079365743,mAltel,mMTS,mMTS,,D07,2016-12-11T10:36:24+06:00,
1000000000293418,77052587955,mKarTel,mMTS,mKarTel,D77,D01,2016-12-11T10:39:56+06:00,
1000000000293419,77757649399,mMTS,mKcell,mKcell,,D77,2016-12-11T10:44:38+06:00,
1000000000293420,77019176343,mKarTel,mKcell,mKcell,,D01,2016-12-11T10:48:30+06:00,
1000000000293421,77754621829,mMTS,mKcell,mKcell,,D77,2016-12-11T10:57:56+06:00,
