NPId,Number,RecipientId,DonorId,RangeHolderId,OldRoute,NewRoute,PortDate,RowCount
1000000000245057,77751252575,mKarTel,mKcell,mKcell,,D01,2016-09-14T10:00:16+06:00,19
1000000000245058,77015264750,mMTS,mKcell,mKcell,,D77,2016-09-14T10:04:47+06:00,
1000000000245059,77075906996,mMTS,mKcell,mMTS,D02,D77,2016-09-14T10:04:49+06:00,
1000000000245060,77778515149,mMTS,mKarTel,mKarTel,,D77,2016-09-14T10:04:43+06:00,
1000000000245061,77016438889,mKarTel,mKcell,mKcell,,D01,2016-09-14T10:03:55+06:00,
1000000000245062,77015666217,mAltel,mKcell,mKcell,,D07,2016-09-14T10:05:50+06:00,
1000000000245063,77753210575,mKcell,mMTS,mKcell,D77,D02,2016-09-14T10:06:48+06:00,
1000000000245065,77759055050,mMTS,mKcell,mKcell,,D77,2016-09-14T10:12:27+06:00,
1000000000245066,77075103315,mMTS,mKarTel,mMTS,D01,D77,2016-09-14T10:14:30+06:00,
1000000000245067,77025553036,mKarTel,mKcell,mKcell,,D01,2016-09-14T10:13:44+06:00,
1000000000245068,77023649972,mKcell,mAltel,mKcell,D07,D02,2016-09-14T10:14:36+06:00,
1000000000245070,77011117289,mAltel,mKarTel,mKcell,D01,D07,2016-09-14T10:16:36+06:00,
1000000000245072,77028281628,mMTS,mKcell,mKcell,,D77,2016-09-14T10:18:45+06:00,
1000000000245073,77770997711,mKcell,mKarTel,mKarTel,,D02,2016-09-14T10:22:02+06:00,
1000000000245074,77079974424,mAltel,mMTS,mMTS,,D07,2016-09-14T10:22:15+06:00,
1000000000245075,77785275001,mKcell,mMTS,mKcell,D77,D02,2016-09-14T10:24:57+06:00,
1000000000245076,77055200086,mMTS,mKarTel,mKarTel,,D77,2016-09-14T10:24:44+06:00,
1000000000245079,77710358886,mMTS,mKarTel,mKarTel,,D77,2016-09-14T10:29:24+06:00,
1000000000245080,77778437833,mMTS,mKarTel,mKarTel,,D77,2016-09-14T10:29:21+06:00,
