NPId,Number,RecipientId,DonorId,RangeHolderId,OldRoute,NewRoute,PortDate,RowCount
1000000000378188,77073311656,mAltel,mKarTel,mMTS,D01,D07,2017-05-04T17:30:06+06:00,25
1000000000378189,77015389750,mKarTel,mKcell,mKcell,,D01,2017-05-04T17:31:52+06:00,
1000000000378190,77071199424,mAltel,mMTS,mMTS,,D07,2017-05-04T17:31:45+06:00,
1000000000378193,77778915306,mAltel,mKarTel,mKarTel,,D07,2017-05-04T17:35:38+06:00,
1000000000378194,77471446301,mAltel,mMTS,mMTS,,D07,2017-05-04T17:35:20+06:00,
1000000000378195,77057644244,mKarTel,mMTS,mKarTel,D77,D01,2017-05-04T17:36:21+06:00,
1000000000378196,77752560008,mKarTel,mKcell,mKcell,,D01,2017-05-04T17:37:33+06:00,
1000000000378198,77474463055,mAltel,mMTS,mMTS,,D07,2017-05-04T17:37:35+06:00,
1000000000378199,77471446302,mAltel,mMTS,mMTS,,D07,2017-05-04T17:38:21+06:00,
1000000000378200,77079951023,mMTS,mKarTel,mMTS,D01,D77,2017-05-04T17:38:55+06:00,
1000000000378201,77070446303,mAltel,mMTS,mMTS,,D07,2017-05-04T17:39:01+06:00,
1000000000378202,77015559852,mAltel,mKcell,mKcell,,D07,2017-05-04T17:39:21+06:00,
1000000000378204,77474463094,mAltel,mMTS,mMTS,,D07,2017-05-04T17:40:32+06:00,
1000000000378205,77474463082,mAltel,mMTS,mMTS,,D07,2017-05-04T17:41:09+06:00,
1000000000378206,77474463074,mAltel,mMTS,mMTS,,D07,2017-05-04T17:41:57+06:00,
1000000000378207,77474463068,mAltel,mMTS,mMTS,,D07,2017-05-04T17:42:33+06:00,
1000000000378209,77474463067,mAltel,mMTS,mMTS,,D07,2017-05-04T17:43:27+06:00,
1000000000378210,77773952459,mMTS,mKarTel,mKarTel,,D77,2017-05-04T17:44:22+06:00,
1000000000378211,77055415421,mMTS,mKarTel,mKarTel,,D77,2017-05-04T17:46:24+06:00,
1000000000378212,77013470941,mAltel,mKcell,mKcell,,D07,2017-05-04T17:47:49+06:00,
1000000000378214,77776788222,mMTS,mKcell,mKarTel,D02,D77,2017-05-04T17:49:42+06:00,
1000000000378215,77471554433,mKarTel,mMTS,mMTS,,D01,2017-05-04T17:51:19+06:00,
1000000000378218,77071755994,mKcell,mAltel,mMTS,D07,D02,2017-05-04T17:57:47+06:00,
1000000000378220,77016407587,mKarTel,mKcell,mKcell,,D01,2017-05-04T17:58:06+06:00,
1000000000378221,77017850073,mKarTel,mKcell,mKcell,,D01,2017-05-04T17:59:03+06:00,
