NPId,Number,RecipientId,DonorId,RangeHolderId,OldRoute,NewRoute,PortDate,RowCount
1000000000345943,77052217665,mMTS,mKcell,mKarTel,D02,D77,2017-03-13T17:00:14+06:00,48
1000000000345944,77013231869,mKarTel,mKcell,mKcell,,D01,2017-03-13T17:00:32+06:00,
1000000000345946,77053388072,mMTS,mKarTel,mKarTel,,D77,2017-03-13T17:00:50+06:00,
1000000000345947,77761066166,mAltel,mKarTel,mKarTel,,D07,2017-03-13T17:01:56+06:00,
1000000000345948,77078559898,mAltel,mMTS,mMTS,,D07,2017-03-13T17:01:45+06:00,
1000000000345949,77054040606,mMTS,mKarTel,mKarTel,,D77,2017-03-13T17:02:12+06:00,
1000000000345951,77474235311,mKarTel,mMTS,mMTS,,D01,2017-03-13T17:03:20+06:00,
1000000000345953,77714105144,mAltel,mMTS,mKarTel,D77,D07,2017-03-13T17:05:43+06:00,
1000000000345954,77754726761,mKarTel,mKcell,mKcell,,D01,2017-03-13T17:06:10+06:00,
1000000000345955,77075775218,mMTS,mKarTel,mMTS,D01,D77,2017-03-13T17:06:48+06:00,
1000000000345956,77471570083,mKcell,mMTS,mMTS,,D02,2017-03-13T17:07:35+06:00,
1000000000345957,77752777845,mMTS,mKcell,mKcell,,D77,2017-03-13T17:07:55+06:00,
1000000000345958,77775691208,mKarTel,mMTS,mKarTel,D77,D01,2017-03-13T17:09:07+06:00,
1000000000345959,77018000975,mAltel,mKcell,mKcell,,D07,2017-03-13T17:10:31+06:00,
1000000000345960,77711611145,mMTS,mKarTel,mKarTel,,D77,2017-03-13T17:11:30+06:00,
1000000000345962,77763152003,mKcell,mKarTel,mKarTel,,D02,2017-03-13T17:12:29+06:00,
1000000000345963,77779688886,mKcell,mKarTel,mKarTel,,D02,2017-03-13T17:12:53+06:00,
1000000000345964,77753501977,mKarTel,mKcell,mKcell,D02,D01,2017-03-13T17:13:37+06:00,
1000000000345965,77018050377,mKarTel,mMTS,mKcell,D77,D01,2017-03-13T17:14:19+06:00,
1000000000345965,77018051377,mKarTel,mMTS,mKcell,D77,D01,2017-03-13T17:14:19+06:00,
1000000000345965,77018051399,mKarTel,mMTS,mKcell,D77,D01,2017-03-13T17:14:19+06:00,
1000000000345965,77018055255,mKarTel,mMTS,mKcell,D77,D01,2017-03-13T17:14:19+06:00,
1000000000345965,77018055655,mKarTel,mMTS,mKcell,D77,D01,2017-03-13T17:14:19+06:00,
1000000000345965,77018055755,mKarTel,mMTS,mKcell,D77,D01,2017-03-13T17:14:19+06:00,
1000000000345965,77018055855,mKarTel,mMTS,mKcell,D77,D01,2017-03-13T17:14:19+06:00,
1000000000345965,77018058388,mKarTel,mMTS,mKcell,D77,D01,2017-03-13T17:14:19+06:00,
1000000000345965,77018058488,mKarTel,mMTS,mKcell,D77,D01,2017-03-13T17:14:19+06:00,
1000000000345965,77019818051,mKarTel,mMTS,mKcell,D77,D01,2017-03-13T17:14:19+06:00,
1000000000345965,77019818095,mKarTel,mMTS,mKcell,D77,D01,2017-03-13T17:14:19+06:00,
1000000000345966,77769150064,mKarTel,mMTS,mKarTel,D77,D01,2017-03-13T17:14:27+06:00,
1000000000345968,77761123102,mKarTel,mMTS,mKarTel,D77,D01,2017-03-13T17:15:48+06:00,
1000000000345970,77022688867,mMTS,mKcell,mKcell,,D77,2017-03-13T17:17:16+06:00,
1000000000345971,77471570203,mKcell,mMTS,mMTS,,D02,2017-03-13T17:17:31+06:00,
1000000000345972,77051535559,mMTS,mKarTel,mKarTel,,D77,2017-03-13T17:18:00+06:00,
1000000000345974,77028717177,mKcell,mKarTel,mKcell,D01,D02,2017-03-13T17:19:17+06:00,
1000000000345975,77018058288,mKarTel,mMTS,mKcell,D77,D01,2017-03-13T17:19:35+06:00,
1000000000345976,77000070046,mKcell,mAltel,mAltel,D07,D02,2017-03-13T17:19:42+06:00,
1000000000345977,77025252610,mKarTel,mMTS,mKcell,D77,D01,2017-03-13T17:20:06+06:00,
1000000000345978,77756595669,mKcell,mAltel,mKcell,D07,D02,2017-03-13T17:20:43+06:00,
1000000000345979,77713615555,mMTS,mKarTel,mKarTel,,D77,2017-03-13T17:21:20+06:00,
1000000000345980,77078545465,mKcell,mMTS,mMTS,,D02,2017-03-13T17:21:13+06:00,
1000000000345981,77083034045,mMTS,mAltel,mAltel,,D77,2017-03-13T17:21:24+06:00,
1000000000345982,77712898989,mMTS,mKarTel,mKarTel,,D77,2017-03-13T17:25:11+06:00,
1000000000345984,77017218356,mMTS,mKcell,mKcell,,D77,2017-03-13T17:26:12+06:00,
1000000000345985,77071515126,mAltel,mKarTel,mMTS,D01,D07,2017-03-13T17:26:38+06:00,
1000000000345986,77023363705,mMTS,mKcell,mKcell,,D77,2017-03-13T17:27:51+06:00,
1000000000345987,77719500001,mKcell,mKarTel,mKarTel,,D02,2017-03-13T17:28:56+06:00,
1000000000345988,77789813074,mAltel,mKcell,mKcell,,D07,2017-03-13T17:29:27+06:00,
