NPId,Number,RecipientId,DonorId,RangeHolderId,OldRoute,NewRoute,PortDate,RowCount
1000000000311279,77013144476,mKcell,mMTS,mKcell,D77,D02,2017-01-16T13:32:18+06:00,22
1000000000311280,77081701276,mKarTel,mAltel,mAltel,,D01,2017-01-16T13:30:14+06:00,
1000000000311281,77087774567,mKarTel,mAltel,mAltel,,D01,2017-01-16T13:31:18+06:00,
1000000000311282,77011490011,mMTS,mKcell,mKcell,,D77,2017-01-16T13:31:34+06:00,
1000000000311283,77053038983,mKarTel,mKcell,mKarTel,D02,D01,2017-01-16T13:32:46+06:00,
1000000000311284,77052725510,mMTS,mKarTel,mKarTel,,D77,2017-01-16T13:33:00+06:00,
1000000000311285,77773707073,mAltel,mKarTel,mKarTel,,D07,2017-01-16T13:34:50+06:00,
1000000000311286,77711660062,mMTS,mAltel,mKarTel,D07,D77,2017-01-16T13:39:42+06:00,
1000000000311288,77014444866,mKarTel,mKcell,mKcell,,D01,2017-01-16T13:40:55+06:00,
1000000000311290,77089602088,mMTS,mAltel,mAltel,,D77,2017-01-16T13:42:38+06:00,
1000000000311291,77025087560,mMTS,mKcell,mKcell,D02,D77,2017-01-16T13:42:54+06:00,
1000000000311292,77784040163,mAltel,mKcell,mKcell,,D07,2017-01-16T13:43:01+06:00,
1000000000311293,77477444467,mAltel,mMTS,mMTS,,D07,2017-01-16T13:43:20+06:00,
1000000000311294,77026206068,mKcell,mMTS,mKcell,D77,D02,2017-01-16T13:45:04+06:00,
1000000000311295,77778828828,mKcell,mKarTel,mKarTel,,D02,2017-01-16T13:45:35+06:00,
1000000000311296,77026766669,mKarTel,mMTS,mKcell,D77,D01,2017-01-16T13:45:27+06:00,
1000000000311298,77014414845,mAltel,mKcell,mKcell,,D07,2017-01-16T13:46:16+06:00,
1000000000311299,77082195009,mKcell,mAltel,mAltel,,D02,2017-01-16T13:47:46+06:00,
1000000000311300,77052032050,mKcell,mKarTel,mKarTel,,D02,2017-01-16T13:49:08+06:00,
1000000000311302,77016858456,mAltel,mKcell,mKcell,,D07,2017-01-16T13:50:24+06:00,
1000000000311303,77477500708,mAltel,mMTS,mMTS,,D07,2017-01-16T13:51:39+06:00,
1000000000311305,77079497070,mAltel,mMTS,mMTS,,D07,2017-01-16T13:56:09+06:00,
