NPId,Number,RecipientId,DonorId,RangeHolderId,OldRoute,NewRoute,PortDate,RowCount
1000000000247304,77081581111,mKarTel,mAltel,mAltel,,D01,2016-09-17T18:39:14+06:00,7
1000000000247305,77055719797,mKcell,mKarTel,mKarTel,,D02,2016-09-17T18:43:36+06:00,
1000000000247306,77004501307,mKarTel,mAltel,mAltel,,D01,2016-09-17T18:43:23+06:00,
1000000000247308,77078887000,mKcell,mMTS,mMTS,,D02,2016-09-17T18:52:43+06:00,
1000000000247309,77077970709,mKcell,mMTS,mMTS,,D02,2016-09-17T18:56:00+06:00,
1000000000247310,77021439356,mMTS,mKcell,mKcell,,D77,2016-09-17T18:57:27+06:00,
1000000000247311,77760099190,mKcell,mKarTel,mKarTel,,D02,2016-09-17T18:58:28+06:00,
