NPId,Number,RecipientId,DonorId,RangeHolderId,OldRoute,NewRoute,PortDate,RowCount
1000000000427379,77006662084,mMTS,mAltel,mAltel,,D77,2017-07-24T17:00:07+06:00,39
1000000000427380,77757223329,mMTS,mKcell,mKcell,,D77,2017-07-24T17:00:16+06:00,
1000000000427381,77710504005,mKcell,mKarTel,mKarTel,,D02,2017-07-24T17:01:25+06:00,
1000000000427382,77078420525,mKcell,mMTS,mMTS,,D02,2017-07-24T17:01:25+06:00,
1000000000427383,77015201706,mKarTel,mKcell,mKcell,,D01,2017-07-24T17:01:14+06:00,
1000000000427384,77088088606,mMTS,mAltel,mAltel,,D77,2017-07-24T17:01:54+06:00,
1000000000427385,77763620300,mKarTel,mAltel,mKarTel,D07,D01,2017-07-24T17:02:05+06:00,
1000000000427386,77007564636,mKcell,mAltel,mAltel,,D02,2017-07-24T17:03:30+06:00,
1000000000427387,77783424028,mKcell,mKarTel,mKcell,D01,D02,2017-07-24T17:04:04+06:00,
1000000000427389,77007594939,mKcell,mAltel,mAltel,,D02,2017-07-24T17:05:39+06:00,
1000000000427390,77073301494,mKcell,mMTS,mMTS,,D02,2017-07-24T17:05:55+06:00,
1000000000427391,77777471111,mMTS,mKarTel,mKarTel,,D77,2017-07-24T17:07:29+06:00,
1000000000427393,77007413121,mKcell,mAltel,mAltel,,D02,2017-07-24T17:08:33+06:00,
1000000000427394,77000800050,mKcell,mAltel,mAltel,,D02,2017-07-24T17:09:31+06:00,
1000000000427395,77771470040,mKcell,mKarTel,mKarTel,,D02,2017-07-24T17:10:45+06:00,
1000000000427396,77079925566,mKarTel,mKcell,mMTS,D02,D01,2017-07-24T17:11:23+06:00,
1000000000427397,77054476844,mKcell,mAltel,mKarTel,D07,D02,2017-07-24T17:12:04+06:00,
1000000000427398,77007493929,mKcell,mAltel,mAltel,,D02,2017-07-24T17:12:07+06:00,
1000000000427399,77075017800,mMTS,mAltel,mMTS,D07,D77,2017-07-24T17:12:04+06:00,
1000000000427400,77757777712,mKcell,mAltel,mKcell,D07,D02,2017-07-24T17:12:32+06:00,
1000000000427401,77007463626,mKcell,mAltel,mAltel,,D02,2017-07-24T17:14:13+06:00,
1000000000427402,77017297524,mAltel,mKcell,mKcell,,D07,2017-07-24T17:14:47+06:00,
1000000000427403,77051561414,mKcell,mMTS,mKarTel,D77,D02,2017-07-24T17:15:11+06:00,
1000000000427405,77006662076,mMTS,mAltel,mAltel,,D77,2017-07-24T17:15:38+06:00,
1000000000427406,77087445840,mKcell,mAltel,mAltel,,D02,2017-07-24T17:16:45+06:00,
1000000000427407,77054752281,mKarTel,mMTS,mKarTel,D77,D01,2017-07-24T17:17:48+06:00,
1000000000427408,77477552255,mAltel,mKarTel,mMTS,D01,D07,2017-07-24T17:21:27+06:00,
1000000000427409,77087060656,mKcell,mAltel,mAltel,,D02,2017-07-24T17:22:16+06:00,
1000000000427411,77007701505,mKcell,mAltel,mAltel,,D02,2017-07-24T17:23:38+06:00,
1000000000427412,77015702765,mKarTel,mKcell,mKcell,,D01,2017-07-24T17:24:00+06:00,
1000000000427413,77750950070,mKarTel,mKcell,mKcell,,D01,2017-07-24T17:24:21+06:00,
1000000000427414,77027774755,mKcell,mKarTel,mKcell,D01,D02,2017-07-24T17:25:10+06:00,
1000000000427415,77082000255,mKcell,mAltel,mAltel,,D02,2017-07-24T17:24:57+06:00,
1000000000427416,77007703595,mKcell,mAltel,mAltel,,D02,2017-07-24T17:26:35+06:00,
1000000000427417,77077377045,mMTS,mAltel,mMTS,D07,D77,2017-07-24T17:26:29+06:00,
1000000000427418,77017272023,mMTS,mAltel,mKcell,D07,D77,2017-07-24T17:27:06+06:00,
1000000000427421,77007706575,mKcell,mAltel,mAltel,,D02,2017-07-24T17:29:49+06:00,
1000000000427422,77001472176,mKcell,mAltel,mAltel,,D02,2017-07-24T17:29:52+06:00,
1000000000427423,77006662065,mMTS,mAltel,mAltel,,D77,2017-07-24T17:29:54+06:00,
