NPId,Number,RecipientId,DonorId,RangeHolderId,OldRoute,NewRoute,PortDate,RowCount
1000000000129161,77005858888,mKcell,mAltel,mAltel,,D02,2016-03-19T13:30:14+06:00,32
1000000000129162,77779920390,mAltel,mKarTel,mKarTel,,D07,2016-03-19T13:31:38+06:00,
1000000000129163,77772771533,mMTS,mKarTel,mKarTel,,D77,2016-03-19T13:32:01+06:00,
1000000000129164,77755043724,mKarTel,mKcell,mKcell,,D01,2016-03-19T13:33:10+06:00,
1000000000129165,77712164061,mMTS,mKarTel,mKarTel,,D77,2016-03-19T13:34:00+06:00,
1000000000129166,77783400101,mMTS,mKcell,mKcell,,D77,2016-03-19T13:33:48+06:00,
1000000000129168,77021668444,mAltel,mKcell,mKcell,,D07,2016-03-19T13:35:57+06:00,
1000000000129169,77001119511,mMTS,mAltel,mAltel,,D77,2016-03-19T13:36:07+06:00,
1000000000129171,77024846034,mMTS,mKcell,mKcell,,D77,2016-03-19T13:38:16+06:00,
1000000000129176,77018879606,mMTS,mKcell,mKcell,,D77,2016-03-19T13:41:37+06:00,
1000000000129177,77012776668,mAltel,mKcell,mKcell,,D07,2016-03-19T13:42:00+06:00,
1000000000129178,77772130775,mAltel,mKarTel,mKarTel,,D07,2016-03-19T13:44:01+06:00,
1000000000129179,77710299229,mMTS,mKarTel,mKarTel,,D77,2016-03-19T13:44:00+06:00,
1000000000129180,77719041404,mAltel,mKarTel,mKarTel,,D07,2016-03-19T13:44:25+06:00,
1000000000129181,77752153551,mMTS,mKcell,mKcell,,D77,2016-03-19T13:44:00+06:00,
1000000000129182,77021811215,mMTS,mKcell,mKcell,,D77,2016-03-19T13:46:03+06:00,
1000000000129183,77081328937,mMTS,mAltel,mAltel,,D77,2016-03-19T13:46:09+06:00,
1000000000129184,77772848709,mAltel,mKarTel,mKarTel,,D07,2016-03-19T13:47:16+06:00,
1000000000129185,77016087468,mAltel,mKcell,mKcell,,D07,2016-03-19T13:46:34+06:00,
1000000000129186,77785301950,mAltel,mKcell,mKcell,,D07,2016-03-19T13:47:40+06:00,
1000000000129187,77017190112,mMTS,mKcell,mKcell,,D77,2016-03-19T13:49:04+06:00,
1000000000129188,77764867777,mAltel,mKarTel,mKarTel,,D07,2016-03-19T13:50:29+06:00,
1000000000129189,77712916768,mAltel,mKarTel,mKarTel,,D07,2016-03-19T13:50:27+06:00,
1000000000129192,77712916759,mAltel,mKarTel,mKarTel,,D07,2016-03-19T13:52:30+06:00,
1000000000129194,77775769611,mAltel,mKarTel,mKarTel,,D07,2016-03-19T13:53:46+06:00,
1000000000129195,77761366663,mMTS,mKarTel,mKarTel,,D77,2016-03-19T13:53:46+06:00,
1000000000129196,77072557654,mAltel,mMTS,mMTS,,D07,2016-03-19T13:52:52+06:00,
1000000000129197,77011515456,mMTS,mKcell,mKcell,,D77,2016-03-19T13:54:06+06:00,
1000000000129204,77025288288,mMTS,mKcell,mKcell,,D77,2016-03-19T13:57:01+06:00,
1000000000129205,77005252806,mMTS,mAltel,mAltel,,D77,2016-03-19T13:56:55+06:00,
1000000000129210,77718570703,mAltel,mKarTel,mKarTel,,D07,2016-03-19T13:59:30+06:00,
1000000000129211,77786268003,mAltel,mKcell,mKcell,,D07,2016-03-19T13:58:50+06:00,
