NPId,Number,RecipientId,DonorId,RangeHolderId,OldRoute,NewRoute,PortDate,RowCount
1000000000417803,77787111137,mKarTel,mMTS,mKcell,D77,D01,2017-07-07T10:30:45+06:00,7
1000000000417804,77017340728,mKcell,mMTS,mKcell,D77,D02,2017-07-07T10:31:29+06:00,
1000000000417805,77787111157,mKarTel,mMTS,mKcell,D77,D01,2017-07-07T10:33:11+06:00,
1000000000417806,77472066294,mAltel,mMTS,mMTS,,D07,2017-07-07T10:35:06+06:00,
1000000000417807,77019995099,mKarTel,mKcell,mKcell,,D01,2017-07-07T10:49:03+06:00,
1000000000417809,77058492042,mMTS,mKarTel,mKarTel,,D77,2017-07-07T10:57:19+06:00,
1000000000417810,77019449731,mMTS,mKcell,mKcell,,D77,2017-07-07T10:56:55+06:00,
