NPId,Number,RecipientId,DonorId,RangeHolderId,OldRoute,NewRoute,PortDate,RowCount
1000000000371673,77019019279,mMTS,mKcell,mKcell,,D77,2017-04-25T16:30:10+06:00,19
1000000000371674,77021253096,mKarTel,mKcell,mKcell,,D01,2017-04-25T16:30:37+06:00,
1000000000371675,77055537417,mMTS,mKarTel,mKarTel,,D77,2017-04-25T16:30:50+06:00,
1000000000371677,77773127799,mAltel,mKarTel,mKarTel,,D07,2017-04-25T16:34:39+06:00,
1000000000371678,77719754040,mMTS,mKarTel,mKarTel,,D77,2017-04-25T16:34:47+06:00,
1000000000371682,77758079991,mAltel,mKcell,mKcell,,D07,2017-04-25T16:37:35+06:00,
1000000000371685,77052950055,mKarTel,mKcell,mKarTel,D02,D01,2017-04-25T16:41:08+06:00,
1000000000371689,77472437475,mKcell,mMTS,mMTS,,D02,2017-04-25T16:44:59+06:00,
1000000000371690,77016850200,mKarTel,mKcell,mKcell,,D01,2017-04-25T16:46:07+06:00,
1000000000371691,77071180866,mKarTel,mMTS,mMTS,,D01,2017-04-25T16:47:34+06:00,
1000000000371693,77774619321,mMTS,mKarTel,mKarTel,,D77,2017-04-25T16:48:04+06:00,
1000000000371695,77083019052,mKarTel,mAltel,mAltel,D07,D01,2017-04-25T16:51:50+06:00,
1000000000371696,77089307962,mKarTel,mMTS,mAltel,D77,D01,2017-04-25T16:51:56+06:00,
1000000000371697,77781006020,mKcell,mAltel,mKcell,D07,D02,2017-04-25T16:52:05+06:00,
1000000000371698,77007400600,mKarTel,mAltel,mAltel,,D01,2017-04-25T16:52:10+06:00,
1000000000371699,77078311551,mKcell,mMTS,mMTS,,D02,2017-04-25T16:54:27+06:00,
1000000000371700,77000951590,mMTS,mAltel,mAltel,,D77,2017-04-25T16:54:20+06:00,
1000000000371701,77072011047,mKarTel,mMTS,mMTS,D77,D01,2017-04-25T16:57:24+06:00,
1000000000371702,77075030137,mMTS,mKarTel,mMTS,D01,D77,2017-04-25T16:58:57+06:00,
