NPId,Number,RecipientId,DonorId,RangeHolderId,OldRoute,NewRoute,PortDate,RowCount
1000000000296125,77003626291,mMTS,mAltel,mAltel,,D77,2016-12-16T15:30:17+06:00,27
1000000000296126,77052228022,mKcell,mKarTel,mKarTel,,D02,2016-12-16T15:31:47+06:00,
1000000000296127,77074827714,mAltel,mMTS,mMTS,,D07,2016-12-16T15:31:50+06:00,
1000000000296128,77017321029,mMTS,mKcell,mKcell,,D77,2016-12-16T15:32:41+06:00,
1000000000296129,77017320705,mMTS,mKcell,mKcell,,D77,2016-12-16T15:32:45+06:00,
1000000000296130,77017320347,mMTS,mKcell,mKcell,,D77,2016-12-16T15:32:49+06:00,
1000000000296133,77762526390,mMTS,mKarTel,mKarTel,,D77,2016-12-16T15:35:24+06:00,
1000000000296134,77017320389,mMTS,mKcell,mKcell,,D77,2016-12-16T15:37:44+06:00,
1000000000296135,77073433655,mKcell,mMTS,mMTS,,D02,2016-12-16T15:38:38+06:00,
1000000000296136,77016526917,mKarTel,mKcell,mKcell,,D01,2016-12-16T15:39:23+06:00,
1000000000296137,77029063603,mKcell,mAltel,mKcell,D07,D02,2016-12-16T15:40:04+06:00,
1000000000296138,77011230071,mKcell,mMTS,mKcell,D77,D02,2016-12-16T15:40:10+06:00,
1000000000296139,77014365850,mAltel,mKcell,mKcell,,D07,2016-12-16T15:41:59+06:00,
1000000000296140,77017320359,mMTS,mKcell,mKcell,,D77,2016-12-16T15:42:45+06:00,
1000000000296141,77017320270,mMTS,mKcell,mKcell,,D77,2016-12-16T15:42:45+06:00,
1000000000296142,77012181264,mMTS,mKcell,mKcell,,D77,2016-12-16T15:44:18+06:00,
1000000000296143,77019007444,mKarTel,mKcell,mKcell,,D01,2016-12-16T15:45:17+06:00,
1000000000296144,77751666420,mAltel,mKcell,mKcell,,D07,2016-12-16T15:47:57+06:00,
1000000000296146,77017362142,mKcell,mAltel,mKcell,D07,D02,2016-12-16T15:49:37+06:00,
1000000000296147,77778520002,mMTS,mKarTel,mKarTel,,D77,2016-12-16T15:50:55+06:00,
1000000000296148,77770194793,mKcell,mKarTel,mKarTel,,D02,2016-12-16T15:52:31+06:00,
1000000000296149,77078900305,mAltel,mMTS,mMTS,,D07,2016-12-16T15:52:16+06:00,
1000000000296150,77013703737,mMTS,mKcell,mKcell,,D77,2016-12-16T15:52:43+06:00,
1000000000296151,77001000500,mKarTel,mAltel,mAltel,,D01,2016-12-16T15:53:43+06:00,
1000000000296152,77017523237,mKcell,mAltel,mKcell,D07,D02,2016-12-16T15:55:55+06:00,
1000000000296153,77083386655,mMTS,mAltel,mAltel,,D77,2016-12-16T15:55:57+06:00,
1000000000296154,77017711151,mMTS,mKcell,mKcell,,D77,2016-12-16T15:56:35+06:00,
