NPId,Number,RecipientId,DonorId,RangeHolderId,OldRoute,NewRoute,PortDate,RowCount
1000000000165750,77029550256,mKcell,mAltel,mKcell,D07,D02,2016-05-03T09:33:56+06:00,12
1000000000165751,77019151242,mKarTel,mKcell,mKcell,,D01,2016-05-03T09:36:33+06:00,
1000000000165753,77052734700,mMTS,mKarTel,mKarTel,,D77,2016-05-03T09:37:22+06:00,
1000000000165754,77779988282,mKarTel,mMTS,mKarTel,D77,D01,2016-05-03T09:38:32+06:00,
1000000000165755,77052016666,mKcell,mKarTel,mKarTel,,D02,2016-05-03T09:44:05+06:00,
1000000000165757,77712077780,mKarTel,mAltel,mKarTel,D07,D01,2016-05-03T09:44:59+06:00,
1000000000165759,77021051006,mMTS,mKcell,mKcell,,D77,2016-05-03T09:46:56+06:00,
1000000000165760,77011500263,mKcell,mAltel,mKcell,D07,D02,2016-05-03T09:47:02+06:00,
1000000000165762,77017578585,mMTS,mAltel,mKcell,D07,D77,2016-05-03T09:51:16+06:00,
1000000000165764,77087178929,mMTS,mAltel,mAltel,,D77,2016-05-03T09:52:19+06:00,
1000000000165766,77078344915,mMTS,mAltel,mMTS,D07,D77,2016-05-03T09:55:29+06:00,
1000000000165767,77770762760,mMTS,mKarTel,mKarTel,,D77,2016-05-03T09:57:33+06:00,
