NPId,Number,RecipientId,DonorId,RangeHolderId,OldRoute,NewRoute,PortDate,RowCount
1000000000425513,77017464777,mKcell,mMTS,mKcell,D77,D02,2017-07-20T18:30:07+06:00,14
1000000000425515,77058380099,mKarTel,mMTS,mKarTel,D77,D01,2017-07-20T18:33:58+06:00,
1000000000425516,77012802250,mAltel,mKcell,mKcell,,D07,2017-07-20T18:35:22+06:00,
1000000000425517,77058222282,mMTS,mKarTel,mKarTel,,D77,2017-07-20T18:36:01+06:00,
1000000000425520,77757464759,mKarTel,mKcell,mKcell,,D01,2017-07-20T18:42:18+06:00,
1000000000425521,77785731175,mMTS,mKcell,mKcell,,D77,2017-07-20T18:42:12+06:00,
1000000000425522,77474405198,mKcell,mMTS,mMTS,D77,D02,2017-07-20T18:43:54+06:00,
1000000000425523,77760076678,mKcell,mMTS,mKarTel,D77,D02,2017-07-20T18:48:36+06:00,
1000000000425524,77026021107,mAltel,mKcell,mKcell,,D07,2017-07-20T18:49:11+06:00,
1000000000425525,77017210718,mKarTel,mKcell,mKcell,,D01,2017-07-20T18:49:48+06:00,
1000000000425527,77000000798,mKcell,mAltel,mAltel,,D02,2017-07-20T18:53:27+06:00,
1000000000425528,77078397904,mAltel,mMTS,mMTS,,D07,2017-07-20T18:53:56+06:00,
1000000000425530,77756249962,mAltel,mKcell,mKcell,,D07,2017-07-20T18:56:41+06:00,
1000000000425531,77024959495,mKcell,mAltel,mKcell,D07,D02,2017-07-20T18:59:02+06:00,
