NPId,Number,RecipientId,DonorId,RangeHolderId,OldRoute,NewRoute,PortDate,RowCount
1000000000258257,77711331516,mMTS,mKarTel,mKarTel,,D77,2016-10-07T09:36:34+06:00,9
1000000000258266,77017398306,mKarTel,mKcell,mKcell,,D01,2016-10-07T09:30:24+06:00,
1000000000258267,77786575590,mMTS,mKcell,mKcell,,D77,2016-10-07T09:35:07+06:00,
1000000000258268,77011966629,mKarTel,mKcell,mKcell,,D01,2016-10-07T09:42:47+06:00,
1000000000258269,77011203465,mKcell,mMTS,mKcell,D77,D02,2016-10-07T09:47:40+06:00,
1000000000258270,77075565949,mKcell,mMTS,mMTS,,D02,2016-10-07T09:48:05+06:00,
1000000000258270,77476761772,mKcell,mMTS,mMTS,,D02,2016-10-07T09:48:05+06:00,
1000000000258273,77775606464,mKcell,mMTS,mKarTel,D77,D02,2016-10-07T09:49:57+06:00,
1000000000258274,77009887088,mAltel,mMTS,mAltel,D77,D07,2016-10-07T09:51:07+06:00,
