NPId,Number,RecipientId,DonorId,RangeHolderId,OldRoute,NewRoute,PortDate,RowCount
1000000000252357,77019998038,mKarTel,mKcell,mKcell,,D01,2016-09-28T10:00:07+06:00,17
1000000000252361,77051507001,mKcell,mKarTel,mKarTel,,D02,2016-09-28T10:23:38+06:00,
1000000000252362,77776964316,mKcell,mKarTel,mKarTel,,D02,2016-09-28T10:09:31+06:00,
1000000000252363,77017840742,mKarTel,mKcell,mKcell,,D01,2016-09-28T10:09:13+06:00,
1000000000252364,77017405688,mMTS,mKcell,mKcell,,D77,2016-09-28T10:09:37+06:00,
1000000000252365,77018833878,mAltel,mKcell,mKcell,,D07,2016-09-28T10:11:34+06:00,
1000000000252366,77775861488,mMTS,mKarTel,mKarTel,,D77,2016-09-28T10:15:53+06:00,
1000000000252367,77059164800,mKcell,mAltel,mKarTel,D07,D02,2016-09-28T10:14:06+06:00,
1000000000252368,77054018763,mKarTel,mMTS,mKarTel,D77,D01,2016-09-28T10:15:51+06:00,
1000000000252372,77774210338,mKcell,mKarTel,mKarTel,,D02,2016-09-28T10:19:57+06:00,
1000000000252373,77772125775,mKarTel,mKcell,mKarTel,D02,D01,2016-09-28T10:19:45+06:00,
1000000000252374,77789246944,mAltel,mKcell,mKcell,,D07,2016-09-28T10:20:14+06:00,
1000000000252375,77014994997,mMTS,mKcell,mKcell,,D77,2016-09-28T10:21:30+06:00,
1000000000252378,77012602672,mMTS,mKcell,mKcell,,D77,2016-09-28T10:22:31+06:00,
1000000000252379,77023727859,mKcell,mKarTel,mKcell,D01,D02,2016-09-28T10:26:21+06:00,
1000000000252382,77712499222,mMTS,mKarTel,mKarTel,,D77,2016-09-28T10:27:54+06:00,
1000000000252383,77078811006,mAltel,mMTS,mMTS,,D07,2016-09-28T10:28:28+06:00,
