NPId,Number,RecipientId,DonorId,RangeHolderId,OldRoute,NewRoute,PortDate,RowCount
1000000000411815,77052068796,mMTS,mKarTel,mKarTel,,D77,2017-06-29T00:32:05+06:00,5
1000000000411816,77052060257,mMTS,mKarTel,mKarTel,,D77,2017-06-29T00:37:11+06:00,
1000000000411817,77052059850,mMTS,mKarTel,mKarTel,,D77,2017-06-29T00:37:12+06:00,
1000000000411818,77052060871,mMTS,mKarTel,mKarTel,,D77,2017-06-29T00:42:10+06:00,
1000000000411820,77052060492,mMTS,mKarTel,mKarTel,,D77,2017-06-29T00:47:08+06:00,
