NPId,Number,RecipientId,DonorId,RangeHolderId,OldRoute,NewRoute,PortDate,RowCount
1000000000176276,77775161616,mMTS,mKarTel,mKarTel,,D77,2016-05-18T10:30:17+06:00,15
1000000000176277,77054819595,mKcell,mKarTel,mKarTel,,D02,2016-05-18T10:31:08+06:00,
1000000000176279,77015594791,mMTS,mKcell,mKcell,,D77,2016-05-18T10:31:22+06:00,
1000000000176281,77051059140,mMTS,mKarTel,mKarTel,,D77,2016-05-18T10:33:17+06:00,
1000000000176282,77756800047,mMTS,mKcell,mKcell,,D77,2016-05-18T10:37:07+06:00,
1000000000176283,77026859859,mMTS,mKcell,mKcell,,D77,2016-05-18T10:38:03+06:00,
1000000000176284,77024309838,mMTS,mKcell,mKcell,,D77,2016-05-18T10:46:57+06:00,
1000000000176285,77073956538,mKarTel,mMTS,mMTS,,D01,2016-05-18T10:47:13+06:00,
1000000000176287,77017585428,mKarTel,mKcell,mKcell,,D01,2016-05-18T10:49:53+06:00,
1000000000176288,77017642346,mKarTel,mKcell,mKcell,,D01,2016-05-18T10:51:32+06:00,
1000000000176289,77771777821,mKcell,mKarTel,mKarTel,,D02,2016-05-18T10:51:53+06:00,
1000000000176290,77712442575,mKcell,mKarTel,mKarTel,,D02,2016-05-18T10:54:01+06:00,
1000000000176292,77078567722,mKarTel,mMTS,mMTS,,D01,2016-05-18T10:56:06+06:00,
1000000000176293,77054030020,mMTS,mKarTel,mKarTel,,D77,2016-05-18T10:58:03+06:00,
1000000000176294,77001531570,mMTS,mAltel,mAltel,,D77,2016-05-18T10:58:52+06:00,
