NPId,Number,RecipientId,DonorId,RangeHolderId,OldRoute,NewRoute,PortDate,RowCount
1000000000262107,77004000437,mKcell,mAltel,mAltel,,D02,2016-10-13T20:03:39+06:00,5
1000000000262108,77004000478,mKcell,mAltel,mAltel,,D02,2016-10-13T20:07:34+06:00,
1000000000262109,77024444589,mMTS,mKcell,mKcell,,D77,2016-10-13T20:07:34+06:00,
1000000000262110,77762544442,mMTS,mKarTel,mKarTel,,D77,2016-10-13T20:13:14+06:00,
1000000000262111,77779992101,mMTS,mKarTel,mKarTel,,D77,2016-10-13T20:15:29+06:00,
