NPId,Number,RecipientId,DonorId,RangeHolderId,OldRoute,NewRoute,PortDate,RowCount
1000000000170029,77055759292,mKcell,mKarTel,mKarTel,,D02,2016-05-08T10:12:02+06:00,7
1000000000170032,77755544466,mAltel,mKcell,mKcell,,D07,2016-05-08T10:15:03+06:00,
1000000000170034,77783794470,mMTS,mKcell,mKcell,,D77,2016-05-08T10:17:19+06:00,
1000000000170035,77027144493,mKcell,mAltel,mKcell,D07,D02,2016-05-08T10:18:56+06:00,
1000000000170036,77051272725,mMTS,mKarTel,mKarTel,,D77,2016-05-08T10:23:00+06:00,
1000000000170037,77083533272,mMTS,mAltel,mAltel,,D77,2016-05-08T10:24:02+06:00,
1000000000170038,77051182193,mMTS,mKarTel,mKarTel,,D77,2016-05-08T10:28:25+06:00,
