NPId,Number,RecipientId,DonorId,RangeHolderId,OldRoute,NewRoute,PortDate,RowCount
1000000000287108,77014140314,mAltel,mKcell,mKcell,,D07,2016-11-30T16:00:50+06:00,51
1000000000287109,77000888670,mKcell,mAltel,mAltel,,D02,2016-11-30T16:00:19+06:00,
1000000000287111,77751777231,mMTS,mKcell,mKcell,,D77,2016-11-30T16:01:35+06:00,
1000000000287112,77016181420,mMTS,mKcell,mKcell,,D77,2016-11-30T16:01:39+06:00,
1000000000287114,77774555522,mMTS,mKarTel,mKarTel,,D77,2016-11-30T16:03:35+06:00,
1000000000287115,77755201010,mKarTel,mKcell,mKcell,,D01,2016-11-30T16:04:12+06:00,
1000000000287116,77768110011,mKcell,mKarTel,mKarTel,,D02,2016-11-30T16:04:28+06:00,
1000000000287117,77777160003,mMTS,mKarTel,mKarTel,,D77,2016-11-30T16:04:26+06:00,
1000000000287118,77001000721,mKcell,mAltel,mAltel,,D02,2016-11-30T16:06:01+06:00,
1000000000287119,77479929916,mMTS,mKarTel,mMTS,D01,D77,2016-11-30T16:05:49+06:00,
1000000000287120,77001490216,mMTS,mAltel,mAltel,,D77,2016-11-30T16:06:21+06:00,
1000000000287121,77789003634,mKcell,mAltel,mKcell,D07,D02,2016-11-30T16:07:21+06:00,
1000000000287122,77777325342,mMTS,mKarTel,mKarTel,,D77,2016-11-30T16:07:47+06:00,
1000000000287125,77772947107,mAltel,mKarTel,mKarTel,,D07,2016-11-30T16:10:20+06:00,
1000000000287126,77017238836,mAltel,mKcell,mKcell,,D07,2016-11-30T16:10:28+06:00,
1000000000287127,77015357107,mAltel,mKarTel,mKcell,D01,D07,2016-11-30T16:11:29+06:00,
1000000000287128,77017129966,mMTS,mKcell,mKcell,,D77,2016-11-30T16:11:40+06:00,
1000000000287129,77057222160,mKarTel,mKcell,mKarTel,D02,D01,2016-11-30T16:12:00+06:00,
1000000000287131,77751906581,mMTS,mKcell,mKcell,,D77,2016-11-30T16:12:41+06:00,
1000000000287132,77786739574,mMTS,mKcell,mKcell,,D77,2016-11-30T16:12:42+06:00,
1000000000287134,77079542004,mKcell,mMTS,mMTS,,D02,2016-11-30T16:13:37+06:00,
1000000000287137,77750279997,mKarTel,mKcell,mKcell,,D01,2016-11-30T16:14:21+06:00,
1000000000287139,77775544000,mAltel,mKarTel,mKarTel,,D07,2016-11-30T16:14:58+06:00,
1000000000287142,77075750241,mKarTel,mMTS,mMTS,,D01,2016-11-30T16:16:27+06:00,
1000000000287143,77057605444,mMTS,mKarTel,mKarTel,,D77,2016-11-30T16:16:36+06:00,
1000000000287144,77075335285,mAltel,mMTS,mMTS,,D07,2016-11-30T16:16:30+06:00,
1000000000287145,77028632700,mKarTel,mKcell,mKcell,,D01,2016-11-30T16:17:26+06:00,
1000000000287146,77001000725,mKcell,mAltel,mAltel,,D02,2016-11-30T16:17:41+06:00,
1000000000287147,77072279797,mKcell,mMTS,mMTS,,D02,2016-11-30T16:17:41+06:00,
1000000000287148,77003177177,mKarTel,mAltel,mAltel,,D01,2016-11-30T16:18:24+06:00,
1000000000287149,77001000724,mKcell,mAltel,mAltel,,D02,2016-11-30T16:18:21+06:00,
1000000000287150,77771565159,mMTS,mKarTel,mKarTel,,D77,2016-11-30T16:18:37+06:00,
1000000000287152,77712700711,mMTS,mKarTel,mKarTel,,D77,2016-11-30T16:18:49+06:00,
1000000000287155,77775598097,mMTS,mKarTel,mKarTel,,D77,2016-11-30T16:21:53+06:00,
1000000000287156,77081777929,mMTS,mKcell,mAltel,D02,D77,2016-11-30T16:22:25+06:00,
1000000000287157,77784844800,mAltel,mKcell,mKcell,,D07,2016-11-30T16:22:26+06:00,
1000000000287158,77001000723,mKcell,mAltel,mAltel,,D02,2016-11-30T16:22:42+06:00,
1000000000287160,77075337424,mAltel,mMTS,mMTS,,D07,2016-11-30T16:24:29+06:00,
1000000000287161,77072121169,mKarTel,mMTS,mMTS,,D01,2016-11-30T16:24:41+06:00,
1000000000287162,77071960624,mKcell,mMTS,mMTS,,D02,2016-11-30T16:25:28+06:00,
1000000000287163,77012237911,mAltel,mKcell,mKcell,,D07,2016-11-30T16:25:50+06:00,
1000000000287164,77078142953,mMTS,mKcell,mMTS,D02,D77,2016-11-30T16:26:15+06:00,
1000000000287165,77017810174,mKarTel,mAltel,mKcell,D07,D01,2016-11-30T16:26:49+06:00,
1000000000287167,77057808008,mKarTel,mKcell,mKarTel,D02,D01,2016-11-30T16:27:20+06:00,
1000000000287168,77781424373,mMTS,mKcell,mKcell,,D77,2016-11-30T16:27:39+06:00,
1000000000287169,77017412475,mMTS,mKcell,mKcell,,D77,2016-11-30T16:27:39+06:00,
1000000000287170,77751906477,mMTS,mKcell,mKcell,,D77,2016-11-30T16:27:40+06:00,
1000000000287171,77019828083,mAltel,mMTS,mKcell,D77,D07,2016-11-30T16:28:04+06:00,
1000000000287172,77751880755,mAltel,mKarTel,mKcell,D01,D07,2016-11-30T16:28:27+06:00,
1000000000287173,77076127774,mAltel,mMTS,mMTS,,D07,2016-11-30T16:28:11+06:00,
1000000000287174,77474807179,mKarTel,mMTS,mMTS,,D01,2016-11-30T16:28:27+06:00,
