NPId,Number,RecipientId,DonorId,RangeHolderId,OldRoute,NewRoute,PortDate,RowCount
1000000000289169,77051966167,mMTS,mKarTel,mKarTel,,D77,2016-12-03T14:32:16+06:00,35
1000000000289170,77714419999,mAltel,mKarTel,mKarTel,,D07,2016-12-03T14:32:32+06:00,
1000000000289172,77071430060,mAltel,mKarTel,mMTS,D01,D07,2016-12-03T14:33:24+06:00,
1000000000289173,77029342522,mKarTel,mKcell,mKcell,,D01,2016-12-03T14:33:43+06:00,
1000000000289176,77052271031,mAltel,mKarTel,mKarTel,,D07,2016-12-03T14:35:16+06:00,
1000000000289177,77012991018,mMTS,mKcell,mKcell,,D77,2016-12-03T14:35:22+06:00,
1000000000289178,77021078884,mAltel,mKcell,mKcell,,D07,2016-12-03T14:35:28+06:00,
1000000000289179,77023600352,mKarTel,mKcell,mKcell,,D01,2016-12-03T14:37:32+06:00,
1000000000289180,77017377723,mMTS,mKcell,mKcell,,D77,2016-12-03T14:37:40+06:00,
1000000000289181,77056232305,mMTS,mKarTel,mKarTel,,D77,2016-12-03T14:37:56+06:00,
1000000000289184,77017639139,mMTS,mKcell,mKcell,,D77,2016-12-03T14:38:28+06:00,
1000000000289185,77714409999,mAltel,mKarTel,mKarTel,,D07,2016-12-03T14:39:05+06:00,
1000000000289187,77079110815,mMTS,mKarTel,mMTS,D01,D77,2016-12-03T14:39:51+06:00,
1000000000289188,77019737364,mMTS,mKcell,mKcell,,D77,2016-12-03T14:40:19+06:00,
1000000000289189,77057725225,mAltel,mKarTel,mKarTel,,D07,2016-12-03T14:41:02+06:00,
1000000000289190,77754970967,mKarTel,mKcell,mKcell,,D01,2016-12-03T14:42:47+06:00,
1000000000289191,77056298666,mMTS,mKarTel,mKarTel,,D77,2016-12-03T14:43:06+06:00,
1000000000289192,77056007175,mKcell,mKarTel,mKarTel,,D02,2016-12-03T14:43:13+06:00,
1000000000289193,77713399911,mKcell,mKarTel,mKarTel,,D02,2016-12-03T14:43:32+06:00,
1000000000289194,77022244443,mKcell,mMTS,mKcell,D77,D02,2016-12-03T14:44:41+06:00,
1000000000289196,77785007534,mKarTel,mKcell,mKcell,,D01,2016-12-03T14:45:49+06:00,
1000000000289197,77071395767,mKcell,mMTS,mMTS,,D02,2016-12-03T14:45:42+06:00,
1000000000289198,77471118288,mAltel,mMTS,mMTS,,D07,2016-12-03T14:46:05+06:00,
1000000000289199,77025887749,mKarTel,mKcell,mKcell,,D01,2016-12-03T14:46:36+06:00,
1000000000289200,77014260243,mAltel,mKcell,mKcell,,D07,2016-12-03T14:46:43+06:00,
1000000000289201,77713352400,mMTS,mKarTel,mKarTel,,D77,2016-12-03T14:47:41+06:00,
1000000000289202,77762314403,mKarTel,mMTS,mKarTel,D77,D01,2016-12-03T14:48:45+06:00,
1000000000289203,77757167997,mMTS,mKcell,mKcell,,D77,2016-12-03T14:49:21+06:00,
1000000000289204,77059940046,mMTS,mKarTel,mKarTel,,D77,2016-12-03T14:49:53+06:00,
1000000000289205,77768047700,mMTS,mKarTel,mKarTel,,D77,2016-12-03T14:50:13+06:00,
1000000000289206,77024276000,mKcell,mMTS,mKcell,D77,D02,2016-12-03T14:53:35+06:00,
1000000000289207,77019995118,mKcell,mMTS,mKcell,D77,D02,2016-12-03T14:56:24+06:00,
1000000000289209,77023869633,mAltel,mKcell,mKcell,,D07,2016-12-03T14:56:31+06:00,
1000000000289210,77021683209,mAltel,mKcell,mKcell,,D07,2016-12-03T14:57:36+06:00,
1000000000289211,77751351531,mMTS,mKcell,mKcell,,D77,2016-12-03T14:58:35+06:00,
