NPId,Number,RecipientId,DonorId,RangeHolderId,OldRoute,NewRoute,PortDate,RowCount
1000000000324178,77002222277,mMTS,mAltel,mAltel,,D77,2017-02-05T18:01:00+06:00,11
1000000000324179,77773683655,mKarTel,mMTS,mKarTel,D77,D01,2017-02-05T18:06:50+06:00,
1000000000324180,77004040437,mKcell,mAltel,mAltel,,D02,2017-02-05T18:12:01+06:00,
1000000000324181,77077541414,mMTS,mKcell,mMTS,D02,D77,2017-02-05T18:12:53+06:00,
1000000000324182,77003030329,mKcell,mAltel,mAltel,,D02,2017-02-05T18:13:15+06:00,
1000000000324183,77472677072,mKarTel,mMTS,mMTS,,D01,2017-02-05T18:14:36+06:00,
1000000000324184,77081085073,mKarTel,mAltel,mAltel,,D01,2017-02-05T18:19:15+06:00,
1000000000324185,77011912980,mAltel,mKcell,mKcell,,D07,2017-02-05T18:19:52+06:00,
1000000000324186,77005773475,mKcell,mAltel,mAltel,,D02,2017-02-05T18:21:21+06:00,
1000000000324187,77073331206,mKcell,mMTS,mMTS,,D02,2017-02-05T18:26:49+06:00,
1000000000324188,77760210000,mMTS,mKarTel,mKarTel,,D77,2017-02-05T18:28:36+06:00,
