NPId,Number,RecipientId,DonorId,RangeHolderId,OldRoute,NewRoute,PortDate,RowCount
1000000000229553,77023605253,mKarTel,mKcell,mKcell,,D01,2016-08-16T11:30:34+06:00,19
1000000000229554,77018909095,mMTS,mKcell,mKcell,,D77,2016-08-16T11:32:46+06:00,
1000000000229555,77774325243,mKcell,mKarTel,mKarTel,,D02,2016-08-16T11:35:51+06:00,
1000000000229556,77058383301,mKcell,mMTS,mKarTel,D77,D02,2016-08-16T11:35:20+06:00,
1000000000229557,77054143182,mAltel,mKarTel,mKarTel,,D07,2016-08-16T11:36:02+06:00,
1000000000229558,77013934640,mMTS,mKcell,mKcell,,D77,2016-08-16T11:34:47+06:00,
1000000000229559,77775485250,mMTS,mKarTel,mKarTel,,D77,2016-08-16T11:36:48+06:00,
1000000000229561,77777778338,mAltel,mKarTel,mKarTel,,D07,2016-08-16T11:38:58+06:00,
1000000000229562,77051195519,mMTS,mKarTel,mKarTel,,D77,2016-08-16T11:39:39+06:00,
1000000000229563,77018987748,mKarTel,mKcell,mKcell,,D01,2016-08-16T11:39:38+06:00,
1000000000229564,77753751156,mKarTel,mKcell,mKcell,,D01,2016-08-16T11:40:19+06:00,
1000000000229565,77768000287,mKarTel,mAltel,mKarTel,D07,D01,2016-08-16T11:41:26+06:00,
1000000000229566,77051113399,mMTS,mKarTel,mKarTel,,D77,2016-08-16T11:43:17+06:00,
1000000000229567,77786365424,mKarTel,mMTS,mKcell,D77,D01,2016-08-16T11:42:46+06:00,
1000000000229568,77011412221,mKarTel,mKcell,mKcell,,D01,2016-08-16T11:42:45+06:00,
1000000000229569,77077137007,mKarTel,mMTS,mMTS,,D01,2016-08-16T11:42:46+06:00,
1000000000229573,77012837727,mMTS,mKcell,mKcell,,D77,2016-08-16T11:46:45+06:00,
1000000000229574,77759835544,mMTS,mAltel,mKcell,D07,D77,2016-08-16T11:50:02+06:00,
1000000000229577,77753803702,mAltel,mKcell,mKcell,,D07,2016-08-16T11:59:41+06:00,
