NPId,Number,RecipientId,DonorId,RangeHolderId,OldRoute,NewRoute,PortDate,RowCount
1000000000261230,77010260379,mKarTel,mKcell,mKcell,,D01,2016-10-12T17:10:54+06:00,65
1000000000261230,77010278421,mKarTel,mKcell,mKcell,,D01,2016-10-12T17:10:54+06:00,
1000000000261230,77010278425,mKarTel,mKcell,mKcell,,D01,2016-10-12T17:10:54+06:00,
1000000000261230,77010278428,mKarTel,mKcell,mKcell,,D01,2016-10-12T17:10:54+06:00,
1000000000261230,77010291796,mKarTel,mKcell,mKcell,,D01,2016-10-12T17:10:54+06:00,
1000000000261230,77010291798,mKarTel,mKcell,mKcell,,D01,2016-10-12T17:10:54+06:00,
1000000000261230,77010291799,mKarTel,mKcell,mKcell,,D01,2016-10-12T17:10:54+06:00,
1000000000261230,77010291801,mKarTel,mKcell,mKcell,,D01,2016-10-12T17:10:54+06:00,
1000000000261230,77010291802,mKarTel,mKcell,mKcell,,D01,2016-10-12T17:10:54+06:00,
1000000000261230,77010291803,mKarTel,mKcell,mKcell,,D01,2016-10-12T17:10:54+06:00,
1000000000261230,77010328578,mKarTel,mKcell,mKcell,,D01,2016-10-12T17:10:54+06:00,
1000000000261230,77010328596,mKarTel,mKcell,mKcell,,D01,2016-10-12T17:10:54+06:00,
1000000000261230,77010328602,mKarTel,mKcell,mKcell,,D01,2016-10-12T17:10:54+06:00,
1000000000261230,77010328605,mKarTel,mKcell,mKcell,,D01,2016-10-12T17:10:54+06:00,
1000000000261230,77010348616,mKarTel,mKcell,mKcell,,D01,2016-10-12T17:10:54+06:00,
1000000000261230,77012148893,mKarTel,mKcell,mKcell,,D01,2016-10-12T17:10:54+06:00,
1000000000261230,77012179016,mKarTel,mKcell,mKcell,,D01,2016-10-12T17:10:54+06:00,
1000000000261230,77012179018,mKarTel,mKcell,mKcell,,D01,2016-10-12T17:10:54+06:00,
1000000000261230,77012520657,mKarTel,mKcell,mKcell,,D01,2016-10-12T17:10:54+06:00,
1000000000261230,77012520658,mKarTel,mKcell,mKcell,,D01,2016-10-12T17:10:54+06:00,
1000000000261230,77015037912,mKarTel,mKcell,mKcell,,D01,2016-10-12T17:10:54+06:00,
1000000000261230,77015037914,mKarTel,mKcell,mKcell,,D01,2016-10-12T17:10:54+06:00,
1000000000261230,77015037915,mKarTel,mKcell,mKcell,,D01,2016-10-12T17:10:54+06:00,
1000000000261230,77015285040,mKarTel,mKcell,mKcell,,D01,2016-10-12T17:10:54+06:00,
1000000000261230,77015285049,mKarTel,mKcell,mKcell,,D01,2016-10-12T17:10:54+06:00,
1000000000261230,77015328696,mKarTel,mKcell,mKcell,,D01,2016-10-12T17:10:54+06:00,
1000000000261230,77015328722,mKarTel,mKcell,mKcell,,D01,2016-10-12T17:10:54+06:00,
1000000000261230,77015328804,mKarTel,mKcell,mKcell,,D01,2016-10-12T17:10:54+06:00,
1000000000261230,77015707653,mKarTel,mKcell,mKcell,,D01,2016-10-12T17:10:54+06:00,
1000000000261230,77015707654,mKarTel,mKcell,mKcell,,D01,2016-10-12T17:10:54+06:00,
1000000000261230,77015707660,mKarTel,mKcell,mKcell,,D01,2016-10-12T17:10:54+06:00,
1000000000261230,77015707662,mKarTel,mKcell,mKcell,,D01,2016-10-12T17:10:54+06:00,
1000000000261230,77015707665,mKarTel,mKcell,mKcell,,D01,2016-10-12T17:10:54+06:00,
1000000000261230,77017117008,mKarTel,mKcell,mKcell,,D01,2016-10-12T17:10:54+06:00,
1000000000261230,77017370278,mKarTel,mKcell,mKcell,,D01,2016-10-12T17:10:54+06:00,
1000000000261230,77017635106,mKarTel,mKcell,mKcell,,D01,2016-10-12T17:10:54+06:00,
1000000000261230,77017635110,mKarTel,mKcell,mKcell,,D01,2016-10-12T17:10:54+06:00,
1000000000261230,77017635112,mKarTel,mKcell,mKcell,,D01,2016-10-12T17:10:54+06:00,
1000000000261230,77017635114,mKarTel,mKcell,mKcell,,D01,2016-10-12T17:10:54+06:00,
1000000000261230,77017635120,mKarTel,mKcell,mKcell,,D01,2016-10-12T17:10:54+06:00,
1000000000261230,77017635168,mKarTel,mKcell,mKcell,,D01,2016-10-12T17:10:54+06:00,
1000000000261230,77017647995,mKarTel,mKcell,mKcell,,D01,2016-10-12T17:10:54+06:00,
1000000000261230,77017792279,mKarTel,mKcell,mKcell,,D01,2016-10-12T17:10:54+06:00,
1000000000261230,77017847090,mKarTel,mKcell,mKcell,,D01,2016-10-12T17:10:54+06:00,
1000000000261230,77017847099,mKarTel,mKcell,mKcell,,D01,2016-10-12T17:10:54+06:00,
1000000000261230,77017847100,mKarTel,mKcell,mKcell,,D01,2016-10-12T17:10:54+06:00,
1000000000261230,77017868108,mKarTel,mKcell,mKcell,,D01,2016-10-12T17:10:54+06:00,
1000000000261230,77018898568,mKarTel,mKcell,mKcell,,D01,2016-10-12T17:10:54+06:00,
1000000000261230,77019381286,mKarTel,mKcell,mKcell,,D01,2016-10-12T17:10:54+06:00,
1000000000261230,77019823306,mKarTel,mKcell,mKcell,,D01,2016-10-12T17:10:54+06:00,
1000000000261365,77771638835,mMTS,mKarTel,mKarTel,,D77,2016-10-12T17:03:11+06:00,
1000000000261366,77019186169,mKarTel,mKcell,mKcell,,D01,2016-10-12T17:01:21+06:00,
1000000000261368,77022976226,mMTS,mKcell,mKcell,,D77,2016-10-12T17:00:36+06:00,
1000000000261369,77072333633,mMTS,mAltel,mMTS,D07,D77,2016-10-12T17:01:37+06:00,
1000000000261371,77014943689,mMTS,mKcell,mKcell,,D77,2016-10-12T17:06:34+06:00,
1000000000261372,77761081992,mMTS,mKarTel,mKarTel,,D77,2016-10-12T17:09:02+06:00,
1000000000261373,77776208484,mMTS,mKarTel,mKarTel,,D77,2016-10-12T17:12:55+06:00,
1000000000261374,77773874106,mKcell,mAltel,mKarTel,D07,D02,2016-10-12T17:09:00+06:00,
1000000000261375,77081592648,mKarTel,mAltel,mAltel,,D01,2016-10-12T17:11:06+06:00,
1000000000261378,77014001400,mMTS,mKcell,mKcell,,D77,2016-10-12T17:12:35+06:00,
1000000000261383,77776267391,mKcell,mKarTel,mKarTel,,D02,2016-10-12T17:27:03+06:00,
1000000000261384,77775065025,mMTS,mKarTel,mKarTel,,D77,2016-10-12T17:26:15+06:00,
1000000000261385,77051107471,mMTS,mKarTel,mKarTel,,D77,2016-10-12T17:26:17+06:00,
1000000000261389,77015345586,mMTS,mKcell,mKcell,,D77,2016-10-12T17:25:25+06:00,
1000000000261390,77751099893,mMTS,mKcell,mKcell,,D77,2016-10-12T17:26:21+06:00,
