NPId,Number,RecipientId,DonorId,RangeHolderId,OldRoute,NewRoute,PortDate,RowCount
1000000000379538,77082777442,mKarTel,mAltel,mAltel,,D01,2017-05-06T19:31:00+06:00,10
1000000000379540,77779839995,mKcell,mKarTel,mKarTel,,D02,2017-05-06T19:36:05+06:00,
1000000000379541,77477151651,mKcell,mMTS,mMTS,,D02,2017-05-06T19:36:08+06:00,
1000000000379542,77000982009,mKcell,mAltel,mAltel,,D02,2017-05-06T19:36:15+06:00,
1000000000379543,77072761805,mKcell,mMTS,mMTS,,D02,2017-05-06T19:46:37+06:00,
1000000000379546,77007771181,mKcell,mAltel,mAltel,,D02,2017-05-06T19:58:39+06:00,
1000000000379547,77007771161,mKcell,mAltel,mAltel,,D02,2017-05-06T19:58:49+06:00,
1000000000379548,77079162215,mKcell,mMTS,mMTS,,D02,2017-05-06T19:58:46+06:00,
1000000000379549,77007771151,mKcell,mAltel,mAltel,,D02,2017-05-06T19:58:59+06:00,
1000000000379550,77007771131,mKcell,mAltel,mAltel,,D02,2017-05-06T19:59:20+06:00,
