NPId,Number,RecipientId,DonorId,RangeHolderId,OldRoute,NewRoute,PortDate,RowCount
1000000000279400,77779504043,mKcell,mKarTel,mKarTel,,D02,2016-11-15T12:31:28+06:00,27
1000000000279403,77717908199,mKcell,mKarTel,mKarTel,,D02,2016-11-15T12:36:01+06:00,
1000000000279405,77779501559,mKcell,mKarTel,mKarTel,,D02,2016-11-15T12:34:13+06:00,
1000000000279407,77719904154,mKcell,mKarTel,mKarTel,,D02,2016-11-15T12:37:17+06:00,
1000000000279414,77719904155,mKcell,mKarTel,mKarTel,,D02,2016-11-15T12:42:23+06:00,
1000000000279416,77719907585,mKcell,mKarTel,mKarTel,,D02,2016-11-15T12:43:07+06:00,
1000000000279419,77719932239,mKcell,mKarTel,mKarTel,,D02,2016-11-15T12:45:25+06:00,
1000000000279420,77022949494,mKcell,mKarTel,mKcell,D01,D02,2016-11-15T12:32:04+06:00,
1000000000279421,77778017162,mMTS,mKarTel,mKarTel,,D77,2016-11-15T12:32:27+06:00,
1000000000279423,77783637810,mKarTel,mKcell,mKcell,,D01,2016-11-15T12:36:21+06:00,
1000000000279424,77052456422,mMTS,mKarTel,mKarTel,,D77,2016-11-15T12:36:11+06:00,
1000000000279426,77757287945,mMTS,mKcell,mKcell,,D77,2016-11-15T12:36:17+06:00,
1000000000279427,77719932240,mKcell,mKarTel,mKarTel,,D02,2016-11-15T12:52:07+06:00,
1000000000279431,77785450272,mMTS,mKcell,mKcell,,D77,2016-11-15T12:40:19+06:00,
1000000000279432,77719933258,mKcell,mKarTel,mKarTel,,D02,2016-11-15T12:56:02+06:00,
1000000000279434,77017200128,mAltel,mKcell,mKcell,,D07,2016-11-15T12:41:58+06:00,
1000000000279435,77089003847,mKcell,mAltel,mAltel,,D02,2016-11-15T12:42:24+06:00,
1000000000279436,77075555078,mKcell,mMTS,mMTS,,D02,2016-11-15T12:44:48+06:00,
1000000000279437,77751347135,mMTS,mKcell,mKcell,,D77,2016-11-15T12:47:14+06:00,
1000000000279438,77053722255,mMTS,mKarTel,mKarTel,,D77,2016-11-15T12:48:33+06:00,
1000000000279439,77011814325,mKcell,mMTS,mKcell,D77,D02,2016-11-15T12:49:13+06:00,
1000000000279440,77015449630,mKcell,mAltel,mKcell,D07,D02,2016-11-15T12:49:23+06:00,
1000000000279442,77027779117,mKarTel,mKcell,mKcell,,D01,2016-11-15T12:52:04+06:00,
1000000000279444,77020008830,mKcell,mMTS,mKcell,D77,D02,2016-11-15T12:52:25+06:00,
1000000000279445,77777917022,mMTS,mKarTel,mKarTel,,D77,2016-11-15T12:52:36+06:00,
1000000000279447,77059845028,mMTS,mKarTel,mKarTel,,D77,2016-11-15T12:53:08+06:00,
1000000000279449,77476005110,mKcell,mMTS,mMTS,,D02,2016-11-15T12:58:15+06:00,
