NPId,Number,RecipientId,DonorId,RangeHolderId,OldRoute,NewRoute,PortDate,RowCount
1000000000328483,77757467194,mKarTel,mKcell,mKcell,,D01,2017-02-13T18:31:53+06:00,20
1000000000328484,77781118007,mAltel,mKcell,mKcell,,D07,2017-02-13T18:32:39+06:00,
1000000000328485,77750001684,mKcell,mKarTel,mKcell,D01,D02,2017-02-13T18:33:37+06:00,
1000000000328487,77015329347,mKarTel,mKcell,mKcell,,D01,2017-02-13T18:33:51+06:00,
1000000000328489,77011882307,mKarTel,mKcell,mKcell,,D01,2017-02-13T18:36:01+06:00,
1000000000328493,77770498538,mMTS,mKarTel,mKarTel,,D77,2017-02-13T18:41:26+06:00,
1000000000328497,77057818286,mMTS,mKarTel,mKarTel,,D77,2017-02-13T18:45:50+06:00,
1000000000328498,77015552103,mKarTel,mKcell,mKcell,,D01,2017-02-13T18:47:17+06:00,
1000000000328499,77768002808,mAltel,mKarTel,mKarTel,,D07,2017-02-13T18:47:58+06:00,
1000000000328500,77775731352,mMTS,mKarTel,mKarTel,,D77,2017-02-13T18:48:04+06:00,
1000000000328501,77789267870,mKcell,mAltel,mKcell,D07,D02,2017-02-13T18:48:09+06:00,
1000000000328503,77013386667,mKcell,mMTS,mKcell,D77,D02,2017-02-13T18:49:19+06:00,
1000000000328504,77019329888,mMTS,mKcell,mKcell,,D77,2017-02-13T18:52:48+06:00,
1000000000328505,77017770076,mKarTel,mKcell,mKcell,,D01,2017-02-13T18:53:32+06:00,
1000000000328506,77777128819,mAltel,mKarTel,mKarTel,,D07,2017-02-13T18:55:00+06:00,
1000000000328507,77773380326,mKarTel,mMTS,mKarTel,D77,D01,2017-02-13T18:55:33+06:00,
1000000000328510,77757799977,mMTS,mKcell,mKcell,,D77,2017-02-13T18:56:45+06:00,
1000000000328511,77076669443,mMTS,mKcell,mMTS,D02,D77,2017-02-13T18:57:29+06:00,
1000000000328512,77754029242,mKarTel,mKcell,mKcell,,D01,2017-02-13T18:57:42+06:00,
1000000000328513,77023346868,mKcell,mMTS,mKcell,D77,D02,2017-02-13T18:58:38+06:00,
