NPId,Number,RecipientId,DonorId,RangeHolderId,OldRoute,NewRoute,PortDate,RowCount
1000000000133728,77027473414,mAltel,mKcell,mKcell,,D07,2016-03-26T12:30:32+06:00,38
1000000000133729,77021454635,mMTS,mKcell,mKcell,,D77,2016-03-26T12:30:46+06:00,
1000000000133732,77775005055,mAltel,mKarTel,mKarTel,,D07,2016-03-26T12:32:50+06:00,
1000000000133733,77054190719,mMTS,mKarTel,mKarTel,,D77,2016-03-26T12:34:32+06:00,
1000000000133734,77001119009,mKcell,mAltel,mAltel,,D02,2016-03-26T12:33:46+06:00,
1000000000133735,77089037068,mKarTel,mAltel,mAltel,,D01,2016-03-26T12:34:06+06:00,
1000000000133737,77058980894,mMTS,mKarTel,mKarTel,,D77,2016-03-26T12:35:53+06:00,
1000000000133738,77055793952,mMTS,mKarTel,mKarTel,,D77,2016-03-26T12:35:51+06:00,
1000000000133739,77752306699,mKarTel,mKcell,mKcell,,D01,2016-03-26T12:35:25+06:00,
1000000000133740,77753323852,mKcell,mKarTel,mKcell,D01,D02,2016-03-26T12:36:50+06:00,
1000000000133741,77089370734,mMTS,mAltel,mAltel,,D77,2016-03-26T12:35:45+06:00,
1000000000133742,77017111078,mMTS,mKcell,mKcell,,D77,2016-03-26T12:37:16+06:00,
1000000000133743,77004988087,mMTS,mAltel,mAltel,,D77,2016-03-26T12:36:53+06:00,
1000000000133744,77026406665,mAltel,mKcell,mKcell,,D07,2016-03-26T12:37:31+06:00,
1000000000133745,77715953322,mMTS,mKarTel,mKarTel,,D77,2016-03-26T12:41:13+06:00,
1000000000133746,77771482186,mMTS,mKarTel,mKarTel,,D77,2016-03-26T12:42:05+06:00,
1000000000133748,77753889220,mMTS,mKcell,mKcell,,D77,2016-03-26T12:42:13+06:00,
1000000000133749,77014406167,mMTS,mKcell,mKcell,,D77,2016-03-26T12:42:13+06:00,
1000000000133750,77473717241,mAltel,mMTS,mMTS,,D07,2016-03-26T12:42:02+06:00,
1000000000133751,77081339060,mMTS,mAltel,mAltel,,D77,2016-03-26T12:42:06+06:00,
1000000000133752,77012221200,mMTS,mKcell,mKcell,,D77,2016-03-26T12:42:36+06:00,
1000000000133753,77758370133,mMTS,mKcell,mKcell,,D77,2016-03-26T12:43:50+06:00,
1000000000133755,77012152196,mMTS,mAltel,mKcell,D07,D77,2016-03-26T12:44:24+06:00,
1000000000133756,77017834096,mAltel,mKcell,mKcell,,D07,2016-03-26T12:45:03+06:00,
1000000000133757,77017792892,mMTS,mKcell,mKcell,,D77,2016-03-26T12:47:13+06:00,
1000000000133759,77779177333,mKcell,mKarTel,mKarTel,,D02,2016-03-26T12:49:34+06:00,
1000000000133760,77755025756,mMTS,mKcell,mKcell,,D77,2016-03-26T12:50:31+06:00,
1000000000133761,77017666373,mKarTel,mMTS,mKcell,D77,D01,2016-03-26T12:51:31+06:00,
1000000000133763,77057729000,mMTS,mKarTel,mKarTel,,D77,2016-03-26T12:53:13+06:00,
1000000000133764,77024193483,mMTS,mKcell,mKcell,,D77,2016-03-26T12:52:05+06:00,
1000000000133767,77056957777,mAltel,mKarTel,mKarTel,,D07,2016-03-26T12:53:36+06:00,
1000000000133768,77759879999,mMTS,mKcell,mKcell,,D77,2016-03-26T12:53:06+06:00,
1000000000133771,77760040048,mKcell,mKarTel,mKarTel,,D02,2016-03-26T12:57:23+06:00,
1000000000133772,77056987777,mAltel,mKarTel,mKarTel,,D07,2016-03-26T12:58:56+06:00,
1000000000133773,77059839734,mMTS,mKarTel,mKarTel,,D77,2016-03-26T12:58:56+06:00,
1000000000133774,77751032873,mMTS,mKcell,mKcell,,D77,2016-03-26T12:58:34+06:00,
1000000000133775,77055880037,mMTS,mKarTel,mKarTel,,D77,2016-03-26T12:59:22+06:00,
1000000000133776,77715519323,mMTS,mKarTel,mKarTel,,D77,2016-03-26T12:59:50+06:00,
