NPId,Number,RecipientId,DonorId,RangeHolderId,OldRoute,NewRoute,PortDate,RowCount
1000000000296270,77075001175,mKarTel,mMTS,mMTS,,D01,2016-12-16T22:02:59+06:00,3
1000000000296271,77017321039,mMTS,mKcell,mKcell,,D77,2016-12-16T22:22:41+06:00,
1000000000296272,77017321091,mMTS,mKcell,mKcell,,D77,2016-12-16T22:27:43+06:00,
