NPId,Number,RecipientId,DonorId,RangeHolderId,OldRoute,NewRoute,PortDate,RowCount
1000000000366726,77789174032,mKarTel,mKcell,mKcell,,D01,2017-04-16T18:38:31+06:00,6
1000000000366727,77001000189,mKcell,mAltel,mAltel,,D02,2017-04-16T18:38:28+06:00,
1000000000366728,77001000184,mKcell,mAltel,mAltel,,D02,2017-04-16T18:39:27+06:00,
1000000000366729,77787770413,mKcell,mAltel,mKcell,D07,D02,2017-04-16T18:41:48+06:00,
1000000000366730,77787770513,mKcell,mAltel,mKcell,D07,D02,2017-04-16T18:44:14+06:00,
1000000000366731,77024931793,mMTS,mKcell,mKcell,,D77,2017-04-16T18:57:53+06:00,
