NPId,Number,RecipientId,DonorId,RangeHolderId,OldRoute,NewRoute,PortDate,RowCount
1000000000101065,77018772717,mAltel,mKcell,mKcell,,D07,2016-02-27T16:00:28+06:00,31
1000000000101066,77057685555,mAltel,mKarTel,mKarTel,,D07,2016-02-27T16:00:55+06:00,
1000000000101067,77018887287,mKarTel,mKcell,mKcell,,D01,2016-02-27T16:01:56+06:00,
1000000000101068,77719779184,mMTS,mKarTel,mKarTel,,D77,2016-02-27T16:02:07+06:00,
1000000000101069,77755790050,mMTS,mKcell,mKcell,,D77,2016-02-27T16:02:11+06:00,
1000000000101070,77017278105,mKarTel,mKcell,mKcell,,D01,2016-02-27T16:05:28+06:00,
1000000000101072,77022665765,mMTS,mKcell,mKcell,,D77,2016-02-27T16:06:33+06:00,
1000000000101073,77787001977,mAltel,mKcell,mKcell,,D07,2016-02-27T16:07:08+06:00,
1000000000101074,77015236316,mMTS,mKcell,mKcell,,D77,2016-02-27T16:07:25+06:00,
1000000000101075,77058019598,mAltel,mKarTel,mKarTel,,D07,2016-02-27T16:08:47+06:00,
1000000000101076,77711305530,mKcell,mKarTel,mKarTel,,D02,2016-02-27T16:10:13+06:00,
1000000000101077,77775488878,mMTS,mKarTel,mKarTel,,D77,2016-02-27T16:10:16+06:00,
1000000000101079,77762097928,mMTS,mKarTel,mKarTel,,D77,2016-02-27T16:11:28+06:00,
1000000000101080,77770196788,mMTS,mKarTel,mKarTel,,D77,2016-02-27T16:12:12+06:00,
1000000000101081,77055656188,mMTS,mKarTel,mKarTel,,D77,2016-02-27T16:13:37+06:00,
1000000000101082,77017312242,mMTS,mKcell,mKcell,,D77,2016-02-27T16:14:18+06:00,
1000000000101083,77772394442,mAltel,mKarTel,mKarTel,,D07,2016-02-27T16:16:22+06:00,
1000000000101084,77018032000,mMTS,mKcell,mKcell,,D77,2016-02-27T16:17:36+06:00,
1000000000101085,77017377373,mAltel,mKcell,mKcell,,D07,2016-02-27T16:18:02+06:00,
1000000000101086,77015583750,mAltel,mKcell,mKcell,,D07,2016-02-27T16:18:16+06:00,
1000000000101087,77017333121,mAltel,mKcell,mKcell,,D07,2016-02-27T16:18:29+06:00,
1000000000101088,77055224905,mAltel,mKarTel,mKarTel,,D07,2016-02-27T16:18:36+06:00,
1000000000101089,77014777644,mAltel,mKcell,mKcell,,D07,2016-02-27T16:18:28+06:00,
1000000000101090,77770901999,mKcell,mKarTel,mKarTel,,D02,2016-02-27T16:19:21+06:00,
1000000000101092,77016050777,mAltel,mKcell,mKcell,,D07,2016-02-27T16:19:53+06:00,
1000000000101094,77075404442,mKcell,mMTS,mMTS,,D02,2016-02-27T16:23:14+06:00,
1000000000101095,77473424707,mAltel,mMTS,mMTS,,D07,2016-02-27T16:23:02+06:00,
1000000000101097,77017035140,mAltel,mKcell,mKcell,,D07,2016-02-27T16:24:27+06:00,
1000000000101098,77787400707,mAltel,mKcell,mKcell,,D07,2016-02-27T16:24:46+06:00,
1000000000101100,77078555589,mKcell,mMTS,mMTS,,D02,2016-02-27T16:27:15+06:00,
1000000000101102,77755064273,mMTS,mKcell,mKcell,,D77,2016-02-27T16:28:19+06:00,
