NPId,Number,RecipientId,DonorId,RangeHolderId,OldRoute,NewRoute,PortDate,RowCount
1000000000243481,77778582679,mMTS,mKarTel,mKarTel,,D77,2016-09-09T19:02:25+06:00,9
1000000000243484,77026776773,mAltel,mKcell,mKcell,,D07,2016-09-09T19:04:35+06:00,
1000000000243485,77781664071,mAltel,mKarTel,mKcell,D01,D07,2016-09-09T19:09:19+06:00,
1000000000243486,77019432768,mMTS,mKcell,mKcell,,D77,2016-09-09T19:08:31+06:00,
1000000000243487,77785721443,mAltel,mKcell,mKcell,,D07,2016-09-09T19:15:31+06:00,
1000000000243489,77019994257,mKarTel,mKcell,mKcell,,D01,2016-09-09T19:16:14+06:00,
1000000000243490,77771618179,mMTS,mKarTel,mKarTel,,D77,2016-09-09T19:17:32+06:00,
1000000000243492,77763333313,mKarTel,mKcell,mKarTel,D02,D01,2016-09-09T19:21:54+06:00,
1000000000243493,77029993908,mKcell,mKarTel,mKcell,D01,D02,2016-09-09T19:24:08+06:00,
