NPId,Number,RecipientId,DonorId,RangeHolderId,OldRoute,NewRoute,PortDate,RowCount
1000000000342588,77018717786,mKcell,mKarTel,mKcell,D01,D02,2017-03-07T09:14:43+06:00,4
1000000000342589,77019530466,mKarTel,mKcell,mKcell,,D01,2017-03-07T09:19:07+06:00,
1000000000342591,77477779774,mMTS,mAltel,mMTS,D07,D77,2017-03-07T09:27:21+06:00,
1000000000342592,77017251745,mKcell,mMTS,mKcell,D77,D02,2017-03-07T09:28:17+06:00,
