NPId,Number,RecipientId,DonorId,RangeHolderId,OldRoute,NewRoute,PortDate,RowCount
1000000000381772,77019600918,mKarTel,mKcell,mKcell,,D01,2017-05-12T14:29:04+06:00,31
1000000000381903,77760077885,mMTS,mKarTel,mKarTel,,D77,2017-05-12T14:00:57+06:00,
1000000000381904,77017980460,mKarTel,mKcell,mKcell,,D01,2017-05-12T14:02:18+06:00,
1000000000381905,77770455652,mMTS,mKarTel,mKarTel,,D77,2017-05-12T14:02:22+06:00,
1000000000381906,77787888461,mMTS,mKcell,mKcell,,D77,2017-05-12T14:02:28+06:00,
1000000000381907,77753093867,mMTS,mKcell,mKcell,,D77,2017-05-12T14:07:46+06:00,
1000000000381908,77028169397,mKcell,mMTS,mKcell,D77,D02,2017-05-12T14:08:06+06:00,
1000000000381909,77017001701,mKcell,mAltel,mKcell,D07,D02,2017-05-12T14:08:02+06:00,
1000000000381910,77768388866,mKarTel,mAltel,mKarTel,D07,D01,2017-05-12T14:08:44+06:00,
1000000000381911,77019086674,mMTS,mAltel,mKcell,D07,D77,2017-05-12T14:09:35+06:00,
1000000000381912,77758796088,mMTS,mKcell,mKcell,,D77,2017-05-12T14:10:16+06:00,
1000000000381913,77073991048,mAltel,mMTS,mMTS,,D07,2017-05-12T14:10:43+06:00,
1000000000381914,77053105130,mKcell,mKarTel,mKarTel,,D02,2017-05-12T14:12:21+06:00,
1000000000381915,77022394578,mMTS,mKcell,mKcell,,D77,2017-05-12T14:12:52+06:00,
1000000000381916,77015031527,mKcell,mKarTel,mKcell,D01,D02,2017-05-12T14:15:14+06:00,
1000000000381918,77479078355,mKarTel,mMTS,mMTS,,D01,2017-05-12T14:16:51+06:00,
1000000000381919,77027873626,mMTS,mKcell,mKcell,,D77,2017-05-12T14:18:07+06:00,
1000000000381920,77775123454,mAltel,mKarTel,mKarTel,,D07,2017-05-12T14:18:42+06:00,
1000000000381921,77028740033,mKarTel,mKcell,mKcell,,D01,2017-05-12T14:18:46+06:00,
1000000000381922,77073001986,mKarTel,mMTS,mMTS,,D01,2017-05-12T14:18:52+06:00,
1000000000381923,77074001226,mAltel,mMTS,mMTS,,D07,2017-05-12T14:19:59+06:00,
1000000000381924,77012426262,mKarTel,mMTS,mKcell,D77,D01,2017-05-12T14:20:44+06:00,
1000000000381926,77074851335,mKcell,mMTS,mMTS,,D02,2017-05-12T14:22:44+06:00,
1000000000381927,77775588885,mKarTel,mAltel,mKarTel,D07,D01,2017-05-12T14:24:30+06:00,
1000000000381928,77787044537,mAltel,mKcell,mKcell,,D07,2017-05-12T14:25:44+06:00,
1000000000381929,77051000570,mKcell,mKarTel,mKarTel,,D02,2017-05-12T14:26:35+06:00,
1000000000381930,77001181287,mMTS,mAltel,mAltel,,D77,2017-05-12T14:26:15+06:00,
1000000000381931,77017953171,mKarTel,mKcell,mKcell,,D01,2017-05-12T14:27:34+06:00,
1000000000381932,77070491171,mKarTel,mMTS,mMTS,D77,D01,2017-05-12T14:27:50+06:00,
1000000000381933,77760071095,mMTS,mKarTel,mKarTel,,D77,2017-05-12T14:28:04+06:00,
1000000000381935,77017800560,mKarTel,mMTS,mKcell,D77,D01,2017-05-12T14:29:35+06:00,
