NPId,Number,RecipientId,DonorId,RangeHolderId,OldRoute,NewRoute,PortDate,RowCount
1000000000208960,77772720261,mKarTel,mMTS,mKarTel,D77,D01,2016-07-11T10:01:21+06:00,14
1000000000208961,77776938546,mMTS,mKarTel,mKarTel,,D77,2016-07-11T10:02:32+06:00,
1000000000208962,77756262697,mMTS,mKcell,mKcell,,D77,2016-07-11T10:02:50+06:00,
1000000000208963,77752237187,mMTS,mKcell,mKcell,,D77,2016-07-11T10:02:49+06:00,
1000000000208964,77013736818,mKcell,mMTS,mKcell,D77,D02,2016-07-11T10:07:11+06:00,
1000000000208965,77787101031,mAltel,mKcell,mKcell,,D07,2016-07-11T10:08:04+06:00,
1000000000208966,77781081774,mKarTel,mAltel,mKcell,D07,D01,2016-07-11T10:08:52+06:00,
1000000000208967,77023055522,mAltel,mKcell,mKcell,,D07,2016-07-11T10:09:51+06:00,
1000000000208968,77474530858,mKarTel,mMTS,mMTS,,D01,2016-07-11T10:10:30+06:00,
1000000000208969,77016070709,mMTS,mKcell,mKcell,,D77,2016-07-11T10:12:50+06:00,
1000000000208971,77004474777,mKarTel,mAltel,mAltel,,D01,2016-07-11T10:14:28+06:00,
1000000000208972,77052386190,mMTS,mKarTel,mKarTel,,D77,2016-07-11T10:15:10+06:00,
1000000000208973,77477716165,mMTS,mKcell,mMTS,D02,D77,2016-07-11T10:17:02+06:00,
1000000000208974,77015009000,mKarTel,mMTS,mKcell,D77,D01,2016-07-11T10:23:04+06:00,
