NPId,Number,RecipientId,DonorId,RangeHolderId,OldRoute,NewRoute,PortDate,RowCount
1000000000446161,77772762540,mKcell,mKarTel,mKarTel,,D02,2017-08-26T13:30:21+06:00,26
1000000000446162,77005007155,mKcell,mAltel,mAltel,,D02,2017-08-26T13:31:55+06:00,
1000000000446163,77027778228,mAltel,mKcell,mKcell,,D07,2017-08-26T13:31:48+06:00,
1000000000446165,77029796666,mMTS,mKcell,mKcell,,D77,2017-08-26T13:35:18+06:00,
1000000000446166,77024040001,mKarTel,mKcell,mKcell,D02,D01,2017-08-26T13:35:43+06:00,
1000000000446167,77087622961,mKcell,mAltel,mAltel,,D02,2017-08-26T13:36:11+06:00,
1000000000446168,77011729222,mMTS,mKcell,mKcell,,D77,2017-08-26T13:36:33+06:00,
1000000000446169,77027985638,mKarTel,mKcell,mKcell,,D01,2017-08-26T13:37:17+06:00,
1000000000446170,77076592002,mAltel,mMTS,mMTS,,D07,2017-08-26T13:37:12+06:00,
1000000000446171,77711596745,mMTS,mKarTel,mKarTel,,D77,2017-08-26T13:38:01+06:00,
1000000000446172,77075330572,mKcell,mMTS,mMTS,,D02,2017-08-26T13:38:13+06:00,
1000000000446173,77021230282,mKcell,mMTS,mKcell,D77,D02,2017-08-26T13:38:13+06:00,
1000000000446174,77020008094,mMTS,mKcell,mKcell,,D77,2017-08-26T13:39:20+06:00,
1000000000446175,77024418862,mMTS,mKcell,mKcell,,D77,2017-08-26T13:39:33+06:00,
1000000000446177,77017663047,mMTS,mKcell,mKcell,,D77,2017-08-26T13:43:33+06:00,
1000000000446178,77076600414,mAltel,mMTS,mMTS,,D07,2017-08-26T13:44:14+06:00,
1000000000446179,77781724721,mMTS,mKcell,mKcell,,D77,2017-08-26T13:45:23+06:00,
1000000000446181,77015773701,mMTS,mKcell,mKcell,,D77,2017-08-26T13:48:18+06:00,
1000000000446182,77011018711,mKarTel,mKcell,mKcell,,D01,2017-08-26T13:52:32+06:00,
1000000000446183,77073311000,mMTS,mKarTel,mMTS,D01,D77,2017-08-26T13:53:07+06:00,
1000000000446184,77082141100,mAltel,mKcell,mAltel,D02,D07,2017-08-26T13:54:18+06:00,
1000000000446185,77015934783,mKcell,mAltel,mKcell,D07,D02,2017-08-26T13:56:56+06:00,
1000000000446186,77780808096,mMTS,mKcell,mKcell,,D77,2017-08-26T13:57:34+06:00,
1000000000446187,77058805888,mMTS,mKcell,mKarTel,D02,D77,2017-08-26T13:57:34+06:00,
1000000000446190,77083012013,mMTS,mAltel,mAltel,,D77,2017-08-26T13:59:05+06:00,
1000000000446191,77087330005,mMTS,mAltel,mAltel,,D77,2017-08-26T13:59:43+06:00,
