NPId,Number,RecipientId,DonorId,RangeHolderId,OldRoute,NewRoute,PortDate,RowCount
1000000000150860,77055533390,mAltel,mKarTel,mKarTel,,D07,2016-04-13T14:30:56+06:00,38
1000000000150861,77752013555,mMTS,mKcell,mKcell,,D77,2016-04-13T14:30:07+06:00,
1000000000150862,77019292221,mKarTel,mKcell,mKcell,,D01,2016-04-13T14:30:55+06:00,
1000000000150863,77028628218,mMTS,mKcell,mKcell,,D77,2016-04-13T14:30:07+06:00,
1000000000150864,77787082658,mMTS,mKcell,mKcell,,D77,2016-04-13T14:30:11+06:00,
1000000000150867,77774159900,mMTS,mKarTel,mKarTel,,D77,2016-04-13T14:33:39+06:00,
1000000000150868,77774800042,mMTS,mKarTel,mKarTel,,D77,2016-04-13T14:34:23+06:00,
1000000000150869,77771710006,mMTS,mKarTel,mKarTel,,D77,2016-04-13T14:34:23+06:00,
1000000000150870,77755802838,mMTS,mAltel,mKcell,D07,D77,2016-04-13T14:32:31+06:00,
1000000000150872,77762036645,mMTS,mKarTel,mKarTel,,D77,2016-04-13T14:36:28+06:00,
1000000000150873,77051112705,mKcell,mKarTel,mKarTel,,D02,2016-04-13T14:36:53+06:00,
1000000000150875,77051451756,mMTS,mKarTel,mKarTel,,D77,2016-04-13T14:37:13+06:00,
1000000000150876,77766089898,mKcell,mKarTel,mKarTel,,D02,2016-04-13T14:39:11+06:00,
1000000000150879,77085328467,mKarTel,mAltel,mAltel,,D01,2016-04-13T14:38:34+06:00,
1000000000150880,77015086648,mMTS,mKcell,mKcell,,D77,2016-04-13T14:38:31+06:00,
1000000000150881,77057230311,mKarTel,mAltel,mKarTel,D07,D01,2016-04-13T14:39:16+06:00,
1000000000150882,77028877724,mMTS,mKcell,mKcell,,D77,2016-04-13T14:45:05+06:00,
1000000000150883,77755731220,mMTS,mAltel,mKcell,D07,D77,2016-04-13T14:44:53+06:00,
1000000000150884,77751029277,mMTS,mKcell,mKcell,,D77,2016-04-13T14:45:30+06:00,
1000000000150885,77019471853,mMTS,mKcell,mKcell,,D77,2016-04-13T14:46:50+06:00,
1000000000150886,77017504207,mMTS,mKcell,mKcell,,D77,2016-04-13T14:47:26+06:00,
1000000000150887,77017040990,mKarTel,mKcell,mKcell,,D01,2016-04-13T14:49:41+06:00,
1000000000150888,77004444775,mMTS,mAltel,mAltel,,D77,2016-04-13T14:49:38+06:00,
1000000000150890,77057670385,mKarTel,mAltel,mKarTel,D07,D01,2016-04-13T14:51:03+06:00,
1000000000150891,77771071977,mMTS,mAltel,mKarTel,D07,D77,2016-04-13T14:51:29+06:00,
1000000000150892,77086512151,mMTS,mAltel,mAltel,,D77,2016-04-13T14:51:58+06:00,
1000000000150893,77773822211,mMTS,mKarTel,mKarTel,,D77,2016-04-13T14:53:46+06:00,
1000000000150895,77086564075,mMTS,mAltel,mAltel,,D77,2016-04-13T14:53:00+06:00,
1000000000150897,77028456977,mMTS,mKcell,mKcell,,D77,2016-04-13T14:55:18+06:00,
1000000000150898,77052290202,mKarTel,mAltel,mKarTel,D07,D01,2016-04-13T14:55:50+06:00,
1000000000150900,77766666151,mKcell,mKarTel,mKarTel,,D02,2016-04-13T14:57:08+06:00,
1000000000150901,77085525905,mKcell,mAltel,mAltel,,D02,2016-04-13T14:56:34+06:00,
1000000000150902,77072929993,mKcell,mMTS,mMTS,,D02,2016-04-13T14:56:34+06:00,
1000000000150903,77019555656,mMTS,mKcell,mKcell,,D77,2016-04-13T14:57:48+06:00,
1000000000150904,77787979796,mMTS,mKcell,mKcell,,D77,2016-04-13T14:57:48+06:00,
1000000000150905,77027779140,mKarTel,mKcell,mKcell,,D01,2016-04-13T14:58:37+06:00,
1000000000150906,77027779120,mKarTel,mKcell,mKcell,,D01,2016-04-13T14:58:39+06:00,
1000000000150908,77054999959,mKarTel,mAltel,mKarTel,D07,D01,2016-04-13T14:59:19+06:00,
