NPId,Number,RecipientId,DonorId,RangeHolderId,OldRoute,NewRoute,PortDate,RowCount
1000000000405261,77072536343,mKcell,mMTS,mMTS,,D02,2017-06-18T18:31:38+06:00,8
1000000000405263,77777180292,mKarTel,mAltel,mKarTel,D07,D01,2017-06-18T18:36:06+06:00,
1000000000405264,77763000330,mAltel,mKarTel,mKarTel,,D07,2017-06-18T18:38:29+06:00,
1000000000405265,77711132323,mKcell,mKarTel,mKarTel,,D02,2017-06-18T18:43:30+06:00,
1000000000405268,77760662266,mKcell,mKarTel,mKarTel,,D02,2017-06-18T18:49:10+06:00,
1000000000405270,77017800601,mMTS,mKcell,mKcell,,D77,2017-06-18T18:52:02+06:00,
1000000000405271,77016177276,mKcell,mMTS,mKcell,D77,D02,2017-06-18T18:55:50+06:00,
1000000000405272,77071911613,mKarTel,mMTS,mMTS,,D01,2017-06-18T18:59:01+06:00,
