NPId,Number,RecipientId,DonorId,RangeHolderId,OldRoute,NewRoute,PortDate,RowCount
1000000000205895,77770644848,mMTS,mKarTel,mKarTel,,D77,2016-07-06T14:00:05+06:00,23
1000000000205901,77751915500,mKarTel,mKcell,mKcell,,D01,2016-07-06T14:03:43+06:00,
1000000000205905,77052560343,mMTS,mKarTel,mKarTel,,D77,2016-07-06T14:05:01+06:00,
1000000000205907,77774508233,mMTS,mKarTel,mKarTel,,D77,2016-07-06T14:06:24+06:00,
1000000000205911,77051414685,mMTS,mKarTel,mKarTel,,D77,2016-07-06T14:07:38+06:00,
1000000000205912,77770654848,mMTS,mKarTel,mKarTel,,D77,2016-07-06T14:07:48+06:00,
1000000000205913,77779890909,mMTS,mKarTel,mKarTel,,D77,2016-07-06T14:08:32+06:00,
1000000000205914,77714446556,mKarTel,mAltel,mKarTel,D07,D01,2016-07-06T14:08:34+06:00,
1000000000205917,77029417904,mKarTel,mKcell,mKcell,,D01,2016-07-06T14:10:22+06:00,
1000000000205918,77021695555,mMTS,mKcell,mKcell,,D77,2016-07-06T14:12:52+06:00,
1000000000205919,77082645352,mMTS,mAltel,mAltel,,D77,2016-07-06T14:10:24+06:00,
1000000000205921,77016586827,mKcell,mMTS,mKcell,D77,D02,2016-07-06T14:11:57+06:00,
1000000000205922,77007050707,mKcell,mAltel,mAltel,,D02,2016-07-06T14:12:01+06:00,
1000000000205924,77085173784,mKarTel,mAltel,mAltel,,D01,2016-07-06T14:12:47+06:00,
1000000000205928,77012301399,mAltel,mKcell,mKcell,,D07,2016-07-06T14:18:05+06:00,
1000000000205929,77019430217,mKarTel,mAltel,mKcell,D07,D01,2016-07-06T14:19:37+06:00,
1000000000205930,77081307109,mKarTel,mAltel,mAltel,,D01,2016-07-06T14:21:42+06:00,
1000000000205931,77004831275,mKarTel,mAltel,mAltel,,D01,2016-07-06T14:23:04+06:00,
1000000000205935,77073154271,mKarTel,mMTS,mMTS,,D01,2016-07-06T14:25:34+06:00,
1000000000205936,77014144229,mAltel,mKcell,mKcell,,D07,2016-07-06T14:25:31+06:00,
1000000000205938,77759662961,mMTS,mKcell,mKcell,,D77,2016-07-06T14:25:48+06:00,
1000000000205940,77004247064,mKcell,mAltel,mAltel,,D02,2016-07-06T14:26:46+06:00,
1000000000205943,77079110884,mKarTel,mMTS,mMTS,,D01,2016-07-06T14:29:39+06:00,
