NPId,Number,RecipientId,DonorId,RangeHolderId,OldRoute,NewRoute,PortDate,RowCount
1000000000322266,77010261448,mKcell,mKarTel,mKcell,D01,D02,2017-02-02T15:06:47+06:00,30
1000000000322271,77019539300,mKcell,mKarTel,mKcell,D01,D02,2017-02-02T15:07:42+06:00,
1000000000322281,77777448888,mMTS,mKarTel,mKarTel,,D77,2017-02-02T15:14:23+06:00,
1000000000322283,77053787657,mMTS,mKarTel,mKarTel,,D77,2017-02-02T15:06:20+06:00,
1000000000322284,77015125421,mAltel,mKcell,mKcell,,D07,2017-02-02T15:03:41+06:00,
1000000000322285,77027177743,mMTS,mKcell,mKcell,,D77,2017-02-02T15:04:10+06:00,
1000000000322286,77059612588,mAltel,mKarTel,mKarTel,,D07,2017-02-02T15:06:39+06:00,
1000000000322287,77017950059,mKarTel,mKcell,mKcell,,D01,2017-02-02T15:06:52+06:00,
1000000000322288,77011902161,mAltel,mKcell,mKcell,,D07,2017-02-02T15:06:33+06:00,
1000000000322289,77012997317,mKarTel,mKcell,mKcell,,D01,2017-02-02T15:06:52+06:00,
1000000000322290,77054525029,mMTS,mKarTel,mKarTel,,D77,2017-02-02T15:07:39+06:00,
1000000000322291,77775710401,mMTS,mKarTel,mKarTel,,D77,2017-02-02T15:08:10+06:00,
1000000000322292,77470386723,mAltel,mMTS,mMTS,,D07,2017-02-02T15:08:57+06:00,
1000000000322293,77014565584,mKarTel,mKcell,mKcell,,D01,2017-02-02T15:11:17+06:00,
1000000000322294,77772550583,mMTS,mKarTel,mKarTel,,D77,2017-02-02T15:12:26+06:00,
1000000000322295,77018654994,mKarTel,mKcell,mKcell,,D01,2017-02-02T15:13:11+06:00,
1000000000322296,77016353588,mKarTel,mKcell,mKcell,,D01,2017-02-02T15:14:41+06:00,
1000000000322297,77016353584,mKarTel,mKcell,mKcell,,D01,2017-02-02T15:15:13+06:00,
1000000000322298,77023001725,mKarTel,mKcell,mKcell,,D01,2017-02-02T15:16:16+06:00,
1000000000322301,77017361595,mKarTel,mKcell,mKcell,,D01,2017-02-02T15:19:20+06:00,
1000000000322303,77016266668,mMTS,mKcell,mKcell,,D77,2017-02-02T15:19:45+06:00,
1000000000322305,77783646092,mAltel,mKcell,mKcell,,D07,2017-02-02T15:19:59+06:00,
1000000000322306,77057251538,mMTS,mKarTel,mKarTel,,D77,2017-02-02T15:21:43+06:00,
1000000000322307,77005151251,mKarTel,mAltel,mAltel,,D01,2017-02-02T15:23:01+06:00,
1000000000322308,77014748704,mAltel,mKarTel,mKcell,D01,D07,2017-02-02T15:23:11+06:00,
1000000000322309,77759669977,mKcell,mMTS,mKcell,D77,D02,2017-02-02T15:23:13+06:00,
1000000000322310,77028525285,mMTS,mKcell,mKcell,,D77,2017-02-02T15:23:37+06:00,
1000000000322312,77055308601,mMTS,mKarTel,mKarTel,,D77,2017-02-02T15:24:38+06:00,
1000000000322315,77773822340,mMTS,mKarTel,mKarTel,,D77,2017-02-02T15:28:04+06:00,
1000000000322316,77073330507,mAltel,mKcell,mMTS,D02,D07,2017-02-02T15:28:22+06:00,
