NPId,Number,RecipientId,DonorId,RangeHolderId,OldRoute,NewRoute,PortDate,RowCount
1000000000374489,77015515188,mKarTel,mKcell,mKcell,,D01,2017-04-29T13:34:05+06:00,23
1000000000374490,77477154556,mAltel,mMTS,mMTS,,D07,2017-04-29T13:34:13+06:00,
1000000000374491,77771390529,mAltel,mKarTel,mKarTel,D01,D07,2017-04-29T13:35:25+06:00,
1000000000374492,77471066805,mAltel,mMTS,mMTS,,D07,2017-04-29T13:36:26+06:00,
1000000000374493,77773977716,mKcell,mKarTel,mKarTel,,D02,2017-04-29T13:38:09+06:00,
1000000000374494,77078814811,mMTS,mKcell,mMTS,D02,D77,2017-04-29T13:40:44+06:00,
1000000000374495,77772831400,mKcell,mKarTel,mKarTel,,D02,2017-04-29T13:41:35+06:00,
1000000000374496,77778322295,mAltel,mKarTel,mKarTel,D01,D07,2017-04-29T13:41:43+06:00,
1000000000374497,77784795997,mAltel,mKcell,mKcell,,D07,2017-04-29T13:41:25+06:00,
1000000000374498,77017773493,mKarTel,mKcell,mKcell,,D01,2017-04-29T13:42:45+06:00,
1000000000374499,77017507078,mAltel,mKcell,mKcell,,D07,2017-04-29T13:42:50+06:00,
1000000000374500,77012396666,mAltel,mKarTel,mKcell,D01,D07,2017-04-29T13:43:43+06:00,
1000000000374502,77012020666,mAltel,mKarTel,mKcell,D01,D07,2017-04-29T13:44:51+06:00,
1000000000374503,77002227376,mMTS,mAltel,mAltel,,D77,2017-04-29T13:45:09+06:00,
1000000000374504,77019600606,mAltel,mKcell,mKcell,,D07,2017-04-29T13:47:44+06:00,
1000000000374505,77757843595,mAltel,mKarTel,mKcell,D01,D07,2017-04-29T13:48:58+06:00,
1000000000374506,77021926995,mKcell,mAltel,mKcell,D07,D02,2017-04-29T13:50:31+06:00,
1000000000374507,77012458785,mMTS,mKcell,mKcell,,D77,2017-04-29T13:52:59+06:00,
1000000000374509,77087561455,mKarTel,mAltel,mAltel,,D01,2017-04-29T13:54:21+06:00,
1000000000374510,77769157279,mMTS,mKarTel,mKarTel,,D77,2017-04-29T13:55:00+06:00,
1000000000374511,77789198722,mMTS,mKcell,mKcell,,D77,2017-04-29T13:54:50+06:00,
1000000000374512,77004153044,mMTS,mAltel,mAltel,,D77,2017-04-29T13:54:56+06:00,
1000000000374513,77027172925,mAltel,mKcell,mKcell,,D07,2017-04-29T13:56:25+06:00,
