NPId,Number,RecipientId,DonorId,RangeHolderId,OldRoute,NewRoute,PortDate,RowCount
1000000000266743,77471865050,mMTS,mAltel,mMTS,D07,D77,2016-10-22T20:37:30+06:00,2
1000000000266744,77019880069,mKcell,mKarTel,mKcell,D01,D02,2016-10-22T20:59:01+06:00,
