NPId,Number,RecipientId,DonorId,RangeHolderId,OldRoute,NewRoute,PortDate,RowCount
1000000000343276,77015959818,mKcell,mMTS,mKcell,D77,D02,2017-03-08T10:37:20+06:00,2
1000000000343277,77777940202,mMTS,mKarTel,mKarTel,,D77,2017-03-08T10:53:11+06:00,
