NPId,Number,RecipientId,DonorId,RangeHolderId,OldRoute,NewRoute,PortDate,RowCount
1000000000331619,77013221017,mKarTel,mKcell,mKcell,,D01,2017-02-20T13:29:41+06:00,23
1000000000331627,77782781820,mMTS,mKcell,mKcell,,D77,2017-02-20T13:01:54+06:00,
1000000000331628,77756053966,mKcell,mMTS,mKcell,D77,D02,2017-02-20T13:03:37+06:00,
1000000000331629,77076093412,mKarTel,mMTS,mMTS,,D01,2017-02-20T13:03:32+06:00,
1000000000331630,77776600677,mMTS,mAltel,mKarTel,D07,D77,2017-02-20T13:04:44+06:00,
1000000000331631,77024004044,mKcell,mKarTel,mKcell,D01,D02,2017-02-20T13:05:45+06:00,
1000000000331633,77753299889,mMTS,mKcell,mKcell,,D77,2017-02-20T13:07:50+06:00,
1000000000331634,77074118334,mKarTel,mMTS,mMTS,,D01,2017-02-20T13:08:36+06:00,
1000000000331635,77777648577,mMTS,mKarTel,mKarTel,,D77,2017-02-20T13:11:42+06:00,
1000000000331636,77081566996,mAltel,mMTS,mAltel,D77,D07,2017-02-20T13:11:25+06:00,
1000000000331637,77026829770,mMTS,mKcell,mKcell,,D77,2017-02-20T13:12:35+06:00,
1000000000331639,77778000755,mAltel,mKarTel,mKarTel,D01,D07,2017-02-20T13:12:58+06:00,
1000000000331640,77782781809,mMTS,mKcell,mKcell,,D77,2017-02-20T13:12:53+06:00,
1000000000331641,77051323646,mMTS,mKarTel,mKarTel,,D77,2017-02-20T13:13:23+06:00,
1000000000331642,77012200877,mAltel,mKcell,mKcell,,D07,2017-02-20T13:13:45+06:00,
1000000000331643,77768898898,mMTS,mKarTel,mKarTel,D01,D77,2017-02-20T13:15:08+06:00,
1000000000331644,77714762829,mMTS,mKarTel,mKarTel,,D77,2017-02-20T13:15:31+06:00,
1000000000331646,77781447786,mMTS,mKcell,mKcell,,D77,2017-02-20T13:16:20+06:00,
1000000000331647,77017352619,mKarTel,mKcell,mKcell,,D01,2017-02-20T13:16:47+06:00,
1000000000331648,77754712457,mAltel,mKcell,mKcell,,D07,2017-02-20T13:20:53+06:00,
1000000000331649,77011201610,mKcell,mMTS,mKcell,D77,D02,2017-02-20T13:21:28+06:00,
1000000000331650,77051277708,mMTS,mKarTel,mKarTel,,D77,2017-02-20T13:21:56+06:00,
1000000000331654,77024478981,mKarTel,mKcell,mKcell,,D01,2017-02-20T13:27:48+06:00,
