NPId,Number,RecipientId,DonorId,RangeHolderId,OldRoute,NewRoute,PortDate,RowCount
1000000000002174,77019456049,mKarTel,mKcell,mKcell,,D01,2016-01-06T14:36:14+06:00,39
1000000000002208,77017424000,mAltel,mKcell,mKcell,,D07,2016-01-06T14:35:42+06:00,
1000000000002364,77072512091,mKarTel,mMTS,mMTS,,D01,2016-01-06T14:30:51+06:00,
1000000000002366,77712827777,mKcell,mKarTel,mKarTel,,D02,2016-01-06T14:31:10+06:00,
1000000000002367,77052049254,mKcell,mKarTel,mKarTel,,D02,2016-01-06T14:31:47+06:00,
1000000000002368,77017401117,mAltel,mKcell,mKcell,,D07,2016-01-06T14:32:42+06:00,
1000000000002369,77782079363,mAltel,mKcell,mKcell,,D07,2016-01-06T14:32:53+06:00,
1000000000002370,77071282805,mAltel,mMTS,mMTS,,D07,2016-01-06T14:33:25+06:00,
1000000000002372,77077221798,mAltel,mMTS,mMTS,,D07,2016-01-06T14:35:13+06:00,
1000000000002373,77778322295,mAltel,mKarTel,mKarTel,,D07,2016-01-06T14:35:54+06:00,
1000000000002374,77770082255,mAltel,mKarTel,mKarTel,,D07,2016-01-06T14:35:56+06:00,
1000000000002376,77774400777,mAltel,mKarTel,mKarTel,,D07,2016-01-06T14:37:14+06:00,
1000000000002379,77770082266,mAltel,mKarTel,mKarTel,,D07,2016-01-06T14:38:19+06:00,
1000000000002380,77474389838,mAltel,mMTS,mMTS,,D07,2016-01-06T14:38:06+06:00,
1000000000002381,77752969557,mKarTel,mKcell,mKcell,,D01,2016-01-06T14:38:31+06:00,
1000000000002382,77088721762,mKcell,mAltel,mAltel,,D02,2016-01-06T14:39:11+06:00,
1000000000002384,77714594628,mAltel,mKarTel,mKarTel,,D07,2016-01-06T14:39:37+06:00,
1000000000002385,77015765372,mAltel,mKcell,mKcell,,D07,2016-01-06T14:39:32+06:00,
1000000000002387,77017660528,mAltel,mKcell,mKcell,,D07,2016-01-06T14:42:41+06:00,
1000000000002389,77012459099,mKarTel,mKcell,mKcell,,D01,2016-01-06T14:43:02+06:00,
1000000000002396,77028424241,mMTS,mKcell,mKcell,,D77,2016-01-06T14:46:20+06:00,
1000000000002397,77076794082,mAltel,mMTS,mMTS,,D07,2016-01-06T14:46:35+06:00,
1000000000002398,77015121266,mAltel,mKcell,mKcell,,D07,2016-01-06T14:47:12+06:00,
1000000000002399,77777807800,mKcell,mKarTel,mKarTel,,D02,2016-01-06T14:47:44+06:00,
1000000000002400,77028340198,mAltel,mKcell,mKcell,,D07,2016-01-06T14:48:17+06:00,
1000000000002402,77076666100,mKarTel,mMTS,mMTS,,D01,2016-01-06T14:48:35+06:00,
1000000000002404,77770333011,mKcell,mKarTel,mKarTel,,D02,2016-01-06T14:48:57+06:00,
1000000000002405,77755561732,mKarTel,mKcell,mKcell,,D01,2016-01-06T14:49:50+06:00,
1000000000002406,77752098510,mKarTel,mKcell,mKcell,,D01,2016-01-06T14:50:57+06:00,
1000000000002409,77077100009,mKcell,mMTS,mMTS,,D02,2016-01-06T14:51:39+06:00,
1000000000002412,77027772121,mAltel,mKcell,mKcell,,D07,2016-01-06T14:52:19+06:00,
1000000000002413,77786570770,mAltel,mKcell,mKcell,,D07,2016-01-06T14:53:40+06:00,
1000000000002415,77079063760,mAltel,mMTS,mMTS,,D07,2016-01-06T14:54:34+06:00,
1000000000002416,77714602019,mKcell,mKarTel,mKarTel,,D02,2016-01-06T14:55:40+06:00,
1000000000002418,77011112051,mKarTel,mKcell,mKcell,,D01,2016-01-06T14:56:49+06:00,
1000000000002419,77011111766,mAltel,mKcell,mKcell,,D07,2016-01-06T14:58:01+06:00,
1000000000002420,77477889988,mKarTel,mMTS,mMTS,,D01,2016-01-06T14:59:41+06:00,
1000000000002421,77073151139,mKarTel,mMTS,mMTS,,D01,2016-01-06T14:59:41+06:00,
1000000000002422,77016171945,mAltel,mKcell,mKcell,,D07,2016-01-06T14:59:41+06:00,
