NPId,Number,RecipientId,DonorId,RangeHolderId,OldRoute,NewRoute,PortDate,RowCount
1000000000244036,77011464141,mKarTel,mKcell,mKcell,,D01,2016-09-11T12:37:37+06:00,5
1000000000244037,77002831994,mMTS,mAltel,mAltel,,D77,2016-09-11T12:37:24+06:00,
1000000000244038,77019090015,mAltel,mKcell,mKcell,,D07,2016-09-11T12:38:35+06:00,
1000000000244040,77017777590,mKarTel,mKcell,mKcell,,D01,2016-09-11T12:46:11+06:00,
1000000000244044,77077576711,mAltel,mMTS,mMTS,,D07,2016-09-11T12:53:50+06:00,
