NPId,Number,RecipientId,DonorId,RangeHolderId,OldRoute,NewRoute,PortDate,RowCount
1000000000102055,77752194744,mMTS,mKcell,mKcell,,D77,2016-02-29T11:34:32+06:00,21
1000000000102057,77479429583,mKcell,mMTS,mMTS,,D02,2016-02-29T11:38:04+06:00,
1000000000102059,77087559626,mKcell,mAltel,mAltel,,D02,2016-02-29T11:36:10+06:00,
1000000000102061,77019979914,mMTS,mKcell,mKcell,,D77,2016-02-29T11:37:43+06:00,
1000000000102063,77022245333,mAltel,mKcell,mKcell,,D07,2016-02-29T11:40:11+06:00,
1000000000102065,77772772244,mAltel,mKarTel,mKarTel,,D07,2016-02-29T11:42:36+06:00,
1000000000102066,77751654988,mMTS,mKcell,mKcell,,D77,2016-02-29T11:43:40+06:00,
1000000000102067,77772042727,mAltel,mKarTel,mKarTel,,D07,2016-02-29T11:44:41+06:00,
1000000000102069,77750001180,mAltel,mKcell,mKcell,,D07,2016-02-29T11:45:17+06:00,
1000000000102073,77026644837,mAltel,mKcell,mKcell,,D07,2016-02-29T11:49:09+06:00,
1000000000102074,77077907077,mAltel,mMTS,mMTS,,D07,2016-02-29T11:49:37+06:00,
1000000000102075,77051356240,mKcell,mKarTel,mKarTel,,D02,2016-02-29T11:51:21+06:00,
1000000000102076,77751710094,mKarTel,mKcell,mKcell,,D01,2016-02-29T11:51:52+06:00,
1000000000102078,77776242064,mMTS,mKarTel,mKarTel,,D77,2016-02-29T11:52:14+06:00,
1000000000102079,77057509412,mAltel,mKarTel,mKarTel,,D07,2016-02-29T11:52:40+06:00,
1000000000102083,77052494959,mAltel,mKarTel,mKarTel,,D07,2016-02-29T11:54:41+06:00,
1000000000102086,77774455051,mAltel,mKarTel,mKarTel,,D07,2016-02-29T11:56:30+06:00,
1000000000102087,77087639049,mMTS,mAltel,mAltel,,D77,2016-02-29T11:57:22+06:00,
1000000000102088,77019053388,mMTS,mKcell,mKcell,,D77,2016-02-29T11:58:11+06:00,
1000000000102089,77071388864,mKcell,mMTS,mMTS,,D02,2016-02-29T11:58:27+06:00,
1000000000102090,77756800101,mMTS,mKcell,mKcell,,D77,2016-02-29T11:58:31+06:00,
