NPId,Number,RecipientId,DonorId,RangeHolderId,OldRoute,NewRoute,PortDate,RowCount
1000000000410381,77014788762,mAltel,mKcell,mKcell,,D07,2017-06-27T12:00:45+06:00,26
1000000000410383,77051010055,mAltel,mKarTel,mKarTel,,D07,2017-06-27T12:01:11+06:00,
1000000000410384,77057058880,mMTS,mKarTel,mKarTel,,D77,2017-06-27T12:05:01+06:00,
1000000000410385,77759632999,mKarTel,mMTS,mKcell,D77,D01,2017-06-27T12:05:22+06:00,
1000000000410386,77781915965,mAltel,mKcell,mKcell,,D07,2017-06-27T12:05:49+06:00,
1000000000410388,77071929614,mAltel,mMTS,mMTS,,D07,2017-06-27T12:07:07+06:00,
1000000000410389,77002220003,mMTS,mAltel,mAltel,,D77,2017-06-27T12:09:41+06:00,
1000000000410390,77017388464,mMTS,mKcell,mKcell,,D77,2017-06-27T12:10:34+06:00,
1000000000410391,77471606026,mKcell,mAltel,mMTS,D07,D02,2017-06-27T12:11:12+06:00,
1000000000410392,77771942111,mMTS,mKarTel,mKarTel,,D77,2017-06-27T12:13:13+06:00,
1000000000410393,77003622309,mKarTel,mAltel,mAltel,,D01,2017-06-27T12:14:15+06:00,
1000000000410395,77774788266,mAltel,mKcell,mKarTel,D02,D07,2017-06-27T12:16:05+06:00,
1000000000410396,77007775775,mKcell,mAltel,mAltel,,D02,2017-06-27T12:16:31+06:00,
1000000000410397,77015134241,mKcell,mMTS,mKcell,D77,D02,2017-06-27T12:17:23+06:00,
1000000000410398,77779482899,mKcell,mKarTel,mKarTel,,D02,2017-06-27T12:19:34+06:00,
1000000000410399,77007774994,mKcell,mAltel,mAltel,,D02,2017-06-27T12:20:49+06:00,
1000000000410400,77785008040,mKarTel,mKcell,mKcell,,D01,2017-06-27T12:21:42+06:00,
1000000000410401,77778947661,mMTS,mKarTel,mKarTel,,D77,2017-06-27T12:22:25+06:00,
1000000000410402,77016775544,mKcell,mMTS,mKcell,D77,D02,2017-06-27T12:23:57+06:00,
1000000000410403,77018411236,mKarTel,mKcell,mKcell,,D01,2017-06-27T12:24:12+06:00,
1000000000410404,77473287238,mKarTel,mMTS,mMTS,,D01,2017-06-27T12:25:00+06:00,
1000000000410405,77476525690,mKcell,mMTS,mMTS,,D02,2017-06-27T12:27:25+06:00,
1000000000410406,77000997796,mKcell,mAltel,mAltel,,D02,2017-06-27T12:27:35+06:00,
1000000000410407,77023156589,mKcell,mAltel,mKcell,D07,D02,2017-06-27T12:28:11+06:00,
1000000000410408,77477144347,mKcell,mMTS,mMTS,,D02,2017-06-27T12:28:22+06:00,
1000000000410410,77001011196,mKcell,mAltel,mAltel,,D02,2017-06-27T12:29:17+06:00,
