NPId,Number,RecipientId,DonorId,RangeHolderId,OldRoute,NewRoute,PortDate,RowCount
1000000000185692,77012212785,mAltel,mKcell,mKcell,,D07,2016-06-02T09:39:08+06:00,12
1000000000185693,77010913150,mAltel,mKcell,mKcell,,D07,2016-06-02T09:42:54+06:00,
1000000000186092,77001191972,mKarTel,mAltel,mAltel,,D01,2016-06-02T09:31:55+06:00,
1000000000186093,77017585020,mKarTel,mKcell,mKcell,,D01,2016-06-02T09:33:31+06:00,
1000000000186096,77751510066,mMTS,mKcell,mKcell,,D77,2016-06-02T09:39:30+06:00,
1000000000186098,77028533233,mMTS,mKcell,mKcell,,D77,2016-06-02T09:46:17+06:00,
1000000000186099,77760093000,mKcell,mKarTel,mKarTel,,D02,2016-06-02T09:46:59+06:00,
1000000000186102,77717717001,mMTS,mKarTel,mKarTel,,D77,2016-06-02T09:50:02+06:00,
1000000000186104,77073614999,mKarTel,mMTS,mMTS,,D01,2016-06-02T09:55:01+06:00,
1000000000186106,77016862734,mMTS,mKcell,mKcell,,D77,2016-06-02T09:55:51+06:00,
1000000000186108,77085740953,mKarTel,mAltel,mAltel,,D01,2016-06-02T09:57:48+06:00,
1000000000186110,77751236606,mMTS,mKcell,mKcell,,D77,2016-06-02T09:58:34+06:00,
