NPId,Number,RecipientId,DonorId,RangeHolderId,OldRoute,NewRoute,PortDate,RowCount
1000000000309991,77018794167,mKarTel,mKcell,mKcell,,D01,2017-01-16T09:14:26+06:00,141
1000000000309991,77018795555,mKarTel,mKcell,mKcell,,D01,2017-01-16T09:14:26+06:00,
1000000000309991,77018796000,mKarTel,mKcell,mKcell,,D01,2017-01-16T09:14:26+06:00,
1000000000309991,77018796900,mKarTel,mKcell,mKcell,,D01,2017-01-16T09:14:26+06:00,
1000000000309991,77018796907,mKarTel,mKcell,mKcell,,D01,2017-01-16T09:14:26+06:00,
1000000000309991,77018796909,mKarTel,mKcell,mKcell,,D01,2017-01-16T09:14:26+06:00,
1000000000309991,77018796946,mKarTel,mKcell,mKcell,,D01,2017-01-16T09:14:26+06:00,
1000000000309991,77018796954,mKarTel,mKcell,mKcell,,D01,2017-01-16T09:14:26+06:00,
1000000000309991,77018796955,mKarTel,mKcell,mKcell,,D01,2017-01-16T09:14:26+06:00,
1000000000309991,77018796979,mKarTel,mKcell,mKcell,,D01,2017-01-16T09:14:26+06:00,
1000000000309991,77018796989,mKarTel,mKcell,mKcell,,D01,2017-01-16T09:14:26+06:00,
1000000000310229,77010265800,mKarTel,mKcell,mKcell,,D01,2017-01-16T09:20:02+06:00,
1000000000310229,77012086185,mKarTel,mKcell,mKcell,,D01,2017-01-16T09:20:02+06:00,
1000000000310229,77012120609,mKarTel,mKcell,mKcell,,D01,2017-01-16T09:20:02+06:00,
1000000000310229,77015069593,mKarTel,mKcell,mKcell,,D01,2017-01-16T09:20:02+06:00,
1000000000310229,77015069597,mKarTel,mKcell,mKcell,,D01,2017-01-16T09:20:02+06:00,
1000000000310229,77015121901,mKarTel,mKcell,mKcell,,D01,2017-01-16T09:20:02+06:00,
1000000000310229,77015303983,mKarTel,mKcell,mKcell,,D01,2017-01-16T09:20:02+06:00,
1000000000310229,77015309163,mKarTel,mKcell,mKcell,,D01,2017-01-16T09:20:02+06:00,
1000000000310229,77015309164,mKarTel,mKcell,mKcell,,D01,2017-01-16T09:20:02+06:00,
1000000000310229,77015309165,mKarTel,mKcell,mKcell,,D01,2017-01-16T09:20:02+06:00,
1000000000310229,77017104223,mKarTel,mKcell,mKcell,,D01,2017-01-16T09:20:02+06:00,
1000000000310229,77017157475,mKarTel,mKcell,mKcell,,D01,2017-01-16T09:20:02+06:00,
1000000000310229,77017157476,mKarTel,mKcell,mKcell,,D01,2017-01-16T09:20:02+06:00,
1000000000310229,77017179265,mKarTel,mKcell,mKcell,,D01,2017-01-16T09:20:02+06:00,
1000000000310229,77017242003,mKarTel,mKcell,mKcell,,D01,2017-01-16T09:20:02+06:00,
1000000000310229,77017258136,mKarTel,mKcell,mKcell,,D01,2017-01-16T09:20:02+06:00,
1000000000310229,77017259175,mKarTel,mKcell,mKcell,,D01,2017-01-16T09:20:02+06:00,
1000000000310229,77017278349,mKarTel,mKcell,mKcell,,D01,2017-01-16T09:20:02+06:00,
1000000000310229,77017278352,mKarTel,mKcell,mKcell,,D01,2017-01-16T09:20:02+06:00,
1000000000310229,77017284434,mKarTel,mKcell,mKcell,,D01,2017-01-16T09:20:02+06:00,
1000000000310229,77017304041,mKarTel,mKcell,mKcell,,D01,2017-01-16T09:20:02+06:00,
1000000000310229,77017317042,mKarTel,mKcell,mKcell,,D01,2017-01-16T09:20:02+06:00,
1000000000310229,77017350588,mKarTel,mKcell,mKcell,,D01,2017-01-16T09:20:02+06:00,
1000000000310229,77017409716,mKarTel,mKcell,mKcell,,D01,2017-01-16T09:20:02+06:00,
1000000000310229,77017539316,mKarTel,mKcell,mKcell,,D01,2017-01-16T09:20:02+06:00,
1000000000310229,77017539319,mKarTel,mKcell,mKcell,,D01,2017-01-16T09:20:02+06:00,
1000000000310229,77017539320,mKarTel,mKcell,mKcell,,D01,2017-01-16T09:20:02+06:00,
1000000000310229,77017598327,mKarTel,mKcell,mKcell,,D01,2017-01-16T09:20:02+06:00,
1000000000310229,77017658139,mKarTel,mKcell,mKcell,,D01,2017-01-16T09:20:02+06:00,
1000000000310229,77017828260,mKarTel,mKcell,mKcell,,D01,2017-01-16T09:20:02+06:00,
1000000000310229,77017828303,mKarTel,mKcell,mKcell,,D01,2017-01-16T09:20:02+06:00,
1000000000310229,77017882314,mKarTel,mKcell,mKcell,,D01,2017-01-16T09:20:02+06:00,
1000000000310229,77017886306,mKarTel,mKcell,mKcell,,D01,2017-01-16T09:20:02+06:00,
1000000000310229,77019290706,mKarTel,mKcell,mKcell,,D01,2017-01-16T09:20:02+06:00,
1000000000310229,77019290812,mKarTel,mKcell,mKcell,,D01,2017-01-16T09:20:02+06:00,
1000000000310229,77019290813,mKarTel,mKcell,mKcell,,D01,2017-01-16T09:20:02+06:00,
1000000000310229,77019526328,mKarTel,mKcell,mKcell,,D01,2017-01-16T09:20:02+06:00,
1000000000310229,77019533256,mKarTel,mKcell,mKcell,,D01,2017-01-16T09:20:02+06:00,
1000000000310229,77019533257,mKarTel,mKcell,mKcell,,D01,2017-01-16T09:20:02+06:00,
1000000000310229,77019887653,mKarTel,mKcell,mKcell,,D01,2017-01-16T09:20:02+06:00,
1000000000310229,77022064420,mKarTel,mKcell,mKcell,,D01,2017-01-16T09:20:02+06:00,
1000000000310229,77022155079,mKarTel,mKcell,mKcell,,D01,2017-01-16T09:20:02+06:00,
1000000000310229,77022170740,mKarTel,mKcell,mKcell,,D01,2017-01-16T09:20:02+06:00,
1000000000310229,77022170741,mKarTel,mKcell,mKcell,,D01,2017-01-16T09:20:02+06:00,
1000000000310229,77022170742,mKarTel,mKcell,mKcell,,D01,2017-01-16T09:20:02+06:00,
1000000000310229,77022170743,mKarTel,mKcell,mKcell,,D01,2017-01-16T09:20:02+06:00,
1000000000310229,77022170744,mKarTel,mKcell,mKcell,,D01,2017-01-16T09:20:02+06:00,
1000000000310229,77022170745,mKarTel,mKcell,mKcell,,D01,2017-01-16T09:20:02+06:00,
1000000000310229,77022170746,mKarTel,mKcell,mKcell,,D01,2017-01-16T09:20:02+06:00,
1000000000310229,77022170747,mKarTel,mKcell,mKcell,,D01,2017-01-16T09:20:02+06:00,
1000000000310229,77022170748,mKarTel,mKcell,mKcell,,D01,2017-01-16T09:20:02+06:00,
1000000000310229,77022170749,mKarTel,mKcell,mKcell,,D01,2017-01-16T09:20:02+06:00,
1000000000310229,77022170751,mKarTel,mKcell,mKcell,,D01,2017-01-16T09:20:02+06:00,
1000000000310229,77022170752,mKarTel,mKcell,mKcell,,D01,2017-01-16T09:20:02+06:00,
1000000000310229,77022170753,mKarTel,mKcell,mKcell,,D01,2017-01-16T09:20:02+06:00,
1000000000310229,77022170754,mKarTel,mKcell,mKcell,,D01,2017-01-16T09:20:02+06:00,
1000000000310229,77022170755,mKarTel,mKcell,mKcell,,D01,2017-01-16T09:20:02+06:00,
1000000000310229,77022170756,mKarTel,mKcell,mKcell,,D01,2017-01-16T09:20:02+06:00,
1000000000310229,77022170757,mKarTel,mKcell,mKcell,,D01,2017-01-16T09:20:02+06:00,
1000000000310229,77022170758,mKarTel,mKcell,mKcell,,D01,2017-01-16T09:20:02+06:00,
1000000000310245,77022170759,mKarTel,mKcell,mKcell,,D01,2017-01-16T09:17:08+06:00,
1000000000310245,77022170760,mKarTel,mKcell,mKcell,,D01,2017-01-16T09:17:08+06:00,
1000000000310245,77022170761,mKarTel,mKcell,mKcell,,D01,2017-01-16T09:17:08+06:00,
1000000000310245,77022170762,mKarTel,mKcell,mKcell,,D01,2017-01-16T09:17:08+06:00,
1000000000310245,77022170763,mKarTel,mKcell,mKcell,,D01,2017-01-16T09:17:08+06:00,
1000000000310245,77022170764,mKarTel,mKcell,mKcell,,D01,2017-01-16T09:17:08+06:00,
1000000000310245,77022170765,mKarTel,mKcell,mKcell,,D01,2017-01-16T09:17:08+06:00,
1000000000310245,77022170766,mKarTel,mKcell,mKcell,,D01,2017-01-16T09:17:08+06:00,
1000000000310245,77022170767,mKarTel,mKcell,mKcell,,D01,2017-01-16T09:17:08+06:00,
1000000000310245,77022170768,mKarTel,mKcell,mKcell,,D01,2017-01-16T09:17:08+06:00,
1000000000310245,77022170769,mKarTel,mKcell,mKcell,,D01,2017-01-16T09:17:08+06:00,
1000000000310245,77022170771,mKarTel,mKcell,mKcell,,D01,2017-01-16T09:17:08+06:00,
1000000000310245,77022170772,mKarTel,mKcell,mKcell,,D01,2017-01-16T09:17:08+06:00,
1000000000310245,77022170773,mKarTel,mKcell,mKcell,,D01,2017-01-16T09:17:08+06:00,
1000000000310245,77022170774,mKarTel,mKcell,mKcell,,D01,2017-01-16T09:17:08+06:00,
1000000000310245,77022170775,mKarTel,mKcell,mKcell,,D01,2017-01-16T09:17:08+06:00,
1000000000310245,77022170776,mKarTel,mKcell,mKcell,,D01,2017-01-16T09:17:08+06:00,
1000000000310245,77022170779,mKarTel,mKcell,mKcell,,D01,2017-01-16T09:17:08+06:00,
1000000000310245,77022170780,mKarTel,mKcell,mKcell,,D01,2017-01-16T09:17:08+06:00,
1000000000310245,77022170781,mKarTel,mKcell,mKcell,,D01,2017-01-16T09:17:08+06:00,
1000000000310245,77022170782,mKarTel,mKcell,mKcell,,D01,2017-01-16T09:17:08+06:00,
1000000000310245,77022170783,mKarTel,mKcell,mKcell,,D01,2017-01-16T09:17:08+06:00,
1000000000310245,77022170784,mKarTel,mKcell,mKcell,,D01,2017-01-16T09:17:08+06:00,
1000000000310245,77022170785,mKarTel,mKcell,mKcell,,D01,2017-01-16T09:17:08+06:00,
1000000000310245,77022170786,mKarTel,mKcell,mKcell,,D01,2017-01-16T09:17:08+06:00,
1000000000310245,77022170789,mKarTel,mKcell,mKcell,,D01,2017-01-16T09:17:08+06:00,
1000000000310245,77022170790,mKarTel,mKcell,mKcell,,D01,2017-01-16T09:17:08+06:00,
1000000000310245,77022170791,mKarTel,mKcell,mKcell,,D01,2017-01-16T09:17:08+06:00,
1000000000310245,77022170792,mKarTel,mKcell,mKcell,,D01,2017-01-16T09:17:08+06:00,
1000000000310245,77022170793,mKarTel,mKcell,mKcell,,D01,2017-01-16T09:17:08+06:00,
1000000000310245,77022170794,mKarTel,mKcell,mKcell,,D01,2017-01-16T09:17:08+06:00,
1000000000310245,77022170795,mKarTel,mKcell,mKcell,,D01,2017-01-16T09:17:08+06:00,
1000000000310245,77022170796,mKarTel,mKcell,mKcell,,D01,2017-01-16T09:17:08+06:00,
1000000000310245,77022170797,mKarTel,mKcell,mKcell,,D01,2017-01-16T09:17:08+06:00,
1000000000310245,77022170798,mKarTel,mKcell,mKcell,,D01,2017-01-16T09:17:08+06:00,
1000000000310245,77022170801,mKarTel,mKcell,mKcell,,D01,2017-01-16T09:17:08+06:00,
1000000000310245,77022170802,mKarTel,mKcell,mKcell,,D01,2017-01-16T09:17:08+06:00,
1000000000310245,77022170803,mKarTel,mKcell,mKcell,,D01,2017-01-16T09:17:08+06:00,
1000000000310245,77022170804,mKarTel,mKcell,mKcell,,D01,2017-01-16T09:17:08+06:00,
1000000000310245,77022170805,mKarTel,mKcell,mKcell,,D01,2017-01-16T09:17:08+06:00,
1000000000310245,77022170806,mKarTel,mKcell,mKcell,,D01,2017-01-16T09:17:08+06:00,
1000000000310245,77022170811,mKarTel,mKcell,mKcell,,D01,2017-01-16T09:17:08+06:00,
1000000000310245,77022170812,mKarTel,mKcell,mKcell,,D01,2017-01-16T09:17:08+06:00,
1000000000310245,77022170813,mKarTel,mKcell,mKcell,,D01,2017-01-16T09:17:08+06:00,
1000000000310245,77022170814,mKarTel,mKcell,mKcell,,D01,2017-01-16T09:17:08+06:00,
1000000000310245,77022170815,mKarTel,mKcell,mKcell,,D01,2017-01-16T09:17:08+06:00,
1000000000310245,77022170816,mKarTel,mKcell,mKcell,,D01,2017-01-16T09:17:08+06:00,
1000000000310245,77022170817,mKarTel,mKcell,mKcell,,D01,2017-01-16T09:17:08+06:00,
1000000000310245,77022170818,mKarTel,mKcell,mKcell,,D01,2017-01-16T09:17:08+06:00,
1000000000310245,77022170820,mKarTel,mKcell,mKcell,,D01,2017-01-16T09:17:08+06:00,
1000000000310245,77022170821,mKarTel,mKcell,mKcell,,D01,2017-01-16T09:17:08+06:00,
1000000000310245,77022170822,mKarTel,mKcell,mKcell,,D01,2017-01-16T09:17:08+06:00,
1000000000310245,77022170823,mKarTel,mKcell,mKcell,,D01,2017-01-16T09:17:08+06:00,
1000000000310245,77022170824,mKarTel,mKcell,mKcell,,D01,2017-01-16T09:17:08+06:00,
1000000000310245,77022170825,mKarTel,mKcell,mKcell,,D01,2017-01-16T09:17:08+06:00,
1000000000310245,77022170826,mKarTel,mKcell,mKcell,,D01,2017-01-16T09:17:08+06:00,
1000000000310245,77022170827,mKarTel,mKcell,mKcell,,D01,2017-01-16T09:17:08+06:00,
1000000000310245,77022170829,mKarTel,mKcell,mKcell,,D01,2017-01-16T09:17:08+06:00,
1000000000310245,77022170830,mKarTel,mKcell,mKcell,,D01,2017-01-16T09:17:08+06:00,
1000000000310245,77787122018,mKarTel,mKcell,mKcell,,D01,2017-01-16T09:17:08+06:00,
1000000000310245,77787122082,mKarTel,mKcell,mKcell,,D01,2017-01-16T09:17:08+06:00,
1000000000311086,77775010501,mKarTel,mMTS,mKarTel,D77,D01,2017-01-16T09:02:44+06:00,
1000000000311089,77004449757,mKcell,mAltel,mAltel,,D02,2017-01-16T09:05:05+06:00,
1000000000311090,77004446737,mKcell,mAltel,mAltel,,D02,2017-01-16T09:05:01+06:00,
1000000000311091,77766171000,mKcell,mKarTel,mKarTel,,D02,2017-01-16T09:05:48+06:00,
1000000000311092,77003337848,mKcell,mAltel,mAltel,,D02,2017-01-16T09:05:41+06:00,
1000000000311093,77772990909,mAltel,mKarTel,mKarTel,,D07,2017-01-16T09:09:33+06:00,
1000000000311094,77076699940,mKcell,mMTS,mMTS,,D02,2017-01-16T09:17:18+06:00,
1000000000311095,77014711160,mKarTel,mAltel,mKcell,D07,D01,2017-01-16T09:22:04+06:00,
1000000000311096,77477779499,mAltel,mMTS,mMTS,,D07,2017-01-16T09:29:15+06:00,
