NPId,Number,RecipientId,DonorId,RangeHolderId,OldRoute,NewRoute,PortDate,RowCount
1000000000256600,77770101267,mKcell,mKarTel,mKarTel,,D02,2016-10-04T13:31:17+06:00,28
1000000000256602,77012777049,mKarTel,mKcell,mKcell,,D01,2016-10-04T13:30:09+06:00,
1000000000256603,77014330330,mKarTel,mKcell,mKcell,,D01,2016-10-04T13:30:23+06:00,
1000000000256604,77011119421,mKarTel,mKcell,mKcell,,D01,2016-10-04T13:31:17+06:00,
1000000000256605,77771818718,mMTS,mKarTel,mKarTel,,D77,2016-10-04T13:31:48+06:00,
1000000000256606,77776067332,mMTS,mKarTel,mKarTel,,D77,2016-10-04T13:32:42+06:00,
1000000000256607,77777800888,mKcell,mMTS,mKarTel,D77,D02,2016-10-04T13:32:42+06:00,
1000000000256608,77756006333,mAltel,mKcell,mKcell,,D07,2016-10-04T13:32:55+06:00,
1000000000256610,77002220585,mKcell,mAltel,mAltel,,D02,2016-10-04T13:35:13+06:00,
1000000000256611,77751189839,mKcell,mMTS,mKcell,D77,D02,2016-10-04T13:36:44+06:00,
1000000000256612,77778488808,mKcell,mMTS,mKarTel,D77,D02,2016-10-04T13:36:51+06:00,
1000000000256613,77769181781,mMTS,mKarTel,mKarTel,,D77,2016-10-04T13:38:12+06:00,
1000000000256614,77476296497,mKcell,mMTS,mMTS,,D02,2016-10-04T13:39:19+06:00,
1000000000256617,77478076272,mKcell,mMTS,mMTS,,D02,2016-10-04T13:41:44+06:00,
1000000000256619,77756173238,mMTS,mKcell,mKcell,,D77,2016-10-04T13:42:01+06:00,
1000000000256620,77788884845,mMTS,mKcell,mKcell,,D77,2016-10-04T13:42:03+06:00,
1000000000256621,77052532161,mAltel,mKarTel,mKarTel,,D07,2016-10-04T13:43:33+06:00,
1000000000256622,77010800803,mKarTel,mAltel,mKcell,D07,D01,2016-10-04T13:43:30+06:00,
1000000000256623,77078265426,mAltel,mMTS,mMTS,,D07,2016-10-04T13:45:06+06:00,
1000000000256624,77054849134,mAltel,mKarTel,mKarTel,,D07,2016-10-04T13:47:53+06:00,
1000000000256625,77073533888,mKarTel,mMTS,mMTS,D77,D01,2016-10-04T13:49:27+06:00,
1000000000256627,77075346982,mAltel,mMTS,mMTS,,D07,2016-10-04T13:51:59+06:00,
1000000000256628,77007774383,mKcell,mAltel,mAltel,,D02,2016-10-04T13:55:06+06:00,
1000000000256629,77771317555,mMTS,mKarTel,mKarTel,,D77,2016-10-04T13:56:50+06:00,
1000000000256632,77007773282,mKcell,mAltel,mAltel,,D02,2016-10-04T13:58:04+06:00,
1000000000256634,77052068101,mAltel,mKarTel,mKarTel,,D07,2016-10-04T13:59:42+06:00,
1000000000256635,77475007075,mKarTel,mMTS,mMTS,,D01,2016-10-04T13:59:26+06:00,
1000000000256636,77085224640,mKarTel,mMTS,mAltel,D77,D01,2016-10-04T13:59:40+06:00,
