NPId,Number,RecipientId,DonorId,RangeHolderId,OldRoute,NewRoute,PortDate,RowCount
1000000000412757,77771696906,mKarTel,mKcell,mKarTel,D02,D01,2017-06-30T11:00:05+06:00,27
1000000000412758,77756175501,mMTS,mKcell,mKcell,,D77,2017-06-30T11:00:08+06:00,
1000000000412759,77015289025,mKarTel,mKcell,mKcell,,D01,2017-06-30T11:02:10+06:00,
1000000000412760,77017582106,mKarTel,mKcell,mKcell,,D01,2017-06-30T11:02:26+06:00,
1000000000412762,77051843539,mMTS,mKarTel,mKarTel,,D77,2017-06-30T11:04:07+06:00,
1000000000412763,77012220216,mAltel,mKcell,mKcell,D02,D07,2017-06-30T11:03:54+06:00,
1000000000412764,77028972008,mKarTel,mKcell,mKcell,,D01,2017-06-30T11:04:14+06:00,
1000000000412765,77772849896,mKcell,mKarTel,mKarTel,,D02,2017-06-30T11:04:22+06:00,
1000000000412767,77058150280,mMTS,mKarTel,mKarTel,,D77,2017-06-30T11:07:56+06:00,
1000000000412769,77012239543,mMTS,mKcell,mKcell,,D77,2017-06-30T11:09:30+06:00,
1000000000412771,77019657501,mKarTel,mKcell,mKcell,,D01,2017-06-30T11:11:38+06:00,
1000000000412772,77019929868,mAltel,mKcell,mKcell,,D07,2017-06-30T11:11:54+06:00,
1000000000412773,77475142797,mKarTel,mMTS,mMTS,,D01,2017-06-30T11:14:02+06:00,
1000000000412774,77021110281,mKarTel,mKcell,mKcell,,D01,2017-06-30T11:14:48+06:00,
1000000000412776,77014059904,mKarTel,mKcell,mKcell,,D01,2017-06-30T11:15:55+06:00,
1000000000412780,77075062016,mKarTel,mMTS,mMTS,,D01,2017-06-30T11:18:50+06:00,
1000000000412782,77018011010,mMTS,mKcell,mKcell,,D77,2017-06-30T11:20:20+06:00,
1000000000412783,77028453988,mKcell,mMTS,mKcell,D77,D02,2017-06-30T11:22:05+06:00,
1000000000412784,77078191312,mKarTel,mMTS,mMTS,,D01,2017-06-30T11:23:11+06:00,
1000000000412785,77472293545,mMTS,mKarTel,mMTS,D01,D77,2017-06-30T11:23:28+06:00,
1000000000412788,77017159265,mKarTel,mKcell,mKcell,,D01,2017-06-30T11:26:51+06:00,
1000000000412789,77013131117,mMTS,mKcell,mKcell,,D77,2017-06-30T11:26:39+06:00,
1000000000412790,77753993745,mKcell,mKarTel,mKcell,D01,D02,2017-06-30T11:27:29+06:00,
1000000000412791,77076886469,mAltel,mMTS,mMTS,,D07,2017-06-30T11:27:27+06:00,
1000000000412792,77015122985,mKarTel,mKcell,mKcell,,D01,2017-06-30T11:27:57+06:00,
1000000000412794,77787771050,mKcell,mMTS,mKcell,D77,D02,2017-06-30T11:28:27+06:00,
1000000000412795,77054444435,mKcell,mKarTel,mKarTel,,D02,2017-06-30T11:29:31+06:00,
