NPId,Number,RecipientId,DonorId,RangeHolderId,OldRoute,NewRoute,PortDate,RowCount
1000000000274961,77475554683,mMTS,mAltel,mMTS,D07,D77,2016-11-09T17:00:17+06:00,26
1000000000274983,77089116827,mMTS,mAltel,mAltel,,D77,2016-11-09T17:01:09+06:00,
1000000000275253,77074443131,mMTS,mAltel,mMTS,D07,D77,2016-11-09T17:02:04+06:00,
1000000000276832,77000844407,mAltel,mKarTel,mAltel,D01,D07,2016-11-09T17:00:41+06:00,
1000000000276833,77760068988,mAltel,mKarTel,mKarTel,,D07,2016-11-09T17:01:08+06:00,
1000000000276834,77024623838,mKarTel,mKcell,mKcell,,D01,2016-11-09T17:01:10+06:00,
1000000000276835,77014973126,mAltel,mKcell,mKcell,,D07,2016-11-09T17:01:33+06:00,
1000000000276837,77012992399,mAltel,mKcell,mKcell,,D07,2016-11-09T17:02:39+06:00,
1000000000276838,77055332229,mAltel,mKarTel,mKarTel,D01,D07,2016-11-09T17:03:15+06:00,
1000000000276839,77012225802,mKarTel,mKcell,mKcell,,D01,2016-11-09T17:05:28+06:00,
1000000000276842,77781620193,mAltel,mKcell,mKcell,,D07,2016-11-09T17:09:05+06:00,
1000000000276844,77017970007,mMTS,mKcell,mKcell,,D77,2016-11-09T17:11:41+06:00,
1000000000276845,77012207053,mAltel,mKcell,mKcell,,D07,2016-11-09T17:12:07+06:00,
1000000000276846,77771776700,mKarTel,mMTS,mKarTel,D77,D01,2016-11-09T17:12:23+06:00,
1000000000276847,77015522166,mAltel,mKcell,mKcell,,D07,2016-11-09T17:13:07+06:00,
1000000000276848,77754142119,mMTS,mKcell,mKcell,,D77,2016-11-09T17:13:51+06:00,
1000000000276849,77077539920,mKcell,mMTS,mMTS,,D02,2016-11-09T17:16:25+06:00,
1000000000276850,77072805005,mKarTel,mMTS,mMTS,,D01,2016-11-09T17:16:31+06:00,
1000000000276851,77024040342,mKarTel,mKcell,mKcell,,D01,2016-11-09T17:17:04+06:00,
1000000000276853,77077066067,mKarTel,mMTS,mMTS,,D01,2016-11-09T17:19:08+06:00,
1000000000276854,77788907777,mKarTel,mKcell,mKcell,,D01,2016-11-09T17:19:39+06:00,
1000000000276855,77077788800,mKcell,mMTS,mMTS,,D02,2016-11-09T17:20:16+06:00,
1000000000276856,77025372055,mMTS,mKcell,mKcell,,D77,2016-11-09T17:21:36+06:00,
1000000000276858,77772302457,mAltel,mKarTel,mKarTel,,D07,2016-11-09T17:23:51+06:00,
1000000000276862,77018228242,mKarTel,mKcell,mKcell,,D01,2016-11-09T17:27:56+06:00,
1000000000276863,77017397223,mMTS,mKcell,mKcell,,D77,2016-11-09T17:29:02+06:00,
