NPId,Number,RecipientId,DonorId,RangeHolderId,OldRoute,NewRoute,PortDate,RowCount
1000000000341747,77019413102,mMTS,mKcell,mKcell,,D77,2017-03-06T16:01:09+06:00,26
1000000000341748,77711383232,mKcell,mKarTel,mKarTel,,D02,2017-03-06T16:01:49+06:00,
1000000000341749,77011405554,mKarTel,mKcell,mKcell,,D01,2017-03-06T16:03:22+06:00,
1000000000341750,77475290242,mAltel,mMTS,mMTS,,D07,2017-03-06T16:03:01+06:00,
1000000000341751,77781183838,mKarTel,mKcell,mKcell,,D01,2017-03-06T16:04:36+06:00,
1000000000341752,77019402135,mKcell,mMTS,mKcell,D77,D02,2017-03-06T16:05:25+06:00,
1000000000341753,77754555171,mMTS,mKcell,mKcell,,D77,2017-03-06T16:05:43+06:00,
1000000000341754,77017144054,mKarTel,mKcell,mKcell,,D01,2017-03-06T16:07:05+06:00,
1000000000341755,77078211185,mKarTel,mMTS,mMTS,,D01,2017-03-06T16:07:18+06:00,
1000000000341756,77080222767,mMTS,mAltel,mAltel,,D77,2017-03-06T16:07:06+06:00,
1000000000341757,77017880912,mMTS,mKcell,mKcell,,D77,2017-03-06T16:07:12+06:00,
1000000000341758,77016007893,mMTS,mKcell,mKcell,,D77,2017-03-06T16:07:46+06:00,
1000000000341759,77774226644,mMTS,mKarTel,mKarTel,,D77,2017-03-06T16:08:14+06:00,
1000000000341760,77077591961,mKarTel,mMTS,mMTS,,D01,2017-03-06T16:08:42+06:00,
1000000000341762,77751600067,mMTS,mKcell,mKcell,,D77,2017-03-06T16:09:41+06:00,
1000000000341764,77083410701,mKcell,mAltel,mAltel,,D02,2017-03-06T16:11:24+06:00,
1000000000341765,77029414493,mMTS,mKcell,mKcell,,D77,2017-03-06T16:11:31+06:00,
1000000000341766,77012177702,mMTS,mKcell,mKcell,,D77,2017-03-06T16:11:40+06:00,
1000000000341767,77769289990,mKcell,mKarTel,mKarTel,,D02,2017-03-06T16:13:41+06:00,
1000000000341769,77011419988,mKcell,mMTS,mKcell,D77,D02,2017-03-06T16:14:43+06:00,
1000000000341770,77771861204,mMTS,mKarTel,mKarTel,,D77,2017-03-06T16:17:08+06:00,
1000000000341771,77029919515,mKcell,mMTS,mKcell,D77,D02,2017-03-06T16:17:15+06:00,
1000000000341786,77002777977,mKcell,mAltel,mAltel,,D02,2017-03-06T16:18:22+06:00,
1000000000341943,77016088888,mKarTel,mKcell,mKcell,,D01,2017-03-06T16:26:57+06:00,
1000000000341986,77713888892,mMTS,mKarTel,mKarTel,,D77,2017-03-06T16:28:06+06:00,
1000000000342047,77014475567,mKarTel,mKcell,mKcell,,D01,2017-03-06T16:29:33+06:00,
