NPId,Number,RecipientId,DonorId,RangeHolderId,OldRoute,NewRoute,PortDate,RowCount
1000000000281496,77777772877,mKcell,mKarTel,mKarTel,,D02,2016-11-19T18:52:37+06:00,7
1000000000281497,77053050567,mKarTel,mMTS,mKarTel,D77,D01,2016-11-19T18:38:37+06:00,
1000000000281498,77782268070,mKarTel,mKcell,mKcell,,D01,2016-11-19T18:39:36+06:00,
1000000000281499,77024878337,mMTS,mKcell,mKcell,,D77,2016-11-19T18:45:25+06:00,
1000000000281500,77711192091,mAltel,mKarTel,mKarTel,,D07,2016-11-19T18:46:28+06:00,
1000000000281502,77051250505,mMTS,mKarTel,mKarTel,,D77,2016-11-19T18:52:56+06:00,
1000000000281503,77023575244,mKarTel,mKcell,mKcell,,D01,2016-11-19T18:55:55+06:00,
