NPId,Number,RecipientId,DonorId,RangeHolderId,OldRoute,NewRoute,PortDate,RowCount
1000000000191602,77781149535,mAltel,mKcell,mKcell,,D07,2016-06-11T10:32:10+06:00,11
1000000000191605,77759337124,mMTS,mKcell,mKcell,,D77,2016-06-11T10:41:26+06:00,
1000000000191606,77071170799,mKcell,mMTS,mMTS,,D02,2016-06-11T10:43:19+06:00,
1000000000191607,77018040632,mMTS,mKcell,mKcell,,D77,2016-06-11T10:44:16+06:00,
1000000000191609,77014243220,mMTS,mKcell,mKcell,,D77,2016-06-11T10:46:04+06:00,
1000000000191610,77074095709,mAltel,mMTS,mMTS,,D07,2016-06-11T10:49:43+06:00,
1000000000191611,77071555615,mAltel,mMTS,mMTS,,D07,2016-06-11T10:51:50+06:00,
1000000000191612,77054880540,mKcell,mKarTel,mKarTel,,D02,2016-06-11T10:54:59+06:00,
1000000000191613,77058016800,mKarTel,mMTS,mKarTel,D77,D01,2016-06-11T10:55:12+06:00,
1000000000191614,77021002888,mKarTel,mKcell,mKcell,,D01,2016-06-11T10:56:46+06:00,
1000000000191616,77003753621,mKcell,mAltel,mAltel,,D02,2016-06-11T10:58:38+06:00,
