NPId,Number,RecipientId,DonorId,RangeHolderId,OldRoute,NewRoute,PortDate,RowCount
1000000000314510,77770996299,mKcell,mKarTel,mKarTel,,D02,2017-01-21T19:54:09+06:00,4
1000000000314511,77071122333,mMTS,mKcell,mMTS,D02,D77,2017-01-21T19:57:51+06:00,
1000000000314512,77058192160,mMTS,mKarTel,mKarTel,,D77,2017-01-21T19:58:02+06:00,
1000000000314513,77021454546,mKarTel,mKcell,mKcell,,D01,2017-01-21T19:58:55+06:00,
