NPId,Number,RecipientId,DonorId,RangeHolderId,OldRoute,NewRoute,PortDate,RowCount
1000000000335122,77019681746,mMTS,mKarTel,mKcell,D01,D77,2017-02-25T18:00:26+06:00,18
1000000000335125,77053830001,mKarTel,mAltel,mKarTel,D07,D01,2017-02-25T18:01:13+06:00,
1000000000335133,77752661031,mKarTel,mKcell,mKcell,,D01,2017-02-25T18:07:19+06:00,
1000000000335134,77014094780,mMTS,mKcell,mKcell,,D77,2017-02-25T18:00:07+06:00,
1000000000335136,77762271599,mAltel,mMTS,mKarTel,D77,D07,2017-02-25T18:03:18+06:00,
1000000000335137,77077181087,mMTS,mKcell,mMTS,D02,D77,2017-02-25T18:03:36+06:00,
1000000000335138,77012228822,mKarTel,mKcell,mKcell,,D01,2017-02-25T18:08:20+06:00,
1000000000335141,77005556521,mKcell,mAltel,mAltel,,D02,2017-02-25T18:09:15+06:00,
1000000000335145,77005554521,mKcell,mAltel,mAltel,,D02,2017-02-25T18:15:14+06:00,
1000000000335146,77025388307,mKarTel,mKcell,mKcell,,D01,2017-02-25T18:17:18+06:00,
1000000000335147,77000989799,mKcell,mAltel,mAltel,,D02,2017-02-25T18:18:04+06:00,
1000000000335149,77010278180,mKarTel,mKcell,mKcell,,D01,2017-02-25T18:19:20+06:00,
1000000000335150,77081611802,mKarTel,mAltel,mAltel,,D01,2017-02-25T18:19:14+06:00,
1000000000335151,77053305218,mAltel,mMTS,mKarTel,D77,D07,2017-02-25T18:18:50+06:00,
1000000000335152,77026329177,mMTS,mKcell,mKcell,,D77,2017-02-25T18:19:56+06:00,
1000000000335153,77759526316,mKarTel,mKcell,mKcell,,D01,2017-02-25T18:25:13+06:00,
1000000000335154,77024185404,mKarTel,mKcell,mKcell,,D01,2017-02-25T18:25:35+06:00,
1000000000335155,77017572160,mKarTel,mKcell,mKcell,,D01,2017-02-25T18:28:41+06:00,
