NPId,Number,RecipientId,DonorId,RangeHolderId,OldRoute,NewRoute,PortDate,RowCount
1000000000048646,77012123643,mKarTel,mKcell,mKcell,,D01,2016-02-15T14:22:21+06:00,49
1000000000048646,77012123693,mKarTel,mKcell,mKcell,,D01,2016-02-15T14:22:21+06:00,
1000000000048646,77012123699,mKarTel,mKcell,mKcell,,D01,2016-02-15T14:22:21+06:00,
1000000000048646,77012123702,mKarTel,mKcell,mKcell,,D01,2016-02-15T14:22:21+06:00,
1000000000048646,77012123711,mKarTel,mKcell,mKcell,,D01,2016-02-15T14:22:21+06:00,
1000000000048646,77012145809,mKarTel,mKcell,mKcell,,D01,2016-02-15T14:22:21+06:00,
1000000000048646,77012202833,mKarTel,mKcell,mKcell,,D01,2016-02-15T14:22:21+06:00,
1000000000048705,77084982619,mKarTel,mAltel,mAltel,,D01,2016-02-15T14:01:26+06:00,
1000000000048707,77024259788,mMTS,mKcell,mKcell,,D77,2016-02-15T14:02:48+06:00,
1000000000048708,77084982633,mKarTel,mAltel,mAltel,,D01,2016-02-15T14:04:08+06:00,
1000000000048710,77011913005,mAltel,mKcell,mKcell,,D07,2016-02-15T14:04:09+06:00,
1000000000048711,77073031740,mKcell,mMTS,mMTS,,D02,2016-02-15T14:04:24+06:00,
1000000000048712,77071907990,mAltel,mMTS,mMTS,,D07,2016-02-15T14:06:24+06:00,
1000000000048713,77056046939,mMTS,mKarTel,mKarTel,,D77,2016-02-15T14:07:13+06:00,
1000000000048715,77024460094,mAltel,mKcell,mKcell,,D07,2016-02-15T14:07:15+06:00,
1000000000048717,77071112411,mAltel,mMTS,mMTS,,D07,2016-02-15T14:09:44+06:00,
1000000000048719,77072511116,mKarTel,mMTS,mMTS,,D01,2016-02-15T14:10:46+06:00,
1000000000048721,77018464645,mMTS,mKcell,mKcell,,D77,2016-02-15T14:12:21+06:00,
1000000000048722,77779318192,mAltel,mKarTel,mKarTel,,D07,2016-02-15T14:13:58+06:00,
1000000000048723,77014744343,mAltel,mKcell,mKcell,,D07,2016-02-15T14:14:18+06:00,
1000000000048724,77016208721,mAltel,mKcell,mKcell,,D07,2016-02-15T14:14:49+06:00,
1000000000048726,77714198550,mKcell,mKarTel,mKarTel,,D02,2016-02-15T14:15:44+06:00,
1000000000048727,77017996085,mAltel,mKcell,mKcell,,D07,2016-02-15T14:15:45+06:00,
1000000000048728,77074567111,mKcell,mMTS,mMTS,,D02,2016-02-15T14:15:57+06:00,
1000000000048729,77013395642,mMTS,mKcell,mKcell,,D77,2016-02-15T14:16:21+06:00,
1000000000048730,77017242333,mKarTel,mKcell,mKcell,,D01,2016-02-15T14:16:48+06:00,
1000000000048733,77074002171,mKcell,mMTS,mMTS,,D02,2016-02-15T14:17:47+06:00,
1000000000048735,77024556888,mMTS,mKcell,mKcell,,D77,2016-02-15T14:18:42+06:00,
1000000000048737,77787298949,mMTS,mKcell,mKcell,,D77,2016-02-15T14:19:18+06:00,
1000000000048738,77017690949,mAltel,mKcell,mKcell,,D07,2016-02-15T14:19:19+06:00,
1000000000048742,77756064040,mKarTel,mKcell,mKcell,,D01,2016-02-15T14:20:20+06:00,
1000000000048743,77751736666,mMTS,mKcell,mKcell,,D77,2016-02-15T14:20:36+06:00,
1000000000048744,77015249025,mMTS,mKcell,mKcell,,D77,2016-02-15T14:21:55+06:00,
1000000000048746,77765131222,mKcell,mKarTel,mKarTel,,D02,2016-02-15T14:22:47+06:00,
1000000000048748,77017719345,mKarTel,mKcell,mKcell,,D01,2016-02-15T14:23:45+06:00,
1000000000048749,77056352471,mMTS,mKarTel,mKarTel,,D77,2016-02-15T14:24:35+06:00,
1000000000048750,77017655327,mMTS,mKcell,mKcell,,D77,2016-02-15T14:24:35+06:00,
1000000000048751,77015349485,mMTS,mKcell,mKcell,,D77,2016-02-15T14:24:58+06:00,
1000000000048752,77084982618,mKarTel,mAltel,mAltel,,D01,2016-02-15T14:24:50+06:00,
1000000000048753,77772536633,mMTS,mKarTel,mKarTel,,D77,2016-02-15T14:26:30+06:00,
1000000000048758,77015377611,mMTS,mKcell,mKcell,,D77,2016-02-15T14:27:07+06:00,
1000000000048759,77052227573,mMTS,mKarTel,mKarTel,,D77,2016-02-15T14:27:01+06:00,
1000000000048761,77014179096,mMTS,mKcell,mKcell,,D77,2016-02-15T14:27:07+06:00,
1000000000048763,77084982588,mKarTel,mAltel,mAltel,,D01,2016-02-15T14:27:37+06:00,
1000000000048765,77015377612,mMTS,mKcell,mKcell,,D77,2016-02-15T14:28:39+06:00,
1000000000048766,77073622639,mKarTel,mMTS,mMTS,,D01,2016-02-15T14:28:52+06:00,
1000000000048768,77075222110,mKcell,mMTS,mMTS,,D02,2016-02-15T14:29:18+06:00,
1000000000048769,77084982593,mKarTel,mAltel,mAltel,,D01,2016-02-15T14:29:49+06:00,
1000000000048770,77015377616,mMTS,mKcell,mKcell,,D77,2016-02-15T14:29:51+06:00,
