NPId,Number,RecipientId,DonorId,RangeHolderId,OldRoute,NewRoute,PortDate,RowCount
1000000000222477,77017972445,mKarTel,mKcell,mKcell,,D01,2016-08-04T09:10:10+06:00,5
1000000000222477,77019576249,mKarTel,mKcell,mKcell,,D01,2016-08-04T09:10:10+06:00,
1000000000223076,77475550151,mKarTel,mMTS,mMTS,,D01,2016-08-04T09:02:45+06:00,
1000000000223079,77081828118,mMTS,mAltel,mAltel,,D77,2016-08-04T09:22:15+06:00,
1000000000223081,77053299103,mMTS,mKarTel,mKarTel,,D77,2016-08-04T09:28:42+06:00,
