NPId,Number,RecipientId,DonorId,RangeHolderId,OldRoute,NewRoute,PortDate,RowCount
1000000000281466,77019994153,mAltel,mKcell,mKcell,,D07,2016-11-19T17:30:18+06:00,11
1000000000281467,77769333888,mKcell,mKarTel,mKarTel,,D02,2016-11-19T17:32:14+06:00,
1000000000281468,77026428050,mMTS,mKcell,mKcell,,D77,2016-11-19T17:33:49+06:00,
1000000000281469,77714683171,mAltel,mKarTel,mKarTel,,D07,2016-11-19T17:36:35+06:00,
1000000000281471,77777240377,mKarTel,mAltel,mKarTel,D07,D01,2016-11-19T17:41:46+06:00,
1000000000281473,77005108000,mMTS,mAltel,mAltel,,D77,2016-11-19T17:43:19+06:00,
1000000000281475,77015156576,mKarTel,mKcell,mKcell,,D01,2016-11-19T17:48:55+06:00,
1000000000281476,77074270897,mKcell,mMTS,mMTS,,D02,2016-11-19T17:50:02+06:00,
1000000000281477,77083620233,mKarTel,mAltel,mAltel,,D01,2016-11-19T17:52:39+06:00,
1000000000281478,77022470679,mAltel,mKcell,mKcell,,D07,2016-11-19T17:53:12+06:00,
1000000000281480,77018913891,mKcell,mKarTel,mKcell,D01,D02,2016-11-19T17:56:07+06:00,
