NPId,Number,RecipientId,DonorId,RangeHolderId,OldRoute,NewRoute,PortDate,RowCount
1000000000362754,77018568802,mAltel,mKcell,mKcell,,D07,2017-04-09T13:31:18+06:00,14
1000000000362755,77779993852,mKcell,mKarTel,mKarTel,,D02,2017-04-09T13:32:24+06:00,
1000000000362756,77477353469,mAltel,mMTS,mMTS,,D07,2017-04-09T13:32:07+06:00,
1000000000362758,77003999007,mKarTel,mAltel,mAltel,,D01,2017-04-09T13:34:37+06:00,
1000000000362760,77089579464,mMTS,mKcell,mAltel,D02,D77,2017-04-09T13:37:54+06:00,
1000000000362762,77019431568,mMTS,mKcell,mKcell,,D77,2017-04-09T13:41:25+06:00,
1000000000362763,77022533904,mAltel,mKcell,mKcell,,D07,2017-04-09T13:44:03+06:00,
1000000000362764,77015572681,mKcell,mMTS,mKcell,D77,D02,2017-04-09T13:45:57+06:00,
1000000000362765,77013808037,mKarTel,mKcell,mKcell,,D01,2017-04-09T13:46:20+06:00,
1000000000362766,77013167610,mKcell,mAltel,mKcell,D07,D02,2017-04-09T13:48:31+06:00,
1000000000362767,77023030569,mMTS,mKcell,mKcell,,D77,2017-04-09T13:48:44+06:00,
1000000000362769,77477177620,mKarTel,mMTS,mMTS,,D01,2017-04-09T13:51:40+06:00,
1000000000362770,77788799970,mMTS,mKcell,mKcell,,D77,2017-04-09T13:53:05+06:00,
1000000000362771,77007770765,mMTS,mAltel,mAltel,,D77,2017-04-09T13:57:37+06:00,
