NPId,Number,RecipientId,DonorId,RangeHolderId,OldRoute,NewRoute,PortDate,RowCount
1000000000098890,77010292601,mKarTel,mKcell,mKcell,,D01,2016-02-25T13:04:58+06:00,40
1000000000098892,77010292603,mKarTel,mKcell,mKcell,,D01,2016-02-25T13:04:46+06:00,
1000000000098908,77077452156,mAltel,mMTS,mMTS,,D07,2016-02-25T13:00:25+06:00,
1000000000098909,77711773676,mMTS,mKarTel,mKarTel,,D77,2016-02-25T13:02:49+06:00,
1000000000098910,77770450440,mMTS,mKarTel,mKarTel,,D77,2016-02-25T13:01:44+06:00,
1000000000098912,77017991248,mAltel,mKcell,mKcell,,D07,2016-02-25T13:02:02+06:00,
1000000000098913,77079977010,mKarTel,mMTS,mMTS,,D01,2016-02-25T13:02:09+06:00,
1000000000098914,77072977939,mKarTel,mMTS,mMTS,,D01,2016-02-25T13:03:03+06:00,
1000000000098915,77478498681,mAltel,mMTS,mMTS,,D07,2016-02-25T13:03:21+06:00,
1000000000098917,77078588818,mKcell,mMTS,mMTS,,D02,2016-02-25T13:03:50+06:00,
1000000000098919,77711213004,mMTS,mKarTel,mKarTel,,D77,2016-02-25T13:05:50+06:00,
1000000000098920,77017213886,mMTS,mKcell,mKcell,,D77,2016-02-25T13:04:55+06:00,
1000000000098922,77017527514,mKarTel,mKcell,mKcell,,D01,2016-02-25T13:05:59+06:00,
1000000000098923,77073617046,mKarTel,mMTS,mMTS,,D01,2016-02-25T13:06:12+06:00,
1000000000098924,77025003381,mMTS,mKcell,mKcell,,D77,2016-02-25T13:06:09+06:00,
1000000000098925,77774388004,mMTS,mKarTel,mKarTel,,D77,2016-02-25T13:07:51+06:00,
1000000000098927,77017140866,mKarTel,mKcell,mKcell,,D01,2016-02-25T13:11:46+06:00,
1000000000098928,77711773675,mMTS,mKarTel,mKarTel,,D77,2016-02-25T13:08:57+06:00,
1000000000098931,77057914915,mMTS,mKarTel,mKarTel,,D77,2016-02-25T13:09:58+06:00,
1000000000098934,77071733000,mAltel,mMTS,mMTS,,D07,2016-02-25T13:09:23+06:00,
1000000000098935,77026701070,mKarTel,mKcell,mKcell,,D01,2016-02-25T13:10:09+06:00,
1000000000098936,77012673113,mMTS,mKcell,mKcell,,D77,2016-02-25T13:09:58+06:00,
1000000000098938,77472221288,mAltel,mMTS,mMTS,,D07,2016-02-25T13:10:09+06:00,
1000000000098939,77752085518,mMTS,mKcell,mKcell,,D77,2016-02-25T13:10:41+06:00,
1000000000098940,77012441492,mKarTel,mKcell,mKcell,,D01,2016-02-25T13:13:21+06:00,
1000000000098943,77752153926,mAltel,mKcell,mKcell,,D07,2016-02-25T13:14:58+06:00,
1000000000098944,77018889487,mKarTel,mKcell,mKcell,,D01,2016-02-25T13:15:51+06:00,
1000000000098946,77084983269,mKcell,mAltel,mAltel,,D02,2016-02-25T13:16:19+06:00,
1000000000098948,77013959970,mKarTel,mKcell,mKcell,,D01,2016-02-25T13:18:33+06:00,
1000000000098949,77751111616,mKarTel,mKcell,mKcell,,D01,2016-02-25T13:19:50+06:00,
1000000000098950,77089245863,mKcell,mAltel,mAltel,,D02,2016-02-25T13:19:54+06:00,
1000000000098953,77017881079,mKarTel,mKcell,mKcell,,D01,2016-02-25T13:21:26+06:00,
1000000000098954,77756998885,mAltel,mKcell,mKcell,,D07,2016-02-25T13:23:09+06:00,
1000000000098955,77017210236,mAltel,mKcell,mKcell,,D07,2016-02-25T13:25:10+06:00,
1000000000098956,77013786332,mMTS,mKcell,mKcell,,D77,2016-02-25T13:26:11+06:00,
1000000000098957,77057688266,mMTS,mKarTel,mKarTel,,D77,2016-02-25T13:26:48+06:00,
1000000000098958,77017194254,mMTS,mKcell,mKcell,,D77,2016-02-25T13:26:59+06:00,
1000000000098960,77017588783,mMTS,mKcell,mKcell,,D77,2016-02-25T13:27:18+06:00,
1000000000098961,77762024003,mKcell,mKarTel,mKarTel,,D02,2016-02-25T13:29:40+06:00,
1000000000098962,77084983242,mKcell,mAltel,mAltel,,D02,2016-02-25T13:29:58+06:00,
