NPId,Number,RecipientId,DonorId,RangeHolderId,OldRoute,NewRoute,PortDate,RowCount
1000000000331798,77753967094,mMTS,mKcell,mKcell,,D77,2017-02-20T15:30:41+06:00,22
1000000000331799,77754449292,mAltel,mKcell,mKcell,,D07,2017-02-20T15:31:47+06:00,
1000000000331800,77474728718,mMTS,mKarTel,mMTS,D01,D77,2017-02-20T15:32:01+06:00,
1000000000331801,77759297245,mKarTel,mKcell,mKcell,,D01,2017-02-20T15:32:59+06:00,
1000000000331803,77772485376,mKarTel,mMTS,mKarTel,D77,D01,2017-02-20T15:35:18+06:00,
1000000000331806,77776664048,mAltel,mKarTel,mKarTel,,D07,2017-02-20T15:37:33+06:00,
1000000000331808,77012226019,mKarTel,mKcell,mKcell,,D01,2017-02-20T15:40:56+06:00,
1000000000331809,77027988977,mKarTel,mKcell,mKcell,,D01,2017-02-20T15:41:23+06:00,
1000000000331811,77075199991,mMTS,mAltel,mMTS,D07,D77,2017-02-20T15:44:49+06:00,
1000000000331812,77015551106,mKarTel,mKcell,mKcell,,D01,2017-02-20T15:45:46+06:00,
1000000000331813,77013639936,mMTS,mKcell,mKcell,,D77,2017-02-20T15:45:37+06:00,
1000000000331814,77472899999,mKarTel,mKcell,mMTS,D02,D01,2017-02-20T15:47:08+06:00,
1000000000331816,77763030050,mAltel,mKarTel,mKarTel,,D07,2017-02-20T15:48:01+06:00,
1000000000331817,77782558928,mMTS,mKcell,mKcell,,D77,2017-02-20T15:47:52+06:00,
1000000000331818,77772287828,mMTS,mKarTel,mKarTel,,D77,2017-02-20T15:48:12+06:00,
1000000000331820,77757025222,mMTS,mKcell,mKcell,,D77,2017-02-20T15:50:08+06:00,
1000000000331822,77779470900,mAltel,mKcell,mKarTel,D02,D07,2017-02-20T15:51:18+06:00,
1000000000331824,77761377999,mMTS,mKarTel,mKarTel,,D77,2017-02-20T15:52:44+06:00,
1000000000331825,77761187887,mKcell,mKarTel,mKarTel,,D02,2017-02-20T15:54:18+06:00,
1000000000331826,77775624342,mMTS,mKarTel,mKarTel,,D77,2017-02-20T15:55:10+06:00,
1000000000331830,77017677721,mMTS,mKcell,mKcell,,D77,2017-02-20T15:57:10+06:00,
1000000000331831,77051967551,mMTS,mKarTel,mKarTel,,D77,2017-02-20T15:58:11+06:00,
