NPId,Number,RecipientId,DonorId,RangeHolderId,OldRoute,NewRoute,PortDate,RowCount
1000000000311735,77072979928,mKarTel,mMTS,mMTS,,D01,2017-01-17T09:32:42+06:00,7
1000000000311736,77711007310,mMTS,mKarTel,mKarTel,,D77,2017-01-17T09:35:24+06:00,
1000000000311737,77057608890,mMTS,mKcell,mKarTel,D02,D77,2017-01-17T09:42:34+06:00,
1000000000311738,77072581161,mKarTel,mMTS,mMTS,,D01,2017-01-17T09:45:13+06:00,
1000000000311739,77755299397,mKcell,mKarTel,mKcell,D01,D02,2017-01-17T09:47:41+06:00,
1000000000311740,77782223863,mKcell,mAltel,mKcell,D07,D02,2017-01-17T09:48:17+06:00,
1000000000311742,77003240603,mKarTel,mAltel,mAltel,,D01,2017-01-17T09:55:02+06:00,
