NPId,Number,RecipientId,DonorId,RangeHolderId,OldRoute,NewRoute,PortDate,RowCount
1000000000199612,77014457064,mAltel,mKcell,mKcell,,D07,2016-06-25T12:31:13+06:00,31
1000000000199613,77014158215,mMTS,mKcell,mKcell,,D77,2016-06-25T12:31:28+06:00,
1000000000199614,77017608512,mMTS,mKcell,mKcell,,D77,2016-06-25T12:32:11+06:00,
1000000000199615,77786024372,mMTS,mKcell,mKcell,,D77,2016-06-25T12:32:13+06:00,
1000000000199616,77771230058,mMTS,mKarTel,mKarTel,,D77,2016-06-25T12:32:43+06:00,
1000000000199617,77056530877,mKarTel,mMTS,mKarTel,D77,D01,2016-06-25T12:33:51+06:00,
1000000000199618,77714514907,mAltel,mKarTel,mKarTel,,D07,2016-06-25T12:34:19+06:00,
1000000000199619,77772625172,mMTS,mKarTel,mKarTel,,D77,2016-06-25T12:35:38+06:00,
1000000000199621,77017714534,mMTS,mKarTel,mKcell,D01,D77,2016-06-25T12:36:37+06:00,
1000000000199623,77718888068,mKcell,mKarTel,mKarTel,,D02,2016-06-25T12:37:26+06:00,
1000000000199625,77017200331,mKarTel,mKcell,mKcell,,D01,2016-06-25T12:37:42+06:00,
1000000000199626,77786098585,mMTS,mKcell,mKcell,,D77,2016-06-25T12:37:43+06:00,
1000000000199627,77056138806,mMTS,mKarTel,mKarTel,,D77,2016-06-25T12:38:16+06:00,
1000000000199628,77772452414,mKcell,mKarTel,mKarTel,,D02,2016-06-25T12:40:52+06:00,
1000000000199629,77017510965,mKcell,mMTS,mKcell,D77,D02,2016-06-25T12:40:51+06:00,
1000000000199630,77072471111,mKcell,mMTS,mMTS,,D02,2016-06-25T12:40:53+06:00,
1000000000199632,77753567216,mKcell,mAltel,mKcell,D07,D02,2016-06-25T12:41:40+06:00,
1000000000199633,77782775777,mKarTel,mKcell,mKcell,,D01,2016-06-25T12:45:42+06:00,
1000000000199634,77479832553,mAltel,mMTS,mMTS,,D07,2016-06-25T12:47:18+06:00,
1000000000199635,77018311229,mMTS,mKcell,mKcell,,D77,2016-06-25T12:48:24+06:00,
1000000000199636,77052229232,mAltel,mKarTel,mKarTel,,D07,2016-06-25T12:49:13+06:00,
1000000000199638,77476663342,mMTS,mAltel,mMTS,D07,D77,2016-06-25T12:49:31+06:00,
1000000000199639,77019805588,mAltel,mKcell,mKcell,,D07,2016-06-25T12:50:35+06:00,
1000000000199640,77089112865,mMTS,mAltel,mAltel,,D77,2016-06-25T12:52:11+06:00,
1000000000199641,77072910309,mKcell,mMTS,mMTS,,D02,2016-06-25T12:52:48+06:00,
1000000000199642,77089070055,mMTS,mAltel,mAltel,,D77,2016-06-25T12:52:33+06:00,
1000000000199643,77770172295,mAltel,mKarTel,mKarTel,,D07,2016-06-25T12:53:54+06:00,
1000000000199646,77051845326,mAltel,mKarTel,mKarTel,,D07,2016-06-25T12:58:44+06:00,
1000000000199648,77762425375,mKarTel,mAltel,mKarTel,D07,D01,2016-06-25T12:58:54+06:00,
1000000000199649,77013036797,mMTS,mKcell,mKcell,,D77,2016-06-25T12:59:56+06:00,
1000000000199650,77078999509,mAltel,mMTS,mMTS,,D07,2016-06-25T12:59:36+06:00,
