NPId,Number,RecipientId,DonorId,RangeHolderId,OldRoute,NewRoute,PortDate,RowCount
1000000000303184,77776746666,mKarTel,mKcell,mKarTel,D02,D01,2016-12-29T20:32:58+06:00,7
1000000000303185,77024442996,mKcell,mMTS,mKcell,D77,D02,2016-12-29T20:34:59+06:00,
1000000000303186,77058704463,mMTS,mKarTel,mKarTel,,D77,2016-12-29T20:42:58+06:00,
1000000000303187,77058704391,mMTS,mKarTel,mKarTel,,D77,2016-12-29T20:47:59+06:00,
1000000000303188,77009996111,mKcell,mAltel,mAltel,,D02,2016-12-29T20:49:32+06:00,
1000000000303190,77788383858,mMTS,mKcell,mKcell,,D77,2016-12-29T20:52:54+06:00,
1000000000303191,77058704368,mMTS,mKarTel,mKarTel,,D77,2016-12-29T20:57:53+06:00,
