NPId,Number,RecipientId,DonorId,RangeHolderId,OldRoute,NewRoute,PortDate,RowCount
1000000000200183,77783014354,mMTS,mKcell,mKcell,,D77,2016-06-26T15:01:30+06:00,19
1000000000200184,77772121367,mKcell,mKarTel,mKarTel,,D02,2016-06-26T15:06:45+06:00,
1000000000200186,77781075559,mAltel,mKcell,mKcell,,D07,2016-06-26T15:08:03+06:00,
1000000000200187,77089686788,mMTS,mAltel,mAltel,,D77,2016-06-26T15:05:18+06:00,
1000000000200189,77056617246,mMTS,mKarTel,mKarTel,,D77,2016-06-26T15:06:37+06:00,
1000000000200190,77770100107,mKcell,mKarTel,mKarTel,,D02,2016-06-26T15:08:10+06:00,
1000000000200191,77757807203,mMTS,mKcell,mKcell,,D77,2016-06-26T15:07:40+06:00,
1000000000200192,77756334630,mMTS,mKcell,mKcell,,D77,2016-06-26T15:07:43+06:00,
1000000000200193,77012184667,mKcell,mAltel,mKcell,D07,D02,2016-06-26T15:09:34+06:00,
1000000000200194,77771482529,mMTS,mKarTel,mKarTel,,D77,2016-06-26T15:12:29+06:00,
1000000000200195,77028200604,mMTS,mKcell,mKcell,,D77,2016-06-26T15:13:42+06:00,
1000000000200197,77017041918,mKcell,mMTS,mKcell,D77,D02,2016-06-26T15:19:06+06:00,
1000000000200198,77016066290,mAltel,mKcell,mKcell,,D07,2016-06-26T15:19:57+06:00,
1000000000200199,77073835752,mAltel,mMTS,mMTS,,D07,2016-06-26T15:22:02+06:00,
1000000000200200,77001337000,mMTS,mAltel,mAltel,,D77,2016-06-26T15:22:09+06:00,
1000000000200201,77716951900,mMTS,mKarTel,mKarTel,,D77,2016-06-26T15:22:58+06:00,
1000000000200203,77772297252,mKarTel,mMTS,mKarTel,D77,D01,2016-06-26T15:23:29+06:00,
1000000000200205,77073016633,mKarTel,mMTS,mMTS,,D01,2016-06-26T15:26:57+06:00,
1000000000200206,77072121185,mMTS,mKcell,mMTS,D02,D77,2016-06-26T15:27:06+06:00,
