NPId,Number,RecipientId,DonorId,RangeHolderId,OldRoute,NewRoute,PortDate,RowCount
1000000000138084,77772978999,mMTS,mKarTel,mKarTel,,D77,2016-03-31T13:02:18+06:00,43
1000000000138086,77005576701,mKcell,mAltel,mAltel,,D02,2016-03-31T13:02:29+06:00,
1000000000138088,77784380808,mKarTel,mKcell,mKcell,,D01,2016-03-31T13:03:11+06:00,
1000000000138089,77022595617,mMTS,mKarTel,mKcell,D01,D77,2016-03-31T13:03:38+06:00,
1000000000138090,77019159185,mAltel,mKcell,mKcell,,D07,2016-03-31T13:03:39+06:00,
1000000000138092,77784589853,mAltel,mKcell,mKcell,,D07,2016-03-31T13:05:40+06:00,
1000000000138093,77017344594,mAltel,mKcell,mKcell,,D07,2016-03-31T13:05:40+06:00,
1000000000138094,77017201264,mMTS,mKcell,mKcell,,D77,2016-03-31T13:05:39+06:00,
1000000000138096,77081296529,mKcell,mAltel,mAltel,,D02,2016-03-31T13:06:08+06:00,
1000000000138098,77472345678,mMTS,mKarTel,mMTS,D01,D77,2016-03-31T13:07:38+06:00,
1000000000138100,77089471639,mMTS,mAltel,mAltel,,D77,2016-03-31T13:09:39+06:00,
1000000000138101,77015430739,mKarTel,mKcell,mKcell,,D01,2016-03-31T13:10:41+06:00,
1000000000138102,77771911051,mMTS,mKarTel,mKarTel,,D77,2016-03-31T13:11:11+06:00,
1000000000138103,77011233320,mKarTel,mKcell,mKcell,,D01,2016-03-31T13:13:22+06:00,
1000000000138105,77054442273,mMTS,mKarTel,mKarTel,,D77,2016-03-31T13:13:53+06:00,
1000000000138106,77770081199,mKcell,mKarTel,mKarTel,,D02,2016-03-31T13:14:37+06:00,
1000000000138107,77778822583,mKcell,mKarTel,mKarTel,,D02,2016-03-31T13:14:37+06:00,
1000000000138108,77082706015,mKcell,mAltel,mAltel,,D02,2016-03-31T13:13:34+06:00,
1000000000138109,77766996666,mKcell,mKarTel,mKarTel,,D02,2016-03-31T13:14:38+06:00,
1000000000138110,77013777447,mMTS,mKcell,mKcell,,D77,2016-03-31T13:13:54+06:00,
1000000000138112,77756611111,mKarTel,mAltel,mKcell,D07,D01,2016-03-31T13:14:45+06:00,
1000000000138113,77775387652,mMTS,mKarTel,mKarTel,,D77,2016-03-31T13:15:41+06:00,
1000000000138115,77772302423,mAltel,mKarTel,mKarTel,,D07,2016-03-31T13:17:00+06:00,
1000000000138116,77085526107,mMTS,mAltel,mAltel,,D77,2016-03-31T13:16:56+06:00,
1000000000138117,77082762015,mKcell,mAltel,mAltel,,D02,2016-03-31T13:17:24+06:00,
1000000000138118,77018405500,mKcell,mAltel,mKcell,D07,D02,2016-03-31T13:17:24+06:00,
1000000000138119,77766119441,mMTS,mKarTel,mKarTel,,D77,2016-03-31T13:18:49+06:00,
1000000000138120,77071050245,mKcell,mMTS,mMTS,,D02,2016-03-31T13:18:18+06:00,
1000000000138121,77787282108,mAltel,mKarTel,mKcell,D01,D07,2016-03-31T13:19:15+06:00,
1000000000138123,77785583333,mMTS,mKcell,mKcell,,D77,2016-03-31T13:18:20+06:00,
1000000000138124,77752821200,mAltel,mKcell,mKcell,,D07,2016-03-31T13:18:21+06:00,
1000000000138125,77023154791,mMTS,mKcell,mKcell,,D77,2016-03-31T13:19:20+06:00,
1000000000138127,77782961359,mMTS,mKcell,mKcell,,D77,2016-03-31T13:21:13+06:00,
1000000000138128,77014569447,mAltel,mKcell,mKcell,,D07,2016-03-31T13:21:34+06:00,
1000000000138130,77755023358,mMTS,mKcell,mKcell,,D77,2016-03-31T13:22:56+06:00,
1000000000138131,77018321010,mAltel,mKcell,mKcell,,D07,2016-03-31T13:22:56+06:00,
1000000000138132,77770070141,mMTS,mKarTel,mKarTel,,D77,2016-03-31T13:24:14+06:00,
1000000000138133,77025309595,mMTS,mKcell,mKcell,,D77,2016-03-31T13:23:32+06:00,
1000000000138134,77758888177,mMTS,mKcell,mKcell,,D77,2016-03-31T13:23:32+06:00,
1000000000138135,77013583270,mKarTel,mKcell,mKcell,,D01,2016-03-31T13:24:39+06:00,
1000000000138137,77072561345,mKcell,mMTS,mMTS,,D02,2016-03-31T13:25:11+06:00,
1000000000138139,77781588878,mMTS,mKcell,mKcell,,D77,2016-03-31T13:28:46+06:00,
1000000000138140,77011002027,mMTS,mKcell,mKcell,,D77,2016-03-31T13:29:10+06:00,
