NPId,Number,RecipientId,DonorId,RangeHolderId,OldRoute,NewRoute,PortDate,RowCount
1000000000169527,77759003046,mKarTel,mMTS,mKcell,D77,D01,2016-05-07T11:32:04+06:00,27
1000000000169528,77781883773,mMTS,mKcell,mKcell,,D77,2016-05-07T11:32:39+06:00,
1000000000169529,77012328008,mKarTel,mKcell,mKcell,,D01,2016-05-07T11:33:52+06:00,
1000000000169530,77712617272,mKcell,mKarTel,mKarTel,,D02,2016-05-07T11:35:21+06:00,
1000000000169531,77023650878,mAltel,mKcell,mKcell,,D07,2016-05-07T11:34:35+06:00,
1000000000169532,77002452645,mMTS,mAltel,mAltel,,D77,2016-05-07T11:35:53+06:00,
1000000000169533,77757000383,mKarTel,mKcell,mKcell,,D01,2016-05-07T11:37:16+06:00,
1000000000169534,77003606060,mMTS,mAltel,mAltel,,D77,2016-05-07T11:37:03+06:00,
1000000000169535,77753735992,mKarTel,mKcell,mKcell,,D01,2016-05-07T11:38:44+06:00,
1000000000169536,77089050663,mKarTel,mAltel,mAltel,,D01,2016-05-07T11:38:39+06:00,
1000000000169537,77007077030,mKarTel,mAltel,mAltel,,D01,2016-05-07T11:39:07+06:00,
1000000000169538,77017461107,mMTS,mKcell,mKcell,,D77,2016-05-07T11:39:29+06:00,
1000000000169539,77053303700,mMTS,mKarTel,mKarTel,,D77,2016-05-07T11:40:17+06:00,
1000000000169540,77775714222,mMTS,mKarTel,mKarTel,,D77,2016-05-07T11:40:17+06:00,
1000000000169541,77473729922,mMTS,mAltel,mMTS,D07,D77,2016-05-07T11:40:42+06:00,
1000000000169542,77052511811,mMTS,mKarTel,mKarTel,,D77,2016-05-07T11:42:12+06:00,
1000000000169546,77025005532,mKcell,mMTS,mKcell,D77,D02,2016-05-07T11:46:21+06:00,
1000000000169547,77770300018,mMTS,mKarTel,mKarTel,,D77,2016-05-07T11:46:28+06:00,
1000000000169549,77764440336,mMTS,mKarTel,mKarTel,,D77,2016-05-07T11:49:19+06:00,
1000000000169550,77003777774,mMTS,mAltel,mAltel,,D77,2016-05-07T11:49:27+06:00,
1000000000169551,77781894888,mKarTel,mKcell,mKcell,,D01,2016-05-07T11:52:44+06:00,
1000000000169554,77012573084,mKcell,mMTS,mKcell,D77,D02,2016-05-07T11:54:03+06:00,
1000000000169558,77000002080,mKarTel,mAltel,mAltel,,D01,2016-05-07T11:56:45+06:00,
1000000000169559,77051135959,mKarTel,mAltel,mKarTel,D07,D01,2016-05-07T11:57:07+06:00,
1000000000169561,77009909038,mKarTel,mAltel,mAltel,,D01,2016-05-07T11:57:39+06:00,
1000000000169562,77083045485,mMTS,mAltel,mAltel,,D77,2016-05-07T11:58:56+06:00,
1000000000169563,77087723500,mMTS,mAltel,mAltel,,D77,2016-05-07T11:59:02+06:00,
