NPId,Number,RecipientId,DonorId,RangeHolderId,OldRoute,NewRoute,PortDate,RowCount
1000000000302008,77015577583,mKcell,mMTS,mKcell,D77,D02,2016-12-28T12:30:08+06:00,21
1000000000302010,77003782499,mAltel,mKarTel,mAltel,D01,D07,2016-12-28T12:32:00+06:00,
1000000000302011,77053553733,mMTS,mKarTel,mKarTel,,D77,2016-12-28T12:32:07+06:00,
1000000000302012,77019838285,mAltel,mKcell,mKcell,,D07,2016-12-28T12:32:06+06:00,
1000000000302014,77476129170,mKcell,mMTS,mMTS,,D02,2016-12-28T12:33:16+06:00,
1000000000302015,77772333312,mMTS,mKarTel,mKarTel,,D77,2016-12-28T12:33:39+06:00,
1000000000302017,77026558040,mKcell,mAltel,mKcell,D07,D02,2016-12-28T12:34:39+06:00,
1000000000302018,77789197343,mKcell,mMTS,mKcell,D77,D02,2016-12-28T12:34:36+06:00,
1000000000302019,77789025595,mKcell,mMTS,mKcell,D77,D02,2016-12-28T12:35:01+06:00,
1000000000302021,77017881007,mKarTel,mKcell,mKcell,,D01,2016-12-28T12:41:43+06:00,
1000000000302022,77001714381,mMTS,mAltel,mAltel,,D77,2016-12-28T12:41:40+06:00,
1000000000302024,77754666980,mKcell,mMTS,mKcell,D77,D02,2016-12-28T12:42:43+06:00,
1000000000302025,77028934771,mMTS,mKcell,mKcell,,D77,2016-12-28T12:43:04+06:00,
1000000000302026,77076233635,mKarTel,mMTS,mMTS,,D01,2016-12-28T12:45:09+06:00,
1000000000302028,77025493937,mAltel,mKcell,mKcell,,D07,2016-12-28T12:46:52+06:00,
1000000000302029,77779960653,mKarTel,mAltel,mKarTel,D07,D01,2016-12-28T12:47:18+06:00,
1000000000302030,77051457029,mMTS,mAltel,mKarTel,D07,D77,2016-12-28T12:47:39+06:00,
1000000000302031,77077211213,mAltel,mMTS,mMTS,,D07,2016-12-28T12:49:00+06:00,
1000000000302032,77714365435,mMTS,mKarTel,mKarTel,,D77,2016-12-28T12:52:59+06:00,
1000000000302034,77477952025,mKcell,mMTS,mMTS,,D02,2016-12-28T12:54:15+06:00,
1000000000302035,77776767376,mKcell,mMTS,mKarTel,D77,D02,2016-12-28T12:58:27+06:00,
