NPId,Number,RecipientId,DonorId,RangeHolderId,OldRoute,NewRoute,PortDate,RowCount
1000000000413793,77057450918,mKcell,mKarTel,mKarTel,,D02,2017-07-01T12:02:19+06:00,27
1000000000413837,77057450631,mKcell,mKarTel,mKarTel,,D02,2017-07-01T12:26:52+06:00,
1000000000413889,77077573088,mAltel,mMTS,mMTS,,D07,2017-07-01T12:01:02+06:00,
1000000000413890,77015294912,mAltel,mKcell,mKcell,,D07,2017-07-01T12:01:22+06:00,
1000000000413892,77713353937,mMTS,mKarTel,mKarTel,,D77,2017-07-01T12:04:22+06:00,
1000000000413893,77077107777,mKarTel,mMTS,mMTS,,D01,2017-07-01T12:02:44+06:00,
1000000000413894,77753915508,mAltel,mKarTel,mKcell,D01,D07,2017-07-01T12:05:01+06:00,
1000000000413895,77019699009,mKarTel,mKcell,mKcell,,D01,2017-07-01T12:03:51+06:00,
1000000000413896,77777439191,mMTS,mAltel,mKarTel,D07,D77,2017-07-01T12:02:49+06:00,
1000000000413900,77002822396,mKarTel,mAltel,mAltel,,D01,2017-07-01T12:07:14+06:00,
1000000000413901,77771455337,mMTS,mKarTel,mKarTel,D01,D77,2017-07-01T12:09:26+06:00,
1000000000413904,77015379913,mAltel,mKcell,mKcell,,D07,2017-07-01T12:07:57+06:00,
1000000000413906,77770059860,mKcell,mMTS,mKarTel,D77,D02,2017-07-01T12:11:23+06:00,
1000000000413906,77770059937,mKcell,mMTS,mKarTel,D77,D02,2017-07-01T12:11:23+06:00,
1000000000413908,77718552255,mMTS,mKarTel,mKarTel,,D77,2017-07-01T12:15:44+06:00,
1000000000413909,77055791889,mMTS,mKarTel,mKarTel,,D77,2017-07-01T12:16:08+06:00,
1000000000413910,77012241518,mKarTel,mKcell,mKcell,,D01,2017-07-01T12:17:50+06:00,
1000000000413912,77076511222,mAltel,mMTS,mMTS,,D07,2017-07-01T12:17:35+06:00,
1000000000413913,77755227729,mKarTel,mKcell,mKcell,,D01,2017-07-01T12:18:55+06:00,
1000000000413915,77012273826,mKarTel,mKcell,mKcell,,D01,2017-07-01T12:18:59+06:00,
1000000000413916,77075070750,mAltel,mMTS,mMTS,,D07,2017-07-01T12:17:53+06:00,
1000000000413917,77772117733,mMTS,mKarTel,mKarTel,,D77,2017-07-01T12:21:31+06:00,
1000000000413918,77755555011,mMTS,mKcell,mKcell,,D77,2017-07-01T12:18:55+06:00,
1000000000413919,77781616555,mMTS,mKcell,mKcell,,D77,2017-07-01T12:19:15+06:00,
1000000000413920,77017289592,mMTS,mKcell,mKcell,,D77,2017-07-01T12:20:07+06:00,
1000000000413921,77713366577,mKcell,mKarTel,mKarTel,,D02,2017-07-01T12:23:33+06:00,
1000000000413923,77750199191,mKarTel,mKcell,mKcell,,D01,2017-07-01T12:21:49+06:00,
