NPId,Number,RecipientId,DonorId,RangeHolderId,OldRoute,NewRoute,PortDate,RowCount
1000000000359460,77014873490,mKarTel,mKcell,mKcell,,D01,2017-04-04T14:32:00+06:00,29
1000000000359461,77012900808,mKarTel,mKcell,mKcell,,D01,2017-04-04T14:32:42+06:00,
1000000000359462,77471211118,mAltel,mMTS,mMTS,,D07,2017-04-04T14:33:02+06:00,
1000000000359464,77761997107,mKcell,mKarTel,mKarTel,,D02,2017-04-04T14:36:29+06:00,
1000000000359466,77019550005,mKcell,mKarTel,mKcell,D01,D02,2017-04-04T14:36:57+06:00,
1000000000359467,77012381188,mKarTel,mKcell,mKcell,,D01,2017-04-04T14:36:41+06:00,
1000000000359470,77076140403,mKcell,mMTS,mMTS,,D02,2017-04-04T14:37:31+06:00,
1000000000359471,77055475656,mMTS,mKarTel,mKarTel,,D77,2017-04-04T14:37:50+06:00,
1000000000359472,77778167779,mKcell,mKarTel,mKarTel,,D02,2017-04-04T14:39:18+06:00,
1000000000359473,77011077447,mMTS,mKcell,mKcell,,D77,2017-04-04T14:39:10+06:00,
1000000000359474,77778657208,mKarTel,mKcell,mKarTel,D02,D01,2017-04-04T14:41:12+06:00,
1000000000359476,77013745575,mKarTel,mKcell,mKcell,,D01,2017-04-04T14:42:40+06:00,
1000000000359477,77028524692,mKcell,mKarTel,mKcell,D01,D02,2017-04-04T14:43:13+06:00,
1000000000359478,77054603484,mMTS,mKarTel,mKarTel,,D77,2017-04-04T14:43:05+06:00,
1000000000359479,77025225710,mKcell,mKarTel,mKcell,D01,D02,2017-04-04T14:44:35+06:00,
1000000000359481,77082912931,mKcell,mAltel,mAltel,,D02,2017-04-04T14:45:03+06:00,
1000000000359482,77021074013,mMTS,mKcell,mKcell,,D77,2017-04-04T14:47:34+06:00,
1000000000359484,77029191761,mKarTel,mMTS,mKcell,D77,D01,2017-04-04T14:49:13+06:00,
1000000000359487,77778002660,mAltel,mKarTel,mKarTel,,D07,2017-04-04T14:50:17+06:00,
1000000000359488,77082912938,mKcell,mAltel,mAltel,,D02,2017-04-04T14:51:15+06:00,
1000000000359489,77014683969,mKcell,mMTS,mKcell,D77,D02,2017-04-04T14:51:18+06:00,
1000000000359490,77772344646,mMTS,mKarTel,mKarTel,,D77,2017-04-04T14:53:43+06:00,
1000000000359491,77777723049,mMTS,mKarTel,mKarTel,,D77,2017-04-04T14:53:43+06:00,
1000000000359492,77757977779,mKcell,mKarTel,mKcell,D01,D02,2017-04-04T14:53:57+06:00,
1000000000359493,77018626929,mMTS,mKcell,mKcell,,D77,2017-04-04T14:53:46+06:00,
1000000000359496,77023374346,mKcell,mMTS,mKcell,D77,D02,2017-04-04T14:55:49+06:00,
1000000000359497,77026066669,mMTS,mKcell,mKcell,,D77,2017-04-04T14:56:11+06:00,
1000000000359499,77775310280,mMTS,mKarTel,mKarTel,,D77,2017-04-04T14:59:35+06:00,
1000000000359500,77075547012,mKarTel,mMTS,mMTS,,D01,2017-04-04T14:59:42+06:00,
