NPId,Number,RecipientId,DonorId,RangeHolderId,OldRoute,NewRoute,PortDate,RowCount
1000000000003354,77770185732,mMTS,mKarTel,mKarTel,,D77,2016-01-08T01:36:56+06:00,2
1000000000003355,77017774324,mMTS,mKcell,mKcell,,D77,2016-01-08T01:51:46+06:00,
