NPId,Number,RecipientId,DonorId,RangeHolderId,OldRoute,NewRoute,PortDate,RowCount
1000000000233713,77777730375,mMTS,mKarTel,mKarTel,,D77,2016-08-24T18:30:53+06:00,13
1000000000233714,77015327831,mKarTel,mKcell,mKcell,,D01,2016-08-24T18:32:06+06:00,
1000000000233716,77014253231,mKarTel,mKcell,mKcell,,D01,2016-08-24T18:34:18+06:00,
1000000000233718,77016431259,mMTS,mKcell,mKcell,,D77,2016-08-24T18:35:42+06:00,
1000000000233719,77081995170,mKcell,mAltel,mAltel,,D02,2016-08-24T18:37:08+06:00,
1000000000233721,77089537182,mKcell,mAltel,mAltel,,D02,2016-08-24T18:40:21+06:00,
1000000000233722,77022887712,mKcell,mAltel,mKcell,D07,D02,2016-08-24T18:40:43+06:00,
1000000000233723,77027024608,mMTS,mKcell,mKcell,,D77,2016-08-24T18:42:27+06:00,
1000000000233724,77012747718,mKarTel,mKcell,mKcell,,D01,2016-08-24T18:51:23+06:00,
1000000000233725,77776253840,mMTS,mKarTel,mKarTel,,D77,2016-08-24T18:49:38+06:00,
1000000000233726,77076078383,mKarTel,mMTS,mMTS,,D01,2016-08-24T18:50:15+06:00,
1000000000233728,77015441443,mKarTel,mKcell,mKcell,,D01,2016-08-24T18:55:42+06:00,
1000000000233729,77756163777,mMTS,mKcell,mKcell,,D77,2016-08-24T18:55:29+06:00,
