NPId,Number,RecipientId,DonorId,RangeHolderId,OldRoute,NewRoute,PortDate,RowCount
1000000000344316,77077392112,mKarTel,mMTS,mMTS,,D01,2017-03-10T14:00:44+06:00,21
1000000000344317,77088701013,mMTS,mAltel,mAltel,,D77,2017-03-10T14:00:41+06:00,
1000000000344318,77013392544,mMTS,mKcell,mKcell,,D77,2017-03-10T14:01:51+06:00,
1000000000344320,77083121264,mKcell,mAltel,mAltel,,D02,2017-03-10T14:02:31+06:00,
1000000000344321,77017809453,mMTS,mKcell,mKcell,,D77,2017-03-10T14:03:20+06:00,
1000000000344322,77765466662,mKarTel,mKcell,mKarTel,D02,D01,2017-03-10T14:04:41+06:00,
1000000000344324,77014183456,mMTS,mKcell,mKcell,,D77,2017-03-10T14:07:52+06:00,
1000000000344326,77753391883,mMTS,mKcell,mKcell,,D77,2017-03-10T14:12:19+06:00,
1000000000344327,77012996350,mKarTel,mKcell,mKcell,,D01,2017-03-10T14:12:34+06:00,
1000000000344328,77778010777,mAltel,mKarTel,mKarTel,,D07,2017-03-10T14:13:00+06:00,
1000000000344329,77074770107,mAltel,mMTS,mMTS,,D07,2017-03-10T14:12:50+06:00,
1000000000344330,77071204466,mKarTel,mMTS,mMTS,D77,D01,2017-03-10T14:13:23+06:00,
1000000000344331,77059820555,mMTS,mKarTel,mKarTel,,D77,2017-03-10T14:14:02+06:00,
1000000000344333,77012181157,mMTS,mKcell,mKcell,,D77,2017-03-10T14:15:35+06:00,
1000000000344335,77016486840,mKarTel,mKcell,mKcell,,D01,2017-03-10T14:16:48+06:00,
1000000000344336,77472826792,mMTS,mKarTel,mMTS,D01,D77,2017-03-10T14:17:32+06:00,
1000000000344337,77056131544,mMTS,mKarTel,mKarTel,,D77,2017-03-10T14:18:07+06:00,
1000000000344338,77022220395,mKarTel,mKcell,mKcell,,D01,2017-03-10T14:19:25+06:00,
1000000000344339,77751715577,mKarTel,mKcell,mKcell,,D01,2017-03-10T14:25:45+06:00,
1000000000344342,77754126999,mMTS,mKcell,mKcell,,D77,2017-03-10T14:25:30+06:00,
1000000000344346,77000999368,mKcell,mAltel,mAltel,,D02,2017-03-10T14:27:59+06:00,
