NPId,Number,RecipientId,DonorId,RangeHolderId,OldRoute,NewRoute,PortDate,RowCount
1000000000172004,77089003863,mKcell,mAltel,mAltel,,D02,2016-05-11T16:30:27+06:00,47
1000000000172005,77014657434,mKcell,mAltel,mKcell,D07,D02,2016-05-11T16:30:51+06:00,
1000000000172007,77770563300,mKarTel,mMTS,mKarTel,D77,D01,2016-05-11T16:30:17+06:00,
1000000000172008,77771455337,mKcell,mAltel,mKarTel,D07,D02,2016-05-11T16:31:15+06:00,
1000000000172009,77058854501,mKarTel,mKcell,mKarTel,D02,D01,2016-05-11T16:31:25+06:00,
1000000000172011,77017284982,mMTS,mKcell,mKcell,,D77,2016-05-11T16:32:24+06:00,
1000000000172012,77007551818,mKarTel,mAltel,mAltel,,D01,2016-05-11T16:33:11+06:00,
1000000000172013,77015539555,mMTS,mKcell,mKcell,,D77,2016-05-11T16:33:44+06:00,
1000000000172014,77012501490,mMTS,mKcell,mKcell,,D77,2016-05-11T16:33:43+06:00,
1000000000172015,77752897091,mMTS,mKcell,mKcell,,D77,2016-05-11T16:33:43+06:00,
1000000000172016,77756668946,mKcell,mAltel,mKcell,D07,D02,2016-05-11T16:34:52+06:00,
1000000000172017,77755369651,mMTS,mKcell,mKcell,,D77,2016-05-11T16:35:08+06:00,
1000000000172018,77059732184,mMTS,mKarTel,mKarTel,,D77,2016-05-11T16:35:32+06:00,
1000000000172019,77012272759,mMTS,mKcell,mKcell,,D77,2016-05-11T16:35:50+06:00,
1000000000172020,77010556565,mKarTel,mKcell,mKcell,,D01,2016-05-11T16:37:16+06:00,
1000000000172022,77772674602,mMTS,mKarTel,mKarTel,,D77,2016-05-11T16:38:36+06:00,
1000000000172023,77004311104,mMTS,mAltel,mAltel,,D77,2016-05-11T16:38:28+06:00,
1000000000172024,77018837733,mMTS,mKcell,mKcell,,D77,2016-05-11T16:39:00+06:00,
1000000000172027,77051202290,mKarTel,mKcell,mKarTel,D02,D01,2016-05-11T16:41:04+06:00,
1000000000172028,77017733374,mMTS,mKcell,mKcell,,D77,2016-05-11T16:41:33+06:00,
1000000000172029,77782555171,mMTS,mKcell,mKcell,,D77,2016-05-11T16:41:55+06:00,
1000000000172032,77015395093,mMTS,mKcell,mKcell,,D77,2016-05-11T16:42:33+06:00,
1000000000172034,77004001973,mKarTel,mAltel,mAltel,,D01,2016-05-11T16:43:55+06:00,
1000000000172035,77772550025,mKcell,mKarTel,mKarTel,,D02,2016-05-11T16:45:03+06:00,
1000000000172036,77014345356,mMTS,mKcell,mKcell,,D77,2016-05-11T16:44:41+06:00,
1000000000172037,77052254444,mMTS,mKarTel,mKarTel,,D77,2016-05-11T16:44:53+06:00,
1000000000172038,77001001970,mKarTel,mAltel,mAltel,,D01,2016-05-11T16:45:03+06:00,
1000000000172039,77075444309,mKarTel,mMTS,mMTS,,D01,2016-05-11T16:45:16+06:00,
1000000000172040,77017772809,mKcell,mMTS,mKcell,D77,D02,2016-05-11T16:45:54+06:00,
1000000000172041,77751900999,mKarTel,mKcell,mKcell,,D01,2016-05-11T16:47:12+06:00,
1000000000172042,77003459485,mKarTel,mAltel,mAltel,,D01,2016-05-11T16:47:30+06:00,
1000000000172043,77013413542,mMTS,mKcell,mKcell,,D77,2016-05-11T16:49:04+06:00,
1000000000172044,77017565500,mMTS,mKcell,mKcell,,D77,2016-05-11T16:49:23+06:00,
1000000000172045,77715383436,mKcell,mKarTel,mKarTel,,D02,2016-05-11T16:50:08+06:00,
1000000000172046,77003404633,mKarTel,mAltel,mAltel,,D01,2016-05-11T16:49:30+06:00,
1000000000172048,77071042808,mKarTel,mMTS,mMTS,,D01,2016-05-11T16:49:56+06:00,
1000000000172049,77080617161,mKcell,mAltel,mAltel,,D02,2016-05-11T16:50:31+06:00,
1000000000172050,77019986314,mKarTel,mKcell,mKcell,,D01,2016-05-11T16:50:46+06:00,
1000000000172051,77024424922,mMTS,mKcell,mKcell,,D77,2016-05-11T16:51:34+06:00,
1000000000172052,77086266979,mMTS,mAltel,mAltel,,D77,2016-05-11T16:51:30+06:00,
1000000000172053,77081503540,mMTS,mAltel,mAltel,,D77,2016-05-11T16:52:05+06:00,
1000000000172054,77028987952,mMTS,mKcell,mKcell,,D77,2016-05-11T16:52:59+06:00,
1000000000172056,77023387777,mMTS,mKcell,mKcell,,D77,2016-05-11T16:54:32+06:00,
1000000000172058,77771062898,mMTS,mKarTel,mKarTel,,D77,2016-05-11T16:54:54+06:00,
1000000000172061,77766577777,mKcell,mKarTel,mKarTel,,D02,2016-05-11T16:58:19+06:00,
1000000000172063,77023600800,mAltel,mKcell,mKcell,,D07,2016-05-11T16:58:32+06:00,
1000000000172065,77775723000,mAltel,mKarTel,mKarTel,,D07,2016-05-11T16:59:15+06:00,
