NPId,Number,RecipientId,DonorId,RangeHolderId,OldRoute,NewRoute,PortDate,RowCount
1000000000348857,77019517975,mKarTel,mKcell,mKcell,,D01,2017-03-18T14:28:47+06:00,31
1000000000349249,77775010157,mKcell,mAltel,mKarTel,D07,D02,2017-03-18T14:00:32+06:00,
1000000000349250,77010720050,mKarTel,mKcell,mKcell,,D01,2017-03-18T14:00:58+06:00,
1000000000349252,77755398299,mAltel,mKcell,mKcell,,D07,2017-03-18T14:02:04+06:00,
1000000000349253,77007773135,mMTS,mAltel,mAltel,,D77,2017-03-18T14:02:23+06:00,
1000000000349254,77773988379,mMTS,mKarTel,mKarTel,,D77,2017-03-18T14:03:07+06:00,
1000000000349256,77756441998,mMTS,mKcell,mKcell,,D77,2017-03-18T14:05:14+06:00,
1000000000349257,77022440432,mKcell,mKarTel,mKcell,D01,D02,2017-03-18T14:06:36+06:00,
1000000000349258,77013869424,mMTS,mKcell,mKcell,,D77,2017-03-18T14:06:07+06:00,
1000000000349260,77018000787,mAltel,mKcell,mKcell,,D07,2017-03-18T14:09:53+06:00,
1000000000349261,77772544131,mKcell,mKarTel,mKarTel,,D02,2017-03-18T14:10:31+06:00,
1000000000349262,77771437306,mMTS,mKarTel,mKarTel,,D77,2017-03-18T14:10:55+06:00,
1000000000349263,77007755404,mMTS,mAltel,mAltel,,D77,2017-03-18T14:10:41+06:00,
1000000000349264,77056299696,mKarTel,mMTS,mKarTel,D77,D01,2017-03-18T14:11:15+06:00,
1000000000349266,77087605206,mKarTel,mAltel,mAltel,,D01,2017-03-18T14:13:19+06:00,
1000000000349267,77756786161,mAltel,mKcell,mKcell,,D07,2017-03-18T14:14:46+06:00,
1000000000349268,77017810515,mAltel,mKcell,mKcell,,D07,2017-03-18T14:15:02+06:00,
1000000000349269,77017176700,mAltel,mKcell,mKcell,,D07,2017-03-18T14:15:14+06:00,
1000000000349270,77017599818,mKcell,mMTS,mKcell,D77,D02,2017-03-18T14:15:26+06:00,
1000000000349271,77076217227,mKcell,mMTS,mMTS,,D02,2017-03-18T14:16:39+06:00,
1000000000349273,77758172646,mKarTel,mKcell,mKcell,,D01,2017-03-18T14:21:09+06:00,
1000000000349274,77011731914,mKarTel,mKcell,mKcell,,D01,2017-03-18T14:21:16+06:00,
1000000000349275,77773886677,mKarTel,mMTS,mKarTel,D77,D01,2017-03-18T14:21:31+06:00,
1000000000349276,77009991555,mKarTel,mAltel,mAltel,,D01,2017-03-18T14:22:50+06:00,
1000000000349277,77017310031,mMTS,mKcell,mKcell,,D77,2017-03-18T14:24:15+06:00,
1000000000349278,77057462626,mMTS,mKarTel,mKarTel,,D77,2017-03-18T14:25:12+06:00,
1000000000349279,77019135651,mKarTel,mKcell,mKcell,,D01,2017-03-18T14:25:09+06:00,
1000000000349281,77027170808,mMTS,mKcell,mKcell,,D77,2017-03-18T14:25:45+06:00,
1000000000349282,77014252334,mKcell,mMTS,mKcell,D77,D02,2017-03-18T14:27:30+06:00,
1000000000349283,77079870608,mAltel,mKarTel,mMTS,D01,D07,2017-03-18T14:28:01+06:00,
1000000000349284,77789997088,mKcell,mMTS,mKcell,D77,D02,2017-03-18T14:29:40+06:00,
