NPId,Number,RecipientId,DonorId,RangeHolderId,OldRoute,NewRoute,PortDate,RowCount
1000000000375654,77052187108,mMTS,mKarTel,mKarTel,,D77,2017-05-01T14:31:48+06:00,19
1000000000375656,77776592695,mMTS,mKarTel,mKarTel,,D77,2017-05-01T14:32:48+06:00,
1000000000375658,77027673090,mMTS,mKcell,mKcell,,D77,2017-05-01T14:34:23+06:00,
1000000000375659,77713777709,mKarTel,mMTS,mKarTel,D77,D01,2017-05-01T14:34:36+06:00,
1000000000375660,77774558193,mMTS,mKarTel,mKarTel,,D77,2017-05-01T14:34:57+06:00,
1000000000375661,77013838909,mAltel,mKcell,mKcell,,D07,2017-05-01T14:35:17+06:00,
1000000000375663,77015499054,mKarTel,mKcell,mKcell,,D01,2017-05-01T14:37:05+06:00,
1000000000375666,77055112845,mMTS,mKarTel,mKarTel,,D77,2017-05-01T14:39:40+06:00,
1000000000375667,77059633299,mKarTel,mMTS,mKarTel,D77,D01,2017-05-01T14:40:30+06:00,
1000000000375669,77011116112,mMTS,mKcell,mKcell,,D77,2017-05-01T14:42:27+06:00,
1000000000375670,77772249045,mMTS,mKarTel,mKarTel,,D77,2017-05-01T14:43:12+06:00,
1000000000375671,77477585803,mKarTel,mMTS,mMTS,,D01,2017-05-01T14:43:20+06:00,
1000000000375673,77011887412,mAltel,mKcell,mKcell,,D07,2017-05-01T14:45:07+06:00,
1000000000375676,77024047873,mKarTel,mKcell,mKcell,,D01,2017-05-01T14:48:09+06:00,
1000000000375677,77028869988,mMTS,mKcell,mKcell,,D77,2017-05-01T14:50:15+06:00,
1000000000375678,77073861508,mKarTel,mMTS,mMTS,,D01,2017-05-01T14:52:44+06:00,
1000000000375679,77766003300,mKarTel,mKcell,mKarTel,D02,D01,2017-05-01T14:55:16+06:00,
1000000000375680,77017554232,mMTS,mKcell,mKcell,,D77,2017-05-01T14:55:22+06:00,
1000000000375681,77057144376,mMTS,mKarTel,mKarTel,,D77,2017-05-01T14:57:41+06:00,
