NPId,Number,RecipientId,DonorId,RangeHolderId,OldRoute,NewRoute,PortDate,RowCount
1000000000296775,77000210071,mKcell,mAltel,mAltel,,D02,2016-12-18T18:31:02+06:00,8
1000000000296777,77476732361,mMTS,mAltel,mMTS,D07,D77,2016-12-18T18:34:45+06:00,
1000000000296778,77751998069,mKarTel,mKcell,mKcell,,D01,2016-12-18T18:41:13+06:00,
1000000000296779,77753275701,mKarTel,mKcell,mKcell,,D01,2016-12-18T18:45:02+06:00,
1000000000296782,77024458711,mKarTel,mKcell,mKcell,,D01,2016-12-18T18:53:42+06:00,
1000000000296783,77777777054,mKarTel,mKcell,mKarTel,D02,D01,2016-12-18T18:55:07+06:00,
1000000000296784,77001100198,mMTS,mAltel,mAltel,,D77,2016-12-18T18:57:34+06:00,
1000000000296785,77751005553,mMTS,mKcell,mKcell,,D77,2016-12-18T18:57:41+06:00,
