NPId,Number,RecipientId,DonorId,RangeHolderId,OldRoute,NewRoute,PortDate,RowCount
1000000000382426,77015365488,mKarTel,mKcell,mKcell,,D01,2017-05-15T13:00:18+06:00,23
1000000000382492,77019333901,mMTS,mKcell,mKcell,,D77,2017-05-15T13:00:05+06:00,
1000000000383212,77781116461,mMTS,mKcell,mKcell,,D77,2017-05-15T13:01:21+06:00,
1000000000383215,77789624131,mKarTel,mKcell,mKcell,,D01,2017-05-15T13:03:06+06:00,
1000000000383217,77772293693,mMTS,mKarTel,mKarTel,,D77,2017-05-15T13:07:39+06:00,
1000000000383218,77711810081,mMTS,mKarTel,mKarTel,,D77,2017-05-15T13:07:57+06:00,
1000000000383219,77787328469,mMTS,mKcell,mKcell,,D77,2017-05-15T13:08:09+06:00,
1000000000383222,77013005755,mKcell,mAltel,mKcell,D07,D02,2017-05-15T13:08:51+06:00,
1000000000383224,77077407221,mKarTel,mMTS,mMTS,,D01,2017-05-15T13:10:03+06:00,
1000000000383225,77054936511,mMTS,mKarTel,mKarTel,,D77,2017-05-15T13:10:16+06:00,
1000000000383227,77014240655,mKcell,mKarTel,mKcell,D01,D02,2017-05-15T13:13:40+06:00,
1000000000383228,77776596165,mKarTel,mAltel,mKarTel,D07,D01,2017-05-15T13:13:47+06:00,
1000000000383229,77082672707,mMTS,mAltel,mAltel,,D77,2017-05-15T13:14:14+06:00,
1000000000383230,77077053242,mKarTel,mMTS,mMTS,,D01,2017-05-15T13:16:11+06:00,
1000000000383231,77025991559,mKcell,mAltel,mKcell,D07,D02,2017-05-15T13:17:22+06:00,
1000000000383232,77774131777,mKcell,mKarTel,mKarTel,,D02,2017-05-15T13:18:11+06:00,
1000000000383233,77712335333,mMTS,mKarTel,mKarTel,,D77,2017-05-15T13:18:03+06:00,
1000000000383236,77015230350,mKcell,mKarTel,mKcell,D01,D02,2017-05-15T13:23:12+06:00,
1000000000383238,77056609107,mKarTel,mKcell,mKarTel,D02,D01,2017-05-15T13:25:50+06:00,
1000000000383240,77076099832,mKcell,mMTS,mMTS,,D02,2017-05-15T13:28:35+06:00,
1000000000383241,77751930066,mMTS,mKcell,mKcell,,D77,2017-05-15T13:28:03+06:00,
1000000000383242,77078363223,mKarTel,mMTS,mMTS,,D01,2017-05-15T13:29:34+06:00,
1000000000383243,77072088188,mKarTel,mMTS,mMTS,,D01,2017-05-15T13:29:34+06:00,
