NPId,Number,RecipientId,DonorId,RangeHolderId,OldRoute,NewRoute,PortDate,RowCount
1000000000188151,77083926686,mMTS,mAltel,mAltel,,D77,2016-06-05T14:01:06+06:00,15
1000000000188152,77016020834,mMTS,mKcell,mKcell,,D77,2016-06-05T14:01:36+06:00,
1000000000188154,77053329019,mMTS,mKarTel,mKarTel,,D77,2016-06-05T14:03:52+06:00,
1000000000188155,77051296644,mKarTel,mMTS,mKarTel,D77,D01,2016-06-05T14:07:12+06:00,
1000000000188156,77779900888,mAltel,mKarTel,mKarTel,,D07,2016-06-05T14:08:52+06:00,
1000000000188157,77055263755,mMTS,mKarTel,mKarTel,,D77,2016-06-05T14:09:16+06:00,
1000000000188158,77083926811,mMTS,mAltel,mAltel,,D77,2016-06-05T14:12:11+06:00,
1000000000188160,77013353131,mKarTel,mKcell,mKcell,,D01,2016-06-05T14:15:55+06:00,
1000000000188161,77474873803,mMTS,mAltel,mMTS,D07,D77,2016-06-05T14:15:35+06:00,
1000000000188162,77757772766,mKcell,mMTS,mKcell,D77,D02,2016-06-05T14:20:28+06:00,
1000000000188164,77003733460,mMTS,mAltel,mAltel,,D77,2016-06-05T14:20:35+06:00,
1000000000188165,77772995696,mKarTel,mAltel,mKarTel,D07,D01,2016-06-05T14:21:35+06:00,
1000000000188166,77774364164,mKcell,mKarTel,mKarTel,,D02,2016-06-05T14:23:31+06:00,
1000000000188169,77024245269,mKarTel,mKcell,mKcell,,D01,2016-06-05T14:26:40+06:00,
1000000000188170,77078382670,mKcell,mMTS,mMTS,,D02,2016-06-05T14:29:09+06:00,
