NPId,Number,RecipientId,DonorId,RangeHolderId,OldRoute,NewRoute,PortDate,RowCount
1000000000310691,77057658912,mKarTel,mKcell,mKarTel,D02,D01,2017-01-14T16:33:50+06:00,22
1000000000310692,77017779953,mMTS,mKcell,mKcell,,D77,2017-01-14T16:34:10+06:00,
1000000000310693,77019903109,mMTS,mKcell,mKcell,,D77,2017-01-14T16:34:33+06:00,
1000000000310694,77009856204,mMTS,mAltel,mAltel,,D77,2017-01-14T16:34:51+06:00,
1000000000310696,77015956183,mKarTel,mKcell,mKcell,,D01,2017-01-14T16:38:18+06:00,
1000000000310697,77001999126,mMTS,mAltel,mAltel,,D77,2017-01-14T16:37:54+06:00,
1000000000310699,77001387475,mKcell,mAltel,mAltel,,D02,2017-01-14T16:40:36+06:00,
1000000000310700,77011246363,mKarTel,mKcell,mKcell,,D01,2017-01-14T16:40:42+06:00,
1000000000310701,77778668869,mAltel,mKarTel,mKarTel,,D07,2017-01-14T16:44:04+06:00,
1000000000310702,77718484686,mMTS,mKarTel,mKarTel,,D77,2017-01-14T16:47:56+06:00,
1000000000310706,77779226118,mMTS,mKarTel,mKarTel,,D77,2017-01-14T16:49:20+06:00,
1000000000310709,77074097777,mKarTel,mMTS,mMTS,,D01,2017-01-14T16:51:30+06:00,
1000000000310710,77019997440,mKarTel,mKcell,mKcell,,D01,2017-01-14T16:51:46+06:00,
1000000000310711,77752829599,mMTS,mKcell,mKcell,,D77,2017-01-14T16:52:42+06:00,
1000000000310712,77011970005,mKarTel,mKcell,mKcell,,D01,2017-01-14T16:53:01+06:00,
1000000000310713,77006005202,mKcell,mAltel,mAltel,,D02,2017-01-14T16:52:59+06:00,
1000000000310714,77017888799,mMTS,mKcell,mKcell,,D77,2017-01-14T16:53:33+06:00,
1000000000310715,77017052005,mMTS,mKcell,mKcell,,D77,2017-01-14T16:53:28+06:00,
1000000000310716,77019153545,mKarTel,mKcell,mKcell,,D01,2017-01-14T16:55:04+06:00,
1000000000310720,77783045602,mAltel,mKarTel,mKcell,D01,D07,2017-01-14T16:58:01+06:00,
1000000000310721,77013204624,mMTS,mKcell,mKcell,,D77,2017-01-14T16:58:17+06:00,
1000000000310722,77010555521,mKarTel,mKcell,mKcell,,D01,2017-01-14T16:59:15+06:00,
