NPId,Number,RecipientId,DonorId,RangeHolderId,OldRoute,NewRoute,PortDate,RowCount
1000000000145373,77015015297,mKcell,mAltel,mKcell,D07,D02,2016-04-07T15:49:25+06:00,59
1000000000145464,77007777550,mKcell,mAltel,mAltel,,D02,2016-04-07T15:33:38+06:00,
1000000000145532,77019592423,mKarTel,mKcell,mKcell,,D01,2016-04-07T15:34:17+06:00,
1000000000145580,77714460220,mMTS,mKarTel,mKarTel,,D77,2016-04-07T15:30:58+06:00,
1000000000145581,77711566415,mMTS,mKarTel,mKarTel,,D77,2016-04-07T15:31:36+06:00,
1000000000145582,77777001001,mMTS,mKarTel,mKarTel,,D77,2016-04-07T15:31:36+06:00,
1000000000145583,77013889514,mKarTel,mKcell,mKcell,,D01,2016-04-07T15:30:56+06:00,
1000000000145584,77077704444,mMTS,mAltel,mMTS,D07,D77,2016-04-07T15:30:29+06:00,
1000000000145585,77714459779,mMTS,mKarTel,mKarTel,,D77,2016-04-07T15:32:18+06:00,
1000000000145588,77083515545,mKarTel,mAltel,mAltel,,D01,2016-04-07T15:32:18+06:00,
1000000000145589,77083515535,mKarTel,mAltel,mAltel,,D01,2016-04-07T15:32:19+06:00,
1000000000145590,77714459339,mMTS,mKarTel,mKarTel,,D77,2016-04-07T15:34:17+06:00,
1000000000145591,77078910838,mKcell,mMTS,mMTS,,D02,2016-04-07T15:33:51+06:00,
1000000000145592,77002288423,mMTS,mAltel,mAltel,,D77,2016-04-07T15:33:23+06:00,
1000000000145593,77081935383,mMTS,mAltel,mAltel,,D77,2016-04-07T15:33:27+06:00,
1000000000145595,77015373273,mMTS,mKcell,mKcell,,D77,2016-04-07T15:34:34+06:00,
1000000000145596,77083214569,mMTS,mAltel,mAltel,,D77,2016-04-07T15:34:36+06:00,
1000000000145597,77051056017,mMTS,mKarTel,mKarTel,,D77,2016-04-07T15:36:22+06:00,
1000000000145598,77077123632,mMTS,mAltel,mMTS,D07,D77,2016-04-07T15:35:06+06:00,
1000000000145600,77005111970,mKarTel,mAltel,mAltel,,D01,2016-04-07T15:36:58+06:00,
1000000000145601,77016009113,mKarTel,mKcell,mKcell,,D01,2016-04-07T15:37:00+06:00,
1000000000145602,77023057515,mKcell,mAltel,mKcell,D07,D02,2016-04-07T15:37:41+06:00,
1000000000145603,77077878889,mKcell,mMTS,mMTS,,D02,2016-04-07T15:38:19+06:00,
1000000000145604,77083482728,mKarTel,mAltel,mAltel,,D01,2016-04-07T15:38:54+06:00,
1000000000145605,77016009112,mKarTel,mKcell,mKcell,,D01,2016-04-07T15:39:32+06:00,
1000000000145607,77055522212,mMTS,mKarTel,mKarTel,,D77,2016-04-07T15:41:32+06:00,
1000000000145608,77017877116,mKarTel,mKcell,mKcell,,D01,2016-04-07T15:40:48+06:00,
1000000000145609,77075317415,mKcell,mMTS,mMTS,,D02,2016-04-07T15:40:47+06:00,
1000000000145610,77025099999,mMTS,mAltel,mKcell,D07,D77,2016-04-07T15:40:24+06:00,
1000000000145611,77083500999,mKcell,mAltel,mAltel,,D02,2016-04-07T15:41:58+06:00,
1000000000145612,77083500777,mKcell,mAltel,mAltel,,D02,2016-04-07T15:41:59+06:00,
1000000000145613,77075477762,mMTS,mAltel,mMTS,D07,D77,2016-04-07T15:41:59+06:00,
1000000000145614,77083500666,mKcell,mAltel,mAltel,,D02,2016-04-07T15:42:30+06:00,
1000000000145616,77052120746,mKcell,mKarTel,mKarTel,,D02,2016-04-07T15:44:32+06:00,
1000000000145617,77716122227,mMTS,mKarTel,mKarTel,,D77,2016-04-07T15:44:49+06:00,
1000000000145619,77015325488,mMTS,mKcell,mKcell,,D77,2016-04-07T15:44:18+06:00,
1000000000145621,77081930105,mKarTel,mAltel,mAltel,,D01,2016-04-07T15:45:32+06:00,
1000000000145623,77010120274,mMTS,mKcell,mKcell,,D77,2016-04-07T15:46:14+06:00,
1000000000145624,77788567788,mKarTel,mKcell,mKcell,,D01,2016-04-07T15:48:21+06:00,
1000000000145625,77001336314,mKarTel,mAltel,mAltel,,D01,2016-04-07T15:47:41+06:00,
1000000000145628,77082120880,mMTS,mAltel,mAltel,,D77,2016-04-07T15:47:17+06:00,
1000000000145629,77015325077,mMTS,mKcell,mKcell,,D77,2016-04-07T15:48:06+06:00,
1000000000145630,77002820001,mKcell,mAltel,mAltel,,D02,2016-04-07T15:48:10+06:00,
1000000000145631,77015325076,mMTS,mKcell,mKcell,,D77,2016-04-07T15:48:24+06:00,
1000000000145632,77753573499,mMTS,mKcell,mKcell,,D77,2016-04-07T15:49:36+06:00,
1000000000145633,77055558701,mMTS,mKarTel,mKarTel,,D77,2016-04-07T15:50:26+06:00,
1000000000145634,77051596970,mMTS,mKarTel,mKarTel,,D77,2016-04-07T15:51:06+06:00,
1000000000145635,77025999999,mMTS,mAltel,mKcell,D07,D77,2016-04-07T15:49:38+06:00,
1000000000145637,77028327602,mKcell,mKarTel,mKcell,D01,D02,2016-04-07T15:52:31+06:00,
1000000000145638,77753367357,mAltel,mKcell,mKcell,,D07,2016-04-07T15:50:31+06:00,
1000000000145639,77017803156,mKarTel,mKcell,mKcell,,D01,2016-04-07T15:51:10+06:00,
1000000000145644,77075011992,mMTS,mAltel,mMTS,D07,D77,2016-04-07T15:54:12+06:00,
1000000000145646,77777770783,mAltel,mKarTel,mKarTel,,D07,2016-04-07T15:56:20+06:00,
1000000000145648,77013206228,mKarTel,mKcell,mKcell,,D01,2016-04-07T15:56:19+06:00,
1000000000145649,77015099999,mMTS,mAltel,mKcell,D07,D77,2016-04-07T15:55:55+06:00,
1000000000145650,77018028581,mMTS,mKcell,mKcell,,D77,2016-04-07T15:56:49+06:00,
1000000000145651,77714295026,mMTS,mKarTel,mKarTel,,D77,2016-04-07T15:58:27+06:00,
1000000000145654,77011310510,mMTS,mKcell,mKcell,,D77,2016-04-07T15:58:07+06:00,
1000000000145656,77085244529,mMTS,mAltel,mAltel,,D77,2016-04-07T15:59:24+06:00,
