NPId,Number,RecipientId,DonorId,RangeHolderId,OldRoute,NewRoute,PortDate,RowCount
1000000000227862,77019528360,mKarTel,mKcell,mKcell,,D01,2016-08-12T17:14:00+06:00,24
1000000000228169,77019880779,mKarTel,mKcell,mKcell,,D01,2016-08-12T17:02:39+06:00,
1000000000228170,77772136030,mKcell,mKarTel,mKarTel,,D02,2016-08-12T17:03:26+06:00,
1000000000228171,77472224680,mMTS,mKcell,mMTS,D02,D77,2016-08-12T17:03:42+06:00,
1000000000228172,77019254898,mMTS,mKcell,mKcell,,D77,2016-08-12T17:04:29+06:00,
1000000000228173,77788216060,mMTS,mKcell,mKcell,,D77,2016-08-12T17:04:43+06:00,
1000000000228174,77017771552,mKarTel,mKcell,mKcell,,D01,2016-08-12T17:05:48+06:00,
1000000000228175,77015377252,mKarTel,mKcell,mKcell,,D01,2016-08-12T17:05:57+06:00,
1000000000228176,77015385433,mMTS,mKcell,mKcell,,D77,2016-08-12T17:07:14+06:00,
1000000000228178,77072092929,mKarTel,mMTS,mMTS,,D01,2016-08-12T17:10:39+06:00,
1000000000228179,77477888998,mKarTel,mMTS,mMTS,,D01,2016-08-12T17:11:18+06:00,
1000000000228181,77029040909,mMTS,mKcell,mKcell,,D77,2016-08-12T17:11:46+06:00,
1000000000228183,77052560837,mAltel,mKarTel,mKarTel,,D07,2016-08-12T17:13:36+06:00,
1000000000228186,77086331441,mMTS,mAltel,mAltel,,D77,2016-08-12T17:15:58+06:00,
1000000000228188,77011144458,mKcell,mAltel,mKcell,D07,D02,2016-08-12T17:19:56+06:00,
1000000000228189,77055162115,mMTS,mKarTel,mKarTel,,D77,2016-08-12T17:18:05+06:00,
1000000000228190,77787884758,mAltel,mKarTel,mKcell,D01,D07,2016-08-12T17:18:30+06:00,
1000000000228191,77015551735,mKarTel,mKcell,mKcell,,D01,2016-08-12T17:18:51+06:00,
1000000000228192,77005111101,mMTS,mAltel,mAltel,,D77,2016-08-12T17:19:02+06:00,
1000000000228193,77777232517,mMTS,mKarTel,mKarTel,,D77,2016-08-12T17:20:38+06:00,
1000000000228195,77021973326,mKarTel,mKcell,mKcell,,D01,2016-08-12T17:21:03+06:00,
1000000000228197,77015442989,mMTS,mKcell,mKcell,,D77,2016-08-12T17:22:57+06:00,
1000000000228198,77052388674,mKarTel,mMTS,mKarTel,D77,D01,2016-08-12T17:24:41+06:00,
1000000000228199,77054666622,mMTS,mKarTel,mKarTel,,D77,2016-08-12T17:26:23+06:00,
