NPId,Number,RecipientId,DonorId,RangeHolderId,OldRoute,NewRoute,PortDate,RowCount
1000000000122514,77057556703,mMTS,mKarTel,mKarTel,,D77,2016-03-11T15:30:25+06:00,41
1000000000122516,77014064854,mKcell,mAltel,mKcell,D07,D02,2016-03-11T15:31:22+06:00,
1000000000122519,77021896188,mMTS,mKcell,mKcell,,D77,2016-03-11T15:32:08+06:00,
1000000000122520,77077274555,mAltel,mMTS,mMTS,,D07,2016-03-11T15:32:19+06:00,
1000000000122521,77770777333,mMTS,mKarTel,mKarTel,,D77,2016-03-11T15:33:12+06:00,
1000000000122522,77021407594,mAltel,mKcell,mKcell,,D07,2016-03-11T15:33:31+06:00,
1000000000122523,77073753175,mAltel,mMTS,mMTS,,D07,2016-03-11T15:33:02+06:00,
1000000000122526,77028887751,mKarTel,mKcell,mKcell,,D01,2016-03-11T15:34:23+06:00,
1000000000122527,77755416041,mKarTel,mKcell,mKcell,,D01,2016-03-11T15:34:53+06:00,
1000000000122528,77775860086,mMTS,mKarTel,mKarTel,,D77,2016-03-11T15:34:45+06:00,
1000000000122531,77057556702,mMTS,mKarTel,mKarTel,,D77,2016-03-11T15:36:28+06:00,
1000000000122532,77015131911,mMTS,mKcell,mKcell,,D77,2016-03-11T15:36:34+06:00,
1000000000122534,77022876007,mMTS,mKcell,mKcell,,D77,2016-03-11T15:37:32+06:00,
1000000000122535,77057556700,mMTS,mKarTel,mKarTel,,D77,2016-03-11T15:38:33+06:00,
1000000000122537,77019684908,mAltel,mKcell,mKcell,,D07,2016-03-11T15:39:25+06:00,
1000000000122538,77026078488,mMTS,mKcell,mKcell,,D77,2016-03-11T15:39:25+06:00,
1000000000122540,77083006927,mMTS,mAltel,mAltel,,D77,2016-03-11T15:40:27+06:00,
1000000000122541,77781317133,mKcell,mAltel,mKcell,D07,D02,2016-03-11T15:40:53+06:00,
1000000000122543,77025328629,mKarTel,mKcell,mKcell,,D01,2016-03-11T15:41:57+06:00,
1000000000122544,77783635520,mMTS,mKcell,mKcell,,D77,2016-03-11T15:42:00+06:00,
1000000000122546,77016673784,mMTS,mKcell,mKcell,,D77,2016-03-11T15:45:11+06:00,
1000000000122549,77029800926,mMTS,mKcell,mKcell,,D77,2016-03-11T15:46:47+06:00,
1000000000122550,77013148165,mMTS,mKcell,mKcell,,D77,2016-03-11T15:46:47+06:00,
1000000000122551,77753460640,mAltel,mKcell,mKcell,,D07,2016-03-11T15:47:06+06:00,
1000000000122552,77004944477,mKcell,mAltel,mAltel,,D02,2016-03-11T15:47:46+06:00,
1000000000122553,77785803126,mAltel,mKcell,mKcell,,D07,2016-03-11T15:47:18+06:00,
1000000000122554,77054001183,mKarTel,mKcell,mKarTel,D02,D01,2016-03-11T15:48:25+06:00,
1000000000122555,77015905333,mAltel,mKcell,mKcell,,D07,2016-03-11T15:48:24+06:00,
1000000000122557,77015186865,mKcell,mKarTel,mKcell,D01,D02,2016-03-11T15:49:48+06:00,
1000000000122559,77777158008,mAltel,mKarTel,mKarTel,,D07,2016-03-11T15:50:03+06:00,
1000000000122560,77788498497,mAltel,mKcell,mKcell,,D07,2016-03-11T15:50:43+06:00,
1000000000122561,77021790633,mMTS,mKcell,mKcell,,D77,2016-03-11T15:50:55+06:00,
1000000000122562,77783602737,mKarTel,mKcell,mKcell,,D01,2016-03-11T15:52:04+06:00,
1000000000122565,77772433712,mMTS,mKarTel,mKarTel,,D77,2016-03-11T15:55:16+06:00,
1000000000122566,77779993760,mMTS,mKarTel,mKarTel,,D77,2016-03-11T15:55:39+06:00,
1000000000122567,77024144141,mAltel,mKcell,mKcell,,D07,2016-03-11T15:56:17+06:00,
1000000000122568,77771735003,mMTS,mKarTel,mKarTel,,D77,2016-03-11T15:57:21+06:00,
1000000000122569,77013426343,mMTS,mKcell,mKcell,,D77,2016-03-11T15:57:17+06:00,
1000000000122570,77471875013,mKarTel,mMTS,mMTS,,D01,2016-03-11T15:57:51+06:00,
1000000000122571,77011131441,mAltel,mKcell,mKcell,,D07,2016-03-11T15:58:22+06:00,
1000000000122573,77777119999,mAltel,mKarTel,mKarTel,,D07,2016-03-11T15:59:54+06:00,
