NPId,Number,RecipientId,DonorId,RangeHolderId,OldRoute,NewRoute,PortDate,RowCount
1000000000403161,77475132322,mKarTel,mMTS,mMTS,,D01,2017-06-14T15:02:14+06:00,14
1000000000403162,77782902929,mKcell,mAltel,mKcell,D07,D02,2017-06-14T15:02:30+06:00,
1000000000403163,77773370091,mAltel,mKarTel,mKarTel,,D07,2017-06-14T15:06:39+06:00,
1000000000403165,77713340911,mKcell,mKarTel,mKarTel,,D02,2017-06-14T15:07:19+06:00,
1000000000403167,77056700240,mMTS,mKarTel,mKarTel,,D77,2017-06-14T15:07:55+06:00,
1000000000403168,77054444330,mAltel,mKarTel,mKarTel,,D07,2017-06-14T15:09:37+06:00,
1000000000403169,77014122817,mKarTel,mKcell,mKcell,,D01,2017-06-14T15:10:53+06:00,
1000000000403171,77011212135,mMTS,mKcell,mKcell,,D77,2017-06-14T15:12:34+06:00,
1000000000403172,77759644866,mKarTel,mKcell,mKcell,,D01,2017-06-14T15:13:18+06:00,
1000000000403175,77011010140,mKarTel,mKcell,mKcell,,D01,2017-06-14T15:17:28+06:00,
1000000000403176,77076161188,mKarTel,mMTS,mMTS,,D01,2017-06-14T15:18:22+06:00,
1000000000403177,77777011147,mMTS,mKarTel,mKarTel,,D77,2017-06-14T15:19:57+06:00,
1000000000403178,77023403121,mKarTel,mKcell,mKcell,,D01,2017-06-14T15:20:25+06:00,
1000000000403180,77013099919,mMTS,mKcell,mKcell,,D77,2017-06-14T15:26:24+06:00,
