NPId,Number,RecipientId,DonorId,RangeHolderId,OldRoute,NewRoute,PortDate,RowCount
1000000000168680,77717011292,mKcell,mKarTel,mKarTel,,D02,2016-05-06T16:30:58+06:00,65
1000000000168988,77010711564,mKcell,mKarTel,mKcell,D01,D02,2016-05-06T16:30:57+06:00,
1000000000168988,77017617660,mKcell,mKarTel,mKcell,D01,D02,2016-05-06T16:30:57+06:00,
1000000000168988,77017773353,mKcell,mKarTel,mKcell,D01,D02,2016-05-06T16:30:57+06:00,
1000000000168988,77017777910,mKcell,mKarTel,mKcell,D01,D02,2016-05-06T16:30:57+06:00,
1000000000168988,77017951624,mKcell,mKarTel,mKcell,D01,D02,2016-05-06T16:30:57+06:00,
1000000000168988,77018099263,mKcell,mKarTel,mKcell,D01,D02,2016-05-06T16:30:57+06:00,
1000000000168988,77018099264,mKcell,mKarTel,mKcell,D01,D02,2016-05-06T16:30:57+06:00,
1000000000168988,77018099269,mKcell,mKarTel,mKcell,D01,D02,2016-05-06T16:30:57+06:00,
1000000000168988,77018099281,mKcell,mKarTel,mKcell,D01,D02,2016-05-06T16:30:57+06:00,
1000000000168988,77018099282,mKcell,mKarTel,mKcell,D01,D02,2016-05-06T16:30:57+06:00,
1000000000168988,77018099287,mKcell,mKarTel,mKcell,D01,D02,2016-05-06T16:30:57+06:00,
1000000000168988,77018099289,mKcell,mKarTel,mKcell,D01,D02,2016-05-06T16:30:57+06:00,
1000000000168988,77018099295,mKcell,mKarTel,mKcell,D01,D02,2016-05-06T16:30:57+06:00,
1000000000168988,77717155888,mKcell,mKarTel,mKarTel,,D02,2016-05-06T16:30:57+06:00,
1000000000169162,77007990030,mKarTel,mAltel,mAltel,,D01,2016-05-06T16:31:10+06:00,
1000000000169163,77017459140,mKarTel,mKcell,mKcell,,D01,2016-05-06T16:32:01+06:00,
1000000000169164,77012459111,mKcell,mMTS,mKcell,D77,D02,2016-05-06T16:32:00+06:00,
1000000000169165,77015252101,mKcell,mMTS,mKcell,D77,D02,2016-05-06T16:32:25+06:00,
1000000000169167,77053856212,mMTS,mKarTel,mKarTel,,D77,2016-05-06T16:32:20+06:00,
1000000000169170,77085244022,mMTS,mAltel,mAltel,,D77,2016-05-06T16:34:40+06:00,
1000000000169171,77014167627,mMTS,mKcell,mKcell,,D77,2016-05-06T16:35:00+06:00,
1000000000169172,77775112002,mMTS,mKarTel,mKarTel,,D77,2016-05-06T16:35:16+06:00,
1000000000169173,77015158667,mKcell,mMTS,mKcell,D77,D02,2016-05-06T16:35:34+06:00,
1000000000169174,77775967828,mMTS,mKarTel,mKarTel,,D77,2016-05-06T16:35:48+06:00,
1000000000169176,77024227888,mKcell,mMTS,mKcell,D77,D02,2016-05-06T16:36:40+06:00,
1000000000169178,77051919755,mMTS,mAltel,mKarTel,D07,D77,2016-05-06T16:36:34+06:00,
1000000000169179,77779251731,mMTS,mKarTel,mKarTel,,D77,2016-05-06T16:37:17+06:00,
1000000000169180,77004007485,mMTS,mAltel,mAltel,,D77,2016-05-06T16:37:01+06:00,
1000000000169181,77776962367,mMTS,mKarTel,mKarTel,,D77,2016-05-06T16:38:35+06:00,
1000000000169182,77007184081,mKarTel,mAltel,mAltel,,D01,2016-05-06T16:40:01+06:00,
1000000000169184,77772177099,mMTS,mKarTel,mKarTel,,D77,2016-05-06T16:40:24+06:00,
1000000000169185,77056140791,mKarTel,mMTS,mKarTel,D77,D01,2016-05-06T16:40:23+06:00,
1000000000169187,77058887800,mMTS,mKarTel,mKarTel,,D77,2016-05-06T16:41:12+06:00,
1000000000169188,77051211411,mMTS,mKarTel,mKarTel,,D77,2016-05-06T16:41:23+06:00,
1000000000169189,77779167461,mMTS,mKarTel,mKarTel,,D77,2016-05-06T16:41:28+06:00,
1000000000169190,77057639388,mKarTel,mMTS,mKarTel,D77,D01,2016-05-06T16:42:20+06:00,
1000000000169191,77078586902,mKarTel,mMTS,mMTS,,D01,2016-05-06T16:44:03+06:00,
1000000000169193,77077780873,mKcell,mMTS,mMTS,,D02,2016-05-06T16:47:03+06:00,
1000000000169194,77000008545,mKcell,mAltel,mAltel,,D02,2016-05-06T16:47:03+06:00,
1000000000169195,77085164501,mKcell,mAltel,mAltel,,D02,2016-05-06T16:47:02+06:00,
1000000000169196,77082494001,mMTS,mAltel,mAltel,,D77,2016-05-06T16:45:36+06:00,
1000000000169200,77017502145,mKarTel,mKcell,mKcell,,D01,2016-05-06T16:48:13+06:00,
1000000000169201,77017690703,mKarTel,mKcell,mKcell,,D01,2016-05-06T16:49:01+06:00,
1000000000169202,77767700030,mMTS,mKarTel,mKarTel,,D77,2016-05-06T16:49:34+06:00,
1000000000169207,77082706678,mKarTel,mAltel,mAltel,,D01,2016-05-06T16:55:33+06:00,
1000000000169208,77017054149,mMTS,mKcell,mKcell,,D77,2016-05-06T16:50:12+06:00,
1000000000169214,77009676386,mMTS,mAltel,mAltel,,D77,2016-05-06T16:52:03+06:00,
1000000000169215,77053199152,mMTS,mKarTel,mKarTel,,D77,2016-05-06T16:52:46+06:00,
1000000000169216,77051850046,mMTS,mKarTel,mKarTel,,D77,2016-05-06T16:53:28+06:00,
1000000000169217,77017204151,mMTS,mKcell,mKcell,,D77,2016-05-06T16:54:40+06:00,
1000000000169218,77013039199,mKcell,mAltel,mKcell,D07,D02,2016-05-06T16:55:13+06:00,
1000000000169219,77017517193,mMTS,mKcell,mKcell,,D77,2016-05-06T16:55:35+06:00,
1000000000169220,77053566924,mKcell,mKarTel,mKarTel,,D02,2016-05-06T16:56:06+06:00,
1000000000169221,77007990040,mKarTel,mAltel,mAltel,,D01,2016-05-06T16:55:58+06:00,
1000000000169222,77007990060,mKarTel,mAltel,mAltel,,D01,2016-05-06T16:56:25+06:00,
1000000000169224,77007990070,mKarTel,mAltel,mAltel,,D01,2016-05-06T16:56:52+06:00,
1000000000169226,77007990080,mKarTel,mAltel,mAltel,,D01,2016-05-06T16:57:18+06:00,
1000000000169227,77013808709,mMTS,mKcell,mKcell,,D77,2016-05-06T16:57:42+06:00,
1000000000169229,77772777732,mKarTel,mAltel,mKarTel,D07,D01,2016-05-06T16:59:03+06:00,
1000000000169230,77782677776,mKarTel,mKcell,mKcell,,D01,2016-05-06T16:59:47+06:00,
1000000000169231,77012660513,mKarTel,mMTS,mKcell,D77,D01,2016-05-06T16:59:13+06:00,
1000000000169232,77777054959,mMTS,mKarTel,mKarTel,,D77,2016-05-06T16:59:31+06:00,
1000000000169233,77011001056,mKarTel,mMTS,mKcell,D77,D01,2016-05-06T16:59:30+06:00,
1000000000169234,77766160697,mMTS,mKarTel,mKarTel,,D77,2016-05-06T16:59:49+06:00,
