NPId,Number,RecipientId,DonorId,RangeHolderId,OldRoute,NewRoute,PortDate,RowCount
1000000000321607,77053694159,mMTS,mKarTel,mKarTel,,D77,2017-02-01T17:31:59+06:00,46
1000000000321608,77003017777,mKcell,mAltel,mAltel,,D02,2017-02-01T17:30:14+06:00,
1000000000321609,77025556661,mAltel,mKcell,mKcell,,D07,2017-02-01T17:32:12+06:00,
1000000000321610,77014151099,mKarTel,mKcell,mKcell,,D01,2017-02-01T17:32:49+06:00,
1000000000321611,77075235310,mKarTel,mAltel,mMTS,D07,D01,2017-02-01T17:32:54+06:00,
1000000000321612,77004011195,mMTS,mAltel,mAltel,,D77,2017-02-01T17:32:43+06:00,
1000000000321613,77763666616,mMTS,mKarTel,mKarTel,,D77,2017-02-01T17:34:01+06:00,
1000000000321615,77076608500,mMTS,mKcell,mMTS,D02,D77,2017-02-01T17:35:14+06:00,
1000000000321616,77017123088,mKarTel,mKcell,mKcell,,D01,2017-02-01T17:41:22+06:00,
1000000000321617,77017215726,mKarTel,mKcell,mKcell,,D01,2017-02-01T17:43:00+06:00,
1000000000321623,77771207609,mMTS,mKarTel,mKarTel,,D77,2017-02-01T17:41:50+06:00,
1000000000321625,77019418077,mKcell,mKarTel,mKcell,D01,D02,2017-02-01T17:42:34+06:00,
1000000000321626,77051322949,mMTS,mKarTel,mKarTel,,D77,2017-02-01T17:41:48+06:00,
1000000000321627,77011558834,mKarTel,mKcell,mKcell,,D01,2017-02-01T17:42:22+06:00,
1000000000321628,77057774754,mKarTel,mMTS,mKarTel,D77,D01,2017-02-01T17:42:33+06:00,
1000000000321629,77778781985,mAltel,mKcell,mKarTel,D02,D07,2017-02-01T17:42:33+06:00,
1000000000321631,77029597743,mMTS,mKcell,mKcell,,D77,2017-02-01T17:42:42+06:00,
1000000000321634,77051745575,mKarTel,mAltel,mKarTel,D07,D01,2017-02-01T17:44:14+06:00,
1000000000321635,77763333453,mMTS,mKarTel,mKarTel,,D77,2017-02-01T17:45:51+06:00,
1000000000321637,77773352727,mAltel,mKarTel,mKarTel,,D07,2017-02-01T17:46:45+06:00,
1000000000321638,77765082000,mMTS,mKarTel,mKarTel,,D77,2017-02-01T17:47:20+06:00,
1000000000321639,77774465531,mAltel,mKarTel,mKarTel,,D07,2017-02-01T17:47:38+06:00,
1000000000321640,77058129850,mKcell,mKarTel,mKarTel,,D02,2017-02-01T17:47:56+06:00,
1000000000321642,77756470606,mMTS,mAltel,mKcell,D07,D77,2017-02-01T17:47:46+06:00,
1000000000321644,77773939011,mKcell,mKarTel,mKarTel,,D02,2017-02-01T17:49:55+06:00,
1000000000321645,77054809386,mAltel,mKarTel,mKarTel,,D07,2017-02-01T17:49:40+06:00,
1000000000321646,77015555622,mKcell,mKarTel,mKcell,D01,D02,2017-02-01T17:50:05+06:00,
1000000000321648,77782555880,mMTS,mKcell,mKcell,,D77,2017-02-01T17:50:46+06:00,
1000000000321649,77077775458,mKcell,mKarTel,mMTS,D01,D02,2017-02-01T17:51:24+06:00,
1000000000321651,77017538202,mAltel,mKcell,mKcell,,D07,2017-02-01T17:51:50+06:00,
1000000000321652,77770441155,mMTS,mKarTel,mKarTel,,D77,2017-02-01T17:52:24+06:00,
1000000000321654,77774901095,mMTS,mKarTel,mKarTel,,D77,2017-02-01T17:54:51+06:00,
1000000000321656,77778007762,mMTS,mKarTel,mKarTel,,D77,2017-02-01T17:55:31+06:00,
1000000000321657,77076667686,mKarTel,mMTS,mMTS,,D01,2017-02-01T17:55:30+06:00,
1000000000321658,77715524434,mMTS,mKarTel,mKarTel,D01,D77,2017-02-01T17:55:48+06:00,
1000000000321659,77021476990,mMTS,mKcell,mKcell,,D77,2017-02-01T17:55:42+06:00,
1000000000321660,77772758008,mMTS,mKarTel,mKarTel,,D77,2017-02-01T17:55:55+06:00,
1000000000321661,77750002744,mKarTel,mKcell,mKcell,,D01,2017-02-01T17:56:24+06:00,
1000000000321662,77759522638,mMTS,mKcell,mKcell,,D77,2017-02-01T17:56:49+06:00,
1000000000321664,77475791602,mKcell,mMTS,mMTS,,D02,2017-02-01T17:57:11+06:00,
1000000000321665,77017308518,mAltel,mKcell,mKcell,,D07,2017-02-01T17:57:47+06:00,
1000000000321666,77787411252,mMTS,mKcell,mKcell,,D77,2017-02-01T17:58:06+06:00,
1000000000321668,77774457918,mKarTel,mMTS,mKarTel,D77,D01,2017-02-01T17:58:16+06:00,
1000000000321669,77475672697,mAltel,mMTS,mMTS,,D07,2017-02-01T17:58:23+06:00,
1000000000321670,77012881998,mKarTel,mKcell,mKcell,,D01,2017-02-01T17:59:54+06:00,
1000000000321671,77767999799,mMTS,mKarTel,mKarTel,,D77,2017-02-01T17:59:40+06:00,
