NPId,Number,RecipientId,DonorId,RangeHolderId,OldRoute,NewRoute,PortDate,RowCount
1000000000147683,77016522528,mMTS,mKcell,mKcell,,D77,2016-04-10T17:01:01+06:00,21
1000000000147688,77052799937,mMTS,mKarTel,mKarTel,,D77,2016-04-10T17:07:49+06:00,
1000000000147689,77085431957,mMTS,mAltel,mAltel,,D77,2016-04-10T17:06:44+06:00,
1000000000147690,77759644252,mMTS,mKcell,mKcell,,D77,2016-04-10T17:09:17+06:00,
1000000000147691,77081052860,mMTS,mAltel,mAltel,,D77,2016-04-10T17:09:58+06:00,
1000000000147692,77770258877,mKarTel,mAltel,mKarTel,D07,D01,2016-04-10T17:12:09+06:00,
1000000000147694,77776760392,mMTS,mKarTel,mKarTel,,D77,2016-04-10T17:14:48+06:00,
1000000000147695,77081435746,mMTS,mAltel,mAltel,,D77,2016-04-10T17:13:13+06:00,
1000000000147696,77012709886,mMTS,mKcell,mKcell,,D77,2016-04-10T17:13:47+06:00,
1000000000147697,77015377891,mMTS,mKcell,mKcell,,D77,2016-04-10T17:13:47+06:00,
1000000000147699,77754001293,mMTS,mKcell,mKcell,,D77,2016-04-10T17:14:50+06:00,
1000000000147700,77022024040,mAltel,mKcell,mKcell,,D07,2016-04-10T17:15:20+06:00,
1000000000147702,77087077071,mMTS,mAltel,mAltel,,D77,2016-04-10T17:17:51+06:00,
1000000000147703,77087077072,mMTS,mAltel,mAltel,,D77,2016-04-10T17:19:23+06:00,
1000000000147705,77776760393,mMTS,mKarTel,mKarTel,,D77,2016-04-10T17:23:24+06:00,
1000000000147707,77775767246,mMTS,mKarTel,mKarTel,,D77,2016-04-10T17:25:19+06:00,
1000000000147708,77781888128,mAltel,mKcell,mKcell,,D07,2016-04-10T17:26:21+06:00,
1000000000147709,77789340971,mMTS,mKcell,mKcell,,D77,2016-04-10T17:26:47+06:00,
1000000000147710,77022165097,mMTS,mKcell,mKcell,,D77,2016-04-10T17:27:59+06:00,
1000000000147711,77078919263,mKcell,mMTS,mMTS,,D02,2016-04-10T17:28:32+06:00,
1000000000147713,77070328321,mAltel,mMTS,mMTS,,D07,2016-04-10T17:29:38+06:00,
