NPId,Number,RecipientId,DonorId,RangeHolderId,OldRoute,NewRoute,PortDate,RowCount
1000000000278575,77770392293,mKcell,mKarTel,mKarTel,,D02,2016-11-13T14:02:46+06:00,14
1000000000278576,77762109988,mMTS,mKarTel,mKarTel,,D77,2016-11-13T14:05:09+06:00,
1000000000278578,77074262546,mKcell,mMTS,mMTS,,D02,2016-11-13T14:10:25+06:00,
1000000000278579,77011002677,mAltel,mKcell,mKcell,,D07,2016-11-13T14:16:45+06:00,
1000000000278580,77012187828,mAltel,mKcell,mKcell,,D07,2016-11-13T14:17:23+06:00,
1000000000278581,77078916591,mKarTel,mMTS,mMTS,,D01,2016-11-13T14:19:44+06:00,
1000000000278583,77021122191,mMTS,mKcell,mKcell,,D77,2016-11-13T14:22:00+06:00,
1000000000278584,77028046600,mKcell,mMTS,mKcell,D77,D02,2016-11-13T14:24:24+06:00,
1000000000278585,77754935811,mKcell,mMTS,mKcell,D77,D02,2016-11-13T14:28:00+06:00,
1000000000278587,77757295707,mKarTel,mKcell,mKcell,,D01,2016-11-13T14:28:46+06:00,
1000000000278588,77029543657,mKarTel,mKcell,mKcell,,D01,2016-11-13T14:28:47+06:00,
1000000000278589,77017357356,mMTS,mKcell,mKcell,,D77,2016-11-13T14:28:35+06:00,
1000000000278590,77760000057,mMTS,mKarTel,mKarTel,,D77,2016-11-13T14:28:12+06:00,
1000000000278591,77075558173,mKcell,mMTS,mMTS,,D02,2016-11-13T14:28:33+06:00,
