NPId,Number,RecipientId,DonorId,RangeHolderId,OldRoute,NewRoute,PortDate,RowCount
1000000000158117,77770753343,mKcell,mKarTel,mKarTel,,D02,2016-04-22T15:38:49+06:00,27
1000000000158118,77012236909,mKcell,mKarTel,mKcell,D01,D02,2016-04-22T15:40:41+06:00,
1000000000158126,77022104751,mKarTel,mKcell,mKcell,,D01,2016-04-22T15:30:52+06:00,
1000000000158127,77713779106,mMTS,mKarTel,mKarTel,,D77,2016-04-22T15:31:39+06:00,
1000000000158128,77771114403,mKcell,mKarTel,mKarTel,,D02,2016-04-22T15:33:19+06:00,
1000000000158129,77713704877,mKarTel,mMTS,mKarTel,D77,D01,2016-04-22T15:33:22+06:00,
1000000000158131,77002222467,mKcell,mAltel,mAltel,,D02,2016-04-22T15:34:41+06:00,
1000000000158132,77016130248,mKarTel,mKcell,mKcell,,D01,2016-04-22T15:35:06+06:00,
1000000000158133,77089580572,mMTS,mAltel,mAltel,,D77,2016-04-22T15:34:38+06:00,
1000000000158135,77029393444,mMTS,mKcell,mKcell,,D77,2016-04-22T15:37:40+06:00,
1000000000158137,77718300018,mMTS,mKarTel,mKarTel,,D77,2016-04-22T15:40:15+06:00,
1000000000158138,77028403445,mKarTel,mKcell,mKcell,,D01,2016-04-22T15:42:28+06:00,
1000000000158139,77026562670,mMTS,mKcell,mKcell,,D77,2016-04-22T15:42:57+06:00,
1000000000158140,77770313377,mMTS,mKarTel,mKarTel,,D77,2016-04-22T15:45:22+06:00,
1000000000158142,77011315021,mKcell,mKarTel,mKcell,D01,D02,2016-04-22T15:46:18+06:00,
1000000000158146,77088708215,mMTS,mAltel,mAltel,,D77,2016-04-22T15:48:21+06:00,
1000000000158147,77087615584,mMTS,mAltel,mAltel,,D77,2016-04-22T15:49:25+06:00,
1000000000158148,77754664406,mMTS,mKcell,mKcell,,D77,2016-04-22T15:51:13+06:00,
1000000000158149,77081996090,mMTS,mAltel,mAltel,,D77,2016-04-22T15:50:14+06:00,
1000000000158150,77015363712,mMTS,mKcell,mKcell,,D77,2016-04-22T15:51:28+06:00,
1000000000158151,77757202040,mMTS,mKcell,mKcell,,D77,2016-04-22T15:51:29+06:00,
1000000000158153,77027172204,mKcell,mKarTel,mKcell,D01,D02,2016-04-22T15:55:05+06:00,
1000000000158154,77018899554,mAltel,mKcell,mKcell,,D07,2016-04-22T15:55:09+06:00,
1000000000158155,77779191819,mKarTel,mKcell,mKarTel,D02,D01,2016-04-22T15:57:22+06:00,
1000000000158157,77770351216,mKcell,mKarTel,mKarTel,,D02,2016-04-22T15:58:24+06:00,
1000000000158158,77028337502,mMTS,mKcell,mKcell,,D77,2016-04-22T15:59:12+06:00,
1000000000158160,77011004650,mKarTel,mKcell,mKcell,,D01,2016-04-22T15:59:27+06:00,
