NPId,Number,RecipientId,DonorId,RangeHolderId,OldRoute,NewRoute,PortDate,RowCount
1000000000292937,77011931600,mAltel,mKcell,mKcell,,D07,2016-12-10T10:30:56+06:00,12
1000000000292938,77785039907,mAltel,mKcell,mKcell,,D07,2016-12-10T10:32:41+06:00,
1000000000292939,77773088000,mKcell,mKarTel,mKarTel,,D02,2016-12-10T10:39:59+06:00,
1000000000292940,77029105513,mMTS,mKcell,mKcell,,D77,2016-12-10T10:45:02+06:00,
1000000000292941,77773078262,mAltel,mKarTel,mKarTel,,D07,2016-12-10T10:46:08+06:00,
1000000000292942,77773152507,mKcell,mKarTel,mKarTel,,D02,2016-12-10T10:50:23+06:00,
1000000000292943,77771116545,mKcell,mMTS,mKarTel,D77,D02,2016-12-10T10:52:42+06:00,
1000000000292944,77055235914,mMTS,mKarTel,mKarTel,,D77,2016-12-10T10:53:01+06:00,
1000000000292945,77074402030,mMTS,mAltel,mMTS,D07,D77,2016-12-10T10:54:06+06:00,
1000000000292947,77013944081,mKarTel,mKcell,mKcell,,D01,2016-12-10T10:54:40+06:00,
1000000000292948,77012892312,mKarTel,mKcell,mKcell,,D01,2016-12-10T10:55:32+06:00,
1000000000292949,77774204004,mMTS,mAltel,mKarTel,D07,D77,2016-12-10T10:56:27+06:00,
