NPId,Number,RecipientId,DonorId,RangeHolderId,OldRoute,NewRoute,PortDate,RowCount
1000000000231791,77751395097,mMTS,mKcell,mKcell,,D77,2016-08-20T15:30:05+06:00,17
1000000000231793,77756339292,mMTS,mKcell,mKcell,,D77,2016-08-20T15:32:28+06:00,
1000000000231794,77007707095,mKcell,mAltel,mAltel,,D02,2016-08-20T15:32:45+06:00,
1000000000231796,77027173088,mKarTel,mKcell,mKcell,,D01,2016-08-20T15:38:24+06:00,
1000000000231797,77017285597,mMTS,mKcell,mKcell,,D77,2016-08-20T15:38:10+06:00,
1000000000231799,77079440444,mKcell,mMTS,mMTS,,D02,2016-08-20T15:41:28+06:00,
1000000000231800,77054262605,mAltel,mKarTel,mKarTel,,D07,2016-08-20T15:45:06+06:00,
1000000000231801,77004463088,mMTS,mAltel,mAltel,,D77,2016-08-20T15:45:59+06:00,
1000000000231803,77051944095,mMTS,mKarTel,mKarTel,,D77,2016-08-20T15:47:56+06:00,
1000000000231804,77004955355,mMTS,mAltel,mAltel,,D77,2016-08-20T15:47:18+06:00,
1000000000231805,77026795952,mMTS,mKcell,mKcell,,D77,2016-08-20T15:47:29+06:00,
1000000000231806,77003859758,mMTS,mAltel,mAltel,,D77,2016-08-20T15:47:31+06:00,
1000000000231808,77077166855,mKcell,mMTS,mMTS,,D02,2016-08-20T15:51:28+06:00,
1000000000231809,77018305303,mAltel,mKcell,mKcell,,D07,2016-08-20T15:52:47+06:00,
1000000000231810,77002000717,mKcell,mAltel,mAltel,,D02,2016-08-20T15:53:24+06:00,
1000000000231812,77757787887,mMTS,mKcell,mKcell,,D77,2016-08-20T15:57:14+06:00,
1000000000231813,77771474243,mKcell,mKarTel,mKarTel,,D02,2016-08-20T15:58:06+06:00,
