NPId,Number,RecipientId,DonorId,RangeHolderId,OldRoute,NewRoute,PortDate,RowCount
1000000000094819,77029995971,mKarTel,mKcell,mKcell,,D01,2016-02-21T11:05:32+06:00,12
1000000000094820,77025353453,mAltel,mKcell,mKcell,,D07,2016-02-21T11:07:49+06:00,
1000000000094821,77022564626,mAltel,mKcell,mKcell,,D07,2016-02-21T11:08:31+06:00,
1000000000094822,77752530000,mAltel,mKcell,mKcell,,D07,2016-02-21T11:10:56+06:00,
1000000000094823,77022564606,mAltel,mKcell,mKcell,,D07,2016-02-21T11:12:17+06:00,
1000000000094824,77019997195,mKarTel,mKcell,mKcell,,D01,2016-02-21T11:13:39+06:00,
1000000000094825,77753131847,mAltel,mKcell,mKcell,,D07,2016-02-21T11:13:30+06:00,
1000000000094828,77776805420,mMTS,mKarTel,mKarTel,,D77,2016-02-21T11:19:48+06:00,
1000000000094830,77752101538,mKarTel,mKcell,mKcell,,D01,2016-02-21T11:20:42+06:00,
1000000000094831,77473418105,mAltel,mMTS,mMTS,,D07,2016-02-21T11:23:50+06:00,
1000000000094832,77015378819,mMTS,mKcell,mKcell,,D77,2016-02-21T11:26:35+06:00,
1000000000094834,77077497978,mKarTel,mMTS,mMTS,,D01,2016-02-21T11:28:32+06:00,
