NPId,Number,RecipientId,DonorId,RangeHolderId,OldRoute,NewRoute,PortDate,RowCount
1000000000046714,77017071472,mAltel,mKcell,mKcell,,D07,2016-02-12T20:34:33+06:00,3
1000000000046716,77017788633,mAltel,mKcell,mKcell,,D07,2016-02-12T20:40:47+06:00,
1000000000046718,77769609696,mKcell,mKarTel,mKarTel,,D02,2016-02-12T20:50:36+06:00,
