NPId,Number,RecipientId,DonorId,RangeHolderId,OldRoute,NewRoute,PortDate,RowCount
1000000000164668,77078956170,mKarTel,mMTS,mMTS,,D01,2016-05-01T10:38:23+06:00,11
1000000000164669,77714822655,mMTS,mKarTel,mKarTel,,D77,2016-05-01T10:39:20+06:00,
1000000000164670,77784555320,mMTS,mKcell,mKcell,,D77,2016-05-01T10:46:09+06:00,
1000000000164671,77773666868,mMTS,mKarTel,mKarTel,,D77,2016-05-01T10:46:31+06:00,
1000000000164672,77471846281,mKcell,mMTS,mMTS,,D02,2016-05-01T10:47:19+06:00,
1000000000164673,77778895211,mMTS,mKarTel,mKarTel,,D77,2016-05-01T10:52:21+06:00,
1000000000164674,77087572047,mMTS,mAltel,mAltel,,D77,2016-05-01T10:52:24+06:00,
1000000000164675,77756552497,mMTS,mKcell,mKcell,,D77,2016-05-01T10:56:24+06:00,
1000000000164676,77077474434,mKcell,mMTS,mMTS,,D02,2016-05-01T10:56:39+06:00,
1000000000164677,77479188081,mKcell,mMTS,mMTS,,D02,2016-05-01T10:56:41+06:00,
1000000000164678,77012265705,mKarTel,mKcell,mKcell,,D01,2016-05-01T10:58:15+06:00,
