NPId,Number,RecipientId,DonorId,RangeHolderId,OldRoute,NewRoute,PortDate,RowCount
1000000000298798,77770230036,mAltel,mKarTel,mKarTel,,D07,2016-12-22T13:30:36+06:00,18
1000000000298799,77013506242,mAltel,mKcell,mKcell,,D07,2016-12-22T13:32:11+06:00,
1000000000298801,77754000045,mMTS,mKcell,mKcell,,D77,2016-12-22T13:35:23+06:00,
1000000000298802,77025150120,mKcell,mMTS,mKcell,D77,D02,2016-12-22T13:36:59+06:00,
1000000000298803,77785985277,mMTS,mKcell,mKcell,,D77,2016-12-22T13:37:30+06:00,
1000000000298804,77077701315,mMTS,mKcell,mMTS,D02,D77,2016-12-22T13:41:46+06:00,
1000000000298807,77781872265,mMTS,mKcell,mKcell,,D77,2016-12-22T13:43:17+06:00,
1000000000298808,77776947551,mAltel,mKarTel,mKarTel,,D07,2016-12-22T13:44:37+06:00,
1000000000298810,77754579026,mAltel,mKcell,mKcell,,D07,2016-12-22T13:51:13+06:00,
1000000000298811,77005551537,mKcell,mAltel,mAltel,,D02,2016-12-22T13:51:32+06:00,
1000000000298812,77015164486,mAltel,mKcell,mKcell,,D07,2016-12-22T13:50:10+06:00,
1000000000298813,77017809008,mMTS,mAltel,mKcell,D07,D77,2016-12-22T13:51:11+06:00,
1000000000298814,77023014008,mKcell,mAltel,mKcell,D07,D02,2016-12-22T13:52:42+06:00,
1000000000298815,77759740656,mKarTel,mKcell,mKcell,,D01,2016-12-22T13:59:23+06:00,
1000000000298816,77015369962,mKarTel,mKcell,mKcell,,D01,2016-12-22T13:59:26+06:00,
1000000000298817,77015359895,mKarTel,mKcell,mKcell,,D01,2016-12-22T13:59:23+06:00,
1000000000298818,77781744122,mMTS,mKcell,mKcell,,D77,2016-12-22T13:57:47+06:00,
1000000000298819,77083523434,mKcell,mAltel,mAltel,,D02,2016-12-22T13:58:07+06:00,
