NPId,Number,RecipientId,DonorId,RangeHolderId,OldRoute,NewRoute,PortDate,RowCount
1000000000384322,77472544157,mAltel,mMTS,mMTS,,D07,2017-05-17T09:31:16+06:00,8
1000000000384323,77076193273,mAltel,mMTS,mMTS,,D07,2017-05-17T09:39:39+06:00,
1000000000384324,77018545278,mMTS,mKcell,mKcell,,D77,2017-05-17T09:40:02+06:00,
1000000000384325,77772250101,mKarTel,mMTS,mKarTel,D77,D01,2017-05-17T09:42:51+06:00,
1000000000384326,77021524230,mAltel,mKcell,mKcell,,D07,2017-05-17T09:44:05+06:00,
1000000000384330,77784443678,mKcell,mMTS,mKcell,D77,D02,2017-05-17T09:53:48+06:00,
1000000000384331,77017430995,mKcell,mMTS,mKcell,D77,D02,2017-05-17T09:55:02+06:00,
1000000000384333,77020775577,mMTS,mKcell,mKcell,,D77,2017-05-17T09:58:11+06:00,
