NPId,Number,RecipientId,DonorId,RangeHolderId,OldRoute,NewRoute,PortDate,RowCount
1000000000310794,77058190608,mMTS,mKarTel,mKarTel,,D77,2017-01-14T18:02:04+06:00,21
1000000000310796,77029579002,mKarTel,mKcell,mKcell,,D01,2017-01-14T18:02:56+06:00,
1000000000310797,77770002229,mKcell,mKarTel,mKarTel,,D02,2017-01-14T18:04:28+06:00,
1000000000310798,77011348420,mAltel,mKcell,mKcell,,D07,2017-01-14T18:04:33+06:00,
1000000000310799,77475120568,mKarTel,mMTS,mMTS,,D01,2017-01-14T18:05:08+06:00,
1000000000310801,77782672289,mMTS,mKcell,mKcell,,D77,2017-01-14T18:07:47+06:00,
1000000000310803,77789675839,mAltel,mKcell,mKcell,,D07,2017-01-14T18:08:11+06:00,
1000000000310804,77772222157,mAltel,mKarTel,mKarTel,,D07,2017-01-14T18:09:54+06:00,
1000000000310805,77078023504,mKcell,mMTS,mMTS,,D02,2017-01-14T18:11:30+06:00,
1000000000310806,77757172949,mMTS,mKcell,mKcell,,D77,2017-01-14T18:12:50+06:00,
1000000000310807,77001333986,mMTS,mAltel,mAltel,,D77,2017-01-14T18:14:23+06:00,
1000000000310808,77784818558,mKarTel,mKcell,mKcell,,D01,2017-01-14T18:15:57+06:00,
1000000000310809,77773039090,mMTS,mKarTel,mKarTel,,D77,2017-01-14T18:18:09+06:00,
1000000000310810,77782672189,mMTS,mKcell,mKcell,,D77,2017-01-14T18:17:53+06:00,
1000000000310811,77771081698,mKarTel,mKcell,mKarTel,D02,D01,2017-01-14T18:19:38+06:00,
1000000000310812,77774904800,mKcell,mKarTel,mKarTel,,D02,2017-01-14T18:22:28+06:00,
1000000000310813,77011400802,mKarTel,mKcell,mKcell,,D01,2017-01-14T18:22:43+06:00,
1000000000310814,77071234743,mAltel,mMTS,mMTS,,D07,2017-01-14T18:25:59+06:00,
1000000000310816,77075780878,mKarTel,mMTS,mMTS,,D01,2017-01-14T18:28:16+06:00,
1000000000310817,77777151313,mKcell,mKarTel,mKarTel,,D02,2017-01-14T18:29:25+06:00,
1000000000310818,77765539494,mKcell,mKarTel,mKarTel,,D02,2017-01-14T18:29:24+06:00,
