NPId,Number,RecipientId,DonorId,RangeHolderId,OldRoute,NewRoute,PortDate,RowCount
1000000000152016,77017679450,mKarTel,mKcell,mKcell,,D01,2016-04-15T13:54:36+06:00,95
1000000000152016,77017679468,mKarTel,mKcell,mKcell,,D01,2016-04-15T13:54:36+06:00,
1000000000152016,77017682418,mKarTel,mKcell,mKcell,,D01,2016-04-15T13:54:36+06:00,
1000000000152016,77017682489,mKarTel,mKcell,mKcell,,D01,2016-04-15T13:54:36+06:00,
1000000000152016,77017682498,mKarTel,mKcell,mKcell,,D01,2016-04-15T13:54:36+06:00,
1000000000152016,77017682513,mKarTel,mKcell,mKcell,,D01,2016-04-15T13:54:36+06:00,
1000000000152016,77017682537,mKarTel,mKcell,mKcell,,D01,2016-04-15T13:54:36+06:00,
1000000000152016,77017682541,mKarTel,mKcell,mKcell,,D01,2016-04-15T13:54:36+06:00,
1000000000152016,77017682574,mKarTel,mKcell,mKcell,,D01,2016-04-15T13:54:36+06:00,
1000000000152016,77017682595,mKarTel,mKcell,mKcell,,D01,2016-04-15T13:54:36+06:00,
1000000000152016,77017682617,mKarTel,mKcell,mKcell,,D01,2016-04-15T13:54:36+06:00,
1000000000152016,77017682629,mKarTel,mKcell,mKcell,,D01,2016-04-15T13:54:36+06:00,
1000000000152016,77017682635,mKarTel,mKcell,mKcell,,D01,2016-04-15T13:54:36+06:00,
1000000000152016,77017682645,mKarTel,mKcell,mKcell,,D01,2016-04-15T13:54:36+06:00,
1000000000152016,77017682793,mKarTel,mKcell,mKcell,,D01,2016-04-15T13:54:36+06:00,
1000000000152016,77017682850,mKarTel,mKcell,mKcell,,D01,2016-04-15T13:54:36+06:00,
1000000000152016,77017682884,mKarTel,mKcell,mKcell,,D01,2016-04-15T13:54:36+06:00,
1000000000152016,77017683284,mKarTel,mKcell,mKcell,,D01,2016-04-15T13:54:36+06:00,
1000000000152016,77017683382,mKarTel,mKcell,mKcell,,D01,2016-04-15T13:54:36+06:00,
1000000000152016,77017684084,mKarTel,mKcell,mKcell,,D01,2016-04-15T13:54:36+06:00,
1000000000152016,77017684239,mKarTel,mKcell,mKcell,,D01,2016-04-15T13:54:36+06:00,
1000000000152016,77017688023,mKarTel,mKcell,mKcell,,D01,2016-04-15T13:54:36+06:00,
1000000000152016,77017688261,mKarTel,mKcell,mKcell,,D01,2016-04-15T13:54:36+06:00,
1000000000152016,77017688279,mKarTel,mKcell,mKcell,,D01,2016-04-15T13:54:36+06:00,
1000000000152016,77017688287,mKarTel,mKcell,mKcell,,D01,2016-04-15T13:54:36+06:00,
1000000000152016,77017688366,mKarTel,mKcell,mKcell,,D01,2016-04-15T13:54:36+06:00,
1000000000152016,77017851191,mKarTel,mKcell,mKcell,,D01,2016-04-15T13:54:36+06:00,
1000000000152016,77017869354,mKarTel,mKcell,mKcell,,D01,2016-04-15T13:54:36+06:00,
1000000000152016,77017973075,mKarTel,mKcell,mKcell,,D01,2016-04-15T13:54:36+06:00,
1000000000152016,77018036258,mKarTel,mKcell,mKcell,,D01,2016-04-15T13:54:36+06:00,
1000000000152016,77018065914,mKarTel,mKcell,mKcell,,D01,2016-04-15T13:54:36+06:00,
1000000000152016,77018700437,mKarTel,mKcell,mKcell,,D01,2016-04-15T13:54:36+06:00,
1000000000152016,77018761726,mKarTel,mKcell,mKcell,,D01,2016-04-15T13:54:36+06:00,
1000000000152016,77018761733,mKarTel,mKcell,mKcell,,D01,2016-04-15T13:54:36+06:00,
1000000000152016,77018761734,mKarTel,mKcell,mKcell,,D01,2016-04-15T13:54:36+06:00,
1000000000152016,77018761735,mKarTel,mKcell,mKcell,,D01,2016-04-15T13:54:36+06:00,
1000000000152016,77018761736,mKarTel,mKcell,mKcell,,D01,2016-04-15T13:54:36+06:00,
1000000000152016,77018761737,mKarTel,mKcell,mKcell,,D01,2016-04-15T13:54:36+06:00,
1000000000152016,77018761738,mKarTel,mKcell,mKcell,,D01,2016-04-15T13:54:36+06:00,
1000000000152016,77018761740,mKarTel,mKcell,mKcell,,D01,2016-04-15T13:54:36+06:00,
1000000000152016,77018761741,mKarTel,mKcell,mKcell,,D01,2016-04-15T13:54:36+06:00,
1000000000152016,77018761744,mKarTel,mKcell,mKcell,,D01,2016-04-15T13:54:36+06:00,
1000000000152016,77018761745,mKarTel,mKcell,mKcell,,D01,2016-04-15T13:54:36+06:00,
1000000000152016,77018761746,mKarTel,mKcell,mKcell,,D01,2016-04-15T13:54:36+06:00,
1000000000152016,77018761747,mKarTel,mKcell,mKcell,,D01,2016-04-15T13:54:36+06:00,
1000000000152016,77018761748,mKarTel,mKcell,mKcell,,D01,2016-04-15T13:54:36+06:00,
1000000000152016,77018761750,mKarTel,mKcell,mKcell,,D01,2016-04-15T13:54:36+06:00,
1000000000152016,77018761751,mKarTel,mKcell,mKcell,,D01,2016-04-15T13:54:36+06:00,
1000000000152016,77018761752,mKarTel,mKcell,mKcell,,D01,2016-04-15T13:54:36+06:00,
1000000000152016,77018761753,mKarTel,mKcell,mKcell,,D01,2016-04-15T13:54:36+06:00,
1000000000152016,77018761754,mKarTel,mKcell,mKcell,,D01,2016-04-15T13:54:36+06:00,
1000000000152016,77018761755,mKarTel,mKcell,mKcell,,D01,2016-04-15T13:54:36+06:00,
1000000000152016,77018761757,mKarTel,mKcell,mKcell,,D01,2016-04-15T13:54:36+06:00,
1000000000152016,77018761758,mKarTel,mKcell,mKcell,,D01,2016-04-15T13:54:36+06:00,
1000000000152016,77019146062,mKarTel,mKcell,mKcell,,D01,2016-04-15T13:54:36+06:00,
1000000000152016,77019206017,mKarTel,mKcell,mKcell,,D01,2016-04-15T13:54:36+06:00,
1000000000152016,77019555924,mKarTel,mKcell,mKcell,,D01,2016-04-15T13:54:36+06:00,
1000000000152016,77019555926,mKarTel,mKcell,mKcell,,D01,2016-04-15T13:54:36+06:00,
1000000000152016,77019555928,mKarTel,mKcell,mKcell,,D01,2016-04-15T13:54:36+06:00,
1000000000152016,77019596109,mKarTel,mKcell,mKcell,,D01,2016-04-15T13:54:36+06:00,
1000000000152016,77019596321,mKarTel,mKcell,mKcell,,D01,2016-04-15T13:54:36+06:00,
1000000000152016,77019596735,mKarTel,mKcell,mKcell,,D01,2016-04-15T13:54:36+06:00,
1000000000152016,77019596741,mKarTel,mKcell,mKcell,,D01,2016-04-15T13:54:36+06:00,
1000000000152016,77019835745,mKarTel,mKcell,mKcell,,D01,2016-04-15T13:54:36+06:00,
1000000000152016,77019930929,mKarTel,mKcell,mKcell,,D01,2016-04-15T13:54:36+06:00,
1000000000152593,77017272726,mMTS,mKcell,mKcell,,D77,2016-04-15T13:32:01+06:00,
1000000000152594,77017626281,mKcell,mAltel,mKcell,D07,D02,2016-04-15T13:39:38+06:00,
1000000000152595,77077508583,mKarTel,mKcell,mMTS,D02,D01,2016-04-15T13:40:28+06:00,
1000000000152596,77781257525,mKarTel,mAltel,mKcell,D07,D01,2016-04-15T13:32:23+06:00,
1000000000152597,77779220610,mMTS,mKarTel,mKarTel,,D77,2016-04-15T13:33:11+06:00,
1000000000152598,77082229897,mMTS,mAltel,mAltel,,D77,2016-04-15T13:31:59+06:00,
1000000000152600,77011117837,mKarTel,mKcell,mKcell,,D01,2016-04-15T13:40:26+06:00,
1000000000152603,77027058004,mMTS,mKcell,mKcell,,D77,2016-04-15T13:39:46+06:00,
1000000000152604,77757844108,mMTS,mKcell,mKcell,,D77,2016-04-15T13:39:46+06:00,
1000000000152605,77076979796,mKarTel,mMTS,mMTS,,D01,2016-04-15T13:37:08+06:00,
1000000000152607,77013259797,mMTS,mKcell,mKcell,,D77,2016-04-15T13:41:22+06:00,
1000000000152608,77026788799,mMTS,mKcell,mKcell,,D77,2016-04-15T13:41:22+06:00,
1000000000152610,77086089927,mMTS,mAltel,mAltel,,D77,2016-04-15T13:39:35+06:00,
1000000000152611,77710504646,mKcell,mKarTel,mKarTel,,D02,2016-04-15T13:43:43+06:00,
1000000000152613,77016185776,mMTS,mKcell,mKcell,,D77,2016-04-15T13:43:49+06:00,
1000000000152615,77001871103,mMTS,mAltel,mAltel,,D77,2016-04-15T13:41:58+06:00,
1000000000152616,77054813366,mKcell,mKarTel,mKarTel,,D02,2016-04-15T13:44:36+06:00,
1000000000152619,77019621543,mKcell,mKarTel,mKcell,D01,D02,2016-04-15T13:46:02+06:00,
1000000000152621,77018686839,mKcell,mMTS,mKcell,D77,D02,2016-04-15T13:45:36+06:00,
1000000000152623,77003917849,mMTS,mAltel,mAltel,,D77,2016-04-15T13:44:41+06:00,
1000000000152625,77000270077,mKcell,mAltel,mAltel,,D02,2016-04-15T13:47:09+06:00,
1000000000152627,77058701283,mMTS,mKarTel,mKarTel,,D77,2016-04-15T13:49:48+06:00,
1000000000152628,77011116720,mMTS,mKcell,mKcell,,D77,2016-04-15T13:48:55+06:00,
1000000000152632,77052078063,mMTS,mKarTel,mKarTel,,D77,2016-04-15T13:54:41+06:00,
1000000000152633,77088777017,mMTS,mAltel,mAltel,,D77,2016-04-15T13:52:03+06:00,
1000000000152635,77773304539,mMTS,mKarTel,mKarTel,,D77,2016-04-15T13:54:41+06:00,
1000000000152636,77075513555,mKcell,mMTS,mMTS,,D02,2016-04-15T13:59:49+06:00,
1000000000152641,77089142286,mMTS,mAltel,mAltel,,D77,2016-04-15T13:55:08+06:00,
1000000000152643,77017123878,mKarTel,mAltel,mKcell,D07,D01,2016-04-15T13:56:08+06:00,
1000000000152644,77087777947,mMTS,mAltel,mAltel,,D77,2016-04-15T13:58:19+06:00,
