NPId,Number,RecipientId,DonorId,RangeHolderId,OldRoute,NewRoute,PortDate,RowCount
1000000000439335,77075094094,mKcell,mMTS,mMTS,,D02,2017-08-13T18:00:03+06:00,6
1000000000439336,77005150040,mKcell,mAltel,mAltel,,D02,2017-08-13T18:03:38+06:00,
1000000000439337,77026440075,mMTS,mKcell,mKcell,,D77,2017-08-13T18:14:29+06:00,
1000000000439338,77472220051,mMTS,mKcell,mMTS,D02,D77,2017-08-13T18:15:54+06:00,
1000000000439339,77760003636,mKcell,mMTS,mKarTel,D77,D02,2017-08-13T18:25:53+06:00,
1000000000439340,77477557080,mKarTel,mMTS,mMTS,,D01,2017-08-13T18:29:59+06:00,
