NPId,Number,RecipientId,DonorId,RangeHolderId,OldRoute,NewRoute,PortDate,RowCount
1000000000307291,77776708731,mAltel,mKarTel,mKarTel,,D07,2017-01-08T10:36:00+06:00,8
1000000000307293,77714365688,mMTS,mKarTel,mKarTel,,D77,2017-01-08T10:38:01+06:00,
1000000000307294,77016466913,mMTS,mKcell,mKcell,,D77,2017-01-08T10:38:21+06:00,
1000000000307296,77755631644,mMTS,mKcell,mKcell,,D77,2017-01-08T10:45:04+06:00,
1000000000307298,77714365440,mMTS,mKarTel,mKarTel,,D77,2017-01-08T10:47:59+06:00,
1000000000307299,77059123838,mAltel,mKarTel,mKarTel,,D07,2017-01-08T10:48:20+06:00,
1000000000307300,77052070208,mMTS,mKarTel,mKarTel,,D77,2017-01-08T10:51:35+06:00,
1000000000307301,77786739138,mMTS,mKcell,mKcell,,D77,2017-01-08T10:52:48+06:00,
