NPId,Number,RecipientId,DonorId,RangeHolderId,OldRoute,NewRoute,PortDate,RowCount
1000000000334670,77774619712,mMTS,mKarTel,mKarTel,,D77,2017-02-25T09:33:03+06:00,3
1000000000334672,77774607695,mMTS,mKarTel,mKarTel,,D77,2017-02-25T09:53:09+06:00,
1000000000334673,77776120829,mMTS,mKarTel,mKarTel,,D77,2017-02-25T09:53:11+06:00,
