NPId,Number,RecipientId,DonorId,RangeHolderId,OldRoute,NewRoute,PortDate,RowCount
1000000000226535,77017335014,mKarTel,mKcell,mKcell,,D01,2016-08-10T14:12:30+06:00,22
1000000000226803,77476065166,mKcell,mMTS,mMTS,,D02,2016-08-10T14:00:09+06:00,
1000000000226806,77083562265,mMTS,mAltel,mAltel,,D77,2016-08-10T14:01:18+06:00,
1000000000226808,77021026845,mKarTel,mKcell,mKcell,,D01,2016-08-10T14:08:28+06:00,
1000000000226809,77058031515,mMTS,mKarTel,mKarTel,,D77,2016-08-10T14:06:18+06:00,
1000000000226811,77077776937,mKarTel,mMTS,mMTS,,D01,2016-08-10T14:08:37+06:00,
1000000000226815,77017860734,mKarTel,mKcell,mKcell,,D01,2016-08-10T14:11:49+06:00,
1000000000226816,77772243156,mMTS,mKarTel,mKarTel,,D77,2016-08-10T14:12:50+06:00,
1000000000226818,77074564546,mKarTel,mMTS,mMTS,,D01,2016-08-10T14:13:52+06:00,
1000000000226819,77472017210,mAltel,mMTS,mMTS,,D07,2016-08-10T14:14:39+06:00,
1000000000226820,77714443311,mMTS,mKarTel,mKarTel,,D77,2016-08-10T14:17:24+06:00,
1000000000226821,77015997708,mMTS,mKcell,mKcell,,D77,2016-08-10T14:19:03+06:00,
1000000000226823,77784530400,mKcell,mAltel,mKcell,D07,D02,2016-08-10T14:23:13+06:00,
1000000000226824,77019990024,mMTS,mKcell,mKcell,,D77,2016-08-10T14:24:16+06:00,
1000000000226826,77073303903,mKarTel,mMTS,mMTS,,D01,2016-08-10T14:26:01+06:00,
1000000000226827,77770159334,mKcell,mKarTel,mKarTel,,D02,2016-08-10T14:26:50+06:00,
1000000000226828,77714474674,mMTS,mKarTel,mKarTel,,D77,2016-08-10T14:26:59+06:00,
1000000000226829,77784530500,mKcell,mAltel,mKcell,D07,D02,2016-08-10T14:27:39+06:00,
1000000000226831,77758173433,mMTS,mKcell,mKcell,,D77,2016-08-10T14:27:47+06:00,
1000000000226833,77714422233,mMTS,mKarTel,mKarTel,,D77,2016-08-10T14:29:22+06:00,
1000000000226834,77001761000,mKcell,mAltel,mAltel,,D02,2016-08-10T14:29:32+06:00,
1000000000226835,77016844345,mKcell,mMTS,mKcell,D77,D02,2016-08-10T14:29:29+06:00,
