NPId,Number,RecipientId,DonorId,RangeHolderId,OldRoute,NewRoute,PortDate,RowCount
1000000000422627,77054434343,mMTS,mKarTel,mKarTel,,D77,2017-07-16T10:37:24+06:00,4
1000000000422628,77777868687,mKarTel,mMTS,mKarTel,D77,D01,2017-07-16T10:46:05+06:00,
1000000000422629,77756060140,mKcell,mMTS,mKcell,D77,D02,2017-07-16T10:47:59+06:00,
1000000000422631,77776666306,mKcell,mMTS,mKarTel,D77,D02,2017-07-16T10:54:17+06:00,
