NPId,Number,RecipientId,DonorId,RangeHolderId,OldRoute,NewRoute,PortDate,RowCount
1000000000437603,77472011111,mKcell,mMTS,mMTS,,D02,2017-08-10T09:37:50+06:00,7
1000000000437606,77053221682,mMTS,mKarTel,mKarTel,,D77,2017-08-10T09:44:52+06:00,
1000000000437607,77013891526,mKarTel,mKcell,mKcell,,D01,2017-08-10T09:47:35+06:00,
1000000000437608,77756813848,mKarTel,mKcell,mKcell,,D01,2017-08-10T09:52:26+06:00,
1000000000437609,77072691782,mKarTel,mMTS,mMTS,,D01,2017-08-10T09:52:46+06:00,
1000000000437610,77773691077,mMTS,mKarTel,mKarTel,,D77,2017-08-10T09:54:17+06:00,
1000000000437611,77776252471,mKarTel,mMTS,mKarTel,D77,D01,2017-08-10T09:57:50+06:00,
