NPId,Number,RecipientId,DonorId,RangeHolderId,OldRoute,NewRoute,PortDate,RowCount
1000000000127920,77007781988,mMTS,mAltel,mAltel,,D77,2016-03-17T17:31:23+06:00,29
1000000000127921,77013289340,mMTS,mKcell,mKcell,,D77,2016-03-17T17:31:37+06:00,
1000000000127922,77785558811,mMTS,mKcell,mKcell,,D77,2016-03-17T17:31:38+06:00,
1000000000127923,77753396840,mMTS,mKcell,mKcell,,D77,2016-03-17T17:32:20+06:00,
1000000000127924,77774948181,mMTS,mKarTel,mKarTel,,D77,2016-03-17T17:33:42+06:00,
1000000000127925,77058000423,mAltel,mKarTel,mKarTel,,D07,2016-03-17T17:33:42+06:00,
1000000000127926,77021888229,mAltel,mKcell,mKcell,,D07,2016-03-17T17:32:56+06:00,
1000000000127927,77055545555,mKcell,mKarTel,mKarTel,,D02,2016-03-17T17:34:36+06:00,
1000000000127928,77018900190,mAltel,mKcell,mKcell,,D07,2016-03-17T17:34:45+06:00,
1000000000127931,77002821300,mMTS,mAltel,mAltel,,D77,2016-03-17T17:35:01+06:00,
1000000000127932,77761619696,mAltel,mKarTel,mKarTel,,D07,2016-03-17T17:37:28+06:00,
1000000000127933,77714293766,mMTS,mKarTel,mKarTel,,D77,2016-03-17T17:37:48+06:00,
1000000000127936,77057317917,mMTS,mKarTel,mKarTel,,D77,2016-03-17T17:40:25+06:00,
1000000000127937,77011213885,mAltel,mKcell,mKcell,,D07,2016-03-17T17:39:36+06:00,
1000000000127938,77770521816,mMTS,mKarTel,mKarTel,,D77,2016-03-17T17:40:47+06:00,
1000000000127939,77014100502,mMTS,mKcell,mKcell,,D77,2016-03-17T17:40:10+06:00,
1000000000127940,77786116360,mMTS,mKcell,mKcell,,D77,2016-03-17T17:40:41+06:00,
1000000000127941,77779693999,mMTS,mKarTel,mKarTel,,D77,2016-03-17T17:42:17+06:00,
1000000000127942,77026161998,mMTS,mKcell,mKcell,,D77,2016-03-17T17:41:46+06:00,
1000000000127945,77026779945,mMTS,mKcell,mKcell,,D77,2016-03-17T17:45:18+06:00,
1000000000127946,77776773522,mAltel,mKarTel,mKarTel,,D07,2016-03-17T17:47:26+06:00,
1000000000127947,77014311460,mMTS,mKcell,mKcell,,D77,2016-03-17T17:47:01+06:00,
1000000000127948,77710959600,mMTS,mKarTel,mKarTel,,D77,2016-03-17T17:49:32+06:00,
1000000000127949,77015354687,mKcell,mAltel,mKcell,D07,D02,2016-03-17T17:50:16+06:00,
1000000000127950,77078067461,mAltel,mMTS,mMTS,,D07,2016-03-17T17:49:52+06:00,
1000000000127951,77765003628,mMTS,mKarTel,mKarTel,,D77,2016-03-17T17:51:26+06:00,
1000000000127956,77078367707,mAltel,mMTS,mMTS,,D07,2016-03-17T17:56:31+06:00,
1000000000127958,77087457500,mMTS,mAltel,mAltel,,D77,2016-03-17T17:56:52+06:00,
1000000000127959,77764544666,mMTS,mKarTel,mKarTel,,D77,2016-03-17T17:58:37+06:00,
