NPId,Number,RecipientId,DonorId,RangeHolderId,OldRoute,NewRoute,PortDate,RowCount
1000000000259724,77056587227,mKarTel,mKcell,mKarTel,D02,D01,2016-10-11T10:04:58+06:00,13
1000000000259854,77015345828,mKarTel,mKcell,mKcell,,D01,2016-10-11T10:20:44+06:00,
1000000000260256,77763353534,mMTS,mKarTel,mKarTel,,D77,2016-10-11T10:03:15+06:00,
1000000000260257,77717758553,mKcell,mKarTel,mKarTel,,D02,2016-10-11T10:24:39+06:00,
1000000000260259,77015320308,mKcell,mKarTel,mKcell,D01,D02,2016-10-11T10:13:51+06:00,
1000000000260260,77779001000,mMTS,mKarTel,mKarTel,,D77,2016-10-11T10:13:43+06:00,
1000000000260262,77717801080,mKcell,mKarTel,mKarTel,,D02,2016-10-11T10:29:45+06:00,
1000000000260269,77773111110,mMTS,mKarTel,mKarTel,,D77,2016-10-11T10:18:57+06:00,
1000000000260272,77783001100,mKarTel,mAltel,mKcell,D07,D01,2016-10-11T10:18:57+06:00,
1000000000260274,77076948182,mAltel,mMTS,mMTS,,D07,2016-10-11T10:19:25+06:00,
1000000000260275,77475553187,mKarTel,mMTS,mMTS,,D01,2016-10-11T10:22:39+06:00,
1000000000260276,77082010181,mMTS,mAltel,mAltel,,D77,2016-10-11T10:21:15+06:00,
1000000000260279,77017655000,mMTS,mAltel,mKcell,D07,D77,2016-10-11T10:25:24+06:00,
