NPId,Number,RecipientId,DonorId,RangeHolderId,OldRoute,NewRoute,PortDate,RowCount
1000000000445985,77007320235,mKarTel,mAltel,mAltel,,D01,2017-08-26T10:10:49+06:00,8
1000000000445986,77000888089,mMTS,mAltel,mAltel,,D77,2017-08-26T10:11:04+06:00,
1000000000445987,77077540445,mAltel,mMTS,mMTS,,D07,2017-08-26T10:12:23+06:00,
1000000000445988,77477999956,mKarTel,mMTS,mMTS,,D01,2017-08-26T10:15:18+06:00,
1000000000445989,77026293222,mKarTel,mKcell,mKcell,,D01,2017-08-26T10:21:42+06:00,
1000000000445990,77071177848,mAltel,mMTS,mMTS,,D07,2017-08-26T10:23:15+06:00,
1000000000445991,77058440472,mMTS,mKarTel,mKarTel,,D77,2017-08-26T10:24:05+06:00,
1000000000445992,77071116643,mKcell,mMTS,mMTS,,D02,2017-08-26T10:25:06+06:00,
