NPId,Number,RecipientId,DonorId,RangeHolderId,OldRoute,NewRoute,PortDate,RowCount
1000000000170944,77787779555,mMTS,mKcell,mKcell,,D77,2016-05-10T14:30:02+06:00,29
1000000000170945,77767254647,mMTS,mKarTel,mKarTel,,D77,2016-05-10T14:30:07+06:00,
1000000000170946,77083437339,mMTS,mAltel,mAltel,,D77,2016-05-10T14:32:04+06:00,
1000000000170947,77016205538,mKcell,mAltel,mKcell,D07,D02,2016-05-10T14:35:05+06:00,
1000000000170949,77089595417,mMTS,mAltel,mAltel,,D77,2016-05-10T14:37:02+06:00,
1000000000170950,77714614586,mMTS,mKarTel,mKarTel,,D77,2016-05-10T14:37:24+06:00,
1000000000170952,77083483828,mMTS,mAltel,mAltel,,D77,2016-05-10T14:38:09+06:00,
1000000000170953,77077910321,mAltel,mMTS,mMTS,,D07,2016-05-10T14:39:08+06:00,
1000000000170954,77089086161,mMTS,mAltel,mAltel,,D77,2016-05-10T14:39:25+06:00,
1000000000170955,77077484977,mKarTel,mAltel,mMTS,D07,D01,2016-05-10T14:39:50+06:00,
1000000000170956,77014315726,mMTS,mKcell,mKcell,,D77,2016-05-10T14:40:36+06:00,
1000000000170957,77012236059,mMTS,mKcell,mKcell,,D77,2016-05-10T14:41:44+06:00,
1000000000170958,77754738484,mAltel,mKcell,mKcell,,D07,2016-05-10T14:42:02+06:00,
1000000000170959,77072878500,mMTS,mAltel,mMTS,D07,D77,2016-05-10T14:41:50+06:00,
1000000000170961,77017497016,mMTS,mKcell,mKcell,,D77,2016-05-10T14:42:24+06:00,
1000000000170962,77054855333,mMTS,mKarTel,mKarTel,,D77,2016-05-10T14:44:03+06:00,
1000000000170963,77013306565,mAltel,mKcell,mKcell,,D07,2016-05-10T14:45:51+06:00,
1000000000170964,77715785986,mMTS,mKarTel,mKarTel,,D77,2016-05-10T14:46:58+06:00,
1000000000170965,77077490766,mAltel,mMTS,mMTS,,D07,2016-05-10T14:48:21+06:00,
1000000000170966,77719990647,mKcell,mKarTel,mKarTel,,D02,2016-05-10T14:50:18+06:00,
1000000000170967,77002714077,mMTS,mAltel,mAltel,,D77,2016-05-10T14:49:27+06:00,
1000000000170968,77089602128,mMTS,mAltel,mAltel,,D77,2016-05-10T14:50:05+06:00,
1000000000170969,77751592767,mKcell,mAltel,mKcell,D07,D02,2016-05-10T14:51:11+06:00,
1000000000170970,77757527252,mMTS,mKcell,mKcell,,D77,2016-05-10T14:54:55+06:00,
1000000000170971,77755773844,mMTS,mKcell,mKcell,,D77,2016-05-10T14:55:50+06:00,
1000000000170972,77757850710,mMTS,mKcell,mKcell,,D77,2016-05-10T14:57:30+06:00,
1000000000170973,77761800500,mKcell,mKarTel,mKarTel,,D02,2016-05-10T14:58:45+06:00,
1000000000170974,77017495490,mMTS,mKcell,mKcell,,D77,2016-05-10T14:59:19+06:00,
1000000000170975,77785773757,mMTS,mAltel,mKcell,D07,D77,2016-05-10T14:58:49+06:00,
