NPId,Number,RecipientId,DonorId,RangeHolderId,OldRoute,NewRoute,PortDate,RowCount
1000000000424293,77078947283,mKcell,mMTS,mMTS,,D02,2017-07-18T22:04:32+06:00,3
1000000000424294,77753861961,mMTS,mKcell,mKcell,,D77,2017-07-18T22:06:23+06:00,
1000000000424295,77055051985,mKcell,mMTS,mKarTel,D77,D02,2017-07-18T22:07:57+06:00,
