NPId,Number,RecipientId,DonorId,RangeHolderId,OldRoute,NewRoute,PortDate,RowCount
1000000000400189,77051650074,mMTS,mKarTel,mKarTel,,D77,2017-06-09T09:33:16+06:00,12
1000000000400190,77018873165,mKarTel,mKcell,mKcell,,D01,2017-06-09T09:36:15+06:00,
1000000000400194,77024859996,mMTS,mKcell,mKcell,,D77,2017-06-09T09:44:44+06:00,
1000000000400196,77077308796,mAltel,mMTS,mMTS,,D07,2017-06-09T09:46:38+06:00,
1000000000400197,77022366662,mKcell,mAltel,mKcell,D07,D02,2017-06-09T09:47:37+06:00,
1000000000400198,77000078707,mKarTel,mKcell,mAltel,D02,D01,2017-06-09T09:48:13+06:00,
1000000000400199,77770490830,mMTS,mKarTel,mKarTel,,D77,2017-06-09T09:50:31+06:00,
1000000000400200,77085955957,mMTS,mKcell,mAltel,D02,D77,2017-06-09T09:52:57+06:00,
1000000000400201,77022019090,mAltel,mKcell,mKcell,,D07,2017-06-09T09:54:25+06:00,
1000000000400202,77023124835,mKcell,mMTS,mKcell,D77,D02,2017-06-09T09:55:53+06:00,
1000000000400203,77766444944,mMTS,mKarTel,mKarTel,,D77,2017-06-09T09:58:08+06:00,
1000000000400204,77026787827,mAltel,mKcell,mKcell,,D07,2017-06-09T09:58:49+06:00,
