NPId,Number,RecipientId,DonorId,RangeHolderId,OldRoute,NewRoute,PortDate,RowCount
1000000000105535,77014558858,mMTS,mKcell,mKcell,,D77,2016-03-03T11:31:59+06:00,29
1000000000105537,77017145705,mKarTel,mKcell,mKcell,,D01,2016-03-03T11:42:10+06:00,
1000000000105537,77019594736,mKarTel,mKcell,mKcell,,D01,2016-03-03T11:42:10+06:00,
1000000000105539,77082712828,mMTS,mAltel,mAltel,,D77,2016-03-03T11:33:37+06:00,
1000000000105541,77710668888,mKcell,mKarTel,mKarTel,,D02,2016-03-03T11:36:34+06:00,
1000000000105542,77751848666,mMTS,mKcell,mKcell,,D77,2016-03-03T11:37:02+06:00,
1000000000105544,77786773312,mMTS,mKcell,mKcell,,D77,2016-03-03T11:37:20+06:00,
1000000000105545,77056611534,mMTS,mKarTel,mKarTel,,D77,2016-03-03T11:37:51+06:00,
1000000000105547,77013356673,mMTS,mKcell,mKcell,,D77,2016-03-03T11:41:08+06:00,
1000000000105548,77056796001,mMTS,mKarTel,mKarTel,,D77,2016-03-03T11:41:34+06:00,
1000000000105549,77002212120,mKcell,mAltel,mAltel,,D02,2016-03-03T11:42:00+06:00,
1000000000105550,77014335446,mMTS,mKcell,mKcell,,D77,2016-03-03T11:42:15+06:00,
1000000000105551,77028753433,mMTS,mKcell,mKcell,,D77,2016-03-03T11:43:33+06:00,
1000000000105552,77714909993,mMTS,mKarTel,mKarTel,,D77,2016-03-03T11:47:31+06:00,
1000000000105553,77071966282,mKarTel,mMTS,mMTS,,D01,2016-03-03T11:49:18+06:00,
1000000000105554,77012210619,mMTS,mKcell,mKcell,,D77,2016-03-03T11:50:57+06:00,
1000000000105555,77076801334,mKcell,mMTS,mMTS,,D02,2016-03-03T11:50:56+06:00,
1000000000105556,77028620582,mAltel,mKcell,mKcell,,D07,2016-03-03T11:51:18+06:00,
1000000000105557,77012040026,mMTS,mKcell,mKcell,,D77,2016-03-03T11:51:17+06:00,
1000000000105560,77071599493,mAltel,mMTS,mMTS,,D07,2016-03-03T11:52:49+06:00,
1000000000105561,77015704882,mKarTel,mKcell,mKcell,,D01,2016-03-03T11:55:52+06:00,
1000000000105562,77071699493,mAltel,mMTS,mMTS,,D07,2016-03-03T11:55:30+06:00,
1000000000105563,77471234512,mAltel,mMTS,mMTS,,D07,2016-03-03T11:56:30+06:00,
1000000000105564,77029717109,mAltel,mKcell,mKcell,,D07,2016-03-03T11:56:51+06:00,
1000000000105565,77777213156,mAltel,mKarTel,mKarTel,,D07,2016-03-03T11:57:25+06:00,
1000000000105566,77479018177,mAltel,mMTS,mMTS,,D07,2016-03-03T11:57:15+06:00,
1000000000105567,77019185839,mKarTel,mKcell,mKcell,,D01,2016-03-03T11:58:26+06:00,
1000000000105568,77776523216,mMTS,mKarTel,mKarTel,,D77,2016-03-03T11:58:49+06:00,
1000000000105569,77011855900,mAltel,mKcell,mKcell,,D07,2016-03-03T11:59:06+06:00,
