NPId,Number,RecipientId,DonorId,RangeHolderId,OldRoute,NewRoute,PortDate,RowCount
1000000000430021,77711017474,mMTS,mKarTel,mKarTel,D01,D77,2017-07-28T17:00:36+06:00,25
1000000000430023,77077766725,mAltel,mMTS,mMTS,,D07,2017-07-28T17:01:15+06:00,
1000000000430024,77077334337,mKcell,mMTS,mMTS,,D02,2017-07-28T17:05:59+06:00,
1000000000430025,77752131969,mAltel,mKcell,mKcell,,D07,2017-07-28T17:06:35+06:00,
1000000000430026,77788308622,mKarTel,mKcell,mKcell,,D01,2017-07-28T17:07:21+06:00,
1000000000430029,77763110022,mMTS,mKarTel,mKarTel,,D77,2017-07-28T17:07:52+06:00,
1000000000430031,77022207979,mKarTel,mKcell,mKcell,,D01,2017-07-28T17:15:16+06:00,
1000000000430033,77770503278,mMTS,mKarTel,mKarTel,,D77,2017-07-28T17:11:53+06:00,
1000000000430034,77001117909,mMTS,mAltel,mAltel,,D77,2017-07-28T17:11:32+06:00,
1000000000430035,77024551716,mMTS,mKcell,mKcell,,D77,2017-07-28T17:14:43+06:00,
1000000000430036,77055082870,mKarTel,mMTS,mKarTel,D77,D01,2017-07-28T17:14:59+06:00,
1000000000430037,77022459911,mKcell,mAltel,mKcell,D07,D02,2017-07-28T17:15:26+06:00,
1000000000430038,77782804442,mKcell,mMTS,mKcell,D77,D02,2017-07-28T17:16:28+06:00,
1000000000430039,77471789476,mKcell,mMTS,mMTS,,D02,2017-07-28T17:17:11+06:00,
1000000000430041,77471910909,mKcell,mMTS,mMTS,,D02,2017-07-28T17:19:04+06:00,
1000000000430042,77010140423,mMTS,mKcell,mKcell,,D77,2017-07-28T17:19:09+06:00,
1000000000430044,77079881015,mKarTel,mAltel,mMTS,D07,D01,2017-07-28T17:20:44+06:00,
1000000000430046,77004978787,mAltel,mMTS,mAltel,D77,D07,2017-07-28T17:21:00+06:00,
1000000000430047,77014823471,mAltel,mKcell,mKcell,,D07,2017-07-28T17:22:03+06:00,
1000000000430048,77750050057,mAltel,mKcell,mKcell,,D07,2017-07-28T17:22:15+06:00,
1000000000430052,77072225144,mKarTel,mMTS,mMTS,,D01,2017-07-28T17:26:43+06:00,
1000000000430054,77782350642,mMTS,mKcell,mKcell,,D77,2017-07-28T17:27:19+06:00,
1000000000430055,77006101064,mMTS,mAltel,mAltel,,D77,2017-07-28T17:28:05+06:00,
1000000000430056,77016090652,mKarTel,mKcell,mKcell,,D01,2017-07-28T17:28:26+06:00,
1000000000430058,77073171555,mKarTel,mMTS,mMTS,,D01,2017-07-28T17:29:01+06:00,
