NPId,Number,RecipientId,DonorId,RangeHolderId,OldRoute,NewRoute,PortDate,RowCount
1000000000379058,77024788899,mMTS,mKcell,mKcell,,D77,2017-05-06T10:30:21+06:00,18
1000000000379059,77753300444,mMTS,mKcell,mKcell,,D77,2017-05-06T10:30:48+06:00,
1000000000379062,77014448558,mKcell,mAltel,mKcell,D07,D02,2017-05-06T10:35:06+06:00,
1000000000379063,77021415747,mKcell,mMTS,mKcell,D77,D02,2017-05-06T10:37:11+06:00,
1000000000379064,77076641143,mKarTel,mMTS,mMTS,,D01,2017-05-06T10:40:10+06:00,
1000000000379065,77017194077,mAltel,mKcell,mKcell,,D07,2017-05-06T10:40:57+06:00,
1000000000379066,77078754060,mKarTel,mMTS,mMTS,,D01,2017-05-06T10:42:02+06:00,
1000000000379067,77771799000,mKarTel,mAltel,mKarTel,D07,D01,2017-05-06T10:43:08+06:00,
1000000000379068,77772425000,mKcell,mKarTel,mKarTel,,D02,2017-05-06T10:44:56+06:00,
1000000000379069,77087630014,mKarTel,mAltel,mAltel,,D01,2017-05-06T10:44:47+06:00,
1000000000379070,77017194076,mAltel,mKcell,mKcell,,D07,2017-05-06T10:44:49+06:00,
1000000000379072,77760288887,mMTS,mKarTel,mKarTel,,D77,2017-05-06T10:48:45+06:00,
1000000000379073,77022552340,mKarTel,mKcell,mKcell,,D01,2017-05-06T10:52:17+06:00,
1000000000379075,77015129771,mKcell,mAltel,mKcell,D07,D02,2017-05-06T10:55:22+06:00,
1000000000379076,77073839896,mAltel,mMTS,mMTS,,D07,2017-05-06T10:56:23+06:00,
1000000000379077,77010860505,mKcell,mMTS,mKcell,D77,D02,2017-05-06T10:57:18+06:00,
1000000000379078,77019828204,mAltel,mKcell,mKcell,,D07,2017-05-06T10:57:55+06:00,
1000000000379079,77019157979,mKarTel,mKcell,mKcell,,D01,2017-05-06T10:58:37+06:00,
