NPId,Number,RecipientId,DonorId,RangeHolderId,OldRoute,NewRoute,PortDate,RowCount
1000000000242195,77765520352,mKcell,mKarTel,mKarTel,,D02,2016-09-08T09:42:07+06:00,10
1000000000242202,77009214509,mMTS,mAltel,mAltel,,D77,2016-09-08T09:35:23+06:00,
1000000000242204,77071916541,mKarTel,mMTS,mMTS,,D01,2016-09-08T09:39:15+06:00,
1000000000242206,77055868585,mMTS,mKarTel,mKarTel,,D77,2016-09-08T09:40:56+06:00,
1000000000242207,77775758401,mKarTel,mMTS,mKarTel,D77,D01,2016-09-08T09:42:40+06:00,
1000000000242209,77017837876,mKcell,mKarTel,mKcell,D01,D02,2016-09-08T09:48:16+06:00,
1000000000242210,77017577017,mMTS,mKcell,mKcell,,D77,2016-09-08T09:50:34+06:00,
1000000000242211,77075298440,mKarTel,mMTS,mMTS,,D01,2016-09-08T09:51:35+06:00,
1000000000242212,77057074503,mKarTel,mMTS,mKarTel,D77,D01,2016-09-08T09:52:56+06:00,
1000000000242217,77014778815,mMTS,mKcell,mKcell,,D77,2016-09-08T09:57:56+06:00,
