NPId,Number,RecipientId,DonorId,RangeHolderId,OldRoute,NewRoute,PortDate,RowCount
1000000000388708,77052875808,mAltel,mKarTel,mKarTel,,D07,2017-05-25T12:30:01+06:00,18
1000000000388710,77011433899,mKarTel,mKcell,mKcell,,D01,2017-05-25T12:30:24+06:00,
1000000000388711,77010449955,mMTS,mKcell,mKcell,,D77,2017-05-25T12:31:39+06:00,
1000000000388712,77078289688,mKcell,mMTS,mMTS,,D02,2017-05-25T12:33:50+06:00,
1000000000388713,77053213705,mMTS,mKarTel,mKarTel,,D77,2017-05-25T12:33:53+06:00,
1000000000388714,77479207749,mAltel,mMTS,mMTS,,D07,2017-05-25T12:35:13+06:00,
1000000000388717,77022378087,mMTS,mKcell,mKcell,,D77,2017-05-25T12:40:50+06:00,
1000000000388718,77783556868,mKcell,mMTS,mKcell,D77,D02,2017-05-25T12:41:06+06:00,
1000000000388721,77716930303,mMTS,mKarTel,mKarTel,,D77,2017-05-25T12:46:58+06:00,
1000000000388722,77013334350,mAltel,mKcell,mKcell,,D07,2017-05-25T12:48:08+06:00,
1000000000388723,77025380287,mKcell,mMTS,mKcell,D77,D02,2017-05-25T12:50:05+06:00,
1000000000388725,77085288088,mMTS,mAltel,mAltel,,D77,2017-05-25T12:50:43+06:00,
1000000000388726,77053850021,mKarTel,mAltel,mKarTel,D07,D01,2017-05-25T12:51:32+06:00,
1000000000388729,77473968646,mAltel,mMTS,mMTS,,D07,2017-05-25T12:55:40+06:00,
1000000000388730,77053629041,mMTS,mKarTel,mKarTel,,D77,2017-05-25T12:58:33+06:00,
1000000000388731,77055366878,mAltel,mKarTel,mKarTel,,D07,2017-05-25T12:58:38+06:00,
1000000000388732,77764922777,mKcell,mKarTel,mKarTel,,D02,2017-05-25T12:59:40+06:00,
1000000000388733,77774149988,mKarTel,mMTS,mKarTel,D77,D01,2017-05-25T12:59:29+06:00,
