NPId,Number,RecipientId,DonorId,RangeHolderId,OldRoute,NewRoute,PortDate,RowCount
1000000000356063,77761337884,mMTS,mKarTel,mKarTel,,D77,2017-03-31T13:00:08+06:00,42
1000000000356084,77761337832,mMTS,mKarTel,mKarTel,,D77,2017-03-31T13:00:08+06:00,
1000000000356091,77761337863,mMTS,mKarTel,mKarTel,,D77,2017-03-31T13:00:08+06:00,
1000000000356094,77761337862,mMTS,mKarTel,mKarTel,,D77,2017-03-31T13:00:08+06:00,
1000000000356101,77761337864,mMTS,mKarTel,mKarTel,,D77,2017-03-31T13:00:06+06:00,
1000000000356383,77712999889,mAltel,mKcell,mKarTel,D02,D07,2017-03-31T13:00:08+06:00,
1000000000356385,77015038891,mKcell,mMTS,mKcell,D77,D02,2017-03-31T13:01:34+06:00,
1000000000356386,77785822460,mMTS,mKcell,mKcell,,D77,2017-03-31T13:01:56+06:00,
1000000000356387,77015444311,mMTS,mKcell,mKcell,,D77,2017-03-31T13:01:58+06:00,
1000000000356388,77073790730,mKcell,mMTS,mMTS,,D02,2017-03-31T13:02:01+06:00,
1000000000356389,77770990003,mAltel,mKarTel,mKarTel,D01,D07,2017-03-31T13:02:28+06:00,
1000000000356390,77089161370,mKcell,mAltel,mAltel,,D02,2017-03-31T13:03:17+06:00,
1000000000356392,77017427977,mAltel,mKcell,mKcell,,D07,2017-03-31T13:04:40+06:00,
1000000000356393,77077655554,mAltel,mMTS,mMTS,,D07,2017-03-31T13:06:03+06:00,
1000000000356394,77769995689,mKcell,mAltel,mKarTel,D07,D02,2017-03-31T13:07:38+06:00,
1000000000356395,77076265945,mMTS,mKcell,mMTS,D02,D77,2017-03-31T13:07:38+06:00,
1000000000356396,77074777796,mKarTel,mMTS,mMTS,,D01,2017-03-31T13:07:53+06:00,
1000000000356397,77026382888,mKarTel,mMTS,mKcell,D77,D01,2017-03-31T13:07:52+06:00,
1000000000356398,77785822432,mMTS,mKcell,mKcell,,D77,2017-03-31T13:07:56+06:00,
1000000000356399,77079550205,mKarTel,mMTS,mMTS,,D01,2017-03-31T13:08:39+06:00,
1000000000356401,77023751277,mAltel,mKcell,mKcell,,D07,2017-03-31T13:10:43+06:00,
1000000000356402,77773333306,mKcell,mKarTel,mKarTel,,D02,2017-03-31T13:12:40+06:00,
1000000000356403,77019991785,mMTS,mKcell,mKcell,,D77,2017-03-31T13:12:42+06:00,
1000000000356404,77785822563,mMTS,mKcell,mKcell,,D77,2017-03-31T13:13:00+06:00,
1000000000356405,77785822421,mMTS,mKcell,mKcell,,D77,2017-03-31T13:13:00+06:00,
1000000000356407,77766688813,mKarTel,mMTS,mKarTel,D77,D01,2017-03-31T13:14:32+06:00,
1000000000356408,77779007637,mAltel,mKarTel,mKarTel,,D07,2017-03-31T13:16:11+06:00,
1000000000356410,77056661221,mAltel,mKarTel,mKarTel,,D07,2017-03-31T13:16:59+06:00,
1000000000356412,77751991399,mMTS,mKcell,mKcell,,D77,2017-03-31T13:17:17+06:00,
1000000000356413,77058602424,mKcell,mKarTel,mKarTel,,D02,2017-03-31T13:19:35+06:00,
1000000000356414,77009213529,mKarTel,mAltel,mAltel,,D01,2017-03-31T13:19:40+06:00,
1000000000356417,77477787057,mKarTel,mMTS,mMTS,,D01,2017-03-31T13:20:38+06:00,
1000000000356419,77083357735,mAltel,mMTS,mAltel,D77,D07,2017-03-31T13:21:36+06:00,
1000000000356420,77020555999,mKarTel,mKcell,mKcell,,D01,2017-03-31T13:23:42+06:00,
1000000000356421,77751991388,mMTS,mKcell,mKcell,,D77,2017-03-31T13:23:44+06:00,
1000000000356423,77778509045,mKarTel,mMTS,mKarTel,D77,D01,2017-03-31T13:24:54+06:00,
1000000000356424,77019133719,mKcell,mKarTel,mKcell,D01,D02,2017-03-31T13:26:13+06:00,
1000000000356425,77017339788,mKarTel,mKcell,mKcell,,D01,2017-03-31T13:26:17+06:00,
1000000000356426,77009278396,mKarTel,mKcell,mAltel,D02,D01,2017-03-31T13:26:29+06:00,
1000000000356427,77013530823,mKarTel,mKcell,mKcell,,D01,2017-03-31T13:26:49+06:00,
1000000000356428,77012268771,mKarTel,mKcell,mKcell,,D01,2017-03-31T13:27:30+06:00,
1000000000356429,77017424777,mAltel,mKcell,mKcell,,D07,2017-03-31T13:27:45+06:00,
