NPId,Number,RecipientId,DonorId,RangeHolderId,OldRoute,NewRoute,PortDate,RowCount
1000000000338212,77015662158,mKarTel,mKcell,mKcell,,D01,2017-03-01T13:00:07+06:00,31
1000000000338215,77074712899,mKarTel,mMTS,mMTS,,D01,2017-03-01T13:00:55+06:00,
1000000000338216,77477640530,mMTS,mKarTel,mMTS,D01,D77,2017-03-01T13:01:12+06:00,
1000000000338217,77053214747,mAltel,mKarTel,mKarTel,,D07,2017-03-01T13:01:33+06:00,
1000000000338220,77751363685,mMTS,mKcell,mKcell,,D77,2017-03-01T13:01:51+06:00,
1000000000338222,77015228890,mMTS,mKcell,mKcell,,D77,2017-03-01T13:03:59+06:00,
1000000000338223,77019505032,mMTS,mKcell,mKcell,,D77,2017-03-01T13:04:36+06:00,
1000000000338224,77023654304,mMTS,mKcell,mKcell,,D77,2017-03-01T13:05:31+06:00,
1000000000338226,77003538057,mKarTel,mAltel,mAltel,,D01,2017-03-01T13:06:47+06:00,
1000000000338227,77771827754,mMTS,mKarTel,mKarTel,,D77,2017-03-01T13:07:01+06:00,
1000000000338229,77786775142,mAltel,mKcell,mKcell,,D07,2017-03-01T13:08:11+06:00,
1000000000338231,77029007210,mMTS,mKcell,mKcell,,D77,2017-03-01T13:10:02+06:00,
1000000000338234,77003538056,mKarTel,mAltel,mAltel,,D01,2017-03-01T13:12:15+06:00,
1000000000338235,77784881088,mKcell,mAltel,mKcell,D07,D02,2017-03-01T13:12:10+06:00,
1000000000338237,77013545266,mKarTel,mMTS,mKcell,D77,D01,2017-03-01T13:12:29+06:00,
1000000000338238,77072771617,mMTS,mKarTel,mMTS,D01,D77,2017-03-01T13:13:31+06:00,
1000000000338239,77773950735,mKarTel,mKcell,mKarTel,D02,D01,2017-03-01T13:13:48+06:00,
1000000000338240,77055247449,mMTS,mKarTel,mKarTel,,D77,2017-03-01T13:14:24+06:00,
1000000000338242,77000804050,mKcell,mAltel,mAltel,,D02,2017-03-01T13:16:07+06:00,
1000000000338243,77017170905,mKarTel,mKcell,mKcell,,D01,2017-03-01T13:16:33+06:00,
1000000000338244,77051148215,mKcell,mKarTel,mKarTel,,D02,2017-03-01T13:16:41+06:00,
1000000000338246,77472224766,mKarTel,mMTS,mMTS,,D01,2017-03-01T13:17:47+06:00,
1000000000338247,77056649429,mMTS,mKarTel,mKarTel,,D77,2017-03-01T13:19:34+06:00,
1000000000338248,77012062468,mMTS,mKcell,mKcell,,D77,2017-03-01T13:19:33+06:00,
1000000000338250,77081911977,mMTS,mAltel,mAltel,,D77,2017-03-01T13:19:36+06:00,
1000000000338251,77001100515,mMTS,mAltel,mAltel,,D77,2017-03-01T13:19:49+06:00,
1000000000338252,77011367396,mMTS,mKcell,mKcell,,D77,2017-03-01T13:20:46+06:00,
1000000000338254,77015218350,mKarTel,mKcell,mKcell,,D01,2017-03-01T13:21:40+06:00,
1000000000338255,77023785223,mKcell,mKarTel,mKcell,D01,D02,2017-03-01T13:22:07+06:00,
1000000000338256,77778761756,mKarTel,mKcell,mKarTel,D02,D01,2017-03-01T13:22:06+06:00,
1000000000338257,77058327503,mKcell,mMTS,mKarTel,D77,D02,2017-03-01T13:21:53+06:00,
