NPId,Number,RecipientId,DonorId,RangeHolderId,OldRoute,NewRoute,PortDate,RowCount
1000000000242196,77077310191,mKarTel,mMTS,mMTS,,D01,2016-09-08T09:18:28+06:00,5
1000000000242197,77075557010,mKcell,mAltel,mMTS,D07,D02,2016-09-08T09:13:47+06:00,
1000000000242198,77759993637,mMTS,mKcell,mKcell,,D77,2016-09-08T09:16:13+06:00,
1000000000242199,77081168591,mKarTel,mAltel,mAltel,,D01,2016-09-08T09:24:03+06:00,
1000000000242201,77771116787,mAltel,mMTS,mKarTel,D77,D07,2016-09-08T09:27:29+06:00,
