NPId,Number,RecipientId,DonorId,RangeHolderId,OldRoute,NewRoute,PortDate,RowCount
1000000000445385,77786066664,mKarTel,mKcell,mKcell,,D01,2017-08-25T09:03:04+06:00,6
1000000000445386,77019506388,mKarTel,mKcell,mKcell,,D01,2017-08-25T09:03:05+06:00,
1000000000445388,77076590236,mAltel,mMTS,mMTS,,D07,2017-08-25T09:09:45+06:00,
1000000000445389,77015442372,mKarTel,mKcell,mKcell,,D01,2017-08-25T09:11:49+06:00,
1000000000445390,77015509182,mAltel,mKcell,mKcell,,D07,2017-08-25T09:13:51+06:00,
1000000000445393,77075393731,mMTS,mAltel,mMTS,D07,D77,2017-08-25T09:28:07+06:00,
