NPId,Number,RecipientId,DonorId,RangeHolderId,OldRoute,NewRoute,PortDate,RowCount
1000000000134712,77012441484,mMTS,mKcell,mKcell,,D77,2016-03-27T16:00:39+06:00,22
1000000000134713,77017012970,mAltel,mKcell,mKcell,,D07,2016-03-27T16:01:24+06:00,
1000000000134714,77777778070,mAltel,mKarTel,mKarTel,,D07,2016-03-27T16:02:40+06:00,
1000000000134715,77075920309,mKarTel,mMTS,mMTS,,D01,2016-03-27T16:02:38+06:00,
1000000000134716,77015347540,mKarTel,mKcell,mKcell,,D01,2016-03-27T16:03:28+06:00,
1000000000134717,77778823308,mMTS,mKarTel,mKarTel,,D77,2016-03-27T16:06:50+06:00,
1000000000134718,77781653370,mMTS,mKcell,mKcell,,D77,2016-03-27T16:07:14+06:00,
1000000000134719,77019854915,mMTS,mKcell,mKcell,,D77,2016-03-27T16:07:18+06:00,
1000000000134720,77024355254,mAltel,mKcell,mKcell,,D07,2016-03-27T16:07:44+06:00,
1000000000134721,77055986000,mMTS,mKarTel,mKarTel,,D77,2016-03-27T16:10:15+06:00,
1000000000134722,77015859969,mKarTel,mKcell,mKcell,,D01,2016-03-27T16:10:12+06:00,
1000000000134724,77014564296,mMTS,mKcell,mKcell,,D77,2016-03-27T16:10:26+06:00,
1000000000134725,77018943061,mAltel,mKcell,mKcell,,D07,2016-03-27T16:12:22+06:00,
1000000000134726,77767923066,mMTS,mAltel,mKarTel,D07,D77,2016-03-27T16:13:26+06:00,
1000000000134728,77017216124,mMTS,mKcell,mKcell,,D77,2016-03-27T16:15:23+06:00,
1000000000134730,77018391149,mAltel,mKcell,mKcell,,D07,2016-03-27T16:17:18+06:00,
1000000000134733,77779886568,mKcell,mKarTel,mKarTel,,D02,2016-03-27T16:20:51+06:00,
1000000000134734,77019643427,mMTS,mKcell,mKcell,,D77,2016-03-27T16:19:43+06:00,
1000000000134735,77712830000,mKarTel,mKcell,mKarTel,D02,D01,2016-03-27T16:21:29+06:00,
1000000000134736,77012946666,mAltel,mKcell,mKcell,,D07,2016-03-27T16:25:39+06:00,
1000000000134737,77076807558,mAltel,mMTS,mMTS,,D07,2016-03-27T16:26:52+06:00,
1000000000134738,77029646458,mMTS,mKcell,mKcell,,D77,2016-03-27T16:29:52+06:00,
