NPId,Number,RecipientId,DonorId,RangeHolderId,OldRoute,NewRoute,PortDate,RowCount
1000000000397359,77019625298,mAltel,mKcell,mKcell,,D07,2017-06-05T17:17:37+06:00,42
1000000000397361,77017160442,mAltel,mKcell,mKcell,,D07,2017-06-05T17:17:43+06:00,
1000000000397362,77019625302,mAltel,mKcell,mKcell,,D07,2017-06-05T17:17:37+06:00,
1000000000397865,77758888178,mKarTel,mKcell,mKcell,,D01,2017-06-05T17:00:38+06:00,
1000000000397866,77757735313,mKarTel,mKcell,mKcell,,D01,2017-06-05T17:00:58+06:00,
1000000000397868,77712635244,mAltel,mMTS,mKarTel,D77,D07,2017-06-05T17:01:30+06:00,
1000000000397869,77751337349,mMTS,mKcell,mKcell,,D77,2017-06-05T17:01:39+06:00,
1000000000397870,77754184002,mKarTel,mKcell,mKcell,,D01,2017-06-05T17:02:10+06:00,
1000000000397871,77015167176,mMTS,mKcell,mKcell,,D77,2017-06-05T17:02:09+06:00,
1000000000397876,77018884190,mKarTel,mKcell,mKcell,,D01,2017-06-05T17:05:31+06:00,
1000000000397877,77784070170,mKcell,mAltel,mKcell,D07,D02,2017-06-05T17:05:37+06:00,
1000000000397878,77012440597,mMTS,mKcell,mKcell,,D77,2017-06-05T17:05:57+06:00,
1000000000397879,77017097156,mMTS,mKcell,mKcell,,D77,2017-06-05T17:07:06+06:00,
1000000000397880,77027774346,mKarTel,mKcell,mKcell,,D01,2017-06-05T17:07:14+06:00,
1000000000397881,77015199991,mMTS,mKcell,mKcell,,D77,2017-06-05T17:07:24+06:00,
1000000000397883,77017803309,mMTS,mKcell,mKcell,,D77,2017-06-05T17:10:07+06:00,
1000000000397884,77014022204,mKarTel,mKcell,mKcell,,D01,2017-06-05T17:10:27+06:00,
1000000000397886,77071302204,mMTS,mAltel,mMTS,D07,D77,2017-06-05T17:12:45+06:00,
1000000000397887,77015594252,mKcell,mKarTel,mKcell,D01,D02,2017-06-05T17:13:55+06:00,
1000000000397888,77786660002,mKcell,mAltel,mKcell,D07,D02,2017-06-05T17:13:52+06:00,
1000000000397891,77074154383,mAltel,mMTS,mMTS,,D07,2017-06-05T17:16:25+06:00,
1000000000397892,77024004940,mAltel,mKcell,mKcell,,D07,2017-06-05T17:17:07+06:00,
1000000000397894,77001211978,mMTS,mAltel,mAltel,,D77,2017-06-05T17:18:14+06:00,
1000000000397895,77757209078,mKcell,mKarTel,mKcell,D01,D02,2017-06-05T17:19:18+06:00,
1000000000397896,77070001985,mKcell,mMTS,mMTS,D77,D02,2017-06-05T17:19:09+06:00,
1000000000397897,77078500403,mKarTel,mMTS,mMTS,,D01,2017-06-05T17:19:37+06:00,
1000000000397898,77013919536,mKcell,mMTS,mKcell,D77,D02,2017-06-05T17:19:34+06:00,
1000000000397899,77757797779,mKarTel,mKcell,mKcell,,D01,2017-06-05T17:20:04+06:00,
1000000000397902,77087090101,mKcell,mAltel,mAltel,,D02,2017-06-05T17:21:29+06:00,
1000000000397903,77013097990,mKcell,mKarTel,mKcell,D01,D02,2017-06-05T17:22:08+06:00,
1000000000397905,77017986629,mMTS,mKcell,mKcell,,D77,2017-06-05T17:22:04+06:00,
1000000000397906,77752555672,mKarTel,mKcell,mKcell,,D01,2017-06-05T17:22:53+06:00,
1000000000397907,77071302201,mMTS,mAltel,mMTS,D07,D77,2017-06-05T17:22:45+06:00,
1000000000397908,77012525444,mAltel,mMTS,mKcell,D77,D07,2017-06-05T17:23:07+06:00,
1000000000397909,77027274886,mAltel,mKcell,mKcell,,D07,2017-06-05T17:23:25+06:00,
1000000000397910,77780002719,mKcell,mKarTel,mKcell,D01,D02,2017-06-05T17:24:09+06:00,
1000000000397911,77019421020,mKarTel,mAltel,mKcell,D07,D01,2017-06-05T17:25:16+06:00,
1000000000397912,77713222003,mKarTel,mMTS,mKarTel,D77,D01,2017-06-05T17:25:42+06:00,
1000000000397913,77472129595,mKarTel,mMTS,mMTS,,D01,2017-06-05T17:26:52+06:00,
1000000000397914,77055984184,mKarTel,mMTS,mKarTel,D77,D01,2017-06-05T17:27:49+06:00,
1000000000397917,77071777833,mKcell,mMTS,mMTS,,D02,2017-06-05T17:29:19+06:00,
1000000000397918,77477992004,mAltel,mMTS,mMTS,,D07,2017-06-05T17:29:52+06:00,
