NPId,Number,RecipientId,DonorId,RangeHolderId,OldRoute,NewRoute,PortDate,RowCount
1000000000417907,77002595858,mMTS,mAltel,mAltel,,D77,2017-07-07T13:31:18+06:00,18
1000000000417909,77471145655,mKcell,mMTS,mMTS,,D02,2017-07-07T13:33:56+06:00,
1000000000417910,77079144452,mAltel,mMTS,mMTS,,D07,2017-07-07T13:34:18+06:00,
1000000000417911,77057657412,mMTS,mAltel,mKarTel,D07,D77,2017-07-07T13:36:21+06:00,
1000000000417912,77751393311,mKarTel,mKcell,mKcell,,D01,2017-07-07T13:37:00+06:00,
1000000000417913,77017850532,mMTS,mKcell,mKcell,,D77,2017-07-07T13:36:59+06:00,
1000000000417914,77025242410,mKcell,mMTS,mKcell,D77,D02,2017-07-07T13:39:50+06:00,
1000000000417915,77779390907,mKarTel,mMTS,mKarTel,D77,D01,2017-07-07T13:41:47+06:00,
1000000000417917,77027211142,mMTS,mKcell,mKcell,,D77,2017-07-07T13:42:49+06:00,
1000000000417918,77076662260,mAltel,mMTS,mMTS,,D07,2017-07-07T13:43:27+06:00,
1000000000417919,77023311910,mMTS,mKcell,mKcell,,D77,2017-07-07T13:45:01+06:00,
1000000000417920,77019812888,mKarTel,mKcell,mKcell,,D01,2017-07-07T13:51:42+06:00,
1000000000417921,77012880664,mKarTel,mKcell,mKcell,,D01,2017-07-07T13:54:59+06:00,
1000000000417923,77072233043,mAltel,mMTS,mMTS,,D07,2017-07-07T13:55:52+06:00,
1000000000417924,77004001230,mMTS,mAltel,mAltel,,D77,2017-07-07T13:56:48+06:00,
1000000000417926,77059722274,mMTS,mKarTel,mKarTel,,D77,2017-07-07T13:58:26+06:00,
1000000000417927,77005212105,mMTS,mAltel,mAltel,,D77,2017-07-07T13:58:19+06:00,
1000000000417928,77766107040,mKarTel,mMTS,mKarTel,D77,D01,2017-07-07T13:58:35+06:00,
