NPId,Number,RecipientId,DonorId,RangeHolderId,OldRoute,NewRoute,PortDate,RowCount
1000000000151953,77010913771,mKarTel,mKcell,mKcell,,D01,2016-04-15T13:24:59+06:00,127
1000000000151953,77010913772,mKarTel,mKcell,mKcell,,D01,2016-04-15T13:24:59+06:00,
1000000000151953,77010913774,mKarTel,mKcell,mKcell,,D01,2016-04-15T13:24:59+06:00,
1000000000151953,77010913775,mKarTel,mKcell,mKcell,,D01,2016-04-15T13:24:59+06:00,
1000000000151953,77010914348,mKarTel,mKcell,mKcell,,D01,2016-04-15T13:24:59+06:00,
1000000000151953,77010914349,mKarTel,mKcell,mKcell,,D01,2016-04-15T13:24:59+06:00,
1000000000151953,77010914350,mKarTel,mKcell,mKcell,,D01,2016-04-15T13:24:59+06:00,
1000000000151953,77010914351,mKarTel,mKcell,mKcell,,D01,2016-04-15T13:24:59+06:00,
1000000000151953,77010914352,mKarTel,mKcell,mKcell,,D01,2016-04-15T13:24:59+06:00,
1000000000151953,77010914378,mKarTel,mKcell,mKcell,,D01,2016-04-15T13:24:59+06:00,
1000000000151953,77010914379,mKarTel,mKcell,mKcell,,D01,2016-04-15T13:24:59+06:00,
1000000000151953,77010914380,mKarTel,mKcell,mKcell,,D01,2016-04-15T13:24:59+06:00,
1000000000151953,77010914381,mKarTel,mKcell,mKcell,,D01,2016-04-15T13:24:59+06:00,
1000000000151953,77010914382,mKarTel,mKcell,mKcell,,D01,2016-04-15T13:24:59+06:00,
1000000000151953,77010916348,mKarTel,mKcell,mKcell,,D01,2016-04-15T13:24:59+06:00,
1000000000151953,77010916349,mKarTel,mKcell,mKcell,,D01,2016-04-15T13:24:59+06:00,
1000000000151953,77010916350,mKarTel,mKcell,mKcell,,D01,2016-04-15T13:24:59+06:00,
1000000000151953,77010916351,mKarTel,mKcell,mKcell,,D01,2016-04-15T13:24:59+06:00,
1000000000151953,77010916352,mKarTel,mKcell,mKcell,,D01,2016-04-15T13:24:59+06:00,
1000000000151953,77010916353,mKarTel,mKcell,mKcell,,D01,2016-04-15T13:24:59+06:00,
1000000000151953,77010916354,mKarTel,mKcell,mKcell,,D01,2016-04-15T13:24:59+06:00,
1000000000151953,77010916355,mKarTel,mKcell,mKcell,,D01,2016-04-15T13:24:59+06:00,
1000000000151953,77010916356,mKarTel,mKcell,mKcell,,D01,2016-04-15T13:24:59+06:00,
1000000000151953,77010916357,mKarTel,mKcell,mKcell,,D01,2016-04-15T13:24:59+06:00,
1000000000151953,77010919692,mKarTel,mKcell,mKcell,,D01,2016-04-15T13:24:59+06:00,
1000000000151953,77012221333,mKarTel,mKcell,mKcell,,D01,2016-04-15T13:24:59+06:00,
1000000000151953,77012280888,mKarTel,mKcell,mKcell,,D01,2016-04-15T13:24:59+06:00,
1000000000151953,77015150275,mKarTel,mKcell,mKcell,,D01,2016-04-15T13:24:59+06:00,
1000000000151953,77015155333,mKarTel,mKcell,mKcell,,D01,2016-04-15T13:24:59+06:00,
1000000000151953,77015305315,mKarTel,mKcell,mKcell,,D01,2016-04-15T13:24:59+06:00,
1000000000151953,77015305316,mKarTel,mKcell,mKcell,,D01,2016-04-15T13:24:59+06:00,
1000000000151953,77015305322,mKarTel,mKcell,mKcell,,D01,2016-04-15T13:24:59+06:00,
1000000000151953,77015305324,mKarTel,mKcell,mKcell,,D01,2016-04-15T13:24:59+06:00,
1000000000151953,77015305349,mKarTel,mKcell,mKcell,,D01,2016-04-15T13:24:59+06:00,
1000000000151953,77015305356,mKarTel,mKcell,mKcell,,D01,2016-04-15T13:24:59+06:00,
1000000000151953,77015305358,mKarTel,mKcell,mKcell,,D01,2016-04-15T13:24:59+06:00,
1000000000151953,77015305361,mKarTel,mKcell,mKcell,,D01,2016-04-15T13:24:59+06:00,
1000000000151953,77015305362,mKarTel,mKcell,mKcell,,D01,2016-04-15T13:24:59+06:00,
1000000000151953,77015305365,mKarTel,mKcell,mKcell,,D01,2016-04-15T13:24:59+06:00,
1000000000151953,77015305366,mKarTel,mKcell,mKcell,,D01,2016-04-15T13:24:59+06:00,
1000000000151953,77015327002,mKarTel,mKcell,mKcell,,D01,2016-04-15T13:24:59+06:00,
1000000000151953,77015327019,mKarTel,mKcell,mKcell,,D01,2016-04-15T13:24:59+06:00,
1000000000151953,77015327035,mKarTel,mKcell,mKcell,,D01,2016-04-15T13:24:59+06:00,
1000000000151953,77015327039,mKarTel,mKcell,mKcell,,D01,2016-04-15T13:24:59+06:00,
1000000000151953,77015327044,mKarTel,mKcell,mKcell,,D01,2016-04-15T13:24:59+06:00,
1000000000151953,77015669803,mKarTel,mKcell,mKcell,,D01,2016-04-15T13:24:59+06:00,
1000000000151953,77015756770,mKarTel,mKcell,mKcell,,D01,2016-04-15T13:24:59+06:00,
1000000000151953,77017073434,mKarTel,mKcell,mKcell,,D01,2016-04-15T13:24:59+06:00,
1000000000151953,77017129802,mKarTel,mKcell,mKcell,,D01,2016-04-15T13:24:59+06:00,
1000000000151953,77017133660,mKarTel,mKcell,mKcell,,D01,2016-04-15T13:24:59+06:00,
1000000000151953,77017133669,mKarTel,mKcell,mKcell,,D01,2016-04-15T13:24:59+06:00,
1000000000151953,77017138636,mKarTel,mKcell,mKcell,,D01,2016-04-15T13:24:59+06:00,
1000000000151953,77017141045,mKarTel,mKcell,mKcell,,D01,2016-04-15T13:24:59+06:00,
1000000000151953,77017141065,mKarTel,mKcell,mKcell,,D01,2016-04-15T13:24:59+06:00,
1000000000151953,77017141075,mKarTel,mKcell,mKcell,,D01,2016-04-15T13:24:59+06:00,
1000000000151953,77017147193,mKarTel,mKcell,mKcell,,D01,2016-04-15T13:24:59+06:00,
1000000000151953,77017147201,mKarTel,mKcell,mKcell,,D01,2016-04-15T13:24:59+06:00,
1000000000151953,77017147208,mKarTel,mKcell,mKcell,,D01,2016-04-15T13:24:59+06:00,
1000000000151953,77017147243,mKarTel,mKcell,mKcell,,D01,2016-04-15T13:24:59+06:00,
1000000000151953,77017152359,mKarTel,mKcell,mKcell,,D01,2016-04-15T13:24:59+06:00,
1000000000151953,77017152361,mKarTel,mKcell,mKcell,,D01,2016-04-15T13:24:59+06:00,
1000000000151953,77017152379,mKarTel,mKcell,mKcell,,D01,2016-04-15T13:24:59+06:00,
1000000000151953,77017156863,mKarTel,mKcell,mKcell,,D01,2016-04-15T13:24:59+06:00,
1000000000151953,77017156864,mKarTel,mKcell,mKcell,,D01,2016-04-15T13:24:59+06:00,
1000000000151953,77017172246,mKarTel,mKcell,mKcell,,D01,2016-04-15T13:24:59+06:00,
1000000000151953,77017183747,mKarTel,mKcell,mKcell,,D01,2016-04-15T13:24:59+06:00,
1000000000151953,77017332750,mKarTel,mKcell,mKcell,,D01,2016-04-15T13:24:59+06:00,
1000000000151953,77017356748,mKarTel,mKcell,mKcell,,D01,2016-04-15T13:24:59+06:00,
1000000000151953,77017389608,mKarTel,mKcell,mKcell,,D01,2016-04-15T13:24:59+06:00,
1000000000151953,77017413668,mKarTel,mKcell,mKcell,,D01,2016-04-15T13:24:59+06:00,
1000000000151953,77017551088,mKarTel,mKcell,mKcell,,D01,2016-04-15T13:24:59+06:00,
1000000000151953,77017571157,mKarTel,mKcell,mKcell,,D01,2016-04-15T13:24:59+06:00,
1000000000151953,77017584232,mKarTel,mKcell,mKcell,,D01,2016-04-15T13:24:59+06:00,
1000000000151953,77017616812,mKarTel,mKcell,mKcell,,D01,2016-04-15T13:24:59+06:00,
1000000000151953,77017647245,mKarTel,mKcell,mKcell,,D01,2016-04-15T13:24:59+06:00,
1000000000151953,77017659206,mKarTel,mKcell,mKcell,,D01,2016-04-15T13:24:59+06:00,
1000000000151953,77017659269,mKarTel,mKcell,mKcell,,D01,2016-04-15T13:24:59+06:00,
1000000000151953,77017679442,mKarTel,mKcell,mKcell,,D01,2016-04-15T13:24:59+06:00,
1000000000151953,77017679447,mKarTel,mKcell,mKcell,,D01,2016-04-15T13:24:59+06:00,
1000000000151953,77017679448,mKarTel,mKcell,mKcell,,D01,2016-04-15T13:24:59+06:00,
1000000000151953,77017679451,mKarTel,mKcell,mKcell,,D01,2016-04-15T13:24:59+06:00,
1000000000151953,77017679469,mKarTel,mKcell,mKcell,,D01,2016-04-15T13:24:59+06:00,
1000000000151953,77017682254,mKarTel,mKcell,mKcell,,D01,2016-04-15T13:24:59+06:00,
1000000000151953,77017682811,mKarTel,mKcell,mKcell,,D01,2016-04-15T13:24:59+06:00,
1000000000151953,77017869356,mKarTel,mKcell,mKcell,,D01,2016-04-15T13:24:59+06:00,
1000000000151953,77017869357,mKarTel,mKcell,mKcell,,D01,2016-04-15T13:24:59+06:00,
1000000000151953,77018761742,mKarTel,mKcell,mKcell,,D01,2016-04-15T13:24:59+06:00,
1000000000151953,77018761743,mKarTel,mKcell,mKcell,,D01,2016-04-15T13:24:59+06:00,
1000000000151953,77018761749,mKarTel,mKcell,mKcell,,D01,2016-04-15T13:24:59+06:00,
1000000000151953,77018761756,mKarTel,mKcell,mKcell,,D01,2016-04-15T13:24:59+06:00,
1000000000151953,77019418729,mKarTel,mKcell,mKcell,,D01,2016-04-15T13:24:59+06:00,
1000000000151953,77019422189,mKarTel,mKcell,mKcell,,D01,2016-04-15T13:24:59+06:00,
1000000000151953,77019555925,mKarTel,mKcell,mKcell,,D01,2016-04-15T13:24:59+06:00,
1000000000151953,77019835746,mKarTel,mKcell,mKcell,,D01,2016-04-15T13:24:59+06:00,
1000000000151953,77771053333,mKarTel,mKcell,mKarTel,D02,D01,2016-04-15T13:24:59+06:00,
1000000000152549,77716240000,mMTS,mKarTel,mKarTel,,D77,2016-04-15T13:00:04+06:00,
1000000000152551,77071333999,mKarTel,mMTS,mMTS,,D01,2016-04-15T13:00:00+06:00,
1000000000152552,77754004795,mMTS,mKcell,mKcell,,D77,2016-04-15T13:00:19+06:00,
1000000000152553,77012731981,mKcell,mMTS,mKcell,D77,D02,2016-04-15T13:02:44+06:00,
1000000000152554,77011103331,mMTS,mKcell,mKcell,,D77,2016-04-15T13:02:27+06:00,
1000000000152556,77085516506,mMTS,mAltel,mAltel,,D77,2016-04-15T13:03:37+06:00,
1000000000152557,77024486970,mKarTel,mKcell,mKcell,,D01,2016-04-15T13:05:46+06:00,
1000000000152558,77759610191,mMTS,mKcell,mKcell,,D77,2016-04-15T13:06:50+06:00,
1000000000152559,77023388617,mKarTel,mKcell,mKcell,,D01,2016-04-15T13:07:11+06:00,
1000000000152560,77009606999,mMTS,mAltel,mAltel,,D77,2016-04-15T13:06:25+06:00,
1000000000152561,77784992693,mMTS,mKcell,mKcell,,D77,2016-04-15T13:08:14+06:00,
1000000000152562,77775031515,mMTS,mKarTel,mKarTel,,D77,2016-04-15T13:08:36+06:00,
1000000000152565,77087556897,mMTS,mAltel,mAltel,,D77,2016-04-15T13:09:41+06:00,
1000000000152566,77713877770,mMTS,mKarTel,mKarTel,,D77,2016-04-15T13:13:03+06:00,
1000000000152567,77071919185,mKcell,mMTS,mMTS,,D02,2016-04-15T13:12:58+06:00,
1000000000152568,77071919184,mKcell,mMTS,mMTS,,D02,2016-04-15T13:12:59+06:00,
1000000000152570,77051666160,mMTS,mKarTel,mKarTel,,D77,2016-04-15T13:13:11+06:00,
1000000000152571,77016888807,mKcell,mKarTel,mKcell,D01,D02,2016-04-15T13:14:50+06:00,
1000000000152572,77021777701,mKcell,mMTS,mKcell,D77,D02,2016-04-15T13:13:42+06:00,
1000000000152575,77785046026,mMTS,mKcell,mKcell,,D77,2016-04-15T13:14:35+06:00,
1000000000152576,77771991921,mMTS,mKarTel,mKarTel,,D77,2016-04-15T13:16:33+06:00,
1000000000152577,77017247274,mKarTel,mKcell,mKcell,,D01,2016-04-15T13:16:30+06:00,
1000000000152578,77002157896,mKarTel,mAltel,mAltel,,D01,2016-04-15T13:16:33+06:00,
1000000000152579,77083227812,mKcell,mAltel,mAltel,,D02,2016-04-15T13:16:30+06:00,
1000000000152581,77774548335,mMTS,mKarTel,mKarTel,,D77,2016-04-15T13:19:18+06:00,
1000000000152582,77019846484,mKarTel,mKcell,mKcell,,D01,2016-04-15T13:19:17+06:00,
1000000000152584,77028470356,mKarTel,mKcell,mKcell,,D01,2016-04-15T13:21:20+06:00,
1000000000152585,77782333701,mMTS,mKcell,mKcell,,D77,2016-04-15T13:21:06+06:00,
1000000000152586,77086233272,mMTS,mAltel,mAltel,,D77,2016-04-15T13:22:02+06:00,
1000000000152587,77089132920,mMTS,mAltel,mAltel,,D77,2016-04-15T13:22:02+06:00,
1000000000152589,77011623344,mMTS,mAltel,mKcell,D07,D77,2016-04-15T13:28:50+06:00,
1000000000152590,77087578889,mMTS,mAltel,mAltel,,D77,2016-04-15T13:29:35+06:00,
