NPId,Number,RecipientId,DonorId,RangeHolderId,OldRoute,NewRoute,PortDate,RowCount
1000000000364447,77710359496,mAltel,mKarTel,mKarTel,,D07,2017-04-12T11:00:16+06:00,26
1000000000364448,77012088845,mMTS,mKcell,mKcell,,D77,2017-04-12T11:01:15+06:00,
1000000000364449,77081087938,mKarTel,mAltel,mAltel,,D01,2017-04-12T11:01:22+06:00,
1000000000364450,77059805649,mMTS,mKarTel,mKarTel,,D77,2017-04-12T11:02:25+06:00,
1000000000364451,77775962526,mMTS,mKarTel,mKarTel,,D77,2017-04-12T11:04:26+06:00,
1000000000364452,77055167315,mKcell,mKarTel,mKarTel,,D02,2017-04-12T11:05:35+06:00,
1000000000364453,77071991241,mKarTel,mMTS,mMTS,,D01,2017-04-12T11:06:38+06:00,
1000000000364454,77018023686,mKarTel,mKcell,mKcell,,D01,2017-04-12T11:07:49+06:00,
1000000000364455,77026552023,mKcell,mAltel,mKcell,D07,D02,2017-04-12T11:07:59+06:00,
1000000000364457,77768058833,mMTS,mKarTel,mKarTel,,D77,2017-04-12T11:09:07+06:00,
1000000000364458,77713316499,mKarTel,mMTS,mKarTel,D77,D01,2017-04-12T11:09:07+06:00,
1000000000364460,77761433777,mKcell,mKarTel,mKarTel,,D02,2017-04-12T11:11:23+06:00,
1000000000364461,77007772656,mKcell,mAltel,mAltel,,D02,2017-04-12T11:11:32+06:00,
1000000000364465,77776501532,mMTS,mKarTel,mKarTel,,D77,2017-04-12T11:14:15+06:00,
1000000000364466,77058559287,mKarTel,mMTS,mKarTel,D77,D01,2017-04-12T11:15:04+06:00,
1000000000364468,77015779618,mKarTel,mKcell,mKcell,,D01,2017-04-12T11:16:40+06:00,
1000000000364469,77015119585,mKarTel,mKcell,mKcell,,D01,2017-04-12T11:17:46+06:00,
1000000000364470,77007117220,mMTS,mAltel,mAltel,,D77,2017-04-12T11:19:22+06:00,
1000000000364471,77053046464,mMTS,mKarTel,mKarTel,,D77,2017-04-12T11:19:41+06:00,
1000000000364472,77473417156,mKcell,mMTS,mMTS,,D02,2017-04-12T11:19:57+06:00,
1000000000364473,77477011573,mKarTel,mMTS,mMTS,,D01,2017-04-12T11:21:19+06:00,
1000000000364474,77025486452,mMTS,mKcell,mKcell,,D77,2017-04-12T11:22:52+06:00,
1000000000364475,77007881977,mKcell,mAltel,mAltel,,D02,2017-04-12T11:23:18+06:00,
1000000000364480,77719033090,mKarTel,mMTS,mKarTel,D77,D01,2017-04-12T11:26:28+06:00,
1000000000364481,77011014510,mKarTel,mKcell,mKcell,,D01,2017-04-12T11:28:18+06:00,
1000000000364482,77071111458,mMTS,mKcell,mMTS,D02,D77,2017-04-12T11:28:14+06:00,
