NPId,Number,RecipientId,DonorId,RangeHolderId,OldRoute,NewRoute,PortDate,RowCount
1000000000319603,77000244240,mMTS,mAltel,mAltel,,D77,2017-01-30T19:09:21+06:00,4
1000000000319605,77779890909,mKarTel,mMTS,mKarTel,D77,D01,2017-01-30T19:10:16+06:00,
1000000000319611,77712264740,mMTS,mKarTel,mKarTel,,D77,2017-01-30T19:26:09+06:00,
1000000000319612,77472096050,mAltel,mMTS,mMTS,,D07,2017-01-30T19:29:44+06:00,
