NPId,Number,RecipientId,DonorId,RangeHolderId,OldRoute,NewRoute,PortDate,RowCount
1000000000194006,77012282221,mKcell,mMTS,mKcell,D77,D02,2016-06-15T15:00:19+06:00,21
1000000000194007,77013038586,mMTS,mKcell,mKcell,,D77,2016-06-15T15:00:12+06:00,
1000000000194008,77775644444,mMTS,mKarTel,mKarTel,,D77,2016-06-15T15:01:06+06:00,
1000000000194009,77029629111,mMTS,mKcell,mKcell,,D77,2016-06-15T15:04:26+06:00,
1000000000194010,77028050278,mKcell,mMTS,mKcell,D77,D02,2016-06-15T15:04:39+06:00,
1000000000194011,77016670666,mKcell,mKarTel,mKcell,D01,D02,2016-06-15T15:06:18+06:00,
1000000000194012,77024477293,mAltel,mMTS,mKcell,D77,D07,2016-06-15T15:05:19+06:00,
1000000000194013,77017336329,mKarTel,mKcell,mKcell,,D01,2016-06-15T15:07:24+06:00,
1000000000194014,77009191167,mAltel,mMTS,mAltel,D77,D07,2016-06-15T15:07:04+06:00,
1000000000194015,77014044402,mMTS,mKcell,mKcell,,D77,2016-06-15T15:08:28+06:00,
1000000000194016,77004704855,mKcell,mAltel,mAltel,,D02,2016-06-15T15:08:45+06:00,
1000000000194017,77015377109,mKcell,mMTS,mKcell,D77,D02,2016-06-15T15:09:31+06:00,
1000000000194018,77072927684,mKarTel,mKcell,mMTS,D02,D01,2016-06-15T15:12:37+06:00,
1000000000194020,77774100839,mKarTel,mMTS,mKarTel,D77,D01,2016-06-15T15:16:31+06:00,
1000000000194021,77013747470,mAltel,mMTS,mKcell,D77,D07,2016-06-15T15:19:35+06:00,
1000000000194022,77778825007,mKcell,mKarTel,mKarTel,,D02,2016-06-15T15:21:50+06:00,
1000000000194023,77019179219,mMTS,mKcell,mKcell,,D77,2016-06-15T15:24:11+06:00,
1000000000194026,77019992912,mKarTel,mKcell,mKcell,,D01,2016-06-15T15:26:32+06:00,
1000000000194027,77018382973,mMTS,mKcell,mKcell,,D77,2016-06-15T15:26:54+06:00,
1000000000194028,77015164062,mMTS,mKcell,mKcell,,D77,2016-06-15T15:29:25+06:00,
1000000000194029,77012398519,mMTS,mKcell,mKcell,,D77,2016-06-15T15:29:44+06:00,
