NPId,Number,RecipientId,DonorId,RangeHolderId,OldRoute,NewRoute,PortDate,RowCount
1000000000229081,77776356902,mAltel,mKarTel,mKarTel,,D07,2016-08-15T13:00:55+06:00,16
1000000000229083,77785904958,mKcell,mMTS,mKcell,D77,D02,2016-08-15T13:03:36+06:00,
1000000000229084,77073502123,mKcell,mMTS,mMTS,,D02,2016-08-15T13:03:48+06:00,
1000000000229086,77710122112,mKcell,mMTS,mKarTel,D77,D02,2016-08-15T13:06:30+06:00,
1000000000229087,77763388899,mMTS,mKarTel,mKarTel,,D77,2016-08-15T13:08:35+06:00,
1000000000229088,77759880303,mAltel,mKcell,mKcell,,D07,2016-08-15T13:06:59+06:00,
1000000000229089,77775425107,mMTS,mKarTel,mKarTel,,D77,2016-08-15T13:09:48+06:00,
1000000000229090,77755867190,mKarTel,mKcell,mKcell,,D01,2016-08-15T13:09:14+06:00,
1000000000229091,77012278687,mKcell,mMTS,mKcell,D77,D02,2016-08-15T13:10:43+06:00,
1000000000229093,77020555592,mKcell,mMTS,mKcell,D77,D02,2016-08-15T13:15:39+06:00,
1000000000229096,77016212493,mMTS,mKcell,mKcell,,D77,2016-08-15T13:18:54+06:00,
1000000000229097,77083834618,mKcell,mAltel,mAltel,,D02,2016-08-15T13:24:20+06:00,
1000000000229098,77016201434,mMTS,mKcell,mKcell,,D77,2016-08-15T13:25:59+06:00,
1000000000229099,77789990170,mMTS,mKcell,mKcell,,D77,2016-08-15T13:26:47+06:00,
1000000000229100,77017692058,mKcell,mMTS,mKcell,D77,D02,2016-08-15T13:28:29+06:00,
1000000000229102,77026585586,mAltel,mMTS,mKcell,D77,D07,2016-08-15T13:29:47+06:00,
