NPId,Number,RecipientId,DonorId,RangeHolderId,OldRoute,NewRoute,PortDate,RowCount
1000000000384266,77001118000,mKcell,mAltel,mAltel,,D02,2017-05-16T19:02:56+06:00,6
1000000000384267,77016844331,mKcell,mMTS,mKcell,D77,D02,2017-05-16T19:04:07+06:00,
1000000000384268,77767062008,mKcell,mKarTel,mKarTel,,D02,2017-05-16T19:08:08+06:00,
1000000000384270,77071111016,mKcell,mMTS,mMTS,,D02,2017-05-16T19:08:45+06:00,
1000000000384272,77024267936,mKarTel,mKcell,mKcell,,D01,2017-05-16T19:12:40+06:00,
1000000000384274,77777500040,mKcell,mKarTel,mKarTel,,D02,2017-05-16T19:23:44+06:00,
