NPId,Number,RecipientId,DonorId,RangeHolderId,OldRoute,NewRoute,PortDate,RowCount
1000000000413543,77717181759,mKcell,mKarTel,mKarTel,,D02,2017-06-30T19:40:46+06:00,22
1000000000413600,77022422270,mAltel,mKcell,mKcell,,D07,2017-06-30T19:30:30+06:00,
1000000000413601,77772231416,mKarTel,mKcell,mKarTel,D02,D01,2017-06-30T19:31:14+06:00,
1000000000413602,77784664890,mMTS,mKcell,mKcell,,D77,2017-06-30T19:31:54+06:00,
1000000000413603,77782693308,mMTS,mKcell,mKcell,,D77,2017-06-30T19:32:01+06:00,
1000000000413604,77770905333,mMTS,mKarTel,mKarTel,,D77,2017-06-30T19:33:51+06:00,
1000000000413605,77017557157,mKcell,mKarTel,mKcell,D01,D02,2017-06-30T19:34:22+06:00,
1000000000413607,77772231422,mKarTel,mKcell,mKarTel,D02,D01,2017-06-30T19:38:24+06:00,
1000000000413608,77052030994,mMTS,mKarTel,mKarTel,,D77,2017-06-30T19:39:31+06:00,
1000000000413610,77017875753,mKarTel,mMTS,mKcell,D77,D01,2017-06-30T19:42:31+06:00,
1000000000413611,77019347787,mKarTel,mKcell,mKcell,,D01,2017-06-30T19:45:30+06:00,
1000000000413613,77781565067,mMTS,mKcell,mKcell,,D77,2017-06-30T19:46:56+06:00,
1000000000413614,77012088528,mKarTel,mKcell,mKcell,,D01,2017-06-30T19:49:06+06:00,
1000000000413615,77075228658,mKarTel,mMTS,mMTS,,D01,2017-06-30T19:49:27+06:00,
1000000000413616,77013235369,mKarTel,mKcell,mKcell,,D01,2017-06-30T19:49:38+06:00,
1000000000413617,77082112221,mKcell,mAltel,mAltel,,D02,2017-06-30T19:51:02+06:00,
1000000000413618,77788265041,mMTS,mKcell,mKcell,,D77,2017-06-30T19:51:52+06:00,
1000000000413619,77777717757,mMTS,mKarTel,mKarTel,,D77,2017-06-30T19:53:10+06:00,
1000000000413620,77059992995,mKcell,mKarTel,mKarTel,,D02,2017-06-30T19:56:07+06:00,
1000000000413621,77015580713,mAltel,mKcell,mKcell,,D07,2017-06-30T19:56:26+06:00,
1000000000413622,77781565243,mMTS,mKcell,mKcell,,D77,2017-06-30T19:56:48+06:00,
1000000000413624,77778292269,mAltel,mKarTel,mKarTel,,D07,2017-06-30T19:57:24+06:00,
