NPId,Number,RecipientId,DonorId,RangeHolderId,OldRoute,NewRoute,PortDate,RowCount
1000000000094388,77783495557,mMTS,mKcell,mKcell,,D77,2016-02-20T15:30:12+06:00,42
1000000000094390,77019415166,mMTS,mKcell,mKcell,,D77,2016-02-20T15:31:38+06:00,
1000000000094391,77023312133,mMTS,mKcell,mKcell,,D77,2016-02-20T15:32:01+06:00,
1000000000094393,77781005050,mAltel,mKcell,mKcell,,D07,2016-02-20T15:33:51+06:00,
1000000000094394,77017953179,mKarTel,mKcell,mKcell,,D01,2016-02-20T15:35:46+06:00,
1000000000094395,77017434942,mMTS,mKcell,mKcell,,D77,2016-02-20T15:34:46+06:00,
1000000000094397,77027257400,mMTS,mKcell,mKcell,,D77,2016-02-20T15:36:33+06:00,
1000000000094398,77779170517,mMTS,mKarTel,mKarTel,,D77,2016-02-20T15:37:09+06:00,
1000000000094399,77027669611,mMTS,mKcell,mKcell,,D77,2016-02-20T15:38:29+06:00,
1000000000094400,77014700733,mMTS,mKcell,mKcell,,D77,2016-02-20T15:39:48+06:00,
1000000000094401,77017970546,mKarTel,mKcell,mKcell,,D01,2016-02-20T15:40:43+06:00,
1000000000094402,77011339599,mAltel,mKcell,mKcell,,D07,2016-02-20T15:40:23+06:00,
1000000000094403,77770644576,mMTS,mKarTel,mKarTel,,D77,2016-02-20T15:41:19+06:00,
1000000000094404,77017451350,mMTS,mKcell,mKcell,,D77,2016-02-20T15:41:29+06:00,
1000000000094405,77028779877,mMTS,mKcell,mKcell,,D77,2016-02-20T15:41:41+06:00,
1000000000094406,77011742808,mMTS,mKcell,mKcell,,D77,2016-02-20T15:41:49+06:00,
1000000000094407,77028885885,mMTS,mKcell,mKcell,,D77,2016-02-20T15:42:44+06:00,
1000000000094409,77770221555,mMTS,mKarTel,mKarTel,,D77,2016-02-20T15:43:33+06:00,
1000000000094410,77774842973,mAltel,mKarTel,mKarTel,,D07,2016-02-20T15:44:13+06:00,
1000000000094413,77072740100,mAltel,mMTS,mMTS,,D07,2016-02-20T15:44:27+06:00,
1000000000094414,77014878745,mMTS,mKcell,mKcell,,D77,2016-02-20T15:44:57+06:00,
1000000000094416,77716666687,mMTS,mKarTel,mKarTel,,D77,2016-02-20T15:45:56+06:00,
1000000000094417,77752659251,mMTS,mKcell,mKcell,,D77,2016-02-20T15:46:18+06:00,
1000000000094419,77017958096,mMTS,mKcell,mKcell,,D77,2016-02-20T15:47:06+06:00,
1000000000094420,77017339209,mMTS,mKcell,mKcell,,D77,2016-02-20T15:47:15+06:00,
1000000000094422,77019074755,mAltel,mKcell,mKcell,,D07,2016-02-20T15:47:43+06:00,
1000000000094424,77017325840,mMTS,mKcell,mKcell,,D77,2016-02-20T15:48:19+06:00,
1000000000094425,77472140244,mAltel,mMTS,mMTS,,D07,2016-02-20T15:48:15+06:00,
1000000000094426,77771965867,mMTS,mKarTel,mKarTel,,D77,2016-02-20T15:48:37+06:00,
1000000000094427,77752242585,mKarTel,mKcell,mKcell,,D01,2016-02-20T15:49:10+06:00,
1000000000094428,77776001628,mMTS,mKarTel,mKarTel,,D77,2016-02-20T15:49:40+06:00,
1000000000094429,77017239227,mMTS,mKcell,mKcell,,D77,2016-02-20T15:49:46+06:00,
1000000000094430,77079208815,mAltel,mMTS,mMTS,,D07,2016-02-20T15:49:28+06:00,
1000000000094431,77017753700,mMTS,mKcell,mKcell,,D77,2016-02-20T15:50:04+06:00,
1000000000094432,77052161540,mMTS,mKarTel,mKarTel,,D77,2016-02-20T15:52:11+06:00,
1000000000094433,77052888778,mMTS,mKarTel,mKarTel,,D77,2016-02-20T15:52:09+06:00,
1000000000094434,77055440445,mMTS,mKarTel,mKarTel,,D77,2016-02-20T15:52:35+06:00,
1000000000094435,77017451840,mKarTel,mKcell,mKcell,,D01,2016-02-20T15:53:30+06:00,
1000000000094436,77012810093,mAltel,mKcell,mKcell,,D07,2016-02-20T15:54:04+06:00,
1000000000094437,77078647385,mAltel,mMTS,mMTS,,D07,2016-02-20T15:53:58+06:00,
1000000000094440,77012150257,mKarTel,mKcell,mKcell,,D01,2016-02-20T15:56:06+06:00,
1000000000094442,77778694025,mMTS,mKarTel,mKarTel,,D77,2016-02-20T15:56:36+06:00,
