NPId,Number,RecipientId,DonorId,RangeHolderId,OldRoute,NewRoute,PortDate,RowCount
1000000000333999,77718635025,mMTS,mKarTel,mKarTel,,D77,2017-02-24T10:33:03+06:00,18
1000000000334000,77077290012,mKarTel,mMTS,mMTS,D77,D01,2017-02-24T10:35:05+06:00,
1000000000334002,77024870044,mKcell,mMTS,mKcell,D77,D02,2017-02-24T10:36:25+06:00,
1000000000334003,77010264637,mKcell,mMTS,mKcell,D77,D02,2017-02-24T10:37:18+06:00,
1000000000334005,77015389848,mKarTel,mKcell,mKcell,,D01,2017-02-24T10:38:33+06:00,
1000000000334006,77051499752,mAltel,mKarTel,mKarTel,,D07,2017-02-24T10:39:54+06:00,
1000000000334007,77019649916,mKcell,mMTS,mKcell,D77,D02,2017-02-24T10:40:07+06:00,
1000000000334008,77776936567,mMTS,mKarTel,mKarTel,,D77,2017-02-24T10:40:21+06:00,
1000000000334010,77012237287,mKcell,mMTS,mKcell,D77,D02,2017-02-24T10:42:10+06:00,
1000000000334011,77789930364,mMTS,mKcell,mKcell,,D77,2017-02-24T10:42:59+06:00,
1000000000334012,77789605717,mKcell,mAltel,mKcell,D07,D02,2017-02-24T10:43:27+06:00,
1000000000334013,77751333883,mMTS,mKcell,mKcell,,D77,2017-02-24T10:44:29+06:00,
1000000000334014,77077415641,mKarTel,mMTS,mMTS,,D01,2017-02-24T10:44:41+06:00,
1000000000334015,77017270522,mMTS,mKcell,mKcell,,D77,2017-02-24T10:47:28+06:00,
1000000000334018,77016918484,mKarTel,mKcell,mKcell,,D01,2017-02-24T10:50:23+06:00,
1000000000334019,77071800827,mMTS,mAltel,mMTS,D07,D77,2017-02-24T10:53:28+06:00,
1000000000334020,77053279786,mKarTel,mMTS,mKarTel,D77,D01,2017-02-24T10:54:05+06:00,
1000000000334021,77755037777,mMTS,mKcell,mKcell,,D77,2017-02-24T10:56:22+06:00,
