NPId,Number,RecipientId,DonorId,RangeHolderId,OldRoute,NewRoute,PortDate,RowCount
1000000000233786,77010262461,mKcell,mKarTel,mKcell,D01,D02,2016-08-25T09:50:33+06:00,10
1000000000233786,77010354294,mKcell,mKarTel,mKcell,D01,D02,2016-08-25T09:50:33+06:00,
1000000000233786,77019828851,mKcell,mKarTel,mKcell,D01,D02,2016-08-25T09:50:33+06:00,
1000000000233787,77028903089,mAltel,mMTS,mKcell,D77,D07,2016-08-25T09:32:33+06:00,
1000000000233788,77087533897,mMTS,mAltel,mAltel,,D77,2016-08-25T09:32:50+06:00,
1000000000233789,77071415539,mKarTel,mMTS,mMTS,,D01,2016-08-25T09:40:59+06:00,
1000000000233790,77075388843,mMTS,mAltel,mMTS,D07,D77,2016-08-25T09:47:20+06:00,
1000000000233791,77475520697,mAltel,mMTS,mMTS,,D07,2016-08-25T09:49:22+06:00,
1000000000233792,77088080887,mAltel,mMTS,mAltel,D77,D07,2016-08-25T09:56:27+06:00,
1000000000233793,77017236679,mKcell,mKarTel,mKcell,D01,D02,2016-08-25T09:59:14+06:00,
