NPId,Number,RecipientId,DonorId,RangeHolderId,OldRoute,NewRoute,PortDate,RowCount
1000000000136209,77017742771,mKcell,mAltel,mKcell,D07,D02,2016-03-29T17:07:19+06:00,45
1000000000136675,77757649477,mMTS,mKcell,mKcell,,D77,2016-03-29T17:00:07+06:00,
1000000000136676,77001617777,mKcell,mAltel,mAltel,,D02,2016-03-29T17:00:05+06:00,
1000000000136677,77017766955,mMTS,mKarTel,mKcell,D01,D77,2016-03-29T17:01:52+06:00,
1000000000136678,77014863565,mAltel,mKcell,mKcell,,D07,2016-03-29T17:01:57+06:00,
1000000000136679,77029133605,mKarTel,mKcell,mKcell,,D01,2016-03-29T17:03:38+06:00,
1000000000136680,77775161473,mAltel,mKarTel,mKarTel,,D07,2016-03-29T17:04:34+06:00,
1000000000136682,77024935340,mKarTel,mKcell,mKcell,,D01,2016-03-29T17:05:24+06:00,
1000000000136683,77081161945,mKarTel,mAltel,mAltel,,D01,2016-03-29T17:05:50+06:00,
1000000000136684,77016116743,mMTS,mKcell,mKcell,,D77,2016-03-29T17:06:06+06:00,
1000000000136685,77082601090,mKarTel,mAltel,mAltel,,D01,2016-03-29T17:06:19+06:00,
1000000000136687,77027604003,mMTS,mKcell,mKcell,,D77,2016-03-29T17:07:41+06:00,
1000000000136688,77774752456,mAltel,mKarTel,mKarTel,,D07,2016-03-29T17:08:32+06:00,
1000000000136689,77073340536,mKarTel,mMTS,mMTS,,D01,2016-03-29T17:08:30+06:00,
1000000000136690,77754225519,mAltel,mKcell,mKcell,,D07,2016-03-29T17:08:24+06:00,
1000000000136691,77773113200,mMTS,mKarTel,mKarTel,,D77,2016-03-29T17:10:20+06:00,
1000000000136692,77017269157,mAltel,mKcell,mKcell,,D07,2016-03-29T17:08:42+06:00,
1000000000136693,77778899222,mAltel,mMTS,mKarTel,D77,D07,2016-03-29T17:09:36+06:00,
1000000000136695,77773780032,mMTS,mAltel,mKarTel,D07,D77,2016-03-29T17:10:18+06:00,
1000000000136696,77057628946,mAltel,mKarTel,mKarTel,,D07,2016-03-29T17:11:43+06:00,
1000000000136697,77710012001,mMTS,mKarTel,mKarTel,,D77,2016-03-29T17:12:39+06:00,
1000000000136698,77772422866,mMTS,mKarTel,mKarTel,,D77,2016-03-29T17:12:39+06:00,
1000000000136699,77785333233,mMTS,mKcell,mKcell,,D77,2016-03-29T17:12:07+06:00,
1000000000136700,77051512222,mAltel,mKarTel,mKarTel,,D07,2016-03-29T17:13:33+06:00,
1000000000136701,77078878854,mKcell,mMTS,mMTS,,D02,2016-03-29T17:12:51+06:00,
1000000000136702,77785005970,mAltel,mKcell,mKcell,,D07,2016-03-29T17:13:22+06:00,
1000000000136704,77770301663,mMTS,mKarTel,mKarTel,,D77,2016-03-29T17:14:52+06:00,
1000000000136705,77477110065,mMTS,mAltel,mMTS,D07,D77,2016-03-29T17:14:03+06:00,
1000000000136706,77015186663,mAltel,mKcell,mKcell,,D07,2016-03-29T17:14:44+06:00,
1000000000136707,77018882666,mKcell,mAltel,mKcell,D07,D02,2016-03-29T17:15:09+06:00,
1000000000136708,77059028555,mKcell,mKarTel,mKarTel,,D02,2016-03-29T17:17:30+06:00,
1000000000136709,77024858188,mMTS,mKcell,mKcell,,D77,2016-03-29T17:16:28+06:00,
1000000000136711,77089377706,mKarTel,mAltel,mAltel,,D01,2016-03-29T17:17:03+06:00,
1000000000136712,77778132940,mAltel,mKarTel,mKarTel,,D07,2016-03-29T17:18:21+06:00,
1000000000136714,77777863813,mMTS,mKarTel,mKarTel,,D77,2016-03-29T17:20:10+06:00,
1000000000136715,77013389955,mMTS,mKcell,mKcell,,D77,2016-03-29T17:18:59+06:00,
1000000000136719,77012555077,mMTS,mKcell,mKcell,,D77,2016-03-29T17:21:47+06:00,
1000000000136720,77014902626,mMTS,mKcell,mKcell,,D77,2016-03-29T17:22:47+06:00,
1000000000136723,77082182680,mMTS,mAltel,mAltel,,D77,2016-03-29T17:24:49+06:00,
1000000000136724,77758860455,mMTS,mKcell,mKcell,,D77,2016-03-29T17:25:50+06:00,
1000000000136725,77021181982,mMTS,mKcell,mKcell,,D77,2016-03-29T17:25:50+06:00,
1000000000136726,77084001502,mKarTel,mAltel,mAltel,,D01,2016-03-29T17:27:01+06:00,
1000000000136727,77021575805,mMTS,mKcell,mKcell,,D77,2016-03-29T17:27:00+06:00,
1000000000136730,77013436321,mMTS,mKcell,mKcell,,D77,2016-03-29T17:28:25+06:00,
1000000000136731,77089799123,mMTS,mAltel,mAltel,,D77,2016-03-29T17:28:21+06:00,
