NPId,Number,RecipientId,DonorId,RangeHolderId,OldRoute,NewRoute,PortDate,RowCount
1000000000284370,77004787878,mKcell,mAltel,mAltel,,D02,2016-11-25T19:00:06+06:00,8
1000000000284371,77015114901,mKarTel,mKcell,mKcell,,D01,2016-11-25T19:03:39+06:00,
1000000000284372,77004344647,mKcell,mAltel,mAltel,,D02,2016-11-25T19:07:37+06:00,
1000000000284373,77058209804,mKcell,mKarTel,mKarTel,,D02,2016-11-25T19:11:00+06:00,
1000000000284374,77775637777,mKarTel,mKcell,mKarTel,D02,D01,2016-11-25T19:09:41+06:00,
1000000000284376,77753009055,mKarTel,mKcell,mKcell,,D01,2016-11-25T19:10:17+06:00,
1000000000284377,77776680353,mKarTel,mAltel,mKarTel,D07,D01,2016-11-25T19:20:39+06:00,
1000000000284380,77025289873,mMTS,mKcell,mKcell,,D77,2016-11-25T19:24:07+06:00,
