NPId,Number,RecipientId,DonorId,RangeHolderId,OldRoute,NewRoute,PortDate,RowCount
1000000000152515,77017679584,mKarTel,mKcell,mKcell,,D01,2016-04-15T12:33:01+06:00,25
1000000000152516,77013307977,mMTS,mKcell,mKcell,,D77,2016-04-15T12:32:03+06:00,
1000000000152518,77057450005,mMTS,mKarTel,mKarTel,,D77,2016-04-15T12:36:14+06:00,
1000000000152519,77089693818,mMTS,mAltel,mAltel,,D77,2016-04-15T12:34:59+06:00,
1000000000152520,77781135187,mMTS,mKcell,mKcell,,D77,2016-04-15T12:35:39+06:00,
1000000000152523,77055080836,mMTS,mKarTel,mKarTel,,D77,2016-04-15T12:40:24+06:00,
1000000000152524,77085325468,mKcell,mAltel,mAltel,,D02,2016-04-15T12:39:49+06:00,
1000000000152525,77083992838,mMTS,mAltel,mAltel,,D77,2016-04-15T12:41:10+06:00,
1000000000152526,77085555495,mMTS,mAltel,mAltel,,D77,2016-04-15T12:41:58+06:00,
1000000000152527,77757991700,mAltel,mKcell,mKcell,,D07,2016-04-15T12:42:51+06:00,
1000000000152529,77086913559,mMTS,mAltel,mAltel,,D77,2016-04-15T12:45:07+06:00,
1000000000152530,77009831364,mMTS,mAltel,mAltel,,D77,2016-04-15T12:45:16+06:00,
1000000000152532,77751427799,mAltel,mKcell,mKcell,,D07,2016-04-15T12:46:12+06:00,
1000000000152533,77017820185,mKarTel,mKcell,mKcell,,D01,2016-04-15T12:46:39+06:00,
1000000000152537,77013222266,mMTS,mKcell,mKcell,,D77,2016-04-15T12:50:53+06:00,
1000000000152538,77779729196,mMTS,mKarTel,mKarTel,,D77,2016-04-15T12:52:55+06:00,
1000000000152539,77073626056,mKarTel,mMTS,mMTS,,D01,2016-04-15T12:52:11+06:00,
1000000000152540,77072979646,mKarTel,mMTS,mMTS,,D01,2016-04-15T12:52:53+06:00,
1000000000152541,77715717757,mMTS,mKarTel,mKarTel,,D77,2016-04-15T12:53:45+06:00,
1000000000152542,77009831365,mMTS,mAltel,mAltel,,D77,2016-04-15T12:53:01+06:00,
1000000000152543,77072979656,mKarTel,mMTS,mMTS,,D01,2016-04-15T12:54:24+06:00,
1000000000152544,77024318661,mKarTel,mKcell,mKcell,,D01,2016-04-15T12:55:51+06:00,
1000000000152545,77080508497,mMTS,mAltel,mAltel,,D77,2016-04-15T12:54:41+06:00,
1000000000152547,77012520025,mKcell,mMTS,mKcell,D77,D02,2016-04-15T12:55:38+06:00,
1000000000152548,77085558833,mMTS,mAltel,mAltel,,D77,2016-04-15T12:57:01+06:00,
