NPId,Number,RecipientId,DonorId,RangeHolderId,OldRoute,NewRoute,PortDate,RowCount
1000000000139176,77015114942,mKarTel,mKcell,mKcell,,D01,2016-04-01T17:18:44+06:00,111
1000000000139176,77015188994,mKarTel,mKcell,mKcell,,D01,2016-04-01T17:18:44+06:00,
1000000000139176,77015224543,mKarTel,mKcell,mKcell,,D01,2016-04-01T17:18:44+06:00,
1000000000139176,77015235572,mKarTel,mKcell,mKcell,,D01,2016-04-01T17:18:44+06:00,
1000000000139176,77015278540,mKarTel,mKcell,mKcell,,D01,2016-04-01T17:18:44+06:00,
1000000000139176,77015278550,mKarTel,mKcell,mKcell,,D01,2016-04-01T17:18:44+06:00,
1000000000139176,77015278560,mKarTel,mKcell,mKcell,,D01,2016-04-01T17:18:44+06:00,
1000000000139176,77015278567,mKarTel,mKcell,mKcell,,D01,2016-04-01T17:18:44+06:00,
1000000000139176,77017531369,mKarTel,mKcell,mKcell,,D01,2016-04-01T17:18:44+06:00,
1000000000139360,77010269078,mKarTel,mKcell,mKcell,,D01,2016-04-01T17:23:39+06:00,
1000000000139360,77012579253,mKarTel,mKcell,mKcell,,D01,2016-04-01T17:23:39+06:00,
1000000000139360,77015165880,mKarTel,mKcell,mKcell,,D01,2016-04-01T17:23:39+06:00,
1000000000139360,77017783275,mKarTel,mKcell,mKcell,,D01,2016-04-01T17:23:39+06:00,
1000000000139360,77018705659,mKarTel,mKcell,mKcell,,D01,2016-04-01T17:23:39+06:00,
1000000000139360,77018705661,mKarTel,mKcell,mKcell,,D01,2016-04-01T17:23:39+06:00,
1000000000139360,77019815732,mKarTel,mKcell,mKcell,,D01,2016-04-01T17:23:39+06:00,
1000000000139360,77022035369,mKarTel,mKcell,mKcell,,D01,2016-04-01T17:23:39+06:00,
1000000000139508,77012120890,mKarTel,mKcell,mKcell,,D01,2016-04-01T17:10:01+06:00,
1000000000139511,77018722850,mKarTel,mKcell,mKcell,,D01,2016-04-01T17:02:41+06:00,
1000000000139514,77012120860,mKarTel,mKcell,mKcell,,D01,2016-04-01T17:04:04+06:00,
1000000000139634,77012120840,mKarTel,mKcell,mKcell,,D01,2016-04-01T17:10:58+06:00,
1000000000139826,77015336000,mKarTel,mKcell,mKcell,,D01,2016-04-01T17:00:19+06:00,
1000000000139828,77017774890,mKcell,mAltel,mKcell,D07,D02,2016-04-01T17:00:31+06:00,
1000000000139830,77787773713,mMTS,mKcell,mKcell,,D77,2016-04-01T17:00:27+06:00,
1000000000139831,77078128560,mAltel,mMTS,mMTS,,D07,2016-04-01T17:00:29+06:00,
1000000000139832,77774804000,mKcell,mKarTel,mKarTel,,D02,2016-04-01T17:02:02+06:00,
1000000000139833,77783265261,mMTS,mKcell,mKcell,,D77,2016-04-01T17:01:17+06:00,
1000000000139834,77021507797,mMTS,mKcell,mKcell,,D77,2016-04-01T17:01:39+06:00,
1000000000139835,77718359825,mMTS,mKarTel,mKarTel,,D77,2016-04-01T17:03:10+06:00,
1000000000139836,77717222945,mMTS,mKarTel,mKarTel,,D77,2016-04-01T17:19:17+06:00,
1000000000139837,77077181435,mMTS,mAltel,mMTS,D07,D77,2016-04-01T17:02:11+06:00,
1000000000139839,77710812111,mMTS,mKarTel,mKarTel,,D77,2016-04-01T17:04:34+06:00,
1000000000139840,77079823440,mMTS,mAltel,mMTS,D07,D77,2016-04-01T17:04:04+06:00,
1000000000139841,77710812101,mMTS,mKarTel,mKarTel,,D77,2016-04-01T17:05:59+06:00,
1000000000139842,77017230524,mKcell,mKarTel,mKcell,D01,D02,2016-04-01T17:06:58+06:00,
1000000000139843,77075224389,mMTS,mAltel,mMTS,D07,D77,2016-04-01T17:05:28+06:00,
1000000000139844,77015337517,mKarTel,mKcell,mKcell,,D01,2016-04-01T17:07:08+06:00,
1000000000139846,77053934320,mMTS,mKarTel,mKarTel,,D77,2016-04-01T17:06:36+06:00,
1000000000139847,77771705335,mAltel,mKarTel,mKarTel,,D07,2016-04-01T17:06:35+06:00,
1000000000139848,77710919181,mMTS,mKarTel,mKarTel,,D77,2016-04-01T17:07:12+06:00,
1000000000139849,77085320737,mMTS,mAltel,mAltel,,D77,2016-04-01T17:06:25+06:00,
1000000000139850,77079823442,mMTS,mAltel,mMTS,D07,D77,2016-04-01T17:06:44+06:00,
1000000000139851,77015122927,mKcell,mAltel,mKcell,D07,D02,2016-04-01T17:07:25+06:00,
1000000000139852,77710919180,mMTS,mKarTel,mKarTel,,D77,2016-04-01T17:08:36+06:00,
1000000000139854,77787132143,mAltel,mKcell,mKcell,,D07,2016-04-01T17:08:06+06:00,
1000000000139855,77079823430,mMTS,mAltel,mMTS,D07,D77,2016-04-01T17:07:50+06:00,
1000000000139857,77477506060,mKarTel,mMTS,mMTS,,D01,2016-04-01T17:08:35+06:00,
1000000000139858,77079823441,mMTS,mAltel,mMTS,D07,D77,2016-04-01T17:08:54+06:00,
1000000000139859,77774091154,mMTS,mKarTel,mKarTel,,D77,2016-04-01T17:10:02+06:00,
1000000000139860,77001111429,mKcell,mAltel,mAltel,,D02,2016-04-01T17:10:25+06:00,
1000000000139861,77760656161,mKcell,mKarTel,mKarTel,,D02,2016-04-01T17:11:29+06:00,
1000000000139862,77079823431,mMTS,mAltel,mMTS,D07,D77,2016-04-01T17:09:57+06:00,
1000000000139863,77783265273,mMTS,mKcell,mKcell,,D77,2016-04-01T17:10:27+06:00,
1000000000139864,77087479773,mKarTel,mAltel,mAltel,,D01,2016-04-01T17:10:30+06:00,
1000000000139865,77015205428,mKarTel,mKcell,mKcell,,D01,2016-04-01T17:10:58+06:00,
1000000000139867,77012901700,mAltel,mKcell,mKcell,,D07,2016-04-01T17:12:01+06:00,
1000000000139869,77079823432,mMTS,mAltel,mMTS,D07,D77,2016-04-01T17:12:04+06:00,
1000000000139870,77072333633,mMTS,mAltel,mMTS,D07,D77,2016-04-01T17:12:07+06:00,
1000000000139872,77078027798,mMTS,mAltel,mMTS,D07,D77,2016-04-01T17:13:04+06:00,
1000000000139873,77785051431,mMTS,mKcell,mKcell,,D77,2016-04-01T17:13:44+06:00,
1000000000139875,77017710257,mMTS,mKcell,mKcell,,D77,2016-04-01T17:13:40+06:00,
1000000000139876,77771064197,mMTS,mKarTel,mKarTel,,D77,2016-04-01T17:14:47+06:00,
1000000000139877,77074540809,mAltel,mMTS,mMTS,,D07,2016-04-01T17:13:40+06:00,
1000000000139878,77004297844,mKarTel,mAltel,mAltel,,D01,2016-04-01T17:15:40+06:00,
1000000000139879,77710919179,mMTS,mKarTel,mKarTel,,D77,2016-04-01T17:17:09+06:00,
1000000000139880,77010273387,mKcell,mMTS,mKcell,D77,D02,2016-04-01T17:19:21+06:00,
1000000000139880,77010273389,mKcell,mMTS,mKcell,D77,D02,2016-04-01T17:19:21+06:00,
1000000000139880,77010281995,mKcell,mMTS,mKcell,D77,D02,2016-04-01T17:19:21+06:00,
1000000000139880,77012210745,mKcell,mMTS,mKcell,D77,D02,2016-04-01T17:19:21+06:00,
1000000000139880,77015243859,mKcell,mMTS,mKcell,D77,D02,2016-04-01T17:19:21+06:00,
1000000000139880,77015244674,mKcell,mMTS,mKcell,D77,D02,2016-04-01T17:19:21+06:00,
1000000000139880,77017615349,mKcell,mMTS,mKcell,D77,D02,2016-04-01T17:19:21+06:00,
1000000000139880,77017633595,mKcell,mMTS,mKcell,D77,D02,2016-04-01T17:19:21+06:00,
1000000000139880,77017633610,mKcell,mMTS,mKcell,D77,D02,2016-04-01T17:19:21+06:00,
1000000000139880,77017633641,mKcell,mMTS,mKcell,D77,D02,2016-04-01T17:19:21+06:00,
1000000000139880,77017633648,mKcell,mMTS,mKcell,D77,D02,2016-04-01T17:19:21+06:00,
1000000000139880,77017633654,mKcell,mMTS,mKcell,D77,D02,2016-04-01T17:19:21+06:00,
1000000000139880,77017633657,mKcell,mMTS,mKcell,D77,D02,2016-04-01T17:19:21+06:00,
1000000000139880,77017633658,mKcell,mMTS,mKcell,D77,D02,2016-04-01T17:19:21+06:00,
1000000000139880,77017633669,mKcell,mMTS,mKcell,D77,D02,2016-04-01T17:19:21+06:00,
1000000000139880,77017633684,mKcell,mMTS,mKcell,D77,D02,2016-04-01T17:19:21+06:00,
1000000000139880,77017633689,mKcell,mMTS,mKcell,D77,D02,2016-04-01T17:19:21+06:00,
1000000000139880,77017633690,mKcell,mMTS,mKcell,D77,D02,2016-04-01T17:19:21+06:00,
1000000000139880,77017857082,mKcell,mMTS,mKcell,D77,D02,2016-04-01T17:19:21+06:00,
1000000000139880,77019602829,mKcell,mMTS,mKcell,D77,D02,2016-04-01T17:19:21+06:00,
1000000000139880,77019602830,mKcell,mMTS,mKcell,D77,D02,2016-04-01T17:19:21+06:00,
1000000000139880,77019602831,mKcell,mMTS,mKcell,D77,D02,2016-04-01T17:19:21+06:00,
1000000000139880,77019602832,mKcell,mMTS,mKcell,D77,D02,2016-04-01T17:19:21+06:00,
1000000000139880,77019602833,mKcell,mMTS,mKcell,D77,D02,2016-04-01T17:19:21+06:00,
1000000000139880,77019603974,mKcell,mMTS,mKcell,D77,D02,2016-04-01T17:19:21+06:00,
1000000000139880,77019603984,mKcell,mMTS,mKcell,D77,D02,2016-04-01T17:19:21+06:00,
1000000000139880,77019603986,mKcell,mMTS,mKcell,D77,D02,2016-04-01T17:19:21+06:00,
1000000000139880,77019603995,mKcell,mMTS,mKcell,D77,D02,2016-04-01T17:19:21+06:00,
1000000000139880,77019604002,mKcell,mMTS,mKcell,D77,D02,2016-04-01T17:19:21+06:00,
1000000000139882,77072024846,mKcell,mMTS,mMTS,,D02,2016-04-01T17:16:29+06:00,
1000000000139885,77710919178,mMTS,mKarTel,mKarTel,,D77,2016-04-01T17:18:05+06:00,
1000000000139886,77779921211,mMTS,mKarTel,mKarTel,,D77,2016-04-01T17:18:10+06:00,
1000000000139887,77771590621,mMTS,mKarTel,mKarTel,,D77,2016-04-01T17:18:46+06:00,
1000000000139888,77055256863,mMTS,mKarTel,mKarTel,,D77,2016-04-01T17:18:46+06:00,
1000000000139889,77004347844,mMTS,mAltel,mAltel,,D77,2016-04-01T17:17:24+06:00,
1000000000139891,77783265271,mMTS,mKcell,mKcell,,D77,2016-04-01T17:19:25+06:00,
1000000000139895,77710919161,mMTS,mKarTel,mKarTel,,D77,2016-04-01T17:21:11+06:00,
1000000000139901,77000977700,mMTS,mAltel,mAltel,,D77,2016-04-01T17:22:01+06:00,
1000000000139902,77057677794,mMTS,mKarTel,mKarTel,,D77,2016-04-01T17:23:39+06:00,
1000000000139904,77751247054,mMTS,mKcell,mKcell,,D77,2016-04-01T17:22:50+06:00,
1000000000139907,77055312020,mMTS,mKarTel,mKarTel,,D77,2016-04-01T17:23:42+06:00,
1000000000139910,77762181876,mMTS,mKarTel,mKarTel,,D77,2016-04-01T17:24:40+06:00,
1000000000139912,77710913008,mMTS,mKarTel,mKarTel,,D77,2016-04-01T17:24:40+06:00,
1000000000139913,77052504190,mMTS,mKarTel,mKarTel,,D77,2016-04-01T17:26:05+06:00,
1000000000139915,77077783882,mAltel,mMTS,mMTS,,D07,2016-04-01T17:25:55+06:00,
1000000000139921,77755539383,mMTS,mKcell,mKcell,,D77,2016-04-01T17:29:26+06:00,
