NPId,Number,RecipientId,DonorId,RangeHolderId,OldRoute,NewRoute,PortDate,RowCount
1000000000441166,77477779884,mKcell,mMTS,mMTS,,D02,2017-08-16T19:00:05+06:00,12
1000000000441167,77025877556,mMTS,mKcell,mKcell,,D77,2017-08-16T19:01:30+06:00,
1000000000441168,77029191419,mMTS,mKcell,mKcell,,D77,2017-08-16T19:01:37+06:00,
1000000000441169,77021892757,mAltel,mKcell,mKcell,,D07,2017-08-16T19:04:43+06:00,
1000000000441170,77081256471,mKarTel,mAltel,mAltel,,D01,2017-08-16T19:05:34+06:00,
1000000000441171,77011624939,mAltel,mKcell,mKcell,,D07,2017-08-16T19:07:29+06:00,
1000000000441174,77754144582,mAltel,mKcell,mKcell,,D07,2017-08-16T19:08:17+06:00,
1000000000441176,77771272530,mKcell,mKarTel,mKarTel,,D02,2017-08-16T19:10:44+06:00,
1000000000441179,77712135555,mAltel,mKarTel,mKarTel,,D07,2017-08-16T19:16:48+06:00,
1000000000441180,77017289242,mKarTel,mKcell,mKcell,,D01,2017-08-16T19:24:43+06:00,
1000000000441181,77075952928,mKcell,mMTS,mMTS,,D02,2017-08-16T19:26:37+06:00,
1000000000441182,77029693046,mKarTel,mKcell,mKcell,,D01,2017-08-16T19:28:08+06:00,
