NPId,Number,RecipientId,DonorId,RangeHolderId,OldRoute,NewRoute,PortDate,RowCount
1000000000432923,77015225029,mKarTel,mKcell,mKcell,,D01,2017-08-02T15:18:47+06:00,36
1000000000433493,77085222482,mKcell,mAltel,mAltel,,D02,2017-08-02T15:01:28+06:00,
1000000000433494,77052189922,mKarTel,mMTS,mKarTel,D77,D01,2017-08-02T15:02:32+06:00,
1000000000433495,77025301514,mKarTel,mKcell,mKcell,,D01,2017-08-02T15:05:41+06:00,
1000000000433496,77053320022,mKarTel,mKcell,mKarTel,D02,D01,2017-08-02T15:05:40+06:00,
1000000000433497,77012066115,mMTS,mKcell,mKcell,,D77,2017-08-02T15:07:18+06:00,
1000000000433498,77078208009,mKcell,mMTS,mMTS,,D02,2017-08-02T15:08:01+06:00,
1000000000433501,77029475729,mKcell,mAltel,mKcell,D07,D02,2017-08-02T15:10:29+06:00,
1000000000433502,77023185559,mAltel,mKcell,mKcell,,D07,2017-08-02T15:10:20+06:00,
1000000000433504,77770756075,mMTS,mKarTel,mKarTel,,D77,2017-08-02T15:12:13+06:00,
1000000000433505,77011912565,mKcell,mKarTel,mKcell,D01,D02,2017-08-02T15:12:37+06:00,
1000000000433506,77715746502,mMTS,mKarTel,mKarTel,,D77,2017-08-02T15:12:27+06:00,
1000000000433507,77786136050,mMTS,mKcell,mKcell,,D77,2017-08-02T15:12:26+06:00,
1000000000433508,77013579020,mKcell,mKarTel,mKcell,D01,D02,2017-08-02T15:13:05+06:00,
1000000000433510,77085222392,mKcell,mAltel,mAltel,,D02,2017-08-02T15:17:17+06:00,
1000000000433511,77770833888,mKarTel,mMTS,mKarTel,D77,D01,2017-08-02T15:18:05+06:00,
1000000000433512,77075165081,mAltel,mMTS,mMTS,,D07,2017-08-02T15:18:09+06:00,
1000000000433513,77471764372,mKarTel,mMTS,mMTS,,D01,2017-08-02T15:18:51+06:00,
1000000000433514,77028830200,mKcell,mMTS,mKcell,D77,D02,2017-08-02T15:18:59+06:00,
1000000000433516,77760141234,mKarTel,mMTS,mKarTel,D77,D01,2017-08-02T15:21:07+06:00,
1000000000433517,77018872566,mKarTel,mKcell,mKcell,,D01,2017-08-02T15:23:41+06:00,
1000000000433518,77070409150,mKarTel,mMTS,mMTS,,D01,2017-08-02T15:25:07+06:00,
1000000000433518,77070409204,mKarTel,mMTS,mMTS,,D01,2017-08-02T15:25:07+06:00,
1000000000433518,77070409208,mKarTel,mMTS,mMTS,,D01,2017-08-02T15:25:07+06:00,
1000000000433518,77070409214,mKarTel,mMTS,mMTS,,D01,2017-08-02T15:25:07+06:00,
1000000000433518,77070409217,mKarTel,mMTS,mMTS,,D01,2017-08-02T15:25:07+06:00,
1000000000433518,77076706014,mKarTel,mMTS,mMTS,,D01,2017-08-02T15:25:07+06:00,
1000000000433518,77076706017,mKarTel,mMTS,mMTS,,D01,2017-08-02T15:25:07+06:00,
1000000000433518,77078014348,mKarTel,mMTS,mMTS,,D01,2017-08-02T15:25:07+06:00,
1000000000433518,77078688598,mKarTel,mMTS,mMTS,,D01,2017-08-02T15:25:07+06:00,
1000000000433519,77010141234,mKarTel,mMTS,mKcell,D77,D01,2017-08-02T15:25:13+06:00,
1000000000433520,77019679737,mKarTel,mKcell,mKcell,,D01,2017-08-02T15:26:15+06:00,
1000000000433521,77769993311,mKcell,mKarTel,mKarTel,,D02,2017-08-02T15:27:10+06:00,
1000000000433522,77071840101,mMTS,mKarTel,mMTS,D01,D77,2017-08-02T15:27:07+06:00,
1000000000433523,77080118008,mKcell,mAltel,mAltel,,D02,2017-08-02T15:28:02+06:00,
1000000000433525,77782265553,mKarTel,mKcell,mKcell,,D01,2017-08-02T15:29:29+06:00,
