NPId,Number,RecipientId,DonorId,RangeHolderId,OldRoute,NewRoute,PortDate,RowCount
1000000000297954,77025811843,mKarTel,mKcell,mKcell,,D01,2016-12-20T19:30:39+06:00,14
1000000000297955,77058200424,mKcell,mKarTel,mKarTel,,D02,2016-12-20T19:31:28+06:00,
1000000000297956,77004001986,mKcell,mAltel,mAltel,,D02,2016-12-20T19:31:53+06:00,
1000000000297957,77058200828,mKcell,mKarTel,mKarTel,,D02,2016-12-20T19:34:28+06:00,
1000000000297958,77017701543,mMTS,mKcell,mKcell,,D77,2016-12-20T19:35:54+06:00,
1000000000297959,77001000587,mKcell,mAltel,mAltel,,D02,2016-12-20T19:38:06+06:00,
1000000000297960,77007772305,mKcell,mAltel,mAltel,,D02,2016-12-20T19:44:35+06:00,
1000000000297961,77003622010,mMTS,mAltel,mAltel,,D77,2016-12-20T19:45:19+06:00,
1000000000297962,77773035900,mKarTel,mMTS,mKarTel,D77,D01,2016-12-20T19:45:33+06:00,
1000000000297963,77759587507,mKarTel,mKcell,mKcell,,D01,2016-12-20T19:48:31+06:00,
1000000000297964,77017431006,mKcell,mMTS,mKcell,D77,D02,2016-12-20T19:49:20+06:00,
1000000000297965,77003001983,mKcell,mAltel,mAltel,,D02,2016-12-20T19:50:17+06:00,
1000000000297966,77784110957,mAltel,mKcell,mKcell,,D07,2016-12-20T19:53:41+06:00,
1000000000297967,77004447071,mKcell,mAltel,mAltel,,D02,2016-12-20T19:56:29+06:00,
