NPId,Number,RecipientId,DonorId,RangeHolderId,OldRoute,NewRoute,PortDate,RowCount
1000000000272983,77474129391,mKarTel,mMTS,mMTS,,D01,2016-11-03T13:22:08+06:00,23
1000000000273210,77717010081,mMTS,mKarTel,mKarTel,,D77,2016-11-03T13:07:34+06:00,
1000000000273214,77077312678,mKarTel,mMTS,mMTS,,D01,2016-11-03T13:04:08+06:00,
1000000000273215,77077649321,mKarTel,mMTS,mMTS,,D01,2016-11-03T13:05:40+06:00,
1000000000273216,77473132005,mKarTel,mMTS,mMTS,,D01,2016-11-03T13:06:51+06:00,
1000000000273217,77075626444,mKcell,mMTS,mMTS,,D02,2016-11-03T13:07:24+06:00,
1000000000273218,77023369155,mMTS,mKcell,mKcell,,D77,2016-11-03T13:07:54+06:00,
1000000000273219,77715057630,mMTS,mKarTel,mKarTel,,D77,2016-11-03T13:08:52+06:00,
1000000000273220,77775528946,mAltel,mKarTel,mKarTel,,D07,2016-11-03T13:09:33+06:00,
1000000000273221,77027764616,mKarTel,mKcell,mKcell,,D01,2016-11-03T13:11:17+06:00,
1000000000273222,77710960666,mKarTel,mMTS,mKarTel,D77,D01,2016-11-03T13:11:13+06:00,
1000000000273223,77717749668,mKcell,mKarTel,mKarTel,,D02,2016-11-03T13:12:12+06:00,
1000000000273224,77027836040,mAltel,mKcell,mKcell,,D07,2016-11-03T13:11:56+06:00,
1000000000273226,77015587300,mKarTel,mKcell,mKcell,,D01,2016-11-03T13:12:52+06:00,
1000000000273227,77016549312,mMTS,mKcell,mKcell,,D77,2016-11-03T13:13:20+06:00,
1000000000273228,77056764656,mMTS,mKarTel,mKarTel,,D77,2016-11-03T13:13:55+06:00,
1000000000273229,77075795779,mKcell,mMTS,mMTS,,D02,2016-11-03T13:14:01+06:00,
1000000000273230,77022161739,mMTS,mKcell,mKcell,,D77,2016-11-03T13:16:49+06:00,
1000000000273233,77013889648,mKarTel,mKcell,mKcell,,D01,2016-11-03T13:17:48+06:00,
1000000000273234,77017515532,mMTS,mKcell,mKcell,,D77,2016-11-03T13:17:43+06:00,
1000000000273235,77057012831,mMTS,mKarTel,mKarTel,,D77,2016-11-03T13:19:30+06:00,
1000000000273236,77710960111,mKarTel,mMTS,mKarTel,D77,D01,2016-11-03T13:19:15+06:00,
1000000000273240,77776616067,mMTS,mKcell,mKarTel,D02,D77,2016-11-03T13:29:33+06:00,
