NPId,Number,RecipientId,DonorId,RangeHolderId,OldRoute,NewRoute,PortDate,RowCount
1000000000097224,77714924341,mMTS,mKarTel,mKarTel,,D77,2016-02-23T16:00:18+06:00,46
1000000000097225,77714160057,mMTS,mKarTel,mKarTel,,D77,2016-02-23T16:00:45+06:00,
1000000000097229,77014014014,mMTS,mKcell,mKcell,,D77,2016-02-23T16:02:38+06:00,
1000000000097230,77013913340,mAltel,mKcell,mKcell,,D07,2016-02-23T16:03:16+06:00,
1000000000097231,77786666319,mMTS,mKcell,mKcell,,D77,2016-02-23T16:03:31+06:00,
1000000000097232,77085836279,mKarTel,mAltel,mAltel,,D01,2016-02-23T16:03:38+06:00,
1000000000097233,77028518591,mMTS,mKcell,mKcell,,D77,2016-02-23T16:04:25+06:00,
1000000000097234,77051766712,mKcell,mKarTel,mKarTel,,D02,2016-02-23T16:04:58+06:00,
1000000000097237,77014311151,mKarTel,mKcell,mKcell,,D01,2016-02-23T16:06:48+06:00,
1000000000097238,77012225525,mKarTel,mKcell,mKcell,,D01,2016-02-23T16:06:56+06:00,
1000000000097240,77013377216,mMTS,mKcell,mKcell,,D77,2016-02-23T16:07:19+06:00,
1000000000097241,77012224579,mKarTel,mKcell,mKcell,,D01,2016-02-23T16:07:55+06:00,
1000000000097242,77073339395,mKcell,mMTS,mMTS,,D02,2016-02-23T16:07:35+06:00,
1000000000097243,77081461990,mMTS,mAltel,mAltel,,D77,2016-02-23T16:07:33+06:00,
1000000000097244,77085836278,mKarTel,mAltel,mAltel,,D01,2016-02-23T16:08:01+06:00,
1000000000097245,77057768723,mAltel,mKarTel,mKarTel,,D07,2016-02-23T16:08:20+06:00,
1000000000097246,77054228080,mMTS,mKarTel,mKarTel,,D77,2016-02-23T16:08:50+06:00,
1000000000097247,77011569701,mAltel,mKcell,mKcell,,D07,2016-02-23T16:08:58+06:00,
1000000000097249,77019326362,mKarTel,mKcell,mKcell,,D01,2016-02-23T16:10:27+06:00,
1000000000097250,77029343392,mAltel,mKcell,mKcell,,D07,2016-02-23T16:11:35+06:00,
1000000000097252,77013674602,mMTS,mKcell,mKcell,,D77,2016-02-23T16:12:09+06:00,
1000000000097253,77084001824,mKarTel,mAltel,mAltel,,D01,2016-02-23T16:12:34+06:00,
1000000000097254,77769411948,mMTS,mKarTel,mKarTel,,D77,2016-02-23T16:12:55+06:00,
1000000000097255,77774539696,mAltel,mKarTel,mKarTel,,D07,2016-02-23T16:12:55+06:00,
1000000000097256,77779322929,mMTS,mKarTel,mKarTel,,D77,2016-02-23T16:13:52+06:00,
1000000000097257,77012225503,mKarTel,mKcell,mKcell,,D01,2016-02-23T16:15:30+06:00,
1000000000097260,77770971977,mMTS,mKarTel,mKarTel,,D77,2016-02-23T16:17:11+06:00,
1000000000097262,77052054545,mAltel,mKarTel,mKarTel,,D07,2016-02-23T16:18:04+06:00,
1000000000097263,77077374959,mAltel,mMTS,mMTS,,D07,2016-02-23T16:18:40+06:00,
1000000000097264,77012225504,mKarTel,mKcell,mKcell,,D01,2016-02-23T16:19:25+06:00,
1000000000097265,77017055804,mKarTel,mKcell,mKcell,,D01,2016-02-23T16:27:44+06:00,
1000000000097267,77084001823,mKarTel,mAltel,mAltel,,D01,2016-02-23T16:20:16+06:00,
1000000000097268,77018871688,mAltel,mKcell,mKcell,,D07,2016-02-23T16:21:17+06:00,
1000000000097269,77473534476,mAltel,mMTS,mMTS,,D07,2016-02-23T16:20:48+06:00,
1000000000097270,77772991699,mAltel,mKarTel,mKarTel,,D07,2016-02-23T16:21:25+06:00,
1000000000097271,77779995554,mKcell,mKarTel,mKarTel,,D02,2016-02-23T16:22:06+06:00,
1000000000097274,77754443363,mAltel,mKcell,mKcell,,D07,2016-02-23T16:23:15+06:00,
1000000000097275,77026816001,mAltel,mKcell,mKcell,,D07,2016-02-23T16:24:09+06:00,
1000000000097277,77014951800,mKarTel,mKcell,mKcell,,D01,2016-02-23T16:24:26+06:00,
1000000000097279,77058055511,mAltel,mKarTel,mKarTel,,D07,2016-02-23T16:25:43+06:00,
1000000000097280,77012292092,mMTS,mKcell,mKcell,,D77,2016-02-23T16:25:37+06:00,
1000000000097282,77084001819,mKarTel,mAltel,mAltel,,D01,2016-02-23T16:26:10+06:00,
1000000000097283,77017699335,mMTS,mKcell,mKcell,,D77,2016-02-23T16:26:33+06:00,
1000000000097284,77017699791,mMTS,mKcell,mKcell,,D77,2016-02-23T16:27:19+06:00,
1000000000097285,77052160011,mMTS,mKarTel,mKarTel,,D77,2016-02-23T16:28:14+06:00,
1000000000097286,77024251264,mMTS,mKcell,mKcell,,D77,2016-02-23T16:29:02+06:00,
