NPId,Number,RecipientId,DonorId,RangeHolderId,OldRoute,NewRoute,PortDate,RowCount
1000000000179879,77017584047,mKarTel,mKcell,mKcell,,D01,2016-05-24T12:06:48+06:00,37
1000000000179906,77077141513,mAltel,mMTS,mMTS,,D07,2016-05-24T12:01:20+06:00,
1000000000179907,77083377911,mMTS,mAltel,mAltel,,D77,2016-05-24T12:01:34+06:00,
1000000000179908,77760002020,mKarTel,mAltel,mKarTel,D07,D01,2016-05-24T12:02:09+06:00,
1000000000179909,77005269966,mKcell,mAltel,mAltel,,D02,2016-05-24T12:03:15+06:00,
1000000000179910,77012172470,mKarTel,mKcell,mKcell,,D01,2016-05-24T12:15:56+06:00,
1000000000179910,77012172472,mKarTel,mKcell,mKcell,,D01,2016-05-24T12:15:56+06:00,
1000000000179910,77015393045,mKarTel,mKcell,mKcell,,D01,2016-05-24T12:15:56+06:00,
1000000000179910,77015393084,mKarTel,mKcell,mKcell,,D01,2016-05-24T12:15:56+06:00,
1000000000179910,77017846218,mKarTel,mKcell,mKcell,,D01,2016-05-24T12:15:56+06:00,
1000000000179910,77019601104,mKarTel,mKcell,mKcell,,D01,2016-05-24T12:15:56+06:00,
1000000000179910,77019601107,mKarTel,mKcell,mKcell,,D01,2016-05-24T12:15:56+06:00,
1000000000179910,77019601125,mKarTel,mKcell,mKcell,,D01,2016-05-24T12:15:56+06:00,
1000000000179910,77019601128,mKarTel,mKcell,mKcell,,D01,2016-05-24T12:15:56+06:00,
1000000000179910,77019601170,mKarTel,mKcell,mKcell,,D01,2016-05-24T12:15:56+06:00,
1000000000179910,77019601180,mKarTel,mKcell,mKcell,,D01,2016-05-24T12:15:56+06:00,
1000000000179910,77019601207,mKarTel,mKcell,mKcell,,D01,2016-05-24T12:15:56+06:00,
1000000000179910,77019601216,mKarTel,mKcell,mKcell,,D01,2016-05-24T12:15:56+06:00,
1000000000179911,77772215013,mMTS,mKarTel,mKarTel,,D77,2016-05-24T12:05:54+06:00,
1000000000179912,77001089108,mKarTel,mAltel,mAltel,,D01,2016-05-24T12:05:46+06:00,
1000000000179913,77772616046,mKarTel,mAltel,mKarTel,D07,D01,2016-05-24T12:05:58+06:00,
1000000000179914,77077871297,mKcell,mMTS,mMTS,,D02,2016-05-24T12:06:24+06:00,
1000000000179915,77773170067,mKarTel,mMTS,mKarTel,D77,D01,2016-05-24T12:06:04+06:00,
1000000000179917,77002233388,mMTS,mAltel,mAltel,,D77,2016-05-24T12:07:06+06:00,
1000000000179918,77017959280,mMTS,mKcell,mKcell,,D77,2016-05-24T12:07:37+06:00,
1000000000179920,77075855667,mAltel,mMTS,mMTS,,D07,2016-05-24T12:07:29+06:00,
1000000000179924,77051008615,mKcell,mKarTel,mKarTel,,D02,2016-05-24T12:14:53+06:00,
1000000000179926,77081453690,mMTS,mAltel,mAltel,,D77,2016-05-24T12:17:59+06:00,
1000000000179927,77029159025,mKcell,mMTS,mKcell,D77,D02,2016-05-24T12:19:11+06:00,
1000000000179928,77002644416,mMTS,mAltel,mAltel,,D77,2016-05-24T12:19:54+06:00,
1000000000179929,77073244714,mKcell,mMTS,mMTS,,D02,2016-05-24T12:21:04+06:00,
1000000000179930,77782555347,mKarTel,mKcell,mKcell,,D01,2016-05-24T12:22:08+06:00,
1000000000179932,77013493038,mMTS,mKcell,mKcell,,D77,2016-05-24T12:22:31+06:00,
1000000000179933,77007775540,mMTS,mAltel,mAltel,,D77,2016-05-24T12:23:16+06:00,
1000000000179935,77078547713,mMTS,mAltel,mMTS,D07,D77,2016-05-24T12:23:40+06:00,
1000000000179937,77017436274,mMTS,mKcell,mKcell,,D77,2016-05-24T12:27:28+06:00,
1000000000179939,77019033339,mKarTel,mAltel,mKcell,D07,D01,2016-05-24T12:28:57+06:00,
