NPId,Number,RecipientId,DonorId,RangeHolderId,OldRoute,NewRoute,PortDate,RowCount
1000000000172055,77017948493,mKarTel,mKcell,mKcell,,D01,2016-05-12T09:25:19+06:00,4
1000000000172308,77082600719,mKarTel,mAltel,mAltel,,D01,2016-05-12T09:02:29+06:00,
1000000000172310,77077468936,mKcell,mMTS,mMTS,,D02,2016-05-12T09:21:36+06:00,
1000000000172313,77028528848,mKcell,mAltel,mKcell,D07,D02,2016-05-12T09:24:57+06:00,
