NPId,Number,RecipientId,DonorId,RangeHolderId,OldRoute,NewRoute,PortDate,RowCount
1000000000331232,77081869650,mMTS,mAltel,mAltel,,D77,2017-02-19T13:08:25+06:00,7
1000000000331233,77052722777,mKarTel,mKcell,mKarTel,D02,D01,2017-02-19T13:09:12+06:00,
1000000000331234,77079498949,mMTS,mAltel,mMTS,D07,D77,2017-02-19T13:14:49+06:00,
1000000000331235,77011113608,mMTS,mKcell,mKcell,,D77,2017-02-19T13:15:00+06:00,
1000000000331237,77014825409,mAltel,mKcell,mKcell,,D07,2017-02-19T13:27:19+06:00,
1000000000331238,77019475588,mMTS,mKcell,mKcell,,D77,2017-02-19T13:27:53+06:00,
1000000000331239,77761090999,mMTS,mKarTel,mKarTel,,D77,2017-02-19T13:28:43+06:00,
