NPId,Number,RecipientId,DonorId,RangeHolderId,OldRoute,NewRoute,PortDate,RowCount
1000000000385970,77763524332,mAltel,mKarTel,mKarTel,,D07,2017-05-19T19:01:40+06:00,14
1000000000385971,77762271599,mMTS,mAltel,mKarTel,D07,D77,2017-05-19T19:01:30+06:00,
1000000000385973,77019067972,mAltel,mKcell,mKcell,,D07,2017-05-19T19:02:29+06:00,
1000000000385974,77716111666,mKcell,mKarTel,mKarTel,,D02,2017-05-19T19:05:40+06:00,
1000000000385975,77007181989,mKcell,mAltel,mAltel,,D02,2017-05-19T19:07:43+06:00,
1000000000385976,77014793777,mMTS,mKcell,mKcell,,D77,2017-05-19T19:07:58+06:00,
1000000000385977,77024888518,mKcell,mAltel,mKcell,D07,D02,2017-05-19T19:08:26+06:00,
1000000000385979,77057438457,mMTS,mKarTel,mKarTel,,D77,2017-05-19T19:10:04+06:00,
1000000000385980,77013097927,mKcell,mMTS,mKcell,D77,D02,2017-05-19T19:10:50+06:00,
1000000000385983,77007799111,mMTS,mAltel,mAltel,,D77,2017-05-19T19:14:18+06:00,
1000000000385984,77772932433,mKarTel,mMTS,mKarTel,D77,D01,2017-05-19T19:14:46+06:00,
1000000000385985,77762951989,mKarTel,mKcell,mKarTel,D02,D01,2017-05-19T19:16:08+06:00,
1000000000385986,77008080007,mKcell,mAltel,mAltel,,D02,2017-05-19T19:17:18+06:00,
1000000000385988,77011110513,mKcell,mAltel,mKcell,D07,D02,2017-05-19T19:24:47+06:00,
