NPId,Number,RecipientId,DonorId,RangeHolderId,OldRoute,NewRoute,PortDate,RowCount
1000000000244048,77776508733,mMTS,mKarTel,mKarTel,,D77,2016-09-11T13:03:18+06:00,7
1000000000244052,77017341785,mMTS,mKcell,mKcell,,D77,2016-09-11T13:06:56+06:00,
1000000000244054,77082277004,mAltel,mKcell,mAltel,D02,D07,2016-09-11T13:08:47+06:00,
1000000000244055,77712932313,mMTS,mKarTel,mKarTel,,D77,2016-09-11T13:12:29+06:00,
1000000000244056,77779069991,mMTS,mKarTel,mKarTel,,D77,2016-09-11T13:14:28+06:00,
1000000000244060,77029994016,mMTS,mKcell,mKcell,,D77,2016-09-11T13:16:38+06:00,
1000000000244062,77074906400,mMTS,mAltel,mMTS,D07,D77,2016-09-11T13:23:02+06:00,
