NPId,Number,RecipientId,DonorId,RangeHolderId,OldRoute,NewRoute,PortDate,RowCount
1000000000131293,77018880226,mMTS,mAltel,mKcell,D07,D77,2016-03-23T14:31:48+06:00,20
1000000000131294,77014723701,mMTS,mKcell,mKcell,,D77,2016-03-23T14:32:58+06:00,
1000000000131295,77051214487,mMTS,mKarTel,mKarTel,,D77,2016-03-23T14:34:44+06:00,
1000000000131296,77022732425,mMTS,mKcell,mKcell,,D77,2016-03-23T14:36:01+06:00,
1000000000131298,77751760306,mMTS,mKcell,mKcell,,D77,2016-03-23T14:41:15+06:00,
1000000000131299,77774999899,mKarTel,mAltel,mKarTel,D07,D01,2016-03-23T14:41:43+06:00,
1000000000131300,77789997301,mAltel,mKcell,mKcell,,D07,2016-03-23T14:42:03+06:00,
1000000000131302,77475775777,mMTS,mAltel,mMTS,D07,D77,2016-03-23T14:42:36+06:00,
1000000000131303,77477929479,mAltel,mMTS,mMTS,,D07,2016-03-23T14:44:38+06:00,
1000000000131304,77017498750,mKarTel,mKcell,mKcell,,D01,2016-03-23T14:45:56+06:00,
1000000000131307,77779100472,mMTS,mKarTel,mKarTel,,D77,2016-03-23T14:48:17+06:00,
1000000000131308,77012226780,mAltel,mKcell,mKcell,,D07,2016-03-23T14:49:32+06:00,
1000000000131309,77759400905,mMTS,mKcell,mKcell,,D77,2016-03-23T14:50:20+06:00,
1000000000131310,77026477077,mMTS,mAltel,mKcell,D07,D77,2016-03-23T14:51:45+06:00,
1000000000131311,77077001990,mAltel,mMTS,mMTS,,D07,2016-03-23T14:54:38+06:00,
1000000000131313,77766006699,mKcell,mKarTel,mKarTel,,D02,2016-03-23T14:58:09+06:00,
1000000000131314,77715286099,mAltel,mKarTel,mKarTel,,D07,2016-03-23T14:57:59+06:00,
1000000000131315,77717377707,mMTS,mKarTel,mKarTel,,D77,2016-03-23T14:57:59+06:00,
1000000000131316,77071354005,mMTS,mKarTel,mMTS,D01,D77,2016-03-23T14:57:59+06:00,
1000000000131317,77072001120,mKcell,mMTS,mMTS,,D02,2016-03-23T14:59:21+06:00,
