NPId,Number,RecipientId,DonorId,RangeHolderId,OldRoute,NewRoute,PortDate,RowCount
1000000000406567,77073416055,mKcell,mMTS,mMTS,,D02,2017-06-20T19:00:59+06:00,15
1000000000406569,77753423408,mKcell,mMTS,mKcell,D77,D02,2017-06-20T19:04:16+06:00,
1000000000406570,77767890189,mMTS,mKarTel,mKarTel,,D77,2017-06-20T19:04:17+06:00,
1000000000406571,77011882666,mMTS,mKcell,mKcell,,D77,2017-06-20T19:06:10+06:00,
1000000000406572,77755068851,mKcell,mMTS,mKcell,D77,D02,2017-06-20T19:06:36+06:00,
1000000000406573,77015559565,mKarTel,mKcell,mKcell,,D01,2017-06-20T19:08:38+06:00,
1000000000406575,77078389396,mKarTel,mMTS,mMTS,,D01,2017-06-20T19:13:45+06:00,
1000000000406576,77000888362,mKcell,mAltel,mAltel,,D02,2017-06-20T19:14:11+06:00,
1000000000406577,77058177879,mMTS,mKarTel,mKarTel,,D77,2017-06-20T19:17:12+06:00,
1000000000406579,77782757575,mAltel,mKcell,mKcell,,D07,2017-06-20T19:18:54+06:00,
1000000000406580,77777776601,mKcell,mKarTel,mKarTel,,D02,2017-06-20T19:20:03+06:00,
1000000000406581,77017013479,mKarTel,mKcell,mKcell,,D01,2017-06-20T19:21:01+06:00,
1000000000406582,77024197070,mKarTel,mKcell,mKcell,,D01,2017-06-20T19:21:25+06:00,
1000000000406583,77777770898,mKcell,mKarTel,mKarTel,,D02,2017-06-20T19:24:53+06:00,
1000000000406584,77753661407,mKcell,mMTS,mKcell,D77,D02,2017-06-20T19:27:02+06:00,
