NPId,Number,RecipientId,DonorId,RangeHolderId,OldRoute,NewRoute,PortDate,RowCount
1000000000207751,77777017797,mKcell,mKarTel,mKarTel,,D02,2016-07-08T14:30:07+06:00,34
1000000000207753,77717710606,mMTS,mKarTel,mKarTel,,D77,2016-07-08T14:30:48+06:00,
1000000000207754,77024050500,mKcell,mAltel,mKcell,D07,D02,2016-07-08T14:32:26+06:00,
1000000000207755,77017129599,mKarTel,mAltel,mKcell,D07,D01,2016-07-08T14:32:03+06:00,
1000000000207758,77087576405,mKcell,mAltel,mAltel,,D02,2016-07-08T14:32:54+06:00,
1000000000207759,77051654614,mKcell,mKarTel,mKarTel,,D02,2016-07-08T14:33:44+06:00,
1000000000207760,77017123385,mKarTel,mKcell,mKcell,,D01,2016-07-08T14:33:57+06:00,
1000000000207761,77052026773,mKarTel,mMTS,mKarTel,D77,D01,2016-07-08T14:34:04+06:00,
1000000000207762,77476726565,mMTS,mAltel,mMTS,D07,D77,2016-07-08T14:34:04+06:00,
1000000000207763,77017921560,mKcell,mMTS,mKcell,D77,D02,2016-07-08T14:35:34+06:00,
1000000000207764,77085190882,mMTS,mAltel,mAltel,,D77,2016-07-08T14:35:43+06:00,
1000000000207765,77089522375,mMTS,mAltel,mAltel,,D77,2016-07-08T14:35:44+06:00,
1000000000207767,77019241724,mKarTel,mKcell,mKcell,,D01,2016-07-08T14:37:28+06:00,
1000000000207768,77051999588,mMTS,mKarTel,mKarTel,,D77,2016-07-08T14:37:32+06:00,
1000000000207770,77028932594,mKcell,mMTS,mKcell,D77,D02,2016-07-08T14:39:54+06:00,
1000000000207771,77018830201,mKarTel,mKcell,mKcell,,D01,2016-07-08T14:42:50+06:00,
1000000000207772,77015187613,mMTS,mKcell,mKcell,,D77,2016-07-08T14:43:26+06:00,
1000000000207773,77012629982,mMTS,mKcell,mKcell,,D77,2016-07-08T14:44:40+06:00,
1000000000207774,77474454401,mMTS,mAltel,mMTS,D07,D77,2016-07-08T14:46:15+06:00,
1000000000207775,77471875013,mMTS,mKarTel,mMTS,D01,D77,2016-07-08T14:46:40+06:00,
1000000000207776,77019625010,mKarTel,mKcell,mKcell,,D01,2016-07-08T14:47:57+06:00,
1000000000207777,77016669876,mAltel,mKcell,mKcell,,D07,2016-07-08T14:48:06+06:00,
1000000000207778,77075777006,mAltel,mMTS,mMTS,,D07,2016-07-08T14:48:00+06:00,
1000000000207779,77018550443,mKcell,mMTS,mKcell,D77,D02,2016-07-08T14:49:02+06:00,
1000000000207780,77715666444,mMTS,mKarTel,mKarTel,,D77,2016-07-08T14:51:04+06:00,
1000000000207781,77772574848,mKarTel,mMTS,mKarTel,D77,D01,2016-07-08T14:51:08+06:00,
1000000000207782,77018876888,mMTS,mKcell,mKcell,,D77,2016-07-08T14:51:37+06:00,
1000000000207785,77472887211,mMTS,mAltel,mMTS,D07,D77,2016-07-08T14:52:14+06:00,
1000000000207787,77025260592,mKcell,mMTS,mKcell,D77,D02,2016-07-08T14:53:10+06:00,
1000000000207789,77015201151,mKcell,mMTS,mKcell,D77,D02,2016-07-08T14:53:44+06:00,
1000000000207792,77079825528,mMTS,mAltel,mMTS,D07,D77,2016-07-08T14:56:22+06:00,
1000000000207793,77015558108,mKarTel,mKcell,mKcell,,D01,2016-07-08T14:57:08+06:00,
1000000000207794,77774322223,mKcell,mKarTel,mKarTel,,D02,2016-07-08T14:58:03+06:00,
1000000000207796,77776365824,mMTS,mKarTel,mKarTel,,D77,2016-07-08T14:58:22+06:00,
