NPId,Number,RecipientId,DonorId,RangeHolderId,OldRoute,NewRoute,PortDate,RowCount
1000000000277946,77716910777,mMTS,mKarTel,mKarTel,,D77,2016-11-11T17:02:39+06:00,21
1000000000277947,77777230089,mMTS,mKarTel,mKarTel,,D77,2016-11-11T17:02:56+06:00,
1000000000277951,77012999228,mAltel,mKcell,mKcell,,D07,2016-11-11T17:03:59+06:00,
1000000000277952,77057210269,mKarTel,mMTS,mKarTel,D77,D01,2016-11-11T17:05:56+06:00,
1000000000277953,77786184149,mKarTel,mKcell,mKcell,,D01,2016-11-11T17:08:10+06:00,
1000000000277955,77786799946,mMTS,mKcell,mKcell,,D77,2016-11-11T17:09:57+06:00,
1000000000277956,77080617572,mKcell,mAltel,mAltel,,D02,2016-11-11T17:10:35+06:00,
1000000000277957,77783331132,mKcell,mMTS,mKcell,D77,D02,2016-11-11T17:11:36+06:00,
1000000000277958,77752970045,mKarTel,mKcell,mKcell,,D01,2016-11-11T17:15:00+06:00,
1000000000277959,77011353122,mMTS,mKcell,mKcell,,D77,2016-11-11T17:13:16+06:00,
1000000000277961,77773686076,mMTS,mKarTel,mKarTel,,D77,2016-11-11T17:14:56+06:00,
1000000000277964,77788921199,mKarTel,mKcell,mKcell,,D01,2016-11-11T17:17:51+06:00,
1000000000277965,77051452537,mAltel,mKarTel,mKarTel,,D07,2016-11-11T17:17:56+06:00,
1000000000277967,77788613637,mAltel,mKcell,mKcell,,D07,2016-11-11T17:18:24+06:00,
1000000000277970,77012545491,mMTS,mKcell,mKcell,,D77,2016-11-11T17:20:05+06:00,
1000000000277972,77052218524,mKarTel,mKcell,mKarTel,D02,D01,2016-11-11T17:21:37+06:00,
1000000000277973,77778656998,mKcell,mKarTel,mKarTel,,D02,2016-11-11T17:24:09+06:00,
1000000000277974,77052218516,mKarTel,mKcell,mKarTel,D02,D01,2016-11-11T17:24:42+06:00,
1000000000277975,77052218514,mKarTel,mKcell,mKarTel,D02,D01,2016-11-11T17:26:05+06:00,
1000000000277977,77779478822,mMTS,mKarTel,mKarTel,,D77,2016-11-11T17:27:22+06:00,
1000000000277978,77052218518,mKarTel,mKcell,mKarTel,D02,D01,2016-11-11T17:29:30+06:00,
