NPId,Number,RecipientId,DonorId,RangeHolderId,OldRoute,NewRoute,PortDate,RowCount
1000000000258220,77054733109,mAltel,mKarTel,mKarTel,,D07,2016-10-06T19:30:24+06:00,13
1000000000258226,77007779760,mKcell,mAltel,mAltel,,D02,2016-10-06T19:30:44+06:00,
1000000000258227,77072202990,mKcell,mMTS,mMTS,,D02,2016-10-06T19:32:10+06:00,
1000000000258228,77007774790,mKcell,mAltel,mAltel,,D02,2016-10-06T19:32:35+06:00,
1000000000258230,77758447194,mAltel,mKcell,mKcell,,D07,2016-10-06T19:35:10+06:00,
1000000000258231,77005556510,mKcell,mAltel,mAltel,,D02,2016-10-06T19:37:01+06:00,
1000000000258233,77005559510,mKcell,mAltel,mAltel,,D02,2016-10-06T19:37:44+06:00,
1000000000258234,77007772790,mKcell,mAltel,mAltel,,D02,2016-10-06T19:39:48+06:00,
1000000000258235,77025384628,mAltel,mKcell,mKcell,,D07,2016-10-06T19:41:18+06:00,
1000000000258236,77753386887,mKcell,mMTS,mKcell,D77,D02,2016-10-06T19:42:05+06:00,
1000000000258237,77779545983,mKarTel,mAltel,mKarTel,D07,D01,2016-10-06T19:44:13+06:00,
1000000000258238,77754454459,mMTS,mKcell,mKcell,,D77,2016-10-06T19:57:04+06:00,
1000000000258239,77029999923,mKarTel,mKcell,mKcell,,D01,2016-10-06T19:56:29+06:00,
