NPId,Number,RecipientId,DonorId,RangeHolderId,OldRoute,NewRoute,PortDate,RowCount
1000000000392383,77015160476,mKcell,mKarTel,mKcell,D01,D02,2017-05-30T10:44:39+06:00,21
1000000000392406,77015218981,mKarTel,mKcell,mKcell,,D01,2017-05-30T10:30:17+06:00,
1000000000392409,77021415356,mMTS,mKcell,mKcell,,D77,2017-05-30T10:31:13+06:00,
1000000000392410,77013634141,mKarTel,mKcell,mKcell,,D01,2017-05-30T10:32:08+06:00,
1000000000392413,77075231707,mAltel,mMTS,mMTS,,D07,2017-05-30T10:34:58+06:00,
1000000000392416,77079888830,mKcell,mMTS,mMTS,,D02,2017-05-30T10:36:34+06:00,
1000000000392417,77761777000,mKarTel,mMTS,mKarTel,D77,D01,2017-05-30T10:39:03+06:00,
1000000000392418,77015362599,mKarTel,mKcell,mKcell,,D01,2017-05-30T10:39:58+06:00,
1000000000392419,77017865688,mKcell,mAltel,mKcell,D07,D02,2017-05-30T10:42:19+06:00,
1000000000392421,77027779562,mMTS,mKcell,mKcell,,D77,2017-05-30T10:42:53+06:00,
1000000000392423,77056297071,mKarTel,mKcell,mKarTel,D02,D01,2017-05-30T10:45:40+06:00,
1000000000392425,77007300300,mMTS,mKcell,mAltel,D02,D77,2017-05-30T10:46:05+06:00,
1000000000392428,77770403583,mKarTel,mAltel,mKarTel,D07,D01,2017-05-30T10:51:12+06:00,
1000000000392430,77075599588,mMTS,mKcell,mMTS,D02,D77,2017-05-30T10:51:25+06:00,
1000000000392432,77768021111,mAltel,mKarTel,mKarTel,,D07,2017-05-30T10:52:29+06:00,
1000000000392433,77085414133,mMTS,mAltel,mAltel,,D77,2017-05-30T10:52:19+06:00,
1000000000392434,77075552472,mKcell,mMTS,mMTS,,D02,2017-05-30T10:52:32+06:00,
1000000000392435,77755624347,mKcell,mAltel,mKcell,D07,D02,2017-05-30T10:54:47+06:00,
1000000000392437,77078526712,mKarTel,mMTS,mMTS,,D01,2017-05-30T10:55:36+06:00,
1000000000392438,77070446009,mKarTel,mMTS,mMTS,D77,D01,2017-05-30T10:56:28+06:00,
1000000000392439,77052727247,mMTS,mKarTel,mKarTel,,D77,2017-05-30T10:58:02+06:00,
