NPId,Number,RecipientId,DonorId,RangeHolderId,OldRoute,NewRoute,PortDate,RowCount
1000000000397920,77071777822,mKcell,mMTS,mMTS,,D02,2017-06-05T17:30:20+06:00,22
1000000000397921,77079323322,mKcell,mMTS,mMTS,,D02,2017-06-05T17:30:30+06:00,
1000000000397922,77072145756,mKarTel,mMTS,mMTS,,D01,2017-06-05T17:30:44+06:00,
1000000000397923,77081109700,mMTS,mAltel,mAltel,,D77,2017-06-05T17:30:44+06:00,
1000000000397926,77023056333,mKcell,mMTS,mKcell,D77,D02,2017-06-05T17:32:02+06:00,
1000000000397927,77774490633,mMTS,mKarTel,mKarTel,,D77,2017-06-05T17:33:50+06:00,
1000000000397929,77776701419,mMTS,mKarTel,mKarTel,,D77,2017-06-05T17:36:50+06:00,
1000000000397930,77023105561,mMTS,mKcell,mKcell,,D77,2017-06-05T17:37:50+06:00,
1000000000397931,77784644466,mAltel,mKcell,mKcell,,D07,2017-06-05T17:38:25+06:00,
1000000000397932,77018823999,mMTS,mKcell,mKcell,,D77,2017-06-05T17:39:41+06:00,
1000000000397934,77007712311,mMTS,mAltel,mAltel,,D77,2017-06-05T17:42:11+06:00,
1000000000397935,77781946530,mMTS,mKcell,mKcell,,D77,2017-06-05T17:42:52+06:00,
1000000000397938,77078729274,mKarTel,mMTS,mMTS,,D01,2017-06-05T17:45:51+06:00,
1000000000397939,77018699559,mKcell,mAltel,mKcell,D07,D02,2017-06-05T17:46:38+06:00,
1000000000397941,77775752423,mAltel,mKarTel,mKarTel,,D07,2017-06-05T17:48:29+06:00,
1000000000397942,77781040358,mMTS,mKcell,mKcell,,D77,2017-06-05T17:48:30+06:00,
1000000000397943,77753296060,mAltel,mMTS,mKcell,D77,D07,2017-06-05T17:49:13+06:00,
1000000000397946,77071186242,mKarTel,mMTS,mMTS,,D01,2017-06-05T17:51:13+06:00,
1000000000397948,77782977777,mMTS,mKcell,mKcell,,D77,2017-06-05T17:51:37+06:00,
1000000000397949,77015217063,mKarTel,mKcell,mKcell,,D01,2017-06-05T17:51:49+06:00,
1000000000397950,77077670607,mAltel,mMTS,mMTS,,D07,2017-06-05T17:52:00+06:00,
1000000000397958,77001042017,mMTS,mAltel,mAltel,,D77,2017-06-05T17:59:43+06:00,
