NPId,Number,RecipientId,DonorId,RangeHolderId,OldRoute,NewRoute,PortDate,RowCount
1000000000427155,77003664707,mKcell,mAltel,mAltel,,D02,2017-07-24T14:30:05+06:00,50
1000000000427156,77778977773,mKarTel,mAltel,mKarTel,D07,D01,2017-07-24T14:30:05+06:00,
1000000000427157,77079041212,mKarTel,mMTS,mMTS,,D01,2017-07-24T14:30:26+06:00,
1000000000427158,77014827688,mMTS,mKcell,mKcell,,D77,2017-07-24T14:30:30+06:00,
1000000000427159,77718873077,mKcell,mKarTel,mKarTel,,D02,2017-07-24T14:31:18+06:00,
1000000000427160,77072541910,mAltel,mMTS,mMTS,,D07,2017-07-24T14:30:48+06:00,
1000000000427161,77758749526,mMTS,mKcell,mKcell,,D77,2017-07-24T14:32:09+06:00,
1000000000427162,77776600066,mAltel,mKcell,mKarTel,D02,D07,2017-07-24T14:32:37+06:00,
1000000000427163,77014909417,mMTS,mKcell,mKcell,,D77,2017-07-24T14:32:52+06:00,
1000000000427164,77001010877,mKarTel,mAltel,mAltel,,D01,2017-07-24T14:33:09+06:00,
1000000000427165,77753865666,mAltel,mKcell,mKcell,,D07,2017-07-24T14:34:09+06:00,
1000000000427166,77072065150,mKarTel,mMTS,mMTS,,D01,2017-07-24T14:35:11+06:00,
1000000000427167,77752797922,mMTS,mKcell,mKcell,,D77,2017-07-24T14:36:29+06:00,
1000000000427168,77022151303,mKarTel,mKcell,mKcell,,D01,2017-07-24T14:36:52+06:00,
1000000000427169,77785538479,mMTS,mKcell,mKcell,,D77,2017-07-24T14:37:11+06:00,
1000000000427170,77073111199,mKcell,mKarTel,mMTS,D01,D02,2017-07-24T14:38:09+06:00,
1000000000427171,77778430004,mMTS,mKcell,mKarTel,D02,D77,2017-07-24T14:37:46+06:00,
1000000000427173,77055850025,mKarTel,mMTS,mKarTel,D77,D01,2017-07-24T14:38:09+06:00,
1000000000427174,77778977772,mKarTel,mAltel,mKarTel,D07,D01,2017-07-24T14:38:14+06:00,
1000000000427175,77778430002,mMTS,mKcell,mKarTel,D02,D77,2017-07-24T14:39:49+06:00,
1000000000427176,77087521768,mMTS,mAltel,mAltel,,D77,2017-07-24T14:39:58+06:00,
1000000000427177,77751343527,mKcell,mAltel,mKcell,D07,D02,2017-07-24T14:41:06+06:00,
1000000000427178,77027237555,mAltel,mKcell,mKcell,,D07,2017-07-24T14:41:36+06:00,
1000000000427179,77773793851,mMTS,mKarTel,mKarTel,,D77,2017-07-24T14:42:19+06:00,
1000000000427180,77782301502,mKcell,mMTS,mKcell,D77,D02,2017-07-24T14:42:31+06:00,
1000000000427181,77023176072,mMTS,mKcell,mKcell,,D77,2017-07-24T14:42:41+06:00,
1000000000427184,77003339801,mMTS,mAltel,mAltel,,D77,2017-07-24T14:45:06+06:00,
1000000000427186,77781115557,mKarTel,mKcell,mKcell,,D01,2017-07-24T14:46:08+06:00,
1000000000427187,77015214228,mKarTel,mKcell,mKcell,,D01,2017-07-24T14:47:30+06:00,
1000000000427188,77071222296,mKcell,mMTS,mMTS,,D02,2017-07-24T14:47:27+06:00,
1000000000427189,77787214060,mKcell,mMTS,mKcell,D77,D02,2017-07-24T14:47:39+06:00,
1000000000427191,77757199206,mAltel,mKcell,mKcell,,D07,2017-07-24T14:49:07+06:00,
1000000000427192,77017256212,mKarTel,mKcell,mKcell,,D01,2017-07-24T14:50:43+06:00,
1000000000427193,77001573020,mMTS,mAltel,mAltel,,D77,2017-07-24T14:50:57+06:00,
1000000000427194,77022659786,mAltel,mKcell,mKcell,,D07,2017-07-24T14:51:16+06:00,
1000000000427195,77075557720,mAltel,mMTS,mMTS,,D07,2017-07-24T14:51:14+06:00,
1000000000427196,77075557750,mAltel,mMTS,mMTS,,D07,2017-07-24T14:52:00+06:00,
1000000000427197,77785538374,mMTS,mKcell,mKcell,,D77,2017-07-24T14:52:19+06:00,
1000000000427198,77014234311,mMTS,mKcell,mKcell,,D77,2017-07-24T14:52:56+06:00,
1000000000427199,77024172728,mMTS,mKcell,mKcell,,D77,2017-07-24T14:53:16+06:00,
1000000000427201,77076669910,mKcell,mAltel,mMTS,D07,D02,2017-07-24T14:53:56+06:00,
1000000000427202,77772556552,mAltel,mKarTel,mKarTel,,D07,2017-07-24T14:54:29+06:00,
1000000000427203,77051892359,mMTS,mKarTel,mKarTel,,D77,2017-07-24T14:54:56+06:00,
1000000000427204,77021455727,mAltel,mKcell,mKcell,,D07,2017-07-24T14:55:03+06:00,
1000000000427205,77027835683,mKcell,mAltel,mKcell,D07,D02,2017-07-24T14:56:46+06:00,
1000000000427206,77752895374,mMTS,mKcell,mKcell,,D77,2017-07-24T14:56:47+06:00,
1000000000427207,77026130684,mMTS,mKcell,mKcell,,D77,2017-07-24T14:57:16+06:00,
1000000000427208,77767073077,mAltel,mKarTel,mKarTel,,D07,2017-07-24T14:57:50+06:00,
1000000000427209,77020008807,mKarTel,mMTS,mKcell,D77,D01,2017-07-24T14:58:19+06:00,
1000000000427211,77716666691,mAltel,mKarTel,mKarTel,,D07,2017-07-24T14:58:46+06:00,
