NPId,Number,RecipientId,DonorId,RangeHolderId,OldRoute,NewRoute,PortDate,RowCount
1000000000197352,77757968070,mMTS,mKcell,mKcell,,D77,2016-06-21T17:00:14+06:00,50
1000000000197354,77768509020,mKarTel,mKcell,mKarTel,D02,D01,2016-06-21T17:00:29+06:00,
1000000000197355,77026006008,mMTS,mKcell,mKcell,,D77,2016-06-21T17:00:14+06:00,
1000000000197356,77774572552,mKarTel,mKcell,mKarTel,D02,D01,2016-06-21T17:00:29+06:00,
1000000000197358,77019995207,mKcell,mAltel,mKcell,D07,D02,2016-06-21T17:01:08+06:00,
1000000000197359,77752337767,mKcell,mAltel,mKcell,D07,D02,2016-06-21T17:01:07+06:00,
1000000000197360,77073613095,mKarTel,mKcell,mMTS,D02,D01,2016-06-21T17:01:10+06:00,
1000000000197361,77054787788,mMTS,mKarTel,mKarTel,,D77,2016-06-21T17:00:48+06:00,
1000000000197362,77773172073,mMTS,mKarTel,mKarTel,,D77,2016-06-21T17:00:54+06:00,
1000000000197363,77074572552,mKarTel,mKcell,mMTS,D02,D01,2016-06-21T17:02:09+06:00,
1000000000197365,77019289685,mAltel,mKcell,mKcell,,D07,2016-06-21T17:02:34+06:00,
1000000000197366,77072337100,mKcell,mMTS,mMTS,,D02,2016-06-21T17:02:58+06:00,
1000000000197368,77473821197,mKarTel,mKcell,mMTS,D02,D01,2016-06-21T17:02:49+06:00,
1000000000197369,77015433693,mKarTel,mKcell,mKcell,,D01,2016-06-21T17:13:56+06:00,
1000000000197369,77017226494,mKarTel,mKcell,mKcell,,D01,2016-06-21T17:13:56+06:00,
1000000000197371,77075213384,mKarTel,mKcell,mMTS,D02,D01,2016-06-21T17:04:03+06:00,
1000000000197372,77001212727,mKcell,mAltel,mAltel,,D02,2016-06-21T17:04:04+06:00,
1000000000197373,77768509010,mKarTel,mKcell,mKarTel,D02,D01,2016-06-21T17:04:26+06:00,
1000000000197375,77479230367,mKarTel,mKcell,mMTS,D02,D01,2016-06-21T17:05:35+06:00,
1000000000197376,77753068641,mMTS,mKcell,mKcell,,D77,2016-06-21T17:05:51+06:00,
1000000000197377,77023250539,mKcell,mMTS,mKcell,D77,D02,2016-06-21T17:07:11+06:00,
1000000000197378,77075637777,mKcell,mMTS,mMTS,,D02,2016-06-21T17:07:51+06:00,
1000000000197381,77026521804,mMTS,mKcell,mKcell,,D77,2016-06-21T17:07:54+06:00,
1000000000197382,77472997637,mKarTel,mKcell,mMTS,D02,D01,2016-06-21T17:08:47+06:00,
1000000000197384,77059909995,mKcell,mKarTel,mKarTel,,D02,2016-06-21T17:09:17+06:00,
1000000000197385,77075647777,mKcell,mMTS,mMTS,,D02,2016-06-21T17:09:45+06:00,
1000000000197386,77051836333,mMTS,mKarTel,mKarTel,,D77,2016-06-21T17:10:17+06:00,
1000000000197387,77773876373,mKarTel,mAltel,mKarTel,D07,D01,2016-06-21T17:10:26+06:00,
1000000000197389,77073205921,mKarTel,mMTS,mMTS,,D01,2016-06-21T17:11:34+06:00,
1000000000197390,77754767636,mMTS,mKcell,mKcell,,D77,2016-06-21T17:12:30+06:00,
1000000000197391,77019332112,mKarTel,mKcell,mKcell,,D01,2016-06-21T17:13:56+06:00,
1000000000197392,77073622347,mKarTel,mMTS,mMTS,,D01,2016-06-21T17:14:23+06:00,
1000000000197393,77771640150,mKcell,mAltel,mKarTel,D07,D02,2016-06-21T17:16:01+06:00,
1000000000197394,77473574538,mKarTel,mMTS,mMTS,,D01,2016-06-21T17:15:16+06:00,
1000000000197395,77473574356,mKarTel,mMTS,mMTS,,D01,2016-06-21T17:15:56+06:00,
1000000000197396,77013355555,mKarTel,mKcell,mKcell,,D01,2016-06-21T17:16:59+06:00,
1000000000197397,77473579162,mKarTel,mMTS,mMTS,,D01,2016-06-21T17:16:35+06:00,
1000000000197398,77477711719,mKcell,mMTS,mMTS,,D02,2016-06-21T17:19:09+06:00,
1000000000197399,77771995845,mKcell,mKarTel,mKarTel,,D02,2016-06-21T17:19:08+06:00,
1000000000197400,77015128307,mKarTel,mKcell,mKcell,,D01,2016-06-21T17:19:43+06:00,
1000000000197401,77771998866,mMTS,mKarTel,mKarTel,,D77,2016-06-21T17:19:02+06:00,
1000000000197402,77011141101,mAltel,mKcell,mKcell,,D07,2016-06-21T17:20:52+06:00,
1000000000197403,77019990025,mKarTel,mKcell,mKcell,,D01,2016-06-21T17:21:53+06:00,
1000000000197404,77019659010,mKarTel,mKcell,mKcell,,D01,2016-06-21T17:22:55+06:00,
1000000000197405,77071041221,mKcell,mMTS,mMTS,,D02,2016-06-21T17:23:19+06:00,
1000000000197406,77019657843,mKarTel,mKcell,mKcell,,D01,2016-06-21T17:23:46+06:00,
1000000000197407,77773678486,mKarTel,mAltel,mKarTel,D07,D01,2016-06-21T17:24:38+06:00,
1000000000197408,77012536057,mMTS,mKcell,mKcell,,D77,2016-06-21T17:25:23+06:00,
1000000000197409,77023990112,mKarTel,mKcell,mKcell,,D01,2016-06-21T17:26:27+06:00,
1000000000197410,77058024545,mKarTel,mAltel,mKarTel,D07,D01,2016-06-21T17:25:58+06:00,
