NPId,Number,RecipientId,DonorId,RangeHolderId,OldRoute,NewRoute,PortDate,RowCount
1000000000407908,77016203773,mMTS,mKcell,mKcell,,D77,2017-06-23T09:35:06+06:00,6
1000000000407909,77786336364,mKarTel,mKcell,mKcell,,D01,2017-06-23T09:37:36+06:00,
1000000000407911,77018841885,mAltel,mKcell,mKcell,,D07,2017-06-23T09:46:58+06:00,
1000000000407912,77018605602,mMTS,mKcell,mKcell,,D77,2017-06-23T09:49:22+06:00,
1000000000407913,77012990368,mKcell,mMTS,mKcell,D77,D02,2017-06-23T09:51:56+06:00,
1000000000407914,77016061400,mKarTel,mAltel,mKcell,D07,D01,2017-06-23T09:53:22+06:00,
