NPId,Number,RecipientId,DonorId,RangeHolderId,OldRoute,NewRoute,PortDate,RowCount
1000000000240128,77054061723,mKarTel,mMTS,mKarTel,D77,D01,2016-09-04T16:00:15+06:00,11
1000000000240131,77077108889,mKarTel,mMTS,mMTS,,D01,2016-09-04T16:08:43+06:00,
1000000000240132,77017909099,mMTS,mKcell,mKcell,,D77,2016-09-04T16:12:06+06:00,
1000000000240133,77776273647,mKarTel,mAltel,mKarTel,D07,D01,2016-09-04T16:13:22+06:00,
1000000000240134,77016186261,mMTS,mAltel,mKcell,D07,D77,2016-09-04T16:15:55+06:00,
1000000000240135,77774024607,mMTS,mKarTel,mKarTel,,D77,2016-09-04T16:17:29+06:00,
1000000000240137,77775389852,mMTS,mKarTel,mKarTel,,D77,2016-09-04T16:20:47+06:00,
1000000000240138,77076997008,mKcell,mMTS,mMTS,,D02,2016-09-04T16:23:19+06:00,
1000000000240139,77758861111,mAltel,mKcell,mKcell,,D07,2016-09-04T16:24:27+06:00,
1000000000240141,77011688548,mKcell,mAltel,mKcell,D07,D02,2016-09-04T16:28:00+06:00,
1000000000240142,77055270820,mMTS,mKarTel,mKarTel,,D77,2016-09-04T16:28:39+06:00,
