NPId,Number,RecipientId,DonorId,RangeHolderId,OldRoute,NewRoute,PortDate,RowCount
1000000000293153,77777803017,mKcell,mKarTel,mKarTel,,D02,2016-12-10T15:07:56+06:00,26
1000000000293163,77774945779,mKcell,mKarTel,mKarTel,,D02,2016-12-10T15:03:10+06:00,
1000000000293165,77752691695,mMTS,mKcell,mKcell,,D77,2016-12-10T15:02:56+06:00,
1000000000293167,77751060084,mKcell,mMTS,mKcell,D77,D02,2016-12-10T15:04:26+06:00,
1000000000293169,77024882000,mKarTel,mKcell,mKcell,,D01,2016-12-10T15:06:06+06:00,
1000000000293170,77025306235,mKarTel,mKcell,mKcell,,D01,2016-12-10T15:07:17+06:00,
1000000000293171,77787390134,mMTS,mKcell,mKcell,,D77,2016-12-10T15:07:09+06:00,
1000000000293173,77075003537,mKarTel,mMTS,mMTS,,D01,2016-12-10T15:11:03+06:00,
1000000000293174,77751230682,mMTS,mKcell,mKcell,,D77,2016-12-10T15:12:42+06:00,
1000000000293175,77756977737,mMTS,mKcell,mKcell,,D77,2016-12-10T15:12:46+06:00,
1000000000293178,77027728828,mMTS,mKcell,mKcell,,D77,2016-12-10T15:13:41+06:00,
1000000000293179,77007120491,mKcell,mAltel,mAltel,,D02,2016-12-10T15:16:57+06:00,
1000000000293180,77757100908,mKcell,mMTS,mKcell,D77,D02,2016-12-10T15:16:26+06:00,
1000000000293181,77777033370,mMTS,mKarTel,mKarTel,,D77,2016-12-10T15:16:28+06:00,
1000000000293182,77011412004,mKcell,mMTS,mKcell,D77,D02,2016-12-10T15:16:25+06:00,
1000000000293183,77757642444,mMTS,mAltel,mKcell,D07,D77,2016-12-10T15:16:22+06:00,
1000000000293184,77015537285,mKarTel,mKcell,mKcell,,D01,2016-12-10T15:16:58+06:00,
1000000000293186,77017566052,mMTS,mKcell,mKcell,,D77,2016-12-10T15:17:42+06:00,
1000000000293188,77081038116,mMTS,mAltel,mAltel,,D77,2016-12-10T15:20:48+06:00,
1000000000293189,77018416104,mAltel,mKcell,mKcell,,D07,2016-12-10T15:21:33+06:00,
1000000000293192,77005557515,mAltel,mMTS,mAltel,D77,D07,2016-12-10T15:22:50+06:00,
1000000000293196,77005557313,mAltel,mMTS,mAltel,D77,D07,2016-12-10T15:25:34+06:00,
1000000000293197,77774612000,mKcell,mKarTel,mKarTel,,D02,2016-12-10T15:26:50+06:00,
1000000000293198,77017119002,mKarTel,mKcell,mKcell,,D01,2016-12-10T15:26:51+06:00,
1000000000293201,77071051500,mKcell,mAltel,mMTS,D07,D02,2016-12-10T15:29:06+06:00,
1000000000293206,77025894939,mMTS,mKcell,mKcell,,D77,2016-12-10T15:29:56+06:00,
