NPId,Number,RecipientId,DonorId,RangeHolderId,OldRoute,NewRoute,PortDate,RowCount
1000000000424974,77773636774,mMTS,mKarTel,mKarTel,,D77,2017-07-19T22:37:21+06:00,2
1000000000424975,77773636743,mMTS,mKarTel,mKarTel,,D77,2017-07-19T22:47:28+06:00,
