NPId,Number,RecipientId,DonorId,RangeHolderId,OldRoute,NewRoute,PortDate,RowCount
1000000000403513,77014748549,mMTS,mKcell,mKcell,,D77,2017-06-15T10:33:08+06:00,16
1000000000403514,77017076430,mKarTel,mKcell,mKcell,,D01,2017-06-15T10:35:00+06:00,
1000000000403516,77473735074,mMTS,mKarTel,mMTS,D01,D77,2017-06-15T10:39:02+06:00,
1000000000403517,77082494585,mKarTel,mAltel,mAltel,,D01,2017-06-15T10:39:03+06:00,
1000000000403519,77772764484,mMTS,mKarTel,mKarTel,,D77,2017-06-15T10:41:44+06:00,
1000000000403520,77029602579,mKcell,mAltel,mKcell,D07,D02,2017-06-15T10:44:45+06:00,
1000000000403521,77017400530,mKarTel,mKcell,mKcell,,D01,2017-06-15T10:45:50+06:00,
1000000000403524,77474637319,mAltel,mMTS,mMTS,,D07,2017-06-15T10:47:03+06:00,
1000000000403525,77779603449,mMTS,mKarTel,mKarTel,,D77,2017-06-15T10:47:41+06:00,
1000000000403528,77756178888,mMTS,mKcell,mKcell,D02,D77,2017-06-15T10:52:15+06:00,
1000000000403529,77771300699,mKcell,mKarTel,mKarTel,,D02,2017-06-15T10:54:18+06:00,
1000000000403532,77778725445,mMTS,mKarTel,mKarTel,,D77,2017-06-15T10:55:29+06:00,
1000000000403534,77057777717,mAltel,mKarTel,mKarTel,,D07,2017-06-15T10:55:49+06:00,
1000000000403535,77079946669,mKcell,mAltel,mMTS,D07,D02,2017-06-15T10:55:44+06:00,
1000000000403537,77003003700,mKarTel,mAltel,mAltel,,D01,2017-06-15T10:58:49+06:00,
1000000000403538,77077700092,mMTS,mKcell,mMTS,D02,D77,2017-06-15T10:59:57+06:00,
