NPId,Number,RecipientId,DonorId,RangeHolderId,OldRoute,NewRoute,PortDate,RowCount
1000000000181881,77052828320,mMTS,mKarTel,mKarTel,,D77,2016-05-27T10:32:24+06:00,19
1000000000181882,77086587676,mKarTel,mAltel,mAltel,,D01,2016-05-27T10:34:54+06:00,
1000000000181885,77786777007,mMTS,mKcell,mKcell,,D77,2016-05-27T10:36:32+06:00,
1000000000181886,77015035034,mAltel,mKcell,mKcell,,D07,2016-05-27T10:38:23+06:00,
1000000000181887,77089564456,mMTS,mAltel,mAltel,,D77,2016-05-27T10:37:46+06:00,
1000000000181890,77011012403,mMTS,mKcell,mKcell,,D77,2016-05-27T10:42:23+06:00,
1000000000181891,77753347772,mKcell,mMTS,mKcell,D77,D02,2016-05-27T10:43:51+06:00,
1000000000181892,77005878487,mMTS,mAltel,mAltel,,D77,2016-05-27T10:43:24+06:00,
1000000000181893,77759630538,mMTS,mKcell,mKcell,,D77,2016-05-27T10:44:51+06:00,
1000000000181894,77787012701,mMTS,mKcell,mKcell,,D77,2016-05-27T10:45:51+06:00,
1000000000181895,77085866879,mMTS,mAltel,mAltel,,D77,2016-05-27T10:46:33+06:00,
1000000000181896,77015136092,mMTS,mKcell,mKcell,,D77,2016-05-27T10:50:27+06:00,
1000000000181897,77781857878,mKcell,mMTS,mKcell,D77,D02,2016-05-27T10:52:32+06:00,
1000000000181901,77001186479,mKcell,mAltel,mAltel,,D02,2016-05-27T10:55:58+06:00,
1000000000181902,77751153586,mKarTel,mKcell,mKcell,,D01,2016-05-27T10:57:00+06:00,
1000000000181903,77012107468,mMTS,mKcell,mKcell,,D77,2016-05-27T10:58:00+06:00,
1000000000181904,77086595333,mKarTel,mAltel,mAltel,,D01,2016-05-27T10:57:52+06:00,
1000000000181905,77773837447,mKcell,mKarTel,mKarTel,,D02,2016-05-27T10:59:14+06:00,
1000000000181907,77071182005,mKcell,mMTS,mMTS,,D02,2016-05-27T10:59:41+06:00,
