NPId,Number,RecipientId,DonorId,RangeHolderId,OldRoute,NewRoute,PortDate,RowCount
1000000000209978,77789990404,mKarTel,mKcell,mKcell,,D01,2016-07-12T15:06:56+06:00,18
1000000000209979,77019229261,mKarTel,mKcell,mKcell,,D01,2016-07-12T15:07:15+06:00,
1000000000209980,77754986129,mAltel,mKcell,mKcell,,D07,2016-07-12T15:07:15+06:00,
1000000000209984,77007492293,mKarTel,mAltel,mAltel,,D01,2016-07-12T15:13:38+06:00,
1000000000209987,77778666009,mKcell,mMTS,mKarTel,D77,D02,2016-07-12T15:17:45+06:00,
1000000000209989,77021783018,mMTS,mKcell,mKcell,,D77,2016-07-12T15:17:43+06:00,
1000000000209992,77077202428,mAltel,mMTS,mMTS,,D07,2016-07-12T15:18:35+06:00,
1000000000209993,77004034771,mMTS,mAltel,mAltel,,D77,2016-07-12T15:19:09+06:00,
1000000000209995,77074048889,mKcell,mMTS,mMTS,,D02,2016-07-12T15:21:41+06:00,
1000000000209996,77787880940,mMTS,mKcell,mKcell,,D77,2016-07-12T15:22:08+06:00,
1000000000209998,77001417471,mMTS,mAltel,mAltel,,D77,2016-07-12T15:23:42+06:00,
1000000000209999,77077057370,mKcell,mMTS,mMTS,,D02,2016-07-12T15:24:22+06:00,
1000000000210001,77016798080,mMTS,mKcell,mKcell,,D77,2016-07-12T15:25:10+06:00,
1000000000210002,77027238008,mKarTel,mMTS,mKcell,D77,D01,2016-07-12T15:25:36+06:00,
1000000000210004,77012658800,mKarTel,mKcell,mKcell,,D01,2016-07-12T15:27:56+06:00,
1000000000210005,77055555118,mKarTel,mAltel,mKarTel,D07,D01,2016-07-12T15:27:37+06:00,
1000000000210006,77017947167,mMTS,mKcell,mKcell,,D77,2016-07-12T15:29:29+06:00,
1000000000210007,77758330895,mKarTel,mKcell,mKcell,,D01,2016-07-12T15:29:42+06:00,
