NPId,Number,RecipientId,DonorId,RangeHolderId,OldRoute,NewRoute,PortDate,RowCount
1000000000213337,77010701999,mKcell,mMTS,mKcell,D77,D02,2016-07-19T18:02:19+06:00,55
1000000000213732,77027179501,mKcell,mMTS,mKcell,D77,D02,2016-07-19T18:02:23+06:00,
1000000000213733,77007909001,mKcell,mKarTel,mAltel,D01,D02,2016-07-19T18:02:19+06:00,
1000000000213734,77478745121,mKcell,mMTS,mMTS,,D02,2016-07-19T18:02:20+06:00,
1000000000213735,77076888300,mKcell,mMTS,mMTS,,D02,2016-07-19T18:02:20+06:00,
1000000000213736,77072100888,mKcell,mMTS,mMTS,,D02,2016-07-19T18:02:21+06:00,
1000000000213737,77475791756,mKcell,mMTS,mMTS,,D02,2016-07-19T18:02:20+06:00,
1000000000213738,77471236455,mKcell,mMTS,mMTS,,D02,2016-07-19T18:02:21+06:00,
1000000000213739,77017850505,mKcell,mMTS,mKcell,D77,D02,2016-07-19T18:02:21+06:00,
1000000000213740,77027341421,mKcell,mMTS,mKcell,D77,D02,2016-07-19T18:02:22+06:00,
1000000000213750,77779110202,mKcell,mKarTel,mKarTel,,D02,2016-07-19T18:10:32+06:00,
1000000000213751,77025205333,mKcell,mKarTel,mKcell,D01,D02,2016-07-19T18:10:35+06:00,
1000000000213811,77016067658,mMTS,mKcell,mKcell,,D77,2016-07-19T18:02:36+06:00,
1000000000213814,77019205150,mMTS,mKcell,mKcell,,D77,2016-07-19T18:02:38+06:00,
1000000000213819,77013733151,mMTS,mKcell,mKcell,,D77,2016-07-19T18:02:38+06:00,
1000000000213821,77011004940,mAltel,mKcell,mKcell,,D07,2016-07-19T18:02:32+06:00,
1000000000213822,77073692587,mMTS,mKarTel,mMTS,D01,D77,2016-07-19T18:01:06+06:00,
1000000000213827,77786882759,mKcell,mKarTel,mKcell,D01,D02,2016-07-19T18:08:57+06:00,
1000000000213828,77754428878,mKcell,mMTS,mKcell,D77,D02,2016-07-19T18:09:46+06:00,
1000000000213829,77077775071,mKcell,mMTS,mMTS,,D02,2016-07-19T18:08:39+06:00,
1000000000213830,77471155123,mKcell,mMTS,mMTS,,D02,2016-07-19T18:08:16+06:00,
1000000000213831,77015182848,mKcell,mKarTel,mKcell,D01,D02,2016-07-19T18:08:34+06:00,
1000000000213832,77718509434,mKcell,mKarTel,mKarTel,,D02,2016-07-19T18:08:38+06:00,
1000000000213833,77472727272,mKcell,mMTS,mMTS,,D02,2016-07-19T18:08:54+06:00,
1000000000213834,77072626377,mKcell,mMTS,mMTS,,D02,2016-07-19T18:19:51+06:00,
1000000000213835,77781710000,mKcell,mMTS,mKcell,D77,D02,2016-07-19T18:10:40+06:00,
1000000000213836,77077778071,mKcell,mMTS,mMTS,,D02,2016-07-19T18:08:40+06:00,
1000000000213837,77014932276,mKcell,mMTS,mKcell,D77,D02,2016-07-19T18:09:47+06:00,
1000000000213838,77017401061,mKcell,mKarTel,mKcell,D01,D02,2016-07-19T18:10:43+06:00,
1000000000213841,77015330397,mKarTel,mKcell,mKcell,,D01,2016-07-19T18:02:58+06:00,
1000000000213844,77027032233,mAltel,mKcell,mKcell,,D07,2016-07-19T18:02:30+06:00,
1000000000213845,77017296666,mAltel,mKcell,mKcell,,D07,2016-07-19T18:02:32+06:00,
1000000000213846,77785788857,mKarTel,mKcell,mKcell,,D01,2016-07-19T18:02:58+06:00,
1000000000213847,77022092039,mMTS,mKcell,mKcell,,D77,2016-07-19T18:02:42+06:00,
1000000000213848,77013598132,mMTS,mKcell,mKcell,,D77,2016-07-19T18:07:40+06:00,
1000000000213852,77773028386,mMTS,mKarTel,mKarTel,,D77,2016-07-19T18:01:42+06:00,
1000000000213853,77752822222,mMTS,mKcell,mKcell,,D77,2016-07-19T18:07:40+06:00,
1000000000213854,77073900056,mKarTel,mMTS,mMTS,,D01,2016-07-19T18:02:58+06:00,
1000000000213855,77783350429,mMTS,mKcell,mKcell,,D77,2016-07-19T18:07:34+06:00,
1000000000213856,77073105097,mKarTel,mMTS,mMTS,,D01,2016-07-19T18:05:28+06:00,
1000000000213858,77760077037,mAltel,mKarTel,mKarTel,,D07,2016-07-19T18:07:55+06:00,
1000000000213859,77077049428,mAltel,mMTS,mMTS,,D07,2016-07-19T18:08:04+06:00,
1000000000213872,77776339718,mMTS,mKarTel,mKarTel,,D77,2016-07-19T18:13:58+06:00,
1000000000213873,77015775085,mKarTel,mAltel,mKcell,D07,D01,2016-07-19T18:13:57+06:00,
1000000000213874,77713757969,mMTS,mKarTel,mKarTel,,D77,2016-07-19T18:15:37+06:00,
1000000000213875,77083325533,mMTS,mAltel,mAltel,,D77,2016-07-19T18:17:19+06:00,
1000000000213876,77014149298,mMTS,mKcell,mKcell,,D77,2016-07-19T18:23:10+06:00,
1000000000213877,77017661841,mMTS,mKcell,mKcell,,D77,2016-07-19T18:21:09+06:00,
1000000000213878,77471175742,mAltel,mMTS,mMTS,,D07,2016-07-19T18:18:55+06:00,
1000000000213879,77017375664,mMTS,mKcell,mKcell,,D77,2016-07-19T18:20:37+06:00,
1000000000213880,77751757254,mMTS,mKcell,mKcell,,D77,2016-07-19T18:23:32+06:00,
1000000000213881,77760001090,mAltel,mKarTel,mKarTel,,D07,2016-07-19T18:23:53+06:00,
1000000000213883,77075544944,mKcell,mMTS,mMTS,,D02,2016-07-19T18:28:56+06:00,
1000000000213884,77022322335,mMTS,mKcell,mKcell,,D77,2016-07-19T18:28:14+06:00,
1000000000213885,77086240924,mKarTel,mAltel,mAltel,,D01,2016-07-19T18:28:41+06:00,
