NPId,Number,RecipientId,DonorId,RangeHolderId,OldRoute,NewRoute,PortDate,RowCount
1000000000440012,77078200818,mKcell,mMTS,mMTS,,D02,2017-08-14T19:01:14+06:00,16
1000000000440014,77477032627,mKcell,mMTS,mMTS,,D02,2017-08-14T19:02:01+06:00,
1000000000440015,77789527139,mKarTel,mKcell,mKcell,,D01,2017-08-14T19:03:15+06:00,
1000000000440017,77013885589,mKcell,mKarTel,mKcell,D01,D02,2017-08-14T19:05:22+06:00,
1000000000440019,77752019191,mKarTel,mKcell,mKcell,,D01,2017-08-14T19:07:59+06:00,
1000000000440020,77076000359,mKcell,mMTS,mMTS,,D02,2017-08-14T19:09:44+06:00,
1000000000440022,77073623107,mKcell,mMTS,mMTS,,D02,2017-08-14T19:11:16+06:00,
1000000000440023,77477457458,mAltel,mMTS,mMTS,,D07,2017-08-14T19:11:56+06:00,
1000000000440024,77758312134,mKarTel,mKcell,mKcell,,D01,2017-08-14T19:13:48+06:00,
1000000000440026,77475777609,mKarTel,mMTS,mMTS,,D01,2017-08-14T19:14:39+06:00,
1000000000440029,77075777609,mKarTel,mMTS,mMTS,,D01,2017-08-14T19:16:01+06:00,
1000000000440031,77076066640,mKcell,mMTS,mMTS,,D02,2017-08-14T19:18:01+06:00,
1000000000440032,77076620178,mKarTel,mMTS,mMTS,,D01,2017-08-14T19:18:33+06:00,
1000000000440033,77013650486,mKarTel,mKcell,mKcell,,D01,2017-08-14T19:20:30+06:00,
1000000000440034,77073017570,mKcell,mMTS,mMTS,,D02,2017-08-14T19:22:32+06:00,
1000000000440035,77015506670,mMTS,mKcell,mKcell,,D77,2017-08-14T19:28:40+06:00,
