NPId,Number,RecipientId,DonorId,RangeHolderId,OldRoute,NewRoute,PortDate,RowCount
1000000000333069,77788040006,mMTS,mKcell,mKcell,,D77,2017-02-22T16:30:14+06:00,23
1000000000333070,77078830709,mKcell,mMTS,mMTS,,D02,2017-02-22T16:30:31+06:00,
1000000000333074,77088552808,mKcell,mAltel,mAltel,,D02,2017-02-22T16:32:27+06:00,
1000000000333075,77782615996,mMTS,mKcell,mKcell,,D77,2017-02-22T16:32:55+06:00,
1000000000333076,77773919219,mAltel,mKarTel,mKarTel,,D07,2017-02-22T16:35:06+06:00,
1000000000333077,77079098583,mKcell,mMTS,mMTS,,D02,2017-02-22T16:35:19+06:00,
1000000000333078,77711625107,mMTS,mAltel,mKarTel,D07,D77,2017-02-22T16:35:26+06:00,
1000000000333079,77019122075,mKarTel,mKcell,mKcell,,D01,2017-02-22T16:36:07+06:00,
1000000000333080,77014648911,mAltel,mKcell,mKcell,,D07,2017-02-22T16:35:55+06:00,
1000000000333081,77475556102,mAltel,mMTS,mMTS,,D07,2017-02-22T16:37:51+06:00,
1000000000333083,77016858570,mMTS,mKcell,mKcell,,D77,2017-02-22T16:38:29+06:00,
1000000000333084,77075685685,mKarTel,mMTS,mMTS,,D01,2017-02-22T16:38:40+06:00,
1000000000333086,77771581322,mMTS,mKarTel,mKarTel,,D77,2017-02-22T16:39:54+06:00,
1000000000333087,77769668007,mMTS,mKarTel,mKarTel,,D77,2017-02-22T16:42:58+06:00,
1000000000333088,77021124555,mKarTel,mKcell,mKcell,,D01,2017-02-22T16:43:54+06:00,
1000000000333089,77054334211,mMTS,mKarTel,mKarTel,,D77,2017-02-22T16:43:54+06:00,
1000000000333090,77778826058,mAltel,mKarTel,mKarTel,,D07,2017-02-22T16:45:23+06:00,
1000000000333091,77765569515,mKarTel,mKcell,mKarTel,D02,D01,2017-02-22T16:45:25+06:00,
1000000000333092,77714653003,mAltel,mKarTel,mKarTel,,D07,2017-02-22T16:46:29+06:00,
1000000000333093,77012838294,mAltel,mKcell,mKcell,,D07,2017-02-22T16:46:42+06:00,
1000000000333094,77019008431,mAltel,mKarTel,mKcell,D01,D07,2017-02-22T16:47:13+06:00,
1000000000333097,77027998595,mMTS,mKcell,mKcell,,D77,2017-02-22T16:50:19+06:00,
1000000000333099,77019530385,mKcell,mKarTel,mKcell,D01,D02,2017-02-22T16:54:00+06:00,
