NPId,Number,RecipientId,DonorId,RangeHolderId,OldRoute,NewRoute,PortDate,RowCount
1000000000312423,77017397679,mKcell,mKarTel,mKcell,D01,D02,2017-01-18T13:05:08+06:00,30
1000000000312427,77017397680,mKcell,mKarTel,mKcell,D01,D02,2017-01-18T13:08:35+06:00,
1000000000312429,77019716685,mKcell,mKarTel,mKcell,D01,D02,2017-01-18T13:10:40+06:00,
1000000000312431,77774015245,mKcell,mKarTel,mKarTel,,D02,2017-01-18T13:11:29+06:00,
1000000000312432,77710959505,mMTS,mKarTel,mKarTel,,D77,2017-01-18T13:12:33+06:00,
1000000000312433,77010523423,mKcell,mKarTel,mKcell,D01,D02,2017-01-18T13:12:54+06:00,
1000000000312437,77787888258,mAltel,mKcell,mKcell,,D07,2017-01-18T13:00:38+06:00,
1000000000312438,77751906063,mKarTel,mKcell,mKcell,,D01,2017-01-18T13:01:14+06:00,
1000000000312441,77076101862,mAltel,mMTS,mMTS,,D07,2017-01-18T13:02:20+06:00,
1000000000312442,77088023395,mMTS,mAltel,mAltel,,D77,2017-01-18T13:05:16+06:00,
1000000000312443,77013313010,mMTS,mKcell,mKcell,,D77,2017-01-18T13:06:29+06:00,
1000000000312444,77012556144,mMTS,mKarTel,mKcell,D01,D77,2017-01-18T13:07:58+06:00,
1000000000312445,77010523424,mKcell,mKarTel,mKcell,D01,D02,2017-01-18T13:23:32+06:00,
1000000000312446,77019100000,mKarTel,mKcell,mKcell,,D01,2017-01-18T13:08:29+06:00,
1000000000312447,77079039995,mKcell,mMTS,mMTS,,D02,2017-01-18T13:08:41+06:00,
1000000000312448,77082223252,mKcell,mKarTel,mAltel,D01,D02,2017-01-18T13:09:09+06:00,
1000000000312449,77010523425,mKcell,mKarTel,mKcell,D01,D02,2017-01-18T13:26:08+06:00,
1000000000312450,77751133330,mAltel,mKcell,mKcell,,D07,2017-01-18T13:10:43+06:00,
1000000000312452,77751333665,mMTS,mKcell,mKcell,,D77,2017-01-18T13:11:31+06:00,
1000000000312453,77010523426,mKcell,mKarTel,mKcell,D01,D02,2017-01-18T13:28:03+06:00,
1000000000312454,77751211153,mAltel,mKcell,mKcell,,D07,2017-01-18T13:13:16+06:00,
1000000000312455,77762200755,mKcell,mKarTel,mKarTel,,D02,2017-01-18T13:29:59+06:00,
1000000000312456,77073696651,mMTS,mAltel,mMTS,D07,D77,2017-01-18T13:15:41+06:00,
1000000000312458,77057009222,mMTS,mKarTel,mKarTel,,D77,2017-01-18T13:17:11+06:00,
1000000000312459,77028051177,mAltel,mKcell,mKcell,,D07,2017-01-18T13:17:23+06:00,
1000000000312463,77013395643,mKcell,mMTS,mKcell,D77,D02,2017-01-18T13:22:01+06:00,
1000000000312464,77774296763,mMTS,mKarTel,mKarTel,,D77,2017-01-18T13:23:05+06:00,
1000000000312468,77054938888,mMTS,mKarTel,mKarTel,,D77,2017-01-18T13:27:39+06:00,
1000000000312469,77054958888,mMTS,mKarTel,mKarTel,,D77,2017-01-18T13:28:43+06:00,
1000000000312470,77785022527,mAltel,mKcell,mKcell,,D07,2017-01-18T13:29:20+06:00,
