NPId,Number,RecipientId,DonorId,RangeHolderId,OldRoute,NewRoute,PortDate,RowCount
1000000000284038,77473272669,mKcell,mKarTel,mMTS,D01,D02,2016-11-25T13:35:54+06:00,22
1000000000284046,77473272615,mKcell,mKarTel,mMTS,D01,D02,2016-11-25T13:39:44+06:00,
1000000000284051,77473272620,mKcell,mKarTel,mMTS,D01,D02,2016-11-25T13:42:13+06:00,
1000000000284057,77075240000,mKcell,mMTS,mMTS,,D02,2016-11-25T13:30:03+06:00,
1000000000284058,77756783344,mKarTel,mKcell,mKcell,,D01,2016-11-25T13:30:43+06:00,
1000000000284061,77018749098,mAltel,mKcell,mKcell,,D07,2016-11-25T13:32:52+06:00,
1000000000284062,77771798516,mMTS,mKarTel,mKarTel,,D77,2016-11-25T13:35:07+06:00,
1000000000284063,77773742750,mMTS,mKarTel,mKarTel,,D77,2016-11-25T13:36:19+06:00,
1000000000284066,77775588855,mKarTel,mAltel,mKarTel,D07,D01,2016-11-25T13:38:47+06:00,
1000000000284068,77473272624,mKcell,mKarTel,mMTS,D01,D02,2016-11-25T13:54:19+06:00,
1000000000284069,77717777730,mKcell,mKarTel,mKarTel,,D02,2016-11-25T13:58:01+06:00,
1000000000284070,77473943927,mKcell,mKarTel,mMTS,D01,D02,2016-11-25T13:57:52+06:00,
1000000000284071,77473201413,mKcell,mMTS,mMTS,,D02,2016-11-25T13:42:28+06:00,
1000000000284072,77770500913,mMTS,mKarTel,mKarTel,,D77,2016-11-25T13:42:54+06:00,
1000000000284077,77023200333,mMTS,mKcell,mKcell,,D77,2016-11-25T13:50:00+06:00,
1000000000284078,77018682864,mMTS,mKcell,mKcell,,D77,2016-11-25T13:51:06+06:00,
1000000000284080,77079576996,mAltel,mMTS,mMTS,,D07,2016-11-25T13:52:26+06:00,
1000000000284082,77771355553,mMTS,mKarTel,mKarTel,,D77,2016-11-25T13:54:36+06:00,
1000000000284084,77017413979,mKarTel,mKcell,mKcell,,D01,2016-11-25T13:57:45+06:00,
1000000000284086,77075228800,mAltel,mMTS,mMTS,,D07,2016-11-25T13:57:50+06:00,
1000000000284087,77778777737,mKcell,mKarTel,mKarTel,,D02,2016-11-25T13:58:50+06:00,
1000000000284088,77001016060,mKcell,mAltel,mAltel,,D02,2016-11-25T13:58:29+06:00,
