NPId,Number,RecipientId,DonorId,RangeHolderId,OldRoute,NewRoute,PortDate,RowCount
1000000000136902,77087224431,mMTS,mAltel,mAltel,,D77,2016-03-30T08:37:33+06:00,2
1000000000136903,77788883108,mAltel,mKcell,mKcell,,D07,2016-03-30T08:45:08+06:00,
