NPId,Number,RecipientId,DonorId,RangeHolderId,OldRoute,NewRoute,PortDate,RowCount
1000000000205712,77779333555,mKarTel,mMTS,mKarTel,D77,D01,2016-07-06T12:00:09+06:00,14
1000000000205713,77056623431,mMTS,mKarTel,mKarTel,,D77,2016-07-06T12:00:49+06:00,
1000000000205716,77472203888,mAltel,mMTS,mMTS,,D07,2016-07-06T12:06:18+06:00,
1000000000205717,77029428688,mMTS,mKcell,mKcell,,D77,2016-07-06T12:08:22+06:00,
1000000000205719,77767877787,mKcell,mKarTel,mKarTel,,D02,2016-07-06T12:09:54+06:00,
1000000000205723,77012098313,mAltel,mKcell,mKcell,,D07,2016-07-06T12:16:10+06:00,
1000000000205727,77077287475,mMTS,mKarTel,mMTS,D01,D77,2016-07-06T12:20:09+06:00,
1000000000205728,77760020330,mMTS,mKarTel,mKarTel,,D77,2016-07-06T12:20:09+06:00,
1000000000205729,77021555484,mKarTel,mKcell,mKcell,,D01,2016-07-06T12:21:13+06:00,
1000000000205733,77029705070,mMTS,mKcell,mKcell,,D77,2016-07-06T12:23:08+06:00,
1000000000205734,77088589957,mMTS,mAltel,mAltel,,D77,2016-07-06T12:22:57+06:00,
1000000000205735,77777899989,mKcell,mAltel,mKarTel,D07,D02,2016-07-06T12:23:51+06:00,
1000000000205736,77075556602,mKarTel,mMTS,mMTS,,D01,2016-07-06T12:25:28+06:00,
1000000000205737,77777899992,mKcell,mAltel,mKarTel,D07,D02,2016-07-06T12:25:53+06:00,
