NPId,Number,RecipientId,DonorId,RangeHolderId,OldRoute,NewRoute,PortDate,RowCount
1000000000425337,77028260335,mKarTel,mKcell,mKcell,,D01,2017-07-20T16:00:44+06:00,30
1000000000425338,77021043810,mKcell,mMTS,mKcell,D77,D02,2017-07-20T16:00:48+06:00,
1000000000425341,77076660994,mKcell,mAltel,mMTS,D07,D02,2017-07-20T16:02:26+06:00,
1000000000425342,77002804900,mKcell,mMTS,mAltel,D77,D02,2017-07-20T16:03:46+06:00,
1000000000425343,77786073675,mKarTel,mMTS,mKcell,D77,D01,2017-07-20T16:04:27+06:00,
1000000000425346,77014111858,mKcell,mAltel,mKcell,D07,D02,2017-07-20T16:06:11+06:00,
1000000000425347,77770070184,mKcell,mKarTel,mKarTel,,D02,2017-07-20T16:06:45+06:00,
1000000000425349,77015355047,mKarTel,mKcell,mKcell,,D01,2017-07-20T16:09:35+06:00,
1000000000425350,77772034069,mMTS,mKarTel,mKarTel,,D77,2017-07-20T16:09:49+06:00,
1000000000425351,77751922777,mMTS,mKcell,mKcell,,D77,2017-07-20T16:09:37+06:00,
1000000000425352,77077606081,mKcell,mKarTel,mMTS,D01,D02,2017-07-20T16:11:09+06:00,
1000000000425353,77773833068,mKarTel,mMTS,mKarTel,D77,D01,2017-07-20T16:10:46+06:00,
1000000000425354,77001415503,mAltel,mMTS,mAltel,D77,D07,2017-07-20T16:10:40+06:00,
1000000000425356,77015319020,mKarTel,mMTS,mKcell,D77,D01,2017-07-20T16:11:52+06:00,
1000000000425357,77473833068,mMTS,mKarTel,mMTS,D01,D77,2017-07-20T16:12:01+06:00,
1000000000425358,77011606747,mKarTel,mKcell,mKcell,,D01,2017-07-20T16:12:14+06:00,
1000000000425359,77004540101,mMTS,mAltel,mAltel,,D77,2017-07-20T16:12:02+06:00,
1000000000425367,77005190308,mKcell,mAltel,mAltel,,D02,2017-07-20T16:20:28+06:00,
1000000000425368,77074550061,mAltel,mMTS,mMTS,,D07,2017-07-20T16:20:58+06:00,
1000000000425369,77014146242,mMTS,mKcell,mKcell,,D77,2017-07-20T16:22:15+06:00,
1000000000425370,77017062538,mAltel,mKcell,mKcell,,D07,2017-07-20T16:22:43+06:00,
1000000000425371,77760806688,mKarTel,mKcell,mKarTel,D02,D01,2017-07-20T16:23:14+06:00,
1000000000425372,77000000828,mKcell,mAltel,mAltel,,D02,2017-07-20T16:24:34+06:00,
1000000000425373,77054948191,mAltel,mKarTel,mKarTel,,D07,2017-07-20T16:25:08+06:00,
1000000000425375,77014532780,mAltel,mKcell,mKcell,,D07,2017-07-20T16:26:02+06:00,
1000000000425376,77029800098,mMTS,mKcell,mKcell,,D77,2017-07-20T16:26:15+06:00,
1000000000425377,77754317575,mKarTel,mKcell,mKcell,,D01,2017-07-20T16:26:46+06:00,
1000000000425378,77013856065,mAltel,mKcell,mKcell,D02,D07,2017-07-20T16:27:01+06:00,
1000000000425379,77767111933,mMTS,mKarTel,mKarTel,,D77,2017-07-20T16:27:37+06:00,
1000000000425380,77016066610,mMTS,mKcell,mKcell,,D77,2017-07-20T16:29:22+06:00,
