NPId,Number,RecipientId,DonorId,RangeHolderId,OldRoute,NewRoute,PortDate,RowCount
1000000000321725,77775360007,mMTS,mKarTel,mKarTel,,D77,2017-02-01T18:37:02+06:00,27
1000000000321737,77717568888,mMTS,mKarTel,mKarTel,,D77,2017-02-01T18:41:51+06:00,
1000000000321745,77784484343,mMTS,mKcell,mKcell,,D77,2017-02-01T18:33:50+06:00,
1000000000321746,77026040199,mMTS,mKcell,mKcell,,D77,2017-02-01T18:36:39+06:00,
1000000000321747,77779330743,mKcell,mKarTel,mKarTel,,D02,2017-02-01T18:37:15+06:00,
1000000000321748,77077705202,mKcell,mMTS,mMTS,,D02,2017-02-01T18:37:58+06:00,
1000000000321749,77085292562,mKcell,mAltel,mAltel,,D02,2017-02-01T18:38:01+06:00,
1000000000321750,77015430107,mKarTel,mKcell,mKcell,,D01,2017-02-01T18:38:24+06:00,
1000000000321751,77056706249,mMTS,mKarTel,mKarTel,,D77,2017-02-01T18:38:49+06:00,
1000000000321756,77781424740,mKarTel,mMTS,mKcell,D77,D01,2017-02-01T18:40:38+06:00,
1000000000321757,77765833337,mKarTel,mKcell,mKarTel,D02,D01,2017-02-01T18:41:05+06:00,
1000000000321761,77029225357,mKcell,mAltel,mKcell,D07,D02,2017-02-01T18:43:04+06:00,
1000000000321762,77072221146,mKcell,mMTS,mMTS,,D02,2017-02-01T18:43:23+06:00,
1000000000321763,77779511116,mMTS,mKarTel,mKarTel,,D77,2017-02-01T18:45:07+06:00,
1000000000321765,77776786171,mAltel,mKarTel,mKarTel,,D07,2017-02-01T18:46:59+06:00,
1000000000321767,77756810777,mAltel,mKcell,mKcell,,D07,2017-02-01T18:47:48+06:00,
1000000000321768,77019994110,mMTS,mKcell,mKcell,,D77,2017-02-01T18:47:50+06:00,
1000000000321769,77051129393,mKcell,mKarTel,mKarTel,,D02,2017-02-01T18:49:24+06:00,
1000000000321770,77760110161,mKcell,mKarTel,mKarTel,,D02,2017-02-01T18:49:39+06:00,
1000000000321773,77017756856,mKarTel,mKcell,mKcell,,D01,2017-02-01T18:51:15+06:00,
1000000000321774,77765944440,mKarTel,mKcell,mKarTel,D02,D01,2017-02-01T18:52:28+06:00,
1000000000321775,77477000975,mMTS,mKcell,mMTS,D02,D77,2017-02-01T18:52:51+06:00,
1000000000321776,77773116464,mKcell,mKarTel,mKarTel,,D02,2017-02-01T18:53:54+06:00,
1000000000321777,77775851414,mMTS,mKarTel,mKarTel,,D77,2017-02-01T18:55:13+06:00,
1000000000321781,77078900927,mKarTel,mMTS,mMTS,,D01,2017-02-01T18:59:02+06:00,
1000000000321782,77025051880,mKarTel,mKcell,mKcell,,D01,2017-02-01T18:59:34+06:00,
1000000000321783,77715272144,mAltel,mKarTel,mKarTel,,D07,2017-02-01T18:59:49+06:00,
