NPId,Number,RecipientId,DonorId,RangeHolderId,OldRoute,NewRoute,PortDate,RowCount
1000000000214380,77788884295,mKarTel,mKcell,mKcell,,D01,2016-07-20T17:00:37+06:00,24
1000000000214382,77052244433,mMTS,mKarTel,mKarTel,,D77,2016-07-20T17:01:21+06:00,
1000000000214384,77076358486,mKcell,mMTS,mMTS,,D02,2016-07-20T17:02:50+06:00,
1000000000214386,77019870777,mKcell,mAltel,mKcell,D07,D02,2016-07-20T17:04:10+06:00,
1000000000214388,77012222419,mKarTel,mKcell,mKcell,,D01,2016-07-20T17:05:47+06:00,
1000000000214389,77076114626,mKcell,mMTS,mMTS,,D02,2016-07-20T17:07:27+06:00,
1000000000214390,77779999908,mKarTel,mKcell,mKarTel,D02,D01,2016-07-20T17:07:52+06:00,
1000000000214391,77073886665,mKcell,mMTS,mMTS,,D02,2016-07-20T17:07:54+06:00,
1000000000214392,77012994707,mKarTel,mKcell,mKcell,,D01,2016-07-20T17:08:26+06:00,
1000000000214395,77017724024,mKarTel,mKcell,mKcell,,D01,2016-07-20T17:12:27+06:00,
1000000000214396,77011094799,mKcell,mKarTel,mKcell,D01,D02,2016-07-20T17:14:17+06:00,
1000000000214397,77079984420,mKcell,mMTS,mMTS,,D02,2016-07-20T17:13:29+06:00,
1000000000214398,77014337600,mAltel,mKcell,mKcell,,D07,2016-07-20T17:13:50+06:00,
1000000000214401,77078543385,mKcell,mMTS,mMTS,,D02,2016-07-20T17:16:08+06:00,
1000000000214403,77079984417,mKcell,mMTS,mMTS,,D02,2016-07-20T17:19:12+06:00,
1000000000214404,77000000849,mKcell,mAltel,mAltel,,D02,2016-07-20T17:19:54+06:00,
1000000000214405,77017773422,mKarTel,mKcell,mKcell,,D01,2016-07-20T17:19:05+06:00,
1000000000214408,77078020520,mKcell,mMTS,mMTS,,D02,2016-07-20T17:22:42+06:00,
1000000000214409,77017202121,mKcell,mAltel,mKcell,D07,D02,2016-07-20T17:23:07+06:00,
1000000000214410,77763555530,mKcell,mKarTel,mKarTel,,D02,2016-07-20T17:25:26+06:00,
1000000000214411,77072667032,mKcell,mMTS,mMTS,,D02,2016-07-20T17:24:31+06:00,
1000000000214412,77754442854,mKcell,mMTS,mKcell,D77,D02,2016-07-20T17:26:06+06:00,
1000000000214413,77015578346,mKarTel,mKcell,mKcell,,D01,2016-07-20T17:25:35+06:00,
1000000000214415,77753334635,mAltel,mKcell,mKcell,,D07,2016-07-20T17:27:53+06:00,
