NPId,Number,RecipientId,DonorId,RangeHolderId,OldRoute,NewRoute,PortDate,RowCount
1000000000350688,77052177749,mAltel,mKarTel,mKarTel,,D07,2017-03-22T11:04:24+06:00,9
1000000000350689,77026766669,mMTS,mKarTel,mKcell,D01,D77,2017-03-22T11:05:07+06:00,
1000000000350690,77085111858,mKarTel,mAltel,mAltel,,D01,2017-03-22T11:10:43+06:00,
1000000000350691,77051598288,mMTS,mAltel,mKarTel,D07,D77,2017-03-22T11:11:50+06:00,
1000000000350692,77027775089,mMTS,mKcell,mKcell,,D77,2017-03-22T11:13:29+06:00,
1000000000350693,77025017222,mAltel,mKcell,mKcell,,D07,2017-03-22T11:17:21+06:00,
1000000000350694,77471488623,mKcell,mMTS,mMTS,,D02,2017-03-22T11:22:25+06:00,
1000000000350696,77071598288,mAltel,mMTS,mMTS,,D07,2017-03-22T11:26:39+06:00,
1000000000350697,77072611236,mKcell,mMTS,mMTS,,D02,2017-03-22T11:27:48+06:00,
