NPId,Number,RecipientId,DonorId,RangeHolderId,OldRoute,NewRoute,PortDate,RowCount
1000000000427723,77023707120,mMTS,mKcell,mKcell,,D77,2017-07-25T12:01:10+06:00,22
1000000000427724,77075989741,mKarTel,mMTS,mMTS,,D01,2017-07-25T12:01:19+06:00,
1000000000427725,77789469918,mMTS,mKcell,mKcell,,D77,2017-07-25T12:01:20+06:00,
1000000000427726,77056353174,mMTS,mKarTel,mKarTel,,D77,2017-07-25T12:01:29+06:00,
1000000000427727,77006662071,mMTS,mAltel,mAltel,,D77,2017-07-25T12:02:05+06:00,
1000000000427728,77014081056,mKarTel,mKcell,mKcell,,D01,2017-07-25T12:02:45+06:00,
1000000000427729,77056653663,mMTS,mKarTel,mKarTel,,D77,2017-07-25T12:02:55+06:00,
1000000000427730,77017281506,mKcell,mMTS,mKcell,D77,D02,2017-07-25T12:06:00+06:00,
1000000000427731,77005559351,mKcell,mAltel,mAltel,,D02,2017-07-25T12:08:50+06:00,
1000000000427732,77013214181,mMTS,mKcell,mKcell,,D77,2017-07-25T12:12:39+06:00,
1000000000427734,77756462629,mKcell,mAltel,mKcell,D07,D02,2017-07-25T12:14:51+06:00,
1000000000427735,77056261626,mKcell,mAltel,mKarTel,D07,D02,2017-07-25T12:14:36+06:00,
1000000000427736,77054955757,mMTS,mKarTel,mKarTel,,D77,2017-07-25T12:15:51+06:00,
1000000000427737,77014106761,mKcell,mMTS,mKcell,D77,D02,2017-07-25T12:15:58+06:00,
1000000000427738,77713994376,mMTS,mKarTel,mKarTel,,D77,2017-07-25T12:17:31+06:00,
1000000000427741,77006662123,mMTS,mAltel,mAltel,,D77,2017-07-25T12:20:58+06:00,
1000000000427742,77788569044,mMTS,mKcell,mKcell,,D77,2017-07-25T12:23:02+06:00,
1000000000427743,77081178888,mAltel,mKarTel,mAltel,D01,D07,2017-07-25T12:23:44+06:00,
1000000000427744,77718885999,mKcell,mKarTel,mKarTel,,D02,2017-07-25T12:24:05+06:00,
1000000000427745,77015723377,mKarTel,mKcell,mKcell,,D01,2017-07-25T12:25:29+06:00,
1000000000427746,77013656734,mMTS,mKcell,mKcell,,D77,2017-07-25T12:26:04+06:00,
1000000000427747,77751960270,mMTS,mKcell,mKcell,,D77,2017-07-25T12:27:17+06:00,
