NPId,Number,RecipientId,DonorId,RangeHolderId,OldRoute,NewRoute,PortDate,RowCount
1000000000251940,77756838676,mKarTel,mKcell,mKcell,,D01,2016-09-27T13:31:27+06:00,24
1000000000251941,77015299125,mKarTel,mKcell,mKcell,,D01,2016-09-27T13:31:58+06:00,
1000000000251942,77057002070,mMTS,mKarTel,mKarTel,,D77,2016-09-27T13:33:44+06:00,
1000000000251943,77021230282,mMTS,mKcell,mKcell,D02,D77,2016-09-27T13:33:13+06:00,
1000000000251944,77075307468,mKcell,mMTS,mMTS,,D02,2016-09-27T13:35:11+06:00,
1000000000251946,77719061859,mKcell,mKarTel,mKarTel,,D02,2016-09-27T13:37:00+06:00,
1000000000251949,77783282227,mAltel,mKcell,mKcell,,D07,2016-09-27T13:38:01+06:00,
1000000000251950,77771893121,mMTS,mKarTel,mKarTel,,D77,2016-09-27T13:38:48+06:00,
1000000000251951,77779073443,mKcell,mKarTel,mKarTel,,D02,2016-09-27T13:39:52+06:00,
1000000000251953,77717682877,mMTS,mKarTel,mKarTel,,D77,2016-09-27T13:44:29+06:00,
1000000000251954,77472233225,mKcell,mMTS,mMTS,,D02,2016-09-27T13:45:41+06:00,
1000000000251955,77017755008,mKarTel,mKcell,mKcell,,D01,2016-09-27T13:49:27+06:00,
1000000000251957,77077312345,mKcell,mMTS,mMTS,,D02,2016-09-27T13:52:36+06:00,
1000000000251958,77771459469,mMTS,mKarTel,mKarTel,,D77,2016-09-27T13:53:05+06:00,
1000000000251959,77072187654,mKarTel,mMTS,mMTS,,D01,2016-09-27T13:53:59+06:00,
1000000000251961,77011455510,mKcell,mMTS,mKcell,D77,D02,2016-09-27T13:54:50+06:00,
1000000000251962,77751777500,mMTS,mKcell,mKcell,,D77,2016-09-27T13:54:50+06:00,
1000000000251963,77711688800,mAltel,mMTS,mKarTel,D77,D07,2016-09-27T13:55:04+06:00,
1000000000251964,77022252352,mKarTel,mKcell,mKcell,,D01,2016-09-27T13:56:33+06:00,
1000000000251965,77014624441,mKcell,mAltel,mKcell,D07,D02,2016-09-27T13:56:30+06:00,
1000000000251966,77752031972,mKcell,mMTS,mKcell,D77,D02,2016-09-27T13:58:13+06:00,
1000000000251967,77009908888,mMTS,mAltel,mAltel,,D77,2016-09-27T13:58:51+06:00,
1000000000251968,77018870035,mMTS,mKcell,mKcell,,D77,2016-09-27T13:59:29+06:00,
1000000000251969,77078588818,mKarTel,mKcell,mMTS,D02,D01,2016-09-27T13:59:42+06:00,
