NPId,Number,RecipientId,DonorId,RangeHolderId,OldRoute,NewRoute,PortDate,RowCount
1000000000154159,77759909495,mMTS,mKcell,mKcell,,D77,2016-04-17T17:00:46+06:00,30
1000000000154160,77023155898,mMTS,mKcell,mKcell,,D77,2016-04-17T17:01:35+06:00,
1000000000154161,77075105253,mKarTel,mMTS,mMTS,,D01,2016-04-17T17:02:02+06:00,
1000000000154163,77083876011,mMTS,mAltel,mAltel,,D77,2016-04-17T17:01:45+06:00,
1000000000154165,77009991551,mKcell,mAltel,mAltel,,D02,2016-04-17T17:03:40+06:00,
1000000000154166,77082011964,mMTS,mAltel,mAltel,,D77,2016-04-17T17:06:12+06:00,
1000000000154167,77010000215,mMTS,mKcell,mKcell,,D77,2016-04-17T17:06:48+06:00,
1000000000154168,77012208586,mMTS,mKcell,mKcell,,D77,2016-04-17T17:07:46+06:00,
1000000000154170,77755320958,mAltel,mKcell,mKcell,,D07,2016-04-17T17:09:23+06:00,
1000000000154171,77759614958,mKarTel,mKcell,mKcell,,D01,2016-04-17T17:09:52+06:00,
1000000000154172,77009999060,mKcell,mAltel,mAltel,,D02,2016-04-17T17:11:06+06:00,
1000000000154174,77024420241,mMTS,mKcell,mKcell,,D77,2016-04-17T17:12:18+06:00,
1000000000154175,77772674853,mMTS,mKarTel,mKarTel,,D77,2016-04-17T17:15:03+06:00,
1000000000154177,77053835107,mMTS,mKarTel,mKarTel,,D77,2016-04-17T17:15:04+06:00,
1000000000154178,77072332244,mKarTel,mMTS,mMTS,,D01,2016-04-17T17:15:01+06:00,
1000000000154179,77022580666,mKarTel,mKcell,mKcell,,D01,2016-04-17T17:15:01+06:00,
1000000000154180,77075557000,mMTS,mAltel,mMTS,D07,D77,2016-04-17T17:15:33+06:00,
1000000000154181,77472332244,mKarTel,mMTS,mMTS,,D01,2016-04-17T17:17:18+06:00,
1000000000154182,77083430373,mMTS,mAltel,mAltel,,D77,2016-04-17T17:16:55+06:00,
1000000000154183,77083535424,mMTS,mAltel,mAltel,,D77,2016-04-17T17:16:59+06:00,
1000000000154184,77023532089,mMTS,mKcell,mKcell,,D77,2016-04-17T17:17:25+06:00,
1000000000154185,77762889088,mMTS,mKarTel,mKarTel,,D77,2016-04-17T17:20:48+06:00,
1000000000154186,77089037066,mMTS,mAltel,mAltel,,D77,2016-04-17T17:21:59+06:00,
1000000000154187,77479143037,mMTS,mAltel,mMTS,D07,D77,2016-04-17T17:22:06+06:00,
1000000000154188,77787944407,mMTS,mKcell,mKcell,,D77,2016-04-17T17:23:05+06:00,
1000000000154190,77769910418,mMTS,mKarTel,mKarTel,,D77,2016-04-17T17:25:48+06:00,
1000000000154191,77080555888,mMTS,mAltel,mAltel,,D77,2016-04-17T17:24:49+06:00,
1000000000154192,77018828995,mMTS,mKcell,mKcell,,D77,2016-04-17T17:27:14+06:00,
1000000000154193,77779543834,mMTS,mKarTel,mKarTel,,D77,2016-04-17T17:28:38+06:00,
1000000000154194,77079143037,mMTS,mAltel,mMTS,D07,D77,2016-04-17T17:27:31+06:00,
