NPId,Number,RecipientId,DonorId,RangeHolderId,OldRoute,NewRoute,PortDate,RowCount
1000000000136141,77003337731,mKcell,mKarTel,mAltel,D01,D02,2016-03-29T12:01:59+06:00,32
1000000000136144,77775620585,mAltel,mKarTel,mKarTel,,D07,2016-03-29T12:02:56+06:00,
1000000000136148,77000074004,mKcell,mAltel,mAltel,,D02,2016-03-29T12:05:06+06:00,
1000000000136149,77778438777,mMTS,mKarTel,mKarTel,,D77,2016-03-29T12:05:56+06:00,
1000000000136150,77015234959,mKarTel,mKcell,mKcell,,D01,2016-03-29T12:05:54+06:00,
1000000000136153,77711149898,mKarTel,mAltel,mKarTel,D07,D01,2016-03-29T12:08:02+06:00,
1000000000136154,77772272538,mKcell,mKarTel,mKarTel,,D02,2016-03-29T12:25:39+06:00,
1000000000136154,77772288320,mKcell,mKarTel,mKarTel,,D02,2016-03-29T12:25:39+06:00,
1000000000136154,77772288331,mKcell,mKarTel,mKarTel,,D02,2016-03-29T12:25:39+06:00,
1000000000136154,77772624124,mKcell,mKarTel,mKarTel,,D02,2016-03-29T12:25:39+06:00,
1000000000136154,77772950246,mKcell,mKarTel,mKarTel,,D02,2016-03-29T12:25:39+06:00,
1000000000136154,77772950247,mKcell,mKarTel,mKarTel,,D02,2016-03-29T12:25:39+06:00,
1000000000136156,77010178800,mKcell,mKarTel,mKcell,D01,D02,2016-03-29T12:11:54+06:00,
1000000000136157,77013354764,mMTS,mKcell,mKcell,,D77,2016-03-29T12:11:42+06:00,
1000000000136159,77015120221,mAltel,mKcell,mKcell,,D07,2016-03-29T12:13:38+06:00,
1000000000136160,77013511474,mMTS,mKcell,mKcell,,D77,2016-03-29T12:14:19+06:00,
1000000000136161,77074928324,mKarTel,mMTS,mMTS,,D01,2016-03-29T12:15:19+06:00,
1000000000136162,77025551382,mAltel,mKcell,mKcell,,D07,2016-03-29T12:16:39+06:00,
1000000000136163,77753580066,mAltel,mKcell,mKcell,,D07,2016-03-29T12:16:39+06:00,
1000000000136164,77076622584,mKarTel,mMTS,mMTS,,D01,2016-03-29T12:18:44+06:00,
1000000000136165,77017399412,mAltel,mKcell,mKcell,,D07,2016-03-29T12:19:21+06:00,
1000000000136166,77770228822,mKcell,mKarTel,mKarTel,,D02,2016-03-29T12:21:25+06:00,
1000000000136168,77471818948,mKcell,mMTS,mMTS,,D02,2016-03-29T12:21:26+06:00,
1000000000136169,77017454976,mMTS,mKcell,mKcell,,D77,2016-03-29T12:21:27+06:00,
1000000000136171,77076622586,mKarTel,mMTS,mMTS,,D01,2016-03-29T12:22:14+06:00,
1000000000136175,77082184818,mMTS,mAltel,mAltel,,D77,2016-03-29T12:23:16+06:00,
1000000000136178,77016022142,mAltel,mKcell,mKcell,,D07,2016-03-29T12:24:57+06:00,
1000000000136179,77076622587,mKarTel,mMTS,mMTS,,D01,2016-03-29T12:25:17+06:00,
1000000000136180,77772005543,mMTS,mKarTel,mKarTel,,D77,2016-03-29T12:26:41+06:00,
1000000000136183,77074449201,mAltel,mMTS,mMTS,,D07,2016-03-29T12:26:22+06:00,
1000000000136184,77029224499,mKcell,mAltel,mKcell,D07,D02,2016-03-29T12:27:46+06:00,
1000000000136185,77014222686,mKarTel,mKcell,mKcell,,D01,2016-03-29T12:28:52+06:00,
