NPId,Number,RecipientId,DonorId,RangeHolderId,OldRoute,NewRoute,PortDate,RowCount
1000000000394389,77057653107,mMTS,mKarTel,mKarTel,,D77,2017-06-01T09:33:18+06:00,16
1000000000394392,77075253899,mKarTel,mMTS,mMTS,,D01,2017-06-01T09:35:14+06:00,
1000000000394393,77019141669,mKarTel,mKcell,mKcell,,D01,2017-06-01T09:35:25+06:00,
1000000000394394,77019872238,mKcell,mKarTel,mKcell,D01,D02,2017-06-01T09:37:06+06:00,
1000000000394396,77773355157,mMTS,mKarTel,mKarTel,,D77,2017-06-01T09:36:55+06:00,
1000000000394398,77476113422,mMTS,mAltel,mMTS,D07,D77,2017-06-01T09:37:44+06:00,
1000000000394400,77086707650,mMTS,mAltel,mAltel,,D77,2017-06-01T09:39:19+06:00,
1000000000394409,77769666565,mMTS,mKarTel,mKarTel,,D77,2017-06-01T09:43:59+06:00,
1000000000394411,77471095296,mMTS,mKarTel,mMTS,D01,D77,2017-06-01T09:45:06+06:00,
1000000000394413,77473682419,mAltel,mMTS,mMTS,,D07,2017-06-01T09:44:45+06:00,
1000000000394415,77059999260,mAltel,mKarTel,mKarTel,,D07,2017-06-01T09:47:29+06:00,
1000000000394416,77760411119,mMTS,mKarTel,mKarTel,,D77,2017-06-01T09:49:33+06:00,
1000000000394417,77026669955,mMTS,mKcell,mKcell,,D77,2017-06-01T09:49:20+06:00,
1000000000394418,77010750100,mAltel,mKcell,mKcell,,D07,2017-06-01T09:51:30+06:00,
1000000000394419,77017701640,mKarTel,mKcell,mKcell,,D01,2017-06-01T09:52:58+06:00,
1000000000394421,77019993836,mKarTel,mKcell,mKcell,,D01,2017-06-01T09:58:02+06:00,
