NPId,Number,RecipientId,DonorId,RangeHolderId,OldRoute,NewRoute,PortDate,RowCount
1000000000264836,77021404744,mKcell,mMTS,mKcell,D77,D02,2016-10-19T13:01:42+06:00,18
1000000000264838,77751005522,mKcell,mAltel,mKcell,D07,D02,2016-10-19T13:05:18+06:00,
1000000000264842,77019107861,mKcell,mAltel,mKcell,D07,D02,2016-10-19T13:08:09+06:00,
1000000000264843,77718706666,mAltel,mKarTel,mKarTel,,D07,2016-10-19T13:10:36+06:00,
1000000000264844,77781626156,mAltel,mKarTel,mKcell,D01,D07,2016-10-19T13:12:01+06:00,
1000000000264845,77025400740,mKarTel,mKcell,mKcell,,D01,2016-10-19T13:15:41+06:00,
1000000000264846,77081506798,mMTS,mAltel,mAltel,,D77,2016-10-19T13:17:20+06:00,
1000000000264847,77785086666,mAltel,mKcell,mKcell,,D07,2016-10-19T13:17:42+06:00,
1000000000264848,77715336446,mMTS,mKarTel,mKarTel,,D77,2016-10-19T13:18:05+06:00,
1000000000264849,77021171836,mKarTel,mKcell,mKcell,,D01,2016-10-19T13:19:41+06:00,
1000000000264850,77083517827,mMTS,mAltel,mAltel,,D77,2016-10-19T13:19:43+06:00,
1000000000264851,77071577767,mMTS,mKcell,mMTS,D02,D77,2016-10-19T13:21:16+06:00,
1000000000264852,77051078703,mMTS,mKarTel,mKarTel,,D77,2016-10-19T13:23:18+06:00,
1000000000264853,77778672568,mMTS,mKarTel,mKarTel,,D77,2016-10-19T13:24:33+06:00,
1000000000264854,77773112445,mAltel,mKarTel,mKarTel,,D07,2016-10-19T13:25:01+06:00,
1000000000264858,77015345357,mKarTel,mKcell,mKcell,,D01,2016-10-19T13:28:11+06:00,
1000000000264859,77055019392,mMTS,mKarTel,mKarTel,,D77,2016-10-19T13:28:25+06:00,
1000000000264860,77471726605,mAltel,mMTS,mMTS,,D07,2016-10-19T13:29:35+06:00,
