NPId,Number,RecipientId,DonorId,RangeHolderId,OldRoute,NewRoute,PortDate,RowCount
1000000000173784,77023474044,mMTS,mKcell,mKcell,,D77,2016-05-13T20:47:35+06:00,6
1000000000173785,77000234567,mKcell,mAltel,mAltel,,D02,2016-05-13T20:48:45+06:00,
1000000000173787,77052592797,mMTS,mKarTel,mKarTel,,D77,2016-05-13T20:47:27+06:00,
1000000000173788,77078545560,mKcell,mMTS,mMTS,,D02,2016-05-13T20:49:29+06:00,
1000000000173789,77071236767,mKcell,mMTS,mMTS,,D02,2016-05-13T20:49:29+06:00,
1000000000173790,77772354967,mMTS,mKarTel,mKarTel,,D77,2016-05-13T20:49:09+06:00,
