NPId,Number,RecipientId,DonorId,RangeHolderId,OldRoute,NewRoute,PortDate,RowCount
1000000000274375,77017505923,mKarTel,mKcell,mKcell,,D01,2016-11-05T11:00:02+06:00,25
1000000000274376,77017625765,mKarTel,mKcell,mKcell,,D01,2016-11-05T11:02:33+06:00,
1000000000274377,77774450781,mKarTel,mMTS,mKarTel,D77,D01,2016-11-05T11:04:28+06:00,
1000000000274378,77752464471,mMTS,mKcell,mKcell,,D77,2016-11-05T11:05:40+06:00,
1000000000274381,77018291905,mMTS,mKcell,mKcell,,D77,2016-11-05T11:06:33+06:00,
1000000000274382,77774775016,mAltel,mKarTel,mKarTel,,D07,2016-11-05T11:07:06+06:00,
1000000000274383,77776202672,mMTS,mKarTel,mKarTel,,D77,2016-11-05T11:07:17+06:00,
1000000000274384,77019994538,mMTS,mKcell,mKcell,,D77,2016-11-05T11:08:03+06:00,
1000000000274385,77055016753,mMTS,mKarTel,mKarTel,,D77,2016-11-05T11:08:49+06:00,
1000000000274386,77712553335,mMTS,mKarTel,mKarTel,,D77,2016-11-05T11:08:49+06:00,
1000000000274387,77764474471,mKcell,mKarTel,mKarTel,,D02,2016-11-05T11:09:34+06:00,
1000000000274388,77017646400,mMTS,mKcell,mKcell,,D77,2016-11-05T11:09:47+06:00,
1000000000274389,77055699154,mMTS,mKarTel,mKarTel,,D77,2016-11-05T11:11:40+06:00,
1000000000274390,77017021986,mAltel,mKcell,mKcell,,D07,2016-11-05T11:11:36+06:00,
1000000000274393,77773721542,mMTS,mKarTel,mKarTel,,D77,2016-11-05T11:17:56+06:00,
1000000000274394,77022777620,mKcell,mAltel,mKcell,D07,D02,2016-11-05T11:21:46+06:00,
1000000000274395,77083770455,mKcell,mMTS,mAltel,D77,D02,2016-11-05T11:19:43+06:00,
1000000000274396,77021781104,mKarTel,mKcell,mKcell,,D01,2016-11-05T11:21:05+06:00,
1000000000274397,77000960013,mKcell,mAltel,mAltel,,D02,2016-11-05T11:21:39+06:00,
1000000000274398,77017127120,mKarTel,mAltel,mKcell,D07,D01,2016-11-05T11:22:27+06:00,
1000000000274400,77711290909,mMTS,mKarTel,mKarTel,,D77,2016-11-05T11:23:41+06:00,
1000000000274401,77000803770,mKarTel,mAltel,mAltel,,D01,2016-11-05T11:24:04+06:00,
1000000000274404,77054191270,mMTS,mKarTel,mKarTel,,D77,2016-11-05T11:25:29+06:00,
1000000000274405,77712057334,mMTS,mKarTel,mKarTel,,D77,2016-11-05T11:25:49+06:00,
1000000000274407,77052262013,mMTS,mKarTel,mKarTel,,D77,2016-11-05T11:27:51+06:00,
