NPId,Number,RecipientId,DonorId,RangeHolderId,OldRoute,NewRoute,PortDate,RowCount
1000000000310538,77773616201,mKarTel,mMTS,mKarTel,D77,D01,2017-01-14T13:30:25+06:00,20
1000000000310539,77054588855,mMTS,mKarTel,mKarTel,,D77,2017-01-14T13:31:15+06:00,
1000000000310540,77004096213,mKarTel,mAltel,mAltel,,D01,2017-01-14T13:32:36+06:00,
1000000000310542,77054470145,mMTS,mKarTel,mKarTel,,D77,2017-01-14T13:36:03+06:00,
1000000000310543,77778097770,mKarTel,mMTS,mKarTel,D77,D01,2017-01-14T13:36:06+06:00,
1000000000310544,77789570376,mMTS,mKcell,mKcell,,D77,2017-01-14T13:38:01+06:00,
1000000000310545,77013414563,mKcell,mMTS,mKcell,D77,D02,2017-01-14T13:38:55+06:00,
1000000000310546,77771124425,mKarTel,mKcell,mKarTel,D02,D01,2017-01-14T13:39:46+06:00,
1000000000310547,77024044412,mKarTel,mKcell,mKcell,,D01,2017-01-14T13:41:13+06:00,
1000000000310548,77017173080,mKcell,mKarTel,mKcell,D01,D02,2017-01-14T13:43:52+06:00,
1000000000310549,77771124501,mKarTel,mKcell,mKarTel,D02,D01,2017-01-14T13:44:11+06:00,
1000000000310550,77475915141,mMTS,mAltel,mMTS,D07,D77,2017-01-14T13:44:43+06:00,
1000000000310551,77024239104,mMTS,mKarTel,mKcell,D01,D77,2017-01-14T13:46:05+06:00,
1000000000310552,77076381833,mKarTel,mMTS,mMTS,D77,D01,2017-01-14T13:46:21+06:00,
1000000000310553,77771124456,mKarTel,mKcell,mKarTel,D02,D01,2017-01-14T13:48:04+06:00,
1000000000310554,77752223344,mMTS,mKcell,mKcell,,D77,2017-01-14T13:51:45+06:00,
1000000000310555,77784030382,mMTS,mKcell,mKcell,,D77,2017-01-14T13:55:06+06:00,
1000000000310557,77017659530,mKarTel,mKcell,mKcell,,D01,2017-01-14T13:54:45+06:00,
1000000000310559,77017244164,mKarTel,mKcell,mKcell,,D01,2017-01-14T13:57:45+06:00,
1000000000310560,77789399992,mAltel,mKcell,mKcell,,D07,2017-01-14T13:59:46+06:00,
