NPId,Number,RecipientId,DonorId,RangeHolderId,OldRoute,NewRoute,PortDate,RowCount
1000000000307777,77016463642,mMTS,mKcell,mKcell,,D77,2017-01-09T14:00:10+06:00,35
1000000000307782,77777989630,mAltel,mKarTel,mKarTel,,D07,2017-01-09T14:02:20+06:00,
1000000000307783,77015169915,mKarTel,mKcell,mKcell,,D01,2017-01-09T14:02:38+06:00,
1000000000307786,77479654173,mKcell,mMTS,mMTS,,D02,2017-01-09T14:04:13+06:00,
1000000000307787,77018410089,mMTS,mKcell,mKcell,,D77,2017-01-09T14:05:04+06:00,
1000000000307789,77781669094,mMTS,mKcell,mKcell,,D77,2017-01-09T14:07:51+06:00,
1000000000307791,77773941310,mAltel,mKarTel,mKarTel,,D07,2017-01-09T14:08:41+06:00,
1000000000307792,77018080082,mMTS,mKcell,mKcell,,D77,2017-01-09T14:08:34+06:00,
1000000000307793,77014840000,mMTS,mKcell,mKcell,,D77,2017-01-09T14:11:10+06:00,
1000000000307794,77055983607,mMTS,mKarTel,mKarTel,,D77,2017-01-09T14:11:33+06:00,
1000000000307795,77059791110,mMTS,mKarTel,mKarTel,,D77,2017-01-09T14:11:55+06:00,
1000000000307797,77022053431,mKcell,mMTS,mKcell,D77,D02,2017-01-09T14:12:51+06:00,
1000000000307798,77085800888,mMTS,mAltel,mAltel,,D77,2017-01-09T14:12:45+06:00,
1000000000307799,77028112404,mMTS,mKcell,mKcell,,D77,2017-01-09T14:12:51+06:00,
1000000000307800,77078336776,mKcell,mMTS,mMTS,,D02,2017-01-09T14:13:29+06:00,
1000000000307802,77019777755,mKarTel,mKcell,mKcell,,D01,2017-01-09T14:16:11+06:00,
1000000000307803,77776366600,mMTS,mKarTel,mKarTel,,D77,2017-01-09T14:16:28+06:00,
1000000000307804,77026270900,mMTS,mKcell,mKcell,,D77,2017-01-09T14:16:28+06:00,
1000000000307805,77004171790,mAltel,mMTS,mAltel,D77,D07,2017-01-09T14:16:26+06:00,
1000000000307806,77015570550,mKarTel,mKcell,mKcell,,D01,2017-01-09T14:19:28+06:00,
1000000000307808,77075725358,mMTS,mAltel,mMTS,D07,D77,2017-01-09T14:17:37+06:00,
1000000000307810,77015221556,mAltel,mKcell,mKcell,,D07,2017-01-09T14:17:59+06:00,
1000000000307811,77079797111,mAltel,mMTS,mMTS,D77,D07,2017-01-09T14:18:32+06:00,
1000000000307813,77053722988,mKarTel,mKcell,mKarTel,D02,D01,2017-01-09T14:19:50+06:00,
1000000000307815,77011765999,mAltel,mKcell,mKcell,,D07,2017-01-09T14:22:06+06:00,
1000000000307816,77774720483,mKcell,mKarTel,mKarTel,,D02,2017-01-09T14:23:02+06:00,
1000000000307817,77782523154,mMTS,mKcell,mKcell,,D77,2017-01-09T14:22:56+06:00,
1000000000307818,77022410717,mAltel,mKcell,mKcell,,D07,2017-01-09T14:23:45+06:00,
1000000000307819,77086776977,mKarTel,mAltel,mAltel,,D01,2017-01-09T14:24:18+06:00,
1000000000307820,77011208833,mAltel,mKcell,mKcell,,D07,2017-01-09T14:24:27+06:00,
1000000000307821,77754013192,mMTS,mKcell,mKcell,,D77,2017-01-09T14:25:02+06:00,
1000000000307822,77755362272,mKcell,mMTS,mKcell,D77,D02,2017-01-09T14:28:29+06:00,
1000000000307823,77013428337,mMTS,mKcell,mKcell,,D77,2017-01-09T14:28:23+06:00,
1000000000307824,77779023399,mKcell,mKarTel,mKarTel,,D02,2017-01-09T14:27:16+06:00,
1000000000307825,77021188575,mKcell,mMTS,mKcell,D77,D02,2017-01-09T14:29:43+06:00,
