NPId,Number,RecipientId,DonorId,RangeHolderId,OldRoute,NewRoute,PortDate,RowCount
1000000000259540,77056678251,mMTS,mKarTel,mKarTel,,D77,2016-10-09T17:31:34+06:00,18
1000000000259542,77476012300,mAltel,mMTS,mMTS,,D07,2016-10-09T17:32:37+06:00,
1000000000259543,77058042424,mMTS,mKarTel,mKarTel,,D77,2016-10-09T17:36:52+06:00,
1000000000259545,77051779925,mAltel,mKarTel,mKarTel,,D07,2016-10-09T17:40:26+06:00,
1000000000259546,77078721001,mAltel,mMTS,mMTS,,D07,2016-10-09T17:37:01+06:00,
1000000000259549,77772552549,mMTS,mKarTel,mKarTel,,D77,2016-10-09T17:43:59+06:00,
1000000000259550,77472825598,mAltel,mMTS,mMTS,,D07,2016-10-09T17:39:14+06:00,
1000000000259551,77018181515,mMTS,mKcell,mKcell,,D77,2016-10-09T17:39:27+06:00,
1000000000259553,77072288889,mKarTel,mMTS,mMTS,,D01,2016-10-09T17:45:42+06:00,
1000000000259554,77058881714,mAltel,mKarTel,mKarTel,,D07,2016-10-09T17:49:14+06:00,
1000000000259556,77776662290,mMTS,mKarTel,mKarTel,,D77,2016-10-09T17:54:38+06:00,
1000000000259557,77027177119,mAltel,mKcell,mKcell,,D07,2016-10-09T17:53:55+06:00,
1000000000259558,77015711215,mMTS,mKcell,mKcell,,D77,2016-10-09T17:52:10+06:00,
1000000000259559,77021578967,mMTS,mKcell,mKcell,,D77,2016-10-09T17:54:26+06:00,
1000000000259562,77017000584,mKcell,mAltel,mKcell,D07,D02,2016-10-09T17:56:36+06:00,
1000000000259563,77073117711,mMTS,mKcell,mMTS,D02,D77,2016-10-09T17:56:42+06:00,
1000000000259564,77786553330,mMTS,mAltel,mKcell,D07,D77,2016-10-09T17:57:26+06:00,
1000000000259565,77029999618,mMTS,mKcell,mKcell,,D77,2016-10-09T17:59:05+06:00,
