NPId,Number,RecipientId,DonorId,RangeHolderId,OldRoute,NewRoute,PortDate,RowCount
1000000000316788,77016911995,mMTS,mKcell,mKcell,,D77,2017-01-26T11:02:21+06:00,16
1000000000316789,77477421777,mKarTel,mMTS,mMTS,,D01,2017-01-26T11:04:21+06:00,
1000000000316790,77476549026,mAltel,mMTS,mMTS,,D07,2017-01-26T11:04:07+06:00,
1000000000316791,77003733073,mMTS,mAltel,mAltel,,D77,2017-01-26T11:05:53+06:00,
1000000000316793,77712020715,mKcell,mKarTel,mKarTel,,D02,2017-01-26T11:08:03+06:00,
1000000000316794,77751618310,mKcell,mMTS,mKcell,D77,D02,2017-01-26T11:07:51+06:00,
1000000000316795,77477788586,mKarTel,mMTS,mMTS,,D01,2017-01-26T11:12:07+06:00,
1000000000316796,77019569025,mKarTel,mKcell,mKcell,,D01,2017-01-26T11:13:20+06:00,
1000000000316797,77079110584,mMTS,mAltel,mMTS,D07,D77,2017-01-26T11:14:49+06:00,
1000000000316798,77778349944,mAltel,mKarTel,mKarTel,,D07,2017-01-26T11:15:57+06:00,
1000000000316802,77018958344,mKarTel,mKcell,mKcell,,D01,2017-01-26T11:19:08+06:00,
1000000000316805,77028759492,mKcell,mKarTel,mKcell,D01,D02,2017-01-26T11:23:50+06:00,
1000000000316806,77023600113,mKarTel,mKcell,mKcell,,D01,2017-01-26T11:27:20+06:00,
1000000000316808,77015702662,mKcell,mMTS,mKcell,D77,D02,2017-01-26T11:28:24+06:00,
1000000000316809,77773593777,mAltel,mKarTel,mKarTel,,D07,2017-01-26T11:28:58+06:00,
1000000000316810,77759907888,mMTS,mKcell,mKcell,,D77,2017-01-26T11:29:43+06:00,
