NPId,Number,RecipientId,DonorId,RangeHolderId,OldRoute,NewRoute,PortDate,RowCount
1000000000428269,77011386050,mKarTel,mKcell,mKcell,,D01,2017-07-26T09:03:03+06:00,7
1000000000428270,77713618899,mMTS,mKarTel,mKarTel,,D77,2017-07-26T09:11:47+06:00,
1000000000428271,77009150263,mKarTel,mMTS,mAltel,D77,D01,2017-07-26T09:15:25+06:00,
1000000000428272,77758880333,mKcell,mKarTel,mKcell,D01,D02,2017-07-26T09:17:52+06:00,
1000000000428273,77770684147,mMTS,mKarTel,mKarTel,,D77,2017-07-26T09:19:17+06:00,
1000000000428275,77471910591,mKcell,mMTS,mMTS,,D02,2017-07-26T09:27:45+06:00,
1000000000428276,77072235503,mKcell,mMTS,mMTS,,D02,2017-07-26T09:29:19+06:00,
