NPId,Number,RecipientId,DonorId,RangeHolderId,OldRoute,NewRoute,PortDate,RowCount
1000000000046525,77775542504,mAltel,mKarTel,mKarTel,,D07,2016-02-12T17:30:54+06:00,46
1000000000046526,77087517454,mKarTel,mAltel,mAltel,,D01,2016-02-12T17:31:35+06:00,
1000000000046527,77019092299,mAltel,mKcell,mKcell,,D07,2016-02-12T17:32:02+06:00,
1000000000046528,77024495437,mMTS,mKcell,mKcell,,D77,2016-02-12T17:32:02+06:00,
1000000000046529,77074269699,mAltel,mMTS,mMTS,,D07,2016-02-12T17:31:50+06:00,
1000000000046532,77711077775,mKcell,mKarTel,mKarTel,,D02,2016-02-12T17:34:28+06:00,
1000000000046533,77013055116,mAltel,mKcell,mKcell,,D07,2016-02-12T17:35:58+06:00,
1000000000046534,77770002102,mKcell,mKarTel,mKarTel,,D02,2016-02-12T17:37:56+06:00,
1000000000046535,77074549797,mKcell,mMTS,mMTS,,D02,2016-02-12T17:36:31+06:00,
1000000000046536,77056068572,mMTS,mKarTel,mKarTel,,D77,2016-02-12T17:37:04+06:00,
1000000000046537,77072580005,mAltel,mMTS,mMTS,,D07,2016-02-12T17:36:56+06:00,
1000000000046539,77751854072,mAltel,mKcell,mKcell,,D07,2016-02-12T17:37:38+06:00,
1000000000046540,77714199266,mKcell,mKarTel,mKarTel,,D02,2016-02-12T17:38:17+06:00,
1000000000046541,77772211000,mAltel,mKarTel,mKarTel,,D07,2016-02-12T17:38:15+06:00,
1000000000046542,77478319973,mAltel,mMTS,mMTS,,D07,2016-02-12T17:38:27+06:00,
1000000000046543,77784047052,mAltel,mKcell,mKcell,,D07,2016-02-12T17:39:23+06:00,
1000000000046545,77012120028,mAltel,mKcell,mKcell,,D07,2016-02-12T17:40:48+06:00,
1000000000046546,77053395969,mMTS,mKarTel,mKarTel,,D77,2016-02-12T17:42:22+06:00,
1000000000046547,77028333444,mAltel,mKcell,mKcell,,D07,2016-02-12T17:42:37+06:00,
1000000000046552,77767557774,mKcell,mKarTel,mKarTel,,D02,2016-02-12T17:44:46+06:00,
1000000000046553,77712592838,mKcell,mKarTel,mKarTel,,D02,2016-02-12T17:45:11+06:00,
1000000000046555,77786417541,mMTS,mKcell,mKcell,,D77,2016-02-12T17:44:55+06:00,
1000000000046557,77055450276,mMTS,mKarTel,mKarTel,,D77,2016-02-12T17:45:23+06:00,
1000000000046560,77015007010,mAltel,mKcell,mKcell,,D07,2016-02-12T17:46:32+06:00,
1000000000046561,77071543551,mKcell,mMTS,mMTS,,D02,2016-02-12T17:46:53+06:00,
1000000000046564,77056705656,mAltel,mKarTel,mKarTel,,D07,2016-02-12T17:47:51+06:00,
1000000000046565,77771220404,mAltel,mKarTel,mKarTel,,D07,2016-02-12T17:48:25+06:00,
1000000000046566,77077777321,mKcell,mMTS,mMTS,,D02,2016-02-12T17:49:00+06:00,
1000000000046567,77714199295,mKcell,mKarTel,mKarTel,,D02,2016-02-12T17:49:57+06:00,
1000000000046568,77017644889,mKarTel,mKcell,mKcell,,D01,2016-02-12T17:50:28+06:00,
1000000000046569,77472555060,mAltel,mMTS,mMTS,,D07,2016-02-12T17:50:02+06:00,
1000000000046570,77011802176,mAltel,mKcell,mKcell,,D07,2016-02-12T17:50:20+06:00,
1000000000046571,77717007007,mAltel,mKarTel,mKarTel,,D07,2016-02-12T17:50:52+06:00,
1000000000046572,77089447660,mKcell,mAltel,mAltel,,D02,2016-02-12T17:50:52+06:00,
1000000000046573,77073361034,mKcell,mMTS,mMTS,,D02,2016-02-12T17:51:26+06:00,
1000000000046574,77025000085,mAltel,mKcell,mKcell,,D07,2016-02-12T17:51:22+06:00,
1000000000046575,77004026808,mMTS,mAltel,mAltel,,D77,2016-02-12T17:53:51+06:00,
1000000000046576,77476778136,mAltel,mMTS,mMTS,,D07,2016-02-12T17:54:15+06:00,
1000000000046578,77472416332,mAltel,mMTS,mMTS,,D07,2016-02-12T17:56:12+06:00,
1000000000046579,77786394833,mMTS,mKcell,mKcell,,D77,2016-02-12T17:56:58+06:00,
1000000000046580,77055776666,mAltel,mKarTel,mKarTel,,D07,2016-02-12T17:57:11+06:00,
1000000000046581,77089870237,mKcell,mAltel,mAltel,,D02,2016-02-12T17:57:38+06:00,
1000000000046582,77052822228,mKcell,mKarTel,mKarTel,,D02,2016-02-12T17:58:14+06:00,
1000000000046583,77756072736,mMTS,mKcell,mKcell,,D77,2016-02-12T17:58:23+06:00,
1000000000046584,77051623333,mAltel,mKarTel,mKarTel,,D07,2016-02-12T17:58:47+06:00,
1000000000046585,77055480802,mMTS,mKarTel,mKarTel,,D77,2016-02-12T17:59:41+06:00,
