NPId,Number,RecipientId,DonorId,RangeHolderId,OldRoute,NewRoute,PortDate,RowCount
1000000000175756,77012256966,mMTS,mKcell,mKcell,,D77,2016-05-17T13:33:10+06:00,20
1000000000175757,77014100102,mMTS,mKcell,mKcell,,D77,2016-05-17T13:33:50+06:00,
1000000000175758,77017471717,mMTS,mAltel,mKcell,D07,D77,2016-05-17T13:34:03+06:00,
1000000000175759,77003158926,mKarTel,mAltel,mAltel,,D01,2016-05-17T13:34:53+06:00,
1000000000175760,77757322225,mKarTel,mKcell,mKcell,,D01,2016-05-17T13:35:45+06:00,
1000000000175761,77756479784,mKarTel,mKcell,mKcell,,D01,2016-05-17T13:35:46+06:00,
1000000000175762,77085288084,mKcell,mAltel,mAltel,,D02,2016-05-17T13:37:51+06:00,
1000000000175763,77004010101,mMTS,mAltel,mAltel,,D77,2016-05-17T13:37:53+06:00,
1000000000175764,77773028840,mMTS,mKarTel,mKarTel,,D77,2016-05-17T13:39:31+06:00,
1000000000175765,77077779952,mKcell,mMTS,mMTS,,D02,2016-05-17T13:41:02+06:00,
1000000000175767,77714613924,mMTS,mKarTel,mKarTel,,D77,2016-05-17T13:42:22+06:00,
1000000000175768,77019206700,mMTS,mAltel,mKcell,D07,D77,2016-05-17T13:43:57+06:00,
1000000000175771,77029806131,mMTS,mKcell,mKcell,,D77,2016-05-17T13:45:57+06:00,
1000000000175776,77012554525,mKcell,mMTS,mKcell,D77,D02,2016-05-17T13:53:56+06:00,
1000000000175779,77757310214,mKarTel,mKcell,mKcell,,D01,2016-05-17T13:54:35+06:00,
1000000000175780,77772659527,mMTS,mAltel,mKarTel,D07,D77,2016-05-17T13:50:41+06:00,
1000000000175781,77017861396,mAltel,mKcell,mKcell,,D07,2016-05-17T13:54:22+06:00,
1000000000175786,77782203164,mKcell,mAltel,mKcell,D07,D02,2016-05-17T13:54:52+06:00,
1000000000175788,77073969000,mKarTel,mMTS,mMTS,,D01,2016-05-17T13:56:19+06:00,
1000000000175791,77770014184,mMTS,mKarTel,mKarTel,,D77,2016-05-17T13:58:23+06:00,
