NPId,Number,RecipientId,DonorId,RangeHolderId,OldRoute,NewRoute,PortDate,RowCount
1000000000191083,77758740795,mMTS,mKcell,mKcell,,D77,2016-06-10T12:01:10+06:00,31
1000000000191085,77758740152,mMTS,mKcell,mKcell,,D77,2016-06-10T12:02:43+06:00,
1000000000191086,77758854908,mMTS,mKcell,mKcell,,D77,2016-06-10T12:03:26+06:00,
1000000000191087,77009999022,mMTS,mAltel,mAltel,,D77,2016-06-10T12:02:43+06:00,
1000000000191089,77758744075,mMTS,mKcell,mKcell,,D77,2016-06-10T12:04:26+06:00,
1000000000191091,77758854226,mMTS,mKcell,mKcell,,D77,2016-06-10T12:08:09+06:00,
1000000000191092,77758683892,mMTS,mKcell,mKcell,,D77,2016-06-10T12:09:14+06:00,
1000000000191093,77758740712,mMTS,mKcell,mKcell,,D77,2016-06-10T12:09:10+06:00,
1000000000191094,77758854683,mMTS,mKcell,mKcell,,D77,2016-06-10T12:09:10+06:00,
1000000000191095,77022187401,mKarTel,mKcell,mKcell,,D01,2016-06-10T12:27:44+06:00,
1000000000191096,77773289897,mMTS,mKarTel,mKarTel,,D77,2016-06-10T12:07:27+06:00,
1000000000191097,77758741183,mMTS,mKcell,mKcell,,D77,2016-06-10T12:09:52+06:00,
1000000000191098,77028191515,mMTS,mKcell,mKcell,,D77,2016-06-10T12:09:50+06:00,
1000000000191099,77758853437,mMTS,mKcell,mKcell,,D77,2016-06-10T12:09:52+06:00,
1000000000191101,77758680134,mMTS,mKcell,mKcell,,D77,2016-06-10T12:12:29+06:00,
1000000000191102,77758850598,mMTS,mKcell,mKcell,,D77,2016-06-10T12:13:12+06:00,
1000000000191103,77014017248,mMTS,mKcell,mKcell,,D77,2016-06-10T12:13:34+06:00,
1000000000191105,77758853931,mMTS,mKcell,mKcell,,D77,2016-06-10T12:14:21+06:00,
1000000000191106,77758689022,mMTS,mKcell,mKcell,,D77,2016-06-10T12:14:59+06:00,
1000000000191107,77019411925,mAltel,mKcell,mKcell,,D07,2016-06-10T12:19:01+06:00,
1000000000191109,77758857539,mMTS,mKcell,mKcell,,D77,2016-06-10T12:19:13+06:00,
1000000000191110,77758684956,mMTS,mKcell,mKcell,,D77,2016-06-10T12:20:11+06:00,
1000000000191111,77003209286,mKarTel,mAltel,mAltel,,D01,2016-06-10T12:20:14+06:00,
1000000000191113,77758687943,mMTS,mKcell,mKcell,,D77,2016-06-10T12:24:28+06:00,
1000000000191115,77755090518,mKarTel,mKcell,mKcell,,D01,2016-06-10T12:24:56+06:00,
1000000000191116,77758854508,mMTS,mKcell,mKcell,,D77,2016-06-10T12:24:52+06:00,
1000000000191117,77054001333,mAltel,mKarTel,mKarTel,,D07,2016-06-10T12:25:17+06:00,
1000000000191119,77758685046,mMTS,mKcell,mKcell,,D77,2016-06-10T12:26:35+06:00,
1000000000191121,77013891699,mKarTel,mMTS,mKcell,D77,D01,2016-06-10T12:28:00+06:00,
1000000000191122,77018512917,mMTS,mKcell,mKcell,,D77,2016-06-10T12:28:24+06:00,
1000000000191123,77758858650,mMTS,mKcell,mKcell,,D77,2016-06-10T12:29:38+06:00,
