NPId,Number,RecipientId,DonorId,RangeHolderId,OldRoute,NewRoute,PortDate,RowCount
1000000000281159,77021443172,mKcell,mMTS,mKcell,D77,D02,2016-11-18T20:16:15+06:00,2
1000000000281161,77070400637,mKcell,mMTS,mMTS,,D02,2016-11-18T20:25:02+06:00,
