NPId,Number,RecipientId,DonorId,RangeHolderId,OldRoute,NewRoute,PortDate,RowCount
1000000000363714,77472483174,mAltel,mMTS,mMTS,,D07,2017-04-11T09:31:54+06:00,10
1000000000363716,77017775876,mKcell,mKarTel,mKcell,D01,D02,2017-04-11T09:36:41+06:00,
1000000000363717,77762304455,mMTS,mKarTel,mKarTel,,D77,2017-04-11T09:38:05+06:00,
1000000000363719,77009919114,mMTS,mAltel,mAltel,,D77,2017-04-11T09:40:47+06:00,
1000000000363720,77779626622,mMTS,mKarTel,mKarTel,,D77,2017-04-11T09:46:37+06:00,
1000000000363721,77773701060,mMTS,mKarTel,mKarTel,,D77,2017-04-11T09:47:26+06:00,
1000000000363722,77779626633,mMTS,mKarTel,mKarTel,,D77,2017-04-11T09:48:22+06:00,
1000000000363723,77770103787,mMTS,mKarTel,mKarTel,,D77,2017-04-11T09:49:39+06:00,
1000000000363724,77755020404,mKcell,mMTS,mKcell,D77,D02,2017-04-11T09:50:31+06:00,
1000000000363727,77771777783,mMTS,mKarTel,mKarTel,,D77,2017-04-11T09:57:45+06:00,
