NPId,Number,RecipientId,DonorId,RangeHolderId,OldRoute,NewRoute,PortDate,RowCount
1000000000388567,77051617937,mMTS,mKarTel,mKarTel,,D77,2017-05-24T22:48:12+06:00,2
1000000000388568,77051122796,mMTS,mKarTel,mKarTel,,D77,2017-05-24T22:58:08+06:00,
