NPId,Number,RecipientId,DonorId,RangeHolderId,OldRoute,NewRoute,PortDate,RowCount
1000000000438685,77013043014,mKarTel,mKcell,mKcell,,D01,2017-08-11T20:33:36+06:00,2
1000000000438686,77082320666,mKarTel,mAltel,mAltel,,D01,2017-08-11T20:45:15+06:00,
