NPId,Number,RecipientId,DonorId,RangeHolderId,OldRoute,NewRoute,PortDate,RowCount
1000000000162262,77057499153,mKcell,mKarTel,mKarTel,,D02,2016-04-28T11:52:13+06:00,32
1000000000162269,77051191001,mAltel,mKarTel,mKarTel,,D07,2016-04-28T11:31:01+06:00,
1000000000162270,77057550226,mKcell,mKarTel,mKarTel,,D02,2016-04-28T11:52:14+06:00,
1000000000162272,77087081888,mMTS,mAltel,mAltel,,D77,2016-04-28T11:32:18+06:00,
1000000000162273,77007001002,mKarTel,mAltel,mAltel,,D01,2016-04-28T11:32:31+06:00,
1000000000162274,77774158262,mKcell,mKarTel,mKarTel,,D02,2016-04-28T11:34:04+06:00,
1000000000162275,77752600882,mMTS,mKcell,mKcell,,D77,2016-04-28T11:34:05+06:00,
1000000000162276,77058025167,mMTS,mKarTel,mKarTel,,D77,2016-04-28T11:34:15+06:00,
1000000000162278,77004212199,mKcell,mAltel,mAltel,,D02,2016-04-28T11:34:53+06:00,
1000000000162279,77479076189,mKcell,mMTS,mMTS,,D02,2016-04-28T11:35:37+06:00,
1000000000162280,77019915753,mKarTel,mKcell,mKcell,,D01,2016-04-28T11:36:16+06:00,
1000000000162282,77757444457,mMTS,mKcell,mKcell,,D77,2016-04-28T11:37:20+06:00,
1000000000162285,77009913198,mKarTel,mAltel,mAltel,,D01,2016-04-28T11:38:45+06:00,
1000000000162286,77016050865,mKcell,mAltel,mKcell,D07,D02,2016-04-28T11:51:26+06:00,
1000000000162287,77028260628,mMTS,mKcell,mKcell,,D77,2016-04-28T11:39:52+06:00,
1000000000162289,77072418887,mKarTel,mMTS,mMTS,,D01,2016-04-28T11:41:12+06:00,
1000000000162290,77026114444,mMTS,mKcell,mKcell,,D77,2016-04-28T11:50:16+06:00,
1000000000162292,77089055553,mMTS,mAltel,mAltel,,D77,2016-04-28T11:42:04+06:00,
1000000000162294,77779999466,mMTS,mKarTel,mKarTel,,D77,2016-04-28T11:43:23+06:00,
1000000000162295,77003827573,mKarTel,mAltel,mAltel,,D01,2016-04-28T11:46:52+06:00,
1000000000162297,77081145172,mMTS,mAltel,mAltel,,D77,2016-04-28T11:48:19+06:00,
1000000000162298,77087593387,mMTS,mAltel,mAltel,,D77,2016-04-28T11:50:50+06:00,
1000000000162299,77089313191,mMTS,mAltel,mAltel,,D77,2016-04-28T11:51:26+06:00,
1000000000162304,77012490681,mMTS,mKcell,mKcell,,D77,2016-04-28T11:53:06+06:00,
1000000000162305,77021199905,mKarTel,mKcell,mKcell,,D01,2016-04-28T11:53:38+06:00,
1000000000162307,77774608989,mKcell,mKarTel,mKarTel,,D02,2016-04-28T11:55:42+06:00,
1000000000162310,77018414871,mMTS,mKcell,mKcell,,D77,2016-04-28T11:55:35+06:00,
1000000000162311,77007593387,mMTS,mAltel,mAltel,,D77,2016-04-28T11:55:11+06:00,
1000000000162314,77712838484,mMTS,mKarTel,mKarTel,,D77,2016-04-28T11:57:14+06:00,
1000000000162315,77770184865,mMTS,mKarTel,mKarTel,,D77,2016-04-28T11:57:26+06:00,
1000000000162316,77083637300,mMTS,mAltel,mAltel,,D77,2016-04-28T11:57:02+06:00,
1000000000162317,77086925202,mKarTel,mAltel,mAltel,,D01,2016-04-28T11:57:44+06:00,
