NPId,Number,RecipientId,DonorId,RangeHolderId,OldRoute,NewRoute,PortDate,RowCount
1000000000265274,77770262660,mMTS,mKarTel,mKarTel,,D77,2016-10-19T21:37:50+06:00,3
1000000000265275,77770300301,mKcell,mAltel,mKarTel,D07,D02,2016-10-19T21:39:32+06:00,
1000000000265276,77051114518,mMTS,mKarTel,mKarTel,,D77,2016-10-19T21:52:46+06:00,
