NPId,Number,RecipientId,DonorId,RangeHolderId,OldRoute,NewRoute,PortDate,RowCount
1000000000196847,77477012036,mKcell,mMTS,mMTS,,D02,2016-06-20T18:00:15+06:00,22
1000000000196848,77771935393,mMTS,mKarTel,mKarTel,,D77,2016-06-20T18:01:32+06:00,
1000000000196849,77077063979,mAltel,mMTS,mMTS,,D07,2016-06-20T18:02:25+06:00,
1000000000196851,77763000653,mMTS,mKarTel,mKarTel,,D77,2016-06-20T18:03:48+06:00,
1000000000196853,77018970663,mAltel,mKcell,mKcell,,D07,2016-06-20T18:04:28+06:00,
1000000000196854,77007140140,mKarTel,mAltel,mAltel,,D01,2016-06-20T18:05:49+06:00,
1000000000196855,77772441751,mMTS,mKarTel,mKarTel,,D77,2016-06-20T18:06:44+06:00,
1000000000196858,77782227222,mKcell,mAltel,mKcell,D07,D02,2016-06-20T18:07:55+06:00,
1000000000196859,77027010044,mMTS,mKcell,mKcell,,D77,2016-06-20T18:09:24+06:00,
1000000000196861,77772357257,mAltel,mKarTel,mKarTel,,D07,2016-06-20T18:09:52+06:00,
1000000000196862,77016664042,mMTS,mKcell,mKcell,,D77,2016-06-20T18:10:40+06:00,
1000000000196863,77053441166,mMTS,mKarTel,mKarTel,,D77,2016-06-20T18:11:08+06:00,
1000000000196864,77775849000,mMTS,mKarTel,mKarTel,,D77,2016-06-20T18:11:16+06:00,
1000000000196865,77003081136,mMTS,mAltel,mAltel,,D77,2016-06-20T18:13:33+06:00,
1000000000196866,77071979988,mKarTel,mMTS,mMTS,,D01,2016-06-20T18:13:59+06:00,
1000000000196869,77078010767,mKcell,mMTS,mMTS,,D02,2016-06-20T18:18:51+06:00,
1000000000196870,77018488808,mMTS,mKcell,mKcell,,D77,2016-06-20T18:19:20+06:00,
1000000000196872,77005110550,mMTS,mAltel,mAltel,,D77,2016-06-20T18:21:15+06:00,
1000000000196876,77012987785,mAltel,mKcell,mKcell,,D07,2016-06-20T18:24:22+06:00,
1000000000196877,77023909357,mKcell,mMTS,mKcell,D77,D02,2016-06-20T18:25:59+06:00,
1000000000196878,77054756570,mMTS,mAltel,mKarTel,D07,D77,2016-06-20T18:25:35+06:00,
1000000000196879,77086932350,mMTS,mAltel,mAltel,,D77,2016-06-20T18:28:18+06:00,
