NPId,Number,RecipientId,DonorId,RangeHolderId,OldRoute,NewRoute,PortDate,RowCount
1000000000195737,77777277172,mAltel,mKarTel,mKarTel,,D07,2016-06-18T15:05:58+06:00,28
1000000000195746,77013454193,mMTS,mKcell,mKcell,,D77,2016-06-18T15:00:04+06:00,
1000000000195748,77075343495,mKarTel,mMTS,mMTS,,D01,2016-06-18T15:00:29+06:00,
1000000000195749,77017102007,mKarTel,mKcell,mKcell,,D01,2016-06-18T15:02:00+06:00,
1000000000195750,77051814500,mKcell,mKarTel,mKarTel,,D02,2016-06-18T15:02:34+06:00,
1000000000195751,77027973337,mKcell,mMTS,mKcell,D77,D02,2016-06-18T15:03:14+06:00,
1000000000195752,77054410777,mMTS,mKarTel,mKarTel,,D77,2016-06-18T15:05:52+06:00,
1000000000195754,77771113111,mKcell,mKarTel,mKarTel,,D02,2016-06-18T15:08:00+06:00,
1000000000195755,77775979808,mMTS,mKarTel,mKarTel,,D77,2016-06-18T15:05:58+06:00,
1000000000195756,77752479296,mKarTel,mKcell,mKcell,,D01,2016-06-18T15:08:24+06:00,
1000000000195757,77071250020,mKarTel,mMTS,mMTS,,D01,2016-06-18T15:06:02+06:00,
1000000000195759,77756045303,mAltel,mKcell,mKcell,,D07,2016-06-18T15:08:23+06:00,
1000000000195760,77017776447,mKcell,mKarTel,mKcell,D01,D02,2016-06-18T15:12:54+06:00,
1000000000195762,77756188818,mMTS,mKcell,mKcell,,D77,2016-06-18T15:14:56+06:00,
1000000000195763,77018839682,mKarTel,mKcell,mKcell,,D01,2016-06-18T15:17:19+06:00,
1000000000195764,77714775577,mMTS,mKarTel,mKarTel,,D77,2016-06-18T15:17:04+06:00,
1000000000195765,77017519156,mMTS,mKcell,mKcell,,D77,2016-06-18T15:19:32+06:00,
1000000000195766,77051415030,mMTS,mKarTel,mKarTel,,D77,2016-06-18T15:17:56+06:00,
1000000000195767,77017155031,mKarTel,mKcell,mKcell,,D01,2016-06-18T15:20:25+06:00,
1000000000195770,77770302909,mKcell,mKarTel,mKarTel,,D02,2016-06-18T15:23:06+06:00,
1000000000195771,77059019704,mMTS,mKarTel,mKarTel,,D77,2016-06-18T15:22:30+06:00,
1000000000195773,77028571579,mMTS,mKcell,mKcell,,D77,2016-06-18T15:25:23+06:00,
1000000000195774,77051414699,mMTS,mKarTel,mKarTel,,D77,2016-06-18T15:24:49+06:00,
1000000000195775,77471573133,mKarTel,mMTS,mMTS,,D01,2016-06-18T15:26:32+06:00,
1000000000195776,77759272688,mKcell,mMTS,mKcell,D77,D02,2016-06-18T15:27:30+06:00,
1000000000195777,77089531031,mMTS,mAltel,mAltel,,D77,2016-06-18T15:26:48+06:00,
1000000000195779,77051415010,mMTS,mKarTel,mKarTel,,D77,2016-06-18T15:28:16+06:00,
1000000000195781,77075379887,mKarTel,mMTS,mMTS,,D01,2016-06-18T15:29:04+06:00,
