NPId,Number,RecipientId,DonorId,RangeHolderId,OldRoute,NewRoute,PortDate,RowCount
1000000000309883,77774262888,mAltel,mKarTel,mKarTel,,D07,2017-01-12T19:33:23+06:00,11
1000000000309884,77004010185,mKcell,mAltel,mAltel,,D02,2017-01-12T19:33:44+06:00,
1000000000309886,77753041437,mKarTel,mKcell,mKcell,,D01,2017-01-12T19:39:34+06:00,
1000000000309887,77077026015,mKarTel,mMTS,mMTS,,D01,2017-01-12T19:37:38+06:00,
1000000000309889,77004446525,mKcell,mAltel,mAltel,,D02,2017-01-12T19:44:08+06:00,
1000000000309890,77013146606,mKarTel,mKcell,mKcell,,D01,2017-01-12T19:44:10+06:00,
1000000000309892,77051562808,mAltel,mKarTel,mKarTel,,D07,2017-01-12T19:46:45+06:00,
1000000000309893,77004449565,mKcell,mAltel,mAltel,,D02,2017-01-12T19:47:31+06:00,
1000000000309894,77004446585,mKcell,mAltel,mAltel,,D02,2017-01-12T19:48:54+06:00,
1000000000309895,77004443595,mKcell,mAltel,mAltel,,D02,2017-01-12T19:50:31+06:00,
1000000000309897,77017673367,mKarTel,mKcell,mKcell,,D01,2017-01-12T19:54:06+06:00,
