NPId,Number,RecipientId,DonorId,RangeHolderId,OldRoute,NewRoute,PortDate,RowCount
1000000000274283,77000007080,mAltel,mKcell,mAltel,D02,D07,2016-11-04T18:31:27+06:00,15
1000000000274285,77772502076,mAltel,mKarTel,mKarTel,,D07,2016-11-04T18:35:02+06:00,
1000000000274286,77773681155,mMTS,mKarTel,mKarTel,,D77,2016-11-04T18:37:09+06:00,
1000000000274288,77079095656,mKcell,mMTS,mMTS,,D02,2016-11-04T18:39:45+06:00,
1000000000274289,77014537010,mKcell,mMTS,mKcell,D77,D02,2016-11-04T18:40:43+06:00,
1000000000274290,77025144400,mAltel,mKcell,mKcell,,D07,2016-11-04T18:44:23+06:00,
1000000000274291,77007774004,mKcell,mAltel,mAltel,,D02,2016-11-04T18:47:00+06:00,
1000000000274292,77052167028,mAltel,mKarTel,mKarTel,,D07,2016-11-04T18:47:01+06:00,
1000000000274293,77017186199,mKarTel,mKcell,mKcell,,D01,2016-11-04T18:47:34+06:00,
1000000000274294,77026158640,mMTS,mKcell,mKcell,,D77,2016-11-04T18:49:49+06:00,
1000000000274295,77078298425,mMTS,mKcell,mMTS,D02,D77,2016-11-04T18:51:36+06:00,
1000000000274296,77053301222,mMTS,mKarTel,mKarTel,,D77,2016-11-04T18:55:11+06:00,
1000000000274297,77770325358,mMTS,mKarTel,mKarTel,,D77,2016-11-04T18:57:14+06:00,
1000000000274298,77024088884,mMTS,mKcell,mKcell,,D77,2016-11-04T18:57:36+06:00,
1000000000274299,77013821725,mKarTel,mKcell,mKcell,,D01,2016-11-04T18:58:53+06:00,
