NPId,Number,RecipientId,DonorId,RangeHolderId,OldRoute,NewRoute,PortDate,RowCount
1000000000295450,77758189238,mKcell,mAltel,mKcell,D07,D02,2017-01-19T15:11:29+06:00,23
1000000000313195,77072072011,mKcell,mMTS,mMTS,,D02,2017-01-19T15:02:01+06:00,
1000000000313196,77013236747,mMTS,mKcell,mKcell,,D77,2017-01-19T15:01:56+06:00,
1000000000313197,77015255688,mAltel,mKcell,mKcell,,D07,2017-01-19T15:02:24+06:00,
1000000000313198,77029992379,mAltel,mKcell,mKcell,,D07,2017-01-19T15:02:57+06:00,
1000000000313199,77009757851,mKcell,mAltel,mAltel,,D02,2017-01-19T15:03:38+06:00,
1000000000313200,77012778396,mMTS,mKcell,mKcell,,D77,2017-01-19T15:05:43+06:00,
1000000000313201,77078862588,mAltel,mMTS,mMTS,,D07,2017-01-19T15:07:52+06:00,
1000000000313202,77756636950,mAltel,mKcell,mKcell,,D07,2017-01-19T15:08:21+06:00,
1000000000313204,77476293235,mKcell,mAltel,mMTS,D07,D02,2017-01-19T15:10:57+06:00,
1000000000313206,77754735242,mKarTel,mKcell,mKcell,,D01,2017-01-19T15:16:48+06:00,
1000000000313207,77754506280,mMTS,mKcell,mKcell,,D77,2017-01-19T15:12:48+06:00,
1000000000313208,77471343035,mMTS,mKcell,mMTS,D02,D77,2017-01-19T15:16:04+06:00,
1000000000313209,77027790022,mMTS,mKcell,mKcell,,D77,2017-01-19T15:16:32+06:00,
1000000000313210,77053124114,mAltel,mKarTel,mKarTel,,D07,2017-01-19T15:17:48+06:00,
1000000000313211,77470193453,mAltel,mMTS,mMTS,,D07,2017-01-19T15:17:34+06:00,
1000000000313212,77075354106,mMTS,mKcell,mMTS,D02,D77,2017-01-19T15:19:37+06:00,
1000000000313213,77071736161,mKcell,mMTS,mMTS,,D02,2017-01-19T15:19:51+06:00,
1000000000313214,77759646177,mMTS,mKcell,mKcell,,D77,2017-01-19T15:20:25+06:00,
1000000000313215,77751677716,mMTS,mKcell,mKcell,,D77,2017-01-19T15:22:48+06:00,
1000000000313216,77755050548,mKcell,mMTS,mKcell,D77,D02,2017-01-19T15:24:28+06:00,
1000000000313218,77719989389,mKcell,mKarTel,mKarTel,,D02,2017-01-19T15:28:30+06:00,
1000000000313220,77714110518,mMTS,mKarTel,mKarTel,,D77,2017-01-19T15:28:46+06:00,
