NPId,Number,RecipientId,DonorId,RangeHolderId,OldRoute,NewRoute,PortDate,RowCount
1000000000002149,77077778589,mKcell,mMTS,mMTS,,D02,2016-01-06T12:31:21+06:00,26
1000000000002154,77010143135,mKarTel,mKcell,mKcell,,D01,2016-01-06T12:30:28+06:00,
1000000000002155,77029062567,mAltel,mKcell,mKcell,,D07,2016-01-06T12:30:30+06:00,
1000000000002158,77472222945,mKcell,mMTS,mMTS,,D02,2016-01-06T12:32:27+06:00,
1000000000002159,77056602716,mAltel,mKarTel,mKarTel,,D07,2016-01-06T12:33:28+06:00,
1000000000002160,77475635151,mKarTel,mMTS,mMTS,,D01,2016-01-06T12:33:43+06:00,
1000000000002164,77774441222,mAltel,mKarTel,mKarTel,,D07,2016-01-06T12:35:26+06:00,
1000000000002165,77052521717,mKcell,mKarTel,mKarTel,,D02,2016-01-06T12:35:38+06:00,
1000000000002166,77475877779,mKcell,mMTS,mMTS,,D02,2016-01-06T12:35:38+06:00,
1000000000002167,77017301001,mKarTel,mKcell,mKcell,,D01,2016-01-06T12:35:52+06:00,
1000000000002170,77774032983,mKcell,mKarTel,mKarTel,,D02,2016-01-06T12:37:48+06:00,
1000000000002171,77766066300,mMTS,mKarTel,mKarTel,,D77,2016-01-06T12:38:58+06:00,
1000000000002175,77716249738,mAltel,mKarTel,mKarTel,,D07,2016-01-06T12:43:01+06:00,
1000000000002178,77019518666,mKarTel,mKcell,mKcell,,D01,2016-01-06T12:45:24+06:00,
1000000000002180,77087777021,mMTS,mAltel,mAltel,,D77,2016-01-06T12:45:54+06:00,
1000000000002181,77017775576,mKarTel,mKcell,mKcell,,D01,2016-01-06T12:48:16+06:00,
1000000000002183,77752077790,mAltel,mKcell,mKcell,,D07,2016-01-06T12:49:36+06:00,
1000000000002185,77071661126,mAltel,mMTS,mMTS,,D07,2016-01-06T12:50:48+06:00,
1000000000002186,77778305757,mKcell,mKarTel,mKarTel,,D02,2016-01-06T12:51:21+06:00,
1000000000002188,77072220400,mKcell,mMTS,mMTS,,D02,2016-01-06T12:51:15+06:00,
1000000000002190,77071298777,mAltel,mMTS,mMTS,,D07,2016-01-06T12:51:40+06:00,
1000000000002191,77014136552,mAltel,mKcell,mKcell,,D07,2016-01-06T12:52:28+06:00,
1000000000002192,77056266060,mAltel,mKarTel,mKarTel,,D07,2016-01-06T12:53:25+06:00,
1000000000002196,77052922202,mKcell,mKarTel,mKarTel,,D02,2016-01-06T12:57:00+06:00,
1000000000002198,77015051990,mAltel,mKcell,mKcell,,D07,2016-01-06T12:57:38+06:00,
1000000000002199,77071287778,mAltel,mMTS,mMTS,,D07,2016-01-06T12:58:25+06:00,
