NPId,Number,RecipientId,DonorId,RangeHolderId,OldRoute,NewRoute,PortDate,RowCount
1000000000005811,77079040202,mAltel,mMTS,mMTS,,D07,2016-01-09T17:31:17+06:00,25
1000000000005812,77071233117,mAltel,mMTS,mMTS,,D07,2016-01-09T17:33:05+06:00,
1000000000005814,77075110010,mAltel,mMTS,mMTS,,D07,2016-01-09T17:35:30+06:00,
1000000000005815,77052413808,mAltel,mKarTel,mKarTel,,D07,2016-01-09T17:35:49+06:00,
1000000000005816,77771118866,mAltel,mKarTel,mKarTel,,D07,2016-01-09T17:36:45+06:00,
1000000000005817,77755577442,mAltel,mKcell,mKcell,,D07,2016-01-09T17:36:37+06:00,
1000000000005818,77014222555,mAltel,mKcell,mKcell,,D07,2016-01-09T17:36:43+06:00,
1000000000005819,77057401854,mAltel,mKarTel,mKarTel,,D07,2016-01-09T17:37:34+06:00,
1000000000005824,77015994963,mAltel,mKcell,mKcell,,D07,2016-01-09T17:39:34+06:00,
1000000000005826,77021757765,mAltel,mKcell,mKcell,,D07,2016-01-09T17:41:09+06:00,
1000000000005827,77015343422,mAltel,mKcell,mKcell,,D07,2016-01-09T17:41:23+06:00,
1000000000005829,77073055524,mAltel,mMTS,mMTS,,D07,2016-01-09T17:42:09+06:00,
1000000000005830,77011114892,mAltel,mKcell,mKcell,,D07,2016-01-09T17:42:42+06:00,
1000000000005832,77008777777,mKcell,mAltel,mAltel,,D02,2016-01-09T17:45:14+06:00,
1000000000005833,77076664373,mAltel,mMTS,mMTS,,D07,2016-01-09T17:46:53+06:00,
1000000000005834,77017104510,mAltel,mKcell,mKcell,,D07,2016-01-09T17:47:05+06:00,
1000000000005836,77012230283,mAltel,mKcell,mKcell,,D07,2016-01-09T17:48:22+06:00,
1000000000005837,77779291109,mKcell,mKarTel,mKarTel,,D02,2016-01-09T17:48:45+06:00,
1000000000005838,77012393901,mAltel,mKcell,mKcell,,D07,2016-01-09T17:50:09+06:00,
1000000000005839,77763067685,mAltel,mKarTel,mKarTel,,D07,2016-01-09T17:51:05+06:00,
1000000000005842,77761111711,mAltel,mKarTel,mKarTel,,D07,2016-01-09T17:53:04+06:00,
1000000000005843,77768881882,mAltel,mKarTel,mKarTel,,D07,2016-01-09T17:53:09+06:00,
1000000000005844,77017584868,mAltel,mKcell,mKcell,,D07,2016-01-09T17:55:00+06:00,
1000000000005845,77789999989,mAltel,mKcell,mKcell,,D07,2016-01-09T17:55:05+06:00,
1000000000005848,77005555001,mKcell,mAltel,mAltel,,D02,2016-01-09T17:56:52+06:00,
