NPId,Number,RecipientId,DonorId,RangeHolderId,OldRoute,NewRoute,PortDate,RowCount
1000000000100526,77753739820,mMTS,mKcell,mKcell,,D77,2016-02-27T10:02:00+06:00,13
1000000000100527,77026666224,mMTS,mKcell,mKcell,,D77,2016-02-27T10:02:04+06:00,
1000000000100528,77028593914,mMTS,mKcell,mKcell,,D77,2016-02-27T10:02:04+06:00,
1000000000100531,77012031534,mAltel,mKcell,mKcell,,D07,2016-02-27T10:10:26+06:00,
1000000000100532,77785007077,mMTS,mKcell,mKcell,,D77,2016-02-27T10:12:09+06:00,
1000000000100535,77009924073,mMTS,mAltel,mAltel,,D77,2016-02-27T10:14:48+06:00,
1000000000100536,77052322150,mMTS,mKarTel,mKarTel,,D77,2016-02-27T10:16:15+06:00,
1000000000100539,77711666262,mKcell,mKarTel,mKarTel,,D02,2016-02-27T10:19:21+06:00,
1000000000100541,77017159692,mMTS,mKcell,mKcell,,D77,2016-02-27T10:21:09+06:00,
1000000000100542,77012273068,mMTS,mKcell,mKcell,,D77,2016-02-27T10:21:57+06:00,
1000000000100544,77051781554,mMTS,mKarTel,mKarTel,,D77,2016-02-27T10:26:14+06:00,
1000000000100545,77788920992,mMTS,mKcell,mKcell,,D77,2016-02-27T10:26:44+06:00,
1000000000100546,77075522302,mAltel,mMTS,mMTS,,D07,2016-02-27T10:29:16+06:00,
