NPId,Number,RecipientId,DonorId,RangeHolderId,OldRoute,NewRoute,PortDate,RowCount
1000000000204388,77786663321,mKcell,mAltel,mKcell,D07,D02,2016-07-02T18:03:14+06:00,7
1000000000204389,77472000084,mKcell,mMTS,mMTS,,D02,2016-07-02T18:03:14+06:00,
1000000000204390,77058265402,mKcell,mKarTel,mKarTel,,D02,2016-07-02T18:04:32+06:00,
1000000000204391,77761861983,mKarTel,mMTS,mKarTel,D77,D01,2016-07-02T18:06:32+06:00,
1000000000204397,77054404409,mMTS,mKarTel,mKarTel,,D77,2016-07-02T18:22:38+06:00,
1000000000204398,77477907890,mKcell,mMTS,mMTS,,D02,2016-07-02T18:28:42+06:00,
1000000000204399,77761861984,mKarTel,mMTS,mKarTel,D77,D01,2016-07-02T18:29:14+06:00,
