NPId,Number,RecipientId,DonorId,RangeHolderId,OldRoute,NewRoute,PortDate,RowCount
1000000000296858,77781907153,mAltel,mKcell,mKcell,,D07,2016-12-19T11:31:50+06:00,24
1000000000296859,77029535425,mMTS,mKcell,mKcell,,D77,2016-12-19T11:33:12+06:00,
1000000000296861,77051632571,mMTS,mKarTel,mKarTel,,D77,2016-12-19T11:35:43+06:00,
1000000000296863,77071844804,mMTS,mKcell,mMTS,D02,D77,2016-12-19T11:36:41+06:00,
1000000000296867,77016114434,mMTS,mKcell,mKcell,,D77,2016-12-19T11:40:02+06:00,
1000000000296868,77024919120,mAltel,mKcell,mKcell,,D07,2016-12-19T11:40:23+06:00,
1000000000296869,77015558832,mMTS,mKcell,mKcell,,D77,2016-12-19T11:40:38+06:00,
1000000000296870,77470591926,mKarTel,mMTS,mMTS,,D01,2016-12-19T11:41:38+06:00,
1000000000296871,77788549595,mMTS,mKcell,mKcell,,D77,2016-12-19T11:44:48+06:00,
1000000000296872,77026088112,mKcell,mMTS,mKcell,D77,D02,2016-12-19T11:45:04+06:00,
1000000000296873,77005558503,mKcell,mAltel,mAltel,,D02,2016-12-19T11:44:57+06:00,
1000000000296874,77057639544,mMTS,mKarTel,mKarTel,,D77,2016-12-19T11:43:04+06:00,
1000000000296875,77474821553,mKcell,mMTS,mMTS,,D02,2016-12-19T11:44:09+06:00,
1000000000296877,77014402104,mKcell,mKarTel,mKcell,D01,D02,2016-12-19T11:46:17+06:00,
1000000000296878,77009991144,mKarTel,mAltel,mAltel,,D01,2016-12-19T11:46:13+06:00,
1000000000296879,77011070809,mMTS,mKcell,mKcell,,D77,2016-12-19T11:46:13+06:00,
1000000000296880,77012420908,mKarTel,mMTS,mKcell,D77,D01,2016-12-19T11:46:49+06:00,
1000000000296883,77012039593,mKcell,mAltel,mKcell,D07,D02,2016-12-19T11:52:33+06:00,
1000000000296884,77074294788,mAltel,mMTS,mMTS,,D07,2016-12-19T11:52:27+06:00,
1000000000296886,77079400123,mMTS,mKcell,mMTS,D02,D77,2016-12-19T11:54:07+06:00,
1000000000296888,77759650909,mMTS,mKcell,mKcell,,D77,2016-12-19T11:55:37+06:00,
1000000000296889,77075556844,mMTS,mKcell,mMTS,D02,D77,2016-12-19T11:56:49+06:00,
1000000000296890,77011121193,mMTS,mKcell,mKcell,D02,D77,2016-12-19T11:58:54+06:00,
1000000000296891,77771653466,mKarTel,mMTS,mKarTel,D77,D01,2016-12-19T11:59:47+06:00,
