NPId,Number,RecipientId,DonorId,RangeHolderId,OldRoute,NewRoute,PortDate,RowCount
1000000000398312,77058024095,mKarTel,mKcell,mKarTel,D02,D01,2017-06-07T11:08:21+06:00,51
1000000000398312,77765016171,mKarTel,mKcell,mKarTel,D02,D01,2017-06-07T11:08:21+06:00,
1000000000398312,77769175650,mKarTel,mKcell,mKarTel,D02,D01,2017-06-07T11:08:21+06:00,
1000000000398312,77769175651,mKarTel,mKcell,mKarTel,D02,D01,2017-06-07T11:08:21+06:00,
1000000000398312,77769175652,mKarTel,mKcell,mKarTel,D02,D01,2017-06-07T11:08:21+06:00,
1000000000398312,77769175653,mKarTel,mKcell,mKarTel,D02,D01,2017-06-07T11:08:21+06:00,
1000000000398312,77769175655,mKarTel,mKcell,mKarTel,D02,D01,2017-06-07T11:08:21+06:00,
1000000000398312,77769175657,mKarTel,mKcell,mKarTel,D02,D01,2017-06-07T11:08:21+06:00,
1000000000398312,77769175658,mKarTel,mKcell,mKarTel,D02,D01,2017-06-07T11:08:21+06:00,
1000000000398312,77769175659,mKarTel,mKcell,mKarTel,D02,D01,2017-06-07T11:08:21+06:00,
1000000000398312,77769175660,mKarTel,mKcell,mKarTel,D02,D01,2017-06-07T11:08:21+06:00,
1000000000398616,77017136375,mKarTel,mKcell,mKcell,,D01,2017-06-07T11:25:25+06:00,
1000000000398616,77017620927,mKarTel,mKcell,mKcell,,D01,2017-06-07T11:25:25+06:00,
1000000000398616,77017877261,mKarTel,mKcell,mKcell,,D01,2017-06-07T11:25:25+06:00,
1000000000398616,77017877265,mKarTel,mKcell,mKcell,,D01,2017-06-07T11:25:25+06:00,
1000000000398616,77017877267,mKarTel,mKcell,mKcell,,D01,2017-06-07T11:25:25+06:00,
1000000000398616,77017877273,mKarTel,mKcell,mKcell,,D01,2017-06-07T11:25:25+06:00,
1000000000398616,77017877275,mKarTel,mKcell,mKcell,,D01,2017-06-07T11:25:25+06:00,
1000000000398616,77017877279,mKarTel,mKcell,mKcell,,D01,2017-06-07T11:25:25+06:00,
1000000000398616,77017959569,mKarTel,mKcell,mKcell,,D01,2017-06-07T11:25:25+06:00,
1000000000398898,77017996268,mKarTel,mKcell,mKcell,,D01,2017-06-07T11:01:10+06:00,
1000000000398900,77001016200,mKcell,mAltel,mAltel,,D02,2017-06-07T11:02:27+06:00,
1000000000398901,77074316208,mKcell,mMTS,mMTS,,D02,2017-06-07T11:03:53+06:00,
1000000000398902,77054457038,mMTS,mKarTel,mKarTel,,D77,2017-06-07T11:04:34+06:00,
1000000000398903,77074177794,mAltel,mMTS,mMTS,,D07,2017-06-07T11:05:44+06:00,
1000000000398904,77021121282,mKcell,mMTS,mKcell,D77,D02,2017-06-07T11:07:11+06:00,
1000000000398906,77019491517,mMTS,mKcell,mKcell,,D77,2017-06-07T11:09:39+06:00,
1000000000398907,77019491508,mMTS,mKcell,mKcell,,D77,2017-06-07T11:10:16+06:00,
1000000000398909,77767077057,mKcell,mKarTel,mKarTel,,D02,2017-06-07T11:11:20+06:00,
1000000000398910,77073661210,mKarTel,mMTS,mMTS,,D01,2017-06-07T11:11:51+06:00,
1000000000398911,77754553711,mAltel,mKcell,mKcell,,D07,2017-06-07T11:12:11+06:00,
1000000000398912,77076005757,mMTS,mKarTel,mMTS,D01,D77,2017-06-07T11:12:36+06:00,
1000000000398913,77781669094,mKcell,mMTS,mKcell,D77,D02,2017-06-07T11:13:31+06:00,
1000000000398917,77003105997,mKarTel,mMTS,mAltel,D77,D01,2017-06-07T11:14:39+06:00,
1000000000398918,77018868999,mKcell,mKarTel,mKcell,D01,D02,2017-06-07T11:17:43+06:00,
1000000000398919,77784064816,mAltel,mKcell,mKcell,,D07,2017-06-07T11:18:03+06:00,
1000000000398920,77072099981,mKarTel,mMTS,mMTS,,D01,2017-06-07T11:18:11+06:00,
1000000000398921,77012212325,mKcell,mKarTel,mKcell,D01,D02,2017-06-07T11:19:54+06:00,
1000000000398922,77015116913,mKarTel,mKcell,mKcell,,D01,2017-06-07T11:19:37+06:00,
1000000000398923,77751301413,mKarTel,mKcell,mKcell,,D01,2017-06-07T11:20:04+06:00,
1000000000398924,77019229989,mAltel,mKcell,mKcell,,D07,2017-06-07T11:20:16+06:00,
1000000000398925,77015554907,mKcell,mKarTel,mKcell,D01,D02,2017-06-07T11:21:35+06:00,
1000000000398926,77015708027,mKarTel,mKcell,mKcell,,D01,2017-06-07T11:21:17+06:00,
1000000000398929,77014223554,mKcell,mAltel,mKcell,D07,D02,2017-06-07T11:23:39+06:00,
1000000000398930,77015443478,mKarTel,mMTS,mKcell,D77,D01,2017-06-07T11:23:58+06:00,
1000000000398931,77754502173,mKcell,mMTS,mKcell,D77,D02,2017-06-07T11:24:52+06:00,
1000000000398932,77081517579,mMTS,mAltel,mAltel,,D77,2017-06-07T11:26:38+06:00,
1000000000398933,77017586868,mKarTel,mKcell,mKcell,,D01,2017-06-07T11:27:51+06:00,
1000000000398934,77081517975,mMTS,mAltel,mAltel,,D77,2017-06-07T11:27:49+06:00,
1000000000398935,77022160634,mKarTel,mKcell,mKcell,,D01,2017-06-07T11:29:34+06:00,
1000000000398937,77014746644,mAltel,mMTS,mKcell,D77,D07,2017-06-07T11:29:44+06:00,
