NPId,Number,RecipientId,DonorId,RangeHolderId,OldRoute,NewRoute,PortDate,RowCount
1000000000101825,77012423036,mMTS,mKcell,mKcell,,D77,2016-02-28T18:02:44+06:00,11
1000000000101828,77051280444,mAltel,mKarTel,mKarTel,,D07,2016-02-28T18:11:16+06:00,
1000000000101832,77773404033,mAltel,mKarTel,mKarTel,,D07,2016-02-28T18:14:40+06:00,
1000000000101833,77027277777,mAltel,mKcell,mKcell,,D07,2016-02-28T18:15:46+06:00,
1000000000101834,77778822274,mKcell,mKarTel,mKarTel,,D02,2016-02-28T18:17:02+06:00,
1000000000101835,77023260001,mMTS,mKcell,mKcell,,D77,2016-02-28T18:17:06+06:00,
1000000000101836,77789006244,mAltel,mKcell,mKcell,,D07,2016-02-28T18:22:18+06:00,
1000000000101837,77070210149,mAltel,mMTS,mMTS,,D07,2016-02-28T18:24:16+06:00,
1000000000101838,77054003988,mAltel,mKarTel,mKarTel,,D07,2016-02-28T18:25:17+06:00,
1000000000101839,77018501007,mMTS,mKcell,mKcell,,D77,2016-02-28T18:26:37+06:00,
1000000000101841,77011484961,mKarTel,mKcell,mKcell,,D01,2016-02-28T18:28:05+06:00,
