NPId,Number,RecipientId,DonorId,RangeHolderId,OldRoute,NewRoute,PortDate,RowCount
1000000000176894,77015077788,mMTS,mAltel,mKcell,D07,D77,2016-05-18T20:01:04+06:00,9
1000000000176895,77089151670,mMTS,mAltel,mAltel,,D77,2016-05-18T20:07:05+06:00,
1000000000176896,77781112205,mMTS,mKcell,mKcell,,D77,2016-05-18T20:08:01+06:00,
1000000000176897,77781112235,mMTS,mKcell,mKcell,,D77,2016-05-18T20:11:29+06:00,
1000000000176898,77770026688,mKcell,mAltel,mKarTel,D07,D02,2016-05-18T20:14:21+06:00,
1000000000176899,77081232425,mMTS,mAltel,mAltel,,D77,2016-05-18T20:17:06+06:00,
1000000000176900,77016523587,mMTS,mKcell,mKcell,,D77,2016-05-18T20:18:06+06:00,
1000000000176901,77028808821,mKarTel,mKcell,mKcell,,D01,2016-05-18T20:23:29+06:00,
1000000000176902,77786555076,mMTS,mKcell,mKcell,,D77,2016-05-18T20:23:40+06:00,
