NPId,Number,RecipientId,DonorId,RangeHolderId,OldRoute,NewRoute,PortDate,RowCount
1000000000146125,77016509450,mKarTel,mKcell,mKcell,,D01,2016-04-08T10:30:44+06:00,30
1000000000146126,77085075760,mMTS,mAltel,mAltel,,D77,2016-04-08T10:30:58+06:00,
1000000000146127,77023689497,mKarTel,mKcell,mKcell,,D01,2016-04-08T10:32:04+06:00,
1000000000146128,77085288208,mMTS,mAltel,mAltel,,D77,2016-04-08T10:31:58+06:00,
1000000000146130,77754930303,mMTS,mKcell,mKcell,,D77,2016-04-08T10:32:50+06:00,
1000000000146131,77086321295,mMTS,mAltel,mAltel,,D77,2016-04-08T10:32:35+06:00,
1000000000146132,77714234617,mMTS,mKarTel,mKarTel,,D77,2016-04-08T10:35:16+06:00,
1000000000146134,77474617147,mMTS,mAltel,mMTS,D07,D77,2016-04-08T10:38:07+06:00,
1000000000146135,77026278694,mMTS,mKcell,mKcell,,D77,2016-04-08T10:38:42+06:00,
1000000000146136,77073831670,mKarTel,mMTS,mMTS,,D01,2016-04-08T10:40:26+06:00,
1000000000146138,77772035444,mMTS,mKarTel,mKarTel,,D77,2016-04-08T10:42:20+06:00,
1000000000146139,77474617148,mMTS,mAltel,mMTS,D07,D77,2016-04-08T10:41:06+06:00,
1000000000146140,77052052910,mMTS,mKarTel,mKarTel,,D77,2016-04-08T10:43:36+06:00,
1000000000146143,77015883337,mMTS,mAltel,mKcell,D07,D77,2016-04-08T10:45:42+06:00,
1000000000146144,77083144507,mMTS,mAltel,mAltel,,D77,2016-04-08T10:46:15+06:00,
1000000000146145,77011113012,mMTS,mKcell,mKcell,,D77,2016-04-08T10:47:05+06:00,
1000000000146147,77711203937,mMTS,mKarTel,mKarTel,,D77,2016-04-08T10:48:39+06:00,
1000000000146149,77756157595,mMTS,mAltel,mKcell,D07,D77,2016-04-08T10:48:54+06:00,
1000000000146150,77015121442,mMTS,mKcell,mKcell,,D77,2016-04-08T10:49:13+06:00,
1000000000146151,77029416983,mMTS,mKcell,mKcell,,D77,2016-04-08T10:49:25+06:00,
1000000000146152,77082103032,mKarTel,mAltel,mAltel,,D01,2016-04-08T10:50:34+06:00,
1000000000146153,77714459559,mMTS,mKarTel,mKarTel,,D77,2016-04-08T10:52:26+06:00,
1000000000146154,77085304169,mMTS,mAltel,mAltel,,D77,2016-04-08T10:51:18+06:00,
1000000000146155,77009444062,mMTS,mAltel,mAltel,,D77,2016-04-08T10:51:18+06:00,
1000000000146158,77083532393,mMTS,mAltel,mAltel,,D77,2016-04-08T10:54:15+06:00,
1000000000146159,77057013361,mMTS,mKarTel,mKarTel,,D77,2016-04-08T10:56:18+06:00,
1000000000146160,77082279927,mMTS,mAltel,mAltel,,D77,2016-04-08T10:55:27+06:00,
1000000000146161,77056221642,mMTS,mKarTel,mKarTel,,D77,2016-04-08T10:57:35+06:00,
1000000000146163,77759113967,mKcell,mMTS,mKcell,D77,D02,2016-04-08T10:57:39+06:00,
1000000000146165,77015379948,mAltel,mKcell,mKcell,,D07,2016-04-08T10:58:57+06:00,
