NPId,Number,RecipientId,DonorId,RangeHolderId,OldRoute,NewRoute,PortDate,RowCount
1000000000174751,77021003464,mKcell,mAltel,mKcell,D07,D02,2016-05-15T20:36:36+06:00,5
1000000000174752,77015333116,mMTS,mKarTel,mKcell,D01,D77,2016-05-15T20:42:29+06:00,
1000000000174753,77083331880,mMTS,mAltel,mAltel,,D77,2016-05-15T20:46:24+06:00,
1000000000174754,77089601311,mMTS,mAltel,mAltel,,D77,2016-05-15T20:50:31+06:00,
1000000000174755,77083374449,mKcell,mAltel,mAltel,,D02,2016-05-15T20:51:35+06:00,
