NPId,Number,RecipientId,DonorId,RangeHolderId,OldRoute,NewRoute,PortDate,RowCount
1000000000262279,77057776800,mKcell,mKarTel,mKarTel,,D02,2016-10-14T13:02:38+06:00,9
1000000000262287,77713951068,mKcell,mKarTel,mKarTel,,D02,2016-10-14T13:22:01+06:00,
1000000000262292,77715527219,mKcell,mKarTel,mKarTel,,D02,2016-10-14T13:25:57+06:00,
1000000000262294,77017272037,mKcell,mKarTel,mKcell,D01,D02,2016-10-14T13:12:21+06:00,
1000000000262296,77775453449,mAltel,mKarTel,mKarTel,,D07,2016-10-14T13:14:41+06:00,
1000000000262297,77013599292,mKcell,mMTS,mKcell,D77,D02,2016-10-14T13:14:44+06:00,
1000000000262299,77088412112,mKarTel,mAltel,mAltel,,D01,2016-10-14T13:17:05+06:00,
1000000000262306,77772022428,mMTS,mKarTel,mKarTel,,D77,2016-10-14T13:21:33+06:00,
1000000000262313,77072140195,mKarTel,mMTS,mMTS,,D01,2016-10-14T13:28:12+06:00,
