NPId,Number,RecipientId,DonorId,RangeHolderId,OldRoute,NewRoute,PortDate,RowCount
1000000000163829,77058192595,mKarTel,mMTS,mKarTel,D77,D01,2016-04-29T20:17:09+06:00,2
1000000000163830,77478124561,mKarTel,mMTS,mMTS,,D01,2016-04-29T20:21:59+06:00,
