NPId,Number,RecipientId,DonorId,RangeHolderId,OldRoute,NewRoute,PortDate,RowCount
1000000000172861,77007577576,mKcell,mAltel,mAltel,,D02,2016-05-12T17:00:28+06:00,29
1000000000172862,77051542334,mMTS,mKarTel,mKarTel,,D77,2016-05-12T17:00:33+06:00,
1000000000172863,77779919190,mKcell,mKarTel,mKarTel,,D02,2016-05-12T17:01:17+06:00,
1000000000172866,77717989990,mMTS,mKarTel,mKarTel,,D77,2016-05-12T17:01:27+06:00,
1000000000172867,77771572506,mMTS,mKarTel,mKarTel,,D77,2016-05-12T17:01:27+06:00,
1000000000172868,77003934762,mMTS,mAltel,mAltel,,D77,2016-05-12T17:01:03+06:00,
1000000000172869,77757041904,mMTS,mKcell,mKcell,,D77,2016-05-12T17:01:58+06:00,
1000000000172870,77475432013,mKcell,mMTS,mMTS,,D02,2016-05-12T17:03:03+06:00,
1000000000172872,77775953443,mKcell,mKarTel,mKarTel,,D02,2016-05-12T17:06:36+06:00,
1000000000172873,77071104647,mAltel,mMTS,mMTS,,D07,2016-05-12T17:06:40+06:00,
1000000000172874,77017381595,mMTS,mKarTel,mKcell,D01,D77,2016-05-12T17:07:12+06:00,
1000000000172875,77082676025,mMTS,mAltel,mAltel,,D77,2016-05-12T17:07:10+06:00,
1000000000172876,77015433127,mKcell,mKarTel,mKcell,D01,D02,2016-05-12T17:23:26+06:00,
1000000000172876,77017673690,mKcell,mKarTel,mKcell,D01,D02,2016-05-12T17:23:26+06:00,
1000000000172877,77773008008,mAltel,mKarTel,mKarTel,,D07,2016-05-12T17:09:47+06:00,
1000000000172879,77007307770,mKcell,mAltel,mAltel,,D02,2016-05-12T17:12:06+06:00,
1000000000172882,77026746205,mMTS,mKcell,mKcell,,D77,2016-05-12T17:13:42+06:00,
1000000000172885,77083619417,mMTS,mAltel,mAltel,,D77,2016-05-12T17:16:10+06:00,
1000000000172886,77089558606,mMTS,mAltel,mAltel,,D77,2016-05-12T17:17:04+06:00,
1000000000172887,77781108104,mAltel,mKcell,mKcell,,D07,2016-05-12T17:17:55+06:00,
1000000000172888,77757023771,mKcell,mAltel,mKcell,D07,D02,2016-05-12T17:19:38+06:00,
1000000000172890,77025285796,mMTS,mKcell,mKcell,,D77,2016-05-12T17:20:02+06:00,
1000000000172892,77005944220,mMTS,mAltel,mAltel,,D77,2016-05-12T17:20:05+06:00,
1000000000172893,77089855257,mMTS,mAltel,mAltel,,D77,2016-05-12T17:21:06+06:00,
1000000000172894,77712199685,mKcell,mKarTel,mKarTel,,D02,2016-05-12T17:22:51+06:00,
1000000000172895,77085121992,mMTS,mKcell,mAltel,D02,D77,2016-05-12T17:24:33+06:00,
1000000000172896,77056042658,mMTS,mKarTel,mKarTel,,D77,2016-05-12T17:24:34+06:00,
1000000000172897,77056042657,mMTS,mKarTel,mKarTel,,D77,2016-05-12T17:25:13+06:00,
1000000000172902,77089683120,mMTS,mAltel,mAltel,,D77,2016-05-12T17:28:55+06:00,
