NPId,Number,RecipientId,DonorId,RangeHolderId,OldRoute,NewRoute,PortDate,RowCount
1000000000291300,77058120202,mKcell,mKarTel,mKarTel,,D02,2016-12-07T12:00:06+06:00,28
1000000000291303,77759535558,mAltel,mKcell,mKcell,,D07,2016-12-07T12:00:41+06:00,
1000000000291305,77057061010,mMTS,mKarTel,mKarTel,,D77,2016-12-07T12:02:37+06:00,
1000000000291306,77752012321,mMTS,mKcell,mKcell,,D77,2016-12-07T12:02:55+06:00,
1000000000291308,77013683800,mMTS,mKcell,mKcell,,D77,2016-12-07T12:04:03+06:00,
1000000000291309,77013141777,mAltel,mKcell,mKcell,,D07,2016-12-07T12:05:13+06:00,
1000000000291310,77029721182,mKcell,mMTS,mKcell,D77,D02,2016-12-07T12:05:50+06:00,
1000000000291311,77011235710,mMTS,mKcell,mKcell,,D77,2016-12-07T12:06:07+06:00,
1000000000291312,77073594857,mAltel,mMTS,mMTS,,D07,2016-12-07T12:06:23+06:00,
1000000000291313,77754353510,mKcell,mMTS,mKcell,D77,D02,2016-12-07T12:08:01+06:00,
1000000000291315,77016800083,mKarTel,mKcell,mKcell,,D01,2016-12-07T12:09:02+06:00,
1000000000291316,77019935605,mKcell,mMTS,mKcell,D77,D02,2016-12-07T12:09:32+06:00,
1000000000291317,77024413861,mMTS,mKcell,mKcell,,D77,2016-12-07T12:09:21+06:00,
1000000000291319,77071886655,mAltel,mMTS,mMTS,,D07,2016-12-07T12:11:12+06:00,
1000000000291321,77052200500,mMTS,mKarTel,mKarTel,,D77,2016-12-07T12:12:58+06:00,
1000000000291322,77766804848,mKcell,mKarTel,mKarTel,,D02,2016-12-07T12:13:07+06:00,
1000000000291324,77015225525,mKarTel,mKcell,mKcell,,D01,2016-12-07T12:15:32+06:00,
1000000000291326,77077770871,mKarTel,mMTS,mMTS,D77,D01,2016-12-07T12:16:45+06:00,
1000000000291327,77072000172,mMTS,mAltel,mMTS,D07,D77,2016-12-07T12:17:24+06:00,
1000000000291328,77028717177,mKarTel,mKcell,mKcell,,D01,2016-12-07T12:19:20+06:00,
1000000000291329,77770870591,mAltel,mMTS,mKarTel,D77,D07,2016-12-07T12:19:20+06:00,
1000000000291330,77752158077,mMTS,mKcell,mKcell,,D77,2016-12-07T12:20:03+06:00,
1000000000291331,77769074848,mKcell,mKarTel,mKarTel,,D02,2016-12-07T12:23:55+06:00,
1000000000291332,77766099907,mKarTel,mAltel,mKarTel,D07,D01,2016-12-07T12:23:49+06:00,
1000000000291333,77012330550,mKarTel,mKcell,mKcell,,D01,2016-12-07T12:24:11+06:00,
1000000000291334,77071266056,mAltel,mKcell,mMTS,D02,D07,2016-12-07T12:24:11+06:00,
1000000000291337,77057890556,mMTS,mKarTel,mKarTel,,D77,2016-12-07T12:28:11+06:00,
1000000000291338,77074441944,mAltel,mMTS,mMTS,,D07,2016-12-07T12:28:31+06:00,
