NPId,Number,RecipientId,DonorId,RangeHolderId,OldRoute,NewRoute,PortDate,RowCount
1000000000298963,77010800009,mKarTel,mKcell,mKcell,,D01,2016-12-22T16:30:00+06:00,36
1000000000298964,77772574612,mKcell,mKarTel,mKarTel,,D02,2016-12-22T16:30:29+06:00,
1000000000298965,77027010066,mKarTel,mKcell,mKcell,,D01,2016-12-22T16:30:21+06:00,
1000000000298966,77015381725,mKarTel,mKcell,mKcell,,D01,2016-12-22T16:30:52+06:00,
1000000000298966,77017152536,mKarTel,mKcell,mKcell,,D01,2016-12-22T16:30:52+06:00,
1000000000298966,77017662788,mKarTel,mKcell,mKcell,,D01,2016-12-22T16:30:52+06:00,
1000000000298966,77017840885,mKarTel,mKcell,mKcell,,D01,2016-12-22T16:30:52+06:00,
1000000000298966,77022205575,mKarTel,mKcell,mKcell,,D01,2016-12-22T16:30:52+06:00,
1000000000298968,77003330336,mKcell,mAltel,mAltel,,D02,2016-12-22T16:31:05+06:00,
1000000000298970,77779077707,mKarTel,mKcell,mKarTel,D02,D01,2016-12-22T16:34:10+06:00,
1000000000298971,77022399308,mKarTel,mKcell,mKcell,,D01,2016-12-22T16:34:09+06:00,
1000000000298972,77023655565,mAltel,mKcell,mKcell,,D07,2016-12-22T16:31:49+06:00,
1000000000298974,77001701111,mKcell,mAltel,mAltel,,D02,2016-12-22T16:33:16+06:00,
1000000000298975,77083542257,mAltel,mMTS,mAltel,D77,D07,2016-12-22T16:35:08+06:00,
1000000000298976,77007170700,mKcell,mAltel,mAltel,,D02,2016-12-22T16:35:49+06:00,
1000000000298977,77756790787,mAltel,mKcell,mKcell,,D07,2016-12-22T16:36:02+06:00,
1000000000298978,77075711117,mMTS,mKcell,mMTS,D02,D77,2016-12-22T16:37:54+06:00,
1000000000298979,77785866146,mMTS,mKcell,mKcell,,D77,2016-12-22T16:37:59+06:00,
1000000000298980,77011988319,mAltel,mKcell,mKcell,,D07,2016-12-22T16:37:59+06:00,
1000000000298982,77009192916,mMTS,mAltel,mAltel,,D77,2016-12-22T16:39:09+06:00,
1000000000298983,77473232992,mMTS,mAltel,mMTS,D07,D77,2016-12-22T16:40:02+06:00,
1000000000298984,77027000859,mMTS,mKcell,mKcell,,D77,2016-12-22T16:41:40+06:00,
1000000000298985,77769999411,mAltel,mKarTel,mKarTel,,D07,2016-12-22T16:41:56+06:00,
1000000000298987,77027000879,mMTS,mKcell,mKcell,,D77,2016-12-22T16:43:42+06:00,
1000000000298989,77071050626,mKcell,mMTS,mMTS,,D02,2016-12-22T16:45:37+06:00,
1000000000298991,77750001666,mKarTel,mKcell,mKcell,,D01,2016-12-22T16:46:44+06:00,
1000000000298992,77753912526,mMTS,mKarTel,mKcell,D01,D77,2016-12-22T16:47:08+06:00,
1000000000298993,77058888304,mAltel,mKarTel,mKarTel,,D07,2016-12-22T16:48:44+06:00,
1000000000298995,77055511313,mMTS,mKarTel,mKarTel,,D77,2016-12-22T16:52:34+06:00,
1000000000298996,77018509944,mMTS,mKcell,mKcell,,D77,2016-12-22T16:52:41+06:00,
1000000000298998,77051965065,mMTS,mKarTel,mKarTel,,D77,2016-12-22T16:52:59+06:00,
1000000000298999,77714365424,mMTS,mKarTel,mKarTel,,D77,2016-12-22T16:52:59+06:00,
1000000000299001,77071040505,mKcell,mMTS,mMTS,,D02,2016-12-22T16:54:45+06:00,
1000000000299002,77762727000,mKarTel,mMTS,mKarTel,D77,D01,2016-12-22T16:55:04+06:00,
1000000000299004,77018886733,mMTS,mKcell,mKcell,,D77,2016-12-22T16:55:54+06:00,
1000000000299005,77019101992,mAltel,mKcell,mKcell,,D07,2016-12-22T16:59:39+06:00,
