NPId,Number,RecipientId,DonorId,RangeHolderId,OldRoute,NewRoute,PortDate,RowCount
1000000000176806,77023392878,mKarTel,mKcell,mKcell,,D01,2016-05-19T12:54:38+06:00,32
1000000000177089,77051657732,mKarTel,mMTS,mKarTel,D77,D01,2016-05-19T12:30:20+06:00,
1000000000177090,77023691024,mKarTel,mKcell,mKcell,,D01,2016-05-19T12:31:20+06:00,
1000000000177092,77079001931,mKcell,mMTS,mMTS,,D02,2016-05-19T12:34:30+06:00,
1000000000177093,77755106433,mAltel,mKcell,mKcell,,D07,2016-05-19T12:35:23+06:00,
1000000000177094,77754350183,mMTS,mKcell,mKcell,,D77,2016-05-19T12:36:34+06:00,
1000000000177095,77019275102,mKarTel,mKcell,mKcell,,D01,2016-05-19T12:37:13+06:00,
1000000000177096,77089546081,mKcell,mAltel,mAltel,,D02,2016-05-19T12:37:28+06:00,
1000000000177097,77086316974,mMTS,mAltel,mAltel,,D77,2016-05-19T12:37:36+06:00,
1000000000177098,77082581986,mMTS,mAltel,mAltel,,D77,2016-05-19T12:37:52+06:00,
1000000000177099,77778879099,mMTS,mKarTel,mKarTel,,D77,2016-05-19T12:39:11+06:00,
1000000000177102,77017770210,mAltel,mKcell,mKcell,,D07,2016-05-19T12:41:08+06:00,
1000000000177104,77778811117,mMTS,mKarTel,mKarTel,,D77,2016-05-19T12:42:27+06:00,
1000000000177105,77789666555,mMTS,mAltel,mKcell,D07,D77,2016-05-19T12:42:02+06:00,
1000000000177106,77786876657,mMTS,mKcell,mKcell,,D77,2016-05-19T12:42:39+06:00,
1000000000177108,77023691421,mKarTel,mKcell,mKcell,,D01,2016-05-19T12:44:02+06:00,
1000000000177110,77077752009,mMTS,mKarTel,mMTS,D01,D77,2016-05-19T12:45:10+06:00,
1000000000177113,77075553528,mAltel,mMTS,mMTS,,D07,2016-05-19T12:46:41+06:00,
1000000000177115,77776120253,mAltel,mKarTel,mKarTel,,D07,2016-05-19T12:47:33+06:00,
1000000000177116,77473081808,mMTS,mAltel,mMTS,D07,D77,2016-05-19T12:47:17+06:00,
1000000000177117,77760088900,mMTS,mKarTel,mKarTel,,D77,2016-05-19T12:50:30+06:00,
1000000000177118,77013753984,mMTS,mKcell,mKcell,,D77,2016-05-19T12:51:11+06:00,
1000000000177119,77770117000,mKcell,mAltel,mKarTel,D07,D02,2016-05-19T12:51:34+06:00,
1000000000177120,77089820302,mKarTel,mAltel,mAltel,,D01,2016-05-19T12:51:30+06:00,
1000000000177121,77013808184,mMTS,mKcell,mKcell,,D77,2016-05-19T12:51:49+06:00,
1000000000177122,77057039995,mMTS,mKarTel,mKarTel,,D77,2016-05-19T12:52:29+06:00,
1000000000177123,77786015409,mMTS,mKcell,mKcell,,D77,2016-05-19T12:54:02+06:00,
1000000000177124,77013727880,mAltel,mKcell,mKcell,,D07,2016-05-19T12:54:25+06:00,
1000000000177125,77057314198,mMTS,mKarTel,mKarTel,,D77,2016-05-19T12:54:26+06:00,
1000000000177127,77052340566,mMTS,mKarTel,mKarTel,,D77,2016-05-19T12:55:34+06:00,
1000000000177128,77777936801,mMTS,mKarTel,mKarTel,,D77,2016-05-19T12:55:53+06:00,
1000000000177129,77023690650,mKarTel,mKcell,mKcell,,D01,2016-05-19T12:57:05+06:00,
