NPId,Number,RecipientId,DonorId,RangeHolderId,OldRoute,NewRoute,PortDate,RowCount
1000000000345255,77082728877,mMTS,mAltel,mAltel,,D77,2017-03-12T13:00:35+06:00,9
1000000000345256,77071230108,mKarTel,mMTS,mMTS,,D01,2017-03-12T13:02:35+06:00,
1000000000345259,77055967682,mKarTel,mAltel,mKarTel,D07,D01,2017-03-12T13:06:01+06:00,
1000000000345261,77759029390,mAltel,mKcell,mKcell,,D07,2017-03-12T13:11:24+06:00,
1000000000345262,77077238112,mKarTel,mMTS,mMTS,,D01,2017-03-12T13:17:53+06:00,
1000000000345263,77765555138,mAltel,mKarTel,mKarTel,,D07,2017-03-12T13:18:55+06:00,
1000000000345264,77071020411,mKcell,mMTS,mMTS,,D02,2017-03-12T13:26:56+06:00,
1000000000345265,77013217550,mMTS,mKcell,mKcell,,D77,2017-03-12T13:27:55+06:00,
1000000000345266,77007667076,mKarTel,mAltel,mAltel,,D01,2017-03-12T13:28:42+06:00,
