NPId,Number,RecipientId,DonorId,RangeHolderId,OldRoute,NewRoute,PortDate,RowCount
1000000000122641,77772646866,mKcell,mKarTel,mKarTel,,D02,2016-03-11T16:30:33+06:00,33
1000000000122642,77019623538,mMTS,mKcell,mKcell,,D77,2016-03-11T16:30:19+06:00,
1000000000122643,77014431744,mKarTel,mKcell,mKcell,,D01,2016-03-11T16:31:27+06:00,
1000000000122646,77054611210,mAltel,mKarTel,mKarTel,,D07,2016-03-11T16:33:26+06:00,
1000000000122650,77019338805,mAltel,mKcell,mKcell,,D07,2016-03-11T16:35:50+06:00,
1000000000122651,77075964481,mKcell,mMTS,mMTS,,D02,2016-03-11T16:36:05+06:00,
1000000000122653,77759505511,mMTS,mKcell,mKcell,,D77,2016-03-11T16:37:13+06:00,
1000000000122657,77782222334,mMTS,mKcell,mKcell,,D77,2016-03-11T16:40:02+06:00,
1000000000122658,77786357777,mAltel,mKcell,mKcell,,D07,2016-03-11T16:40:02+06:00,
1000000000122661,77014441483,mAltel,mKcell,mKcell,,D07,2016-03-11T16:41:05+06:00,
1000000000122662,77072297660,mKarTel,mMTS,mMTS,,D01,2016-03-11T16:41:09+06:00,
1000000000122663,77058772767,mMTS,mKarTel,mKarTel,,D77,2016-03-11T16:42:20+06:00,
1000000000122665,77758891896,mAltel,mKcell,mKcell,,D07,2016-03-11T16:43:45+06:00,
1000000000122667,77026838129,mAltel,mKcell,mKcell,,D07,2016-03-11T16:43:45+06:00,
1000000000122669,77057199997,mMTS,mKarTel,mKarTel,,D77,2016-03-11T16:45:30+06:00,
1000000000122671,77088333016,mKcell,mAltel,mAltel,,D02,2016-03-11T16:46:04+06:00,
1000000000122674,77057199996,mMTS,mKarTel,mKarTel,,D77,2016-03-11T16:47:41+06:00,
1000000000122675,77013178585,mKarTel,mKcell,mKcell,,D01,2016-03-11T16:48:18+06:00,
1000000000122676,77017650588,mAltel,mKcell,mKcell,,D07,2016-03-11T16:48:13+06:00,
1000000000122679,77076657099,mKarTel,mMTS,mMTS,,D01,2016-03-11T16:48:30+06:00,
1000000000122680,77072750033,mAltel,mMTS,mMTS,,D07,2016-03-11T16:48:19+06:00,
1000000000122683,77010771707,mKarTel,mKcell,mKcell,,D01,2016-03-11T16:49:12+06:00,
1000000000122684,77778617044,mAltel,mKarTel,mKarTel,,D07,2016-03-11T16:49:36+06:00,
1000000000122686,77059632223,mMTS,mKarTel,mKarTel,,D77,2016-03-11T16:50:14+06:00,
1000000000122687,77755228600,mAltel,mKcell,mKcell,,D07,2016-03-11T16:50:06+06:00,
1000000000122690,77012281620,mKarTel,mKcell,mKcell,,D01,2016-03-11T16:51:15+06:00,
1000000000122691,77021330412,mMTS,mKcell,mKcell,,D77,2016-03-11T16:51:00+06:00,
1000000000122692,77783000016,mKarTel,mKcell,mKcell,,D01,2016-03-11T16:51:45+06:00,
1000000000122697,77783949400,mAltel,mKcell,mKcell,,D07,2016-03-11T16:54:56+06:00,
1000000000122703,77773579725,mMTS,mKarTel,mKarTel,,D77,2016-03-11T16:58:37+06:00,
1000000000122704,77017341166,mKcell,mAltel,mKcell,D07,D02,2016-03-11T16:58:50+06:00,
1000000000122705,77774977102,mMTS,mKarTel,mKarTel,,D77,2016-03-11T16:59:17+06:00,
1000000000122706,77026420000,mAltel,mKcell,mKcell,,D07,2016-03-11T16:59:48+06:00,
