NPId,Number,RecipientId,DonorId,RangeHolderId,OldRoute,NewRoute,PortDate,RowCount
1000000000403859,77478794966,mAltel,mMTS,mMTS,,D07,2017-06-15T16:02:02+06:00,15
1000000000403862,77754772731,mKarTel,mMTS,mKcell,D77,D01,2017-06-15T16:06:46+06:00,
1000000000403863,77004504030,mKcell,mAltel,mAltel,,D02,2017-06-15T16:07:16+06:00,
1000000000403864,77029911999,mAltel,mKcell,mKcell,,D07,2017-06-15T16:07:16+06:00,
1000000000403865,77071280068,mAltel,mMTS,mMTS,,D07,2017-06-15T16:07:21+06:00,
1000000000403866,77712902245,mMTS,mKarTel,mKarTel,,D77,2017-06-15T16:09:09+06:00,
1000000000403867,77003363841,mKarTel,mAltel,mAltel,,D01,2017-06-15T16:09:35+06:00,
1000000000403871,77772279048,mMTS,mKarTel,mKarTel,,D77,2017-06-15T16:13:09+06:00,
1000000000403872,77015229643,mMTS,mKcell,mKcell,,D77,2017-06-15T16:13:31+06:00,
1000000000403875,77773012299,mKarTel,mMTS,mKarTel,D77,D01,2017-06-15T16:21:05+06:00,
1000000000403876,77071509610,mKarTel,mMTS,mMTS,,D01,2017-06-15T16:26:33+06:00,
1000000000403878,77712870187,mMTS,mKarTel,mKarTel,,D77,2017-06-15T16:27:52+06:00,
1000000000403879,77013579245,mKcell,mMTS,mKcell,D77,D02,2017-06-15T16:28:10+06:00,
1000000000403880,77079248934,mKcell,mMTS,mMTS,,D02,2017-06-15T16:29:17+06:00,
1000000000403881,77018388888,mAltel,mKcell,mKcell,,D07,2017-06-15T16:29:33+06:00,
