NPId,Number,RecipientId,DonorId,RangeHolderId,OldRoute,NewRoute,PortDate,RowCount
1000000000249358,77010526267,mKarTel,mKcell,mKcell,,D01,2016-09-22T16:12:58+06:00,20
1000000000249358,77012237247,mKarTel,mKcell,mKcell,,D01,2016-09-22T16:12:58+06:00,
1000000000249358,77015266126,mKarTel,mKcell,mKcell,,D01,2016-09-22T16:12:58+06:00,
1000000000249358,77019602140,mKarTel,mKcell,mKcell,,D01,2016-09-22T16:12:58+06:00,
1000000000249358,77019717158,mKarTel,mKcell,mKcell,,D01,2016-09-22T16:12:58+06:00,
1000000000249358,77019717198,mKarTel,mKcell,mKcell,,D01,2016-09-22T16:12:58+06:00,
1000000000249358,77022189389,mKarTel,mKcell,mKcell,,D01,2016-09-22T16:12:58+06:00,
1000000000249617,77007242553,mAltel,mMTS,mAltel,D77,D07,2016-09-22T16:01:12+06:00,
1000000000249618,77018192021,mAltel,mKcell,mKcell,,D07,2016-09-22T16:02:46+06:00,
1000000000249619,77012921000,mKarTel,mKcell,mKcell,,D01,2016-09-22T16:05:02+06:00,
1000000000249620,77021355820,mKarTel,mKcell,mKcell,,D01,2016-09-22T16:05:02+06:00,
1000000000249623,77019287994,mKcell,mMTS,mKcell,D77,D02,2016-09-22T16:09:20+06:00,
1000000000249624,77057644244,mMTS,mKarTel,mKarTel,,D77,2016-09-22T16:10:40+06:00,
1000000000249625,77075172800,mMTS,mAltel,mMTS,D07,D77,2016-09-22T16:12:30+06:00,
1000000000249627,77476981009,mAltel,mMTS,mMTS,,D07,2016-09-22T16:16:04+06:00,
1000000000249628,77087777947,mKarTel,mMTS,mAltel,D77,D01,2016-09-22T16:21:23+06:00,
1000000000249629,77003679981,mMTS,mAltel,mAltel,,D77,2016-09-22T16:23:52+06:00,
1000000000249630,77714088277,mAltel,mKarTel,mKarTel,,D07,2016-09-22T16:25:36+06:00,
1000000000249632,77005554507,mKcell,mAltel,mAltel,,D02,2016-09-22T16:28:45+06:00,
1000000000249633,77075255422,mKarTel,mMTS,mMTS,,D01,2016-09-22T16:29:44+06:00,
