NPId,Number,RecipientId,DonorId,RangeHolderId,OldRoute,NewRoute,PortDate,RowCount
1000000000300439,77786140007,mKarTel,mKcell,mKcell,,D01,2016-12-25T16:00:18+06:00,12
1000000000300444,77779877600,mKarTel,mMTS,mKarTel,D77,D01,2016-12-25T16:00:48+06:00,
1000000000300445,77017077720,mMTS,mKcell,mKcell,,D77,2016-12-25T16:01:08+06:00,
1000000000300446,77016873887,mAltel,mKcell,mKcell,,D07,2016-12-25T16:04:06+06:00,
1000000000300451,77758229003,mMTS,mKcell,mKcell,,D77,2016-12-25T16:09:59+06:00,
1000000000300452,77019321613,mKcell,mMTS,mKcell,D77,D02,2016-12-25T16:12:39+06:00,
1000000000300453,77019393939,mMTS,mKcell,mKcell,,D77,2016-12-25T16:13:19+06:00,
1000000000300454,77019434397,mMTS,mKcell,mKcell,,D77,2016-12-25T16:14:13+06:00,
1000000000300455,77021686896,mMTS,mKcell,mKcell,,D77,2016-12-25T16:17:46+06:00,
1000000000300456,77754134143,mMTS,mKcell,mKcell,,D77,2016-12-25T16:18:25+06:00,
1000000000300458,77054609740,mMTS,mKarTel,mKarTel,,D77,2016-12-25T16:22:57+06:00,
1000000000300459,77074445514,mMTS,mKcell,mMTS,D02,D77,2016-12-25T16:29:07+06:00,
