NPId,Number,RecipientId,DonorId,RangeHolderId,OldRoute,NewRoute,PortDate,RowCount
1000000000419331,77076940605,mKarTel,mMTS,mMTS,,D01,2017-07-10T18:03:23+06:00,27
1000000000419332,77012845241,mKarTel,mKcell,mKcell,,D01,2017-07-10T18:03:50+06:00,
1000000000419333,77087733975,mKarTel,mMTS,mAltel,D77,D01,2017-07-10T18:03:50+06:00,
1000000000419334,77022483493,mMTS,mKcell,mKcell,,D77,2017-07-10T18:03:57+06:00,
1000000000419335,77473399972,mKcell,mMTS,mMTS,,D02,2017-07-10T18:05:37+06:00,
1000000000419336,77087733976,mKarTel,mMTS,mAltel,D77,D01,2017-07-10T18:05:36+06:00,
1000000000419337,77014206085,mKcell,mMTS,mKcell,D77,D02,2017-07-10T18:07:03+06:00,
1000000000419339,77013848422,mKarTel,mKcell,mKcell,,D01,2017-07-10T18:07:52+06:00,
1000000000419340,77076062911,mAltel,mMTS,mMTS,,D07,2017-07-10T18:08:22+06:00,
1000000000419341,77014149869,mKarTel,mKcell,mKcell,,D01,2017-07-10T18:09:22+06:00,
1000000000419342,77754011717,mKcell,mAltel,mKcell,D07,D02,2017-07-10T18:10:05+06:00,
1000000000419343,77773443300,mKarTel,mMTS,mKarTel,D77,D01,2017-07-10T18:10:23+06:00,
1000000000419344,77778132222,mAltel,mKarTel,mKarTel,,D07,2017-07-10T18:13:05+06:00,
1000000000419346,77759972901,mKarTel,mKcell,mKcell,,D01,2017-07-10T18:14:29+06:00,
1000000000419347,77473777717,mKcell,mAltel,mMTS,D07,D02,2017-07-10T18:15:02+06:00,
1000000000419349,77078881234,mMTS,mKcell,mMTS,D02,D77,2017-07-10T18:16:46+06:00,
1000000000419351,77053118899,mAltel,mKarTel,mKarTel,,D07,2017-07-10T18:18:05+06:00,
1000000000419353,77007332525,mKcell,mAltel,mAltel,,D02,2017-07-10T18:20:34+06:00,
1000000000419355,77784596151,mMTS,mKcell,mKcell,D02,D77,2017-07-10T18:20:49+06:00,
1000000000419356,77078176621,mKarTel,mMTS,mMTS,,D01,2017-07-10T18:22:24+06:00,
1000000000419358,77023228164,mAltel,mKcell,mKcell,,D07,2017-07-10T18:22:53+06:00,
1000000000419359,77712062757,mMTS,mKarTel,mKarTel,,D77,2017-07-10T18:23:19+06:00,
1000000000419360,77786667557,mKarTel,mKcell,mKcell,,D01,2017-07-10T18:25:23+06:00,
1000000000419362,77072270108,mAltel,mMTS,mMTS,,D07,2017-07-10T18:28:44+06:00,
1000000000419364,77024102543,mMTS,mKcell,mKcell,,D77,2017-07-10T18:29:04+06:00,
1000000000419365,77073730301,mMTS,mKcell,mMTS,D02,D77,2017-07-10T18:29:53+06:00,
1000000000419366,77475139894,mAltel,mMTS,mMTS,,D07,2017-07-10T18:29:50+06:00,
