NPId,Number,RecipientId,DonorId,RangeHolderId,OldRoute,NewRoute,PortDate,RowCount
1000000000428283,77010343607,mKarTel,mKcell,mKcell,,D01,2017-07-26T14:54:53+06:00,28
1000000000428283,77010346985,mKarTel,mKcell,mKcell,,D01,2017-07-26T14:54:53+06:00,
1000000000428283,77010349985,mKarTel,mKcell,mKcell,,D01,2017-07-26T14:54:53+06:00,
1000000000428283,77015067334,mKarTel,mKcell,mKcell,,D01,2017-07-26T14:54:53+06:00,
1000000000428283,77015067335,mKarTel,mKcell,mKcell,,D01,2017-07-26T14:54:53+06:00,
1000000000428283,77015347863,mKarTel,mKcell,mKcell,,D01,2017-07-26T14:54:53+06:00,
1000000000428561,77087000795,mKarTel,mAltel,mAltel,,D01,2017-07-26T14:32:48+06:00,
1000000000428563,77077638782,mKarTel,mMTS,mMTS,,D01,2017-07-26T14:34:01+06:00,
1000000000428565,77053246102,mMTS,mKarTel,mKarTel,,D77,2017-07-26T14:38:05+06:00,
1000000000428566,77786111009,mKarTel,mKcell,mKcell,,D01,2017-07-26T14:38:04+06:00,
1000000000428569,77752503575,mMTS,mKcell,mKcell,,D77,2017-07-26T14:40:31+06:00,
1000000000428571,77086636140,mMTS,mAltel,mAltel,,D77,2017-07-26T14:44:14+06:00,
1000000000428572,77015595694,mMTS,mKcell,mKcell,,D77,2017-07-26T14:45:07+06:00,
1000000000428575,77086636142,mMTS,mAltel,mAltel,,D77,2017-07-26T14:47:27+06:00,
1000000000428576,77770720710,mKarTel,mMTS,mKarTel,D77,D01,2017-07-26T14:47:45+06:00,
1000000000428577,77777910949,mKcell,mKarTel,mKarTel,,D02,2017-07-26T14:48:28+06:00,
1000000000428578,77086636147,mMTS,mAltel,mAltel,,D77,2017-07-26T14:50:51+06:00,
1000000000428581,77750901635,mMTS,mKcell,mKcell,,D77,2017-07-26T14:52:15+06:00,
1000000000428582,77086636152,mMTS,mAltel,mAltel,,D77,2017-07-26T14:52:11+06:00,
1000000000428583,77024794448,mKarTel,mKcell,mKcell,,D01,2017-07-26T14:53:26+06:00,
1000000000428584,77086636159,mMTS,mAltel,mAltel,,D77,2017-07-26T14:53:33+06:00,
1000000000428585,77001858888,mMTS,mKcell,mAltel,D02,D77,2017-07-26T14:54:52+06:00,
1000000000428586,77755225464,mAltel,mKcell,mKcell,,D07,2017-07-26T14:54:57+06:00,
1000000000428587,77086636108,mMTS,mAltel,mAltel,,D77,2017-07-26T14:54:58+06:00,
1000000000428588,77771165118,mKcell,mKarTel,mKarTel,,D02,2017-07-26T14:56:17+06:00,
1000000000428589,77003362939,mMTS,mAltel,mAltel,,D77,2017-07-26T14:56:05+06:00,
1000000000428590,77017777816,mKarTel,mKcell,mKcell,,D01,2017-07-26T14:58:22+06:00,
1000000000428592,77086636114,mMTS,mAltel,mAltel,,D77,2017-07-26T14:59:55+06:00,
