NPId,Number,RecipientId,DonorId,RangeHolderId,OldRoute,NewRoute,PortDate,RowCount
1000000000059462,77016640362,mMTS,mKcell,mKcell,,D77,2016-02-16T08:41:22+06:00,2
1000000000059465,77051110666,mMTS,mKarTel,mKarTel,,D77,2016-02-16T08:52:07+06:00,
