NPId,Number,RecipientId,DonorId,RangeHolderId,OldRoute,NewRoute,PortDate,RowCount
1000000000161376,77717023988,mKcell,mKarTel,mKarTel,,D02,2016-04-27T12:02:20+06:00,34
1000000000161376,77717023989,mKcell,mKarTel,mKarTel,,D02,2016-04-27T12:02:20+06:00,
1000000000161376,77772164960,mKcell,mKarTel,mKarTel,,D02,2016-04-27T12:02:20+06:00,
1000000000161376,77772167026,mKcell,mKarTel,mKarTel,,D02,2016-04-27T12:02:20+06:00,
1000000000161376,77772167027,mKcell,mKarTel,mKarTel,,D02,2016-04-27T12:02:20+06:00,
1000000000161376,77772167029,mKcell,mKarTel,mKarTel,,D02,2016-04-27T12:02:20+06:00,
1000000000161376,77772800697,mKcell,mKarTel,mKarTel,,D02,2016-04-27T12:02:20+06:00,
1000000000161376,77773552226,mKcell,mKarTel,mKarTel,,D02,2016-04-27T12:02:20+06:00,
1000000000161376,77773701461,mKcell,mKarTel,mKarTel,,D02,2016-04-27T12:02:20+06:00,
1000000000161376,77773701462,mKcell,mKarTel,mKarTel,,D02,2016-04-27T12:02:20+06:00,
1000000000161376,77777807400,mKcell,mKarTel,mKarTel,,D02,2016-04-27T12:02:20+06:00,
1000000000161376,77777807401,mKcell,mKarTel,mKarTel,,D02,2016-04-27T12:02:20+06:00,
1000000000161376,77777807402,mKcell,mKarTel,mKarTel,,D02,2016-04-27T12:02:20+06:00,
1000000000161399,77014440283,mMTS,mKcell,mKcell,,D77,2016-04-27T12:00:27+06:00,
1000000000161401,77012227444,mAltel,mKcell,mKcell,,D07,2016-04-27T12:03:11+06:00,
1000000000161403,77055753040,mKarTel,mAltel,mKarTel,D07,D01,2016-04-27T12:04:18+06:00,
1000000000161407,77082560220,mKcell,mAltel,mAltel,,D02,2016-04-27T12:06:28+06:00,
1000000000161408,77082130834,mKarTel,mAltel,mAltel,,D01,2016-04-27T12:06:12+06:00,
1000000000161409,77710158232,mKcell,mKarTel,mKarTel,,D02,2016-04-27T12:24:45+06:00,
1000000000161409,77710963614,mKcell,mKarTel,mKarTel,,D02,2016-04-27T12:24:45+06:00,
1000000000161409,77765345777,mKcell,mKarTel,mKarTel,,D02,2016-04-27T12:24:45+06:00,
1000000000161409,77768067838,mKcell,mKarTel,mKarTel,,D02,2016-04-27T12:24:45+06:00,
1000000000161409,77769843486,mKcell,mKarTel,mKarTel,,D02,2016-04-27T12:24:45+06:00,
1000000000161411,77081555405,mMTS,mAltel,mAltel,,D77,2016-04-27T12:07:19+06:00,
1000000000161412,77028284008,mKarTel,mKcell,mKcell,,D01,2016-04-27T12:09:30+06:00,
1000000000161414,77777913898,mKcell,mKarTel,mKarTel,,D02,2016-04-27T12:11:20+06:00,
1000000000161415,77786399888,mMTS,mKcell,mKcell,,D77,2016-04-27T12:12:22+06:00,
1000000000161416,77055037568,mMTS,mKarTel,mKarTel,,D77,2016-04-27T12:12:22+06:00,
1000000000161417,77751640419,mKarTel,mKcell,mKcell,,D01,2016-04-27T12:18:26+06:00,
1000000000161418,77774670006,mMTS,mKarTel,mKarTel,,D77,2016-04-27T12:12:23+06:00,
1000000000161419,77081040090,mKcell,mAltel,mAltel,,D02,2016-04-27T12:13:46+06:00,
1000000000161420,77769072079,mKcell,mKarTel,mKarTel,,D02,2016-04-27T12:14:11+06:00,
1000000000161434,77777534505,mMTS,mKarTel,mKarTel,,D77,2016-04-27T12:26:30+06:00,
1000000000161437,77056265182,mMTS,mKarTel,mKarTel,,D77,2016-04-27T12:27:56+06:00,
