NPId,Number,RecipientId,DonorId,RangeHolderId,OldRoute,NewRoute,PortDate,RowCount
1000000000216152,77022931115,mMTS,mKcell,mKcell,,D77,2016-07-23T17:01:23+06:00,19
1000000000216153,77755509050,mMTS,mKcell,mKcell,,D77,2016-07-23T17:02:06+06:00,
1000000000216154,77026807904,mAltel,mKcell,mKcell,,D07,2016-07-23T17:03:15+06:00,
1000000000216157,77754721887,mKcell,mMTS,mKcell,D77,D02,2016-07-23T17:05:49+06:00,
1000000000216158,77019149520,mKarTel,mKcell,mKcell,,D01,2016-07-23T17:07:07+06:00,
1000000000216159,77019079023,mMTS,mKcell,mKcell,,D77,2016-07-23T17:07:22+06:00,
1000000000216160,77002711088,mAltel,mMTS,mAltel,D77,D07,2016-07-23T17:08:57+06:00,
1000000000216161,77075056506,mKarTel,mMTS,mMTS,,D01,2016-07-23T17:09:35+06:00,
1000000000216164,77715220709,mMTS,mKarTel,mKarTel,,D77,2016-07-23T17:11:44+06:00,
1000000000216165,77058046809,mMTS,mKarTel,mKarTel,,D77,2016-07-23T17:12:05+06:00,
1000000000216166,77777769166,mMTS,mKarTel,mKarTel,,D77,2016-07-23T17:12:09+06:00,
1000000000216167,77000242400,mMTS,mAltel,mAltel,,D77,2016-07-23T17:12:11+06:00,
1000000000216168,77783105829,mMTS,mKcell,mKcell,,D77,2016-07-23T17:12:18+06:00,
1000000000216169,77779991890,mKcell,mKarTel,mKarTel,,D02,2016-07-23T17:16:43+06:00,
1000000000216170,77017577737,mKcell,mMTS,mKcell,D77,D02,2016-07-23T17:16:49+06:00,
1000000000216172,77081993218,mMTS,mAltel,mAltel,,D77,2016-07-23T17:20:01+06:00,
1000000000216173,77054506488,mMTS,mKarTel,mKarTel,,D77,2016-07-23T17:22:40+06:00,
1000000000216175,77029329909,mMTS,mKcell,mKcell,,D77,2016-07-23T17:24:50+06:00,
1000000000216178,77014158648,mMTS,mKcell,mKcell,,D77,2016-07-23T17:29:41+06:00,
