NPId,Number,RecipientId,DonorId,RangeHolderId,OldRoute,NewRoute,PortDate,RowCount
1000000000304254,77015050355,mMTS,mKcell,mKcell,,D77,2017-01-02T13:03:31+06:00,10
1000000000304255,77051718050,mMTS,mKarTel,mKarTel,,D77,2017-01-02T13:04:21+06:00,
1000000000304256,77025999597,mKcell,mAltel,mKcell,D07,D02,2017-01-02T13:05:03+06:00,
1000000000304257,77085185187,mMTS,mKarTel,mAltel,D01,D77,2017-01-02T13:07:48+06:00,
1000000000304259,77019628212,mKarTel,mKcell,mKcell,,D01,2017-01-02T13:09:40+06:00,
1000000000304260,77019435131,mKarTel,mKcell,mKcell,,D01,2017-01-02T13:11:39+06:00,
1000000000304261,77756757351,mKarTel,mKcell,mKcell,,D01,2017-01-02T13:12:20+06:00,
1000000000304263,77711987626,mMTS,mKarTel,mKarTel,,D77,2017-01-02T13:19:16+06:00,
1000000000304264,77757117201,mMTS,mKcell,mKcell,,D77,2017-01-02T13:25:09+06:00,
1000000000304266,77028979898,mAltel,mKcell,mKcell,,D07,2017-01-02T13:26:07+06:00,
