NPId,Number,RecipientId,DonorId,RangeHolderId,OldRoute,NewRoute,PortDate,RowCount
1000000000172471,77714097203,mKcell,mKarTel,mKarTel,,D02,2016-05-12T12:00:30+06:00,41
1000000000172472,77777052111,mAltel,mKarTel,mKarTel,,D07,2016-05-12T12:00:38+06:00,
1000000000172474,77017371616,mKarTel,mAltel,mKcell,D07,D01,2016-05-12T12:00:51+06:00,
1000000000172475,77003310272,mMTS,mAltel,mAltel,,D77,2016-05-12T12:00:58+06:00,
1000000000172476,77755757989,mMTS,mKcell,mKcell,,D77,2016-05-12T12:01:22+06:00,
1000000000172477,77077180869,mKcell,mMTS,mMTS,,D02,2016-05-12T12:01:41+06:00,
1000000000172479,77015226476,mKarTel,mKcell,mKcell,,D01,2016-05-12T12:01:33+06:00,
1000000000172480,77754307776,mKarTel,mKcell,mKcell,,D01,2016-05-12T12:01:51+06:00,
1000000000172481,77017559832,mKarTel,mKcell,mKcell,,D01,2016-05-12T12:02:16+06:00,
1000000000172482,77088072522,mMTS,mAltel,mAltel,,D77,2016-05-12T12:02:29+06:00,
1000000000172484,77023999093,mMTS,mKcell,mKcell,,D77,2016-05-12T12:06:13+06:00,
1000000000172485,77777771969,mKcell,mKarTel,mKarTel,,D02,2016-05-12T12:22:44+06:00,
1000000000172486,77078820578,mKcell,mMTS,mMTS,,D02,2016-05-12T12:07:00+06:00,
1000000000172487,77772272000,mMTS,mKarTel,mKarTel,,D77,2016-05-12T12:07:23+06:00,
1000000000172488,77712815480,mKarTel,mMTS,mKarTel,D77,D01,2016-05-12T12:08:46+06:00,
1000000000172489,77015588222,mKcell,mAltel,mKcell,D07,D02,2016-05-12T12:09:33+06:00,
1000000000172491,77073338633,mAltel,mMTS,mMTS,,D07,2016-05-12T12:10:32+06:00,
1000000000172493,77015226234,mKcell,mMTS,mKcell,D77,D02,2016-05-12T12:13:17+06:00,
1000000000172493,77017588721,mKcell,mMTS,mKcell,D77,D02,2016-05-12T12:13:17+06:00,
1000000000172493,77017588722,mKcell,mMTS,mKcell,D77,D02,2016-05-12T12:13:17+06:00,
1000000000172493,77017588723,mKcell,mMTS,mKcell,D77,D02,2016-05-12T12:13:17+06:00,
1000000000172493,77017588724,mKcell,mMTS,mKcell,D77,D02,2016-05-12T12:13:17+06:00,
1000000000172493,77017588726,mKcell,mMTS,mKcell,D77,D02,2016-05-12T12:13:17+06:00,
1000000000172493,77017588730,mKcell,mMTS,mKcell,D77,D02,2016-05-12T12:13:17+06:00,
1000000000172493,77019492610,mKcell,mMTS,mKcell,D77,D02,2016-05-12T12:13:17+06:00,
1000000000172494,77772397774,mMTS,mKarTel,mKarTel,,D77,2016-05-12T12:12:19+06:00,
1000000000172495,77087580562,mKarTel,mAltel,mAltel,,D01,2016-05-12T12:12:12+06:00,
1000000000172496,77014801624,mMTS,mKcell,mKcell,,D77,2016-05-12T12:12:21+06:00,
1000000000172497,77770253232,mMTS,mKarTel,mKarTel,,D77,2016-05-12T12:14:45+06:00,
1000000000172499,77015588000,mKcell,mAltel,mKcell,D07,D02,2016-05-12T12:16:07+06:00,
1000000000172500,77769151818,mKarTel,mKcell,mKarTel,D02,D01,2016-05-12T12:16:01+06:00,
1000000000172501,77014444397,mKcell,mAltel,mKcell,D07,D02,2016-05-12T12:18:03+06:00,
1000000000172502,77016844031,mMTS,mKcell,mKcell,,D77,2016-05-12T12:19:31+06:00,
1000000000172503,77089116747,mMTS,mAltel,mAltel,,D77,2016-05-12T12:19:05+06:00,
1000000000172504,77023100440,mKarTel,mKcell,mKcell,,D01,2016-05-12T12:19:58+06:00,
1000000000172505,77081772993,mMTS,mAltel,mAltel,,D77,2016-05-12T12:19:23+06:00,
1000000000172507,77072780001,mKarTel,mMTS,mMTS,,D01,2016-05-12T12:23:25+06:00,
1000000000172508,77003623557,mMTS,mAltel,mAltel,,D77,2016-05-12T12:23:32+06:00,
1000000000172509,77773502164,mMTS,mKarTel,mKarTel,,D77,2016-05-12T12:24:49+06:00,
1000000000172510,77019178596,mKarTel,mKcell,mKcell,,D01,2016-05-12T12:25:34+06:00,
1000000000172511,77773080859,mKarTel,mKcell,mKarTel,D02,D01,2016-05-12T12:26:12+06:00,
