NPId,Number,RecipientId,DonorId,RangeHolderId,OldRoute,NewRoute,PortDate,RowCount
1000000000304188,77017331659,mKarTel,mKcell,mKcell,,D01,2017-01-04T11:05:21+06:00,45
1000000000304188,77017555176,mKarTel,mKcell,mKcell,,D01,2017-01-04T11:05:21+06:00,
1000000000304908,77017426236,mAltel,mKcell,mKcell,,D07,2017-01-04T11:25:15+06:00,
1000000000304909,77017426249,mAltel,mKcell,mKcell,,D07,2017-01-04T11:25:15+06:00,
1000000000304910,77017426279,mAltel,mKcell,mKcell,,D07,2017-01-04T11:25:03+06:00,
1000000000304911,77017426247,mAltel,mKcell,mKcell,,D07,2017-01-04T11:25:08+06:00,
1000000000304912,77017426297,mAltel,mKcell,mKcell,,D07,2017-01-04T11:24:51+06:00,
1000000000304913,77017426293,mAltel,mKcell,mKcell,,D07,2017-01-04T11:24:42+06:00,
1000000000304914,77017426268,mAltel,mKcell,mKcell,,D07,2017-01-04T11:24:42+06:00,
1000000000304915,77017426248,mAltel,mKcell,mKcell,,D07,2017-01-04T11:24:43+06:00,
1000000000304917,77017426313,mAltel,mKcell,mKcell,,D07,2017-01-04T11:24:32+06:00,
1000000000304918,77012030014,mAltel,mKcell,mKcell,,D07,2017-01-04T11:24:24+06:00,
1000000000304920,77010590125,mAltel,mKcell,mKcell,,D07,2017-01-04T11:24:14+06:00,
1000000000304921,77010590126,mAltel,mKcell,mKcell,,D07,2017-01-04T11:24:12+06:00,
1000000000304922,77010590128,mAltel,mKcell,mKcell,,D07,2017-01-04T11:24:05+06:00,
1000000000304924,77017426356,mAltel,mKcell,mKcell,,D07,2017-01-04T11:24:05+06:00,
1000000000304925,77017426281,mAltel,mKcell,mKcell,,D07,2017-01-04T11:23:22+06:00,
1000000000304926,77017426289,mAltel,mKcell,mKcell,,D07,2017-01-04T11:23:32+06:00,
1000000000304927,77017426283,mAltel,mKcell,mKcell,,D07,2017-01-04T11:23:55+06:00,
1000000000304928,77017426241,mAltel,mKcell,mKcell,,D07,2017-01-04T11:23:59+06:00,
1000000000304956,77017426294,mAltel,mKcell,mKcell,,D07,2017-01-04T11:23:58+06:00,
1000000000304958,77022162272,mAltel,mKcell,mKcell,,D07,2017-01-04T11:23:55+06:00,
1000000000304960,77017426376,mAltel,mKcell,mKcell,,D07,2017-01-04T11:24:00+06:00,
1000000000304984,77025899297,mMTS,mKcell,mKcell,,D77,2017-01-04T11:00:37+06:00,
1000000000304985,77711025838,mMTS,mKarTel,mKarTel,,D77,2017-01-04T11:02:13+06:00,
1000000000304986,77753382247,mKcell,mMTS,mKcell,D77,D02,2017-01-04T11:03:39+06:00,
1000000000304987,77027172888,mKcell,mKarTel,mKcell,D01,D02,2017-01-04T11:05:12+06:00,
1000000000304989,77059772223,mAltel,mKarTel,mKarTel,,D07,2017-01-04T11:05:46+06:00,
1000000000304990,77016631330,mKarTel,mKcell,mKcell,,D01,2017-01-04T11:06:01+06:00,
1000000000304991,77753501393,mMTS,mKcell,mKcell,,D77,2017-01-04T11:06:52+06:00,
1000000000304992,77017044455,mMTS,mKcell,mKcell,,D77,2017-01-04T11:08:55+06:00,
1000000000304993,77051888449,mMTS,mKarTel,mKarTel,D01,D77,2017-01-04T11:09:20+06:00,
1000000000304994,77773161611,mMTS,mKarTel,mKarTel,D01,D77,2017-01-04T11:09:26+06:00,
1000000000304995,77017266388,mKcell,mMTS,mKcell,D77,D02,2017-01-04T11:10:10+06:00,
1000000000304997,77085210852,mKarTel,mAltel,mAltel,D07,D01,2017-01-04T11:12:05+06:00,
1000000000304999,77055829277,mKcell,mKarTel,mKarTel,,D02,2017-01-04T11:14:49+06:00,
1000000000305000,77758173163,mKcell,mMTS,mKcell,D77,D02,2017-01-04T11:16:10+06:00,
1000000000305002,77012257525,mKcell,mMTS,mKcell,D77,D02,2017-01-04T11:16:44+06:00,
1000000000305004,77078395848,mKcell,mMTS,mMTS,,D02,2017-01-04T11:20:06+06:00,
1000000000305005,77025000820,mKcell,mKarTel,mKcell,D01,D02,2017-01-04T11:21:23+06:00,
1000000000305006,77027089898,mKarTel,mKcell,mKcell,,D01,2017-01-04T11:22:01+06:00,
1000000000305007,77015836317,mKcell,mKarTel,mKcell,D01,D02,2017-01-04T11:22:50+06:00,
1000000000305008,77082011617,mAltel,mMTS,mAltel,D77,D07,2017-01-04T11:24:27+06:00,
1000000000305009,77079800009,mKarTel,mMTS,mMTS,,D01,2017-01-04T11:25:40+06:00,
1000000000305010,77022167602,mKcell,mMTS,mKcell,D77,D02,2017-01-04T11:29:47+06:00,
