NPId,Number,RecipientId,DonorId,RangeHolderId,OldRoute,NewRoute,PortDate,RowCount
1000000000155720,77012227282,mKarTel,mKcell,mKcell,,D01,2016-04-19T16:47:05+06:00,31
1000000000155830,77086240788,mMTS,mAltel,mAltel,,D77,2016-04-19T16:32:58+06:00,
1000000000155833,77029226090,mKcell,mAltel,mKcell,D07,D02,2016-04-19T16:34:27+06:00,
1000000000155834,77071897515,mKarTel,mMTS,mMTS,,D01,2016-04-19T16:35:47+06:00,
1000000000155835,77772854684,mMTS,mKarTel,mKarTel,,D77,2016-04-19T16:36:00+06:00,
1000000000155836,77081331808,mMTS,mAltel,mAltel,,D77,2016-04-19T16:35:46+06:00,
1000000000155837,77710330383,mKcell,mKarTel,mKarTel,,D02,2016-04-19T16:37:36+06:00,
1000000000155838,77051278787,mMTS,mKarTel,mKarTel,,D77,2016-04-19T16:37:00+06:00,
1000000000155840,77777704134,mMTS,mKarTel,mKarTel,,D77,2016-04-19T16:38:11+06:00,
1000000000155841,77002645299,mKarTel,mAltel,mAltel,,D01,2016-04-19T16:38:48+06:00,
1000000000155842,77710335942,mKcell,mKarTel,mKarTel,,D02,2016-04-19T16:39:56+06:00,
1000000000155844,77001117795,mMTS,mAltel,mAltel,,D77,2016-04-19T16:40:51+06:00,
1000000000155845,77023333266,mKarTel,mKcell,mKcell,,D01,2016-04-19T16:41:25+06:00,
1000000000155847,77017101419,mMTS,mKcell,mKcell,,D77,2016-04-19T16:42:22+06:00,
1000000000155848,77773715721,mKcell,mKarTel,mKarTel,,D02,2016-04-19T16:43:53+06:00,
1000000000155849,77010677770,mKcell,mAltel,mKcell,D07,D02,2016-04-19T16:46:36+06:00,
1000000000155851,77089139440,mMTS,mAltel,mAltel,,D77,2016-04-19T16:46:23+06:00,
1000000000155854,77022564155,mMTS,mAltel,mKcell,D07,D77,2016-04-19T16:46:59+06:00,
1000000000155855,77013958189,mMTS,mKcell,mKcell,,D77,2016-04-19T16:47:40+06:00,
1000000000155857,77017630164,mMTS,mAltel,mKcell,D07,D77,2016-04-19T16:48:28+06:00,
1000000000155859,77789112213,mMTS,mKcell,mKcell,,D77,2016-04-19T16:49:42+06:00,
1000000000155862,77771777785,mKcell,mKarTel,mKarTel,,D02,2016-04-19T16:52:31+06:00,
1000000000155863,77771777780,mKcell,mKarTel,mKarTel,,D02,2016-04-19T16:52:30+06:00,
1000000000155864,77052392592,mKarTel,mMTS,mKarTel,D77,D01,2016-04-19T16:52:34+06:00,
1000000000155865,77082520102,mMTS,mAltel,mAltel,,D77,2016-04-19T16:52:29+06:00,
1000000000155866,77021655812,mAltel,mKcell,mKcell,,D07,2016-04-19T16:53:57+06:00,
1000000000155867,77021974530,mAltel,mKcell,mKcell,,D07,2016-04-19T16:54:25+06:00,
1000000000155870,77017370982,mAltel,mKcell,mKcell,,D07,2016-04-19T16:56:59+06:00,
1000000000155871,77712399901,mMTS,mKarTel,mKarTel,,D77,2016-04-19T16:57:22+06:00,
1000000000155872,77011469166,mKarTel,mKcell,mKcell,,D01,2016-04-19T16:57:46+06:00,
1000000000155873,77023285315,mKarTel,mKcell,mKcell,,D01,2016-04-19T16:59:14+06:00,
