NPId,Number,RecipientId,DonorId,RangeHolderId,OldRoute,NewRoute,PortDate,RowCount
1000000000293445,77082952004,mMTS,mAltel,mAltel,,D77,2016-12-11T12:07:36+06:00,7
1000000000293446,77714251816,mKcell,mMTS,mKarTel,D77,D02,2016-12-11T12:16:04+06:00,
1000000000293447,77082952008,mMTS,mAltel,mAltel,,D77,2016-12-11T12:17:34+06:00,
1000000000293448,77003006300,mMTS,mKcell,mAltel,D02,D77,2016-12-11T12:19:57+06:00,
1000000000293451,77026465964,mAltel,mKcell,mKcell,D02,D07,2016-12-11T12:27:22+06:00,
1000000000293452,77027221294,mMTS,mKcell,mKcell,,D77,2016-12-11T12:27:36+06:00,
1000000000293453,77003519800,mMTS,mAltel,mAltel,,D77,2016-12-11T12:28:26+06:00,
