NPId,Number,RecipientId,DonorId,RangeHolderId,OldRoute,NewRoute,PortDate,RowCount
1000000000313238,77785338431,mAltel,mKcell,mKcell,,D07,2017-01-19T16:02:53+06:00,23
1000000000313239,77754141430,mAltel,mKcell,mKcell,,D07,2017-01-19T16:01:51+06:00,
1000000000313242,77027222230,mMTS,mKcell,mKcell,,D77,2017-01-19T16:04:19+06:00,
1000000000313243,77001137502,mMTS,mAltel,mAltel,,D77,2017-01-19T16:04:15+06:00,
1000000000313244,77071110815,mAltel,mMTS,mMTS,,D07,2017-01-19T16:04:43+06:00,
1000000000313246,77072928181,mAltel,mMTS,mMTS,,D07,2017-01-19T16:06:47+06:00,
1000000000313248,77081068888,mAltel,mKarTel,mAltel,D01,D07,2017-01-19T16:07:17+06:00,
1000000000313249,77001888888,mAltel,mKarTel,mAltel,D01,D07,2017-01-19T16:12:22+06:00,
1000000000313250,77025475565,mAltel,mKcell,mKcell,,D07,2017-01-19T16:12:30+06:00,
1000000000313251,77027744116,mMTS,mKcell,mKcell,,D77,2017-01-19T16:13:03+06:00,
1000000000313254,77775001130,mKcell,mKarTel,mKarTel,,D02,2017-01-19T16:15:33+06:00,
1000000000313255,77001533262,mKarTel,mAltel,mAltel,,D01,2017-01-19T16:15:20+06:00,
1000000000313256,77022103431,mAltel,mKcell,mKcell,,D07,2017-01-19T16:16:14+06:00,
1000000000313258,77072224822,mKarTel,mMTS,mMTS,,D01,2017-01-19T16:18:10+06:00,
1000000000313260,77472282425,mAltel,mMTS,mMTS,,D07,2017-01-19T16:20:41+06:00,
1000000000313261,77013343229,mMTS,mKcell,mKcell,,D77,2017-01-19T16:21:07+06:00,
1000000000313262,77479707007,mMTS,mKcell,mMTS,D02,D77,2017-01-19T16:24:56+06:00,
1000000000313263,77773399702,mKcell,mKarTel,mKarTel,,D02,2017-01-19T16:23:33+06:00,
1000000000313264,77014882562,mMTS,mKcell,mKcell,,D77,2017-01-19T16:23:36+06:00,
1000000000313267,77783780648,mKarTel,mKcell,mKcell,,D01,2017-01-19T16:26:21+06:00,
1000000000313268,77789622024,mAltel,mKcell,mKcell,,D07,2017-01-19T16:26:10+06:00,
1000000000313269,77005151985,mKarTel,mAltel,mAltel,,D01,2017-01-19T16:28:15+06:00,
1000000000313270,77078640930,mKcell,mMTS,mMTS,,D02,2017-01-19T16:29:02+06:00,
