NPId,Number,RecipientId,DonorId,RangeHolderId,OldRoute,NewRoute,PortDate,RowCount
1000000000129713,77772243030,mMTS,mKarTel,mKarTel,,D77,2016-03-20T11:03:47+06:00,13
1000000000129714,77077575788,mAltel,mMTS,mMTS,,D07,2016-03-20T11:04:27+06:00,
1000000000129715,77017732329,mMTS,mKcell,mKcell,,D77,2016-03-20T11:05:03+06:00,
1000000000129718,77081575005,mMTS,mAltel,mAltel,,D77,2016-03-20T11:06:58+06:00,
1000000000129719,77054656346,mMTS,mKarTel,mKarTel,,D77,2016-03-20T11:08:12+06:00,
1000000000129721,77754116219,mKarTel,mKcell,mKcell,,D01,2016-03-20T11:12:54+06:00,
1000000000129722,77015300992,mKarTel,mKcell,mKcell,,D01,2016-03-20T11:15:19+06:00,
1000000000129724,77712415588,mMTS,mKarTel,mKarTel,,D77,2016-03-20T11:17:43+06:00,
1000000000129725,77766111166,mKcell,mKarTel,mKarTel,,D02,2016-03-20T11:20:16+06:00,
1000000000129727,77754350089,mKarTel,mKcell,mKcell,,D01,2016-03-20T11:20:29+06:00,
1000000000129728,77751550434,mAltel,mKcell,mKcell,,D07,2016-03-20T11:24:49+06:00,
1000000000129729,77028132829,mMTS,mKcell,mKcell,,D77,2016-03-20T11:27:03+06:00,
1000000000129730,77082250200,mMTS,mAltel,mAltel,,D77,2016-03-20T11:28:13+06:00,
