NPId,Number,RecipientId,DonorId,RangeHolderId,OldRoute,NewRoute,PortDate,RowCount
1000000000268190,77758088780,mMTS,mKcell,mKcell,D02,D77,2016-10-26T13:58:22+06:00,19
1000000000268338,77751977603,mMTS,mKcell,mKcell,,D77,2016-10-26T13:31:42+06:00,
1000000000268339,77760616177,mKcell,mKarTel,mKarTel,,D02,2016-10-26T13:33:42+06:00,
1000000000268340,77079087814,mAltel,mMTS,mMTS,,D07,2016-10-26T13:33:14+06:00,
1000000000268341,77021029111,mMTS,mKcell,mKcell,,D77,2016-10-26T13:33:57+06:00,
1000000000268342,77773765850,mKarTel,mAltel,mKarTel,D07,D01,2016-10-26T13:34:27+06:00,
1000000000268343,77775055588,mAltel,mKarTel,mKarTel,,D07,2016-10-26T13:35:09+06:00,
1000000000268344,77769991177,mKcell,mKarTel,mKarTel,,D02,2016-10-26T13:37:20+06:00,
1000000000268345,77014203196,mMTS,mKcell,mKcell,,D77,2016-10-26T13:37:22+06:00,
1000000000268346,77015385534,mAltel,mKcell,mKcell,,D07,2016-10-26T13:38:52+06:00,
1000000000268348,77022902045,mKcell,mKarTel,mKcell,D01,D02,2016-10-26T13:43:24+06:00,
1000000000268349,77051369656,mKcell,mKarTel,mKarTel,,D02,2016-10-26T13:43:45+06:00,
1000000000268350,77770244233,mMTS,mKarTel,mKarTel,,D77,2016-10-26T13:48:11+06:00,
1000000000268353,77015570616,mKcell,mMTS,mKcell,D77,D02,2016-10-26T13:55:57+06:00,
1000000000268354,77028435200,mKarTel,mKcell,mKcell,,D01,2016-10-26T13:56:11+06:00,
1000000000268355,77077892020,mKarTel,mMTS,mMTS,,D01,2016-10-26T13:57:18+06:00,
1000000000268356,77053391398,mMTS,mKarTel,mKarTel,,D77,2016-10-26T13:57:50+06:00,
1000000000268358,77013148955,mKcell,mAltel,mKcell,D07,D02,2016-10-26T13:59:34+06:00,
1000000000268359,77024555883,mKcell,mAltel,mKcell,D07,D02,2016-10-26T13:59:35+06:00,
