NPId,Number,RecipientId,DonorId,RangeHolderId,OldRoute,NewRoute,PortDate,RowCount
1000000000354929,77029131116,mKcell,mMTS,mKcell,D77,D02,2017-03-29T15:30:23+06:00,32
1000000000354930,77024554111,mKcell,mMTS,mKcell,D77,D02,2017-03-29T15:31:48+06:00,
1000000000354931,77081798759,mMTS,mAltel,mAltel,,D77,2017-03-29T15:32:44+06:00,
1000000000354932,77473004562,mMTS,mKarTel,mMTS,D01,D77,2017-03-29T15:36:29+06:00,
1000000000354933,77007771784,mKcell,mAltel,mAltel,,D02,2017-03-29T15:36:44+06:00,
1000000000354934,77078705321,mKarTel,mMTS,mMTS,,D01,2017-03-29T15:37:55+06:00,
1000000000354935,77081798592,mMTS,mAltel,mAltel,,D77,2017-03-29T15:37:45+06:00,
1000000000354936,77007771768,mKcell,mAltel,mAltel,,D02,2017-03-29T15:38:03+06:00,
1000000000354937,77028404549,mMTS,mKcell,mKcell,,D77,2017-03-29T15:39:42+06:00,
1000000000354938,77011010675,mAltel,mKcell,mKcell,,D07,2017-03-29T15:40:17+06:00,
1000000000354940,77019125863,mAltel,mKcell,mKcell,,D07,2017-03-29T15:40:27+06:00,
1000000000354941,77052113564,mAltel,mKarTel,mKarTel,,D07,2017-03-29T15:40:57+06:00,
1000000000354942,77055020534,mMTS,mKarTel,mKarTel,,D77,2017-03-29T15:41:45+06:00,
1000000000354943,77774427348,mKarTel,mAltel,mKarTel,D07,D01,2017-03-29T15:41:50+06:00,
1000000000354944,77007771734,mKcell,mAltel,mAltel,,D02,2017-03-29T15:42:53+06:00,
1000000000354945,77051318888,mAltel,mKarTel,mKarTel,,D07,2017-03-29T15:43:05+06:00,
1000000000354946,77782563512,mAltel,mKcell,mKcell,,D07,2017-03-29T15:42:58+06:00,
1000000000354948,77774662671,mAltel,mKarTel,mKarTel,,D07,2017-03-29T15:43:39+06:00,
1000000000354949,77082254265,mKarTel,mAltel,mAltel,,D01,2017-03-29T15:43:35+06:00,
1000000000354950,77007771796,mKcell,mAltel,mAltel,,D02,2017-03-29T15:44:57+06:00,
1000000000354951,77007771742,mKcell,mAltel,mAltel,,D02,2017-03-29T15:45:00+06:00,
1000000000354952,77007771798,mKcell,mAltel,mAltel,,D02,2017-03-29T15:45:40+06:00,
1000000000354953,77022466633,mKarTel,mKcell,mKcell,,D01,2017-03-29T15:47:59+06:00,
1000000000354954,77003336303,mMTS,mAltel,mAltel,,D77,2017-03-29T15:47:47+06:00,
1000000000354955,77074455458,mKcell,mMTS,mMTS,,D02,2017-03-29T15:50:45+06:00,
1000000000354958,77013630111,mAltel,mKcell,mKcell,,D07,2017-03-29T15:52:51+06:00,
1000000000354959,77082841581,mMTS,mAltel,mAltel,,D77,2017-03-29T15:52:43+06:00,
1000000000354960,77027778511,mMTS,mKcell,mKcell,,D77,2017-03-29T15:52:52+06:00,
1000000000354961,77073396666,mKarTel,mMTS,mMTS,,D01,2017-03-29T15:54:16+06:00,
1000000000354964,77023954554,mKcell,mMTS,mKcell,D77,D02,2017-03-29T15:57:24+06:00,
1000000000354965,77759568891,mKcell,mMTS,mKcell,D77,D02,2017-03-29T15:58:40+06:00,
1000000000354966,77786780344,mKarTel,mKcell,mKcell,,D01,2017-03-29T15:59:41+06:00,
