NPId,Number,RecipientId,DonorId,RangeHolderId,OldRoute,NewRoute,PortDate,RowCount
1000000000268360,77013405077,mKcell,mMTS,mKcell,D77,D02,2016-10-26T14:02:26+06:00,19
1000000000268361,77018642402,mMTS,mKcell,mKcell,,D77,2016-10-26T14:02:29+06:00,
1000000000268362,77774200042,mAltel,mKarTel,mKarTel,,D07,2016-10-26T14:02:55+06:00,
1000000000268365,77015580833,mAltel,mKcell,mKcell,,D07,2016-10-26T14:05:16+06:00,
1000000000268366,77018000021,mMTS,mKcell,mKcell,,D77,2016-10-26T14:05:19+06:00,
1000000000268367,77773983122,mMTS,mKarTel,mKarTel,,D77,2016-10-26T14:07:56+06:00,
1000000000268368,77013176035,mKarTel,mKcell,mKcell,,D01,2016-10-26T14:07:51+06:00,
1000000000268369,77788829976,mMTS,mKcell,mKcell,,D77,2016-10-26T14:08:02+06:00,
1000000000268370,77017665118,mMTS,mKcell,mKcell,,D77,2016-10-26T14:08:51+06:00,
1000000000268371,77017317476,mMTS,mKcell,mKcell,,D77,2016-10-26T14:10:41+06:00,
1000000000268373,77085228665,mMTS,mAltel,mAltel,,D77,2016-10-26T14:11:19+06:00,
1000000000268375,77055859990,mKcell,mKarTel,mKarTel,,D02,2016-10-26T14:13:50+06:00,
1000000000268377,77001118495,mKcell,mAltel,mAltel,,D02,2016-10-26T14:22:34+06:00,
1000000000268378,77077888147,mKcell,mMTS,mMTS,,D02,2016-10-26T14:24:32+06:00,
1000000000268379,77055018357,mKarTel,mKcell,mKarTel,D02,D01,2016-10-26T14:26:21+06:00,
1000000000268380,77015535899,mMTS,mKcell,mKcell,,D77,2016-10-26T14:27:07+06:00,
1000000000268381,77013430027,mMTS,mKcell,mKcell,,D77,2016-10-26T14:27:38+06:00,
1000000000268382,77024424633,mMTS,mKcell,mKcell,,D77,2016-10-26T14:27:45+06:00,
1000000000268384,77774170916,mMTS,mKarTel,mKarTel,,D77,2016-10-26T14:29:53+06:00,
