NPId,Number,RecipientId,DonorId,RangeHolderId,OldRoute,NewRoute,PortDate,RowCount
1000000000268794,77017134706,mMTS,mKcell,mKcell,,D77,2016-10-27T13:01:41+06:00,14
1000000000268797,77762223113,mKcell,mKarTel,mKarTel,D01,D02,2016-10-27T13:04:13+06:00,
1000000000268798,77785787855,mKarTel,mKcell,mKcell,,D01,2016-10-27T13:05:20+06:00,
1000000000268799,77075415000,mKcell,mMTS,mMTS,,D02,2016-10-27T13:06:26+06:00,
1000000000268800,77776842838,mKarTel,mAltel,mKarTel,D07,D01,2016-10-27T13:06:41+06:00,
1000000000268802,77027141978,mKarTel,mKcell,mKcell,,D01,2016-10-27T13:11:08+06:00,
1000000000268803,77076265945,mKcell,mMTS,mMTS,,D02,2016-10-27T13:11:33+06:00,
1000000000268804,77783345353,mMTS,mKcell,mKcell,,D77,2016-10-27T13:13:45+06:00,
1000000000268805,77779980128,mMTS,mKarTel,mKarTel,,D77,2016-10-27T13:14:24+06:00,
1000000000268806,77756555109,mKarTel,mKcell,mKcell,,D01,2016-10-27T13:15:26+06:00,
1000000000268807,77082721960,mMTS,mKarTel,mAltel,D01,D77,2016-10-27T13:16:09+06:00,
1000000000268808,77012705289,mMTS,mKcell,mKcell,,D77,2016-10-27T13:16:24+06:00,
1000000000268809,77075433370,mAltel,mMTS,mMTS,,D07,2016-10-27T13:16:24+06:00,
1000000000268811,77076168633,mKcell,mMTS,mMTS,,D02,2016-10-27T13:26:54+06:00,
