NPId,Number,RecipientId,DonorId,RangeHolderId,OldRoute,NewRoute,PortDate,RowCount
1000000000350655,77052152961,mKcell,mKarTel,mKarTel,,D02,2017-03-21T21:45:44+06:00,2
1000000000350656,77052660418,mMTS,mKarTel,mKarTel,,D77,2017-03-21T21:58:16+06:00,
