NPId,Number,RecipientId,DonorId,RangeHolderId,OldRoute,NewRoute,PortDate,RowCount
1000000000137933,77772547641,mAltel,mKarTel,mKarTel,,D07,2016-03-31T11:33:27+06:00,28
1000000000137934,77052513939,mMTS,mKarTel,mKarTel,,D77,2016-03-31T11:33:31+06:00,
1000000000137935,77770768802,mMTS,mKarTel,mKarTel,,D77,2016-03-31T11:35:20+06:00,
1000000000137936,77789328722,mMTS,mKcell,mKcell,,D77,2016-03-31T11:40:04+06:00,
1000000000137937,77015448296,mKarTel,mKcell,mKcell,,D01,2016-03-31T11:40:37+06:00,
1000000000137941,77017700409,mKcell,mAltel,mKcell,D07,D02,2016-03-31T11:40:32+06:00,
1000000000137944,77016927730,mAltel,mKcell,mKcell,,D07,2016-03-31T11:40:58+06:00,
1000000000137946,77017189545,mAltel,mKcell,mKcell,,D07,2016-03-31T11:41:16+06:00,
1000000000137947,77025285806,mMTS,mKcell,mKcell,,D77,2016-03-31T11:42:10+06:00,
1000000000137948,77019282120,mKarTel,mKcell,mKcell,,D01,2016-03-31T11:43:23+06:00,
1000000000137949,77019282180,mKarTel,mKcell,mKcell,,D01,2016-03-31T11:44:20+06:00,
1000000000137950,77019282085,mKarTel,mKcell,mKcell,,D01,2016-03-31T11:45:15+06:00,
1000000000137952,77028604449,mMTS,mKcell,mKcell,,D77,2016-03-31T11:45:41+06:00,
1000000000137953,77079858585,mKcell,mMTS,mMTS,,D02,2016-03-31T11:46:26+06:00,
1000000000137954,77081501400,mMTS,mAltel,mAltel,,D77,2016-03-31T11:46:06+06:00,
1000000000137955,77011040044,mMTS,mKcell,mKcell,,D77,2016-03-31T11:46:37+06:00,
1000000000137956,77028888434,mKarTel,mKcell,mKcell,,D01,2016-03-31T11:48:29+06:00,
1000000000137957,77072242696,mKcell,mAltel,mMTS,D07,D02,2016-03-31T11:49:36+06:00,
1000000000137960,77057777336,mKcell,mKarTel,mKarTel,,D02,2016-03-31T11:51:29+06:00,
1000000000137963,77783100300,mKarTel,mKcell,mKcell,,D01,2016-03-31T11:54:35+06:00,
1000000000137964,77023200002,mMTS,mKcell,mKcell,,D77,2016-03-31T11:54:53+06:00,
1000000000137965,77009770250,mMTS,mAltel,mAltel,,D77,2016-03-31T11:54:43+06:00,
1000000000137966,77017289633,mMTS,mKcell,mKcell,,D77,2016-03-31T11:55:09+06:00,
1000000000137967,77078199944,mMTS,mAltel,mMTS,D07,D77,2016-03-31T11:55:09+06:00,
1000000000137968,77058309364,mAltel,mKarTel,mKarTel,,D07,2016-03-31T11:56:30+06:00,
1000000000137970,77773838669,mMTS,mKarTel,mKarTel,,D77,2016-03-31T11:58:42+06:00,
1000000000137971,77015512834,mAltel,mKcell,mKcell,,D07,2016-03-31T11:58:48+06:00,
1000000000137972,77017335982,mMTS,mKcell,mKcell,,D77,2016-03-31T11:58:49+06:00,
