NPId,Number,RecipientId,DonorId,RangeHolderId,OldRoute,NewRoute,PortDate,RowCount
1000000000123773,77717414641,mMTS,mKarTel,mKarTel,,D77,2016-03-13T11:01:21+06:00,8
1000000000123775,77021392239,mMTS,mKcell,mKcell,,D77,2016-03-13T11:08:50+06:00,
1000000000123779,77714740420,mMTS,mKarTel,mKarTel,,D77,2016-03-13T11:12:49+06:00,
1000000000123780,77771337733,mMTS,mKarTel,mKarTel,,D77,2016-03-13T11:16:02+06:00,
1000000000123781,77759732323,mMTS,mKcell,mKcell,,D77,2016-03-13T11:17:03+06:00,
1000000000123786,77762181791,mMTS,mKarTel,mKarTel,,D77,2016-03-13T11:27:02+06:00,
1000000000123787,77017826913,mMTS,mKcell,mKcell,,D77,2016-03-13T11:26:56+06:00,
1000000000123789,77776860780,mMTS,mKarTel,mKarTel,,D77,2016-03-13T11:27:30+06:00,
