NPId,Number,RecipientId,DonorId,RangeHolderId,OldRoute,NewRoute,PortDate,RowCount
1000000000410411,77078221514,mKarTel,mMTS,mMTS,,D01,2017-06-27T12:30:13+06:00,30
1000000000410412,77078221513,mKarTel,mMTS,mMTS,,D01,2017-06-27T12:31:19+06:00,
1000000000410413,77785115422,mKarTel,mKcell,mKcell,,D01,2017-06-27T12:31:29+06:00,
1000000000410414,77001011193,mKcell,mAltel,mAltel,,D02,2017-06-27T12:32:37+06:00,
1000000000410415,77002648400,mMTS,mAltel,mAltel,,D77,2017-06-27T12:32:21+06:00,
1000000000410416,77011016650,mKcell,mAltel,mKcell,D07,D02,2017-06-27T12:34:24+06:00,
1000000000410418,77086545777,mMTS,mAltel,mAltel,,D77,2017-06-27T12:36:46+06:00,
1000000000410419,77475416075,mAltel,mMTS,mMTS,,D07,2017-06-27T12:38:12+06:00,
1000000000410420,77017502597,mKarTel,mKcell,mKcell,,D01,2017-06-27T12:39:15+06:00,
1000000000410421,77077120594,mKarTel,mMTS,mMTS,,D01,2017-06-27T12:39:26+06:00,
1000000000410422,77015134249,mKcell,mMTS,mKcell,D77,D02,2017-06-27T12:39:26+06:00,
1000000000410423,77759594247,mKarTel,mAltel,mKcell,D07,D01,2017-06-27T12:40:02+06:00,
1000000000410424,77017333880,mAltel,mKcell,mKcell,,D07,2017-06-27T12:41:11+06:00,
1000000000410425,77011001105,mKcell,mAltel,mKcell,D07,D02,2017-06-27T12:41:57+06:00,
1000000000410426,77058454445,mMTS,mKarTel,mKarTel,,D77,2017-06-27T12:42:11+06:00,
1000000000410427,77007770011,mMTS,mAltel,mAltel,,D77,2017-06-27T12:41:44+06:00,
1000000000410428,77078256519,mMTS,mKcell,mMTS,D02,D77,2017-06-27T12:43:28+06:00,
1000000000410429,77029991368,mMTS,mKcell,mKcell,,D77,2017-06-27T12:44:06+06:00,
1000000000410430,77017884887,mAltel,mKcell,mKcell,,D07,2017-06-27T12:45:25+06:00,
1000000000410431,77013626062,mMTS,mKcell,mKcell,,D77,2017-06-27T12:48:22+06:00,
1000000000410432,77010820070,mKcell,mAltel,mKcell,D07,D02,2017-06-27T12:49:43+06:00,
1000000000410433,77079150494,mMTS,mKcell,mMTS,D02,D77,2017-06-27T12:50:14+06:00,
1000000000410434,77057751833,mKarTel,mKcell,mKarTel,D02,D01,2017-06-27T12:50:59+06:00,
1000000000410435,77028565587,mAltel,mKcell,mKcell,,D07,2017-06-27T12:50:49+06:00,
1000000000410436,77074305790,mMTS,mKcell,mMTS,D02,D77,2017-06-27T12:51:00+06:00,
1000000000410437,77758620404,mKarTel,mKcell,mKcell,,D01,2017-06-27T12:51:19+06:00,
1000000000410438,77752352087,mMTS,mKcell,mKcell,,D77,2017-06-27T12:53:45+06:00,
1000000000410439,77017577570,mKarTel,mKcell,mKcell,,D01,2017-06-27T12:54:16+06:00,
1000000000410442,77778098026,mKarTel,mMTS,mKarTel,D77,D01,2017-06-27T12:55:09+06:00,
1000000000410445,77767767447,mKcell,mKarTel,mKarTel,,D02,2017-06-27T12:59:50+06:00,
