NPId,Number,RecipientId,DonorId,RangeHolderId,OldRoute,NewRoute,PortDate,RowCount
1000000000215935,77786876657,mKcell,mMTS,mKcell,D77,D02,2016-07-23T12:33:51+06:00,15
1000000000215936,77054254964,mKcell,mKarTel,mKarTel,,D02,2016-07-23T12:35:17+06:00,
1000000000215937,77776709591,mMTS,mKarTel,mKarTel,,D77,2016-07-23T12:36:13+06:00,
1000000000215938,77022224222,mKarTel,mKcell,mKcell,,D01,2016-07-23T12:37:03+06:00,
1000000000215939,77011895838,mMTS,mKcell,mKcell,,D77,2016-07-23T12:37:42+06:00,
1000000000215940,77014658382,mMTS,mKcell,mKcell,,D77,2016-07-23T12:39:03+06:00,
1000000000215941,77760133030,mKcell,mKarTel,mKarTel,,D02,2016-07-23T12:44:25+06:00,
1000000000215942,77023502370,mMTS,mKcell,mKcell,,D77,2016-07-23T12:40:51+06:00,
1000000000215943,77007231193,mKcell,mAltel,mAltel,,D02,2016-07-23T12:42:28+06:00,
1000000000215948,77055983040,mKarTel,mMTS,mKarTel,D77,D01,2016-07-23T12:46:50+06:00,
1000000000215949,77028881221,mKarTel,mKcell,mKcell,,D01,2016-07-23T12:47:59+06:00,
1000000000215950,77000220470,mKcell,mAltel,mAltel,,D02,2016-07-23T12:48:26+06:00,
1000000000215951,77057850700,mKcell,mKarTel,mKarTel,,D02,2016-07-23T12:51:12+06:00,
1000000000215954,77751934154,mMTS,mKcell,mKcell,,D77,2016-07-23T12:57:30+06:00,
1000000000215957,77772331003,mAltel,mKarTel,mKarTel,,D07,2016-07-23T12:59:33+06:00,
