NPId,Number,RecipientId,DonorId,RangeHolderId,OldRoute,NewRoute,PortDate,RowCount
1000000000203771,77779999509,mAltel,mKarTel,mKarTel,,D07,2016-07-05T09:29:46+06:00,4
1000000000204899,77476616541,mKarTel,mMTS,mMTS,,D01,2016-07-05T09:13:29+06:00,
1000000000204900,77471986528,mKarTel,mMTS,mMTS,,D01,2016-07-05T09:18:34+06:00,
1000000000204902,77007010000,mKcell,mAltel,mAltel,,D02,2016-07-05T09:28:03+06:00,
