NPId,Number,RecipientId,DonorId,RangeHolderId,OldRoute,NewRoute,PortDate,RowCount
1000000000175878,77779313208,mMTS,mKarTel,mKarTel,,D77,2016-05-17T15:01:35+06:00,32
1000000000175879,77771328096,mMTS,mKarTel,mKarTel,,D77,2016-05-17T15:01:35+06:00,
1000000000175880,77019521040,mMTS,mKcell,mKcell,,D77,2016-05-17T15:01:59+06:00,
1000000000175881,77015290012,mKarTel,mKcell,mKcell,,D01,2016-05-17T15:05:35+06:00,
1000000000175882,77081294099,mMTS,mAltel,mAltel,,D77,2016-05-17T15:02:01+06:00,
1000000000175884,77759400185,mMTS,mKcell,mKcell,,D77,2016-05-17T15:03:17+06:00,
1000000000175885,77779777070,mMTS,mKarTel,mKarTel,,D77,2016-05-17T15:05:55+06:00,
1000000000175888,77771640400,mKarTel,mMTS,mKarTel,D77,D01,2016-05-17T15:07:35+06:00,
1000000000175889,77055205145,mKcell,mKarTel,mKarTel,,D02,2016-05-17T15:09:33+06:00,
1000000000175890,77011416666,mAltel,mKcell,mKcell,,D07,2016-05-17T15:09:03+06:00,
1000000000175891,77054532266,mMTS,mKarTel,mKarTel,,D77,2016-05-17T15:12:28+06:00,
1000000000175892,77471676684,mKarTel,mMTS,mMTS,,D01,2016-05-17T15:12:17+06:00,
1000000000175893,77023539559,mKarTel,mKcell,mKcell,,D01,2016-05-17T15:15:28+06:00,
1000000000175894,77772000034,mMTS,mKarTel,mKarTel,,D77,2016-05-17T15:15:26+06:00,
1000000000175895,77714444241,mKcell,mKarTel,mKarTel,,D02,2016-05-17T15:15:57+06:00,
1000000000175897,77770186867,mMTS,mKarTel,mKarTel,,D77,2016-05-17T15:16:31+06:00,
1000000000175899,77760017000,mMTS,mKarTel,mKarTel,,D77,2016-05-17T15:17:55+06:00,
1000000000175900,77054732222,mKcell,mKarTel,mKarTel,,D02,2016-05-17T15:18:58+06:00,
1000000000175901,77085309109,mMTS,mAltel,mAltel,,D77,2016-05-17T15:20:30+06:00,
1000000000175903,77075205175,mKcell,mMTS,mMTS,,D02,2016-05-17T15:21:22+06:00,
1000000000175904,77011881076,mAltel,mKcell,mKcell,,D07,2016-05-17T15:21:19+06:00,
1000000000175905,77075226511,mMTS,mKarTel,mMTS,D01,D77,2016-05-17T15:21:27+06:00,
1000000000175906,77084934500,mMTS,mAltel,mAltel,,D77,2016-05-17T15:22:05+06:00,
1000000000175907,77024428343,mMTS,mKcell,mKcell,,D77,2016-05-17T15:24:20+06:00,
1000000000175908,77085309099,mMTS,mAltel,mAltel,,D77,2016-05-17T15:24:29+06:00,
1000000000175909,77055559292,mAltel,mKarTel,mKarTel,,D07,2016-05-17T15:26:25+06:00,
1000000000175910,77787884932,mKarTel,mKcell,mKcell,,D01,2016-05-17T15:26:50+06:00,
1000000000175911,77022090030,mKarTel,mAltel,mKcell,D07,D01,2016-05-17T15:26:37+06:00,
1000000000175912,77089107795,mMTS,mAltel,mAltel,,D77,2016-05-17T15:27:19+06:00,
1000000000175913,77053333267,mKcell,mKarTel,mKarTel,,D02,2016-05-17T15:28:28+06:00,
1000000000175914,77788286899,mMTS,mKcell,mKcell,,D77,2016-05-17T15:27:36+06:00,
1000000000175915,77024449990,mKarTel,mKcell,mKcell,,D01,2016-05-17T15:29:24+06:00,
