NPId,Number,RecipientId,DonorId,RangeHolderId,OldRoute,NewRoute,PortDate,RowCount
1000000000222385,77021129357,mKarTel,mKcell,mKcell,,D01,2016-08-02T19:00:28+06:00,10
1000000000222386,77022013102,mKarTel,mKcell,mKcell,,D01,2016-08-02T19:00:36+06:00,
1000000000222387,77017773181,mKarTel,mKcell,mKcell,,D01,2016-08-02T19:04:18+06:00,
1000000000222388,77019461468,mMTS,mKcell,mKcell,,D77,2016-08-02T19:07:50+06:00,
1000000000222390,77010747700,mKcell,mMTS,mKcell,D77,D02,2016-08-02T19:14:17+06:00,
1000000000222391,77021563968,mKarTel,mKcell,mKcell,,D01,2016-08-02T19:14:30+06:00,
1000000000222392,77479889990,mKarTel,mMTS,mMTS,,D01,2016-08-02T19:13:15+06:00,
1000000000222393,77014000934,mKarTel,mKcell,mKcell,,D01,2016-08-02T19:14:31+06:00,
1000000000222394,77757820042,mKcell,mAltel,mKcell,D07,D02,2016-08-02T19:17:43+06:00,
1000000000222395,77777077722,mKcell,mKarTel,mKarTel,,D02,2016-08-02T19:20:05+06:00,
