NPId,Number,RecipientId,DonorId,RangeHolderId,OldRoute,NewRoute,PortDate,RowCount
1000000000204490,77026092904,mKcell,mMTS,mKcell,D77,D02,2016-07-03T16:18:47+06:00,4
1000000000204492,77773763125,mMTS,mKarTel,mKarTel,,D77,2016-07-03T16:21:39+06:00,
1000000000204493,77761234123,mMTS,mKarTel,mKarTel,,D77,2016-07-03T16:21:57+06:00,
1000000000204494,77075933334,mKcell,mMTS,mMTS,,D02,2016-07-03T16:27:29+06:00,
