NPId,Number,RecipientId,DonorId,RangeHolderId,OldRoute,NewRoute,PortDate,RowCount
1000000000133603,77772090022,mKcell,mKarTel,mKarTel,,D02,2016-03-26T10:30:11+06:00,18
1000000000133605,77013382177,mKcell,mAltel,mKcell,D07,D02,2016-03-26T10:31:22+06:00,
1000000000133606,77770696767,mKarTel,mKcell,mKarTel,D02,D01,2016-03-26T10:31:48+06:00,
1000000000133607,77013663931,mMTS,mKcell,mKcell,,D77,2016-03-26T10:31:44+06:00,
1000000000133609,77752822322,mMTS,mKcell,mKcell,,D77,2016-03-26T10:33:08+06:00,
1000000000133611,77775781613,mAltel,mKarTel,mKarTel,,D07,2016-03-26T10:35:15+06:00,
1000000000133612,77772299058,mKarTel,mAltel,mKarTel,D07,D01,2016-03-26T10:34:20+06:00,
1000000000133613,77772299053,mKarTel,mAltel,mKarTel,D07,D01,2016-03-26T10:35:13+06:00,
1000000000133614,77754032777,mAltel,mKcell,mKcell,,D07,2016-03-26T10:37:42+06:00,
1000000000133620,77473505047,mAltel,mMTS,mMTS,,D07,2016-03-26T10:45:27+06:00,
1000000000133622,77013039331,mMTS,mKcell,mKcell,,D77,2016-03-26T10:51:28+06:00,
1000000000133624,77017877168,mMTS,mKcell,mKcell,,D77,2016-03-26T10:52:01+06:00,
1000000000133625,77071255585,mKcell,mMTS,mMTS,,D02,2016-03-26T10:55:16+06:00,
1000000000133626,77014992728,mMTS,mKcell,mKcell,,D77,2016-03-26T10:55:12+06:00,
1000000000133628,77016912377,mMTS,mKcell,mKcell,,D77,2016-03-26T10:55:30+06:00,
1000000000133629,77021520999,mMTS,mKcell,mKcell,,D77,2016-03-26T10:57:03+06:00,
1000000000133630,77021859983,mAltel,mKcell,mKcell,,D07,2016-03-26T10:57:03+06:00,
1000000000133631,77015337065,mMTS,mKcell,mKcell,,D77,2016-03-26T10:58:21+06:00,
