NPId,Number,RecipientId,DonorId,RangeHolderId,OldRoute,NewRoute,PortDate,RowCount
1000000000415992,77015230404,mKarTel,mKcell,mKcell,,D01,2017-07-04T12:04:45+06:00,11
1000000000415995,77474110280,mMTS,mKarTel,mMTS,D01,D77,2017-07-04T12:22:18+06:00,
1000000000415997,77028778881,mKcell,mMTS,mKcell,D77,D02,2017-07-04T12:05:16+06:00,
1000000000415998,77017708987,mMTS,mKcell,mKcell,,D77,2017-07-04T12:04:57+06:00,
1000000000416000,77017503860,mKcell,mAltel,mKcell,D07,D02,2017-07-04T12:07:07+06:00,
1000000000416001,77759282405,mAltel,mKcell,mKcell,,D07,2017-07-04T12:09:22+06:00,
1000000000416005,77477677919,mKcell,mMTS,mMTS,,D02,2017-07-04T12:13:21+06:00,
1000000000416008,77473548085,mMTS,mKcell,mMTS,D02,D77,2017-07-04T12:16:56+06:00,
1000000000416018,77029961177,mMTS,mKcell,mKcell,,D77,2017-07-04T12:28:55+06:00,
1000000000416019,77014910928,mMTS,mKcell,mKcell,,D77,2017-07-04T12:29:12+06:00,
1000000000416020,77074208479,mAltel,mMTS,mMTS,,D07,2017-07-04T12:29:29+06:00,
