NPId,Number,RecipientId,DonorId,RangeHolderId,OldRoute,NewRoute,PortDate,RowCount
1000000000352875,77752300300,mAltel,mKarTel,mKcell,D01,D07,2017-03-27T11:00:11+06:00,28
1000000000352876,77077606968,mKcell,mMTS,mMTS,,D02,2017-03-27T11:00:28+06:00,
1000000000352877,77027221255,mAltel,mKcell,mKcell,,D07,2017-03-27T11:00:24+06:00,
1000000000352878,77075006388,mMTS,mKcell,mMTS,D02,D77,2017-03-27T11:00:36+06:00,
1000000000352879,77018383863,mMTS,mKcell,mKcell,,D77,2017-03-27T11:01:08+06:00,
1000000000352880,77776112222,mKcell,mKarTel,mKarTel,,D02,2017-03-27T11:01:50+06:00,
1000000000352881,77027171926,mMTS,mKcell,mKcell,,D77,2017-03-27T11:01:17+06:00,
1000000000352882,77471570260,mKcell,mMTS,mMTS,,D02,2017-03-27T11:01:50+06:00,
1000000000352883,77023111233,mMTS,mKcell,mKcell,,D77,2017-03-27T11:02:58+06:00,
1000000000352885,77471570261,mKcell,mMTS,mMTS,,D02,2017-03-27T11:03:46+06:00,
1000000000352888,77753854966,mAltel,mKcell,mKcell,,D07,2017-03-27T11:16:10+06:00,
1000000000352889,77471570263,mKcell,mMTS,mMTS,,D02,2017-03-27T11:05:28+06:00,
1000000000352890,77007971160,mAltel,mKcell,mAltel,D02,D07,2017-03-27T11:06:29+06:00,
1000000000352891,77471570272,mKcell,mMTS,mMTS,,D02,2017-03-27T11:07:46+06:00,
1000000000352892,77754364431,mMTS,mKcell,mKcell,,D77,2017-03-27T11:09:02+06:00,
1000000000352895,77077778689,mKarTel,mKcell,mMTS,D02,D01,2017-03-27T11:11:54+06:00,
1000000000352896,77017778689,mKarTel,mKcell,mKcell,,D01,2017-03-27T11:13:15+06:00,
1000000000352899,77477665593,mKarTel,mMTS,mMTS,,D01,2017-03-27T11:14:11+06:00,
1000000000352901,77017118764,mMTS,mKcell,mKcell,,D77,2017-03-27T11:15:36+06:00,
1000000000352903,77471570269,mKcell,mMTS,mMTS,,D02,2017-03-27T11:16:39+06:00,
1000000000352904,77072039122,mKcell,mMTS,mMTS,,D02,2017-03-27T11:18:20+06:00,
1000000000352905,77477201020,mMTS,mKarTel,mMTS,D01,D77,2017-03-27T11:20:39+06:00,
1000000000352907,77778393438,mMTS,mKarTel,mKarTel,,D77,2017-03-27T11:22:36+06:00,
1000000000352908,77473758833,mKcell,mMTS,mMTS,,D02,2017-03-27T11:22:40+06:00,
1000000000352909,77077659180,mKcell,mMTS,mMTS,,D02,2017-03-27T11:26:29+06:00,
1000000000352910,77085272442,mMTS,mAltel,mAltel,,D77,2017-03-27T11:26:34+06:00,
1000000000352911,77054470500,mKarTel,mAltel,mKarTel,D07,D01,2017-03-27T11:27:36+06:00,
1000000000352913,77478423396,mKcell,mMTS,mMTS,,D02,2017-03-27T11:28:05+06:00,
