NPId,Number,RecipientId,DonorId,RangeHolderId,OldRoute,NewRoute,PortDate,RowCount
1000000000174790,77018671346,mKarTel,mKcell,mKcell,,D01,2016-05-16T10:01:27+06:00,17
1000000000174791,77022725559,mMTS,mAltel,mKcell,D07,D77,2016-05-16T10:01:06+06:00,
1000000000174793,77087546928,mMTS,mAltel,mAltel,,D77,2016-05-16T10:02:03+06:00,
1000000000174794,77017674804,mMTS,mKcell,mKcell,,D77,2016-05-16T10:02:51+06:00,
1000000000174795,77018329777,mMTS,mKcell,mKcell,,D77,2016-05-16T10:02:51+06:00,
1000000000174796,77059519771,mMTS,mKarTel,mKarTel,,D77,2016-05-16T10:02:28+06:00,
1000000000174797,77017602789,mMTS,mKcell,mKcell,,D77,2016-05-16T10:03:50+06:00,
1000000000174798,77777270341,mKcell,mMTS,mKarTel,D77,D02,2016-05-16T10:07:47+06:00,
1000000000174799,77759006580,mMTS,mKcell,mKcell,,D77,2016-05-16T10:08:58+06:00,
1000000000174801,77089083308,mMTS,mAltel,mAltel,,D77,2016-05-16T10:11:35+06:00,
1000000000174802,77773747888,mKcell,mKarTel,mKarTel,,D02,2016-05-16T10:12:38+06:00,
1000000000174803,77767212555,mKcell,mKarTel,mKarTel,,D02,2016-05-16T10:14:42+06:00,
1000000000174804,77474086086,mAltel,mMTS,mMTS,,D07,2016-05-16T10:18:50+06:00,
1000000000174806,77714369032,mMTS,mKarTel,mKarTel,,D77,2016-05-16T10:20:36+06:00,
1000000000174807,77003346941,mMTS,mAltel,mAltel,,D77,2016-05-16T10:21:50+06:00,
1000000000174808,77755663907,mKcell,mAltel,mKcell,D07,D02,2016-05-16T10:24:55+06:00,
1000000000174810,77085229572,mMTS,mAltel,mAltel,,D77,2016-05-16T10:27:35+06:00,
