NPId,Number,RecipientId,DonorId,RangeHolderId,OldRoute,NewRoute,PortDate,RowCount
1000000000261152,77777434000,mMTS,mKarTel,mKarTel,,D77,2016-10-12T14:02:43+06:00,26
1000000000261153,77715830716,mMTS,mKarTel,mKarTel,,D77,2016-10-12T14:02:43+06:00,
1000000000261155,77014186916,mMTS,mKcell,mKcell,,D77,2016-10-12T14:00:20+06:00,
1000000000261156,77073704464,mKcell,mMTS,mMTS,,D02,2016-10-12T14:00:56+06:00,
1000000000261157,77078815857,mAltel,mMTS,mMTS,D77,D07,2016-10-12T14:00:47+06:00,
1000000000261158,77079154618,mKarTel,mMTS,mMTS,,D01,2016-10-12T14:02:44+06:00,
1000000000261159,77473620362,mKarTel,mMTS,mMTS,,D01,2016-10-12T14:04:26+06:00,
1000000000261162,77471467348,mAltel,mMTS,mMTS,,D07,2016-10-12T14:05:45+06:00,
1000000000261163,77022804489,mMTS,mKcell,mKcell,,D77,2016-10-12T14:06:00+06:00,
1000000000261164,77772294115,mMTS,mKarTel,mKarTel,,D77,2016-10-12T14:09:54+06:00,
1000000000261165,77072920000,mKarTel,mMTS,mMTS,,D01,2016-10-12T14:09:53+06:00,
1000000000261168,77776887577,mKarTel,mMTS,mKarTel,D77,D01,2016-10-12T14:11:43+06:00,
1000000000261169,77015288582,mKarTel,mKcell,mKcell,,D01,2016-10-12T14:11:42+06:00,
1000000000261170,77019648087,mMTS,mKcell,mKcell,,D77,2016-10-12T14:10:06+06:00,
1000000000261171,77764013013,mMTS,mKarTel,mKarTel,,D77,2016-10-12T14:17:00+06:00,
1000000000261172,77012897272,mMTS,mKcell,mKcell,,D77,2016-10-12T14:12:41+06:00,
1000000000261173,77057093049,mKcell,mKarTel,mKarTel,,D02,2016-10-12T14:17:25+06:00,
1000000000261174,77000870807,mMTS,mAltel,mAltel,,D77,2016-10-12T14:13:25+06:00,
1000000000261175,77055664213,mKarTel,mMTS,mKarTel,D77,D01,2016-10-12T14:15:18+06:00,
1000000000261176,77075391118,mKarTel,mAltel,mMTS,D07,D01,2016-10-12T14:15:18+06:00,
1000000000261179,77776609115,mMTS,mKarTel,mKarTel,,D77,2016-10-12T14:24:12+06:00,
1000000000261180,77778208278,mAltel,mKarTel,mKarTel,,D07,2016-10-12T14:25:57+06:00,
1000000000261181,77007777307,mKcell,mAltel,mAltel,,D02,2016-10-12T14:22:00+06:00,
1000000000261184,77015324529,mKarTel,mKcell,mKcell,,D01,2016-10-12T14:25:57+06:00,
1000000000261185,77752200523,mAltel,mKcell,mKcell,,D07,2016-10-12T14:27:30+06:00,
1000000000261186,77785464895,mMTS,mKcell,mKcell,,D77,2016-10-12T14:29:08+06:00,
