NPId,Number,RecipientId,DonorId,RangeHolderId,OldRoute,NewRoute,PortDate,RowCount
1000000000133978,77772894879,mKcell,mKarTel,mKarTel,,D02,2016-03-26T15:02:33+06:00,47
1000000000133979,77012529671,mKarTel,mKcell,mKcell,,D01,2016-03-26T15:01:12+06:00,
1000000000133980,77751682545,mMTS,mKcell,mKcell,,D77,2016-03-26T15:01:00+06:00,
1000000000133983,77771252121,mAltel,mKarTel,mKarTel,,D07,2016-03-26T15:03:23+06:00,
1000000000133986,77022263333,mAltel,mKcell,mKcell,,D07,2016-03-26T15:04:24+06:00,
1000000000133987,77479045430,mAltel,mMTS,mMTS,,D07,2016-03-26T15:04:12+06:00,
1000000000133989,77074712849,mKarTel,mMTS,mMTS,,D01,2016-03-26T15:05:27+06:00,
1000000000133990,77025132799,mMTS,mKcell,mKcell,,D77,2016-03-26T15:05:49+06:00,
1000000000133993,77074712848,mKarTel,mMTS,mMTS,,D01,2016-03-26T15:06:43+06:00,
1000000000133994,77051041483,mMTS,mKarTel,mKarTel,,D77,2016-03-26T15:07:37+06:00,
1000000000133995,77054716767,mMTS,mKarTel,mKarTel,,D77,2016-03-26T15:08:02+06:00,
1000000000133997,77772329816,mMTS,mKarTel,mKarTel,,D77,2016-03-26T15:08:07+06:00,
1000000000133998,77010999957,mMTS,mKcell,mKcell,,D77,2016-03-26T15:07:49+06:00,
1000000000133999,77789576078,mAltel,mKcell,mKcell,,D07,2016-03-26T15:07:51+06:00,
1000000000134000,77017343105,mAltel,mKcell,mKcell,,D07,2016-03-26T15:07:52+06:00,
1000000000134001,77017180002,mAltel,mKcell,mKcell,,D07,2016-03-26T15:08:37+06:00,
1000000000134003,77015273616,mMTS,mKcell,mKcell,,D77,2016-03-26T15:09:09+06:00,
1000000000134004,77472779999,mKcell,mMTS,mMTS,,D02,2016-03-26T15:09:32+06:00,
1000000000134005,77758315563,mAltel,mKcell,mKcell,,D07,2016-03-26T15:09:31+06:00,
1000000000134007,77751748895,mMTS,mKcell,mKcell,,D77,2016-03-26T15:10:25+06:00,
1000000000134008,77754444218,mAltel,mKcell,mKcell,,D07,2016-03-26T15:12:11+06:00,
1000000000134009,77054444400,mMTS,mKarTel,mKarTel,,D77,2016-03-26T15:13:51+06:00,
1000000000134010,77026987850,mMTS,mKcell,mKcell,,D77,2016-03-26T15:13:39+06:00,
1000000000134011,77772413771,mAltel,mKarTel,mKarTel,,D07,2016-03-26T15:14:42+06:00,
1000000000134012,77085262504,mMTS,mAltel,mAltel,,D77,2016-03-26T15:13:39+06:00,
1000000000134014,77712999889,mKcell,mKarTel,mKarTel,,D02,2016-03-26T15:16:33+06:00,
1000000000134015,77015512106,mMTS,mKcell,mKcell,,D77,2016-03-26T15:15:58+06:00,
1000000000134017,77755652444,mKcell,mKarTel,mKcell,D01,D02,2016-03-26T15:18:10+06:00,
1000000000134019,77013832711,mKarTel,mKcell,mKcell,,D01,2016-03-26T15:17:36+06:00,
1000000000134021,77782228777,mAltel,mKcell,mKcell,,D07,2016-03-26T15:18:41+06:00,
1000000000134022,77085443391,mKcell,mAltel,mAltel,,D02,2016-03-26T15:18:59+06:00,
1000000000134024,77011471256,mAltel,mKcell,mKcell,,D07,2016-03-26T15:19:24+06:00,
1000000000134025,77011804346,mMTS,mKcell,mKcell,,D77,2016-03-26T15:19:23+06:00,
1000000000134027,77054716868,mMTS,mKarTel,mKarTel,,D77,2016-03-26T15:21:00+06:00,
1000000000134028,77474689989,mAltel,mMTS,mMTS,,D07,2016-03-26T15:20:02+06:00,
1000000000134030,77079261593,mKarTel,mMTS,mMTS,,D01,2016-03-26T15:21:50+06:00,
1000000000134031,77772696353,mMTS,mKarTel,mKarTel,,D77,2016-03-26T15:23:33+06:00,
1000000000134032,77052320169,mMTS,mKarTel,mKarTel,,D77,2016-03-26T15:24:01+06:00,
1000000000134034,77782071317,mMTS,mKcell,mKcell,,D77,2016-03-26T15:24:01+06:00,
1000000000134035,77786886000,mAltel,mKcell,mKcell,,D07,2016-03-26T15:24:01+06:00,
1000000000134039,77777001110,mKcell,mAltel,mKarTel,D07,D02,2016-03-26T15:25:44+06:00,
1000000000134040,77015345010,mAltel,mKcell,mKcell,,D07,2016-03-26T15:25:56+06:00,
1000000000134041,77083580095,mKarTel,mAltel,mAltel,,D01,2016-03-26T15:26:07+06:00,
1000000000134042,77011280196,mMTS,mKcell,mKcell,,D77,2016-03-26T15:27:28+06:00,
1000000000134043,77019141483,mMTS,mKcell,mKcell,,D77,2016-03-26T15:27:29+06:00,
1000000000134044,77079261591,mKarTel,mMTS,mMTS,,D01,2016-03-26T15:28:13+06:00,
1000000000134045,77014803248,mMTS,mKcell,mKcell,,D77,2016-03-26T15:29:23+06:00,
