NPId,Number,RecipientId,DonorId,RangeHolderId,OldRoute,NewRoute,PortDate,RowCount
1000000000311439,77772752416,mMTS,mKarTel,mKarTel,,D77,2017-01-16T16:00:13+06:00,29
1000000000311440,77003339828,mKcell,mAltel,mAltel,,D02,2017-01-16T16:00:18+06:00,
1000000000311441,77776580903,mKcell,mKarTel,mKarTel,,D02,2017-01-16T16:02:13+06:00,
1000000000311442,77027921984,mKcell,mKarTel,mKcell,D01,D02,2017-01-16T16:03:26+06:00,
1000000000311443,77076913830,mKcell,mMTS,mMTS,,D02,2017-01-16T16:03:14+06:00,
1000000000311444,77056109666,mMTS,mKarTel,mKarTel,,D77,2017-01-16T16:04:05+06:00,
1000000000311445,77077879596,mMTS,mKarTel,mMTS,D01,D77,2017-01-16T16:04:33+06:00,
1000000000311447,77475102727,mKcell,mMTS,mMTS,,D02,2017-01-16T16:04:24+06:00,
1000000000311449,77013554219,mMTS,mKcell,mKcell,,D77,2017-01-16T16:07:49+06:00,
1000000000311450,77076392054,mAltel,mMTS,mMTS,,D07,2017-01-16T16:09:05+06:00,
1000000000311451,77078198125,mAltel,mMTS,mMTS,,D07,2017-01-16T16:09:18+06:00,
1000000000311452,77057641761,mKcell,mKarTel,mKarTel,,D02,2017-01-16T16:10:52+06:00,
1000000000311454,77013399125,mKarTel,mMTS,mKcell,D77,D01,2017-01-16T16:11:31+06:00,
1000000000311455,77071161824,mAltel,mMTS,mMTS,,D07,2017-01-16T16:12:30+06:00,
1000000000311457,77014535217,mMTS,mKcell,mKcell,,D77,2017-01-16T16:14:19+06:00,
1000000000311462,77024222245,mAltel,mKcell,mKcell,,D07,2017-01-16T16:17:49+06:00,
1000000000311463,77055459041,mKcell,mKarTel,mKarTel,,D02,2017-01-16T16:18:56+06:00,
1000000000311464,77004448727,mKcell,mAltel,mAltel,,D02,2017-01-16T16:19:53+06:00,
1000000000311465,77753630078,mMTS,mKcell,mKcell,,D77,2017-01-16T16:20:02+06:00,
1000000000311467,77004443767,mKcell,mAltel,mAltel,,D02,2017-01-16T16:20:21+06:00,
1000000000311468,77012777667,mKcell,mAltel,mKcell,D07,D02,2017-01-16T16:20:45+06:00,
1000000000311469,77051578317,mKcell,mKarTel,mKarTel,,D02,2017-01-16T16:21:37+06:00,
1000000000311470,77003779616,mKcell,mAltel,mAltel,,D02,2017-01-16T16:21:25+06:00,
1000000000311472,77052315191,mMTS,mKarTel,mKarTel,,D77,2017-01-16T16:24:24+06:00,
1000000000311473,77013889713,mMTS,mKcell,mKcell,,D77,2017-01-16T16:25:57+06:00,
1000000000311474,77009621312,mAltel,mMTS,mAltel,D77,D07,2017-01-16T16:26:14+06:00,
1000000000311476,77775752626,mMTS,mKarTel,mKarTel,,D77,2017-01-16T16:27:55+06:00,
1000000000311478,77788645199,mMTS,mKcell,mKcell,,D77,2017-01-16T16:29:28+06:00,
1000000000311479,77017775876,mKarTel,mKcell,mKcell,,D01,2017-01-16T16:29:54+06:00,
