NPId,Number,RecipientId,DonorId,RangeHolderId,OldRoute,NewRoute,PortDate,RowCount
1000000000193683,77775164886,mKcell,mKarTel,mKarTel,,D02,2016-06-14T19:32:16+06:00,10
1000000000193685,77027140710,mKarTel,mKcell,mKcell,,D01,2016-06-14T19:31:47+06:00,
1000000000193687,77078506075,mKcell,mMTS,mMTS,,D02,2016-06-14T19:33:06+06:00,
1000000000193688,77072983260,mKarTel,mMTS,mMTS,,D01,2016-06-14T19:34:02+06:00,
1000000000193689,77770445050,mKcell,mKarTel,mKarTel,,D02,2016-06-14T19:35:11+06:00,
1000000000193690,77076336664,mKcell,mMTS,mMTS,,D02,2016-06-14T19:36:07+06:00,
1000000000193691,77007779999,mKcell,mAltel,mAltel,,D02,2016-06-14T19:37:11+06:00,
1000000000193692,77089028811,mKarTel,mMTS,mAltel,D77,D01,2016-06-14T19:42:20+06:00,
1000000000193693,77001110333,mKcell,mAltel,mAltel,,D02,2016-06-14T19:45:46+06:00,
1000000000193694,77756280055,mMTS,mKcell,mKcell,,D77,2016-06-14T19:46:05+06:00,
