NPId,Number,RecipientId,DonorId,RangeHolderId,OldRoute,NewRoute,PortDate,RowCount
1000000000149408,77017859817,mMTS,mKcell,mKcell,,D77,2016-04-12T14:10:44+06:00,52
1000000000149410,77017859815,mMTS,mKcell,mKcell,,D77,2016-04-12T14:11:22+06:00,
1000000000149795,77783663919,mKcell,mMTS,mKcell,D77,D02,2016-04-12T14:00:18+06:00,
1000000000149797,77012326618,mAltel,mKcell,mKcell,,D07,2016-04-12T14:02:54+06:00,
1000000000149798,77082821082,mMTS,mAltel,mAltel,,D77,2016-04-12T14:02:41+06:00,
1000000000149799,77779857773,mMTS,mKarTel,mKarTel,,D77,2016-04-12T14:05:02+06:00,
1000000000149800,77016277001,mKarTel,mKcell,mKcell,,D01,2016-04-12T14:04:21+06:00,
1000000000149801,77754743995,mMTS,mKcell,mKcell,,D77,2016-04-12T14:04:56+06:00,
1000000000149802,77029555323,mMTS,mKcell,mKcell,,D77,2016-04-12T14:05:11+06:00,
1000000000149805,77088301989,mKcell,mAltel,mAltel,,D02,2016-04-12T14:07:38+06:00,
1000000000149806,77012929517,mMTS,mKcell,mKcell,,D77,2016-04-12T14:07:38+06:00,
1000000000149809,77089094307,mMTS,mAltel,mAltel,,D77,2016-04-12T14:10:57+06:00,
1000000000149810,77081551200,mMTS,mAltel,mAltel,,D77,2016-04-12T14:11:37+06:00,
1000000000149811,77011935206,mMTS,mKcell,mKcell,,D77,2016-04-12T14:11:53+06:00,
1000000000149812,77073202575,mMTS,mKarTel,mMTS,D01,D77,2016-04-12T14:13:27+06:00,
1000000000149813,77081775868,mMTS,mAltel,mAltel,,D77,2016-04-12T14:12:00+06:00,
1000000000149814,77023702099,mMTS,mKcell,mKcell,,D77,2016-04-12T14:14:45+06:00,
1000000000149815,77010960009,mKcell,mKarTel,mKcell,D01,D02,2016-04-12T14:16:59+06:00,
1000000000149817,77071064579,mKarTel,mMTS,mMTS,,D01,2016-04-12T14:15:35+06:00,
1000000000149819,77012702213,mMTS,mKcell,mKcell,,D77,2016-04-12T14:15:29+06:00,
1000000000149820,77018143709,mKarTel,mKcell,mKcell,,D01,2016-04-12T14:16:54+06:00,
1000000000149822,77019589188,mKcell,mKarTel,mKcell,D01,D02,2016-04-12T14:19:09+06:00,
1000000000149825,77025839382,mMTS,mKcell,mKcell,,D77,2016-04-12T14:17:45+06:00,
1000000000149826,77772707112,mAltel,mKarTel,mKarTel,,D07,2016-04-12T14:20:13+06:00,
1000000000149827,77751542405,mMTS,mKcell,mKcell,,D77,2016-04-12T14:19:13+06:00,
1000000000149828,77082916955,mMTS,mAltel,mAltel,,D77,2016-04-12T14:19:33+06:00,
1000000000149829,77027770561,mKarTel,mKcell,mKcell,,D01,2016-04-12T14:20:12+06:00,
1000000000149830,77770092626,mKarTel,mAltel,mKarTel,D07,D01,2016-04-12T14:20:51+06:00,
1000000000149832,77022440432,mKarTel,mKcell,mKcell,,D01,2016-04-12T14:23:28+06:00,
1000000000149833,77017575502,mKarTel,mKcell,mKcell,,D01,2016-04-12T14:24:43+06:00,
1000000000149834,77015229310,mKarTel,mKcell,mKcell,,D01,2016-04-12T14:26:44+06:00,
1000000000149835,77013940127,mKcell,mMTS,mKcell,D77,D02,2016-04-12T14:26:38+06:00,
1000000000149838,77082883233,mMTS,mAltel,mAltel,,D77,2016-04-12T14:26:56+06:00,
1000000000149839,77089590995,mMTS,mAltel,mAltel,,D77,2016-04-12T14:27:36+06:00,
1000000000149840,77070440351,mKarTel,mMTS,mMTS,,D01,2016-04-12T14:29:25+06:00,
1000000000149840,77070440352,mKarTel,mMTS,mMTS,,D01,2016-04-12T14:29:25+06:00,
1000000000149840,77070440353,mKarTel,mMTS,mMTS,,D01,2016-04-12T14:29:25+06:00,
1000000000149840,77071117716,mKarTel,mMTS,mMTS,,D01,2016-04-12T14:29:25+06:00,
1000000000149840,77071802813,mKarTel,mMTS,mMTS,,D01,2016-04-12T14:29:25+06:00,
1000000000149840,77072669994,mKarTel,mMTS,mMTS,,D01,2016-04-12T14:29:25+06:00,
1000000000149840,77072669995,mKarTel,mMTS,mMTS,,D01,2016-04-12T14:29:25+06:00,
1000000000149840,77072669996,mKarTel,mMTS,mMTS,,D01,2016-04-12T14:29:25+06:00,
1000000000149840,77072669997,mKarTel,mMTS,mMTS,,D01,2016-04-12T14:29:25+06:00,
1000000000149840,77075753609,mKarTel,mMTS,mMTS,,D01,2016-04-12T14:29:25+06:00,
1000000000149840,77078074172,mKarTel,mMTS,mMTS,,D01,2016-04-12T14:29:25+06:00,
1000000000149840,77079779755,mKarTel,mMTS,mMTS,,D01,2016-04-12T14:29:25+06:00,
1000000000149840,77471657410,mKarTel,mMTS,mMTS,,D01,2016-04-12T14:29:25+06:00,
1000000000149840,77472669609,mKarTel,mMTS,mMTS,,D01,2016-04-12T14:29:25+06:00,
1000000000149840,77479493861,mKarTel,mMTS,mMTS,,D01,2016-04-12T14:29:25+06:00,
1000000000149840,77479493878,mKarTel,mMTS,mMTS,,D01,2016-04-12T14:29:25+06:00,
1000000000149840,77479493879,mKarTel,mMTS,mMTS,,D01,2016-04-12T14:29:25+06:00,
1000000000149841,77001126456,mMTS,mAltel,mAltel,,D77,2016-04-12T14:28:47+06:00,
