NPId,Number,RecipientId,DonorId,RangeHolderId,OldRoute,NewRoute,PortDate,RowCount
1000000000334404,77015050360,mMTS,mKcell,mKcell,,D77,2017-02-24T16:30:17+06:00,29
1000000000334405,77028777444,mMTS,mKcell,mKcell,,D77,2017-02-24T16:30:30+06:00,
1000000000334406,77010121010,mKarTel,mKcell,mKcell,,D01,2017-02-24T16:30:55+06:00,
1000000000334408,77477778199,mKcell,mMTS,mMTS,,D02,2017-02-24T16:31:45+06:00,
1000000000334409,77017834908,mKarTel,mKcell,mKcell,,D01,2017-02-24T16:32:01+06:00,
1000000000334410,77077777741,mKcell,mMTS,mMTS,,D02,2017-02-24T16:32:16+06:00,
1000000000334412,77001007755,mKcell,mKarTel,mAltel,D01,D02,2017-02-24T16:35:42+06:00,
1000000000334416,77029811908,mKarTel,mKcell,mKcell,,D01,2017-02-24T16:40:28+06:00,
1000000000334418,77083422779,mMTS,mAltel,mAltel,,D77,2017-02-24T16:42:33+06:00,
1000000000334419,77769399991,mKarTel,mMTS,mKarTel,D77,D01,2017-02-24T16:42:48+06:00,
1000000000334420,77003333909,mMTS,mAltel,mAltel,,D77,2017-02-24T16:45:12+06:00,
1000000000334422,77755000076,mAltel,mKcell,mKcell,,D07,2017-02-24T16:46:51+06:00,
1000000000334423,77054441595,mAltel,mKarTel,mKarTel,,D07,2017-02-24T16:47:29+06:00,
1000000000334425,77071515715,mMTS,mKcell,mMTS,D02,D77,2017-02-24T16:47:59+06:00,
1000000000334426,77071457713,mMTS,mKcell,mMTS,D02,D77,2017-02-24T16:48:01+06:00,
1000000000334428,77024398091,mKarTel,mKcell,mKcell,,D01,2017-02-24T16:49:05+06:00,
1000000000334432,77770123425,mMTS,mKarTel,mKarTel,,D77,2017-02-24T16:49:25+06:00,
1000000000334433,77010000478,mAltel,mKcell,mKcell,,D07,2017-02-24T16:49:56+06:00,
1000000000334435,77757181918,mKarTel,mKcell,mKcell,,D01,2017-02-24T16:52:11+06:00,
1000000000334436,77472363428,mKarTel,mMTS,mMTS,,D01,2017-02-24T16:54:34+06:00,
1000000000334437,77779626262,mKcell,mKarTel,mKarTel,,D02,2017-02-24T16:55:30+06:00,
1000000000334438,77718050505,mMTS,mKarTel,mKarTel,,D77,2017-02-24T16:55:44+06:00,
1000000000334439,77479495050,mMTS,mAltel,mMTS,D07,D77,2017-02-24T16:55:19+06:00,
1000000000334440,77051513622,mMTS,mKarTel,mKarTel,,D77,2017-02-24T16:55:58+06:00,
1000000000334443,77771143722,mKarTel,mMTS,mKarTel,D77,D01,2017-02-24T16:57:42+06:00,
1000000000334444,77715483331,mAltel,mKarTel,mKarTel,,D07,2017-02-24T16:57:58+06:00,
1000000000334445,77054634977,mMTS,mKarTel,mKarTel,,D77,2017-02-24T16:58:15+06:00,
1000000000334446,77001123050,mMTS,mAltel,mAltel,,D77,2017-02-24T16:58:00+06:00,
1000000000334448,77001123060,mMTS,mAltel,mAltel,,D77,2017-02-24T16:59:27+06:00,
