NPId,Number,RecipientId,DonorId,RangeHolderId,OldRoute,NewRoute,PortDate,RowCount
1000000000281690,77053430343,mMTS,mKarTel,mKarTel,,D77,2016-11-20T18:01:58+06:00,4
1000000000281693,77003633333,mKcell,mMTS,mAltel,D77,D02,2016-11-20T18:12:22+06:00,
1000000000281694,77076000977,mAltel,mKcell,mMTS,D02,D07,2016-11-20T18:12:52+06:00,
1000000000281695,77075444455,mKarTel,mMTS,mMTS,,D01,2016-11-20T18:25:10+06:00,
