NPId,Number,RecipientId,DonorId,RangeHolderId,OldRoute,NewRoute,PortDate,RowCount
1000000000242840,77014007999,mMTS,mKcell,mKcell,,D77,2016-09-08T18:30:52+06:00,17
1000000000242841,77058854159,mKcell,mKarTel,mKarTel,,D02,2016-09-08T18:36:42+06:00,
1000000000242842,77086932350,mAltel,mMTS,mAltel,D77,D07,2016-09-08T18:36:19+06:00,
1000000000242843,77767980898,mKcell,mKarTel,mKarTel,,D02,2016-09-08T18:37:18+06:00,
1000000000242845,77058777775,mKcell,mKarTel,mKarTel,,D02,2016-09-08T18:37:58+06:00,
1000000000242846,77776444922,mKarTel,mMTS,mKarTel,D77,D01,2016-09-08T18:37:57+06:00,
1000000000242847,77018917766,mMTS,mKcell,mKcell,,D77,2016-09-08T18:37:57+06:00,
1000000000242848,77789202235,mKarTel,mKcell,mKcell,,D01,2016-09-08T18:41:54+06:00,
1000000000242849,77024028909,mKarTel,mKcell,mKcell,,D01,2016-09-08T18:42:12+06:00,
1000000000242853,77753003534,mMTS,mKcell,mKcell,,D77,2016-09-08T18:43:34+06:00,
1000000000242855,77476000814,mKcell,mMTS,mMTS,,D02,2016-09-08T18:46:55+06:00,
1000000000242856,77057009964,mAltel,mKarTel,mKarTel,,D07,2016-09-08T18:47:43+06:00,
1000000000242857,77026722400,mKcell,mMTS,mKcell,D77,D02,2016-09-08T18:49:07+06:00,
1000000000242860,77751595955,mKcell,mKarTel,mKcell,D01,D02,2016-09-08T18:52:14+06:00,
1000000000242861,77027955880,mKarTel,mKcell,mKcell,,D01,2016-09-08T18:51:52+06:00,
1000000000242862,77071185877,mKarTel,mMTS,mMTS,,D01,2016-09-08T18:52:34+06:00,
1000000000242864,77071801188,mKcell,mMTS,mMTS,,D02,2016-09-08T18:56:53+06:00,
