NPId,Number,RecipientId,DonorId,RangeHolderId,OldRoute,NewRoute,PortDate,RowCount
1000000000327580,77027909950,mKarTel,mKcell,mKcell,,D01,2017-02-11T17:32:29+06:00,27
1000000000327581,77760777734,mMTS,mKarTel,mKarTel,,D77,2017-02-11T17:33:23+06:00,
1000000000327582,77014932816,mKcell,mMTS,mKcell,D77,D02,2017-02-11T17:34:27+06:00,
1000000000327583,77071299347,mAltel,mMTS,mMTS,,D07,2017-02-11T17:34:15+06:00,
1000000000327584,77027018144,mMTS,mKcell,mKcell,,D77,2017-02-11T17:35:16+06:00,
1000000000327585,77013509393,mKcell,mAltel,mKcell,D07,D02,2017-02-11T17:36:47+06:00,
1000000000327586,77059662171,mAltel,mKarTel,mKarTel,,D07,2017-02-11T17:37:13+06:00,
1000000000327587,77001117807,mKcell,mAltel,mAltel,,D02,2017-02-11T17:37:05+06:00,
1000000000327588,77011113402,mKarTel,mKcell,mKcell,,D01,2017-02-11T17:37:32+06:00,
1000000000327589,77000900880,mMTS,mAltel,mAltel,,D77,2017-02-11T17:37:19+06:00,
1000000000327590,77077120559,mKarTel,mMTS,mMTS,,D01,2017-02-11T17:38:37+06:00,
1000000000327593,77784494491,mAltel,mKcell,mKcell,,D07,2017-02-11T17:40:30+06:00,
1000000000327594,77077377647,mKarTel,mMTS,mMTS,,D01,2017-02-11T17:41:16+06:00,
1000000000327595,77075777063,mKcell,mMTS,mMTS,,D02,2017-02-11T17:41:20+06:00,
1000000000327597,77077377646,mKarTel,mMTS,mMTS,,D01,2017-02-11T17:45:29+06:00,
1000000000327598,77053823655,mKarTel,mMTS,mKarTel,D77,D01,2017-02-11T17:46:06+06:00,
1000000000327599,77017485645,mMTS,mKcell,mKcell,,D77,2017-02-11T17:47:52+06:00,
1000000000327600,77017404680,mMTS,mKcell,mKcell,,D77,2017-02-11T17:48:02+06:00,
1000000000327602,77024559909,mKarTel,mKcell,mKcell,,D01,2017-02-11T17:49:49+06:00,
1000000000327603,77011344544,mMTS,mKcell,mKcell,,D77,2017-02-11T17:50:15+06:00,
1000000000327604,77077615141,mKcell,mMTS,mMTS,,D02,2017-02-11T17:51:55+06:00,
1000000000327605,77087017014,mKcell,mAltel,mAltel,,D02,2017-02-11T17:53:32+06:00,
1000000000327606,77023723207,mKarTel,mKcell,mKcell,,D01,2017-02-11T17:55:43+06:00,
1000000000327607,77024708983,mMTS,mKcell,mKcell,,D77,2017-02-11T17:56:05+06:00,
1000000000327608,77029997691,mKcell,mMTS,mKcell,D77,D02,2017-02-11T17:56:32+06:00,
1000000000327609,77714522277,mKcell,mKarTel,mKarTel,,D02,2017-02-11T17:56:53+06:00,
1000000000327610,77077121655,mKarTel,mMTS,mMTS,,D01,2017-02-11T17:59:41+06:00,
