NPId,Number,RecipientId,DonorId,RangeHolderId,OldRoute,NewRoute,PortDate,RowCount
1000000000421058,77754011182,mMTS,mKcell,mKcell,,D77,2017-07-13T14:01:16+06:00,38
1000000000421059,77059047788,mAltel,mKarTel,mKarTel,,D07,2017-07-13T14:01:32+06:00,
1000000000421062,77756876787,mKarTel,mKcell,mKcell,,D01,2017-07-13T14:01:52+06:00,
1000000000421063,77078682008,mAltel,mMTS,mMTS,,D07,2017-07-13T14:01:32+06:00,
1000000000421064,77077162114,mAltel,mMTS,mMTS,,D07,2017-07-13T14:02:14+06:00,
1000000000421065,77003402580,mKarTel,mAltel,mAltel,,D01,2017-07-13T14:03:00+06:00,
1000000000421066,77076010621,mKcell,mMTS,mMTS,,D02,2017-07-13T14:03:03+06:00,
1000000000421067,77755109806,mMTS,mKcell,mKcell,,D77,2017-07-13T14:03:11+06:00,
1000000000421068,77074334471,mKcell,mMTS,mMTS,,D02,2017-07-13T14:03:34+06:00,
1000000000421069,77752592040,mKarTel,mKcell,mKcell,,D01,2017-07-13T14:03:56+06:00,
1000000000421070,77757570973,mMTS,mKcell,mKcell,,D77,2017-07-13T14:04:22+06:00,
1000000000421071,77025504154,mMTS,mKcell,mKcell,,D77,2017-07-13T14:04:34+06:00,
1000000000421072,77771330022,mKarTel,mKcell,mKarTel,D02,D01,2017-07-13T14:06:03+06:00,
1000000000421073,77715599973,mMTS,mKarTel,mKarTel,,D77,2017-07-13T14:06:44+06:00,
1000000000421074,77758877700,mKarTel,mKcell,mKcell,,D01,2017-07-13T14:06:54+06:00,
1000000000421076,77075262521,mKarTel,mMTS,mMTS,,D01,2017-07-13T14:07:45+06:00,
1000000000421077,77718695700,mMTS,mKarTel,mKarTel,,D77,2017-07-13T14:09:02+06:00,
1000000000421078,77071544908,mKcell,mMTS,mMTS,,D02,2017-07-13T14:09:13+06:00,
1000000000421079,77054175237,mKarTel,mMTS,mKarTel,D77,D01,2017-07-13T14:10:28+06:00,
1000000000421080,77789330325,mAltel,mKcell,mKcell,,D07,2017-07-13T14:10:26+06:00,
1000000000421082,77768084466,mKarTel,mKcell,mKarTel,D02,D01,2017-07-13T14:11:59+06:00,
1000000000421083,77015158455,mAltel,mKcell,mKcell,,D07,2017-07-13T14:11:51+06:00,
1000000000421086,77025504236,mMTS,mKcell,mKcell,,D77,2017-07-13T14:12:46+06:00,
1000000000421087,77012141831,mMTS,mKcell,mKcell,,D77,2017-07-13T14:14:20+06:00,
1000000000421088,77781770088,mKcell,mMTS,mKcell,D77,D02,2017-07-13T14:15:06+06:00,
1000000000421089,77015144406,mMTS,mKcell,mKcell,,D77,2017-07-13T14:16:16+06:00,
1000000000421090,77056051064,mKcell,mKarTel,mKarTel,,D02,2017-07-13T14:17:51+06:00,
1000000000421092,77778090893,mMTS,mKarTel,mKarTel,,D77,2017-07-13T14:17:46+06:00,
1000000000421093,77472175169,mKarTel,mMTS,mMTS,,D01,2017-07-13T14:17:51+06:00,
1000000000421095,77719888839,mKcell,mKarTel,mKarTel,,D02,2017-07-13T14:19:29+06:00,
1000000000421096,77763699669,mKcell,mKarTel,mKarTel,,D02,2017-07-13T14:19:32+06:00,
1000000000421097,77025504582,mMTS,mKcell,mKcell,,D77,2017-07-13T14:19:19+06:00,
1000000000421098,77073513303,mKarTel,mMTS,mMTS,,D01,2017-07-13T14:21:50+06:00,
1000000000421099,77003368868,mKcell,mAltel,mAltel,,D02,2017-07-13T14:22:44+06:00,
1000000000421100,77072291167,mMTS,mAltel,mMTS,D07,D77,2017-07-13T14:24:00+06:00,
1000000000421101,77022160288,mKarTel,mKcell,mKcell,,D01,2017-07-13T14:24:42+06:00,
1000000000421102,77478105588,mMTS,mKcell,mMTS,D02,D77,2017-07-13T14:27:41+06:00,
1000000000421103,77028145453,mKarTel,mKcell,mKcell,,D01,2017-07-13T14:28:14+06:00,
