NPId,Number,RecipientId,DonorId,RangeHolderId,OldRoute,NewRoute,PortDate,RowCount
1000000000351997,77056148694,mMTS,mKarTel,mKarTel,,D77,2017-03-25T11:33:24+06:00,14
1000000000352033,77014575143,mMTS,mKcell,mKcell,,D77,2017-03-25T11:33:54+06:00,
1000000000352034,77771470681,mKarTel,mAltel,mKarTel,D07,D01,2017-03-25T11:34:45+06:00,
1000000000352035,77051118020,mKcell,mAltel,mKarTel,D07,D02,2017-03-25T11:36:43+06:00,
1000000000352036,77772266663,mMTS,mKarTel,mKarTel,,D77,2017-03-25T11:39:10+06:00,
1000000000352037,77022888816,mKcell,mKarTel,mKcell,D01,D02,2017-03-25T11:39:40+06:00,
1000000000352039,77085506668,mKcell,mAltel,mAltel,,D02,2017-03-25T11:42:31+06:00,
1000000000352040,77056057979,mKcell,mMTS,mKarTel,D77,D02,2017-03-25T11:44:21+06:00,
1000000000352041,77789582828,mAltel,mKcell,mKcell,,D07,2017-03-25T11:45:13+06:00,
1000000000352042,77071072727,mAltel,mMTS,mMTS,,D07,2017-03-25T11:45:36+06:00,
1000000000352043,77757205444,mAltel,mKcell,mKcell,,D07,2017-03-25T11:46:58+06:00,
1000000000352045,77079084410,mKcell,mMTS,mMTS,,D02,2017-03-25T11:55:33+06:00,
1000000000352046,77079084420,mKcell,mMTS,mMTS,,D02,2017-03-25T11:56:55+06:00,
1000000000352047,77775666966,mKarTel,mKcell,mKarTel,D02,D01,2017-03-25T11:59:29+06:00,
