NPId,Number,RecipientId,DonorId,RangeHolderId,OldRoute,NewRoute,PortDate,RowCount
1000000000125940,77717020820,mMTS,mKarTel,mKarTel,,D77,2016-03-15T16:30:44+06:00,61
1000000000125948,77717020821,mMTS,mKarTel,mKarTel,,D77,2016-03-15T16:32:21+06:00,
1000000000125952,77717020822,mMTS,mKarTel,mKarTel,,D77,2016-03-15T16:33:28+06:00,
1000000000125956,77717020825,mMTS,mKarTel,mKarTel,,D77,2016-03-15T16:34:01+06:00,
1000000000125958,77717020826,mMTS,mKarTel,mKarTel,,D77,2016-03-15T16:34:46+06:00,
1000000000125961,77717020827,mMTS,mKarTel,mKarTel,,D77,2016-03-15T16:35:08+06:00,
1000000000125963,77717807792,mMTS,mKarTel,mKarTel,,D77,2016-03-15T16:35:40+06:00,
1000000000125964,77717807793,mMTS,mKarTel,mKarTel,,D77,2016-03-15T16:36:11+06:00,
1000000000125973,77717807797,mMTS,mKarTel,mKarTel,,D77,2016-03-15T16:38:21+06:00,
1000000000125974,77718005841,mMTS,mKarTel,mKarTel,,D77,2016-03-15T16:38:51+06:00,
1000000000125980,77718005843,mMTS,mKarTel,mKarTel,,D77,2016-03-15T16:40:58+06:00,
1000000000125984,77718005844,mMTS,mKarTel,mKarTel,,D77,2016-03-15T16:42:35+06:00,
1000000000125989,77718005845,mMTS,mKarTel,mKarTel,,D77,2016-03-15T16:44:32+06:00,
1000000000125990,77718005846,mMTS,mKarTel,mKarTel,,D77,2016-03-15T16:44:14+06:00,
1000000000125991,77718005849,mMTS,mKarTel,mKarTel,,D77,2016-03-15T16:44:32+06:00,
1000000000125997,77762222486,mKcell,mKarTel,mKarTel,,D02,2016-03-15T16:32:37+06:00,
1000000000125998,77054059027,mAltel,mKarTel,mKarTel,,D07,2016-03-15T16:31:50+06:00,
1000000000126002,77762222186,mKcell,mKarTel,mKarTel,,D02,2016-03-15T16:34:09+06:00,
1000000000126004,77017287573,mMTS,mKcell,mKcell,,D77,2016-03-15T16:34:46+06:00,
1000000000126006,77762222485,mKcell,mKarTel,mKarTel,,D02,2016-03-15T16:36:33+06:00,
1000000000126007,77756245014,mMTS,mKcell,mKcell,,D77,2016-03-15T16:35:20+06:00,
1000000000126010,77076661345,mAltel,mMTS,mMTS,,D07,2016-03-15T16:36:17+06:00,
1000000000126011,77762222483,mKcell,mKarTel,mKarTel,,D02,2016-03-15T16:38:07+06:00,
1000000000126012,77787444489,mMTS,mAltel,mKcell,D07,D77,2016-03-15T16:37:11+06:00,
1000000000126013,77762222175,mKcell,mKarTel,mKarTel,,D02,2016-03-15T16:39:45+06:00,
1000000000126015,77756453911,mMTS,mKcell,mKcell,,D77,2016-03-15T16:38:53+06:00,
1000000000126016,77014189508,mAltel,mKcell,mKcell,,D07,2016-03-15T16:39:12+06:00,
1000000000126018,77715757942,mKcell,mKarTel,mKarTel,,D02,2016-03-15T16:40:32+06:00,
1000000000126019,77762222394,mKcell,mKarTel,mKarTel,,D02,2016-03-15T16:40:56+06:00,
1000000000126020,77774868889,mAltel,mKarTel,mKarTel,,D07,2016-03-15T16:40:59+06:00,
1000000000126021,77055057779,mAltel,mKarTel,mKarTel,,D07,2016-03-15T16:41:17+06:00,
1000000000126022,77754085044,mMTS,mKcell,mKcell,,D77,2016-03-15T16:41:07+06:00,
1000000000126025,77778544449,mAltel,mKarTel,mKarTel,,D07,2016-03-15T16:43:36+06:00,
1000000000126026,77766200579,mKcell,mKarTel,mKarTel,,D02,2016-03-15T16:44:23+06:00,
1000000000126027,77015250279,mAltel,mKcell,mKcell,,D07,2016-03-15T16:43:32+06:00,
1000000000126028,77775707550,mMTS,mKarTel,mKarTel,,D77,2016-03-15T16:44:12+06:00,
1000000000126029,77762222375,mKcell,mKarTel,mKarTel,,D02,2016-03-15T16:45:01+06:00,
1000000000126030,77054796378,mKcell,mKarTel,mKarTel,,D02,2016-03-15T16:45:02+06:00,
1000000000126031,77753205833,mAltel,mKcell,mKcell,,D07,2016-03-15T16:44:02+06:00,
1000000000126032,77762222317,mKcell,mKarTel,mKarTel,,D02,2016-03-15T16:45:13+06:00,
1000000000126036,77762222386,mKcell,mKarTel,mKarTel,,D02,2016-03-15T16:46:43+06:00,
1000000000126037,77071252596,mAltel,mMTS,mMTS,,D07,2016-03-15T16:46:25+06:00,
1000000000126038,77774565957,mMTS,mKarTel,mKarTel,,D77,2016-03-15T16:47:13+06:00,
1000000000126039,77013895487,mMTS,mKcell,mKcell,,D77,2016-03-15T16:46:55+06:00,
1000000000126041,77762222497,mKcell,mKarTel,mKarTel,,D02,2016-03-15T16:49:03+06:00,
1000000000126042,77057734567,mAltel,mKarTel,mKarTel,,D07,2016-03-15T16:48:26+06:00,
1000000000126043,77757100838,mMTS,mKcell,mKcell,,D77,2016-03-15T16:48:14+06:00,
1000000000126045,77071455530,mAltel,mMTS,mMTS,,D07,2016-03-15T16:49:10+06:00,
1000000000126046,77762222184,mKcell,mKarTel,mKarTel,,D02,2016-03-15T16:50:49+06:00,
1000000000126048,77000271090,mMTS,mAltel,mAltel,,D77,2016-03-15T16:49:50+06:00,
1000000000126050,77762222395,mKcell,mKarTel,mKarTel,,D02,2016-03-15T16:51:33+06:00,
1000000000126052,77027775499,mKcell,mMTS,mKcell,D77,D02,2016-03-15T16:51:16+06:00,
1000000000126055,77762222378,mKcell,mKarTel,mKarTel,,D02,2016-03-15T16:52:31+06:00,
1000000000126056,77781449496,mKarTel,mKcell,mKcell,,D01,2016-03-15T16:52:14+06:00,
1000000000126060,77016895778,mMTS,mKcell,mKcell,,D77,2016-03-15T16:54:40+06:00,
1000000000126063,77762222195,mKcell,mKarTel,mKarTel,,D02,2016-03-15T16:57:21+06:00,
1000000000126064,77751705904,mMTS,mKcell,mKcell,,D77,2016-03-15T16:56:12+06:00,
1000000000126069,77762222183,mKcell,mKarTel,mKarTel,,D02,2016-03-15T16:58:31+06:00,
1000000000126071,77762222492,mKcell,mKarTel,mKarTel,,D02,2016-03-15T16:59:08+06:00,
1000000000126072,77711894023,mMTS,mKarTel,mKarTel,,D77,2016-03-15T16:58:37+06:00,
1000000000126073,77757466102,mAltel,mKcell,mKcell,,D07,2016-03-15T16:59:02+06:00,
