NPId,Number,RecipientId,DonorId,RangeHolderId,OldRoute,NewRoute,PortDate,RowCount
1000000000166780,77058883188,mKcell,mKarTel,mKarTel,,D02,2016-05-03T19:32:10+06:00,13
1000000000166781,77083454505,mMTS,mAltel,mAltel,,D77,2016-05-03T19:33:44+06:00,
1000000000166783,77472167999,mKcell,mMTS,mMTS,,D02,2016-05-03T19:45:05+06:00,
1000000000166789,77057651166,mMTS,mKarTel,mKarTel,,D77,2016-05-03T19:46:11+06:00,
1000000000166790,77057995369,mKcell,mKarTel,mKarTel,,D02,2016-05-03T19:48:37+06:00,
1000000000166791,77770053921,mKcell,mKarTel,mKarTel,,D02,2016-05-03T19:50:43+06:00,
1000000000166792,77774056666,mMTS,mKarTel,mKarTel,,D77,2016-05-03T19:48:56+06:00,
1000000000166793,77755627988,mKcell,mMTS,mKcell,D77,D02,2016-05-03T19:50:22+06:00,
1000000000166798,77017220684,mMTS,mKcell,mKcell,,D77,2016-05-03T19:52:21+06:00,
1000000000166800,77779773829,mKarTel,mAltel,mKarTel,D07,D01,2016-05-03T19:54:51+06:00,
1000000000166801,77773002133,mKcell,mKarTel,mKarTel,,D02,2016-05-03T19:55:43+06:00,
1000000000166802,77074211155,mAltel,mMTS,mMTS,,D07,2016-05-03T19:57:18+06:00,
1000000000166803,77012221767,mMTS,mKcell,mKcell,,D77,2016-05-03T19:57:38+06:00,
