NPId,Number,RecipientId,DonorId,RangeHolderId,OldRoute,NewRoute,PortDate,RowCount
1000000000125391,77717093129,mKcell,mKarTel,mKarTel,,D02,2016-03-15T12:07:43+06:00,20
1000000000125410,77079555666,mAltel,mMTS,mMTS,,D07,2016-03-15T12:00:31+06:00,
1000000000125411,77089999996,mMTS,mAltel,mAltel,,D77,2016-03-15T12:05:22+06:00,
1000000000125412,77075163990,mMTS,mAltel,mMTS,D07,D77,2016-03-15T12:07:11+06:00,
1000000000125413,77757910172,mAltel,mKcell,mKcell,,D07,2016-03-15T12:08:32+06:00,
1000000000125417,77789285092,mAltel,mKcell,mKcell,,D07,2016-03-15T12:11:57+06:00,
1000000000125419,77075956850,mAltel,mMTS,mMTS,,D07,2016-03-15T12:12:55+06:00,
1000000000125420,77778661033,mKarTel,mAltel,mKarTel,D07,D01,2016-03-15T12:13:42+06:00,
1000000000125422,77017573413,mMTS,mKcell,mKcell,,D77,2016-03-15T12:13:55+06:00,
1000000000125423,77015386410,mMTS,mAltel,mKcell,D07,D77,2016-03-15T12:13:51+06:00,
1000000000125428,77055244440,mMTS,mKarTel,mKarTel,,D77,2016-03-15T12:16:40+06:00,
1000000000125430,77014584109,mKcell,mAltel,mKcell,D07,D02,2016-03-15T12:16:43+06:00,
1000000000125431,77755381171,mAltel,mKcell,mKcell,,D07,2016-03-15T12:18:03+06:00,
1000000000125432,77011419988,mMTS,mKcell,mKcell,,D77,2016-03-15T12:19:21+06:00,
1000000000125433,77019822830,mAltel,mKcell,mKcell,,D07,2016-03-15T12:20:24+06:00,
1000000000125437,77014715708,mAltel,mKcell,mKcell,,D07,2016-03-15T12:22:59+06:00,
1000000000125440,77782787373,mMTS,mKcell,mKcell,,D77,2016-03-15T12:26:08+06:00,
1000000000125442,77015557202,mKcell,mAltel,mKcell,D07,D02,2016-03-15T12:27:04+06:00,
1000000000125444,77073318131,mAltel,mMTS,mMTS,,D07,2016-03-15T12:28:07+06:00,
1000000000125445,77021008009,mAltel,mKcell,mKcell,,D07,2016-03-15T12:28:37+06:00,
