NPId,Number,RecipientId,DonorId,RangeHolderId,OldRoute,NewRoute,PortDate,RowCount
1000000000350265,77477772089,mKcell,mMTS,mMTS,,D02,2017-03-20T18:01:01+06:00,9
1000000000350266,77772558414,mMTS,mKarTel,mKarTel,,D77,2017-03-20T18:02:11+06:00,
1000000000350270,77056626111,mMTS,mKarTel,mKarTel,,D77,2017-03-20T18:05:06+06:00,
1000000000350271,77022770709,mAltel,mKcell,mKcell,,D07,2017-03-20T18:06:32+06:00,
1000000000350272,77023279799,mKcell,mKarTel,mKcell,D01,D02,2017-03-20T18:07:39+06:00,
1000000000350274,77073206000,mKarTel,mMTS,mMTS,,D01,2017-03-20T18:09:54+06:00,
1000000000350275,77714910602,mMTS,mKarTel,mKarTel,,D77,2017-03-20T18:13:13+06:00,
1000000000350276,77012262206,mAltel,mKcell,mKcell,,D07,2017-03-20T18:15:34+06:00,
1000000000350279,77022144026,mMTS,mKcell,mKcell,,D77,2017-03-20T18:27:48+06:00,
