NPId,Number,RecipientId,DonorId,RangeHolderId,OldRoute,NewRoute,PortDate,RowCount
1000000000189347,77055756491,mKcell,mKarTel,mKarTel,,D02,2016-06-07T14:30:08+06:00,31
1000000000189349,77017170794,mMTS,mKcell,mKcell,,D77,2016-06-07T14:32:55+06:00,
1000000000189350,77015364632,mMTS,mKcell,mKcell,,D77,2016-06-07T14:34:43+06:00,
1000000000189351,77077122991,mMTS,mAltel,mMTS,D07,D77,2016-06-07T14:31:37+06:00,
1000000000189352,77776250099,mMTS,mKarTel,mKarTel,,D77,2016-06-07T14:32:26+06:00,
1000000000189353,77001110007,mMTS,mAltel,mAltel,,D77,2016-06-07T14:33:36+06:00,
1000000000189354,77714027549,mMTS,mKarTel,mKarTel,,D77,2016-06-07T14:35:39+06:00,
1000000000189355,77475525505,mKcell,mMTS,mMTS,,D02,2016-06-07T14:36:36+06:00,
1000000000189356,77057454534,mMTS,mKarTel,mKarTel,,D77,2016-06-07T14:36:39+06:00,
1000000000189357,77761977977,mMTS,mKarTel,mKarTel,,D77,2016-06-07T14:36:50+06:00,
1000000000189359,77771541180,mMTS,mKarTel,mKarTel,,D77,2016-06-07T14:37:29+06:00,
1000000000189360,77052228322,mMTS,mKarTel,mKarTel,,D77,2016-06-07T14:38:29+06:00,
1000000000189361,77017242100,mKcell,mMTS,mKcell,D77,D02,2016-06-07T14:42:06+06:00,
1000000000189362,77753332991,mKarTel,mKcell,mKcell,,D01,2016-06-07T14:40:59+06:00,
1000000000189363,77017517664,mMTS,mKcell,mKcell,,D77,2016-06-07T14:42:36+06:00,
1000000000189364,77082473383,mMTS,mAltel,mAltel,,D77,2016-06-07T14:42:06+06:00,
1000000000189368,77751211329,mMTS,mKcell,mKcell,,D77,2016-06-07T14:44:37+06:00,
1000000000189371,77051946838,mMTS,mKarTel,mKarTel,,D77,2016-06-07T14:47:29+06:00,
1000000000189372,77001079216,mKarTel,mAltel,mAltel,,D01,2016-06-07T14:47:27+06:00,
1000000000189375,77071509020,mAltel,mMTS,mMTS,,D07,2016-06-07T14:49:28+06:00,
1000000000189376,77777512309,mMTS,mKarTel,mKarTel,,D77,2016-06-07T14:49:52+06:00,
1000000000189377,77774050520,mMTS,mKarTel,mKarTel,,D77,2016-06-07T14:49:58+06:00,
1000000000189378,77059003997,mMTS,mKarTel,mKarTel,,D77,2016-06-07T14:49:58+06:00,
1000000000189379,77766290833,mMTS,mKarTel,mKarTel,,D77,2016-06-07T14:49:58+06:00,
1000000000189382,77025777773,mAltel,mKcell,mKcell,,D07,2016-06-07T14:55:00+06:00,
1000000000189383,77082787818,mAltel,mMTS,mAltel,D77,D07,2016-06-07T14:56:19+06:00,
1000000000189384,77082777818,mAltel,mMTS,mAltel,D77,D07,2016-06-07T14:57:03+06:00,
1000000000189385,77753032299,mKcell,mKarTel,mKcell,D01,D02,2016-06-07T14:58:23+06:00,
1000000000189386,77019070989,mKarTel,mKcell,mKcell,,D01,2016-06-07T14:58:56+06:00,
1000000000189387,77773993288,mMTS,mKarTel,mKarTel,,D77,2016-06-07T14:59:07+06:00,
1000000000189388,77082122992,mMTS,mAltel,mAltel,,D77,2016-06-07T14:59:22+06:00,
