NPId,Number,RecipientId,DonorId,RangeHolderId,OldRoute,NewRoute,PortDate,RowCount
1000000000249679,77017106479,mKarTel,mKcell,mKcell,,D01,2016-09-23T09:40:16+06:00,7
1000000000249798,77474120313,mMTS,mKcell,mMTS,D02,D77,2016-09-23T09:36:51+06:00,
1000000000249800,77075559230,mKcell,mMTS,mMTS,,D02,2016-09-23T09:50:19+06:00,
1000000000249801,77072408212,mAltel,mMTS,mMTS,,D07,2016-09-23T09:50:27+06:00,
1000000000249802,77474717143,mAltel,mMTS,mMTS,,D07,2016-09-23T09:50:57+06:00,
1000000000249803,77014004305,mKarTel,mKcell,mKcell,,D01,2016-09-23T09:52:52+06:00,
1000000000249804,77082432275,mMTS,mAltel,mAltel,,D77,2016-09-23T09:56:04+06:00,
