NPId,Number,RecipientId,DonorId,RangeHolderId,OldRoute,NewRoute,PortDate,RowCount
1000000000135611,77019996565,mKarTel,mAltel,mKcell,D07,D01,2016-03-28T16:31:33+06:00,43
1000000000135612,77073378955,mKcell,mMTS,mMTS,,D02,2016-03-28T16:31:49+06:00,
1000000000135613,77073657373,mAltel,mMTS,mMTS,,D07,2016-03-28T16:31:40+06:00,
1000000000135614,77758757599,mMTS,mKcell,mKcell,,D77,2016-03-28T16:32:27+06:00,
1000000000135616,77028121984,mAltel,mKcell,mKcell,,D07,2016-03-28T16:33:36+06:00,
1000000000135617,77782944431,mAltel,mKcell,mKcell,,D07,2016-03-28T16:33:34+06:00,
1000000000135618,77759325717,mKcell,mAltel,mKcell,D07,D02,2016-03-28T16:33:51+06:00,
1000000000135619,77771856050,mKcell,mKarTel,mKarTel,,D02,2016-03-28T16:34:58+06:00,
1000000000135621,77017422082,mKarTel,mKcell,mKcell,,D01,2016-03-28T16:35:16+06:00,
1000000000135622,77474504417,mAltel,mMTS,mMTS,,D07,2016-03-28T16:34:46+06:00,
1000000000135627,77026891711,mMTS,mKcell,mKcell,,D77,2016-03-28T16:37:37+06:00,
1000000000135628,77005750550,mKarTel,mAltel,mAltel,,D01,2016-03-28T16:37:20+06:00,
1000000000135629,77472293943,mAltel,mMTS,mMTS,,D07,2016-03-28T16:37:30+06:00,
1000000000135630,77779994622,mMTS,mKarTel,mKarTel,,D77,2016-03-28T16:39:06+06:00,
1000000000135631,77029866250,mMTS,mKcell,mKcell,,D77,2016-03-28T16:38:44+06:00,
1000000000135632,77029976661,mKcell,mAltel,mKcell,D07,D02,2016-03-28T16:38:44+06:00,
1000000000135633,77077552101,mKcell,mKarTel,mMTS,D01,D02,2016-03-28T16:40:08+06:00,
1000000000135635,77003916452,mMTS,mAltel,mAltel,,D77,2016-03-28T16:39:02+06:00,
1000000000135637,77071968899,mMTS,mAltel,mMTS,D07,D77,2016-03-28T16:40:36+06:00,
1000000000135638,77751942651,mAltel,mKcell,mKcell,,D07,2016-03-28T16:41:25+06:00,
1000000000135640,77478477940,mMTS,mAltel,mMTS,D07,D77,2016-03-28T16:41:49+06:00,
1000000000135641,77075552101,mKcell,mKarTel,mMTS,D01,D02,2016-03-28T16:45:36+06:00,
1000000000135643,77773920407,mMTS,mKarTel,mKarTel,,D77,2016-03-28T16:46:08+06:00,
1000000000135646,77018835346,mMTS,mKcell,mKcell,,D77,2016-03-28T16:47:05+06:00,
1000000000135647,77077666135,mAltel,mMTS,mMTS,,D07,2016-03-28T16:47:09+06:00,
1000000000135648,77072591117,mAltel,mMTS,mMTS,,D07,2016-03-28T16:47:27+06:00,
1000000000135649,77024675153,mKarTel,mKcell,mKcell,,D01,2016-03-28T16:48:38+06:00,
1000000000135651,77777730237,mKcell,mKarTel,mKarTel,,D02,2016-03-28T16:49:45+06:00,
1000000000135652,77055642790,mKcell,mKarTel,mKarTel,,D02,2016-03-28T16:50:01+06:00,
1000000000135653,77777233330,mKcell,mKarTel,mKarTel,,D02,2016-03-28T16:50:34+06:00,
1000000000135654,77075871357,mAltel,mMTS,mMTS,,D07,2016-03-28T16:50:30+06:00,
1000000000135655,77011000220,mKarTel,mKcell,mKcell,,D01,2016-03-28T16:51:57+06:00,
1000000000135656,77013965691,mMTS,mKcell,mKcell,,D77,2016-03-28T16:51:40+06:00,
1000000000135657,77776766273,mMTS,mKarTel,mKarTel,,D77,2016-03-28T16:53:17+06:00,
1000000000135658,77757833926,mMTS,mKcell,mKcell,,D77,2016-03-28T16:53:07+06:00,
1000000000135659,77004664455,mMTS,mAltel,mAltel,,D77,2016-03-28T16:53:01+06:00,
1000000000135660,77015994830,mAltel,mKcell,mKcell,,D07,2016-03-28T16:54:02+06:00,
1000000000135662,77713232555,mAltel,mKarTel,mKarTel,,D07,2016-03-28T16:55:01+06:00,
1000000000135663,77021165007,mKcell,mAltel,mKcell,D07,D02,2016-03-28T16:54:08+06:00,
1000000000135664,77712539977,mMTS,mKarTel,mKarTel,,D77,2016-03-28T16:55:26+06:00,
1000000000135665,77023689399,mMTS,mKcell,mKcell,,D77,2016-03-28T16:55:18+06:00,
1000000000135666,77765777790,mMTS,mKarTel,mKarTel,,D77,2016-03-28T16:56:14+06:00,
1000000000135667,77018919955,mMTS,mKcell,mKcell,,D77,2016-03-28T16:55:51+06:00,
