NPId,Number,RecipientId,DonorId,RangeHolderId,OldRoute,NewRoute,PortDate,RowCount
1000000000298015,77786811959,mAltel,mKcell,mKcell,,D07,2016-12-21T10:33:03+06:00,4
1000000000298018,77085203002,mMTS,mAltel,mAltel,,D77,2016-12-21T10:36:14+06:00,
1000000000298023,77756485525,mKarTel,mKcell,mKcell,,D01,2016-12-21T10:47:35+06:00,
1000000000298026,77077519257,mAltel,mMTS,mMTS,,D07,2016-12-21T10:52:24+06:00,
