NPId,Number,RecipientId,DonorId,RangeHolderId,OldRoute,NewRoute,PortDate,RowCount
1000000000176647,77020007101,mMTS,mKcell,mKcell,,D77,2016-05-18T16:00:07+06:00,29
1000000000176648,77011823484,mMTS,mKcell,mKcell,,D77,2016-05-18T16:00:44+06:00,
1000000000176649,77775786489,mMTS,mKarTel,mKarTel,,D77,2016-05-18T16:01:21+06:00,
1000000000176650,77017168204,mMTS,mKcell,mKcell,,D77,2016-05-18T16:02:43+06:00,
1000000000176651,77022500207,mAltel,mMTS,mKcell,D77,D07,2016-05-18T16:02:44+06:00,
1000000000176653,77077303074,mMTS,mKcell,mMTS,D02,D77,2016-05-18T16:03:38+06:00,
1000000000176655,77014002620,mMTS,mKcell,mKcell,,D77,2016-05-18T16:05:22+06:00,
1000000000176656,77764092007,mMTS,mKarTel,mKarTel,,D77,2016-05-18T16:07:13+06:00,
1000000000176657,77014177807,mMTS,mKcell,mKcell,,D77,2016-05-18T16:08:02+06:00,
1000000000176658,77712066135,mMTS,mKarTel,mKarTel,,D77,2016-05-18T16:08:32+06:00,
1000000000176660,77019082002,mKarTel,mKcell,mKcell,,D01,2016-05-18T16:11:41+06:00,
1000000000176661,77022781069,mKcell,mMTS,mKcell,D77,D02,2016-05-18T16:12:13+06:00,
1000000000176662,77785468791,mAltel,mKcell,mKcell,,D07,2016-05-18T16:13:15+06:00,
1000000000176663,77015777063,mKarTel,mKcell,mKcell,,D01,2016-05-18T16:14:00+06:00,
1000000000176664,77001397685,mMTS,mAltel,mAltel,,D77,2016-05-18T16:13:52+06:00,
1000000000176665,77788880099,mMTS,mKcell,mKcell,,D77,2016-05-18T16:17:55+06:00,
1000000000176667,77022444884,mMTS,mKcell,mKcell,,D77,2016-05-18T16:22:26+06:00,
1000000000176669,77025357667,mAltel,mKcell,mKcell,,D07,2016-05-18T16:24:25+06:00,
1000000000176670,77025517997,mAltel,mKcell,mKcell,,D07,2016-05-18T16:25:02+06:00,
1000000000176671,77086757893,mKcell,mAltel,mAltel,,D02,2016-05-18T16:25:34+06:00,
1000000000176673,77477111995,mMTS,mAltel,mMTS,D07,D77,2016-05-18T16:26:38+06:00,
1000000000176674,77025108800,mMTS,mKcell,mKcell,,D77,2016-05-18T16:27:39+06:00,
1000000000176676,77005553360,mMTS,mAltel,mAltel,,D77,2016-05-18T16:27:40+06:00,
1000000000176679,77052950055,mKcell,mKarTel,mKarTel,,D02,2016-05-18T16:29:50+06:00,
1000000000176680,77057778999,mKarTel,mAltel,mKarTel,D07,D01,2016-05-18T16:29:24+06:00,
1000000000176681,77017177003,mMTS,mKcell,mKcell,,D77,2016-05-18T16:29:39+06:00,
1000000000176682,77059012728,mMTS,mKarTel,mKarTel,,D77,2016-05-18T16:29:48+06:00,
1000000000176683,77087705315,mKcell,mAltel,mAltel,,D02,2016-05-18T16:29:55+06:00,
1000000000176684,77017180180,mAltel,mKcell,mKcell,,D07,2016-05-18T16:29:58+06:00,
