NPId,Number,RecipientId,DonorId,RangeHolderId,OldRoute,NewRoute,PortDate,RowCount
1000000000307008,77765005525,mMTS,mKcell,mKarTel,D02,D77,2017-01-07T13:31:11+06:00,18
1000000000307009,77784208070,mMTS,mKcell,mKcell,,D77,2017-01-07T13:32:45+06:00,
1000000000307010,77017913435,mKarTel,mKcell,mKcell,,D01,2017-01-07T13:33:08+06:00,
1000000000307012,77011119642,mMTS,mKcell,mKcell,,D77,2017-01-07T13:34:04+06:00,
1000000000307014,77029838499,mKcell,mAltel,mKcell,D07,D02,2017-01-07T13:37:19+06:00,
1000000000307015,77017020179,mAltel,mKcell,mKcell,,D07,2017-01-07T13:38:07+06:00,
1000000000307016,77076000866,mAltel,mKarTel,mMTS,D01,D07,2017-01-07T13:39:21+06:00,
1000000000307018,77011594848,mKcell,mMTS,mKcell,D77,D02,2017-01-07T13:44:34+06:00,
1000000000307020,77006005573,mMTS,mAltel,mAltel,,D77,2017-01-07T13:45:35+06:00,
1000000000307021,77771638587,mAltel,mKarTel,mKarTel,,D07,2017-01-07T13:47:00+06:00,
1000000000307022,77000910015,mKcell,mAltel,mAltel,,D02,2017-01-07T13:48:05+06:00,
1000000000307023,77054198000,mAltel,mKarTel,mKarTel,,D07,2017-01-07T13:50:06+06:00,
1000000000307025,77007697496,mMTS,mAltel,mAltel,,D77,2017-01-07T13:52:38+06:00,
1000000000307026,77715859731,mAltel,mKarTel,mKarTel,,D07,2017-01-07T13:54:50+06:00,
1000000000307027,77011431511,mMTS,mAltel,mKcell,D07,D77,2017-01-07T13:56:01+06:00,
1000000000307029,77782444333,mAltel,mKcell,mKcell,D02,D07,2017-01-07T13:57:30+06:00,
1000000000307030,77017516852,mMTS,mKcell,mKcell,,D77,2017-01-07T13:57:31+06:00,
1000000000307031,77477377710,mAltel,mMTS,mMTS,,D07,2017-01-07T13:58:10+06:00,
