NPId,Number,RecipientId,DonorId,RangeHolderId,OldRoute,NewRoute,PortDate,RowCount
1000000000296110,77761396339,mKcell,mKarTel,mKarTel,,D02,2016-12-16T15:06:45+06:00,13
1000000000296111,77070222525,mKarTel,mMTS,mMTS,,D01,2016-12-16T15:06:45+06:00,
1000000000296112,77011056505,mMTS,mKcell,mKcell,,D77,2016-12-16T15:12:19+06:00,
1000000000296113,77055724336,mKarTel,mKcell,mKarTel,D02,D01,2016-12-16T15:15:21+06:00,
1000000000296114,77772273238,mMTS,mKarTel,mKarTel,,D77,2016-12-16T15:15:45+06:00,
1000000000296115,77755499666,mMTS,mKcell,mKcell,,D77,2016-12-16T15:17:36+06:00,
1000000000296116,77017607446,mMTS,mKcell,mKcell,,D77,2016-12-16T15:17:49+06:00,
1000000000296117,77712874529,mKarTel,mMTS,mKarTel,D77,D01,2016-12-16T15:18:14+06:00,
1000000000296118,77714467714,mMTS,mKarTel,mKarTel,,D77,2016-12-16T15:20:26+06:00,
1000000000296121,77751556684,mKarTel,mKcell,mKcell,,D01,2016-12-16T15:26:41+06:00,
1000000000296122,77476268806,mAltel,mMTS,mMTS,,D07,2016-12-16T15:26:26+06:00,
1000000000296123,77017607469,mMTS,mKcell,mKcell,,D77,2016-12-16T15:27:50+06:00,
1000000000296124,77027961081,mAltel,mKcell,mKcell,,D07,2016-12-16T15:28:17+06:00,
