NPId,Number,RecipientId,DonorId,RangeHolderId,OldRoute,NewRoute,PortDate,RowCount
1000000000168678,77055856363,mKcell,mKarTel,mKarTel,,D02,2016-05-06T13:28:31+06:00,13
1000000000168872,77016373261,mMTS,mKcell,mKcell,,D77,2016-05-06T13:01:41+06:00,
1000000000168877,77028170855,mMTS,mKcell,mKcell,,D77,2016-05-06T13:07:50+06:00,
1000000000168881,77784048051,mMTS,mKcell,mKcell,,D77,2016-05-06T13:09:39+06:00,
1000000000168882,77017729877,mMTS,mKcell,mKcell,,D77,2016-05-06T13:11:21+06:00,
1000000000168884,77081130313,mMTS,mAltel,mAltel,,D77,2016-05-06T13:10:55+06:00,
1000000000168886,77017212595,mKcell,mAltel,mKcell,D07,D02,2016-05-06T13:16:09+06:00,
1000000000168889,77022302865,mMTS,mAltel,mKcell,D07,D77,2016-05-06T13:17:20+06:00,
1000000000168891,77015533202,mAltel,mKcell,mKcell,,D07,2016-05-06T13:20:36+06:00,
1000000000168894,77077288873,mMTS,mKcell,mMTS,D02,D77,2016-05-06T13:23:45+06:00,
1000000000168895,77007702006,mKcell,mAltel,mAltel,,D02,2016-05-06T13:24:26+06:00,
1000000000168896,77004525445,mMTS,mAltel,mAltel,,D77,2016-05-06T13:24:31+06:00,
1000000000168899,77076244492,mAltel,mMTS,mMTS,,D07,2016-05-06T13:28:25+06:00,
