NPId,Number,RecipientId,DonorId,RangeHolderId,OldRoute,NewRoute,PortDate,RowCount
1000000000168201,77051750045,mKcell,mKarTel,mKarTel,,D02,2016-05-05T14:31:40+06:00,38
1000000000168203,77013859891,mKcell,mAltel,mKcell,D07,D02,2016-05-05T14:32:46+06:00,
1000000000168204,77081342022,mKarTel,mAltel,mAltel,,D01,2016-05-05T14:32:29+06:00,
1000000000168207,77089646767,mMTS,mAltel,mAltel,,D77,2016-05-05T14:34:30+06:00,
1000000000168208,77789992700,mMTS,mKcell,mKcell,,D77,2016-05-05T14:36:05+06:00,
1000000000168209,77017270258,mMTS,mKcell,mKcell,,D77,2016-05-05T14:37:01+06:00,
1000000000168211,77017828020,mKcell,mMTS,mKcell,D77,D02,2016-05-05T14:37:45+06:00,
1000000000168213,77017011440,mKarTel,mAltel,mKcell,D07,D01,2016-05-05T14:38:24+06:00,
1000000000168215,77071488461,mMTS,mAltel,mMTS,D07,D77,2016-05-05T14:38:24+06:00,
1000000000168216,77772792635,mKcell,mKarTel,mKarTel,,D02,2016-05-05T14:41:03+06:00,
1000000000168217,77766862929,mKcell,mKarTel,mKarTel,,D02,2016-05-05T14:41:03+06:00,
1000000000168219,77019567208,mKarTel,mKcell,mKcell,,D01,2016-05-05T14:41:13+06:00,
1000000000168220,77089646161,mMTS,mAltel,mAltel,,D77,2016-05-05T14:40:54+06:00,
1000000000168221,77010498999,mMTS,mKcell,mKcell,,D77,2016-05-05T14:43:08+06:00,
1000000000168222,77083001410,mKarTel,mAltel,mAltel,,D01,2016-05-05T14:42:23+06:00,
1000000000168223,77015131909,mMTS,mKcell,mKcell,,D77,2016-05-05T14:44:08+06:00,
1000000000168224,77087761118,mMTS,mAltel,mAltel,,D77,2016-05-05T14:44:05+06:00,
1000000000168225,77023142990,mKarTel,mKcell,mKcell,,D01,2016-05-05T14:45:24+06:00,
1000000000168227,77771553131,mKcell,mKarTel,mKarTel,,D02,2016-05-05T14:46:31+06:00,
1000000000168228,77006570134,mMTS,mAltel,mAltel,,D77,2016-05-05T14:45:45+06:00,
1000000000168230,77051275691,mMTS,mKarTel,mKarTel,,D77,2016-05-05T14:49:51+06:00,
1000000000168231,77077774083,mKarTel,mMTS,mMTS,,D01,2016-05-05T14:50:13+06:00,
1000000000168232,77788884820,mMTS,mKcell,mKcell,,D77,2016-05-05T14:50:39+06:00,
1000000000168233,77000807755,mMTS,mAltel,mAltel,,D77,2016-05-05T14:51:02+06:00,
1000000000168234,77759697777,mMTS,mKcell,mKcell,,D77,2016-05-05T14:52:30+06:00,
1000000000168235,77004264189,mMTS,mAltel,mAltel,,D77,2016-05-05T14:53:30+06:00,
1000000000168236,77760060697,mKcell,mKarTel,mKarTel,,D02,2016-05-05T14:55:35+06:00,
1000000000168237,77000807722,mMTS,mAltel,mAltel,,D77,2016-05-05T14:54:57+06:00,
1000000000168238,77788880748,mMTS,mKcell,mKcell,,D77,2016-05-05T14:55:21+06:00,
1000000000168239,77752647164,mMTS,mKcell,mKcell,,D77,2016-05-05T14:55:34+06:00,
1000000000168240,77005775550,mMTS,mAltel,mAltel,,D77,2016-05-05T14:55:23+06:00,
1000000000168241,77016257115,mMTS,mKcell,mKcell,,D77,2016-05-05T14:57:16+06:00,
1000000000168242,77078494276,mKcell,mMTS,mMTS,,D02,2016-05-05T14:58:03+06:00,
1000000000168243,77089053275,mMTS,mAltel,mAltel,,D77,2016-05-05T14:57:42+06:00,
1000000000168245,77781692797,mMTS,mKcell,mKcell,,D77,2016-05-05T14:58:29+06:00,
1000000000168246,77002151414,mMTS,mAltel,mAltel,,D77,2016-05-05T14:58:17+06:00,
1000000000168247,77026729118,mMTS,mKcell,mKcell,,D77,2016-05-05T14:58:29+06:00,
1000000000168248,77473534476,mMTS,mAltel,mMTS,D07,D77,2016-05-05T14:58:41+06:00,
