NPId,Number,RecipientId,DonorId,RangeHolderId,OldRoute,NewRoute,PortDate,RowCount
1000000000125968,77019377973,mKarTel,mKcell,mKcell,,D01,2016-03-15T18:04:43+06:00,57
1000000000125972,77015194843,mKarTel,mKcell,mKcell,,D01,2016-03-15T18:04:43+06:00,
1000000000126187,77717091159,mMTS,mKarTel,mKarTel,,D77,2016-03-15T18:02:07+06:00,
1000000000126190,77717091160,mMTS,mKarTel,mKarTel,,D77,2016-03-15T18:02:49+06:00,
1000000000126191,77717091161,mMTS,mKarTel,mKarTel,,D77,2016-03-15T18:03:07+06:00,
1000000000126194,77717091162,mMTS,mKarTel,mKarTel,,D77,2016-03-15T18:03:47+06:00,
1000000000126197,77717091163,mMTS,mKarTel,mKarTel,,D77,2016-03-15T18:04:25+06:00,
1000000000126201,77717091164,mMTS,mKarTel,mKarTel,,D77,2016-03-15T18:06:06+06:00,
1000000000126206,77717091165,mMTS,mKarTel,mKarTel,,D77,2016-03-15T18:07:51+06:00,
1000000000126215,77717807791,mMTS,mKarTel,mKarTel,,D77,2016-03-15T18:10:07+06:00,
1000000000126217,77717807790,mMTS,mKarTel,mKarTel,,D77,2016-03-15T18:10:27+06:00,
1000000000126223,77717807798,mMTS,mKarTel,mKarTel,,D77,2016-03-15T18:11:28+06:00,
1000000000126226,77718006621,mMTS,mKarTel,mKarTel,,D77,2016-03-15T18:12:26+06:00,
1000000000126229,77718006628,mMTS,mKarTel,mKarTel,,D77,2016-03-15T18:14:06+06:00,
1000000000126236,77783144928,mAltel,mKcell,mKcell,,D07,2016-03-15T18:00:28+06:00,
1000000000126237,77719907741,mMTS,mKarTel,mKarTel,,D77,2016-03-15T18:16:48+06:00,
1000000000126238,77719907742,mMTS,mKarTel,mKarTel,,D77,2016-03-15T18:17:06+06:00,
1000000000126239,77774645051,mKcell,mKarTel,mKarTel,,D02,2016-03-15T18:02:14+06:00,
1000000000126241,77715580587,mMTS,mKarTel,mKarTel,,D77,2016-03-15T18:17:28+06:00,
1000000000126244,77017114442,mKcell,mAltel,mKcell,D07,D02,2016-03-15T18:03:14+06:00,
1000000000126245,77715032222,mMTS,mKarTel,mKarTel,,D77,2016-03-15T18:20:47+06:00,
1000000000126246,77082451812,mKcell,mAltel,mAltel,,D02,2016-03-15T18:06:11+06:00,
1000000000126247,77715043333,mMTS,mKarTel,mKarTel,,D77,2016-03-15T18:21:32+06:00,
1000000000126248,77051510767,mMTS,mKarTel,mKarTel,,D77,2016-03-15T18:06:26+06:00,
1000000000126251,77715535711,mMTS,mKarTel,mKarTel,,D77,2016-03-15T18:22:12+06:00,
1000000000126252,77715535714,mMTS,mKarTel,mKarTel,,D77,2016-03-15T18:22:55+06:00,
1000000000126253,77014917557,mMTS,mKcell,mKcell,,D77,2016-03-15T18:07:06+06:00,
1000000000126254,77715535720,mMTS,mKarTel,mKarTel,,D77,2016-03-15T18:23:12+06:00,
1000000000126255,77477022110,mAltel,mMTS,mMTS,,D07,2016-03-15T18:07:07+06:00,
1000000000126256,77022020016,mKarTel,mKcell,mKcell,,D01,2016-03-15T18:07:26+06:00,
1000000000126258,77017658504,mMTS,mKcell,mKcell,,D77,2016-03-15T18:07:36+06:00,
1000000000126260,77715535729,mMTS,mKarTel,mKarTel,,D77,2016-03-15T18:25:53+06:00,
1000000000126261,77715535730,mMTS,mKarTel,mKarTel,,D77,2016-03-15T18:26:13+06:00,
1000000000126262,77715535739,mMTS,mKarTel,mKarTel,,D77,2016-03-15T18:26:38+06:00,
1000000000126263,77715535746,mMTS,mKarTel,mKarTel,,D77,2016-03-15T18:26:57+06:00,
1000000000126265,77017770961,mAltel,mKcell,mKcell,,D07,2016-03-15T18:12:59+06:00,
1000000000126268,77756664592,mKarTel,mKcell,mKcell,,D01,2016-03-15T18:14:43+06:00,
1000000000126269,77754095300,mAltel,mKcell,mKcell,,D07,2016-03-15T18:14:40+06:00,
1000000000126270,77786781988,mAltel,mKcell,mKcell,,D07,2016-03-15T18:14:39+06:00,
1000000000126271,77017305170,mKarTel,mKcell,mKcell,,D01,2016-03-15T18:15:05+06:00,
1000000000126278,77773507722,mKcell,mKarTel,mKarTel,,D02,2016-03-15T18:18:26+06:00,
1000000000126280,77051486794,mMTS,mKarTel,mKarTel,,D77,2016-03-15T18:19:11+06:00,
1000000000126282,77014023112,mMTS,mKcell,mKcell,,D77,2016-03-15T18:18:46+06:00,
1000000000126284,77004200202,mKcell,mAltel,mAltel,,D02,2016-03-15T18:20:00+06:00,
1000000000126286,77752100053,mAltel,mKcell,mKcell,,D07,2016-03-15T18:20:24+06:00,
1000000000126287,77014657534,mAltel,mKcell,mKcell,,D07,2016-03-15T18:20:54+06:00,
1000000000126290,77011116809,mMTS,mKcell,mKcell,,D77,2016-03-15T18:21:36+06:00,
1000000000126291,77773500550,mMTS,mKarTel,mKarTel,,D77,2016-03-15T18:22:54+06:00,
1000000000126293,77002222444,mKcell,mAltel,mAltel,,D02,2016-03-15T18:23:25+06:00,
1000000000126294,77752100054,mAltel,mKcell,mKcell,,D07,2016-03-15T18:24:15+06:00,
1000000000126296,77028544885,mMTS,mKcell,mKcell,,D77,2016-03-15T18:25:13+06:00,
1000000000126298,77015348199,mKarTel,mKcell,mKcell,,D01,2016-03-15T18:25:52+06:00,
1000000000126302,77012496080,mAltel,mKcell,mKcell,,D07,2016-03-15T18:26:12+06:00,
1000000000126305,77013401684,mMTS,mKcell,mKcell,,D77,2016-03-15T18:27:09+06:00,
1000000000126306,77019921673,mMTS,mAltel,mKcell,D07,D77,2016-03-15T18:26:54+06:00,
1000000000126308,77055000110,mKcell,mKarTel,mKarTel,,D02,2016-03-15T18:28:31+06:00,
1000000000126313,77771117073,mMTS,mKarTel,mKarTel,,D77,2016-03-15T18:29:17+06:00,
