NPId,Number,RecipientId,DonorId,RangeHolderId,OldRoute,NewRoute,PortDate,RowCount
1000000000353405,77771115051,mKcell,mKarTel,mKarTel,,D02,2017-03-27T17:00:44+06:00,58
1000000000353406,77025400740,mKcell,mKarTel,mKcell,D01,D02,2017-03-27T17:01:09+06:00,
1000000000353407,77471570292,mKcell,mMTS,mMTS,,D02,2017-03-27T17:01:03+06:00,
1000000000353408,77083000360,mKcell,mAltel,mAltel,,D02,2017-03-27T17:01:31+06:00,
1000000000353409,77783669896,mMTS,mKcell,mKcell,,D77,2017-03-27T17:01:51+06:00,
1000000000353410,77478423383,mKcell,mMTS,mMTS,,D02,2017-03-27T17:03:29+06:00,
1000000000353411,77781113627,mKarTel,mKcell,mKcell,,D01,2017-03-27T17:03:46+06:00,
1000000000353412,77765241111,mKcell,mKarTel,mKarTel,,D02,2017-03-27T17:04:28+06:00,
1000000000353413,77077901102,mAltel,mMTS,mMTS,,D07,2017-03-27T17:05:24+06:00,
1000000000353414,77019510608,mKarTel,mAltel,mKcell,D07,D01,2017-03-27T17:06:13+06:00,
1000000000353415,77471570094,mKcell,mMTS,mMTS,,D02,2017-03-27T17:06:11+06:00,
1000000000353416,77012016303,mKcell,mMTS,mKcell,D77,D02,2017-03-27T17:06:24+06:00,
1000000000353418,77015646732,mMTS,mKcell,mKcell,D02,D77,2017-03-27T17:07:55+06:00,
1000000000353419,77471570284,mKcell,mMTS,mMTS,,D02,2017-03-27T17:08:16+06:00,
1000000000353420,77019448955,mKarTel,mKcell,mKcell,,D01,2017-03-27T17:09:01+06:00,
1000000000353422,77024462639,mAltel,mKcell,mKcell,,D07,2017-03-27T17:09:14+06:00,
1000000000353423,77071144620,mAltel,mMTS,mMTS,,D07,2017-03-27T17:09:43+06:00,
1000000000353424,77073338387,mAltel,mMTS,mMTS,,D07,2017-03-27T17:10:11+06:00,
1000000000353425,77473252615,mKcell,mMTS,mMTS,,D02,2017-03-27T17:10:31+06:00,
1000000000353426,77027873040,mKarTel,mKcell,mKcell,,D01,2017-03-27T17:11:22+06:00,
1000000000353427,77058370186,mKarTel,mMTS,mKarTel,D77,D01,2017-03-27T17:11:14+06:00,
1000000000353428,77471666428,mKcell,mMTS,mMTS,,D02,2017-03-27T17:11:11+06:00,
1000000000353429,77011567881,mKarTel,mKcell,mKcell,,D01,2017-03-27T17:11:51+06:00,
1000000000353430,77471570274,mKcell,mMTS,mMTS,,D02,2017-03-27T17:11:57+06:00,
1000000000353431,77777555055,mAltel,mKarTel,mKarTel,,D07,2017-03-27T17:12:23+06:00,
1000000000353433,77014507532,mKarTel,mKcell,mKcell,,D01,2017-03-27T17:13:36+06:00,
1000000000353434,77475038685,mKcell,mMTS,mMTS,,D02,2017-03-27T17:14:11+06:00,
1000000000353435,77759098505,mKarTel,mKcell,mKcell,,D01,2017-03-27T17:14:50+06:00,
1000000000353438,77007773685,mKcell,mAltel,mAltel,,D02,2017-03-27T17:15:47+06:00,
1000000000353440,77076866868,mKcell,mMTS,mMTS,,D02,2017-03-27T17:15:50+06:00,
1000000000353441,77471570059,mKcell,mMTS,mMTS,,D02,2017-03-27T17:16:12+06:00,
1000000000353442,77751813291,mKarTel,mKcell,mKcell,,D01,2017-03-27T17:16:20+06:00,
1000000000353443,77775189219,mKcell,mKarTel,mKarTel,,D02,2017-03-27T17:16:43+06:00,
1000000000353445,77473319072,mKcell,mMTS,mMTS,,D02,2017-03-27T17:17:16+06:00,
1000000000353446,77778855553,mAltel,mKarTel,mKarTel,,D07,2017-03-27T17:18:11+06:00,
1000000000353448,77473759163,mKcell,mMTS,mMTS,,D02,2017-03-27T17:19:52+06:00,
1000000000353449,77473252401,mKcell,mMTS,mMTS,,D02,2017-03-27T17:20:05+06:00,
1000000000353450,77052775737,mMTS,mKarTel,mKarTel,,D77,2017-03-27T17:21:03+06:00,
1000000000353452,77025253671,mKarTel,mKcell,mKcell,,D01,2017-03-27T17:21:35+06:00,
1000000000353453,77471666250,mKcell,mMTS,mMTS,,D02,2017-03-27T17:21:40+06:00,
1000000000353454,77081087642,mMTS,mAltel,mAltel,,D77,2017-03-27T17:23:09+06:00,
1000000000353455,77471570084,mKcell,mMTS,mMTS,,D02,2017-03-27T17:23:57+06:00,
1000000000353456,77028216999,mKarTel,mKcell,mKcell,,D01,2017-03-27T17:24:22+06:00,
1000000000353457,77710358850,mMTS,mKarTel,mKarTel,,D77,2017-03-27T17:25:12+06:00,
1000000000353458,77471570058,mKcell,mMTS,mMTS,,D02,2017-03-27T17:25:02+06:00,
1000000000353459,77055022444,mMTS,mKarTel,mKarTel,,D77,2017-03-27T17:25:20+06:00,
1000000000353461,77015500334,mKcell,mMTS,mKcell,D77,D02,2017-03-27T17:25:30+06:00,
1000000000353462,77479005055,mKcell,mMTS,mMTS,,D02,2017-03-27T17:26:40+06:00,
1000000000353463,77788889545,mMTS,mKcell,mKcell,,D77,2017-03-27T17:26:41+06:00,
1000000000353464,77473252126,mKcell,mMTS,mMTS,,D02,2017-03-27T17:26:50+06:00,
1000000000353465,77054015566,mKcell,mKarTel,mKarTel,,D02,2017-03-27T17:27:49+06:00,
1000000000353466,77026560332,mKarTel,mKcell,mKcell,,D01,2017-03-27T17:27:50+06:00,
1000000000353467,77473759162,mKcell,mMTS,mMTS,,D02,2017-03-27T17:27:39+06:00,
1000000000353468,77773466105,mKcell,mKarTel,mKarTel,,D02,2017-03-27T17:28:35+06:00,
1000000000353469,77019033339,mKcell,mAltel,mKcell,D07,D02,2017-03-27T17:28:10+06:00,
1000000000353471,77764879757,mKcell,mKarTel,mKarTel,,D02,2017-03-27T17:28:38+06:00,
1000000000353472,77076211886,mKarTel,mMTS,mMTS,,D01,2017-03-27T17:28:35+06:00,
1000000000353473,77086841507,mMTS,mAltel,mAltel,,D77,2017-03-27T17:29:45+06:00,
