NPId,Number,RecipientId,DonorId,RangeHolderId,OldRoute,NewRoute,PortDate,RowCount
1000000000227295,77013572632,mAltel,mKarTel,mKcell,D01,D07,2016-08-11T12:00:20+06:00,21
1000000000227296,77755000086,mKcell,mMTS,mKcell,D77,D02,2016-08-11T12:04:53+06:00,
1000000000227298,77079113811,mKarTel,mMTS,mMTS,,D01,2016-08-11T12:05:50+06:00,
1000000000227301,77015596922,mMTS,mKcell,mKcell,,D77,2016-08-11T12:07:32+06:00,
1000000000227302,77051041265,mKcell,mKarTel,mKarTel,,D02,2016-08-11T12:09:56+06:00,
1000000000227303,77772360199,mKarTel,mAltel,mKarTel,D07,D01,2016-08-11T12:10:06+06:00,
1000000000227305,77088260026,mKcell,mAltel,mAltel,,D02,2016-08-11T12:11:15+06:00,
1000000000227308,77773552385,mMTS,mKarTel,mKarTel,,D77,2016-08-11T12:14:05+06:00,
1000000000227309,77015386496,mMTS,mKcell,mKcell,,D77,2016-08-11T12:12:56+06:00,
1000000000227311,77012211632,mMTS,mKcell,mKcell,,D77,2016-08-11T12:13:52+06:00,
1000000000227314,77014872577,mAltel,mMTS,mKcell,D77,D07,2016-08-11T12:16:22+06:00,
1000000000227315,77773764506,mMTS,mKarTel,mKarTel,,D77,2016-08-11T12:19:01+06:00,
1000000000227317,77056292278,mKcell,mKarTel,mKarTel,,D02,2016-08-11T12:20:27+06:00,
1000000000227319,77021396363,mKcell,mMTS,mKcell,D77,D02,2016-08-11T12:24:26+06:00,
1000000000227320,77014643419,mAltel,mKcell,mKcell,,D07,2016-08-11T12:25:00+06:00,
1000000000227321,77775967787,mMTS,mKarTel,mKarTel,,D77,2016-08-11T12:26:40+06:00,
1000000000227322,77053838008,mAltel,mKarTel,mKarTel,,D07,2016-08-11T12:29:02+06:00,
1000000000227323,77013354764,mKcell,mMTS,mKcell,D77,D02,2016-08-11T12:27:43+06:00,
1000000000227324,77713693951,mMTS,mKarTel,mKarTel,,D77,2016-08-11T12:29:01+06:00,
1000000000227325,77756501022,mMTS,mKcell,mKcell,,D77,2016-08-11T12:27:49+06:00,
1000000000227326,77017555935,mKcell,mMTS,mKcell,D77,D02,2016-08-11T12:28:13+06:00,
