NPId,Number,RecipientId,DonorId,RangeHolderId,OldRoute,NewRoute,PortDate,RowCount
1000000000195648,77075525553,mKarTel,mAltel,mMTS,D07,D01,2016-06-18T13:31:09+06:00,30
1000000000195649,77474483139,mKcell,mMTS,mMTS,,D02,2016-06-18T13:32:20+06:00,
1000000000195650,77476010866,mAltel,mMTS,mMTS,,D07,2016-06-18T13:32:20+06:00,
1000000000195651,77471220692,mAltel,mMTS,mMTS,,D07,2016-06-18T13:33:02+06:00,
1000000000195652,77012232318,mKarTel,mKcell,mKcell,,D01,2016-06-18T13:33:39+06:00,
1000000000195654,77013322699,mKarTel,mKcell,mKcell,,D01,2016-06-18T13:34:56+06:00,
1000000000195655,77026298028,mAltel,mKcell,mKcell,,D07,2016-06-18T13:35:44+06:00,
1000000000195656,77083033333,mMTS,mAltel,mAltel,,D77,2016-06-18T13:36:03+06:00,
1000000000195657,77773477950,mKarTel,mMTS,mKarTel,D77,D01,2016-06-18T13:36:45+06:00,
1000000000195658,77028651204,mMTS,mKcell,mKcell,,D77,2016-06-18T13:37:26+06:00,
1000000000195661,77056122560,mMTS,mKarTel,mKarTel,,D77,2016-06-18T13:37:52+06:00,
1000000000195663,77757919999,mKcell,mAltel,mKcell,D07,D02,2016-06-18T13:43:33+06:00,
1000000000195665,77719877667,mMTS,mKarTel,mKarTel,,D77,2016-06-18T13:41:30+06:00,
1000000000195666,77025556073,mKarTel,mKcell,mKcell,,D01,2016-06-18T13:43:50+06:00,
1000000000195667,77028381723,mAltel,mKcell,mKcell,,D07,2016-06-18T13:44:31+06:00,
1000000000195668,77079650565,mAltel,mMTS,mMTS,,D07,2016-06-18T13:44:19+06:00,
1000000000195669,77014396575,mMTS,mKcell,mKcell,,D77,2016-06-18T13:46:07+06:00,
1000000000195670,77055008191,mKcell,mKarTel,mKarTel,,D02,2016-06-18T13:47:03+06:00,
1000000000195672,77028653274,mMTS,mKcell,mKcell,,D77,2016-06-18T13:47:35+06:00,
1000000000195673,77001111972,mKcell,mAltel,mAltel,,D02,2016-06-18T13:47:40+06:00,
1000000000195674,77753730550,mKarTel,mKcell,mKcell,,D01,2016-06-18T13:49:16+06:00,
1000000000195675,77781420985,mAltel,mKcell,mKcell,,D07,2016-06-18T13:50:03+06:00,
1000000000195676,77017616436,mAltel,mKcell,mKcell,,D07,2016-06-18T13:52:13+06:00,
1000000000195677,77788810155,mKarTel,mKcell,mKcell,,D01,2016-06-18T13:52:27+06:00,
1000000000195678,77013894812,mAltel,mKcell,mKcell,,D07,2016-06-18T13:52:46+06:00,
1000000000195679,77754131211,mKcell,mAltel,mKcell,D07,D02,2016-06-18T13:55:10+06:00,
1000000000195680,77773956610,mMTS,mKarTel,mKarTel,,D77,2016-06-18T13:56:41+06:00,
1000000000195681,77052565376,mMTS,mKarTel,mKarTel,,D77,2016-06-18T13:56:53+06:00,
1000000000195682,77085188340,mMTS,mAltel,mAltel,,D77,2016-06-18T13:57:11+06:00,
1000000000195683,77012620048,mMTS,mKcell,mKcell,,D77,2016-06-18T13:57:53+06:00,
