NPId,Number,RecipientId,DonorId,RangeHolderId,OldRoute,NewRoute,PortDate,RowCount
1000000000165707,77000770177,mMTS,mAltel,mAltel,,D77,2016-05-02T19:00:10+06:00,4
1000000000165708,77789676042,mKarTel,mKcell,mKcell,,D01,2016-05-02T19:09:08+06:00,
1000000000165710,77082110021,mKarTel,mAltel,mAltel,,D01,2016-05-02T19:20:58+06:00,
1000000000165711,77021816688,mKarTel,mKcell,mKcell,,D01,2016-05-02T19:24:42+06:00,
