NPId,Number,RecipientId,DonorId,RangeHolderId,OldRoute,NewRoute,PortDate,RowCount
1000000000331906,77077030454,mKcell,mMTS,mMTS,,D02,2017-02-20T17:00:40+06:00,18
1000000000331908,77023601661,mMTS,mKcell,mKcell,,D77,2017-02-20T17:02:08+06:00,
1000000000331910,77751773860,mKarTel,mKcell,mKcell,,D01,2017-02-20T17:04:53+06:00,
1000000000331911,77752859385,mMTS,mKcell,mKcell,,D77,2017-02-20T17:05:05+06:00,
1000000000331912,77020001671,mMTS,mKcell,mKcell,,D77,2017-02-20T17:05:20+06:00,
1000000000331913,77019133112,mKarTel,mKcell,mKcell,,D01,2017-02-20T17:06:19+06:00,
1000000000331914,77758331952,mMTS,mKcell,mKcell,,D77,2017-02-20T17:06:23+06:00,
1000000000331915,77015131491,mKcell,mMTS,mKcell,D77,D02,2017-02-20T17:07:34+06:00,
1000000000331916,77013364834,mMTS,mKcell,mKcell,,D77,2017-02-20T17:07:50+06:00,
1000000000331918,77057301945,mMTS,mKarTel,mKarTel,,D77,2017-02-20T17:12:29+06:00,
1000000000331919,77476750084,mKcell,mMTS,mMTS,,D02,2017-02-20T17:12:49+06:00,
1000000000331922,77059774072,mMTS,mKarTel,mKarTel,,D77,2017-02-20T17:17:59+06:00,
1000000000331923,77012705949,mKarTel,mKcell,mKcell,,D01,2017-02-20T17:18:31+06:00,
1000000000331924,77785584210,mAltel,mKcell,mKcell,,D07,2017-02-20T17:19:10+06:00,
1000000000331925,77074254788,mAltel,mMTS,mMTS,,D07,2017-02-20T17:20:15+06:00,
1000000000331926,77471263959,mAltel,mMTS,mMTS,,D07,2017-02-20T17:22:13+06:00,
1000000000331927,77017113587,mKarTel,mKcell,mKcell,,D01,2017-02-20T17:23:35+06:00,
1000000000331928,77017667736,mKarTel,mKcell,mKcell,,D01,2017-02-20T17:25:27+06:00,
