NPId,Number,RecipientId,DonorId,RangeHolderId,OldRoute,NewRoute,PortDate,RowCount
1000000000096380,77023119593,mKarTel,mKcell,mKcell,,D01,2016-02-22T17:30:12+06:00,44
1000000000096383,77772000778,mAltel,mKarTel,mKarTel,,D07,2016-02-22T17:30:22+06:00,
1000000000096385,77017661543,mAltel,mKcell,mKcell,,D07,2016-02-22T17:31:32+06:00,
1000000000096388,77011630104,mMTS,mKcell,mKcell,,D77,2016-02-22T17:32:10+06:00,
1000000000096389,77003332525,mKcell,mAltel,mAltel,,D02,2016-02-22T17:32:47+06:00,
1000000000096390,77010145005,mKarTel,mKcell,mKcell,,D01,2016-02-22T17:34:18+06:00,
1000000000096392,77772092211,mAltel,mKarTel,mKarTel,,D07,2016-02-22T17:35:48+06:00,
1000000000096393,77084001610,mKarTel,mAltel,mAltel,,D01,2016-02-22T17:36:11+06:00,
1000000000096394,77018482594,mAltel,mKcell,mKcell,,D07,2016-02-22T17:36:13+06:00,
1000000000096399,77077141230,mKarTel,mMTS,mMTS,,D01,2016-02-22T17:38:26+06:00,
1000000000096400,77084001605,mKarTel,mAltel,mAltel,,D01,2016-02-22T17:39:11+06:00,
1000000000096401,77012064191,mMTS,mKcell,mKcell,,D77,2016-02-22T17:40:50+06:00,
1000000000096402,77771717333,mMTS,mKarTel,mKarTel,,D77,2016-02-22T17:41:48+06:00,
1000000000096403,77760872009,mKcell,mKarTel,mKarTel,,D02,2016-02-22T17:43:04+06:00,
1000000000096404,77016085855,mKarTel,mKcell,mKcell,,D01,2016-02-22T17:43:41+06:00,
1000000000096405,77779555585,mKcell,mKarTel,mKarTel,,D02,2016-02-22T17:44:06+06:00,
1000000000096406,77002555200,mKcell,mAltel,mAltel,,D02,2016-02-22T17:44:17+06:00,
1000000000096407,77017711093,mMTS,mKcell,mKcell,,D77,2016-02-22T17:44:03+06:00,
1000000000096409,77771155570,mAltel,mKarTel,mKarTel,,D07,2016-02-22T17:44:35+06:00,
1000000000096411,77027129942,mAltel,mKcell,mKcell,,D07,2016-02-22T17:44:50+06:00,
1000000000096412,77768152113,mMTS,mKarTel,mKarTel,,D77,2016-02-22T17:45:27+06:00,
1000000000096414,77002555002,mKcell,mAltel,mAltel,,D02,2016-02-22T17:46:52+06:00,
1000000000096415,77079284388,mAltel,mMTS,mMTS,,D07,2016-02-22T17:47:24+06:00,
1000000000096416,77084001599,mKarTel,mAltel,mAltel,,D01,2016-02-22T17:47:59+06:00,
1000000000096417,77751693318,mKarTel,mKcell,mKcell,,D01,2016-02-22T17:48:33+06:00,
1000000000096418,77770290202,mAltel,mKarTel,mKarTel,,D07,2016-02-22T17:48:53+06:00,
1000000000096419,77026891989,mAltel,mKcell,mKcell,,D07,2016-02-22T17:48:58+06:00,
1000000000096420,77015131491,mMTS,mKcell,mKcell,,D77,2016-02-22T17:49:38+06:00,
1000000000096421,77000807788,mMTS,mAltel,mAltel,,D77,2016-02-22T17:50:45+06:00,
1000000000096422,77084001756,mKarTel,mAltel,mAltel,,D01,2016-02-22T17:50:57+06:00,
1000000000096424,77760872007,mKcell,mKarTel,mKarTel,,D02,2016-02-22T17:53:37+06:00,
1000000000096425,77788483835,mAltel,mKcell,mKcell,,D07,2016-02-22T17:53:33+06:00,
1000000000096426,77024986150,mAltel,mKcell,mKcell,,D07,2016-02-22T17:53:51+06:00,
1000000000096427,77788050185,mAltel,mKcell,mKcell,,D07,2016-02-22T17:53:59+06:00,
1000000000096429,77084001734,mKarTel,mAltel,mAltel,,D01,2016-02-22T17:54:35+06:00,
1000000000096430,77084983389,mKcell,mAltel,mAltel,,D02,2016-02-22T17:55:23+06:00,
1000000000096431,77013256118,mKarTel,mKcell,mKcell,,D01,2016-02-22T17:55:35+06:00,
1000000000096432,77017050177,mAltel,mKcell,mKcell,,D07,2016-02-22T17:56:20+06:00,
1000000000096433,77075558636,mKcell,mMTS,mMTS,,D02,2016-02-22T17:56:55+06:00,
1000000000096434,77476407625,mKcell,mMTS,mMTS,,D02,2016-02-22T17:57:02+06:00,
1000000000096435,77084001732,mKarTel,mAltel,mAltel,,D01,2016-02-22T17:56:59+06:00,
1000000000096436,77012579616,mMTS,mKcell,mKcell,,D77,2016-02-22T17:57:00+06:00,
1000000000096438,77712710071,mAltel,mKarTel,mKarTel,,D07,2016-02-22T17:59:26+06:00,
1000000000096439,77084001731,mKarTel,mAltel,mAltel,,D01,2016-02-22T17:59:15+06:00,
