NPId,Number,RecipientId,DonorId,RangeHolderId,OldRoute,NewRoute,PortDate,RowCount
1000000000427575,77006662105,mMTS,mAltel,mAltel,,D77,2017-07-25T09:15:18+06:00,4
1000000000427576,77017245123,mKarTel,mKcell,mKcell,,D01,2017-07-25T09:22:54+06:00,
1000000000427577,77759648128,mMTS,mKcell,mKcell,,D77,2017-07-25T09:27:11+06:00,
1000000000427578,77015218900,mMTS,mKcell,mKcell,,D77,2017-07-25T09:27:26+06:00,
