NPId,Number,RecipientId,DonorId,RangeHolderId,OldRoute,NewRoute,PortDate,RowCount
1000000000103609,77025880111,mAltel,mKcell,mKcell,,D07,2016-03-01T13:31:04+06:00,38
1000000000103610,77760000696,mMTS,mKarTel,mKarTel,,D77,2016-03-01T13:31:34+06:00,
1000000000103611,77012527657,mAltel,mKcell,mKcell,,D07,2016-03-01T13:31:26+06:00,
1000000000103612,77778906266,mAltel,mKarTel,mKarTel,,D07,2016-03-01T13:31:56+06:00,
1000000000103614,77014360379,mKarTel,mKcell,mKcell,,D01,2016-03-01T13:33:16+06:00,
1000000000103618,77053283300,mMTS,mKarTel,mKarTel,,D77,2016-03-01T13:35:30+06:00,
1000000000103620,77054440003,mAltel,mKarTel,mKarTel,,D07,2016-03-01T13:36:29+06:00,
1000000000103621,77785602919,mAltel,mKcell,mKcell,,D07,2016-03-01T13:36:41+06:00,
1000000000103624,77022236800,mMTS,mKcell,mKcell,,D77,2016-03-01T13:38:06+06:00,
1000000000103626,77012213033,mAltel,mKcell,mKcell,,D07,2016-03-01T13:39:55+06:00,
1000000000103629,77718886228,mAltel,mKarTel,mKarTel,,D07,2016-03-01T13:40:15+06:00,
1000000000103631,77055290010,mAltel,mKarTel,mKarTel,,D07,2016-03-01T13:40:21+06:00,
1000000000103638,77019249953,mMTS,mKcell,mKcell,,D77,2016-03-01T13:42:08+06:00,
1000000000103639,77770836666,mMTS,mKarTel,mKarTel,,D77,2016-03-01T13:42:14+06:00,
1000000000103643,77019600155,mMTS,mKcell,mKcell,,D77,2016-03-01T13:44:09+06:00,
1000000000103644,77027533335,mKarTel,mKcell,mKcell,,D01,2016-03-01T13:44:51+06:00,
1000000000103645,77770736807,mAltel,mKarTel,mKarTel,,D07,2016-03-01T13:44:48+06:00,
1000000000103651,77783643372,mAltel,mKcell,mKcell,,D07,2016-03-01T13:46:53+06:00,
1000000000103652,77712450005,mMTS,mKarTel,mKarTel,,D77,2016-03-01T13:47:16+06:00,
1000000000103655,77078533348,mKarTel,mMTS,mMTS,,D01,2016-03-01T13:47:54+06:00,
1000000000103656,77070051441,mAltel,mMTS,mMTS,,D07,2016-03-01T13:48:36+06:00,
1000000000103657,77057525191,mMTS,mKarTel,mKarTel,,D77,2016-03-01T13:49:18+06:00,
1000000000103658,77011979555,mAltel,mKcell,mKcell,,D07,2016-03-01T13:49:08+06:00,
1000000000103659,77757561550,mMTS,mKcell,mKcell,,D77,2016-03-01T13:49:30+06:00,
1000000000103661,77009979959,mKcell,mAltel,mAltel,,D02,2016-03-01T13:50:16+06:00,
1000000000103668,77011481488,mMTS,mKcell,mKcell,,D77,2016-03-01T13:52:10+06:00,
1000000000103672,77775722910,mAltel,mKarTel,mKarTel,,D07,2016-03-01T13:54:46+06:00,
1000000000103673,77022554444,mAltel,mKcell,mKcell,,D07,2016-03-01T13:56:59+06:00,
1000000000103674,77751358806,mMTS,mKcell,mKcell,,D77,2016-03-01T13:56:58+06:00,
1000000000103676,77015317911,mAltel,mKcell,mKcell,,D07,2016-03-01T13:57:25+06:00,
1000000000103677,77765565557,mMTS,mKarTel,mKarTel,,D77,2016-03-01T13:57:17+06:00,
1000000000103678,77075531777,mAltel,mMTS,mMTS,,D07,2016-03-01T13:56:59+06:00,
1000000000103680,77023920304,mAltel,mKcell,mKcell,,D07,2016-03-01T13:58:08+06:00,
1000000000103682,77776124234,mMTS,mKarTel,mKarTel,,D77,2016-03-01T13:57:55+06:00,
1000000000103684,77471848384,mAltel,mMTS,mMTS,,D07,2016-03-01T13:58:48+06:00,
1000000000103686,77012173337,mMTS,mKcell,mKcell,,D77,2016-03-01T13:59:18+06:00,
1000000000103687,77057277339,mAltel,mKarTel,mKarTel,,D07,2016-03-01T13:59:38+06:00,
1000000000103688,77017270067,mKarTel,mKcell,mKcell,,D01,2016-03-01T13:59:53+06:00,
