NPId,Number,RecipientId,DonorId,RangeHolderId,OldRoute,NewRoute,PortDate,RowCount
1000000000184173,77016840489,mMTS,mKcell,mKcell,,D77,2016-05-30T19:00:04+06:00,15
1000000000184174,77017740071,mKcell,mAltel,mKcell,D07,D02,2016-05-30T19:01:10+06:00,
1000000000184175,77776662213,mMTS,mKarTel,mKarTel,,D77,2016-05-30T19:01:26+06:00,
1000000000184176,77017842630,mKcell,mAltel,mKcell,D07,D02,2016-05-30T19:05:39+06:00,
1000000000184177,77010919595,mKcell,mMTS,mKcell,D77,D02,2016-05-30T19:08:57+06:00,
1000000000184178,77012311140,mKcell,mAltel,mKcell,D07,D02,2016-05-30T19:10:55+06:00,
1000000000184179,77013948921,mMTS,mKcell,mKcell,,D77,2016-05-30T19:11:13+06:00,
1000000000184180,77013129266,mKarTel,mKcell,mKcell,,D01,2016-05-30T19:11:38+06:00,
1000000000184181,77083393455,mMTS,mAltel,mAltel,,D77,2016-05-30T19:12:34+06:00,
1000000000184183,77089572486,mKcell,mAltel,mAltel,,D02,2016-05-30T19:14:25+06:00,
1000000000184185,77781771084,mKcell,mAltel,mKcell,D07,D02,2016-05-30T19:18:34+06:00,
1000000000184186,77054612350,mKcell,mKarTel,mKarTel,,D02,2016-05-30T19:19:15+06:00,
1000000000184189,77029992564,mMTS,mKcell,mKcell,,D77,2016-05-30T19:24:59+06:00,
1000000000184190,77789110109,mKcell,mKarTel,mKcell,D01,D02,2016-05-30T19:25:41+06:00,
1000000000184191,77017997428,mMTS,mKcell,mKcell,,D77,2016-05-30T19:26:40+06:00,
