NPId,Number,RecipientId,DonorId,RangeHolderId,OldRoute,NewRoute,PortDate,RowCount
1000000000200355,77771559999,mKcell,mAltel,mKarTel,D07,D02,2016-06-27T09:31:26+06:00,10
1000000000200356,77052970101,mMTS,mKarTel,mKarTel,,D77,2016-06-27T09:34:23+06:00,
1000000000200358,77789058035,mKarTel,mKcell,mKcell,,D01,2016-06-27T09:41:00+06:00,
1000000000200360,77019659108,mKarTel,mKcell,mKcell,,D01,2016-06-27T09:41:05+06:00,
1000000000200361,77022855808,mKcell,mMTS,mKcell,D77,D02,2016-06-27T09:42:16+06:00,
1000000000200362,77012126278,mKarTel,mKcell,mKcell,,D01,2016-06-27T09:42:32+06:00,
1000000000200363,77473249352,mAltel,mMTS,mMTS,,D07,2016-06-27T09:42:18+06:00,
1000000000200364,77014844104,mKcell,mKarTel,mKcell,D01,D02,2016-06-27T09:46:20+06:00,
1000000000200365,77773157127,mMTS,mKarTel,mKarTel,,D77,2016-06-27T09:44:59+06:00,
1000000000200366,77784546888,mMTS,mKcell,mKcell,,D77,2016-06-27T09:56:02+06:00,
