NPId,Number,RecipientId,DonorId,RangeHolderId,OldRoute,NewRoute,PortDate,RowCount
1000000000130130,77011425555,mAltel,mMTS,mKcell,D77,D07,2016-03-21T11:00:28+06:00,15
1000000000130133,77017207407,mKarTel,mKcell,mKcell,,D01,2016-03-21T11:04:49+06:00,
1000000000130136,77003865521,mMTS,mAltel,mAltel,,D77,2016-03-21T11:06:09+06:00,
1000000000130138,77053535000,mKarTel,mKcell,mKarTel,D02,D01,2016-03-21T11:11:09+06:00,
1000000000130139,77013183357,mMTS,mKcell,mKcell,,D77,2016-03-21T11:11:09+06:00,
1000000000130141,77475750371,mAltel,mMTS,mMTS,,D07,2016-03-21T11:13:59+06:00,
1000000000130142,77007777041,mKcell,mAltel,mAltel,,D02,2016-03-21T11:14:29+06:00,
1000000000130143,77770963393,mAltel,mKarTel,mKarTel,,D07,2016-03-21T11:19:29+06:00,
1000000000130144,77013195194,mKarTel,mKcell,mKcell,,D01,2016-03-21T11:21:05+06:00,
1000000000130145,77004520001,mKcell,mAltel,mAltel,,D02,2016-03-21T11:21:02+06:00,
1000000000130147,77014733787,mMTS,mKcell,mKcell,,D77,2016-03-21T11:24:12+06:00,
1000000000130148,77777771314,mAltel,mKarTel,mKarTel,,D07,2016-03-21T11:25:05+06:00,
1000000000130149,77777771315,mAltel,mKarTel,mKarTel,,D07,2016-03-21T11:25:31+06:00,
1000000000130150,77054237954,mMTS,mKarTel,mKarTel,,D77,2016-03-21T11:27:11+06:00,
1000000000130151,77024667622,mMTS,mKcell,mKcell,,D77,2016-03-21T11:28:29+06:00,
