NPId,Number,RecipientId,DonorId,RangeHolderId,OldRoute,NewRoute,PortDate,RowCount
1000000000170371,77751030514,mKcell,mAltel,mKcell,D07,D02,2016-05-09T12:03:49+06:00,13
1000000000170372,77017077218,mKarTel,mKcell,mKcell,,D01,2016-05-09T12:06:30+06:00,
1000000000170374,77759175939,mKarTel,mKcell,mKcell,,D01,2016-05-09T12:12:50+06:00,
1000000000170376,77051781538,mMTS,mKarTel,mKarTel,,D77,2016-05-09T12:17:19+06:00,
1000000000170377,77015996245,mKarTel,mKcell,mKcell,,D01,2016-05-09T12:21:05+06:00,
1000000000170378,77055214407,mMTS,mKarTel,mKarTel,,D77,2016-05-09T12:20:56+06:00,
1000000000170379,77772455837,mMTS,mKarTel,mKarTel,,D77,2016-05-09T12:24:03+06:00,
1000000000170380,77759568891,mMTS,mKcell,mKcell,,D77,2016-05-09T12:24:16+06:00,
1000000000170381,77713978080,mKcell,mKarTel,mKarTel,,D02,2016-05-09T12:24:53+06:00,
1000000000170382,77714235459,mMTS,mKarTel,mKarTel,,D77,2016-05-09T12:25:17+06:00,
1000000000170383,77025194381,mAltel,mKcell,mKcell,,D07,2016-05-09T12:25:45+06:00,
1000000000170384,77766660545,mMTS,mKarTel,mKarTel,,D77,2016-05-09T12:27:22+06:00,
1000000000170385,77774793111,mKarTel,mMTS,mKarTel,D77,D01,2016-05-09T12:29:28+06:00,
