NPId,Number,RecipientId,DonorId,RangeHolderId,OldRoute,NewRoute,PortDate,RowCount
1000000000352748,77012258819,mAltel,mKcell,mKcell,,D07,2017-03-26T18:00:13+06:00,11
1000000000352749,77786610276,mMTS,mKcell,mKcell,,D77,2017-03-26T18:01:54+06:00,
1000000000352750,77015291645,mAltel,mKcell,mKcell,,D07,2017-03-26T18:10:23+06:00,
1000000000352751,77085431335,mAltel,mMTS,mAltel,D77,D07,2017-03-26T18:10:13+06:00,
1000000000352752,77786610225,mMTS,mKcell,mKcell,,D77,2017-03-26T18:12:51+06:00,
1000000000352753,77714251816,mMTS,mKcell,mKarTel,D02,D77,2017-03-26T18:13:15+06:00,
1000000000352756,77750000248,mKarTel,mKcell,mKcell,,D01,2017-03-26T18:21:52+06:00,
1000000000352757,77786610264,mMTS,mKcell,mKcell,,D77,2017-03-26T18:22:49+06:00,
1000000000352758,77026325702,mMTS,mKcell,mKcell,,D77,2017-03-26T18:26:11+06:00,
1000000000352759,77028222214,mKcell,mMTS,mKcell,D77,D02,2017-03-26T18:27:23+06:00,
1000000000352760,77753735091,mAltel,mMTS,mKcell,D77,D07,2017-03-26T18:27:52+06:00,
