NPId,Number,RecipientId,DonorId,RangeHolderId,OldRoute,NewRoute,PortDate,RowCount
1000000000097548,77752908633,mAltel,mKcell,mKcell,,D07,2016-02-23T19:00:26+06:00,25
1000000000097549,77055332229,mAltel,mKarTel,mKarTel,,D07,2016-02-23T19:03:16+06:00,
1000000000097550,77052611196,mAltel,mKarTel,mKarTel,,D07,2016-02-23T19:03:30+06:00,
1000000000097553,77019799004,mMTS,mKcell,mKcell,,D77,2016-02-23T19:07:45+06:00,
1000000000097554,77754307676,mKarTel,mKcell,mKcell,,D01,2016-02-23T19:08:27+06:00,
1000000000097555,77715072094,mKcell,mKarTel,mKarTel,,D02,2016-02-23T19:11:38+06:00,
1000000000097555,77715539098,mKcell,mKarTel,mKarTel,,D02,2016-02-23T19:11:38+06:00,
1000000000097555,77717754302,mKcell,mKarTel,mKarTel,,D02,2016-02-23T19:11:38+06:00,
1000000000097555,77770028001,mKcell,mKarTel,mKarTel,,D02,2016-02-23T19:11:38+06:00,
1000000000097555,77771220222,mKcell,mKarTel,mKarTel,,D02,2016-02-23T19:11:38+06:00,
1000000000097555,77774709295,mKcell,mKarTel,mKarTel,,D02,2016-02-23T19:11:38+06:00,
1000000000097555,77774709296,mKcell,mKarTel,mKarTel,,D02,2016-02-23T19:11:38+06:00,
1000000000097555,77774709299,mKcell,mKarTel,mKarTel,,D02,2016-02-23T19:11:38+06:00,
1000000000097555,77775519906,mKcell,mKarTel,mKarTel,,D02,2016-02-23T19:11:38+06:00,
1000000000097555,77779705555,mKcell,mKarTel,mKarTel,,D02,2016-02-23T19:11:38+06:00,
1000000000097556,77051623384,mMTS,mKarTel,mKarTel,,D77,2016-02-23T19:10:51+06:00,
1000000000097557,77760102070,mKcell,mKarTel,mKarTel,,D02,2016-02-23T19:12:38+06:00,
1000000000097560,77017396029,mAltel,mKcell,mKcell,,D07,2016-02-23T19:17:02+06:00,
1000000000097561,77022778863,mAltel,mKcell,mKcell,,D07,2016-02-23T19:19:30+06:00,
1000000000097562,77051293359,mMTS,mKarTel,mKarTel,,D77,2016-02-23T19:19:48+06:00,
1000000000097564,77022999292,mMTS,mKcell,mKcell,,D77,2016-02-23T19:23:43+06:00,
1000000000097565,77054445548,mKcell,mKarTel,mKarTel,,D02,2016-02-23T19:27:55+06:00,
1000000000097566,77765555854,mKcell,mKarTel,mKarTel,,D02,2016-02-23T19:28:36+06:00,
1000000000097567,77013427703,mAltel,mKcell,mKcell,,D07,2016-02-23T19:29:16+06:00,
1000000000097568,77012370004,mAltel,mKcell,mKcell,,D07,2016-02-23T19:29:32+06:00,
