NPId,Number,RecipientId,DonorId,RangeHolderId,OldRoute,NewRoute,PortDate,RowCount
1000000000280383,77051577735,mKcell,mKarTel,mKarTel,,D02,2016-11-17T13:31:37+06:00,20
1000000000280384,77076677706,mKcell,mMTS,mMTS,,D02,2016-11-17T13:34:36+06:00,
1000000000280386,77076340413,mKcell,mMTS,mMTS,,D02,2016-11-17T13:36:14+06:00,
1000000000280387,77774720828,mKcell,mKarTel,mKarTel,,D02,2016-11-17T13:36:20+06:00,
1000000000280388,77758687431,mMTS,mKcell,mKcell,,D77,2016-11-17T13:36:11+06:00,
1000000000280390,77782050350,mKarTel,mKcell,mKcell,,D01,2016-11-17T13:39:48+06:00,
1000000000280391,77071948211,mKarTel,mMTS,mMTS,,D01,2016-11-17T13:42:27+06:00,
1000000000280392,77758688349,mMTS,mKcell,mKcell,,D77,2016-11-17T13:45:30+06:00,
1000000000280393,77075090751,mKarTel,mMTS,mMTS,,D01,2016-11-17T13:45:50+06:00,
1000000000280395,77014747601,mKcell,mMTS,mKcell,D77,D02,2016-11-17T13:47:28+06:00,
1000000000280396,77071951907,mKarTel,mMTS,mMTS,,D01,2016-11-17T13:48:59+06:00,
1000000000280397,77017867625,mMTS,mKcell,mKcell,,D77,2016-11-17T13:50:39+06:00,
1000000000280398,77001610001,mKcell,mMTS,mAltel,D77,D02,2016-11-17T13:51:49+06:00,
1000000000280399,77758687430,mMTS,mKcell,mKcell,,D77,2016-11-17T13:52:18+06:00,
1000000000280401,77029826222,mMTS,mKcell,mKcell,,D77,2016-11-17T13:52:38+06:00,
1000000000280402,77019654647,mKarTel,mKcell,mKcell,,D01,2016-11-17T13:53:28+06:00,
1000000000280403,77014128888,mKarTel,mKcell,mKcell,,D01,2016-11-17T13:53:54+06:00,
1000000000280405,77758681258,mMTS,mKcell,mKcell,,D77,2016-11-17T13:58:52+06:00,
1000000000280406,77765550666,mKcell,mKarTel,mKarTel,,D02,2016-11-17T13:57:47+06:00,
1000000000280407,77012474636,mAltel,mKcell,mKcell,,D07,2016-11-17T13:58:28+06:00,
