NPId,Number,RecipientId,DonorId,RangeHolderId,OldRoute,NewRoute,PortDate,RowCount
1000000000248377,77015280000,mKcell,mKarTel,mKcell,D01,D02,2016-09-21T15:38:07+06:00,24
1000000000249098,77052531112,mMTS,mKarTel,mKarTel,,D77,2016-09-21T15:30:16+06:00,
1000000000249099,77012504732,mMTS,mKcell,mKcell,,D77,2016-09-21T15:31:04+06:00,
1000000000249101,77051832421,mMTS,mKarTel,mKarTel,,D77,2016-09-21T15:34:01+06:00,
1000000000249104,77762722000,mMTS,mKarTel,mKarTel,,D77,2016-09-21T15:35:56+06:00,
1000000000249105,77022353535,mAltel,mKcell,mKcell,,D07,2016-09-21T15:33:18+06:00,
1000000000249106,77785558811,mKcell,mMTS,mKcell,D77,D02,2016-09-21T15:33:45+06:00,
1000000000249108,77026853232,mKcell,mAltel,mKcell,D07,D02,2016-09-21T15:35:01+06:00,
1000000000249109,77003162608,mMTS,mAltel,mAltel,,D77,2016-09-21T15:35:44+06:00,
1000000000249111,77001417001,mMTS,mAltel,mAltel,,D77,2016-09-21T15:38:19+06:00,
1000000000249112,77001415758,mMTS,mAltel,mAltel,,D77,2016-09-21T15:40:59+06:00,
1000000000249114,77769894445,mAltel,mKarTel,mKarTel,,D07,2016-09-21T15:45:14+06:00,
1000000000249115,77029669766,mKcell,mAltel,mKcell,D07,D02,2016-09-21T15:43:34+06:00,
1000000000249117,77001394447,mMTS,mAltel,mAltel,,D77,2016-09-21T15:44:21+06:00,
1000000000249119,77775418006,mMTS,mKarTel,mKarTel,,D77,2016-09-21T15:48:49+06:00,
1000000000249122,77079962727,mKarTel,mMTS,mMTS,,D01,2016-09-21T15:50:43+06:00,
1000000000249123,77476445390,mKarTel,mMTS,mMTS,,D01,2016-09-21T15:51:36+06:00,
1000000000249124,77014661616,mKcell,mMTS,mKcell,D77,D02,2016-09-21T15:51:05+06:00,
1000000000249125,77713752288,mAltel,mKarTel,mKarTel,,D07,2016-09-21T15:53:29+06:00,
1000000000249126,77010360666,mKarTel,mKcell,mKcell,,D01,2016-09-21T15:52:29+06:00,
1000000000249128,77017930498,mMTS,mKcell,mKcell,,D77,2016-09-21T15:56:52+06:00,
1000000000249130,77082591209,mKcell,mAltel,mAltel,,D02,2016-09-21T15:58:00+06:00,
1000000000249131,77027607098,mAltel,mKcell,mKcell,,D07,2016-09-21T15:58:23+06:00,
1000000000249133,77071114321,mKcell,mMTS,mMTS,,D02,2016-09-21T15:59:52+06:00,
