NPId,Number,RecipientId,DonorId,RangeHolderId,OldRoute,NewRoute,PortDate,RowCount
1000000000362787,77081007075,mKarTel,mAltel,mAltel,,D01,2017-04-09T14:31:02+06:00,10
1000000000362788,77753119633,mAltel,mKcell,mKcell,,D07,2017-04-09T14:31:42+06:00,
1000000000362789,77477341006,mAltel,mMTS,mMTS,,D07,2017-04-09T14:33:28+06:00,
1000000000362792,77471168802,mKarTel,mMTS,mMTS,,D01,2017-04-09T14:42:13+06:00,
1000000000362794,77023454343,mAltel,mKcell,mKcell,,D07,2017-04-09T14:46:35+06:00,
1000000000362795,77013455151,mKarTel,mKcell,mKcell,,D01,2017-04-09T14:48:40+06:00,
1000000000362797,77077060650,mKarTel,mMTS,mMTS,,D01,2017-04-09T14:54:51+06:00,
1000000000362798,77787137627,mKcell,mMTS,mKcell,D77,D02,2017-04-09T14:56:02+06:00,
1000000000362799,77774879951,mMTS,mKarTel,mKarTel,,D77,2017-04-09T14:58:06+06:00,
1000000000362800,77078631341,mKarTel,mMTS,mMTS,D77,D01,2017-04-09T14:59:01+06:00,
