NPId,Number,RecipientId,DonorId,RangeHolderId,OldRoute,NewRoute,PortDate,RowCount
1000000000134962,77762222145,mKcell,mKarTel,mKarTel,,D02,2016-03-28T10:31:04+06:00,28
1000000000134964,77082142141,mMTS,mAltel,mAltel,,D77,2016-03-28T10:30:39+06:00,
1000000000134965,77017511128,mKarTel,mKcell,mKcell,,D01,2016-03-28T10:31:31+06:00,
1000000000134966,77023602200,mMTS,mKcell,mKcell,,D77,2016-03-28T10:32:12+06:00,
1000000000134967,77014229040,mMTS,mKcell,mKcell,,D77,2016-03-28T10:32:11+06:00,
1000000000134968,77713619090,mMTS,mKarTel,mKarTel,,D77,2016-03-28T10:37:05+06:00,
1000000000134969,77778558223,mAltel,mKarTel,mKarTel,,D07,2016-03-28T10:37:06+06:00,
1000000000134970,77772968441,mMTS,mKarTel,mKarTel,,D77,2016-03-28T10:37:05+06:00,
1000000000134971,77756800074,mMTS,mKcell,mKcell,,D77,2016-03-28T10:38:30+06:00,
1000000000134972,77025229522,mKcell,mMTS,mKcell,D77,D02,2016-03-28T10:39:23+06:00,
1000000000134973,77015112107,mKarTel,mKcell,mKcell,,D01,2016-03-28T10:41:35+06:00,
1000000000134974,77087643836,mMTS,mAltel,mAltel,,D77,2016-03-28T10:42:31+06:00,
1000000000134977,77766077717,mMTS,mKarTel,mKarTel,,D77,2016-03-28T10:47:49+06:00,
1000000000134979,77714320701,mKcell,mKarTel,mKarTel,,D02,2016-03-28T10:48:51+06:00,
1000000000134980,77015297237,mMTS,mKcell,mKcell,,D77,2016-03-28T10:47:54+06:00,
1000000000134981,77473482219,mAltel,mMTS,mMTS,,D07,2016-03-28T10:48:17+06:00,
1000000000134983,77078254947,mMTS,mAltel,mMTS,D07,D77,2016-03-28T10:50:08+06:00,
1000000000134985,77021872018,mMTS,mKcell,mKcell,,D77,2016-03-28T10:51:36+06:00,
1000000000134986,77077796818,mKarTel,mMTS,mMTS,,D01,2016-03-28T10:52:58+06:00,
1000000000134987,77777500043,mKcell,mKarTel,mKarTel,,D02,2016-03-28T10:55:32+06:00,
1000000000134988,77013091828,mKcell,mAltel,mKcell,D07,D02,2016-03-28T10:54:07+06:00,
1000000000134989,77028529519,mKarTel,mKcell,mKcell,,D01,2016-03-28T10:54:16+06:00,
1000000000134990,77074439055,mKarTel,mMTS,mMTS,,D01,2016-03-28T10:53:50+06:00,
1000000000134991,77017999193,mMTS,mKcell,mKcell,,D77,2016-03-28T10:53:45+06:00,
1000000000134992,77774064040,mMTS,mKarTel,mKarTel,,D77,2016-03-28T10:56:28+06:00,
1000000000134994,77023795165,mAltel,mKcell,mKcell,,D07,2016-03-28T10:56:02+06:00,
1000000000134995,77763030393,mMTS,mKarTel,mKarTel,,D77,2016-03-28T10:58:15+06:00,
1000000000134996,77077100169,mMTS,mKarTel,mMTS,D01,D77,2016-03-28T10:59:05+06:00,
