NPId,Number,RecipientId,DonorId,RangeHolderId,OldRoute,NewRoute,PortDate,RowCount
1000000000418163,77022562010,mKarTel,mKcell,mKcell,,D01,2017-07-07T20:06:34+06:00,2
1000000000418164,77014895757,mKcell,mMTS,mKcell,D77,D02,2017-07-07T20:08:35+06:00,
