NPId,Number,RecipientId,DonorId,RangeHolderId,OldRoute,NewRoute,PortDate,RowCount
1000000000349563,77762485379,mMTS,mKarTel,mKarTel,,D77,2017-03-18T19:33:06+06:00,5
1000000000349564,77475011165,mKcell,mMTS,mMTS,,D02,2017-03-18T19:36:03+06:00,
1000000000349566,77763727373,mKarTel,mMTS,mKarTel,D77,D01,2017-03-18T19:38:42+06:00,
1000000000349567,77016062423,mMTS,mKcell,mKcell,,D77,2017-03-18T19:40:10+06:00,
1000000000349569,77785511292,mMTS,mKcell,mKcell,,D77,2017-03-18T19:58:07+06:00,
