NPId,Number,RecipientId,DonorId,RangeHolderId,OldRoute,NewRoute,PortDate,RowCount
1000000000167850,77003689405,mKarTel,mAltel,mAltel,,D01,2016-05-05T11:00:21+06:00,27
1000000000167853,77028880100,mAltel,mMTS,mKcell,D77,D07,2016-05-05T11:02:01+06:00,
1000000000167855,77054154804,mAltel,mKarTel,mKarTel,,D07,2016-05-05T11:02:54+06:00,
1000000000167857,77777729999,mKcell,mKarTel,mKarTel,,D02,2016-05-05T11:21:13+06:00,
1000000000167858,77017915521,mMTS,mKcell,mKcell,,D77,2016-05-05T11:06:27+06:00,
1000000000167860,77078929645,mAltel,mMTS,mMTS,,D07,2016-05-05T11:06:37+06:00,
1000000000167861,77765697827,mKarTel,mMTS,mKarTel,D77,D01,2016-05-05T11:06:53+06:00,
1000000000167862,77471058480,mMTS,mAltel,mMTS,D07,D77,2016-05-05T11:07:07+06:00,
1000000000167863,77077771723,mMTS,mAltel,mMTS,D07,D77,2016-05-05T11:07:25+06:00,
1000000000167864,77021143354,mMTS,mKcell,mKcell,,D77,2016-05-05T11:08:45+06:00,
1000000000167866,77055655933,mMTS,mKarTel,mKarTel,,D77,2016-05-05T11:12:33+06:00,
1000000000167867,77786367393,mKcell,mMTS,mKcell,D77,D02,2016-05-05T11:13:07+06:00,
1000000000167868,77479754773,mAltel,mMTS,mMTS,,D07,2016-05-05T11:13:10+06:00,
1000000000167870,77051763003,mMTS,mKarTel,mKarTel,,D77,2016-05-05T11:15:37+06:00,
1000000000167871,77015224005,mKarTel,mKcell,mKcell,,D01,2016-05-05T11:17:12+06:00,
1000000000167872,77014272682,mMTS,mKcell,mKcell,,D77,2016-05-05T11:17:38+06:00,
1000000000167874,77754455974,mMTS,mKcell,mKcell,,D77,2016-05-05T11:20:09+06:00,
1000000000167875,77019102030,mKarTel,mKcell,mKcell,,D01,2016-05-05T11:20:38+06:00,
1000000000167876,77017403330,mMTS,mKcell,mKcell,,D77,2016-05-05T11:20:39+06:00,
1000000000167883,77074774414,mAltel,mKarTel,mMTS,D01,D07,2016-05-05T11:23:22+06:00,
1000000000167885,77477770924,mMTS,mAltel,mMTS,D07,D77,2016-05-05T11:23:20+06:00,
1000000000167887,77766570404,mKcell,mKarTel,mKarTel,,D02,2016-05-05T11:25:03+06:00,
1000000000167891,77017520077,mKarTel,mAltel,mKcell,D07,D01,2016-05-05T11:25:28+06:00,
1000000000167895,77471110484,mAltel,mMTS,mMTS,,D07,2016-05-05T11:26:34+06:00,
1000000000167897,77768183333,mMTS,mKarTel,mKarTel,,D77,2016-05-05T11:27:00+06:00,
1000000000167898,77777099499,mMTS,mKarTel,mKarTel,,D77,2016-05-05T11:27:12+06:00,
1000000000167900,77015144979,mKcell,mMTS,mKcell,D77,D02,2016-05-05T11:27:34+06:00,
