NPId,Number,RecipientId,DonorId,RangeHolderId,OldRoute,NewRoute,PortDate,RowCount
1000000000334935,77716633616,mMTS,mKarTel,mKarTel,,D77,2017-02-25T15:01:07+06:00,28
1000000000334936,77781421111,mAltel,mKcell,mKcell,,D07,2017-02-25T15:03:22+06:00,
1000000000334937,77477770535,mKcell,mMTS,mMTS,,D02,2017-02-25T15:04:11+06:00,
1000000000334938,77025458999,mKarTel,mKcell,mKcell,,D01,2017-02-25T15:04:53+06:00,
1000000000334940,77072571221,mMTS,mKarTel,mMTS,D01,D77,2017-02-25T15:06:03+06:00,
1000000000334941,77787737773,mAltel,mKcell,mKcell,,D07,2017-02-25T15:07:07+06:00,
1000000000334945,77015001244,mMTS,mKcell,mKcell,,D77,2017-02-25T15:12:05+06:00,
1000000000334947,77013204504,mKarTel,mKcell,mKcell,,D01,2017-02-25T15:12:38+06:00,
1000000000334948,77015512833,mMTS,mKcell,mKcell,,D77,2017-02-25T15:13:57+06:00,
1000000000334949,77006002939,mKcell,mAltel,mAltel,,D02,2017-02-25T15:13:59+06:00,
1000000000334951,77006002161,mKcell,mAltel,mAltel,,D02,2017-02-25T15:15:25+06:00,
1000000000334952,77003737337,mMTS,mAltel,mAltel,,D77,2017-02-25T15:16:29+06:00,
1000000000334953,77756199961,mKarTel,mKcell,mKcell,,D01,2017-02-25T15:17:42+06:00,
1000000000334955,77006002676,mKcell,mAltel,mAltel,,D02,2017-02-25T15:18:20+06:00,
1000000000334956,77006002141,mKcell,mAltel,mAltel,,D02,2017-02-25T15:19:36+06:00,
1000000000334957,77028209840,mKarTel,mKcell,mKcell,,D01,2017-02-25T15:20:21+06:00,
1000000000334958,77772792797,mKarTel,mMTS,mKarTel,D77,D01,2017-02-25T15:20:55+06:00,
1000000000334959,77006005686,mKcell,mAltel,mAltel,,D02,2017-02-25T15:21:20+06:00,
1000000000334961,77058760272,mMTS,mKarTel,mKarTel,,D77,2017-02-25T15:23:05+06:00,
1000000000334962,77006009858,mKcell,mAltel,mAltel,,D02,2017-02-25T15:23:06+06:00,
1000000000334963,77006004929,mKcell,mAltel,mAltel,,D02,2017-02-25T15:23:48+06:00,
1000000000334964,77089200012,mKarTel,mAltel,mAltel,,D01,2017-02-25T15:25:03+06:00,
1000000000334965,77056239252,mMTS,mKarTel,mKarTel,,D77,2017-02-25T15:26:03+06:00,
1000000000334966,77013920044,mMTS,mKcell,mKcell,D02,D77,2017-02-25T15:26:52+06:00,
1000000000334967,77770059260,mKarTel,mMTS,mKarTel,D77,D01,2017-02-25T15:27:10+06:00,
1000000000334968,77056239251,mMTS,mKarTel,mKarTel,,D77,2017-02-25T15:27:35+06:00,
1000000000334969,77014930395,mMTS,mKcell,mKcell,,D77,2017-02-25T15:28:05+06:00,
1000000000334970,77751695333,mAltel,mKcell,mKcell,,D07,2017-02-25T15:29:44+06:00,
