NPId,Number,RecipientId,DonorId,RangeHolderId,OldRoute,NewRoute,PortDate,RowCount
1000000000232379,77758445445,mKarTel,mKcell,mKcell,,D01,2016-08-22T13:30:23+06:00,24
1000000000232380,77055883237,mMTS,mKarTel,mKarTel,,D77,2016-08-22T13:30:42+06:00,
1000000000232381,77013949473,mMTS,mKcell,mKcell,,D77,2016-08-22T13:32:51+06:00,
1000000000232382,77013535111,mKcell,mMTS,mKcell,D77,D02,2016-08-22T13:33:36+06:00,
1000000000232383,77779924942,mKarTel,mMTS,mKarTel,D77,D01,2016-08-22T13:34:01+06:00,
1000000000232384,77003479757,mMTS,mKcell,mAltel,D02,D77,2016-08-22T13:34:46+06:00,
1000000000232386,77711115370,mKcell,mKarTel,mKarTel,,D02,2016-08-22T13:37:45+06:00,
1000000000232388,77022222280,mKarTel,mKcell,mKcell,,D01,2016-08-22T13:38:09+06:00,
1000000000232389,77005055050,mKarTel,mMTS,mAltel,D77,D01,2016-08-22T13:38:18+06:00,
1000000000232390,77022222275,mKarTel,mKcell,mKcell,,D01,2016-08-22T13:38:58+06:00,
1000000000232392,77761004888,mKcell,mKarTel,mKarTel,,D02,2016-08-22T13:39:33+06:00,
1000000000232394,77782346000,mKcell,mMTS,mKcell,D77,D02,2016-08-22T13:41:00+06:00,
1000000000232395,77769797339,mMTS,mKarTel,mKarTel,,D77,2016-08-22T13:42:56+06:00,
1000000000232396,77024688241,mAltel,mKcell,mKcell,,D07,2016-08-22T13:42:39+06:00,
1000000000232397,77757770014,mKcell,mMTS,mKcell,D77,D02,2016-08-22T13:42:54+06:00,
1000000000232400,77761000997,mKcell,mKarTel,mKarTel,,D02,2016-08-22T13:49:33+06:00,
1000000000232401,77022181904,mAltel,mKcell,mKcell,,D07,2016-08-22T13:50:31+06:00,
1000000000232402,77781115551,mMTS,mKcell,mKcell,,D77,2016-08-22T13:51:45+06:00,
1000000000232403,77024628461,mKcell,mAltel,mKcell,D07,D02,2016-08-22T13:54:07+06:00,
1000000000232407,77023222818,mKcell,mMTS,mKcell,D77,D02,2016-08-22T13:56:52+06:00,
1000000000232408,77080221340,mMTS,mAltel,mAltel,,D77,2016-08-22T13:57:01+06:00,
1000000000232410,77013470441,mKcell,mMTS,mKcell,D77,D02,2016-08-22T13:57:23+06:00,
1000000000232411,77789303536,mKarTel,mKcell,mKcell,,D01,2016-08-22T13:59:04+06:00,
1000000000232412,77015256293,mMTS,mKcell,mKcell,,D77,2016-08-22T13:59:47+06:00,
