NPId,Number,RecipientId,DonorId,RangeHolderId,OldRoute,NewRoute,PortDate,RowCount
1000000000168004,77759426158,mMTS,mKcell,mKcell,,D77,2016-05-05T12:32:15+06:00,20
1000000000168005,77012279797,mKcell,mKarTel,mKcell,D01,D02,2016-05-05T12:34:03+06:00,
1000000000168007,77086316788,mMTS,mAltel,mAltel,,D77,2016-05-05T12:34:16+06:00,
1000000000168008,77777351448,mMTS,mKarTel,mKarTel,,D77,2016-05-05T12:34:58+06:00,
1000000000168009,77017738372,mKarTel,mKcell,mKcell,,D01,2016-05-05T12:36:08+06:00,
1000000000168010,77081559676,mMTS,mAltel,mAltel,,D77,2016-05-05T12:35:45+06:00,
1000000000168011,77015500635,mMTS,mKcell,mKcell,,D77,2016-05-05T12:37:39+06:00,
1000000000168015,77052031919,mMTS,mKarTel,mKarTel,,D77,2016-05-05T12:45:13+06:00,
1000000000168017,77017250937,mKarTel,mKcell,mKcell,,D01,2016-05-05T12:46:05+06:00,
1000000000168018,77754432189,mKcell,mMTS,mKcell,D77,D02,2016-05-05T12:45:54+06:00,
1000000000168019,77770808008,mAltel,mKarTel,mKarTel,,D07,2016-05-05T12:46:34+06:00,
1000000000168020,77055699193,mAltel,mKarTel,mKarTel,,D07,2016-05-05T12:46:46+06:00,
1000000000168021,77012126205,mMTS,mAltel,mKcell,D07,D77,2016-05-05T12:47:08+06:00,
1000000000168022,77025513434,mKcell,mMTS,mKcell,D77,D02,2016-05-05T12:48:42+06:00,
1000000000168025,77772417791,mAltel,mKarTel,mKarTel,,D07,2016-05-05T12:50:30+06:00,
1000000000168028,77003227450,mMTS,mAltel,mAltel,,D77,2016-05-05T12:54:53+06:00,
1000000000168029,77785511748,mMTS,mKcell,mKcell,,D77,2016-05-05T12:55:54+06:00,
1000000000168032,77056601515,mKcell,mKarTel,mKarTel,,D02,2016-05-05T12:58:18+06:00,
1000000000168034,77054507781,mMTS,mKarTel,mKarTel,,D77,2016-05-05T12:58:55+06:00,
1000000000168035,77012779426,mKarTel,mKcell,mKcell,,D01,2016-05-05T12:59:56+06:00,
