NPId,Number,RecipientId,DonorId,RangeHolderId,OldRoute,NewRoute,PortDate,RowCount
1000000000329217,77010700488,mKcell,mMTS,mKcell,D77,D02,2017-02-15T13:31:11+06:00,24
1000000000329218,77083323812,mMTS,mAltel,mAltel,,D77,2017-02-15T13:31:14+06:00,
1000000000329219,77011951488,mKarTel,mKcell,mKcell,,D01,2017-02-15T13:34:25+06:00,
1000000000329220,77027544294,mKarTel,mKcell,mKcell,,D01,2017-02-15T13:35:12+06:00,
1000000000329221,77769999244,mMTS,mKarTel,mKarTel,,D77,2017-02-15T13:38:02+06:00,
1000000000329223,77013551430,mKcell,mMTS,mKcell,D77,D02,2017-02-15T13:42:04+06:00,
1000000000329224,77772511917,mMTS,mKarTel,mKarTel,,D77,2017-02-15T13:43:00+06:00,
1000000000329225,77018881328,mMTS,mKcell,mKcell,,D77,2017-02-15T13:42:49+06:00,
1000000000329226,77015855582,mKcell,mMTS,mKcell,D77,D02,2017-02-15T13:44:42+06:00,
1000000000329227,77077990106,mKcell,mMTS,mMTS,,D02,2017-02-15T13:46:22+06:00,
1000000000329230,77761975777,mMTS,mKarTel,mKarTel,,D77,2017-02-15T13:49:06+06:00,
1000000000329231,77055794684,mMTS,mKarTel,mKarTel,,D77,2017-02-15T13:50:27+06:00,
1000000000329232,77013014736,mMTS,mKcell,mKcell,,D77,2017-02-15T13:51:04+06:00,
1000000000329233,77011009966,mMTS,mKcell,mKcell,,D77,2017-02-15T13:52:37+06:00,
1000000000329234,77026506615,mMTS,mKcell,mKcell,,D77,2017-02-15T13:52:56+06:00,
1000000000329236,77023453626,mKcell,mKarTel,mKcell,D01,D02,2017-02-15T13:54:25+06:00,
1000000000329237,77781170555,mKcell,mAltel,mKcell,D07,D02,2017-02-15T13:55:17+06:00,
1000000000329238,77075352054,mMTS,mKcell,mMTS,D02,D77,2017-02-15T13:55:15+06:00,
1000000000329239,77779992979,mKarTel,mMTS,mKarTel,D77,D01,2017-02-15T13:55:34+06:00,
1000000000329240,77787900077,mKarTel,mKcell,mKcell,,D01,2017-02-15T13:55:41+06:00,
1000000000329241,77015213446,mKarTel,mKcell,mKcell,,D01,2017-02-15T13:55:58+06:00,
1000000000329243,77014493448,mKarTel,mKcell,mKcell,,D01,2017-02-15T13:57:25+06:00,
1000000000329244,77053929966,mKcell,mKarTel,mKarTel,,D02,2017-02-15T13:59:11+06:00,
1000000000329245,77017229910,mKarTel,mKcell,mKcell,,D01,2017-02-15T13:59:11+06:00,
