NPId,Number,RecipientId,DonorId,RangeHolderId,OldRoute,NewRoute,PortDate,RowCount
1000000000307559,77056156060,mKcell,mKarTel,mKarTel,,D02,2017-01-09T09:37:56+06:00,3
1000000000307560,77012723159,mKarTel,mKcell,mKcell,,D01,2017-01-09T09:41:36+06:00,
1000000000307561,77007172775,mKcell,mAltel,mAltel,,D02,2017-01-09T09:53:10+06:00,
