NPId,Number,RecipientId,DonorId,RangeHolderId,OldRoute,NewRoute,PortDate,RowCount
1000000000316765,77086026484,mKarTel,mAltel,mAltel,,D01,2017-01-26T10:31:36+06:00,17
1000000000316766,77012108582,mMTS,mKcell,mKcell,,D77,2017-01-26T10:31:39+06:00,
1000000000316767,77770101411,mMTS,mKarTel,mKarTel,,D77,2017-01-26T10:33:01+06:00,
1000000000316768,77022838806,mKarTel,mKcell,mKcell,,D01,2017-01-26T10:35:07+06:00,
1000000000316771,77759310788,mMTS,mKcell,mKcell,,D77,2017-01-26T10:38:22+06:00,
1000000000316772,77770468862,mKcell,mKarTel,mKarTel,,D02,2017-01-26T10:40:33+06:00,
1000000000316773,77017664759,mKcell,mAltel,mKcell,D07,D02,2017-01-26T10:40:29+06:00,
1000000000316774,77789449431,mKarTel,mKcell,mKcell,,D01,2017-01-26T10:42:32+06:00,
1000000000316777,77786800808,mKarTel,mKcell,mKcell,,D01,2017-01-26T10:46:58+06:00,
1000000000316778,77029844433,mMTS,mKcell,mKcell,,D77,2017-01-26T10:47:47+06:00,
1000000000316779,77073933244,mMTS,mKarTel,mMTS,D01,D77,2017-01-26T10:48:00+06:00,
1000000000316781,77053017769,mAltel,mKarTel,mKarTel,,D07,2017-01-26T10:51:19+06:00,
1000000000316782,77024457123,mAltel,mKcell,mKcell,,D07,2017-01-26T10:51:33+06:00,
1000000000316783,77770181109,mMTS,mKarTel,mKarTel,,D77,2017-01-26T10:52:41+06:00,
1000000000316785,77017356710,mMTS,mKcell,mKcell,,D77,2017-01-26T10:53:48+06:00,
1000000000316786,77763090000,mMTS,mKarTel,mKarTel,,D77,2017-01-26T10:55:22+06:00,
1000000000316787,77058000086,mKarTel,mAltel,mKarTel,D07,D01,2017-01-26T10:58:59+06:00,
