NPId,Number,RecipientId,DonorId,RangeHolderId,OldRoute,NewRoute,PortDate,RowCount
1000000000128202,77076663614,mAltel,mMTS,mMTS,,D07,2016-03-18T11:30:17+06:00,18
1000000000128203,77005558621,mKarTel,mAltel,mAltel,,D01,2016-03-18T11:30:56+06:00,
1000000000128205,77756018555,mKcell,mAltel,mKcell,D07,D02,2016-03-18T11:32:13+06:00,
1000000000128210,77015322237,mKarTel,mKcell,mKcell,,D01,2016-03-18T11:37:09+06:00,
1000000000128210,77017415504,mKarTel,mKcell,mKcell,,D01,2016-03-18T11:37:09+06:00,
1000000000128213,77015156182,mKarTel,mAltel,mKcell,D07,D01,2016-03-18T11:38:19+06:00,
1000000000128214,77055555037,mMTS,mKarTel,mKarTel,,D77,2016-03-18T11:39:30+06:00,
1000000000128215,77015509343,mKarTel,mKcell,mKcell,,D01,2016-03-18T11:39:53+06:00,
1000000000128217,77025322752,mMTS,mKcell,mKcell,,D77,2016-03-18T11:40:30+06:00,
1000000000128219,77071570027,mAltel,mMTS,mMTS,,D07,2016-03-18T11:41:27+06:00,
1000000000128220,77016516051,mKarTel,mKcell,mKcell,,D01,2016-03-18T11:42:14+06:00,
1000000000128221,77016095667,mAltel,mKcell,mKcell,,D07,2016-03-18T11:42:50+06:00,
1000000000128224,77759008046,mMTS,mKcell,mKcell,,D77,2016-03-18T11:44:38+06:00,
1000000000128228,77753694833,mMTS,mKcell,mKcell,,D77,2016-03-18T11:47:43+06:00,
1000000000128232,77757120685,mMTS,mKcell,mKcell,,D77,2016-03-18T11:49:26+06:00,
1000000000128233,77474727727,mAltel,mMTS,mMTS,,D07,2016-03-18T11:51:37+06:00,
1000000000128235,77055233269,mAltel,mKarTel,mKarTel,,D07,2016-03-18T11:54:38+06:00,
1000000000128236,77053297005,mKarTel,mMTS,mKarTel,D77,D01,2016-03-18T11:57:40+06:00,
