NPId,Number,RecipientId,DonorId,RangeHolderId,OldRoute,NewRoute,PortDate,RowCount
1000000000296382,77018088687,mKcell,mMTS,mKcell,D77,D02,2016-12-17T14:30:15+06:00,19
1000000000296383,77787373702,mAltel,mKarTel,mKcell,D01,D07,2016-12-17T14:30:48+06:00,
1000000000296384,77017529865,mAltel,mKcell,mKcell,,D07,2016-12-17T14:31:19+06:00,
1000000000296386,77057420998,mMTS,mKarTel,mKarTel,,D77,2016-12-17T14:34:05+06:00,
1000000000296388,77785238295,mAltel,mMTS,mKcell,D77,D07,2016-12-17T14:37:51+06:00,
1000000000296389,77016514411,mKarTel,mKcell,mKcell,,D01,2016-12-17T14:40:12+06:00,
1000000000296390,77074495033,mMTS,mAltel,mMTS,D07,D77,2016-12-17T14:40:29+06:00,
1000000000296391,77017118222,mKcell,mMTS,mKcell,D77,D02,2016-12-17T14:41:01+06:00,
1000000000296392,77086532191,mKarTel,mAltel,mAltel,,D01,2016-12-17T14:43:51+06:00,
1000000000296393,77778981515,mMTS,mKarTel,mKarTel,,D77,2016-12-17T14:44:15+06:00,
1000000000296396,77015337961,mKarTel,mKcell,mKcell,,D01,2016-12-17T14:45:59+06:00,
1000000000296397,77472851155,mKarTel,mMTS,mMTS,,D01,2016-12-17T14:48:07+06:00,
1000000000296399,77017003044,mKarTel,mKcell,mKcell,,D01,2016-12-17T14:50:29+06:00,
1000000000296401,77027250578,mKarTel,mKcell,mKcell,,D01,2016-12-17T14:51:40+06:00,
1000000000296402,77017110220,mKcell,mMTS,mKcell,D77,D02,2016-12-17T14:53:33+06:00,
1000000000296403,77073786524,mAltel,mMTS,mMTS,,D07,2016-12-17T14:54:31+06:00,
1000000000296404,77751541888,mMTS,mKcell,mKcell,,D77,2016-12-17T14:54:43+06:00,
1000000000296405,77027843591,mMTS,mKcell,mKcell,,D77,2016-12-17T14:54:43+06:00,
1000000000296406,77019890549,mMTS,mKcell,mKcell,,D77,2016-12-17T14:57:44+06:00,
