NPId,Number,RecipientId,DonorId,RangeHolderId,OldRoute,NewRoute,PortDate,RowCount
1000000000130073,77028022346,mMTS,mKcell,mKcell,,D77,2016-03-20T18:30:24+06:00,3
1000000000130076,77072012520,mAltel,mMTS,mMTS,,D07,2016-03-20T18:58:31+06:00,
1000000000130077,77719990898,mMTS,mKarTel,mKarTel,,D77,2016-03-20T18:59:59+06:00,
