NPId,Number,RecipientId,DonorId,RangeHolderId,OldRoute,NewRoute,PortDate,RowCount
1000000000332087,77775531022,mMTS,mKarTel,mKarTel,,D77,2017-02-21T09:30:30+06:00,11
1000000000332088,77713070507,mKarTel,mAltel,mKarTel,D07,D01,2017-02-21T09:33:10+06:00,
1000000000332089,77072796383,mAltel,mMTS,mMTS,,D07,2017-02-21T09:32:58+06:00,
1000000000332091,77716055605,mKcell,mKarTel,mKarTel,,D02,2017-02-21T09:39:10+06:00,
1000000000332093,77783324993,mKcell,mAltel,mKcell,D07,D02,2017-02-21T09:46:12+06:00,
1000000000332094,77016126134,mMTS,mKcell,mKcell,,D77,2017-02-21T09:46:01+06:00,
1000000000332095,77018836476,mKarTel,mKcell,mKcell,,D01,2017-02-21T09:51:19+06:00,
1000000000332096,77765848484,mKarTel,mAltel,mKarTel,D07,D01,2017-02-21T09:51:29+06:00,
1000000000332098,77756612834,mKcell,mMTS,mKcell,D77,D02,2017-02-21T09:51:51+06:00,
1000000000332100,77077172999,mKarTel,mAltel,mMTS,D07,D01,2017-02-21T09:52:57+06:00,
1000000000332101,77002970029,mMTS,mAltel,mAltel,D07,D77,2017-02-21T09:59:53+06:00,
