NPId,Number,RecipientId,DonorId,RangeHolderId,OldRoute,NewRoute,PortDate,RowCount
1000000000439525,77075159111,mKcell,mMTS,mMTS,,D02,2017-08-14T12:31:55+06:00,42
1000000000439526,77013628833,mMTS,mKcell,mKcell,,D77,2017-08-14T12:33:01+06:00,
1000000000439527,77089814729,mKcell,mAltel,mAltel,,D02,2017-08-14T12:33:19+06:00,
1000000000439529,77076876576,mKcell,mMTS,mMTS,,D02,2017-08-14T12:37:25+06:00,
1000000000439530,77072709999,mAltel,mMTS,mMTS,,D07,2017-08-14T12:35:31+06:00,
1000000000439531,77072005979,mKcell,mMTS,mMTS,,D02,2017-08-14T12:36:13+06:00,
1000000000439532,77072708888,mAltel,mMTS,mMTS,,D07,2017-08-14T12:36:01+06:00,
1000000000439534,77014061143,mMTS,mKcell,mKcell,,D77,2017-08-14T12:37:30+06:00,
1000000000439535,77072706666,mAltel,mMTS,mMTS,,D07,2017-08-14T12:37:31+06:00,
1000000000439536,77756081514,mMTS,mKcell,mKcell,,D77,2017-08-14T12:37:36+06:00,
1000000000439537,77765006600,mAltel,mMTS,mKarTel,D77,D07,2017-08-14T12:37:29+06:00,
1000000000439538,77004566666,mKcell,mAltel,mAltel,,D02,2017-08-14T12:37:47+06:00,
1000000000439539,77072703333,mAltel,mMTS,mMTS,,D07,2017-08-14T12:37:50+06:00,
1000000000439540,77775200439,mKarTel,mAltel,mKarTel,D07,D01,2017-08-14T12:38:29+06:00,
1000000000439542,77018082808,mKcell,mKarTel,mKcell,D01,D02,2017-08-14T12:40:54+06:00,
1000000000439543,77789054041,mMTS,mKcell,mKcell,,D77,2017-08-14T12:41:22+06:00,
1000000000439545,77784555594,mAltel,mMTS,mKcell,D77,D07,2017-08-14T12:42:55+06:00,
1000000000439546,77053174750,mKarTel,mMTS,mKarTel,D77,D01,2017-08-14T12:44:00+06:00,
1000000000439547,77059722220,mAltel,mKcell,mKarTel,D02,D07,2017-08-14T12:44:10+06:00,
1000000000439549,77015133334,mKcell,mMTS,mKcell,D77,D02,2017-08-14T12:45:37+06:00,
1000000000439550,77000810800,mKcell,mAltel,mAltel,,D02,2017-08-14T12:45:56+06:00,
1000000000439551,77778868668,mKarTel,mMTS,mKarTel,D77,D01,2017-08-14T12:47:08+06:00,
1000000000439552,77052095080,mMTS,mKarTel,mKarTel,,D77,2017-08-14T12:47:49+06:00,
1000000000439553,77019977739,mKcell,mKarTel,mKcell,D01,D02,2017-08-14T12:48:30+06:00,
1000000000439556,77023102820,mAltel,mKcell,mKcell,,D07,2017-08-14T12:49:11+06:00,
1000000000439557,77079578900,mKcell,mMTS,mMTS,,D02,2017-08-14T12:49:44+06:00,
1000000000439558,77021262991,mKcell,mMTS,mKcell,D77,D02,2017-08-14T12:49:40+06:00,
1000000000439559,77771670210,mKarTel,mMTS,mKarTel,D77,D01,2017-08-14T12:50:13+06:00,
1000000000439560,77012488536,mKcell,mMTS,mKcell,D77,D02,2017-08-14T12:50:17+06:00,
1000000000439561,77021329832,mKcell,mMTS,mKcell,D77,D02,2017-08-14T12:51:15+06:00,
1000000000439562,77774052504,mMTS,mKarTel,mKarTel,,D77,2017-08-14T12:51:47+06:00,
1000000000439563,77013571817,mKarTel,mKcell,mKcell,,D01,2017-08-14T12:52:08+06:00,
1000000000439565,77087527729,mMTS,mAltel,mAltel,,D77,2017-08-14T12:54:34+06:00,
1000000000439566,77017111145,mKarTel,mKcell,mKcell,,D01,2017-08-14T12:55:54+06:00,
1000000000439567,77474997270,mKarTel,mMTS,mMTS,,D01,2017-08-14T12:56:52+06:00,
1000000000439568,77783398111,mMTS,mKcell,mKcell,,D77,2017-08-14T12:57:38+06:00,
1000000000439569,77787001220,mAltel,mKcell,mKcell,,D07,2017-08-14T12:58:16+06:00,
1000000000439570,77006130988,mKarTel,mAltel,mAltel,,D01,2017-08-14T12:58:54+06:00,
1000000000439571,77771188877,mKcell,mKarTel,mKarTel,D01,D02,2017-08-14T12:59:21+06:00,
1000000000439573,77475147080,mKcell,mMTS,mMTS,,D02,2017-08-14T12:59:03+06:00,
1000000000439574,77778362362,mKcell,mKarTel,mKarTel,,D02,2017-08-14T12:59:27+06:00,
1000000000439575,77788883238,mMTS,mKcell,mKcell,,D77,2017-08-14T12:59:48+06:00,
