NPId,Number,RecipientId,DonorId,RangeHolderId,OldRoute,NewRoute,PortDate,RowCount
1000000000230706,77775519970,mAltel,mKcell,mKarTel,D02,D07,2016-08-18T12:39:56+06:00,14
1000000000230709,77479503419,mKarTel,mMTS,mMTS,,D01,2016-08-18T12:37:19+06:00,
1000000000230711,77766377778,mKcell,mKarTel,mKarTel,,D02,2016-08-18T12:39:39+06:00,
1000000000230712,77017996447,mMTS,mAltel,mKcell,D07,D77,2016-08-18T12:40:46+06:00,
1000000000230713,77017308421,mMTS,mKcell,mKcell,,D77,2016-08-18T12:41:23+06:00,
1000000000230715,77789621214,mKcell,mMTS,mKcell,D77,D02,2016-08-18T12:42:05+06:00,
1000000000230717,77051527800,mMTS,mKarTel,mKarTel,,D77,2016-08-18T12:44:07+06:00,
1000000000230718,77082834398,mKcell,mAltel,mAltel,,D02,2016-08-18T12:44:46+06:00,
1000000000230719,77075500033,mKarTel,mMTS,mMTS,,D01,2016-08-18T12:48:17+06:00,
1000000000230720,77001450515,mKcell,mAltel,mAltel,,D02,2016-08-18T12:47:54+06:00,
1000000000230721,77017576495,mKarTel,mKcell,mKcell,,D01,2016-08-18T12:49:21+06:00,
1000000000230722,77076347101,mKcell,mMTS,mMTS,,D02,2016-08-18T12:49:50+06:00,
1000000000230724,77074251123,mAltel,mMTS,mMTS,,D07,2016-08-18T12:57:47+06:00,
1000000000230726,77024606020,mMTS,mKcell,mKcell,,D77,2016-08-18T12:59:56+06:00,
