NPId,Number,RecipientId,DonorId,RangeHolderId,OldRoute,NewRoute,PortDate,RowCount
1000000000373954,77022032542,mKcell,mKarTel,mKcell,D01,D02,2017-04-28T17:04:34+06:00,31
1000000000373958,77017840667,mKcell,mKarTel,mKcell,D01,D02,2017-04-28T17:07:19+06:00,
1000000000373972,77015501286,mKcell,mKarTel,mKcell,D01,D02,2017-04-28T17:13:59+06:00,
1000000000374043,77017986520,mKcell,mKarTel,mKcell,D01,D02,2017-04-28T17:00:35+06:00,
1000000000374045,77022222230,mKcell,mKarTel,mKcell,D01,D02,2017-04-28T17:02:44+06:00,
1000000000374046,77089599092,mMTS,mAltel,mAltel,,D77,2017-04-28T17:02:37+06:00,
1000000000374049,77713408988,mAltel,mKarTel,mKarTel,,D07,2017-04-28T17:04:13+06:00,
1000000000374052,77001116787,mKarTel,mAltel,mAltel,,D01,2017-04-28T17:07:25+06:00,
1000000000374053,77017477480,mKarTel,mKcell,mKcell,,D01,2017-04-28T17:09:05+06:00,
1000000000374055,77013870249,mKarTel,mKcell,mKcell,,D01,2017-04-28T17:11:04+06:00,
1000000000374056,77017894730,mKarTel,mKcell,mKcell,,D01,2017-04-28T17:12:42+06:00,
1000000000374059,77012035070,mAltel,mKcell,mKcell,,D07,2017-04-28T17:13:15+06:00,
1000000000374060,77716883269,mMTS,mKarTel,mKarTel,,D77,2017-04-28T17:13:35+06:00,
1000000000374061,77789585385,mAltel,mKcell,mKcell,,D07,2017-04-28T17:13:25+06:00,
1000000000374063,77021060004,mAltel,mKcell,mKcell,,D07,2017-04-28T17:13:37+06:00,
1000000000374065,77775499060,mMTS,mKarTel,mKarTel,,D77,2017-04-28T17:15:17+06:00,
1000000000374066,77002278268,mKcell,mAltel,mAltel,,D02,2017-04-28T17:16:07+06:00,
1000000000374067,77477882015,mAltel,mMTS,mMTS,,D07,2017-04-28T17:19:30+06:00,
1000000000374068,77015223649,mAltel,mKcell,mKcell,,D07,2017-04-28T17:21:19+06:00,
1000000000374069,77761909969,mKcell,mKarTel,mKarTel,,D02,2017-04-28T17:22:12+06:00,
1000000000374071,77055817610,mMTS,mKarTel,mKarTel,,D77,2017-04-28T17:23:14+06:00,
1000000000374072,77073378519,mKarTel,mMTS,mMTS,,D01,2017-04-28T17:23:09+06:00,
1000000000374074,77089999229,mKarTel,mAltel,mAltel,,D01,2017-04-28T17:24:46+06:00,
1000000000374077,77055161852,mMTS,mKarTel,mKarTel,,D77,2017-04-28T17:25:13+06:00,
1000000000374079,77715144482,mAltel,mKarTel,mKarTel,,D07,2017-04-28T17:25:30+06:00,
1000000000374081,77017656171,mKarTel,mKcell,mKcell,,D01,2017-04-28T17:26:48+06:00,
1000000000374083,77712643749,mKcell,mKarTel,mKarTel,,D02,2017-04-28T17:27:28+06:00,
1000000000374084,77079020233,mKcell,mKarTel,mMTS,D01,D02,2017-04-28T17:27:49+06:00,
1000000000374085,77021777790,mKarTel,mMTS,mKcell,D77,D01,2017-04-28T17:28:02+06:00,
1000000000374088,77012997793,mKarTel,mMTS,mKcell,D77,D01,2017-04-28T17:29:31+06:00,
1000000000374089,77776155888,mMTS,mKarTel,mKarTel,,D77,2017-04-28T17:29:48+06:00,
