NPId,Number,RecipientId,DonorId,RangeHolderId,OldRoute,NewRoute,PortDate,RowCount
1000000000341280,77754517203,mMTS,mKcell,mKcell,,D77,2017-03-05T16:31:18+06:00,13
1000000000341281,77018010077,mAltel,mKcell,mKcell,,D07,2017-03-05T16:32:12+06:00,
1000000000341283,77771856133,mKcell,mKarTel,mKarTel,,D02,2017-03-05T16:40:39+06:00,
1000000000341284,77012105692,mMTS,mKcell,mKcell,,D77,2017-03-05T16:42:33+06:00,
1000000000341285,77018917417,mMTS,mKcell,mKcell,,D77,2017-03-05T16:42:34+06:00,
1000000000341286,77017232733,mMTS,mKcell,mKcell,,D77,2017-03-05T16:47:52+06:00,
1000000000341287,77012284949,mMTS,mKcell,mKcell,,D77,2017-03-05T16:47:51+06:00,
1000000000341288,77083010172,mMTS,mAltel,mAltel,D07,D77,2017-03-05T16:52:27+06:00,
1000000000341289,77783303384,mMTS,mKcell,mKcell,,D77,2017-03-05T16:53:01+06:00,
1000000000341291,77784471193,mMTS,mKcell,mKcell,,D77,2017-03-05T16:57:55+06:00,
1000000000341292,77771932001,mMTS,mKarTel,mKarTel,,D77,2017-03-05T16:59:17+06:00,
1000000000341293,77071070131,mKcell,mMTS,mMTS,,D02,2017-03-05T16:59:27+06:00,
1000000000341294,77759302267,mMTS,mKcell,mKcell,,D77,2017-03-05T16:59:44+06:00,
