NPId,Number,RecipientId,DonorId,RangeHolderId,OldRoute,NewRoute,PortDate,RowCount
1000000000431487,77017577125,mKcell,mKarTel,mKcell,D01,D02,2017-07-31T17:13:52+06:00,50
1000000000431496,77017858771,mKcell,mKarTel,mKcell,D01,D02,2017-07-31T17:19:01+06:00,
1000000000431586,77777897890,mMTS,mKarTel,mKarTel,,D77,2017-07-31T17:01:11+06:00,
1000000000431589,77472578919,mKarTel,mMTS,mMTS,,D01,2017-07-31T17:02:09+06:00,
1000000000431590,77756358877,mKarTel,mKcell,mKcell,,D01,2017-07-31T17:02:45+06:00,
1000000000431591,77022163844,mKarTel,mKcell,mKcell,,D01,2017-07-31T17:05:07+06:00,
1000000000431593,77053714084,mMTS,mKarTel,mKarTel,,D77,2017-07-31T17:05:49+06:00,
1000000000431594,77027772191,mKarTel,mKcell,mKcell,,D01,2017-07-31T17:06:33+06:00,
1000000000431595,77751010804,mKarTel,mKcell,mKcell,,D01,2017-07-31T17:06:33+06:00,
1000000000431597,77056666566,mMTS,mKarTel,mKarTel,,D77,2017-07-31T17:07:42+06:00,
1000000000431598,77713418450,mMTS,mKarTel,mKarTel,,D77,2017-07-31T17:07:30+06:00,
1000000000431600,77019297202,mMTS,mKarTel,mKcell,D01,D77,2017-07-31T17:07:42+06:00,
1000000000431601,77077702028,mKarTel,mMTS,mMTS,,D01,2017-07-31T17:07:46+06:00,
1000000000431602,77027311333,mMTS,mKcell,mKcell,D02,D77,2017-07-31T17:07:44+06:00,
1000000000431604,77014781310,mKarTel,mKcell,mKcell,,D01,2017-07-31T17:08:23+06:00,
1000000000431607,77012210099,mMTS,mKarTel,mKcell,D01,D77,2017-07-31T17:09:13+06:00,
1000000000431608,77756377746,mAltel,mKcell,mKcell,,D07,2017-07-31T17:09:12+06:00,
1000000000431611,77473777752,mAltel,mMTS,mMTS,,D07,2017-07-31T17:09:36+06:00,
1000000000431612,77717848045,mAltel,mKarTel,mKarTel,,D07,2017-07-31T17:10:50+06:00,
1000000000431613,77775511010,mKcell,mKarTel,mKarTel,,D02,2017-07-31T17:11:58+06:00,
1000000000431614,77015264445,mKcell,mKarTel,mKcell,D01,D02,2017-07-31T17:11:59+06:00,
1000000000431615,77017676801,mMTS,mKarTel,mKcell,D01,D77,2017-07-31T17:11:46+06:00,
1000000000431616,77019622999,mKarTel,mKcell,mKcell,,D01,2017-07-31T17:12:19+06:00,
1000000000431618,77022175880,mKarTel,mKcell,mKcell,,D01,2017-07-31T17:12:04+06:00,
1000000000431620,77017387366,mKarTel,mKcell,mKcell,,D01,2017-07-31T17:12:35+06:00,
1000000000431621,77010523432,mKarTel,mKcell,mKcell,,D01,2017-07-31T17:13:25+06:00,
1000000000431622,77777799940,mKcell,mKarTel,mKarTel,,D02,2017-07-31T17:14:02+06:00,
1000000000431623,77056041053,mKarTel,mMTS,mKarTel,D77,D01,2017-07-31T17:14:21+06:00,
1000000000431625,77755423152,mMTS,mKcell,mKcell,,D77,2017-07-31T17:15:07+06:00,
1000000000431627,77781415778,mMTS,mKcell,mKcell,,D77,2017-07-31T17:15:21+06:00,
1000000000431628,77010460077,mMTS,mKcell,mKcell,,D77,2017-07-31T17:15:45+06:00,
1000000000431629,77017676889,mMTS,mKarTel,mKcell,D01,D77,2017-07-31T17:16:01+06:00,
1000000000431631,77715074771,mKcell,mKarTel,mKarTel,,D02,2017-07-31T17:17:20+06:00,
1000000000431632,77021111610,mMTS,mKcell,mKcell,,D77,2017-07-31T17:17:21+06:00,
1000000000431634,77770071928,mKcell,mKarTel,mKarTel,,D02,2017-07-31T17:19:41+06:00,
1000000000431635,77022280838,mKarTel,mKcell,mKcell,,D01,2017-07-31T17:20:20+06:00,
1000000000431636,77011909051,mKarTel,mKcell,mKcell,,D01,2017-07-31T17:20:52+06:00,
1000000000431637,77775511013,mKcell,mKarTel,mKarTel,,D02,2017-07-31T17:21:53+06:00,
1000000000431638,77757735326,mMTS,mKcell,mKcell,,D77,2017-07-31T17:21:58+06:00,
1000000000431639,77012169832,mKarTel,mKcell,mKcell,,D01,2017-07-31T17:22:17+06:00,
1000000000431640,77762485331,mMTS,mKarTel,mKarTel,,D77,2017-07-31T17:22:33+06:00,
1000000000431641,77777799197,mKcell,mKarTel,mKarTel,,D02,2017-07-31T17:23:28+06:00,
1000000000431642,77015211141,mMTS,mKcell,mKcell,,D77,2017-07-31T17:23:18+06:00,
1000000000431643,77771318777,mMTS,mKarTel,mKarTel,,D77,2017-07-31T17:23:52+06:00,
1000000000431646,77719939037,mKcell,mKarTel,mKarTel,,D02,2017-07-31T17:25:31+06:00,
1000000000431649,77772278053,mAltel,mKarTel,mKarTel,,D07,2017-07-31T17:26:43+06:00,
1000000000431651,77775511014,mKcell,mKarTel,mKarTel,,D02,2017-07-31T17:27:30+06:00,
1000000000431652,77017597230,mKcell,mKarTel,mKcell,D01,D02,2017-07-31T17:28:47+06:00,
1000000000431655,77052102037,mKarTel,mMTS,mKarTel,D77,D01,2017-07-31T17:29:48+06:00,
1000000000431656,77006060797,mMTS,mAltel,mAltel,,D77,2017-07-31T17:29:35+06:00,
