NPId,Number,RecipientId,DonorId,RangeHolderId,OldRoute,NewRoute,PortDate,RowCount
1000000000443795,77015661496,mKarTel,mKcell,mKcell,,D01,2017-08-22T15:00:33+06:00,18
1000000000443796,77077902929,mKarTel,mMTS,mMTS,,D01,2017-08-22T15:00:50+06:00,
1000000000443797,77072409979,mKcell,mMTS,mMTS,,D02,2017-08-22T15:01:04+06:00,
1000000000443799,77013971802,mKarTel,mKcell,mKcell,,D01,2017-08-22T15:05:58+06:00,
1000000000443800,77750051051,mKarTel,mKcell,mKcell,,D01,2017-08-22T15:08:02+06:00,
1000000000443803,77080777898,mKarTel,mAltel,mAltel,,D01,2017-08-22T15:08:37+06:00,
1000000000443804,77757033613,mMTS,mKcell,mKcell,,D77,2017-08-22T15:09:59+06:00,
1000000000443805,77015234464,mMTS,mKcell,mKcell,,D77,2017-08-22T15:10:10+06:00,
1000000000443806,77017281417,mMTS,mKcell,mKcell,,D77,2017-08-22T15:12:04+06:00,
1000000000443807,77019421919,mMTS,mKcell,mKcell,,D77,2017-08-22T15:12:43+06:00,
1000000000443809,77476525260,mKcell,mMTS,mMTS,,D02,2017-08-22T15:13:48+06:00,
1000000000443810,77059903767,mKcell,mKarTel,mKarTel,,D02,2017-08-22T15:15:19+06:00,
1000000000443811,77474918168,mKcell,mMTS,mMTS,,D02,2017-08-22T15:15:48+06:00,
1000000000443812,77079056340,mKarTel,mMTS,mMTS,,D01,2017-08-22T15:16:23+06:00,
1000000000443814,77754815556,mMTS,mKcell,mKcell,D02,D77,2017-08-22T15:17:46+06:00,
1000000000443815,77053777743,mKcell,mKarTel,mKarTel,,D02,2017-08-22T15:18:55+06:00,
1000000000443818,77754801403,mAltel,mKcell,mKcell,,D07,2017-08-22T15:23:33+06:00,
1000000000443820,77477345054,mKarTel,mMTS,mMTS,,D01,2017-08-22T15:28:19+06:00,
