NPId,Number,RecipientId,DonorId,RangeHolderId,OldRoute,NewRoute,PortDate,RowCount
1000000000367636,77477558050,mKcell,mMTS,mMTS,,D02,2017-04-18T12:30:29+06:00,21
1000000000367637,77753166060,mAltel,mKcell,mKcell,,D07,2017-04-18T12:30:17+06:00,
1000000000367639,77011118599,mKarTel,mKcell,mKcell,,D01,2017-04-18T12:32:04+06:00,
1000000000367640,77755851025,mMTS,mKcell,mKcell,,D77,2017-04-18T12:33:55+06:00,
1000000000367641,77014272062,mMTS,mKcell,mKcell,,D77,2017-04-18T12:34:41+06:00,
1000000000367643,77761039999,mKcell,mKarTel,mKarTel,,D02,2017-04-18T12:39:00+06:00,
1000000000367646,77072127780,mKarTel,mMTS,mMTS,,D01,2017-04-18T12:40:50+06:00,
1000000000367647,77770820099,mAltel,mKarTel,mKarTel,,D07,2017-04-18T12:41:48+06:00,
1000000000367649,77010712226,mKarTel,mKcell,mKcell,,D01,2017-04-18T12:44:58+06:00,
1000000000367651,77779704583,mMTS,mKarTel,mKarTel,,D77,2017-04-18T12:45:47+06:00,
1000000000367652,77476771564,mKarTel,mMTS,mMTS,,D01,2017-04-18T12:46:32+06:00,
1000000000367653,77477020696,mKcell,mMTS,mMTS,,D02,2017-04-18T12:46:42+06:00,
1000000000367654,77015019853,mKarTel,mKcell,mKcell,,D01,2017-04-18T12:49:30+06:00,
1000000000367655,77056243074,mMTS,mKarTel,mKarTel,,D77,2017-04-18T12:49:49+06:00,
1000000000367656,77077437643,mAltel,mMTS,mMTS,,D07,2017-04-18T12:49:29+06:00,
1000000000367657,77713574002,mKcell,mKarTel,mKarTel,,D02,2017-04-18T12:51:12+06:00,
1000000000367658,77013880174,mAltel,mKcell,mKcell,,D07,2017-04-18T12:51:30+06:00,
1000000000367659,77019892081,mKcell,mMTS,mKcell,D77,D02,2017-04-18T12:51:49+06:00,
1000000000367660,77711777791,mKcell,mKarTel,mKarTel,,D02,2017-04-18T12:53:55+06:00,
1000000000367661,77012066832,mMTS,mKcell,mKcell,,D77,2017-04-18T12:53:40+06:00,
1000000000367662,77079001116,mKarTel,mMTS,mMTS,,D01,2017-04-18T12:55:48+06:00,
