NPId,Number,RecipientId,DonorId,RangeHolderId,OldRoute,NewRoute,PortDate,RowCount
1000000000295371,77775533855,mMTS,mKarTel,mKarTel,,D77,2016-12-14T18:30:37+06:00,16
1000000000295373,77752047333,mAltel,mKcell,mKcell,,D07,2016-12-14T18:32:13+06:00,
1000000000295374,77015372900,mMTS,mKcell,mKcell,,D77,2016-12-14T18:32:25+06:00,
1000000000295375,77473755586,mAltel,mMTS,mMTS,,D07,2016-12-14T18:33:50+06:00,
1000000000295376,77081141310,mMTS,mAltel,mAltel,,D77,2016-12-14T18:36:05+06:00,
1000000000295377,77756301485,mMTS,mKcell,mKcell,,D77,2016-12-14T18:44:44+06:00,
1000000000295379,77058826622,mMTS,mKarTel,mKarTel,,D77,2016-12-14T18:48:08+06:00,
1000000000295380,77018339115,mMTS,mKcell,mKcell,,D77,2016-12-14T18:49:16+06:00,
1000000000295381,77001190000,mKcell,mAltel,mAltel,,D02,2016-12-14T18:50:43+06:00,
1000000000295382,77011212195,mAltel,mKcell,mKcell,,D07,2016-12-14T18:50:46+06:00,
1000000000295383,77077118105,mAltel,mMTS,mMTS,,D07,2016-12-14T18:51:02+06:00,
1000000000295384,77754354313,mKcell,mMTS,mKcell,D77,D02,2016-12-14T18:52:47+06:00,
1000000000295385,77074745454,mMTS,mAltel,mMTS,D07,D77,2016-12-14T18:52:38+06:00,
1000000000295386,77015242737,mMTS,mKcell,mKcell,,D77,2016-12-14T18:54:40+06:00,
1000000000295387,77007100854,mKcell,mAltel,mAltel,,D02,2016-12-14T18:56:37+06:00,
1000000000295388,77028887088,mAltel,mKcell,mKcell,,D07,2016-12-14T18:58:24+06:00,
