NPId,Number,RecipientId,DonorId,RangeHolderId,OldRoute,NewRoute,PortDate,RowCount
1000000000398187,77710409889,mKcell,mKarTel,mKarTel,,D02,2017-06-06T12:16:54+06:00,22
1000000000398270,77773760305,mKarTel,mMTS,mKarTel,D77,D01,2017-06-06T12:00:38+06:00,
1000000000398272,77769017474,mMTS,mKarTel,mKarTel,,D77,2017-06-06T12:02:28+06:00,
1000000000398274,77072454043,mKarTel,mMTS,mMTS,,D01,2017-06-06T12:03:11+06:00,
1000000000398275,77053886864,mAltel,mKarTel,mKarTel,,D07,2017-06-06T12:03:26+06:00,
1000000000398276,77055087310,mKarTel,mAltel,mKarTel,D07,D01,2017-06-06T12:04:12+06:00,
1000000000398277,77779003300,mKarTel,mAltel,mKarTel,D07,D01,2017-06-06T12:06:14+06:00,
1000000000398278,77753008027,mKarTel,mKcell,mKcell,,D01,2017-06-06T12:07:53+06:00,
1000000000398279,77781717666,mMTS,mKcell,mKcell,,D77,2017-06-06T12:09:33+06:00,
1000000000398284,77772109298,mMTS,mKarTel,mKarTel,,D77,2017-06-06T12:13:06+06:00,
1000000000398287,77479060614,mKarTel,mMTS,mMTS,,D01,2017-06-06T12:16:43+06:00,
1000000000398288,77471362006,mAltel,mMTS,mMTS,,D07,2017-06-06T12:16:43+06:00,
1000000000398290,77089090978,mMTS,mAltel,mAltel,,D77,2017-06-06T12:20:01+06:00,
1000000000398291,77475670507,mMTS,mKcell,mMTS,D02,D77,2017-06-06T12:20:19+06:00,
1000000000398293,77472438343,mKcell,mMTS,mMTS,,D02,2017-06-06T12:21:00+06:00,
1000000000398295,77076777709,mMTS,mKcell,mMTS,D02,D77,2017-06-06T12:23:24+06:00,
1000000000398296,77017202533,mMTS,mKcell,mKcell,,D77,2017-06-06T12:23:45+06:00,
1000000000398297,77772577778,mAltel,mMTS,mKarTel,D77,D07,2017-06-06T12:24:53+06:00,
1000000000398298,77082093508,mMTS,mAltel,mAltel,,D77,2017-06-06T12:25:43+06:00,
1000000000398299,77018727072,mMTS,mKcell,mKcell,,D77,2017-06-06T12:26:00+06:00,
1000000000398300,77023080800,mMTS,mKcell,mKcell,,D77,2017-06-06T12:27:53+06:00,
1000000000398303,77015252145,mAltel,mKcell,mKcell,,D07,2017-06-06T12:29:58+06:00,
