NPId,Number,RecipientId,DonorId,RangeHolderId,OldRoute,NewRoute,PortDate,RowCount
1000000000350943,77077212223,mMTS,mKarTel,mMTS,D01,D77,2017-03-23T10:11:15+06:00,10
1000000000350946,77003825274,mMTS,mAltel,mAltel,,D77,2017-03-23T10:11:30+06:00,
1000000000350947,77072909005,mKcell,mAltel,mMTS,D07,D02,2017-03-23T10:12:47+06:00,
1000000000350948,77778697047,mMTS,mKarTel,mKarTel,,D77,2017-03-23T10:14:46+06:00,
1000000000350949,77474532045,mMTS,mKcell,mMTS,D02,D77,2017-03-23T10:17:54+06:00,
1000000000350950,77083380526,mMTS,mAltel,mAltel,,D77,2017-03-23T10:17:48+06:00,
1000000000350951,77477890106,mMTS,mKcell,mMTS,D02,D77,2017-03-23T10:20:16+06:00,
1000000000350952,77474532070,mMTS,mKcell,mMTS,D02,D77,2017-03-23T10:21:58+06:00,
1000000000350953,77750001445,mKcell,mMTS,mKcell,D77,D02,2017-03-23T10:23:36+06:00,
1000000000350954,77071463623,mKarTel,mMTS,mMTS,,D01,2017-03-23T10:26:42+06:00,
