NPId,Number,RecipientId,DonorId,RangeHolderId,OldRoute,NewRoute,PortDate,RowCount
1000000000249334,77089907187,mKcell,mAltel,mAltel,,D02,2016-09-21T21:01:46+06:00,2
1000000000249335,77080005092,mKcell,mAltel,mAltel,,D02,2016-09-21T21:03:11+06:00,
