NPId,Number,RecipientId,DonorId,RangeHolderId,OldRoute,NewRoute,PortDate,RowCount
1000000000378875,77051111904,mKcell,mKarTel,mKarTel,,D02,2017-05-05T17:30:11+06:00,33
1000000000378877,77756473827,mAltel,mKcell,mKcell,,D07,2017-05-05T17:30:16+06:00,
1000000000378879,77473838065,mKcell,mMTS,mMTS,,D02,2017-05-05T17:30:30+06:00,
1000000000378880,77014160898,mKarTel,mKcell,mKcell,,D01,2017-05-05T17:34:39+06:00,
1000000000378881,77022913000,mAltel,mKcell,mKcell,D02,D07,2017-05-05T17:35:02+06:00,
1000000000378882,77717510009,mMTS,mKarTel,mKarTel,,D77,2017-05-05T17:35:18+06:00,
1000000000378883,77012223418,mMTS,mKcell,mKcell,,D77,2017-05-05T17:36:52+06:00,
1000000000378884,77774264272,mMTS,mKarTel,mKarTel,,D77,2017-05-05T17:37:38+06:00,
1000000000378885,77760090108,mMTS,mKarTel,mKarTel,,D77,2017-05-05T17:38:05+06:00,
1000000000378889,77012702931,mMTS,mKcell,mKcell,,D77,2017-05-05T17:41:58+06:00,
1000000000378891,77083515535,mMTS,mAltel,mAltel,D07,D77,2017-05-05T17:42:04+06:00,
1000000000378892,77010258000,mKcell,mAltel,mKcell,D07,D02,2017-05-05T17:42:28+06:00,
1000000000378893,77071102560,mMTS,mKarTel,mMTS,D01,D77,2017-05-05T17:43:06+06:00,
1000000000378894,77760090107,mMTS,mKarTel,mKarTel,,D77,2017-05-05T17:43:06+06:00,
1000000000378896,77776588880,mKarTel,mMTS,mKarTel,D77,D01,2017-05-05T17:45:10+06:00,
1000000000378897,77715801717,mKarTel,mAltel,mKarTel,D07,D01,2017-05-05T17:45:20+06:00,
1000000000378898,77773249750,mMTS,mKarTel,mKarTel,,D77,2017-05-05T17:45:38+06:00,
1000000000378899,77711811117,mKcell,mKarTel,mKarTel,,D02,2017-05-05T17:45:53+06:00,
1000000000378900,77011110729,mMTS,mKcell,mKcell,,D77,2017-05-05T17:46:48+06:00,
1000000000378901,77057069897,mAltel,mKarTel,mKarTel,D01,D07,2017-05-05T17:47:06+06:00,
1000000000378902,77017600153,mKarTel,mKcell,mKcell,,D01,2017-05-05T17:47:53+06:00,
1000000000378904,77016466606,mKcell,mMTS,mKcell,D77,D02,2017-05-05T17:48:49+06:00,
1000000000378906,77085184728,mMTS,mAltel,mAltel,,D77,2017-05-05T17:48:37+06:00,
1000000000378907,77475249311,mKarTel,mMTS,mMTS,,D01,2017-05-05T17:49:08+06:00,
1000000000378909,77718194499,mKarTel,mMTS,mKarTel,D77,D01,2017-05-05T17:49:20+06:00,
1000000000378910,77773542921,mAltel,mKarTel,mKarTel,,D07,2017-05-05T17:50:02+06:00,
1000000000378913,77771722261,mMTS,mKarTel,mKarTel,,D77,2017-05-05T17:50:50+06:00,
1000000000378920,77770099163,mMTS,mKarTel,mKarTel,,D77,2017-05-05T17:53:51+06:00,
1000000000378923,77012442226,mMTS,mKcell,mKcell,,D77,2017-05-05T17:54:40+06:00,
1000000000378924,77089098877,mKarTel,mAltel,mAltel,,D01,2017-05-05T17:55:11+06:00,
1000000000378926,77011117271,mMTS,mKcell,mKcell,,D77,2017-05-05T17:55:15+06:00,
1000000000378930,77013131566,mKcell,mKarTel,mKcell,D01,D02,2017-05-05T17:57:53+06:00,
1000000000378933,77019993672,mKarTel,mKcell,mKcell,,D01,2017-05-05T17:58:54+06:00,
