NPId,Number,RecipientId,DonorId,RangeHolderId,OldRoute,NewRoute,PortDate,RowCount
1000000000261659,77026664546,mMTS,mKcell,mKcell,,D77,2016-10-13T13:04:56+06:00,26
1000000000261660,77075552544,mAltel,mMTS,mMTS,,D07,2016-10-13T13:03:01+06:00,
1000000000261661,77083030150,mMTS,mAltel,mAltel,,D77,2016-10-13T13:04:14+06:00,
1000000000261662,77015253669,mKcell,mMTS,mKcell,D77,D02,2016-10-13T13:05:25+06:00,
1000000000261663,77027867887,mAltel,mKcell,mKcell,,D07,2016-10-13T13:05:48+06:00,
1000000000261665,77017373051,mKcell,mMTS,mKcell,D77,D02,2016-10-13T13:07:32+06:00,
1000000000261666,77711582888,mMTS,mKarTel,mKarTel,,D77,2016-10-13T13:08:10+06:00,
1000000000261668,77022156138,mMTS,mKcell,mKcell,,D77,2016-10-13T13:09:14+06:00,
1000000000261670,77029399585,mMTS,mKcell,mKcell,,D77,2016-10-13T13:10:18+06:00,
1000000000261671,77078010864,mKcell,mMTS,mMTS,,D02,2016-10-13T13:10:24+06:00,
1000000000261673,77010881018,mMTS,mKcell,mKcell,,D77,2016-10-13T13:12:10+06:00,
1000000000261675,77019105986,mMTS,mKcell,mKcell,,D77,2016-10-13T13:14:29+06:00,
1000000000261676,77014382211,mMTS,mKcell,mKcell,,D77,2016-10-13T13:15:39+06:00,
1000000000261677,77771827587,mMTS,mKarTel,mKarTel,,D77,2016-10-13T13:17:35+06:00,
1000000000261678,77028888804,mKcell,mMTS,mKcell,D77,D02,2016-10-13T13:17:01+06:00,
1000000000261679,77077060023,mKcell,mMTS,mMTS,,D02,2016-10-13T13:18:38+06:00,
1000000000261681,77022407253,mKarTel,mKcell,mKcell,,D01,2016-10-13T13:20:01+06:00,
1000000000261683,77077060024,mKcell,mMTS,mMTS,,D02,2016-10-13T13:20:58+06:00,
1000000000261684,77713402959,mKarTel,mMTS,mKarTel,D77,D01,2016-10-13T13:21:37+06:00,
1000000000261686,77478145704,mAltel,mMTS,mMTS,,D07,2016-10-13T13:22:04+06:00,
1000000000261687,77754020771,mKarTel,mKcell,mKcell,,D01,2016-10-13T13:23:32+06:00,
1000000000261688,77010440018,mMTS,mKcell,mKcell,,D77,2016-10-13T13:23:42+06:00,
1000000000261689,77056261177,mMTS,mAltel,mKarTel,D07,D77,2016-10-13T13:23:50+06:00,
1000000000261693,77014462883,mKcell,mMTS,mKcell,D77,D02,2016-10-13T13:29:08+06:00,
1000000000261694,77074925486,mAltel,mMTS,mMTS,,D07,2016-10-13T13:29:07+06:00,
1000000000261695,77017808336,mAltel,mKcell,mKcell,,D07,2016-10-13T13:29:13+06:00,
