NPId,Number,RecipientId,DonorId,RangeHolderId,OldRoute,NewRoute,PortDate,RowCount
1000000000319034,77010590169,mKarTel,mKcell,mKcell,,D01,2017-01-30T14:46:30+06:00,63
1000000000319034,77010590170,mKarTel,mKcell,mKcell,,D01,2017-01-30T14:46:30+06:00,
1000000000319034,77010590171,mKarTel,mKcell,mKcell,,D01,2017-01-30T14:46:30+06:00,
1000000000319034,77012045776,mKarTel,mKcell,mKcell,,D01,2017-01-30T14:46:30+06:00,
1000000000319034,77012162575,mKarTel,mKcell,mKcell,,D01,2017-01-30T14:46:30+06:00,
1000000000319034,77012183317,mKarTel,mKcell,mKcell,,D01,2017-01-30T14:46:30+06:00,
1000000000319034,77015124313,mKarTel,mKcell,mKcell,,D01,2017-01-30T14:46:30+06:00,
1000000000319034,77015127323,mKarTel,mKcell,mKcell,,D01,2017-01-30T14:46:30+06:00,
1000000000319034,77015160476,mKarTel,mKcell,mKcell,,D01,2017-01-30T14:46:30+06:00,
1000000000319034,77015501286,mKarTel,mKcell,mKcell,,D01,2017-01-30T14:46:30+06:00,
1000000000319034,77017715638,mKarTel,mKcell,mKcell,,D01,2017-01-30T14:46:30+06:00,
1000000000319034,77017715639,mKarTel,mKcell,mKcell,,D01,2017-01-30T14:46:30+06:00,
1000000000319034,77017715679,mKarTel,mKcell,mKcell,,D01,2017-01-30T14:46:30+06:00,
1000000000319034,77017989613,mKarTel,mKcell,mKcell,,D01,2017-01-30T14:46:30+06:00,
1000000000319034,77017989615,mKarTel,mKcell,mKcell,,D01,2017-01-30T14:46:30+06:00,
1000000000319034,77019605396,mKarTel,mKcell,mKcell,,D01,2017-01-30T14:46:30+06:00,
1000000000319034,77022032542,mKarTel,mKcell,mKcell,,D01,2017-01-30T14:46:30+06:00,
1000000000319118,77011922228,mKcell,mAltel,mKcell,D07,D02,2017-01-30T14:35:35+06:00,
1000000000319119,77011941118,mKcell,mMTS,mKcell,D77,D02,2017-01-30T14:35:36+06:00,
1000000000319120,77007111295,mKcell,mAltel,mAltel,,D02,2017-01-30T14:35:36+06:00,
1000000000319122,77018881273,mMTS,mKcell,mKcell,,D77,2017-01-30T14:35:54+06:00,
1000000000319126,77017833153,mKarTel,mKcell,mKcell,,D01,2017-01-30T14:36:10+06:00,
1000000000319127,77015137242,mKarTel,mKcell,mKcell,,D01,2017-01-30T14:46:11+06:00,
1000000000319130,77753842099,mMTS,mKcell,mKcell,,D77,2017-01-30T14:46:00+06:00,
1000000000319132,77024015218,mMTS,mKcell,mKcell,,D77,2017-01-30T14:46:00+06:00,
1000000000319133,77012570596,mAltel,mKcell,mKcell,,D07,2017-01-30T14:46:11+06:00,
1000000000319134,77019995077,mAltel,mKcell,mKcell,,D07,2017-01-30T14:46:05+06:00,
1000000000319136,77076077679,mKarTel,mMTS,mMTS,,D01,2017-01-30T14:31:26+06:00,
1000000000319138,77751085252,mMTS,mKcell,mKcell,,D77,2017-01-30T14:46:04+06:00,
1000000000319139,77711293416,mMTS,mKarTel,mKarTel,,D77,2017-01-30T14:33:35+06:00,
1000000000319140,77022788480,mKarTel,mMTS,mKcell,D77,D01,2017-01-30T14:33:44+06:00,
1000000000319141,77057374039,mKarTel,mKcell,mKarTel,D02,D01,2017-01-30T14:46:22+06:00,
1000000000319142,77772492195,mMTS,mKarTel,mKarTel,,D77,2017-01-30T14:38:02+06:00,
1000000000319143,77474219769,mKarTel,mMTS,mMTS,,D01,2017-01-30T14:38:00+06:00,
1000000000319144,77772422277,mMTS,mKarTel,mKarTel,,D77,2017-01-30T14:39:59+06:00,
1000000000319145,77479185660,mAltel,mMTS,mMTS,,D07,2017-01-30T14:39:48+06:00,
1000000000319146,77017591993,mMTS,mKcell,mKcell,,D77,2017-01-30T14:46:17+06:00,
1000000000319147,77017991474,mAltel,mKcell,mKcell,,D07,2017-01-30T14:50:46+06:00,
1000000000319148,77012751177,mMTS,mKcell,mKcell,,D77,2017-01-30T14:46:07+06:00,
1000000000319149,77015176868,mKarTel,mKcell,mKcell,,D01,2017-01-30T14:46:23+06:00,
1000000000319150,77754440722,mMTS,mKcell,mKcell,,D77,2017-01-30T14:46:06+06:00,
1000000000319151,77018200174,mAltel,mKcell,mKcell,,D07,2017-01-30T14:46:07+06:00,
1000000000319152,77015293952,mKarTel,mKcell,mKcell,,D01,2017-01-30T14:46:31+06:00,
1000000000319153,77076186888,mAltel,mMTS,mMTS,,D07,2017-01-30T14:43:46+06:00,
1000000000319154,77015516133,mMTS,mKcell,mKcell,,D77,2017-01-30T14:46:10+06:00,
1000000000319156,77004907458,mKarTel,mMTS,mAltel,D77,D01,2017-01-30T14:46:01+06:00,
1000000000319157,77029077758,mKcell,mMTS,mKcell,D77,D02,2017-01-30T14:50:29+06:00,
1000000000319158,77013703717,mKcell,mMTS,mKcell,D77,D02,2017-01-30T14:50:29+06:00,
1000000000319159,77758142285,mKcell,mMTS,mKcell,D77,D02,2017-01-30T14:50:30+06:00,
1000000000319160,77011121177,mKcell,mMTS,mKcell,D77,D02,2017-01-30T14:50:36+06:00,
1000000000319163,77079170075,mKcell,mMTS,mMTS,,D02,2017-01-30T14:50:30+06:00,
1000000000319164,77023367096,mKcell,mKarTel,mKcell,D01,D02,2017-01-30T14:50:33+06:00,
1000000000319165,77073100155,mKcell,mMTS,mMTS,,D02,2017-01-30T14:50:31+06:00,
1000000000319166,77000281296,mKcell,mAltel,mAltel,,D02,2017-01-30T14:50:31+06:00,
1000000000319167,77711680497,mMTS,mKarTel,mKarTel,,D77,2017-01-30T14:46:31+06:00,
1000000000319168,77027069555,mKcell,mMTS,mKcell,D77,D02,2017-01-30T14:50:33+06:00,
1000000000319170,77011620555,mMTS,mKcell,mKcell,,D77,2017-01-30T14:50:46+06:00,
1000000000319171,77772492218,mMTS,mKarTel,mKarTel,,D77,2017-01-30T14:48:00+06:00,
1000000000319174,77772492196,mMTS,mKarTel,mKarTel,,D77,2017-01-30T14:53:00+06:00,
1000000000319176,77071203079,mMTS,mKcell,mMTS,D02,D77,2017-01-30T14:54:48+06:00,
1000000000319177,77013443473,mKarTel,mKcell,mKcell,,D01,2017-01-30T14:55:08+06:00,
1000000000319185,77772492150,mMTS,mKarTel,mKarTel,,D77,2017-01-30T14:58:02+06:00,
1000000000319188,77474348453,mAltel,mMTS,mMTS,,D07,2017-01-30T14:59:55+06:00,
