NPId,Number,RecipientId,DonorId,RangeHolderId,OldRoute,NewRoute,PortDate,RowCount
1000000000257059,77054515381,mMTS,mKarTel,mKarTel,,D77,2016-10-05T09:33:16+06:00,11
1000000000257061,77071111739,mKarTel,mMTS,mMTS,,D01,2016-10-05T09:36:44+06:00,
1000000000257062,77757511755,mKarTel,mAltel,mKcell,D07,D01,2016-10-05T09:36:59+06:00,
1000000000257063,77760000850,mAltel,mKarTel,mKarTel,,D07,2016-10-05T09:40:33+06:00,
1000000000257065,77770182003,mAltel,mKarTel,mKarTel,,D07,2016-10-05T09:45:37+06:00,
1000000000257066,77072415858,mKcell,mMTS,mMTS,,D02,2016-10-05T09:45:21+06:00,
1000000000257067,77017942134,mKarTel,mKcell,mKcell,,D01,2016-10-05T09:46:03+06:00,
1000000000257069,77089611718,mMTS,mAltel,mAltel,,D77,2016-10-05T09:49:53+06:00,
1000000000257070,77079129090,mKarTel,mMTS,mMTS,,D01,2016-10-05T09:52:37+06:00,
1000000000257071,77057064525,mKcell,mKarTel,mKarTel,,D02,2016-10-05T09:54:47+06:00,
1000000000257073,77017845558,mKcell,mMTS,mKcell,D77,D02,2016-10-05T09:59:31+06:00,
