NPId,Number,RecipientId,DonorId,RangeHolderId,OldRoute,NewRoute,PortDate,RowCount
1000000000442771,77753413421,mMTS,mKcell,mKcell,,D77,2017-08-20T15:32:41+06:00,13
1000000000442773,77718005586,mKcell,mKarTel,mKarTel,,D02,2017-08-20T15:34:02+06:00,
1000000000442774,77712371394,mMTS,mKarTel,mKarTel,,D77,2017-08-20T15:36:05+06:00,
1000000000442777,77477797078,mKcell,mMTS,mMTS,,D02,2017-08-20T15:41:54+06:00,
1000000000442779,77010366665,mAltel,mKcell,mKcell,,D07,2017-08-20T15:42:07+06:00,
1000000000442780,77024845509,mKarTel,mKcell,mKcell,D02,D01,2017-08-20T15:42:47+06:00,
1000000000442781,77005241989,mMTS,mAltel,mAltel,,D77,2017-08-20T15:42:32+06:00,
1000000000442783,77714284440,mKcell,mKarTel,mKarTel,,D02,2017-08-20T15:46:02+06:00,
1000000000442784,77004560597,mMTS,mAltel,mAltel,,D77,2017-08-20T15:45:51+06:00,
1000000000442786,77073533021,mMTS,mKarTel,mMTS,D01,D77,2017-08-20T15:47:52+06:00,
1000000000442787,77017540145,mKarTel,mKcell,mKcell,,D01,2017-08-20T15:49:25+06:00,
1000000000442788,77019332000,mKarTel,mKcell,mKcell,,D01,2017-08-20T15:55:53+06:00,
1000000000442789,77089658489,mKarTel,mAltel,mAltel,,D01,2017-08-20T15:55:57+06:00,
