NPId,Number,RecipientId,DonorId,RangeHolderId,OldRoute,NewRoute,PortDate,RowCount
1000000000093130,77015344955,mKarTel,mKcell,mKcell,,D01,2016-02-19T12:31:25+06:00,31
1000000000093141,77011724669,mKarTel,mKcell,mKcell,,D01,2016-02-19T12:31:47+06:00,
1000000000093142,77015003489,mKarTel,mKcell,mKcell,,D01,2016-02-19T12:42:01+06:00,
1000000000093143,77789535750,mMTS,mKcell,mKcell,,D77,2016-02-19T12:33:50+06:00,
1000000000093144,77767995589,mAltel,mKarTel,mKarTel,,D07,2016-02-19T12:34:17+06:00,
1000000000093145,77717222222,mKcell,mKarTel,mKarTel,,D02,2016-02-19T12:34:58+06:00,
1000000000093150,77015345736,mKarTel,mKcell,mKcell,,D01,2016-02-19T12:40:11+06:00,
1000000000093151,77017312544,mAltel,mKcell,mKcell,,D07,2016-02-19T12:40:23+06:00,
1000000000093152,77028980105,mAltel,mKcell,mKcell,,D07,2016-02-19T12:40:42+06:00,
1000000000093154,77774911016,mAltel,mKarTel,mKarTel,,D07,2016-02-19T12:42:26+06:00,
1000000000093155,77028299155,mMTS,mKcell,mKcell,,D77,2016-02-19T12:42:42+06:00,
1000000000093156,77714198661,mKcell,mKarTel,mKarTel,,D02,2016-02-19T12:43:40+06:00,
1000000000093158,77023664846,mAltel,mKcell,mKcell,,D07,2016-02-19T12:44:52+06:00,
1000000000093159,77025553231,mKarTel,mKcell,mKcell,,D01,2016-02-19T12:46:00+06:00,
1000000000093160,77017174177,mMTS,mKcell,mKcell,,D77,2016-02-19T12:45:43+06:00,
1000000000093161,77081878808,mKcell,mAltel,mAltel,,D02,2016-02-19T12:46:31+06:00,
1000000000093162,77776948002,mMTS,mKarTel,mKarTel,,D77,2016-02-19T12:47:08+06:00,
1000000000093163,77029281808,mMTS,mKcell,mKcell,,D77,2016-02-19T12:48:53+06:00,
1000000000093164,77073801902,mAltel,mMTS,mMTS,,D07,2016-02-19T12:49:15+06:00,
1000000000093165,77757008200,mAltel,mKcell,mKcell,,D07,2016-02-19T12:49:22+06:00,
1000000000093166,77769799999,mKcell,mKarTel,mKarTel,,D02,2016-02-19T12:50:51+06:00,
1000000000093168,77016564004,mMTS,mKcell,mKcell,,D77,2016-02-19T12:52:05+06:00,
1000000000093170,77011888680,mAltel,mKcell,mKcell,,D07,2016-02-19T12:55:43+06:00,
1000000000093171,77017818187,mAltel,mKcell,mKcell,,D07,2016-02-19T12:55:43+06:00,
1000000000093172,77016740783,mMTS,mKcell,mKcell,,D77,2016-02-19T12:55:50+06:00,
1000000000093173,77477834666,mKcell,mMTS,mMTS,,D02,2016-02-19T12:56:17+06:00,
1000000000093174,77714198641,mKcell,mKarTel,mKarTel,,D02,2016-02-19T12:56:32+06:00,
1000000000093175,77762000770,mAltel,mKarTel,mKarTel,,D07,2016-02-19T12:56:38+06:00,
1000000000093176,77054858985,mAltel,mKarTel,mKarTel,,D07,2016-02-19T12:57:14+06:00,
1000000000093177,77022010383,mAltel,mKcell,mKcell,,D07,2016-02-19T12:57:54+06:00,
1000000000093180,77013765060,mMTS,mKcell,mKcell,,D77,2016-02-19T12:58:51+06:00,
