NPId,Number,RecipientId,DonorId,RangeHolderId,OldRoute,NewRoute,PortDate,RowCount
1000000000137812,77079261545,mKarTel,mMTS,mMTS,,D01,2016-03-31T10:01:29+06:00,34
1000000000137814,77779969889,mMTS,mKarTel,mKarTel,,D77,2016-03-31T10:03:25+06:00,
1000000000137815,77003163803,mAltel,mKarTel,mAltel,D01,D07,2016-03-31T10:03:26+06:00,
1000000000137817,77003728030,mAltel,mKarTel,mAltel,D01,D07,2016-03-31T10:03:26+06:00,
1000000000137818,77015231252,mMTS,mKcell,mKcell,,D77,2016-03-31T10:02:55+06:00,
1000000000137819,77005010705,mAltel,mKarTel,mAltel,D01,D07,2016-03-31T10:03:26+06:00,
1000000000137820,77759022605,mMTS,mKcell,mKcell,,D77,2016-03-31T10:02:57+06:00,
1000000000137821,77017839574,mMTS,mKcell,mKcell,,D77,2016-03-31T10:02:55+06:00,
1000000000137822,77089699970,mMTS,mAltel,mAltel,,D77,2016-03-31T10:01:57+06:00,
1000000000137823,77773360206,mMTS,mKarTel,mKarTel,,D77,2016-03-31T10:03:25+06:00,
1000000000137824,77757328282,mMTS,mKcell,mKcell,,D77,2016-03-31T10:02:55+06:00,
1000000000137825,77789378619,mMTS,mKcell,mKcell,,D77,2016-03-31T10:02:56+06:00,
1000000000137827,77021222522,mMTS,mKcell,mKcell,,D77,2016-03-31T10:02:55+06:00,
1000000000137828,77013244124,mMTS,mKcell,mKcell,,D77,2016-03-31T10:02:57+06:00,
1000000000137829,77017174470,mMTS,mKcell,mKcell,,D77,2016-03-31T10:02:57+06:00,
1000000000137831,77774470777,mMTS,mKarTel,mKarTel,,D77,2016-03-31T10:05:20+06:00,
1000000000137832,77017980979,mKcell,mMTS,mKcell,D77,D02,2016-03-31T10:06:43+06:00,
1000000000137833,77027172268,mKarTel,mKcell,mKcell,,D01,2016-03-31T10:07:13+06:00,
1000000000137835,77014278655,mMTS,mKcell,mKcell,,D77,2016-03-31T10:07:11+06:00,
1000000000137836,77757840015,mKcell,mAltel,mKcell,D07,D02,2016-03-31T10:08:23+06:00,
1000000000137837,77759468664,mAltel,mKcell,mKcell,,D07,2016-03-31T10:08:34+06:00,
1000000000137839,77779014149,mMTS,mKarTel,mKarTel,,D77,2016-03-31T10:13:35+06:00,
1000000000137840,77022575008,mAltel,mKcell,mKcell,,D07,2016-03-31T10:15:30+06:00,
1000000000137841,77471064207,mKarTel,mMTS,mMTS,,D01,2016-03-31T10:16:48+06:00,
1000000000137843,77051222035,mMTS,mKarTel,mKarTel,,D77,2016-03-31T10:19:28+06:00,
1000000000137844,77773130011,mMTS,mKarTel,mKarTel,,D77,2016-03-31T10:21:11+06:00,
1000000000137845,77052071207,mMTS,mKarTel,mKarTel,,D77,2016-03-31T10:22:36+06:00,
1000000000137846,77074440803,mMTS,mAltel,mMTS,D07,D77,2016-03-31T10:21:54+06:00,
1000000000137847,77753697070,mMTS,mKcell,mKcell,,D77,2016-03-31T10:22:04+06:00,
1000000000137848,77021102030,mMTS,mKcell,mKcell,,D77,2016-03-31T10:22:04+06:00,
1000000000137849,77770252511,mMTS,mKarTel,mKarTel,,D77,2016-03-31T10:26:41+06:00,
1000000000137850,77477306965,mKcell,mMTS,mMTS,,D02,2016-03-31T10:26:41+06:00,
1000000000137852,77007110303,mMTS,mAltel,mAltel,,D77,2016-03-31T10:27:30+06:00,
1000000000137854,77713477979,mKarTel,mAltel,mKarTel,D07,D01,2016-03-31T10:29:26+06:00,
