NPId,Number,RecipientId,DonorId,RangeHolderId,OldRoute,NewRoute,PortDate,RowCount
1000000000405029,77788933099,mMTS,mKcell,mKcell,,D77,2017-06-18T09:44:19+06:00,3
1000000000405030,77077755457,mKarTel,mMTS,mMTS,,D01,2017-06-18T09:44:58+06:00,
1000000000405031,77076179250,mKarTel,mMTS,mMTS,,D01,2017-06-18T09:48:15+06:00,
