NPId,Number,RecipientId,DonorId,RangeHolderId,OldRoute,NewRoute,PortDate,RowCount
1000000000310187,77077643028,mAltel,mMTS,mMTS,,D07,2017-01-13T16:02:40+06:00,29
1000000000310188,77750008866,mAltel,mKarTel,mKcell,D01,D07,2017-01-13T16:03:32+06:00,
1000000000310189,77089855021,mKarTel,mAltel,mAltel,,D01,2017-01-13T16:03:49+06:00,
1000000000310192,77755956666,mKarTel,mAltel,mKcell,D07,D01,2017-01-13T16:07:07+06:00,
1000000000310193,77026976971,mMTS,mKcell,mKcell,,D77,2017-01-13T16:07:50+06:00,
1000000000310194,77769111709,mMTS,mKarTel,mKarTel,,D77,2017-01-13T16:08:53+06:00,
1000000000310195,77076070740,mAltel,mMTS,mMTS,,D07,2017-01-13T16:08:37+06:00,
1000000000310196,77474193349,mAltel,mMTS,mMTS,,D07,2017-01-13T16:08:41+06:00,
1000000000310198,77759608780,mKcell,mAltel,mKcell,D07,D02,2017-01-13T16:11:53+06:00,
1000000000310200,77002832762,mKcell,mAltel,mAltel,,D02,2017-01-13T16:13:36+06:00,
1000000000310201,77055223528,mMTS,mKarTel,mKarTel,,D77,2017-01-13T16:13:57+06:00,
1000000000310202,77079988995,mKarTel,mMTS,mMTS,,D01,2017-01-13T16:17:21+06:00,
1000000000310205,77012420970,mKcell,mKarTel,mKcell,D01,D02,2017-01-13T16:17:57+06:00,
1000000000310206,77018612727,mAltel,mKcell,mKcell,,D07,2017-01-13T16:17:41+06:00,
1000000000310207,77012946272,mKarTel,mKcell,mKcell,,D01,2017-01-13T16:18:20+06:00,
1000000000310208,77775375062,mAltel,mKarTel,mKarTel,,D07,2017-01-13T16:18:49+06:00,
1000000000310209,77001109700,mMTS,mAltel,mAltel,,D77,2017-01-13T16:18:43+06:00,
1000000000310212,77784299912,mMTS,mKcell,mKcell,,D77,2017-01-13T16:20:13+06:00,
1000000000310214,77775375059,mAltel,mKarTel,mKarTel,,D07,2017-01-13T16:21:19+06:00,
1000000000310215,77017505568,mMTS,mKcell,mKcell,,D77,2017-01-13T16:21:05+06:00,
1000000000310216,77077519069,mKarTel,mMTS,mMTS,,D01,2017-01-13T16:22:28+06:00,
1000000000310217,77077500300,mMTS,mAltel,mMTS,D07,D77,2017-01-13T16:22:59+06:00,
1000000000310220,77771708733,mKarTel,mMTS,mKarTel,D77,D01,2017-01-13T16:24:16+06:00,
1000000000310221,77051551750,mKcell,mKarTel,mKarTel,,D02,2017-01-13T16:24:50+06:00,
1000000000310223,77028931116,mMTS,mAltel,mKcell,D07,D77,2017-01-13T16:24:48+06:00,
1000000000310224,77775375060,mAltel,mKarTel,mKarTel,,D07,2017-01-13T16:25:19+06:00,
1000000000310225,77773012525,mMTS,mKcell,mKarTel,D02,D77,2017-01-13T16:25:25+06:00,
1000000000310226,77019908341,mAltel,mKarTel,mKcell,D01,D07,2017-01-13T16:26:00+06:00,
1000000000310227,77751430976,mKcell,mMTS,mKcell,D77,D02,2017-01-13T16:28:47+06:00,
