NPId,Number,RecipientId,DonorId,RangeHolderId,OldRoute,NewRoute,PortDate,RowCount
1000000000370314,77077227871,mKcell,mMTS,mMTS,,D02,2017-04-22T21:04:12+06:00,2
1000000000370316,77014886080,mKarTel,mKcell,mKcell,,D01,2017-04-22T21:20:50+06:00,
