NPId,Number,RecipientId,DonorId,RangeHolderId,OldRoute,NewRoute,PortDate,RowCount
1000000000423943,77765955550,mKcell,mMTS,mKarTel,D77,D02,2017-07-18T15:30:41+06:00,32
1000000000423946,77074100967,mMTS,mAltel,mMTS,D07,D77,2017-07-18T15:32:35+06:00,
1000000000423947,77474131928,mKarTel,mMTS,mMTS,,D01,2017-07-18T15:33:07+06:00,
1000000000423948,77476167745,mKarTel,mMTS,mMTS,,D01,2017-07-18T15:33:43+06:00,
1000000000423949,77019338805,mKarTel,mAltel,mKcell,D07,D01,2017-07-18T15:34:08+06:00,
1000000000423950,77760141414,mKcell,mKarTel,mKarTel,,D02,2017-07-18T15:35:47+06:00,
1000000000423951,77011362441,mKcell,mMTS,mKcell,D77,D02,2017-07-18T15:37:34+06:00,
1000000000423952,77075113351,mKcell,mMTS,mMTS,,D02,2017-07-18T15:38:48+06:00,
1000000000423953,77010990121,mMTS,mKcell,mKcell,,D77,2017-07-18T15:39:18+06:00,
1000000000423954,77015431500,mKarTel,mKcell,mKcell,,D01,2017-07-18T15:39:48+06:00,
1000000000423955,77006636427,mMTS,mAltel,mAltel,,D77,2017-07-18T15:40:33+06:00,
1000000000423956,77473201707,mKarTel,mMTS,mMTS,,D01,2017-07-18T15:41:30+06:00,
1000000000423957,77087707017,mKarTel,mAltel,mAltel,,D01,2017-07-18T15:43:15+06:00,
1000000000423959,77051114844,mKarTel,mMTS,mKarTel,D77,D01,2017-07-18T15:44:01+06:00,
1000000000423962,77756544647,mKcell,mMTS,mKcell,D77,D02,2017-07-18T15:46:06+06:00,
1000000000423963,77000860428,mKcell,mAltel,mAltel,,D02,2017-07-18T15:46:34+06:00,
1000000000423964,77022610141,mAltel,mKcell,mKcell,,D07,2017-07-18T15:46:32+06:00,
1000000000423965,77071510102,mKarTel,mMTS,mMTS,,D01,2017-07-18T15:46:59+06:00,
1000000000423966,77772966245,mMTS,mKarTel,mKarTel,,D77,2017-07-18T15:47:16+06:00,
1000000000423968,77076979469,mAltel,mMTS,mMTS,,D07,2017-07-18T15:48:08+06:00,
1000000000423969,77776299926,mKcell,mAltel,mKarTel,D07,D02,2017-07-18T15:49:19+06:00,
1000000000423973,77777776656,mKarTel,mMTS,mKarTel,D77,D01,2017-07-18T15:51:23+06:00,
1000000000423974,77071144645,mKarTel,mMTS,mMTS,,D01,2017-07-18T15:53:10+06:00,
1000000000423975,77765000977,mMTS,mKarTel,mKarTel,,D77,2017-07-18T15:53:29+06:00,
1000000000423977,77782486734,mKarTel,mKcell,mKcell,,D01,2017-07-18T15:55:00+06:00,
1000000000423978,77072777752,mKarTel,mMTS,mMTS,,D01,2017-07-18T15:55:10+06:00,
1000000000423979,77077960069,mKarTel,mMTS,mMTS,,D01,2017-07-18T15:55:20+06:00,
1000000000423980,77770349272,mMTS,mKarTel,mKarTel,,D77,2017-07-18T15:56:20+06:00,
1000000000423981,77010644446,mKarTel,mMTS,mKcell,D77,D01,2017-07-18T15:56:13+06:00,
1000000000423982,77011133634,mKarTel,mKcell,mKcell,,D01,2017-07-18T15:56:55+06:00,
1000000000423983,77073459454,mKcell,mMTS,mMTS,,D02,2017-07-18T15:57:33+06:00,
1000000000423984,77071502534,mKcell,mMTS,mMTS,,D02,2017-07-18T15:59:17+06:00,
