NPId,Number,RecipientId,DonorId,RangeHolderId,OldRoute,NewRoute,PortDate,RowCount
1000000000305548,77017773684,mKcell,mAltel,mKcell,D07,D02,2017-01-04T18:30:38+06:00,20
1000000000305549,77070446009,mMTS,mKcell,mMTS,D02,D77,2017-01-04T18:32:31+06:00,
1000000000305550,77015000577,mMTS,mKcell,mKcell,,D77,2017-01-04T18:32:50+06:00,
1000000000305551,77077647103,mKarTel,mMTS,mMTS,,D01,2017-01-04T18:33:19+06:00,
1000000000305552,77001000942,mKcell,mAltel,mAltel,,D02,2017-01-04T18:34:01+06:00,
1000000000305553,77777257777,mKcell,mKarTel,mKarTel,,D02,2017-01-04T18:35:24+06:00,
1000000000305554,77004040489,mKcell,mAltel,mAltel,,D02,2017-01-04T18:36:29+06:00,
1000000000305556,77072231976,mKarTel,mMTS,mMTS,,D01,2017-01-04T18:38:43+06:00,
1000000000305557,77029965638,mKarTel,mKcell,mKcell,,D01,2017-01-04T18:40:11+06:00,
1000000000305560,77776256663,mMTS,mKarTel,mKarTel,,D77,2017-01-04T18:42:58+06:00,
1000000000305562,77004040483,mKcell,mAltel,mAltel,,D02,2017-01-04T18:46:03+06:00,
1000000000305563,77055344555,mKcell,mKarTel,mKarTel,,D02,2017-01-04T18:47:32+06:00,
1000000000305564,77004040482,mKcell,mAltel,mAltel,,D02,2017-01-04T18:48:40+06:00,
1000000000305567,77013163049,mKarTel,mKcell,mKcell,,D01,2017-01-04T18:49:41+06:00,
1000000000305568,77004040481,mKcell,mAltel,mAltel,,D02,2017-01-04T18:51:21+06:00,
1000000000305569,77771587754,mKcell,mKarTel,mKarTel,,D02,2017-01-04T18:51:40+06:00,
1000000000305571,77004198667,mKarTel,mAltel,mAltel,,D01,2017-01-04T18:53:42+06:00,
1000000000305572,77078559840,mKarTel,mMTS,mMTS,,D01,2017-01-04T18:55:01+06:00,
1000000000305573,77057002077,mMTS,mKarTel,mKarTel,,D77,2017-01-04T18:55:15+06:00,
1000000000305577,77078559841,mKarTel,mMTS,mMTS,,D01,2017-01-04T18:59:11+06:00,
