NPId,Number,RecipientId,DonorId,RangeHolderId,OldRoute,NewRoute,PortDate,RowCount
1000000000128992,77759117939,mMTS,mKcell,mKcell,,D77,2016-03-19T11:30:04+06:00,27
1000000000128993,77058979595,mMTS,mKarTel,mKarTel,,D77,2016-03-19T11:32:35+06:00,
1000000000128994,77751692988,mMTS,mKcell,mKcell,,D77,2016-03-19T11:31:52+06:00,
1000000000128995,77472200025,mKcell,mMTS,mMTS,,D02,2016-03-19T11:32:08+06:00,
1000000000128996,77059152915,mAltel,mKarTel,mKarTel,,D07,2016-03-19T11:33:26+06:00,
1000000000128997,77017834323,mKarTel,mKcell,mKcell,,D01,2016-03-19T11:32:34+06:00,
1000000000128999,77762698484,mKcell,mKarTel,mKarTel,,D02,2016-03-19T11:37:37+06:00,
1000000000129000,77015016004,mMTS,mKcell,mKcell,,D77,2016-03-19T11:37:02+06:00,
1000000000129001,77026385228,mMTS,mKcell,mKcell,,D77,2016-03-19T11:37:03+06:00,
1000000000129004,77010963222,mKarTel,mKcell,mKcell,,D01,2016-03-19T11:42:07+06:00,
1000000000129006,77028869800,mMTS,mKcell,mKcell,,D77,2016-03-19T11:42:11+06:00,
1000000000129007,77017173111,mMTS,mKcell,mKcell,,D77,2016-03-19T11:42:47+06:00,
1000000000129008,77015559648,mKcell,mAltel,mKcell,D07,D02,2016-03-19T11:44:09+06:00,
1000000000129009,77077328816,mAltel,mMTS,mMTS,,D07,2016-03-19T11:43:57+06:00,
1000000000129011,77055743131,mMTS,mKarTel,mKarTel,,D77,2016-03-19T11:45:22+06:00,
1000000000129013,77754138600,mMTS,mKcell,mKcell,,D77,2016-03-19T11:46:16+06:00,
1000000000129014,77024304829,mMTS,mKcell,mKcell,,D77,2016-03-19T11:47:29+06:00,
1000000000129015,77053271313,mMTS,mKarTel,mKarTel,,D77,2016-03-19T11:48:59+06:00,
1000000000129016,77077328823,mAltel,mMTS,mMTS,,D07,2016-03-19T11:48:41+06:00,
1000000000129017,77773195994,mMTS,mKarTel,mKarTel,,D77,2016-03-19T11:50:34+06:00,
1000000000129020,77024460410,mMTS,mKcell,mKcell,,D77,2016-03-19T11:51:58+06:00,
1000000000129021,77015542810,mAltel,mKcell,mKcell,,D07,2016-03-19T11:51:58+06:00,
1000000000129022,77057634493,mMTS,mKarTel,mKarTel,,D77,2016-03-19T11:53:23+06:00,
1000000000129023,77757738977,mAltel,mKcell,mKcell,,D07,2016-03-19T11:53:53+06:00,
1000000000129025,77076554411,mKcell,mMTS,mMTS,,D02,2016-03-19T11:55:03+06:00,
1000000000129027,77018099951,mKarTel,mKcell,mKcell,,D01,2016-03-19T11:55:28+06:00,
1000000000129028,77776004949,mMTS,mKarTel,mKarTel,,D77,2016-03-19T11:56:40+06:00,
