NPId,Number,RecipientId,DonorId,RangeHolderId,OldRoute,NewRoute,PortDate,RowCount
1000000000387997,77758880179,mMTS,mKcell,mKcell,,D77,2017-05-24T09:31:05+06:00,7
1000000000387998,77057591155,mKcell,mKarTel,mKarTel,,D02,2017-05-24T09:35:20+06:00,
1000000000388000,77012140984,mKarTel,mKcell,mKcell,,D01,2017-05-24T09:39:38+06:00,
1000000000388001,77712848314,mMTS,mKarTel,mKarTel,,D77,2017-05-24T09:42:15+06:00,
1000000000388002,77002848314,mMTS,mAltel,mAltel,,D77,2017-05-24T09:43:42+06:00,
1000000000388006,77779144443,mKarTel,mMTS,mKarTel,D77,D01,2017-05-24T09:53:56+06:00,
1000000000388007,77785039779,mMTS,mKcell,mKcell,,D77,2017-05-24T09:58:24+06:00,
