NPId,Number,RecipientId,DonorId,RangeHolderId,OldRoute,NewRoute,PortDate,RowCount
1000000000170143,77083141510,mMTS,mAltel,mAltel,,D77,2016-05-08T14:01:15+06:00,9
1000000000170144,77759480522,mMTS,mKcell,mKcell,,D77,2016-05-08T14:06:08+06:00,
1000000000170145,77029739213,mMTS,mKcell,mKcell,,D77,2016-05-08T14:07:26+06:00,
1000000000170146,77752364916,mMTS,mKcell,mKcell,,D77,2016-05-08T14:09:27+06:00,
1000000000170147,77003435607,mMTS,mAltel,mAltel,,D77,2016-05-08T14:09:43+06:00,
1000000000170152,77055698070,mKcell,mKarTel,mKarTel,,D02,2016-05-08T14:20:46+06:00,
1000000000170153,77017330971,mKarTel,mKcell,mKcell,,D01,2016-05-08T14:22:22+06:00,
1000000000170154,77003737547,mMTS,mAltel,mAltel,,D77,2016-05-08T14:22:03+06:00,
1000000000170156,77059999190,mMTS,mKarTel,mKarTel,,D77,2016-05-08T14:29:46+06:00,
