NPId,Number,RecipientId,DonorId,RangeHolderId,OldRoute,NewRoute,PortDate,RowCount
1000000000236895,77017279780,mMTS,mKcell,mKcell,,D77,2016-08-31T10:08:34+06:00,17
1000000000236915,77472369120,mAltel,mMTS,mMTS,,D07,2016-08-31T10:00:38+06:00,
1000000000236917,77478646161,mMTS,mKarTel,mMTS,D01,D77,2016-08-31T10:02:56+06:00,
1000000000236918,77778573858,mAltel,mKarTel,mKarTel,,D07,2016-08-31T10:02:56+06:00,
1000000000236919,77012252146,mMTS,mKcell,mKcell,,D77,2016-08-31T10:02:23+06:00,
1000000000236920,77782307646,mMTS,mKcell,mKcell,,D77,2016-08-31T10:02:28+06:00,
1000000000236921,77073353521,mAltel,mMTS,mMTS,,D07,2016-08-31T10:05:37+06:00,
1000000000236923,77022018139,mMTS,mAltel,mKcell,D07,D77,2016-08-31T10:09:22+06:00,
1000000000236925,77013838958,mKarTel,mKcell,mKcell,,D01,2016-08-31T10:12:03+06:00,
1000000000236926,77714117055,mAltel,mKarTel,mKarTel,,D07,2016-08-31T10:15:57+06:00,
1000000000236927,77073008707,mMTS,mKcell,mMTS,D02,D77,2016-08-31T10:16:21+06:00,
1000000000236928,77770682291,mMTS,mKarTel,mKarTel,,D77,2016-08-31T10:17:02+06:00,
1000000000236930,77713732393,mKarTel,mAltel,mKarTel,D07,D01,2016-08-31T10:19:30+06:00,
1000000000236931,77012239773,mMTS,mKcell,mKcell,,D77,2016-08-31T10:24:34+06:00,
1000000000236932,77777999945,mKarTel,mMTS,mKarTel,D77,D01,2016-08-31T10:25:13+06:00,
1000000000236934,77762488111,mKcell,mKarTel,mKarTel,,D02,2016-08-31T10:29:43+06:00,
1000000000236935,77716959784,mMTS,mKarTel,mKarTel,,D77,2016-08-31T10:29:37+06:00,
