NPId,Number,RecipientId,DonorId,RangeHolderId,OldRoute,NewRoute,PortDate,RowCount
1000000000172250,77781701517,mMTS,mKcell,mKcell,,D77,2016-05-11T19:00:14+06:00,18
1000000000172252,77078214048,mKarTel,mMTS,mMTS,,D01,2016-05-11T19:00:43+06:00,
1000000000172254,77479221969,mKcell,mMTS,mMTS,,D02,2016-05-11T19:03:07+06:00,
1000000000172257,77013669464,mKarTel,mKcell,mKcell,,D01,2016-05-11T19:04:35+06:00,
1000000000172258,77758887676,mKcell,mMTS,mKcell,D77,D02,2016-05-11T19:05:44+06:00,
1000000000172259,77081911551,mMTS,mKcell,mAltel,D02,D77,2016-05-11T19:06:59+06:00,
1000000000172262,77081148088,mKcell,mAltel,mAltel,,D02,2016-05-11T19:11:48+06:00,
1000000000172264,77052048400,mKarTel,mMTS,mKarTel,D77,D01,2016-05-11T19:13:21+06:00,
1000000000172265,77013133278,mMTS,mKcell,mKcell,,D77,2016-05-11T19:15:35+06:00,
1000000000172267,77055484561,mKcell,mKarTel,mKarTel,,D02,2016-05-11T19:20:25+06:00,
1000000000172270,77758132413,mKarTel,mKcell,mKcell,,D01,2016-05-11T19:22:26+06:00,
1000000000172271,77078382479,mMTS,mAltel,mMTS,D07,D77,2016-05-11T19:22:02+06:00,
1000000000172272,77074515181,mAltel,mMTS,mMTS,,D07,2016-05-11T19:22:24+06:00,
1000000000172273,77052218141,mKarTel,mAltel,mKarTel,D07,D01,2016-05-11T19:23:22+06:00,
1000000000172274,77077777416,mKcell,mMTS,mMTS,,D02,2016-05-11T19:25:31+06:00,
1000000000172275,77771404188,mKarTel,mMTS,mKarTel,D77,D01,2016-05-11T19:25:33+06:00,
1000000000172276,77051027807,mKarTel,mAltel,mKarTel,D07,D01,2016-05-11T19:25:50+06:00,
1000000000172278,77007775055,mKcell,mAltel,mAltel,,D02,2016-05-11T19:29:17+06:00,
