NPId,Number,RecipientId,DonorId,RangeHolderId,OldRoute,NewRoute,PortDate,RowCount
1000000000264372,77776751691,mMTS,mKarTel,mKarTel,,D77,2016-10-18T15:00:36+06:00,20
1000000000264381,77015834555,mKarTel,mKcell,mKcell,,D01,2016-10-18T15:06:24+06:00,
1000000000264382,77472146282,mKarTel,mMTS,mMTS,,D01,2016-10-18T15:06:31+06:00,
1000000000264386,77774870004,mKarTel,mMTS,mKarTel,D77,D01,2016-10-18T15:07:35+06:00,
1000000000264387,77002929200,mKcell,mAltel,mAltel,,D02,2016-10-18T15:08:52+06:00,
1000000000264388,77085253151,mMTS,mAltel,mAltel,,D77,2016-10-18T15:09:49+06:00,
1000000000264389,77002071009,mKarTel,mAltel,mAltel,,D01,2016-10-18T15:10:24+06:00,
1000000000264390,77002030306,mKarTel,mAltel,mAltel,,D01,2016-10-18T15:10:57+06:00,
1000000000264392,77024446414,mMTS,mKcell,mKcell,,D77,2016-10-18T15:11:02+06:00,
1000000000264394,77022862120,mMTS,mKcell,mKcell,,D77,2016-10-18T15:12:03+06:00,
1000000000264395,77471219090,mKcell,mMTS,mMTS,,D02,2016-10-18T15:12:54+06:00,
1000000000264396,77027511197,mMTS,mKcell,mKcell,,D77,2016-10-18T15:14:27+06:00,
1000000000264397,77016451132,mAltel,mKcell,mKcell,,D07,2016-10-18T15:15:30+06:00,
1000000000264398,77085338062,mMTS,mKcell,mAltel,D02,D77,2016-10-18T15:15:52+06:00,
1000000000264399,77756707069,mMTS,mKcell,mKcell,,D77,2016-10-18T15:16:17+06:00,
1000000000264401,77755039962,mMTS,mKcell,mKcell,,D77,2016-10-18T15:22:01+06:00,
1000000000264402,77473873136,mKarTel,mMTS,mMTS,,D01,2016-10-18T15:23:20+06:00,
1000000000264404,77015658605,mMTS,mKcell,mKcell,,D77,2016-10-18T15:26:44+06:00,
1000000000264407,77025835501,mMTS,mKcell,mKcell,,D77,2016-10-18T15:27:21+06:00,
1000000000264408,77017498257,mMTS,mKcell,mKcell,,D77,2016-10-18T15:27:37+06:00,
