NPId,Number,RecipientId,DonorId,RangeHolderId,OldRoute,NewRoute,PortDate,RowCount
1000000000323436,77077100004,mAltel,mMTS,mMTS,,D07,2017-02-04T12:01:22+06:00,23
1000000000323438,77471813202,mAltel,mMTS,mMTS,,D07,2017-02-04T12:01:45+06:00,
1000000000323440,77012929249,mMTS,mKcell,mKcell,,D77,2017-02-04T12:01:59+06:00,
1000000000323441,77789784272,mKarTel,mKcell,mKcell,,D01,2017-02-04T12:03:02+06:00,
1000000000323442,77760990019,mKcell,mKarTel,mKarTel,,D02,2017-02-04T12:03:52+06:00,
1000000000323445,77015180086,mAltel,mKcell,mKcell,,D07,2017-02-04T12:07:46+06:00,
1000000000323446,77759555995,mMTS,mKcell,mKcell,,D77,2017-02-04T12:07:46+06:00,
1000000000323447,77029996518,mMTS,mKcell,mKcell,,D77,2017-02-04T12:10:06+06:00,
1000000000323448,77776974502,mKcell,mKarTel,mKarTel,,D02,2017-02-04T12:11:28+06:00,
1000000000323449,77085088798,mKarTel,mAltel,mAltel,,D01,2017-02-04T12:12:23+06:00,
1000000000323450,77077740040,mMTS,mKcell,mMTS,D02,D77,2017-02-04T12:13:10+06:00,
1000000000323452,77784242625,mKarTel,mKcell,mKcell,,D01,2017-02-04T12:14:14+06:00,
1000000000323453,77026393786,mKarTel,mKcell,mKcell,,D01,2017-02-04T12:14:25+06:00,
1000000000323454,77784819005,mAltel,mKcell,mKcell,,D07,2017-02-04T12:15:41+06:00,
1000000000323455,77783201132,mMTS,mKcell,mKcell,,D77,2017-02-04T12:16:13+06:00,
1000000000323456,77077680507,mAltel,mMTS,mMTS,,D07,2017-02-04T12:18:42+06:00,
1000000000323457,77475594122,mAltel,mMTS,mMTS,,D07,2017-02-04T12:19:37+06:00,
1000000000323459,77015253532,mMTS,mKcell,mKcell,,D77,2017-02-04T12:20:31+06:00,
1000000000323460,77019790373,mAltel,mKcell,mKcell,,D07,2017-02-04T12:21:30+06:00,
1000000000323461,77019596559,mKarTel,mKcell,mKcell,,D01,2017-02-04T12:24:25+06:00,
1000000000323462,77087878078,mKcell,mAltel,mAltel,,D02,2017-02-04T12:25:26+06:00,
1000000000323464,77058367926,mKarTel,mAltel,mKarTel,D07,D01,2017-02-04T12:26:32+06:00,
1000000000323466,77017850165,mKarTel,mAltel,mKcell,D07,D01,2017-02-04T12:27:41+06:00,
