NPId,Number,RecipientId,DonorId,RangeHolderId,OldRoute,NewRoute,PortDate,RowCount
1000000000308586,77756666929,mKarTel,mKcell,mKcell,,D01,2017-01-10T16:30:44+06:00,15
1000000000308588,77086943060,mAltel,mKarTel,mAltel,D01,D07,2017-01-10T16:35:30+06:00,
1000000000308589,77771400592,mMTS,mKarTel,mKarTel,,D77,2017-01-10T16:35:35+06:00,
1000000000308590,77088070287,mKcell,mAltel,mAltel,,D02,2017-01-10T16:36:45+06:00,
1000000000308591,77072970707,mKarTel,mMTS,mMTS,D77,D01,2017-01-10T16:36:54+06:00,
1000000000308592,77012221591,mKarTel,mKcell,mKcell,,D01,2017-01-10T16:37:05+06:00,
1000000000308593,77029024272,mKarTel,mKcell,mKcell,,D01,2017-01-10T16:38:35+06:00,
1000000000308594,77017173263,mKarTel,mKcell,mKcell,,D01,2017-01-10T16:38:50+06:00,
1000000000308596,77078888383,mAltel,mMTS,mMTS,,D07,2017-01-10T16:40:33+06:00,
1000000000308597,77771379749,mKcell,mKarTel,mKarTel,,D02,2017-01-10T16:41:44+06:00,
1000000000308600,77075268828,mKcell,mMTS,mMTS,,D02,2017-01-10T16:50:06+06:00,
1000000000308602,77079697092,mKcell,mMTS,mMTS,,D02,2017-01-10T16:50:34+06:00,
1000000000308604,77710962910,mMTS,mKarTel,mKarTel,,D77,2017-01-10T16:53:10+06:00,
1000000000308610,77012121362,mAltel,mKcell,mKcell,,D07,2017-01-10T16:57:29+06:00,
1000000000308611,77774533636,mAltel,mKarTel,mKarTel,,D07,2017-01-10T16:59:13+06:00,
