NPId,Number,RecipientId,DonorId,RangeHolderId,OldRoute,NewRoute,PortDate,RowCount
1000000000145403,77071113232,mKcell,mMTS,mMTS,,D02,2016-04-07T16:03:18+06:00,44
1000000000145657,77013884242,mKarTel,mKcell,mKcell,,D01,2016-04-07T16:01:05+06:00,
1000000000145658,77001216785,mKcell,mAltel,mAltel,,D02,2016-04-07T16:00:48+06:00,
1000000000145659,77051002050,mMTS,mKarTel,mKarTel,,D77,2016-04-07T16:02:26+06:00,
1000000000145660,77768211118,mKcell,mKarTel,mKarTel,,D02,2016-04-07T16:03:29+06:00,
1000000000145661,77017419311,mKarTel,mKcell,mKcell,,D01,2016-04-07T16:02:24+06:00,
1000000000145663,77778048220,mKcell,mKarTel,mKarTel,,D02,2016-04-07T16:05:04+06:00,
1000000000145664,77009764800,mKcell,mAltel,mAltel,,D02,2016-04-07T16:03:28+06:00,
1000000000145665,77001488891,mKcell,mAltel,mAltel,,D02,2016-04-07T16:03:29+06:00,
1000000000145666,77717873095,mKcell,mKarTel,mKarTel,,D02,2016-04-07T16:05:56+06:00,
1000000000145667,77081181068,mMTS,mAltel,mAltel,,D77,2016-04-07T16:04:27+06:00,
1000000000145669,77775831519,mMTS,mKarTel,mKarTel,,D77,2016-04-07T16:09:19+06:00,
1000000000145672,77081072188,mMTS,mAltel,mAltel,,D77,2016-04-07T16:08:39+06:00,
1000000000145673,77073059999,mMTS,mAltel,mMTS,D07,D77,2016-04-07T16:08:41+06:00,
1000000000145675,77476661066,mKcell,mMTS,mMTS,,D02,2016-04-07T16:09:38+06:00,
1000000000145677,77711769797,mMTS,mKarTel,mKarTel,,D77,2016-04-07T16:13:09+06:00,
1000000000145678,77478106312,mMTS,mAltel,mMTS,D07,D77,2016-04-07T16:11:50+06:00,
1000000000145679,77085303312,mMTS,mAltel,mAltel,,D77,2016-04-07T16:11:48+06:00,
1000000000145680,77714532232,mMTS,mKarTel,mKarTel,,D77,2016-04-07T16:13:13+06:00,
1000000000145681,77003745591,mMTS,mAltel,mAltel,,D77,2016-04-07T16:11:57+06:00,
1000000000145682,77059055588,mMTS,mKarTel,mKarTel,,D77,2016-04-07T16:13:52+06:00,
1000000000145684,77765366188,mKarTel,mAltel,mKarTel,D07,D01,2016-04-07T16:13:49+06:00,
1000000000145685,77019175181,mMTS,mKcell,mKcell,,D77,2016-04-07T16:14:50+06:00,
1000000000145686,77773965290,mMTS,mKarTel,mKarTel,,D77,2016-04-07T16:15:09+06:00,
1000000000145687,77765366189,mKarTel,mAltel,mKarTel,D07,D01,2016-04-07T16:15:07+06:00,
1000000000145688,77085210852,mKarTel,mAltel,mAltel,,D01,2016-04-07T16:15:54+06:00,
1000000000145689,77765366187,mKarTel,mAltel,mKarTel,D07,D01,2016-04-07T16:15:55+06:00,
1000000000145691,77756566388,mKarTel,mKcell,mKcell,,D01,2016-04-07T16:17:11+06:00,
1000000000145698,77027766607,mMTS,mKcell,mKcell,,D77,2016-04-07T16:19:03+06:00,
1000000000145699,77755047895,mAltel,mKcell,mKcell,,D07,2016-04-07T16:21:15+06:00,
1000000000145700,77019892732,mMTS,mKcell,mKcell,,D77,2016-04-07T16:21:15+06:00,
1000000000145703,77711800660,mMTS,mKarTel,mKarTel,,D77,2016-04-07T16:23:30+06:00,
1000000000145704,77023350350,mMTS,mKcell,mKcell,,D77,2016-04-07T16:22:05+06:00,
1000000000145706,77089605613,mMTS,mAltel,mAltel,,D77,2016-04-07T16:22:29+06:00,
1000000000145707,77089122706,mMTS,mAltel,mAltel,,D77,2016-04-07T16:23:45+06:00,
1000000000145708,77018922087,mKarTel,mKcell,mKcell,,D01,2016-04-07T16:24:46+06:00,
1000000000145709,77085423802,mMTS,mAltel,mAltel,,D77,2016-04-07T16:24:18+06:00,
1000000000145710,77014441227,mMTS,mKcell,mKcell,,D77,2016-04-07T16:25:32+06:00,
1000000000145711,77027703713,mMTS,mKcell,mKcell,,D77,2016-04-07T16:25:33+06:00,
1000000000145712,77073196460,mAltel,mMTS,mMTS,,D07,2016-04-07T16:27:03+06:00,
1000000000145715,77019960940,mKcell,mMTS,mKcell,D77,D02,2016-04-07T16:28:23+06:00,
1000000000145716,77717515275,mKcell,mKarTel,mKarTel,,D02,2016-04-07T16:29:36+06:00,
1000000000145717,77003220200,mKcell,mAltel,mAltel,,D02,2016-04-07T16:28:39+06:00,
1000000000145718,77072498766,mKarTel,mMTS,mMTS,,D01,2016-04-07T16:29:15+06:00,
