NPId,Number,RecipientId,DonorId,RangeHolderId,OldRoute,NewRoute,PortDate,RowCount
1000000000315516,77785553157,mKcell,mKarTel,mKcell,D01,D02,2017-01-24T10:30:03+06:00,10
1000000000315518,77751837777,mMTS,mKcell,mKcell,,D77,2017-01-24T10:32:38+06:00,
1000000000315520,77789538694,mMTS,mKcell,mKcell,,D77,2017-01-24T10:33:48+06:00,
1000000000315521,77016706592,mMTS,mKcell,mKcell,,D77,2017-01-24T10:34:27+06:00,
1000000000315522,77011315400,mKarTel,mAltel,mKcell,D07,D01,2017-01-24T10:40:24+06:00,
1000000000315524,77027027727,mMTS,mKcell,mKcell,,D77,2017-01-24T10:41:05+06:00,
1000000000315525,77476200000,mKcell,mMTS,mMTS,,D02,2017-01-24T10:46:32+06:00,
1000000000315526,77018850101,mKarTel,mKcell,mKcell,,D01,2017-01-24T10:57:58+06:00,
1000000000315527,77001201202,mKcell,mAltel,mAltel,,D02,2017-01-24T10:58:17+06:00,
1000000000315528,77015554737,mKcell,mKarTel,mKcell,D01,D02,2017-01-24T10:59:58+06:00,
