NPId,Number,RecipientId,DonorId,RangeHolderId,OldRoute,NewRoute,PortDate,RowCount
1000000000311762,77072533382,mAltel,mMTS,mMTS,,D07,2017-01-17T10:30:16+06:00,11
1000000000311763,77015226049,mKarTel,mKcell,mKcell,,D01,2017-01-17T10:32:30+06:00,
1000000000311764,77027686394,mKcell,mKarTel,mKcell,D01,D02,2017-01-17T10:40:10+06:00,
1000000000311766,77477170737,mKarTel,mMTS,mMTS,,D01,2017-01-17T10:41:30+06:00,
1000000000311767,77081515688,mAltel,mMTS,mAltel,D77,D07,2017-01-17T10:41:50+06:00,
1000000000311768,77014007474,mMTS,mKcell,mKcell,,D77,2017-01-17T10:42:59+06:00,
1000000000311770,77765028575,mAltel,mKarTel,mKarTel,,D07,2017-01-17T10:46:35+06:00,
1000000000311771,77078527625,mKcell,mMTS,mMTS,D77,D02,2017-01-17T10:49:45+06:00,
1000000000311772,77081168170,mMTS,mAltel,mAltel,,D77,2017-01-17T10:50:25+06:00,
1000000000311773,77019960398,mKcell,mAltel,mKcell,D07,D02,2017-01-17T10:52:00+06:00,
1000000000311775,77784999447,mMTS,mKcell,mKcell,,D77,2017-01-17T10:58:15+06:00,
