NPId,Number,RecipientId,DonorId,RangeHolderId,OldRoute,NewRoute,PortDate,RowCount
1000000000108415,77052234273,mKcell,mKarTel,mKarTel,,D02,2016-03-05T21:31:52+06:00,10
1000000000108416,77052234217,mKcell,mKarTel,mKarTel,,D02,2016-03-05T21:35:47+06:00,
1000000000108417,77773311177,mMTS,mKarTel,mKarTel,,D77,2016-03-05T21:37:35+06:00,
1000000000108418,77052234208,mKcell,mKarTel,mKarTel,,D02,2016-03-05T21:39:05+06:00,
1000000000108419,77052238951,mKcell,mKarTel,mKarTel,,D02,2016-03-05T21:39:14+06:00,
1000000000108420,77052234295,mKcell,mKarTel,mKarTel,,D02,2016-03-05T21:48:42+06:00,
1000000000108421,77052234297,mKcell,mKarTel,mKarTel,,D02,2016-03-05T21:50:00+06:00,
1000000000108422,77052238953,mKcell,mKarTel,mKarTel,,D02,2016-03-05T21:51:11+06:00,
1000000000108423,77052234299,mKcell,mKarTel,mKarTel,,D02,2016-03-05T21:52:44+06:00,
1000000000108424,77052238901,mKcell,mKarTel,mKarTel,,D02,2016-03-05T21:58:52+06:00,
