NPId,Number,RecipientId,DonorId,RangeHolderId,OldRoute,NewRoute,PortDate,RowCount
1000000000400212,77010532791,mKarTel,mKcell,mKcell,,D01,2017-06-09T17:38:06+06:00,28
1000000000400673,77008878838,mKarTel,mMTS,mAltel,D77,D01,2017-06-09T17:30:13+06:00,
1000000000400675,77772988500,mAltel,mKarTel,mKarTel,,D07,2017-06-09T17:30:29+06:00,
1000000000400676,77017689001,mMTS,mKcell,mKcell,,D77,2017-06-09T17:31:30+06:00,
1000000000400678,77007774145,mMTS,mAltel,mAltel,,D77,2017-06-09T17:31:43+06:00,
1000000000400679,77003789776,mMTS,mAltel,mAltel,,D77,2017-06-09T17:33:56+06:00,
1000000000400681,77753798488,mMTS,mKcell,mKcell,,D77,2017-06-09T17:39:35+06:00,
1000000000400682,77017444314,mMTS,mKcell,mKcell,,D77,2017-06-09T17:39:41+06:00,
1000000000400683,77471691968,mAltel,mMTS,mMTS,,D07,2017-06-09T17:39:49+06:00,
1000000000400685,77779367646,mKarTel,mMTS,mKarTel,D77,D01,2017-06-09T17:44:11+06:00,
1000000000400686,77019450150,mKarTel,mAltel,mKcell,D07,D01,2017-06-09T17:44:49+06:00,
1000000000400687,77028540965,mAltel,mKcell,mKcell,,D07,2017-06-09T17:45:05+06:00,
1000000000400688,77029993389,mKcell,mMTS,mKcell,D77,D02,2017-06-09T17:45:51+06:00,
1000000000400690,77769995501,mKcell,mKarTel,mKarTel,,D02,2017-06-09T17:48:29+06:00,
1000000000400691,77073462732,mKarTel,mMTS,mMTS,,D01,2017-06-09T17:48:06+06:00,
1000000000400692,77755643448,mKarTel,mKcell,mKcell,,D01,2017-06-09T17:48:07+06:00,
1000000000400693,77003001118,mMTS,mAltel,mAltel,,D77,2017-06-09T17:50:29+06:00,
1000000000400694,77769995502,mKcell,mKarTel,mKarTel,,D02,2017-06-09T17:49:45+06:00,
1000000000400695,77711740687,mMTS,mAltel,mKarTel,D07,D77,2017-06-09T17:50:47+06:00,
1000000000400696,77000000068,mKcell,mAltel,mAltel,,D02,2017-06-09T17:51:08+06:00,
1000000000400700,77025732003,mKarTel,mKcell,mKcell,,D01,2017-06-09T17:53:43+06:00,
1000000000400701,77789686729,mKarTel,mKcell,mKcell,,D01,2017-06-09T17:53:47+06:00,
1000000000400702,77078927892,mKcell,mMTS,mMTS,,D02,2017-06-09T17:54:21+06:00,
1000000000400703,77077738899,mKarTel,mMTS,mMTS,,D01,2017-06-09T17:54:54+06:00,
1000000000400705,77071919242,mKarTel,mMTS,mMTS,,D01,2017-06-09T17:56:40+06:00,
1000000000400706,77019994525,mMTS,mAltel,mKcell,D07,D77,2017-06-09T17:56:41+06:00,
1000000000400707,77769995503,mKcell,mKarTel,mKarTel,,D02,2017-06-09T17:57:21+06:00,
1000000000400708,77779004390,mAltel,mKarTel,mKarTel,,D07,2017-06-09T17:58:55+06:00,
