NPId,Number,RecipientId,DonorId,RangeHolderId,OldRoute,NewRoute,PortDate,RowCount
1000000000313492,77768059770,mMTS,mKarTel,mKarTel,,D77,2017-01-20T10:33:13+06:00,12
1000000000313495,77017453750,mKarTel,mKcell,mKcell,,D01,2017-01-20T10:36:41+06:00,
1000000000313496,77716666666,mKcell,mKarTel,mKarTel,,D02,2017-01-20T10:37:53+06:00,
1000000000313498,77758781888,mMTS,mKcell,mKcell,,D77,2017-01-20T10:42:22+06:00,
1000000000313500,77755020404,mMTS,mKcell,mKcell,,D77,2017-01-20T10:43:33+06:00,
1000000000313504,77085432636,mMTS,mAltel,mAltel,,D77,2017-01-20T10:48:10+06:00,
1000000000313505,77002033411,mMTS,mAltel,mAltel,,D77,2017-01-20T10:48:57+06:00,
1000000000313506,77767071155,mMTS,mKarTel,mKarTel,,D77,2017-01-20T10:50:10+06:00,
1000000000313507,77009497305,mKarTel,mAltel,mAltel,,D01,2017-01-20T10:52:02+06:00,
1000000000313508,77762919997,mKarTel,mMTS,mKarTel,D77,D01,2017-01-20T10:52:58+06:00,
1000000000313509,77714655460,mAltel,mKarTel,mKarTel,,D07,2017-01-20T10:58:08+06:00,
1000000000313510,77012276567,mKarTel,mKcell,mKcell,,D01,2017-01-20T10:59:47+06:00,
