NPId,Number,RecipientId,DonorId,RangeHolderId,OldRoute,NewRoute,PortDate,RowCount
1000000000294641,77017942952,mKcell,mKarTel,mKcell,D01,D02,2016-12-13T16:01:10+06:00,30
1000000000294645,77012282071,mKcell,mKarTel,mKcell,D01,D02,2016-12-13T16:05:08+06:00,
1000000000294657,77785451418,mMTS,mKcell,mKcell,D02,D77,2016-12-13T16:00:26+06:00,
1000000000294658,77007070700,mAltel,mKcell,mAltel,D02,D07,2016-12-13T16:02:05+06:00,
1000000000294659,77053378812,mKcell,mKarTel,mKarTel,,D02,2016-12-13T16:03:03+06:00,
1000000000294660,77762201047,mKcell,mKarTel,mKarTel,,D02,2016-12-13T16:03:58+06:00,
1000000000294661,77775690001,mKcell,mKarTel,mKarTel,,D02,2016-12-13T16:05:18+06:00,
1000000000294662,77012490000,mKcell,mAltel,mKcell,D07,D02,2016-12-13T16:05:42+06:00,
1000000000294665,77012259660,mMTS,mKcell,mKcell,,D77,2016-12-13T16:07:31+06:00,
1000000000294666,77012185060,mKcell,mKarTel,mKcell,D01,D02,2016-12-13T16:23:40+06:00,
1000000000294667,77029751367,mMTS,mKcell,mKcell,,D77,2016-12-13T16:08:32+06:00,
1000000000294668,77016051015,mAltel,mKcell,mKcell,,D07,2016-12-13T16:08:48+06:00,
1000000000294669,77012529709,mKcell,mKarTel,mKcell,D01,D02,2016-12-13T16:25:08+06:00,
1000000000294670,77055888299,mMTS,mKarTel,mKarTel,,D77,2016-12-13T16:09:56+06:00,
1000000000294673,77753837938,mAltel,mKcell,mKcell,,D07,2016-12-13T16:12:55+06:00,
1000000000294675,77017942951,mKcell,mKarTel,mKcell,D01,D02,2016-12-13T16:28:24+06:00,
1000000000294679,77714759959,mKarTel,mMTS,mKarTel,D77,D01,2016-12-13T16:19:52+06:00,
1000000000294681,77773581008,mAltel,mKarTel,mKarTel,,D07,2016-12-13T16:20:30+06:00,
1000000000294682,77055434111,mAltel,mKarTel,mKarTel,,D07,2016-12-13T16:21:43+06:00,
1000000000294683,77023667646,mMTS,mKcell,mKcell,,D77,2016-12-13T16:25:12+06:00,
1000000000294684,77015558606,mKarTel,mKcell,mKcell,,D01,2016-12-13T16:25:34+06:00,
1000000000294685,77757957706,mMTS,mKcell,mKcell,,D77,2016-12-13T16:23:14+06:00,
1000000000294686,77756527777,mAltel,mKcell,mKcell,D02,D07,2016-12-13T16:23:24+06:00,
1000000000294687,77771728881,mMTS,mKarTel,mKarTel,,D77,2016-12-13T16:23:57+06:00,
1000000000294689,77055277111,mKcell,mKarTel,mKarTel,,D02,2016-12-13T16:24:29+06:00,
1000000000294690,77012920888,mMTS,mKcell,mKcell,,D77,2016-12-13T16:24:56+06:00,
1000000000294691,77772656555,mAltel,mKarTel,mKarTel,D01,D07,2016-12-13T16:25:18+06:00,
1000000000294692,77003030038,mKcell,mAltel,mAltel,,D02,2016-12-13T16:25:12+06:00,
1000000000294694,77781607215,mMTS,mKcell,mKcell,,D77,2016-12-13T16:28:10+06:00,
1000000000294695,77766666533,mMTS,mKarTel,mKarTel,,D77,2016-12-13T16:29:36+06:00,
