NPId,Number,RecipientId,DonorId,RangeHolderId,OldRoute,NewRoute,PortDate,RowCount
1000000000356206,77017335858,mMTS,mKcell,mKcell,,D77,2017-03-31T10:30:08+06:00,20
1000000000356210,77011333232,mKcell,mKarTel,mKcell,D01,D02,2017-03-31T10:32:29+06:00,
1000000000356211,77773197568,mMTS,mKarTel,mKarTel,,D77,2017-03-31T10:32:21+06:00,
1000000000356212,77018634411,mKarTel,mKcell,mKcell,,D01,2017-03-31T10:32:26+06:00,
1000000000356217,77071505005,mKarTel,mMTS,mMTS,,D01,2017-03-31T10:33:55+06:00,
1000000000356222,77017280734,mMTS,mKcell,mKcell,,D77,2017-03-31T10:35:26+06:00,
1000000000356225,77026821000,mAltel,mKcell,mKcell,D02,D07,2017-03-31T10:36:27+06:00,
1000000000356230,77753762726,mMTS,mKcell,mKcell,,D77,2017-03-31T10:40:04+06:00,
1000000000356232,77017847616,mAltel,mKcell,mKcell,,D07,2017-03-31T10:42:18+06:00,
1000000000356233,77788884040,mKarTel,mKcell,mKcell,,D01,2017-03-31T10:44:04+06:00,
1000000000356234,77766150880,mKcell,mKarTel,mKarTel,,D02,2017-03-31T10:44:35+06:00,
1000000000356235,77774855515,mMTS,mKarTel,mKarTel,,D77,2017-03-31T10:46:33+06:00,
1000000000356237,77773420744,mMTS,mKarTel,mKarTel,,D77,2017-03-31T10:48:11+06:00,
1000000000356238,77755577740,mKcell,mKarTel,mKcell,D01,D02,2017-03-31T10:50:40+06:00,
1000000000356240,77773242761,mMTS,mKarTel,mKarTel,,D77,2017-03-31T10:51:39+06:00,
1000000000356241,77015293642,mKarTel,mKcell,mKcell,,D01,2017-03-31T10:51:37+06:00,
1000000000356242,77783153639,mKcell,mMTS,mKcell,D77,D02,2017-03-31T10:51:32+06:00,
1000000000356243,77774153553,mKarTel,mAltel,mKarTel,D07,D01,2017-03-31T10:51:43+06:00,
1000000000356245,77017299957,mMTS,mKcell,mKcell,,D77,2017-03-31T10:57:54+06:00,
1000000000356246,77014535533,mMTS,mKcell,mKcell,,D77,2017-03-31T10:59:31+06:00,
