NPId,Number,RecipientId,DonorId,RangeHolderId,OldRoute,NewRoute,PortDate,RowCount
1000000000098230,77015559727,mAltel,mKcell,mKcell,,D07,2016-02-24T16:03:51+06:00,33
1000000000098232,77719052191,mMTS,mKarTel,mKarTel,,D77,2016-02-24T16:04:33+06:00,
1000000000098234,77023677771,mAltel,mKcell,mKcell,,D07,2016-02-24T16:06:02+06:00,
1000000000098236,77751753693,mAltel,mKcell,mKcell,,D07,2016-02-24T16:07:21+06:00,
1000000000098237,77000996060,mKcell,mAltel,mAltel,,D02,2016-02-24T16:08:00+06:00,
1000000000098238,77014848252,mMTS,mKcell,mKcell,,D77,2016-02-24T16:07:49+06:00,
1000000000098239,77019401085,mKarTel,mKcell,mKcell,,D01,2016-02-24T16:08:24+06:00,
1000000000098241,77077297515,mKcell,mMTS,mMTS,,D02,2016-02-24T16:08:31+06:00,
1000000000098245,77057403112,mMTS,mKarTel,mKarTel,,D77,2016-02-24T16:10:58+06:00,
1000000000098246,77015145426,mKarTel,mKcell,mKcell,,D01,2016-02-24T16:23:05+06:00,
1000000000098247,77077001050,mAltel,mMTS,mMTS,,D07,2016-02-24T16:11:10+06:00,
1000000000098248,77014908568,mAltel,mKcell,mKcell,,D07,2016-02-24T16:11:21+06:00,
1000000000098249,77775906673,mAltel,mKarTel,mKarTel,,D07,2016-02-24T16:11:57+06:00,
1000000000098250,77001494536,mMTS,mAltel,mAltel,,D77,2016-02-24T16:11:47+06:00,
1000000000098251,77070312830,mKarTel,mMTS,mMTS,,D01,2016-02-24T16:12:39+06:00,
1000000000098252,77017770211,mAltel,mKcell,mKcell,,D07,2016-02-24T16:14:04+06:00,
1000000000098253,77017244612,mMTS,mKcell,mKcell,,D77,2016-02-24T16:14:22+06:00,
1000000000098254,77015313390,mMTS,mKcell,mKcell,,D77,2016-02-24T16:14:22+06:00,
1000000000098256,77010990059,mAltel,mKcell,mKcell,,D07,2016-02-24T16:15:10+06:00,
1000000000098257,77766115511,mAltel,mKarTel,mKarTel,,D07,2016-02-24T16:16:05+06:00,
1000000000098258,77779336555,mMTS,mKarTel,mKarTel,,D77,2016-02-24T16:17:05+06:00,
1000000000098260,77015276572,mAltel,mKcell,mKcell,,D07,2016-02-24T16:18:51+06:00,
1000000000098261,77785777706,mKarTel,mKcell,mKcell,,D01,2016-02-24T16:19:01+06:00,
1000000000098264,77474058238,mKarTel,mMTS,mMTS,,D01,2016-02-24T16:21:10+06:00,
1000000000098265,77025322165,mMTS,mKcell,mKcell,,D77,2016-02-24T16:21:31+06:00,
1000000000098267,77076694155,mKarTel,mMTS,mMTS,,D01,2016-02-24T16:23:18+06:00,
1000000000098268,77712405902,mKcell,mKarTel,mKarTel,,D02,2016-02-24T16:23:49+06:00,
1000000000098271,77712405956,mKcell,mKarTel,mKarTel,,D02,2016-02-24T16:26:34+06:00,
1000000000098272,77073005068,mKcell,mMTS,mMTS,,D02,2016-02-24T16:26:25+06:00,
1000000000098273,77077393153,mAltel,mMTS,mMTS,,D07,2016-02-24T16:26:16+06:00,
1000000000098275,77016713333,mMTS,mKcell,mKcell,,D77,2016-02-24T16:27:06+06:00,
1000000000098276,77476778420,mAltel,mMTS,mMTS,,D07,2016-02-24T16:28:02+06:00,
1000000000098280,77018882744,mAltel,mKcell,mKcell,,D07,2016-02-24T16:29:50+06:00,
