NPId,Number,RecipientId,DonorId,RangeHolderId,OldRoute,NewRoute,PortDate,RowCount
1000000000369243,77021303433,mMTS,mKcell,mKcell,,D77,2017-04-20T18:33:21+06:00,19
1000000000369244,77760929922,mKcell,mKarTel,mKarTel,,D02,2017-04-20T18:35:38+06:00,
1000000000369245,77759938609,mAltel,mKcell,mKcell,,D07,2017-04-20T18:35:47+06:00,
1000000000369246,77772558377,mMTS,mKarTel,mKarTel,,D77,2017-04-20T18:38:10+06:00,
1000000000369247,77756850035,mKcell,mMTS,mKcell,D77,D02,2017-04-20T18:38:13+06:00,
1000000000369248,77058133363,mMTS,mKarTel,mKarTel,,D77,2017-04-20T18:38:44+06:00,
1000000000369249,77056580842,mKcell,mKarTel,mKarTel,,D02,2017-04-20T18:39:32+06:00,
1000000000369250,77082323041,mKarTel,mAltel,mAltel,,D01,2017-04-20T18:45:36+06:00,
1000000000369251,77071393287,mKcell,mMTS,mMTS,,D02,2017-04-20T18:47:04+06:00,
1000000000369252,77776136285,mMTS,mKarTel,mKarTel,,D77,2017-04-20T18:48:11+06:00,
1000000000369253,77085169999,mKarTel,mAltel,mAltel,,D01,2017-04-20T18:48:19+06:00,
1000000000369254,77003808966,mMTS,mAltel,mAltel,,D77,2017-04-20T18:48:11+06:00,
1000000000369255,77762722622,mKarTel,mMTS,mKarTel,D77,D01,2017-04-20T18:48:59+06:00,
1000000000369256,77085170000,mKarTel,mAltel,mAltel,,D01,2017-04-20T18:51:37+06:00,
1000000000369257,77751397700,mKarTel,mKcell,mKcell,,D01,2017-04-20T18:52:13+06:00,
1000000000369258,77012451905,mMTS,mKcell,mKcell,,D77,2017-04-20T18:55:41+06:00,
1000000000369259,77089879947,mMTS,mAltel,mAltel,,D77,2017-04-20T18:55:36+06:00,
1000000000369260,77023494627,mAltel,mKcell,mKcell,,D07,2017-04-20T18:56:34+06:00,
1000000000369261,77715794040,mMTS,mKarTel,mKarTel,,D77,2017-04-20T18:59:26+06:00,
