NPId,Number,RecipientId,DonorId,RangeHolderId,OldRoute,NewRoute,PortDate,RowCount
1000000000154334,77022700040,mKarTel,mKcell,mKcell,,D01,2016-04-18T10:31:15+06:00,30
1000000000154335,77015312461,mMTS,mAltel,mKcell,D07,D77,2016-04-18T10:31:58+06:00,
1000000000154336,77075041224,mMTS,mAltel,mMTS,D07,D77,2016-04-18T10:32:06+06:00,
1000000000154337,77772276163,mMTS,mKarTel,mKarTel,,D77,2016-04-18T10:36:17+06:00,
1000000000154338,77025710777,mKcell,mKarTel,mKcell,D01,D02,2016-04-18T10:37:42+06:00,
1000000000154340,77086179405,mMTS,mAltel,mAltel,,D77,2016-04-18T10:35:55+06:00,
1000000000154341,77071263049,mMTS,mAltel,mMTS,D07,D77,2016-04-18T10:36:54+06:00,
1000000000154342,77017271171,mMTS,mAltel,mKcell,D07,D77,2016-04-18T10:37:00+06:00,
1000000000154343,77087743982,mMTS,mAltel,mAltel,,D77,2016-04-18T10:37:00+06:00,
1000000000154344,77057610000,mMTS,mKarTel,mKarTel,,D77,2016-04-18T10:39:57+06:00,
1000000000154345,77015138881,mMTS,mKcell,mKcell,,D77,2016-04-18T10:38:33+06:00,
1000000000154347,77081900987,mMTS,mAltel,mAltel,,D77,2016-04-18T10:41:58+06:00,
1000000000154348,77072224292,mMTS,mAltel,mMTS,D07,D77,2016-04-18T10:43:08+06:00,
1000000000154349,77081929786,mMTS,mAltel,mAltel,,D77,2016-04-18T10:43:29+06:00,
1000000000154351,77015252805,mMTS,mKcell,mKcell,,D77,2016-04-18T10:46:16+06:00,
1000000000154352,77019446353,mMTS,mKcell,mKcell,,D77,2016-04-18T10:46:16+06:00,
1000000000154353,77011651185,mKarTel,mKcell,mKcell,,D01,2016-04-18T10:48:58+06:00,
1000000000154355,77086319303,mMTS,mAltel,mAltel,,D77,2016-04-18T10:50:30+06:00,
1000000000154356,77081639546,mMTS,mKcell,mAltel,D02,D77,2016-04-18T10:50:57+06:00,
1000000000154358,77783983239,mMTS,mAltel,mKcell,D07,D77,2016-04-18T10:52:01+06:00,
1000000000154359,77089270491,mMTS,mAltel,mAltel,,D77,2016-04-18T10:52:09+06:00,
1000000000154360,77019628145,mMTS,mKcell,mKcell,,D77,2016-04-18T10:53:03+06:00,
1000000000154361,77012101069,mMTS,mKcell,mKcell,,D77,2016-04-18T10:53:03+06:00,
1000000000154362,77017472276,mMTS,mKcell,mKcell,,D77,2016-04-18T10:53:13+06:00,
1000000000154364,77078868787,mKcell,mMTS,mMTS,,D02,2016-04-18T10:54:41+06:00,
1000000000154365,77781175792,mAltel,mKcell,mKcell,,D07,2016-04-18T10:54:14+06:00,
1000000000154366,77059760096,mMTS,mKarTel,mKarTel,,D77,2016-04-18T10:56:09+06:00,
1000000000154370,77784327083,mMTS,mKcell,mKcell,,D77,2016-04-18T10:58:05+06:00,
1000000000154371,77087545353,mMTS,mAltel,mAltel,,D77,2016-04-18T10:58:12+06:00,
1000000000154374,77082731009,mMTS,mAltel,mAltel,,D77,2016-04-18T10:58:40+06:00,
