NPId,Number,RecipientId,DonorId,RangeHolderId,OldRoute,NewRoute,PortDate,RowCount
1000000000093933,77776206080,mMTS,mKarTel,mKarTel,,D77,2016-02-19T20:40:51+06:00,3
1000000000093934,77016545456,mMTS,mKcell,mKcell,,D77,2016-02-19T20:43:17+06:00,
1000000000093935,77770533289,mKcell,mKarTel,mKarTel,,D02,2016-02-19T20:55:40+06:00,
