NPId,Number,RecipientId,DonorId,RangeHolderId,OldRoute,NewRoute,PortDate,RowCount
1000000000344606,77007700545,mKcell,mAltel,mAltel,,D02,2017-03-10T19:01:24+06:00,15
1000000000344607,77007700323,mKcell,mAltel,mAltel,,D02,2017-03-10T19:01:33+06:00,
1000000000344608,77007700434,mKcell,mAltel,mAltel,,D02,2017-03-10T19:03:18+06:00,
1000000000344609,77082103860,mKcell,mAltel,mAltel,,D02,2017-03-10T19:07:36+06:00,
1000000000344610,77082907799,mKcell,mAltel,mAltel,,D02,2017-03-10T19:07:27+06:00,
1000000000344611,77000999842,mKcell,mAltel,mAltel,,D02,2017-03-10T19:07:36+06:00,
1000000000344612,77779999220,mKcell,mMTS,mKarTel,D77,D02,2017-03-10T19:08:10+06:00,
1000000000344613,77007700282,mKcell,mAltel,mAltel,,D02,2017-03-10T19:09:27+06:00,
1000000000344614,77007700161,mKcell,mAltel,mAltel,,D02,2017-03-10T19:10:25+06:00,
1000000000344616,77015167266,mAltel,mKcell,mKcell,,D07,2017-03-10T19:10:48+06:00,
1000000000344617,77007772515,mKcell,mKarTel,mAltel,D01,D02,2017-03-10T19:11:23+06:00,
1000000000344619,77772606400,mKcell,mAltel,mKarTel,D07,D02,2017-03-10T19:15:02+06:00,
1000000000344620,77474507879,mKcell,mMTS,mMTS,,D02,2017-03-10T19:16:19+06:00,
1000000000344622,77082545453,mKcell,mAltel,mAltel,,D02,2017-03-10T19:20:54+06:00,
1000000000344624,77764457775,mKarTel,mMTS,mKarTel,D77,D01,2017-03-10T19:27:59+06:00,
