NPId,Number,RecipientId,DonorId,RangeHolderId,OldRoute,NewRoute,PortDate,RowCount
1000000000144778,77007173103,mKarTel,mAltel,mAltel,,D01,2016-04-06T18:01:04+06:00,26
1000000000144780,77083003373,mMTS,mAltel,mAltel,,D77,2016-04-06T18:00:58+06:00,
1000000000144782,77017253812,mKarTel,mKcell,mKcell,,D01,2016-04-06T18:04:08+06:00,
1000000000144783,77766566560,mMTS,mKarTel,mKarTel,,D77,2016-04-06T18:04:47+06:00,
1000000000144785,77019993367,mMTS,mKcell,mKcell,,D77,2016-04-06T18:07:09+06:00,
1000000000144786,77016203294,mMTS,mKcell,mKcell,,D77,2016-04-06T18:07:07+06:00,
1000000000144787,77777450007,mAltel,mKarTel,mKarTel,,D07,2016-04-06T18:09:39+06:00,
1000000000144789,77087164748,mKarTel,mAltel,mAltel,,D01,2016-04-06T18:08:59+06:00,
1000000000144792,77056521275,mMTS,mKarTel,mKarTel,,D77,2016-04-06T18:12:06+06:00,
1000000000144793,77027530063,mKcell,mMTS,mKcell,D77,D02,2016-04-06T18:11:07+06:00,
1000000000144794,77018661299,mKcell,mAltel,mKcell,D07,D02,2016-04-06T18:10:52+06:00,
1000000000144795,77003232307,mMTS,mAltel,mAltel,,D77,2016-04-06T18:10:41+06:00,
1000000000144797,77770406755,mMTS,mKarTel,mKarTel,,D77,2016-04-06T18:15:13+06:00,
1000000000144798,77081046006,mKarTel,mAltel,mAltel,,D01,2016-04-06T18:15:49+06:00,
1000000000144799,77019588486,mAltel,mKcell,mKcell,,D07,2016-04-06T18:17:34+06:00,
1000000000144801,77017109778,mMTS,mKcell,mKcell,,D77,2016-04-06T18:18:13+06:00,
1000000000144802,77083340170,mKcell,mAltel,mAltel,,D02,2016-04-06T18:18:44+06:00,
1000000000144805,77000004564,mMTS,mAltel,mAltel,,D77,2016-04-06T18:21:44+06:00,
1000000000144806,77003642466,mMTS,mAltel,mAltel,,D77,2016-04-06T18:22:01+06:00,
1000000000144807,77758203177,mMTS,mKcell,mKcell,,D77,2016-04-06T18:23:47+06:00,
1000000000144808,77714593949,mMTS,mKarTel,mKarTel,,D77,2016-04-06T18:25:08+06:00,
1000000000144809,77000004565,mMTS,mAltel,mAltel,,D77,2016-04-06T18:24:25+06:00,
1000000000144810,77089475102,mKarTel,mAltel,mAltel,,D01,2016-04-06T18:25:45+06:00,
1000000000144811,77768001685,mKcell,mKarTel,mKarTel,,D02,2016-04-06T18:28:19+06:00,
1000000000144812,77083355090,mKcell,mAltel,mAltel,,D02,2016-04-06T18:26:52+06:00,
1000000000144816,77073236563,mAltel,mMTS,mMTS,,D07,2016-04-06T18:29:57+06:00,
