NPId,Number,RecipientId,DonorId,RangeHolderId,OldRoute,NewRoute,PortDate,RowCount
1000000000258834,77777771511,mKcell,mKarTel,mKarTel,,D02,2016-10-08T09:34:46+06:00,2
1000000000258836,77015713838,mMTS,mKcell,mKcell,,D77,2016-10-08T09:58:10+06:00,
