NPId,Number,RecipientId,DonorId,RangeHolderId,OldRoute,NewRoute,PortDate,RowCount
1000000000260036,77015661913,mKarTel,mKcell,mKcell,,D01,2016-10-11T14:28:54+06:00,32
1000000000260302,77017658889,mKcell,mKarTel,mKcell,D01,D02,2016-10-11T14:05:49+06:00,
1000000000260490,77051750000,mKcell,mKarTel,mKarTel,,D02,2016-10-11T14:03:23+06:00,
1000000000260494,77000280892,mKarTel,mAltel,mAltel,,D01,2016-10-11T14:03:11+06:00,
1000000000260497,77078312681,mKarTel,mMTS,mMTS,,D01,2016-10-11T14:04:55+06:00,
1000000000260498,77029421990,mMTS,mKcell,mKcell,,D77,2016-10-11T14:04:00+06:00,
1000000000260499,77026912220,mAltel,mKcell,mKcell,,D07,2016-10-11T14:06:02+06:00,
1000000000260501,77074989277,mMTS,mAltel,mMTS,D07,D77,2016-10-11T14:07:21+06:00,
1000000000260502,77074287188,mAltel,mMTS,mMTS,,D07,2016-10-11T14:07:22+06:00,
1000000000260503,77015592555,mMTS,mKcell,mKcell,,D77,2016-10-11T14:07:36+06:00,
1000000000260504,77089072767,mAltel,mKcell,mAltel,D02,D07,2016-10-11T14:08:27+06:00,
1000000000260505,77001330900,mMTS,mAltel,mAltel,,D77,2016-10-11T14:08:18+06:00,
1000000000260506,77027227806,mMTS,mKcell,mKcell,,D77,2016-10-11T14:08:36+06:00,
1000000000260507,77083275908,mKarTel,mAltel,mAltel,,D01,2016-10-11T14:12:14+06:00,
1000000000260508,77754025854,mMTS,mKcell,mKcell,,D77,2016-10-11T14:10:53+06:00,
1000000000260511,77016064733,mKarTel,mAltel,mKcell,D07,D01,2016-10-11T14:14:23+06:00,
1000000000260514,77012244207,mAltel,mKcell,mKcell,,D07,2016-10-11T14:14:18+06:00,
1000000000260515,77077080110,mAltel,mMTS,mMTS,,D07,2016-10-11T14:14:18+06:00,
1000000000260516,77015996683,mKarTel,mKcell,mKcell,,D01,2016-10-11T14:16:12+06:00,
1000000000260518,77770109191,mMTS,mKcell,mKarTel,D02,D77,2016-10-11T14:15:15+06:00,
1000000000260520,77477735454,mKarTel,mMTS,mMTS,,D01,2016-10-11T14:18:01+06:00,
1000000000260521,77751399717,mKcell,mAltel,mKcell,D07,D02,2016-10-11T14:16:49+06:00,
1000000000260526,77756927220,mKarTel,mKcell,mKcell,,D01,2016-10-11T14:19:48+06:00,
1000000000260527,77003000359,mKcell,mAltel,mAltel,,D02,2016-10-11T14:19:15+06:00,
1000000000260528,77004000459,mKcell,mAltel,mAltel,,D02,2016-10-11T14:21:10+06:00,
1000000000260529,77083130828,mMTS,mAltel,mAltel,,D77,2016-10-11T14:23:01+06:00,
1000000000260530,77006000459,mKcell,mAltel,mAltel,,D02,2016-10-11T14:23:18+06:00,
1000000000260532,77017598828,mKarTel,mKcell,mKcell,,D01,2016-10-11T14:25:07+06:00,
1000000000260535,77771182373,mAltel,mKarTel,mKarTel,,D07,2016-10-11T14:28:57+06:00,
1000000000260536,77004000479,mKcell,mAltel,mAltel,,D02,2016-10-11T14:25:32+06:00,
1000000000260537,77073333856,mAltel,mMTS,mMTS,,D07,2016-10-11T14:25:35+06:00,
1000000000260541,77015846294,mAltel,mKcell,mKcell,D02,D07,2016-10-11T14:28:09+06:00,
