NPId,Number,RecipientId,DonorId,RangeHolderId,OldRoute,NewRoute,PortDate,RowCount
1000000000316750,77767021107,mMTS,mKarTel,mKarTel,,D77,2017-01-26T10:00:15+06:00,10
1000000000316751,77007800105,mMTS,mAltel,mAltel,,D77,2017-01-26T10:02:38+06:00,
1000000000316752,77013442638,mMTS,mKarTel,mKcell,D01,D77,2017-01-26T10:03:03+06:00,
1000000000316754,77778960000,mAltel,mKarTel,mKarTel,,D07,2017-01-26T10:09:00+06:00,
1000000000316755,77015739169,mKcell,mMTS,mKcell,D77,D02,2017-01-26T10:11:37+06:00,
1000000000316756,77767860186,mMTS,mKcell,mKarTel,D02,D77,2017-01-26T10:14:51+06:00,
1000000000316758,77057018811,mAltel,mKarTel,mKarTel,,D07,2017-01-26T10:20:20+06:00,
1000000000316761,77751478111,mAltel,mKcell,mKcell,,D07,2017-01-26T10:22:09+06:00,
1000000000316762,77027270863,mMTS,mKcell,mKcell,,D77,2017-01-26T10:22:11+06:00,
1000000000316764,77018000971,mMTS,mKcell,mKcell,,D77,2017-01-26T10:29:58+06:00,
