NPId,Number,RecipientId,DonorId,RangeHolderId,OldRoute,NewRoute,PortDate,RowCount
1000000000306605,77051881000,mKcell,mKarTel,mKarTel,,D02,2017-01-06T16:00:35+06:00,34
1000000000306609,77785818888,mMTS,mKcell,mKcell,,D77,2017-01-06T16:02:09+06:00,
1000000000306610,77478276758,mAltel,mMTS,mMTS,,D07,2017-01-06T16:03:57+06:00,
1000000000306611,77014096040,mAltel,mKcell,mKcell,,D07,2017-01-06T16:04:13+06:00,
1000000000306612,77058044327,mAltel,mKarTel,mKarTel,,D07,2017-01-06T16:06:52+06:00,
1000000000306613,77009992285,mKarTel,mKcell,mAltel,D02,D01,2017-01-06T16:07:05+06:00,
1000000000306614,77026219593,mAltel,mKcell,mKcell,,D07,2017-01-06T16:07:05+06:00,
1000000000306615,77477333340,mMTS,mKarTel,mMTS,D01,D77,2017-01-06T16:07:29+06:00,
1000000000306616,77001414219,mMTS,mAltel,mAltel,,D77,2017-01-06T16:07:19+06:00,
1000000000306617,77072503010,mKarTel,mMTS,mMTS,,D01,2017-01-06T16:07:34+06:00,
1000000000306618,77752685981,mMTS,mKcell,mKcell,,D77,2017-01-06T16:07:45+06:00,
1000000000306619,77078023050,mKarTel,mMTS,mMTS,,D01,2017-01-06T16:08:07+06:00,
1000000000306620,77083037088,mMTS,mKcell,mAltel,D02,D77,2017-01-06T16:09:21+06:00,
1000000000306622,77478531304,mKcell,mMTS,mMTS,,D02,2017-01-06T16:10:44+06:00,
1000000000306623,77081256261,mMTS,mAltel,mAltel,,D77,2017-01-06T16:14:59+06:00,
1000000000306625,77072294651,mKcell,mMTS,mMTS,,D02,2017-01-06T16:16:58+06:00,
1000000000306626,77787471027,mKarTel,mKcell,mKcell,,D01,2017-01-06T16:17:12+06:00,
1000000000306627,77011547643,mKarTel,mKcell,mKcell,,D01,2017-01-06T16:19:24+06:00,
1000000000306628,77761532824,mMTS,mKarTel,mKarTel,,D77,2017-01-06T16:19:45+06:00,
1000000000306629,77017341059,mMTS,mKcell,mKcell,,D77,2017-01-06T16:19:29+06:00,
1000000000306630,77754333889,mMTS,mKcell,mKcell,,D77,2017-01-06T16:22:00+06:00,
1000000000306631,77015916449,mKarTel,mKcell,mKcell,,D01,2017-01-06T16:20:56+06:00,
1000000000306632,77017984082,mKarTel,mKcell,mKcell,,D01,2017-01-06T16:21:22+06:00,
1000000000306633,77019972268,mKarTel,mKcell,mKcell,,D01,2017-01-06T16:21:39+06:00,
1000000000306634,77019226283,mKarTel,mKcell,mKcell,,D01,2017-01-06T16:21:38+06:00,
1000000000306635,77001707011,mKcell,mAltel,mAltel,,D02,2017-01-06T16:22:27+06:00,
1000000000306638,77015511806,mKcell,mMTS,mKcell,D77,D02,2017-01-06T16:24:18+06:00,
1000000000306640,77753658027,mKcell,mMTS,mKcell,D77,D02,2017-01-06T16:24:31+06:00,
1000000000306641,77075102083,mKarTel,mMTS,mMTS,,D01,2017-01-06T16:26:19+06:00,
1000000000306643,77012882796,mKarTel,mKcell,mKcell,,D01,2017-01-06T16:27:38+06:00,
1000000000306644,77773356743,mMTS,mKarTel,mKarTel,,D77,2017-01-06T16:27:57+06:00,
1000000000306645,77474484697,mMTS,mAltel,mMTS,D07,D77,2017-01-06T16:27:38+06:00,
1000000000306646,77009766371,mMTS,mAltel,mAltel,,D77,2017-01-06T16:27:53+06:00,
1000000000306648,77071118018,mAltel,mMTS,mMTS,,D07,2017-01-06T16:29:10+06:00,
