NPId,Number,RecipientId,DonorId,RangeHolderId,OldRoute,NewRoute,PortDate,RowCount
1000000000328313,77018824260,mMTS,mKcell,mKcell,,D77,2017-02-13T16:01:21+06:00,28
1000000000328314,77770588686,mKcell,mKarTel,mKarTel,,D02,2017-02-13T16:04:09+06:00,
1000000000328316,77007771497,mMTS,mAltel,mAltel,,D77,2017-02-13T16:04:35+06:00,
1000000000328318,77770050317,mMTS,mKarTel,mKarTel,,D77,2017-02-13T16:05:23+06:00,
1000000000328321,77016217951,mMTS,mKcell,mKcell,,D77,2017-02-13T16:07:24+06:00,
1000000000328322,77010700304,mAltel,mKcell,mKcell,,D07,2017-02-13T16:07:47+06:00,
1000000000328323,77711127907,mKarTel,mKcell,mKarTel,D02,D01,2017-02-13T16:12:50+06:00,
1000000000328325,77006069978,mKarTel,mAltel,mAltel,,D01,2017-02-13T16:14:39+06:00,
1000000000328326,77759642428,mMTS,mKcell,mKcell,,D77,2017-02-13T16:15:23+06:00,
1000000000328327,77011129550,mKcell,mKarTel,mKcell,D01,D02,2017-02-13T16:16:57+06:00,
1000000000328328,77772359956,mKcell,mKarTel,mKarTel,,D02,2017-02-13T16:17:30+06:00,
1000000000328329,77779998970,mMTS,mKarTel,mKarTel,,D77,2017-02-13T16:17:26+06:00,
1000000000328330,77776414111,mMTS,mKarTel,mKarTel,,D77,2017-02-13T16:18:26+06:00,
1000000000328331,77004140449,mKcell,mAltel,mAltel,,D02,2017-02-13T16:19:31+06:00,
1000000000328332,77026763485,mAltel,mKcell,mKcell,,D07,2017-02-13T16:20:03+06:00,
1000000000328333,77776409530,mMTS,mKarTel,mKarTel,,D77,2017-02-13T16:21:47+06:00,
1000000000328335,77717092743,mMTS,mKarTel,mKarTel,,D77,2017-02-13T16:22:35+06:00,
1000000000328336,77772398048,mMTS,mKarTel,mKarTel,,D77,2017-02-13T16:23:03+06:00,
1000000000328337,77085281515,mMTS,mAltel,mAltel,,D77,2017-02-13T16:24:01+06:00,
1000000000328338,77787081111,mAltel,mKarTel,mKcell,D01,D07,2017-02-13T16:24:52+06:00,
1000000000328339,77001123070,mMTS,mAltel,mAltel,,D77,2017-02-13T16:24:45+06:00,
1000000000328340,77776588880,mMTS,mKarTel,mKarTel,,D77,2017-02-13T16:25:42+06:00,
1000000000328341,77001123080,mMTS,mAltel,mAltel,,D77,2017-02-13T16:25:23+06:00,
1000000000328342,77058882800,mMTS,mKarTel,mKarTel,,D77,2017-02-13T16:26:21+06:00,
1000000000328343,77013400254,mAltel,mKcell,mKcell,,D07,2017-02-13T16:26:07+06:00,
1000000000328344,77001123040,mMTS,mAltel,mAltel,,D77,2017-02-13T16:26:07+06:00,
1000000000328345,77018018510,mKarTel,mKcell,mKcell,,D01,2017-02-13T16:27:46+06:00,
1000000000328346,77012233912,mKarTel,mKcell,mKcell,,D01,2017-02-13T16:29:45+06:00,
