NPId,Number,RecipientId,DonorId,RangeHolderId,OldRoute,NewRoute,PortDate,RowCount
1000000000296552,77756962718,mKarTel,mKcell,mKcell,,D01,2016-12-18T10:40:32+06:00,2
1000000000296553,77079852469,mAltel,mMTS,mMTS,,D07,2016-12-18T10:59:34+06:00,
