NPId,Number,RecipientId,DonorId,RangeHolderId,OldRoute,NewRoute,PortDate,RowCount
1000000000180613,77059125073,mMTS,mKarTel,mKarTel,,D77,2016-05-25T13:01:19+06:00,19
1000000000180615,77789888132,mKarTel,mKcell,mKcell,,D01,2016-05-25T13:04:45+06:00,
1000000000180616,77003261281,mKarTel,mAltel,mAltel,,D01,2016-05-25T13:06:15+06:00,
1000000000180617,77054509934,mMTS,mKarTel,mKarTel,,D77,2016-05-25T13:06:40+06:00,
1000000000180618,77005261281,mKarTel,mAltel,mAltel,,D01,2016-05-25T13:07:04+06:00,
1000000000180619,77770444443,mKcell,mKarTel,mKarTel,,D02,2016-05-25T13:08:00+06:00,
1000000000180620,77470266077,mKcell,mMTS,mMTS,,D02,2016-05-25T13:10:28+06:00,
1000000000180622,77007507003,mMTS,mAltel,mAltel,,D77,2016-05-25T13:10:54+06:00,
1000000000180623,77056509999,mAltel,mKarTel,mKarTel,,D07,2016-05-25T13:12:54+06:00,
1000000000180628,77755823007,mMTS,mKcell,mKcell,,D77,2016-05-25T13:21:19+06:00,
1000000000180629,77012755268,mKcell,mAltel,mKcell,D07,D02,2016-05-25T13:21:35+06:00,
1000000000180630,77779209127,mKcell,mKarTel,mKarTel,,D02,2016-05-25T13:21:58+06:00,
1000000000180632,77715133008,mMTS,mKarTel,mKarTel,,D77,2016-05-25T13:21:08+06:00,
1000000000180633,77007777745,mKcell,mAltel,mAltel,,D02,2016-05-25T13:22:19+06:00,
1000000000180634,77083871603,mKcell,mAltel,mAltel,,D02,2016-05-25T13:23:42+06:00,
1000000000180636,77056868426,mMTS,mKcell,mKarTel,D02,D77,2016-05-25T13:23:59+06:00,
1000000000180637,77782302604,mKarTel,mMTS,mKcell,D77,D01,2016-05-25T13:24:24+06:00,
1000000000180638,77003502264,mMTS,mAltel,mAltel,,D77,2016-05-25T13:26:22+06:00,
1000000000180639,77757538185,mMTS,mKcell,mKcell,,D77,2016-05-25T13:27:43+06:00,
