NPId,Number,RecipientId,DonorId,RangeHolderId,OldRoute,NewRoute,PortDate,RowCount
1000000000312962,77717588628,mKarTel,mKcell,mKarTel,D02,D01,2017-01-19T17:09:30+06:00,31
1000000000312962,77717588629,mKarTel,mKcell,mKarTel,D02,D01,2017-01-19T17:09:30+06:00,
1000000000312962,77717588630,mKarTel,mKcell,mKarTel,D02,D01,2017-01-19T17:09:30+06:00,
1000000000313293,77012649177,mAltel,mKcell,mKcell,,D07,2017-01-19T17:02:19+06:00,
1000000000313294,77074434389,mAltel,mMTS,mMTS,,D07,2017-01-19T17:03:24+06:00,
1000000000313295,77012545491,mKcell,mMTS,mKcell,D77,D02,2017-01-19T17:03:53+06:00,
1000000000313297,77011270703,mMTS,mKcell,mKcell,,D77,2017-01-19T17:06:16+06:00,
1000000000313298,77012854249,mAltel,mKcell,mKcell,,D07,2017-01-19T17:06:57+06:00,
1000000000313301,77072649177,mAltel,mMTS,mMTS,,D07,2017-01-19T17:09:15+06:00,
1000000000313302,77758323811,mMTS,mKcell,mKcell,,D77,2017-01-19T17:10:36+06:00,
1000000000313303,77018588977,mMTS,mKcell,mKcell,,D77,2017-01-19T17:10:36+06:00,
1000000000313305,77085456389,mAltel,mMTS,mAltel,D77,D07,2017-01-19T17:10:48+06:00,
1000000000313306,77025981750,mMTS,mKcell,mKcell,,D77,2017-01-19T17:11:25+06:00,
1000000000313307,77021448777,mKarTel,mKcell,mKcell,,D01,2017-01-19T17:11:53+06:00,
1000000000313309,77075000103,mKcell,mMTS,mMTS,,D02,2017-01-19T17:15:45+06:00,
1000000000313311,77073232033,mKarTel,mMTS,mMTS,,D01,2017-01-19T17:16:53+06:00,
1000000000313312,77766177776,mKcell,mKarTel,mKarTel,,D02,2017-01-19T17:17:14+06:00,
1000000000313314,77710003423,mAltel,mKarTel,mKarTel,,D07,2017-01-19T17:18:00+06:00,
1000000000313315,77761111691,mKcell,mKarTel,mKarTel,,D02,2017-01-19T17:19:03+06:00,
1000000000313316,77781062342,mMTS,mKcell,mKcell,,D77,2017-01-19T17:19:11+06:00,
1000000000313317,77056616275,mMTS,mKarTel,mKarTel,,D77,2017-01-19T17:19:47+06:00,
1000000000313318,77028382222,mMTS,mKcell,mKcell,D02,D77,2017-01-19T17:19:46+06:00,
1000000000313319,77714124756,mMTS,mKarTel,mKarTel,,D77,2017-01-19T17:20:42+06:00,
1000000000313320,77752432525,mMTS,mKcell,mKcell,,D77,2017-01-19T17:20:27+06:00,
1000000000313321,77775945969,mAltel,mKarTel,mKarTel,,D07,2017-01-19T17:20:51+06:00,
1000000000313322,77025950099,mKarTel,mKcell,mKcell,,D01,2017-01-19T17:21:09+06:00,
1000000000313323,77005550212,mKcell,mAltel,mAltel,,D02,2017-01-19T17:22:05+06:00,
1000000000313324,77757780599,mKcell,mMTS,mKcell,D77,D02,2017-01-19T17:23:09+06:00,
1000000000313325,77028494084,mKarTel,mKcell,mKcell,,D01,2017-01-19T17:25:43+06:00,
1000000000313326,77011724411,mAltel,mMTS,mKcell,D77,D07,2017-01-19T17:28:58+06:00,
1000000000313327,77019178845,mKcell,mKarTel,mKcell,D01,D02,2017-01-19T17:29:59+06:00,
