NPId,Number,RecipientId,DonorId,RangeHolderId,OldRoute,NewRoute,PortDate,RowCount
1000000000360274,77029345607,mMTS,mKcell,mKcell,,D77,2017-04-05T15:00:58+06:00,77
1000000000360276,77779990963,mMTS,mKarTel,mKarTel,,D77,2017-04-05T15:02:15+06:00,
1000000000360278,77471631517,mAltel,mMTS,mMTS,,D07,2017-04-05T15:03:46+06:00,
1000000000360279,77712773726,mMTS,mKarTel,mKarTel,,D77,2017-04-05T15:06:48+06:00,
1000000000360280,77771459695,mAltel,mKarTel,mKarTel,,D07,2017-04-05T15:06:47+06:00,
1000000000360282,77017452229,mAltel,mKcell,mKcell,,D07,2017-04-05T15:06:17+06:00,
1000000000360286,77757566323,mMTS,mKcell,mKcell,,D77,2017-04-05T15:06:56+06:00,
1000000000360287,77071488868,mAltel,mMTS,mMTS,,D07,2017-04-05T15:06:52+06:00,
1000000000360289,77771244044,mMTS,mKarTel,mKarTel,,D77,2017-04-05T15:08:16+06:00,
1000000000360290,77006007096,mMTS,mAltel,mAltel,,D77,2017-04-05T15:08:40+06:00,
1000000000360291,77012778431,mMTS,mKcell,mKcell,D02,D77,2017-04-05T15:09:14+06:00,
1000000000360292,77070343598,mAltel,mMTS,mMTS,,D07,2017-04-05T15:09:26+06:00,
1000000000360293,77019779797,mMTS,mKcell,mKcell,,D77,2017-04-05T15:09:29+06:00,
1000000000360294,77074988300,mKcell,mMTS,mMTS,,D02,2017-04-05T15:11:33+06:00,
1000000000360296,77013723892,mMTS,mKcell,mKcell,,D77,2017-04-05T15:12:11+06:00,
1000000000360297,77773328490,mKarTel,mMTS,mKarTel,D77,D01,2017-04-05T15:12:20+06:00,
1000000000360299,77759218095,mAltel,mKcell,mKcell,,D07,2017-04-05T15:13:20+06:00,
1000000000360301,77783545435,mKarTel,mKcell,mKcell,,D01,2017-04-05T15:13:39+06:00,
1000000000360302,77085052007,mKcell,mAltel,mAltel,,D02,2017-04-05T15:13:30+06:00,
1000000000360303,77784497781,mKarTel,mKcell,mKcell,,D01,2017-04-05T15:13:45+06:00,
1000000000360304,77010283026,mMTS,mKcell,mKcell,,D77,2017-04-05T15:14:18+06:00,
1000000000360306,77021657568,mMTS,mKcell,mKcell,,D77,2017-04-05T15:15:48+06:00,
1000000000360308,77010140090,mMTS,mKcell,mKcell,,D77,2017-04-05T15:16:42+06:00,
1000000000360309,77075537391,mKcell,mMTS,mMTS,,D02,2017-04-05T15:17:06+06:00,
1000000000360310,77759333353,mMTS,mKcell,mKcell,,D77,2017-04-05T15:17:09+06:00,
1000000000360311,77476069921,mAltel,mMTS,mMTS,,D07,2017-04-05T15:17:19+06:00,
1000000000360313,77015340268,mMTS,mKcell,mKcell,,D77,2017-04-05T15:18:05+06:00,
1000000000360316,77015233632,mMTS,mKcell,mKcell,,D77,2017-04-05T15:18:35+06:00,
1000000000360318,77058333303,mKcell,mKarTel,mKarTel,,D02,2017-04-05T15:19:41+06:00,
1000000000360319,77019773737,mKarTel,mKcell,mKcell,,D01,2017-04-05T15:20:13+06:00,
1000000000360320,77076102336,mKcell,mMTS,mMTS,,D02,2017-04-05T15:19:54+06:00,
1000000000360321,77071818061,mKarTel,mMTS,mMTS,,D01,2017-04-05T15:21:41+06:00,
1000000000360321,77071818062,mKarTel,mMTS,mMTS,,D01,2017-04-05T15:21:41+06:00,
1000000000360321,77071818064,mKarTel,mMTS,mMTS,,D01,2017-04-05T15:21:41+06:00,
1000000000360321,77071818106,mKarTel,mMTS,mMTS,,D01,2017-04-05T15:21:41+06:00,
1000000000360321,77071818126,mKarTel,mMTS,mMTS,,D01,2017-04-05T15:21:41+06:00,
1000000000360321,77071818134,mKarTel,mMTS,mMTS,,D01,2017-04-05T15:21:41+06:00,
1000000000360321,77071818143,mKarTel,mMTS,mMTS,,D01,2017-04-05T15:21:41+06:00,
1000000000360321,77071818144,mKarTel,mMTS,mMTS,,D01,2017-04-05T15:21:41+06:00,
1000000000360321,77071818152,mKarTel,mMTS,mMTS,,D01,2017-04-05T15:21:41+06:00,
1000000000360321,77071818153,mKarTel,mMTS,mMTS,,D01,2017-04-05T15:21:41+06:00,
1000000000360321,77071818154,mKarTel,mMTS,mMTS,,D01,2017-04-05T15:21:41+06:00,
1000000000360321,77071818156,mKarTel,mMTS,mMTS,,D01,2017-04-05T15:21:41+06:00,
1000000000360321,77071818157,mKarTel,mMTS,mMTS,,D01,2017-04-05T15:21:41+06:00,
1000000000360321,77071818158,mKarTel,mMTS,mMTS,,D01,2017-04-05T15:21:41+06:00,
1000000000360321,77071818168,mKarTel,mMTS,mMTS,,D01,2017-04-05T15:21:41+06:00,
1000000000360321,77071818191,mKarTel,mMTS,mMTS,,D01,2017-04-05T15:21:41+06:00,
1000000000360321,77071818196,mKarTel,mMTS,mMTS,,D01,2017-04-05T15:21:41+06:00,
1000000000360321,77071818197,mKarTel,mMTS,mMTS,,D01,2017-04-05T15:21:41+06:00,
1000000000360321,77071818198,mKarTel,mMTS,mMTS,,D01,2017-04-05T15:21:41+06:00,
1000000000360321,77071818201,mKarTel,mMTS,mMTS,,D01,2017-04-05T15:21:41+06:00,
1000000000360321,77071818203,mKarTel,mMTS,mMTS,,D01,2017-04-05T15:21:41+06:00,
1000000000360321,77071818207,mKarTel,mMTS,mMTS,,D01,2017-04-05T15:21:41+06:00,
1000000000360321,77071818231,mKarTel,mMTS,mMTS,,D01,2017-04-05T15:21:41+06:00,
1000000000360321,77071818241,mKarTel,mMTS,mMTS,,D01,2017-04-05T15:21:41+06:00,
1000000000360321,77071818261,mKarTel,mMTS,mMTS,,D01,2017-04-05T15:21:41+06:00,
1000000000360321,77071818271,mKarTel,mMTS,mMTS,,D01,2017-04-05T15:21:41+06:00,
1000000000360321,77071818304,mKarTel,mMTS,mMTS,,D01,2017-04-05T15:21:41+06:00,
1000000000360321,77071818305,mKarTel,mMTS,mMTS,,D01,2017-04-05T15:21:41+06:00,
1000000000360321,77071818306,mKarTel,mMTS,mMTS,,D01,2017-04-05T15:21:41+06:00,
1000000000360321,77071818307,mKarTel,mMTS,mMTS,,D01,2017-04-05T15:21:41+06:00,
1000000000360321,77071818407,mKarTel,mMTS,mMTS,,D01,2017-04-05T15:21:41+06:00,
1000000000360322,77023785788,mMTS,mKcell,mKcell,,D77,2017-04-05T15:20:30+06:00,
1000000000360323,77017224022,mKarTel,mKcell,mKcell,,D01,2017-04-05T15:21:09+06:00,
1000000000360324,77011364888,mKarTel,mMTS,mKcell,D77,D01,2017-04-05T15:21:42+06:00,
1000000000360325,77019495045,mKarTel,mKcell,mKcell,,D01,2017-04-05T15:22:33+06:00,
1000000000360326,77762478772,mMTS,mKarTel,mKarTel,,D77,2017-04-05T15:23:04+06:00,
1000000000360328,77022472360,mMTS,mKcell,mKcell,D02,D77,2017-04-05T15:24:31+06:00,
1000000000360329,77007100220,mMTS,mAltel,mAltel,,D77,2017-04-05T15:25:56+06:00,
1000000000360330,77773053993,mMTS,mKarTel,mKarTel,,D77,2017-04-05T15:26:44+06:00,
1000000000360331,77055087310,mAltel,mKarTel,mKarTel,,D07,2017-04-05T15:27:41+06:00,
1000000000360332,77719963736,mKcell,mKarTel,mKarTel,,D02,2017-04-05T15:27:58+06:00,
1000000000360333,77017856038,mMTS,mKcell,mKcell,,D77,2017-04-05T15:27:58+06:00,
1000000000360334,77779999911,mKcell,mKarTel,mKarTel,,D02,2017-04-05T15:28:20+06:00,
1000000000360335,77766220011,mMTS,mKcell,mKarTel,D02,D77,2017-04-05T15:28:04+06:00,
1000000000360337,77056310047,mMTS,mKarTel,mKarTel,,D77,2017-04-05T15:29:11+06:00,
1000000000360338,77012207612,mMTS,mAltel,mKcell,D07,D77,2017-04-05T15:29:52+06:00,
