NPId,Number,RecipientId,DonorId,RangeHolderId,OldRoute,NewRoute,PortDate,RowCount
1000000000419106,77012666874,mKarTel,mKcell,mKcell,,D01,2017-07-11T10:43:55+06:00,12
1000000000419467,77478442974,mKarTel,mMTS,mMTS,,D01,2017-07-11T10:30:14+06:00,
1000000000419468,77784919208,mKarTel,mKcell,mKcell,,D01,2017-07-11T10:30:49+06:00,
1000000000419469,77771833355,mAltel,mKarTel,mKarTel,,D07,2017-07-11T10:32:10+06:00,
1000000000419471,77073803765,mKcell,mMTS,mMTS,,D02,2017-07-11T10:35:04+06:00,
1000000000419472,77019826569,mMTS,mKcell,mKcell,,D77,2017-07-11T10:39:29+06:00,
1000000000419473,77083903131,mMTS,mAltel,mAltel,,D77,2017-07-11T10:42:02+06:00,
1000000000419478,77079012361,mAltel,mMTS,mMTS,,D07,2017-07-11T10:49:55+06:00,
1000000000419482,77771072220,mMTS,mKarTel,mKarTel,,D77,2017-07-11T10:53:51+06:00,
1000000000419483,77757891515,mKarTel,mKcell,mKcell,,D01,2017-07-11T10:54:13+06:00,
1000000000419484,77774962767,mMTS,mKarTel,mKarTel,,D77,2017-07-11T10:55:28+06:00,
1000000000419485,77087727711,mKarTel,mAltel,mAltel,,D01,2017-07-11T10:58:30+06:00,
