NPId,Number,RecipientId,DonorId,RangeHolderId,OldRoute,NewRoute,PortDate,RowCount
1000000000432472,77055419340,mMTS,mKarTel,mKarTel,,D77,2017-08-01T14:00:48+06:00,23
1000000000432473,77077364426,mKcell,mMTS,mMTS,,D02,2017-08-01T14:00:59+06:00,
1000000000432475,77771312213,mAltel,mKarTel,mKarTel,,D07,2017-08-01T14:01:17+06:00,
1000000000432477,77074349916,mKcell,mMTS,mMTS,,D02,2017-08-01T14:04:21+06:00,
1000000000432480,77015299534,mAltel,mKcell,mKcell,,D07,2017-08-01T14:07:05+06:00,
1000000000432483,77017211130,mAltel,mKcell,mKcell,,D07,2017-08-01T14:10:09+06:00,
1000000000432484,77017296666,mAltel,mKcell,mKcell,D02,D07,2017-08-01T14:11:10+06:00,
1000000000432487,77778061665,mKcell,mAltel,mKarTel,D07,D02,2017-08-01T14:12:07+06:00,
1000000000432489,77015438486,mKcell,mMTS,mKcell,D77,D02,2017-08-01T14:12:38+06:00,
1000000000432490,77076930171,mAltel,mMTS,mMTS,,D07,2017-08-01T14:13:41+06:00,
1000000000432491,77015210619,mKcell,mMTS,mKcell,D77,D02,2017-08-01T14:14:51+06:00,
1000000000432492,77026285153,mKcell,mAltel,mKcell,D07,D02,2017-08-01T14:15:31+06:00,
1000000000432497,77015210633,mKcell,mMTS,mKcell,D77,D02,2017-08-01T14:17:34+06:00,
1000000000432499,77471119100,mMTS,mKcell,mMTS,D02,D77,2017-08-01T14:18:49+06:00,
1000000000432500,77079553985,mAltel,mMTS,mMTS,,D07,2017-08-01T14:18:50+06:00,
1000000000432502,77015210642,mKcell,mMTS,mKcell,D77,D02,2017-08-01T14:20:01+06:00,
1000000000432503,77022011113,mMTS,mKcell,mKcell,,D77,2017-08-01T14:20:04+06:00,
1000000000432504,77003958495,mMTS,mAltel,mAltel,,D77,2017-08-01T14:20:15+06:00,
1000000000432508,77006492556,mKcell,mAltel,mAltel,,D02,2017-08-01T14:21:06+06:00,
1000000000432511,77015210522,mKcell,mMTS,mKcell,D77,D02,2017-08-01T14:22:20+06:00,
1000000000432514,77015210635,mKcell,mMTS,mKcell,D77,D02,2017-08-01T14:24:25+06:00,
1000000000432516,77012420604,mMTS,mKcell,mKcell,,D77,2017-08-01T14:26:34+06:00,
1000000000432517,77750053007,mAltel,mKcell,mKcell,,D07,2017-08-01T14:27:59+06:00,
