NPId,Number,RecipientId,DonorId,RangeHolderId,OldRoute,NewRoute,PortDate,RowCount
1000000000136729,77017955110,mMTS,mKcell,mKcell,,D77,2016-03-30T10:06:21+06:00,22
1000000000136932,77071419932,mKarTel,mMTS,mMTS,,D01,2016-03-30T10:01:23+06:00,
1000000000136936,77751447393,mMTS,mKcell,mKcell,,D77,2016-03-30T10:02:09+06:00,
1000000000136939,77774213104,mMTS,mKarTel,mKarTel,,D77,2016-03-30T10:03:16+06:00,
1000000000136941,77015312367,mMTS,mKcell,mKcell,,D77,2016-03-30T10:02:09+06:00,
1000000000136942,77769765555,mMTS,mKarTel,mKarTel,,D77,2016-03-30T10:03:16+06:00,
1000000000136943,77051299921,mMTS,mKarTel,mKarTel,,D77,2016-03-30T10:03:16+06:00,
1000000000136945,77078572447,mAltel,mMTS,mMTS,,D07,2016-03-30T10:02:28+06:00,
1000000000136946,77772001551,mAltel,mKarTel,mKarTel,,D07,2016-03-30T10:03:47+06:00,
1000000000136947,77015149326,mMTS,mKcell,mKcell,,D77,2016-03-30T10:09:16+06:00,
1000000000136949,77083266201,mMTS,mAltel,mAltel,,D77,2016-03-30T10:07:03+06:00,
1000000000136951,77011361084,mMTS,mKcell,mKcell,,D77,2016-03-30T10:11:17+06:00,
1000000000136952,77019990192,mKcell,mKarTel,mKcell,D01,D02,2016-03-30T10:13:51+06:00,
1000000000136953,77475334285,mAltel,mMTS,mMTS,,D07,2016-03-30T10:13:12+06:00,
1000000000136954,77051599144,mKarTel,mAltel,mKarTel,D07,D01,2016-03-30T10:14:24+06:00,
1000000000136955,77756376199,mKarTel,mKcell,mKcell,,D01,2016-03-30T10:17:27+06:00,
1000000000136956,77076981778,mKarTel,mAltel,mMTS,D07,D01,2016-03-30T10:19:18+06:00,
1000000000136957,77019224542,mMTS,mKcell,mKcell,,D77,2016-03-30T10:20:26+06:00,
1000000000136961,77714448544,mAltel,mKarTel,mKarTel,,D07,2016-03-30T10:24:04+06:00,
1000000000136964,77012664347,mMTS,mKcell,mKcell,,D77,2016-03-30T10:27:47+06:00,
1000000000136965,77775550710,mKcell,mKarTel,mKarTel,,D02,2016-03-30T10:29:04+06:00,
1000000000136966,77473770055,mKcell,mMTS,mMTS,,D02,2016-03-30T10:27:58+06:00,
