NPId,Number,RecipientId,DonorId,RangeHolderId,OldRoute,NewRoute,PortDate,RowCount
1000000000243055,77011116338,mKcell,mMTS,mKcell,D77,D02,2016-09-09T14:14:06+06:00,24
1000000000243149,77085250565,mAltel,mKarTel,mAltel,D01,D07,2016-09-09T14:00:04+06:00,
1000000000243150,77015002442,mMTS,mKcell,mKcell,,D77,2016-09-09T14:00:49+06:00,
1000000000243151,77071417187,mAltel,mMTS,mMTS,,D07,2016-09-09T14:02:30+06:00,
1000000000243152,77083055033,mKcell,mMTS,mAltel,D77,D02,2016-09-09T14:04:40+06:00,
1000000000243153,77754047273,mMTS,mKcell,mKcell,,D77,2016-09-09T14:05:05+06:00,
1000000000243155,77017547677,mKarTel,mKcell,mKcell,,D01,2016-09-09T14:07:43+06:00,
1000000000243156,77017910445,mKarTel,mKcell,mKcell,,D01,2016-09-09T14:09:04+06:00,
1000000000243157,77075269994,mKcell,mMTS,mMTS,,D02,2016-09-09T14:11:55+06:00,
1000000000243158,77471868110,mKcell,mMTS,mMTS,,D02,2016-09-09T14:10:06+06:00,
1000000000243159,77075900150,mMTS,mKarTel,mMTS,D01,D77,2016-09-09T14:11:45+06:00,
1000000000243160,77011119768,mKarTel,mKcell,mKcell,,D01,2016-09-09T14:11:06+06:00,
1000000000243161,77027777855,mKcell,mAltel,mKcell,D07,D02,2016-09-09T14:11:10+06:00,
1000000000243162,77477088687,mKarTel,mMTS,mMTS,,D01,2016-09-09T14:11:43+06:00,
1000000000243163,77071403785,mAltel,mKcell,mMTS,D02,D07,2016-09-09T14:11:43+06:00,
1000000000243164,77778951292,mMTS,mKarTel,mKarTel,,D77,2016-09-09T14:14:18+06:00,
1000000000243169,77016221903,mMTS,mKcell,mKcell,,D77,2016-09-09T14:18:48+06:00,
1000000000243170,77019983265,mMTS,mKcell,mKcell,,D77,2016-09-09T14:19:44+06:00,
1000000000243171,77051890231,mMTS,mKarTel,mKarTel,,D77,2016-09-09T14:23:08+06:00,
1000000000243172,77005505055,mKcell,mMTS,mAltel,D77,D02,2016-09-09T14:25:08+06:00,
1000000000243173,77026513512,mKcell,mAltel,mKcell,D07,D02,2016-09-09T14:24:40+06:00,
1000000000243174,77051273887,mAltel,mKarTel,mKarTel,,D07,2016-09-09T14:26:59+06:00,
1000000000243175,77079944677,mKarTel,mMTS,mMTS,,D01,2016-09-09T14:25:40+06:00,
1000000000243177,77079442427,mKcell,mMTS,mMTS,,D02,2016-09-09T14:26:39+06:00,
