NPId,Number,RecipientId,DonorId,RangeHolderId,OldRoute,NewRoute,PortDate,RowCount
1000000000323551,77022216565,mKarTel,mKcell,mKcell,,D01,2017-02-04T13:31:32+06:00,24
1000000000323552,77055556639,mKcell,mKarTel,mKarTel,,D02,2017-02-04T13:33:26+06:00,
1000000000323556,77081757543,mKcell,mAltel,mAltel,,D02,2017-02-04T13:34:05+06:00,
1000000000323557,77017302543,mMTS,mKcell,mKcell,,D77,2017-02-04T13:34:41+06:00,
1000000000323561,77785564743,mKcell,mAltel,mKcell,D07,D02,2017-02-04T13:39:01+06:00,
1000000000323562,77766233337,mMTS,mKarTel,mKarTel,,D77,2017-02-04T13:39:07+06:00,
1000000000323563,77085055045,mKcell,mAltel,mAltel,,D02,2017-02-04T13:40:14+06:00,
1000000000323564,77026071090,mKarTel,mKcell,mKcell,D02,D01,2017-02-04T13:42:30+06:00,
1000000000323565,77715843373,mKcell,mKarTel,mKarTel,,D02,2017-02-04T13:43:26+06:00,
1000000000323566,77016783743,mAltel,mKcell,mKcell,,D07,2017-02-04T13:42:57+06:00,
1000000000323567,77762047500,mKcell,mKarTel,mKarTel,,D02,2017-02-04T13:44:06+06:00,
1000000000323568,77017660825,mKcell,mKarTel,mKcell,D01,D02,2017-02-04T13:44:45+06:00,
1000000000323569,77017111543,mMTS,mKcell,mKcell,,D77,2017-02-04T13:44:42+06:00,
1000000000323570,77750000791,mMTS,mKcell,mKcell,,D77,2017-02-04T13:46:06+06:00,
1000000000323571,77013389567,mKarTel,mKcell,mKcell,,D01,2017-02-04T13:46:49+06:00,
1000000000323573,77017381176,mMTS,mKcell,mKcell,,D77,2017-02-04T13:47:54+06:00,
1000000000323574,77785466444,mMTS,mKcell,mKcell,,D77,2017-02-04T13:48:40+06:00,
1000000000323576,77779991070,mKcell,mKarTel,mKarTel,,D02,2017-02-04T13:50:00+06:00,
1000000000323577,77078025568,mKcell,mMTS,mMTS,,D02,2017-02-04T13:51:32+06:00,
1000000000323578,77472464548,mAltel,mMTS,mMTS,,D07,2017-02-04T13:52:38+06:00,
1000000000323579,77024000198,mAltel,mMTS,mKcell,D77,D07,2017-02-04T13:53:28+06:00,
1000000000323580,77773826365,mAltel,mKarTel,mKarTel,,D07,2017-02-04T13:54:27+06:00,
1000000000323583,77028000070,mMTS,mKcell,mKcell,,D77,2017-02-04T13:56:11+06:00,
1000000000323584,77002770050,mKcell,mAltel,mAltel,,D02,2017-02-04T13:58:17+06:00,
