NPId,Number,RecipientId,DonorId,RangeHolderId,OldRoute,NewRoute,PortDate,RowCount
1000000000090788,77019089791,mKarTel,mKcell,mKcell,,D01,2016-02-17T12:08:03+06:00,34
1000000000090811,77755745120,mAltel,mKcell,mKcell,,D07,2016-02-17T12:00:00+06:00,
1000000000090812,77029873277,mAltel,mKcell,mKcell,,D07,2016-02-17T12:01:08+06:00,
1000000000090813,77017715002,mAltel,mKcell,mKcell,,D07,2016-02-17T12:01:27+06:00,
1000000000090814,77071462791,mKcell,mMTS,mMTS,,D02,2016-02-17T12:01:32+06:00,
1000000000090815,77015327524,mMTS,mKcell,mKcell,,D77,2016-02-17T12:02:31+06:00,
1000000000090817,77474056305,mKarTel,mMTS,mMTS,,D01,2016-02-17T12:03:45+06:00,
1000000000090818,77781679991,mAltel,mKcell,mKcell,,D07,2016-02-17T12:05:22+06:00,
1000000000090819,77474054651,mKarTel,mMTS,mMTS,,D01,2016-02-17T12:06:04+06:00,
1000000000090820,77058886474,mAltel,mKarTel,mKarTel,,D07,2016-02-17T12:06:17+06:00,
1000000000090825,77474054472,mKarTel,mMTS,mMTS,,D01,2016-02-17T12:08:08+06:00,
1000000000090827,77013166040,mKarTel,mKcell,mKcell,,D01,2016-02-17T12:09:24+06:00,
1000000000090828,77778677000,mAltel,mKarTel,mKarTel,,D07,2016-02-17T12:09:56+06:00,
1000000000090829,77056011302,mMTS,mKarTel,mKarTel,,D77,2016-02-17T12:10:34+06:00,
1000000000090831,77789999208,mKarTel,mKcell,mKcell,,D01,2016-02-17T12:11:59+06:00,
1000000000090832,77017661881,mAltel,mKcell,mKcell,,D07,2016-02-17T12:11:11+06:00,
1000000000090833,77072266966,mAltel,mMTS,mMTS,,D07,2016-02-17T12:11:44+06:00,
1000000000090835,77753606555,mMTS,mKcell,mKcell,,D77,2016-02-17T12:11:49+06:00,
1000000000090836,77477948030,mAltel,mMTS,mMTS,,D07,2016-02-17T12:12:36+06:00,
1000000000090838,77024132228,mAltel,mKcell,mKcell,,D07,2016-02-17T12:14:01+06:00,
1000000000090839,77014833166,mMTS,mKcell,mKcell,,D77,2016-02-17T12:14:00+06:00,
1000000000090841,77075988989,mAltel,mMTS,mMTS,,D07,2016-02-17T12:14:19+06:00,
1000000000090842,77772709713,mMTS,mKarTel,mKarTel,,D77,2016-02-17T12:16:26+06:00,
1000000000090843,77751004006,mKarTel,mKcell,mKcell,,D01,2016-02-17T12:17:19+06:00,
1000000000090844,77756089056,mMTS,mKcell,mKcell,,D77,2016-02-17T12:16:49+06:00,
1000000000090845,77771552533,mAltel,mKarTel,mKarTel,,D07,2016-02-17T12:17:40+06:00,
1000000000090846,77755753435,mAltel,mKcell,mKcell,,D07,2016-02-17T12:18:22+06:00,
1000000000090847,77715895999,mAltel,mKarTel,mKarTel,,D07,2016-02-17T12:18:53+06:00,
1000000000090848,77774488022,mMTS,mKarTel,mKarTel,,D77,2016-02-17T12:18:57+06:00,
1000000000090851,77774746717,mAltel,mKarTel,mKarTel,,D07,2016-02-17T12:23:02+06:00,
1000000000090853,77474054652,mKarTel,mMTS,mMTS,,D01,2016-02-17T12:29:16+06:00,
1000000000090859,77714198658,mKcell,mKarTel,mKarTel,,D02,2016-02-17T12:25:58+06:00,
1000000000090861,77715071132,mKcell,mKarTel,mKarTel,,D02,2016-02-17T12:26:38+06:00,
1000000000090864,77028691112,mAltel,mKcell,mKcell,,D07,2016-02-17T12:29:09+06:00,
