NPId,Number,RecipientId,DonorId,RangeHolderId,OldRoute,NewRoute,PortDate,RowCount
1000000000442662,77751970105,mMTS,mKcell,mKcell,,D77,2017-08-20T10:32:40+06:00,9
1000000000442663,77760771957,mKcell,mKarTel,mKarTel,,D02,2017-08-20T10:33:19+06:00,
1000000000442664,77750606666,mKcell,mAltel,mKcell,D07,D02,2017-08-20T10:35:50+06:00,
1000000000442666,77756080506,mMTS,mKcell,mKcell,,D77,2017-08-20T10:42:37+06:00,
1000000000442667,77760771961,mKcell,mKarTel,mKarTel,,D02,2017-08-20T10:46:06+06:00,
1000000000442668,77760771963,mKcell,mKarTel,mKarTel,,D02,2017-08-20T10:47:14+06:00,
1000000000442669,77004226076,mMTS,mAltel,mAltel,,D77,2017-08-20T10:53:21+06:00,
1000000000442670,77075555566,mAltel,mMTS,mMTS,,D07,2017-08-20T10:58:06+06:00,
1000000000442671,77473239705,mMTS,mAltel,mMTS,D07,D77,2017-08-20T10:58:41+06:00,
