NPId,Number,RecipientId,DonorId,RangeHolderId,OldRoute,NewRoute,PortDate,RowCount
1000000000134533,77015068005,mKarTel,mKcell,mKcell,,D01,2016-03-27T12:00:09+06:00,8
1000000000134535,77762004477,mMTS,mKarTel,mKarTel,,D77,2016-03-27T12:04:00+06:00,
1000000000134536,77779922298,mMTS,mKarTel,mKarTel,,D77,2016-03-27T12:04:28+06:00,
1000000000134539,77713885111,mMTS,mKarTel,mKarTel,,D77,2016-03-27T12:07:55+06:00,
1000000000134540,77054090066,mMTS,mKarTel,mKarTel,,D77,2016-03-27T12:08:23+06:00,
1000000000134543,77778875444,mAltel,mKarTel,mKarTel,,D07,2016-03-27T12:15:24+06:00,
1000000000134545,77751010152,mAltel,mKcell,mKcell,,D07,2016-03-27T12:23:09+06:00,
1000000000134546,77013310066,mMTS,mKcell,mKcell,,D77,2016-03-27T12:25:25+06:00,
