NPId,Number,RecipientId,DonorId,RangeHolderId,OldRoute,NewRoute,PortDate,RowCount
1000000000231146,77005110584,mKcell,mAltel,mAltel,,D02,2016-08-19T10:33:10+06:00,10
1000000000231147,77054781001,mAltel,mKarTel,mKarTel,,D07,2016-08-19T10:35:14+06:00,
1000000000231151,77071577767,mKcell,mMTS,mMTS,,D02,2016-08-19T10:44:58+06:00,
1000000000231152,77768885818,mKcell,mKarTel,mKarTel,,D02,2016-08-19T10:46:50+06:00,
1000000000231153,77013283000,mMTS,mKcell,mKcell,,D77,2016-08-19T10:45:33+06:00,
1000000000231155,77757585858,mMTS,mKarTel,mKcell,D01,D77,2016-08-19T10:49:30+06:00,
1000000000231156,77475582537,mKarTel,mMTS,mMTS,,D01,2016-08-19T10:48:54+06:00,
1000000000231157,77018092220,mKcell,mAltel,mKcell,D07,D02,2016-08-19T10:51:41+06:00,
1000000000231158,77017580394,mKcell,mAltel,mKcell,D07,D02,2016-08-19T10:53:49+06:00,
1000000000231160,77717081232,mMTS,mKarTel,mKarTel,,D77,2016-08-19T10:57:10+06:00,
