NPId,Number,RecipientId,DonorId,RangeHolderId,OldRoute,NewRoute,PortDate,RowCount
1000000000264909,77717800503,mMTS,mKarTel,mKarTel,,D77,2016-10-19T14:34:07+06:00,24
1000000000264925,77786516139,mMTS,mAltel,mKcell,D07,D77,2016-10-19T14:32:34+06:00,
1000000000264926,77773309933,mKarTel,mMTS,mKarTel,D77,D01,2016-10-19T14:33:25+06:00,
1000000000264927,77015134635,mAltel,mKcell,mKcell,,D07,2016-10-19T14:33:24+06:00,
1000000000264930,77004222292,mMTS,mAltel,mAltel,,D77,2016-10-19T14:34:33+06:00,
1000000000264931,77005533013,mMTS,mAltel,mAltel,,D77,2016-10-19T14:35:45+06:00,
1000000000264933,77760607767,mKcell,mKarTel,mKarTel,,D02,2016-10-19T14:37:02+06:00,
1000000000264935,77071171777,mKarTel,mMTS,mMTS,,D01,2016-10-19T14:37:05+06:00,
1000000000264936,77717800504,mMTS,mKarTel,mKarTel,,D77,2016-10-19T14:52:45+06:00,
1000000000264938,77717800506,mMTS,mKarTel,mKarTel,,D77,2016-10-19T14:53:39+06:00,
1000000000264939,77059891919,mKarTel,mMTS,mKarTel,D77,D01,2016-10-19T14:38:31+06:00,
1000000000264941,77002888887,mMTS,mAltel,mAltel,,D77,2016-10-19T14:39:03+06:00,
1000000000264943,77777038326,mKcell,mKarTel,mKarTel,,D02,2016-10-19T14:40:07+06:00,
1000000000264944,77052810133,mMTS,mKarTel,mKarTel,,D77,2016-10-19T14:40:44+06:00,
1000000000264945,77023044021,mKarTel,mKcell,mKcell,,D01,2016-10-19T14:40:46+06:00,
1000000000264947,77773124097,mMTS,mKarTel,mKarTel,,D77,2016-10-19T14:44:14+06:00,
1000000000264948,77004822805,mKcell,mAltel,mAltel,,D02,2016-10-19T14:45:49+06:00,
1000000000264949,77760607778,mKcell,mKarTel,mKarTel,,D02,2016-10-19T14:47:10+06:00,
1000000000264951,77017171500,mKarTel,mMTS,mKcell,D77,D01,2016-10-19T14:48:59+06:00,
1000000000264952,77476668000,mAltel,mKarTel,mMTS,D01,D07,2016-10-19T14:49:17+06:00,
1000000000264954,77023531237,mKarTel,mKcell,mKcell,,D01,2016-10-19T14:50:43+06:00,
1000000000264959,77077884798,mMTS,mKcell,mMTS,D02,D77,2016-10-19T14:52:34+06:00,
1000000000264961,77473523839,mAltel,mMTS,mMTS,,D07,2016-10-19T14:57:22+06:00,
1000000000264963,77002779991,mKarTel,mAltel,mAltel,,D01,2016-10-19T14:57:57+06:00,
