NPId,Number,RecipientId,DonorId,RangeHolderId,OldRoute,NewRoute,PortDate,RowCount
1000000000446235,77001711006,mMTS,mAltel,mAltel,,D77,2017-08-26T14:31:02+06:00,26
1000000000446237,77714424411,mKcell,mKarTel,mKarTel,,D02,2017-08-26T14:33:01+06:00,
1000000000446238,77474808014,mKarTel,mMTS,mMTS,,D01,2017-08-26T14:32:40+06:00,
1000000000446239,77011800555,mKarTel,mMTS,mKcell,D77,D01,2017-08-26T14:33:08+06:00,
1000000000446240,77773851653,mKcell,mKarTel,mKarTel,,D02,2017-08-26T14:33:44+06:00,
1000000000446241,77777731114,mAltel,mKarTel,mKarTel,,D07,2017-08-26T14:33:44+06:00,
1000000000446245,77024398091,mMTS,mKarTel,mKcell,D01,D77,2017-08-26T14:36:34+06:00,
1000000000446246,77016199989,mKcell,mKarTel,mKcell,D01,D02,2017-08-26T14:41:39+06:00,
1000000000446247,77013703670,mKcell,mMTS,mKcell,D77,D02,2017-08-26T14:41:17+06:00,
1000000000446249,77053277404,mMTS,mKarTel,mKarTel,,D77,2017-08-26T14:44:00+06:00,
1000000000446251,77052765351,mKarTel,mMTS,mKarTel,D77,D01,2017-08-26T14:44:38+06:00,
1000000000446253,77074202007,mAltel,mMTS,mMTS,,D07,2017-08-26T14:45:49+06:00,
1000000000446254,77017918999,mKarTel,mMTS,mKcell,D77,D01,2017-08-26T14:46:32+06:00,
1000000000446255,77473438675,mKcell,mMTS,mMTS,,D02,2017-08-26T14:46:57+06:00,
1000000000446256,77711596728,mMTS,mKarTel,mKarTel,,D77,2017-08-26T14:47:57+06:00,
1000000000446257,77054258848,mKarTel,mMTS,mKarTel,D77,D01,2017-08-26T14:49:00+06:00,
1000000000446260,77024030354,mMTS,mKcell,mKcell,,D77,2017-08-26T14:50:19+06:00,
1000000000446262,77019538355,mKarTel,mKcell,mKcell,,D01,2017-08-26T14:53:29+06:00,
1000000000446263,77057052828,mKarTel,mMTS,mKarTel,D77,D01,2017-08-26T14:54:45+06:00,
1000000000446264,77754576666,mAltel,mKcell,mKcell,,D07,2017-08-26T14:54:59+06:00,
1000000000446265,77765777999,mKarTel,mKcell,mKarTel,D02,D01,2017-08-26T14:55:48+06:00,
1000000000446266,77711797171,mMTS,mKarTel,mKarTel,,D77,2017-08-26T14:55:56+06:00,
1000000000446267,77056624196,mMTS,mKarTel,mKarTel,,D77,2017-08-26T14:56:19+06:00,
1000000000446268,77088088252,mKcell,mAltel,mAltel,,D02,2017-08-26T14:56:44+06:00,
1000000000446269,77477559595,mAltel,mMTS,mMTS,D77,D07,2017-08-26T14:57:42+06:00,
1000000000446270,77088088636,mKcell,mAltel,mAltel,,D02,2017-08-26T14:58:06+06:00,
