NPId,Number,RecipientId,DonorId,RangeHolderId,OldRoute,NewRoute,PortDate,RowCount
1000000000433389,77022104970,mMTS,mKcell,mKcell,,D77,2017-08-02T13:31:36+06:00,27
1000000000433390,77023330329,mMTS,mKcell,mKcell,,D77,2017-08-02T13:32:08+06:00,
1000000000433391,77766007788,mAltel,mKarTel,mKarTel,,D07,2017-08-02T13:32:37+06:00,
1000000000433392,77078324679,mKarTel,mMTS,mMTS,,D01,2017-08-02T13:35:47+06:00,
1000000000433393,77753815016,mAltel,mKcell,mKcell,,D07,2017-08-02T13:36:18+06:00,
1000000000433396,77051402668,mMTS,mKarTel,mKarTel,,D77,2017-08-02T13:37:38+06:00,
1000000000433397,77028818520,mMTS,mKcell,mKcell,,D77,2017-08-02T13:38:36+06:00,
1000000000433399,77072502530,mKcell,mMTS,mMTS,,D02,2017-08-02T13:41:05+06:00,
1000000000433402,77017634445,mKarTel,mKcell,mKcell,,D01,2017-08-02T13:43:28+06:00,
1000000000433403,77080778800,mKcell,mAltel,mAltel,D07,D02,2017-08-02T13:43:45+06:00,
1000000000433404,77009992311,mAltel,mKarTel,mAltel,D01,D07,2017-08-02T13:44:14+06:00,
1000000000433406,77019202028,mKcell,mAltel,mKcell,D07,D02,2017-08-02T13:44:37+06:00,
1000000000433407,77717582200,mAltel,mKcell,mKarTel,D02,D07,2017-08-02T13:44:52+06:00,
1000000000433409,77772743325,mKarTel,mMTS,mKarTel,D77,D01,2017-08-02T13:46:03+06:00,
1000000000433410,77019214969,mKarTel,mKcell,mKcell,,D01,2017-08-02T13:48:19+06:00,
1000000000433411,77715654747,mKarTel,mMTS,mKarTel,D77,D01,2017-08-02T13:48:50+06:00,
1000000000433412,77019998148,mAltel,mKcell,mKcell,,D07,2017-08-02T13:48:58+06:00,
1000000000433413,77782880077,mKcell,mKarTel,mKcell,D01,D02,2017-08-02T13:49:32+06:00,
1000000000433414,77017125505,mKarTel,mKcell,mKcell,,D01,2017-08-02T13:50:08+06:00,
1000000000433416,77018883562,mMTS,mKcell,mKcell,,D77,2017-08-02T13:50:47+06:00,
1000000000433417,77073130490,mKarTel,mMTS,mMTS,,D01,2017-08-02T13:51:31+06:00,
1000000000433419,77027278269,mMTS,mKcell,mKcell,,D77,2017-08-02T13:52:18+06:00,
1000000000433420,77017777716,mMTS,mKcell,mKcell,,D77,2017-08-02T13:52:25+06:00,
1000000000433421,77776599944,mMTS,mKarTel,mKarTel,,D77,2017-08-02T13:52:31+06:00,
1000000000433422,77475991818,mKarTel,mMTS,mMTS,,D01,2017-08-02T13:53:58+06:00,
1000000000433424,77757538327,mMTS,mKcell,mKcell,,D77,2017-08-02T13:54:34+06:00,
1000000000433425,77077694777,mKarTel,mMTS,mMTS,,D01,2017-08-02T13:55:42+06:00,
