NPId,Number,RecipientId,DonorId,RangeHolderId,OldRoute,NewRoute,PortDate,RowCount
1000000000204409,77002682006,mKcell,mAltel,mAltel,,D02,2016-07-03T10:21:06+06:00,2
1000000000204411,77081541955,mKcell,mAltel,mAltel,,D02,2016-07-03T10:27:33+06:00,
