NPId,Number,RecipientId,DonorId,RangeHolderId,OldRoute,NewRoute,PortDate,RowCount
1000000000250071,77771308605,mKcell,mKarTel,mKarTel,,D02,2016-09-23T15:32:14+06:00,26
1000000000250072,77771372777,mMTS,mKarTel,mKarTel,,D77,2016-09-23T15:33:00+06:00,
1000000000250073,77017123334,mKarTel,mKcell,mKcell,,D01,2016-09-23T15:31:08+06:00,
1000000000250074,77774479846,mKcell,mKarTel,mKarTel,,D02,2016-09-23T15:34:06+06:00,
1000000000250075,77084917500,mMTS,mAltel,mAltel,,D77,2016-09-23T15:32:19+06:00,
1000000000250076,77055005472,mKcell,mKarTel,mKarTel,,D02,2016-09-23T15:35:10+06:00,
1000000000250078,77028880956,mAltel,mKcell,mKcell,,D07,2016-09-23T15:35:14+06:00,
1000000000250079,77763365700,mKcell,mKarTel,mKarTel,,D02,2016-09-23T15:38:40+06:00,
1000000000250080,77773383938,mAltel,mKarTel,mKarTel,,D07,2016-09-23T15:39:26+06:00,
1000000000250081,77017104345,mKarTel,mKcell,mKcell,,D01,2016-09-23T15:37:31+06:00,
1000000000250082,77013420174,mKcell,mMTS,mKcell,D77,D02,2016-09-23T15:37:15+06:00,
1000000000250083,77005850055,mKcell,mMTS,mAltel,D77,D02,2016-09-23T15:38:46+06:00,
1000000000250084,77079150101,mMTS,mKcell,mMTS,D02,D77,2016-09-23T15:38:46+06:00,
1000000000250085,77011887711,mMTS,mAltel,mKcell,D07,D77,2016-09-23T15:39:30+06:00,
1000000000250086,77023959486,mMTS,mKcell,mKcell,,D77,2016-09-23T15:40:47+06:00,
1000000000250087,77004848462,mKarTel,mAltel,mAltel,,D01,2016-09-23T15:43:13+06:00,
1000000000250088,77051798789,mMTS,mKarTel,mKarTel,,D77,2016-09-23T15:46:08+06:00,
1000000000250091,77771345526,mKcell,mKarTel,mKarTel,,D02,2016-09-23T15:49:11+06:00,
1000000000250092,77759360862,mKarTel,mKcell,mKcell,,D01,2016-09-23T15:47:06+06:00,
1000000000250093,77078814811,mKcell,mMTS,mMTS,,D02,2016-09-23T15:46:40+06:00,
1000000000250094,77018844875,mKarTel,mKcell,mKcell,,D01,2016-09-23T15:50:49+06:00,
1000000000250095,77053330800,mMTS,mKarTel,mKarTel,,D77,2016-09-23T15:53:37+06:00,
1000000000250098,77025000578,mMTS,mAltel,mKcell,D07,D77,2016-09-23T15:52:23+06:00,
1000000000250099,77774400808,mKcell,mKarTel,mKarTel,,D02,2016-09-23T15:58:30+06:00,
1000000000250100,77787021213,mMTS,mKcell,mKcell,,D77,2016-09-23T15:58:07+06:00,
1000000000250101,77019555501,mKarTel,mKcell,mKcell,,D01,2016-09-23T15:59:06+06:00,
