NPId,Number,RecipientId,DonorId,RangeHolderId,OldRoute,NewRoute,PortDate,RowCount
1000000000311809,77772306788,mKcell,mKarTel,mKarTel,,D02,2017-01-17T12:07:27+06:00,18
1000000000311820,77015118591,mKarTel,mKcell,mKcell,,D01,2017-01-17T12:00:07+06:00,
1000000000311821,77019996702,mAltel,mKcell,mKcell,,D07,2017-01-17T12:00:34+06:00,
1000000000311822,77017299308,mKarTel,mKcell,mKcell,,D01,2017-01-17T12:00:59+06:00,
1000000000311824,77071114321,mMTS,mKcell,mMTS,D02,D77,2017-01-17T12:01:18+06:00,
1000000000311826,77017118274,mKcell,mAltel,mKcell,D07,D02,2017-01-17T12:01:37+06:00,
1000000000311827,77775173071,mMTS,mKarTel,mKarTel,,D77,2017-01-17T12:02:08+06:00,
1000000000311828,77077159516,mKcell,mMTS,mMTS,,D02,2017-01-17T12:03:06+06:00,
1000000000311829,77019996701,mAltel,mKcell,mKcell,,D07,2017-01-17T12:04:47+06:00,
1000000000311830,77023444401,mMTS,mKcell,mKcell,,D77,2017-01-17T12:16:28+06:00,
1000000000311832,77059069090,mKarTel,mAltel,mKarTel,D07,D01,2017-01-17T12:18:54+06:00,
1000000000311833,77787006699,mKarTel,mKcell,mKcell,,D01,2017-01-17T12:19:30+06:00,
1000000000311835,77472062303,mKcell,mAltel,mMTS,D07,D02,2017-01-17T12:20:07+06:00,
1000000000311836,77472062301,mKcell,mAltel,mMTS,D07,D02,2017-01-17T12:22:08+06:00,
1000000000311838,77759519990,mKarTel,mKcell,mKcell,,D01,2017-01-17T12:23:29+06:00,
1000000000311840,77024477417,mKarTel,mKcell,mKcell,D02,D01,2017-01-17T12:25:02+06:00,
1000000000311842,77712536469,mMTS,mKarTel,mKarTel,,D77,2017-01-17T12:27:15+06:00,
1000000000311843,77757760981,mKcell,mMTS,mKcell,D77,D02,2017-01-17T12:27:05+06:00,
