NPId,Number,RecipientId,DonorId,RangeHolderId,OldRoute,NewRoute,PortDate,RowCount
1000000000219801,77762466665,mAltel,mMTS,mKarTel,D77,D07,2016-07-30T12:00:15+06:00,20
1000000000219802,77024378912,mMTS,mKcell,mKcell,,D77,2016-07-30T12:00:45+06:00,
1000000000219804,77089839430,mMTS,mAltel,mAltel,,D77,2016-07-30T12:01:17+06:00,
1000000000219805,77774864512,mKarTel,mAltel,mKarTel,D07,D01,2016-07-30T12:03:56+06:00,
1000000000219806,77711263285,mKcell,mKarTel,mKarTel,,D02,2016-07-30T12:09:13+06:00,
1000000000219810,77754775829,mMTS,mKcell,mKcell,,D77,2016-07-30T12:12:19+06:00,
1000000000219812,77011081344,mMTS,mKcell,mKcell,,D77,2016-07-30T12:13:52+06:00,
1000000000219814,77779873738,mAltel,mKarTel,mKarTel,,D07,2016-07-30T12:16:29+06:00,
1000000000219815,77029034708,mKcell,mMTS,mKcell,D77,D02,2016-07-30T12:16:52+06:00,
1000000000219816,77014704551,mKcell,mKarTel,mKcell,D01,D02,2016-07-30T12:18:26+06:00,
1000000000219819,77017242985,mMTS,mKcell,mKcell,,D77,2016-07-30T12:22:08+06:00,
1000000000219820,77002152828,mAltel,mMTS,mAltel,D77,D07,2016-07-30T12:22:52+06:00,
1000000000219821,77774230002,mMTS,mKarTel,mKarTel,,D77,2016-07-30T12:24:17+06:00,
1000000000219822,77029595045,mMTS,mKcell,mKcell,,D77,2016-07-30T12:24:14+06:00,
1000000000219823,77015233459,mMTS,mKcell,mKcell,,D77,2016-07-30T12:24:41+06:00,
1000000000219824,77750009599,mKcell,mMTS,mKcell,D77,D02,2016-07-30T12:26:35+06:00,
1000000000219825,77084837368,mMTS,mAltel,mAltel,,D77,2016-07-30T12:27:17+06:00,
1000000000219826,77056344021,mMTS,mKarTel,mKarTel,,D77,2016-07-30T12:28:30+06:00,
1000000000219827,77017780412,mMTS,mKcell,mKcell,,D77,2016-07-30T12:27:26+06:00,
1000000000219828,77022278882,mAltel,mKcell,mKcell,,D07,2016-07-30T12:28:18+06:00,
