NPId,Number,RecipientId,DonorId,RangeHolderId,OldRoute,NewRoute,PortDate,RowCount
1000000000212210,77784536396,mKcell,mKarTel,mKcell,D01,D02,2016-07-16T12:38:32+06:00,20
1000000000212211,77011203083,mMTS,mAltel,mKcell,D07,D77,2016-07-16T12:31:32+06:00,
1000000000212212,77072820084,mKarTel,mMTS,mMTS,,D01,2016-07-16T12:32:32+06:00,
1000000000212214,77003643580,mMTS,mAltel,mAltel,,D77,2016-07-16T12:32:15+06:00,
1000000000212215,77472873233,mMTS,mKcell,mMTS,D02,D77,2016-07-16T12:37:39+06:00,
1000000000212218,77029810285,mKarTel,mKcell,mKcell,,D01,2016-07-16T12:39:40+06:00,
1000000000212219,77058886116,mKcell,mMTS,mKarTel,D77,D02,2016-07-16T12:40:43+06:00,
1000000000212220,77471456522,mKcell,mMTS,mMTS,,D02,2016-07-16T12:40:45+06:00,
1000000000212221,77773738080,mMTS,mKarTel,mKarTel,,D77,2016-07-16T12:40:40+06:00,
1000000000212222,77757997700,mMTS,mKcell,mKcell,,D77,2016-07-16T12:40:40+06:00,
1000000000212223,77004177197,mAltel,mMTS,mAltel,D77,D07,2016-07-16T12:42:24+06:00,
1000000000212224,77716191999,mAltel,mKarTel,mKarTel,,D07,2016-07-16T12:45:59+06:00,
1000000000212225,77471626622,mMTS,mAltel,mMTS,D07,D77,2016-07-16T12:46:01+06:00,
1000000000212226,77021132688,mMTS,mKcell,mKcell,,D77,2016-07-16T12:48:36+06:00,
1000000000212227,77757990077,mMTS,mKcell,mKcell,,D77,2016-07-16T12:49:41+06:00,
1000000000212228,77012618624,mKarTel,mKcell,mKcell,,D01,2016-07-16T12:53:14+06:00,
1000000000212230,77751844996,mMTS,mKcell,mKcell,,D77,2016-07-16T12:53:23+06:00,
1000000000212231,77029600060,mMTS,mKcell,mKcell,,D77,2016-07-16T12:55:00+06:00,
1000000000212232,77016100217,mMTS,mKcell,mKcell,,D77,2016-07-16T12:59:03+06:00,
1000000000212233,77751551027,mMTS,mKcell,mKcell,,D77,2016-07-16T12:58:58+06:00,
