NPId,Number,RecipientId,DonorId,RangeHolderId,OldRoute,NewRoute,PortDate,RowCount
1000000000222093,77015123092,mKcell,mKarTel,mKcell,D01,D02,2016-08-02T16:05:40+06:00,38
1000000000222097,77019583061,mKcell,mKarTel,mKcell,D01,D02,2016-08-02T16:11:54+06:00,
1000000000222101,77019583068,mKcell,mKarTel,mKcell,D01,D02,2016-08-02T16:14:12+06:00,
1000000000222102,77767075550,mKcell,mKarTel,mKarTel,,D02,2016-08-02T16:01:30+06:00,
1000000000222103,77017950439,mKcell,mKarTel,mKcell,D01,D02,2016-08-02T16:16:43+06:00,
1000000000222104,77757203200,mMTS,mKcell,mKcell,,D77,2016-08-02T16:03:44+06:00,
1000000000222106,77073000933,mMTS,mKcell,mMTS,D02,D77,2016-08-02T16:02:33+06:00,
1000000000222108,77072211899,mMTS,mKcell,mMTS,D02,D77,2016-08-02T16:03:08+06:00,
1000000000222110,77017950446,mKcell,mKarTel,mKcell,D01,D02,2016-08-02T16:19:03+06:00,
1000000000222113,77007209177,mMTS,mAltel,mAltel,,D77,2016-08-02T16:04:57+06:00,
1000000000222114,77017950469,mKcell,mKarTel,mKcell,D01,D02,2016-08-02T16:21:31+06:00,
1000000000222115,77018955441,mKarTel,mKcell,mKcell,,D01,2016-08-02T16:06:30+06:00,
1000000000222117,77051843313,mMTS,mKarTel,mKarTel,,D77,2016-08-02T16:06:52+06:00,
1000000000222119,77051910606,mMTS,mKarTel,mKarTel,,D77,2016-08-02T16:07:37+06:00,
1000000000222120,77005170136,mMTS,mAltel,mAltel,,D77,2016-08-02T16:07:16+06:00,
1000000000222121,77076265858,mMTS,mKarTel,mMTS,D01,D77,2016-08-02T16:08:24+06:00,
1000000000222123,77014372759,mAltel,mKcell,mKcell,,D07,2016-08-02T16:08:50+06:00,
1000000000222124,77019583059,mKcell,mKarTel,mKcell,D01,D02,2016-08-02T16:25:26+06:00,
1000000000222125,77000072007,mKarTel,mAltel,mAltel,,D01,2016-08-02T16:10:04+06:00,
1000000000222126,77010966066,mKcell,mAltel,mKcell,D07,D02,2016-08-02T16:10:02+06:00,
1000000000222127,77775694863,mMTS,mKarTel,mKarTel,,D77,2016-08-02T16:11:02+06:00,
1000000000222128,77024458677,mMTS,mKcell,mKcell,,D77,2016-08-02T16:11:00+06:00,
1000000000222129,77015138965,mMTS,mKcell,mKcell,,D77,2016-08-02T16:11:54+06:00,
1000000000222130,77022048406,mKarTel,mKcell,mKcell,,D01,2016-08-02T16:15:10+06:00,
1000000000222132,77475557232,mKarTel,mMTS,mMTS,,D01,2016-08-02T16:15:02+06:00,
1000000000222134,77012259442,mKarTel,mKcell,mKcell,,D01,2016-08-02T16:15:38+06:00,
1000000000222135,77772002783,mAltel,mKarTel,mKarTel,,D07,2016-08-02T16:16:47+06:00,
1000000000222136,77754114758,mMTS,mKcell,mKcell,,D77,2016-08-02T16:16:34+06:00,
1000000000222137,77053081739,mKcell,mKarTel,mKarTel,,D02,2016-08-02T16:17:31+06:00,
1000000000222139,77757764742,mKcell,mMTS,mKcell,D77,D02,2016-08-02T16:18:17+06:00,
1000000000222140,77054757423,mMTS,mKarTel,mKarTel,,D77,2016-08-02T16:18:42+06:00,
1000000000222144,77070376363,mKarTel,mMTS,mMTS,,D01,2016-08-02T16:20:50+06:00,
1000000000222146,77019008431,mKarTel,mKcell,mKcell,,D01,2016-08-02T16:23:05+06:00,
1000000000222147,77718819898,mMTS,mKarTel,mKarTel,,D77,2016-08-02T16:23:20+06:00,
1000000000222148,77015304659,mKarTel,mKcell,mKcell,,D01,2016-08-02T16:23:32+06:00,
1000000000222150,77077226644,mKcell,mMTS,mMTS,,D02,2016-08-02T16:23:35+06:00,
1000000000222151,77005955585,mMTS,mAltel,mAltel,,D77,2016-08-02T16:23:54+06:00,
1000000000222155,77015966584,mMTS,mKcell,mKcell,,D77,2016-08-02T16:27:28+06:00,
