NPId,Number,RecipientId,DonorId,RangeHolderId,OldRoute,NewRoute,PortDate,RowCount
1000000000441932,77786363223,mKarTel,mKcell,mKcell,,D01,2017-08-18T13:30:29+06:00,24
1000000000441933,77011909796,mMTS,mKcell,mKcell,,D77,2017-08-18T13:30:34+06:00,
1000000000441934,77750450000,mKcell,mMTS,mKcell,D77,D02,2017-08-18T13:34:40+06:00,
1000000000441935,77014777082,mMTS,mKcell,mKcell,,D77,2017-08-18T13:36:17+06:00,
1000000000441937,77018196526,mKcell,mMTS,mKcell,D77,D02,2017-08-18T13:39:52+06:00,
1000000000441942,77771636975,mKcell,mKarTel,mKarTel,,D02,2017-08-18T13:46:31+06:00,
1000000000441944,77014135934,mKarTel,mKcell,mKcell,,D01,2017-08-18T13:47:45+06:00,
1000000000441945,77015301103,mAltel,mKcell,mKcell,,D07,2017-08-18T13:49:22+06:00,
1000000000441946,77786656897,mAltel,mKcell,mKcell,,D07,2017-08-18T13:49:26+06:00,
1000000000441949,77012402526,mKarTel,mKcell,mKcell,,D01,2017-08-18T13:51:14+06:00,
1000000000441950,77075046317,mKarTel,mMTS,mMTS,,D01,2017-08-18T13:51:52+06:00,
1000000000441951,77015519206,mMTS,mKcell,mKcell,,D77,2017-08-18T13:52:43+06:00,
1000000000441952,77784053109,mKarTel,mKcell,mKcell,,D01,2017-08-18T13:53:04+06:00,
1000000000441953,77773323232,mAltel,mKarTel,mKarTel,,D07,2017-08-18T13:53:05+06:00,
1000000000441954,77071634000,mKcell,mMTS,mMTS,,D02,2017-08-18T13:53:34+06:00,
1000000000441956,77019386543,mKarTel,mMTS,mKcell,D77,D01,2017-08-18T13:54:23+06:00,
1000000000441958,77024063331,mAltel,mKcell,mKcell,,D07,2017-08-18T13:54:54+06:00,
1000000000441959,77778922234,mMTS,mKarTel,mKarTel,,D77,2017-08-18T13:55:19+06:00,
1000000000441960,77029399585,mAltel,mMTS,mKcell,D77,D07,2017-08-18T13:55:30+06:00,
1000000000441961,77017694473,mMTS,mKcell,mKcell,,D77,2017-08-18T13:57:00+06:00,
1000000000441962,77000906996,mMTS,mAltel,mAltel,,D77,2017-08-18T13:57:30+06:00,
1000000000441963,77014869891,mMTS,mKcell,mKcell,,D77,2017-08-18T13:58:39+06:00,
1000000000441964,77018808869,mKcell,mKarTel,mKcell,D01,D02,2017-08-18T13:59:25+06:00,
1000000000441965,77071177106,mKcell,mMTS,mMTS,,D02,2017-08-18T13:59:31+06:00,
