NPId,Number,RecipientId,DonorId,RangeHolderId,OldRoute,NewRoute,PortDate,RowCount
1000000000369835,77059631372,mMTS,mKarTel,mKarTel,,D77,2017-04-22T10:30:48+06:00,7
1000000000369837,77478835443,mKarTel,mMTS,mMTS,,D01,2017-04-22T10:38:44+06:00,
1000000000369838,77019559805,mMTS,mKcell,mKcell,,D77,2017-04-22T10:39:40+06:00,
1000000000369840,77771085777,mMTS,mKarTel,mKarTel,,D77,2017-04-22T10:43:49+06:00,
1000000000369841,77781989898,mKcell,mMTS,mKcell,D77,D02,2017-04-22T10:43:53+06:00,
1000000000369842,77082827711,mMTS,mAltel,mAltel,,D77,2017-04-22T10:47:44+06:00,
1000000000369844,77077680507,mMTS,mAltel,mMTS,D07,D77,2017-04-22T10:50:41+06:00,
