NPId,Number,RecipientId,DonorId,RangeHolderId,OldRoute,NewRoute,PortDate,RowCount
1000000000377598,77074999969,mAltel,mMTS,mMTS,,D07,2017-05-03T18:30:38+06:00,26
1000000000377600,77764008020,mKcell,mKarTel,mKarTel,,D02,2017-05-03T18:31:36+06:00,
1000000000377601,77716111144,mAltel,mKarTel,mKarTel,,D07,2017-05-03T18:32:41+06:00,
1000000000377602,77772847775,mMTS,mKarTel,mKarTel,,D77,2017-05-03T18:34:13+06:00,
1000000000377603,77010777330,mKarTel,mKcell,mKcell,,D01,2017-05-03T18:34:14+06:00,
1000000000377604,77770481401,mKarTel,mMTS,mKarTel,D77,D01,2017-05-03T18:34:34+06:00,
1000000000377605,77022339033,mMTS,mKcell,mKcell,,D77,2017-05-03T18:35:49+06:00,
1000000000377606,77017559021,mKarTel,mKcell,mKcell,,D01,2017-05-03T18:36:28+06:00,
1000000000377607,77023355109,mMTS,mKcell,mKcell,,D77,2017-05-03T18:39:02+06:00,
1000000000377608,77762267656,mMTS,mKarTel,mKarTel,,D77,2017-05-03T18:39:56+06:00,
1000000000377609,77766200077,mAltel,mKarTel,mKarTel,,D07,2017-05-03T18:40:32+06:00,
1000000000377610,77753397550,mMTS,mKcell,mKcell,,D77,2017-05-03T18:40:46+06:00,
1000000000377612,77017444419,mKarTel,mKcell,mKcell,,D01,2017-05-03T18:42:30+06:00,
1000000000377613,77051845825,mMTS,mKarTel,mKarTel,,D77,2017-05-03T18:42:56+06:00,
1000000000377614,77756104055,mMTS,mKcell,mKcell,,D77,2017-05-03T18:43:40+06:00,
1000000000377617,77754440124,mAltel,mKcell,mKcell,,D07,2017-05-03T18:50:11+06:00,
1000000000377618,77029712131,mAltel,mKcell,mKcell,,D07,2017-05-03T18:53:34+06:00,
1000000000377619,77013962121,mKcell,mMTS,mKcell,D77,D02,2017-05-03T18:54:38+06:00,
1000000000377620,77718240877,mMTS,mKarTel,mKarTel,,D77,2017-05-03T18:55:10+06:00,
1000000000377621,77017307162,mKarTel,mKcell,mKcell,,D01,2017-05-03T18:55:50+06:00,
1000000000377622,77072282858,mMTS,mAltel,mMTS,D07,D77,2017-05-03T18:55:35+06:00,
1000000000377624,77052226144,mMTS,mKarTel,mKarTel,,D77,2017-05-03T18:58:09+06:00,
1000000000377625,77007888505,mKcell,mAltel,mAltel,,D02,2017-05-03T18:58:17+06:00,
1000000000377626,77015311072,mMTS,mKcell,mKcell,,D77,2017-05-03T18:58:42+06:00,
1000000000377627,77784611878,mKarTel,mKcell,mKcell,,D01,2017-05-03T18:59:19+06:00,
1000000000377628,77083646525,mKcell,mAltel,mAltel,,D02,2017-05-03T18:59:43+06:00,
