NPId,Number,RecipientId,DonorId,RangeHolderId,OldRoute,NewRoute,PortDate,RowCount
1000000000294805,77014082514,mKarTel,mKcell,mKcell,,D01,2016-12-13T18:01:44+06:00,22
1000000000294806,77084308188,mMTS,mAltel,mAltel,,D77,2016-12-13T18:03:35+06:00,
1000000000294807,77775076868,mMTS,mKarTel,mKarTel,,D77,2016-12-13T18:05:42+06:00,
1000000000294808,77029999166,mKarTel,mKcell,mKcell,,D01,2016-12-13T18:06:32+06:00,
1000000000294809,77004001996,mKcell,mAltel,mAltel,,D02,2016-12-13T18:06:46+06:00,
1000000000294810,77758520381,mKarTel,mKcell,mKcell,,D01,2016-12-13T18:08:30+06:00,
1000000000294811,77714009825,mMTS,mKarTel,mKarTel,,D77,2016-12-13T18:08:43+06:00,
1000000000294812,77016096093,mKcell,mMTS,mKcell,D77,D02,2016-12-13T18:09:06+06:00,
1000000000294813,77075590283,mKcell,mMTS,mMTS,,D02,2016-12-13T18:09:25+06:00,
1000000000294814,77785451422,mMTS,mKcell,mKcell,,D77,2016-12-13T18:10:41+06:00,
1000000000294816,77754789015,mAltel,mKcell,mKcell,,D07,2016-12-13T18:14:46+06:00,
1000000000294818,77054519151,mAltel,mKarTel,mKarTel,,D07,2016-12-13T18:16:37+06:00,
1000000000294819,77017423308,mKarTel,mKcell,mKcell,,D01,2016-12-13T18:16:39+06:00,
1000000000294820,77085712597,mKcell,mAltel,mAltel,,D02,2016-12-13T18:16:54+06:00,
1000000000294821,77006076007,mKcell,mAltel,mAltel,,D02,2016-12-13T18:18:19+06:00,
1000000000294822,77014849277,mAltel,mKcell,mKcell,,D07,2016-12-13T18:19:00+06:00,
1000000000294825,77771141221,mMTS,mKarTel,mKarTel,,D77,2016-12-13T18:22:52+06:00,
1000000000294826,77072201991,mAltel,mMTS,mMTS,,D07,2016-12-13T18:23:05+06:00,
1000000000294827,77760932393,mKcell,mKarTel,mKarTel,,D02,2016-12-13T18:25:14+06:00,
1000000000294828,77021365836,mAltel,mKcell,mKcell,,D07,2016-12-13T18:25:26+06:00,
1000000000294829,77075594402,mMTS,mKarTel,mMTS,D01,D77,2016-12-13T18:26:44+06:00,
1000000000294830,77004000949,mKcell,mAltel,mAltel,,D02,2016-12-13T18:27:27+06:00,
