NPId,Number,RecipientId,DonorId,RangeHolderId,OldRoute,NewRoute,PortDate,RowCount
1000000000385634,77024928815,mMTS,mKcell,mKcell,,D77,2017-05-19T13:00:45+06:00,16
1000000000385635,77088000827,mKcell,mAltel,mAltel,,D02,2017-05-19T13:01:19+06:00,
1000000000385636,77053799570,mKarTel,mAltel,mKarTel,D07,D01,2017-05-19T13:01:44+06:00,
1000000000385637,77081230405,mMTS,mAltel,mAltel,,D77,2017-05-19T13:01:45+06:00,
1000000000385638,77782251575,mAltel,mKcell,mKcell,,D07,2017-05-19T13:04:18+06:00,
1000000000385639,77476684295,mKcell,mMTS,mMTS,,D02,2017-05-19T13:05:54+06:00,
1000000000385640,77028300256,mKarTel,mKcell,mKcell,,D01,2017-05-19T13:11:13+06:00,
1000000000385641,77755332211,mKarTel,mKcell,mKcell,,D01,2017-05-19T13:11:48+06:00,
1000000000385642,77072100051,mKcell,mMTS,mMTS,,D02,2017-05-19T13:15:09+06:00,
1000000000385644,77027082040,mKcell,mMTS,mKcell,D77,D02,2017-05-19T13:16:50+06:00,
1000000000385645,77027585604,mKarTel,mMTS,mKcell,D77,D01,2017-05-19T13:17:49+06:00,
1000000000385646,77779481406,mMTS,mKarTel,mKarTel,,D77,2017-05-19T13:18:20+06:00,
1000000000385648,77711110530,mKarTel,mKcell,mKarTel,D02,D01,2017-05-19T13:21:19+06:00,
1000000000385649,77081152121,mMTS,mAltel,mAltel,,D77,2017-05-19T13:21:27+06:00,
1000000000385650,77757772133,mMTS,mKcell,mKcell,,D77,2017-05-19T13:22:49+06:00,
1000000000385652,77476806917,mKcell,mMTS,mMTS,,D02,2017-05-19T13:26:27+06:00,
