NPId,Number,RecipientId,DonorId,RangeHolderId,OldRoute,NewRoute,PortDate,RowCount
1000000000182518,77009992272,mMTS,mAltel,mAltel,,D77,2016-05-27T21:02:48+06:00,3
1000000000182519,77056610230,mKcell,mKarTel,mKarTel,,D02,2016-05-27T21:09:30+06:00,
1000000000182520,77017342158,mMTS,mKcell,mKcell,,D77,2016-05-27T21:27:53+06:00,
