NPId,Number,RecipientId,DonorId,RangeHolderId,OldRoute,NewRoute,PortDate,RowCount
1000000000174547,77016264932,mKarTel,mKcell,mKcell,,D01,2016-05-15T14:02:40+06:00,13
1000000000174548,77751998989,mKarTel,mKcell,mKcell,,D01,2016-05-15T14:03:54+06:00,
1000000000174550,77772298924,mAltel,mKarTel,mKarTel,,D07,2016-05-15T14:09:59+06:00,
1000000000174551,77787065252,mMTS,mKcell,mKcell,,D77,2016-05-15T14:10:10+06:00,
1000000000174552,77053784888,mMTS,mKarTel,mKarTel,,D77,2016-05-15T14:11:59+06:00,
1000000000174553,77015057811,mKarTel,mAltel,mKcell,D07,D01,2016-05-15T14:12:16+06:00,
1000000000174554,77089149516,mMTS,mAltel,mAltel,,D77,2016-05-15T14:12:01+06:00,
1000000000174556,77005476362,mMTS,mAltel,mAltel,,D77,2016-05-15T14:16:00+06:00,
1000000000174557,77015216215,mKarTel,mAltel,mKcell,D07,D01,2016-05-15T14:16:57+06:00,
1000000000174558,77789788778,mMTS,mKcell,mKcell,,D77,2016-05-15T14:18:17+06:00,
1000000000174559,77028628411,mAltel,mKcell,mKcell,,D07,2016-05-15T14:21:27+06:00,
1000000000174560,77087590169,mMTS,mAltel,mAltel,,D77,2016-05-15T14:23:14+06:00,
1000000000174563,77078454880,mMTS,mAltel,mMTS,D07,D77,2016-05-15T14:27:03+06:00,
