NPId,Number,RecipientId,DonorId,RangeHolderId,OldRoute,NewRoute,PortDate,RowCount
1000000000100493,77712938528,mKcell,mKarTel,mKarTel,,D02,2016-02-26T20:00:31+06:00,16
1000000000100494,77077797799,mKcell,mMTS,mMTS,,D02,2016-02-26T20:00:31+06:00,
1000000000100495,77051443434,mAltel,mKarTel,mKarTel,,D07,2016-02-26T20:01:02+06:00,
1000000000100496,77712938533,mKcell,mKarTel,mKarTel,,D02,2016-02-26T20:04:17+06:00,
1000000000100497,77712938534,mKcell,mKarTel,mKarTel,,D02,2016-02-26T20:07:35+06:00,
1000000000100498,77712938343,mKcell,mKarTel,mKarTel,,D02,2016-02-26T20:09:19+06:00,
1000000000100499,77712938344,mKcell,mKarTel,mKarTel,,D02,2016-02-26T20:10:38+06:00,
1000000000100500,77712938346,mKcell,mKarTel,mKarTel,,D02,2016-02-26T20:12:03+06:00,
1000000000100501,77712938347,mKcell,mKarTel,mKarTel,,D02,2016-02-26T20:14:55+06:00,
1000000000100502,77712938337,mKcell,mKarTel,mKarTel,,D02,2016-02-26T20:16:40+06:00,
1000000000100504,77712938336,mKcell,mKarTel,mKarTel,,D02,2016-02-26T20:18:03+06:00,
1000000000100505,77476307354,mKcell,mMTS,mMTS,,D02,2016-02-26T20:18:25+06:00,
1000000000100506,77013960105,mMTS,mKcell,mKcell,,D77,2016-02-26T20:18:15+06:00,
1000000000100507,77712938527,mKcell,mKarTel,mKarTel,,D02,2016-02-26T20:20:11+06:00,
1000000000100508,77476307410,mKcell,mMTS,mMTS,,D02,2016-02-26T20:28:07+06:00,
1000000000100509,77773712770,mMTS,mKarTel,mKarTel,,D77,2016-02-26T20:29:59+06:00,
