NPId,Number,RecipientId,DonorId,RangeHolderId,OldRoute,NewRoute,PortDate,RowCount
1000000000387938,77016355077,mKcell,mKarTel,mKcell,D01,D02,2017-05-23T19:01:10+06:00,12
1000000000387939,77016181624,mAltel,mKcell,mKcell,,D07,2017-05-23T19:01:14+06:00,
1000000000387940,77019792011,mKarTel,mKcell,mKcell,,D01,2017-05-23T19:02:51+06:00,
1000000000387942,77019398829,mKcell,mAltel,mKcell,D07,D02,2017-05-23T19:04:42+06:00,
1000000000387943,77777975002,mMTS,mKarTel,mKarTel,,D77,2017-05-23T19:06:13+06:00,
1000000000387945,77777333338,mKcell,mKarTel,mKarTel,,D02,2017-05-23T19:08:02+06:00,
1000000000387946,77771142444,mAltel,mMTS,mKarTel,D77,D07,2017-05-23T19:09:41+06:00,
1000000000387947,77757158961,mAltel,mKcell,mKcell,,D07,2017-05-23T19:13:31+06:00,
1000000000387948,77071592439,mKarTel,mMTS,mMTS,,D01,2017-05-23T19:16:31+06:00,
1000000000387949,77774442233,mKcell,mKarTel,mKarTel,,D02,2017-05-23T19:21:41+06:00,
1000000000387950,77788900089,mMTS,mKcell,mKcell,,D77,2017-05-23T19:23:43+06:00,
1000000000387951,77078401830,mKcell,mMTS,mMTS,,D02,2017-05-23T19:24:33+06:00,
