NPId,Number,RecipientId,DonorId,RangeHolderId,OldRoute,NewRoute,PortDate,RowCount
1000000000315158,77474129391,mMTS,mKarTel,mMTS,D01,D77,2017-01-24T12:37:12+06:00,22
1000000000315348,77710488888,mKcell,mKarTel,mKarTel,,D02,2017-01-24T12:31:27+06:00,
1000000000315594,77774014646,mKcell,mKarTel,mKarTel,,D02,2017-01-24T12:34:22+06:00,
1000000000315603,77772577980,mKcell,mKarTel,mKarTel,,D02,2017-01-24T12:44:42+06:00,
1000000000315604,77764488877,mKarTel,mMTS,mKarTel,D77,D01,2017-01-24T12:32:06+06:00,
1000000000315605,77073028577,mMTS,mKcell,mMTS,D02,D77,2017-01-24T12:33:28+06:00,
1000000000315606,77028710053,mKcell,mMTS,mKcell,D77,D02,2017-01-24T12:33:57+06:00,
1000000000315608,77073311661,mMTS,mAltel,mMTS,D07,D77,2017-01-24T12:35:09+06:00,
1000000000315610,77028710054,mKcell,mMTS,mKcell,D77,D02,2017-01-24T12:39:28+06:00,
1000000000315613,77789524835,mMTS,mKcell,mKcell,,D77,2017-01-24T12:43:13+06:00,
1000000000315614,77059541510,mKarTel,mMTS,mKarTel,D77,D01,2017-01-24T12:42:56+06:00,
1000000000315615,77023333253,mKcell,mKarTel,mKcell,D01,D02,2017-01-24T12:44:44+06:00,
1000000000315616,77757905338,mMTS,mKcell,mKcell,,D77,2017-01-24T12:44:22+06:00,
1000000000315617,77082040705,mMTS,mAltel,mAltel,,D77,2017-01-24T12:46:06+06:00,
1000000000315619,77054202586,mAltel,mKarTel,mKarTel,,D07,2017-01-24T12:48:25+06:00,
1000000000315620,77085419176,mKarTel,mAltel,mAltel,,D01,2017-01-24T12:48:49+06:00,
1000000000315622,77781116662,mKcell,mKarTel,mKcell,D01,D02,2017-01-24T12:49:22+06:00,
1000000000315624,77082040706,mMTS,mAltel,mAltel,,D77,2017-01-24T12:52:07+06:00,
1000000000315625,77753852059,mMTS,mKcell,mKcell,,D77,2017-01-24T12:57:10+06:00,
1000000000315626,77782705931,mMTS,mKcell,mKcell,,D77,2017-01-24T12:57:15+06:00,
1000000000315628,77783399353,mMTS,mKcell,mKcell,,D77,2017-01-24T12:57:50+06:00,
1000000000315631,77753669181,mMTS,mKcell,mKcell,,D77,2017-01-24T12:59:13+06:00,
