NPId,Number,RecipientId,DonorId,RangeHolderId,OldRoute,NewRoute,PortDate,RowCount
1000000000377114,77783622220,mMTS,mKcell,mKcell,,D77,2017-05-03T12:30:16+06:00,29
1000000000377115,77083595499,mMTS,mAltel,mAltel,,D77,2017-05-03T12:30:09+06:00,
1000000000377116,77016900969,mAltel,mKcell,mKcell,,D07,2017-05-03T12:32:08+06:00,
1000000000377117,77015278842,mMTS,mKcell,mKcell,,D77,2017-05-03T12:32:28+06:00,
1000000000377120,77012260605,mKarTel,mKcell,mKcell,,D01,2017-05-03T12:33:53+06:00,
1000000000377121,77055850025,mMTS,mKarTel,mKarTel,,D77,2017-05-03T12:35:52+06:00,
1000000000377122,77051675800,mKcell,mKarTel,mKarTel,,D02,2017-05-03T12:36:11+06:00,
1000000000377123,77082793062,mKcell,mAltel,mAltel,,D02,2017-05-03T12:36:17+06:00,
1000000000377124,77716089944,mMTS,mKarTel,mKarTel,,D77,2017-05-03T12:37:53+06:00,
1000000000377125,77778780779,mAltel,mKarTel,mKarTel,,D07,2017-05-03T12:38:46+06:00,
1000000000377127,77004900494,mKcell,mAltel,mAltel,,D02,2017-05-03T12:40:05+06:00,
1000000000377128,77070408200,mKarTel,mMTS,mMTS,,D01,2017-05-03T12:40:34+06:00,
1000000000377128,77070408201,mKarTel,mMTS,mMTS,,D01,2017-05-03T12:40:34+06:00,
1000000000377128,77070409818,mKarTel,mMTS,mMTS,,D01,2017-05-03T12:40:34+06:00,
1000000000377129,77016014550,mMTS,mKcell,mKcell,,D77,2017-05-03T12:40:37+06:00,
1000000000377130,77026902377,mAltel,mKcell,mKcell,,D07,2017-05-03T12:42:27+06:00,
1000000000377131,77015885677,mAltel,mKcell,mKcell,,D07,2017-05-03T12:43:49+06:00,
1000000000377132,77011100699,mKarTel,mKcell,mKcell,,D01,2017-05-03T12:44:28+06:00,
1000000000377133,77059832696,mMTS,mKarTel,mKarTel,,D77,2017-05-03T12:45:01+06:00,
1000000000377134,77017753558,mAltel,mKcell,mKcell,,D07,2017-05-03T12:45:01+06:00,
1000000000377135,77754152548,mKcell,mAltel,mKcell,D07,D02,2017-05-03T12:45:52+06:00,
1000000000377136,77754522213,mMTS,mKcell,mKcell,,D77,2017-05-03T12:46:05+06:00,
1000000000377139,77769973436,mMTS,mKarTel,mKarTel,,D77,2017-05-03T12:49:10+06:00,
1000000000377140,77773240024,mMTS,mKarTel,mKarTel,,D77,2017-05-03T12:49:53+06:00,
1000000000377141,77075284900,mKcell,mMTS,mMTS,,D02,2017-05-03T12:52:18+06:00,
1000000000377142,77782260000,mAltel,mKcell,mKcell,,D07,2017-05-03T12:53:59+06:00,
1000000000377144,77011157100,mMTS,mKcell,mKcell,,D77,2017-05-03T12:56:21+06:00,
1000000000377146,77471313094,mKcell,mMTS,mMTS,,D02,2017-05-03T12:59:09+06:00,
1000000000377147,77021790685,mAltel,mKcell,mKcell,,D07,2017-05-03T12:59:57+06:00,
