NPId,Number,RecipientId,DonorId,RangeHolderId,OldRoute,NewRoute,PortDate,RowCount
1000000000249990,77019899808,mKarTel,mKcell,mKcell,,D01,2016-09-23T14:04:00+06:00,17
1000000000249991,77763544141,mAltel,mKarTel,mKarTel,,D07,2016-09-23T14:05:52+06:00,
1000000000249992,77758899220,mMTS,mKcell,mKcell,D02,D77,2016-09-23T14:04:07+06:00,
1000000000249994,77052089394,mMTS,mKarTel,mKarTel,,D77,2016-09-23T14:08:42+06:00,
1000000000249996,77017855236,mMTS,mKcell,mKcell,,D77,2016-09-23T14:09:30+06:00,
1000000000249997,77022509677,mMTS,mKcell,mKcell,,D77,2016-09-23T14:10:05+06:00,
1000000000249998,77785527232,mMTS,mKcell,mKcell,,D77,2016-09-23T14:10:10+06:00,
1000000000249999,77012939293,mAltel,mKcell,mKcell,,D07,2016-09-23T14:10:11+06:00,
1000000000250000,77012500556,mKarTel,mKcell,mKcell,,D01,2016-09-23T14:13:09+06:00,
1000000000250001,77014212121,mMTS,mKcell,mKcell,,D77,2016-09-23T14:12:28+06:00,
1000000000250002,77714797708,mMTS,mKarTel,mKarTel,,D77,2016-09-23T14:17:49+06:00,
1000000000250004,77029868800,mKcell,mMTS,mKcell,D77,D02,2016-09-23T14:20:31+06:00,
1000000000250005,77017161859,mKcell,mMTS,mKcell,D77,D02,2016-09-23T14:21:48+06:00,
1000000000250006,77012986645,mMTS,mKcell,mKcell,,D77,2016-09-23T14:22:31+06:00,
1000000000250007,77075180299,mAltel,mMTS,mMTS,,D07,2016-09-23T14:23:18+06:00,
1000000000250010,77016075038,mAltel,mKcell,mKcell,,D07,2016-09-23T14:26:21+06:00,
1000000000250011,77025786888,mMTS,mAltel,mKcell,D07,D77,2016-09-23T14:27:26+06:00,
