NPId,Number,RecipientId,DonorId,RangeHolderId,OldRoute,NewRoute,PortDate,RowCount
1000000000162132,77012033711,mKarTel,mKcell,mKcell,,D01,2016-04-28T10:19:43+06:00,28
1000000000162133,77014368874,mKarTel,mKcell,mKcell,,D01,2016-04-28T10:12:24+06:00,
1000000000162136,77754607778,mKarTel,mKcell,mKcell,,D01,2016-04-28T10:14:22+06:00,
1000000000162137,77019911590,mKarTel,mKcell,mKcell,,D01,2016-04-28T10:20:32+06:00,
1000000000162138,77029852002,mKcell,mMTS,mKcell,D77,D02,2016-04-28T10:02:11+06:00,
1000000000162139,77075287788,mMTS,mKcell,mMTS,D02,D77,2016-04-28T10:02:29+06:00,
1000000000162141,77071222273,mMTS,mAltel,mMTS,D07,D77,2016-04-28T10:01:59+06:00,
1000000000162142,77073133001,mMTS,mAltel,mMTS,D07,D77,2016-04-28T10:01:59+06:00,
1000000000162143,77027444428,mMTS,mKcell,mKcell,,D77,2016-04-28T10:02:29+06:00,
1000000000162144,77011522938,mMTS,mKcell,mKcell,,D77,2016-04-28T10:02:29+06:00,
1000000000162145,77015779226,mMTS,mKcell,mKcell,,D77,2016-04-28T10:02:29+06:00,
1000000000162148,77019513536,mAltel,mKcell,mKcell,,D07,2016-04-28T10:05:27+06:00,
1000000000162149,77004842781,mMTS,mAltel,mAltel,,D77,2016-04-28T10:04:51+06:00,
1000000000162150,77087717227,mMTS,mAltel,mAltel,,D77,2016-04-28T10:06:59+06:00,
1000000000162151,77009919525,mMTS,mAltel,mAltel,,D77,2016-04-28T10:08:42+06:00,
1000000000162153,77017430015,mMTS,mKcell,mKcell,,D77,2016-04-28T10:11:02+06:00,
1000000000162154,77772318807,mKcell,mKarTel,mKarTel,,D02,2016-04-28T10:12:16+06:00,
1000000000162155,77017116202,mKcell,mAltel,mKcell,D07,D02,2016-04-28T10:12:45+06:00,
1000000000162156,77005435585,mKcell,mAltel,mAltel,,D02,2016-04-28T10:18:15+06:00,
1000000000162157,77053788316,mMTS,mKarTel,mKarTel,,D77,2016-04-28T10:18:43+06:00,
1000000000162158,77081119668,mMTS,mAltel,mAltel,,D77,2016-04-28T10:18:28+06:00,
1000000000162159,77012522521,mMTS,mKcell,mKcell,,D77,2016-04-28T10:19:23+06:00,
1000000000162160,77754884344,mMTS,mKcell,mKcell,,D77,2016-04-28T10:22:20+06:00,
1000000000162161,77009734873,mMTS,mAltel,mAltel,,D77,2016-04-28T10:22:20+06:00,
1000000000162162,77052223733,mAltel,mKarTel,mKarTel,,D07,2016-04-28T10:23:15+06:00,
1000000000162163,77081141444,mKcell,mAltel,mAltel,,D02,2016-04-28T10:24:06+06:00,
1000000000162164,77710550506,mMTS,mKarTel,mKarTel,,D77,2016-04-28T10:25:50+06:00,
1000000000162165,77022720055,mKcell,mAltel,mKcell,D07,D02,2016-04-28T10:26:41+06:00,
