NPId,Number,RecipientId,DonorId,RangeHolderId,OldRoute,NewRoute,PortDate,RowCount
1000000000234248,77777579498,mMTS,mKarTel,mKarTel,,D77,2016-08-25T20:07:10+06:00,4
1000000000234250,77785110009,mKarTel,mKcell,mKcell,,D01,2016-08-25T20:12:11+06:00,
1000000000234251,77017110443,mMTS,mKcell,mKcell,,D77,2016-08-25T20:12:27+06:00,
1000000000234252,77777799666,mKcell,mKarTel,mKarTel,,D02,2016-08-25T20:16:54+06:00,
