NPId,Number,RecipientId,DonorId,RangeHolderId,OldRoute,NewRoute,PortDate,RowCount
1000000000407174,77074003020,mKarTel,mMTS,mMTS,,D01,2017-06-21T20:01:26+06:00,5
1000000000407175,77072225561,mKcell,mMTS,mMTS,,D02,2017-06-21T20:08:35+06:00,
1000000000407176,77007777082,mMTS,mAltel,mAltel,,D77,2017-06-21T20:10:02+06:00,
1000000000407177,77071210788,mKarTel,mMTS,mMTS,,D01,2017-06-21T20:15:25+06:00,
1000000000407178,77021000859,mKarTel,mKcell,mKcell,,D01,2017-06-21T20:23:21+06:00,
