NPId,Number,RecipientId,DonorId,RangeHolderId,OldRoute,NewRoute,PortDate,RowCount
1000000000359162,77717056646,mKarTel,mKcell,mKarTel,D02,D01,2017-04-04T12:36:57+06:00,62
1000000000359162,77717056652,mKarTel,mKcell,mKarTel,D02,D01,2017-04-04T12:36:57+06:00,
1000000000359162,77717056659,mKarTel,mKcell,mKarTel,D02,D01,2017-04-04T12:36:57+06:00,
1000000000359162,77717056669,mKarTel,mKcell,mKarTel,D02,D01,2017-04-04T12:36:57+06:00,
1000000000359162,77717057211,mKarTel,mKcell,mKarTel,D02,D01,2017-04-04T12:36:57+06:00,
1000000000359162,77717057219,mKarTel,mKcell,mKarTel,D02,D01,2017-04-04T12:36:57+06:00,
1000000000359162,77717057225,mKarTel,mKcell,mKarTel,D02,D01,2017-04-04T12:36:57+06:00,
1000000000359162,77717057278,mKarTel,mKcell,mKarTel,D02,D01,2017-04-04T12:36:57+06:00,
1000000000359162,77717057284,mKarTel,mKcell,mKarTel,D02,D01,2017-04-04T12:36:57+06:00,
1000000000359162,77717059729,mKarTel,mKcell,mKarTel,D02,D01,2017-04-04T12:36:57+06:00,
1000000000359162,77717059736,mKarTel,mKcell,mKarTel,D02,D01,2017-04-04T12:36:57+06:00,
1000000000359162,77717059737,mKarTel,mKcell,mKarTel,D02,D01,2017-04-04T12:36:57+06:00,
1000000000359162,77717059739,mKarTel,mKcell,mKarTel,D02,D01,2017-04-04T12:36:57+06:00,
1000000000359162,77717059741,mKarTel,mKcell,mKarTel,D02,D01,2017-04-04T12:36:57+06:00,
1000000000359162,77717059749,mKarTel,mKcell,mKarTel,D02,D01,2017-04-04T12:36:57+06:00,
1000000000359162,77717581350,mKarTel,mKcell,mKarTel,D02,D01,2017-04-04T12:36:57+06:00,
1000000000359162,77717587697,mKarTel,mKcell,mKarTel,D02,D01,2017-04-04T12:36:57+06:00,
1000000000359162,77717588404,mKarTel,mKcell,mKarTel,D02,D01,2017-04-04T12:36:57+06:00,
1000000000359162,77717588415,mKarTel,mKcell,mKarTel,D02,D01,2017-04-04T12:36:57+06:00,
1000000000359162,77717588417,mKarTel,mKcell,mKarTel,D02,D01,2017-04-04T12:36:57+06:00,
1000000000359162,77717588421,mKarTel,mKcell,mKarTel,D02,D01,2017-04-04T12:36:57+06:00,
1000000000359162,77717588425,mKarTel,mKcell,mKarTel,D02,D01,2017-04-04T12:36:57+06:00,
1000000000359162,77717588427,mKarTel,mKcell,mKarTel,D02,D01,2017-04-04T12:36:57+06:00,
1000000000359162,77717588435,mKarTel,mKcell,mKarTel,D02,D01,2017-04-04T12:36:57+06:00,
1000000000359162,77717588436,mKarTel,mKcell,mKarTel,D02,D01,2017-04-04T12:36:57+06:00,
1000000000359162,77717588437,mKarTel,mKcell,mKarTel,D02,D01,2017-04-04T12:36:57+06:00,
1000000000359162,77717588438,mKarTel,mKcell,mKarTel,D02,D01,2017-04-04T12:36:57+06:00,
1000000000359162,77717588439,mKarTel,mKcell,mKarTel,D02,D01,2017-04-04T12:36:57+06:00,
1000000000359162,77717588450,mKarTel,mKcell,mKarTel,D02,D01,2017-04-04T12:36:57+06:00,
1000000000359162,77717588451,mKarTel,mKcell,mKarTel,D02,D01,2017-04-04T12:36:57+06:00,
1000000000359162,77717588452,mKarTel,mKcell,mKarTel,D02,D01,2017-04-04T12:36:57+06:00,
1000000000359162,77717588453,mKarTel,mKcell,mKarTel,D02,D01,2017-04-04T12:36:57+06:00,
1000000000359162,77770614101,mKarTel,mKcell,mKarTel,D02,D01,2017-04-04T12:36:57+06:00,
1000000000359320,77059977007,mMTS,mKarTel,mKarTel,,D77,2017-04-04T12:32:12+06:00,
1000000000359321,77770019101,mKcell,mKarTel,mKarTel,,D02,2017-04-04T12:35:09+06:00,
1000000000359322,77772420003,mKcell,mKarTel,mKarTel,,D02,2017-04-04T12:35:09+06:00,
1000000000359323,77021381921,mAltel,mKcell,mKcell,,D07,2017-04-04T12:34:56+06:00,
1000000000359324,77788888281,mAltel,mKcell,mKcell,,D07,2017-04-04T12:35:28+06:00,
1000000000359326,77473331908,mKarTel,mMTS,mMTS,,D01,2017-04-04T12:41:25+06:00,
1000000000359327,77082912919,mKcell,mAltel,mAltel,,D02,2017-04-04T12:41:36+06:00,
1000000000359328,77713614795,mKcell,mKarTel,mKarTel,,D02,2017-04-04T12:42:52+06:00,
1000000000359329,77789886666,mKarTel,mKcell,mKcell,,D01,2017-04-04T12:43:30+06:00,
1000000000359331,77474955144,mAltel,mMTS,mMTS,,D07,2017-04-04T12:43:41+06:00,
1000000000359332,77765756565,mKarTel,mMTS,mKarTel,D77,D01,2017-04-04T12:46:44+06:00,
1000000000359333,77756666688,mMTS,mKcell,mKcell,,D77,2017-04-04T12:46:52+06:00,
1000000000359335,77052431394,mMTS,mKarTel,mKarTel,,D77,2017-04-04T12:48:06+06:00,
1000000000359337,77004448983,mKcell,mAltel,mAltel,,D02,2017-04-04T12:49:05+06:00,
1000000000359339,77015207676,mKcell,mKarTel,mKcell,D01,D02,2017-04-04T12:50:28+06:00,
1000000000359340,77788885750,mKarTel,mKcell,mKcell,,D01,2017-04-04T12:50:51+06:00,
1000000000359341,77051843309,mKarTel,mMTS,mKarTel,D77,D01,2017-04-04T12:52:29+06:00,
1000000000359342,77072212041,mMTS,mKcell,mMTS,D02,D77,2017-04-04T12:52:52+06:00,
1000000000359343,77055119115,mKarTel,mAltel,mKarTel,D07,D01,2017-04-04T12:53:14+06:00,
1000000000359344,77762268985,mAltel,mKarTel,mKarTel,,D07,2017-04-04T12:54:09+06:00,
1000000000359345,77785959696,mKcell,mMTS,mKcell,D77,D02,2017-04-04T12:54:22+06:00,
1000000000359346,77771260606,mKarTel,mMTS,mKarTel,D77,D01,2017-04-04T12:55:13+06:00,
1000000000359347,77083139048,mKcell,mAltel,mAltel,,D02,2017-04-04T12:55:38+06:00,
1000000000359348,77076347958,mAltel,mMTS,mMTS,,D07,2017-04-04T12:55:32+06:00,
1000000000359349,77058005000,mKcell,mKarTel,mKarTel,,D02,2017-04-04T12:56:49+06:00,
1000000000359350,77752965366,mKcell,mMTS,mKcell,D77,D02,2017-04-04T12:56:37+06:00,
1000000000359351,77028255550,mKcell,mMTS,mKcell,D77,D02,2017-04-04T12:57:47+06:00,
1000000000359352,77077701640,mKarTel,mKcell,mMTS,D02,D01,2017-04-04T12:59:42+06:00,
1000000000359353,77014959562,mMTS,mKcell,mKcell,,D77,2017-04-04T12:59:28+06:00,
