NPId,Number,RecipientId,DonorId,RangeHolderId,OldRoute,NewRoute,PortDate,RowCount
1000000000407797,77017854012,mMTS,mKcell,mKcell,D02,D77,2017-06-22T19:30:16+06:00,9
1000000000407798,77015556659,mKcell,mAltel,mKcell,D07,D02,2017-06-22T19:30:28+06:00,
1000000000407799,77013960840,mAltel,mKcell,mKcell,,D07,2017-06-22T19:31:03+06:00,
1000000000407800,77778822274,mKarTel,mKcell,mKarTel,D02,D01,2017-06-22T19:35:31+06:00,
1000000000407801,77777707172,mKcell,mKarTel,mKarTel,,D02,2017-06-22T19:37:01+06:00,
1000000000407802,77075662616,mMTS,mAltel,mMTS,D07,D77,2017-06-22T19:36:36+06:00,
1000000000407803,77779990635,mMTS,mKarTel,mKarTel,,D77,2017-06-22T19:48:56+06:00,
1000000000407804,77769992899,mKcell,mKarTel,mKarTel,,D02,2017-06-22T19:52:58+06:00,
1000000000407805,77011351205,mKcell,mAltel,mKcell,D07,D02,2017-06-22T19:56:54+06:00,
