NPId,Number,RecipientId,DonorId,RangeHolderId,OldRoute,NewRoute,PortDate,RowCount
1000000000397276,77013182322,mKcell,mAltel,mKcell,D07,D02,2017-06-04T18:34:53+06:00,11
1000000000397277,77015665839,mKcell,mMTS,mKcell,D77,D02,2017-06-04T18:37:19+06:00,
1000000000397278,77015038941,mKarTel,mKcell,mKcell,,D01,2017-06-04T18:41:31+06:00,
1000000000397279,77079660666,mKcell,mMTS,mMTS,,D02,2017-06-04T18:42:12+06:00,
1000000000397280,77021118693,mKcell,mMTS,mKcell,D77,D02,2017-06-04T18:46:00+06:00,
1000000000397282,77021111377,mKcell,mAltel,mKcell,D07,D02,2017-06-04T18:50:10+06:00,
1000000000397283,77472201506,mKarTel,mMTS,mMTS,,D01,2017-06-04T18:50:46+06:00,
1000000000397285,77051922101,mKarTel,mAltel,mKarTel,D07,D01,2017-06-04T18:58:04+06:00,
1000000000397286,77476145508,mAltel,mMTS,mMTS,,D07,2017-06-04T18:57:53+06:00,
1000000000397287,77789305653,mKcell,mMTS,mKcell,D77,D02,2017-06-04T18:58:24+06:00,
1000000000397288,77072595501,mKarTel,mAltel,mMTS,D07,D01,2017-06-04T18:59:34+06:00,
