NPId,Number,RecipientId,DonorId,RangeHolderId,OldRoute,NewRoute,PortDate,RowCount
1000000000149166,77757616045,mMTS,mKcell,mKcell,,D77,2016-04-11T18:30:28+06:00,51
1000000000149167,77087429185,mKcell,mAltel,mAltel,,D02,2016-04-11T18:31:06+06:00,
1000000000149168,77087429329,mKcell,mAltel,mAltel,,D02,2016-04-11T18:31:05+06:00,
1000000000149169,77057567558,mMTS,mKarTel,mKarTel,,D77,2016-04-11T18:32:08+06:00,
1000000000149170,77771732949,mMTS,mKarTel,mKarTel,,D77,2016-04-11T18:32:45+06:00,
1000000000149171,77087001487,mMTS,mAltel,mAltel,,D77,2016-04-11T18:31:17+06:00,
1000000000149172,77026090404,mMTS,mKcell,mKcell,,D77,2016-04-11T18:32:30+06:00,
1000000000149173,77072970707,mMTS,mAltel,mMTS,D07,D77,2016-04-11T18:32:31+06:00,
1000000000149174,77087429188,mKcell,mAltel,mAltel,,D02,2016-04-11T18:33:30+06:00,
1000000000149175,77087427958,mKcell,mAltel,mAltel,,D02,2016-04-11T18:34:04+06:00,
1000000000149178,77058776666,mAltel,mKarTel,mKarTel,,D07,2016-04-11T18:36:10+06:00,
1000000000149179,77775725088,mKcell,mKarTel,mKarTel,,D02,2016-04-11T18:37:20+06:00,
1000000000149180,77087618460,mMTS,mAltel,mAltel,,D77,2016-04-11T18:35:21+06:00,
1000000000149181,77015255943,mMTS,mKcell,mKcell,,D77,2016-04-11T18:35:40+06:00,
1000000000149182,77011512722,mMTS,mKcell,mKcell,,D77,2016-04-11T18:35:40+06:00,
1000000000149183,77087427959,mKcell,mAltel,mAltel,,D02,2016-04-11T18:36:16+06:00,
1000000000149185,77015601777,mMTS,mKcell,mKcell,,D77,2016-04-11T18:36:06+06:00,
1000000000149186,77087429189,mKcell,mAltel,mAltel,,D02,2016-04-11T18:36:43+06:00,
1000000000149187,77089471813,mMTS,mAltel,mAltel,,D77,2016-04-11T18:35:51+06:00,
1000000000149190,77770666691,mMTS,mKarTel,mKarTel,,D77,2016-04-11T18:39:16+06:00,
1000000000149191,77012970707,mMTS,mAltel,mKcell,D07,D77,2016-04-11T18:37:41+06:00,
1000000000149192,77756006691,mMTS,mKcell,mKcell,,D77,2016-04-11T18:40:15+06:00,
1000000000149193,77087428067,mKcell,mAltel,mAltel,,D02,2016-04-11T18:40:33+06:00,
1000000000149194,77775773755,mKarTel,mAltel,mKarTel,D07,D01,2016-04-11T18:39:54+06:00,
1000000000149196,77087427920,mKcell,mAltel,mAltel,,D02,2016-04-11T18:41:03+06:00,
1000000000149197,77087427972,mKcell,mAltel,mAltel,,D02,2016-04-11T18:41:50+06:00,
1000000000149198,77055511035,mMTS,mKarTel,mKarTel,,D77,2016-04-11T18:42:06+06:00,
1000000000149199,77765366555,mKcell,mKarTel,mKarTel,,D02,2016-04-11T18:43:13+06:00,
1000000000149200,77078364807,mKarTel,mMTS,mMTS,,D01,2016-04-11T18:42:00+06:00,
1000000000149203,77053242222,mAltel,mKarTel,mKarTel,,D07,2016-04-11T18:43:29+06:00,
1000000000149204,77478564628,mMTS,mAltel,mMTS,D07,D77,2016-04-11T18:42:05+06:00,
1000000000149205,77087427918,mKcell,mAltel,mAltel,,D02,2016-04-11T18:43:13+06:00,
1000000000149206,77087429275,mKcell,mAltel,mAltel,,D02,2016-04-11T18:43:34+06:00,
1000000000149208,77051100123,mMTS,mKarTel,mKarTel,,D77,2016-04-11T18:44:56+06:00,
1000000000149210,77013656563,mMTS,mKcell,mKcell,,D77,2016-04-11T18:44:33+06:00,
1000000000149211,77087427921,mKcell,mAltel,mAltel,,D02,2016-04-11T18:44:58+06:00,
1000000000149212,77087429276,mKcell,mAltel,mAltel,,D02,2016-04-11T18:45:14+06:00,
1000000000149213,77082988088,mMTS,mAltel,mAltel,,D77,2016-04-11T18:45:52+06:00,
1000000000149215,77759119090,mMTS,mKcell,mKcell,,D77,2016-04-11T18:47:35+06:00,
1000000000149216,77087427922,mKcell,mAltel,mAltel,,D02,2016-04-11T18:48:24+06:00,
1000000000149217,77016077009,mMTS,mKcell,mKcell,,D77,2016-04-11T18:48:28+06:00,
1000000000149218,77087429164,mKcell,mAltel,mAltel,,D02,2016-04-11T18:48:33+06:00,
1000000000149219,77019858355,mKcell,mAltel,mKcell,D07,D02,2016-04-11T18:48:50+06:00,
1000000000149220,77087429166,mKcell,mAltel,mAltel,,D02,2016-04-11T18:48:50+06:00,
1000000000149222,77088860007,mKcell,mAltel,mAltel,,D02,2016-04-11T18:52:29+06:00,
1000000000149224,77755136489,mAltel,mKcell,mKcell,,D07,2016-04-11T18:52:26+06:00,
1000000000149225,77028410872,mMTS,mAltel,mKcell,D07,D77,2016-04-11T18:53:12+06:00,
1000000000149228,77082304091,mKarTel,mAltel,mAltel,,D01,2016-04-11T18:56:55+06:00,
1000000000149230,77085271594,mMTS,mAltel,mAltel,,D77,2016-04-11T18:56:26+06:00,
1000000000149231,77785222234,mMTS,mAltel,mKcell,D07,D77,2016-04-11T18:57:42+06:00,
1000000000149232,77005134260,mKcell,mAltel,mAltel,,D02,2016-04-11T18:58:46+06:00,
