NPId,Number,RecipientId,DonorId,RangeHolderId,OldRoute,NewRoute,PortDate,RowCount
1000000000252211,77075559859,mKarTel,mMTS,mMTS,,D01,2016-09-27T17:31:22+06:00,27
1000000000252212,77754169645,mMTS,mKcell,mKcell,,D77,2016-09-27T17:31:41+06:00,
1000000000252213,77762060646,mMTS,mKarTel,mKarTel,,D77,2016-09-27T17:32:55+06:00,
1000000000252215,77787855582,mKarTel,mKcell,mKcell,,D01,2016-09-27T17:33:41+06:00,
1000000000252216,77027220590,mMTS,mKcell,mKcell,,D77,2016-09-27T17:34:58+06:00,
1000000000252218,77053784854,mMTS,mKarTel,mKarTel,,D77,2016-09-27T17:36:13+06:00,
1000000000252219,77055756081,mAltel,mKarTel,mKarTel,,D07,2016-09-27T17:36:24+06:00,
1000000000252220,77762071972,mMTS,mKarTel,mKarTel,,D77,2016-09-27T17:38:02+06:00,
1000000000252222,77019992376,mKcell,mAltel,mKcell,D07,D02,2016-09-27T17:38:17+06:00,
1000000000252223,77078390197,mAltel,mMTS,mMTS,,D07,2016-09-27T17:38:24+06:00,
1000000000252224,77775580331,mKarTel,mAltel,mKarTel,D07,D01,2016-09-27T17:39:01+06:00,
1000000000252225,77072429993,mKcell,mAltel,mMTS,D07,D02,2016-09-27T17:40:57+06:00,
1000000000252227,77766594502,mMTS,mKarTel,mKarTel,,D77,2016-09-27T17:43:02+06:00,
1000000000252228,77072046080,mMTS,mKarTel,mMTS,D01,D77,2016-09-27T17:43:25+06:00,
1000000000252229,77784426116,mKcell,mMTS,mKcell,D77,D02,2016-09-27T17:44:11+06:00,
1000000000252230,77078280433,mKarTel,mMTS,mMTS,,D01,2016-09-27T17:47:27+06:00,
1000000000252231,77762044460,mMTS,mKarTel,mKarTel,,D77,2016-09-27T17:47:58+06:00,
1000000000252232,77015001131,mKcell,mMTS,mKcell,D77,D02,2016-09-27T17:50:34+06:00,
1000000000252234,77015361764,mKcell,mMTS,mKcell,D77,D02,2016-09-27T17:51:49+06:00,
1000000000252235,77762071978,mMTS,mKarTel,mKarTel,,D77,2016-09-27T17:52:55+06:00,
1000000000252236,77766594503,mMTS,mKarTel,mKarTel,,D77,2016-09-27T17:53:07+06:00,
1000000000252237,77473000163,mKarTel,mKcell,mMTS,D02,D01,2016-09-27T17:53:04+06:00,
1000000000252240,77787019393,mKcell,mMTS,mKcell,D77,D02,2016-09-27T17:53:31+06:00,
1000000000252242,77762050585,mMTS,mKarTel,mKarTel,,D77,2016-09-27T17:57:56+06:00,
1000000000252243,77764093000,mMTS,mKarTel,mKarTel,,D77,2016-09-27T17:58:38+06:00,
1000000000252244,77054118921,mMTS,mKarTel,mKarTel,,D77,2016-09-27T17:58:58+06:00,
1000000000252245,77017664003,mMTS,mAltel,mKcell,D07,D77,2016-09-27T17:59:07+06:00,
