NPId,Number,RecipientId,DonorId,RangeHolderId,OldRoute,NewRoute,PortDate,RowCount
1000000000121082,77017227106,mKarTel,mKcell,mKcell,,D01,2016-03-10T12:23:11+06:00,31
1000000000121143,77473715071,mAltel,mMTS,mMTS,,D07,2016-03-10T12:00:03+06:00,
1000000000121144,77479956762,mAltel,mMTS,mMTS,,D07,2016-03-10T12:00:17+06:00,
1000000000121145,77023645308,mAltel,mKcell,mKcell,,D07,2016-03-10T12:00:41+06:00,
1000000000121146,77763611110,mMTS,mKarTel,mKarTel,,D77,2016-03-10T12:01:17+06:00,
1000000000121147,77079969849,mAltel,mMTS,mMTS,,D07,2016-03-10T12:01:11+06:00,
1000000000121148,77017055532,mMTS,mKcell,mKcell,,D77,2016-03-10T12:02:03+06:00,
1000000000121149,77766505058,mMTS,mKarTel,mKarTel,,D77,2016-03-10T12:02:21+06:00,
1000000000121150,77776219208,mKarTel,mMTS,mKarTel,D77,D01,2016-03-10T12:04:27+06:00,
1000000000121152,77029955592,mMTS,mKcell,mKcell,,D77,2016-03-10T12:06:13+06:00,
1000000000121153,77024016447,mMTS,mKcell,mKcell,,D77,2016-03-10T12:06:23+06:00,
1000000000121154,77766505059,mMTS,mKarTel,mKarTel,,D77,2016-03-10T12:07:19+06:00,
1000000000121155,77786366292,mMTS,mKcell,mKcell,,D77,2016-03-10T12:08:14+06:00,
1000000000121156,77015778161,mAltel,mKcell,mKcell,,D07,2016-03-10T12:09:55+06:00,
1000000000121160,77760544442,mMTS,mKarTel,mKarTel,,D77,2016-03-10T12:12:21+06:00,
1000000000121161,77779320002,mMTS,mKarTel,mKarTel,,D77,2016-03-10T12:12:21+06:00,
1000000000121162,77026357734,mAltel,mKcell,mKcell,,D07,2016-03-10T12:13:02+06:00,
1000000000121164,77772304243,mMTS,mKarTel,mKarTel,,D77,2016-03-10T12:14:13+06:00,
1000000000121165,77787137627,mAltel,mKcell,mKcell,,D07,2016-03-10T12:15:52+06:00,
1000000000121168,77053080075,mMTS,mKarTel,mKarTel,,D77,2016-03-10T12:17:27+06:00,
1000000000121169,77052799592,mAltel,mKarTel,mKarTel,,D07,2016-03-10T12:17:35+06:00,
1000000000121170,77029113459,mMTS,mKcell,mKcell,,D77,2016-03-10T12:17:27+06:00,
1000000000121171,77087507700,mKarTel,mAltel,mAltel,,D01,2016-03-10T12:20:18+06:00,
1000000000121172,77003980082,mMTS,mAltel,mAltel,,D77,2016-03-10T12:20:28+06:00,
1000000000121175,77017477144,mKarTel,mKcell,mKcell,,D01,2016-03-10T12:22:00+06:00,
1000000000121176,77004899409,mMTS,mAltel,mAltel,,D77,2016-03-10T12:21:58+06:00,
1000000000121179,77077298005,mAltel,mMTS,mMTS,,D07,2016-03-10T12:23:13+06:00,
1000000000121180,77079664004,mAltel,mMTS,mMTS,,D07,2016-03-10T12:23:25+06:00,
1000000000121182,77012771482,mKarTel,mKcell,mKcell,,D01,2016-03-10T12:25:56+06:00,
1000000000121185,77773740001,mMTS,mKarTel,mKarTel,,D77,2016-03-10T12:27:26+06:00,
1000000000121188,77009299909,mAltel,mKcell,mAltel,D02,D07,2016-03-10T12:29:24+06:00,
