NPId,Number,RecipientId,DonorId,RangeHolderId,OldRoute,NewRoute,PortDate,RowCount
1000000000415893,77019624965,mAltel,mKcell,mKcell,,D07,2017-07-05T09:23:24+06:00,6
1000000000416586,77773823264,mKarTel,mAltel,mKarTel,D07,D01,2017-07-05T09:02:50+06:00,
1000000000416587,77755423338,mMTS,mKcell,mKcell,,D77,2017-07-05T09:07:55+06:00,
1000000000416589,77010341580,mKarTel,mKcell,mKcell,,D01,2017-07-05T09:20:47+06:00,
1000000000416590,77757505687,mKarTel,mKcell,mKcell,,D01,2017-07-05T09:21:47+06:00,
1000000000416591,77751744333,mMTS,mKcell,mKcell,,D77,2017-07-05T09:23:53+06:00,
