NPId,Number,RecipientId,DonorId,RangeHolderId,OldRoute,NewRoute,PortDate,RowCount
1000000000258901,77022479953,mAltel,mKcell,mKcell,,D07,2016-10-08T11:30:23+06:00,28
1000000000258902,77021239899,mMTS,mKcell,mKcell,,D77,2016-10-08T11:32:03+06:00,
1000000000258905,77787304638,mAltel,mKcell,mKcell,,D07,2016-10-08T11:32:58+06:00,
1000000000258907,77755090522,mKcell,mMTS,mKcell,D77,D02,2016-10-08T11:33:41+06:00,
1000000000258908,77017132374,mAltel,mKcell,mKcell,,D07,2016-10-08T11:33:49+06:00,
1000000000258909,77769190219,mKcell,mKarTel,mKarTel,,D02,2016-10-08T11:40:31+06:00,
1000000000258911,77017312403,mMTS,mKarTel,mKcell,D01,D77,2016-10-08T11:42:10+06:00,
1000000000258912,77017768296,mKcell,mKarTel,mKcell,D01,D02,2016-10-08T11:42:27+06:00,
1000000000258914,77053985554,mMTS,mKarTel,mKarTel,,D77,2016-10-08T11:43:58+06:00,
1000000000258916,77017619747,mAltel,mKcell,mKcell,,D07,2016-10-08T11:39:33+06:00,
1000000000258917,77012166250,mKcell,mKarTel,mKcell,D01,D02,2016-10-08T11:45:53+06:00,
1000000000258918,77056539575,mKcell,mKarTel,mKarTel,,D02,2016-10-08T11:47:43+06:00,
1000000000258920,77054963443,mMTS,mKarTel,mKarTel,,D77,2016-10-08T11:47:34+06:00,
1000000000258921,77015112440,mKarTel,mKcell,mKcell,,D01,2016-10-08T11:45:49+06:00,
1000000000258923,77089143252,mKarTel,mAltel,mAltel,,D01,2016-10-08T11:47:35+06:00,
1000000000258924,77772246846,mKarTel,mAltel,mKarTel,D07,D01,2016-10-08T11:47:35+06:00,
1000000000258928,77019007155,mMTS,mKcell,mKcell,,D77,2016-10-08T11:47:40+06:00,
1000000000258930,77015067136,mMTS,mKcell,mKcell,,D77,2016-10-08T11:49:12+06:00,
1000000000258932,77785522201,mAltel,mKcell,mKcell,,D07,2016-10-08T11:51:08+06:00,
1000000000258933,77000981010,mMTS,mAltel,mAltel,,D77,2016-10-08T11:51:04+06:00,
1000000000258934,77786365447,mMTS,mKcell,mKcell,,D77,2016-10-08T11:51:57+06:00,
1000000000258936,77753594200,mAltel,mKcell,mKcell,,D07,2016-10-08T11:52:27+06:00,
1000000000258938,77014372759,mKcell,mAltel,mKcell,D07,D02,2016-10-08T11:54:45+06:00,
1000000000258939,77018007807,mMTS,mKcell,mKcell,,D77,2016-10-08T11:54:47+06:00,
1000000000258940,77051901378,mKarTel,mAltel,mKarTel,D07,D01,2016-10-08T11:58:29+06:00,
1000000000258941,77017831133,mAltel,mKcell,mKcell,,D07,2016-10-08T11:57:13+06:00,
1000000000258942,77017986099,mAltel,mKcell,mKcell,,D07,2016-10-08T11:57:20+06:00,
1000000000258943,77014489559,mAltel,mKcell,mKcell,,D07,2016-10-08T11:57:49+06:00,
