NPId,Number,RecipientId,DonorId,RangeHolderId,OldRoute,NewRoute,PortDate,RowCount
1000000000047042,77751076069,mMTS,mKcell,mKcell,,D77,2016-02-13T14:00:27+06:00,37
1000000000047046,77756504969,mMTS,mKcell,mKcell,,D77,2016-02-13T14:02:05+06:00,
1000000000047050,77013981523,mMTS,mKcell,mKcell,,D77,2016-02-13T14:04:22+06:00,
1000000000047051,77000030015,mKcell,mAltel,mAltel,,D02,2016-02-13T14:04:45+06:00,
1000000000047054,77077557575,mAltel,mMTS,mMTS,,D07,2016-02-13T14:05:29+06:00,
1000000000047055,77479904745,mAltel,mMTS,mMTS,,D07,2016-02-13T14:05:29+06:00,
1000000000047057,77758807827,mMTS,mKcell,mKcell,,D77,2016-02-13T14:06:49+06:00,
1000000000047058,77011113046,mMTS,mKcell,mKcell,,D77,2016-02-13T14:07:11+06:00,
1000000000047060,77017266690,mMTS,mKcell,mKcell,,D77,2016-02-13T14:07:37+06:00,
1000000000047068,77016555042,mMTS,mKcell,mKcell,,D77,2016-02-13T14:12:01+06:00,
1000000000047069,77074140758,mKcell,mMTS,mMTS,,D02,2016-02-13T14:12:03+06:00,
1000000000047070,77018882368,mMTS,mKcell,mKcell,,D77,2016-02-13T14:12:01+06:00,
1000000000047071,77015233460,mMTS,mKcell,mKcell,,D77,2016-02-13T14:12:43+06:00,
1000000000047074,77011112392,mMTS,mKcell,mKcell,,D77,2016-02-13T14:13:10+06:00,
1000000000047075,77018695336,mMTS,mKcell,mKcell,,D77,2016-02-13T14:13:27+06:00,
1000000000047078,77014677121,mAltel,mKcell,mKcell,,D07,2016-02-13T14:15:59+06:00,
1000000000047079,77077248440,mAltel,mMTS,mMTS,,D07,2016-02-13T14:16:04+06:00,
1000000000047080,77752028379,mMTS,mKcell,mKcell,,D77,2016-02-13T14:16:58+06:00,
1000000000047081,77017367837,mAltel,mKcell,mKcell,,D07,2016-02-13T14:17:47+06:00,
1000000000047084,77011943440,mAltel,mKcell,mKcell,,D07,2016-02-13T14:18:11+06:00,
1000000000047085,77022860085,mAltel,mKcell,mKcell,,D07,2016-02-13T14:18:47+06:00,
1000000000047086,77789160693,mAltel,mKcell,mKcell,,D07,2016-02-13T14:18:53+06:00,
1000000000047088,77015001995,mAltel,mKcell,mKcell,,D07,2016-02-13T14:19:50+06:00,
1000000000047089,77018695337,mMTS,mKcell,mKcell,,D77,2016-02-13T14:20:00+06:00,
1000000000047091,77755499080,mAltel,mKcell,mKcell,,D07,2016-02-13T14:22:01+06:00,
1000000000047092,77782762879,mAltel,mKcell,mKcell,,D07,2016-02-13T14:22:25+06:00,
1000000000047094,77011111935,mMTS,mKcell,mKcell,,D77,2016-02-13T14:23:07+06:00,
1000000000047095,77014779406,mMTS,mKcell,mKcell,,D77,2016-02-13T14:23:20+06:00,
1000000000047097,77016297787,mAltel,mKcell,mKcell,,D07,2016-02-13T14:24:20+06:00,
1000000000047099,77016685920,mAltel,mKcell,mKcell,,D07,2016-02-13T14:24:34+06:00,
1000000000047101,77754441007,mAltel,mKcell,mKcell,,D07,2016-02-13T14:26:53+06:00,
1000000000047102,77019599020,mMTS,mKcell,mKcell,,D77,2016-02-13T14:27:10+06:00,
1000000000047103,77012105000,mMTS,mKcell,mKcell,,D77,2016-02-13T14:27:45+06:00,
1000000000047104,77023222330,mAltel,mKcell,mKcell,,D07,2016-02-13T14:27:58+06:00,
1000000000047105,77026935343,mMTS,mKcell,mKcell,,D77,2016-02-13T14:28:10+06:00,
1000000000047106,77756988288,mMTS,mKcell,mKcell,,D77,2016-02-13T14:28:33+06:00,
1000000000047108,77011409445,mAltel,mKcell,mKcell,,D07,2016-02-13T14:29:29+06:00,
