NPId,Number,RecipientId,DonorId,RangeHolderId,OldRoute,NewRoute,PortDate,RowCount
1000000000003062,77072004108,mAltel,mMTS,mMTS,,D07,2016-01-07T14:02:48+06:00,15
1000000000003063,77004171717,mKcell,mAltel,mAltel,,D02,2016-01-07T14:04:20+06:00,
1000000000003064,77759590144,mAltel,mKcell,mKcell,,D07,2016-01-07T14:05:50+06:00,
1000000000003065,77075288538,mAltel,mMTS,mMTS,,D07,2016-01-07T14:05:52+06:00,
1000000000003067,77777771037,mKcell,mKarTel,mKarTel,,D02,2016-01-07T14:11:41+06:00,
1000000000003069,77475751985,mAltel,mMTS,mMTS,,D07,2016-01-07T14:15:45+06:00,
1000000000003070,77071601227,mAltel,mMTS,mMTS,,D07,2016-01-07T14:15:55+06:00,
1000000000003071,77022729413,mAltel,mKcell,mKcell,,D07,2016-01-07T14:17:14+06:00,
1000000000003072,77073636163,mAltel,mMTS,mMTS,,D07,2016-01-07T14:18:04+06:00,
1000000000003076,77756688828,mAltel,mKcell,mKcell,,D07,2016-01-07T14:21:46+06:00,
1000000000003077,77712555507,mAltel,mKarTel,mKarTel,,D07,2016-01-07T14:22:18+06:00,
1000000000003079,77075012852,mAltel,mMTS,mMTS,,D07,2016-01-07T14:23:49+06:00,
1000000000003080,77479096060,mAltel,mMTS,mMTS,,D07,2016-01-07T14:23:55+06:00,
1000000000003083,77003000040,mKcell,mAltel,mAltel,,D02,2016-01-07T14:26:27+06:00,
1000000000003084,77053259510,mAltel,mKarTel,mKarTel,,D07,2016-01-07T14:27:40+06:00,
