NPId,Number,RecipientId,DonorId,RangeHolderId,OldRoute,NewRoute,PortDate,RowCount
1000000000199575,77015201852,mAltel,mKcell,mKcell,D02,D07,2016-06-25T12:01:57+06:00,23
1000000000199576,77478021211,mMTS,mAltel,mMTS,D07,D77,2016-06-25T12:02:13+06:00,
1000000000199582,77057008324,mMTS,mKarTel,mKarTel,,D77,2016-06-25T12:05:02+06:00,
1000000000199584,77022156612,mMTS,mKcell,mKcell,,D77,2016-06-25T12:05:35+06:00,
1000000000199585,77079946660,mKarTel,mMTS,mMTS,,D01,2016-06-25T12:05:35+06:00,
1000000000199589,77755940401,mMTS,mKcell,mKcell,,D77,2016-06-25T12:07:42+06:00,
1000000000199590,77017804477,mKarTel,mAltel,mKcell,D07,D01,2016-06-25T12:08:31+06:00,
1000000000199592,77763330306,mMTS,mKarTel,mKarTel,,D77,2016-06-25T12:10:01+06:00,
1000000000199593,77719051800,mAltel,mKarTel,mKarTel,,D07,2016-06-25T12:10:48+06:00,
1000000000199594,77054581131,mMTS,mKarTel,mKarTel,,D77,2016-06-25T12:11:44+06:00,
1000000000199596,77087416051,mMTS,mAltel,mAltel,,D77,2016-06-25T12:12:09+06:00,
1000000000199597,77089516437,mMTS,mAltel,mAltel,,D77,2016-06-25T12:14:01+06:00,
1000000000199599,77073636766,mMTS,mKcell,mMTS,D02,D77,2016-06-25T12:16:03+06:00,
1000000000199600,77056734712,mMTS,mKarTel,mKarTel,,D77,2016-06-25T12:17:33+06:00,
1000000000199601,77776778777,mMTS,mKarTel,mKarTel,,D77,2016-06-25T12:19:30+06:00,
1000000000199602,77079661994,mKcell,mMTS,mMTS,,D02,2016-06-25T12:21:29+06:00,
1000000000199603,77777779937,mKcell,mKarTel,mKarTel,,D02,2016-06-25T12:22:16+06:00,
1000000000199604,77017776419,mKcell,mMTS,mKcell,D77,D02,2016-06-25T12:22:00+06:00,
1000000000199605,77079498949,mAltel,mMTS,mMTS,,D07,2016-06-25T12:22:32+06:00,
1000000000199606,77054577077,mKarTel,mMTS,mKarTel,D77,D01,2016-06-25T12:23:59+06:00,
1000000000199607,77784928888,mKcell,mAltel,mKcell,D07,D02,2016-06-25T12:26:33+06:00,
1000000000199608,77071115001,mKcell,mMTS,mMTS,,D02,2016-06-25T12:27:08+06:00,
1000000000199610,77714060573,mMTS,mKarTel,mKarTel,,D77,2016-06-25T12:29:27+06:00,
