NPId,Number,RecipientId,DonorId,RangeHolderId,OldRoute,NewRoute,PortDate,RowCount
1000000000224221,77015290012,mKcell,mKarTel,mKcell,D01,D02,2016-08-05T18:01:56+06:00,25
1000000000224233,77715908553,mMTS,mKarTel,mKarTel,,D77,2016-08-05T18:00:37+06:00,
1000000000224234,77071118831,mMTS,mKcell,mMTS,D02,D77,2016-08-05T18:00:30+06:00,
1000000000224235,77025030588,mKcell,mMTS,mKcell,D77,D02,2016-08-05T18:00:51+06:00,
1000000000224236,77015212948,mKarTel,mKcell,mKcell,,D01,2016-08-05T18:04:42+06:00,
1000000000224238,77055376620,mMTS,mKarTel,mKarTel,,D77,2016-08-05T18:04:52+06:00,
1000000000224239,77086026540,mKcell,mAltel,mAltel,,D02,2016-08-05T18:07:29+06:00,
1000000000224240,77715559771,mKcell,mKarTel,mKarTel,,D02,2016-08-05T18:08:15+06:00,
1000000000224241,77711582037,mMTS,mKarTel,mKarTel,,D77,2016-08-05T18:08:47+06:00,
1000000000224242,77079294561,mKcell,mMTS,mMTS,,D02,2016-08-05T18:08:48+06:00,
1000000000224243,77077391212,mKcell,mMTS,mMTS,,D02,2016-08-05T18:09:44+06:00,
1000000000224245,77028015529,mKcell,mMTS,mKcell,D77,D02,2016-08-05T18:11:19+06:00,
1000000000224246,77787787737,mMTS,mKcell,mKcell,,D77,2016-08-05T18:11:34+06:00,
1000000000224248,77055792116,mMTS,mKarTel,mKarTel,,D77,2016-08-05T18:12:55+06:00,
1000000000224249,77777079999,mKcell,mKarTel,mKarTel,,D02,2016-08-05T18:15:20+06:00,
1000000000224250,77072071662,mKcell,mMTS,mMTS,,D02,2016-08-05T18:18:15+06:00,
1000000000224252,77476655416,mKcell,mMTS,mMTS,,D02,2016-08-05T18:20:57+06:00,
1000000000224254,77055100077,mKcell,mKarTel,mKarTel,,D02,2016-08-05T18:20:09+06:00,
1000000000224255,77013755938,mMTS,mKcell,mKcell,,D77,2016-08-05T18:21:08+06:00,
1000000000224256,77769919196,mAltel,mKarTel,mKarTel,,D07,2016-08-05T18:22:27+06:00,
1000000000224258,77478420565,mKcell,mMTS,mMTS,,D02,2016-08-05T18:23:26+06:00,
1000000000224259,77475677899,mKcell,mMTS,mMTS,,D02,2016-08-05T18:23:59+06:00,
1000000000224260,77072071663,mKcell,mMTS,mMTS,,D02,2016-08-05T18:24:11+06:00,
1000000000224262,77015516723,mMTS,mKcell,mKcell,,D77,2016-08-05T18:27:05+06:00,
1000000000224263,77710321315,mMTS,mKarTel,mKarTel,,D77,2016-08-05T18:27:49+06:00,
