NPId,Number,RecipientId,DonorId,RangeHolderId,OldRoute,NewRoute,PortDate,RowCount
1000000000319097,77010359600,mKarTel,mKcell,mKcell,,D01,2017-01-30T15:45:23+06:00,115
1000000000319097,77012201107,mKarTel,mKcell,mKcell,,D01,2017-01-30T15:45:23+06:00,
1000000000319097,77012201204,mKarTel,mKcell,mKcell,,D01,2017-01-30T15:45:23+06:00,
1000000000319097,77012201209,mKarTel,mKcell,mKcell,,D01,2017-01-30T15:45:23+06:00,
1000000000319097,77012201236,mKarTel,mKcell,mKcell,,D01,2017-01-30T15:45:23+06:00,
1000000000319097,77012201242,mKarTel,mKcell,mKcell,,D01,2017-01-30T15:45:23+06:00,
1000000000319097,77012201246,mKarTel,mKcell,mKcell,,D01,2017-01-30T15:45:23+06:00,
1000000000319097,77012201281,mKarTel,mKcell,mKcell,,D01,2017-01-30T15:45:23+06:00,
1000000000319097,77012201290,mKarTel,mKcell,mKcell,,D01,2017-01-30T15:45:23+06:00,
1000000000319097,77012201310,mKarTel,mKcell,mKcell,,D01,2017-01-30T15:45:23+06:00,
1000000000319097,77012201338,mKarTel,mKcell,mKcell,,D01,2017-01-30T15:45:23+06:00,
1000000000319097,77012201347,mKarTel,mKcell,mKcell,,D01,2017-01-30T15:45:23+06:00,
1000000000319097,77012201360,mKarTel,mKcell,mKcell,,D01,2017-01-30T15:45:23+06:00,
1000000000319097,77012201361,mKarTel,mKcell,mKcell,,D01,2017-01-30T15:45:23+06:00,
1000000000319097,77012201375,mKarTel,mKcell,mKcell,,D01,2017-01-30T15:45:23+06:00,
1000000000319097,77012201377,mKarTel,mKcell,mKcell,,D01,2017-01-30T15:45:23+06:00,
1000000000319097,77012201394,mKarTel,mKcell,mKcell,,D01,2017-01-30T15:45:23+06:00,
1000000000319097,77012201420,mKarTel,mKcell,mKcell,,D01,2017-01-30T15:45:23+06:00,
1000000000319097,77012201435,mKarTel,mKcell,mKcell,,D01,2017-01-30T15:45:23+06:00,
1000000000319097,77012201436,mKarTel,mKcell,mKcell,,D01,2017-01-30T15:45:23+06:00,
1000000000319097,77012201438,mKarTel,mKcell,mKcell,,D01,2017-01-30T15:45:23+06:00,
1000000000319097,77012201442,mKarTel,mKcell,mKcell,,D01,2017-01-30T15:45:23+06:00,
1000000000319097,77012201443,mKarTel,mKcell,mKcell,,D01,2017-01-30T15:45:23+06:00,
1000000000319097,77012201450,mKarTel,mKcell,mKcell,,D01,2017-01-30T15:45:23+06:00,
1000000000319097,77012201454,mKarTel,mKcell,mKcell,,D01,2017-01-30T15:45:23+06:00,
1000000000319097,77012201466,mKarTel,mKcell,mKcell,,D01,2017-01-30T15:45:23+06:00,
1000000000319097,77012201476,mKarTel,mKcell,mKcell,,D01,2017-01-30T15:45:23+06:00,
1000000000319097,77012201477,mKarTel,mKcell,mKcell,,D01,2017-01-30T15:45:23+06:00,
1000000000319097,77012201481,mKarTel,mKcell,mKcell,,D01,2017-01-30T15:45:23+06:00,
1000000000319097,77012201482,mKarTel,mKcell,mKcell,,D01,2017-01-30T15:45:23+06:00,
1000000000319097,77012201485,mKarTel,mKcell,mKcell,,D01,2017-01-30T15:45:23+06:00,
1000000000319097,77012201488,mKarTel,mKcell,mKcell,,D01,2017-01-30T15:45:23+06:00,
1000000000319097,77012201497,mKarTel,mKcell,mKcell,,D01,2017-01-30T15:45:23+06:00,
1000000000319097,77012201508,mKarTel,mKcell,mKcell,,D01,2017-01-30T15:45:23+06:00,
1000000000319097,77012201517,mKarTel,mKcell,mKcell,,D01,2017-01-30T15:45:23+06:00,
1000000000319097,77012201521,mKarTel,mKcell,mKcell,,D01,2017-01-30T15:45:23+06:00,
1000000000319097,77012201523,mKarTel,mKcell,mKcell,,D01,2017-01-30T15:45:23+06:00,
1000000000319097,77012201536,mKarTel,mKcell,mKcell,,D01,2017-01-30T15:45:23+06:00,
1000000000319097,77012201556,mKarTel,mKcell,mKcell,,D01,2017-01-30T15:45:23+06:00,
1000000000319097,77012201582,mKarTel,mKcell,mKcell,,D01,2017-01-30T15:45:23+06:00,
1000000000319097,77012201584,mKarTel,mKcell,mKcell,,D01,2017-01-30T15:45:23+06:00,
1000000000319097,77012201613,mKarTel,mKcell,mKcell,,D01,2017-01-30T15:45:23+06:00,
1000000000319097,77012201629,mKarTel,mKcell,mKcell,,D01,2017-01-30T15:45:23+06:00,
1000000000319097,77012201633,mKarTel,mKcell,mKcell,,D01,2017-01-30T15:45:23+06:00,
1000000000319097,77012201635,mKarTel,mKcell,mKcell,,D01,2017-01-30T15:45:23+06:00,
1000000000319097,77012201642,mKarTel,mKcell,mKcell,,D01,2017-01-30T15:45:23+06:00,
1000000000319097,77012201643,mKarTel,mKcell,mKcell,,D01,2017-01-30T15:45:23+06:00,
1000000000319097,77012201645,mKarTel,mKcell,mKcell,,D01,2017-01-30T15:45:23+06:00,
1000000000319097,77012201647,mKarTel,mKcell,mKcell,,D01,2017-01-30T15:45:23+06:00,
1000000000319097,77012201648,mKarTel,mKcell,mKcell,,D01,2017-01-30T15:45:23+06:00,
1000000000319097,77012201657,mKarTel,mKcell,mKcell,,D01,2017-01-30T15:45:23+06:00,
1000000000319097,77012201689,mKarTel,mKcell,mKcell,,D01,2017-01-30T15:45:23+06:00,
1000000000319097,77012201691,mKarTel,mKcell,mKcell,,D01,2017-01-30T15:45:23+06:00,
1000000000319097,77012201740,mKarTel,mKcell,mKcell,,D01,2017-01-30T15:45:23+06:00,
1000000000319097,77012201742,mKarTel,mKcell,mKcell,,D01,2017-01-30T15:45:23+06:00,
1000000000319097,77012201759,mKarTel,mKcell,mKcell,,D01,2017-01-30T15:45:23+06:00,
1000000000319097,77012201787,mKarTel,mKcell,mKcell,,D01,2017-01-30T15:45:23+06:00,
1000000000319097,77012201799,mKarTel,mKcell,mKcell,,D01,2017-01-30T15:45:23+06:00,
1000000000319097,77012201802,mKarTel,mKcell,mKcell,,D01,2017-01-30T15:45:23+06:00,
1000000000319097,77012201830,mKarTel,mKcell,mKcell,,D01,2017-01-30T15:45:23+06:00,
1000000000319097,77012201852,mKarTel,mKcell,mKcell,,D01,2017-01-30T15:45:23+06:00,
1000000000319097,77012201854,mKarTel,mKcell,mKcell,,D01,2017-01-30T15:45:23+06:00,
1000000000319097,77780236276,mKarTel,mKcell,mKcell,,D01,2017-01-30T15:45:23+06:00,
1000000000319218,77785314392,mMTS,mKcell,mKcell,,D77,2017-01-30T15:31:10+06:00,
1000000000319222,77012797567,mAltel,mKcell,mKcell,,D07,2017-01-30T15:31:15+06:00,
1000000000319223,77017577469,mMTS,mKcell,mKcell,,D77,2017-01-30T15:31:17+06:00,
1000000000319224,77070405516,mMTS,mKarTel,mMTS,D01,D77,2017-01-30T15:36:23+06:00,
1000000000319225,77070405517,mMTS,mKarTel,mMTS,D01,D77,2017-01-30T15:36:44+06:00,
1000000000319226,77070405518,mMTS,mKarTel,mMTS,D01,D77,2017-01-30T15:37:01+06:00,
1000000000319228,77070441971,mMTS,mKarTel,mMTS,D01,D77,2017-01-30T15:38:20+06:00,
1000000000319231,77070441974,mMTS,mKarTel,mMTS,D01,D77,2017-01-30T15:39:03+06:00,
1000000000319232,77073880304,mMTS,mKarTel,mMTS,D01,D77,2017-01-30T15:39:36+06:00,
1000000000319238,77016669961,mMTS,mKcell,mKcell,,D77,2017-01-30T15:31:16+06:00,
1000000000319241,77017173329,mKcell,mMTS,mKcell,D77,D02,2017-01-30T15:34:06+06:00,
1000000000319242,77055392227,mKcell,mKarTel,mKarTel,,D02,2017-01-30T15:34:07+06:00,
1000000000319243,77711646770,mKcell,mKarTel,mKarTel,,D02,2017-01-30T15:34:08+06:00,
1000000000319244,77076662617,mKcell,mAltel,mMTS,D07,D02,2017-01-30T15:34:08+06:00,
1000000000319245,77015341999,mKcell,mKarTel,mKcell,D01,D02,2017-01-30T15:34:08+06:00,
1000000000319246,77077774734,mKcell,mMTS,mMTS,,D02,2017-01-30T15:34:08+06:00,
1000000000319247,77018141930,mKcell,mAltel,mKcell,D07,D02,2017-01-30T15:34:08+06:00,
1000000000319248,77012228315,mAltel,mKcell,mKcell,,D07,2017-01-30T15:34:14+06:00,
1000000000319250,77058050919,mMTS,mKarTel,mKarTel,,D77,2017-01-30T15:32:35+06:00,
1000000000319251,77005355157,mMTS,mKcell,mAltel,D02,D77,2017-01-30T15:34:16+06:00,
1000000000319254,77055555533,mKcell,mKarTel,mKarTel,,D02,2017-01-30T15:44:41+06:00,
1000000000319255,77010000419,mKcell,mMTS,mKcell,D77,D02,2017-01-30T15:34:27+06:00,
1000000000319257,77017335697,mAltel,mKcell,mKcell,,D07,2017-01-30T15:44:41+06:00,
1000000000319258,77010703303,mAltel,mKcell,mKcell,,D07,2017-01-30T15:44:41+06:00,
1000000000319260,77012929955,mMTS,mKcell,mKcell,,D77,2017-01-30T15:44:40+06:00,
1000000000319261,77714009427,mMTS,mKarTel,mKarTel,,D77,2017-01-30T15:40:36+06:00,
1000000000319262,77015189036,mMTS,mKcell,mKcell,,D77,2017-01-30T15:44:44+06:00,
1000000000319263,77785670444,mAltel,mKcell,mKcell,,D07,2017-01-30T15:44:44+06:00,
1000000000319264,77473198551,mKarTel,mMTS,mMTS,,D01,2017-01-30T15:41:26+06:00,
1000000000319265,77785313692,mMTS,mKcell,mKcell,,D77,2017-01-30T15:44:47+06:00,
1000000000319266,77785551170,mMTS,mKcell,mKcell,,D77,2017-01-30T15:44:49+06:00,
1000000000319267,77475316212,mAltel,mMTS,mMTS,,D07,2017-01-30T15:43:42+06:00,
1000000000319268,77027779120,mKcell,mKarTel,mKcell,D01,D02,2017-01-30T15:53:05+06:00,
1000000000319270,77015230107,mKcell,mMTS,mKcell,D77,D02,2017-01-30T15:44:56+06:00,
1000000000319271,77770135511,mKcell,mKarTel,mKarTel,,D02,2017-01-30T15:53:08+06:00,
1000000000319272,77764000909,mKarTel,mMTS,mKarTel,D77,D01,2017-01-30T15:45:38+06:00,
1000000000319273,77013833303,mKarTel,mKcell,mKcell,,D01,2017-01-30T15:53:23+06:00,
1000000000319274,77004321234,mMTS,mAltel,mAltel,,D77,2017-01-30T15:45:28+06:00,
1000000000319276,77013344456,mMTS,mKcell,mKcell,,D77,2017-01-30T15:53:09+06:00,
1000000000319279,77078230811,mKarTel,mAltel,mMTS,D07,D01,2017-01-30T15:46:55+06:00,
1000000000319286,77758279678,mAltel,mKcell,mKcell,,D07,2017-01-30T15:53:11+06:00,
1000000000319287,77011260036,mAltel,mKcell,mKcell,,D07,2017-01-30T15:53:15+06:00,
1000000000319288,77785314796,mMTS,mKcell,mKcell,,D77,2017-01-30T15:53:14+06:00,
1000000000319289,77785557900,mMTS,mKcell,mKcell,,D77,2017-01-30T15:53:15+06:00,
1000000000319291,77087597264,mKcell,mKarTel,mAltel,D01,D02,2017-01-30T15:57:29+06:00,
1000000000319293,77788882328,mAltel,mKcell,mKcell,,D07,2017-01-30T15:57:35+06:00,
1000000000319295,77027203662,mMTS,mKcell,mKcell,,D77,2017-01-30T15:57:39+06:00,
1000000000319296,77001234321,mMTS,mAltel,mAltel,,D77,2017-01-30T15:54:53+06:00,
1000000000319298,77054146644,mAltel,mKcell,mKarTel,D02,D07,2017-01-30T15:57:40+06:00,
1000000000319299,77017263122,mAltel,mKcell,mKcell,,D07,2017-01-30T15:57:39+06:00,
1000000000319300,77081115646,mMTS,mAltel,mAltel,,D77,2017-01-30T15:56:56+06:00,
1000000000319302,77059783179,mMTS,mKarTel,mKarTel,,D77,2017-01-30T15:57:58+06:00,
