NPId,Number,RecipientId,DonorId,RangeHolderId,OldRoute,NewRoute,PortDate,RowCount
1000000000261783,77014649995,mAltel,mKcell,mKcell,,D07,2016-10-13T15:00:23+06:00,21
1000000000261784,77714030243,mAltel,mKarTel,mKarTel,,D07,2016-10-13T15:01:47+06:00,
1000000000261786,77786257737,mMTS,mKcell,mKcell,,D77,2016-10-13T15:06:02+06:00,
1000000000261787,77013063666,mAltel,mKcell,mKcell,,D07,2016-10-13T15:09:02+06:00,
1000000000261788,77052324304,mMTS,mKarTel,mKarTel,,D77,2016-10-13T15:10:56+06:00,
1000000000261789,77479092829,mKcell,mMTS,mMTS,,D02,2016-10-13T15:12:15+06:00,
1000000000261790,77760101600,mKcell,mKarTel,mKarTel,,D02,2016-10-13T15:14:35+06:00,
1000000000261791,77055036201,mMTS,mKarTel,mKarTel,,D77,2016-10-13T15:14:55+06:00,
1000000000261793,77003030230,mMTS,mAltel,mAltel,,D77,2016-10-13T15:14:41+06:00,
1000000000261795,77714695173,mMTS,mKarTel,mKarTel,,D77,2016-10-13T15:17:52+06:00,
1000000000261798,77473737348,mAltel,mMTS,mMTS,,D07,2016-10-13T15:18:06+06:00,
1000000000261799,77011000415,mKarTel,mKcell,mKcell,,D01,2016-10-13T15:20:43+06:00,
1000000000261800,77014912767,mKcell,mMTS,mKcell,D77,D02,2016-10-13T15:21:05+06:00,
1000000000261801,77771141727,mMTS,mKarTel,mKarTel,,D77,2016-10-13T15:21:51+06:00,
1000000000261802,77786199318,mKarTel,mKcell,mKcell,,D01,2016-10-13T15:22:37+06:00,
1000000000261804,77021333736,mAltel,mKcell,mKcell,,D07,2016-10-13T15:23:43+06:00,
1000000000261805,77027871117,mMTS,mKcell,mKcell,,D77,2016-10-13T15:25:28+06:00,
1000000000261807,77009663351,mMTS,mAltel,mAltel,,D77,2016-10-13T15:27:29+06:00,
1000000000261808,77018802028,mMTS,mKcell,mKcell,,D77,2016-10-13T15:28:11+06:00,
1000000000261809,77021991034,mMTS,mKcell,mKcell,,D77,2016-10-13T15:28:15+06:00,
1000000000261810,77471333303,mKarTel,mMTS,mMTS,,D01,2016-10-13T15:29:25+06:00,
