NPId,Number,RecipientId,DonorId,RangeHolderId,OldRoute,NewRoute,PortDate,RowCount
1000000000413562,77754829818,mKarTel,mKcell,mKcell,,D01,2017-06-30T19:01:02+06:00,25
1000000000413564,77002228228,mAltel,mKcell,mAltel,D02,D07,2017-06-30T19:02:17+06:00,
1000000000413565,77029991609,mKarTel,mKcell,mKcell,,D01,2017-06-30T19:06:20+06:00,
1000000000413566,77477871000,mKarTel,mMTS,mMTS,,D01,2017-06-30T19:06:30+06:00,
1000000000413567,77781565132,mMTS,mKcell,mKcell,,D77,2017-06-30T19:06:57+06:00,
1000000000413568,77077729691,mKcell,mKarTel,mMTS,D01,D02,2017-06-30T19:07:28+06:00,
1000000000413570,77019444864,mKarTel,mKcell,mKcell,,D01,2017-06-30T19:09:39+06:00,
1000000000413572,77086557748,mKarTel,mAltel,mAltel,,D01,2017-06-30T19:12:09+06:00,
1000000000413573,77054529453,mAltel,mKarTel,mKarTel,,D07,2017-06-30T19:13:03+06:00,
1000000000413576,77017119095,mKcell,mKarTel,mKcell,D01,D02,2017-06-30T19:15:38+06:00,
1000000000413577,77019994834,mKarTel,mKcell,mKcell,,D01,2017-06-30T19:15:24+06:00,
1000000000413579,77017559743,mMTS,mKcell,mKcell,,D77,2017-06-30T19:16:01+06:00,
1000000000413582,77781561097,mMTS,mKcell,mKcell,,D77,2017-06-30T19:16:53+06:00,
1000000000413584,77779733333,mKarTel,mKcell,mKarTel,D02,D01,2017-06-30T19:17:49+06:00,
1000000000413587,77015128051,mKarTel,mKcell,mKcell,,D01,2017-06-30T19:18:37+06:00,
1000000000413589,77015578472,mKarTel,mKcell,mKcell,,D01,2017-06-30T19:19:14+06:00,
1000000000413591,77770221555,mKcell,mMTS,mKarTel,D77,D02,2017-06-30T19:21:23+06:00,
1000000000413592,77022299977,mMTS,mKcell,mKcell,,D77,2017-06-30T19:25:33+06:00,
1000000000413593,77771500604,mKarTel,mKcell,mKarTel,D02,D01,2017-06-30T19:26:00+06:00,
1000000000413594,77022635795,mKarTel,mKcell,mKcell,,D01,2017-06-30T19:26:00+06:00,
1000000000413595,77058074333,mAltel,mKarTel,mKarTel,,D07,2017-06-30T19:26:34+06:00,
1000000000413596,77781563679,mMTS,mKcell,mKcell,,D77,2017-06-30T19:26:50+06:00,
1000000000413597,77017327599,mAltel,mKcell,mKcell,,D07,2017-06-30T19:27:53+06:00,
1000000000413598,77751775551,mKcell,mAltel,mKcell,D07,D02,2017-06-30T19:28:44+06:00,
1000000000413599,77011682801,mKarTel,mKcell,mKcell,,D01,2017-06-30T19:29:22+06:00,
