NPId,Number,RecipientId,DonorId,RangeHolderId,OldRoute,NewRoute,PortDate,RowCount
1000000000231576,77051207019,mKarTel,mMTS,mKarTel,D77,D01,2016-08-20T09:03:02+06:00,2
1000000000231577,77083777691,mKcell,mAltel,mAltel,,D02,2016-08-20T09:20:09+06:00,
