NPId,Number,RecipientId,DonorId,RangeHolderId,OldRoute,NewRoute,PortDate,RowCount
1000000000095310,77084983375,mKcell,mAltel,mAltel,,D02,2016-02-21T18:00:50+06:00,11
1000000000095311,77718342750,mAltel,mKarTel,mKarTel,,D07,2016-02-21T18:01:07+06:00,
1000000000095312,77084983281,mKcell,mAltel,mAltel,,D02,2016-02-21T18:07:33+06:00,
1000000000095314,77075241241,mAltel,mMTS,mMTS,,D07,2016-02-21T18:12:48+06:00,
1000000000095315,77084983368,mKcell,mAltel,mAltel,,D02,2016-02-21T18:15:08+06:00,
1000000000095316,77058391653,mAltel,mKarTel,mKarTel,,D07,2016-02-21T18:18:38+06:00,
1000000000095317,77771778934,mMTS,mKarTel,mKarTel,,D77,2016-02-21T18:18:52+06:00,
1000000000095320,77021445436,mMTS,mKcell,mKcell,,D77,2016-02-21T18:20:38+06:00,
1000000000095323,77752256460,mAltel,mKcell,mKcell,,D07,2016-02-21T18:23:12+06:00,
1000000000095324,77054143388,mAltel,mKarTel,mKarTel,,D07,2016-02-21T18:25:37+06:00,
1000000000095325,77019499086,mMTS,mKcell,mKcell,,D77,2016-02-21T18:26:57+06:00,
