NPId,Number,RecipientId,DonorId,RangeHolderId,OldRoute,NewRoute,PortDate,RowCount
1000000000194275,77753868405,mMTS,mKcell,mKcell,,D77,2016-06-15T20:42:36+06:00,2
1000000000194276,77015171121,mKcell,mAltel,mKcell,D07,D02,2016-06-15T20:45:26+06:00,
