NPId,Number,RecipientId,DonorId,RangeHolderId,OldRoute,NewRoute,PortDate,RowCount
1000000000148471,77059011959,mAltel,mKarTel,mKarTel,,D07,2016-04-11T14:00:42+06:00,74
1000000000148472,77052218597,mKcell,mKarTel,mKarTel,,D02,2016-04-11T14:01:50+06:00,
1000000000148473,77478983479,mKcell,mMTS,mMTS,,D02,2016-04-11T14:00:36+06:00,
1000000000148474,77052219072,mKcell,mKarTel,mKarTel,,D02,2016-04-11T14:02:29+06:00,
1000000000148476,77052218725,mKcell,mKarTel,mKarTel,,D02,2016-04-11T14:03:52+06:00,
1000000000148477,77089087567,mMTS,mAltel,mAltel,,D77,2016-04-11T14:01:42+06:00,
1000000000148479,77000909909,mKcell,mAltel,mAltel,,D02,2016-04-11T14:02:30+06:00,
1000000000148480,77013012299,mKarTel,mKcell,mKcell,,D01,2016-04-11T14:03:14+06:00,
1000000000148481,77052218690,mKcell,mKarTel,mKarTel,,D02,2016-04-11T14:04:30+06:00,
1000000000148482,77052218530,mKcell,mKarTel,mKarTel,,D02,2016-04-11T14:05:17+06:00,
1000000000148483,77771994366,mKcell,mKarTel,mKarTel,,D02,2016-04-11T14:06:55+06:00,
1000000000148485,77478983477,mKcell,mMTS,mMTS,,D02,2016-04-11T14:06:04+06:00,
1000000000148486,77479546837,mKcell,mMTS,mMTS,,D02,2016-04-11T14:06:05+06:00,
1000000000148487,77052218780,mKcell,mKarTel,mKarTel,,D02,2016-04-11T14:07:33+06:00,
1000000000148490,77003631849,mMTS,mAltel,mAltel,,D77,2016-04-11T14:06:24+06:00,
1000000000148492,77052219042,mKcell,mKarTel,mKarTel,,D02,2016-04-11T14:08:20+06:00,
1000000000148493,77779618057,mMTS,mKarTel,mKarTel,,D77,2016-04-11T14:08:26+06:00,
1000000000148494,77077980057,mKcell,mMTS,mMTS,,D02,2016-04-11T14:07:53+06:00,
1000000000148495,77478983480,mKcell,mMTS,mMTS,,D02,2016-04-11T14:07:51+06:00,
1000000000148496,77052219083,mKcell,mKarTel,mKarTel,,D02,2016-04-11T14:09:35+06:00,
1000000000148497,77024997937,mMTS,mKcell,mKcell,,D77,2016-04-11T14:08:16+06:00,
1000000000148499,77052218717,mKcell,mKarTel,mKarTel,,D02,2016-04-11T14:10:52+06:00,
1000000000148500,77713221080,mKcell,mKarTel,mKarTel,,D02,2016-04-11T14:10:41+06:00,
1000000000148501,77772320570,mKcell,mKarTel,mKarTel,,D02,2016-04-11T14:11:50+06:00,
1000000000148503,77052219026,mKcell,mKarTel,mKarTel,,D02,2016-04-11T14:11:51+06:00,
1000000000148504,77478983476,mKcell,mMTS,mMTS,,D02,2016-04-11T14:11:21+06:00,
1000000000148505,77025315333,mMTS,mKarTel,mKcell,D01,D77,2016-04-11T14:13:10+06:00,
1000000000148507,77479546833,mKcell,mMTS,mMTS,,D02,2016-04-11T14:12:36+06:00,
1000000000148508,77052218694,mKcell,mKarTel,mKarTel,,D02,2016-04-11T14:13:27+06:00,
1000000000148509,77085105550,mMTS,mAltel,mAltel,,D77,2016-04-11T14:12:20+06:00,
1000000000148513,77010142729,mMTS,mKcell,mKcell,,D77,2016-04-11T14:13:26+06:00,
1000000000148514,77051000902,mMTS,mKarTel,mKarTel,,D77,2016-04-11T14:14:31+06:00,
1000000000148515,77052218514,mKcell,mKarTel,mKarTel,,D02,2016-04-11T14:15:46+06:00,
1000000000148516,77051657058,mKcell,mKarTel,mKarTel,,D02,2016-04-11T14:15:46+06:00,
1000000000148517,77479546832,mKcell,mMTS,mMTS,,D02,2016-04-11T14:14:09+06:00,
1000000000148519,77052219011,mKcell,mKarTel,mKarTel,,D02,2016-04-11T14:16:40+06:00,
1000000000148520,77083000925,mMTS,mAltel,mAltel,,D77,2016-04-11T14:15:25+06:00,
1000000000148521,77786271780,mMTS,mKcell,mKcell,,D77,2016-04-11T14:16:10+06:00,
1000000000148522,77052219074,mKcell,mKarTel,mKarTel,,D02,2016-04-11T14:19:25+06:00,
1000000000148524,77052218561,mKcell,mKarTel,mKarTel,,D02,2016-04-11T14:19:25+06:00,
1000000000148525,77764445556,mAltel,mKarTel,mKarTel,,D07,2016-04-11T14:17:55+06:00,
1000000000148526,77715593085,mMTS,mKarTel,mKarTel,,D77,2016-04-11T14:17:54+06:00,
1000000000148527,77052218568,mKcell,mKarTel,mKarTel,,D02,2016-04-11T14:20:21+06:00,
1000000000148529,77755613787,mKarTel,mKcell,mKcell,,D01,2016-04-11T14:19:53+06:00,
1000000000148530,77052218535,mKcell,mKarTel,mKarTel,,D02,2016-04-11T14:20:35+06:00,
1000000000148531,77479546752,mKcell,mMTS,mMTS,,D02,2016-04-11T14:19:54+06:00,
1000000000148532,77055038216,mKcell,mKarTel,mKarTel,,D02,2016-04-11T14:20:36+06:00,
1000000000148533,77477245167,mMTS,mAltel,mMTS,D07,D77,2016-04-11T14:19:39+06:00,
1000000000148534,77052219037,mKcell,mKarTel,mKarTel,,D02,2016-04-11T14:21:00+06:00,
1000000000148535,77476645158,mKarTel,mMTS,mMTS,,D01,2016-04-11T14:20:35+06:00,
1000000000148536,77053610261,mKcell,mKarTel,mKarTel,,D02,2016-04-11T14:22:11+06:00,
1000000000148537,77052218632,mKcell,mKarTel,mKarTel,,D02,2016-04-11T14:22:25+06:00,
1000000000148538,77027737292,mMTS,mKcell,mKcell,,D77,2016-04-11T14:20:48+06:00,
1000000000148539,77089050375,mKcell,mAltel,mAltel,,D02,2016-04-11T14:21:15+06:00,
1000000000148540,77479546831,mKcell,mMTS,mMTS,,D02,2016-04-11T14:21:28+06:00,
1000000000148541,77479546754,mKcell,mMTS,mMTS,,D02,2016-04-11T14:22:10+06:00,
1000000000148542,77017470502,mKarTel,mKcell,mKcell,,D01,2016-04-11T14:22:03+06:00,
1000000000148544,77012711111,mMTS,mKcell,mKcell,,D77,2016-04-11T14:22:28+06:00,
1000000000148545,77017470501,mKarTel,mKcell,mKcell,,D01,2016-04-11T14:23:28+06:00,
1000000000148546,77077910710,mMTS,mAltel,mMTS,D07,D77,2016-04-11T14:22:28+06:00,
1000000000148547,77052218524,mKcell,mKarTel,mKarTel,,D02,2016-04-11T14:25:00+06:00,
1000000000148548,77017120525,mKarTel,mKcell,mKcell,,D01,2016-04-11T14:23:31+06:00,
1000000000148550,77088216501,mMTS,mAltel,mAltel,,D77,2016-04-11T14:22:59+06:00,
1000000000148552,77479546830,mKcell,mMTS,mMTS,,D02,2016-04-11T14:24:59+06:00,
1000000000148553,77479546753,mKcell,mMTS,mMTS,,D02,2016-04-11T14:25:05+06:00,
1000000000148554,77011243535,mKcell,mMTS,mKcell,D77,D02,2016-04-11T14:26:30+06:00,
1000000000148555,77775878731,mMTS,mKarTel,mKarTel,,D77,2016-04-11T14:27:20+06:00,
1000000000148556,77479546755,mKcell,mMTS,mMTS,,D02,2016-04-11T14:26:45+06:00,
1000000000148557,77472880884,mAltel,mMTS,mMTS,,D07,2016-04-11T14:27:01+06:00,
1000000000148558,77083000825,mMTS,mAltel,mAltel,,D77,2016-04-11T14:27:03+06:00,
1000000000148559,77071705030,mAltel,mKcell,mMTS,D02,D07,2016-04-11T14:28:03+06:00,
1000000000148561,77071773535,mMTS,mKcell,mMTS,D02,D77,2016-04-11T14:28:22+06:00,
1000000000148562,77017856528,mMTS,mKcell,mKcell,,D77,2016-04-11T14:28:39+06:00,
1000000000148564,77474546686,mMTS,mAltel,mMTS,D07,D77,2016-04-11T14:29:06+06:00,
