NPId,Number,RecipientId,DonorId,RangeHolderId,OldRoute,NewRoute,PortDate,RowCount
1000000000289684,77074101004,mKarTel,mMTS,mMTS,,D01,2016-12-04T16:03:17+06:00,14
1000000000289685,77071111691,mKcell,mMTS,mMTS,,D02,2016-12-04T16:04:02+06:00,
1000000000289687,77770774444,mMTS,mKarTel,mKarTel,,D77,2016-12-04T16:07:17+06:00,
1000000000289688,77054387777,mKarTel,mMTS,mKarTel,D77,D01,2016-12-04T16:08:23+06:00,
1000000000289689,77082581098,mKarTel,mMTS,mAltel,D77,D01,2016-12-04T16:08:38+06:00,
1000000000289690,77055321777,mMTS,mKarTel,mKarTel,,D77,2016-12-04T16:09:09+06:00,
1000000000289692,77014135356,mMTS,mKcell,mKcell,,D77,2016-12-04T16:12:41+06:00,
1000000000289693,77775961166,mMTS,mKarTel,mKarTel,,D77,2016-12-04T16:12:54+06:00,
1000000000289694,77019522595,mAltel,mKcell,mKcell,,D07,2016-12-04T16:18:12+06:00,
1000000000289695,77715261288,mMTS,mKarTel,mKarTel,,D77,2016-12-04T16:21:25+06:00,
1000000000289696,77774701689,mKarTel,mMTS,mKarTel,D77,D01,2016-12-04T16:25:35+06:00,
1000000000289697,77715279434,mMTS,mKarTel,mKarTel,,D77,2016-12-04T16:27:52+06:00,
1000000000289698,77770001102,mMTS,mKarTel,mKarTel,,D77,2016-12-04T16:28:28+06:00,
1000000000289699,77018888010,mMTS,mKcell,mKcell,,D77,2016-12-04T16:29:50+06:00,
