NPId,Number,RecipientId,DonorId,RangeHolderId,OldRoute,NewRoute,PortDate,RowCount
1000000000266967,77015660607,mKcell,mMTS,mKcell,D77,D02,2016-10-23T17:31:18+06:00,10
1000000000266969,77472592898,mAltel,mMTS,mMTS,,D07,2016-10-23T17:35:03+06:00,
1000000000266970,77014106038,mAltel,mKcell,mKcell,,D07,2016-10-23T17:37:21+06:00,
1000000000266971,77019871077,mMTS,mKcell,mKcell,,D77,2016-10-23T17:37:21+06:00,
1000000000266973,77716066031,mMTS,mKarTel,mKarTel,,D77,2016-10-23T17:42:40+06:00,
1000000000266974,77083833729,mMTS,mAltel,mAltel,,D77,2016-10-23T17:43:08+06:00,
1000000000266977,77782900027,mAltel,mKcell,mKcell,,D07,2016-10-23T17:47:33+06:00,
1000000000266978,77759997999,mAltel,mKcell,mKcell,,D07,2016-10-23T17:47:57+06:00,
1000000000266979,77015502537,mAltel,mKcell,mKcell,,D07,2016-10-23T17:48:43+06:00,
1000000000266980,77714555812,mMTS,mKarTel,mKarTel,,D77,2016-10-23T17:52:50+06:00,
