NPId,Number,RecipientId,DonorId,RangeHolderId,OldRoute,NewRoute,PortDate,RowCount
1000000000047640,77022159932,mMTS,mKcell,mKcell,,D77,2016-02-14T11:30:07+06:00,10
1000000000047641,77774589770,mMTS,mKarTel,mKarTel,,D77,2016-02-14T11:33:58+06:00,
1000000000047646,77782138113,mMTS,mKcell,mKcell,,D77,2016-02-14T11:37:47+06:00,
1000000000047648,77715079233,mMTS,mKarTel,mKarTel,,D77,2016-02-14T11:38:57+06:00,
1000000000047652,77024626048,mMTS,mKcell,mKcell,,D77,2016-02-14T11:43:47+06:00,
1000000000047659,77024607418,mMTS,mKcell,mKcell,,D77,2016-02-14T11:50:39+06:00,
1000000000047660,77017791370,mAltel,mKcell,mKcell,,D07,2016-02-14T11:51:45+06:00,
1000000000047664,77022160678,mAltel,mKcell,mKcell,,D07,2016-02-14T11:54:34+06:00,
1000000000047665,77024071649,mMTS,mKcell,mKcell,,D77,2016-02-14T11:55:28+06:00,
1000000000047670,77072069646,mKcell,mMTS,mMTS,,D02,2016-02-14T11:59:38+06:00,
