NPId,Number,RecipientId,DonorId,RangeHolderId,OldRoute,NewRoute,PortDate,RowCount
1000000000428302,77075838888,mAltel,mMTS,mMTS,,D07,2017-07-26T10:31:03+06:00,20
1000000000428303,77074838888,mAltel,mMTS,mMTS,,D07,2017-07-26T10:32:51+06:00,
1000000000428305,77006662129,mMTS,mAltel,mAltel,,D77,2017-07-26T10:34:22+06:00,
1000000000428306,77759834386,mKarTel,mKcell,mKcell,,D01,2017-07-26T10:36:07+06:00,
1000000000428307,77072927000,mKcell,mMTS,mMTS,,D02,2017-07-26T10:36:50+06:00,
1000000000428308,77079042536,mAltel,mMTS,mMTS,,D07,2017-07-26T10:39:11+06:00,
1000000000428309,77786900705,mAltel,mKcell,mKcell,,D07,2017-07-26T10:40:32+06:00,
1000000000428311,77762511818,mKarTel,mAltel,mKarTel,D07,D01,2017-07-26T10:40:57+06:00,
1000000000428312,77006662128,mMTS,mAltel,mAltel,,D77,2017-07-26T10:40:54+06:00,
1000000000428313,77003913820,mMTS,mAltel,mAltel,D07,D77,2017-07-26T10:42:44+06:00,
1000000000428314,77002009102,mMTS,mAltel,mAltel,,D77,2017-07-26T10:43:21+06:00,
1000000000428316,77773441999,mMTS,mKarTel,mKarTel,,D77,2017-07-26T10:47:26+06:00,
1000000000428317,77768788877,mAltel,mKarTel,mKarTel,,D07,2017-07-26T10:48:43+06:00,
1000000000428319,77006662127,mMTS,mAltel,mAltel,,D77,2017-07-26T10:51:49+06:00,
1000000000428320,77014599595,mMTS,mKcell,mKcell,,D77,2017-07-26T10:52:52+06:00,
1000000000428321,77774861577,mKarTel,mAltel,mKarTel,D07,D01,2017-07-26T10:52:59+06:00,
1000000000428322,77074631162,mAltel,mMTS,mMTS,,D07,2017-07-26T10:54:07+06:00,
1000000000428324,77752785436,mKcell,mKarTel,mKcell,D01,D02,2017-07-26T10:58:50+06:00,
1000000000428325,77711667890,mMTS,mKarTel,mKarTel,D01,D77,2017-07-26T10:58:51+06:00,
1000000000428326,77024248364,mKarTel,mKcell,mKcell,,D01,2017-07-26T10:59:56+06:00,
