NPId,Number,RecipientId,DonorId,RangeHolderId,OldRoute,NewRoute,PortDate,RowCount
1000000000262172,77015329169,mAltel,mKcell,mKcell,,D07,2016-10-14T16:04:02+06:00,19
1000000000262173,77018721710,mAltel,mKcell,mKcell,,D07,2016-10-14T16:03:52+06:00,
1000000000262456,77024750104,mKcell,mAltel,mKcell,D07,D02,2016-10-14T16:00:57+06:00,
1000000000262462,77754991205,mMTS,mKcell,mKcell,,D77,2016-10-14T16:00:36+06:00,
1000000000262463,77013072006,mMTS,mKcell,mKcell,,D77,2016-10-14T16:03:08+06:00,
1000000000262464,77073936535,mAltel,mMTS,mMTS,,D07,2016-10-14T16:05:56+06:00,
1000000000262465,77019341221,mMTS,mKcell,mKcell,,D77,2016-10-14T16:06:12+06:00,
1000000000262467,77012208210,mAltel,mKcell,mKcell,,D07,2016-10-14T16:08:00+06:00,
1000000000262468,77011666757,mAltel,mKcell,mKcell,,D07,2016-10-14T16:08:36+06:00,
1000000000262469,77021110714,mMTS,mKcell,mKcell,,D77,2016-10-14T16:11:39+06:00,
1000000000262471,77012266051,mAltel,mKcell,mKcell,,D07,2016-10-14T16:17:41+06:00,
1000000000262472,77017279936,mMTS,mKcell,mKcell,,D77,2016-10-14T16:20:22+06:00,
1000000000262473,77017317780,mMTS,mKcell,mKcell,,D77,2016-10-14T16:21:01+06:00,
1000000000262474,77015753002,mAltel,mKcell,mKcell,,D07,2016-10-14T16:22:01+06:00,
1000000000262475,77018831212,mKarTel,mMTS,mKcell,D77,D01,2016-10-14T16:22:56+06:00,
1000000000262476,77772352556,mAltel,mKarTel,mKarTel,,D07,2016-10-14T16:26:17+06:00,
1000000000262477,77015559492,mAltel,mKcell,mKcell,,D07,2016-10-14T16:26:51+06:00,
1000000000262480,77789197343,mMTS,mKcell,mKcell,,D77,2016-10-14T16:28:14+06:00,
1000000000262481,77021400026,mKarTel,mKcell,mKcell,,D01,2016-10-14T16:29:06+06:00,
