NPId,Number,RecipientId,DonorId,RangeHolderId,OldRoute,NewRoute,PortDate,RowCount
1000000000152208,77051100008,mKcell,mKarTel,mKarTel,,D02,2016-04-14T19:30:32+06:00,10
1000000000152209,77772770000,mKcell,mKarTel,mKarTel,,D02,2016-04-14T19:34:52+06:00,
1000000000152210,77086181644,mMTS,mAltel,mAltel,,D77,2016-04-14T19:38:31+06:00,
1000000000152213,77005100908,mKcell,mAltel,mAltel,,D02,2016-04-14T19:44:40+06:00,
1000000000152214,77081002454,mMTS,mAltel,mAltel,,D77,2016-04-14T19:46:56+06:00,
1000000000152215,77089002924,mMTS,mAltel,mAltel,,D77,2016-04-14T19:48:38+06:00,
1000000000152216,77005564252,mKcell,mAltel,mAltel,,D02,2016-04-14T19:51:50+06:00,
1000000000152219,77770625836,mMTS,mKarTel,mKarTel,,D77,2016-04-14T19:54:34+06:00,
1000000000152220,77081087630,mKarTel,mAltel,mAltel,,D01,2016-04-14T19:54:31+06:00,
1000000000152222,77754610777,mKcell,mAltel,mKcell,D07,D02,2016-04-14T19:55:39+06:00,
