NPId,Number,RecipientId,DonorId,RangeHolderId,OldRoute,NewRoute,PortDate,RowCount
1000000000370334,77764455541,mKarTel,mKcell,mKarTel,D02,D01,2017-04-23T11:11:06+06:00,2
1000000000370335,77054443121,mKarTel,mKcell,mKarTel,D02,D01,2017-04-23T11:22:16+06:00,
