NPId,Number,RecipientId,DonorId,RangeHolderId,OldRoute,NewRoute,PortDate,RowCount
1000000000174812,77024041318,mMTS,mKcell,mKcell,,D77,2016-05-16T10:32:19+06:00,20
1000000000174813,77777773017,mKcell,mKarTel,mKarTel,,D02,2016-05-16T10:38:57+06:00,
1000000000174814,77783150009,mMTS,mKcell,mKcell,,D77,2016-05-16T10:38:22+06:00,
1000000000174816,77029998922,mKarTel,mKcell,mKcell,,D01,2016-05-16T10:42:20+06:00,
1000000000174817,77013283813,mMTS,mKcell,mKcell,,D77,2016-05-16T10:43:29+06:00,
1000000000174818,77072279514,mKcell,mMTS,mMTS,,D02,2016-05-16T10:44:00+06:00,
1000000000174819,77713372222,mKcell,mKarTel,mKarTel,,D02,2016-05-16T10:43:59+06:00,
1000000000174820,77015260301,mMTS,mKcell,mKcell,,D77,2016-05-16T10:44:28+06:00,
1000000000174822,77003939155,mKarTel,mAltel,mAltel,,D01,2016-05-16T10:45:32+06:00,
1000000000174823,77025694707,mMTS,mKcell,mKcell,,D77,2016-05-16T10:45:46+06:00,
1000000000174824,77026189119,mMTS,mKcell,mKcell,,D77,2016-05-16T10:45:46+06:00,
1000000000174825,77772459684,mKcell,mKarTel,mKarTel,,D02,2016-05-16T10:47:08+06:00,
1000000000174828,77003508810,mKarTel,mAltel,mAltel,,D01,2016-05-16T10:51:21+06:00,
1000000000174830,77001391111,mKcell,mAltel,mAltel,,D02,2016-05-16T10:51:45+06:00,
1000000000174831,77773042962,mKarTel,mMTS,mKarTel,D77,D01,2016-05-16T10:52:54+06:00,
1000000000174832,77075630100,mMTS,mAltel,mMTS,D07,D77,2016-05-16T10:53:46+06:00,
1000000000174833,77078204444,mAltel,mMTS,mMTS,,D07,2016-05-16T10:55:18+06:00,
1000000000174834,77015806059,mMTS,mKcell,mKcell,,D77,2016-05-16T10:57:04+06:00,
1000000000174835,77052523669,mMTS,mKarTel,mKarTel,,D77,2016-05-16T10:57:36+06:00,
1000000000174836,77777450077,mKarTel,mMTS,mKarTel,D77,D01,2016-05-16T10:58:55+06:00,
