NPId,Number,RecipientId,DonorId,RangeHolderId,OldRoute,NewRoute,PortDate,RowCount
1000000000210468,77751934106,mMTS,mKcell,mKcell,,D77,2016-07-13T12:32:31+06:00,14
1000000000210470,77051468728,mKarTel,mAltel,mKarTel,D07,D01,2016-07-13T12:33:19+06:00,
1000000000210472,77055470320,mMTS,mKarTel,mKarTel,,D77,2016-07-13T12:38:30+06:00,
1000000000210475,77751934118,mMTS,mKcell,mKcell,,D77,2016-07-13T12:42:38+06:00,
1000000000210476,77085522294,mAltel,mMTS,mAltel,D77,D07,2016-07-13T12:43:25+06:00,
1000000000210477,77776901751,mMTS,mAltel,mKarTel,D07,D77,2016-07-13T12:43:54+06:00,
1000000000210478,77024535655,mMTS,mKcell,mKcell,,D77,2016-07-13T12:45:13+06:00,
1000000000210479,77771492593,mMTS,mKarTel,mKarTel,,D77,2016-07-13T12:46:36+06:00,
1000000000210482,77018805581,mAltel,mKcell,mKcell,,D07,2016-07-13T12:50:54+06:00,
1000000000210483,77059705110,mKcell,mKarTel,mKarTel,,D02,2016-07-13T12:52:47+06:00,
1000000000210484,77084939835,mMTS,mAltel,mAltel,,D77,2016-07-13T12:53:16+06:00,
1000000000210486,77076002739,mAltel,mMTS,mMTS,,D07,2016-07-13T12:57:10+06:00,
1000000000210488,77714444033,mMTS,mKarTel,mKarTel,,D77,2016-07-13T12:57:35+06:00,
1000000000210489,77053200051,mKarTel,mMTS,mKarTel,D77,D01,2016-07-13T12:58:45+06:00,
