NPId,Number,RecipientId,DonorId,RangeHolderId,OldRoute,NewRoute,PortDate,RowCount
1000000000130963,77002144580,mMTS,mAltel,mAltel,,D77,2016-03-22T16:31:50+06:00,19
1000000000130964,77784077082,mKcell,mAltel,mKcell,D07,D02,2016-03-22T16:34:31+06:00,
1000000000130965,77012167264,mMTS,mKcell,mKcell,,D77,2016-03-22T16:36:12+06:00,
1000000000130966,77005127084,mMTS,mAltel,mAltel,,D77,2016-03-22T16:36:09+06:00,
1000000000130967,77785550091,mMTS,mKcell,mKcell,,D77,2016-03-22T16:37:12+06:00,
1000000000130968,77764444757,mMTS,mKarTel,mKarTel,,D77,2016-03-22T16:40:13+06:00,
1000000000130969,77774787488,mMTS,mKarTel,mKarTel,,D77,2016-03-22T16:40:35+06:00,
1000000000130970,77764444202,mMTS,mKarTel,mKarTel,,D77,2016-03-22T16:41:00+06:00,
1000000000130971,77077997071,mKarTel,mMTS,mMTS,,D01,2016-03-22T16:45:47+06:00,
1000000000130972,77028883680,mKarTel,mKcell,mKcell,,D01,2016-03-22T16:46:58+06:00,
1000000000130973,77022576370,mMTS,mKcell,mKcell,,D77,2016-03-22T16:47:16+06:00,
1000000000130974,77057064550,mAltel,mKarTel,mKarTel,,D07,2016-03-22T16:48:31+06:00,
1000000000130976,77022305545,mKcell,mMTS,mKcell,D77,D02,2016-03-22T16:49:47+06:00,
1000000000130978,77771121675,mKcell,mKarTel,mKarTel,,D02,2016-03-22T16:55:46+06:00,
1000000000130979,77019227660,mMTS,mKcell,mKcell,,D77,2016-03-22T16:54:55+06:00,
1000000000130980,77076470747,mMTS,mAltel,mMTS,D07,D77,2016-03-22T16:54:54+06:00,
1000000000130981,77771121697,mKcell,mKarTel,mKarTel,,D02,2016-03-22T16:57:51+06:00,
1000000000130982,77771121673,mKcell,mKarTel,mKarTel,,D02,2016-03-22T16:58:32+06:00,
1000000000130983,77771121718,mKcell,mKarTel,mKarTel,,D02,2016-03-22T16:59:26+06:00,
