NPId,Number,RecipientId,DonorId,RangeHolderId,OldRoute,NewRoute,PortDate,RowCount
1000000000204799,77782636696,mKarTel,mKcell,mKcell,,D01,2016-07-04T17:32:18+06:00,17
1000000000204800,77772381857,mMTS,mKarTel,mKarTel,,D77,2016-07-04T17:34:30+06:00,
1000000000204801,77019932887,mKarTel,mKcell,mKcell,,D01,2016-07-04T17:34:59+06:00,
1000000000204802,77712938501,mKarTel,mKcell,mKarTel,D02,D01,2016-07-04T17:34:59+06:00,
1000000000204803,77713919830,mMTS,mKarTel,mKarTel,,D77,2016-07-04T17:37:32+06:00,
1000000000204804,77000002104,mKcell,mAltel,mAltel,,D02,2016-07-04T17:37:48+06:00,
1000000000204805,77777912312,mMTS,mKarTel,mKarTel,,D77,2016-07-04T17:38:22+06:00,
1000000000204806,77009992139,mKcell,mAltel,mAltel,,D02,2016-07-04T17:40:57+06:00,
1000000000204808,77712903416,mKarTel,mKcell,mKarTel,D02,D01,2016-07-04T17:41:53+06:00,
1000000000204809,77786435737,mKarTel,mKcell,mKcell,,D01,2016-07-04T17:42:34+06:00,
1000000000204810,77712938505,mKarTel,mKcell,mKarTel,D02,D01,2016-07-04T17:46:23+06:00,
1000000000204811,77021052194,mKcell,mAltel,mKcell,D07,D02,2016-07-04T17:47:10+06:00,
1000000000204812,77051807010,mMTS,mAltel,mKarTel,D07,D77,2016-07-04T17:48:56+06:00,
1000000000204813,77712903414,mKarTel,mKcell,mKarTel,D02,D01,2016-07-04T17:50:51+06:00,
1000000000204814,77712938512,mKarTel,mKcell,mKarTel,D02,D01,2016-07-04T17:55:34+06:00,
1000000000204815,77029646922,mKcell,mMTS,mKcell,D77,D02,2016-07-04T17:56:40+06:00,
1000000000204818,77773881125,mAltel,mKarTel,mKarTel,,D07,2016-07-04T17:59:27+06:00,
