NPId,Number,RecipientId,DonorId,RangeHolderId,OldRoute,NewRoute,PortDate,RowCount
1000000000296433,77013247137,mKarTel,mKcell,mKcell,,D01,2016-12-17T15:30:14+06:00,17
1000000000296434,77019595195,mMTS,mKcell,mKcell,,D77,2016-12-17T15:30:45+06:00,
1000000000296435,77009912345,mMTS,mAltel,mAltel,,D77,2016-12-17T15:32:35+06:00,
1000000000296436,77015293594,mMTS,mKcell,mKcell,,D77,2016-12-17T15:32:41+06:00,
1000000000296437,77085174201,mMTS,mAltel,mAltel,,D77,2016-12-17T15:33:55+06:00,
1000000000296438,77058158585,mKcell,mMTS,mKarTel,D77,D02,2016-12-17T15:37:23+06:00,
1000000000296439,77015571087,mMTS,mKcell,mKcell,,D77,2016-12-17T15:38:37+06:00,
1000000000296440,77077270487,mMTS,mAltel,mMTS,D07,D77,2016-12-17T15:38:36+06:00,
1000000000296441,77776003015,mKcell,mKarTel,mKarTel,,D02,2016-12-17T15:39:25+06:00,
1000000000296442,77472300997,mKcell,mMTS,mMTS,,D02,2016-12-17T15:42:52+06:00,
1000000000296445,77076879178,mAltel,mMTS,mMTS,,D07,2016-12-17T15:49:36+06:00,
1000000000296446,77011420725,mMTS,mKcell,mKcell,,D77,2016-12-17T15:52:13+06:00,
1000000000296447,77000210494,mMTS,mAltel,mAltel,,D77,2016-12-17T15:54:23+06:00,
1000000000296448,77023152663,mKarTel,mKcell,mKcell,,D01,2016-12-17T15:55:24+06:00,
1000000000296449,77027288038,mMTS,mKcell,mKcell,,D77,2016-12-17T15:57:50+06:00,
1000000000296450,77759343550,mKarTel,mKcell,mKcell,,D01,2016-12-17T15:58:09+06:00,
1000000000296451,77082408193,mKcell,mAltel,mAltel,,D02,2016-12-17T15:59:24+06:00,
