NPId,Number,RecipientId,DonorId,RangeHolderId,OldRoute,NewRoute,PortDate,RowCount
1000000000255070,77026626600,mKcell,mKarTel,mKcell,D01,D02,2016-10-03T18:00:24+06:00,36
1000000000256207,77774731073,mMTS,mKarTel,mKarTel,,D77,2016-10-03T18:00:43+06:00,
1000000000256212,77027530521,mMTS,mKcell,mKcell,,D77,2016-10-03T18:00:57+06:00,
1000000000256213,77018232388,mMTS,mKcell,mKcell,,D77,2016-10-03T18:01:03+06:00,
1000000000256214,77016228624,mMTS,mKcell,mKcell,,D77,2016-10-03T18:01:03+06:00,
1000000000256215,77007774207,mKcell,mAltel,mAltel,,D02,2016-10-03T18:01:22+06:00,
1000000000256217,77079850507,mKcell,mMTS,mMTS,,D02,2016-10-03T18:02:26+06:00,
1000000000256218,77779415353,mMTS,mKarTel,mKarTel,,D77,2016-10-03T18:06:15+06:00,
1000000000256219,77007773607,mKcell,mAltel,mAltel,,D02,2016-10-03T18:02:50+06:00,
1000000000256220,77017120707,mAltel,mKcell,mKcell,,D07,2016-10-03T18:03:03+06:00,
1000000000256221,77072798485,mAltel,mMTS,mMTS,,D07,2016-10-03T18:03:05+06:00,
1000000000256222,77005000545,mKcell,mAltel,mAltel,,D02,2016-10-03T18:03:21+06:00,
1000000000256223,77018232382,mMTS,mKcell,mKcell,,D77,2016-10-03T18:03:23+06:00,
1000000000256224,77017994792,mKcell,mMTS,mKcell,D77,D02,2016-10-03T18:04:31+06:00,
1000000000256225,77085555587,mMTS,mAltel,mAltel,,D77,2016-10-03T18:04:45+06:00,
1000000000256228,77017950202,mKarTel,mKcell,mKcell,,D01,2016-10-03T18:07:36+06:00,
1000000000256230,77007774907,mKcell,mAltel,mAltel,,D02,2016-10-03T18:06:51+06:00,
1000000000256231,77077758778,mKarTel,mMTS,mMTS,,D01,2016-10-03T18:09:01+06:00,
1000000000256233,77007775407,mKcell,mAltel,mAltel,,D02,2016-10-03T18:09:41+06:00,
1000000000256234,77017516704,mKarTel,mKcell,mKcell,,D01,2016-10-03T18:16:07+06:00,
1000000000256235,77007772807,mKcell,mAltel,mAltel,,D02,2016-10-03T18:10:57+06:00,
1000000000256237,77007773907,mKcell,mAltel,mAltel,,D02,2016-10-03T18:11:57+06:00,
1000000000256238,77057431303,mKarTel,mMTS,mKarTel,D77,D01,2016-10-03T18:13:16+06:00,
1000000000256239,77072226666,mKcell,mMTS,mMTS,,D02,2016-10-03T18:13:13+06:00,
1000000000256241,77475000046,mKarTel,mMTS,mMTS,,D01,2016-10-03T18:14:42+06:00,
1000000000256244,77057964881,mKcell,mMTS,mKarTel,D77,D02,2016-10-03T18:15:56+06:00,
1000000000256245,77017302289,mAltel,mKcell,mKcell,,D07,2016-10-03T18:17:02+06:00,
1000000000256247,77773579393,mMTS,mKarTel,mKarTel,,D77,2016-10-03T18:19:28+06:00,
1000000000256252,77017718446,mKarTel,mKcell,mKcell,D02,D01,2016-10-03T18:23:26+06:00,
1000000000256253,77472000484,mMTS,mAltel,mMTS,D07,D77,2016-10-03T18:23:15+06:00,
1000000000256254,77082461716,mKarTel,mAltel,mAltel,,D01,2016-10-03T18:24:46+06:00,
1000000000256257,77007776989,mKcell,mAltel,mAltel,,D02,2016-10-03T18:25:50+06:00,
1000000000256258,77710801422,mKcell,mMTS,mKarTel,D77,D02,2016-10-03T18:26:23+06:00,
1000000000256259,77751779545,mMTS,mKcell,mKcell,,D77,2016-10-03T18:27:25+06:00,
1000000000256261,77011901190,mMTS,mKcell,mKcell,,D77,2016-10-03T18:27:33+06:00,
1000000000256262,77088251194,mKarTel,mAltel,mAltel,,D01,2016-10-03T18:29:57+06:00,
