NPId,Number,RecipientId,DonorId,RangeHolderId,OldRoute,NewRoute,PortDate,RowCount
1000000000364055,77754491949,mAltel,mKcell,mKcell,,D07,2017-04-11T15:30:38+06:00,22
1000000000364058,77018884871,mMTS,mKcell,mKcell,,D77,2017-04-11T15:33:11+06:00,
1000000000364061,77765768888,mKcell,mKarTel,mKarTel,,D02,2017-04-11T15:36:53+06:00,
1000000000364063,77020771770,mMTS,mKcell,mKcell,,D77,2017-04-11T15:38:23+06:00,
1000000000364064,77072775897,mKarTel,mMTS,mMTS,,D01,2017-04-11T15:39:33+06:00,
1000000000364067,77011657665,mAltel,mKcell,mKcell,,D07,2017-04-11T15:42:10+06:00,
1000000000364068,77763277777,mKarTel,mAltel,mKarTel,D07,D01,2017-04-11T15:42:31+06:00,
1000000000364069,77783878757,mMTS,mKcell,mKcell,,D77,2017-04-11T15:42:59+06:00,
1000000000364075,77013331366,mMTS,mKcell,mKcell,,D77,2017-04-11T15:48:23+06:00,
1000000000364077,77012996711,mKarTel,mAltel,mKcell,D07,D01,2017-04-11T15:51:22+06:00,
1000000000364078,77075700777,mKcell,mMTS,mMTS,,D02,2017-04-11T15:51:33+06:00,
1000000000364079,77016431634,mMTS,mKcell,mKcell,,D77,2017-04-11T15:52:24+06:00,
1000000000364080,77013424222,mMTS,mKcell,mKcell,,D77,2017-04-11T15:52:53+06:00,
1000000000364081,77022172371,mAltel,mKcell,mKcell,,D07,2017-04-11T15:53:00+06:00,
1000000000364082,77015550028,mKarTel,mMTS,mKcell,D77,D01,2017-04-11T15:53:15+06:00,
1000000000364083,77016177276,mMTS,mKcell,mKcell,,D77,2017-04-11T15:54:05+06:00,
1000000000364084,77754554554,mMTS,mKcell,mKcell,,D77,2017-04-11T15:54:35+06:00,
1000000000364086,77767458238,mAltel,mKarTel,mKarTel,,D07,2017-04-11T15:55:56+06:00,
1000000000364087,77751012819,mKarTel,mKcell,mKcell,,D01,2017-04-11T15:56:51+06:00,
1000000000364088,77026781144,mKarTel,mMTS,mKcell,D77,D01,2017-04-11T15:57:59+06:00,
1000000000364089,77076857860,mKcell,mMTS,mMTS,,D02,2017-04-11T15:58:41+06:00,
1000000000364090,77755945556,mKarTel,mKcell,mKcell,,D01,2017-04-11T15:59:56+06:00,
