NPId,Number,RecipientId,DonorId,RangeHolderId,OldRoute,NewRoute,PortDate,RowCount
1000000000195402,77017254703,mKarTel,mKcell,mKcell,,D01,2016-06-20T09:51:19+06:00,13
1000000000196247,77017665418,mKarTel,mKcell,mKcell,,D01,2016-06-20T09:33:25+06:00,
1000000000196260,77081333099,mMTS,mKarTel,mAltel,D01,D77,2016-06-20T09:30:36+06:00,
1000000000196261,77013505402,mKcell,mMTS,mKcell,D77,D02,2016-06-20T09:31:15+06:00,
1000000000196264,77756016171,mMTS,mKcell,mKcell,,D77,2016-06-20T09:39:31+06:00,
1000000000196266,77054762361,mMTS,mKarTel,mKarTel,,D77,2016-06-20T09:39:07+06:00,
1000000000196267,77751710045,mMTS,mKcell,mKcell,,D77,2016-06-20T09:42:31+06:00,
1000000000196268,77474988883,mKcell,mMTS,mMTS,,D02,2016-06-20T09:43:10+06:00,
1000000000196270,77017311359,mMTS,mKcell,mKcell,,D77,2016-06-20T09:49:02+06:00,
1000000000196271,77059957770,mMTS,mKarTel,mKarTel,,D77,2016-06-20T09:49:38+06:00,
1000000000196272,77022919190,mKarTel,mKcell,mKcell,,D01,2016-06-20T09:53:22+06:00,
1000000000196273,77089084685,mAltel,mMTS,mAltel,D77,D07,2016-06-20T09:55:33+06:00,
1000000000196275,77087763829,mMTS,mAltel,mAltel,,D77,2016-06-20T09:59:18+06:00,
