NPId,Number,RecipientId,DonorId,RangeHolderId,OldRoute,NewRoute,PortDate,RowCount
1000000000199003,77759900054,mMTS,mKcell,mKcell,,D77,2016-06-24T12:34:42+06:00,21
1000000000199006,77089790099,mMTS,mAltel,mAltel,,D77,2016-06-24T12:36:13+06:00,
1000000000199007,77477778071,mKarTel,mMTS,mMTS,,D01,2016-06-24T12:37:22+06:00,
1000000000199008,77755664656,mMTS,mKcell,mKcell,,D77,2016-06-24T12:37:49+06:00,
1000000000199009,77087416088,mMTS,mAltel,mAltel,,D77,2016-06-24T12:37:13+06:00,
1000000000199010,77777190909,mKarTel,mMTS,mKarTel,D77,D01,2016-06-24T12:38:19+06:00,
1000000000199012,77753936666,mMTS,mKcell,mKcell,,D77,2016-06-24T12:41:45+06:00,
1000000000199013,77011273000,mKcell,mMTS,mKcell,D77,D02,2016-06-24T12:42:31+06:00,
1000000000199015,77776358975,mMTS,mKarTel,mKarTel,,D77,2016-06-24T12:42:28+06:00,
1000000000199016,77779957500,mMTS,mKarTel,mKarTel,,D77,2016-06-24T12:44:05+06:00,
1000000000199017,77712024745,mAltel,mKarTel,mKarTel,,D07,2016-06-24T12:44:20+06:00,
1000000000199019,77074403043,mKcell,mMTS,mMTS,,D02,2016-06-24T12:45:37+06:00,
1000000000199020,77087416089,mMTS,mAltel,mAltel,,D77,2016-06-24T12:47:12+06:00,
1000000000199021,77013301103,mKcell,mMTS,mKcell,D77,D02,2016-06-24T12:48:25+06:00,
1000000000199024,77027560815,mKarTel,mKcell,mKcell,,D01,2016-06-24T12:50:52+06:00,
1000000000199025,77059044888,mMTS,mKarTel,mKarTel,,D77,2016-06-24T12:50:50+06:00,
1000000000199026,77714532681,mMTS,mKarTel,mKarTel,,D77,2016-06-24T12:51:08+06:00,
1000000000199027,77010000011,mKcell,mAltel,mKcell,D07,D02,2016-06-24T12:53:18+06:00,
1000000000199029,77007721077,mAltel,mMTS,mAltel,D77,D07,2016-06-24T12:55:57+06:00,
1000000000199030,77015515153,mMTS,mKcell,mKcell,,D77,2016-06-24T12:58:14+06:00,
1000000000199031,77767771077,mAltel,mMTS,mKarTel,D77,D07,2016-06-24T12:58:09+06:00,
