NPId,Number,RecipientId,DonorId,RangeHolderId,OldRoute,NewRoute,PortDate,RowCount
1000000000247394,77754664457,mKarTel,mKcell,mKcell,,D01,2016-09-18T13:00:42+06:00,6
1000000000247396,77017948636,mKarTel,mKcell,mKcell,,D01,2016-09-18T13:05:53+06:00,
1000000000247398,77024606262,mMTS,mKcell,mKcell,,D77,2016-09-18T13:13:31+06:00,
1000000000247399,77052118674,mMTS,mKarTel,mKarTel,,D77,2016-09-18T13:14:34+06:00,
1000000000247401,77770223659,mKcell,mKarTel,mKarTel,,D02,2016-09-18T13:20:10+06:00,
1000000000247404,77052519152,mMTS,mKarTel,mKarTel,,D77,2016-09-18T13:23:20+06:00,
