NPId,Number,RecipientId,DonorId,RangeHolderId,OldRoute,NewRoute,PortDate,RowCount
1000000000401945,77751767072,mKarTel,mKcell,mKcell,,D01,2017-06-12T16:02:56+06:00,30
1000000000401946,77782551995,mKcell,mMTS,mKcell,D77,D02,2017-06-12T16:03:40+06:00,
1000000000401947,77057462424,mAltel,mKarTel,mKarTel,,D07,2017-06-12T16:05:02+06:00,
1000000000401948,77019600069,mKarTel,mKcell,mKcell,,D01,2017-06-12T16:04:59+06:00,
1000000000401949,77075955151,mKcell,mMTS,mMTS,,D02,2017-06-12T16:04:56+06:00,
1000000000401952,77019993337,mKarTel,mKcell,mKcell,,D01,2017-06-12T16:06:48+06:00,
1000000000401955,77470627323,mMTS,mAltel,mMTS,D07,D77,2017-06-12T16:08:17+06:00,
1000000000401956,77013268080,mKcell,mAltel,mKcell,D07,D02,2017-06-12T16:08:39+06:00,
1000000000401957,77083141312,mMTS,mAltel,mAltel,,D77,2017-06-12T16:08:57+06:00,
1000000000401958,77004810909,mKarTel,mMTS,mAltel,D77,D01,2017-06-12T16:09:21+06:00,
1000000000401959,77081144044,mKcell,mMTS,mAltel,D77,D02,2017-06-12T16:11:20+06:00,
1000000000401960,77760000903,mMTS,mKarTel,mKarTel,,D77,2017-06-12T16:11:53+06:00,
1000000000401961,77012065177,mKarTel,mKcell,mKcell,,D01,2017-06-12T16:12:58+06:00,
1000000000401962,77079797225,mAltel,mMTS,mMTS,,D07,2017-06-12T16:14:52+06:00,
1000000000401963,77011056488,mKcell,mMTS,mKcell,D77,D02,2017-06-12T16:15:18+06:00,
1000000000401965,77075677796,mAltel,mMTS,mMTS,,D07,2017-06-12T16:15:58+06:00,
1000000000401966,77017133311,mKarTel,mKcell,mKcell,,D01,2017-06-12T16:17:32+06:00,
1000000000401967,77000999796,mMTS,mAltel,mAltel,,D77,2017-06-12T16:17:20+06:00,
1000000000401969,77025880620,mKarTel,mKcell,mKcell,,D01,2017-06-12T16:18:33+06:00,
1000000000401970,77003603660,mKcell,mAltel,mAltel,,D02,2017-06-12T16:21:26+06:00,
1000000000401972,77017296121,mAltel,mMTS,mKcell,D77,D07,2017-06-12T16:21:37+06:00,
1000000000401973,77055937118,mMTS,mKarTel,mKarTel,,D77,2017-06-12T16:22:15+06:00,
1000000000401974,77075700386,mKarTel,mMTS,mMTS,,D01,2017-06-12T16:23:36+06:00,
1000000000401975,77772222631,mMTS,mKarTel,mKarTel,,D77,2017-06-12T16:25:00+06:00,
1000000000401977,77781211108,mAltel,mKcell,mKcell,,D07,2017-06-12T16:26:02+06:00,
1000000000401978,77476000789,mMTS,mKcell,mMTS,D02,D77,2017-06-12T16:26:40+06:00,
1000000000401980,77077009115,mMTS,mKarTel,mMTS,D01,D77,2017-06-12T16:27:47+06:00,
1000000000401982,77023292909,mAltel,mKarTel,mKcell,D01,D07,2017-06-12T16:29:23+06:00,
1000000000401983,77017327385,mMTS,mKcell,mKcell,,D77,2017-06-12T16:29:30+06:00,
1000000000401985,77004804880,mKcell,mAltel,mAltel,,D02,2017-06-12T16:29:48+06:00,
