NPId,Number,RecipientId,DonorId,RangeHolderId,OldRoute,NewRoute,PortDate,RowCount
1000000000201988,77012179373,mKarTel,mKcell,mKcell,,D01,2016-06-29T11:40:57+06:00,85
1000000000201988,77012179375,mKarTel,mKcell,mKcell,,D01,2016-06-29T11:40:57+06:00,
1000000000201988,77012256493,mKarTel,mKcell,mKcell,,D01,2016-06-29T11:40:57+06:00,
1000000000201988,77012357376,mKarTel,mKcell,mKcell,,D01,2016-06-29T11:40:57+06:00,
1000000000201988,77015191387,mKarTel,mKcell,mKcell,,D01,2016-06-29T11:40:57+06:00,
1000000000201988,77015193763,mKarTel,mKcell,mKcell,,D01,2016-06-29T11:40:57+06:00,
1000000000201988,77015193764,mKarTel,mKcell,mKcell,,D01,2016-06-29T11:40:57+06:00,
1000000000201988,77015193976,mKarTel,mKcell,mKcell,,D01,2016-06-29T11:40:57+06:00,
1000000000201988,77015193978,mKarTel,mKcell,mKcell,,D01,2016-06-29T11:40:57+06:00,
1000000000201988,77015193980,mKarTel,mKcell,mKcell,,D01,2016-06-29T11:40:57+06:00,
1000000000201988,77015193981,mKarTel,mKcell,mKcell,,D01,2016-06-29T11:40:57+06:00,
1000000000201988,77015193982,mKarTel,mKcell,mKcell,,D01,2016-06-29T11:40:57+06:00,
1000000000201988,77015193983,mKarTel,mKcell,mKcell,,D01,2016-06-29T11:40:57+06:00,
1000000000201988,77015193984,mKarTel,mKcell,mKcell,,D01,2016-06-29T11:40:57+06:00,
1000000000201988,77015193986,mKarTel,mKcell,mKcell,,D01,2016-06-29T11:40:57+06:00,
1000000000201988,77015310128,mKarTel,mKcell,mKcell,,D01,2016-06-29T11:40:57+06:00,
1000000000201988,77017100571,mKarTel,mKcell,mKcell,,D01,2016-06-29T11:40:57+06:00,
1000000000201988,77017117105,mKarTel,mKcell,mKcell,,D01,2016-06-29T11:40:57+06:00,
1000000000201988,77017118004,mKarTel,mKcell,mKcell,,D01,2016-06-29T11:40:57+06:00,
1000000000201988,77017206203,mKarTel,mKcell,mKcell,,D01,2016-06-29T11:40:57+06:00,
1000000000201988,77017241107,mKarTel,mKcell,mKcell,,D01,2016-06-29T11:40:57+06:00,
1000000000201988,77017241108,mKarTel,mKcell,mKcell,,D01,2016-06-29T11:40:57+06:00,
1000000000201988,77017241146,mKarTel,mKcell,mKcell,,D01,2016-06-29T11:40:57+06:00,
1000000000201988,77017261267,mKarTel,mKcell,mKcell,,D01,2016-06-29T11:40:57+06:00,
1000000000201988,77017299543,mKarTel,mKcell,mKcell,,D01,2016-06-29T11:40:57+06:00,
1000000000201988,77017472018,mKarTel,mKcell,mKcell,,D01,2016-06-29T11:40:57+06:00,
1000000000201988,77017490843,mKarTel,mKcell,mKcell,,D01,2016-06-29T11:40:57+06:00,
1000000000201988,77017520299,mKarTel,mKcell,mKcell,,D01,2016-06-29T11:40:57+06:00,
1000000000201988,77017615346,mKarTel,mKcell,mKcell,,D01,2016-06-29T11:40:57+06:00,
1000000000201988,77017615347,mKarTel,mKcell,mKcell,,D01,2016-06-29T11:40:57+06:00,
1000000000201988,77017615348,mKarTel,mKcell,mKcell,,D01,2016-06-29T11:40:57+06:00,
1000000000201988,77017615352,mKarTel,mKcell,mKcell,,D01,2016-06-29T11:40:57+06:00,
1000000000201988,77017630848,mKarTel,mKcell,mKcell,,D01,2016-06-29T11:40:57+06:00,
1000000000201988,77017688487,mKarTel,mKcell,mKcell,,D01,2016-06-29T11:40:57+06:00,
1000000000201988,77017688492,mKarTel,mKcell,mKcell,,D01,2016-06-29T11:40:57+06:00,
1000000000201988,77017688508,mKarTel,mKcell,mKcell,,D01,2016-06-29T11:40:57+06:00,
1000000000201988,77017688509,mKarTel,mKcell,mKcell,,D01,2016-06-29T11:40:57+06:00,
1000000000201988,77017688511,mKarTel,mKcell,mKcell,,D01,2016-06-29T11:40:57+06:00,
1000000000201988,77017688516,mKarTel,mKcell,mKcell,,D01,2016-06-29T11:40:57+06:00,
1000000000201988,77017688523,mKarTel,mKcell,mKcell,,D01,2016-06-29T11:40:57+06:00,
1000000000201988,77017688524,mKarTel,mKcell,mKcell,,D01,2016-06-29T11:40:57+06:00,
1000000000201988,77017865670,mKarTel,mKcell,mKcell,,D01,2016-06-29T11:40:57+06:00,
1000000000201988,77017865672,mKarTel,mKcell,mKcell,,D01,2016-06-29T11:40:57+06:00,
1000000000201988,77018862750,mKarTel,mKcell,mKcell,,D01,2016-06-29T11:40:57+06:00,
1000000000201988,77018862751,mKarTel,mKcell,mKcell,,D01,2016-06-29T11:40:57+06:00,
1000000000201988,77019242502,mKarTel,mKcell,mKcell,,D01,2016-06-29T11:40:57+06:00,
1000000000201988,77019242504,mKarTel,mKcell,mKcell,,D01,2016-06-29T11:40:57+06:00,
1000000000201988,77019242505,mKarTel,mKcell,mKcell,,D01,2016-06-29T11:40:57+06:00,
1000000000201988,77019500028,mKarTel,mKcell,mKcell,,D01,2016-06-29T11:40:57+06:00,
1000000000201988,77019534785,mKarTel,mKcell,mKcell,,D01,2016-06-29T11:40:57+06:00,
1000000000201988,77019534786,mKarTel,mKcell,mKcell,,D01,2016-06-29T11:40:57+06:00,
1000000000201988,77019580014,mKarTel,mKcell,mKcell,,D01,2016-06-29T11:40:57+06:00,
1000000000201988,77019581590,mKarTel,mKcell,mKcell,,D01,2016-06-29T11:40:57+06:00,
1000000000201988,77019589843,mKarTel,mKcell,mKcell,,D01,2016-06-29T11:40:57+06:00,
1000000000201988,77019600348,mKarTel,mKcell,mKcell,,D01,2016-06-29T11:40:57+06:00,
1000000000201988,77019601167,mKarTel,mKcell,mKcell,,D01,2016-06-29T11:40:57+06:00,
1000000000201988,77019601168,mKarTel,mKcell,mKcell,,D01,2016-06-29T11:40:57+06:00,
1000000000201988,77019601172,mKarTel,mKcell,mKcell,,D01,2016-06-29T11:40:57+06:00,
1000000000201988,77019789913,mKarTel,mKcell,mKcell,,D01,2016-06-29T11:40:57+06:00,
1000000000201988,77019829709,mKarTel,mKcell,mKcell,,D01,2016-06-29T11:40:57+06:00,
1000000000201988,77019829710,mKarTel,mKcell,mKcell,,D01,2016-06-29T11:40:57+06:00,
1000000000201988,77019915042,mKarTel,mKcell,mKcell,,D01,2016-06-29T11:40:57+06:00,
1000000000201988,77019915043,mKarTel,mKcell,mKcell,,D01,2016-06-29T11:40:57+06:00,
1000000000201988,77019915044,mKarTel,mKcell,mKcell,,D01,2016-06-29T11:40:57+06:00,
1000000000201988,77019915045,mKarTel,mKcell,mKcell,,D01,2016-06-29T11:40:57+06:00,
1000000000201988,77019915046,mKarTel,mKcell,mKcell,,D01,2016-06-29T11:40:57+06:00,
1000000000201988,77019915259,mKarTel,mKcell,mKcell,,D01,2016-06-29T11:40:57+06:00,
1000000000201988,77019917561,mKarTel,mKcell,mKcell,,D01,2016-06-29T11:40:57+06:00,
1000000000201988,77019932634,mKarTel,mKcell,mKcell,,D01,2016-06-29T11:40:57+06:00,
1000000000201988,77019933763,mKarTel,mKcell,mKcell,,D01,2016-06-29T11:40:57+06:00,
1000000000202107,77712722222,mKarTel,mKcell,mKarTel,D02,D01,2016-06-29T11:32:21+06:00,
1000000000202108,77072148434,mKarTel,mMTS,mMTS,,D01,2016-06-29T11:32:39+06:00,
1000000000202109,77014000181,mMTS,mKcell,mKcell,,D77,2016-06-29T11:33:34+06:00,
1000000000202110,77755482209,mKcell,mMTS,mKcell,D77,D02,2016-06-29T11:34:39+06:00,
1000000000202111,77052033666,mMTS,mKarTel,mKarTel,,D77,2016-06-29T11:34:57+06:00,
1000000000202112,77021489939,mMTS,mKcell,mKcell,,D77,2016-06-29T11:39:51+06:00,
1000000000202113,77013689888,mKcell,mAltel,mKcell,D07,D02,2016-06-29T11:40:00+06:00,
1000000000202114,77077131550,mAltel,mMTS,mMTS,,D07,2016-06-29T11:39:14+06:00,
1000000000202115,77757765353,mMTS,mKcell,mKcell,,D77,2016-06-29T11:46:52+06:00,
1000000000202116,77018806967,mKarTel,mAltel,mKcell,D07,D01,2016-06-29T11:41:19+06:00,
1000000000202118,77775260838,mMTS,mKarTel,mKarTel,,D77,2016-06-29T11:44:39+06:00,
1000000000202120,77015994870,mKarTel,mKcell,mKcell,,D01,2016-06-29T11:50:14+06:00,
1000000000202122,77073322224,mAltel,mMTS,mMTS,,D07,2016-06-29T11:46:43+06:00,
1000000000202123,77777670500,mKcell,mKarTel,mKarTel,,D02,2016-06-29T11:51:34+06:00,
1000000000202126,77003898438,mKcell,mAltel,mAltel,,D02,2016-06-29T11:58:12+06:00,
