NPId,Number,RecipientId,DonorId,RangeHolderId,OldRoute,NewRoute,PortDate,RowCount
1000000000250296,77027509958,mKarTel,mKcell,mKcell,,D01,2016-09-23T19:31:55+06:00,12
1000000000250297,77081012138,mMTS,mAltel,mAltel,,D77,2016-09-23T19:34:03+06:00,
1000000000250298,77018001805,mMTS,mKcell,mKcell,,D77,2016-09-23T19:34:56+06:00,
1000000000250299,77477005555,mKcell,mMTS,mMTS,,D02,2016-09-23T19:37:39+06:00,
1000000000250300,77018007292,mKcell,mKarTel,mKcell,D01,D02,2016-09-23T19:39:43+06:00,
1000000000250302,77718058888,mKcell,mKarTel,mKarTel,,D02,2016-09-23T19:43:14+06:00,
1000000000250303,77789073731,mKcell,mAltel,mKcell,D07,D02,2016-09-23T19:41:34+06:00,
1000000000250304,77778622229,mMTS,mKarTel,mKarTel,,D77,2016-09-23T19:44:55+06:00,
1000000000250306,77770222025,mKcell,mKarTel,mKarTel,,D02,2016-09-23T19:49:49+06:00,
1000000000250307,77023669938,mKcell,mAltel,mKcell,D07,D02,2016-09-23T19:45:09+06:00,
1000000000250309,77019048181,mMTS,mKcell,mKcell,,D77,2016-09-23T19:47:31+06:00,
1000000000250310,77756933310,mKarTel,mKcell,mKcell,,D01,2016-09-23T19:53:13+06:00,
