NPId,Number,RecipientId,DonorId,RangeHolderId,OldRoute,NewRoute,PortDate,RowCount
1000000000348309,77471896777,mAltel,mMTS,mMTS,,D07,2017-03-17T09:42:54+06:00,7
1000000000348310,77478837471,mAltel,mMTS,mMTS,,D07,2017-03-17T09:43:55+06:00,
1000000000348311,77027748551,mAltel,mKcell,mKcell,,D07,2017-03-17T09:44:54+06:00,
1000000000348313,77027748554,mAltel,mKcell,mKcell,,D07,2017-03-17T09:45:40+06:00,
1000000000348314,77023895157,mAltel,mKcell,mKcell,,D07,2017-03-17T09:46:26+06:00,
1000000000348315,77072382292,mAltel,mMTS,mMTS,,D07,2017-03-17T09:46:32+06:00,
1000000000348320,77027748553,mAltel,mKcell,mKcell,,D07,2017-03-17T09:53:39+06:00,
