NPId,Number,RecipientId,DonorId,RangeHolderId,OldRoute,NewRoute,PortDate,RowCount
1000000000358381,77712864696,mKarTel,mMTS,mKarTel,D77,D01,2017-04-03T14:52:28+06:00,44
1000000000358384,77016040346,mKarTel,mKcell,mKcell,,D01,2017-04-03T14:51:07+06:00,
1000000000358385,77076185021,mKarTel,mMTS,mMTS,,D01,2017-04-03T14:51:41+06:00,
1000000000358601,77017868280,mKcell,mKarTel,mKcell,D01,D02,2017-04-03T14:57:42+06:00,
1000000000358668,77006403540,mKcell,mAltel,mAltel,,D02,2017-04-03T14:30:52+06:00,
1000000000358669,77025035568,mMTS,mAltel,mKcell,D07,D77,2017-04-03T14:31:16+06:00,
1000000000358670,77789162114,mAltel,mKcell,mKcell,,D07,2017-04-03T14:31:59+06:00,
1000000000358671,77011734919,mKarTel,mAltel,mKcell,D07,D01,2017-04-03T14:32:49+06:00,
1000000000358672,77778931319,mKarTel,mAltel,mKarTel,D07,D01,2017-04-03T14:32:53+06:00,
1000000000358673,77028254005,mMTS,mKcell,mKcell,,D77,2017-04-03T14:32:51+06:00,
1000000000358674,77014464807,mMTS,mKcell,mKcell,,D77,2017-04-03T14:33:16+06:00,
1000000000358675,77753339599,mMTS,mKcell,mKcell,,D77,2017-04-03T14:33:16+06:00,
1000000000358676,77055166040,mKcell,mKarTel,mKarTel,,D02,2017-04-03T14:33:52+06:00,
1000000000358677,77013711737,mAltel,mKcell,mKcell,,D07,2017-04-03T14:33:51+06:00,
1000000000358678,77072551505,mMTS,mAltel,mMTS,D07,D77,2017-04-03T14:34:20+06:00,
1000000000358680,77017641190,mKarTel,mKcell,mKcell,,D01,2017-04-03T14:35:24+06:00,
1000000000358681,77055555257,mMTS,mKarTel,mKarTel,,D77,2017-04-03T14:38:02+06:00,
1000000000358682,77072053001,mAltel,mMTS,mMTS,,D07,2017-04-03T14:37:49+06:00,
1000000000358683,77774193728,mKcell,mKarTel,mKarTel,,D02,2017-04-03T14:38:32+06:00,
1000000000358684,77025336256,mKarTel,mKcell,mKcell,,D01,2017-04-03T14:38:40+06:00,
1000000000358685,77015576466,mKarTel,mKcell,mKcell,,D01,2017-04-03T14:39:22+06:00,
1000000000358686,77077617824,mAltel,mMTS,mMTS,,D07,2017-04-03T14:40:17+06:00,
1000000000358689,77470541594,mKarTel,mMTS,mMTS,,D01,2017-04-03T14:42:11+06:00,
1000000000358690,77018333645,mKcell,mMTS,mKcell,D77,D02,2017-04-03T14:42:35+06:00,
1000000000358691,77004500450,mMTS,mAltel,mAltel,,D77,2017-04-03T14:42:31+06:00,
1000000000358693,77077617825,mAltel,mMTS,mMTS,,D07,2017-04-03T14:43:15+06:00,
1000000000358696,77053312991,mKarTel,mMTS,mKarTel,D77,D01,2017-04-03T14:45:29+06:00,
1000000000358697,77071992410,mMTS,mKcell,mMTS,D02,D77,2017-04-03T14:45:28+06:00,
1000000000358698,77028628575,mMTS,mKcell,mKcell,,D77,2017-04-03T14:45:59+06:00,
1000000000358700,77056997777,mMTS,mKarTel,mKarTel,,D77,2017-04-03T14:46:40+06:00,
1000000000358701,77775663350,mMTS,mKarTel,mKarTel,,D77,2017-04-03T14:47:38+06:00,
1000000000358702,77778377760,mMTS,mKarTel,mKarTel,D01,D77,2017-04-03T14:47:58+06:00,
1000000000358704,77081341301,mAltel,mKcell,mAltel,D02,D07,2017-04-03T14:49:02+06:00,
1000000000358705,77055734152,mMTS,mKarTel,mKarTel,,D77,2017-04-03T14:49:22+06:00,
1000000000358706,77716669933,mKcell,mKarTel,mKarTel,,D02,2017-04-03T14:51:56+06:00,
1000000000358708,77757728686,mAltel,mKcell,mKcell,,D07,2017-04-03T14:52:48+06:00,
1000000000358710,77021555096,mMTS,mKcell,mKcell,,D77,2017-04-03T14:53:21+06:00,
1000000000358711,77768002305,mKarTel,mMTS,mKarTel,D77,D01,2017-04-03T14:53:50+06:00,
1000000000358712,77015257849,mKcell,mMTS,mKcell,D77,D02,2017-04-03T14:54:09+06:00,
1000000000358713,77011009157,mKarTel,mKcell,mKcell,,D01,2017-04-03T14:55:03+06:00,
1000000000358714,77076600086,mKarTel,mMTS,mMTS,D77,D01,2017-04-03T14:55:18+06:00,
1000000000358715,77009797500,mKarTel,mAltel,mAltel,,D01,2017-04-03T14:56:55+06:00,
1000000000358716,77476799733,mKcell,mMTS,mMTS,,D02,2017-04-03T14:57:20+06:00,
1000000000358717,77015305005,mKarTel,mKcell,mKcell,,D01,2017-04-03T14:58:39+06:00,
