NPId,Number,RecipientId,DonorId,RangeHolderId,OldRoute,NewRoute,PortDate,RowCount
1000000000091236,77075564596,mKarTel,mMTS,mMTS,,D01,2016-02-17T15:30:19+06:00,46
1000000000091237,77023231430,mKarTel,mKcell,mKcell,,D01,2016-02-17T15:30:39+06:00,
1000000000091238,77012127272,mAltel,mKcell,mKcell,,D07,2016-02-17T15:30:36+06:00,
1000000000091239,77027000408,mMTS,mKcell,mKcell,,D77,2016-02-17T15:31:16+06:00,
1000000000091240,77026019715,mAltel,mKcell,mKcell,,D07,2016-02-17T15:31:12+06:00,
1000000000091241,77015164889,mKarTel,mKcell,mKcell,,D01,2016-02-17T15:32:17+06:00,
1000000000091242,77015325766,mAltel,mKcell,mKcell,,D07,2016-02-17T15:33:31+06:00,
1000000000091243,77758090601,mMTS,mKcell,mKcell,,D77,2016-02-17T15:34:06+06:00,
1000000000091244,77772424649,mAltel,mKarTel,mKarTel,,D07,2016-02-17T15:34:18+06:00,
1000000000091245,77004440095,mKcell,mAltel,mAltel,,D02,2016-02-17T15:35:36+06:00,
1000000000091246,77713748316,mAltel,mKarTel,mKarTel,,D07,2016-02-17T15:36:01+06:00,
1000000000091248,77017133069,mMTS,mKcell,mKcell,,D77,2016-02-17T15:35:54+06:00,
1000000000091249,77472033394,mAltel,mMTS,mMTS,,D07,2016-02-17T15:36:15+06:00,
1000000000091250,77026444695,mMTS,mKcell,mKcell,,D77,2016-02-17T15:36:50+06:00,
1000000000091252,77754621634,mMTS,mKcell,mKcell,,D77,2016-02-17T15:37:19+06:00,
1000000000091255,77715472068,mMTS,mKarTel,mKarTel,,D77,2016-02-17T15:42:05+06:00,
1000000000091256,77073181879,mAltel,mMTS,mMTS,,D07,2016-02-17T15:42:48+06:00,
1000000000091257,77079496966,mKcell,mMTS,mMTS,,D02,2016-02-17T15:43:14+06:00,
1000000000091258,77022102705,mMTS,mKcell,mKcell,,D77,2016-02-17T15:43:28+06:00,
1000000000091261,77017421602,mAltel,mKcell,mKcell,,D07,2016-02-17T15:44:12+06:00,
1000000000091262,77777202320,mKcell,mKarTel,mKarTel,,D02,2016-02-17T15:45:03+06:00,
1000000000091266,77766969966,mAltel,mKarTel,mKarTel,,D07,2016-02-17T15:46:26+06:00,
1000000000091268,77019950330,mAltel,mKcell,mKcell,,D07,2016-02-17T15:46:56+06:00,
1000000000091269,77471858858,mKcell,mMTS,mMTS,,D02,2016-02-17T15:48:06+06:00,
1000000000091270,77029997714,mAltel,mKcell,mKcell,,D07,2016-02-17T15:48:06+06:00,
1000000000091271,77018079970,mMTS,mKcell,mKcell,,D77,2016-02-17T15:48:21+06:00,
1000000000091272,77054165797,mMTS,mKarTel,mKarTel,,D77,2016-02-17T15:48:37+06:00,
1000000000091273,77011854222,mAltel,mKcell,mKcell,,D07,2016-02-17T15:48:37+06:00,
1000000000091274,77759123436,mAltel,mKcell,mKcell,,D07,2016-02-17T15:48:37+06:00,
1000000000091276,77073700643,mKcell,mMTS,mMTS,,D02,2016-02-17T15:50:01+06:00,
1000000000091277,77714577999,mKcell,mKarTel,mKarTel,,D02,2016-02-17T15:50:28+06:00,
1000000000091278,77714198902,mKcell,mKarTel,mKarTel,,D02,2016-02-17T15:50:40+06:00,
1000000000091279,77014940242,mMTS,mKcell,mKcell,,D77,2016-02-17T15:53:23+06:00,
1000000000091281,77053188883,mMTS,mKarTel,mKarTel,,D77,2016-02-17T15:54:23+06:00,
1000000000091282,77015353000,mAltel,mKcell,mKcell,,D07,2016-02-17T15:55:47+06:00,
1000000000091284,77770538982,mMTS,mKarTel,mKarTel,,D77,2016-02-17T15:56:04+06:00,
1000000000091285,77718115544,mMTS,mKarTel,mKarTel,,D77,2016-02-17T15:56:29+06:00,
1000000000091286,77713999926,mKcell,mKarTel,mKarTel,,D02,2016-02-17T15:57:11+06:00,
1000000000091287,77783383323,mMTS,mKcell,mKcell,,D77,2016-02-17T15:56:47+06:00,
1000000000091288,77015103703,mMTS,mKcell,mKcell,,D77,2016-02-17T15:56:55+06:00,
1000000000091291,77017770323,mMTS,mKcell,mKcell,,D77,2016-02-17T15:57:25+06:00,
1000000000091292,77786783168,mAltel,mKcell,mKcell,,D07,2016-02-17T15:57:36+06:00,
1000000000091293,77055577000,mMTS,mKarTel,mKarTel,,D77,2016-02-17T15:58:30+06:00,
1000000000091294,77772995696,mAltel,mKarTel,mKarTel,,D07,2016-02-17T15:58:49+06:00,
1000000000091295,77075293854,mKcell,mMTS,mMTS,,D02,2016-02-17T15:58:43+06:00,
1000000000091296,77772392220,mMTS,mKarTel,mKarTel,,D77,2016-02-17T15:59:18+06:00,
