NPId,Number,RecipientId,DonorId,RangeHolderId,OldRoute,NewRoute,PortDate,RowCount
1000000000268160,77017771687,mKcell,mMTS,mKcell,D77,D02,2016-10-25T19:30:09+06:00,7
1000000000268161,77018540000,mKcell,mKarTel,mKcell,D01,D02,2016-10-25T19:35:28+06:00,
1000000000268162,77758282815,mMTS,mKcell,mKcell,,D77,2016-10-25T19:35:03+06:00,
1000000000268164,77005139814,mKcell,mAltel,mAltel,,D02,2016-10-25T19:37:38+06:00,
1000000000268167,77711771133,mKcell,mKarTel,mKarTel,,D02,2016-10-25T19:48:28+06:00,
1000000000268168,77760060190,mKcell,mKarTel,mKarTel,,D02,2016-10-25T19:49:31+06:00,
1000000000268169,77053777185,mKcell,mKarTel,mKarTel,,D02,2016-10-25T19:57:34+06:00,
