NPId,Number,RecipientId,DonorId,RangeHolderId,OldRoute,NewRoute,PortDate,RowCount
1000000000410862,77765500839,mKcell,mKarTel,mKarTel,,D02,2017-06-27T18:01:09+06:00,28
1000000000410863,77022801034,mKcell,mMTS,mKcell,D77,D02,2017-06-27T18:02:01+06:00,
1000000000410864,77026607360,mAltel,mKcell,mKcell,,D07,2017-06-27T18:03:36+06:00,
1000000000410866,77024874959,mKcell,mMTS,mKcell,D77,D02,2017-06-27T18:06:06+06:00,
1000000000410867,77079005572,mAltel,mMTS,mMTS,,D07,2017-06-27T18:05:55+06:00,
1000000000410868,77015207378,mMTS,mKcell,mKcell,,D77,2017-06-27T18:06:41+06:00,
1000000000410871,77085709005,mMTS,mAltel,mAltel,,D77,2017-06-27T18:09:55+06:00,
1000000000410872,77000801780,mKcell,mAltel,mAltel,,D02,2017-06-27T18:10:24+06:00,
1000000000410873,77788849994,mMTS,mAltel,mKcell,D07,D77,2017-06-27T18:10:59+06:00,
1000000000410875,77763631616,mMTS,mKarTel,mKarTel,,D77,2017-06-27T18:13:50+06:00,
1000000000410876,77021116349,mKcell,mKarTel,mKcell,D01,D02,2017-06-27T18:15:16+06:00,
1000000000410877,77077720101,mKarTel,mMTS,mMTS,,D01,2017-06-27T18:15:46+06:00,
1000000000410879,77007277047,mMTS,mAltel,mAltel,,D77,2017-06-27T18:15:36+06:00,
1000000000410880,77073909695,mAltel,mMTS,mMTS,,D07,2017-06-27T18:16:04+06:00,
1000000000410881,77013791952,mMTS,mKarTel,mKcell,D01,D77,2017-06-27T18:17:26+06:00,
1000000000410882,77774966299,mMTS,mKarTel,mKarTel,,D77,2017-06-27T18:17:16+06:00,
1000000000410883,77788889994,mMTS,mAltel,mKcell,D07,D77,2017-06-27T18:17:02+06:00,
1000000000410884,77752500202,mMTS,mKcell,mKcell,,D77,2017-06-27T18:18:22+06:00,
1000000000410885,77071055544,mKarTel,mMTS,mMTS,,D01,2017-06-27T18:18:49+06:00,
1000000000410887,77025210193,mKcell,mMTS,mKcell,D77,D02,2017-06-27T18:19:47+06:00,
1000000000410888,77776658787,mKarTel,mAltel,mKarTel,D07,D01,2017-06-27T18:21:07+06:00,
1000000000410889,77789651431,mMTS,mKcell,mKcell,,D77,2017-06-27T18:21:49+06:00,
1000000000410891,77051538666,mAltel,mKarTel,mKarTel,,D07,2017-06-27T18:22:46+06:00,
1000000000410893,77773763432,mMTS,mKarTel,mKarTel,,D77,2017-06-27T18:23:51+06:00,
1000000000410894,77027666662,mKcell,mKarTel,mKcell,D01,D02,2017-06-27T18:25:26+06:00,
1000000000410896,77789650526,mMTS,mKcell,mKcell,,D77,2017-06-27T18:26:45+06:00,
1000000000410897,77078805050,mKcell,mMTS,mMTS,,D02,2017-06-27T18:26:57+06:00,
1000000000410898,77771582131,mKcell,mMTS,mKarTel,D77,D02,2017-06-27T18:29:33+06:00,
