NPId,Number,RecipientId,DonorId,RangeHolderId,OldRoute,NewRoute,PortDate,RowCount
1000000000277294,77012266591,mKcell,mKarTel,mKcell,D01,D02,2016-11-11T10:03:24+06:00,14
1000000000277542,77028222508,mMTS,mKcell,mKcell,,D77,2016-11-11T10:00:56+06:00,
1000000000277543,77012160613,mAltel,mKcell,mKcell,,D07,2016-11-11T10:01:38+06:00,
1000000000277546,77011386898,mMTS,mKcell,mKcell,,D77,2016-11-11T10:05:44+06:00,
1000000000277548,77013323284,mMTS,mKcell,mKcell,,D77,2016-11-11T10:11:43+06:00,
1000000000277551,77003001015,mKarTel,mAltel,mAltel,,D01,2016-11-11T10:18:22+06:00,
1000000000277552,77477775477,mKarTel,mMTS,mMTS,,D01,2016-11-11T10:18:28+06:00,
1000000000277553,77029201505,mKarTel,mKcell,mKcell,,D01,2016-11-11T10:19:04+06:00,
1000000000277554,77059879828,mKcell,mKarTel,mKarTel,,D02,2016-11-11T10:23:43+06:00,
1000000000277555,77759534911,mMTS,mKcell,mKcell,,D77,2016-11-11T10:21:29+06:00,
1000000000277556,77010677770,mMTS,mKcell,mKcell,D02,D77,2016-11-11T10:22:37+06:00,
1000000000277557,77014450488,mMTS,mKcell,mKcell,,D77,2016-11-11T10:25:58+06:00,
1000000000277558,77022526745,mMTS,mKcell,mKcell,,D77,2016-11-11T10:25:02+06:00,
1000000000277559,77075020300,mMTS,mKarTel,mMTS,D01,D77,2016-11-11T10:27:49+06:00,
