NPId,Number,RecipientId,DonorId,RangeHolderId,OldRoute,NewRoute,PortDate,RowCount
1000000000247651,77772771144,mKcell,mKarTel,mKarTel,D01,D02,2016-09-19T17:34:13+06:00,23
1000000000248050,77002332032,mKcell,mKarTel,mAltel,D01,D02,2016-09-19T17:30:43+06:00,
1000000000248055,77757300017,mKarTel,mKcell,mKcell,,D01,2016-09-19T17:31:10+06:00,
1000000000248056,77753866335,mKcell,mAltel,mKcell,D07,D02,2016-09-19T17:33:20+06:00,
1000000000248057,77025558838,mKcell,mAltel,mKcell,D07,D02,2016-09-19T17:33:31+06:00,
1000000000248058,77001750221,mKcell,mAltel,mAltel,,D02,2016-09-19T17:35:32+06:00,
1000000000248061,77716178888,mKcell,mKarTel,mKarTel,,D02,2016-09-19T17:42:54+06:00,
1000000000248062,77782306077,mMTS,mKcell,mKcell,,D77,2016-09-19T17:41:04+06:00,
1000000000248064,77002571796,mMTS,mAltel,mAltel,,D77,2016-09-19T17:42:41+06:00,
1000000000248065,77777091292,mKarTel,mMTS,mKarTel,D77,D01,2016-09-19T17:43:24+06:00,
1000000000248066,77078014100,mKcell,mMTS,mMTS,,D02,2016-09-19T17:42:57+06:00,
1000000000248067,77079202272,mKcell,mMTS,mMTS,,D02,2016-09-19T17:43:59+06:00,
1000000000248068,77021110486,mKcell,mMTS,mKcell,D77,D02,2016-09-19T17:43:52+06:00,
1000000000248069,77082571796,mMTS,mAltel,mAltel,,D77,2016-09-19T17:46:55+06:00,
1000000000248070,77719990189,mKcell,mKarTel,mKarTel,,D02,2016-09-19T17:50:05+06:00,
1000000000248073,77757308991,mKcell,mAltel,mKcell,D07,D02,2016-09-19T17:50:36+06:00,
1000000000248075,77005155515,mMTS,mAltel,mAltel,,D77,2016-09-19T17:53:18+06:00,
1000000000248076,77719998483,mKcell,mKarTel,mKarTel,,D02,2016-09-19T17:55:45+06:00,
1000000000248077,77783999978,mMTS,mKcell,mKcell,,D77,2016-09-19T17:54:43+06:00,
1000000000248078,77003289803,mMTS,mAltel,mAltel,,D77,2016-09-19T17:54:47+06:00,
1000000000248079,77005252121,mMTS,mAltel,mAltel,,D77,2016-09-19T17:55:17+06:00,
1000000000248080,77020009100,mAltel,mKcell,mKcell,D02,D07,2016-09-19T17:56:08+06:00,
1000000000248081,77013488828,mKcell,mMTS,mKcell,D77,D02,2016-09-19T17:56:37+06:00,
