NPId,Number,RecipientId,DonorId,RangeHolderId,OldRoute,NewRoute,PortDate,RowCount
1000000000431664,77022156377,mKcell,mKarTel,mKcell,D01,D02,2017-07-31T18:36:24+06:00,56
1000000000431670,77017395496,mKcell,mKarTel,mKcell,D01,D02,2017-07-31T18:38:46+06:00,
1000000000431837,77775114777,mKcell,mKarTel,mKarTel,,D02,2017-07-31T18:30:13+06:00,
1000000000431838,77017146928,mKcell,mKarTel,mKcell,D01,D02,2017-07-31T18:30:47+06:00,
1000000000431839,77476688213,mKcell,mMTS,mMTS,,D02,2017-07-31T18:31:52+06:00,
1000000000431840,77753339189,mMTS,mKcell,mKcell,,D77,2017-07-31T18:32:18+06:00,
1000000000431842,77027992027,mKarTel,mKcell,mKcell,,D01,2017-07-31T18:33:23+06:00,
1000000000431844,77013104829,mMTS,mKcell,mKcell,,D77,2017-07-31T18:33:54+06:00,
1000000000431845,77753320102,mMTS,mKcell,mKcell,,D77,2017-07-31T18:34:18+06:00,
1000000000431848,77002555999,mKcell,mAltel,mAltel,,D02,2017-07-31T18:35:35+06:00,
1000000000431850,77057513848,mKcell,mKarTel,mKarTel,,D02,2017-07-31T18:36:40+06:00,
1000000000431851,77052126753,mMTS,mKarTel,mKarTel,,D77,2017-07-31T18:37:11+06:00,
1000000000431853,77089493801,mKcell,mAltel,mAltel,,D02,2017-07-31T18:37:14+06:00,
1000000000431854,77758811577,mKarTel,mKcell,mKcell,,D01,2017-07-31T18:37:14+06:00,
1000000000431858,77018543175,mKarTel,mMTS,mKcell,D77,D01,2017-07-31T18:37:41+06:00,
1000000000431860,77028944434,mKcell,mAltel,mKcell,D07,D02,2017-07-31T18:38:09+06:00,
1000000000431861,77759619314,mKarTel,mMTS,mKcell,D77,D01,2017-07-31T18:38:14+06:00,
1000000000431862,77773984330,mKcell,mKarTel,mKarTel,,D02,2017-07-31T18:38:53+06:00,
1000000000431863,77774428325,mMTS,mKarTel,mKarTel,,D77,2017-07-31T18:39:15+06:00,
1000000000431865,77017560428,mKarTel,mMTS,mKcell,D77,D01,2017-07-31T18:39:13+06:00,
1000000000431869,77752610101,mKcell,mKarTel,mKcell,D01,D02,2017-07-31T18:40:59+06:00,
1000000000431872,77774460778,mMTS,mKarTel,mKarTel,,D77,2017-07-31T18:41:26+06:00,
1000000000431874,77077159214,mKcell,mKarTel,mMTS,D01,D02,2017-07-31T18:41:54+06:00,
1000000000431876,77007180787,mMTS,mAltel,mAltel,,D77,2017-07-31T18:41:37+06:00,
1000000000431877,77472555999,mKcell,mMTS,mMTS,,D02,2017-07-31T18:42:38+06:00,
1000000000431878,77024453121,mKcell,mMTS,mKcell,D77,D02,2017-07-31T18:42:12+06:00,
1000000000431880,77017999991,mKcell,mMTS,mKcell,D77,D02,2017-07-31T18:42:19+06:00,
1000000000431881,77762284130,mMTS,mKarTel,mKarTel,,D77,2017-07-31T18:42:32+06:00,
1000000000431883,77771682878,mKcell,mMTS,mKarTel,D77,D02,2017-07-31T18:43:03+06:00,
1000000000431884,77715550500,mAltel,mKarTel,mKarTel,,D07,2017-07-31T18:43:28+06:00,
1000000000431886,77022202072,mKarTel,mAltel,mKcell,D07,D01,2017-07-31T18:43:30+06:00,
1000000000431887,77017168787,mAltel,mKcell,mKcell,,D07,2017-07-31T18:44:16+06:00,
1000000000431890,77059190091,mKarTel,mKcell,mKarTel,D02,D01,2017-07-31T18:46:57+06:00,
1000000000431891,77055046773,mMTS,mKarTel,mKarTel,,D77,2017-07-31T18:48:26+06:00,
1000000000431892,77077227525,mAltel,mMTS,mMTS,,D07,2017-07-31T18:48:09+06:00,
1000000000431893,77011539368,mKarTel,mKcell,mKcell,,D01,2017-07-31T18:48:33+06:00,
1000000000431894,77758227555,mKcell,mMTS,mKcell,D77,D02,2017-07-31T18:48:46+06:00,
1000000000431895,77078135220,mKcell,mMTS,mMTS,,D02,2017-07-31T18:49:38+06:00,
1000000000431897,77774832802,mKcell,mKarTel,mKarTel,,D02,2017-07-31T18:50:28+06:00,
1000000000431898,77054678886,mMTS,mKarTel,mKarTel,,D77,2017-07-31T18:50:34+06:00,
1000000000431899,77017183097,mKarTel,mKcell,mKcell,,D01,2017-07-31T18:51:18+06:00,
1000000000431900,77773477714,mKcell,mKarTel,mKarTel,,D02,2017-07-31T18:52:18+06:00,
1000000000431902,77017345604,mAltel,mKcell,mKcell,,D07,2017-07-31T18:52:19+06:00,
1000000000431903,77771657440,mMTS,mKarTel,mKarTel,,D77,2017-07-31T18:52:31+06:00,
1000000000431904,77017323889,mKcell,mAltel,mKcell,D07,D02,2017-07-31T18:52:31+06:00,
1000000000431905,77086318827,mMTS,mAltel,mAltel,,D77,2017-07-31T18:52:19+06:00,
1000000000431906,77019553535,mKcell,mKarTel,mKcell,D01,D02,2017-07-31T18:52:56+06:00,
1000000000431907,77474598844,mKcell,mMTS,mMTS,,D02,2017-07-31T18:52:43+06:00,
1000000000431908,77018125806,mKcell,mMTS,mKcell,D77,D02,2017-07-31T18:52:47+06:00,
1000000000431909,77004505557,mAltel,mKcell,mAltel,D02,D07,2017-07-31T18:53:58+06:00,
1000000000431910,77079077022,mKcell,mMTS,mMTS,,D02,2017-07-31T18:54:47+06:00,
1000000000431911,77475495348,mMTS,mKarTel,mMTS,D01,D77,2017-07-31T18:55:04+06:00,
1000000000431912,77017769763,mMTS,mKcell,mKcell,,D77,2017-07-31T18:55:11+06:00,
1000000000431913,77477034081,mKarTel,mMTS,mMTS,,D01,2017-07-31T18:55:27+06:00,
1000000000431914,77756535969,mKcell,mAltel,mKcell,D07,D02,2017-07-31T18:56:40+06:00,
1000000000431915,77017218010,mKarTel,mKcell,mKcell,,D01,2017-07-31T18:58:08+06:00,
