NPId,Number,RecipientId,DonorId,RangeHolderId,OldRoute,NewRoute,PortDate,RowCount
1000000000190822,77718479833,mKcell,mKarTel,mKarTel,,D02,2016-06-09T17:30:11+06:00,26
1000000000190823,77474925623,mKcell,mMTS,mMTS,,D02,2016-06-09T17:30:37+06:00,
1000000000190824,77015011105,mKarTel,mKcell,mKcell,,D01,2016-06-09T17:31:12+06:00,
1000000000190826,77014265311,mMTS,mKcell,mKcell,,D77,2016-06-09T17:32:27+06:00,
1000000000190827,77017642782,mMTS,mKcell,mKcell,,D77,2016-06-09T17:33:38+06:00,
1000000000190828,77001136171,mKarTel,mAltel,mAltel,,D01,2016-06-09T17:33:25+06:00,
1000000000190829,77076506500,mAltel,mMTS,mMTS,,D07,2016-06-09T17:37:24+06:00,
1000000000190831,77051988920,mMTS,mKarTel,mKarTel,,D77,2016-06-09T17:40:55+06:00,
1000000000190832,77012883760,mMTS,mKcell,mKcell,,D77,2016-06-09T17:40:54+06:00,
1000000000190833,77786394638,mMTS,mKcell,mKcell,,D77,2016-06-09T17:42:30+06:00,
1000000000190834,77770044050,mAltel,mKarTel,mKarTel,,D07,2016-06-09T17:42:30+06:00,
1000000000190835,77779016364,mMTS,mKarTel,mKarTel,,D77,2016-06-09T17:42:36+06:00,
1000000000190836,77071500030,mKcell,mMTS,mMTS,,D02,2016-06-09T17:45:52+06:00,
1000000000190837,77078810108,mKcell,mMTS,mMTS,,D02,2016-06-09T17:46:29+06:00,
1000000000190838,77774223322,mAltel,mMTS,mKarTel,D77,D07,2016-06-09T17:45:50+06:00,
1000000000190839,77052667840,mMTS,mKarTel,mKarTel,,D77,2016-06-09T17:47:10+06:00,
1000000000190840,77004548133,mKcell,mAltel,mAltel,,D02,2016-06-09T17:50:37+06:00,
1000000000190841,77479082253,mKcell,mMTS,mMTS,,D02,2016-06-09T17:50:37+06:00,
1000000000190842,77786218388,mKcell,mMTS,mKcell,D77,D02,2016-06-09T17:50:35+06:00,
1000000000190844,77786474826,mMTS,mKcell,mKcell,,D77,2016-06-09T17:52:22+06:00,
1000000000190845,77086938270,mMTS,mAltel,mAltel,,D77,2016-06-09T17:52:11+06:00,
1000000000190847,77024465325,mMTS,mKcell,mKcell,,D77,2016-06-09T17:53:31+06:00,
1000000000190849,77081448748,mMTS,mAltel,mAltel,,D77,2016-06-09T17:58:45+06:00,
1000000000190850,77472218087,mKarTel,mMTS,mMTS,,D01,2016-06-09T17:59:05+06:00,
1000000000190851,77086077900,mKarTel,mAltel,mAltel,,D01,2016-06-09T17:59:11+06:00,
1000000000190852,77712690639,mAltel,mKarTel,mKarTel,,D07,2016-06-09T17:59:40+06:00,
