NPId,Number,RecipientId,DonorId,RangeHolderId,OldRoute,NewRoute,PortDate,RowCount
1000000000284401,77774606896,mMTS,mKarTel,mKarTel,,D77,2016-11-26T09:32:54+06:00,2
1000000000284402,77757863561,mKcell,mAltel,mKcell,D07,D02,2016-11-26T09:34:45+06:00,
