NPId,Number,RecipientId,DonorId,RangeHolderId,OldRoute,NewRoute,PortDate,RowCount
1000000000408049,77014002722,mAltel,mKcell,mKcell,,D07,2017-06-23T12:30:37+06:00,27
1000000000408050,77083803808,mMTS,mAltel,mAltel,,D77,2017-06-23T12:30:53+06:00,
1000000000408051,77073338831,mKcell,mMTS,mMTS,,D02,2017-06-23T12:31:43+06:00,
1000000000408052,77079377137,mKcell,mMTS,mMTS,,D02,2017-06-23T12:32:53+06:00,
1000000000408053,77718800005,mKcell,mKarTel,mKarTel,,D02,2017-06-23T12:33:53+06:00,
1000000000408054,77054664433,mMTS,mKarTel,mKarTel,,D77,2017-06-23T12:34:28+06:00,
1000000000408055,77015304091,mKcell,mKarTel,mKcell,D01,D02,2017-06-23T12:34:42+06:00,
1000000000408056,77776903863,mMTS,mKarTel,mKarTel,,D77,2017-06-23T12:35:59+06:00,
1000000000408057,77758414140,mMTS,mKcell,mKcell,,D77,2017-06-23T12:35:50+06:00,
1000000000408058,77025319533,mMTS,mKcell,mKcell,,D77,2017-06-23T12:36:29+06:00,
1000000000408059,77077896889,mAltel,mMTS,mMTS,,D07,2017-06-23T12:36:46+06:00,
1000000000408060,77019308449,mKarTel,mKcell,mKcell,,D01,2017-06-23T12:37:28+06:00,
1000000000408061,77003336830,mKcell,mAltel,mAltel,,D02,2017-06-23T12:37:22+06:00,
1000000000408062,77017668117,mKarTel,mKcell,mKcell,,D01,2017-06-23T12:37:44+06:00,
1000000000408063,77003337053,mKcell,mAltel,mAltel,,D02,2017-06-23T12:39:47+06:00,
1000000000408064,77787778963,mKarTel,mAltel,mKcell,D07,D01,2017-06-23T12:41:18+06:00,
1000000000408065,77003337610,mKcell,mAltel,mAltel,,D02,2017-06-23T12:42:22+06:00,
1000000000408066,77011227172,mMTS,mKcell,mKcell,,D77,2017-06-23T12:43:01+06:00,
1000000000408068,77777777593,mKcell,mKarTel,mKarTel,,D02,2017-06-23T12:44:50+06:00,
1000000000408069,77003337630,mKcell,mAltel,mAltel,,D02,2017-06-23T12:46:33+06:00,
1000000000408070,77015010976,mKcell,mAltel,mKcell,D07,D02,2017-06-23T12:47:12+06:00,
1000000000408071,77056510755,mMTS,mKarTel,mKarTel,,D77,2017-06-23T12:49:30+06:00,
1000000000408072,77003400253,mMTS,mAltel,mAltel,,D77,2017-06-23T12:50:23+06:00,
1000000000408074,77012818686,mMTS,mKcell,mKcell,,D77,2017-06-23T12:52:46+06:00,
1000000000408078,77085999837,mMTS,mAltel,mAltel,,D77,2017-06-23T12:56:43+06:00,
1000000000408079,77074441674,mAltel,mMTS,mMTS,,D07,2017-06-23T12:56:50+06:00,
1000000000408081,77053308883,mKarTel,mKcell,mKarTel,D02,D01,2017-06-23T12:59:46+06:00,
