NPId,Number,RecipientId,DonorId,RangeHolderId,OldRoute,NewRoute,PortDate,RowCount
1000000000366829,77023611702,mMTS,mKcell,mKcell,,D77,2017-04-17T11:31:15+06:00,37
1000000000366830,77028426573,mKarTel,mKcell,mKcell,,D01,2017-04-17T11:38:16+06:00,
1000000000366831,77005000596,mKcell,mAltel,mAltel,,D02,2017-04-17T11:35:25+06:00,
1000000000366832,77714483543,mMTS,mKarTel,mKarTel,,D77,2017-04-17T11:37:05+06:00,
1000000000366833,77059190091,mKcell,mKarTel,mKarTel,D01,D02,2017-04-17T11:38:13+06:00,
1000000000366835,77051417272,mKarTel,mKcell,mKarTel,D02,D01,2017-04-17T11:38:17+06:00,
1000000000366836,77005000593,mKcell,mAltel,mAltel,,D02,2017-04-17T11:39:32+06:00,
1000000000366837,77778822070,mKarTel,mMTS,mKarTel,D77,D01,2017-04-17T11:39:59+06:00,
1000000000366839,77477980120,mKcell,mMTS,mMTS,,D02,2017-04-17T11:41:56+06:00,
1000000000366840,77715822222,mKcell,mKarTel,mKarTel,,D02,2017-04-17T11:42:57+06:00,
1000000000366841,77007778783,mKcell,mAltel,mAltel,,D02,2017-04-17T11:43:01+06:00,
1000000000366842,77782403168,mKarTel,mKcell,mKcell,,D01,2017-04-17T11:43:06+06:00,
1000000000366844,77012108899,mKcell,mKarTel,mKcell,D01,D02,2017-04-17T11:44:12+06:00,
1000000000366845,77022362292,mKarTel,mKcell,mKcell,,D01,2017-04-17T11:43:54+06:00,
1000000000366846,77771042444,mKarTel,mAltel,mKarTel,D07,D01,2017-04-17T11:43:54+06:00,
1000000000366847,77007778784,mKcell,mAltel,mAltel,,D02,2017-04-17T11:44:08+06:00,
1000000000366848,77015207905,mMTS,mKarTel,mKcell,D01,D77,2017-04-17T11:44:38+06:00,
1000000000366849,77012887606,mMTS,mKcell,mKcell,,D77,2017-04-17T11:46:32+06:00,
1000000000366851,77075545487,mAltel,mMTS,mMTS,,D07,2017-04-17T11:47:56+06:00,
1000000000366853,77075033354,mAltel,mMTS,mMTS,,D07,2017-04-17T11:48:44+06:00,
1000000000366854,77075511155,mAltel,mMTS,mMTS,,D07,2017-04-17T11:49:27+06:00,
1000000000366855,77475033354,mAltel,mMTS,mMTS,,D07,2017-04-17T11:50:15+06:00,
1000000000366856,77479808806,mAltel,mMTS,mMTS,,D07,2017-04-17T11:50:59+06:00,
1000000000366857,77473319156,mAltel,mMTS,mMTS,,D07,2017-04-17T11:51:48+06:00,
1000000000366858,77059520465,mKcell,mKarTel,mKarTel,,D02,2017-04-17T11:53:30+06:00,
1000000000366859,77003770332,mKarTel,mAltel,mAltel,,D01,2017-04-17T11:54:08+06:00,
1000000000366860,77013990305,mKarTel,mMTS,mKcell,D77,D01,2017-04-17T11:54:24+06:00,
1000000000366861,77007778785,mKcell,mAltel,mAltel,,D02,2017-04-17T11:54:46+06:00,
1000000000366862,77007778786,mKcell,mAltel,mAltel,,D02,2017-04-17T11:54:59+06:00,
1000000000366863,77473319167,mAltel,mMTS,mMTS,,D07,2017-04-17T11:56:08+06:00,
1000000000366864,77005000592,mKcell,mAltel,mAltel,,D02,2017-04-17T11:57:20+06:00,
1000000000366865,77473319074,mAltel,mMTS,mMTS,,D07,2017-04-17T11:57:54+06:00,
1000000000366867,77016889794,mKcell,mAltel,mKcell,D07,D02,2017-04-17T11:59:16+06:00,
1000000000366868,77072720173,mAltel,mMTS,mMTS,,D07,2017-04-17T11:58:49+06:00,
1000000000366869,77077731133,mAltel,mKcell,mMTS,D02,D07,2017-04-17T11:59:19+06:00,
1000000000366870,77054213616,mKarTel,mAltel,mKarTel,D07,D01,2017-04-17T11:59:38+06:00,
1000000000366871,77071310033,mAltel,mMTS,mMTS,,D07,2017-04-17T11:59:30+06:00,
