NPId,Number,RecipientId,DonorId,RangeHolderId,OldRoute,NewRoute,PortDate,RowCount
1000000000278192,77011027833,mMTS,mKcell,mKcell,,D77,2016-11-12T14:00:36+06:00,45
1000000000278194,77025777616,mMTS,mKcell,mKcell,,D77,2016-11-12T14:01:39+06:00,
1000000000278195,77018717084,mMTS,mKcell,mKcell,,D77,2016-11-12T14:01:40+06:00,
1000000000278198,77771708733,mMTS,mKarTel,mKarTel,,D77,2016-11-12T14:05:47+06:00,
1000000000278199,77056100616,mKcell,mKarTel,mKarTel,,D02,2016-11-12T14:06:32+06:00,
1000000000278200,77017380777,mMTS,mKcell,mKcell,,D77,2016-11-12T14:06:20+06:00,
1000000000278201,77750275535,mAltel,mKcell,mKcell,,D07,2016-11-12T14:06:54+06:00,
1000000000278202,77778115588,mMTS,mKarTel,mKarTel,,D77,2016-11-12T14:07:57+06:00,
1000000000278203,77714588871,mMTS,mKarTel,mKarTel,,D77,2016-11-12T14:08:19+06:00,
1000000000278204,77784486056,mAltel,mKcell,mKcell,,D07,2016-11-12T14:09:07+06:00,
1000000000278206,77015432323,mMTS,mKcell,mKcell,,D77,2016-11-12T14:10:46+06:00,
1000000000278208,77003541562,mKcell,mAltel,mAltel,,D02,2016-11-12T14:11:39+06:00,
1000000000278209,77026909369,mKcell,mMTS,mKcell,D77,D02,2016-11-12T14:11:43+06:00,
1000000000278210,77018383414,mKcell,mMTS,mKcell,D77,D02,2016-11-12T14:11:58+06:00,
1000000000278211,77072996696,mKcell,mMTS,mMTS,,D02,2016-11-12T14:12:11+06:00,
1000000000278212,77022470642,mKcell,mAltel,mKcell,D07,D02,2016-11-12T14:12:23+06:00,
1000000000278213,77021709525,mMTS,mKcell,mKcell,,D77,2016-11-12T14:12:24+06:00,
1000000000278214,77715656967,mMTS,mKarTel,mKarTel,,D77,2016-11-12T14:12:52+06:00,
1000000000278215,77784502094,mMTS,mKcell,mKcell,,D77,2016-11-12T14:15:19+06:00,
1000000000278217,77052653780,mKarTel,mKcell,mKarTel,D02,D01,2016-11-12T14:16:03+06:00,
1000000000278219,77071542308,mMTS,mKcell,mMTS,D02,D77,2016-11-12T14:16:29+06:00,
1000000000278220,77052653776,mKarTel,mKcell,mKarTel,D02,D01,2016-11-12T14:18:37+06:00,
1000000000278221,77075882888,mAltel,mKcell,mMTS,D02,D07,2016-11-12T14:19:08+06:00,
1000000000278222,77776163153,mKcell,mKarTel,mKarTel,,D02,2016-11-12T14:19:51+06:00,
1000000000278223,77075555507,mKcell,mMTS,mMTS,,D02,2016-11-12T14:20:36+06:00,
1000000000278224,77078666011,mKcell,mMTS,mMTS,,D02,2016-11-12T14:20:55+06:00,
1000000000278225,77714929911,mKarTel,mMTS,mKarTel,D77,D01,2016-11-12T14:21:29+06:00,
1000000000278226,77079055511,mKarTel,mMTS,mMTS,,D01,2016-11-12T14:22:42+06:00,
1000000000278228,77771776697,mMTS,mKarTel,mKarTel,,D77,2016-11-12T14:23:13+06:00,
1000000000278229,77025919909,mKcell,mMTS,mKcell,D77,D02,2016-11-12T14:24:00+06:00,
1000000000278230,77777678787,mKcell,mAltel,mKarTel,D07,D02,2016-11-12T14:24:22+06:00,
1000000000278233,77714929922,mKarTel,mMTS,mKarTel,D77,D01,2016-11-12T14:25:11+06:00,
1000000000278234,77007777721,mAltel,mKcell,mAltel,D02,D07,2016-11-12T14:25:09+06:00,
1000000000278235,77022684275,mMTS,mKcell,mKcell,,D77,2016-11-12T14:25:23+06:00,
1000000000278236,77714929933,mKarTel,mMTS,mKarTel,D77,D01,2016-11-12T14:26:30+06:00,
1000000000278237,77000930013,mKcell,mAltel,mAltel,,D02,2016-11-12T14:26:38+06:00,
1000000000278238,77476012937,mKcell,mMTS,mMTS,,D02,2016-11-12T14:26:57+06:00,
1000000000278239,77028450994,mKcell,mAltel,mKcell,D07,D02,2016-11-12T14:27:39+06:00,
1000000000278240,77786937224,mMTS,mKcell,mKcell,,D77,2016-11-12T14:27:38+06:00,
1000000000278241,77777321620,mMTS,mKarTel,mKarTel,,D77,2016-11-12T14:28:03+06:00,
1000000000278242,77714444141,mKcell,mKarTel,mKarTel,,D02,2016-11-12T14:28:32+06:00,
1000000000278243,77051658686,mKcell,mKarTel,mKarTel,,D02,2016-11-12T14:28:26+06:00,
1000000000278244,77714929944,mKarTel,mMTS,mKarTel,D77,D01,2016-11-12T14:28:29+06:00,
1000000000278245,77775695059,mAltel,mKarTel,mKarTel,,D07,2016-11-12T14:28:47+06:00,
1000000000278246,77054662003,mMTS,mKarTel,mKarTel,,D77,2016-11-12T14:28:57+06:00,
