NPId,Number,RecipientId,DonorId,RangeHolderId,OldRoute,NewRoute,PortDate,RowCount
1000000000194257,77076996900,mKcell,mMTS,mMTS,,D02,2016-06-15T19:01:42+06:00,9
1000000000194258,77051580659,mMTS,mKarTel,mKarTel,,D77,2016-06-15T19:01:43+06:00,
1000000000194259,77017574060,mKarTel,mKcell,mKcell,,D01,2016-06-15T19:03:08+06:00,
1000000000194260,77012279315,mKarTel,mKcell,mKcell,,D01,2016-06-15T19:05:11+06:00,
1000000000194261,77029251070,mKarTel,mKcell,mKcell,,D01,2016-06-15T19:07:45+06:00,
1000000000194263,77083003770,mKcell,mAltel,mAltel,,D02,2016-06-15T19:12:31+06:00,
1000000000194264,77085332073,mKcell,mAltel,mAltel,,D02,2016-06-15T19:18:37+06:00,
1000000000194265,77783310544,mMTS,mKcell,mKcell,,D77,2016-06-15T19:22:44+06:00,
1000000000194266,77082808281,mKcell,mAltel,mAltel,,D02,2016-06-15T19:28:21+06:00,
