NPId,Number,RecipientId,DonorId,RangeHolderId,OldRoute,NewRoute,PortDate,RowCount
1000000000311060,77715222569,mMTS,mKarTel,mKarTel,,D77,2017-01-15T19:01:14+06:00,5
1000000000311061,77074152571,mKcell,mMTS,mMTS,,D02,2017-01-15T19:03:26+06:00,
1000000000311062,77051067000,mKarTel,mAltel,mKarTel,D07,D01,2017-01-15T19:05:20+06:00,
1000000000311063,77089684567,mMTS,mKcell,mAltel,D02,D77,2017-01-15T19:22:45+06:00,
1000000000311064,77000706966,mMTS,mAltel,mAltel,,D77,2017-01-15T19:29:17+06:00,
