NPId,Number,RecipientId,DonorId,RangeHolderId,OldRoute,NewRoute,PortDate,RowCount
1000000000378935,77013964060,mKarTel,mKcell,mKcell,,D01,2017-05-05T18:00:41+06:00,18
1000000000378936,77751871000,mMTS,mKcell,mKcell,,D77,2017-05-05T18:01:11+06:00,
1000000000378938,77058399764,mMTS,mKarTel,mKarTel,,D77,2017-05-05T18:04:32+06:00,
1000000000378939,77014072540,mKcell,mKarTel,mKcell,D01,D02,2017-05-05T18:05:32+06:00,
1000000000378940,77051765416,mMTS,mKarTel,mKarTel,,D77,2017-05-05T18:06:04+06:00,
1000000000378941,77479838073,mKcell,mMTS,mMTS,,D02,2017-05-05T18:06:51+06:00,
1000000000378944,77015144210,mAltel,mKcell,mKcell,,D07,2017-05-05T18:11:15+06:00,
1000000000378945,77776444922,mMTS,mKarTel,mKarTel,D01,D77,2017-05-05T18:11:41+06:00,
1000000000378946,77714508035,mMTS,mKarTel,mKarTel,,D77,2017-05-05T18:13:04+06:00,
1000000000378947,77753339131,mKarTel,mKcell,mKcell,,D01,2017-05-05T18:14:38+06:00,
1000000000378950,77004026825,mKarTel,mAltel,mAltel,,D01,2017-05-05T18:16:37+06:00,
1000000000378951,77082110595,mMTS,mAltel,mAltel,,D77,2017-05-05T18:16:33+06:00,
1000000000378952,77077991100,mMTS,mAltel,mMTS,D07,D77,2017-05-05T18:19:40+06:00,
1000000000378953,77001234576,mMTS,mAltel,mAltel,,D77,2017-05-05T18:20:10+06:00,
1000000000378954,77005000862,mMTS,mAltel,mAltel,,D77,2017-05-05T18:22:15+06:00,
1000000000378955,77086280479,mMTS,mAltel,mAltel,,D77,2017-05-05T18:22:42+06:00,
1000000000378957,77012181816,mKcell,mKarTel,mKcell,D01,D02,2017-05-05T18:26:18+06:00,
1000000000378958,77472067628,mKarTel,mMTS,mMTS,,D01,2017-05-05T18:26:15+06:00,
