NPId,Number,RecipientId,DonorId,RangeHolderId,OldRoute,NewRoute,PortDate,RowCount
1000000000339493,77773338883,mAltel,mKarTel,mKarTel,,D07,2017-03-02T16:00:38+06:00,28
1000000000339495,77761800003,mMTS,mKarTel,mKarTel,,D77,2017-03-02T16:01:24+06:00,
1000000000339496,77013902161,mKcell,mKarTel,mKcell,D01,D02,2017-03-02T16:01:38+06:00,
1000000000339498,77762300009,mMTS,mKarTel,mKarTel,,D77,2017-03-02T16:02:49+06:00,
1000000000339500,77024631994,mAltel,mKcell,mKcell,,D07,2017-03-02T16:05:33+06:00,
1000000000339502,77003070043,mMTS,mAltel,mAltel,,D77,2017-03-02T16:06:23+06:00,
1000000000339503,77775950099,mMTS,mKarTel,mKarTel,,D77,2017-03-02T16:06:58+06:00,
1000000000339506,77012129720,mMTS,mKcell,mKcell,,D77,2017-03-02T16:07:58+06:00,
1000000000339510,77765200009,mAltel,mKarTel,mKarTel,,D07,2017-03-02T16:10:50+06:00,
1000000000339511,77074544542,mKcell,mMTS,mMTS,,D02,2017-03-02T16:12:43+06:00,
1000000000339512,77016252528,mAltel,mMTS,mKcell,D77,D07,2017-03-02T16:13:23+06:00,
1000000000339513,77053013759,mKcell,mKarTel,mKarTel,,D02,2017-03-02T16:14:26+06:00,
1000000000339514,77051596844,mMTS,mKarTel,mKarTel,,D77,2017-03-02T16:18:10+06:00,
1000000000339515,77474232127,mKcell,mMTS,mMTS,,D02,2017-03-02T16:18:24+06:00,
1000000000339516,77054990050,mMTS,mKarTel,mKarTel,,D77,2017-03-02T16:19:26+06:00,
1000000000339517,77005553528,mKcell,mAltel,mAltel,,D02,2017-03-02T16:20:19+06:00,
1000000000339518,77754218917,mKarTel,mAltel,mKcell,D07,D01,2017-03-02T16:20:25+06:00,
1000000000339519,77002558865,mMTS,mAltel,mAltel,,D77,2017-03-02T16:20:51+06:00,
1000000000339520,77001356641,mMTS,mAltel,mAltel,,D77,2017-03-02T16:20:58+06:00,
1000000000339524,77026761674,mAltel,mKcell,mKcell,,D07,2017-03-02T16:24:37+06:00,
1000000000339525,77029115371,mMTS,mKcell,mKcell,,D77,2017-03-02T16:25:18+06:00,
1000000000339526,77015410054,mMTS,mKcell,mKcell,,D77,2017-03-02T16:26:18+06:00,
1000000000339528,77005558519,mKcell,mAltel,mAltel,,D02,2017-03-02T16:26:57+06:00,
1000000000339529,77758010188,mMTS,mKcell,mKcell,,D77,2017-03-02T16:27:53+06:00,
1000000000339530,77011351205,mAltel,mKcell,mKcell,,D07,2017-03-02T16:27:55+06:00,
1000000000339532,77014251177,mMTS,mKcell,mKcell,D02,D77,2017-03-02T16:28:38+06:00,
1000000000339533,77005558564,mKcell,mAltel,mAltel,,D02,2017-03-02T16:29:36+06:00,
1000000000339534,77015243604,mMTS,mKcell,mKcell,,D77,2017-03-02T16:29:45+06:00,
