NPId,Number,RecipientId,DonorId,RangeHolderId,OldRoute,NewRoute,PortDate,RowCount
1000000000274948,77765783838,mMTS,mKarTel,mKarTel,,D77,2016-11-06T13:30:36+06:00,9
1000000000274949,77059880850,mAltel,mKarTel,mKarTel,,D07,2016-11-06T13:32:35+06:00,
1000000000274951,77076609337,mKcell,mMTS,mMTS,,D02,2016-11-06T13:33:19+06:00,
1000000000274952,77017755111,mKcell,mKarTel,mKcell,D01,D02,2016-11-06T13:45:13+06:00,
1000000000274953,77786235889,mMTS,mKcell,mKcell,,D77,2016-11-06T13:50:25+06:00,
1000000000274954,77082666155,mMTS,mKcell,mAltel,D02,D77,2016-11-06T13:52:36+06:00,
1000000000274956,77026888803,mAltel,mKcell,mKcell,,D07,2016-11-06T13:57:12+06:00,
1000000000274957,77783254941,mMTS,mKcell,mKcell,,D77,2016-11-06T13:58:32+06:00,
1000000000274958,77786800008,mAltel,mKarTel,mKcell,D01,D07,2016-11-06T13:59:14+06:00,
