NPId,Number,RecipientId,DonorId,RangeHolderId,OldRoute,NewRoute,PortDate,RowCount
1000000000255419,77015221654,mAltel,mKarTel,mKcell,D01,D07,2016-10-02T16:04:01+06:00,8
1000000000255422,77471510091,mAltel,mMTS,mMTS,,D07,2016-10-02T16:03:36+06:00,
1000000000255423,77017415382,mMTS,mKcell,mKcell,,D77,2016-10-02T16:04:15+06:00,
1000000000255425,77012442271,mKarTel,mKcell,mKcell,,D01,2016-10-02T16:08:04+06:00,
1000000000255428,77017529729,mAltel,mKcell,mKcell,,D07,2016-10-02T16:15:30+06:00,
1000000000255429,77770626337,mKarTel,mMTS,mKarTel,D77,D01,2016-10-02T16:17:16+06:00,
1000000000255430,77771653466,mMTS,mKarTel,mKarTel,,D77,2016-10-02T16:24:15+06:00,
1000000000255431,77784399916,mMTS,mKcell,mKcell,,D77,2016-10-02T16:22:35+06:00,
