NPId,Number,RecipientId,DonorId,RangeHolderId,OldRoute,NewRoute,PortDate,RowCount
1000000000387403,77011866974,mKcell,mAltel,mKcell,D07,D02,2017-05-23T10:02:16+06:00,16
1000000000387404,77009302982,mMTS,mAltel,mAltel,,D77,2017-05-23T10:02:39+06:00,
1000000000387405,77717581374,mKarTel,mKcell,mKarTel,D02,D01,2017-05-23T10:03:16+06:00,
1000000000387406,77753297480,mMTS,mKcell,mKcell,,D77,2017-05-23T10:07:55+06:00,
1000000000387407,77717581373,mKarTel,mKcell,mKarTel,D02,D01,2017-05-23T10:10:39+06:00,
1000000000387408,77477792545,mKarTel,mMTS,mMTS,,D01,2017-05-23T10:11:36+06:00,
1000000000387410,77764447282,mKcell,mKarTel,mKarTel,,D02,2017-05-23T10:14:46+06:00,
1000000000387411,77013795755,mMTS,mKcell,mKcell,,D77,2017-05-23T10:20:57+06:00,
1000000000387412,77786059372,mKarTel,mKcell,mKcell,,D01,2017-05-23T10:22:48+06:00,
1000000000387413,77755693261,mMTS,mKcell,mKcell,,D77,2017-05-23T10:22:54+06:00,
1000000000387414,77085238765,mMTS,mAltel,mAltel,,D77,2017-05-23T10:23:19+06:00,
1000000000387415,77787889777,mKarTel,mKcell,mKcell,,D01,2017-05-23T10:26:07+06:00,
1000000000387416,77073388631,mKcell,mMTS,mMTS,D77,D02,2017-05-23T10:26:20+06:00,
1000000000387417,77029555529,mMTS,mKcell,mKcell,,D77,2017-05-23T10:26:58+06:00,
1000000000387418,77750005125,mKcell,mAltel,mKcell,D07,D02,2017-05-23T10:28:48+06:00,
1000000000387419,77015127005,mKcell,mMTS,mKcell,D77,D02,2017-05-23T10:29:13+06:00,
