NPId,Number,RecipientId,DonorId,RangeHolderId,OldRoute,NewRoute,PortDate,RowCount
1000000000402895,77475416922,mAltel,mMTS,mMTS,,D07,2017-06-14T09:30:50+06:00,8
1000000000402896,77071654266,mKarTel,mAltel,mMTS,D07,D01,2017-06-14T09:33:52+06:00,
1000000000402899,77776089527,mMTS,mKarTel,mKarTel,,D77,2017-06-14T09:39:27+06:00,
1000000000402902,77755377717,mMTS,mKcell,mKcell,,D77,2017-06-14T09:42:22+06:00,
1000000000402906,77029804072,mAltel,mKcell,mKcell,,D07,2017-06-14T09:45:41+06:00,
1000000000402907,77077907997,mMTS,mKcell,mMTS,D02,D77,2017-06-14T09:45:42+06:00,
1000000000402908,77778114454,mMTS,mKarTel,mKarTel,,D77,2017-06-14T09:48:23+06:00,
1000000000402909,77001034011,mKcell,mAltel,mAltel,,D02,2017-06-14T09:53:36+06:00,
