NPId,Number,RecipientId,DonorId,RangeHolderId,OldRoute,NewRoute,PortDate,RowCount
1000000000002884,77071777747,mKcell,mMTS,mMTS,,D02,2016-01-06T21:35:11+06:00,3
1000000000002885,77073579999,mKcell,mMTS,mMTS,,D02,2016-01-06T21:41:18+06:00,
1000000000002886,77075752788,mKarTel,mMTS,mMTS,,D01,2016-01-06T21:52:13+06:00,
