NPId,Number,RecipientId,DonorId,RangeHolderId,OldRoute,NewRoute,PortDate,RowCount
1000000000292311,77019991631,mKarTel,mKcell,mKcell,D02,D01,2017-02-08T11:34:09+06:00,20
1000000000292313,77019991632,mKarTel,mKcell,mKcell,D02,D01,2017-02-08T11:35:56+06:00,
1000000000325616,77017518278,mMTS,mKcell,mKcell,,D77,2017-02-08T11:48:48+06:00,
1000000000325637,77001624844,mMTS,mAltel,mAltel,,D77,2017-02-08T11:31:11+06:00,
1000000000325638,77071137097,mKcell,mMTS,mMTS,,D02,2017-02-08T11:32:04+06:00,
1000000000325639,77013355133,mKarTel,mKcell,mKcell,D02,D01,2017-02-08T11:33:16+06:00,
1000000000325640,77071069899,mKcell,mMTS,mMTS,,D02,2017-02-08T11:33:24+06:00,
1000000000325642,77089139882,mMTS,mAltel,mAltel,,D77,2017-02-08T11:34:03+06:00,
1000000000325646,77763100010,mKarTel,mKcell,mKarTel,D02,D01,2017-02-08T11:36:22+06:00,
1000000000325647,77014591201,mMTS,mKcell,mKcell,,D77,2017-02-08T11:37:48+06:00,
1000000000325648,77789433314,mMTS,mKcell,mKcell,,D77,2017-02-08T11:37:50+06:00,
1000000000325651,77051919065,mKarTel,mKcell,mKarTel,D02,D01,2017-02-08T11:39:59+06:00,
1000000000325652,77083534025,mKarTel,mAltel,mAltel,,D01,2017-02-08T11:42:05+06:00,
1000000000325657,77011250393,mMTS,mKcell,mKcell,,D77,2017-02-08T11:47:34+06:00,
1000000000325658,77774886888,mMTS,mKarTel,mKarTel,,D77,2017-02-08T11:48:02+06:00,
1000000000325660,77012382910,mKarTel,mKcell,mKcell,,D01,2017-02-08T11:52:27+06:00,
1000000000325662,77012667901,mKarTel,mMTS,mKcell,D77,D01,2017-02-08T11:53:41+06:00,
1000000000325663,77776250339,mMTS,mKarTel,mKarTel,,D77,2017-02-08T11:53:53+06:00,
1000000000325664,77005557465,mKcell,mAltel,mAltel,,D02,2017-02-08T11:57:09+06:00,
1000000000325665,77019132754,mMTS,mKcell,mKcell,,D77,2017-02-08T11:57:50+06:00,
