NPId,Number,RecipientId,DonorId,RangeHolderId,OldRoute,NewRoute,PortDate,RowCount
1000000000177931,77009299909,mKcell,mAltel,mAltel,D07,D02,2016-05-20T14:31:39+06:00,25
1000000000177932,77718177333,mMTS,mKarTel,mKarTel,,D77,2016-05-20T14:32:30+06:00,
1000000000177933,77084001967,mKarTel,mAltel,mAltel,,D01,2016-05-20T14:32:52+06:00,
1000000000177934,77716006033,mMTS,mKarTel,mKarTel,,D77,2016-05-20T14:34:08+06:00,
1000000000177935,77087564005,mKarTel,mAltel,mAltel,,D01,2016-05-20T14:34:14+06:00,
1000000000177936,77085166006,mMTS,mAltel,mAltel,,D77,2016-05-20T14:37:05+06:00,
1000000000177939,77766622202,mKcell,mKarTel,mKarTel,,D02,2016-05-20T14:39:07+06:00,
1000000000177940,77018545507,mKcell,mKarTel,mKcell,D01,D02,2016-05-20T14:39:26+06:00,
1000000000177942,77758426786,mMTS,mKcell,mKcell,,D77,2016-05-20T14:39:12+06:00,
1000000000177944,77476249577,mMTS,mAltel,mMTS,D07,D77,2016-05-20T14:41:20+06:00,
1000000000177945,77051800782,mKcell,mKarTel,mKarTel,,D02,2016-05-20T14:43:45+06:00,
1000000000177946,77012238875,mMTS,mKcell,mKcell,,D77,2016-05-20T14:45:17+06:00,
1000000000177948,77025612431,mMTS,mKcell,mKcell,,D77,2016-05-20T14:47:03+06:00,
1000000000177949,77089820448,mKarTel,mAltel,mAltel,,D01,2016-05-20T14:47:46+06:00,
1000000000177951,77017343484,mKarTel,mKcell,mKcell,,D01,2016-05-20T14:49:44+06:00,
1000000000177952,77019814171,mKcell,mAltel,mKcell,D07,D02,2016-05-20T14:50:32+06:00,
1000000000177953,77002322223,mKcell,mAltel,mAltel,,D02,2016-05-20T14:51:48+06:00,
1000000000177954,77079777388,mKcell,mMTS,mMTS,,D02,2016-05-20T14:52:18+06:00,
1000000000177955,77751365292,mMTS,mKcell,mKcell,,D77,2016-05-20T14:52:21+06:00,
1000000000177956,77089269390,mMTS,mAltel,mAltel,,D77,2016-05-20T14:52:05+06:00,
1000000000177957,77017209113,mMTS,mKcell,mKcell,,D77,2016-05-20T14:53:10+06:00,
1000000000177958,77781027877,mMTS,mKcell,mKcell,,D77,2016-05-20T14:54:55+06:00,
1000000000177959,77019401155,mMTS,mKcell,mKcell,,D77,2016-05-20T14:57:26+06:00,
1000000000177960,77054640550,mKcell,mKarTel,mKarTel,,D02,2016-05-20T14:58:40+06:00,
1000000000177961,77755360767,mMTS,mKcell,mKcell,,D77,2016-05-20T14:58:27+06:00,
