NPId,Number,RecipientId,DonorId,RangeHolderId,OldRoute,NewRoute,PortDate,RowCount
1000000000124210,77772225897,mKarTel,mMTS,mKarTel,D77,D01,2016-03-14T09:02:54+06:00,10
1000000000124211,77059959590,mKarTel,mMTS,mKarTel,D77,D01,2016-03-14T09:02:56+06:00,
1000000000124212,77754020109,mKarTel,mKcell,mKcell,,D01,2016-03-14T09:02:55+06:00,
1000000000124214,77783367236,mKarTel,mKcell,mKcell,,D01,2016-03-14T09:02:56+06:00,
1000000000124215,77016071001,mKarTel,mKcell,mKcell,,D01,2016-03-14T09:02:57+06:00,
1000000000124216,77776122823,mKcell,mKarTel,mKarTel,,D02,2016-03-14T09:10:09+06:00,
1000000000124217,77056663334,mMTS,mAltel,mKarTel,D07,D77,2016-03-14T09:17:25+06:00,
1000000000124218,77015182436,mKcell,mMTS,mKcell,D77,D02,2016-03-14T09:22:34+06:00,
1000000000124219,77776947604,mKcell,mKarTel,mKarTel,,D02,2016-03-14T09:25:04+06:00,
1000000000124221,77015717547,mKarTel,mKcell,mKcell,,D01,2016-03-14T09:29:38+06:00,
