NPId,Number,RecipientId,DonorId,RangeHolderId,OldRoute,NewRoute,PortDate,RowCount
1000000000343368,77057663667,mKarTel,mMTS,mKarTel,D77,D01,2017-03-08T13:30:24+06:00,10
1000000000343369,77478577774,mAltel,mMTS,mMTS,,D07,2017-03-08T13:32:31+06:00,
1000000000343370,77788908880,mMTS,mKcell,mKcell,,D77,2017-03-08T13:33:21+06:00,
1000000000343372,77775355500,mKarTel,mKcell,mKarTel,D02,D01,2017-03-08T13:35:17+06:00,
1000000000343373,77052315003,mKarTel,mMTS,mKarTel,D77,D01,2017-03-08T13:36:25+06:00,
1000000000343374,77058382538,mMTS,mKarTel,mKarTel,,D77,2017-03-08T13:38:51+06:00,
1000000000343375,77056365337,mAltel,mKarTel,mKarTel,,D07,2017-03-08T13:39:11+06:00,
1000000000343376,77767111007,mAltel,mKarTel,mKarTel,,D07,2017-03-08T13:39:09+06:00,
1000000000343378,77017247554,mKcell,mMTS,mKcell,D77,D02,2017-03-08T13:50:16+06:00,
1000000000343379,77001209394,mMTS,mAltel,mAltel,,D77,2017-03-08T13:52:43+06:00,
