NPId,Number,RecipientId,DonorId,RangeHolderId,OldRoute,NewRoute,PortDate,RowCount
1000000000401906,77053000446,mKcell,mKarTel,mKarTel,,D02,2017-06-12T15:31:30+06:00,28
1000000000401909,77753451491,mKcell,mAltel,mKcell,D07,D02,2017-06-12T15:36:19+06:00,
1000000000401910,77088092368,mMTS,mAltel,mAltel,,D77,2017-06-12T15:36:06+06:00,
1000000000401913,77760074001,mMTS,mKarTel,mKarTel,,D77,2017-06-12T15:39:39+06:00,
1000000000401914,77784130732,mKarTel,mKcell,mKcell,,D01,2017-06-12T15:40:42+06:00,
1000000000401915,77009970099,mKarTel,mAltel,mAltel,,D01,2017-06-12T15:40:53+06:00,
1000000000401916,77784293737,mMTS,mKcell,mKcell,,D77,2017-06-12T15:41:25+06:00,
1000000000401918,77785500066,mMTS,mKcell,mKcell,,D77,2017-06-12T15:43:51+06:00,
1000000000401919,77003363035,mKcell,mMTS,mAltel,D77,D02,2017-06-12T15:44:27+06:00,
1000000000401921,77025515652,mMTS,mKcell,mKcell,,D77,2017-06-12T15:44:46+06:00,
1000000000401922,77782367554,mMTS,mKcell,mKcell,,D77,2017-06-12T15:45:28+06:00,
1000000000401925,77017220041,mKarTel,mKcell,mKcell,,D01,2017-06-12T15:47:58+06:00,
1000000000401926,77075521994,mMTS,mAltel,mMTS,D07,D77,2017-06-12T15:49:42+06:00,
1000000000401927,77760100799,mKcell,mKarTel,mKarTel,,D02,2017-06-12T15:50:34+06:00,
1000000000401928,77760009050,mKarTel,mKcell,mKarTel,D02,D01,2017-06-12T15:51:16+06:00,
1000000000401929,77071995900,mKarTel,mMTS,mMTS,,D01,2017-06-12T15:51:10+06:00,
1000000000401930,77074446232,mKcell,mMTS,mMTS,,D02,2017-06-12T15:52:18+06:00,
1000000000401931,77011674105,mMTS,mKcell,mKcell,,D77,2017-06-12T15:52:45+06:00,
1000000000401932,77077572010,mKarTel,mMTS,mMTS,,D01,2017-06-12T15:53:03+06:00,
1000000000401933,77782555955,mAltel,mMTS,mKcell,D77,D07,2017-06-12T15:53:05+06:00,
1000000000401934,77786344546,mKcell,mMTS,mKcell,D77,D02,2017-06-12T15:54:35+06:00,
1000000000401935,77014173280,mMTS,mKcell,mKcell,,D77,2017-06-12T15:54:31+06:00,
1000000000401936,77017943457,mAltel,mKcell,mKcell,D02,D07,2017-06-12T15:54:44+06:00,
1000000000401938,77077572011,mKarTel,mMTS,mMTS,,D01,2017-06-12T15:56:05+06:00,
1000000000401940,77475551996,mMTS,mKarTel,mMTS,D01,D77,2017-06-12T15:56:51+06:00,
1000000000401941,77473623318,mAltel,mMTS,mMTS,,D07,2017-06-12T15:57:01+06:00,
1000000000401942,77017419772,mKarTel,mKcell,mKcell,,D01,2017-06-12T15:58:58+06:00,
1000000000401944,77075101097,mMTS,mAltel,mMTS,D07,D77,2017-06-12T15:59:50+06:00,
