NPId,Number,RecipientId,DonorId,RangeHolderId,OldRoute,NewRoute,PortDate,RowCount
1000000000280448,77059938875,mKarTel,mMTS,mKarTel,D77,D01,2016-11-17T15:00:27+06:00,30
1000000000280450,77761800005,mMTS,mKarTel,mKarTel,,D77,2016-11-17T15:01:59+06:00,
1000000000280451,77760030099,mMTS,mKarTel,mKarTel,,D77,2016-11-17T15:06:37+06:00,
1000000000280452,77772501433,mAltel,mKarTel,mKarTel,,D07,2016-11-17T15:06:42+06:00,
1000000000280453,77074553232,mKarTel,mMTS,mMTS,,D01,2016-11-17T15:06:32+06:00,
1000000000280454,77758894576,mKarTel,mKcell,mKcell,,D01,2016-11-17T15:07:16+06:00,
1000000000280455,77782333355,mAltel,mKcell,mKcell,,D07,2016-11-17T15:07:53+06:00,
1000000000280457,77758610553,mKarTel,mKcell,mKcell,,D01,2016-11-17T15:10:35+06:00,
1000000000280458,77078637191,mKcell,mMTS,mMTS,,D02,2016-11-17T15:12:27+06:00,
1000000000280459,77052634699,mKarTel,mKcell,mKarTel,D02,D01,2016-11-17T15:12:32+06:00,
1000000000280460,77052880038,mKarTel,mKcell,mKarTel,D02,D01,2016-11-17T15:14:13+06:00,
1000000000280461,77028831211,mMTS,mKcell,mKcell,,D77,2016-11-17T15:15:59+06:00,
1000000000280462,77052634690,mKarTel,mKcell,mKarTel,D02,D01,2016-11-17T15:15:36+06:00,
1000000000280463,77777996699,mKcell,mKarTel,mKarTel,,D02,2016-11-17T15:16:15+06:00,
1000000000280464,77078853940,mKcell,mMTS,mMTS,,D02,2016-11-17T15:16:43+06:00,
1000000000280465,77017072224,mKarTel,mKcell,mKcell,,D01,2016-11-17T15:17:40+06:00,
1000000000280466,77052634687,mKarTel,mKcell,mKarTel,D02,D01,2016-11-17T15:17:40+06:00,
1000000000280467,77018869095,mAltel,mKcell,mKcell,,D07,2016-11-17T15:17:51+06:00,
1000000000280468,77052634684,mKarTel,mKcell,mKarTel,D02,D01,2016-11-17T15:18:11+06:00,
1000000000280469,77017559573,mKarTel,mKcell,mKcell,,D01,2016-11-17T15:19:22+06:00,
1000000000280471,77052634682,mKarTel,mKcell,mKarTel,D02,D01,2016-11-17T15:19:55+06:00,
1000000000280472,77754112249,mKarTel,mKcell,mKcell,,D01,2016-11-17T15:20:42+06:00,
1000000000280473,77052634681,mKarTel,mKcell,mKarTel,D02,D01,2016-11-17T15:21:16+06:00,
1000000000280474,77052634680,mKarTel,mKcell,mKarTel,D02,D01,2016-11-17T15:22:44+06:00,
1000000000280475,77052634674,mKarTel,mKcell,mKarTel,D02,D01,2016-11-17T15:23:56+06:00,
1000000000280476,77715461020,mKarTel,mMTS,mKarTel,D77,D01,2016-11-17T15:24:41+06:00,
1000000000280477,77052634672,mKarTel,mKcell,mKarTel,D02,D01,2016-11-17T15:25:18+06:00,
1000000000280478,77052634671,mKarTel,mKcell,mKarTel,D02,D01,2016-11-17T15:26:31+06:00,
1000000000280479,77016008960,mKarTel,mKcell,mKcell,,D01,2016-11-17T15:27:04+06:00,
1000000000280480,77052634668,mKarTel,mKcell,mKarTel,D02,D01,2016-11-17T15:28:21+06:00,
