NPId,Number,RecipientId,DonorId,RangeHolderId,OldRoute,NewRoute,PortDate,RowCount
1000000000422813,77075431488,mKarTel,mMTS,mMTS,,D01,2017-07-16T18:00:40+06:00,7
1000000000422814,77025522779,mKcell,mAltel,mKcell,D07,D02,2017-07-16T18:01:26+06:00,
1000000000422815,77083577618,mKarTel,mAltel,mAltel,,D01,2017-07-16T18:01:57+06:00,
1000000000422817,77080333888,mKarTel,mAltel,mAltel,,D01,2017-07-16T18:07:01+06:00,
1000000000422818,77751243332,mKcell,mMTS,mKcell,D77,D02,2017-07-16T18:11:55+06:00,
1000000000422819,77078488636,mKcell,mMTS,mMTS,,D02,2017-07-16T18:11:52+06:00,
1000000000422820,77785000111,mKarTel,mKcell,mKcell,,D01,2017-07-16T18:24:07+06:00,
