NPId,Number,RecipientId,DonorId,RangeHolderId,OldRoute,NewRoute,PortDate,RowCount
1000000000179558,77015444882,mMTS,mKcell,mKcell,,D77,2016-05-23T16:33:02+06:00,33
1000000000179561,77055589860,mMTS,mKarTel,mKarTel,,D77,2016-05-23T16:32:23+06:00,
1000000000179562,77753743486,mMTS,mKcell,mKcell,,D77,2016-05-23T16:34:26+06:00,
1000000000179563,77013019539,mKcell,mKarTel,mKcell,D01,D02,2016-05-23T16:35:02+06:00,
1000000000179565,77014746602,mKcell,mMTS,mKcell,D77,D02,2016-05-23T16:35:28+06:00,
1000000000179566,77083688374,mMTS,mAltel,mAltel,,D77,2016-05-23T16:37:04+06:00,
1000000000179568,77011133768,mKcell,mMTS,mKcell,D77,D02,2016-05-23T16:39:13+06:00,
1000000000179569,77026838040,mMTS,mKcell,mKcell,,D77,2016-05-23T16:40:11+06:00,
1000000000179570,77009855700,mKarTel,mAltel,mAltel,,D01,2016-05-23T16:40:19+06:00,
1000000000179571,77013000714,mKcell,mAltel,mKcell,D07,D02,2016-05-23T16:40:45+06:00,
1000000000179572,77773533777,mMTS,mKarTel,mKarTel,,D77,2016-05-23T16:41:58+06:00,
1000000000179573,77772816776,mKcell,mKarTel,mKarTel,,D02,2016-05-23T16:42:52+06:00,
1000000000179574,77073066562,mKarTel,mMTS,mMTS,,D01,2016-05-23T16:42:15+06:00,
1000000000179576,77051128948,mMTS,mKarTel,mKarTel,,D77,2016-05-23T16:43:01+06:00,
1000000000179577,77777214347,mMTS,mKarTel,mKarTel,,D77,2016-05-23T16:43:37+06:00,
1000000000179578,77085266909,mMTS,mAltel,mAltel,,D77,2016-05-23T16:44:02+06:00,
1000000000179579,77085246932,mMTS,mAltel,mAltel,,D77,2016-05-23T16:44:24+06:00,
1000000000179580,77775757754,mMTS,mKarTel,mKarTel,,D77,2016-05-23T16:47:01+06:00,
1000000000179581,77072888450,mMTS,mAltel,mMTS,D07,D77,2016-05-23T16:46:49+06:00,
1000000000179582,77776526805,mMTS,mKarTel,mKarTel,,D77,2016-05-23T16:47:26+06:00,
1000000000179583,77053338333,mMTS,mAltel,mKarTel,D07,D77,2016-05-23T16:47:03+06:00,
1000000000179584,77714513038,mKarTel,mMTS,mKarTel,D77,D01,2016-05-23T16:48:25+06:00,
1000000000179585,77784488873,mKarTel,mKcell,mKcell,,D01,2016-05-23T16:49:38+06:00,
1000000000179586,77007100004,mMTS,mAltel,mAltel,,D77,2016-05-23T16:48:32+06:00,
1000000000179591,77766667777,mKarTel,mMTS,mKarTel,D77,D01,2016-05-23T16:49:49+06:00,
1000000000179592,77473574563,mKarTel,mMTS,mMTS,,D01,2016-05-23T16:49:44+06:00,
1000000000179593,77772351983,mMTS,mKarTel,mKarTel,,D77,2016-05-23T16:51:03+06:00,
1000000000179594,77078736868,mKarTel,mAltel,mMTS,D07,D01,2016-05-23T16:52:09+06:00,
1000000000179599,77078777493,mKarTel,mMTS,mMTS,,D01,2016-05-23T16:55:17+06:00,
1000000000179600,77089518272,mMTS,mAltel,mAltel,,D77,2016-05-23T16:55:07+06:00,
1000000000179603,77473574556,mKarTel,mMTS,mMTS,,D01,2016-05-23T16:56:45+06:00,
1000000000179604,77778995535,mMTS,mKarTel,mKarTel,,D77,2016-05-23T16:58:12+06:00,
1000000000179606,77051120055,mAltel,mKarTel,mKarTel,,D07,2016-05-23T16:59:37+06:00,
