NPId,Number,RecipientId,DonorId,RangeHolderId,OldRoute,NewRoute,PortDate,RowCount
1000000000281612,77057057272,mKcell,mKarTel,mKarTel,,D02,2016-11-20T15:01:08+06:00,9
1000000000281614,77024062936,mAltel,mKcell,mKcell,,D07,2016-11-20T15:10:45+06:00,
1000000000281616,77028888653,mAltel,mKcell,mKcell,,D07,2016-11-20T15:13:54+06:00,
1000000000281617,77011855214,mAltel,mKcell,mKcell,,D07,2016-11-20T15:14:02+06:00,
1000000000281618,77054440356,mMTS,mKarTel,mKarTel,,D77,2016-11-20T15:15:56+06:00,
1000000000281619,77021630600,mMTS,mKcell,mKcell,,D77,2016-11-20T15:17:31+06:00,
1000000000281620,77073337182,mAltel,mKcell,mMTS,D02,D07,2016-11-20T15:17:59+06:00,
1000000000281621,77475005059,mKcell,mMTS,mMTS,,D02,2016-11-20T15:22:09+06:00,
1000000000281622,77754944323,mAltel,mKcell,mKcell,,D07,2016-11-20T15:29:48+06:00,
