NPId,Number,RecipientId,DonorId,RangeHolderId,OldRoute,NewRoute,PortDate,RowCount
1000000000163460,77015388762,mKcell,mKarTel,mKcell,D01,D02,2016-04-29T17:41:11+06:00,79
1000000000163460,77017951578,mKcell,mKarTel,mKcell,D01,D02,2016-04-29T17:41:11+06:00,
1000000000163460,77018091543,mKcell,mKarTel,mKcell,D01,D02,2016-04-29T17:41:11+06:00,
1000000000163460,77018099265,mKcell,mKarTel,mKcell,D01,D02,2016-04-29T17:41:11+06:00,
1000000000163460,77018099266,mKcell,mKarTel,mKcell,D01,D02,2016-04-29T17:41:11+06:00,
1000000000163460,77018099268,mKcell,mKarTel,mKcell,D01,D02,2016-04-29T17:41:11+06:00,
1000000000163460,77018099270,mKcell,mKarTel,mKcell,D01,D02,2016-04-29T17:41:11+06:00,
1000000000163460,77018099271,mKcell,mKarTel,mKcell,D01,D02,2016-04-29T17:41:11+06:00,
1000000000163460,77018099272,mKcell,mKarTel,mKcell,D01,D02,2016-04-29T17:41:11+06:00,
1000000000163460,77018099274,mKcell,mKarTel,mKcell,D01,D02,2016-04-29T17:41:11+06:00,
1000000000163460,77018099275,mKcell,mKarTel,mKcell,D01,D02,2016-04-29T17:41:11+06:00,
1000000000163460,77018099276,mKcell,mKarTel,mKcell,D01,D02,2016-04-29T17:41:11+06:00,
1000000000163460,77018099277,mKcell,mKarTel,mKcell,D01,D02,2016-04-29T17:41:11+06:00,
1000000000163460,77018099283,mKcell,mKarTel,mKcell,D01,D02,2016-04-29T17:41:11+06:00,
1000000000163460,77018099284,mKcell,mKarTel,mKcell,D01,D02,2016-04-29T17:41:11+06:00,
1000000000163460,77018099285,mKcell,mKarTel,mKcell,D01,D02,2016-04-29T17:41:11+06:00,
1000000000163460,77018099290,mKcell,mKarTel,mKcell,D01,D02,2016-04-29T17:41:11+06:00,
1000000000163460,77018099291,mKcell,mKarTel,mKcell,D01,D02,2016-04-29T17:41:11+06:00,
1000000000163460,77018099294,mKcell,mKarTel,mKcell,D01,D02,2016-04-29T17:41:11+06:00,
1000000000163460,77018099296,mKcell,mKarTel,mKcell,D01,D02,2016-04-29T17:41:11+06:00,
1000000000163460,77018099297,mKcell,mKarTel,mKcell,D01,D02,2016-04-29T17:41:11+06:00,
1000000000163460,77019828415,mKcell,mKarTel,mKcell,D01,D02,2016-04-29T17:41:11+06:00,
1000000000163460,77022189539,mKcell,mKarTel,mKcell,D01,D02,2016-04-29T17:41:11+06:00,
1000000000163460,77022189693,mKcell,mKarTel,mKcell,D01,D02,2016-04-29T17:41:11+06:00,
1000000000163460,77027131645,mKcell,mKarTel,mKcell,D01,D02,2016-04-29T17:41:11+06:00,
1000000000163460,77717155777,mKcell,mKarTel,mKarTel,,D02,2016-04-29T17:41:11+06:00,
1000000000163566,77017106329,mKarTel,mKcell,mKcell,,D01,2016-04-29T17:47:35+06:00,
1000000000163566,77017430173,mKarTel,mKcell,mKcell,,D01,2016-04-29T17:47:35+06:00,
1000000000163677,77001360448,mKarTel,mAltel,mAltel,,D01,2016-04-29T17:30:38+06:00,
1000000000163678,77089290374,mMTS,mAltel,mAltel,,D77,2016-04-29T17:31:38+06:00,
1000000000163679,77770231444,mMTS,mKarTel,mKarTel,,D77,2016-04-29T17:32:08+06:00,
1000000000163680,77051709204,mMTS,mKarTel,mKarTel,,D77,2016-04-29T17:32:18+06:00,
1000000000163681,77021802517,mMTS,mKcell,mKcell,,D77,2016-04-29T17:32:49+06:00,
1000000000163682,77027770235,mKcell,mMTS,mKcell,D77,D02,2016-04-29T17:33:56+06:00,
1000000000163684,77767299929,mMTS,mKarTel,mKarTel,,D77,2016-04-29T17:33:57+06:00,
1000000000163686,77755317598,mAltel,mKcell,mKcell,,D07,2016-04-29T17:34:07+06:00,
1000000000163687,77019133236,mKarTel,mKcell,mKcell,,D01,2016-04-29T17:34:58+06:00,
1000000000163688,77087217935,mMTS,mAltel,mAltel,,D77,2016-04-29T17:36:02+06:00,
1000000000163689,77017121926,mKarTel,mKcell,mKcell,,D01,2016-04-29T17:37:28+06:00,
1000000000163691,77765094039,mMTS,mKarTel,mKarTel,,D77,2016-04-29T17:39:32+06:00,
1000000000163692,77015667401,mKarTel,mKcell,mKcell,,D01,2016-04-29T17:39:56+06:00,
1000000000163693,77073624969,mKarTel,mMTS,mMTS,,D01,2016-04-29T17:39:41+06:00,
1000000000163694,77007783281,mMTS,mAltel,mAltel,,D77,2016-04-29T17:39:43+06:00,
1000000000163695,77766567575,mKcell,mKarTel,mKarTel,,D02,2016-04-29T17:41:45+06:00,
1000000000163697,77783537350,mMTS,mKcell,mKcell,,D77,2016-04-29T17:41:16+06:00,
1000000000163698,77002829809,mKarTel,mAltel,mAltel,,D01,2016-04-29T17:40:49+06:00,
1000000000163699,77078851988,mAltel,mMTS,mMTS,,D07,2016-04-29T17:40:52+06:00,
1000000000163701,77080511556,mKcell,mAltel,mAltel,,D02,2016-04-29T17:42:50+06:00,
1000000000163702,77087566766,mMTS,mAltel,mAltel,,D77,2016-04-29T17:41:50+06:00,
1000000000163703,77758059287,mMTS,mKcell,mKcell,,D77,2016-04-29T17:42:17+06:00,
1000000000163704,77000006488,mMTS,mAltel,mAltel,,D77,2016-04-29T17:42:03+06:00,
1000000000163705,77756852985,mMTS,mKcell,mKcell,,D77,2016-04-29T17:42:51+06:00,
1000000000163706,77052247075,mMTS,mKarTel,mKarTel,,D77,2016-04-29T17:43:03+06:00,
1000000000163707,77755317572,mAltel,mKcell,mKcell,,D07,2016-04-29T17:45:10+06:00,
1000000000163708,77027172179,mMTS,mKcell,mKcell,,D77,2016-04-29T17:45:10+06:00,
1000000000163709,77081049564,mMTS,mAltel,mAltel,,D77,2016-04-29T17:44:54+06:00,
1000000000163710,77007277770,mMTS,mAltel,mAltel,,D77,2016-04-29T17:45:46+06:00,
1000000000163711,77751752425,mMTS,mKcell,mKcell,,D77,2016-04-29T17:47:23+06:00,
1000000000163712,77755681919,mMTS,mAltel,mKcell,D07,D77,2016-04-29T17:47:33+06:00,
1000000000163713,77753159712,mMTS,mKcell,mKcell,,D77,2016-04-29T17:49:06+06:00,
1000000000163714,77787000058,mMTS,mKcell,mKcell,,D77,2016-04-29T17:49:51+06:00,
1000000000163715,77011491270,mKcell,mMTS,mKcell,D77,D02,2016-04-29T17:53:28+06:00,
1000000000163716,77059865206,mKarTel,mMTS,mKarTel,D77,D01,2016-04-29T17:52:37+06:00,
1000000000163717,77005032834,mMTS,mAltel,mAltel,,D77,2016-04-29T17:53:28+06:00,
1000000000163718,77055225223,mKarTel,mAltel,mKarTel,D07,D01,2016-04-29T17:53:46+06:00,
1000000000163720,77012251187,mKcell,mAltel,mKcell,D07,D02,2016-04-29T17:54:33+06:00,
1000000000163721,77051104719,mKarTel,mMTS,mKarTel,D77,D01,2016-04-29T17:54:22+06:00,
1000000000163722,77779828384,mMTS,mKarTel,mKarTel,,D77,2016-04-29T17:54:59+06:00,
1000000000163723,77056187420,mMTS,mKarTel,mKarTel,,D77,2016-04-29T17:55:09+06:00,
1000000000163725,77051415314,mAltel,mKarTel,mKarTel,,D07,2016-04-29T17:55:59+06:00,
1000000000163728,77017537782,mKarTel,mKcell,mKcell,,D01,2016-04-29T17:57:05+06:00,
1000000000163729,77022151715,mMTS,mKcell,mKcell,,D77,2016-04-29T17:57:34+06:00,
1000000000163730,77018809888,mKcell,mAltel,mKcell,D07,D02,2016-04-29T17:58:13+06:00,
1000000000163731,77784895058,mKcell,mAltel,mKcell,D07,D02,2016-04-29T17:58:47+06:00,
1000000000163732,77071923817,mKcell,mMTS,mMTS,,D02,2016-04-29T17:58:46+06:00,
1000000000163733,77018695435,mKcell,mAltel,mKcell,D07,D02,2016-04-29T17:58:47+06:00,
1000000000163734,77003303335,mKcell,mAltel,mAltel,,D02,2016-04-29T17:59:03+06:00,
1000000000163735,77759230000,mKarTel,mKcell,mKcell,,D01,2016-04-29T17:59:52+06:00,
1000000000163736,77759911194,mMTS,mKcell,mKcell,,D77,2016-04-29T17:59:37+06:00,
