NPId,Number,RecipientId,DonorId,RangeHolderId,OldRoute,NewRoute,PortDate,RowCount
1000000000438755,77766669177,mKarTel,mAltel,mKarTel,D07,D01,2017-08-12T11:32:19+06:00,22
1000000000438756,77011656618,mMTS,mKcell,mKcell,,D77,2017-08-12T11:32:32+06:00,
1000000000438757,77017987022,mKarTel,mKcell,mKcell,,D01,2017-08-12T11:33:03+06:00,
1000000000438758,77752590798,mMTS,mKcell,mKcell,,D77,2017-08-12T11:33:12+06:00,
1000000000438759,77479847509,mAltel,mMTS,mMTS,,D07,2017-08-12T11:33:30+06:00,
1000000000438760,77027213210,mKcell,mKarTel,mKcell,D01,D02,2017-08-12T11:36:32+06:00,
1000000000438762,77003325383,mKcell,mAltel,mAltel,,D02,2017-08-12T11:40:06+06:00,
1000000000438764,77015244436,mAltel,mKcell,mKcell,,D07,2017-08-12T11:43:18+06:00,
1000000000438769,77000909795,mKcell,mAltel,mAltel,,D02,2017-08-12T11:47:58+06:00,
1000000000438770,77788078700,mKarTel,mKcell,mKcell,,D01,2017-08-12T11:48:21+06:00,
1000000000438771,77083669692,mKarTel,mAltel,mAltel,,D01,2017-08-12T11:51:02+06:00,
1000000000438772,77000909963,mKcell,mAltel,mAltel,,D02,2017-08-12T11:52:29+06:00,
1000000000438773,77782730636,mMTS,mKcell,mKcell,,D77,2017-08-12T11:52:23+06:00,
1000000000438774,77005980898,mMTS,mAltel,mAltel,,D77,2017-08-12T11:52:36+06:00,
1000000000438775,77000808839,mKcell,mAltel,mAltel,,D02,2017-08-12T11:54:07+06:00,
1000000000438776,77774354886,mMTS,mKarTel,mKarTel,,D77,2017-08-12T11:54:42+06:00,
1000000000438777,77005005523,mKcell,mAltel,mAltel,,D02,2017-08-12T11:55:54+06:00,
1000000000438778,77074676170,mAltel,mMTS,mMTS,,D07,2017-08-12T11:55:53+06:00,
1000000000438779,77072999979,mMTS,mKcell,mMTS,D02,D77,2017-08-12T11:56:38+06:00,
1000000000438780,77000909691,mKcell,mAltel,mAltel,,D02,2017-08-12T11:58:05+06:00,
1000000000438781,77028663638,mMTS,mKcell,mKcell,,D77,2017-08-12T11:59:55+06:00,
1000000000438782,77771207000,mKarTel,mAltel,mKarTel,D07,D01,2017-08-12T11:59:54+06:00,
