NPId,Number,RecipientId,DonorId,RangeHolderId,OldRoute,NewRoute,PortDate,RowCount
1000000000233885,77017814421,mMTS,mKcell,mKcell,,D77,2016-08-25T14:29:47+06:00,15
1000000000233913,77017814473,mMTS,mKcell,mKcell,,D77,2016-08-25T14:28:50+06:00,
1000000000233919,77017814546,mMTS,mKcell,mKcell,,D77,2016-08-25T14:27:17+06:00,
1000000000233975,77023317727,mKarTel,mKcell,mKcell,,D01,2016-08-25T14:01:37+06:00,
1000000000233976,77012440660,mMTS,mKcell,mKcell,,D77,2016-08-25T14:01:25+06:00,
1000000000233979,77053350500,mAltel,mKarTel,mKarTel,,D07,2016-08-25T14:03:23+06:00,
1000000000233980,77476694272,mKarTel,mMTS,mMTS,,D01,2016-08-25T14:04:18+06:00,
1000000000233983,77022694440,mKcell,mKarTel,mKcell,D01,D02,2016-08-25T14:11:43+06:00,
1000000000233987,77015240405,mKarTel,mKcell,mKcell,,D01,2016-08-25T14:18:00+06:00,
1000000000233988,77053304333,mMTS,mKarTel,mKarTel,,D77,2016-08-25T14:18:51+06:00,
1000000000233990,77753317775,mMTS,mKcell,mKcell,,D77,2016-08-25T14:18:39+06:00,
1000000000233991,77760555025,mMTS,mKarTel,mKarTel,,D77,2016-08-25T14:22:13+06:00,
1000000000233992,77017005197,mMTS,mKcell,mKcell,,D77,2016-08-25T14:22:18+06:00,
1000000000233993,77086026073,mMTS,mAltel,mAltel,,D77,2016-08-25T14:22:22+06:00,
1000000000233994,77055385347,mKarTel,mMTS,mKarTel,D77,D01,2016-08-25T14:28:13+06:00,
