NPId,Number,RecipientId,DonorId,RangeHolderId,OldRoute,NewRoute,PortDate,RowCount
1000000000439212,77076669971,mKarTel,mMTS,mMTS,D77,D01,2017-08-13T13:37:56+06:00,8
1000000000439213,77711755555,mKcell,mKarTel,mKarTel,,D02,2017-08-13T13:44:24+06:00,
1000000000439214,77025276677,mKarTel,mKcell,mKcell,,D01,2017-08-13T13:44:59+06:00,
1000000000439215,77781100098,mKcell,mAltel,mKcell,D07,D02,2017-08-13T13:47:17+06:00,
1000000000439216,77017848779,mMTS,mKcell,mKcell,,D77,2017-08-13T13:52:29+06:00,
1000000000439217,77774424635,mMTS,mKarTel,mKarTel,,D77,2017-08-13T13:56:13+06:00,
1000000000439218,77018489188,mMTS,mKcell,mKcell,,D77,2017-08-13T13:56:42+06:00,
1000000000439219,77777213085,mMTS,mKarTel,mKarTel,,D77,2017-08-13T13:57:47+06:00,
