NPId,Number,RecipientId,DonorId,RangeHolderId,OldRoute,NewRoute,PortDate,RowCount
1000000000295738,77006543210,mKarTel,mMTS,mAltel,D77,D01,2016-12-15T16:00:13+06:00,20
1000000000295739,77025552317,mKcell,mMTS,mKcell,D77,D02,2016-12-15T16:01:11+06:00,
1000000000295740,77473161644,mKarTel,mMTS,mMTS,,D01,2016-12-15T16:01:33+06:00,
1000000000295743,77017328895,mMTS,mKcell,mKcell,,D77,2016-12-15T16:01:43+06:00,
1000000000295744,77760606044,mKcell,mKarTel,mKarTel,,D02,2016-12-15T16:03:22+06:00,
1000000000295745,77019475050,mMTS,mKcell,mKcell,,D77,2016-12-15T16:05:48+06:00,
1000000000295746,77773761868,mMTS,mKarTel,mKarTel,,D77,2016-12-15T16:07:59+06:00,
1000000000295748,77003333393,mKarTel,mAltel,mAltel,,D01,2016-12-15T16:11:03+06:00,
1000000000295750,77787099921,mKarTel,mKcell,mKcell,,D01,2016-12-15T16:13:54+06:00,
1000000000295751,77077270730,mKcell,mMTS,mMTS,,D02,2016-12-15T16:15:03+06:00,
1000000000295753,77011461775,mMTS,mKcell,mKcell,,D77,2016-12-15T16:17:40+06:00,
1000000000295754,77072117797,mAltel,mMTS,mMTS,,D07,2016-12-15T16:17:53+06:00,
1000000000295755,77027528591,mKarTel,mKcell,mKcell,,D01,2016-12-15T16:18:13+06:00,
1000000000295756,77023333505,mAltel,mKcell,mKcell,,D07,2016-12-15T16:19:25+06:00,
1000000000295757,77029421070,mMTS,mKcell,mKcell,,D77,2016-12-15T16:20:00+06:00,
1000000000295758,77029544771,mAltel,mKcell,mKcell,,D07,2016-12-15T16:21:25+06:00,
1000000000295759,77001394627,mMTS,mAltel,mAltel,,D77,2016-12-15T16:22:35+06:00,
1000000000295760,77778077577,mKarTel,mAltel,mKarTel,D07,D01,2016-12-15T16:25:25+06:00,
1000000000295761,77004000055,mKcell,mAltel,mAltel,,D02,2016-12-15T16:29:11+06:00,
1000000000295762,77476300985,mKcell,mMTS,mMTS,,D02,2016-12-15T16:29:36+06:00,
