NPId,Number,RecipientId,DonorId,RangeHolderId,OldRoute,NewRoute,PortDate,RowCount
1000000000322949,77710156912,mMTS,mKarTel,mKarTel,,D77,2017-02-03T14:35:16+06:00,24
1000000000322965,77477103921,mMTS,mKcell,mMTS,D02,D77,2017-02-03T14:33:05+06:00,
1000000000322966,77052077770,mAltel,mKcell,mKarTel,D02,D07,2017-02-03T14:33:30+06:00,
1000000000322967,77014002026,mMTS,mKcell,mKcell,,D77,2017-02-03T14:34:06+06:00,
1000000000322970,77074020508,mKcell,mMTS,mMTS,,D02,2017-02-03T14:36:34+06:00,
1000000000322971,77714110488,mAltel,mKarTel,mKarTel,,D07,2017-02-03T14:37:16+06:00,
1000000000322972,77004891474,mAltel,mMTS,mAltel,D77,D07,2017-02-03T14:36:54+06:00,
1000000000322974,77017240006,mKarTel,mKcell,mKcell,,D01,2017-02-03T14:38:33+06:00,
1000000000322975,77019410590,mAltel,mKcell,mKcell,,D07,2017-02-03T14:39:49+06:00,
1000000000322976,77071848888,mKcell,mMTS,mMTS,,D02,2017-02-03T14:40:04+06:00,
1000000000322977,77053706837,mMTS,mKarTel,mKarTel,,D77,2017-02-03T14:40:56+06:00,
1000000000322978,77017564492,mKcell,mKarTel,mKcell,D01,D02,2017-02-03T14:41:20+06:00,
1000000000322979,77714365480,mMTS,mKarTel,mKarTel,,D77,2017-02-03T14:42:58+06:00,
1000000000322985,77000290099,mMTS,mAltel,mAltel,,D77,2017-02-03T14:47:00+06:00,
1000000000322986,77001972708,mAltel,mMTS,mAltel,D77,D07,2017-02-03T14:47:12+06:00,
1000000000322987,77776665951,mAltel,mKarTel,mKarTel,,D07,2017-02-03T14:47:56+06:00,
1000000000322989,77015446119,mKcell,mMTS,mKcell,D77,D02,2017-02-03T14:48:02+06:00,
1000000000322994,77751111152,mKarTel,mKcell,mKcell,,D01,2017-02-03T14:50:22+06:00,
1000000000322996,77082220917,mMTS,mAltel,mAltel,,D77,2017-02-03T14:51:24+06:00,
1000000000322997,77714365344,mMTS,mKarTel,mKarTel,,D77,2017-02-03T14:53:02+06:00,
1000000000322999,77053444538,mKcell,mKarTel,mKarTel,D01,D02,2017-02-03T14:54:07+06:00,
1000000000323002,77074440802,mMTS,mKarTel,mMTS,D01,D77,2017-02-03T14:57:01+06:00,
1000000000323005,77778338888,mKarTel,mKcell,mKarTel,D02,D01,2017-02-03T14:59:44+06:00,
1000000000323006,77012669727,mKarTel,mKcell,mKcell,,D01,2017-02-03T14:59:51+06:00,
