NPId,Number,RecipientId,DonorId,RangeHolderId,OldRoute,NewRoute,PortDate,RowCount
1000000000175518,77079555281,mKarTel,mMTS,mMTS,,D01,2016-05-16T20:00:58+06:00,5
1000000000175520,77075250867,mKcell,mMTS,mMTS,,D02,2016-05-16T20:06:40+06:00,
1000000000175522,77754771715,mKcell,mAltel,mKcell,D07,D02,2016-05-16T20:07:46+06:00,
1000000000175523,77716097979,mKcell,mKarTel,mKarTel,,D02,2016-05-16T20:11:46+06:00,
1000000000175525,77028671777,mMTS,mKcell,mKcell,,D77,2016-05-16T20:17:28+06:00,
