NPId,Number,RecipientId,DonorId,RangeHolderId,OldRoute,NewRoute,PortDate,RowCount
1000000000133078,77021077731,mAltel,mKcell,mKcell,,D07,2016-03-25T15:00:35+06:00,23
1000000000133079,77072500963,mKarTel,mMTS,mMTS,,D01,2016-03-25T15:01:33+06:00,
1000000000133080,77081329565,mMTS,mAltel,mAltel,,D77,2016-03-25T15:01:41+06:00,
1000000000133081,77021032560,mMTS,mKcell,mKcell,,D77,2016-03-25T15:03:04+06:00,
1000000000133082,77017425997,mAltel,mKcell,mKcell,,D07,2016-03-25T15:03:04+06:00,
1000000000133083,77081211499,mMTS,mAltel,mAltel,,D77,2016-03-25T15:03:47+06:00,
1000000000133086,77083577271,mKcell,mAltel,mAltel,,D02,2016-03-25T15:08:39+06:00,
1000000000133088,77777704700,mMTS,mKarTel,mKarTel,,D77,2016-03-25T15:10:56+06:00,
1000000000133090,77077888842,mAltel,mMTS,mMTS,,D07,2016-03-25T15:10:40+06:00,
1000000000133091,77754788340,mMTS,mKcell,mKcell,,D77,2016-03-25T15:11:32+06:00,
1000000000133092,77782705033,mAltel,mKcell,mKcell,,D07,2016-03-25T15:12:23+06:00,
1000000000133094,77077006606,mKcell,mMTS,mMTS,,D02,2016-03-25T15:14:17+06:00,
1000000000133096,77085606859,mKcell,mAltel,mAltel,,D02,2016-03-25T15:16:25+06:00,
1000000000133098,77014009683,mAltel,mKcell,mKcell,,D07,2016-03-25T15:18:44+06:00,
1000000000133099,77777551377,mAltel,mKarTel,mKarTel,,D07,2016-03-25T15:20:38+06:00,
1000000000133100,77022631106,mMTS,mKcell,mKcell,,D77,2016-03-25T15:22:14+06:00,
1000000000133101,77770969597,mMTS,mKarTel,mKarTel,,D77,2016-03-25T15:23:33+06:00,
1000000000133102,77015558244,mKcell,mAltel,mKcell,D07,D02,2016-03-25T15:22:46+06:00,
1000000000133103,77022958406,mKcell,mMTS,mKcell,D77,D02,2016-03-25T15:23:09+06:00,
1000000000133106,77717797972,mAltel,mKarTel,mKarTel,,D07,2016-03-25T15:25:34+06:00,
1000000000133107,77056123743,mKarTel,mMTS,mKarTel,D77,D01,2016-03-25T15:26:23+06:00,
1000000000133108,77777223301,mMTS,mKarTel,mKarTel,,D77,2016-03-25T15:28:52+06:00,
1000000000133110,77023251822,mKarTel,mKcell,mKcell,,D01,2016-03-25T15:28:52+06:00,
