NPId,Number,RecipientId,DonorId,RangeHolderId,OldRoute,NewRoute,PortDate,RowCount
1000000000442280,77785702582,mMTS,mKcell,mKcell,,D77,2017-08-19T11:01:41+06:00,17
1000000000442281,77058881637,mMTS,mKarTel,mKarTel,,D77,2017-08-19T11:03:34+06:00,
1000000000442282,77771323233,mKcell,mKarTel,mKarTel,,D02,2017-08-19T11:03:49+06:00,
1000000000442283,77005534873,mMTS,mAltel,mAltel,,D77,2017-08-19T11:04:16+06:00,
1000000000442284,77771366440,mAltel,mKarTel,mKarTel,,D07,2017-08-19T11:08:18+06:00,
1000000000442285,77015716484,mKcell,mKarTel,mKcell,D01,D02,2017-08-19T11:09:11+06:00,
1000000000442286,77074484432,mKcell,mMTS,mMTS,,D02,2017-08-19T11:11:25+06:00,
1000000000442287,77759542436,mMTS,mKcell,mKcell,,D77,2017-08-19T11:12:40+06:00,
1000000000442288,77785704845,mMTS,mKcell,mKcell,,D77,2017-08-19T11:12:40+06:00,
1000000000442289,77089888147,mMTS,mAltel,mAltel,,D77,2017-08-19T11:14:02+06:00,
1000000000442290,77080080003,mKarTel,mAltel,mAltel,,D01,2017-08-19T11:14:30+06:00,
1000000000442291,77785704873,mMTS,mKcell,mKcell,,D77,2017-08-19T11:22:36+06:00,
1000000000442292,77757101011,mMTS,mKcell,mKcell,,D77,2017-08-19T11:23:21+06:00,
1000000000442293,77711404041,mMTS,mKarTel,mKarTel,,D77,2017-08-19T11:25:57+06:00,
1000000000442294,77018968767,mAltel,mKcell,mKcell,,D07,2017-08-19T11:27:27+06:00,
1000000000442295,77759489993,mAltel,mKcell,mKcell,,D07,2017-08-19T11:27:39+06:00,
1000000000442296,77082737003,mKarTel,mAltel,mAltel,D07,D01,2017-08-19T11:28:03+06:00,
