NPId,Number,RecipientId,DonorId,RangeHolderId,OldRoute,NewRoute,PortDate,RowCount
1000000000281623,77780002999,mMTS,mKcell,mKcell,,D77,2016-11-20T15:30:06+06:00,11
1000000000281625,77770330633,mKcell,mKarTel,mKarTel,,D02,2016-11-20T15:34:02+06:00,
1000000000281626,77079091699,mKarTel,mMTS,mMTS,,D01,2016-11-20T15:33:47+06:00,
1000000000281628,77756265131,mMTS,mKcell,mKcell,,D77,2016-11-20T15:40:16+06:00,
1000000000281629,77013887988,mKarTel,mKcell,mKcell,,D01,2016-11-20T15:39:15+06:00,
1000000000281630,77778236158,mAltel,mKarTel,mKarTel,,D07,2016-11-20T15:39:17+06:00,
1000000000281631,77775272730,mAltel,mKarTel,mKarTel,,D07,2016-11-20T15:39:45+06:00,
1000000000281632,77077108855,mKarTel,mMTS,mMTS,,D01,2016-11-20T15:40:38+06:00,
1000000000281633,77071010044,mKarTel,mMTS,mMTS,,D01,2016-11-20T15:43:45+06:00,
1000000000281634,77089361754,mMTS,mAltel,mAltel,,D77,2016-11-20T15:47:55+06:00,
1000000000281636,77029530020,mKarTel,mKcell,mKcell,,D01,2016-11-20T15:59:00+06:00,
