NPId,Number,RecipientId,DonorId,RangeHolderId,OldRoute,NewRoute,PortDate,RowCount
1000000000236936,77762566111,mKcell,mKarTel,mKarTel,,D02,2016-08-31T10:30:44+06:00,24
1000000000236937,77019992237,mKcell,mKarTel,mKcell,D01,D02,2016-08-31T10:33:52+06:00,
1000000000236938,77017294471,mMTS,mKcell,mKcell,,D77,2016-08-31T10:33:27+06:00,
1000000000236939,77762466111,mKcell,mKarTel,mKarTel,,D02,2016-08-31T10:34:13+06:00,
1000000000236940,77711234049,mKcell,mKarTel,mKarTel,,D02,2016-08-31T10:35:01+06:00,
1000000000236941,77762466222,mKcell,mKarTel,mKarTel,,D02,2016-08-31T10:35:47+06:00,
1000000000236942,77762933111,mKcell,mKarTel,mKarTel,,D02,2016-08-31T10:36:00+06:00,
1000000000236943,77076070333,mMTS,mKarTel,mMTS,D01,D77,2016-08-31T10:37:16+06:00,
1000000000236944,77783088734,mKarTel,mKcell,mKcell,,D01,2016-08-31T10:38:12+06:00,
1000000000236945,77751505060,mMTS,mKcell,mKcell,,D77,2016-08-31T10:39:04+06:00,
1000000000236946,77783018222,mMTS,mKcell,mKcell,,D77,2016-08-31T10:39:48+06:00,
1000000000236947,77762812111,mKcell,mKarTel,mKarTel,,D02,2016-08-31T10:41:48+06:00,
1000000000236948,77762366111,mKcell,mKarTel,mKarTel,,D02,2016-08-31T10:41:52+06:00,
1000000000236949,77011057426,mMTS,mKcell,mKcell,,D77,2016-08-31T10:40:59+06:00,
1000000000236950,77771111718,mKarTel,mAltel,mKarTel,D07,D01,2016-08-31T10:42:34+06:00,
1000000000236951,77762588111,mKcell,mKarTel,mKarTel,,D02,2016-08-31T10:44:20+06:00,
1000000000236952,77027916917,mKarTel,mKcell,mKcell,,D01,2016-08-31T10:44:51+06:00,
1000000000236953,77711269733,mMTS,mKarTel,mKarTel,,D77,2016-08-31T10:48:00+06:00,
1000000000236954,77766616156,mMTS,mKcell,mKarTel,D02,D77,2016-08-31T10:47:50+06:00,
1000000000236955,77051342714,mKarTel,mKcell,mKarTel,D02,D01,2016-08-31T10:48:29+06:00,
1000000000236956,77770906677,mAltel,mKarTel,mKarTel,,D07,2016-08-31T10:52:18+06:00,
1000000000236959,77015120178,mKarTel,mKcell,mKcell,,D01,2016-08-31T10:53:34+06:00,
1000000000236960,77055227842,mKarTel,mMTS,mKarTel,D77,D01,2016-08-31T10:55:40+06:00,
1000000000236961,77022200669,mKarTel,mKcell,mKcell,,D01,2016-08-31T10:57:57+06:00,
