NPId,Number,RecipientId,DonorId,RangeHolderId,OldRoute,NewRoute,PortDate,RowCount
1000000000361929,77026840272,mAltel,mKcell,mKcell,,D07,2017-04-07T17:30:38+06:00,30
1000000000361930,77003869282,mMTS,mAltel,mAltel,,D77,2017-04-07T17:31:17+06:00,
1000000000361931,77760559559,mMTS,mKarTel,mKarTel,,D77,2017-04-07T17:32:12+06:00,
1000000000361932,77083346707,mMTS,mAltel,mAltel,D07,D77,2017-04-07T17:31:58+06:00,
1000000000361933,77075871422,mKarTel,mMTS,mMTS,,D01,2017-04-07T17:33:06+06:00,
1000000000361935,77025572577,mAltel,mMTS,mKcell,D77,D07,2017-04-07T17:34:00+06:00,
1000000000361936,77021163300,mKarTel,mKcell,mKcell,D02,D01,2017-04-07T17:35:35+06:00,
1000000000361937,77072020409,mAltel,mMTS,mMTS,,D07,2017-04-07T17:36:38+06:00,
1000000000361939,77077292012,mMTS,mKcell,mMTS,D02,D77,2017-04-07T17:42:55+06:00,
1000000000361940,77072269722,mKcell,mMTS,mMTS,,D02,2017-04-07T17:43:21+06:00,
1000000000361941,77014367890,mMTS,mKcell,mKcell,,D77,2017-04-07T17:43:28+06:00,
1000000000361942,77055182451,mAltel,mKarTel,mKarTel,,D07,2017-04-07T17:44:43+06:00,
1000000000361943,77086806691,mMTS,mAltel,mAltel,,D77,2017-04-07T17:44:55+06:00,
1000000000361944,77753425363,mAltel,mKcell,mKcell,,D07,2017-04-07T17:45:15+06:00,
1000000000361946,77071562222,mMTS,mAltel,mMTS,D07,D77,2017-04-07T17:46:22+06:00,
1000000000361947,77058149457,mMTS,mKarTel,mKarTel,,D77,2017-04-07T17:47:18+06:00,
1000000000361948,77782221047,mAltel,mKcell,mKcell,,D07,2017-04-07T17:47:59+06:00,
1000000000361949,77052508500,mAltel,mKarTel,mKarTel,,D07,2017-04-07T17:50:35+06:00,
1000000000361951,77089251175,mMTS,mAltel,mAltel,,D77,2017-04-07T17:50:42+06:00,
1000000000361952,77011799724,mKarTel,mKcell,mKcell,,D01,2017-04-07T17:52:49+06:00,
1000000000361954,77783112598,mKarTel,mKcell,mKcell,,D01,2017-04-07T17:53:55+06:00,
1000000000361955,77025171198,mAltel,mKcell,mKcell,,D07,2017-04-07T17:54:30+06:00,
1000000000361956,77013015059,mMTS,mKcell,mKcell,,D77,2017-04-07T17:55:53+06:00,
1000000000361958,77070225017,mKarTel,mMTS,mMTS,,D01,2017-04-07T17:57:17+06:00,
1000000000361958,77070225018,mKarTel,mMTS,mMTS,,D01,2017-04-07T17:57:17+06:00,
1000000000361958,77070225019,mKarTel,mMTS,mMTS,,D01,2017-04-07T17:57:17+06:00,
1000000000361958,77476318482,mKarTel,mMTS,mMTS,,D01,2017-04-07T17:57:17+06:00,
1000000000361961,77753461628,mAltel,mKcell,mKcell,,D07,2017-04-07T17:58:18+06:00,
1000000000361962,77004757533,mKcell,mAltel,mAltel,,D02,2017-04-07T17:58:27+06:00,
1000000000361964,77015555961,mKcell,mAltel,mKcell,D07,D02,2017-04-07T17:59:16+06:00,
