NPId,Number,RecipientId,DonorId,RangeHolderId,OldRoute,NewRoute,PortDate,RowCount
1000000000241487,77083415335,mMTS,mAltel,mAltel,,D77,2016-09-07T10:01:00+06:00,20
1000000000241488,77007107070,mKcell,mKarTel,mAltel,D01,D02,2016-09-07T10:02:54+06:00,
1000000000241489,77053333122,mMTS,mKarTel,mKarTel,,D77,2016-09-07T10:02:50+06:00,
1000000000241490,77715554446,mKcell,mKarTel,mKarTel,,D02,2016-09-07T10:04:58+06:00,
1000000000241491,77475222061,mKarTel,mMTS,mMTS,,D01,2016-09-07T10:03:46+06:00,
1000000000241491,77475222065,mKarTel,mMTS,mMTS,,D01,2016-09-07T10:03:46+06:00,
1000000000241493,77714702639,mMTS,mKarTel,mKarTel,,D77,2016-09-07T10:06:11+06:00,
1000000000241494,77054404409,mKarTel,mMTS,mKarTel,D77,D01,2016-09-07T10:06:37+06:00,
1000000000241495,77015246081,mAltel,mKcell,mKcell,,D07,2016-09-07T10:08:57+06:00,
1000000000241497,77013257385,mMTS,mKcell,mKcell,,D77,2016-09-07T10:13:00+06:00,
1000000000241500,77754139213,mKarTel,mKcell,mKcell,,D01,2016-09-07T10:16:42+06:00,
1000000000241501,77775550086,mKcell,mKarTel,mKarTel,,D02,2016-09-07T10:19:28+06:00,
1000000000241502,77751950773,mMTS,mKcell,mKcell,,D77,2016-09-07T10:21:38+06:00,
1000000000241503,77015135048,mKcell,mKarTel,mKcell,D01,D02,2016-09-07T10:23:05+06:00,
1000000000241504,77083456730,mMTS,mAltel,mAltel,,D77,2016-09-07T10:25:06+06:00,
1000000000241505,77782301049,mMTS,mKcell,mKcell,,D77,2016-09-07T10:25:52+06:00,
1000000000241506,77017503888,mMTS,mKcell,mKcell,,D77,2016-09-07T10:26:51+06:00,
1000000000241507,77756620372,mMTS,mKcell,mKcell,,D77,2016-09-07T10:27:50+06:00,
1000000000241508,77019845035,mMTS,mAltel,mKcell,D07,D77,2016-09-07T10:27:58+06:00,
1000000000241509,77016446777,mMTS,mKcell,mKcell,,D77,2016-09-07T10:28:09+06:00,
