NPId,Number,RecipientId,DonorId,RangeHolderId,OldRoute,NewRoute,PortDate,RowCount
1000000000164465,77789616361,mMTS,mKcell,mKcell,,D77,2016-04-30T17:04:18+06:00,37
1000000000164466,77012081300,mAltel,mKcell,mKcell,,D07,2016-04-30T17:04:18+06:00,
1000000000164467,77013174435,mKarTel,mAltel,mKcell,D07,D01,2016-04-30T17:00:50+06:00,
1000000000164469,77016029243,mAltel,mKcell,mKcell,,D07,2016-04-30T17:04:22+06:00,
1000000000164470,77089315586,mMTS,mAltel,mAltel,,D77,2016-04-30T17:01:51+06:00,
1000000000164471,77017953179,mKcell,mKarTel,mKcell,D01,D02,2016-04-30T17:03:46+06:00,
1000000000164473,77089516001,mMTS,mAltel,mAltel,,D77,2016-04-30T17:02:04+06:00,
1000000000164474,77015368394,mMTS,mKcell,mKcell,,D77,2016-04-30T17:04:18+06:00,
1000000000164475,77003990002,mKcell,mAltel,mAltel,,D02,2016-04-30T17:04:08+06:00,
1000000000164476,77013014540,mMTS,mKcell,mKcell,,D77,2016-04-30T17:04:21+06:00,
1000000000164477,77024960420,mAltel,mKcell,mKcell,,D07,2016-04-30T17:04:22+06:00,
1000000000164478,77017115310,mKcell,mKarTel,mKcell,D01,D02,2016-04-30T17:06:52+06:00,
1000000000164479,77782757007,mMTS,mKcell,mKcell,,D77,2016-04-30T17:06:00+06:00,
1000000000164480,77770065387,mKcell,mKarTel,mKarTel,,D02,2016-04-30T17:07:30+06:00,
1000000000164482,77014568292,mMTS,mKcell,mKcell,,D77,2016-04-30T17:07:25+06:00,
1000000000164483,77003917994,mMTS,mAltel,mAltel,,D77,2016-04-30T17:07:01+06:00,
1000000000164486,77779176068,mMTS,mKarTel,mKarTel,,D77,2016-04-30T17:07:47+06:00,
1000000000164487,77751334849,mKcell,mAltel,mKcell,D07,D02,2016-04-30T17:08:29+06:00,
1000000000164489,77015229332,mKarTel,mKcell,mKcell,,D01,2016-04-30T17:10:23+06:00,
1000000000164490,77773169460,mAltel,mKarTel,mKarTel,,D07,2016-04-30T17:11:13+06:00,
1000000000164491,77714410373,mKcell,mKarTel,mKarTel,,D02,2016-04-30T17:12:42+06:00,
1000000000164492,77057973017,mMTS,mKarTel,mKarTel,,D77,2016-04-30T17:12:20+06:00,
1000000000164493,77051887768,mKcell,mKarTel,mKarTel,,D02,2016-04-30T17:14:42+06:00,
1000000000164495,77778454344,mKcell,mKarTel,mKarTel,,D02,2016-04-30T17:16:47+06:00,
1000000000164496,77085031192,mMTS,mAltel,mAltel,,D77,2016-04-30T17:17:11+06:00,
1000000000164497,77757997992,mMTS,mKcell,mKcell,,D77,2016-04-30T17:19:54+06:00,
1000000000164499,77779233669,mMTS,mKarTel,mKarTel,,D77,2016-04-30T17:20:31+06:00,
1000000000164501,77026326644,mKcell,mAltel,mKcell,D07,D02,2016-04-30T17:22:54+06:00,
1000000000164502,77086023589,mMTS,mAltel,mAltel,,D77,2016-04-30T17:22:56+06:00,
1000000000164503,77475850568,mKcell,mMTS,mMTS,,D02,2016-04-30T17:24:06+06:00,
1000000000164505,77029696644,mMTS,mKcell,mKcell,,D77,2016-04-30T17:26:18+06:00,
1000000000164506,77771520242,mMTS,mKarTel,mKarTel,,D77,2016-04-30T17:26:28+06:00,
1000000000164507,77012321184,mMTS,mKcell,mKcell,,D77,2016-04-30T17:27:00+06:00,
1000000000164509,77771474688,mMTS,mKarTel,mKarTel,,D77,2016-04-30T17:28:06+06:00,
1000000000164512,77023233300,mKarTel,mKcell,mKcell,,D01,2016-04-30T17:29:12+06:00,
1000000000164513,77077767557,mKcell,mMTS,mMTS,,D02,2016-04-30T17:29:16+06:00,
1000000000164514,77053732737,mAltel,mKarTel,mKarTel,,D07,2016-04-30T17:29:25+06:00,
