NPId,Number,RecipientId,DonorId,RangeHolderId,OldRoute,NewRoute,PortDate,RowCount
1000000000401043,77053147321,mMTS,mKarTel,mKarTel,,D77,2017-06-10T14:31:35+06:00,33
1000000000401044,77775422902,mKcell,mKarTel,mKarTel,,D02,2017-06-10T14:32:43+06:00,
1000000000401047,77764840101,mKarTel,mAltel,mKarTel,D07,D01,2017-06-10T14:37:10+06:00,
1000000000401049,77074169614,mKarTel,mMTS,mMTS,,D01,2017-06-10T14:40:29+06:00,
1000000000401050,77076210330,mAltel,mMTS,mMTS,,D07,2017-06-10T14:40:26+06:00,
1000000000401051,77002202219,mMTS,mAltel,mAltel,,D77,2017-06-10T14:40:34+06:00,
1000000000401052,77018218242,mKarTel,mKcell,mKcell,,D01,2017-06-10T14:40:54+06:00,
1000000000401053,77028651697,mKarTel,mKcell,mKcell,,D01,2017-06-10T14:41:59+06:00,
1000000000401055,77054516838,mMTS,mKarTel,mKarTel,,D77,2017-06-10T14:45:54+06:00,
1000000000401056,77075187040,mAltel,mMTS,mMTS,,D07,2017-06-10T14:45:58+06:00,
1000000000401057,77476866185,mKarTel,mMTS,mMTS,,D01,2017-06-10T14:46:49+06:00,
1000000000401058,77073843030,mAltel,mMTS,mMTS,,D07,2017-06-10T14:46:52+06:00,
1000000000401059,77074722755,mKarTel,mMTS,mMTS,,D01,2017-06-10T14:48:22+06:00,
1000000000401060,77077308803,mAltel,mMTS,mMTS,,D07,2017-06-10T14:48:11+06:00,
1000000000401061,77054033623,mKcell,mKarTel,mKarTel,,D02,2017-06-10T14:49:16+06:00,
1000000000401064,77772602566,mKcell,mKarTel,mKarTel,,D02,2017-06-10T14:50:33+06:00,
1000000000401065,77022276990,mAltel,mKcell,mKcell,,D07,2017-06-10T14:50:36+06:00,
1000000000401066,77022472461,mMTS,mKcell,mKcell,,D77,2017-06-10T14:51:09+06:00,
1000000000401067,77713743556,mMTS,mKarTel,mKarTel,,D77,2017-06-10T14:51:31+06:00,
1000000000401068,77083851311,mMTS,mAltel,mAltel,,D77,2017-06-10T14:51:32+06:00,
1000000000401069,77018257373,mAltel,mKcell,mKcell,,D07,2017-06-10T14:52:02+06:00,
1000000000401070,77773055151,mAltel,mKarTel,mKarTel,,D07,2017-06-10T14:52:31+06:00,
1000000000401071,77474866641,mMTS,mAltel,mMTS,D07,D77,2017-06-10T14:52:27+06:00,
1000000000401072,77052790529,mAltel,mKarTel,mKarTel,,D07,2017-06-10T14:53:27+06:00,
1000000000401073,77017788738,mKarTel,mKcell,mKcell,D02,D01,2017-06-10T14:54:37+06:00,
1000000000401075,77072200099,mAltel,mMTS,mMTS,,D07,2017-06-10T14:54:56+06:00,
1000000000401076,77017838148,mMTS,mKcell,mKcell,,D77,2017-06-10T14:55:51+06:00,
1000000000401077,77074066066,mKarTel,mMTS,mMTS,,D01,2017-06-10T14:56:11+06:00,
1000000000401078,77471138681,mAltel,mMTS,mMTS,,D07,2017-06-10T14:56:11+06:00,
1000000000401079,77472007108,mAltel,mMTS,mMTS,,D07,2017-06-10T14:56:14+06:00,
1000000000401080,77083263630,mKcell,mAltel,mAltel,,D02,2017-06-10T14:57:24+06:00,
1000000000401081,77015807825,mAltel,mKcell,mKcell,,D07,2017-06-10T14:58:15+06:00,
1000000000401082,77077099878,mAltel,mMTS,mMTS,,D07,2017-06-10T14:58:57+06:00,
