NPId,Number,RecipientId,DonorId,RangeHolderId,OldRoute,NewRoute,PortDate,RowCount
1000000000048319,77752622001,mAltel,mKcell,mKcell,,D07,2016-02-15T11:02:11+06:00,39
1000000000048321,77013439999,mAltel,mKcell,mKcell,,D07,2016-02-15T11:03:28+06:00,
1000000000048322,77781064052,mMTS,mKcell,mKcell,,D77,2016-02-15T11:04:31+06:00,
1000000000048323,77776447037,mAltel,mKarTel,mKarTel,,D07,2016-02-15T11:04:58+06:00,
1000000000048324,77753533540,mKarTel,mKcell,mKcell,,D01,2016-02-15T11:05:23+06:00,
1000000000048325,77051057705,mMTS,mKarTel,mKarTel,,D77,2016-02-15T11:05:57+06:00,
1000000000048326,77772977037,mAltel,mKarTel,mKarTel,,D07,2016-02-15T11:06:03+06:00,
1000000000048327,77756400101,mAltel,mKcell,mKcell,,D07,2016-02-15T11:06:13+06:00,
1000000000048333,77011812848,mMTS,mKcell,mKcell,,D77,2016-02-15T11:07:24+06:00,
1000000000048334,77013441111,mAltel,mKcell,mKcell,,D07,2016-02-15T11:07:54+06:00,
1000000000048335,77472000002,mKarTel,mMTS,mMTS,,D01,2016-02-15T11:07:44+06:00,
1000000000048337,77770740074,mAltel,mKarTel,mKarTel,,D07,2016-02-15T11:09:46+06:00,
1000000000048338,77013997010,mAltel,mKcell,mKcell,,D07,2016-02-15T11:09:51+06:00,
1000000000048342,77076666525,mAltel,mMTS,mMTS,,D07,2016-02-15T11:11:51+06:00,
1000000000048345,77714168182,mAltel,mKarTel,mKarTel,,D07,2016-02-15T11:13:23+06:00,
1000000000048346,77055059163,mKcell,mKarTel,mKarTel,,D02,2016-02-15T11:13:55+06:00,
1000000000048348,77714168184,mAltel,mKarTel,mKarTel,,D07,2016-02-15T11:14:34+06:00,
1000000000048351,77021626000,mMTS,mKcell,mKcell,,D77,2016-02-15T11:15:33+06:00,
1000000000048352,77011259164,mMTS,mKcell,mKcell,,D77,2016-02-15T11:16:35+06:00,
1000000000048354,77023978692,mMTS,mKcell,mKcell,,D77,2016-02-15T11:16:53+06:00,
1000000000048355,77718203399,mKcell,mKarTel,mKarTel,,D02,2016-02-15T11:17:26+06:00,
1000000000048357,77017637599,mMTS,mKcell,mKcell,,D77,2016-02-15T11:20:32+06:00,
1000000000048359,77017450105,mMTS,mKcell,mKcell,,D77,2016-02-15T11:21:53+06:00,
1000000000048360,77754344756,mMTS,mKcell,mKcell,,D77,2016-02-15T11:21:52+06:00,
1000000000048363,77772709164,mMTS,mKarTel,mKarTel,,D77,2016-02-15T11:23:28+06:00,
1000000000048364,77472718423,mKarTel,mMTS,mMTS,,D01,2016-02-15T11:23:29+06:00,
1000000000048365,77012121322,mMTS,mKcell,mKcell,,D77,2016-02-15T11:23:28+06:00,
1000000000048367,77081174142,mMTS,mAltel,mAltel,,D77,2016-02-15T11:24:12+06:00,
1000000000048368,77017404029,mAltel,mKcell,mKcell,,D07,2016-02-15T11:25:26+06:00,
1000000000048369,77078789888,mAltel,mMTS,mMTS,,D07,2016-02-15T11:25:19+06:00,
1000000000048370,77714198814,mKcell,mKarTel,mKarTel,,D02,2016-02-15T11:26:01+06:00,
1000000000048371,77472620000,mAltel,mMTS,mMTS,,D07,2016-02-15T11:25:57+06:00,
1000000000048372,77786636663,mMTS,mKcell,mKcell,,D77,2016-02-15T11:26:16+06:00,
1000000000048373,77014014159,mMTS,mKcell,mKcell,,D77,2016-02-15T11:26:54+06:00,
1000000000048374,77017224292,mMTS,mKcell,mKcell,,D77,2016-02-15T11:26:54+06:00,
1000000000048375,77022559494,mMTS,mKcell,mKcell,,D77,2016-02-15T11:27:11+06:00,
1000000000048376,77012734761,mMTS,mKcell,mKcell,,D77,2016-02-15T11:27:44+06:00,
1000000000048377,77012702635,mAltel,mKcell,mKcell,,D07,2016-02-15T11:28:57+06:00,
1000000000048378,77017174363,mMTS,mKcell,mKcell,,D77,2016-02-15T11:29:57+06:00,
