NPId,Number,RecipientId,DonorId,RangeHolderId,OldRoute,NewRoute,PortDate,RowCount
1000000000238892,77017876372,mKarTel,mKcell,mKcell,,D01,2016-09-02T13:00:37+06:00,33
1000000000238893,77026669002,mMTS,mKcell,mKcell,,D77,2016-09-02T13:01:29+06:00,
1000000000238894,77016682799,mAltel,mKcell,mKcell,,D07,2016-09-02T13:01:29+06:00,
1000000000238895,77071599997,mKarTel,mMTS,mMTS,,D01,2016-09-02T13:03:10+06:00,
1000000000238897,77017173301,mKarTel,mKcell,mKcell,,D01,2016-09-02T13:04:11+06:00,
1000000000238898,77773859899,mMTS,mKarTel,mKarTel,,D77,2016-09-02T13:05:19+06:00,
1000000000238901,77019405715,mMTS,mKcell,mKcell,,D77,2016-09-02T13:08:22+06:00,
1000000000238902,77015888558,mMTS,mKcell,mKcell,,D77,2016-09-02T13:09:51+06:00,
1000000000238903,77011543683,mKcell,mAltel,mKcell,D07,D02,2016-09-02T13:09:48+06:00,
1000000000238904,77017107278,mMTS,mKcell,mKcell,,D77,2016-09-02T13:13:01+06:00,
1000000000238905,77002521826,mKcell,mAltel,mAltel,,D02,2016-09-02T13:10:58+06:00,
1000000000238906,77078298425,mKcell,mMTS,mMTS,,D02,2016-09-02T13:11:11+06:00,
1000000000238907,77055240587,mMTS,mKarTel,mKarTel,,D77,2016-09-02T13:12:01+06:00,
1000000000238908,77017885884,mMTS,mKcell,mKcell,,D77,2016-09-02T13:11:18+06:00,
1000000000238909,77019932335,mMTS,mKcell,mKcell,,D77,2016-09-02T13:11:30+06:00,
1000000000238910,77014514403,mKcell,mMTS,mKcell,D77,D02,2016-09-02T13:12:57+06:00,
1000000000238912,77051803608,mKarTel,mMTS,mKarTel,D77,D01,2016-09-02T13:12:30+06:00,
1000000000238914,77015110011,mKcell,mAltel,mKcell,D07,D02,2016-09-02T13:12:57+06:00,
1000000000238915,77058351745,mMTS,mKarTel,mKarTel,,D77,2016-09-02T13:14:11+06:00,
1000000000238916,77713562975,mMTS,mKarTel,mKarTel,,D77,2016-09-02T13:15:22+06:00,
1000000000238917,77019258484,mMTS,mKarTel,mKcell,D01,D77,2016-09-02T13:17:03+06:00,
1000000000238918,77769632430,mKcell,mKarTel,mKarTel,,D02,2016-09-02T13:19:39+06:00,
1000000000238921,77017166183,mKarTel,mKcell,mKcell,,D01,2016-09-02T13:21:10+06:00,
1000000000238922,77017995717,mKarTel,mKcell,mKcell,,D01,2016-09-02T13:22:10+06:00,
1000000000238923,77785005716,mKcell,mAltel,mKcell,D07,D02,2016-09-02T13:22:07+06:00,
1000000000238926,77760090515,mMTS,mKarTel,mKarTel,,D77,2016-09-02T13:22:57+06:00,
1000000000238927,77015261517,mKcell,mKarTel,mKcell,D01,D02,2016-09-02T13:23:33+06:00,
1000000000238929,77026902393,mMTS,mKcell,mKcell,,D77,2016-09-02T13:25:01+06:00,
1000000000238930,77024287775,mKarTel,mKcell,mKcell,,D01,2016-09-02T13:25:39+06:00,
1000000000238933,77073347249,mKcell,mMTS,mMTS,,D02,2016-09-02T13:26:30+06:00,
1000000000238935,77029007414,mMTS,mKcell,mKcell,,D77,2016-09-02T13:27:30+06:00,
1000000000238936,77051685811,mMTS,mKarTel,mKarTel,,D77,2016-09-02T13:27:58+06:00,
1000000000238937,77765555221,mAltel,mKarTel,mKarTel,,D07,2016-09-02T13:28:27+06:00,
