NPId,Number,RecipientId,DonorId,RangeHolderId,OldRoute,NewRoute,PortDate,RowCount
1000000000192260,77714887122,mKcell,mKarTel,mKarTel,,D02,2016-06-13T09:30:24+06:00,14
1000000000192300,77024238233,mKcell,mMTS,mKcell,D77,D02,2016-06-13T09:31:24+06:00,
1000000000192301,77017361885,mKcell,mMTS,mKcell,D77,D02,2016-06-13T09:35:45+06:00,
1000000000192302,77779063217,mKarTel,mAltel,mKarTel,D07,D01,2016-06-13T09:36:24+06:00,
1000000000192303,77751173665,mKcell,mAltel,mKcell,D07,D02,2016-06-13T09:41:19+06:00,
1000000000192304,77002656888,mKarTel,mAltel,mAltel,,D01,2016-06-13T09:43:52+06:00,
1000000000192305,77079555505,mKarTel,mMTS,mMTS,,D01,2016-06-13T09:44:40+06:00,
1000000000192306,77073002000,mKarTel,mMTS,mMTS,,D01,2016-06-13T09:49:06+06:00,
1000000000192307,77770077774,mMTS,mKarTel,mKarTel,,D77,2016-06-13T09:52:46+06:00,
1000000000192308,77026483636,mMTS,mKcell,mKcell,,D77,2016-06-13T09:53:40+06:00,
1000000000192309,77072411890,mKcell,mMTS,mMTS,,D02,2016-06-13T09:56:03+06:00,
1000000000192310,77001445070,mMTS,mAltel,mAltel,,D77,2016-06-13T09:55:59+06:00,
1000000000192311,77029070222,mKarTel,mMTS,mKcell,D77,D01,2016-06-13T09:58:02+06:00,
1000000000192312,77789970000,mMTS,mKcell,mKcell,,D77,2016-06-13T09:57:56+06:00,
