NPId,Number,RecipientId,DonorId,RangeHolderId,OldRoute,NewRoute,PortDate,RowCount
1000000000218817,77057773131,mKcell,mKarTel,mKarTel,,D02,2016-08-04T10:29:25+06:00,9
1000000000223099,77771317910,mAltel,mKarTel,mKarTel,,D07,2016-08-04T10:01:57+06:00,
1000000000223102,77781101633,mMTS,mKcell,mKcell,,D77,2016-08-04T10:11:42+06:00,
1000000000223104,77027770252,mKarTel,mKcell,mKcell,,D01,2016-08-04T10:17:46+06:00,
1000000000223105,77013581111,mMTS,mKarTel,mKcell,D01,D77,2016-08-04T10:20:14+06:00,
1000000000223106,77024441370,mAltel,mKcell,mKcell,,D07,2016-08-04T10:23:45+06:00,
1000000000223107,77774001100,mKarTel,mAltel,mKarTel,D07,D01,2016-08-04T10:21:24+06:00,
1000000000223108,77053140202,mKarTel,mMTS,mKarTel,D77,D01,2016-08-04T10:23:01+06:00,
1000000000223110,77088988870,mMTS,mAltel,mAltel,,D77,2016-08-04T10:26:03+06:00,
