NPId,Number,RecipientId,DonorId,RangeHolderId,OldRoute,NewRoute,PortDate,RowCount
1000000000101414,77082121279,mKcell,mAltel,mAltel,,D02,2016-02-28T12:32:59+06:00,14
1000000000101415,77014227559,mMTS,mKcell,mKcell,,D77,2016-02-28T12:34:25+06:00,
1000000000101417,77087287777,mMTS,mAltel,mAltel,,D77,2016-02-28T12:36:32+06:00,
1000000000101419,77018335566,mAltel,mKcell,mKcell,,D07,2016-02-28T12:38:19+06:00,
1000000000101421,77768585333,mMTS,mKarTel,mKarTel,,D77,2016-02-28T12:46:43+06:00,
1000000000101424,77714033198,mMTS,mKarTel,mKarTel,,D77,2016-02-28T12:47:21+06:00,
1000000000101425,77019294578,mAltel,mKcell,mKcell,,D07,2016-02-28T12:48:20+06:00,
1000000000101426,77764447555,mAltel,mKarTel,mKarTel,,D07,2016-02-28T12:50:53+06:00,
1000000000101433,77017655544,mKarTel,mKcell,mKcell,,D01,2016-02-28T12:55:18+06:00,
1000000000101434,77003318477,mMTS,mAltel,mAltel,,D77,2016-02-28T12:55:21+06:00,
1000000000101435,77022273037,mAltel,mKcell,mKcell,,D07,2016-02-28T12:57:47+06:00,
1000000000101436,77017233111,mKarTel,mKcell,mKcell,,D01,2016-02-28T12:58:37+06:00,
1000000000101437,77057777049,mAltel,mKarTel,mKarTel,,D07,2016-02-28T12:59:06+06:00,
1000000000101438,77758863970,mAltel,mKcell,mKcell,,D07,2016-02-28T12:59:24+06:00,
