NPId,Number,RecipientId,DonorId,RangeHolderId,OldRoute,NewRoute,PortDate,RowCount
1000000000125543,77010592999,mAltel,mKcell,mKcell,,D07,2016-03-15T13:30:21+06:00,33
1000000000125545,77017145667,mMTS,mKcell,mKcell,,D77,2016-03-15T13:30:32+06:00,
1000000000125547,77086889500,mKarTel,mAltel,mAltel,,D01,2016-03-15T13:30:32+06:00,
1000000000125549,77083535085,mKarTel,mAltel,mAltel,,D01,2016-03-15T13:31:45+06:00,
1000000000125551,77015166362,mMTS,mKcell,mKcell,,D77,2016-03-15T13:34:18+06:00,
1000000000125552,77751613992,mMTS,mKcell,mKcell,,D77,2016-03-15T13:34:51+06:00,
1000000000125554,77027771977,mMTS,mAltel,mKcell,D07,D77,2016-03-15T13:35:30+06:00,
1000000000125555,77028277702,mAltel,mKcell,mKcell,,D07,2016-03-15T13:36:47+06:00,
1000000000125556,77011607765,mAltel,mKcell,mKcell,,D07,2016-03-15T13:37:35+06:00,
1000000000125558,77015166310,mMTS,mKcell,mKcell,,D77,2016-03-15T13:39:00+06:00,
1000000000125559,77755573310,mAltel,mKcell,mKcell,,D07,2016-03-15T13:39:24+06:00,
1000000000125561,77784426116,mMTS,mKcell,mKcell,,D77,2016-03-15T13:39:56+06:00,
1000000000125562,77011007498,mMTS,mKcell,mKcell,,D77,2016-03-15T13:40:48+06:00,
1000000000125564,77773555531,mMTS,mKarTel,mKarTel,,D77,2016-03-15T13:43:25+06:00,
1000000000125565,77057656564,mAltel,mKarTel,mKarTel,,D07,2016-03-15T13:44:14+06:00,
1000000000125567,77757431313,mAltel,mKcell,mKcell,,D07,2016-03-15T13:44:33+06:00,
1000000000125569,77714256026,mAltel,mKarTel,mKarTel,,D07,2016-03-15T13:45:32+06:00,
1000000000125570,77777745000,mAltel,mKarTel,mKarTel,,D07,2016-03-15T13:46:45+06:00,
1000000000125571,77054006003,mAltel,mKarTel,mKarTel,,D07,2016-03-15T13:47:23+06:00,
1000000000125572,77073070910,mAltel,mMTS,mMTS,,D07,2016-03-15T13:49:16+06:00,
1000000000125573,77777450077,mMTS,mKarTel,mKarTel,,D77,2016-03-15T13:50:15+06:00,
1000000000125574,77752211100,mKarTel,mKcell,mKcell,,D01,2016-03-15T13:50:38+06:00,
1000000000125575,77022188376,mAltel,mKcell,mKcell,,D07,2016-03-15T13:50:36+06:00,
1000000000125576,77768444422,mAltel,mKarTel,mKarTel,,D07,2016-03-15T13:51:29+06:00,
1000000000125579,77052333383,mMTS,mKarTel,mKarTel,,D77,2016-03-15T13:52:31+06:00,
1000000000125580,77758258023,mMTS,mKcell,mKcell,,D77,2016-03-15T13:53:24+06:00,
1000000000125581,77007552727,mMTS,mAltel,mAltel,,D77,2016-03-15T13:53:11+06:00,
1000000000125582,77054032351,mKarTel,mAltel,mKarTel,D07,D01,2016-03-15T13:53:34+06:00,
1000000000125583,77019950777,mMTS,mKcell,mKcell,,D77,2016-03-15T13:54:29+06:00,
1000000000125586,77757699316,mAltel,mKcell,mKcell,,D07,2016-03-15T13:57:50+06:00,
1000000000125588,77752040274,mAltel,mKcell,mKcell,,D07,2016-03-15T13:58:25+06:00,
1000000000125589,77013984608,mAltel,mKcell,mKcell,,D07,2016-03-15T13:59:10+06:00,
1000000000125590,77755952727,mMTS,mKcell,mKcell,,D77,2016-03-15T13:59:38+06:00,
