NPId,Number,RecipientId,DonorId,RangeHolderId,OldRoute,NewRoute,PortDate,RowCount
1000000000181558,77075935392,mKcell,mMTS,mMTS,,D02,2016-05-26T16:00:16+06:00,28
1000000000181559,77071505150,mMTS,mAltel,mMTS,D07,D77,2016-05-26T16:00:04+06:00,
1000000000181561,77011520390,mMTS,mAltel,mKcell,D07,D77,2016-05-26T16:01:55+06:00,
1000000000181562,77087575211,mMTS,mAltel,mAltel,,D77,2016-05-26T16:03:00+06:00,
1000000000181564,77028362982,mMTS,mKcell,mKcell,,D77,2016-05-26T16:03:50+06:00,
1000000000181565,77071013828,mKarTel,mMTS,mMTS,,D01,2016-05-26T16:05:22+06:00,
1000000000181567,77015433700,mKarTel,mKcell,mKcell,,D01,2016-05-26T16:06:27+06:00,
1000000000181568,77017678378,mMTS,mKcell,mKcell,,D77,2016-05-26T16:07:22+06:00,
1000000000181570,77023650101,mKcell,mMTS,mKcell,D77,D02,2016-05-26T16:08:31+06:00,
1000000000181571,77083330909,mMTS,mAltel,mAltel,,D77,2016-05-26T16:08:20+06:00,
1000000000181575,77017729845,mKarTel,mKcell,mKcell,,D01,2016-05-26T16:09:41+06:00,
1000000000181577,77086708900,mMTS,mAltel,mAltel,,D77,2016-05-26T16:09:50+06:00,
1000000000181578,77013875342,mKarTel,mKcell,mKcell,,D01,2016-05-26T16:11:55+06:00,
1000000000181581,77089239025,mKarTel,mMTS,mAltel,D77,D01,2016-05-26T16:12:25+06:00,
1000000000181583,77753587776,mKarTel,mKcell,mKcell,,D01,2016-05-26T16:17:51+06:00,
1000000000181584,77014004740,mMTS,mKcell,mKcell,,D77,2016-05-26T16:18:53+06:00,
1000000000181585,77028050090,mMTS,mKcell,mKcell,,D77,2016-05-26T16:19:05+06:00,
1000000000181586,77019652065,mKcell,mAltel,mKcell,D07,D02,2016-05-26T16:20:37+06:00,
1000000000181587,77079903890,mKarTel,mMTS,mMTS,,D01,2016-05-26T16:20:16+06:00,
1000000000181588,77789008511,mKarTel,mKcell,mKcell,,D01,2016-05-26T16:21:16+06:00,
1000000000181590,77783033111,mMTS,mKcell,mKcell,,D77,2016-05-26T16:23:23+06:00,
1000000000181591,77022909838,mKcell,mMTS,mKcell,D77,D02,2016-05-26T16:24:15+06:00,
1000000000181593,77783520676,mKarTel,mAltel,mKcell,D07,D01,2016-05-26T16:24:11+06:00,
1000000000181594,77055440440,mMTS,mKarTel,mKarTel,,D77,2016-05-26T16:25:41+06:00,
1000000000181595,77078852003,mMTS,mAltel,mMTS,D07,D77,2016-05-26T16:27:06+06:00,
1000000000181596,77752558242,mKcell,mMTS,mKcell,D77,D02,2016-05-26T16:28:15+06:00,
1000000000181597,77777050750,mKcell,mKarTel,mKarTel,,D02,2016-05-26T16:29:02+06:00,
1000000000181598,77072004249,mKarTel,mMTS,mMTS,,D01,2016-05-26T16:28:35+06:00,
