NPId,Number,RecipientId,DonorId,RangeHolderId,OldRoute,NewRoute,PortDate,RowCount
1000000000284546,77027022341,mKarTel,mKcell,mKcell,,D01,2016-11-26T13:30:14+06:00,25
1000000000284548,77074766755,mKarTel,mMTS,mMTS,,D01,2016-11-26T13:30:07+06:00,
1000000000284549,77076043902,mKarTel,mMTS,mMTS,,D01,2016-11-26T13:30:13+06:00,
1000000000284550,77013116161,mMTS,mKcell,mKcell,,D77,2016-11-26T13:32:59+06:00,
1000000000284551,77081046673,mAltel,mMTS,mAltel,D77,D07,2016-11-26T13:31:02+06:00,
1000000000284552,77027022321,mKarTel,mKcell,mKcell,,D01,2016-11-26T13:33:03+06:00,
1000000000284553,77713910113,mAltel,mKarTel,mKarTel,,D07,2016-11-26T13:33:47+06:00,
1000000000284554,77025556544,mAltel,mKcell,mKcell,,D07,2016-11-26T13:35:02+06:00,
1000000000284555,77012255959,mMTS,mKcell,mKcell,,D77,2016-11-26T13:36:06+06:00,
1000000000284556,77781342815,mAltel,mKcell,mKcell,,D07,2016-11-26T13:37:20+06:00,
1000000000284557,77005228696,mMTS,mAltel,mAltel,,D77,2016-11-26T13:37:20+06:00,
1000000000284558,77071113960,mAltel,mKcell,mMTS,D02,D07,2016-11-26T13:37:26+06:00,
1000000000284559,77774557627,mKcell,mKarTel,mKarTel,,D02,2016-11-26T13:39:13+06:00,
1000000000284560,77058873444,mKarTel,mMTS,mKarTel,D77,D01,2016-11-26T13:39:45+06:00,
1000000000284562,77018697180,mAltel,mKcell,mKcell,,D07,2016-11-26T13:40:53+06:00,
1000000000284563,77075758888,mKcell,mKarTel,mMTS,D01,D02,2016-11-26T13:42:15+06:00,
1000000000284564,77760103103,mKcell,mKarTel,mKarTel,,D02,2016-11-26T13:42:14+06:00,
1000000000284565,77014885321,mMTS,mKcell,mKcell,,D77,2016-11-26T13:42:11+06:00,
1000000000284566,77017243110,mKcell,mMTS,mKcell,D77,D02,2016-11-26T13:42:36+06:00,
1000000000284567,77019927652,mKarTel,mKcell,mKcell,,D01,2016-11-26T13:43:29+06:00,
1000000000284568,77781116666,mKcell,mMTS,mKcell,D77,D02,2016-11-26T13:44:17+06:00,
1000000000284570,77475557464,mKarTel,mMTS,mMTS,,D01,2016-11-26T13:50:45+06:00,
1000000000284571,77051995355,mMTS,mKarTel,mKarTel,,D77,2016-11-26T13:52:05+06:00,
1000000000284573,77472066101,mMTS,mAltel,mMTS,D07,D77,2016-11-26T13:52:42+06:00,
1000000000284574,77089702616,mMTS,mAltel,mAltel,,D77,2016-11-26T13:52:50+06:00,
