NPId,Number,RecipientId,DonorId,RangeHolderId,OldRoute,NewRoute,PortDate,RowCount
1000000000212384,77765833337,mKcell,mKarTel,mKarTel,,D02,2016-07-16T16:41:56+06:00,23
1000000000212391,77013424150,mKarTel,mKcell,mKcell,,D01,2016-07-16T16:44:56+06:00,
1000000000212392,77785525678,mMTS,mKcell,mKcell,,D77,2016-07-16T16:43:47+06:00,
1000000000212394,77751115685,mAltel,mKcell,mKcell,,D07,2016-07-16T16:43:43+06:00,
1000000000212395,77757770988,mKarTel,mKcell,mKcell,,D01,2016-07-16T16:44:56+06:00,
1000000000212397,77784200790,mMTS,mKcell,mKcell,,D77,2016-07-16T16:43:47+06:00,
1000000000212400,77021979307,mMTS,mKcell,mKcell,,D77,2016-07-16T16:44:47+06:00,
1000000000212401,77021115685,mAltel,mKcell,mKcell,,D07,2016-07-16T16:43:44+06:00,
1000000000212405,77788881898,mMTS,mKcell,mKcell,,D77,2016-07-16T16:43:43+06:00,
1000000000212414,77787099993,mAltel,mKcell,mKcell,,D07,2016-07-16T16:43:47+06:00,
1000000000212416,77021244134,mAltel,mKcell,mKcell,,D07,2016-07-16T16:43:43+06:00,
1000000000212438,77777862002,mMTS,mKarTel,mKarTel,,D77,2016-07-16T16:30:46+06:00,
1000000000212441,77774414784,mKarTel,mMTS,mKarTel,D77,D01,2016-07-16T16:31:32+06:00,
1000000000212444,77757628512,mKarTel,mAltel,mKcell,D07,D01,2016-07-16T16:34:35+06:00,
1000000000212445,77073830003,mMTS,mKarTel,mMTS,D01,D77,2016-07-16T16:36:14+06:00,
1000000000212452,77718137055,mMTS,mKarTel,mKarTel,,D77,2016-07-16T16:42:17+06:00,
1000000000212453,77081515255,mMTS,mAltel,mAltel,,D77,2016-07-16T16:42:23+06:00,
1000000000212462,77052757407,mMTS,mKarTel,mKarTel,,D77,2016-07-16T16:48:18+06:00,
1000000000212464,77772451526,mAltel,mKarTel,mKarTel,,D07,2016-07-16T16:54:52+06:00,
1000000000212465,77059888543,mMTS,mKarTel,mKarTel,,D77,2016-07-16T16:57:53+06:00,
1000000000212466,77779666005,mMTS,mKarTel,mKarTel,,D77,2016-07-16T16:58:15+06:00,
1000000000212468,77771966609,mAltel,mKarTel,mKarTel,,D07,2016-07-16T16:59:54+06:00,
1000000000212469,77071486325,mKarTel,mMTS,mMTS,,D01,2016-07-16T16:59:49+06:00,
