NPId,Number,RecipientId,DonorId,RangeHolderId,OldRoute,NewRoute,PortDate,RowCount
1000000000308010,77017424356,mKcell,mKarTel,mKcell,D01,D02,2017-01-09T17:09:45+06:00,34
1000000000308018,77017600134,mKcell,mKarTel,mKcell,D01,D02,2017-01-09T17:14:13+06:00,
1000000000308021,77055239057,mMTS,mKarTel,mKarTel,,D77,2017-01-09T17:01:12+06:00,
1000000000308024,77757176006,mMTS,mKcell,mKcell,,D77,2017-01-09T17:02:53+06:00,
1000000000308025,77017688836,mKcell,mKarTel,mKcell,D01,D02,2017-01-09T17:18:33+06:00,
1000000000308027,77000080887,mKarTel,mAltel,mAltel,,D01,2017-01-09T17:04:22+06:00,
1000000000308028,77760070570,mKarTel,mKcell,mKarTel,D02,D01,2017-01-09T17:04:39+06:00,
1000000000308029,77000909000,mKarTel,mAltel,mAltel,,D01,2017-01-09T17:04:55+06:00,
1000000000308030,77002001823,mMTS,mAltel,mAltel,,D77,2017-01-09T17:08:42+06:00,
1000000000308031,77015166899,mKarTel,mKcell,mKcell,,D01,2017-01-09T17:09:50+06:00,
1000000000308032,77078805595,mKarTel,mMTS,mMTS,,D01,2017-01-09T17:10:01+06:00,
1000000000308033,77052222338,mKcell,mKarTel,mKarTel,,D02,2017-01-09T17:10:36+06:00,
1000000000308035,77007591515,mKarTel,mAltel,mAltel,,D01,2017-01-09T17:11:21+06:00,
1000000000308036,77019594280,mAltel,mKcell,mKcell,,D07,2017-01-09T17:11:32+06:00,
1000000000308038,77085777055,mMTS,mAltel,mAltel,,D77,2017-01-09T17:12:44+06:00,
1000000000308039,77751073050,mKcell,mMTS,mKcell,D77,D02,2017-01-09T17:15:10+06:00,
1000000000308040,77753365024,mAltel,mKcell,mKcell,,D07,2017-01-09T17:15:14+06:00,
1000000000308041,77014361001,mMTS,mKcell,mKcell,,D77,2017-01-09T17:15:22+06:00,
1000000000308042,77715781430,mMTS,mKarTel,mKarTel,,D77,2017-01-09T17:15:39+06:00,
1000000000308043,77011547730,mMTS,mKcell,mKcell,,D77,2017-01-09T17:16:35+06:00,
1000000000308044,77751230667,mMTS,mKcell,mKcell,,D77,2017-01-09T17:17:16+06:00,
1000000000308045,77015700400,mKcell,mMTS,mKcell,D77,D02,2017-01-09T17:18:48+06:00,
1000000000308047,77772580845,mAltel,mKarTel,mKarTel,,D07,2017-01-09T17:20:34+06:00,
1000000000308048,77071775515,mKarTel,mMTS,mMTS,,D01,2017-01-09T17:20:26+06:00,
1000000000308049,77077579596,mAltel,mMTS,mMTS,,D07,2017-01-09T17:21:02+06:00,
1000000000308050,77077420621,mKcell,mMTS,mMTS,,D02,2017-01-09T17:22:32+06:00,
1000000000308051,77014930707,mKcell,mMTS,mKcell,D77,D02,2017-01-09T17:22:45+06:00,
1000000000308053,77781893611,mAltel,mKcell,mKcell,,D07,2017-01-09T17:24:30+06:00,
1000000000308054,77000070713,mMTS,mAltel,mAltel,,D77,2017-01-09T17:25:25+06:00,
1000000000308056,77771864728,mMTS,mKarTel,mKarTel,,D77,2017-01-09T17:27:58+06:00,
1000000000308057,77058404738,mKarTel,mMTS,mKarTel,D77,D01,2017-01-09T17:28:36+06:00,
1000000000308058,77758660440,mAltel,mKcell,mKcell,,D07,2017-01-09T17:28:53+06:00,
1000000000308059,77771010908,mMTS,mKarTel,mKarTel,,D77,2017-01-09T17:29:35+06:00,
1000000000308061,77772480026,mMTS,mKarTel,mKarTel,,D77,2017-01-09T17:29:54+06:00,
