NPId,Number,RecipientId,DonorId,RangeHolderId,OldRoute,NewRoute,PortDate,RowCount
1000000000144946,77017130067,mAltel,mKcell,mKcell,,D07,2016-04-07T09:30:52+06:00,4
1000000000144951,77777607770,mMTS,mAltel,mKarTel,D07,D77,2016-04-07T09:36:39+06:00,
1000000000144954,77089592888,mMTS,mAltel,mAltel,,D77,2016-04-07T09:53:27+06:00,
1000000000144956,77072227000,mMTS,mAltel,mMTS,D07,D77,2016-04-07T09:59:21+06:00,
