NPId,Number,RecipientId,DonorId,RangeHolderId,OldRoute,NewRoute,PortDate,RowCount
1000000000439128,77025288225,mKarTel,mKcell,mKcell,,D01,2017-08-12T19:04:10+06:00,5
1000000000439129,77075808002,mKarTel,mMTS,mMTS,,D01,2017-08-12T19:06:25+06:00,
1000000000439130,77071707050,mKcell,mMTS,mMTS,,D02,2017-08-12T19:09:53+06:00,
1000000000439131,77051844450,mKcell,mKarTel,mKarTel,,D02,2017-08-12T19:12:20+06:00,
1000000000439133,77023188899,mAltel,mKcell,mKcell,,D07,2017-08-12T19:28:47+06:00,
