NPId,Number,RecipientId,DonorId,RangeHolderId,OldRoute,NewRoute,PortDate,RowCount
1000000000446681,77000808270,mKcell,mAltel,mAltel,,D02,2017-08-27T15:00:27+06:00,20
1000000000446682,77017566354,mKarTel,mMTS,mKcell,D77,D01,2017-08-27T15:00:42+06:00,
1000000000446683,77779237455,mMTS,mKarTel,mKarTel,,D77,2017-08-27T15:02:16+06:00,
1000000000446684,77056027393,mKarTel,mKcell,mKarTel,D02,D01,2017-08-27T15:05:00+06:00,
1000000000446685,77766666480,mMTS,mKarTel,mKarTel,,D77,2017-08-27T15:05:15+06:00,
1000000000446686,77014646850,mMTS,mKcell,mKcell,,D77,2017-08-27T15:04:39+06:00,
1000000000446688,77012100360,mMTS,mKcell,mKcell,,D77,2017-08-27T15:06:14+06:00,
1000000000446689,77001050791,mMTS,mAltel,mAltel,,D77,2017-08-27T15:06:55+06:00,
1000000000446690,77027002104,mAltel,mKcell,mKcell,,D07,2017-08-27T15:07:56+06:00,
1000000000446692,77772602306,mMTS,mKarTel,mKarTel,,D77,2017-08-27T15:09:51+06:00,
1000000000446693,77026285057,mAltel,mMTS,mKcell,D77,D07,2017-08-27T15:12:08+06:00,
1000000000446694,77773306492,mMTS,mKarTel,mKarTel,,D77,2017-08-27T15:18:06+06:00,
1000000000446696,77055551006,mKcell,mKarTel,mKarTel,,D02,2017-08-27T15:22:15+06:00,
1000000000446697,77773414362,mMTS,mKarTel,mKarTel,,D77,2017-08-27T15:23:03+06:00,
1000000000446698,77085111083,mKarTel,mAltel,mAltel,,D01,2017-08-27T15:25:20+06:00,
1000000000446700,77000808760,mKcell,mAltel,mAltel,,D02,2017-08-27T15:25:36+06:00,
1000000000446701,77000909460,mKcell,mAltel,mAltel,,D02,2017-08-27T15:26:55+06:00,
1000000000446702,77761348997,mMTS,mKarTel,mKarTel,,D77,2017-08-27T15:27:10+06:00,
1000000000446703,77000909370,mKcell,mAltel,mAltel,,D02,2017-08-27T15:28:05+06:00,
1000000000446704,77023952324,mAltel,mKcell,mKcell,,D07,2017-08-27T15:28:52+06:00,
