NPId,Number,RecipientId,DonorId,RangeHolderId,OldRoute,NewRoute,PortDate,RowCount
1000000000336945,77026007705,mKarTel,mKcell,mKcell,,D01,2017-03-16T09:26:55+06:00,6
1000000000347661,77012501741,mAltel,mKcell,mKcell,,D07,2017-03-16T09:02:58+06:00,
1000000000347662,77012282896,mKarTel,mKcell,mKcell,,D01,2017-03-16T09:12:08+06:00,
1000000000347663,77774149988,mMTS,mKarTel,mKarTel,,D77,2017-03-16T09:11:51+06:00,
1000000000347664,77786384811,mKarTel,mKcell,mKcell,,D01,2017-03-16T09:22:40+06:00,
1000000000347665,77750005144,mKcell,mMTS,mKcell,D77,D02,2017-03-16T09:29:39+06:00,
