NPId,Number,RecipientId,DonorId,RangeHolderId,OldRoute,NewRoute,PortDate,RowCount
1000000000135942,77024686046,mKarTel,mKcell,mKcell,,D01,2016-03-28T21:02:36+06:00,3
1000000000135943,77753631373,mAltel,mKcell,mKcell,,D07,2016-03-28T21:12:27+06:00,
1000000000135944,77779109105,mKcell,mKarTel,mKarTel,,D02,2016-03-28T21:15:17+06:00,
