NPId,Number,RecipientId,DonorId,RangeHolderId,OldRoute,NewRoute,PortDate,RowCount
1000000000319775,77715072633,mMTS,mKarTel,mKarTel,,D77,2017-01-31T11:03:54+06:00,25
1000000000319790,77715773808,mAltel,mKarTel,mKarTel,,D07,2017-01-31T11:00:34+06:00,
1000000000319791,77753315435,mKcell,mMTS,mKcell,D77,D02,2017-01-31T11:01:36+06:00,
1000000000319792,77024925291,mMTS,mKarTel,mKcell,D01,D77,2017-01-31T11:02:16+06:00,
1000000000319795,77077048252,mAltel,mMTS,mMTS,,D07,2017-01-31T11:02:49+06:00,
1000000000319797,77021189021,mAltel,mMTS,mKcell,D77,D07,2017-01-31T11:04:30+06:00,
1000000000319798,77015334037,mKarTel,mKcell,mKcell,,D01,2017-01-31T11:05:37+06:00,
1000000000319799,77015706030,mMTS,mAltel,mKcell,D07,D77,2017-01-31T11:05:13+06:00,
1000000000319803,77059177094,mMTS,mKarTel,mKarTel,,D77,2017-01-31T11:08:04+06:00,
1000000000319804,77772781144,mMTS,mKarTel,mKarTel,,D77,2017-01-31T11:08:08+06:00,
1000000000319805,77017609670,mKarTel,mKcell,mKcell,,D01,2017-01-31T11:09:50+06:00,
1000000000319808,77072511337,mKarTel,mMTS,mMTS,,D01,2017-01-31T11:12:37+06:00,
1000000000319809,77023443097,mAltel,mKcell,mKcell,D02,D07,2017-01-31T11:14:16+06:00,
1000000000319810,77777344433,mAltel,mKarTel,mKarTel,,D07,2017-01-31T11:15:34+06:00,
1000000000319812,77027672121,mKarTel,mKcell,mKcell,,D01,2017-01-31T11:18:06+06:00,
1000000000319813,77786606698,mMTS,mKcell,mKcell,,D77,2017-01-31T11:18:05+06:00,
1000000000319814,77080222000,mKarTel,mKcell,mAltel,D02,D01,2017-01-31T11:19:51+06:00,
1000000000319815,77025908908,mAltel,mKcell,mKcell,,D07,2017-01-31T11:20:24+06:00,
1000000000319816,77018325555,mMTS,mKcell,mKcell,,D77,2017-01-31T11:21:45+06:00,
1000000000319818,77025225710,mKarTel,mKcell,mKcell,,D01,2017-01-31T11:22:39+06:00,
1000000000319820,77754007773,mMTS,mKcell,mKcell,,D77,2017-01-31T11:22:48+06:00,
1000000000319821,77015324137,mKarTel,mKcell,mKcell,,D01,2017-01-31T11:23:36+06:00,
1000000000319822,77012847731,mMTS,mKcell,mKcell,,D77,2017-01-31T11:23:37+06:00,
1000000000319824,77479503722,mKcell,mMTS,mMTS,,D02,2017-01-31T11:25:53+06:00,
1000000000319825,77478064510,mAltel,mMTS,mMTS,,D07,2017-01-31T11:29:25+06:00,
