NPId,Number,RecipientId,DonorId,RangeHolderId,OldRoute,NewRoute,PortDate,RowCount
1000000000444755,77010914522,mKarTel,mKcell,mKcell,,D01,2017-08-24T14:53:22+06:00,45
1000000000444755,77010914524,mKarTel,mKcell,mKcell,,D01,2017-08-24T14:53:22+06:00,
1000000000444755,77010914972,mKarTel,mKcell,mKcell,,D01,2017-08-24T14:53:22+06:00,
1000000000444755,77010914979,mKarTel,mKcell,mKcell,,D01,2017-08-24T14:53:22+06:00,
1000000000444755,77010914982,mKarTel,mKcell,mKcell,,D01,2017-08-24T14:53:22+06:00,
1000000000444755,77012525007,mKarTel,mKcell,mKcell,,D01,2017-08-24T14:53:22+06:00,
1000000000444755,77012722952,mKarTel,mKcell,mKcell,,D01,2017-08-24T14:53:22+06:00,
1000000000444755,77015019860,mKarTel,mKcell,mKcell,,D01,2017-08-24T14:53:22+06:00,
1000000000444755,77015248614,mKarTel,mKcell,mKcell,,D01,2017-08-24T14:53:22+06:00,
1000000000444755,77015292426,mKarTel,mKcell,mKcell,,D01,2017-08-24T14:53:22+06:00,
1000000000444755,77015370462,mKarTel,mKcell,mKcell,,D01,2017-08-24T14:53:22+06:00,
1000000000444755,77015370466,mKarTel,mKcell,mKcell,,D01,2017-08-24T14:53:22+06:00,
1000000000444755,77015444616,mKarTel,mKcell,mKcell,,D01,2017-08-24T14:53:22+06:00,
1000000000444755,77015544105,mKarTel,mKcell,mKcell,,D01,2017-08-24T14:53:22+06:00,
1000000000444755,77015546206,mKarTel,mKcell,mKcell,,D01,2017-08-24T14:53:22+06:00,
1000000000444755,77017308804,mKarTel,mKcell,mKcell,,D01,2017-08-24T14:53:22+06:00,
1000000000444755,77017770697,mKarTel,mKcell,mKcell,,D01,2017-08-24T14:53:22+06:00,
1000000000444755,77017815257,mKarTel,mKcell,mKcell,,D01,2017-08-24T14:53:22+06:00,
1000000000444755,77017852577,mKarTel,mKcell,mKcell,,D01,2017-08-24T14:53:22+06:00,
1000000000444755,77018708090,mKarTel,mKcell,mKcell,,D01,2017-08-24T14:53:22+06:00,
1000000000444755,77018839715,mKarTel,mKcell,mKcell,,D01,2017-08-24T14:53:22+06:00,
1000000000444755,77018893103,mKarTel,mKcell,mKcell,,D01,2017-08-24T14:53:22+06:00,
1000000000444755,77018893104,mKarTel,mKcell,mKcell,,D01,2017-08-24T14:53:22+06:00,
1000000000444755,77019299718,mKarTel,mKcell,mKcell,,D01,2017-08-24T14:53:22+06:00,
1000000000444976,77011495186,mMTS,mKcell,mKcell,,D77,2017-08-24T14:31:14+06:00,
1000000000444980,77012234082,mKarTel,mKcell,mKcell,,D01,2017-08-24T14:35:32+06:00,
1000000000444981,77057998858,mMTS,mKarTel,mKarTel,,D77,2017-08-24T14:36:42+06:00,
1000000000444984,77052185893,mMTS,mKarTel,mKarTel,,D77,2017-08-24T14:40:42+06:00,
1000000000444986,77014833617,mKcell,mMTS,mKcell,D77,D02,2017-08-24T14:41:43+06:00,
1000000000444988,77017771702,mMTS,mKcell,mKcell,,D77,2017-08-24T14:42:10+06:00,
1000000000444989,77025433932,mKarTel,mMTS,mKcell,D77,D01,2017-08-24T14:43:58+06:00,
1000000000444991,77011600504,mAltel,mKcell,mKcell,,D07,2017-08-24T14:46:08+06:00,
1000000000444992,77789016511,mKarTel,mKcell,mKcell,,D01,2017-08-24T14:46:26+06:00,
1000000000444993,77477275707,mKcell,mMTS,mMTS,,D02,2017-08-24T14:46:43+06:00,
1000000000444995,77079002929,mKarTel,mKcell,mMTS,D02,D01,2017-08-24T14:47:23+06:00,
1000000000444996,77077770844,mKcell,mMTS,mMTS,D77,D02,2017-08-24T14:48:06+06:00,
1000000000444997,77771444498,mMTS,mKarTel,mKarTel,,D77,2017-08-24T14:48:31+06:00,
1000000000444998,77027233993,mAltel,mKcell,mKcell,,D07,2017-08-24T14:48:42+06:00,
1000000000444999,77014627958,mKcell,mMTS,mKcell,D77,D02,2017-08-24T14:49:27+06:00,
1000000000445000,77712771414,mKarTel,mKcell,mKarTel,D02,D01,2017-08-24T14:50:35+06:00,
1000000000445002,77088057878,mKarTel,mMTS,mAltel,D77,D01,2017-08-24T14:51:22+06:00,
1000000000445007,77001007078,mKarTel,mAltel,mAltel,,D01,2017-08-24T14:54:03+06:00,
1000000000445009,77073473301,mKcell,mKarTel,mMTS,D01,D02,2017-08-24T14:56:14+06:00,
1000000000445011,77017779866,mMTS,mKcell,mKcell,,D77,2017-08-24T14:57:49+06:00,
1000000000445013,77071234666,mAltel,mMTS,mMTS,D77,D07,2017-08-24T14:58:20+06:00,
