NPId,Number,RecipientId,DonorId,RangeHolderId,OldRoute,NewRoute,PortDate,RowCount
1000000000276537,77762139112,mKcell,mKarTel,mKarTel,,D02,2016-11-09T12:01:22+06:00,22
1000000000276538,77759835216,mMTS,mKcell,mKcell,,D77,2016-11-09T12:06:04+06:00,
1000000000276539,77772347434,mAltel,mKarTel,mKarTel,,D07,2016-11-09T12:08:12+06:00,
1000000000276540,77003249741,mAltel,mKarTel,mAltel,D01,D07,2016-11-09T12:10:44+06:00,
1000000000276541,77019927409,mMTS,mKcell,mKcell,,D77,2016-11-09T12:14:14+06:00,
1000000000276542,77017782888,mKcell,mAltel,mKcell,D07,D02,2016-11-09T12:16:06+06:00,
1000000000276543,77054781263,mMTS,mKarTel,mKarTel,,D77,2016-11-09T12:18:28+06:00,
1000000000276544,77017443049,mMTS,mKcell,mKcell,,D77,2016-11-09T12:19:29+06:00,
1000000000276545,77011310500,mKcell,mKarTel,mKcell,D01,D02,2016-11-09T12:22:50+06:00,
1000000000276546,77005585555,mMTS,mKarTel,mAltel,D01,D77,2016-11-09T12:23:40+06:00,
1000000000276547,77710600040,mKcell,mKarTel,mKarTel,,D02,2016-11-09T12:24:57+06:00,
1000000000276548,77761220282,mMTS,mKarTel,mKarTel,,D77,2016-11-09T12:25:34+06:00,
1000000000276549,77023022472,mMTS,mKcell,mKcell,,D77,2016-11-09T12:25:25+06:00,
1000000000276550,77059777710,mKarTel,mKcell,mKarTel,D02,D01,2016-11-09T12:26:17+06:00,
1000000000276551,77773023802,mMTS,mKarTel,mKarTel,,D77,2016-11-09T12:27:03+06:00,
1000000000276552,77777555178,mKcell,mAltel,mKarTel,D07,D02,2016-11-09T12:26:53+06:00,
1000000000276553,77787455590,mMTS,mKcell,mKcell,,D77,2016-11-09T12:27:03+06:00,
1000000000276554,77012820175,mMTS,mKcell,mKcell,,D77,2016-11-09T12:27:39+06:00,
1000000000276555,77760077006,mMTS,mKarTel,mKarTel,,D77,2016-11-09T12:28:03+06:00,
1000000000276556,77773023828,mMTS,mKarTel,mKarTel,,D77,2016-11-09T12:28:15+06:00,
1000000000276557,77052218568,mKarTel,mKcell,mKarTel,D02,D01,2016-11-09T12:29:32+06:00,
1000000000276558,77023021663,mMTS,mKcell,mKcell,,D77,2016-11-09T12:29:21+06:00,
