NPId,Number,RecipientId,DonorId,RangeHolderId,OldRoute,NewRoute,PortDate,RowCount
1000000000285298,77756655504,mMTS,mKcell,mKcell,,D77,2016-11-28T12:30:21+06:00,24
1000000000285302,77774777774,mKcell,mKarTel,mKarTel,,D02,2016-11-28T12:33:17+06:00,
1000000000285304,77782626222,mAltel,mKcell,mKcell,,D07,2016-11-28T12:35:07+06:00,
1000000000285305,77072672011,mKarTel,mMTS,mMTS,,D01,2016-11-28T12:35:24+06:00,
1000000000285306,77009109999,mMTS,mAltel,mAltel,,D77,2016-11-28T12:36:51+06:00,
1000000000285307,77026008344,mMTS,mKcell,mKcell,,D77,2016-11-28T12:40:03+06:00,
1000000000285308,77015268035,mKarTel,mKcell,mKcell,,D01,2016-11-28T12:38:20+06:00,
1000000000285310,77781782935,mMTS,mKcell,mKcell,,D77,2016-11-28T12:38:50+06:00,
1000000000285311,77757795882,mAltel,mKcell,mKcell,,D07,2016-11-28T12:39:45+06:00,
1000000000285312,77029912000,mMTS,mKcell,mKcell,,D77,2016-11-28T12:40:34+06:00,
1000000000285313,77029125456,mMTS,mKcell,mKcell,,D77,2016-11-28T12:41:48+06:00,
1000000000285314,77075414140,mAltel,mMTS,mMTS,,D07,2016-11-28T12:41:55+06:00,
1000000000285315,77779737946,mMTS,mKarTel,mKarTel,,D77,2016-11-28T12:42:47+06:00,
1000000000285316,77013927888,mAltel,mKcell,mKcell,,D07,2016-11-28T12:42:30+06:00,
1000000000285319,77472182631,mMTS,mKarTel,mMTS,D01,D77,2016-11-28T12:46:52+06:00,
1000000000285320,77754069444,mMTS,mAltel,mKcell,D07,D77,2016-11-28T12:48:22+06:00,
1000000000285321,77471568412,mKarTel,mMTS,mMTS,,D01,2016-11-28T12:48:44+06:00,
1000000000285322,77011917777,mMTS,mKcell,mKcell,,D77,2016-11-28T12:48:46+06:00,
1000000000285324,77777777604,mMTS,mKarTel,mKarTel,,D77,2016-11-28T12:50:16+06:00,
1000000000285325,77081995183,mKcell,mMTS,mAltel,D77,D02,2016-11-28T12:50:07+06:00,
1000000000285326,77773378265,mMTS,mKarTel,mKarTel,,D77,2016-11-28T12:50:22+06:00,
1000000000285327,77057417799,mKcell,mKarTel,mKarTel,,D02,2016-11-28T12:51:02+06:00,
1000000000285329,77774446006,mKarTel,mMTS,mKarTel,D77,D01,2016-11-28T12:52:34+06:00,
1000000000285330,77021300001,mKarTel,mKcell,mKcell,,D01,2016-11-28T12:53:10+06:00,
