NPId,Number,RecipientId,DonorId,RangeHolderId,OldRoute,NewRoute,PortDate,RowCount
1000000000242188,77715000510,mKcell,mKarTel,mKarTel,,D02,2016-09-07T20:14:04+06:00,2
1000000000242189,77056700500,mKarTel,mMTS,mKarTel,D77,D01,2016-09-07T20:21:31+06:00,
