NPId,Number,RecipientId,DonorId,RangeHolderId,OldRoute,NewRoute,PortDate,RowCount
1000000000218431,77479801626,mKcell,mMTS,mMTS,,D02,2016-07-28T10:33:55+06:00,16
1000000000218432,77059648484,mKarTel,mAltel,mKarTel,D07,D01,2016-07-28T10:34:19+06:00,
1000000000218433,77751007547,mKcell,mMTS,mKcell,D77,D02,2016-07-28T10:35:31+06:00,
1000000000218434,77021705478,mKcell,mMTS,mKcell,D77,D02,2016-07-28T10:35:34+06:00,
1000000000218435,77024616444,mAltel,mKcell,mKcell,,D07,2016-07-28T10:36:50+06:00,
1000000000218436,77005767777,mMTS,mAltel,mAltel,,D77,2016-07-28T10:36:54+06:00,
1000000000218438,77057119071,mKarTel,mMTS,mKarTel,D77,D01,2016-07-28T10:40:52+06:00,
1000000000218440,77759677556,mMTS,mKcell,mKcell,,D77,2016-07-28T10:43:30+06:00,
1000000000218441,77009369999,mAltel,mKcell,mAltel,D02,D07,2016-07-28T10:44:43+06:00,
1000000000218443,77057059175,mKcell,mKarTel,mKarTel,,D02,2016-07-28T10:48:56+06:00,
1000000000218444,77085299135,mKcell,mAltel,mAltel,,D02,2016-07-28T10:48:57+06:00,
1000000000218446,77777560024,mAltel,mKarTel,mKarTel,,D07,2016-07-28T10:51:02+06:00,
1000000000218447,77477700017,mKarTel,mMTS,mMTS,,D01,2016-07-28T10:54:37+06:00,
1000000000218449,77777775919,mKcell,mKarTel,mKarTel,,D02,2016-07-28T10:57:52+06:00,
1000000000218450,77081476272,mMTS,mAltel,mAltel,,D77,2016-07-28T10:58:08+06:00,
1000000000218451,77004923789,mKcell,mAltel,mAltel,,D02,2016-07-28T10:59:33+06:00,
