NPId,Number,RecipientId,DonorId,RangeHolderId,OldRoute,NewRoute,PortDate,RowCount
1000000000361335,77077661122,mKarTel,mMTS,mMTS,,D01,2017-04-06T21:00:31+06:00,4
1000000000361336,77052643048,mMTS,mKarTel,mKarTel,,D77,2017-04-06T21:02:09+06:00,
1000000000361337,77003331404,mKcell,mAltel,mAltel,,D02,2017-04-06T21:02:06+06:00,
1000000000361339,77052641783,mMTS,mKarTel,mKarTel,,D77,2017-04-06T21:08:03+06:00,
