NPId,Number,RecipientId,DonorId,RangeHolderId,OldRoute,NewRoute,PortDate,RowCount
1000000000266297,77026078686,mMTS,mKcell,mKcell,,D77,2016-10-22T10:05:51+06:00,5
1000000000266298,77477683845,mMTS,mKcell,mMTS,D02,D77,2016-10-22T10:21:19+06:00,
1000000000266299,77071556060,mKarTel,mMTS,mMTS,,D01,2016-10-22T10:22:01+06:00,
1000000000266301,77714541462,mMTS,mKarTel,mKarTel,,D77,2016-10-22T10:24:39+06:00,
1000000000266302,77015646695,mAltel,mKcell,mKcell,,D07,2016-10-22T10:27:38+06:00,
