NPId,Number,RecipientId,DonorId,RangeHolderId,OldRoute,NewRoute,PortDate,RowCount
1000000000309234,77783649222,mMTS,mKcell,mKcell,,D77,2017-01-11T18:00:21+06:00,21
1000000000309235,77006007101,mKcell,mAltel,mAltel,,D02,2017-01-11T18:00:54+06:00,
1000000000309237,77005551606,mKcell,mAltel,mAltel,,D02,2017-01-11T18:01:19+06:00,
1000000000309238,77778676976,mKarTel,mMTS,mKarTel,D77,D01,2017-01-11T18:01:55+06:00,
1000000000309239,77058371232,mKarTel,mMTS,mKarTel,D77,D01,2017-01-11T18:03:37+06:00,
1000000000309240,77006008101,mKcell,mAltel,mAltel,,D02,2017-01-11T18:05:45+06:00,
1000000000309241,77011808140,mMTS,mKcell,mKcell,,D77,2017-01-11T18:04:18+06:00,
1000000000309242,77783181422,mMTS,mKcell,mKcell,,D77,2017-01-11T18:06:29+06:00,
1000000000309243,77775658866,mMTS,mKarTel,mKarTel,,D77,2017-01-11T18:07:21+06:00,
1000000000309244,77763008985,mKcell,mKarTel,mKarTel,,D02,2017-01-11T18:08:00+06:00,
1000000000309245,77774884488,mKarTel,mAltel,mKarTel,D07,D01,2017-01-11T18:09:31+06:00,
1000000000309246,77026510567,mAltel,mKcell,mKcell,,D07,2017-01-11T18:10:57+06:00,
1000000000309247,77006009101,mKcell,mAltel,mAltel,,D02,2017-01-11T18:11:26+06:00,
1000000000309251,77783649221,mMTS,mKcell,mKcell,,D77,2017-01-11T18:17:37+06:00,
1000000000309252,77013681408,mMTS,mKcell,mKcell,,D77,2017-01-11T18:18:59+06:00,
1000000000309253,77753702237,mMTS,mKcell,mKcell,D02,D77,2017-01-11T18:19:30+06:00,
1000000000309256,77022096822,mAltel,mKarTel,mKcell,D01,D07,2017-01-11T18:24:00+06:00,
1000000000309257,77785822000,mKarTel,mKcell,mKcell,,D01,2017-01-11T18:24:59+06:00,
1000000000309258,77786705454,mKcell,mAltel,mKcell,D07,D02,2017-01-11T18:25:31+06:00,
1000000000309260,77714590158,mMTS,mKarTel,mKarTel,,D77,2017-01-11T18:27:59+06:00,
1000000000309261,77755123577,mMTS,mKcell,mKcell,,D77,2017-01-11T18:29:41+06:00,
