NPId,Number,RecipientId,DonorId,RangeHolderId,OldRoute,NewRoute,PortDate,RowCount
1000000000408924,77769521727,mAltel,mKarTel,mKarTel,,D07,2017-06-24T14:30:54+06:00,19
1000000000408925,77055550850,mMTS,mKarTel,mKarTel,,D77,2017-06-24T14:31:17+06:00,
1000000000408926,77027994072,mKarTel,mKcell,mKcell,,D01,2017-06-24T14:33:46+06:00,
1000000000408927,77029867046,mKarTel,mAltel,mKcell,D07,D01,2017-06-24T14:33:52+06:00,
1000000000408929,77713348139,mKcell,mKarTel,mKarTel,,D02,2017-06-24T14:35:25+06:00,
1000000000408930,77015271055,mMTS,mKcell,mKcell,,D77,2017-06-24T14:36:21+06:00,
1000000000408935,77051943795,mMTS,mKarTel,mKarTel,,D77,2017-06-24T14:39:53+06:00,
1000000000408936,77017678837,mAltel,mKcell,mKcell,,D07,2017-06-24T14:40:50+06:00,
1000000000408937,77024061793,mAltel,mKcell,mKcell,,D07,2017-06-24T14:45:03+06:00,
1000000000408938,77076060354,mAltel,mMTS,mMTS,,D07,2017-06-24T14:45:06+06:00,
1000000000408939,77773309336,mMTS,mKarTel,mKarTel,,D77,2017-06-24T14:48:51+06:00,
1000000000408940,77710248040,mMTS,mKarTel,mKarTel,,D77,2017-06-24T14:49:11+06:00,
1000000000408941,77058042121,mMTS,mKarTel,mKarTel,,D77,2017-06-24T14:49:17+06:00,
1000000000408943,77028611081,mMTS,mKcell,mKcell,,D77,2017-06-24T14:50:37+06:00,
1000000000408944,77780071096,mMTS,mKcell,mKcell,,D77,2017-06-24T14:51:46+06:00,
1000000000408946,77017770934,mKarTel,mAltel,mKcell,D07,D01,2017-06-24T14:54:53+06:00,
1000000000408947,77023034925,mMTS,mKcell,mKcell,,D77,2017-06-24T14:56:13+06:00,
1000000000408948,77474312055,mMTS,mAltel,mMTS,D07,D77,2017-06-24T14:57:13+06:00,
1000000000408950,77017114609,mAltel,mKcell,mKcell,,D07,2017-06-24T14:57:57+06:00,
