NPId,Number,RecipientId,DonorId,RangeHolderId,OldRoute,NewRoute,PortDate,RowCount
1000000000420916,77016329678,mMTS,mKcell,mKcell,,D77,2017-07-13T12:01:44+06:00,21
1000000000420917,77758562519,mMTS,mKcell,mKcell,,D77,2017-07-13T12:01:57+06:00,
1000000000420918,77074889988,mKarTel,mMTS,mMTS,,D01,2017-07-13T12:03:22+06:00,
1000000000420919,77711014233,mKarTel,mKcell,mKarTel,D02,D01,2017-07-13T12:03:37+06:00,
1000000000420921,77088780656,mMTS,mAltel,mAltel,,D77,2017-07-13T12:05:40+06:00,
1000000000420923,77771365414,mKcell,mKarTel,mKarTel,,D02,2017-07-13T12:11:35+06:00,
1000000000420924,77761000099,mKcell,mKarTel,mKarTel,,D02,2017-07-13T12:12:06+06:00,
1000000000420925,77052530151,mKarTel,mMTS,mKarTel,D77,D01,2017-07-13T12:12:59+06:00,
1000000000420926,77051556555,mMTS,mKarTel,mKarTel,,D77,2017-07-13T12:17:26+06:00,
1000000000420927,77073910111,mKarTel,mMTS,mMTS,,D01,2017-07-13T12:17:38+06:00,
1000000000420928,77028087000,mKarTel,mKcell,mKcell,,D01,2017-07-13T12:18:21+06:00,
1000000000420930,77015885193,mAltel,mKcell,mKcell,,D07,2017-07-13T12:19:23+06:00,
1000000000420931,77472871730,mKarTel,mMTS,mMTS,,D01,2017-07-13T12:21:56+06:00,
1000000000420932,77771063251,mMTS,mKarTel,mKarTel,,D77,2017-07-13T12:22:34+06:00,
1000000000420933,77779499801,mKarTel,mMTS,mKarTel,D77,D01,2017-07-13T12:24:44+06:00,
1000000000420935,77028766692,mKarTel,mKcell,mKcell,,D01,2017-07-13T12:26:02+06:00,
1000000000420936,77476120478,mAltel,mMTS,mMTS,,D07,2017-07-13T12:26:10+06:00,
1000000000420937,77784996731,mMTS,mKcell,mKcell,,D77,2017-07-13T12:26:52+06:00,
1000000000420938,77011730031,mKarTel,mKcell,mKcell,,D01,2017-07-13T12:27:39+06:00,
1000000000420940,77006060160,mKcell,mAltel,mAltel,,D02,2017-07-13T12:29:37+06:00,
1000000000420941,77478299801,mAltel,mMTS,mMTS,,D07,2017-07-13T12:29:33+06:00,
