NPId,Number,RecipientId,DonorId,RangeHolderId,OldRoute,NewRoute,PortDate,RowCount
1000000000327776,77771747777,mMTS,mKarTel,mKarTel,,D77,2017-02-12T14:40:43+06:00,12
1000000000327777,77713180707,mMTS,mKarTel,mKarTel,,D77,2017-02-12T14:42:17+06:00,
1000000000327778,77025377599,mMTS,mKcell,mKcell,,D77,2017-02-12T14:42:33+06:00,
1000000000327779,77019244766,mMTS,mKcell,mKcell,,D77,2017-02-12T14:47:48+06:00,
1000000000327780,77788214070,mMTS,mKcell,mKcell,,D77,2017-02-12T14:47:52+06:00,
1000000000327782,77758800454,mMTS,mKcell,mKcell,,D77,2017-02-12T14:49:31+06:00,
1000000000327785,77777338686,mKarTel,mMTS,mKarTel,D77,D01,2017-02-12T14:52:02+06:00,
1000000000327786,77023375157,mMTS,mKcell,mKcell,,D77,2017-02-12T14:53:58+06:00,
1000000000327788,77775777779,mKcell,mKarTel,mKarTel,D01,D02,2017-02-12T14:55:06+06:00,
1000000000327791,77752662903,mMTS,mKcell,mKcell,,D77,2017-02-12T14:57:50+06:00,
1000000000327792,77028925092,mKarTel,mKcell,mKcell,,D01,2017-02-12T14:58:03+06:00,
1000000000327793,77761980389,mAltel,mKarTel,mKarTel,,D07,2017-02-12T14:59:34+06:00,
