NPId,Number,RecipientId,DonorId,RangeHolderId,OldRoute,NewRoute,PortDate,RowCount
1000000000300582,77012216972,mKarTel,mKcell,mKcell,,D01,2016-12-26T11:32:24+06:00,35
1000000000300582,77012528300,mKarTel,mKcell,mKcell,,D01,2016-12-26T11:32:24+06:00,
1000000000300582,77012528303,mKarTel,mKcell,mKcell,,D01,2016-12-26T11:32:24+06:00,
1000000000300582,77015992525,mKarTel,mKcell,mKcell,,D01,2016-12-26T11:32:24+06:00,
1000000000300582,77018878930,mKarTel,mKcell,mKcell,,D01,2016-12-26T11:32:24+06:00,
1000000000300582,77019816262,mKarTel,mKcell,mKcell,,D01,2016-12-26T11:32:24+06:00,
1000000000300662,77019717158,mKcell,mKarTel,mKcell,D01,D02,2016-12-26T11:43:52+06:00,
1000000000300664,77779446829,mMTS,mKarTel,mKarTel,,D77,2016-12-26T11:30:39+06:00,
1000000000300665,77027614888,mKarTel,mKcell,mKcell,,D01,2016-12-26T11:30:48+06:00,
1000000000300667,77014701052,mAltel,mKcell,mKcell,,D07,2016-12-26T11:32:12+06:00,
1000000000300668,77011649778,mMTS,mKcell,mKcell,,D77,2016-12-26T11:32:12+06:00,
1000000000300669,77074833338,mMTS,mAltel,mMTS,D07,D77,2016-12-26T11:32:41+06:00,
1000000000300671,77071131959,mAltel,mMTS,mMTS,,D07,2016-12-26T11:33:03+06:00,
1000000000300674,77013884749,mMTS,mKcell,mKcell,,D77,2016-12-26T11:39:53+06:00,
1000000000300675,77024484664,mAltel,mKcell,mKcell,,D07,2016-12-26T11:38:41+06:00,
1000000000300676,77019602140,mKcell,mKarTel,mKcell,D01,D02,2016-12-26T11:55:49+06:00,
1000000000300677,77757120102,mKcell,mMTS,mKcell,D77,D02,2016-12-26T11:43:24+06:00,
1000000000300678,77788888901,mMTS,mKcell,mKcell,,D77,2016-12-26T11:41:13+06:00,
1000000000300679,77781571949,mKcell,mMTS,mKcell,D77,D02,2016-12-26T11:41:43+06:00,
1000000000300681,77057241367,mMTS,mKarTel,mKarTel,,D77,2016-12-26T11:42:57+06:00,
1000000000300682,77765959777,mMTS,mKarTel,mKarTel,,D77,2016-12-26T11:43:08+06:00,
1000000000300683,77711956061,mKcell,mKarTel,mKarTel,,D02,2016-12-26T11:43:36+06:00,
1000000000300686,77018750001,mMTS,mKcell,mKcell,,D77,2016-12-26T11:46:59+06:00,
1000000000300687,77774490314,mMTS,mAltel,mKarTel,D07,D77,2016-12-26T11:47:58+06:00,
1000000000300688,77000886575,mMTS,mAltel,mAltel,,D77,2016-12-26T11:48:20+06:00,
1000000000300689,77017802260,mKarTel,mKcell,mKcell,,D01,2016-12-26T11:49:30+06:00,
1000000000300690,77026744447,mAltel,mKcell,mKcell,,D07,2016-12-26T11:52:37+06:00,
1000000000300691,77052749841,mMTS,mKarTel,mKarTel,,D77,2016-12-26T11:52:59+06:00,
1000000000300692,77751904962,mMTS,mKcell,mKcell,,D77,2016-12-26T11:52:45+06:00,
1000000000300694,77009301520,mMTS,mAltel,mAltel,,D77,2016-12-26T11:53:34+06:00,
1000000000300695,77771111626,mMTS,mKarTel,mKarTel,,D77,2016-12-26T11:54:45+06:00,
1000000000300699,77007721077,mKarTel,mAltel,mAltel,D07,D01,2016-12-26T11:57:29+06:00,
1000000000300701,77017588198,mKarTel,mKcell,mKcell,,D01,2016-12-26T11:57:39+06:00,
1000000000300702,77003000293,mMTS,mAltel,mAltel,,D77,2016-12-26T11:58:06+06:00,
1000000000300703,77019997903,mMTS,mKcell,mKcell,,D77,2016-12-26T11:58:46+06:00,
