NPId,Number,RecipientId,DonorId,RangeHolderId,OldRoute,NewRoute,PortDate,RowCount
1000000000202566,77017149961,mKarTel,mKcell,mKcell,,D01,2016-06-29T17:42:25+06:00,175
1000000000202566,77017223436,mKarTel,mKcell,mKcell,,D01,2016-06-29T17:42:25+06:00,
1000000000202566,77017223537,mKarTel,mKcell,mKcell,,D01,2016-06-29T17:42:25+06:00,
1000000000202566,77017223606,mKarTel,mKcell,mKcell,,D01,2016-06-29T17:42:25+06:00,
1000000000202566,77019550151,mKarTel,mKcell,mKcell,,D01,2016-06-29T17:42:25+06:00,
1000000000202566,77019550152,mKarTel,mKcell,mKcell,,D01,2016-06-29T17:42:25+06:00,
1000000000202566,77019550274,mKarTel,mKcell,mKcell,,D01,2016-06-29T17:42:25+06:00,
1000000000202566,77019551350,mKarTel,mKcell,mKcell,,D01,2016-06-29T17:42:25+06:00,
1000000000202566,77019551435,mKarTel,mKcell,mKcell,,D01,2016-06-29T17:42:25+06:00,
1000000000202566,77019555007,mKarTel,mKcell,mKcell,,D01,2016-06-29T17:42:25+06:00,
1000000000202566,77019555018,mKarTel,mKcell,mKcell,,D01,2016-06-29T17:42:25+06:00,
1000000000202566,77019555020,mKarTel,mKcell,mKcell,,D01,2016-06-29T17:42:25+06:00,
1000000000202566,77019555025,mKarTel,mKcell,mKcell,,D01,2016-06-29T17:42:25+06:00,
1000000000202566,77019555087,mKarTel,mKcell,mKcell,,D01,2016-06-29T17:42:25+06:00,
1000000000202566,77019555502,mKarTel,mKcell,mKcell,,D01,2016-06-29T17:42:25+06:00,
1000000000202566,77019555519,mKarTel,mKcell,mKcell,,D01,2016-06-29T17:42:25+06:00,
1000000000202566,77019555529,mKarTel,mKcell,mKcell,,D01,2016-06-29T17:42:25+06:00,
1000000000202566,77019555532,mKarTel,mKcell,mKcell,,D01,2016-06-29T17:42:25+06:00,
1000000000202566,77019555546,mKarTel,mKcell,mKcell,,D01,2016-06-29T17:42:25+06:00,
1000000000202566,77019555609,mKarTel,mKcell,mKcell,,D01,2016-06-29T17:42:25+06:00,
1000000000202566,77019555610,mKarTel,mKcell,mKcell,,D01,2016-06-29T17:42:25+06:00,
1000000000202566,77019555645,mKarTel,mKcell,mKcell,,D01,2016-06-29T17:42:25+06:00,
1000000000202566,77019557244,mKarTel,mKcell,mKcell,,D01,2016-06-29T17:42:25+06:00,
1000000000202566,77019557250,mKarTel,mKcell,mKcell,,D01,2016-06-29T17:42:25+06:00,
1000000000202566,77019557255,mKarTel,mKcell,mKcell,,D01,2016-06-29T17:42:25+06:00,
1000000000202566,77019557273,mKarTel,mKcell,mKcell,,D01,2016-06-29T17:42:25+06:00,
1000000000202566,77019557277,mKarTel,mKcell,mKcell,,D01,2016-06-29T17:42:25+06:00,
1000000000202566,77019557280,mKarTel,mKcell,mKcell,,D01,2016-06-29T17:42:25+06:00,
1000000000202566,77019557282,mKarTel,mKcell,mKcell,,D01,2016-06-29T17:42:25+06:00,
1000000000202566,77019914842,mKarTel,mKcell,mKcell,,D01,2016-06-29T17:42:25+06:00,
1000000000202566,77019914843,mKarTel,mKcell,mKcell,,D01,2016-06-29T17:42:25+06:00,
1000000000202566,77019919951,mKarTel,mKcell,mKcell,,D01,2016-06-29T17:42:25+06:00,
1000000000202579,77017223507,mKarTel,mKcell,mKcell,,D01,2016-06-29T17:57:40+06:00,
1000000000202579,77017223524,mKarTel,mKcell,mKcell,,D01,2016-06-29T17:57:40+06:00,
1000000000202579,77017223529,mKarTel,mKcell,mKcell,,D01,2016-06-29T17:57:40+06:00,
1000000000202579,77017223531,mKarTel,mKcell,mKcell,,D01,2016-06-29T17:57:40+06:00,
1000000000202579,77019550053,mKarTel,mKcell,mKcell,,D01,2016-06-29T17:57:40+06:00,
1000000000202579,77019550149,mKarTel,mKcell,mKcell,,D01,2016-06-29T17:57:40+06:00,
1000000000202579,77019550223,mKarTel,mKcell,mKcell,,D01,2016-06-29T17:57:40+06:00,
1000000000202579,77019550234,mKarTel,mKcell,mKcell,,D01,2016-06-29T17:57:40+06:00,
1000000000202579,77019550269,mKarTel,mKcell,mKcell,,D01,2016-06-29T17:57:40+06:00,
1000000000202579,77019550270,mKarTel,mKcell,mKcell,,D01,2016-06-29T17:57:40+06:00,
1000000000202579,77019550272,mKarTel,mKcell,mKcell,,D01,2016-06-29T17:57:40+06:00,
1000000000202579,77019550275,mKarTel,mKcell,mKcell,,D01,2016-06-29T17:57:40+06:00,
1000000000202579,77019550434,mKarTel,mKcell,mKcell,,D01,2016-06-29T17:57:40+06:00,
1000000000202579,77019550920,mKarTel,mKcell,mKcell,,D01,2016-06-29T17:57:40+06:00,
1000000000202579,77019551494,mKarTel,mKcell,mKcell,,D01,2016-06-29T17:57:40+06:00,
1000000000202579,77019554647,mKarTel,mKcell,mKcell,,D01,2016-06-29T17:57:40+06:00,
1000000000202579,77019554660,mKarTel,mKcell,mKcell,,D01,2016-06-29T17:57:40+06:00,
1000000000202579,77019555001,mKarTel,mKcell,mKcell,,D01,2016-06-29T17:57:40+06:00,
1000000000202579,77019555082,mKarTel,mKcell,mKcell,,D01,2016-06-29T17:57:40+06:00,
1000000000202579,77019555567,mKarTel,mKcell,mKcell,,D01,2016-06-29T17:57:40+06:00,
1000000000202579,77019555590,mKarTel,mKcell,mKcell,,D01,2016-06-29T17:57:40+06:00,
1000000000202579,77019555607,mKarTel,mKcell,mKcell,,D01,2016-06-29T17:57:40+06:00,
1000000000202579,77019555608,mKarTel,mKcell,mKcell,,D01,2016-06-29T17:57:40+06:00,
1000000000202579,77019555612,mKarTel,mKcell,mKcell,,D01,2016-06-29T17:57:40+06:00,
1000000000202579,77019555630,mKarTel,mKcell,mKcell,,D01,2016-06-29T17:57:40+06:00,
1000000000202579,77019555643,mKarTel,mKcell,mKcell,,D01,2016-06-29T17:57:40+06:00,
1000000000202579,77019919953,mKarTel,mKcell,mKcell,,D01,2016-06-29T17:57:40+06:00,
1000000000202589,77017149916,mKarTel,mKcell,mKcell,,D01,2016-06-29T17:57:39+06:00,
1000000000202589,77017149953,mKarTel,mKcell,mKcell,,D01,2016-06-29T17:57:39+06:00,
1000000000202589,77018029857,mKarTel,mKcell,mKcell,,D01,2016-06-29T17:57:39+06:00,
1000000000202589,77018726018,mKarTel,mKcell,mKcell,,D01,2016-06-29T17:57:39+06:00,
1000000000202589,77019327952,mKarTel,mKcell,mKcell,,D01,2016-06-29T17:57:39+06:00,
1000000000202589,77019550037,mKarTel,mKcell,mKcell,,D01,2016-06-29T17:57:39+06:00,
1000000000202589,77019550043,mKarTel,mKcell,mKcell,,D01,2016-06-29T17:57:39+06:00,
1000000000202589,77019550046,mKarTel,mKcell,mKcell,,D01,2016-06-29T17:57:39+06:00,
1000000000202589,77019550062,mKarTel,mKcell,mKcell,,D01,2016-06-29T17:57:39+06:00,
1000000000202589,77019550104,mKarTel,mKcell,mKcell,,D01,2016-06-29T17:57:39+06:00,
1000000000202589,77019550107,mKarTel,mKcell,mKcell,,D01,2016-06-29T17:57:39+06:00,
1000000000202589,77019550265,mKarTel,mKcell,mKcell,,D01,2016-06-29T17:57:39+06:00,
1000000000202589,77019550266,mKarTel,mKcell,mKcell,,D01,2016-06-29T17:57:39+06:00,
1000000000202589,77019550510,mKarTel,mKcell,mKcell,,D01,2016-06-29T17:57:39+06:00,
1000000000202589,77019550533,mKarTel,mKcell,mKcell,,D01,2016-06-29T17:57:39+06:00,
1000000000202589,77019550551,mKarTel,mKcell,mKcell,,D01,2016-06-29T17:57:39+06:00,
1000000000202589,77019550594,mKarTel,mKcell,mKcell,,D01,2016-06-29T17:57:39+06:00,
1000000000202589,77019550863,mKarTel,mKcell,mKcell,,D01,2016-06-29T17:57:39+06:00,
1000000000202589,77019551080,mKarTel,mKcell,mKcell,,D01,2016-06-29T17:57:39+06:00,
1000000000202589,77019551266,mKarTel,mKcell,mKcell,,D01,2016-06-29T17:57:39+06:00,
1000000000202589,77019551410,mKarTel,mKcell,mKcell,,D01,2016-06-29T17:57:39+06:00,
1000000000202589,77019552060,mKarTel,mKcell,mKcell,,D01,2016-06-29T17:57:39+06:00,
1000000000202589,77019552320,mKarTel,mKcell,mKcell,,D01,2016-06-29T17:57:39+06:00,
1000000000202589,77019553488,mKarTel,mKcell,mKcell,,D01,2016-06-29T17:57:39+06:00,
1000000000202589,77019555094,mKarTel,mKcell,mKcell,,D01,2016-06-29T17:57:39+06:00,
1000000000202589,77019555540,mKarTel,mKcell,mKcell,,D01,2016-06-29T17:57:39+06:00,
1000000000202589,77019555549,mKarTel,mKcell,mKcell,,D01,2016-06-29T17:57:39+06:00,
1000000000202589,77019555602,mKarTel,mKcell,mKcell,,D01,2016-06-29T17:57:39+06:00,
1000000000202589,77019555620,mKarTel,mKcell,mKcell,,D01,2016-06-29T17:57:39+06:00,
1000000000202589,77019555624,mKarTel,mKcell,mKcell,,D01,2016-06-29T17:57:39+06:00,
1000000000202589,77019555628,mKarTel,mKcell,mKcell,,D01,2016-06-29T17:57:39+06:00,
1000000000202589,77019555646,mKarTel,mKcell,mKcell,,D01,2016-06-29T17:57:39+06:00,
1000000000202589,77019555649,mKarTel,mKcell,mKcell,,D01,2016-06-29T17:57:39+06:00,
1000000000202589,77019556020,mKarTel,mKcell,mKcell,,D01,2016-06-29T17:57:39+06:00,
1000000000202589,77019556160,mKarTel,mKcell,mKcell,,D01,2016-06-29T17:57:39+06:00,
1000000000202589,77019559050,mKarTel,mKcell,mKcell,,D01,2016-06-29T17:57:39+06:00,
1000000000202589,77019716634,mKarTel,mKcell,mKcell,,D01,2016-06-29T17:57:39+06:00,
1000000000202589,77019914841,mKarTel,mKcell,mKcell,,D01,2016-06-29T17:57:39+06:00,
1000000000202589,77019919936,mKarTel,mKcell,mKcell,,D01,2016-06-29T17:57:39+06:00,
1000000000202589,77019919937,mKarTel,mKcell,mKcell,,D01,2016-06-29T17:57:39+06:00,
1000000000202589,77019919950,mKarTel,mKcell,mKcell,,D01,2016-06-29T17:57:39+06:00,
1000000000202589,77019919956,mKarTel,mKcell,mKcell,,D01,2016-06-29T17:57:39+06:00,
1000000000202589,77019919958,mKarTel,mKcell,mKcell,,D01,2016-06-29T17:57:39+06:00,
1000000000202589,77019919962,mKarTel,mKcell,mKcell,,D01,2016-06-29T17:57:39+06:00,
1000000000202618,77017635229,mKarTel,mKcell,mKcell,,D01,2016-06-29T17:35:11+06:00,
1000000000202618,77019550077,mKarTel,mKcell,mKcell,,D01,2016-06-29T17:35:11+06:00,
1000000000202618,77019550082,mKarTel,mKcell,mKcell,,D01,2016-06-29T17:35:11+06:00,
1000000000202618,77019550083,mKarTel,mKcell,mKcell,,D01,2016-06-29T17:35:11+06:00,
1000000000202618,77019550108,mKarTel,mKcell,mKcell,,D01,2016-06-29T17:35:11+06:00,
1000000000202618,77019550128,mKarTel,mKcell,mKcell,,D01,2016-06-29T17:35:11+06:00,
1000000000202618,77019550201,mKarTel,mKcell,mKcell,,D01,2016-06-29T17:35:11+06:00,
1000000000202618,77019550202,mKarTel,mKcell,mKcell,,D01,2016-06-29T17:35:11+06:00,
1000000000202618,77019550203,mKarTel,mKcell,mKcell,,D01,2016-06-29T17:35:11+06:00,
1000000000202618,77019550209,mKarTel,mKcell,mKcell,,D01,2016-06-29T17:35:11+06:00,
1000000000202618,77019550277,mKarTel,mKcell,mKcell,,D01,2016-06-29T17:35:11+06:00,
1000000000202618,77019554770,mKarTel,mKcell,mKcell,,D01,2016-06-29T17:35:11+06:00,
1000000000202618,77019555009,mKarTel,mKcell,mKcell,,D01,2016-06-29T17:35:11+06:00,
1000000000202618,77019555026,mKarTel,mKcell,mKcell,,D01,2016-06-29T17:35:11+06:00,
1000000000202618,77019555040,mKarTel,mKcell,mKcell,,D01,2016-06-29T17:35:11+06:00,
1000000000202618,77019555052,mKarTel,mKcell,mKcell,,D01,2016-06-29T17:35:11+06:00,
1000000000202618,77019555062,mKarTel,mKcell,mKcell,,D01,2016-06-29T17:35:11+06:00,
1000000000202618,77019555077,mKarTel,mKcell,mKcell,,D01,2016-06-29T17:35:11+06:00,
1000000000202618,77019555078,mKarTel,mKcell,mKcell,,D01,2016-06-29T17:35:11+06:00,
1000000000202618,77019555080,mKarTel,mKcell,mKcell,,D01,2016-06-29T17:35:11+06:00,
1000000000202618,77019555534,mKarTel,mKcell,mKcell,,D01,2016-06-29T17:35:11+06:00,
1000000000202618,77019555570,mKarTel,mKcell,mKcell,,D01,2016-06-29T17:35:11+06:00,
1000000000202618,77019555593,mKarTel,mKcell,mKcell,,D01,2016-06-29T17:35:11+06:00,
1000000000202618,77019555616,mKarTel,mKcell,mKcell,,D01,2016-06-29T17:35:11+06:00,
1000000000202618,77019555642,mKarTel,mKcell,mKcell,,D01,2016-06-29T17:35:11+06:00,
1000000000202643,77019223892,mKarTel,mKcell,mKcell,,D01,2016-06-29T17:34:40+06:00,
1000000000202651,77017606081,mAltel,mKcell,mKcell,,D07,2016-06-29T17:34:17+06:00,
1000000000202657,77027965154,mMTS,mKcell,mKcell,,D77,2016-06-29T17:34:17+06:00,
1000000000202660,77014061913,mMTS,mKcell,mKcell,,D77,2016-06-29T17:34:20+06:00,
1000000000202661,77017583817,mKarTel,mKcell,mKcell,,D01,2016-06-29T17:39:34+06:00,
1000000000202662,77019404905,mKcell,mKarTel,mKcell,D01,D02,2016-06-29T17:38:35+06:00,
1000000000202663,77773822211,mKcell,mMTS,mKarTel,D77,D02,2016-06-29T17:38:33+06:00,
1000000000202664,77016766669,mKcell,mAltel,mKcell,D07,D02,2016-06-29T17:38:17+06:00,
1000000000202665,77056504088,mMTS,mKarTel,mKarTel,,D77,2016-06-29T17:31:11+06:00,
1000000000202666,77019584608,mKcell,mKarTel,mKcell,D01,D02,2016-06-29T17:47:44+06:00,
1000000000202666,77022235315,mKcell,mKarTel,mKcell,D01,D02,2016-06-29T17:47:44+06:00,
1000000000202667,77768022280,mMTS,mKarTel,mKarTel,,D77,2016-06-29T17:31:34+06:00,
1000000000202668,77053273387,mMTS,mKarTel,mKarTel,,D77,2016-06-29T17:32:34+06:00,
1000000000202669,77071999880,mMTS,mAltel,mMTS,D07,D77,2016-06-29T17:32:16+06:00,
1000000000202670,77085252838,mMTS,mAltel,mAltel,,D77,2016-06-29T17:32:22+06:00,
1000000000202673,77752502771,mKcell,mMTS,mKcell,D77,D02,2016-06-29T17:40:53+06:00,
1000000000202674,77776711017,mKcell,mKarTel,mKarTel,,D02,2016-06-29T17:40:52+06:00,
1000000000202675,77081919102,mKcell,mAltel,mAltel,,D02,2016-06-29T17:40:53+06:00,
1000000000202676,77054973215,mMTS,mKarTel,mKarTel,,D77,2016-06-29T17:35:23+06:00,
1000000000202682,77012409005,mMTS,mKarTel,mKcell,D01,D77,2016-06-29T17:38:53+06:00,
1000000000202684,77779006014,mKarTel,mKcell,mKarTel,D02,D01,2016-06-29T17:46:34+06:00,
1000000000202685,77051451060,mKcell,mKarTel,mKarTel,,D02,2016-06-29T17:45:23+06:00,
1000000000202686,77019659520,mKarTel,mAltel,mKcell,D07,D01,2016-06-29T17:40:05+06:00,
1000000000202689,77019657753,mKarTel,mKcell,mKcell,,D01,2016-06-29T17:46:35+06:00,
1000000000202690,77086787875,mMTS,mAltel,mAltel,,D77,2016-06-29T17:41:19+06:00,
1000000000202692,77019662301,mKarTel,mKcell,mKcell,,D01,2016-06-29T17:49:02+06:00,
1000000000202694,77754451747,mKcell,mKarTel,mKcell,D01,D02,2016-06-29T17:47:43+06:00,
1000000000202695,77052805808,mMTS,mKarTel,mKarTel,,D77,2016-06-29T17:42:39+06:00,
1000000000202697,77019662302,mKarTel,mKcell,mKcell,,D01,2016-06-29T17:49:01+06:00,
1000000000202700,77029180219,mMTS,mKcell,mKcell,,D77,2016-06-29T17:48:45+06:00,
1000000000202701,77773404033,mKarTel,mAltel,mKarTel,D07,D01,2016-06-29T17:45:32+06:00,
1000000000202702,77011107070,mAltel,mKcell,mKcell,,D07,2016-06-29T17:52:23+06:00,
1000000000202703,77017777834,mKcell,mKarTel,mKcell,D01,D02,2016-06-29T17:51:52+06:00,
1000000000202704,77786787285,mMTS,mKcell,mKcell,,D77,2016-06-29T17:52:22+06:00,
1000000000202707,77779282063,mKarTel,mMTS,mKarTel,D77,D01,2016-06-29T17:47:43+06:00,
1000000000202709,77074732505,mKarTel,mMTS,mMTS,,D01,2016-06-29T17:48:54+06:00,
1000000000202709,77074733484,mKarTel,mMTS,mMTS,,D01,2016-06-29T17:48:54+06:00,
1000000000202709,77079983751,mKarTel,mMTS,mMTS,,D01,2016-06-29T17:48:54+06:00,
1000000000202710,77027778052,mKarTel,mKcell,mKcell,,D01,2016-06-29T17:52:39+06:00,
1000000000202711,77012874062,mKarTel,mKcell,mKcell,,D01,2016-06-29T17:56:32+06:00,
1000000000202713,77012634042,mKarTel,mKcell,mKcell,,D01,2016-06-29T17:56:31+06:00,
1000000000202714,77717923463,mMTS,mKarTel,mKarTel,,D77,2016-06-29T17:52:37+06:00,
1000000000202719,77001448652,mMTS,mAltel,mAltel,,D77,2016-06-29T17:57:13+06:00,
1000000000202720,77774333730,mMTS,mKarTel,mKarTel,,D77,2016-06-29T17:57:55+06:00,
1000000000202721,77087225505,mMTS,mAltel,mAltel,,D77,2016-06-29T17:57:37+06:00,
1000000000202723,77716117788,mMTS,mKarTel,mKarTel,,D77,2016-06-29T17:58:31+06:00,
1000000000202725,77778550585,mMTS,mKarTel,mKarTel,,D77,2016-06-29T17:59:32+06:00,
