NPId,Number,RecipientId,DonorId,RangeHolderId,OldRoute,NewRoute,PortDate,RowCount
1000000000270012,77017683348,mKcell,mKarTel,mKcell,D01,D02,2016-10-29T15:00:29+06:00,32
1000000000270013,77771709745,mMTS,mKarTel,mKarTel,,D77,2016-10-29T15:00:23+06:00,
1000000000270015,77089132929,mKarTel,mAltel,mAltel,,D01,2016-10-29T15:02:15+06:00,
1000000000270016,77058604447,mMTS,mKarTel,mKarTel,,D77,2016-10-29T15:06:26+06:00,
1000000000270017,77077873922,mAltel,mMTS,mMTS,,D07,2016-10-29T15:03:08+06:00,
1000000000270018,77000950600,mKcell,mAltel,mAltel,,D02,2016-10-29T15:04:01+06:00,
1000000000270019,77785906808,mMTS,mKcell,mKcell,,D77,2016-10-29T15:06:12+06:00,
1000000000270020,77782223536,mKarTel,mKcell,mKcell,,D01,2016-10-29T15:06:30+06:00,
1000000000270021,77029763945,mKarTel,mKcell,mKcell,,D01,2016-10-29T15:06:42+06:00,
1000000000270023,77772266190,mKcell,mKarTel,mKarTel,,D02,2016-10-29T15:10:21+06:00,
1000000000270024,77000200670,mKcell,mAltel,mAltel,,D02,2016-10-29T15:08:25+06:00,
1000000000270025,77014888030,mAltel,mKcell,mKcell,,D07,2016-10-29T15:09:15+06:00,
1000000000270026,77015226889,mKcell,mAltel,mKcell,D07,D02,2016-10-29T15:12:47+06:00,
1000000000270027,77019522149,mMTS,mKcell,mKcell,,D77,2016-10-29T15:10:51+06:00,
1000000000270028,77783397029,mKarTel,mKcell,mKcell,,D01,2016-10-29T15:11:17+06:00,
1000000000270029,77085508124,mAltel,mMTS,mAltel,D77,D07,2016-10-29T15:11:10+06:00,
1000000000270030,77751350000,mKarTel,mKcell,mKcell,,D01,2016-10-29T15:15:26+06:00,
1000000000270032,77086751701,mKarTel,mAltel,mAltel,,D01,2016-10-29T15:16:26+06:00,
1000000000270033,77000200920,mKcell,mAltel,mAltel,,D02,2016-10-29T15:18:02+06:00,
1000000000270034,77015302177,mKcell,mAltel,mKcell,D07,D02,2016-10-29T15:18:09+06:00,
1000000000270035,77076639262,mKarTel,mMTS,mMTS,,D01,2016-10-29T15:18:29+06:00,
1000000000270037,77029501401,mAltel,mKcell,mKcell,,D07,2016-10-29T15:19:51+06:00,
1000000000270038,77081517182,mKarTel,mAltel,mAltel,,D01,2016-10-29T15:20:32+06:00,
1000000000270039,77085318189,mKarTel,mMTS,mAltel,D77,D01,2016-10-29T15:20:43+06:00,
1000000000270043,77017888425,mKarTel,mKcell,mKcell,,D01,2016-10-29T15:22:39+06:00,
1000000000270044,77071358492,mKarTel,mMTS,mMTS,,D01,2016-10-29T15:23:27+06:00,
1000000000270045,77029097999,mKarTel,mKcell,mKcell,,D01,2016-10-29T15:23:36+06:00,
1000000000270046,77471447303,mMTS,mAltel,mMTS,D07,D77,2016-10-29T15:23:17+06:00,
1000000000270050,77014638907,mAltel,mKarTel,mKcell,D01,D07,2016-10-29T15:26:30+06:00,
1000000000270051,77007777075,mKcell,mKarTel,mAltel,D01,D02,2016-10-29T15:27:01+06:00,
1000000000270053,77011550400,mAltel,mKcell,mKcell,,D07,2016-10-29T15:27:51+06:00,
1000000000270055,77075268113,mKarTel,mMTS,mMTS,,D01,2016-10-29T15:29:39+06:00,
