NPId,Number,RecipientId,DonorId,RangeHolderId,OldRoute,NewRoute,PortDate,RowCount
1000000000146967,77087772520,mKcell,mAltel,mAltel,,D02,2016-05-11T10:27:37+06:00,30
1000000000160964,77767066686,mKcell,mKarTel,mKarTel,,D02,2016-05-11T10:17:03+06:00,
1000000000171390,77471110112,mKcell,mMTS,mMTS,,D02,2016-05-11T10:01:41+06:00,
1000000000171391,77758985456,mMTS,mKcell,mKcell,,D77,2016-05-11T10:01:40+06:00,
1000000000171392,77014891604,mMTS,mKcell,mKcell,,D77,2016-05-11T10:02:58+06:00,
1000000000171393,77002301399,mMTS,mAltel,mAltel,,D77,2016-05-11T10:02:04+06:00,
1000000000171395,77078772444,mMTS,mAltel,mMTS,D07,D77,2016-05-11T10:02:03+06:00,
1000000000171396,77772988838,mKcell,mKarTel,mKarTel,,D02,2016-05-11T10:05:55+06:00,
1000000000171397,77760344445,mKcell,mKarTel,mKarTel,,D02,2016-05-11T10:05:55+06:00,
1000000000171398,77759743103,mMTS,mKcell,mKcell,,D77,2016-05-11T10:08:07+06:00,
1000000000171399,77012012223,mMTS,mKcell,mKcell,,D77,2016-05-11T10:08:37+06:00,
1000000000171400,77012150481,mMTS,mKcell,mKcell,,D77,2016-05-11T10:10:03+06:00,
1000000000171401,77018257117,mMTS,mKcell,mKcell,,D77,2016-05-11T10:11:40+06:00,
1000000000171402,77051049633,mMTS,mKarTel,mKarTel,,D77,2016-05-11T10:10:50+06:00,
1000000000171403,77078159711,mKarTel,mMTS,mMTS,,D01,2016-05-11T10:12:05+06:00,
1000000000171404,77759757300,mMTS,mAltel,mKcell,D07,D77,2016-05-11T10:15:12+06:00,
1000000000171406,77023395258,mKcell,mMTS,mKcell,D77,D02,2016-05-11T10:17:43+06:00,
1000000000171407,77712677077,mKcell,mKarTel,mKarTel,,D02,2016-05-11T10:21:15+06:00,
1000000000171410,77776516556,mMTS,mKarTel,mKarTel,,D77,2016-05-11T10:22:33+06:00,
1000000000171411,77774646868,mKcell,mKarTel,mKarTel,,D02,2016-05-11T10:24:16+06:00,
1000000000171413,77016804258,mKarTel,mKcell,mKcell,,D01,2016-05-11T10:24:59+06:00,
1000000000171415,77017493626,mAltel,mKcell,mKcell,,D07,2016-05-11T10:25:44+06:00,
1000000000171416,77762797676,mMTS,mKarTel,mKarTel,,D77,2016-05-11T10:25:23+06:00,
1000000000171417,77781544300,mMTS,mKcell,mKcell,,D77,2016-05-11T10:26:23+06:00,
1000000000171418,77026855025,mAltel,mKcell,mKcell,,D07,2016-05-11T10:26:24+06:00,
1000000000171419,77774322828,mKcell,mKarTel,mKarTel,,D02,2016-05-11T10:27:38+06:00,
1000000000171420,77779961996,mMTS,mKarTel,mKarTel,,D77,2016-05-11T10:27:24+06:00,
1000000000171422,77014345553,mAltel,mKcell,mKcell,,D07,2016-05-11T10:29:19+06:00,
1000000000171423,77772702397,mAltel,mKarTel,mKarTel,,D07,2016-05-11T10:29:07+06:00,
1000000000171424,77015574865,mKarTel,mKcell,mKcell,,D01,2016-05-11T10:29:56+06:00,
