NPId,Number,RecipientId,DonorId,RangeHolderId,OldRoute,NewRoute,PortDate,RowCount
1000000000125446,77785009083,mKcell,mMTS,mKcell,D77,D02,2016-03-15T12:30:18+06:00,33
1000000000125447,77017432535,mKarTel,mKcell,mKcell,,D01,2016-03-15T12:31:28+06:00,
1000000000125448,77026052330,mMTS,mKcell,mKcell,,D77,2016-03-15T12:31:13+06:00,
1000000000125450,77477661033,mAltel,mMTS,mMTS,,D07,2016-03-15T12:31:44+06:00,
1000000000125452,77779720530,mMTS,mKarTel,mKarTel,,D77,2016-03-15T12:32:46+06:00,
1000000000125453,77012222845,mAltel,mKcell,mKcell,,D07,2016-03-15T12:32:53+06:00,
1000000000125454,77752132744,mMTS,mKcell,mKcell,,D77,2016-03-15T12:32:52+06:00,
1000000000125455,77017803554,mKarTel,mKcell,mKcell,,D01,2016-03-15T12:33:22+06:00,
1000000000125458,77055557700,mMTS,mKarTel,mKarTel,,D77,2016-03-15T12:34:28+06:00,
1000000000125460,77019822862,mKarTel,mKcell,mKcell,,D01,2016-03-15T12:37:42+06:00,
1000000000125461,77019857310,mMTS,mKcell,mKcell,,D77,2016-03-15T12:37:36+06:00,
1000000000125462,77786786060,mMTS,mKcell,mKcell,,D77,2016-03-15T12:37:52+06:00,
1000000000125464,77058881780,mMTS,mKarTel,mKarTel,,D77,2016-03-15T12:41:26+06:00,
1000000000125465,77022346211,mMTS,mKarTel,mKcell,D01,D77,2016-03-15T12:41:53+06:00,
1000000000125468,77755547172,mMTS,mKcell,mKcell,,D77,2016-03-15T12:42:08+06:00,
1000000000125469,77756569795,mKcell,mAltel,mKcell,D07,D02,2016-03-15T12:45:33+06:00,
1000000000125470,77773046361,mMTS,mKarTel,mKarTel,,D77,2016-03-15T12:45:57+06:00,
1000000000125471,77751717711,mKcell,mAltel,mKcell,D07,D02,2016-03-15T12:46:10+06:00,
1000000000125473,77015077788,mAltel,mKcell,mKcell,,D07,2016-03-15T12:46:46+06:00,
1000000000125474,77021204964,mAltel,mKcell,mKcell,,D07,2016-03-15T12:46:58+06:00,
1000000000125475,77003222224,mKcell,mAltel,mAltel,,D02,2016-03-15T12:46:50+06:00,
1000000000125476,77052223525,mMTS,mKarTel,mKarTel,,D77,2016-03-15T12:47:39+06:00,
1000000000125477,77025439092,mAltel,mKcell,mKcell,,D07,2016-03-15T12:48:49+06:00,
1000000000125479,77019984105,mMTS,mKcell,mKcell,,D77,2016-03-15T12:50:10+06:00,
1000000000125480,77751705130,mAltel,mKcell,mKcell,,D07,2016-03-15T12:50:13+06:00,
1000000000125483,77017311601,mMTS,mKcell,mKcell,,D77,2016-03-15T12:51:27+06:00,
1000000000125484,77717111151,mAltel,mKarTel,mKarTel,,D07,2016-03-15T12:52:00+06:00,
1000000000125485,77026036178,mMTS,mKcell,mKcell,,D77,2016-03-15T12:52:45+06:00,
1000000000125486,77015279499,mAltel,mKcell,mKcell,,D07,2016-03-15T12:52:46+06:00,
1000000000125488,77079400799,mAltel,mMTS,mMTS,,D07,2016-03-15T12:56:55+06:00,
1000000000125490,77757470504,mMTS,mKcell,mKcell,,D77,2016-03-15T12:57:32+06:00,
1000000000125491,77023366195,mKcell,mMTS,mKcell,D77,D02,2016-03-15T12:58:01+06:00,
1000000000125492,77024568619,mAltel,mKcell,mKcell,,D07,2016-03-15T12:58:12+06:00,
