NPId,Number,RecipientId,DonorId,RangeHolderId,OldRoute,NewRoute,PortDate,RowCount
1000000000232988,77771246509,mMTS,mKarTel,mKarTel,,D77,2016-08-23T14:34:04+06:00,16
1000000000232989,77026089707,mAltel,mKcell,mKcell,,D07,2016-08-23T14:32:24+06:00,
1000000000232990,77052601362,mKcell,mKarTel,mKarTel,,D02,2016-08-23T14:35:29+06:00,
1000000000232991,77054114455,mAltel,mKarTel,mKarTel,,D07,2016-08-23T14:37:31+06:00,
1000000000232993,77027300120,mAltel,mKcell,mKcell,,D07,2016-08-23T14:41:44+06:00,
1000000000232994,77073074827,mKcell,mMTS,mMTS,,D02,2016-08-23T14:42:38+06:00,
1000000000232996,77087733221,mKcell,mAltel,mAltel,,D02,2016-08-23T14:45:01+06:00,
1000000000232997,77057608890,mKcell,mKarTel,mKarTel,,D02,2016-08-23T14:47:10+06:00,
1000000000232998,77083000221,mKarTel,mAltel,mAltel,,D01,2016-08-23T14:45:51+06:00,
1000000000232999,77016666279,mMTS,mKcell,mKcell,,D77,2016-08-23T14:47:21+06:00,
1000000000233001,77773509104,mKcell,mKarTel,mKarTel,,D02,2016-08-23T14:53:21+06:00,
1000000000233002,77761201134,mAltel,mKarTel,mKarTel,,D07,2016-08-23T14:53:35+06:00,
1000000000233003,77782412407,mMTS,mKcell,mKcell,,D77,2016-08-23T14:52:25+06:00,
1000000000233005,77017663336,mMTS,mKcell,mKcell,,D77,2016-08-23T14:52:36+06:00,
1000000000233008,77019701860,mMTS,mKcell,mKcell,,D77,2016-08-23T14:57:54+06:00,
1000000000233009,77003009496,mKarTel,mAltel,mAltel,,D01,2016-08-23T14:59:17+06:00,
