NPId,Number,RecipientId,DonorId,RangeHolderId,OldRoute,NewRoute,PortDate,RowCount
1000000000181599,77075755530,mMTS,mKcell,mMTS,D02,D77,2016-05-26T16:30:54+06:00,30
1000000000181600,77019957599,mAltel,mKcell,mKcell,,D07,2016-05-26T16:31:18+06:00,
1000000000181601,77752069746,mMTS,mKcell,mKcell,,D77,2016-05-26T16:31:18+06:00,
1000000000181602,77082770201,mMTS,mAltel,mAltel,,D77,2016-05-26T16:31:49+06:00,
1000000000181603,77011000446,mKarTel,mKcell,mKcell,,D01,2016-05-26T16:32:55+06:00,
1000000000181605,77759657000,mMTS,mKcell,mKcell,,D77,2016-05-26T16:34:03+06:00,
1000000000181606,77472951990,mKcell,mMTS,mMTS,,D02,2016-05-26T16:34:58+06:00,
1000000000181607,77075460123,mAltel,mMTS,mMTS,,D07,2016-05-26T16:34:50+06:00,
1000000000181608,77017750505,mKcell,mKarTel,mKcell,D01,D02,2016-05-26T16:36:47+06:00,
1000000000181609,77071041500,mKcell,mMTS,mMTS,,D02,2016-05-26T16:37:04+06:00,
1000000000181610,77081455415,mMTS,mAltel,mAltel,,D77,2016-05-26T16:36:53+06:00,
1000000000181612,77771552250,mMTS,mAltel,mKarTel,D07,D77,2016-05-26T16:38:41+06:00,
1000000000181613,77712777979,mMTS,mAltel,mKarTel,D07,D77,2016-05-26T16:40:40+06:00,
1000000000181614,77000008585,mKarTel,mAltel,mAltel,,D01,2016-05-26T16:41:26+06:00,
1000000000181617,77754853335,mKcell,mMTS,mKcell,D77,D02,2016-05-26T16:45:12+06:00,
1000000000181618,77777358002,mMTS,mKarTel,mKarTel,,D77,2016-05-26T16:44:49+06:00,
1000000000181619,77001419286,mKcell,mAltel,mAltel,,D02,2016-05-26T16:46:15+06:00,
1000000000181620,77472226377,mKcell,mMTS,mMTS,,D02,2016-05-26T16:46:15+06:00,
1000000000181621,77773775897,mKcell,mKarTel,mKarTel,,D02,2016-05-26T16:46:30+06:00,
1000000000181622,77026659006,mKcell,mMTS,mKcell,D77,D02,2016-05-26T16:47:09+06:00,
1000000000181623,77770777127,mKcell,mKarTel,mKarTel,,D02,2016-05-26T16:48:05+06:00,
1000000000181626,77754771297,mMTS,mAltel,mKcell,D07,D77,2016-05-26T16:47:49+06:00,
1000000000181627,77000007577,mKarTel,mAltel,mAltel,,D01,2016-05-26T16:48:10+06:00,
1000000000181628,77081473147,mKcell,mAltel,mAltel,,D02,2016-05-26T16:49:54+06:00,
1000000000181630,77051201122,mAltel,mKarTel,mKarTel,,D07,2016-05-26T16:51:11+06:00,
1000000000181631,77051717673,mMTS,mKarTel,mKarTel,,D77,2016-05-26T16:52:29+06:00,
1000000000181633,77766667789,mKcell,mKarTel,mKarTel,,D02,2016-05-26T16:54:29+06:00,
1000000000181634,77784780201,mMTS,mKcell,mKcell,,D77,2016-05-26T16:56:18+06:00,
1000000000181635,77017119319,mKcell,mKarTel,mKcell,D01,D02,2016-05-26T16:57:43+06:00,
1000000000181636,77077774965,mKcell,mMTS,mMTS,,D02,2016-05-26T16:58:35+06:00,
