NPId,Number,RecipientId,DonorId,RangeHolderId,OldRoute,NewRoute,PortDate,RowCount
1000000000335654,77472255553,mMTS,mAltel,mMTS,D07,D77,2017-02-26T20:13:03+06:00,2
1000000000335655,77072002226,mMTS,mAltel,mMTS,D07,D77,2017-02-26T20:27:47+06:00,
