NPId,Number,RecipientId,DonorId,RangeHolderId,OldRoute,NewRoute,PortDate,RowCount
1000000000258465,77711331316,mMTS,mKarTel,mKarTel,,D77,2016-10-07T13:32:26+06:00,16
1000000000258468,77007778727,mMTS,mKarTel,mAltel,D01,D77,2016-10-07T13:34:02+06:00,
1000000000258469,77089681589,mMTS,mAltel,mAltel,,D77,2016-10-07T13:31:36+06:00,
1000000000258471,77007778747,mMTS,mKarTel,mAltel,D01,D77,2016-10-07T13:37:04+06:00,
1000000000258473,77772400980,mKarTel,mMTS,mKarTel,D77,D01,2016-10-07T13:35:31+06:00,
1000000000258474,77018257120,mMTS,mKcell,mKcell,,D77,2016-10-07T13:36:31+06:00,
1000000000258477,77766243099,mMTS,mKarTel,mKarTel,,D77,2016-10-07T13:43:25+06:00,
1000000000258479,77774404665,mMTS,mKarTel,mKarTel,,D77,2016-10-07T13:44:55+06:00,
1000000000258481,77754994283,mKarTel,mKcell,mKcell,,D01,2016-10-07T13:46:28+06:00,
1000000000258482,77785097897,mKcell,mMTS,mKcell,D77,D02,2016-10-07T13:45:26+06:00,
1000000000258483,77772321916,mKcell,mKarTel,mKarTel,,D02,2016-10-07T13:51:50+06:00,
1000000000258484,77053000604,mMTS,mKarTel,mKarTel,,D77,2016-10-07T13:51:33+06:00,
1000000000258485,77007778737,mMTS,mKarTel,mAltel,D01,D77,2016-10-07T13:53:06+06:00,
1000000000258488,77072977357,mAltel,mMTS,mMTS,,D07,2016-10-07T13:54:32+06:00,
1000000000258489,77072148054,mKarTel,mMTS,mMTS,,D01,2016-10-07T13:57:40+06:00,
1000000000258494,77026356615,mMTS,mKcell,mKcell,,D77,2016-10-07T13:59:38+06:00,
