NPId,Number,RecipientId,DonorId,RangeHolderId,OldRoute,NewRoute,PortDate,RowCount
1000000000090917,77472705316,mAltel,mMTS,mMTS,,D07,2016-02-17T13:00:00+06:00,36
1000000000090918,77472843477,mKcell,mMTS,mMTS,,D02,2016-02-17T13:00:31+06:00,
1000000000090921,77085580808,mMTS,mAltel,mAltel,,D77,2016-02-17T13:00:44+06:00,
1000000000090922,77077887991,mAltel,mMTS,mMTS,,D07,2016-02-17T13:00:55+06:00,
1000000000090923,77768287670,mMTS,mKarTel,mKarTel,,D77,2016-02-17T13:03:19+06:00,
1000000000090924,77773870066,mKcell,mKarTel,mKarTel,,D02,2016-02-17T13:04:06+06:00,
1000000000090925,77077720072,mKarTel,mMTS,mMTS,,D01,2016-02-17T13:04:28+06:00,
1000000000090926,77015243381,mAltel,mKcell,mKcell,,D07,2016-02-17T13:06:12+06:00,
1000000000090930,77018370900,mMTS,mKcell,mKcell,,D77,2016-02-17T13:07:15+06:00,
1000000000090931,77014474848,mMTS,mKcell,mKcell,,D77,2016-02-17T13:07:22+06:00,
1000000000090932,77017313407,mKarTel,mKcell,mKcell,,D01,2016-02-17T13:07:51+06:00,
1000000000090934,77785474721,mMTS,mKcell,mKcell,,D77,2016-02-17T13:08:10+06:00,
1000000000090936,77781337878,mMTS,mKcell,mKcell,,D77,2016-02-17T13:10:23+06:00,
1000000000090938,77027635151,mMTS,mKcell,mKcell,,D77,2016-02-17T13:12:06+06:00,
1000000000090939,77013932529,mMTS,mKcell,mKcell,,D77,2016-02-17T13:12:06+06:00,
1000000000090940,77077880252,mKcell,mMTS,mMTS,,D02,2016-02-17T13:12:37+06:00,
1000000000090942,77013820967,mMTS,mKcell,mKcell,,D77,2016-02-17T13:13:37+06:00,
1000000000090943,77752697769,mMTS,mKcell,mKcell,,D77,2016-02-17T13:13:43+06:00,
1000000000090944,77019005366,mAltel,mKcell,mKcell,,D07,2016-02-17T13:14:20+06:00,
1000000000090945,77018992108,mMTS,mKcell,mKcell,,D77,2016-02-17T13:14:56+06:00,
1000000000090946,77773336096,mKcell,mKarTel,mKarTel,,D02,2016-02-17T13:16:10+06:00,
1000000000090947,77076559025,mKarTel,mMTS,mMTS,,D01,2016-02-17T13:17:08+06:00,
1000000000090948,77055751331,mAltel,mKarTel,mKarTel,,D07,2016-02-17T13:17:28+06:00,
1000000000090949,77784233603,mAltel,mKcell,mKcell,,D07,2016-02-17T13:18:12+06:00,
1000000000090951,77477004646,mKarTel,mMTS,mMTS,,D01,2016-02-17T13:20:42+06:00,
1000000000090952,77789295816,mMTS,mKcell,mKcell,,D77,2016-02-17T13:20:42+06:00,
1000000000090953,77021222224,mMTS,mKcell,mKcell,,D77,2016-02-17T13:21:01+06:00,
1000000000090955,77753377776,mMTS,mKcell,mKcell,,D77,2016-02-17T13:21:54+06:00,
1000000000090956,77753692177,mAltel,mKcell,mKcell,,D07,2016-02-17T13:22:21+06:00,
1000000000090957,77714198624,mKcell,mKarTel,mKarTel,,D02,2016-02-17T13:23:03+06:00,
1000000000090958,77058886717,mMTS,mKarTel,mKarTel,,D77,2016-02-17T13:22:42+06:00,
1000000000090959,77751308464,mMTS,mKcell,mKcell,,D77,2016-02-17T13:23:09+06:00,
1000000000090961,77017624218,mAltel,mKcell,mKcell,,D07,2016-02-17T13:26:50+06:00,
1000000000090962,77016443245,mMTS,mKcell,mKcell,,D77,2016-02-17T13:27:05+06:00,
1000000000090965,77773336099,mKcell,mKarTel,mKarTel,,D02,2016-02-17T13:29:35+06:00,
1000000000090968,77071113137,mAltel,mMTS,mMTS,,D07,2016-02-17T13:29:58+06:00,
