NPId,Number,RecipientId,DonorId,RangeHolderId,OldRoute,NewRoute,PortDate,RowCount
1000000000241931,77075118522,mKarTel,mMTS,mMTS,,D01,2016-09-07T16:00:34+06:00,42
1000000000241932,77078161041,mKarTel,mMTS,mMTS,,D01,2016-09-07T16:01:00+06:00,
1000000000241933,77001125117,mAltel,mMTS,mAltel,D77,D07,2016-09-07T16:01:52+06:00,
1000000000241934,77072827001,mKcell,mMTS,mMTS,,D02,2016-09-07T16:02:04+06:00,
1000000000241935,77778540835,mMTS,mKarTel,mKarTel,,D77,2016-09-07T16:03:04+06:00,
1000000000241936,77473003530,mMTS,mKcell,mMTS,D02,D77,2016-09-07T16:02:26+06:00,
1000000000241937,77014076897,mMTS,mKcell,mKcell,,D77,2016-09-07T16:03:55+06:00,
1000000000241938,77075118525,mKarTel,mMTS,mMTS,,D01,2016-09-07T16:04:15+06:00,
1000000000241939,77013526670,mMTS,mKcell,mKcell,,D77,2016-09-07T16:04:33+06:00,
1000000000241940,77051490929,mMTS,mKarTel,mKarTel,,D77,2016-09-07T16:06:42+06:00,
1000000000241941,77001163352,mMTS,mAltel,mAltel,,D77,2016-09-07T16:07:24+06:00,
1000000000241942,77075118535,mKarTel,mMTS,mMTS,,D01,2016-09-07T16:07:49+06:00,
1000000000241943,77774187375,mMTS,mKarTel,mKarTel,,D77,2016-09-07T16:08:34+06:00,
1000000000241945,77076106203,mKarTel,mMTS,mMTS,,D01,2016-09-07T16:09:22+06:00,
1000000000241946,77079777390,mKcell,mMTS,mMTS,,D02,2016-09-07T16:10:25+06:00,
1000000000241948,77753592507,mKarTel,mKcell,mKcell,,D01,2016-09-07T16:11:03+06:00,
1000000000241949,77022979191,mMTS,mKcell,mKcell,,D77,2016-09-07T16:11:38+06:00,
1000000000241950,77075118545,mKarTel,mMTS,mMTS,,D01,2016-09-07T16:12:04+06:00,
1000000000241951,77475909095,mKarTel,mMTS,mMTS,,D01,2016-09-07T16:12:45+06:00,
1000000000241952,77072551980,mKcell,mMTS,mMTS,,D02,2016-09-07T16:13:10+06:00,
1000000000241954,77773197547,mMTS,mKarTel,mKarTel,,D77,2016-09-07T16:14:47+06:00,
1000000000241956,77017146914,mMTS,mKcell,mKcell,,D77,2016-09-07T16:15:02+06:00,
1000000000241960,77715269703,mMTS,mKarTel,mKarTel,,D77,2016-09-07T16:17:28+06:00,
1000000000241962,77004061356,mKarTel,mAltel,mAltel,,D01,2016-09-07T16:18:43+06:00,
1000000000241963,77710064505,mMTS,mKarTel,mKarTel,,D77,2016-09-07T16:19:00+06:00,
1000000000241965,77024491520,mKcell,mAltel,mKcell,D07,D02,2016-09-07T16:19:12+06:00,
1000000000241966,77751767472,mKcell,mMTS,mKcell,D77,D02,2016-09-07T16:19:18+06:00,
1000000000241967,77773666638,mMTS,mKarTel,mKarTel,D01,D77,2016-09-07T16:19:48+06:00,
1000000000241970,77770060247,mMTS,mKarTel,mKarTel,,D77,2016-09-07T16:20:21+06:00,
1000000000241972,77005530058,mMTS,mAltel,mAltel,,D77,2016-09-07T16:21:25+06:00,
1000000000241973,77017427016,mKcell,mMTS,mKcell,D77,D02,2016-09-07T16:22:22+06:00,
1000000000241974,77477720404,mKcell,mMTS,mMTS,,D02,2016-09-07T16:22:34+06:00,
1000000000241975,77719000775,mMTS,mKarTel,mKarTel,,D77,2016-09-07T16:22:56+06:00,
1000000000241976,77018279127,mAltel,mKarTel,mKcell,D01,D07,2016-09-07T16:23:28+06:00,
1000000000241979,77719000774,mMTS,mKarTel,mKarTel,,D77,2016-09-07T16:24:29+06:00,
1000000000241980,77074440802,mKarTel,mMTS,mMTS,,D01,2016-09-07T16:24:18+06:00,
1000000000241981,77085331350,mAltel,mMTS,mAltel,D77,D07,2016-09-07T16:24:10+06:00,
1000000000241983,77052820785,mKcell,mKarTel,mKarTel,,D02,2016-09-07T16:24:57+06:00,
1000000000241984,77021358835,mKcell,mMTS,mKcell,D77,D02,2016-09-07T16:24:47+06:00,
1000000000241985,77057934627,mMTS,mKarTel,mKarTel,,D77,2016-09-07T16:26:05+06:00,
1000000000241986,77775809090,mMTS,mKarTel,mKarTel,,D77,2016-09-07T16:26:57+06:00,
1000000000241987,77058633936,mMTS,mKarTel,mKarTel,,D77,2016-09-07T16:28:46+06:00,
