NPId,Number,RecipientId,DonorId,RangeHolderId,OldRoute,NewRoute,PortDate,RowCount
1000000000402887,77015226002,mKarTel,mKcell,mKcell,,D01,2017-06-14T13:26:24+06:00,21
1000000000403056,77774983456,mKcell,mKarTel,mKarTel,,D02,2017-06-14T13:01:20+06:00,
1000000000403057,77089015583,mKcell,mAltel,mAltel,,D02,2017-06-14T13:01:27+06:00,
1000000000403058,77073762621,mKarTel,mMTS,mMTS,,D01,2017-06-14T13:02:07+06:00,
1000000000403059,77017882466,mKarTel,mKcell,mKcell,,D01,2017-06-14T13:02:27+06:00,
1000000000403060,77756254583,mAltel,mKcell,mKcell,,D07,2017-06-14T13:03:41+06:00,
1000000000403061,77017726462,mAltel,mKcell,mKcell,,D07,2017-06-14T13:05:06+06:00,
1000000000403064,77782604083,mAltel,mKcell,mKcell,,D07,2017-06-14T13:10:00+06:00,
1000000000403065,77770826824,mMTS,mKarTel,mKarTel,,D77,2017-06-14T13:10:30+06:00,
1000000000403067,77000011777,mKcell,mAltel,mAltel,,D02,2017-06-14T13:12:13+06:00,
1000000000403068,77076964469,mKcell,mMTS,mMTS,,D02,2017-06-14T13:14:54+06:00,
1000000000403069,77770826823,mMTS,mKarTel,mKarTel,,D77,2017-06-14T13:17:33+06:00,
1000000000403070,77475000019,mKcell,mMTS,mMTS,,D02,2017-06-14T13:18:06+06:00,
1000000000403071,77025697278,mAltel,mKcell,mKcell,,D07,2017-06-14T13:19:05+06:00,
1000000000403072,77071172717,mKarTel,mMTS,mMTS,,D01,2017-06-14T13:21:38+06:00,
1000000000403073,77761118828,mMTS,mKcell,mKarTel,D02,D77,2017-06-14T13:22:03+06:00,
1000000000403074,77052525417,mMTS,mKarTel,mKarTel,,D77,2017-06-14T13:23:40+06:00,
1000000000403075,77717799909,mKarTel,mAltel,mKarTel,D07,D01,2017-06-14T13:25:23+06:00,
1000000000403076,77071616589,mAltel,mMTS,mMTS,,D07,2017-06-14T13:26:06+06:00,
1000000000403077,77017755232,mMTS,mKcell,mKcell,,D77,2017-06-14T13:26:40+06:00,
1000000000403078,77769827777,mKcell,mAltel,mKarTel,D07,D02,2017-06-14T13:26:50+06:00,
