NPId,Number,RecipientId,DonorId,RangeHolderId,OldRoute,NewRoute,PortDate,RowCount
1000000000423671,77017130616,mKcell,mKarTel,mKcell,D01,D02,2017-07-18T12:33:23+06:00,33
1000000000423708,77754560168,mMTS,mKcell,mKcell,,D77,2017-07-18T12:30:11+06:00,
1000000000423709,77013330309,mKarTel,mKcell,mKcell,,D01,2017-07-18T12:30:43+06:00,
1000000000423711,77059035151,mAltel,mKarTel,mKarTel,,D07,2017-07-18T12:31:35+06:00,
1000000000423713,77751814566,mMTS,mKcell,mKcell,,D77,2017-07-18T12:32:35+06:00,
1000000000423715,77077955255,mKcell,mMTS,mMTS,,D02,2017-07-18T12:34:03+06:00,
1000000000423717,77028317209,mKcell,mMTS,mKcell,D77,D02,2017-07-18T12:34:39+06:00,
1000000000423718,77753995659,mMTS,mKcell,mKcell,,D77,2017-07-18T12:34:42+06:00,
1000000000423719,77757180818,mAltel,mKcell,mKcell,,D07,2017-07-18T12:34:42+06:00,
1000000000423721,77011683396,mMTS,mKcell,mKcell,,D77,2017-07-18T12:35:49+06:00,
1000000000423724,77759246144,mMTS,mKcell,mKcell,,D77,2017-07-18T12:40:31+06:00,
1000000000423725,77016857733,mMTS,mKcell,mKcell,,D77,2017-07-18T12:42:15+06:00,
1000000000423726,77756099653,mMTS,mKcell,mKcell,,D77,2017-07-18T12:43:29+06:00,
1000000000423727,77012106526,mAltel,mKcell,mKcell,,D07,2017-07-18T12:44:01+06:00,
1000000000423728,77011913708,mKcell,mAltel,mKcell,D07,D02,2017-07-18T12:46:01+06:00,
1000000000423729,77019998905,mKarTel,mKcell,mKcell,,D01,2017-07-18T12:46:45+06:00,
1000000000423730,77003687932,mMTS,mAltel,mAltel,,D77,2017-07-18T12:47:00+06:00,
1000000000423731,77081465769,mMTS,mAltel,mAltel,,D77,2017-07-18T12:47:34+06:00,
1000000000423732,77754501573,mMTS,mKcell,mKcell,,D77,2017-07-18T12:47:55+06:00,
1000000000423735,77754598350,mMTS,mKcell,mKcell,,D77,2017-07-18T12:51:10+06:00,
1000000000423737,77025442555,mKcell,mMTS,mKcell,D77,D02,2017-07-18T12:52:23+06:00,
1000000000423738,77010907222,mAltel,mMTS,mKcell,D77,D07,2017-07-18T12:52:35+06:00,
1000000000423739,77756372174,mMTS,mKcell,mKcell,,D77,2017-07-18T12:53:16+06:00,
1000000000423740,77759839040,mMTS,mKcell,mKcell,,D77,2017-07-18T12:55:18+06:00,
1000000000423741,77473335508,mAltel,mMTS,mMTS,,D07,2017-07-18T12:55:28+06:00,
1000000000423743,77471778383,mMTS,mKarTel,mMTS,D01,D77,2017-07-18T12:56:11+06:00,
1000000000423746,77756962195,mMTS,mKcell,mKcell,,D77,2017-07-18T12:56:37+06:00,
1000000000423748,77058743924,mMTS,mKarTel,mKarTel,,D77,2017-07-18T12:57:14+06:00,
1000000000423749,77756792051,mMTS,mKcell,mKcell,,D77,2017-07-18T12:58:00+06:00,
1000000000423750,77027530224,mMTS,mKcell,mKcell,,D77,2017-07-18T12:58:30+06:00,
1000000000423751,77754044294,mMTS,mKcell,mKcell,,D77,2017-07-18T12:59:08+06:00,
1000000000423752,77778788383,mKarTel,mKcell,mKarTel,D02,D01,2017-07-18T12:59:38+06:00,
1000000000423753,77014229122,mKarTel,mKcell,mKcell,,D01,2017-07-18T12:59:58+06:00,
