NPId,Number,RecipientId,DonorId,RangeHolderId,OldRoute,NewRoute,PortDate,RowCount
1000000000177569,77052266717,mMTS,mKarTel,mKarTel,,D77,2016-05-19T18:01:28+06:00,28
1000000000177570,77777340767,mAltel,mKarTel,mKarTel,,D07,2016-05-19T18:02:01+06:00,
1000000000177572,77004447595,mKcell,mAltel,mAltel,,D02,2016-05-19T18:03:07+06:00,
1000000000177574,77000960960,mKcell,mAltel,mAltel,,D02,2016-05-19T18:04:44+06:00,
1000000000177575,77751007575,mMTS,mKcell,mKcell,,D77,2016-05-19T18:05:48+06:00,
1000000000177577,77756333336,mKcell,mKarTel,mKcell,D01,D02,2016-05-19T18:08:57+06:00,
1000000000177578,77757251685,mKarTel,mKcell,mKcell,,D01,2016-05-19T18:08:47+06:00,
1000000000177581,77772186060,mMTS,mKarTel,mKarTel,,D77,2016-05-19T18:07:31+06:00,
1000000000177582,77716888388,mMTS,mKarTel,mKarTel,,D77,2016-05-19T18:08:37+06:00,
1000000000177583,77073422352,mKcell,mMTS,mMTS,,D02,2016-05-19T18:09:42+06:00,
1000000000177584,77711379157,mMTS,mKarTel,mKarTel,,D77,2016-05-19T18:09:38+06:00,
1000000000177585,77001959959,mKcell,mAltel,mAltel,,D02,2016-05-19T18:10:01+06:00,
1000000000177587,77772675533,mMTS,mKarTel,mKarTel,,D77,2016-05-19T18:12:07+06:00,
1000000000177588,77015535316,mMTS,mKcell,mKcell,,D77,2016-05-19T18:13:12+06:00,
1000000000177590,77075858000,mKarTel,mMTS,mMTS,,D01,2016-05-19T18:14:47+06:00,
1000000000177591,77081727711,mMTS,mAltel,mAltel,,D77,2016-05-19T18:15:01+06:00,
1000000000177593,77019088998,mMTS,mKcell,mKcell,,D77,2016-05-19T18:17:24+06:00,
1000000000177594,77081774414,mMTS,mAltel,mAltel,,D77,2016-05-19T18:17:20+06:00,
1000000000177595,77057694532,mMTS,mKarTel,mKarTel,,D77,2016-05-19T18:18:00+06:00,
1000000000177596,77001509188,mMTS,mAltel,mAltel,,D77,2016-05-19T18:17:42+06:00,
1000000000177597,77017814868,mAltel,mKcell,mKcell,,D07,2016-05-19T18:19:01+06:00,
1000000000177598,77015111994,mAltel,mKcell,mKcell,,D07,2016-05-19T18:23:15+06:00,
1000000000177600,77021090706,mMTS,mKcell,mKcell,,D77,2016-05-19T18:23:14+06:00,
1000000000177601,77011791101,mMTS,mKcell,mKcell,,D77,2016-05-19T18:23:14+06:00,
1000000000177602,77018509808,mMTS,mKcell,mKcell,,D77,2016-05-19T18:24:27+06:00,
1000000000177603,77777778810,mKcell,mKarTel,mKarTel,,D02,2016-05-19T18:25:08+06:00,
1000000000177606,77772763069,mMTS,mKarTel,mKarTel,,D77,2016-05-19T18:27:37+06:00,
1000000000177608,77789376606,mMTS,mKcell,mKcell,,D77,2016-05-19T18:29:05+06:00,
