NPId,Number,RecipientId,DonorId,RangeHolderId,OldRoute,NewRoute,PortDate,RowCount
1000000000090614,77714198532,mKcell,mKarTel,mKarTel,,D02,2016-02-17T09:35:44+06:00,13
1000000000090616,77021110309,mAltel,mKcell,mKcell,,D07,2016-02-17T09:37:17+06:00,
1000000000090617,77713473804,mMTS,mKarTel,mKarTel,,D77,2016-02-17T09:38:05+06:00,
1000000000090618,77088660001,mKarTel,mAltel,mAltel,,D01,2016-02-17T09:38:00+06:00,
1000000000090620,77088660007,mKarTel,mAltel,mAltel,,D01,2016-02-17T09:38:55+06:00,
1000000000090622,77018556524,mKarTel,mKcell,mKcell,,D01,2016-02-17T09:40:30+06:00,
1000000000090623,77077772336,mKarTel,mMTS,mMTS,,D01,2016-02-17T09:40:32+06:00,
1000000000090626,77072280000,mKcell,mMTS,mMTS,,D02,2016-02-17T09:43:13+06:00,
1000000000090627,77772721515,mMTS,mKarTel,mKarTel,,D77,2016-02-17T09:44:22+06:00,
1000000000090628,77054347374,mAltel,mKarTel,mKarTel,,D07,2016-02-17T09:46:15+06:00,
1000000000090629,77012224907,mKarTel,mKcell,mKcell,,D01,2016-02-17T09:48:50+06:00,
1000000000090630,77076030917,mKcell,mMTS,mMTS,,D02,2016-02-17T09:52:44+06:00,
1000000000090634,77765548484,mAltel,mKarTel,mKarTel,,D07,2016-02-17T09:59:00+06:00,
