NPId,Number,RecipientId,DonorId,RangeHolderId,OldRoute,NewRoute,PortDate,RowCount
1000000000402588,77071229595,mAltel,mKcell,mMTS,D02,D07,2017-06-13T15:30:04+06:00,26
1000000000402589,77009395529,mKcell,mAltel,mAltel,,D02,2017-06-13T15:31:03+06:00,
1000000000402592,77011230705,mKarTel,mKcell,mKcell,,D01,2017-06-13T15:33:35+06:00,
1000000000402593,77782220605,mKarTel,mAltel,mKcell,D07,D01,2017-06-13T15:33:40+06:00,
1000000000402594,77072030399,mKarTel,mMTS,mMTS,,D01,2017-06-13T15:34:25+06:00,
1000000000402596,77026190004,mKarTel,mKcell,mKcell,,D01,2017-06-13T15:36:39+06:00,
1000000000402597,77711700005,mMTS,mKarTel,mKarTel,,D77,2017-06-13T15:36:47+06:00,
1000000000402598,77021757794,mAltel,mKcell,mKcell,,D07,2017-06-13T15:37:05+06:00,
1000000000402600,77018494040,mMTS,mKcell,mKcell,,D77,2017-06-13T15:39:06+06:00,
1000000000402602,77761502363,mKcell,mKarTel,mKarTel,,D02,2017-06-13T15:42:12+06:00,
1000000000402603,77715755755,mKcell,mKarTel,mKarTel,,D02,2017-06-13T15:43:01+06:00,
1000000000402604,77077056112,mAltel,mMTS,mMTS,,D07,2017-06-13T15:42:47+06:00,
1000000000402605,77085098122,mKcell,mAltel,mAltel,D07,D02,2017-06-13T15:43:16+06:00,
1000000000402606,77071990915,mMTS,mKcell,mMTS,D02,D77,2017-06-13T15:43:20+06:00,
1000000000402607,77017727447,mKarTel,mKcell,mKcell,,D01,2017-06-13T15:43:57+06:00,
1000000000402609,77767869070,mAltel,mKarTel,mKarTel,,D07,2017-06-13T15:45:32+06:00,
1000000000402611,77028825566,mMTS,mKcell,mKcell,,D77,2017-06-13T15:46:36+06:00,
1000000000402612,77754464445,mKcell,mKarTel,mKcell,D01,D02,2017-06-13T15:47:25+06:00,
1000000000402613,77003888818,mMTS,mAltel,mAltel,,D77,2017-06-13T15:46:53+06:00,
1000000000402615,77017126235,mKarTel,mKcell,mKcell,,D01,2017-06-13T15:47:27+06:00,
1000000000402618,77778335454,mMTS,mKarTel,mKarTel,,D77,2017-06-13T15:48:31+06:00,
1000000000402620,77779130505,mKcell,mKarTel,mKarTel,,D02,2017-06-13T15:50:08+06:00,
1000000000402621,77476471965,mKarTel,mMTS,mMTS,,D01,2017-06-13T15:50:32+06:00,
1000000000402623,77756620452,mKarTel,mKcell,mKcell,,D01,2017-06-13T15:51:36+06:00,
1000000000402625,77027510808,mMTS,mKcell,mKcell,,D77,2017-06-13T15:52:18+06:00,
1000000000402628,77081238001,mKcell,mAltel,mAltel,,D02,2017-06-13T15:58:41+06:00,
