NPId,Number,RecipientId,DonorId,RangeHolderId,OldRoute,NewRoute,PortDate,RowCount
1000000000382733,77026021207,mKarTel,mKcell,mKcell,,D01,2017-05-13T18:32:07+06:00,10
1000000000382734,77055497371,mMTS,mKarTel,mKarTel,,D77,2017-05-13T18:33:14+06:00,
1000000000382735,77029565714,mMTS,mKcell,mKcell,,D77,2017-05-13T18:32:50+06:00,
1000000000382736,77073506307,mKarTel,mMTS,mMTS,,D01,2017-05-13T18:33:32+06:00,
1000000000382737,77000001050,mKcell,mAltel,mAltel,,D02,2017-05-13T18:42:16+06:00,
1000000000382738,77000200666,mMTS,mAltel,mAltel,,D77,2017-05-13T18:42:01+06:00,
1000000000382739,77014183338,mAltel,mKcell,mKcell,,D07,2017-05-13T18:49:30+06:00,
1000000000382740,77076050844,mKcell,mMTS,mMTS,,D02,2017-05-13T18:50:29+06:00,
1000000000382741,77717490426,mMTS,mKarTel,mKarTel,,D77,2017-05-13T18:53:14+06:00,
1000000000382742,77005528850,mMTS,mKcell,mAltel,D02,D77,2017-05-13T18:57:34+06:00,
