NPId,Number,RecipientId,DonorId,RangeHolderId,OldRoute,NewRoute,PortDate,RowCount
1000000000304034,77771895164,mAltel,mKarTel,mKarTel,,D07,2016-12-31T15:06:10+06:00,12
1000000000304035,77074080080,mKarTel,mMTS,mMTS,,D01,2016-12-31T15:06:02+06:00,
1000000000304039,77026142030,mMTS,mKcell,mKcell,,D77,2016-12-31T15:06:07+06:00,
1000000000304040,77760161818,mKcell,mKarTel,mKarTel,,D02,2016-12-31T15:10:04+06:00,
1000000000304045,77054217760,mKarTel,mAltel,mKarTel,D07,D01,2016-12-31T15:19:37+06:00,
1000000000304047,77073277074,mKcell,mMTS,mMTS,,D02,2016-12-31T15:22:30+06:00,
1000000000304048,77015500434,mKarTel,mKcell,mKcell,,D01,2016-12-31T15:22:43+06:00,
1000000000304049,77776344340,mMTS,mKarTel,mKarTel,,D77,2016-12-31T15:22:52+06:00,
1000000000304051,77471586848,mAltel,mMTS,mMTS,,D07,2016-12-31T15:23:21+06:00,
1000000000304052,77051111203,mKcell,mKarTel,mKarTel,,D02,2016-12-31T15:23:47+06:00,
1000000000304053,77772270807,mAltel,mKarTel,mKarTel,,D07,2016-12-31T15:26:56+06:00,
1000000000304054,77784888850,mKarTel,mAltel,mKcell,D07,D01,2016-12-31T15:28:54+06:00,
