NPId,Number,RecipientId,DonorId,RangeHolderId,OldRoute,NewRoute,PortDate,RowCount
1000000000199315,77772753388,mMTS,mKarTel,mKarTel,,D77,2016-06-24T17:00:39+06:00,30
1000000000199316,77001165037,mMTS,mAltel,mAltel,,D77,2016-06-24T17:00:39+06:00,
1000000000199317,77080909090,mKcell,mAltel,mAltel,,D02,2016-06-24T17:01:34+06:00,
1000000000199318,77783623322,mAltel,mKcell,mKcell,,D07,2016-06-24T17:02:09+06:00,
1000000000199319,77028883583,mKcell,mAltel,mKcell,D07,D02,2016-06-24T17:03:13+06:00,
1000000000199320,77078115111,mKcell,mMTS,mMTS,,D02,2016-06-24T17:03:12+06:00,
1000000000199321,77053300500,mMTS,mKarTel,mKarTel,,D77,2016-06-24T17:03:29+06:00,
1000000000199322,77019912002,mKarTel,mKcell,mKcell,,D01,2016-06-24T17:04:32+06:00,
1000000000199323,77085285454,mMTS,mAltel,mAltel,,D77,2016-06-24T17:06:16+06:00,
1000000000199324,77012370004,mKcell,mAltel,mKcell,D07,D02,2016-06-24T17:08:25+06:00,
1000000000199325,77717777714,mKcell,mKarTel,mKarTel,,D02,2016-06-24T17:08:26+06:00,
1000000000199327,77053029085,mKcell,mKarTel,mKarTel,,D02,2016-06-24T17:09:48+06:00,
1000000000199328,77028520998,mKcell,mMTS,mKcell,D77,D02,2016-06-24T17:09:18+06:00,
1000000000199330,77023080948,mMTS,mAltel,mKcell,D07,D77,2016-06-24T17:09:54+06:00,
1000000000199331,77758555761,mMTS,mKcell,mKcell,,D77,2016-06-24T17:11:51+06:00,
1000000000199332,77015703578,mMTS,mKcell,mKcell,,D77,2016-06-24T17:14:26+06:00,
1000000000199334,77472808181,mKcell,mMTS,mMTS,,D02,2016-06-24T17:15:39+06:00,
1000000000199335,77054880145,mAltel,mKarTel,mKarTel,,D07,2016-06-24T17:15:21+06:00,
1000000000199336,77013723475,mMTS,mKcell,mKcell,,D77,2016-06-24T17:23:50+06:00,
1000000000199337,77757331179,mAltel,mKcell,mKcell,,D07,2016-06-24T17:23:50+06:00,
1000000000199338,77475011693,mMTS,mKcell,mMTS,D02,D77,2016-06-24T17:23:50+06:00,
1000000000199340,77028881340,mMTS,mKarTel,mKcell,D01,D77,2016-06-24T17:21:29+06:00,
1000000000199343,77719077575,mMTS,mKarTel,mKarTel,,D77,2016-06-24T17:22:54+06:00,
1000000000199345,77057750046,mMTS,mKarTel,mKarTel,,D77,2016-06-24T17:24:02+06:00,
1000000000199348,77083506000,mKcell,mAltel,mAltel,,D02,2016-06-24T17:26:45+06:00,
1000000000199349,77073332463,mKcell,mMTS,mMTS,,D02,2016-06-24T17:26:46+06:00,
1000000000199350,77779805400,mMTS,mKarTel,mKarTel,,D77,2016-06-24T17:25:13+06:00,
1000000000199351,77475188181,mKcell,mMTS,mMTS,,D02,2016-06-24T17:26:43+06:00,
1000000000199352,77013061662,mKcell,mAltel,mKcell,D07,D02,2016-06-24T17:26:44+06:00,
1000000000199356,77476665055,mAltel,mMTS,mMTS,,D07,2016-06-24T17:27:43+06:00,
