NPId,Number,RecipientId,DonorId,RangeHolderId,OldRoute,NewRoute,PortDate,RowCount
1000000000435563,77010222008,mAltel,mKcell,mKcell,,D07,2017-08-05T18:46:03+06:00,7
1000000000435564,77017418132,mMTS,mKcell,mKcell,,D77,2017-08-05T18:48:21+06:00,
1000000000435565,77789290651,mKarTel,mMTS,mKcell,D77,D01,2017-08-05T18:49:29+06:00,
1000000000435566,77082660209,mKcell,mMTS,mAltel,D77,D02,2017-08-05T18:53:16+06:00,
1000000000435567,77077277017,mKcell,mMTS,mMTS,D77,D02,2017-08-05T18:54:49+06:00,
1000000000435570,77051801579,mKcell,mKarTel,mKarTel,,D02,2017-08-05T18:57:27+06:00,
1000000000435571,77753552888,mKcell,mMTS,mKcell,D77,D02,2017-08-05T18:57:54+06:00,
