NPId,Number,RecipientId,DonorId,RangeHolderId,OldRoute,NewRoute,PortDate,RowCount
1000000000172173,77478778434,mKcell,mMTS,mMTS,,D02,2016-05-11T18:00:25+06:00,36
1000000000172174,77788869630,mMTS,mKcell,mKcell,,D77,2016-05-11T18:00:32+06:00,
1000000000172175,77756010306,mMTS,mKcell,mKcell,,D77,2016-05-11T18:01:30+06:00,
1000000000172176,77083070995,mMTS,mAltel,mAltel,,D77,2016-05-11T18:01:00+06:00,
1000000000172177,77018490053,mMTS,mKcell,mKcell,,D77,2016-05-11T18:01:30+06:00,
1000000000172178,77052061323,mKarTel,mKcell,mKarTel,D02,D01,2016-05-11T18:02:55+06:00,
1000000000172179,77082046901,mMTS,mAltel,mAltel,,D77,2016-05-11T18:02:39+06:00,
1000000000172181,77012708444,mAltel,mKcell,mKcell,,D07,2016-05-11T18:03:57+06:00,
1000000000172182,77710270964,mMTS,mKarTel,mKarTel,,D77,2016-05-11T18:03:51+06:00,
1000000000172186,77719777755,mKcell,mKarTel,mKarTel,,D02,2016-05-11T18:06:42+06:00,
1000000000172187,77029777497,mMTS,mKcell,mKcell,,D77,2016-05-11T18:10:24+06:00,
1000000000172188,77776420456,mMTS,mKarTel,mKarTel,,D77,2016-05-11T18:10:40+06:00,
1000000000172189,77017544592,mMTS,mKcell,mKcell,,D77,2016-05-11T18:11:28+06:00,
1000000000172190,77471474737,mKcell,mMTS,mMTS,,D02,2016-05-11T18:12:05+06:00,
1000000000172191,77085328656,mMTS,mAltel,mAltel,,D77,2016-05-11T18:11:22+06:00,
1000000000172192,77763438000,mKcell,mKarTel,mKarTel,,D02,2016-05-11T18:15:36+06:00,
1000000000172193,77087317419,mKcell,mAltel,mAltel,,D02,2016-05-11T18:15:37+06:00,
1000000000172194,77017661192,mMTS,mKcell,mKcell,,D77,2016-05-11T18:15:54+06:00,
1000000000172195,77015558661,mAltel,mKcell,mKcell,,D07,2016-05-11T18:16:31+06:00,
1000000000172196,77011051099,mMTS,mKcell,mKcell,,D77,2016-05-11T18:16:56+06:00,
1000000000172197,77074774440,mMTS,mAltel,mMTS,D07,D77,2016-05-11T18:18:49+06:00,
1000000000172198,77477875153,mAltel,mMTS,mMTS,,D07,2016-05-11T18:19:22+06:00,
1000000000172200,77083597334,mKcell,mAltel,mAltel,,D02,2016-05-11T18:21:29+06:00,
1000000000172201,77075186093,mKcell,mMTS,mMTS,,D02,2016-05-11T18:21:29+06:00,
1000000000172202,77011000262,mKarTel,mKcell,mKcell,,D01,2016-05-11T18:22:00+06:00,
1000000000172204,77017654156,mKcell,mAltel,mKcell,D07,D02,2016-05-11T18:22:45+06:00,
1000000000172206,77017573617,mMTS,mKcell,mKcell,,D77,2016-05-11T18:22:21+06:00,
1000000000172207,77017573619,mMTS,mKcell,mKcell,,D77,2016-05-11T18:23:15+06:00,
1000000000172208,77471626622,mAltel,mMTS,mMTS,,D07,2016-05-11T18:23:02+06:00,
1000000000172211,77025777263,mKcell,mAltel,mKcell,D07,D02,2016-05-11T18:26:31+06:00,
1000000000172212,77012378555,mMTS,mKcell,mKcell,,D77,2016-05-11T18:26:23+06:00,
1000000000172213,77089579968,mMTS,mAltel,mAltel,,D77,2016-05-11T18:26:27+06:00,
1000000000172215,77715515505,mMTS,mKarTel,mKarTel,,D77,2016-05-11T18:27:11+06:00,
1000000000172216,77001991700,mMTS,mAltel,mAltel,,D77,2016-05-11T18:27:03+06:00,
1000000000172217,77472070700,mAltel,mMTS,mMTS,,D07,2016-05-11T18:29:04+06:00,
1000000000172218,77082386070,mMTS,mAltel,mAltel,,D77,2016-05-11T18:29:16+06:00,
