NPId,Number,RecipientId,DonorId,RangeHolderId,OldRoute,NewRoute,PortDate,RowCount
1000000000365541,77022743600,mMTS,mKcell,mKcell,,D77,2017-04-13T20:01:55+06:00,2
1000000000365543,77773304499,mKcell,mKarTel,mKarTel,,D02,2017-04-13T20:14:08+06:00,
