NPId,Number,RecipientId,DonorId,RangeHolderId,OldRoute,NewRoute,PortDate,RowCount
1000000000212628,77018818081,mKcell,mMTS,mKcell,D77,D02,2016-07-17T13:02:41+06:00,9
1000000000212629,77086873055,mMTS,mAltel,mAltel,,D77,2016-07-17T13:03:59+06:00,
1000000000212630,77077591310,mAltel,mMTS,mMTS,,D07,2016-07-17T13:04:58+06:00,
1000000000212631,77076131101,mMTS,mKcell,mMTS,D02,D77,2016-07-17T13:07:59+06:00,
1000000000212632,77712446188,mMTS,mKarTel,mKarTel,,D77,2016-07-17T13:09:55+06:00,
1000000000212633,77779976277,mKarTel,mMTS,mKarTel,D77,D01,2016-07-17T13:11:28+06:00,
1000000000212634,77779801193,mMTS,mKarTel,mKarTel,,D77,2016-07-17T13:18:04+06:00,
1000000000212635,77019141697,mKarTel,mKcell,mKcell,,D01,2016-07-17T13:26:04+06:00,
1000000000212639,77051016162,mMTS,mKarTel,mKarTel,,D77,2016-07-17T13:28:35+06:00,
