NPId,Number,RecipientId,DonorId,RangeHolderId,OldRoute,NewRoute,PortDate,RowCount
1000000000269639,77012240933,mKarTel,mKcell,mKcell,,D01,2016-10-31T10:02:15+06:00,22
1000000000269639,77017164495,mKarTel,mKcell,mKcell,,D01,2016-10-31T10:02:15+06:00,
1000000000269639,77017170808,mKarTel,mKcell,mKcell,,D01,2016-10-31T10:02:15+06:00,
1000000000269639,77017173080,mKarTel,mKcell,mKcell,,D01,2016-10-31T10:02:15+06:00,
1000000000269639,77017306537,mKarTel,mKcell,mKcell,,D01,2016-10-31T10:02:15+06:00,
1000000000269639,77017559734,mKarTel,mKcell,mKcell,,D01,2016-10-31T10:02:15+06:00,
1000000000270598,77016004160,mMTS,mKcell,mKcell,,D77,2016-10-31T10:02:38+06:00,
1000000000270601,77019005760,mMTS,mKcell,mKcell,,D77,2016-10-31T10:03:09+06:00,
1000000000270603,77015583536,mAltel,mMTS,mKcell,D77,D07,2016-10-31T10:06:08+06:00,
1000000000270604,77012104740,mKarTel,mKcell,mKcell,,D01,2016-10-31T10:08:01+06:00,
1000000000270605,77072011505,mAltel,mMTS,mMTS,,D07,2016-10-31T10:07:51+06:00,
1000000000270606,77002241717,mMTS,mAltel,mAltel,,D77,2016-10-31T10:08:28+06:00,
1000000000270610,77773288484,mMTS,mKarTel,mKarTel,,D77,2016-10-31T10:14:01+06:00,
1000000000270611,77017679087,mMTS,mKcell,mKcell,,D77,2016-10-31T10:14:49+06:00,
1000000000270612,77753895353,mMTS,mKcell,mKcell,,D77,2016-10-31T10:15:15+06:00,
1000000000270613,77059892769,mMTS,mKarTel,mKarTel,,D77,2016-10-31T10:16:06+06:00,
1000000000270614,77075448727,mKarTel,mMTS,mMTS,,D01,2016-10-31T10:17:19+06:00,
1000000000270616,77776128880,mKarTel,mMTS,mKarTel,D77,D01,2016-10-31T10:21:23+06:00,
1000000000270620,77750004996,mAltel,mKcell,mKcell,,D07,2016-10-31T10:26:25+06:00,
1000000000270621,77472227139,mMTS,mAltel,mMTS,D07,D77,2016-10-31T10:26:25+06:00,
1000000000270622,77051255443,mMTS,mKarTel,mKarTel,,D77,2016-10-31T10:27:08+06:00,
1000000000270623,77016555388,mKarTel,mKcell,mKcell,,D01,2016-10-31T10:27:26+06:00,
