NPId,Number,RecipientId,DonorId,RangeHolderId,OldRoute,NewRoute,PortDate,RowCount
1000000000268071,77026703306,mMTS,mKcell,mKcell,,D77,2016-10-25T17:32:50+06:00,12
1000000000268072,77757715577,mMTS,mKcell,mKcell,,D77,2016-10-25T17:37:41+06:00,
1000000000268074,77784810048,mAltel,mKcell,mKcell,,D07,2016-10-25T17:40:43+06:00,
1000000000268075,77055387375,mMTS,mKarTel,mKarTel,,D77,2016-10-25T17:44:58+06:00,
1000000000268076,77759220036,mMTS,mKcell,mKcell,,D77,2016-10-25T17:45:35+06:00,
1000000000268077,77767233338,mMTS,mKarTel,mKarTel,,D77,2016-10-25T17:47:00+06:00,
1000000000268078,77775967828,mKarTel,mMTS,mKarTel,D77,D01,2016-10-25T17:47:24+06:00,
1000000000268079,77005301515,mKcell,mAltel,mAltel,,D02,2016-10-25T17:49:55+06:00,
1000000000268083,77001011991,mKcell,mAltel,mAltel,,D02,2016-10-25T17:58:21+06:00,
1000000000268084,77028189454,mKarTel,mKcell,mKcell,,D01,2016-10-25T17:58:47+06:00,
1000000000268085,77711631515,mKcell,mKarTel,mKarTel,,D02,2016-10-25T17:58:55+06:00,
1000000000268086,77015274565,mAltel,mKcell,mKcell,,D07,2016-10-25T17:59:43+06:00,
