NPId,Number,RecipientId,DonorId,RangeHolderId,OldRoute,NewRoute,PortDate,RowCount
1000000000149513,77473022332,mKcell,mMTS,mMTS,,D02,2016-04-12T11:00:19+06:00,23
1000000000149514,77760101997,mKcell,mKarTel,mKarTel,,D02,2016-04-12T11:01:58+06:00,
1000000000149515,77773436685,mMTS,mKarTel,mKarTel,,D77,2016-04-12T11:01:46+06:00,
1000000000149516,77007222707,mMTS,mAltel,mAltel,,D77,2016-04-12T11:00:58+06:00,
1000000000149518,77711613300,mKcell,mKarTel,mKarTel,,D02,2016-04-12T11:03:27+06:00,
1000000000149520,77013550272,mKcell,mAltel,mKcell,D07,D02,2016-04-12T11:04:56+06:00,
1000000000149523,77082820382,mKcell,mAltel,mAltel,,D02,2016-04-12T11:12:21+06:00,
1000000000149524,77718075864,mMTS,mKarTel,mKarTel,,D77,2016-04-12T11:12:26+06:00,
1000000000149528,77082044220,mMTS,mAltel,mAltel,,D77,2016-04-12T11:12:38+06:00,
1000000000149529,77022555549,mMTS,mKcell,mKcell,,D77,2016-04-12T11:15:46+06:00,
1000000000149531,77080001986,mKcell,mAltel,mAltel,,D02,2016-04-12T11:16:38+06:00,
1000000000149533,77786652007,mMTS,mKcell,mKcell,,D77,2016-04-12T11:18:52+06:00,
1000000000149534,77056483926,mMTS,mKarTel,mKarTel,,D77,2016-04-12T11:20:46+06:00,
1000000000149536,77017112525,mKcell,mAltel,mKcell,D07,D02,2016-04-12T11:21:04+06:00,
1000000000149537,77025416103,mMTS,mKcell,mKcell,,D77,2016-04-12T11:21:23+06:00,
1000000000149539,77056093131,mMTS,mKarTel,mKarTel,,D77,2016-04-12T11:23:26+06:00,
1000000000149540,77075002174,mKcell,mMTS,mMTS,,D02,2016-04-12T11:22:36+06:00,
1000000000149541,77082858585,mKarTel,mAltel,mAltel,,D01,2016-04-12T11:22:43+06:00,
1000000000149542,77471499977,mKcell,mMTS,mMTS,,D02,2016-04-12T11:23:49+06:00,
1000000000149543,77029419464,mMTS,mKcell,mKcell,,D77,2016-04-12T11:24:17+06:00,
1000000000149544,77072990059,mKarTel,mMTS,mMTS,,D01,2016-04-12T11:24:49+06:00,
1000000000149548,77072312607,mKarTel,mMTS,mMTS,,D01,2016-04-12T11:25:30+06:00,
1000000000149549,77772490185,mMTS,mKarTel,mKarTel,,D77,2016-04-12T11:28:05+06:00,
