NPId,Number,RecipientId,DonorId,RangeHolderId,OldRoute,NewRoute,PortDate,RowCount
1000000000364284,77477645998,mAltel,mMTS,mMTS,,D07,2017-04-11T18:30:48+06:00,30
1000000000364285,77770688530,mKcell,mKarTel,mKarTel,,D02,2017-04-11T18:31:33+06:00,
1000000000364286,77005550767,mKcell,mAltel,mAltel,,D02,2017-04-11T18:32:01+06:00,
1000000000364287,77052110416,mMTS,mKarTel,mKarTel,,D77,2017-04-11T18:32:49+06:00,
1000000000364290,77025869246,mMTS,mKcell,mKcell,,D77,2017-04-11T18:34:13+06:00,
1000000000364291,77001118959,mKcell,mAltel,mAltel,,D02,2017-04-11T18:37:13+06:00,
1000000000364292,77772501225,mKcell,mKarTel,mKarTel,,D02,2017-04-11T18:37:52+06:00,
1000000000364293,77478174063,mAltel,mMTS,mMTS,,D07,2017-04-11T18:37:36+06:00,
1000000000364294,77016393919,mMTS,mKcell,mKcell,,D77,2017-04-11T18:37:49+06:00,
1000000000364295,77012206260,mMTS,mKcell,mKcell,,D77,2017-04-11T18:38:57+06:00,
1000000000364296,77477220286,mKcell,mMTS,mMTS,,D02,2017-04-11T18:39:24+06:00,
1000000000364299,77752285434,mMTS,mKcell,mKcell,,D77,2017-04-11T18:40:14+06:00,
1000000000364300,77001114939,mKcell,mAltel,mAltel,,D02,2017-04-11T18:41:31+06:00,
1000000000364302,77077404355,mKcell,mMTS,mMTS,,D02,2017-04-11T18:42:57+06:00,
1000000000364303,77085507219,mMTS,mAltel,mAltel,,D77,2017-04-11T18:43:52+06:00,
1000000000364304,77077404366,mKcell,mMTS,mMTS,,D02,2017-04-11T18:44:22+06:00,
1000000000364305,77776600287,mMTS,mKarTel,mKarTel,,D77,2017-04-11T18:44:33+06:00,
1000000000364306,77001602090,mKcell,mAltel,mAltel,,D02,2017-04-11T18:44:40+06:00,
1000000000364307,77783093998,mKarTel,mKcell,mKcell,,D01,2017-04-11T18:45:29+06:00,
1000000000364308,77026061029,mAltel,mKcell,mKcell,,D07,2017-04-11T18:45:27+06:00,
1000000000364310,77058199939,mMTS,mKarTel,mKarTel,,D77,2017-04-11T18:47:26+06:00,
1000000000364311,77013159715,mKcell,mMTS,mKcell,D77,D02,2017-04-11T18:47:39+06:00,
1000000000364313,77001016446,mMTS,mAltel,mAltel,,D77,2017-04-11T18:48:32+06:00,
1000000000364315,77003171992,mMTS,mAltel,mAltel,,D77,2017-04-11T18:51:03+06:00,
1000000000364316,77026677632,mMTS,mKcell,mKcell,,D77,2017-04-11T18:51:21+06:00,
1000000000364319,77762000094,mMTS,mKarTel,mKarTel,,D77,2017-04-11T18:53:14+06:00,
1000000000364320,77003336585,mKcell,mAltel,mAltel,,D02,2017-04-11T18:56:16+06:00,
1000000000364321,77052143444,mAltel,mKarTel,mKarTel,,D07,2017-04-11T18:56:50+06:00,
1000000000364322,77018494314,mAltel,mMTS,mKcell,D77,D07,2017-04-11T18:58:11+06:00,
1000000000364323,77024812291,mMTS,mKcell,mKcell,,D77,2017-04-11T18:59:08+06:00,
