NPId,Number,RecipientId,DonorId,RangeHolderId,OldRoute,NewRoute,PortDate,RowCount
1000000000278546,77016077709,mKcell,mMTS,mKcell,D77,D02,2016-11-13T13:01:47+06:00,4
1000000000278547,77772172576,mKcell,mAltel,mKarTel,D07,D02,2016-11-13T13:07:14+06:00,
1000000000278548,77024333727,mAltel,mKcell,mKcell,D02,D07,2016-11-13T13:22:54+06:00,
1000000000278552,77771444412,mMTS,mKcell,mKarTel,D02,D77,2016-11-13T13:28:02+06:00,
