NPId,Number,RecipientId,DonorId,RangeHolderId,OldRoute,NewRoute,PortDate,RowCount
1000000000133571,77017363289,mKarTel,mKcell,mKcell,,D01,2016-03-26T09:02:59+06:00,8
1000000000133572,77007661111,mAltel,mKarTel,mAltel,D01,D07,2016-03-26T09:03:00+06:00,
1000000000133574,77015343372,mMTS,mKcell,mKcell,,D77,2016-03-26T09:02:35+06:00,
1000000000133575,77786774774,mMTS,mKcell,mKcell,,D77,2016-03-26T09:02:35+06:00,
1000000000133576,77751060613,mKarTel,mKcell,mKcell,,D01,2016-03-26T09:10:06+06:00,
1000000000133577,77781887575,mKcell,mMTS,mKcell,D77,D02,2016-03-26T09:13:23+06:00,
1000000000133578,77777550082,mKcell,mKarTel,mKarTel,,D02,2016-03-26T09:21:27+06:00,
1000000000133579,77029020377,mMTS,mKcell,mKcell,,D77,2016-03-26T09:27:16+06:00,
