NPId,Number,RecipientId,DonorId,RangeHolderId,OldRoute,NewRoute,PortDate,RowCount
1000000000400863,77054427110,mKarTel,mMTS,mKarTel,D77,D01,2017-06-10T11:30:41+06:00,17
1000000000400865,77753355512,mKcell,mMTS,mKcell,D77,D02,2017-06-10T11:32:30+06:00,
1000000000400866,77018011138,mKarTel,mMTS,mKcell,D77,D01,2017-06-10T11:33:13+06:00,
1000000000400867,77011097144,mKarTel,mKcell,mKcell,,D01,2017-06-10T11:36:15+06:00,
1000000000400868,77017051036,mMTS,mKcell,mKcell,,D77,2017-06-10T11:36:39+06:00,
1000000000400869,77072053845,mAltel,mMTS,mMTS,,D07,2017-06-10T11:41:07+06:00,
1000000000400871,77016221695,mKcell,mMTS,mKcell,D77,D02,2017-06-10T11:42:33+06:00,
1000000000400872,77755517263,mKarTel,mMTS,mKcell,D77,D01,2017-06-10T11:45:25+06:00,
1000000000400873,77783115662,mMTS,mKcell,mKcell,,D77,2017-06-10T11:45:36+06:00,
1000000000400874,77075442352,mAltel,mMTS,mMTS,,D07,2017-06-10T11:48:58+06:00,
1000000000400875,77077854554,mAltel,mMTS,mMTS,D77,D07,2017-06-10T11:50:55+06:00,
1000000000400876,77017181270,mKarTel,mKcell,mKcell,,D01,2017-06-10T11:51:24+06:00,
1000000000400880,77754442888,mKcell,mKarTel,mKcell,D01,D02,2017-06-10T11:55:50+06:00,
1000000000400881,77754584070,mKarTel,mKcell,mKcell,,D01,2017-06-10T11:55:51+06:00,
1000000000400882,77773140137,mMTS,mKarTel,mKarTel,,D77,2017-06-10T11:56:47+06:00,
1000000000400883,77712445559,mMTS,mKarTel,mKarTel,,D77,2017-06-10T11:57:02+06:00,
1000000000400886,77758283626,mMTS,mKcell,mKcell,,D77,2017-06-10T11:59:34+06:00,
