NPId,Number,RecipientId,DonorId,RangeHolderId,OldRoute,NewRoute,PortDate,RowCount
1000000000371867,77017890564,mKarTel,mKcell,mKcell,,D01,2017-04-26T09:33:35+06:00,4
1000000000371868,77712685555,mMTS,mKarTel,mKarTel,,D77,2017-04-26T09:34:58+06:00,
1000000000371869,77018971509,mMTS,mKcell,mKcell,,D77,2017-04-26T09:49:47+06:00,
1000000000371871,77086420532,mMTS,mAltel,mAltel,,D77,2017-04-26T09:56:57+06:00,
