NPId,Number,RecipientId,DonorId,RangeHolderId,OldRoute,NewRoute,PortDate,RowCount
1000000000199987,77015115087,mKarTel,mKcell,mKcell,,D01,2016-06-25T18:31:08+06:00,9
1000000000199989,77071288939,mKarTel,mMTS,mMTS,,D01,2016-06-25T18:37:21+06:00,
1000000000199991,77014679073,mMTS,mKcell,mKcell,,D77,2016-06-25T18:44:42+06:00,
1000000000199992,77019131515,mKcell,mAltel,mKcell,D07,D02,2016-06-25T18:45:55+06:00,
1000000000199995,77055308101,mMTS,mKarTel,mKarTel,,D77,2016-06-25T18:54:34+06:00,
1000000000199996,77789871952,mMTS,mKcell,mKcell,,D77,2016-06-25T18:55:13+06:00,
1000000000199997,77771598433,mKarTel,mMTS,mKarTel,D77,D01,2016-06-25T18:56:58+06:00,
1000000000199998,77025000140,mKcell,mMTS,mKcell,D77,D02,2016-06-25T18:59:28+06:00,
1000000000199999,77768777713,mKcell,mKarTel,mKarTel,,D02,2016-06-25T18:59:45+06:00,
