NPId,Number,RecipientId,DonorId,RangeHolderId,OldRoute,NewRoute,PortDate,RowCount
1000000000437087,77022968100,mKarTel,mKcell,mKcell,,D01,2017-08-09T11:00:28+06:00,25
1000000000437088,77021903099,mKcell,mAltel,mKcell,D07,D02,2017-08-09T11:02:10+06:00,
1000000000437089,77784889977,mMTS,mKcell,mKcell,D02,D77,2017-08-09T11:02:55+06:00,
1000000000437090,77754412041,mKcell,mMTS,mKcell,D77,D02,2017-08-09T11:03:59+06:00,
1000000000437091,77023483118,mKarTel,mMTS,mKcell,D77,D01,2017-08-09T11:04:30+06:00,
1000000000437092,77475641194,mMTS,mAltel,mMTS,D07,D77,2017-08-09T11:04:59+06:00,
1000000000437093,77017918570,mMTS,mKcell,mKcell,,D77,2017-08-09T11:07:11+06:00,
1000000000437096,77789179797,mMTS,mKcell,mKcell,,D77,2017-08-09T11:07:28+06:00,
1000000000437097,77788336768,mMTS,mKcell,mKcell,,D77,2017-08-09T11:08:21+06:00,
1000000000437098,77471141724,mAltel,mMTS,mMTS,,D07,2017-08-09T11:08:21+06:00,
1000000000437099,77789961348,mMTS,mKcell,mKcell,,D77,2017-08-09T11:09:48+06:00,
1000000000437100,77755275147,mKarTel,mMTS,mKcell,D77,D01,2017-08-09T11:09:50+06:00,
1000000000437101,77759090706,mKarTel,mKcell,mKcell,,D01,2017-08-09T11:10:35+06:00,
1000000000437103,77789112201,mKarTel,mMTS,mKcell,D77,D01,2017-08-09T11:13:04+06:00,
1000000000437104,77789145119,mAltel,mKcell,mKcell,,D07,2017-08-09T11:14:55+06:00,
1000000000437105,77012989020,mMTS,mKcell,mKcell,,D77,2017-08-09T11:16:01+06:00,
1000000000437108,77071529311,mKcell,mMTS,mMTS,,D02,2017-08-09T11:18:40+06:00,
1000000000437109,77004039537,mMTS,mAltel,mAltel,,D77,2017-08-09T11:18:28+06:00,
1000000000437110,77779728816,mMTS,mKarTel,mKarTel,,D77,2017-08-09T11:18:53+06:00,
1000000000437112,77021978233,mMTS,mKcell,mKcell,,D77,2017-08-09T11:20:34+06:00,
1000000000437115,77760870770,mKcell,mKarTel,mKarTel,,D02,2017-08-09T11:25:02+06:00,
1000000000437116,77086679636,mKcell,mMTS,mAltel,D77,D02,2017-08-09T11:27:31+06:00,
1000000000437118,77022957025,mMTS,mKcell,mKcell,,D77,2017-08-09T11:27:43+06:00,
1000000000437119,77004214641,mMTS,mAltel,mAltel,,D77,2017-08-09T11:27:37+06:00,
1000000000437121,77715143507,mMTS,mKarTel,mKarTel,,D77,2017-08-09T11:29:02+06:00,
