NPId,Number,RecipientId,DonorId,RangeHolderId,OldRoute,NewRoute,PortDate,RowCount
1000000000307454,77753856350,mKarTel,mKcell,mKcell,,D01,2017-01-08T17:31:00+06:00,7
1000000000307455,77016091442,mKarTel,mKcell,mKcell,,D01,2017-01-08T17:31:04+06:00,
1000000000307456,77710198072,mMTS,mKarTel,mKarTel,,D77,2017-01-08T17:31:24+06:00,
1000000000307458,77777888158,mMTS,mKarTel,mKarTel,,D77,2017-01-08T17:41:21+06:00,
1000000000307459,77780000497,mAltel,mKcell,mKcell,D02,D07,2017-01-08T17:44:45+06:00,
1000000000307460,77071598992,mKcell,mMTS,mMTS,,D02,2017-01-08T17:47:43+06:00,
1000000000307461,77082373723,mMTS,mAltel,mAltel,,D77,2017-01-08T17:55:57+06:00,
