NPId,Number,RecipientId,DonorId,RangeHolderId,OldRoute,NewRoute,PortDate,RowCount
1000000000279451,77017247554,mMTS,mKcell,mKcell,,D77,2016-11-15T13:02:40+06:00,25
1000000000279452,77713333177,mKarTel,mKcell,mKarTel,D02,D01,2016-11-15T13:04:27+06:00,
1000000000279453,77754789900,mMTS,mKcell,mKcell,,D77,2016-11-15T13:05:56+06:00,
1000000000279456,77007546474,mKcell,mAltel,mAltel,,D02,2016-11-15T13:08:32+06:00,
1000000000279457,77011005001,mKarTel,mMTS,mKcell,D77,D01,2016-11-15T13:09:13+06:00,
1000000000279458,77757999901,mKcell,mMTS,mKcell,D77,D02,2016-11-15T13:09:58+06:00,
1000000000279459,77475552222,mKcell,mMTS,mMTS,,D02,2016-11-15T13:10:52+06:00,
1000000000279460,77711905836,mMTS,mKarTel,mKarTel,,D77,2016-11-15T13:12:10+06:00,
1000000000279461,77025331919,mMTS,mKcell,mKcell,,D77,2016-11-15T13:15:00+06:00,
1000000000279462,77025553111,mKarTel,mKcell,mKcell,D02,D01,2016-11-15T13:14:44+06:00,
1000000000279463,77011250000,mAltel,mKcell,mKcell,D02,D07,2016-11-15T13:15:43+06:00,
1000000000279464,77014467006,mAltel,mKcell,mKcell,,D07,2016-11-15T13:17:14+06:00,
1000000000279466,77028946219,mMTS,mKcell,mKcell,,D77,2016-11-15T13:19:47+06:00,
1000000000279467,77019719694,mKarTel,mKcell,mKcell,,D01,2016-11-15T13:20:33+06:00,
1000000000279468,77014153022,mAltel,mKcell,mKcell,,D07,2016-11-15T13:21:26+06:00,
1000000000279469,77477600004,mKcell,mMTS,mMTS,,D02,2016-11-15T13:23:39+06:00,
1000000000279470,77754111746,mMTS,mKcell,mKcell,,D77,2016-11-15T13:22:37+06:00,
1000000000279471,77053199294,mAltel,mKarTel,mKarTel,,D07,2016-11-15T13:23:14+06:00,
1000000000279472,77011079826,mKcell,mAltel,mKcell,D07,D02,2016-11-15T13:23:38+06:00,
1000000000279473,77711548989,mKcell,mKarTel,mKarTel,,D02,2016-11-15T13:23:49+06:00,
1000000000279476,77086935463,mKarTel,mAltel,mAltel,,D01,2016-11-15T13:24:49+06:00,
1000000000279477,77773522565,mAltel,mKarTel,mKarTel,,D07,2016-11-15T13:25:02+06:00,
1000000000279478,77019939374,mKarTel,mKcell,mKcell,,D01,2016-11-15T13:27:17+06:00,
1000000000279480,77025775747,mMTS,mKcell,mKcell,,D77,2016-11-15T13:27:21+06:00,
1000000000279481,77053074288,mMTS,mKarTel,mKarTel,,D77,2016-11-15T13:28:49+06:00,
