NPId,Number,RecipientId,DonorId,RangeHolderId,OldRoute,NewRoute,PortDate,RowCount
1000000000227961,77019817831,mKarTel,mKcell,mKcell,,D01,2016-08-12T13:00:11+06:00,30
1000000000227962,77011257844,mKarTel,mKcell,mKcell,,D01,2016-08-12T13:01:44+06:00,
1000000000227963,77478483503,mMTS,mAltel,mMTS,D07,D77,2016-08-12T13:01:50+06:00,
1000000000227964,77779991561,mKcell,mKarTel,mKarTel,,D02,2016-08-12T13:02:51+06:00,
1000000000227965,77005745555,mMTS,mAltel,mAltel,,D77,2016-08-12T13:02:03+06:00,
1000000000227966,77019998950,mKarTel,mKcell,mKcell,,D01,2016-08-12T13:02:56+06:00,
1000000000227967,77017307250,mAltel,mKcell,mKcell,,D07,2016-08-12T13:05:49+06:00,
1000000000227969,77004110662,mMTS,mAltel,mAltel,,D77,2016-08-12T13:05:29+06:00,
1000000000227970,77055884201,mAltel,mKcell,mKarTel,D02,D07,2016-08-12T13:05:43+06:00,
1000000000227971,77777817898,mMTS,mKarTel,mKarTel,,D77,2016-08-12T13:07:05+06:00,
1000000000227972,77022899473,mMTS,mKcell,mKcell,,D77,2016-08-12T13:07:24+06:00,
1000000000227974,77004110665,mMTS,mAltel,mAltel,,D77,2016-08-12T13:07:46+06:00,
1000000000227976,77004110567,mMTS,mAltel,mAltel,,D77,2016-08-12T13:10:07+06:00,
1000000000227977,77474868282,mMTS,mKcell,mMTS,D02,D77,2016-08-12T13:10:56+06:00,
1000000000227979,77015566524,mMTS,mKcell,mKcell,,D77,2016-08-12T13:11:57+06:00,
1000000000227980,77475998373,mMTS,mKarTel,mMTS,D01,D77,2016-08-12T13:12:40+06:00,
1000000000227982,77773226717,mKarTel,mMTS,mKarTel,D77,D01,2016-08-12T13:13:29+06:00,
1000000000227983,77754616151,mAltel,mKcell,mKcell,,D07,2016-08-12T13:13:39+06:00,
1000000000227984,77012182968,mAltel,mKcell,mKcell,,D07,2016-08-12T13:15:34+06:00,
1000000000227985,77053355554,mKcell,mKarTel,mKarTel,,D02,2016-08-12T13:17:20+06:00,
1000000000227986,77759022298,mMTS,mKcell,mKcell,,D77,2016-08-12T13:18:13+06:00,
1000000000227987,77019413872,mMTS,mKcell,mKcell,,D77,2016-08-12T13:19:49+06:00,
1000000000227988,77019777717,mMTS,mKcell,mKcell,,D77,2016-08-12T13:20:31+06:00,
1000000000227989,77753371693,mKcell,mMTS,mKcell,D77,D02,2016-08-12T13:20:37+06:00,
1000000000227990,77713622288,mKarTel,mKcell,mKarTel,D02,D01,2016-08-12T13:23:03+06:00,
1000000000227991,77774802932,mMTS,mKarTel,mKarTel,,D77,2016-08-12T13:25:09+06:00,
1000000000227992,77015703667,mMTS,mKcell,mKcell,,D77,2016-08-12T13:26:26+06:00,
1000000000227993,77072180018,mAltel,mMTS,mMTS,,D07,2016-08-12T13:27:45+06:00,
1000000000227994,77778658305,mMTS,mKarTel,mKarTel,,D77,2016-08-12T13:28:53+06:00,
1000000000227995,77000980102,mKcell,mAltel,mAltel,,D02,2016-08-12T13:29:04+06:00,
