NPId,Number,RecipientId,DonorId,RangeHolderId,OldRoute,NewRoute,PortDate,RowCount
1000000000259486,77786781515,mMTS,mKcell,mKcell,,D77,2016-10-09T16:01:41+06:00,11
1000000000259487,77785868919,mAltel,mKcell,mKcell,,D07,2016-10-09T16:04:56+06:00,
1000000000259488,77775202220,mAltel,mKarTel,mKarTel,D01,D07,2016-10-09T16:10:01+06:00,
1000000000259489,77019584054,mAltel,mKcell,mKcell,,D07,2016-10-09T16:06:29+06:00,
1000000000259490,77083675152,mKcell,mAltel,mAltel,,D02,2016-10-09T16:07:47+06:00,
1000000000259491,77767605000,mKcell,mKarTel,mKarTel,,D02,2016-10-09T16:15:45+06:00,
1000000000259493,77777772077,mKcell,mKarTel,mKarTel,,D02,2016-10-09T16:19:32+06:00,
1000000000259494,77014253202,mKcell,mMTS,mKcell,D77,D02,2016-10-09T16:20:00+06:00,
1000000000259495,77784067978,mMTS,mKcell,mKcell,,D77,2016-10-09T16:20:42+06:00,
1000000000259497,77020000833,mAltel,mKcell,mKcell,,D07,2016-10-09T16:22:30+06:00,
1000000000259500,77754846457,mKarTel,mKcell,mKcell,,D01,2016-10-09T16:28:46+06:00,
