NPId,Number,RecipientId,DonorId,RangeHolderId,OldRoute,NewRoute,PortDate,RowCount
1000000000422464,77003000040,mKcell,mKarTel,mAltel,D01,D02,2017-07-17T13:00:57+06:00,19
1000000000422804,77009399900,mKarTel,mKcell,mAltel,D02,D01,2017-07-17T13:00:16+06:00,
1000000000423082,77775804220,mKcell,mKarTel,mKarTel,,D02,2017-07-17T13:00:08+06:00,
1000000000423086,77011188880,mKcell,mKarTel,mKcell,D01,D02,2017-07-17T13:03:12+06:00,
1000000000423087,77078805852,mKarTel,mMTS,mMTS,,D01,2017-07-17T13:02:51+06:00,
1000000000423090,77022413424,mAltel,mKcell,mKcell,,D07,2017-07-17T13:06:55+06:00,
1000000000423091,77082737002,mKarTel,mAltel,mAltel,,D01,2017-07-17T13:07:23+06:00,
1000000000423093,77771744441,mAltel,mKarTel,mKarTel,,D07,2017-07-17T13:10:19+06:00,
1000000000423094,77057564793,mMTS,mKarTel,mKarTel,,D77,2017-07-17T13:11:33+06:00,
1000000000423095,77028368877,mKarTel,mKcell,mKcell,,D01,2017-07-17T13:16:29+06:00,
1000000000423096,77028419201,mMTS,mAltel,mKcell,D07,D77,2017-07-17T13:16:39+06:00,
1000000000423099,77771382220,mKarTel,mMTS,mKarTel,D77,D01,2017-07-17T13:23:16+06:00,
1000000000423100,77073800007,mKarTel,mMTS,mMTS,,D01,2017-07-17T13:24:26+06:00,
1000000000423101,77077337755,mKarTel,mKcell,mMTS,D02,D01,2017-07-17T13:26:42+06:00,
1000000000423103,77006636070,mMTS,mAltel,mAltel,,D77,2017-07-17T13:27:47+06:00,
1000000000423104,77017584530,mKarTel,mKcell,mKcell,,D01,2017-07-17T13:28:14+06:00,
1000000000423107,77774333233,mAltel,mKarTel,mKarTel,,D07,2017-07-17T13:28:52+06:00,
1000000000423109,77781447848,mKcell,mMTS,mKcell,D77,D02,2017-07-17T13:29:44+06:00,
1000000000423110,77006636169,mMTS,mAltel,mAltel,,D77,2017-07-17T13:29:44+06:00,
