NPId,Number,RecipientId,DonorId,RangeHolderId,OldRoute,NewRoute,PortDate,RowCount
1000000000228933,77075700800,mKarTel,mMTS,mMTS,,D01,2016-08-15T09:03:04+06:00,2
1000000000228935,77005310100,mKcell,mAltel,mAltel,,D02,2016-08-15T09:26:38+06:00,
