NPId,Number,RecipientId,DonorId,RangeHolderId,OldRoute,NewRoute,PortDate,RowCount
1000000000185123,77781388942,mKarTel,mKcell,mKcell,,D01,2016-06-01T13:02:14+06:00,38
1000000000185126,77012081304,mKarTel,mKcell,mKcell,,D01,2016-06-01T13:09:57+06:00,
1000000000185131,77017656288,mAltel,mKcell,mKcell,,D07,2016-06-01T13:02:02+06:00,
1000000000185420,77016853776,mMTS,mKcell,mKcell,,D77,2016-06-01T13:00:32+06:00,
1000000000185421,77053181369,mMTS,mKarTel,mKarTel,,D77,2016-06-01T13:00:30+06:00,
1000000000185422,77019714197,mKarTel,mKcell,mKcell,,D01,2016-06-01T13:01:01+06:00,
1000000000185423,77082652006,mMTS,mAltel,mAltel,,D77,2016-06-01T13:00:17+06:00,
1000000000185424,77085658410,mKarTel,mAltel,mAltel,,D01,2016-06-01T13:00:54+06:00,
1000000000185425,77025080124,mMTS,mKcell,mKcell,,D77,2016-06-01T13:01:44+06:00,
1000000000185427,77764662366,mKarTel,mMTS,mKarTel,D77,D01,2016-06-01T13:03:06+06:00,
1000000000185428,77475607080,mKarTel,mMTS,mMTS,,D01,2016-06-01T13:06:27+06:00,
1000000000185429,77759388784,mKcell,mKarTel,mKcell,D01,D02,2016-06-01T13:08:21+06:00,
1000000000185430,77756500750,mKcell,mAltel,mKcell,D07,D02,2016-06-01T13:07:50+06:00,
1000000000185431,77012573155,mMTS,mKcell,mKcell,,D77,2016-06-01T13:08:05+06:00,
1000000000185432,77711088224,mKcell,mKarTel,mKarTel,,D02,2016-06-01T13:10:17+06:00,
1000000000185433,77077157311,mAltel,mMTS,mMTS,,D07,2016-06-01T13:09:54+06:00,
1000000000185434,77003793935,mMTS,mAltel,mAltel,,D77,2016-06-01T13:10:10+06:00,
1000000000185435,77762005377,mKcell,mKarTel,mKarTel,,D02,2016-06-01T13:11:34+06:00,
1000000000185436,77076739150,mKcell,mMTS,mMTS,,D02,2016-06-01T13:11:33+06:00,
1000000000185437,77055073304,mMTS,mKarTel,mKarTel,,D77,2016-06-01T13:12:17+06:00,
1000000000185439,77763077773,mKcell,mKarTel,mKarTel,,D02,2016-06-01T13:14:47+06:00,
1000000000185440,77081100010,mKcell,mAltel,mAltel,,D02,2016-06-01T13:14:48+06:00,
1000000000185441,77085281432,mKcell,mAltel,mAltel,,D02,2016-06-01T13:15:07+06:00,
1000000000185442,77019140385,mAltel,mKarTel,mKcell,D01,D07,2016-06-01T13:17:10+06:00,
1000000000185444,77071818111,mKcell,mMTS,mMTS,,D02,2016-06-01T13:18:53+06:00,
1000000000185445,77086656753,mMTS,mAltel,mAltel,,D77,2016-06-01T13:19:15+06:00,
1000000000185446,77779554095,mMTS,mKarTel,mKarTel,,D77,2016-06-01T13:19:53+06:00,
1000000000185447,77012926400,mKarTel,mKcell,mKcell,,D01,2016-06-01T13:20:14+06:00,
1000000000185448,77015565355,mKarTel,mKcell,mKcell,,D01,2016-06-01T13:21:05+06:00,
1000000000185449,77089254158,mKcell,mAltel,mAltel,,D02,2016-06-01T13:21:48+06:00,
1000000000185450,77023050635,mKarTel,mKcell,mKcell,,D01,2016-06-01T13:21:54+06:00,
1000000000185451,77017131372,mKarTel,mKcell,mKcell,,D01,2016-06-01T13:22:29+06:00,
1000000000185452,77474109866,mKarTel,mMTS,mMTS,,D01,2016-06-01T13:22:29+06:00,
1000000000185453,77059003684,mMTS,mKarTel,mKarTel,,D77,2016-06-01T13:24:35+06:00,
1000000000185454,77054246284,mMTS,mKarTel,mKarTel,,D77,2016-06-01T13:26:44+06:00,
1000000000185455,77778790011,mMTS,mKarTel,mKarTel,,D77,2016-06-01T13:27:30+06:00,
1000000000185457,77027725845,mMTS,mKcell,mKcell,,D77,2016-06-01T13:27:31+06:00,
1000000000185458,77017770403,mMTS,mKcell,mKcell,,D77,2016-06-01T13:28:06+06:00,
