NPId,Number,RecipientId,DonorId,RangeHolderId,OldRoute,NewRoute,PortDate,RowCount
1000000000328156,77086560011,mKarTel,mMTS,mAltel,D77,D01,2017-02-13T13:30:05+06:00,20
1000000000328158,77755217004,mAltel,mKcell,mKcell,,D07,2017-02-13T13:33:52+06:00,
1000000000328159,77012535652,mKcell,mMTS,mKcell,D77,D02,2017-02-13T13:34:09+06:00,
1000000000328160,77471110604,mKcell,mMTS,mMTS,,D02,2017-02-13T13:34:30+06:00,
1000000000328161,77750009395,mMTS,mKcell,mKcell,,D77,2017-02-13T13:34:44+06:00,
1000000000328162,77786690557,mAltel,mKcell,mKcell,,D07,2017-02-13T13:36:43+06:00,
1000000000328164,77023667282,mKcell,mKarTel,mKcell,D01,D02,2017-02-13T13:38:06+06:00,
1000000000328165,77078111126,mKcell,mMTS,mMTS,,D02,2017-02-13T13:40:17+06:00,
1000000000328166,77782555593,mKarTel,mKcell,mKcell,,D01,2017-02-13T13:41:14+06:00,
1000000000328167,77089887172,mAltel,mMTS,mAltel,D77,D07,2017-02-13T13:41:26+06:00,
1000000000328169,77771122820,mKcell,mKarTel,mKarTel,,D02,2017-02-13T13:44:04+06:00,
1000000000328170,77052510191,mMTS,mKarTel,mKarTel,,D77,2017-02-13T13:44:50+06:00,
1000000000328171,77004346027,mKarTel,mAltel,mAltel,,D01,2017-02-13T13:46:33+06:00,
1000000000328173,77017301977,mKcell,mKarTel,mKcell,D01,D02,2017-02-13T13:53:18+06:00,
1000000000328175,77011506665,mAltel,mKcell,mKcell,,D07,2017-02-13T13:53:22+06:00,
1000000000328176,77012217720,mAltel,mKcell,mKcell,,D07,2017-02-13T13:53:47+06:00,
1000000000328177,77023080817,mAltel,mKcell,mKcell,,D07,2017-02-13T13:53:57+06:00,
1000000000328180,77024319361,mMTS,mKcell,mKcell,,D77,2017-02-13T13:57:51+06:00,
1000000000328181,77789136349,mKcell,mAltel,mKcell,D07,D02,2017-02-13T13:59:58+06:00,
1000000000328182,77073148484,mKcell,mMTS,mMTS,,D02,2017-02-13T13:59:59+06:00,
