NPId,Number,RecipientId,DonorId,RangeHolderId,OldRoute,NewRoute,PortDate,RowCount
1000000000435715,77752244079,mKarTel,mKcell,mKcell,,D01,2017-08-06T15:05:30+06:00,7
1000000000435717,77019085234,mKcell,mMTS,mKcell,D77,D02,2017-08-06T15:09:58+06:00,
1000000000435718,77017847892,mMTS,mKcell,mKcell,,D77,2017-08-06T15:11:46+06:00,
1000000000435719,77711079804,mMTS,mKarTel,mKarTel,,D77,2017-08-06T15:16:36+06:00,
1000000000435721,77788420609,mAltel,mKcell,mKcell,,D07,2017-08-06T15:20:05+06:00,
1000000000435722,77081504660,mMTS,mAltel,mAltel,,D77,2017-08-06T15:21:52+06:00,
1000000000435723,77077217141,mKcell,mMTS,mMTS,,D02,2017-08-06T15:22:25+06:00,
