NPId,Number,RecipientId,DonorId,RangeHolderId,OldRoute,NewRoute,PortDate,RowCount
1000000000393085,77018808869,mKarTel,mKcell,mKcell,,D01,2017-05-31T15:15:23+06:00,57
1000000000393085,77019254823,mKarTel,mKcell,mKcell,,D01,2017-05-31T15:15:23+06:00,
1000000000393551,77015430761,mKcell,mAltel,mKcell,D07,D02,2017-05-31T15:06:30+06:00,
1000000000393659,77017268236,mKcell,mKarTel,mKcell,D01,D02,2017-05-31T15:07:10+06:00,
1000000000393664,77010919942,mKcell,mKarTel,mKcell,D01,D02,2017-05-31T15:10:02+06:00,
1000000000393676,77019938140,mKcell,mKarTel,mKcell,D01,D02,2017-05-31T15:14:49+06:00,
1000000000393683,77010919943,mKcell,mKarTel,mKcell,D01,D02,2017-05-31T15:17:45+06:00,
1000000000393684,77012246489,mKcell,mKarTel,mKcell,D01,D02,2017-05-31T15:18:03+06:00,
1000000000393698,77010326240,mKcell,mKarTel,mKcell,D01,D02,2017-05-31T15:25:55+06:00,
1000000000393761,77757152900,mKarTel,mKcell,mKcell,,D01,2017-05-31T15:00:59+06:00,
1000000000393762,77006270001,mMTS,mAltel,mAltel,,D77,2017-05-31T15:00:59+06:00,
1000000000393763,77003003392,mKcell,mAltel,mAltel,,D02,2017-05-31T15:01:19+06:00,
1000000000393765,77017461659,mKarTel,mKcell,mKcell,,D01,2017-05-31T15:06:06+06:00,
1000000000393767,77004404096,mKcell,mAltel,mAltel,,D02,2017-05-31T15:03:07+06:00,
1000000000393768,77022049897,mKcell,mMTS,mKcell,D77,D02,2017-05-31T15:03:42+06:00,
1000000000393769,77089676225,mMTS,mAltel,mAltel,,D77,2017-05-31T15:03:38+06:00,
1000000000393770,77015561107,mMTS,mKcell,mKcell,,D77,2017-05-31T15:04:23+06:00,
1000000000393771,77088994673,mMTS,mAltel,mAltel,,D77,2017-05-31T15:04:20+06:00,
1000000000393772,77022266977,mMTS,mKcell,mKcell,,D77,2017-05-31T15:04:42+06:00,
1000000000393773,77768677786,mKcell,mKarTel,mKarTel,,D02,2017-05-31T15:06:56+06:00,
1000000000393774,77004224161,mKcell,mAltel,mAltel,,D02,2017-05-31T15:05:03+06:00,
1000000000393775,77778582700,mMTS,mKarTel,mKarTel,,D77,2017-05-31T15:06:36+06:00,
1000000000393776,77771927085,mMTS,mKarTel,mKarTel,,D77,2017-05-31T15:06:42+06:00,
1000000000393777,77002873497,mAltel,mMTS,mAltel,D77,D07,2017-05-31T15:05:15+06:00,
1000000000393778,77057299530,mKcell,mKarTel,mKarTel,,D02,2017-05-31T15:06:56+06:00,
1000000000393782,77711241132,mMTS,mKarTel,mKarTel,,D77,2017-05-31T15:07:21+06:00,
1000000000393783,77019320740,mKarTel,mKcell,mKcell,,D01,2017-05-31T15:07:59+06:00,
1000000000393784,77003303094,mKcell,mAltel,mAltel,,D02,2017-05-31T15:08:15+06:00,
1000000000393785,77017255922,mMTS,mKcell,mKcell,,D77,2017-05-31T15:10:27+06:00,
1000000000393786,77012750400,mMTS,mKcell,mKcell,D02,D77,2017-05-31T15:10:39+06:00,
1000000000393787,77001114170,mKcell,mAltel,mAltel,,D02,2017-05-31T15:10:39+06:00,
1000000000393789,77000979677,mKcell,mAltel,mAltel,,D02,2017-05-31T15:11:20+06:00,
1000000000393790,77001101284,mKcell,mAltel,mAltel,,D02,2017-05-31T15:12:03+06:00,
1000000000393791,77011119180,mMTS,mKcell,mKcell,,D77,2017-05-31T15:12:38+06:00,
1000000000393792,77027772109,mKarTel,mKcell,mKcell,,D01,2017-05-31T15:12:54+06:00,
1000000000393794,77053870693,mMTS,mKarTel,mKarTel,,D77,2017-05-31T15:14:15+06:00,
1000000000393795,77017580063,mMTS,mKcell,mKcell,,D77,2017-05-31T15:15:56+06:00,
1000000000393796,77718263030,mMTS,mKarTel,mKarTel,,D77,2017-05-31T15:16:22+06:00,
1000000000393797,77772216730,mAltel,mKarTel,mKarTel,,D07,2017-05-31T15:16:38+06:00,
1000000000393798,77026782828,mKcell,mAltel,mKcell,D07,D02,2017-05-31T15:16:40+06:00,
1000000000393799,77021980441,mMTS,mKcell,mKcell,,D77,2017-05-31T15:17:26+06:00,
1000000000393800,77017871414,mKarTel,mKcell,mKcell,,D01,2017-05-31T15:17:52+06:00,
1000000000393801,77007001993,mKcell,mAltel,mAltel,,D02,2017-05-31T15:18:58+06:00,
1000000000393802,77005056060,mKcell,mAltel,mAltel,,D02,2017-05-31T15:19:33+06:00,
1000000000393803,77772285959,mAltel,mKarTel,mKarTel,,D07,2017-05-31T15:19:39+06:00,
1000000000393804,77079753345,mAltel,mMTS,mMTS,,D07,2017-05-31T15:20:03+06:00,
1000000000393805,77051466699,mMTS,mKarTel,mKarTel,,D77,2017-05-31T15:20:58+06:00,
1000000000393809,77000969400,mKcell,mAltel,mAltel,,D02,2017-05-31T15:23:11+06:00,
1000000000393810,77004004497,mKcell,mAltel,mAltel,,D02,2017-05-31T15:24:13+06:00,
1000000000393811,77776590012,mMTS,mKarTel,mKarTel,,D77,2017-05-31T15:24:56+06:00,
1000000000393813,77000939800,mKcell,mAltel,mAltel,,D02,2017-05-31T15:25:48+06:00,
1000000000393815,77014121646,mMTS,mKcell,mKcell,,D77,2017-05-31T15:27:11+06:00,
1000000000393816,77718827979,mKcell,mKarTel,mKarTel,,D02,2017-05-31T15:27:49+06:00,
1000000000393818,77015547554,mAltel,mKcell,mKcell,,D07,2017-05-31T15:27:28+06:00,
1000000000393819,77027271014,mKcell,mKarTel,mKcell,D01,D02,2017-05-31T15:28:29+06:00,
1000000000393820,77017347723,mAltel,mKcell,mKcell,,D07,2017-05-31T15:28:23+06:00,
1000000000393822,77003035757,mKcell,mAltel,mAltel,,D02,2017-05-31T15:28:38+06:00,
