NPId,Number,RecipientId,DonorId,RangeHolderId,OldRoute,NewRoute,PortDate,RowCount
1000000000332671,77019539310,mKarTel,mKcell,mKcell,,D01,2017-02-22T10:27:25+06:00,16
1000000000332691,77055077323,mMTS,mKarTel,mKarTel,,D77,2017-02-22T10:03:03+06:00,
1000000000332692,77018042242,mMTS,mKcell,mKcell,,D77,2017-02-22T10:06:46+06:00,
1000000000332694,77085819166,mKcell,mAltel,mAltel,,D02,2017-02-22T10:11:19+06:00,
1000000000332695,77016721015,mKcell,mMTS,mKcell,D77,D02,2017-02-22T10:12:02+06:00,
1000000000332696,77789699403,mMTS,mKcell,mKcell,,D77,2017-02-22T10:12:46+06:00,
1000000000332697,77761122416,mMTS,mKarTel,mKarTel,,D77,2017-02-22T10:13:12+06:00,
1000000000332698,77015334718,mMTS,mKcell,mKcell,,D77,2017-02-22T10:15:32+06:00,
1000000000332699,77774169787,mMTS,mKarTel,mKarTel,,D77,2017-02-22T10:17:32+06:00,
1000000000332700,77081026003,mMTS,mAltel,mAltel,,D77,2017-02-22T10:17:14+06:00,
1000000000332701,77074821991,mKarTel,mMTS,mMTS,,D01,2017-02-22T10:19:28+06:00,
1000000000332702,77776666194,mKarTel,mKcell,mKarTel,D02,D01,2017-02-22T10:20:54+06:00,
1000000000332703,77007037773,mMTS,mKarTel,mAltel,D01,D77,2017-02-22T10:22:38+06:00,
1000000000332704,77075500195,mMTS,mKcell,mMTS,D02,D77,2017-02-22T10:23:40+06:00,
1000000000332706,77768335555,mKcell,mKarTel,mKarTel,,D02,2017-02-22T10:26:18+06:00,
1000000000332707,77019925470,mMTS,mKcell,mKcell,,D77,2017-02-22T10:27:49+06:00,
