NPId,Number,RecipientId,DonorId,RangeHolderId,OldRoute,NewRoute,PortDate,RowCount
1000000000336394,77719907845,mMTS,mKarTel,mKarTel,,D77,2017-02-27T18:44:13+06:00,34
1000000000336461,77713737101,mMTS,mKarTel,mKarTel,,D77,2017-02-27T18:30:14+06:00,
1000000000336462,77077437347,mKarTel,mMTS,mMTS,,D01,2017-02-27T18:30:12+06:00,
1000000000336463,77004000871,mKcell,mAltel,mAltel,,D02,2017-02-27T18:30:30+06:00,
1000000000336464,77718626161,mKcell,mKarTel,mKarTel,,D02,2017-02-27T18:31:49+06:00,
1000000000336465,77774153129,mMTS,mKarTel,mKarTel,,D77,2017-02-27T18:31:13+06:00,
1000000000336467,77025140484,mAltel,mKcell,mKcell,,D07,2017-02-27T18:32:20+06:00,
1000000000336468,77015156407,mMTS,mKcell,mKcell,,D77,2017-02-27T18:33:29+06:00,
1000000000336469,77770333339,mKcell,mKarTel,mKarTel,,D02,2017-02-27T18:33:52+06:00,
1000000000336470,77004000673,mKcell,mAltel,mAltel,,D02,2017-02-27T18:34:01+06:00,
1000000000336472,77711686068,mAltel,mKarTel,mKarTel,,D07,2017-02-27T18:34:38+06:00,
1000000000336473,77776240755,mMTS,mKarTel,mKarTel,,D77,2017-02-27T18:35:03+06:00,
1000000000336474,77004000867,mKcell,mAltel,mAltel,,D02,2017-02-27T18:36:14+06:00,
1000000000336475,77070321061,mMTS,mAltel,mMTS,D07,D77,2017-02-27T18:36:47+06:00,
1000000000336476,77775751591,mMTS,mKarTel,mKarTel,,D77,2017-02-27T18:38:38+06:00,
1000000000336477,77026910770,mMTS,mKcell,mKcell,,D77,2017-02-27T18:40:07+06:00,
1000000000336478,77769797117,mKcell,mKarTel,mKarTel,,D02,2017-02-27T18:42:01+06:00,
1000000000336480,77072922008,mMTS,mKarTel,mMTS,D01,D77,2017-02-27T18:42:37+06:00,
1000000000336481,77071966669,mKarTel,mMTS,mMTS,,D01,2017-02-27T18:42:36+06:00,
1000000000336482,77787585972,mMTS,mKcell,mKcell,,D77,2017-02-27T18:42:44+06:00,
1000000000336484,77785720073,mMTS,mKcell,mKcell,,D77,2017-02-27T18:42:50+06:00,
1000000000336485,77770420441,mAltel,mKarTel,mKarTel,,D07,2017-02-27T18:43:20+06:00,
1000000000336486,77786666737,mMTS,mKcell,mKcell,,D77,2017-02-27T18:43:16+06:00,
1000000000336487,77789673521,mKarTel,mKcell,mKcell,,D01,2017-02-27T18:43:36+06:00,
1000000000336489,77752454747,mAltel,mKcell,mKcell,,D07,2017-02-27T18:45:43+06:00,
1000000000336490,77023847303,mKarTel,mKcell,mKcell,,D01,2017-02-27T18:46:48+06:00,
1000000000336491,77769797227,mKcell,mKarTel,mKarTel,,D02,2017-02-27T18:47:36+06:00,
1000000000336493,77472676085,mKarTel,mMTS,mMTS,,D01,2017-02-27T18:48:29+06:00,
1000000000336494,77785688714,mKarTel,mKcell,mKcell,,D01,2017-02-27T18:48:41+06:00,
1000000000336495,77759611420,mAltel,mKcell,mKcell,,D07,2017-02-27T18:51:42+06:00,
1000000000336496,77772446943,mMTS,mKarTel,mKarTel,,D77,2017-02-27T18:53:03+06:00,
1000000000336498,77776431111,mKarTel,mKcell,mKarTel,D02,D01,2017-02-27T18:54:27+06:00,
1000000000336501,77055522320,mKcell,mKarTel,mKarTel,,D02,2017-02-27T18:57:37+06:00,
1000000000336502,77026515555,mKarTel,mKcell,mKcell,,D01,2017-02-27T18:59:03+06:00,
