NPId,Number,RecipientId,DonorId,RangeHolderId,OldRoute,NewRoute,PortDate,RowCount
1000000000341334,77021020011,mKarTel,mKcell,mKcell,,D01,2017-03-05T18:33:31+06:00,3
1000000000341335,77055555282,mKcell,mMTS,mKarTel,D77,D02,2017-03-05T18:45:36+06:00,
1000000000341336,77017220303,mKarTel,mKcell,mKcell,,D01,2017-03-05T18:50:15+06:00,
