NPId,Number,RecipientId,DonorId,RangeHolderId,OldRoute,NewRoute,PortDate,RowCount
1000000000384720,77772650171,mMTS,mKarTel,mKarTel,,D77,2017-05-17T17:01:03+06:00,29
1000000000384721,77073411191,mKcell,mMTS,mMTS,,D02,2017-05-17T17:02:35+06:00,
1000000000384722,77789998885,mKarTel,mMTS,mKcell,D77,D01,2017-05-17T17:02:41+06:00,
1000000000384723,77010900099,mKcell,mAltel,mKcell,D07,D02,2017-05-17T17:03:45+06:00,
1000000000384725,77001164232,mMTS,mAltel,mAltel,,D77,2017-05-17T17:07:45+06:00,
1000000000384726,77783098309,mMTS,mKcell,mKcell,,D77,2017-05-17T17:07:47+06:00,
1000000000384727,77076045979,mKarTel,mMTS,mMTS,,D01,2017-05-17T17:08:22+06:00,
1000000000384729,77786035867,mAltel,mKcell,mKcell,,D07,2017-05-17T17:08:28+06:00,
1000000000384734,77072604644,mKarTel,mMTS,mMTS,,D01,2017-05-17T17:12:29+06:00,
1000000000384737,77473394933,mKcell,mMTS,mMTS,,D02,2017-05-17T17:13:42+06:00,
1000000000384739,77475295878,mAltel,mMTS,mMTS,,D07,2017-05-17T17:14:40+06:00,
1000000000384740,77712022220,mKcell,mAltel,mKarTel,D07,D02,2017-05-17T17:15:41+06:00,
1000000000384742,77072529089,mKcell,mMTS,mMTS,,D02,2017-05-17T17:17:31+06:00,
1000000000384743,77013305090,mMTS,mKcell,mKcell,,D77,2017-05-17T17:17:51+06:00,
1000000000384744,77788131681,mKcell,mMTS,mKcell,D77,D02,2017-05-17T17:18:20+06:00,
1000000000384745,77778480022,mMTS,mKarTel,mKarTel,,D77,2017-05-17T17:18:21+06:00,
1000000000384746,77028217484,mKarTel,mKcell,mKcell,,D01,2017-05-17T17:18:34+06:00,
1000000000384747,77473152382,mMTS,mAltel,mMTS,D07,D77,2017-05-17T17:19:42+06:00,
1000000000384749,77771711717,mKcell,mKarTel,mKarTel,,D02,2017-05-17T17:20:25+06:00,
1000000000384750,77056708337,mKcell,mKarTel,mKarTel,,D02,2017-05-17T17:21:20+06:00,
1000000000384751,77777382495,mMTS,mKarTel,mKarTel,,D77,2017-05-17T17:21:14+06:00,
1000000000384752,77778480033,mMTS,mKarTel,mKarTel,,D77,2017-05-17T17:21:40+06:00,
1000000000384754,77477181181,mAltel,mMTS,mMTS,,D07,2017-05-17T17:21:31+06:00,
1000000000384756,77019797766,mKarTel,mKcell,mKcell,,D01,2017-05-17T17:23:10+06:00,
1000000000384757,77072628990,mKcell,mMTS,mMTS,,D02,2017-05-17T17:23:37+06:00,
1000000000384759,77027548959,mKarTel,mKcell,mKcell,,D01,2017-05-17T17:24:31+06:00,
1000000000384761,77083230013,mKcell,mAltel,mAltel,,D02,2017-05-17T17:25:06+06:00,
1000000000384762,77785154444,mMTS,mKcell,mKcell,,D77,2017-05-17T17:27:06+06:00,
1000000000384763,77775730202,mMTS,mKarTel,mKarTel,,D77,2017-05-17T17:29:01+06:00,
