NPId,Number,RecipientId,DonorId,RangeHolderId,OldRoute,NewRoute,PortDate,RowCount
1000000000220298,77028889988,mKarTel,mKcell,mKcell,,D01,2016-07-30T20:31:34+06:00,4
1000000000220299,77016144485,mKarTel,mKcell,mKcell,,D01,2016-07-30T20:32:18+06:00,
1000000000220300,77714419427,mMTS,mKarTel,mKarTel,,D77,2016-07-30T20:32:40+06:00,
1000000000220301,77477330303,mKcell,mMTS,mMTS,,D02,2016-07-30T20:52:08+06:00,
