NPId,Number,RecipientId,DonorId,RangeHolderId,OldRoute,NewRoute,PortDate,RowCount
1000000000272985,77056021855,mKarTel,mMTS,mKarTel,D77,D01,2016-11-03T09:37:08+06:00,9
1000000000272986,77020002791,mKcell,mAltel,mKcell,D07,D02,2016-11-03T09:38:49+06:00,
1000000000272987,77012042082,mKcell,mAltel,mKcell,D07,D02,2016-11-03T09:42:27+06:00,
1000000000272988,77773907453,mMTS,mKarTel,mKarTel,,D77,2016-11-03T09:42:52+06:00,
1000000000272989,77014442311,mKcell,mAltel,mKcell,D07,D02,2016-11-03T09:53:06+06:00,
1000000000272991,77017299800,mKarTel,mKcell,mKcell,,D01,2016-11-03T09:56:16+06:00,
1000000000272992,77754634500,mKarTel,mKcell,mKcell,,D01,2016-11-03T09:57:17+06:00,
1000000000272993,77012275151,mMTS,mKcell,mKcell,,D77,2016-11-03T09:57:22+06:00,
1000000000272994,77005558514,mKarTel,mAltel,mAltel,,D01,2016-11-03T09:58:14+06:00,
