NPId,Number,RecipientId,DonorId,RangeHolderId,OldRoute,NewRoute,PortDate,RowCount
1000000000161131,77788580007,mKarTel,mKcell,mKcell,,D01,2016-04-26T18:30:24+06:00,33
1000000000161133,77022478314,mKcell,mAltel,mKcell,D07,D02,2016-04-26T18:31:34+06:00,
1000000000161136,77085500075,mMTS,mAltel,mAltel,,D77,2016-04-26T18:32:01+06:00,
1000000000161137,77017992430,mMTS,mKcell,mKcell,,D77,2016-04-26T18:32:23+06:00,
1000000000161138,77014851678,mKarTel,mKcell,mKcell,,D01,2016-04-26T18:32:52+06:00,
1000000000161139,77052444048,mKcell,mKarTel,mKarTel,,D02,2016-04-26T18:34:48+06:00,
1000000000161140,77765000434,mKcell,mKarTel,mKarTel,,D02,2016-04-26T18:35:47+06:00,
1000000000161142,77075000888,mKcell,mMTS,mMTS,,D02,2016-04-26T18:36:02+06:00,
1000000000161143,77715417901,mMTS,mKarTel,mKarTel,,D77,2016-04-26T18:36:43+06:00,
1000000000161144,77089819394,mKarTel,mAltel,mAltel,,D01,2016-04-26T18:36:51+06:00,
1000000000161145,77072210197,mAltel,mMTS,mMTS,,D07,2016-04-26T18:37:26+06:00,
1000000000161147,77017139352,mKarTel,mKcell,mKcell,,D01,2016-04-26T18:40:40+06:00,
1000000000161148,77016778855,mKarTel,mKcell,mKcell,,D01,2016-04-26T18:41:01+06:00,
1000000000161149,77013532372,mKcell,mMTS,mKcell,D77,D02,2016-04-26T18:43:10+06:00,
1000000000161150,77081343969,mMTS,mAltel,mAltel,,D77,2016-04-26T18:43:07+06:00,
1000000000161151,77015124045,mAltel,mKcell,mKcell,,D07,2016-04-26T18:44:11+06:00,
1000000000161152,77000280088,mMTS,mAltel,mAltel,,D77,2016-04-26T18:44:35+06:00,
1000000000161153,77081314510,mKcell,mAltel,mAltel,,D02,2016-04-26T18:45:09+06:00,
1000000000161154,77013184321,mMTS,mKcell,mKcell,,D77,2016-04-26T18:45:40+06:00,
1000000000161156,77781791793,mMTS,mKcell,mKcell,,D77,2016-04-26T18:46:32+06:00,
1000000000161157,77774102809,mMTS,mKarTel,mKarTel,,D77,2016-04-26T18:46:46+06:00,
1000000000161158,77087738268,mMTS,mAltel,mAltel,,D77,2016-04-26T18:47:01+06:00,
1000000000161159,77009282910,mMTS,mAltel,mAltel,,D77,2016-04-26T18:47:04+06:00,
1000000000161160,77083752184,mMTS,mAltel,mAltel,,D77,2016-04-26T18:49:07+06:00,
1000000000161161,77071100110,mKcell,mMTS,mMTS,,D02,2016-04-26T18:49:50+06:00,
1000000000161162,77771000500,mMTS,mKarTel,mKarTel,,D77,2016-04-26T18:51:45+06:00,
1000000000161163,77089822112,mKarTel,mAltel,mAltel,,D01,2016-04-26T18:54:09+06:00,
1000000000161164,77083123202,mKcell,mAltel,mAltel,,D02,2016-04-26T18:54:38+06:00,
1000000000161165,77058300211,mKarTel,mMTS,mKarTel,D77,D01,2016-04-26T18:54:26+06:00,
1000000000161166,77077771991,mKcell,mMTS,mMTS,,D02,2016-04-26T18:56:17+06:00,
1000000000161167,77013427703,mKcell,mAltel,mKcell,D07,D02,2016-04-26T18:56:32+06:00,
1000000000161168,77017334484,mKarTel,mKcell,mKcell,,D01,2016-04-26T18:57:04+06:00,
1000000000161170,77017539620,mAltel,mKcell,mKcell,,D07,2016-04-26T18:59:49+06:00,
