NPId,Number,RecipientId,DonorId,RangeHolderId,OldRoute,NewRoute,PortDate,RowCount
1000000000439752,77719901554,mKcell,mKarTel,mKarTel,,D02,2017-08-14T16:22:38+06:00,28
1000000000439806,77083332337,mKcell,mAltel,mAltel,,D02,2017-08-14T16:00:35+06:00,
1000000000439808,77758661087,mKarTel,mKcell,mKcell,,D01,2017-08-14T16:03:11+06:00,
1000000000439809,77777055555,mKcell,mKarTel,mKarTel,,D02,2017-08-14T16:03:22+06:00,
1000000000439811,77016876268,mKarTel,mKcell,mKcell,,D01,2017-08-14T16:04:24+06:00,
1000000000439813,77020003088,mMTS,mKcell,mKcell,,D77,2017-08-14T16:07:36+06:00,
1000000000439814,77086659541,mKarTel,mAltel,mAltel,,D01,2017-08-14T16:08:27+06:00,
1000000000439818,77786088887,mKcell,mMTS,mKcell,D77,D02,2017-08-14T16:11:38+06:00,
1000000000439819,77017697848,mMTS,mKcell,mKcell,,D77,2017-08-14T16:12:57+06:00,
1000000000439820,77766350622,mAltel,mKarTel,mKarTel,,D07,2017-08-14T16:14:22+06:00,
1000000000439823,77005700057,mKcell,mAltel,mAltel,,D02,2017-08-14T16:16:11+06:00,
1000000000439825,77053457052,mMTS,mKarTel,mKarTel,,D77,2017-08-14T16:16:55+06:00,
1000000000439826,77077202009,mAltel,mMTS,mMTS,,D07,2017-08-14T16:17:07+06:00,
1000000000439827,77750003088,mMTS,mKcell,mKcell,,D77,2017-08-14T16:17:32+06:00,
1000000000439828,77781849003,mAltel,mKcell,mKcell,,D07,2017-08-14T16:20:02+06:00,
1000000000439829,77783604160,mMTS,mKcell,mKcell,,D77,2017-08-14T16:20:16+06:00,
1000000000439830,77003159441,mAltel,mKarTel,mAltel,D01,D07,2017-08-14T16:21:12+06:00,
1000000000439831,77019203881,mKarTel,mKcell,mKcell,,D01,2017-08-14T16:21:52+06:00,
1000000000439832,77019455537,mKarTel,mKcell,mKcell,,D01,2017-08-14T16:22:09+06:00,
1000000000439834,77476216018,mKarTel,mMTS,mMTS,,D01,2017-08-14T16:22:39+06:00,
1000000000439835,77027552681,mMTS,mKcell,mKcell,,D77,2017-08-14T16:22:48+06:00,
1000000000439836,77472273495,mKarTel,mMTS,mMTS,,D01,2017-08-14T16:24:51+06:00,
1000000000439837,77019714774,mKarTel,mAltel,mKcell,D07,D01,2017-08-14T16:25:52+06:00,
1000000000439838,77772077671,mAltel,mKarTel,mKarTel,,D07,2017-08-14T16:26:27+06:00,
1000000000439839,77077728000,mAltel,mMTS,mMTS,,D07,2017-08-14T16:26:28+06:00,
1000000000439840,77077000881,mKcell,mMTS,mMTS,,D02,2017-08-14T16:27:37+06:00,
1000000000439841,77780003088,mMTS,mKcell,mKcell,,D77,2017-08-14T16:27:33+06:00,
1000000000439842,77710005512,mMTS,mKarTel,mKarTel,,D77,2017-08-14T16:27:51+06:00,
