NPId,Number,RecipientId,DonorId,RangeHolderId,OldRoute,NewRoute,PortDate,RowCount
1000000000198374,77760110021,mMTS,mKarTel,mKarTel,,D77,2016-06-23T15:31:12+06:00,27
1000000000198376,77056806699,mKcell,mKarTel,mKarTel,,D02,2016-06-23T15:31:16+06:00,
1000000000198408,77760017804,mMTS,mKarTel,mKarTel,,D77,2016-06-23T15:55:37+06:00,
1000000000198412,77051192000,mMTS,mKarTel,mKarTel,,D77,2016-06-23T15:48:07+06:00,
1000000000198416,77052820536,mKcell,mKarTel,mKarTel,,D02,2016-06-23T15:56:50+06:00,
1000000000198423,77014311151,mKcell,mKarTel,mKcell,D01,D02,2016-06-23T15:55:51+06:00,
1000000000198538,77015308460,mMTS,mKcell,mKcell,,D77,2016-06-23T15:31:49+06:00,
1000000000198540,77072220569,mKarTel,mMTS,mMTS,,D01,2016-06-23T15:32:02+06:00,
1000000000198542,77713716161,mMTS,mKarTel,mKarTel,,D77,2016-06-23T15:33:50+06:00,
1000000000198544,77051405497,mKarTel,mMTS,mKarTel,D77,D01,2016-06-23T15:34:16+06:00,
1000000000198547,77713718181,mMTS,mKarTel,mKarTel,,D77,2016-06-23T15:38:58+06:00,
1000000000198548,77022415556,mMTS,mKcell,mKcell,,D77,2016-06-23T15:39:07+06:00,
1000000000198549,77773989170,mMTS,mKarTel,mKarTel,,D77,2016-06-23T15:54:58+06:00,
1000000000198550,77751655714,mMTS,mKcell,mKcell,,D77,2016-06-23T15:39:53+06:00,
1000000000198553,77773833565,mMTS,mKarTel,mKarTel,,D77,2016-06-23T15:58:09+06:00,
1000000000198555,77071911971,mKarTel,mMTS,mMTS,,D01,2016-06-23T15:45:00+06:00,
1000000000198558,77771916993,mKcell,mKarTel,mKarTel,,D02,2016-06-23T15:47:27+06:00,
1000000000198559,77023388599,mKarTel,mKcell,mKcell,,D01,2016-06-23T15:46:56+06:00,
1000000000198561,77772684789,mKcell,mKarTel,mKarTel,,D02,2016-06-23T15:48:56+06:00,
1000000000198564,77011723937,mMTS,mKcell,mKcell,,D77,2016-06-23T15:51:35+06:00,
1000000000198565,77756800505,mMTS,mKcell,mKcell,,D77,2016-06-23T15:52:00+06:00,
1000000000198569,77015598495,mKcell,mMTS,mKcell,D77,D02,2016-06-23T15:53:26+06:00,
1000000000198574,77017345314,mKarTel,mKcell,mKcell,,D01,2016-06-23T15:55:25+06:00,
1000000000198575,77757588594,mMTS,mKcell,mKcell,,D77,2016-06-23T15:55:59+06:00,
1000000000198576,77012239057,mKarTel,mKcell,mKcell,,D01,2016-06-23T15:57:16+06:00,
1000000000198578,77757985414,mMTS,mKcell,mKcell,,D77,2016-06-23T15:56:59+06:00,
1000000000198582,77773148522,mKcell,mKarTel,mKarTel,,D02,2016-06-23T15:59:57+06:00,
