NPId,Number,RecipientId,DonorId,RangeHolderId,OldRoute,NewRoute,PortDate,RowCount
1000000000213927,77027775620,mMTS,mKcell,mKcell,,D77,2016-07-19T20:06:45+06:00,3
1000000000213929,77071071368,mKarTel,mMTS,mMTS,,D01,2016-07-19T20:13:44+06:00,
1000000000213930,77013565933,mKcell,mMTS,mKcell,D77,D02,2016-07-19T20:28:35+06:00,
