NPId,Number,RecipientId,DonorId,RangeHolderId,OldRoute,NewRoute,PortDate,RowCount
1000000000435611,77715768861,mKcell,mAltel,mKarTel,D07,D02,2017-08-06T11:01:11+06:00,6
1000000000435613,77478131826,mKcell,mMTS,mMTS,,D02,2017-08-06T11:03:38+06:00,
1000000000435614,77083833729,mKcell,mMTS,mAltel,D77,D02,2017-08-06T11:09:49+06:00,
1000000000435619,77058847381,mAltel,mKarTel,mKarTel,,D07,2017-08-06T11:22:49+06:00,
1000000000435620,77058388877,mKcell,mKarTel,mKarTel,,D02,2017-08-06T11:24:08+06:00,
1000000000435621,77777587272,mMTS,mKarTel,mKarTel,,D77,2017-08-06T11:24:14+06:00,
