NPId,Number,RecipientId,DonorId,RangeHolderId,OldRoute,NewRoute,PortDate,RowCount
1000000000364324,77781751010,mMTS,mKcell,mKcell,,D77,2017-04-11T19:00:44+06:00,25
1000000000364325,77715835885,mMTS,mKarTel,mKarTel,,D77,2017-04-11T19:02:03+06:00,
1000000000364326,77781719362,mKarTel,mKcell,mKcell,,D01,2017-04-11T19:02:16+06:00,
1000000000364327,77758225448,mKarTel,mKcell,mKcell,,D01,2017-04-11T19:02:38+06:00,
1000000000364329,77003331272,mKcell,mAltel,mAltel,,D02,2017-04-11T19:04:06+06:00,
1000000000364330,77022367578,mKcell,mMTS,mKcell,D77,D02,2017-04-11T19:04:39+06:00,
1000000000364331,77007771646,mKcell,mAltel,mAltel,,D02,2017-04-11T19:08:11+06:00,
1000000000364333,77026295131,mAltel,mKcell,mKcell,,D07,2017-04-11T19:09:10+06:00,
1000000000364335,77007771343,mKcell,mAltel,mAltel,,D02,2017-04-11T19:10:25+06:00,
1000000000364336,77087592955,mKcell,mAltel,mAltel,,D02,2017-04-11T19:11:44+06:00,
1000000000364337,77016761486,mKcell,mAltel,mKcell,D07,D02,2017-04-11T19:12:09+06:00,
1000000000364338,77015555846,mAltel,mMTS,mKcell,D77,D07,2017-04-11T19:11:59+06:00,
1000000000364339,77014533838,mKarTel,mKcell,mKcell,,D01,2017-04-11T19:13:24+06:00,
1000000000364340,77053339111,mKcell,mKarTel,mKarTel,,D02,2017-04-11T19:14:40+06:00,
1000000000364341,77774845385,mMTS,mKarTel,mKarTel,,D77,2017-04-11T19:14:46+06:00,
1000000000364342,77054747615,mMTS,mKarTel,mKarTel,,D77,2017-04-11T19:14:52+06:00,
1000000000364343,77003335191,mKcell,mAltel,mAltel,,D02,2017-04-11T19:15:44+06:00,
1000000000364344,77014937220,mKcell,mMTS,mKcell,D77,D02,2017-04-11T19:15:50+06:00,
1000000000364345,77013717187,mKarTel,mMTS,mKcell,D77,D01,2017-04-11T19:16:20+06:00,
1000000000364347,77023796255,mMTS,mKcell,mKcell,,D77,2017-04-11T19:24:38+06:00,
1000000000364350,77053333390,mKcell,mKarTel,mKarTel,,D02,2017-04-11T19:26:34+06:00,
1000000000364351,77784540222,mKarTel,mKcell,mKcell,,D01,2017-04-11T19:27:36+06:00,
1000000000364352,77019998286,mKarTel,mMTS,mKcell,D77,D01,2017-04-11T19:28:07+06:00,
1000000000364354,77762000206,mKcell,mKarTel,mKarTel,,D02,2017-04-11T19:29:21+06:00,
1000000000364355,77013637994,mMTS,mKcell,mKcell,,D77,2017-04-11T19:28:58+06:00,
