NPId,Number,RecipientId,DonorId,RangeHolderId,OldRoute,NewRoute,PortDate,RowCount
1000000000150381,77715781714,mMTS,mKarTel,mKarTel,,D77,2016-04-12T19:33:48+06:00,16
1000000000150383,77715781861,mMTS,mKarTel,mKarTel,,D77,2016-04-12T19:34:31+06:00,
1000000000150384,77788562828,mMTS,mKcell,mKcell,,D77,2016-04-12T19:33:29+06:00,
1000000000150385,77775141515,mKcell,mKarTel,mKarTel,,D02,2016-04-12T19:35:32+06:00,
1000000000150386,77762111989,mMTS,mKarTel,mKarTel,,D77,2016-04-12T19:39:35+06:00,
1000000000150389,77778398692,mAltel,mKarTel,mKarTel,,D07,2016-04-12T19:41:32+06:00,
1000000000150391,77017334835,mKcell,mAltel,mKcell,D07,D02,2016-04-12T19:42:46+06:00,
1000000000150392,77785601404,mMTS,mKcell,mKcell,,D77,2016-04-12T19:43:25+06:00,
1000000000150393,77762333101,mMTS,mKarTel,mKarTel,,D77,2016-04-12T19:46:43+06:00,
1000000000150394,77019992419,mMTS,mKcell,mKcell,,D77,2016-04-12T19:46:08+06:00,
1000000000150396,77017305111,mAltel,mKcell,mKcell,,D07,2016-04-12T19:47:17+06:00,
1000000000150398,77751460998,mAltel,mKcell,mKcell,,D07,2016-04-12T19:50:03+06:00,
1000000000150399,77017363954,mAltel,mKcell,mKcell,,D07,2016-04-12T19:51:12+06:00,
1000000000150401,77771848873,mMTS,mKarTel,mKarTel,,D77,2016-04-12T19:55:03+06:00,
1000000000150402,77782450120,mMTS,mKcell,mKcell,,D77,2016-04-12T19:54:43+06:00,
1000000000150403,77015996673,mMTS,mKcell,mKcell,,D77,2016-04-12T19:57:33+06:00,
