NPId,Number,RecipientId,DonorId,RangeHolderId,OldRoute,NewRoute,PortDate,RowCount
1000000000090681,77019816238,mKarTel,mKcell,mKcell,,D01,2016-02-17T10:31:00+06:00,27
1000000000090683,77019816237,mKarTel,mKcell,mKcell,,D01,2016-02-17T10:31:43+06:00,
1000000000090684,77019816236,mKarTel,mKcell,mKcell,,D01,2016-02-17T10:32:26+06:00,
1000000000090685,77075305670,mKarTel,mMTS,mMTS,,D01,2016-02-17T10:32:21+06:00,
1000000000090687,77017528186,mMTS,mKcell,mKcell,,D77,2016-02-17T10:32:54+06:00,
1000000000090688,77019816235,mKarTel,mKcell,mKcell,,D01,2016-02-17T10:33:11+06:00,
1000000000090689,77777180101,mMTS,mKarTel,mKarTel,,D77,2016-02-17T10:33:12+06:00,
1000000000090691,77019816234,mKarTel,mKcell,mKcell,,D01,2016-02-17T10:33:49+06:00,
1000000000090692,77078568888,mAltel,mMTS,mMTS,,D07,2016-02-17T10:34:55+06:00,
1000000000090694,77478756195,mAltel,mMTS,mMTS,,D07,2016-02-17T10:37:31+06:00,
1000000000090695,77028200081,mMTS,mKcell,mKcell,,D77,2016-02-17T10:37:55+06:00,
1000000000090696,77786097771,mAltel,mKcell,mKcell,,D07,2016-02-17T10:40:22+06:00,
1000000000090698,77015115375,mKarTel,mKcell,mKcell,,D01,2016-02-17T10:49:04+06:00,
1000000000090699,77019714517,mMTS,mKcell,mKcell,,D77,2016-02-17T10:42:53+06:00,
1000000000090700,77004912526,mKcell,mAltel,mAltel,,D02,2016-02-17T10:43:10+06:00,
1000000000090701,77003592308,mMTS,mAltel,mAltel,,D77,2016-02-17T10:43:04+06:00,
1000000000090702,77014282755,mMTS,mKcell,mKcell,,D77,2016-02-17T10:43:51+06:00,
1000000000090703,77777909777,mMTS,mKarTel,mKarTel,,D77,2016-02-17T10:47:05+06:00,
1000000000090708,77017571493,mKarTel,mKcell,mKcell,,D01,2016-02-17T10:51:33+06:00,
1000000000090709,77775409229,mKcell,mKarTel,mKarTel,,D02,2016-02-17T10:54:18+06:00,
1000000000090710,77017267445,mMTS,mKcell,mKcell,,D77,2016-02-17T10:54:04+06:00,
1000000000090711,77053034265,mAltel,mKarTel,mKarTel,,D07,2016-02-17T10:55:56+06:00,
1000000000090712,77011111110,mAltel,mKcell,mKcell,,D07,2016-02-17T10:56:12+06:00,
1000000000090713,77017888888,mAltel,mKcell,mKcell,,D07,2016-02-17T10:56:49+06:00,
1000000000090716,77071260879,mKcell,mMTS,mMTS,,D02,2016-02-17T10:58:37+06:00,
1000000000090717,77022225566,mAltel,mKcell,mKcell,,D07,2016-02-17T10:59:39+06:00,
1000000000090718,77021502831,mAltel,mKcell,mKcell,,D07,2016-02-17T10:59:52+06:00,
