NPId,Number,RecipientId,DonorId,RangeHolderId,OldRoute,NewRoute,PortDate,RowCount
1000000000326862,77056387175,mAltel,mKarTel,mKarTel,,D07,2017-02-10T15:07:38+06:00,9
1000000000326869,77056666092,mKcell,mKarTel,mKarTel,,D02,2017-02-10T15:24:23+06:00,
1000000000326871,77472994946,mKarTel,mMTS,mMTS,,D01,2017-02-10T15:05:28+06:00,
1000000000326888,77781413939,mKcell,mMTS,mKcell,D77,D02,2017-02-10T15:15:23+06:00,
1000000000326889,77071072809,mKcell,mMTS,mMTS,,D02,2017-02-10T15:17:10+06:00,
1000000000326890,77018801960,mKarTel,mKcell,mKcell,,D01,2017-02-10T15:28:10+06:00,
1000000000326895,77005510811,mKcell,mAltel,mAltel,,D02,2017-02-10T15:21:12+06:00,
1000000000326898,77011302248,mAltel,mKcell,mKcell,,D07,2017-02-10T15:23:17+06:00,
1000000000326905,77001812828,mKcell,mAltel,mAltel,,D02,2017-02-10T15:28:44+06:00,
