NPId,Number,RecipientId,DonorId,RangeHolderId,OldRoute,NewRoute,PortDate,RowCount
1000000000133266,77078612400,mMTS,mAltel,mMTS,D07,D77,2016-03-25T16:30:07+06:00,43
1000000000133268,77082645041,mMTS,mAltel,mAltel,,D77,2016-03-25T16:30:57+06:00,
1000000000133269,77017297009,mMTS,mKcell,mKcell,,D77,2016-03-25T16:31:43+06:00,
1000000000133270,77055517272,mKcell,mKarTel,mKarTel,,D02,2016-03-25T16:33:37+06:00,
1000000000133271,77017109924,mMTS,mKcell,mKcell,,D77,2016-03-25T16:32:26+06:00,
1000000000133272,77751600152,mMTS,mKcell,mKcell,,D77,2016-03-25T16:33:40+06:00,
1000000000133273,77711499176,mMTS,mKarTel,mKarTel,,D77,2016-03-25T16:34:21+06:00,
1000000000133274,77017136638,mMTS,mKcell,mKcell,,D77,2016-03-25T16:34:26+06:00,
1000000000133276,77059697575,mMTS,mKarTel,mKarTel,,D77,2016-03-25T16:36:25+06:00,
1000000000133277,77007755979,mMTS,mAltel,mAltel,,D77,2016-03-25T16:35:23+06:00,
1000000000133278,77081011549,mKarTel,mAltel,mAltel,,D01,2016-03-25T16:35:58+06:00,
1000000000133280,77716703030,mMTS,mKarTel,mKarTel,,D77,2016-03-25T16:38:04+06:00,
1000000000133281,77014207040,mAltel,mKcell,mKcell,,D07,2016-03-25T16:37:28+06:00,
1000000000133283,77018809444,mAltel,mKcell,mKcell,,D07,2016-03-25T16:40:49+06:00,
1000000000133285,77787008877,mMTS,mKcell,mKcell,,D77,2016-03-25T16:41:01+06:00,
1000000000133286,77016181984,mKarTel,mKcell,mKcell,,D01,2016-03-25T16:41:49+06:00,
1000000000133288,77007755969,mMTS,mAltel,mAltel,,D77,2016-03-25T16:41:07+06:00,
1000000000133289,77056993303,mMTS,mKarTel,mKarTel,,D77,2016-03-25T16:42:43+06:00,
1000000000133290,77756616025,mAltel,mKcell,mKcell,,D07,2016-03-25T16:42:08+06:00,
1000000000133294,77787780000,mMTS,mKcell,mKcell,,D77,2016-03-25T16:43:38+06:00,
1000000000133295,77773005150,mMTS,mKarTel,mKarTel,,D77,2016-03-25T16:44:50+06:00,
1000000000133296,77751011005,mMTS,mKcell,mKcell,,D77,2016-03-25T16:44:20+06:00,
1000000000133300,77072011154,mMTS,mKarTel,mMTS,D01,D77,2016-03-25T16:46:11+06:00,
1000000000133303,77759771777,mMTS,mAltel,mKcell,D07,D77,2016-03-25T16:46:53+06:00,
1000000000133305,77011692313,mAltel,mKcell,mKcell,,D07,2016-03-25T16:47:40+06:00,
1000000000133308,77477690763,mKcell,mMTS,mMTS,,D02,2016-03-25T16:48:29+06:00,
1000000000133309,77779191991,mKcell,mKarTel,mKarTel,,D02,2016-03-25T16:49:48+06:00,
1000000000133310,77760702020,mKcell,mKarTel,mKarTel,,D02,2016-03-25T16:49:48+06:00,
1000000000133313,77012105089,mMTS,mKcell,mKcell,,D77,2016-03-25T16:49:18+06:00,
1000000000133314,77074901717,mAltel,mMTS,mMTS,,D07,2016-03-25T16:50:05+06:00,
1000000000133315,77772962480,mAltel,mKarTel,mKarTel,,D07,2016-03-25T16:51:23+06:00,
1000000000133316,77051803608,mMTS,mKarTel,mKarTel,,D77,2016-03-25T16:51:49+06:00,
1000000000133317,77026769304,mAltel,mKcell,mKcell,,D07,2016-03-25T16:50:53+06:00,
1000000000133318,77775777017,mKcell,mKarTel,mKarTel,,D02,2016-03-25T16:53:03+06:00,
1000000000133320,77776748380,mMTS,mKarTel,mKarTel,,D77,2016-03-25T16:52:47+06:00,
1000000000133321,77471546636,mAltel,mMTS,mMTS,,D07,2016-03-25T16:51:50+06:00,
1000000000133322,77082189493,mMTS,mAltel,mAltel,,D77,2016-03-25T16:52:05+06:00,
1000000000133323,77014437763,mMTS,mKcell,mKcell,,D77,2016-03-25T16:52:35+06:00,
1000000000133324,77754982013,mAltel,mKcell,mKcell,,D07,2016-03-25T16:53:42+06:00,
1000000000133325,77780003323,mMTS,mKcell,mKcell,,D77,2016-03-25T16:54:08+06:00,
1000000000133327,77015391542,mKcell,mAltel,mKcell,D07,D02,2016-03-25T16:56:47+06:00,
1000000000133328,77774214907,mMTS,mKarTel,mKarTel,,D77,2016-03-25T16:57:55+06:00,
1000000000133331,77082392941,mMTS,mAltel,mAltel,,D77,2016-03-25T16:58:32+06:00,
