NPId,Number,RecipientId,DonorId,RangeHolderId,OldRoute,NewRoute,PortDate,RowCount
1000000000220775,77059049902,mKarTel,mAltel,mKarTel,D07,D01,2016-08-01T11:00:12+06:00,29
1000000000220776,77014729999,mKarTel,mKcell,mKcell,,D01,2016-08-01T11:00:33+06:00,
1000000000220779,77773496891,mKcell,mKarTel,mKarTel,,D02,2016-08-01T11:04:54+06:00,
1000000000220780,77054612350,mKarTel,mKcell,mKarTel,D02,D01,2016-08-01T11:04:39+06:00,
1000000000220782,77015503949,mMTS,mKcell,mKcell,,D77,2016-08-01T11:06:01+06:00,
1000000000220783,77771495850,mMTS,mKarTel,mKarTel,,D77,2016-08-01T11:06:20+06:00,
1000000000220784,77079093030,mKarTel,mMTS,mMTS,,D01,2016-08-01T11:06:23+06:00,
1000000000220785,77711431011,mMTS,mKarTel,mKarTel,,D77,2016-08-01T11:06:56+06:00,
1000000000220786,77027022220,mKarTel,mKcell,mKcell,,D01,2016-08-01T11:07:28+06:00,
1000000000220787,77059862611,mKcell,mKarTel,mKarTel,,D02,2016-08-01T11:08:35+06:00,
1000000000220789,77014516465,mMTS,mKcell,mKcell,,D77,2016-08-01T11:09:29+06:00,
1000000000220790,77015123286,mKcell,mKarTel,mKcell,D01,D02,2016-08-01T11:10:54+06:00,
1000000000220791,77058327503,mMTS,mKarTel,mKarTel,,D77,2016-08-01T11:10:27+06:00,
1000000000220792,77789379991,mMTS,mKcell,mKcell,,D77,2016-08-01T11:10:06+06:00,
1000000000220793,77075276505,mKarTel,mMTS,mMTS,,D01,2016-08-01T11:11:15+06:00,
1000000000220794,77003728643,mMTS,mAltel,mAltel,,D77,2016-08-01T11:12:35+06:00,
1000000000220795,77075247904,mKcell,mMTS,mMTS,,D02,2016-08-01T11:17:44+06:00,
1000000000220796,77051570030,mKcell,mKarTel,mKarTel,,D02,2016-08-01T11:18:20+06:00,
1000000000220797,77075150012,mAltel,mMTS,mMTS,D77,D07,2016-08-01T11:18:40+06:00,
1000000000220799,77018899500,mKcell,mMTS,mKcell,D77,D02,2016-08-01T11:20:27+06:00,
1000000000220800,77082660053,mMTS,mAltel,mAltel,,D77,2016-08-01T11:20:28+06:00,
1000000000220801,77012182042,mMTS,mKcell,mKcell,,D77,2016-08-01T11:21:29+06:00,
1000000000220803,77017209278,mMTS,mKcell,mKcell,,D77,2016-08-01T11:22:11+06:00,
1000000000220805,77770605404,mMTS,mKarTel,mKarTel,,D77,2016-08-01T11:24:40+06:00,
1000000000220806,77089889646,mMTS,mAltel,mAltel,,D77,2016-08-01T11:25:49+06:00,
1000000000220807,77783420736,mMTS,mKcell,mKcell,,D77,2016-08-01T11:26:04+06:00,
1000000000220808,77779837106,mMTS,mKarTel,mKarTel,,D77,2016-08-01T11:29:01+06:00,
1000000000220809,77766660694,mKarTel,mMTS,mKarTel,D77,D01,2016-08-01T11:29:15+06:00,
1000000000220810,77717923976,mMTS,mKarTel,mKarTel,D01,D77,2016-08-01T11:29:50+06:00,
