NPId,Number,RecipientId,DonorId,RangeHolderId,OldRoute,NewRoute,PortDate,RowCount
1000000000261392,77001701777,mMTS,mAltel,mAltel,,D77,2016-10-12T17:31:11+06:00,19
1000000000261393,77027019311,mKarTel,mKcell,mKcell,,D01,2016-10-12T17:35:13+06:00,
1000000000261394,77019888777,mKarTel,mKcell,mKcell,,D01,2016-10-12T17:33:26+06:00,
1000000000261395,77777324998,mKarTel,mMTS,mKarTel,D77,D01,2016-10-12T17:33:26+06:00,
1000000000261397,77057473158,mMTS,mKarTel,mKarTel,,D77,2016-10-12T17:38:47+06:00,
1000000000261399,77013895487,mKcell,mMTS,mKcell,D77,D02,2016-10-12T17:37:07+06:00,
1000000000261401,77071607090,mKarTel,mMTS,mMTS,,D01,2016-10-12T17:40:33+06:00,
1000000000261402,77023606541,mMTS,mKcell,mKcell,,D77,2016-10-12T17:39:32+06:00,
1000000000261404,77004469644,mMTS,mAltel,mAltel,,D77,2016-10-12T17:39:45+06:00,
1000000000261407,77052021916,mMTS,mKarTel,mKarTel,,D77,2016-10-12T17:47:37+06:00,
1000000000261408,77029354865,mMTS,mKcell,mKcell,,D77,2016-10-12T17:44:52+06:00,
1000000000261411,77026492901,mMTS,mKcell,mKcell,,D77,2016-10-12T17:48:46+06:00,
1000000000261412,77776189215,mMTS,mKarTel,mKarTel,,D77,2016-10-12T17:52:56+06:00,
1000000000261413,77783819201,mKcell,mMTS,mKcell,D77,D02,2016-10-12T17:49:23+06:00,
1000000000261414,77773192286,mMTS,mKarTel,mKarTel,,D77,2016-10-12T17:58:18+06:00,
1000000000261416,77756900080,mKarTel,mKcell,mKcell,,D01,2016-10-12T17:56:33+06:00,
1000000000261418,77004112585,mMTS,mAltel,mAltel,,D77,2016-10-12T17:55:52+06:00,
1000000000261421,77073636000,mKarTel,mMTS,mMTS,,D01,2016-10-12T17:58:21+06:00,
1000000000261422,77088101777,mMTS,mAltel,mAltel,,D77,2016-10-12T17:57:29+06:00,
