NPId,Number,RecipientId,DonorId,RangeHolderId,OldRoute,NewRoute,PortDate,RowCount
1000000000326731,77015210098,mKarTel,mKcell,mKcell,,D01,2017-02-10T16:48:48+06:00,14
1000000000326927,77773575770,mKcell,mKarTel,mKarTel,,D02,2017-02-10T16:33:12+06:00,
1000000000326932,77776740469,mMTS,mKarTel,mKarTel,,D77,2017-02-10T16:37:39+06:00,
1000000000326958,77786099189,mKarTel,mKcell,mKcell,,D01,2017-02-10T16:38:36+06:00,
1000000000326960,77757601020,mKarTel,mKcell,mKcell,,D01,2017-02-10T16:40:13+06:00,
1000000000326962,77477063678,mKarTel,mMTS,mMTS,,D01,2017-02-10T16:44:57+06:00,
1000000000326963,77012779262,mKarTel,mKcell,mKcell,,D01,2017-02-10T16:46:59+06:00,
1000000000326967,77018064895,mMTS,mKcell,mKcell,,D77,2017-02-10T16:36:03+06:00,
1000000000326968,77028538853,mKarTel,mKcell,mKcell,,D01,2017-02-10T16:57:05+06:00,
1000000000326972,77781000078,mMTS,mKcell,mKcell,,D77,2017-02-10T16:49:03+06:00,
1000000000326973,77758284444,mAltel,mKcell,mKcell,,D07,2017-02-10T16:50:06+06:00,
1000000000326978,77018017365,mAltel,mKcell,mKcell,,D07,2017-02-10T16:58:06+06:00,
1000000000326980,77026922299,mAltel,mKcell,mKcell,,D07,2017-02-10T16:58:32+06:00,
1000000000326981,77755296457,mAltel,mKcell,mKcell,,D07,2017-02-10T16:59:15+06:00,
