NPId,Number,RecipientId,DonorId,RangeHolderId,OldRoute,NewRoute,PortDate,RowCount
1000000000046735,77015414113,mMTS,mKcell,mKcell,,D77,2016-02-13T10:01:56+06:00,14
1000000000046736,77752866899,mMTS,mKcell,mKcell,,D77,2016-02-13T10:01:56+06:00,
1000000000046737,77752866898,mMTS,mKcell,mKcell,,D77,2016-02-13T10:01:56+06:00,
1000000000046738,77003996607,mMTS,mAltel,mAltel,,D77,2016-02-13T10:11:27+06:00,
1000000000046739,77019221199,mMTS,mKcell,mKcell,,D77,2016-02-13T10:11:57+06:00,
1000000000046742,77026363933,mAltel,mKcell,mKcell,,D07,2016-02-13T10:19:44+06:00,
1000000000046743,77789927727,mMTS,mKcell,mKcell,,D77,2016-02-13T10:19:48+06:00,
1000000000046746,77012060366,mAltel,mKcell,mKcell,,D07,2016-02-13T10:21:52+06:00,
1000000000046747,77475587018,mAltel,mMTS,mMTS,,D07,2016-02-13T10:23:22+06:00,
1000000000046749,77017313538,mMTS,mKcell,mKcell,,D77,2016-02-13T10:25:56+06:00,
1000000000046751,77783212938,mAltel,mKcell,mKcell,,D07,2016-02-13T10:27:05+06:00,
1000000000046752,77022203311,mAltel,mKcell,mKcell,,D07,2016-02-13T10:28:59+06:00,
1000000000046753,77079899001,mAltel,mMTS,mMTS,,D07,2016-02-13T10:29:24+06:00,
1000000000046754,77082604847,mMTS,mAltel,mAltel,,D77,2016-02-13T10:29:28+06:00,
