NPId,Number,RecipientId,DonorId,RangeHolderId,OldRoute,NewRoute,PortDate,RowCount
1000000000351087,77751343952,mKcell,mMTS,mKcell,D77,D02,2017-03-23T14:35:33+06:00,23
1000000000351088,77715721044,mKcell,mKarTel,mKarTel,,D02,2017-03-23T14:38:39+06:00,
1000000000351089,77026380402,mAltel,mKcell,mKcell,,D07,2017-03-23T14:38:17+06:00,
1000000000351090,77077871101,mMTS,mKarTel,mMTS,D01,D77,2017-03-23T14:38:51+06:00,
1000000000351091,77021480806,mMTS,mAltel,mKcell,D07,D77,2017-03-23T14:38:41+06:00,
1000000000351092,77472189888,mKarTel,mMTS,mMTS,,D01,2017-03-23T14:39:15+06:00,
1000000000351093,77763277774,mKarTel,mMTS,mKarTel,D77,D01,2017-03-23T14:39:58+06:00,
1000000000351094,77015775056,mMTS,mKcell,mKcell,,D77,2017-03-23T14:40:01+06:00,
1000000000351095,77077479711,mKcell,mMTS,mMTS,,D02,2017-03-23T14:40:20+06:00,
1000000000351096,77778698314,mKcell,mMTS,mKarTel,D77,D02,2017-03-23T14:42:10+06:00,
1000000000351097,77021100016,mMTS,mAltel,mKcell,D07,D77,2017-03-23T14:41:59+06:00,
1000000000351099,77004009252,mKcell,mAltel,mAltel,,D02,2017-03-23T14:43:08+06:00,
1000000000351101,77019746832,mMTS,mKcell,mKcell,,D77,2017-03-23T14:46:30+06:00,
1000000000351102,77787884746,mAltel,mKcell,mKcell,,D07,2017-03-23T14:47:33+06:00,
1000000000351103,77015569836,mMTS,mKarTel,mKcell,D01,D77,2017-03-23T14:48:08+06:00,
1000000000351104,77019909890,mKcell,mKarTel,mKcell,D01,D02,2017-03-23T14:49:23+06:00,
1000000000351105,77024190303,mMTS,mKcell,mKcell,,D77,2017-03-23T14:51:29+06:00,
1000000000351107,77718478187,mKarTel,mMTS,mKarTel,D77,D01,2017-03-23T14:52:44+06:00,
1000000000351108,77077860990,mKcell,mMTS,mMTS,,D02,2017-03-23T14:53:55+06:00,
1000000000351110,77072876620,mAltel,mMTS,mMTS,,D07,2017-03-23T14:57:53+06:00,
1000000000351111,77025113251,mAltel,mKcell,mKcell,,D07,2017-03-23T14:57:58+06:00,
1000000000351112,77758025582,mKarTel,mKcell,mKcell,,D01,2017-03-23T14:59:00+06:00,
1000000000351115,77755371721,mKcell,mMTS,mKcell,D77,D02,2017-03-23T14:59:43+06:00,
