NPId,Number,RecipientId,DonorId,RangeHolderId,OldRoute,NewRoute,PortDate,RowCount
1000000000310031,77010359293,mKcell,mKarTel,mKcell,D01,D02,2017-01-13T13:04:35+06:00,16
1000000000310039,77001379585,mMTS,mAltel,mAltel,,D77,2017-01-13T13:01:38+06:00,
1000000000310042,77771735050,mMTS,mKarTel,mKarTel,,D77,2017-01-13T13:11:42+06:00,
1000000000310043,77014368325,mMTS,mKcell,mKcell,,D77,2017-01-13T13:13:30+06:00,
1000000000310044,77760050608,mKcell,mKarTel,mKarTel,,D02,2017-01-13T13:14:21+06:00,
1000000000310047,77077188190,mKcell,mMTS,mMTS,,D02,2017-01-13T13:18:21+06:00,
1000000000310048,77777577177,mKcell,mKarTel,mKarTel,,D02,2017-01-13T13:18:12+06:00,
1000000000310049,77072973337,mKcell,mMTS,mMTS,,D02,2017-01-13T13:18:05+06:00,
1000000000310050,77078168695,mAltel,mMTS,mMTS,,D07,2017-01-13T13:19:07+06:00,
1000000000310052,77760051094,mKcell,mKarTel,mKarTel,,D02,2017-01-13T13:22:02+06:00,
1000000000310055,77770777500,mKcell,mKarTel,mKarTel,,D02,2017-01-13T13:24:13+06:00,
1000000000310056,77028038555,mKcell,mMTS,mKcell,D77,D02,2017-01-13T13:24:13+06:00,
1000000000310057,77072293405,mMTS,mAltel,mMTS,D07,D77,2017-01-13T13:24:13+06:00,
1000000000310059,77077864949,mAltel,mMTS,mMTS,,D07,2017-01-13T13:25:33+06:00,
1000000000310061,77019059051,mKcell,mMTS,mKcell,D77,D02,2017-01-13T13:27:36+06:00,
1000000000310062,77015355750,mKarTel,mKcell,mKcell,,D01,2017-01-13T13:27:42+06:00,
