NPId,Number,RecipientId,DonorId,RangeHolderId,OldRoute,NewRoute,PortDate,RowCount
1000000000172277,77770065058,mMTS,mKarTel,mKarTel,,D77,2016-05-11T19:42:33+06:00,13
1000000000172279,77077777963,mKcell,mMTS,mMTS,,D02,2016-05-11T19:33:41+06:00,
1000000000172280,77017862062,mKarTel,mKcell,mKcell,,D01,2016-05-11T19:34:49+06:00,
1000000000172281,77023405956,mKcell,mAltel,mKcell,D07,D02,2016-05-11T19:35:21+06:00,
1000000000172282,77015924991,mMTS,mKcell,mKcell,,D77,2016-05-11T19:38:05+06:00,
1000000000172285,77777330777,mKarTel,mAltel,mKarTel,D07,D01,2016-05-11T19:42:25+06:00,
1000000000172286,77073272818,mKarTel,mMTS,mMTS,,D01,2016-05-11T19:42:49+06:00,
1000000000172287,77754618325,mKcell,mAltel,mKcell,D07,D02,2016-05-11T19:44:33+06:00,
1000000000172288,77057550755,mKcell,mKarTel,mKarTel,,D02,2016-05-11T19:45:29+06:00,
1000000000172289,77759106591,mKcell,mAltel,mKcell,D07,D02,2016-05-11T19:45:41+06:00,
1000000000172290,77025333374,mKcell,mMTS,mKcell,D77,D02,2016-05-11T19:51:20+06:00,
1000000000172292,77768668800,mKcell,mAltel,mKarTel,D07,D02,2016-05-11T19:54:58+06:00,
1000000000172293,77771123566,mMTS,mKarTel,mKarTel,,D77,2016-05-11T19:56:10+06:00,
