NPId,Number,RecipientId,DonorId,RangeHolderId,OldRoute,NewRoute,PortDate,RowCount
1000000000198849,77017576200,mKcell,mKarTel,mKcell,D01,D02,2016-06-24T09:54:35+06:00,10
1000000000198851,77770664774,mMTS,mKarTel,mKarTel,,D77,2016-06-24T09:35:55+06:00,
1000000000198852,77017100868,mKcell,mKarTel,mKcell,D01,D02,2016-06-24T09:53:14+06:00,
1000000000198853,77073480506,mAltel,mMTS,mMTS,,D07,2016-06-24T09:39:11+06:00,
1000000000198854,77072003018,mKcell,mMTS,mMTS,,D02,2016-06-24T09:42:32+06:00,
1000000000198855,77789808067,mKcell,mKarTel,mKcell,D01,D02,2016-06-24T09:45:10+06:00,
1000000000198857,77072005016,mKcell,mMTS,mMTS,,D02,2016-06-24T09:46:21+06:00,
1000000000198858,77023036345,mMTS,mKcell,mKcell,,D77,2016-06-24T09:47:32+06:00,
1000000000198859,77013401384,mKarTel,mMTS,mKcell,D77,D01,2016-06-24T09:47:40+06:00,
1000000000198862,77018148877,mMTS,mKcell,mKcell,,D77,2016-06-24T09:57:01+06:00,
