NPId,Number,RecipientId,DonorId,RangeHolderId,OldRoute,NewRoute,PortDate,RowCount
1000000000242691,77716115100,mMTS,mKarTel,mKarTel,,D77,2016-09-08T16:30:15+06:00,26
1000000000242692,77012225591,mKarTel,mKcell,mKcell,,D01,2016-09-08T16:30:42+06:00,
1000000000242693,77770089706,mKcell,mKarTel,mKarTel,,D02,2016-09-08T16:34:56+06:00,
1000000000242694,77016048666,mKarTel,mKcell,mKcell,,D01,2016-09-08T16:33:19+06:00,
1000000000242696,77770443538,mKcell,mKarTel,mKarTel,,D02,2016-09-08T16:38:19+06:00,
1000000000242698,77718233208,mMTS,mKarTel,mKarTel,,D77,2016-09-08T16:39:42+06:00,
1000000000242699,77017785797,mKarTel,mKcell,mKcell,,D01,2016-09-08T16:39:40+06:00,
1000000000242700,77021520752,mKcell,mMTS,mKcell,D77,D02,2016-09-08T16:40:18+06:00,
1000000000242702,77776280698,mMTS,mKarTel,mKarTel,,D77,2016-09-08T16:42:54+06:00,
1000000000242703,77054243173,mKarTel,mMTS,mKarTel,D77,D01,2016-09-08T16:43:47+06:00,
1000000000242706,77714254099,mMTS,mKarTel,mKarTel,,D77,2016-09-08T16:46:59+06:00,
1000000000242707,77751641818,mKarTel,mKcell,mKcell,,D01,2016-09-08T16:47:38+06:00,
1000000000242709,77757119449,mMTS,mKcell,mKcell,,D77,2016-09-08T16:48:17+06:00,
1000000000242711,77087528441,mMTS,mAltel,mAltel,,D77,2016-09-08T16:48:35+06:00,
1000000000242712,77072220406,mKcell,mMTS,mMTS,,D02,2016-09-08T16:49:05+06:00,
1000000000242714,77018000850,mKcell,mMTS,mKcell,D77,D02,2016-09-08T16:50:49+06:00,
1000000000242715,77012449855,mKarTel,mKcell,mKcell,,D01,2016-09-08T16:50:58+06:00,
1000000000242716,77021362640,mMTS,mKcell,mKcell,,D77,2016-09-08T16:52:31+06:00,
1000000000242717,77077879828,mKcell,mMTS,mMTS,,D02,2016-09-08T16:52:44+06:00,
1000000000242718,77074313434,mAltel,mMTS,mMTS,,D07,2016-09-08T16:53:35+06:00,
1000000000242720,77017207032,mKarTel,mKcell,mKcell,,D01,2016-09-08T16:55:00+06:00,
1000000000242721,77714000773,mMTS,mKarTel,mKarTel,,D77,2016-09-08T16:55:46+06:00,
1000000000242722,77475818141,mAltel,mMTS,mMTS,,D07,2016-09-08T16:56:34+06:00,
1000000000242723,77052511117,mKcell,mKarTel,mKarTel,,D02,2016-09-08T16:57:58+06:00,
1000000000242724,77085436828,mMTS,mAltel,mAltel,,D77,2016-09-08T16:57:24+06:00,
1000000000242725,77015556977,mKarTel,mKcell,mKcell,,D01,2016-09-08T16:57:48+06:00,
