NPId,Number,RecipientId,DonorId,RangeHolderId,OldRoute,NewRoute,PortDate,RowCount
1000000000302680,77017867814,mKarTel,mKcell,mKcell,,D01,2016-12-29T14:18:20+06:00,26
1000000000302808,77017930498,mKcell,mMTS,mKcell,D77,D02,2016-12-29T14:00:11+06:00,
1000000000302809,77761248982,mMTS,mKarTel,mKarTel,,D77,2016-12-29T14:00:45+06:00,
1000000000302810,77769000909,mKcell,mMTS,mKarTel,D77,D02,2016-12-29T14:03:07+06:00,
1000000000302811,77011375737,mMTS,mKcell,mKcell,D02,D77,2016-12-29T14:03:57+06:00,
1000000000302812,77783597668,mKcell,mMTS,mKcell,D77,D02,2016-12-29T14:04:27+06:00,
1000000000302814,77001527703,mKcell,mAltel,mAltel,,D02,2016-12-29T14:04:49+06:00,
1000000000302815,77478429271,mAltel,mKcell,mMTS,D02,D07,2016-12-29T14:05:23+06:00,
1000000000302817,77007118607,mKarTel,mAltel,mAltel,D07,D01,2016-12-29T14:06:04+06:00,
1000000000302818,77784552357,mMTS,mKcell,mKcell,,D77,2016-12-29T14:07:31+06:00,
1000000000302820,77759496757,mMTS,mKcell,mKcell,,D77,2016-12-29T14:10:25+06:00,
1000000000302821,77012522221,mKarTel,mKcell,mKcell,,D01,2016-12-29T14:14:48+06:00,
1000000000302822,77760516116,mMTS,mKarTel,mKarTel,,D77,2016-12-29T14:12:35+06:00,
1000000000302824,77001200019,mMTS,mAltel,mAltel,,D77,2016-12-29T14:12:57+06:00,
1000000000302825,77017438111,mMTS,mKcell,mKcell,,D77,2016-12-29T14:14:39+06:00,
1000000000302826,77754683990,mMTS,mKcell,mKcell,,D77,2016-12-29T14:15:27+06:00,
1000000000302827,77027164748,mMTS,mKcell,mKcell,,D77,2016-12-29T14:15:33+06:00,
1000000000302828,77717540848,mKarTel,mMTS,mKarTel,D77,D01,2016-12-29T14:16:16+06:00,
1000000000302829,77773988068,mMTS,mKarTel,mKarTel,,D77,2016-12-29T14:17:56+06:00,
1000000000302830,77022065788,mMTS,mAltel,mKcell,D07,D77,2016-12-29T14:17:35+06:00,
1000000000302831,77769335566,mKcell,mKarTel,mKarTel,D01,D02,2016-12-29T14:19:16+06:00,
1000000000302832,77778281606,mAltel,mKarTel,mKarTel,,D07,2016-12-29T14:20:00+06:00,
1000000000302833,77017751719,mAltel,mKcell,mKcell,,D07,2016-12-29T14:24:23+06:00,
1000000000302834,77772289359,mMTS,mKarTel,mKarTel,,D77,2016-12-29T14:27:57+06:00,
1000000000302835,77753091572,mMTS,mKcell,mKcell,,D77,2016-12-29T14:27:43+06:00,
1000000000302836,77012804878,mMTS,mKcell,mKcell,,D77,2016-12-29T14:28:01+06:00,
