NPId,Number,RecipientId,DonorId,RangeHolderId,OldRoute,NewRoute,PortDate,RowCount
1000000000351772,77002585840,mMTS,mAltel,mAltel,,D77,2017-03-24T17:00:30+06:00,32
1000000000351773,77471570315,mKcell,mMTS,mMTS,,D02,2017-03-24T17:01:38+06:00,
1000000000351774,77012237911,mKcell,mAltel,mKcell,D07,D02,2017-03-24T17:01:41+06:00,
1000000000351776,77028715647,mMTS,mKcell,mKcell,,D77,2017-03-24T17:02:29+06:00,
1000000000351779,77753695499,mKcell,mAltel,mKcell,D07,D02,2017-03-24T17:03:58+06:00,
1000000000351780,77006101095,mMTS,mAltel,mAltel,,D77,2017-03-24T17:03:53+06:00,
1000000000351782,77015282109,mKcell,mAltel,mKcell,D07,D02,2017-03-24T17:07:25+06:00,
1000000000351786,77017656893,mAltel,mKarTel,mKcell,D01,D07,2017-03-24T17:09:33+06:00,
1000000000351787,77714335544,mMTS,mKarTel,mKarTel,,D77,2017-03-24T17:09:34+06:00,
1000000000351791,77059009925,mKarTel,mAltel,mKarTel,D07,D01,2017-03-24T17:10:18+06:00,
1000000000351793,77471570031,mKcell,mMTS,mMTS,,D02,2017-03-24T17:11:28+06:00,
1000000000351794,77007492193,mMTS,mAltel,mAltel,,D77,2017-03-24T17:11:28+06:00,
1000000000351795,77758590904,mAltel,mKcell,mKcell,,D07,2017-03-24T17:11:49+06:00,
1000000000351796,77024665696,mAltel,mKcell,mKcell,D02,D07,2017-03-24T17:12:04+06:00,
1000000000351798,77029305187,mKarTel,mKcell,mKcell,,D01,2017-03-24T17:13:17+06:00,
1000000000351800,77019641401,mAltel,mKcell,mKcell,,D07,2017-03-24T17:15:35+06:00,
1000000000351801,77056521616,mAltel,mKarTel,mKarTel,,D07,2017-03-24T17:15:53+06:00,
1000000000351802,77019380134,mKarTel,mKcell,mKcell,,D01,2017-03-24T17:16:13+06:00,
1000000000351804,77017223505,mMTS,mKcell,mKcell,,D77,2017-03-24T17:17:17+06:00,
1000000000351805,77770075050,mKcell,mKarTel,mKarTel,,D02,2017-03-24T17:18:22+06:00,
1000000000351806,77772503028,mMTS,mKarTel,mKarTel,,D77,2017-03-24T17:18:15+06:00,
1000000000351808,77078606874,mMTS,mAltel,mMTS,D07,D77,2017-03-24T17:19:54+06:00,
1000000000351809,77756699978,mMTS,mKcell,mKcell,,D77,2017-03-24T17:20:19+06:00,
1000000000351810,77770019001,mKcell,mKarTel,mKarTel,,D02,2017-03-24T17:21:43+06:00,
1000000000351811,77012210742,mMTS,mKcell,mKcell,,D77,2017-03-24T17:21:38+06:00,
1000000000351814,77005207798,mKcell,mAltel,mAltel,,D02,2017-03-24T17:23:36+06:00,
1000000000351816,77471570041,mKcell,mMTS,mMTS,,D02,2017-03-24T17:26:02+06:00,
1000000000351817,77774038581,mMTS,mKarTel,mKarTel,,D77,2017-03-24T17:26:49+06:00,
1000000000351818,77015520046,mMTS,mKcell,mKcell,,D77,2017-03-24T17:26:59+06:00,
1000000000351821,77471570155,mKcell,mMTS,mMTS,,D02,2017-03-24T17:29:54+06:00,
1000000000351822,77019592979,mMTS,mKcell,mKcell,,D77,2017-03-24T17:28:00+06:00,
1000000000351824,77471570086,mKcell,mMTS,mMTS,,D02,2017-03-24T17:29:57+06:00,
