NPId,Number,RecipientId,DonorId,RangeHolderId,OldRoute,NewRoute,PortDate,RowCount
1000000000407901,77015789040,mMTS,mKcell,mKcell,,D77,2017-06-23T09:21:31+06:00,6
1000000000407902,77058025037,mMTS,mKarTel,mKarTel,,D77,2017-06-23T09:22:01+06:00,
1000000000407903,77779496602,mMTS,mKarTel,mKarTel,,D77,2017-06-23T09:24:27+06:00,
1000000000407904,77071148870,mAltel,mMTS,mMTS,,D07,2017-06-23T09:26:10+06:00,
1000000000407905,77017150397,mKarTel,mKcell,mKcell,,D01,2017-06-23T09:27:08+06:00,
1000000000407906,77085557770,mKcell,mAltel,mAltel,,D02,2017-06-23T09:28:49+06:00,
