NPId,Number,RecipientId,DonorId,RangeHolderId,OldRoute,NewRoute,PortDate,RowCount
1000000000153130,77779782509,mAltel,mKarTel,mKarTel,,D07,2016-04-15T19:01:14+06:00,16
1000000000153131,77773988494,mKcell,mKarTel,mKarTel,,D02,2016-04-15T19:01:46+06:00,
1000000000153132,77057769315,mMTS,mKarTel,mKarTel,,D77,2016-04-15T19:01:14+06:00,
1000000000153133,77089114100,mMTS,mAltel,mAltel,,D77,2016-04-15T19:00:59+06:00,
1000000000153134,77010716664,mKcell,mAltel,mKcell,D07,D02,2016-04-15T19:04:00+06:00,
1000000000153135,77029696009,mMTS,mKcell,mKcell,,D77,2016-04-15T19:04:29+06:00,
1000000000153136,77755708647,mMTS,mKcell,mKcell,,D77,2016-04-15T19:05:01+06:00,
1000000000153137,77472000002,mKcell,mKarTel,mMTS,D01,D02,2016-04-15T19:08:50+06:00,
1000000000153138,77774773131,mMTS,mKarTel,mKarTel,,D77,2016-04-15T19:13:54+06:00,
1000000000153139,77021703373,mMTS,mKcell,mKcell,,D77,2016-04-15T19:18:31+06:00,
1000000000153140,77053616635,mMTS,mKarTel,mKarTel,,D77,2016-04-15T19:27:32+06:00,
1000000000153141,77079190006,mKcell,mMTS,mMTS,,D02,2016-04-15T19:26:29+06:00,
1000000000153142,77770078282,mKcell,mAltel,mKarTel,D07,D02,2016-04-15T19:27:00+06:00,
1000000000153143,77053505872,mMTS,mKarTel,mKarTel,,D77,2016-04-15T19:28:16+06:00,
1000000000153144,77089114101,mMTS,mAltel,mAltel,,D77,2016-04-15T19:26:57+06:00,
1000000000153145,77053598004,mMTS,mKarTel,mKarTel,,D77,2016-04-15T19:28:57+06:00,
