NPId,Number,RecipientId,DonorId,RangeHolderId,OldRoute,NewRoute,PortDate,RowCount
1000000000269731,77012225763,mKarTel,mKcell,mKcell,,D01,2016-10-28T20:00:56+06:00,4
1000000000269732,77017154958,mMTS,mKcell,mKcell,,D77,2016-10-28T20:01:38+06:00,
1000000000269733,77775293329,mMTS,mKarTel,mKarTel,,D77,2016-10-28T20:02:51+06:00,
1000000000269735,77778205599,mKcell,mKarTel,mKarTel,,D02,2016-10-28T20:18:26+06:00,
