NPId,Number,RecipientId,DonorId,RangeHolderId,OldRoute,NewRoute,PortDate,RowCount
1000000000328514,77757797799,mMTS,mKcell,mKcell,,D77,2017-02-13T19:02:45+06:00,17
1000000000328515,77078317111,mKarTel,mMTS,mMTS,,D01,2017-02-13T19:05:19+06:00,
1000000000328516,77026669443,mAltel,mKcell,mKcell,,D07,2017-02-13T19:05:28+06:00,
1000000000328517,77770656936,mKarTel,mMTS,mKarTel,D77,D01,2017-02-13T19:07:32+06:00,
1000000000328518,77718126661,mMTS,mKarTel,mKarTel,,D77,2017-02-13T19:08:11+06:00,
1000000000328519,77013301856,mMTS,mKcell,mKcell,,D77,2017-02-13T19:09:12+06:00,
1000000000328520,77474643325,mKarTel,mMTS,mMTS,,D01,2017-02-13T19:13:46+06:00,
1000000000328521,77017214772,mKarTel,mKcell,mKcell,,D01,2017-02-13T19:14:51+06:00,
1000000000328522,77027431692,mMTS,mKcell,mKcell,,D77,2017-02-13T19:15:15+06:00,
1000000000328523,77772713112,mKcell,mKarTel,mKarTel,,D02,2017-02-13T19:17:58+06:00,
1000000000328525,77086296863,mKcell,mAltel,mAltel,,D02,2017-02-13T19:20:22+06:00,
1000000000328527,77017307866,mKarTel,mKcell,mKcell,,D01,2017-02-13T19:22:47+06:00,
1000000000328528,77072407770,mKcell,mMTS,mMTS,,D02,2017-02-13T19:23:21+06:00,
1000000000328529,77077993977,mKarTel,mMTS,mMTS,,D01,2017-02-13T19:24:00+06:00,
1000000000328530,77089864130,mKcell,mAltel,mAltel,,D02,2017-02-13T19:24:55+06:00,
1000000000328531,77022847687,mKcell,mMTS,mKcell,D77,D02,2017-02-13T19:25:53+06:00,
1000000000328532,77079870740,mKcell,mMTS,mMTS,,D02,2017-02-13T19:27:09+06:00,
