NPId,Number,RecipientId,DonorId,RangeHolderId,OldRoute,NewRoute,PortDate,RowCount
1000000000206485,77012080423,mKarTel,mKcell,mKcell,,D01,2016-07-07T11:30:32+06:00,26
1000000000206488,77777565432,mAltel,mKarTel,mKarTel,,D07,2016-07-07T11:31:02+06:00,
1000000000206491,77711082741,mMTS,mKarTel,mKarTel,,D77,2016-07-07T11:32:03+06:00,
1000000000206492,77471589783,mKcell,mMTS,mMTS,,D02,2016-07-07T11:32:09+06:00,
1000000000206493,77019849604,mAltel,mKcell,mKcell,,D07,2016-07-07T11:32:08+06:00,
1000000000206496,77088111056,mMTS,mAltel,mAltel,,D77,2016-07-07T11:33:02+06:00,
1000000000206497,77014775580,mKarTel,mKcell,mKcell,,D01,2016-07-07T11:34:31+06:00,
1000000000206499,77017119011,mAltel,mKcell,mKcell,,D07,2016-07-07T11:34:37+06:00,
1000000000206500,77711386072,mMTS,mKarTel,mKarTel,,D77,2016-07-07T11:34:40+06:00,
1000000000206501,77014495969,mMTS,mKcell,mKcell,,D77,2016-07-07T11:35:03+06:00,
1000000000206502,77016291865,mMTS,mKcell,mKcell,,D77,2016-07-07T11:37:16+06:00,
1000000000206503,77010857000,mKarTel,mKcell,mKcell,,D01,2016-07-07T11:38:56+06:00,
1000000000206504,77088111036,mMTS,mAltel,mAltel,,D77,2016-07-07T11:39:47+06:00,
1000000000206505,77788289998,mMTS,mKcell,mKcell,,D77,2016-07-07T11:42:29+06:00,
1000000000206510,77783203225,mMTS,mKcell,mKcell,,D77,2016-07-07T11:45:25+06:00,
1000000000206511,77767174789,mKarTel,mMTS,mKarTel,D77,D01,2016-07-07T11:45:27+06:00,
1000000000206514,77075909082,mAltel,mMTS,mMTS,,D07,2016-07-07T11:48:03+06:00,
1000000000206516,77753956405,mMTS,mKcell,mKcell,,D77,2016-07-07T11:50:02+06:00,
1000000000206517,77017818001,mKarTel,mKcell,mKcell,,D01,2016-07-07T11:54:55+06:00,
1000000000206518,77088111063,mMTS,mAltel,mAltel,,D77,2016-07-07T11:55:17+06:00,
1000000000206519,77059651674,mMTS,mKarTel,mKarTel,,D77,2016-07-07T11:57:13+06:00,
1000000000206520,77712956248,mMTS,mKarTel,mKarTel,,D77,2016-07-07T11:57:36+06:00,
1000000000206521,77776255810,mMTS,mKarTel,mKarTel,,D77,2016-07-07T11:58:02+06:00,
1000000000206522,77017657416,mAltel,mKcell,mKcell,,D07,2016-07-07T11:58:19+06:00,
1000000000206524,77015220026,mMTS,mKcell,mKcell,,D77,2016-07-07T11:59:57+06:00,
1000000000206525,77015236599,mMTS,mKcell,mKcell,,D77,2016-07-07T11:59:57+06:00,
