NPId,Number,RecipientId,DonorId,RangeHolderId,OldRoute,NewRoute,PortDate,RowCount
1000000000381842,77471053225,mKcell,mMTS,mMTS,,D02,2017-05-12T12:34:19+06:00,14
1000000000381843,77051622822,mMTS,mKarTel,mKarTel,,D77,2017-05-12T12:35:03+06:00,
1000000000381846,77000005632,mKcell,mAltel,mAltel,,D02,2017-05-12T12:36:43+06:00,
1000000000381849,77027981333,mKarTel,mMTS,mKcell,D77,D01,2017-05-12T12:41:38+06:00,
1000000000381850,77764084677,mKcell,mKarTel,mKarTel,,D02,2017-05-12T12:42:45+06:00,
1000000000381852,77717771771,mKarTel,mAltel,mKarTel,D07,D01,2017-05-12T12:43:46+06:00,
1000000000381853,77717771177,mKarTel,mAltel,mKarTel,D07,D01,2017-05-12T12:45:53+06:00,
1000000000381855,77078188333,mAltel,mMTS,mMTS,,D07,2017-05-12T12:50:33+06:00,
1000000000381856,77477863620,mKarTel,mMTS,mMTS,,D01,2017-05-12T12:51:25+06:00,
1000000000381857,77017271918,mMTS,mKcell,mKcell,,D77,2017-05-12T12:53:30+06:00,
1000000000381858,77023116584,mKarTel,mKcell,mKcell,,D01,2017-05-12T12:53:48+06:00,
1000000000381859,77751002565,mAltel,mKcell,mKcell,,D07,2017-05-12T12:55:59+06:00,
1000000000381860,77005559424,mKcell,mAltel,mAltel,,D02,2017-05-12T12:56:29+06:00,
1000000000381861,77472086003,mMTS,mKcell,mMTS,D02,D77,2017-05-12T12:56:53+06:00,
