NPId,Number,RecipientId,DonorId,RangeHolderId,OldRoute,NewRoute,PortDate,RowCount
1000000000420175,77005777784,mMTS,mAltel,mAltel,,D77,2017-07-12T11:00:25+06:00,15
1000000000420178,77759183767,mAltel,mKcell,mKcell,,D07,2017-07-12T11:03:30+06:00,
1000000000420180,77029990963,mAltel,mKcell,mKcell,,D07,2017-07-12T11:05:25+06:00,
1000000000420182,77023630768,mMTS,mKcell,mKcell,,D77,2017-07-12T11:06:29+06:00,
1000000000420185,77028182566,mKarTel,mKcell,mKcell,,D01,2017-07-12T11:09:28+06:00,
1000000000420186,77010711717,mKcell,mKarTel,mKcell,D01,D02,2017-07-12T11:10:32+06:00,
1000000000420189,77071990269,mMTS,mKarTel,mMTS,D01,D77,2017-07-12T11:12:15+06:00,
1000000000420190,77017953150,mKcell,mAltel,mKcell,D07,D02,2017-07-12T11:12:55+06:00,
1000000000420191,77782531624,mAltel,mKcell,mKcell,,D07,2017-07-12T11:18:07+06:00,
1000000000420192,77029977005,mKarTel,mKcell,mKcell,,D01,2017-07-12T11:19:19+06:00,
1000000000420194,77075355356,mKcell,mMTS,mMTS,,D02,2017-07-12T11:20:23+06:00,
1000000000420195,77022533847,mMTS,mKcell,mKcell,,D77,2017-07-12T11:23:04+06:00,
1000000000420196,77751422320,mKcell,mAltel,mKcell,D07,D02,2017-07-12T11:24:45+06:00,
1000000000420197,77757965055,mKcell,mMTS,mKcell,D77,D02,2017-07-12T11:26:41+06:00,
1000000000420198,77024578500,mMTS,mKcell,mKcell,,D77,2017-07-12T11:28:48+06:00,
