NPId,Number,RecipientId,DonorId,RangeHolderId,OldRoute,NewRoute,PortDate,RowCount
1000000000278702,77072433734,mKcell,mMTS,mMTS,,D02,2016-11-13T20:04:16+06:00,2
1000000000278703,77026678882,mMTS,mKcell,mKcell,,D77,2016-11-13T20:27:41+06:00,
