NPId,Number,RecipientId,DonorId,RangeHolderId,OldRoute,NewRoute,PortDate,RowCount
1000000000298775,77001701992,mKcell,mAltel,mAltel,,D02,2016-12-22T13:00:23+06:00,17
1000000000298777,77029977064,mKcell,mMTS,mKcell,D77,D02,2016-12-22T13:03:59+06:00,
1000000000298778,77015285405,mMTS,mKcell,mKcell,D02,D77,2016-12-22T13:04:27+06:00,
1000000000298781,77017669628,mMTS,mKcell,mKcell,,D77,2016-12-22T13:07:57+06:00,
1000000000298782,77076294400,mAltel,mKarTel,mMTS,D01,D07,2016-12-22T13:09:21+06:00,
1000000000298784,77021950038,mKarTel,mKcell,mKcell,,D01,2016-12-22T13:13:04+06:00,
1000000000298785,77011616663,mKarTel,mKcell,mKcell,,D01,2016-12-22T13:14:31+06:00,
1000000000298787,77052235596,mAltel,mKarTel,mKarTel,,D07,2016-12-22T13:16:11+06:00,
1000000000298788,77025867400,mKcell,mMTS,mKcell,D77,D02,2016-12-22T13:18:00+06:00,
1000000000298789,77015135146,mKarTel,mKcell,mKcell,,D01,2016-12-22T13:18:30+06:00,
1000000000298791,77029777933,mKcell,mAltel,mKcell,D07,D02,2016-12-22T13:22:21+06:00,
1000000000298792,77772695010,mMTS,mKarTel,mKarTel,,D77,2016-12-22T13:22:42+06:00,
1000000000298793,77775122833,mAltel,mKarTel,mKarTel,,D07,2016-12-22T13:23:37+06:00,
1000000000298794,77076188414,mKarTel,mMTS,mMTS,D77,D01,2016-12-22T13:24:11+06:00,
1000000000298795,77713528600,mKarTel,mKcell,mKarTel,D02,D01,2016-12-22T13:27:34+06:00,
1000000000298796,77767702222,mKcell,mKarTel,mKarTel,,D02,2016-12-22T13:28:03+06:00,
1000000000298797,77784316800,mKarTel,mKcell,mKcell,,D01,2016-12-22T13:29:10+06:00,
