NPId,Number,RecipientId,DonorId,RangeHolderId,OldRoute,NewRoute,PortDate,RowCount
1000000000220563,77025959733,mMTS,mKcell,mKcell,,D77,2016-07-31T16:32:44+06:00,10
1000000000220564,77757793554,mKarTel,mKcell,mKcell,,D01,2016-07-31T16:34:24+06:00,
1000000000220565,77004537024,mKcell,mAltel,mAltel,,D02,2016-07-31T16:39:09+06:00,
1000000000220566,77079900919,mKcell,mMTS,mMTS,,D02,2016-07-31T16:39:15+06:00,
1000000000220567,77788885288,mAltel,mKcell,mKcell,,D07,2016-07-31T16:41:12+06:00,
1000000000220568,77058118242,mKarTel,mMTS,mKarTel,D77,D01,2016-07-31T16:41:23+06:00,
1000000000220569,77773299696,mAltel,mKarTel,mKarTel,,D07,2016-07-31T16:43:31+06:00,
1000000000220571,77770104777,mKarTel,mKcell,mKarTel,D02,D01,2016-07-31T16:45:16+06:00,
1000000000220572,77019167551,mMTS,mKcell,mKcell,,D77,2016-07-31T16:48:39+06:00,
1000000000220573,77014444431,mMTS,mKcell,mKcell,,D77,2016-07-31T16:49:51+06:00,
