NPId,Number,RecipientId,DonorId,RangeHolderId,OldRoute,NewRoute,PortDate,RowCount
1000000000385666,77760300787,mKcell,mKarTel,mKarTel,D01,D02,2017-05-19T14:43:19+06:00,30
1000000000385711,77011480707,mMTS,mKcell,mKcell,,D77,2017-05-19T14:30:05+06:00,
1000000000385713,77012553515,mAltel,mKcell,mKcell,,D07,2017-05-19T14:31:31+06:00,
1000000000385714,77012553616,mAltel,mKcell,mKcell,,D07,2017-05-19T14:32:05+06:00,
1000000000385715,77076294372,mKcell,mMTS,mMTS,,D02,2017-05-19T14:32:57+06:00,
1000000000385716,77761542424,mKarTel,mMTS,mKarTel,D77,D01,2017-05-19T14:33:07+06:00,
1000000000385717,77071337133,mKarTel,mMTS,mMTS,,D01,2017-05-19T14:33:48+06:00,
1000000000385719,77085339882,mKcell,mAltel,mAltel,,D02,2017-05-19T14:37:59+06:00,
1000000000385723,77051258284,mMTS,mKarTel,mKarTel,,D77,2017-05-19T14:40:21+06:00,
1000000000385724,77716002656,mMTS,mKarTel,mKarTel,,D77,2017-05-19T14:41:10+06:00,
1000000000385726,77018008490,mMTS,mKcell,mKcell,,D77,2017-05-19T14:42:42+06:00,
1000000000385727,77018167657,mAltel,mKcell,mKcell,,D07,2017-05-19T14:43:16+06:00,
1000000000385729,77755499833,mKarTel,mKcell,mKcell,,D01,2017-05-19T14:45:26+06:00,
1000000000385732,77764444443,mKcell,mKarTel,mKarTel,,D02,2017-05-19T14:46:53+06:00,
1000000000385733,77028689891,mKcell,mMTS,mKcell,D77,D02,2017-05-19T14:46:59+06:00,
1000000000385734,77016291730,mKcell,mKarTel,mKcell,D01,D02,2017-05-19T14:48:03+06:00,
1000000000385735,77760871010,mKcell,mKarTel,mKarTel,,D02,2017-05-19T14:48:17+06:00,
1000000000385736,77754448299,mMTS,mKcell,mKcell,,D77,2017-05-19T14:48:25+06:00,
1000000000385738,77474308927,mKarTel,mMTS,mMTS,,D01,2017-05-19T14:49:17+06:00,
1000000000385739,77718153947,mKcell,mKarTel,mKarTel,,D02,2017-05-19T14:50:01+06:00,
1000000000385740,77015361840,mMTS,mKcell,mKcell,,D77,2017-05-19T14:50:16+06:00,
1000000000385741,77011018407,mMTS,mKcell,mKcell,,D77,2017-05-19T14:51:06+06:00,
1000000000385743,77023489503,mKcell,mMTS,mKcell,D77,D02,2017-05-19T14:53:17+06:00,
1000000000385744,77779259564,mMTS,mKarTel,mKarTel,,D77,2017-05-19T14:54:39+06:00,
1000000000385745,77780019001,mMTS,mKcell,mKcell,,D77,2017-05-19T14:55:28+06:00,
1000000000385746,77781126721,mKarTel,mKcell,mKcell,,D01,2017-05-19T14:56:14+06:00,
1000000000385747,77017285861,mMTS,mKcell,mKcell,,D77,2017-05-19T14:57:42+06:00,
1000000000385748,77082200822,mAltel,mMTS,mAltel,D77,D07,2017-05-19T14:59:02+06:00,
1000000000385750,77024450279,mMTS,mKcell,mKcell,,D77,2017-05-19T14:59:42+06:00,
1000000000385751,77711240535,mAltel,mKarTel,mKarTel,,D07,2017-05-19T14:59:53+06:00,
