NPId,Number,RecipientId,DonorId,RangeHolderId,OldRoute,NewRoute,PortDate,RowCount
1000000000351246,77783647757,mMTS,mKcell,mKcell,,D77,2017-03-23T18:02:53+06:00,9
1000000000351247,77788000115,mAltel,mKcell,mKcell,,D07,2017-03-23T18:02:52+06:00,
1000000000351248,77028621576,mAltel,mKcell,mKcell,,D07,2017-03-23T18:04:16+06:00,
1000000000351249,77083120899,mKarTel,mAltel,mAltel,,D01,2017-03-23T18:04:23+06:00,
1000000000351255,77026533356,mMTS,mKcell,mKcell,,D77,2017-03-23T18:09:49+06:00,
1000000000351257,77769919797,mKcell,mKarTel,mKarTel,,D02,2017-03-23T18:18:24+06:00,
1000000000351258,77026800466,mKarTel,mKcell,mKcell,,D01,2017-03-23T18:19:05+06:00,
1000000000351259,77478713417,mKarTel,mMTS,mMTS,,D01,2017-03-23T18:26:59+06:00,
1000000000351260,77718746176,mMTS,mKarTel,mKarTel,,D77,2017-03-23T18:28:08+06:00,
