NPId,Number,RecipientId,DonorId,RangeHolderId,OldRoute,NewRoute,PortDate,RowCount
1000000000435600,77756491955,mMTS,mKcell,mKcell,,D77,2017-08-06T10:31:25+06:00,7
1000000000435601,77023665498,mKarTel,mKcell,mKcell,,D01,2017-08-06T10:34:21+06:00,
1000000000435602,77001141991,mMTS,mKarTel,mAltel,D01,D77,2017-08-06T10:37:34+06:00,
1000000000435603,77714660746,mAltel,mKarTel,mKarTel,,D07,2017-08-06T10:42:29+06:00,
1000000000435604,77082061750,mMTS,mAltel,mAltel,,D77,2017-08-06T10:43:41+06:00,
1000000000435607,77472975658,mKcell,mMTS,mMTS,,D02,2017-08-06T10:53:43+06:00,
1000000000435610,77778228430,mKcell,mMTS,mKarTel,D77,D02,2017-08-06T10:58:30+06:00,
