NPId,Number,RecipientId,DonorId,RangeHolderId,OldRoute,NewRoute,PortDate,RowCount
1000000000421590,77056533866,mKarTel,mKcell,mKarTel,D02,D01,2017-07-14T14:49:45+06:00,29
1000000000421775,77778068117,mMTS,mKarTel,mKarTel,,D77,2017-07-14T14:31:26+06:00,
1000000000421776,77079731374,mKarTel,mMTS,mMTS,,D01,2017-07-14T14:32:56+06:00,
1000000000421777,77018000704,mMTS,mKcell,mKcell,,D77,2017-07-14T14:33:17+06:00,
1000000000421778,77017290578,mMTS,mKcell,mKcell,,D77,2017-07-14T14:34:51+06:00,
1000000000421779,77023091415,mKarTel,mKcell,mKcell,,D01,2017-07-14T14:35:23+06:00,
1000000000421780,77011250000,mKcell,mAltel,mKcell,D07,D02,2017-07-14T14:36:33+06:00,
1000000000421781,77770651000,mMTS,mKarTel,mKarTel,,D77,2017-07-14T14:37:18+06:00,
1000000000421782,77017799159,mAltel,mKcell,mKcell,,D07,2017-07-14T14:40:04+06:00,
1000000000421783,77017290577,mMTS,mKcell,mKcell,,D77,2017-07-14T14:40:27+06:00,
1000000000421784,77006636506,mMTS,mAltel,mAltel,,D77,2017-07-14T14:40:26+06:00,
1000000000421785,77787973414,mMTS,mKcell,mKcell,,D77,2017-07-14T14:40:45+06:00,
1000000000421786,77073622412,mAltel,mMTS,mMTS,,D07,2017-07-14T14:42:31+06:00,
1000000000421787,77005151212,mKarTel,mAltel,mAltel,,D01,2017-07-14T14:42:38+06:00,
1000000000421788,77058777775,mKarTel,mKcell,mKarTel,D02,D01,2017-07-14T14:45:49+06:00,
1000000000421789,77771622451,mKarTel,mAltel,mKarTel,D07,D01,2017-07-14T14:47:14+06:00,
1000000000421790,77001691277,mMTS,mAltel,mAltel,,D77,2017-07-14T14:47:38+06:00,
1000000000421791,77006636503,mMTS,mAltel,mAltel,,D77,2017-07-14T14:49:38+06:00,
1000000000421792,77027270077,mMTS,mKcell,mKcell,,D77,2017-07-14T14:50:13+06:00,
1000000000421793,77006636501,mMTS,mAltel,mAltel,,D77,2017-07-14T14:50:44+06:00,
1000000000421794,77006636706,mMTS,mAltel,mAltel,,D77,2017-07-14T14:51:47+06:00,
1000000000421796,77006636380,mMTS,mAltel,mAltel,,D77,2017-07-14T14:53:45+06:00,
1000000000421797,77006636310,mMTS,mAltel,mAltel,,D77,2017-07-14T14:54:57+06:00,
1000000000421798,77019992115,mMTS,mKcell,mKcell,,D77,2017-07-14T14:55:24+06:00,
1000000000421799,77072720177,mAltel,mMTS,mMTS,,D07,2017-07-14T14:55:42+06:00,
1000000000421800,77006636504,mMTS,mAltel,mAltel,,D77,2017-07-14T14:56:21+06:00,
1000000000421802,77006636502,mMTS,mAltel,mAltel,,D77,2017-07-14T14:58:16+06:00,
1000000000421803,77006636299,mMTS,mAltel,mAltel,,D77,2017-07-14T14:59:16+06:00,
1000000000421805,77025277627,mMTS,mAltel,mKcell,D07,D77,2017-07-14T14:59:29+06:00,
