NPId,Number,RecipientId,DonorId,RangeHolderId,OldRoute,NewRoute,PortDate,RowCount
1000000000418008,77021111015,mKarTel,mKcell,mKcell,,D01,2017-07-07T15:30:27+06:00,24
1000000000418011,77004745917,mKcell,mAltel,mAltel,,D02,2017-07-07T15:31:47+06:00,
1000000000418012,77769986688,mKcell,mKarTel,mKarTel,,D02,2017-07-07T15:32:00+06:00,
1000000000418013,77015309154,mKarTel,mKcell,mKcell,,D01,2017-07-07T15:32:57+06:00,
1000000000418014,77004580797,mMTS,mAltel,mAltel,,D77,2017-07-07T15:33:33+06:00,
1000000000418017,77087093757,mKcell,mAltel,mAltel,,D02,2017-07-07T15:35:35+06:00,
1000000000418019,77020000713,mMTS,mKcell,mKcell,,D77,2017-07-07T15:37:00+06:00,
1000000000418022,77475263046,mAltel,mKcell,mMTS,D02,D07,2017-07-07T15:40:20+06:00,
1000000000418023,77022170699,mKcell,mMTS,mKcell,D77,D02,2017-07-07T15:41:27+06:00,
1000000000418024,77073823438,mAltel,mMTS,mMTS,,D07,2017-07-07T15:41:43+06:00,
1000000000418025,77023578363,mKarTel,mKcell,mKcell,,D01,2017-07-07T15:42:13+06:00,
1000000000418026,77017541688,mKarTel,mKcell,mKcell,,D01,2017-07-07T15:45:15+06:00,
1000000000418027,77017582003,mKarTel,mKcell,mKcell,,D01,2017-07-07T15:47:21+06:00,
1000000000418028,77001206007,mKarTel,mAltel,mAltel,,D01,2017-07-07T15:48:47+06:00,
1000000000418030,77717770777,mKcell,mKarTel,mKarTel,,D02,2017-07-07T15:49:59+06:00,
1000000000418031,77776259272,mMTS,mKarTel,mKarTel,,D77,2017-07-07T15:52:18+06:00,
1000000000418032,77779624514,mMTS,mKarTel,mKarTel,,D77,2017-07-07T15:52:11+06:00,
1000000000418034,77059850599,mMTS,mKarTel,mKarTel,,D77,2017-07-07T15:55:26+06:00,
1000000000418035,77761111213,mKcell,mKarTel,mKarTel,,D02,2017-07-07T15:56:51+06:00,
1000000000418036,77015307114,mKarTel,mKcell,mKcell,,D01,2017-07-07T15:56:58+06:00,
1000000000418037,77023114861,mMTS,mKcell,mKcell,,D77,2017-07-07T15:56:44+06:00,
1000000000418038,77757177334,mAltel,mKcell,mKcell,,D07,2017-07-07T15:57:39+06:00,
1000000000418039,77073339334,mAltel,mMTS,mMTS,,D07,2017-07-07T15:58:03+06:00,
1000000000418040,77028888071,mMTS,mKcell,mKcell,,D77,2017-07-07T15:58:38+06:00,
