NPId,Number,RecipientId,DonorId,RangeHolderId,OldRoute,NewRoute,PortDate,RowCount
1000000000140649,77024234622,mKcell,mMTS,mKcell,D77,D02,2016-04-04T16:08:03+06:00,48
1000000000142180,77781390732,mMTS,mKcell,mKcell,,D77,2016-04-04T16:13:31+06:00,
1000000000142183,77756825671,mMTS,mKcell,mKcell,,D77,2016-04-04T16:13:32+06:00,
1000000000142184,77751997801,mMTS,mKcell,mKcell,,D77,2016-04-04T16:13:31+06:00,
1000000000142251,77016609636,mKarTel,mKcell,mKcell,,D01,2016-04-04T16:00:09+06:00,
1000000000142260,77714663848,mMTS,mKarTel,mKarTel,,D77,2016-04-04T16:01:18+06:00,
1000000000142261,77086767646,mMTS,mAltel,mAltel,,D77,2016-04-04T16:00:30+06:00,
1000000000142263,77714432524,mMTS,mKarTel,mKarTel,,D77,2016-04-04T16:03:03+06:00,
1000000000142265,77013255065,mMTS,mKcell,mKcell,,D77,2016-04-04T16:04:25+06:00,
1000000000142266,77714041388,mMTS,mKarTel,mKarTel,,D77,2016-04-04T16:03:35+06:00,
1000000000142268,77017669219,mKarTel,mKcell,mKcell,,D01,2016-04-04T16:04:39+06:00,
1000000000142269,77754158893,mMTS,mKcell,mKcell,,D77,2016-04-04T16:04:25+06:00,
1000000000142270,77075185177,mKarTel,mMTS,mMTS,,D01,2016-04-04T16:03:33+06:00,
1000000000142271,77026964646,mKarTel,mKcell,mKcell,,D01,2016-04-04T16:04:41+06:00,
1000000000142274,77712730735,mMTS,mKarTel,mKarTel,,D77,2016-04-04T16:07:06+06:00,
1000000000142276,77772773777,mKcell,mKarTel,mKarTel,,D02,2016-04-04T16:07:46+06:00,
1000000000142278,77472550027,mAltel,mMTS,mMTS,,D07,2016-04-04T16:06:21+06:00,
1000000000142279,77017276503,mMTS,mKcell,mKcell,,D77,2016-04-04T16:07:48+06:00,
1000000000142281,77051110989,mKcell,mKarTel,mKarTel,,D02,2016-04-04T16:10:08+06:00,
1000000000142282,77004888990,mMTS,mAltel,mAltel,,D77,2016-04-04T16:09:52+06:00,
1000000000142283,77054964248,mMTS,mKarTel,mKarTel,,D77,2016-04-04T16:12:05+06:00,
1000000000142284,77026964666,mKarTel,mKcell,mKcell,,D01,2016-04-04T16:12:02+06:00,
1000000000142285,77012541895,mKarTel,mKcell,mKcell,,D01,2016-04-04T16:12:34+06:00,
1000000000142287,77017276502,mMTS,mKcell,mKcell,,D77,2016-04-04T16:14:06+06:00,
1000000000142288,77024482158,mKarTel,mKcell,mKcell,,D01,2016-04-04T16:15:15+06:00,
1000000000142291,77716906666,mKcell,mMTS,mKarTel,D77,D02,2016-04-04T16:15:31+06:00,
1000000000142293,77771490777,mKarTel,mMTS,mKarTel,D77,D01,2016-04-04T16:15:48+06:00,
1000000000142294,77017362425,mMTS,mKcell,mKcell,,D77,2016-04-04T16:16:18+06:00,
1000000000142296,77015564815,mKarTel,mKcell,mKcell,,D01,2016-04-04T16:17:31+06:00,
1000000000142298,77081703535,mMTS,mAltel,mAltel,,D77,2016-04-04T16:17:10+06:00,
1000000000142300,77710919177,mMTS,mKarTel,mKarTel,,D77,2016-04-04T16:18:43+06:00,
1000000000142301,77017105730,mKarTel,mKcell,mKcell,,D01,2016-04-04T16:19:11+06:00,
1000000000142302,77077009072,mKcell,mMTS,mMTS,,D02,2016-04-04T16:20:23+06:00,
1000000000142303,77089702535,mMTS,mAltel,mAltel,,D77,2016-04-04T16:19:47+06:00,
1000000000142304,77013082777,mKarTel,mAltel,mKcell,D07,D01,2016-04-04T16:20:16+06:00,
1000000000142306,77088075744,mMTS,mAltel,mAltel,,D77,2016-04-04T16:20:19+06:00,
1000000000142307,77776152344,mMTS,mKarTel,mKarTel,,D77,2016-04-04T16:22:30+06:00,
1000000000142308,77087215626,mMTS,mAltel,mAltel,,D77,2016-04-04T16:21:32+06:00,
1000000000142310,77089576996,mMTS,mAltel,mAltel,,D77,2016-04-04T16:22:38+06:00,
1000000000142312,77758887578,mMTS,mKarTel,mKcell,D01,D77,2016-04-04T16:24:53+06:00,
1000000000142313,77712842727,mKcell,mKarTel,mKarTel,,D02,2016-04-04T16:25:16+06:00,
1000000000142314,77716906644,mKcell,mMTS,mKarTel,D77,D02,2016-04-04T16:24:34+06:00,
1000000000142315,77019059051,mMTS,mAltel,mKcell,D07,D77,2016-04-04T16:24:16+06:00,
1000000000142316,77011910306,mKarTel,mKcell,mKcell,,D01,2016-04-04T16:25:56+06:00,
1000000000142317,77770122219,mMTS,mKarTel,mKarTel,,D77,2016-04-04T16:27:06+06:00,
1000000000142320,77758934949,mAltel,mKcell,mKcell,,D07,2016-04-04T16:28:08+06:00,
1000000000142321,77079133037,mKcell,mAltel,mMTS,D07,D02,2016-04-04T16:29:03+06:00,
1000000000142322,77017826792,mKarTel,mKcell,mKcell,,D01,2016-04-04T16:29:54+06:00,
