NPId,Number,RecipientId,DonorId,RangeHolderId,OldRoute,NewRoute,PortDate,RowCount
1000000000102746,77770748702,mKcell,mKarTel,mKarTel,,D02,2016-02-29T17:38:05+06:00,74
1000000000102747,77777624211,mKcell,mKarTel,mKarTel,,D02,2016-02-29T17:38:04+06:00,
1000000000102752,77718888920,mKcell,mKarTel,mKarTel,,D02,2016-02-29T17:38:05+06:00,
1000000000102753,77007474737,mKcell,mAltel,mAltel,,D02,2016-02-29T17:38:05+06:00,
1000000000102773,77015373343,mKarTel,mKcell,mKcell,,D01,2016-02-29T17:38:30+06:00,
1000000000102776,77759917566,mKarTel,mKcell,mKcell,,D01,2016-02-29T17:38:32+06:00,
1000000000102780,77017219205,mKarTel,mKcell,mKcell,,D01,2016-02-29T17:38:30+06:00,
1000000000102783,77751230004,mMTS,mKcell,mKcell,,D77,2016-02-29T17:38:12+06:00,
1000000000102790,77014712020,mMTS,mKcell,mKcell,,D77,2016-02-29T17:38:13+06:00,
1000000000102794,77017106319,mAltel,mKcell,mKcell,,D07,2016-02-29T17:38:12+06:00,
1000000000102797,77029550256,mAltel,mKcell,mKcell,,D07,2016-02-29T17:38:12+06:00,
1000000000102798,77078044405,mKcell,mMTS,mMTS,,D02,2016-02-29T17:43:36+06:00,
1000000000102799,77089116897,mKcell,mAltel,mAltel,,D02,2016-02-29T17:43:37+06:00,
1000000000102800,77071171922,mKcell,mMTS,mMTS,,D02,2016-02-29T17:43:34+06:00,
1000000000102801,77075693015,mKcell,mMTS,mMTS,,D02,2016-02-29T17:43:35+06:00,
1000000000102802,77001534190,mKcell,mAltel,mAltel,,D02,2016-02-29T17:43:33+06:00,
1000000000102805,77017601899,mMTS,mKcell,mKcell,,D77,2016-02-29T17:44:03+06:00,
1000000000102810,77017357641,mMTS,mKcell,mKcell,,D77,2016-02-29T17:43:59+06:00,
1000000000102811,77715587178,mMTS,mKarTel,mKarTel,,D77,2016-02-29T17:30:02+06:00,
1000000000102814,77017244244,mMTS,mKcell,mKcell,,D77,2016-02-29T17:43:59+06:00,
1000000000102815,77715587180,mMTS,mKarTel,mKarTel,,D77,2016-02-29T17:31:35+06:00,
1000000000102816,77026888958,mAltel,mKcell,mKcell,,D07,2016-02-29T17:43:59+06:00,
1000000000102817,77718007607,mMTS,mKarTel,mKarTel,,D77,2016-02-29T17:32:12+06:00,
1000000000102818,77754358000,mKarTel,mKcell,mKcell,,D01,2016-02-29T17:44:08+06:00,
1000000000102819,77715034749,mMTS,mKarTel,mKarTel,,D77,2016-02-29T17:33:19+06:00,
1000000000102820,77715075065,mMTS,mKarTel,mKarTel,,D77,2016-02-29T17:33:47+06:00,
1000000000102821,77715075067,mMTS,mKarTel,mKarTel,,D77,2016-02-29T17:34:25+06:00,
1000000000102823,77715075068,mMTS,mKarTel,mKarTel,,D77,2016-02-29T17:34:49+06:00,
1000000000102824,77072470055,mAltel,mMTS,mMTS,,D07,2016-02-29T17:33:59+06:00,
1000000000102825,77715075070,mMTS,mKarTel,mKarTel,,D77,2016-02-29T17:35:24+06:00,
1000000000102826,77715075071,mMTS,mKarTel,mKarTel,,D77,2016-02-29T17:35:54+06:00,
1000000000102827,77771656531,mAltel,mKarTel,mKarTel,,D07,2016-02-29T17:34:50+06:00,
1000000000102828,77781417027,mMTS,mKcell,mKcell,,D77,2016-02-29T17:44:03+06:00,
1000000000102829,77021195777,mMTS,mKcell,mKcell,,D77,2016-02-29T17:44:03+06:00,
1000000000102831,77715587175,mMTS,mKarTel,mKarTel,,D77,2016-02-29T17:36:22+06:00,
1000000000102832,77777070711,mAltel,mKarTel,mKarTel,,D07,2016-02-29T17:35:48+06:00,
1000000000102833,77753708787,mMTS,mKcell,mKcell,,D77,2016-02-29T17:43:59+06:00,
1000000000102834,77715587176,mMTS,mKarTel,mKarTel,,D77,2016-02-29T17:37:10+06:00,
1000000000102835,77715587177,mMTS,mKarTel,mKarTel,,D77,2016-02-29T17:37:35+06:00,
1000000000102836,77715587179,mMTS,mKarTel,mKarTel,,D77,2016-02-29T17:38:01+06:00,
1000000000102837,77718007460,mMTS,mKarTel,mKarTel,,D77,2016-02-29T17:38:50+06:00,
1000000000102839,77019994194,mKarTel,mKcell,mKcell,,D01,2016-02-29T17:44:24+06:00,
1000000000102840,77718007604,mMTS,mKarTel,mKarTel,,D77,2016-02-29T17:39:13+06:00,
1000000000102842,77476307996,mKcell,mMTS,mMTS,,D02,2016-02-29T17:54:03+06:00,
1000000000102843,77476307953,mKcell,mMTS,mMTS,,D02,2016-02-29T17:54:02+06:00,
1000000000102845,77053264875,mMTS,mKarTel,mKarTel,,D77,2016-02-29T17:38:48+06:00,
1000000000102847,77473755683,mKcell,mMTS,mMTS,,D02,2016-02-29T17:53:59+06:00,
1000000000102848,77710010909,mKcell,mKarTel,mKarTel,,D02,2016-02-29T17:53:59+06:00,
1000000000102849,77077900999,mKcell,mMTS,mMTS,,D02,2016-02-29T17:54:00+06:00,
1000000000102850,77089592192,mKarTel,mAltel,mAltel,,D01,2016-02-29T17:38:42+06:00,
1000000000102851,77017288921,mKarTel,mKcell,mKcell,,D01,2016-02-29T17:44:25+06:00,
1000000000102852,77756254688,mKarTel,mKcell,mKcell,,D01,2016-02-29T17:44:24+06:00,
1000000000102853,77019997498,mKarTel,mKcell,mKcell,,D01,2016-02-29T17:54:19+06:00,
1000000000102854,77054543097,mAltel,mKarTel,mKarTel,,D07,2016-02-29T17:40:14+06:00,
1000000000102855,77052820010,mAltel,mKarTel,mKarTel,,D07,2016-02-29T17:40:25+06:00,
1000000000102856,77718007605,mMTS,mKarTel,mKarTel,,D77,2016-02-29T17:41:45+06:00,
1000000000102857,77027637955,mAltel,mKcell,mKcell,,D07,2016-02-29T17:54:06+06:00,
1000000000102858,77718007606,mMTS,mKarTel,mKarTel,,D77,2016-02-29T17:42:39+06:00,
1000000000102859,77775628061,mAltel,mKarTel,mKarTel,,D07,2016-02-29T17:41:46+06:00,
1000000000102860,77774644277,mAltel,mKarTel,mKarTel,,D07,2016-02-29T17:41:52+06:00,
1000000000102862,77022531312,mMTS,mKcell,mKcell,,D77,2016-02-29T17:54:03+06:00,
1000000000102863,77056579691,mMTS,mKarTel,mKarTel,,D77,2016-02-29T17:42:14+06:00,
1000000000102864,77775334652,mMTS,mKarTel,mKarTel,,D77,2016-02-29T17:43:45+06:00,
1000000000102866,77774029855,mMTS,mKarTel,mKarTel,,D77,2016-02-29T17:43:03+06:00,
1000000000102876,77016666044,mAltel,mKcell,mKcell,,D07,2016-02-29T17:54:06+06:00,
1000000000102879,77773280901,mAltel,mKarTel,mKarTel,,D07,2016-02-29T17:47:56+06:00,
1000000000102886,77771118080,mMTS,mKarTel,mKarTel,,D77,2016-02-29T17:50:26+06:00,
1000000000102889,77779757799,mAltel,mKarTel,mKarTel,,D07,2016-02-29T17:51:02+06:00,
1000000000102890,77771111718,mAltel,mKarTel,mKarTel,,D07,2016-02-29T17:51:51+06:00,
1000000000102891,77052606111,mAltel,mKarTel,mKarTel,,D07,2016-02-29T17:52:29+06:00,
1000000000102894,77053972231,mMTS,mKarTel,mKarTel,,D77,2016-02-29T17:53:21+06:00,
1000000000102900,77773852238,mAltel,mKarTel,mKarTel,,D07,2016-02-29T17:55:12+06:00,
1000000000102901,77072909177,mKarTel,mMTS,mMTS,,D01,2016-02-29T17:55:36+06:00,
1000000000102903,77053159276,mMTS,mKarTel,mKarTel,,D77,2016-02-29T17:57:11+06:00,
