NPId,Number,RecipientId,DonorId,RangeHolderId,OldRoute,NewRoute,PortDate,RowCount
1000000000258329,77010350979,mKarTel,mKcell,mKcell,,D01,2016-10-07T15:35:11+06:00,23
1000000000258329,77010354903,mKarTel,mKcell,mKcell,,D01,2016-10-07T15:35:11+06:00,
1000000000258329,77017598167,mKarTel,mKcell,mKcell,,D01,2016-10-07T15:35:11+06:00,
1000000000258589,77772954161,mKcell,mKarTel,mKarTel,,D02,2016-10-07T15:32:10+06:00,
1000000000258591,77017570600,mAltel,mKcell,mKcell,,D07,2016-10-07T15:30:42+06:00,
1000000000258592,77778000755,mMTS,mKarTel,mKarTel,,D77,2016-10-07T15:35:11+06:00,
1000000000258593,77778652000,mKarTel,mAltel,mKarTel,D07,D01,2016-10-07T15:33:34+06:00,
1000000000258594,77017050091,mMTS,mKcell,mKcell,,D77,2016-10-07T15:33:12+06:00,
1000000000258595,77082157071,mAltel,mMTS,mAltel,D77,D07,2016-10-07T15:34:18+06:00,
1000000000258596,77784862751,mAltel,mKcell,mKcell,,D07,2016-10-07T15:34:47+06:00,
1000000000258597,77769945124,mMTS,mKarTel,mKarTel,,D77,2016-10-07T15:39:52+06:00,
1000000000258598,77783610700,mAltel,mKcell,mKcell,,D07,2016-10-07T15:36:56+06:00,
1000000000258599,77024990000,mAltel,mKcell,mKcell,,D07,2016-10-07T15:38:59+06:00,
1000000000258601,77011000991,mMTS,mKcell,mKcell,,D77,2016-10-07T15:40:39+06:00,
1000000000258602,77477105778,mKcell,mMTS,mMTS,,D02,2016-10-07T15:41:34+06:00,
1000000000258603,77078396169,mKcell,mAltel,mMTS,D07,D02,2016-10-07T15:41:24+06:00,
1000000000258606,77766665696,mKcell,mKarTel,mKarTel,,D02,2016-10-07T15:50:27+06:00,
1000000000258609,77028010042,mKcell,mMTS,mKcell,D77,D02,2016-10-07T15:47:31+06:00,
1000000000258610,77089581344,mKarTel,mMTS,mAltel,D77,D01,2016-10-07T15:49:13+06:00,
1000000000258611,77074260220,mKarTel,mMTS,mMTS,,D01,2016-10-07T15:49:14+06:00,
1000000000258613,77476967278,mAltel,mMTS,mMTS,,D07,2016-10-07T15:52:26+06:00,
1000000000258616,77075552062,mKarTel,mMTS,mMTS,,D01,2016-10-07T15:58:47+06:00,
1000000000258618,77075221272,mMTS,mAltel,mMTS,D07,D77,2016-10-07T15:58:33+06:00,
