NPId,Number,RecipientId,DonorId,RangeHolderId,OldRoute,NewRoute,PortDate,RowCount
1000000000323319,77073653499,mKarTel,mMTS,mMTS,,D01,2017-02-03T19:31:26+06:00,7
1000000000323321,77760070739,mKcell,mKarTel,mKarTel,,D02,2017-02-03T19:47:01+06:00,
1000000000323322,77475011130,mMTS,mKarTel,mMTS,D01,D77,2017-02-03T19:47:59+06:00,
1000000000323323,77087002572,mKarTel,mAltel,mAltel,,D01,2017-02-03T19:48:39+06:00,
1000000000323324,77073004444,mKarTel,mMTS,mMTS,D77,D01,2017-02-03T19:49:37+06:00,
1000000000323325,77760070745,mKcell,mKarTel,mKarTel,,D02,2017-02-03T19:52:24+06:00,
1000000000323327,77767777815,mKarTel,mKcell,mKarTel,D02,D01,2017-02-03T19:56:52+06:00,
