NPId,Number,RecipientId,DonorId,RangeHolderId,OldRoute,NewRoute,PortDate,RowCount
1000000000297538,77005575701,mMTS,mKcell,mAltel,D02,D77,2016-12-20T13:32:45+06:00,21
1000000000297540,77017055188,mKarTel,mKcell,mKcell,,D01,2016-12-20T13:34:42+06:00,
1000000000297541,77012022225,mAltel,mKcell,mKcell,,D07,2016-12-20T13:34:34+06:00,
1000000000297542,77017717207,mKarTel,mKcell,mKcell,,D01,2016-12-20T13:35:37+06:00,
1000000000297543,77017275161,mMTS,mKcell,mKcell,,D77,2016-12-20T13:40:38+06:00,
1000000000297544,77775710191,mKcell,mKarTel,mKarTel,,D02,2016-12-20T13:41:40+06:00,
1000000000297546,77473880338,mKarTel,mMTS,mMTS,,D01,2016-12-20T13:43:08+06:00,
1000000000297548,77784650878,mMTS,mKcell,mKcell,,D77,2016-12-20T13:45:48+06:00,
1000000000297549,77000268268,mMTS,mAltel,mAltel,,D77,2016-12-20T13:47:19+06:00,
1000000000297550,77072880024,mKarTel,mMTS,mMTS,,D01,2016-12-20T13:48:03+06:00,
1000000000297552,77004707070,mMTS,mAltel,mAltel,,D77,2016-12-20T13:49:21+06:00,
1000000000297554,77789705979,mAltel,mKcell,mKcell,,D07,2016-12-20T13:50:09+06:00,
1000000000297555,77028299324,mMTS,mKcell,mKcell,,D77,2016-12-20T13:51:45+06:00,
1000000000297556,77761656040,mKarTel,mMTS,mKarTel,D77,D01,2016-12-20T13:53:23+06:00,
1000000000297558,77782423400,mAltel,mKcell,mKcell,,D07,2016-12-20T13:54:29+06:00,
1000000000297559,77053003313,mMTS,mAltel,mKarTel,D07,D77,2016-12-20T13:55:40+06:00,
1000000000297560,77785231777,mKcell,mMTS,mKcell,D77,D02,2016-12-20T13:58:10+06:00,
1000000000297561,77015777280,mKarTel,mKcell,mKcell,,D01,2016-12-20T13:58:32+06:00,
1000000000297562,77011112430,mKcell,mKarTel,mKcell,D01,D02,2016-12-20T13:58:52+06:00,
1000000000297563,77085328358,mKcell,mMTS,mAltel,D77,D02,2016-12-20T13:59:02+06:00,
1000000000297564,77782283849,mAltel,mKcell,mKcell,,D07,2016-12-20T13:58:42+06:00,
