NPId,Number,RecipientId,DonorId,RangeHolderId,OldRoute,NewRoute,PortDate,RowCount
1000000000005360,77772707044,mAltel,mKarTel,mKarTel,,D07,2016-01-09T10:24:51+06:00,2
1000000000005362,77025445445,mAltel,mKcell,mKcell,,D07,2016-01-09T10:29:34+06:00,
