NPId,Number,RecipientId,DonorId,RangeHolderId,OldRoute,NewRoute,PortDate,RowCount
1000000000158320,77775852985,mKarTel,mKcell,mKarTel,D02,D01,2016-04-22T17:30:39+06:00,29
1000000000158322,77021198111,mMTS,mKcell,mKcell,,D77,2016-04-22T17:31:14+06:00,
1000000000158323,77756381818,mMTS,mKcell,mKcell,,D77,2016-04-22T17:31:43+06:00,
1000000000158325,77710188888,mAltel,mKarTel,mKarTel,,D07,2016-04-22T17:32:01+06:00,
1000000000158326,77025563300,mAltel,mKcell,mKcell,,D07,2016-04-22T17:33:38+06:00,
1000000000158327,77785002068,mMTS,mAltel,mKcell,D07,D77,2016-04-22T17:33:04+06:00,
1000000000158328,77756363893,mMTS,mKcell,mKcell,,D77,2016-04-22T17:33:52+06:00,
1000000000158330,77787474341,mMTS,mKcell,mKcell,,D77,2016-04-22T17:34:44+06:00,
1000000000158332,77019980568,mMTS,mKcell,mKcell,,D77,2016-04-22T17:35:47+06:00,
1000000000158333,77084938173,mMTS,mAltel,mAltel,,D77,2016-04-22T17:36:39+06:00,
1000000000158334,77018888472,mKarTel,mKcell,mKcell,,D01,2016-04-22T17:37:53+06:00,
1000000000158335,77787774474,mMTS,mKcell,mKcell,,D77,2016-04-22T17:38:36+06:00,
1000000000158336,77754242024,mMTS,mKcell,mKcell,,D77,2016-04-22T17:38:48+06:00,
1000000000158337,77082210197,mMTS,mAltel,mAltel,,D77,2016-04-22T17:39:12+06:00,
1000000000158338,77059999910,mKcell,mKarTel,mKarTel,,D02,2016-04-22T17:40:40+06:00,
1000000000158341,77023881119,mMTS,mKcell,mKcell,,D77,2016-04-22T17:42:32+06:00,
1000000000158344,77768053388,mMTS,mKarTel,mKarTel,,D77,2016-04-22T17:46:46+06:00,
1000000000158345,77787405757,mMTS,mKcell,mKcell,,D77,2016-04-22T17:46:46+06:00,
1000000000158347,77005555388,mMTS,mAltel,mAltel,,D77,2016-04-22T17:47:28+06:00,
1000000000158350,77775289211,mKcell,mKarTel,mKarTel,,D02,2016-04-22T17:51:29+06:00,
1000000000158351,77773192151,mMTS,mKarTel,mKarTel,,D77,2016-04-22T17:50:10+06:00,
1000000000158352,77024253095,mKarTel,mKcell,mKcell,,D01,2016-04-22T17:51:56+06:00,
1000000000158353,77752502771,mMTS,mKcell,mKcell,,D77,2016-04-22T17:51:43+06:00,
1000000000158354,77014149439,mMTS,mKcell,mKcell,,D77,2016-04-22T17:53:10+06:00,
1000000000158355,77000940888,mMTS,mAltel,mAltel,,D77,2016-04-22T17:52:01+06:00,
1000000000158358,77771778000,mAltel,mKarTel,mKarTel,,D07,2016-04-22T17:53:32+06:00,
1000000000158359,77713394207,mAltel,mKarTel,mKarTel,,D07,2016-04-22T17:53:56+06:00,
1000000000158361,77753054181,mKcell,mAltel,mKcell,D07,D02,2016-04-22T17:57:01+06:00,
1000000000158362,77021159191,mMTS,mKcell,mKcell,,D77,2016-04-22T17:57:58+06:00,
