NPId,Number,RecipientId,DonorId,RangeHolderId,OldRoute,NewRoute,PortDate,RowCount
1000000000298445,77081152880,mKcell,mAltel,mAltel,,D02,2016-12-21T17:41:23+06:00,29
1000000000298458,77023534826,mKarTel,mKcell,mKcell,,D01,2016-12-21T17:30:33+06:00,
1000000000298459,77477770657,mAltel,mKcell,mMTS,D02,D07,2016-12-21T17:31:32+06:00,
1000000000298460,77071912003,mAltel,mMTS,mMTS,,D07,2016-12-21T17:31:25+06:00,
1000000000298461,77758891201,mMTS,mKcell,mKcell,,D77,2016-12-21T17:34:11+06:00,
1000000000298462,77011387217,mMTS,mKcell,mKcell,,D77,2016-12-21T17:34:31+06:00,
1000000000298463,77027576757,mMTS,mKcell,mKcell,,D77,2016-12-21T17:34:59+06:00,
1000000000298464,77073824712,mAltel,mMTS,mMTS,,D07,2016-12-21T17:35:34+06:00,
1000000000298465,77772872338,mAltel,mKarTel,mKarTel,,D07,2016-12-21T17:38:03+06:00,
1000000000298466,77018410077,mMTS,mKcell,mKcell,,D77,2016-12-21T17:38:55+06:00,
1000000000298467,77083333336,mKcell,mAltel,mAltel,,D02,2016-12-21T17:41:58+06:00,
1000000000298469,77017501667,mKarTel,mKcell,mKcell,,D01,2016-12-21T17:43:35+06:00,
1000000000298470,77767076698,mKcell,mKarTel,mKarTel,,D02,2016-12-21T17:44:54+06:00,
1000000000298471,77028350950,mAltel,mKcell,mKcell,,D07,2016-12-21T17:45:26+06:00,
1000000000298472,77781387812,mAltel,mKcell,mKcell,,D07,2016-12-21T17:45:36+06:00,
1000000000298473,77013608739,mAltel,mKcell,mKcell,,D07,2016-12-21T17:46:27+06:00,
1000000000298474,77767076692,mKcell,mKarTel,mKarTel,,D02,2016-12-21T17:47:14+06:00,
1000000000298475,77024887755,mMTS,mKcell,mKcell,,D77,2016-12-21T17:47:44+06:00,
1000000000298476,77767100770,mKarTel,mKcell,mKarTel,D02,D01,2016-12-21T17:47:56+06:00,
1000000000298477,77010291999,mKcell,mKarTel,mKcell,D01,D02,2016-12-21T17:52:51+06:00,
1000000000298478,77714122406,mAltel,mKarTel,mKarTel,,D07,2016-12-21T17:51:13+06:00,
1000000000298479,77767525332,mKarTel,mKcell,mKarTel,D02,D01,2016-12-21T17:51:55+06:00,
1000000000298482,77712091999,mKcell,mKarTel,mKarTel,,D02,2016-12-21T17:53:18+06:00,
1000000000298483,77714122405,mAltel,mKarTel,mKarTel,,D07,2016-12-21T17:56:20+06:00,
1000000000298484,77017010796,mAltel,mKcell,mKcell,,D07,2016-12-21T17:57:10+06:00,
1000000000298485,77013796667,mKcell,mAltel,mKcell,D07,D02,2016-12-21T17:57:49+06:00,
1000000000298486,77017790703,mAltel,mKcell,mKcell,,D07,2016-12-21T17:58:20+06:00,
1000000000298487,77086905446,mKarTel,mAltel,mAltel,,D01,2016-12-21T17:59:02+06:00,
1000000000298489,77056599888,mMTS,mKarTel,mKarTel,,D77,2016-12-21T17:59:47+06:00,
