NPId,Number,RecipientId,DonorId,RangeHolderId,OldRoute,NewRoute,PortDate,RowCount
1000000000234146,77072082087,mKcell,mMTS,mMTS,,D02,2016-08-25T17:31:33+06:00,9
1000000000234148,77001117177,mKarTel,mAltel,mAltel,,D01,2016-08-25T17:37:46+06:00,
1000000000234149,77017774812,mKarTel,mKcell,mKcell,,D01,2016-08-25T17:38:48+06:00,
1000000000234151,77770010203,mKcell,mKarTel,mKarTel,,D02,2016-08-25T17:46:00+06:00,
1000000000234153,77017015077,mMTS,mKcell,mKcell,,D77,2016-08-25T17:47:40+06:00,
1000000000234155,77079691899,mKcell,mMTS,mMTS,,D02,2016-08-25T17:50:44+06:00,
1000000000234156,77001388009,mMTS,mAltel,mAltel,,D77,2016-08-25T17:53:25+06:00,
1000000000234157,77025921389,mMTS,mKcell,mKcell,,D77,2016-08-25T17:54:17+06:00,
1000000000234158,77002135624,mMTS,mAltel,mAltel,,D77,2016-08-25T17:58:08+06:00,
