NPId,Number,RecipientId,DonorId,RangeHolderId,OldRoute,NewRoute,PortDate,RowCount
1000000000260630,77773421761,mAltel,mKarTel,mKarTel,,D07,2016-10-11T15:31:39+06:00,31
1000000000260633,77052222204,mMTS,mKarTel,mKarTel,,D77,2016-10-11T15:35:31+06:00,
1000000000260634,77024242400,mMTS,mKcell,mKcell,,D77,2016-10-11T15:30:19+06:00,
1000000000260635,77472721165,mKcell,mMTS,mMTS,,D02,2016-10-11T15:31:37+06:00,
1000000000260637,77017940074,mKarTel,mKcell,mKcell,,D01,2016-10-11T15:33:34+06:00,
1000000000260638,77026981405,mMTS,mKcell,mKcell,,D77,2016-10-11T15:31:58+06:00,
1000000000260639,77757434344,mMTS,mKcell,mKcell,,D77,2016-10-11T15:32:27+06:00,
1000000000260640,77767070807,mKcell,mKarTel,mKarTel,,D02,2016-10-11T15:37:52+06:00,
1000000000260641,77754257001,mAltel,mKcell,mKcell,,D07,2016-10-11T15:32:45+06:00,
1000000000260642,77017583463,mMTS,mKcell,mKcell,,D77,2016-10-11T15:33:58+06:00,
1000000000260645,77014058407,mMTS,mKcell,mKcell,,D77,2016-10-11T15:36:18+06:00,
1000000000260646,77016067525,mKcell,mMTS,mKcell,D77,D02,2016-10-11T15:37:52+06:00,
1000000000260649,77003000341,mKcell,mAltel,mAltel,,D02,2016-10-11T15:39:59+06:00,
1000000000260650,77006000651,mKcell,mAltel,mAltel,,D02,2016-10-11T15:41:10+06:00,
1000000000260651,77082020888,mKarTel,mAltel,mAltel,,D01,2016-10-11T15:42:41+06:00,
1000000000260655,77006000641,mKcell,mAltel,mAltel,,D02,2016-10-11T15:45:13+06:00,
1000000000260656,77072318119,mAltel,mMTS,mMTS,,D07,2016-10-11T15:42:36+06:00,
1000000000260657,77078206101,mKarTel,mMTS,mMTS,,D01,2016-10-11T15:44:30+06:00,
1000000000260658,77010904545,mKcell,mMTS,mKcell,D77,D02,2016-10-11T15:43:27+06:00,
1000000000260659,77788888878,mKcell,mAltel,mKcell,D07,D02,2016-10-11T15:43:26+06:00,
1000000000260661,77006000617,mKcell,mAltel,mAltel,,D02,2016-10-11T15:46:32+06:00,
1000000000260663,77003174180,mMTS,mAltel,mAltel,,D77,2016-10-11T15:47:30+06:00,
1000000000260666,77021794168,mMTS,mKcell,mKcell,,D77,2016-10-11T15:49:03+06:00,
1000000000260667,77018007744,mMTS,mKcell,mKcell,,D77,2016-10-11T15:49:43+06:00,
1000000000260668,77006000627,mKcell,mAltel,mAltel,,D02,2016-10-11T15:49:49+06:00,
1000000000260669,77773151232,mMTS,mKarTel,mKarTel,,D77,2016-10-11T15:55:11+06:00,
1000000000260670,77770006606,mKarTel,mKcell,mKarTel,D02,D01,2016-10-11T15:55:09+06:00,
1000000000260671,77006000649,mKcell,mAltel,mAltel,,D02,2016-10-11T15:53:07+06:00,
1000000000260674,77078197284,mKarTel,mMTS,mMTS,,D01,2016-10-11T15:56:53+06:00,
1000000000260675,77027491503,mKarTel,mKcell,mKcell,,D01,2016-10-11T15:58:43+06:00,
1000000000260676,77754020770,mKarTel,mKcell,mKcell,,D01,2016-10-11T15:58:43+06:00,
