NPId,Number,RecipientId,DonorId,RangeHolderId,OldRoute,NewRoute,PortDate,RowCount
1000000000285064,77752017779,mMTS,mKcell,mKcell,,D77,2016-11-27T16:30:18+06:00,9
1000000000285065,77022918454,mMTS,mKcell,mKcell,,D77,2016-11-27T16:32:48+06:00,
1000000000285066,77002041959,mKarTel,mAltel,mAltel,,D01,2016-11-27T16:36:17+06:00,
1000000000285067,77055023363,mMTS,mKarTel,mKarTel,,D77,2016-11-27T16:36:20+06:00,
1000000000285068,77001031959,mKarTel,mAltel,mAltel,,D01,2016-11-27T16:38:10+06:00,
1000000000285069,77781117177,mAltel,mKcell,mKcell,,D07,2016-11-27T16:40:02+06:00,
1000000000285070,77021978146,mMTS,mKcell,mKcell,,D77,2016-11-27T16:40:26+06:00,
1000000000285071,77773253257,mKcell,mKarTel,mKarTel,,D02,2016-11-27T16:45:59+06:00,
1000000000285074,77013385009,mMTS,mKcell,mKcell,,D77,2016-11-27T16:58:16+06:00,
