NPId,Number,RecipientId,DonorId,RangeHolderId,OldRoute,NewRoute,PortDate,RowCount
1000000000388003,77010359429,mAltel,mKcell,mKcell,,D07,2017-05-24T10:58:56+06:00,14
1000000000388027,77017400700,mAltel,mKcell,mKcell,,D07,2017-05-24T10:30:06+06:00,
1000000000388028,77012229026,mKcell,mMTS,mKcell,D77,D02,2017-05-24T10:30:21+06:00,
1000000000388029,77012082258,mAltel,mMTS,mKcell,D77,D07,2017-05-24T10:33:01+06:00,
1000000000388030,77017484048,mAltel,mMTS,mKcell,D77,D07,2017-05-24T10:34:03+06:00,
1000000000388031,77789999451,mKarTel,mKcell,mKcell,,D01,2017-05-24T10:34:34+06:00,
1000000000388032,77075000379,mKcell,mMTS,mMTS,,D02,2017-05-24T10:34:50+06:00,
1000000000388037,77014545008,mKcell,mMTS,mKcell,D77,D02,2017-05-24T10:42:25+06:00,
1000000000388038,77021702111,mAltel,mKcell,mKcell,,D07,2017-05-24T10:42:36+06:00,
1000000000388039,77015302732,mKcell,mKarTel,mKcell,D01,D02,2017-05-24T10:46:03+06:00,
1000000000388040,77021790442,mKcell,mMTS,mKcell,D77,D02,2017-05-24T10:51:15+06:00,
1000000000388041,77058899333,mMTS,mKarTel,mKarTel,,D77,2017-05-24T10:53:10+06:00,
1000000000388042,77773550345,mKarTel,mMTS,mKarTel,D77,D01,2017-05-24T10:53:21+06:00,
1000000000388044,77013026407,mMTS,mKcell,mKcell,,D77,2017-05-24T10:59:40+06:00,
