NPId,Number,RecipientId,DonorId,RangeHolderId,OldRoute,NewRoute,PortDate,RowCount
1000000000168349,77082202082,mKarTel,mAltel,mAltel,,D01,2016-05-05T16:00:33+06:00,44
1000000000168350,77051115445,mMTS,mKarTel,mKarTel,,D77,2016-05-05T16:01:07+06:00,
1000000000168351,77017405614,mKcell,mAltel,mKcell,D07,D02,2016-05-05T16:01:43+06:00,
1000000000168352,77083541425,mKcell,mAltel,mAltel,,D02,2016-05-05T16:01:44+06:00,
1000000000168353,77023778947,mMTS,mKcell,mKcell,,D77,2016-05-05T16:01:32+06:00,
1000000000168354,77058855008,mMTS,mKarTel,mKarTel,,D77,2016-05-05T16:03:01+06:00,
1000000000168355,77054437412,mKarTel,mMTS,mKarTel,D77,D01,2016-05-05T16:03:31+06:00,
1000000000168356,77073473301,mKarTel,mMTS,mMTS,,D01,2016-05-05T16:03:41+06:00,
1000000000168357,77007365779,mKarTel,mAltel,mAltel,,D01,2016-05-05T16:03:53+06:00,
1000000000168358,77771414573,mKarTel,mAltel,mKarTel,D07,D01,2016-05-05T16:04:04+06:00,
1000000000168359,77016952338,mKarTel,mKcell,mKcell,,D01,2016-05-05T16:04:46+06:00,
1000000000168360,77025078251,mKarTel,mKcell,mKcell,,D01,2016-05-05T16:04:57+06:00,
1000000000168361,77087080883,mMTS,mAltel,mAltel,,D77,2016-05-05T16:05:07+06:00,
1000000000168364,77016712575,mKarTel,mKcell,mKcell,,D01,2016-05-05T16:08:01+06:00,
1000000000168365,77012284252,mKcell,mAltel,mKcell,D07,D02,2016-05-05T16:08:44+06:00,
1000000000168367,77025606080,mMTS,mKcell,mKcell,,D77,2016-05-05T16:08:19+06:00,
1000000000168368,77014332224,mMTS,mKcell,mKcell,,D77,2016-05-05T16:08:19+06:00,
1000000000168370,77058777300,mMTS,mKarTel,mKarTel,,D77,2016-05-05T16:11:00+06:00,
1000000000168371,77776575377,mMTS,mKarTel,mKarTel,,D77,2016-05-05T16:11:24+06:00,
1000000000168372,77057911588,mKcell,mKarTel,mKarTel,,D02,2016-05-05T16:13:04+06:00,
1000000000168372,77773116433,mKcell,mKarTel,mKarTel,,D02,2016-05-05T16:13:04+06:00,
1000000000168372,77773116542,mKcell,mKarTel,mKarTel,,D02,2016-05-05T16:13:04+06:00,
1000000000168374,77783178648,mKarTel,mKcell,mKcell,,D01,2016-05-05T16:17:37+06:00,
1000000000168375,77029432459,mKcell,mAltel,mKcell,D07,D02,2016-05-05T16:18:38+06:00,
1000000000168376,77754896529,mKarTel,mKcell,mKcell,,D01,2016-05-05T16:18:25+06:00,
1000000000168377,77054391535,mMTS,mKarTel,mKarTel,,D77,2016-05-05T16:19:40+06:00,
1000000000168378,77014255542,mMTS,mKcell,mKcell,,D77,2016-05-05T16:21:15+06:00,
1000000000168380,77753364570,mMTS,mKcell,mKcell,,D77,2016-05-05T16:22:30+06:00,
1000000000168381,77785276544,mMTS,mKcell,mKcell,,D77,2016-05-05T16:22:33+06:00,
1000000000168382,77081711111,mKarTel,mAltel,mAltel,,D01,2016-05-05T16:22:22+06:00,
1000000000168383,77029175419,mMTS,mKcell,mKcell,,D77,2016-05-05T16:22:57+06:00,
1000000000168384,77710909909,mKarTel,mAltel,mKarTel,D07,D01,2016-05-05T16:22:50+06:00,
1000000000168385,77087071998,mMTS,mAltel,mAltel,,D77,2016-05-05T16:22:52+06:00,
1000000000168387,77013940702,mMTS,mKcell,mKcell,,D77,2016-05-05T16:24:24+06:00,
1000000000168388,77014449577,mMTS,mKcell,mKcell,,D77,2016-05-05T16:24:24+06:00,
1000000000168389,77753930303,mMTS,mKcell,mKcell,,D77,2016-05-05T16:25:06+06:00,
1000000000168390,77779373026,mMTS,mKarTel,mKarTel,,D77,2016-05-05T16:23:58+06:00,
1000000000168392,77008808808,mKcell,mAltel,mAltel,,D02,2016-05-05T16:25:49+06:00,
1000000000168393,77085175224,mMTS,mAltel,mAltel,,D77,2016-05-05T16:26:53+06:00,
1000000000168396,77474066816,mKcell,mMTS,mMTS,,D02,2016-05-05T16:27:41+06:00,
1000000000168397,77077312173,mKcell,mMTS,mMTS,,D02,2016-05-05T16:27:51+06:00,
1000000000168398,77474066815,mKcell,mMTS,mMTS,,D02,2016-05-05T16:28:35+06:00,
1000000000168399,77085688741,mMTS,mAltel,mAltel,,D77,2016-05-05T16:28:06+06:00,
1000000000168402,77779785791,mMTS,mKarTel,mKarTel,,D77,2016-05-05T16:29:37+06:00,
