NPId,Number,RecipientId,DonorId,RangeHolderId,OldRoute,NewRoute,PortDate,RowCount
1000000000244111,77022393244,mMTS,mKcell,mKcell,,D77,2016-09-11T14:42:25+06:00,9
1000000000244112,77776626707,mAltel,mKarTel,mKarTel,,D07,2016-09-11T14:45:21+06:00,
1000000000244113,77719997992,mAltel,mKarTel,mKarTel,,D07,2016-09-11T14:46:02+06:00,
1000000000244114,77079260799,mAltel,mMTS,mMTS,,D07,2016-09-11T14:49:20+06:00,
1000000000244115,77471888882,mKarTel,mKcell,mMTS,D02,D01,2016-09-11T14:50:04+06:00,
1000000000244118,77776241448,mMTS,mAltel,mKarTel,D07,D77,2016-09-11T14:57:09+06:00,
1000000000244120,77753593838,mMTS,mKcell,mKcell,,D77,2016-09-11T14:57:27+06:00,
1000000000244121,77014698444,mAltel,mKcell,mKcell,,D07,2016-09-11T14:58:07+06:00,
1000000000244122,77017802691,mKarTel,mKcell,mKcell,,D01,2016-09-11T14:58:44+06:00,
