NPId,Number,RecipientId,DonorId,RangeHolderId,OldRoute,NewRoute,PortDate,RowCount
1000000000170977,77017377771,mMTS,mKcell,mKcell,,D77,2016-05-10T15:00:44+06:00,31
1000000000170978,77052781339,mMTS,mKarTel,mKarTel,,D77,2016-05-10T15:00:56+06:00,
1000000000170979,77021869115,mMTS,mKcell,mKcell,,D77,2016-05-10T15:01:46+06:00,
1000000000170982,77082117377,mMTS,mAltel,mAltel,,D77,2016-05-10T15:02:33+06:00,
1000000000170983,77763453333,mMTS,mKarTel,mKarTel,,D77,2016-05-10T15:05:46+06:00,
1000000000170984,77772055991,mMTS,mKarTel,mKarTel,,D77,2016-05-10T15:05:46+06:00,
1000000000170985,77018036505,mMTS,mKcell,mKcell,,D77,2016-05-10T15:05:40+06:00,
1000000000170987,77013898558,mKarTel,mKcell,mKcell,,D01,2016-05-10T15:07:05+06:00,
1000000000170990,77002077720,mKcell,mAltel,mAltel,,D02,2016-05-10T15:10:19+06:00,
1000000000170991,77022156589,mAltel,mKcell,mKcell,,D07,2016-05-10T15:09:56+06:00,
1000000000170993,77755778831,mMTS,mKcell,mKcell,,D77,2016-05-10T15:11:00+06:00,
1000000000170994,77714666634,mMTS,mKarTel,mKarTel,,D77,2016-05-10T15:11:20+06:00,
1000000000170995,77089004069,mMTS,mAltel,mAltel,,D77,2016-05-10T15:12:03+06:00,
1000000000170997,77711968385,mMTS,mKarTel,mKarTel,,D77,2016-05-10T15:15:14+06:00,
1000000000170998,77014479036,mKarTel,mKcell,mKcell,,D01,2016-05-10T15:16:30+06:00,
1000000000170999,77023383873,mMTS,mKcell,mKcell,,D77,2016-05-10T15:17:28+06:00,
1000000000171000,77772005190,mAltel,mKarTel,mKarTel,,D07,2016-05-10T15:18:22+06:00,
1000000000171002,77052263333,mMTS,mKarTel,mKarTel,,D77,2016-05-10T15:19:18+06:00,
1000000000171003,77055752175,mAltel,mKarTel,mKarTel,,D07,2016-05-10T15:19:18+06:00,
1000000000171004,77770258000,mAltel,mKarTel,mKarTel,,D07,2016-05-10T15:19:59+06:00,
1000000000171005,77013125237,mMTS,mKcell,mKcell,,D77,2016-05-10T15:20:53+06:00,
1000000000171006,77081039621,mMTS,mAltel,mAltel,,D77,2016-05-10T15:21:19+06:00,
1000000000171008,77013754356,mKarTel,mKcell,mKcell,,D01,2016-05-10T15:23:27+06:00,
1000000000171009,77754447715,mMTS,mKcell,mKcell,,D77,2016-05-10T15:24:14+06:00,
1000000000171010,77029099908,mAltel,mKcell,mKcell,,D07,2016-05-10T15:24:15+06:00,
1000000000171011,77058155653,mMTS,mKarTel,mKarTel,,D77,2016-05-10T15:23:42+06:00,
1000000000171012,77015221361,mKcell,mAltel,mKcell,D07,D02,2016-05-10T15:25:05+06:00,
1000000000171013,77089545715,mKarTel,mAltel,mAltel,,D01,2016-05-10T15:24:15+06:00,
1000000000171016,77015255928,mMTS,mKcell,mKcell,,D77,2016-05-10T15:25:31+06:00,
1000000000171017,77787828118,mMTS,mKcell,mKcell,,D77,2016-05-10T15:26:48+06:00,
1000000000171018,77023202969,mKarTel,mKcell,mKcell,,D01,2016-05-10T15:28:44+06:00,
