NPId,Number,RecipientId,DonorId,RangeHolderId,OldRoute,NewRoute,PortDate,RowCount
1000000000272156,77473777303,mKcell,mMTS,mMTS,,D02,2016-11-01T19:01:37+06:00,16
1000000000272157,77026709864,mKarTel,mKcell,mKcell,,D01,2016-11-01T19:01:52+06:00,
1000000000272158,77000939323,mKcell,mAltel,mAltel,,D02,2016-11-01T19:02:38+06:00,
1000000000272159,77005884519,mKcell,mAltel,mAltel,,D02,2016-11-01T19:03:55+06:00,
1000000000272160,77000259525,mKcell,mAltel,mAltel,,D02,2016-11-01T19:04:07+06:00,
1000000000272163,77019484876,mKcell,mKarTel,mKcell,D01,D02,2016-11-01T19:07:48+06:00,
1000000000272166,77000853585,mKcell,mAltel,mAltel,,D02,2016-11-01T19:07:58+06:00,
1000000000272167,77017777296,mKarTel,mKcell,mKcell,,D01,2016-11-01T19:09:14+06:00,
1000000000272168,77027933471,mKcell,mMTS,mKcell,D77,D02,2016-11-01T19:09:47+06:00,
1000000000272169,77000969626,mKcell,mAltel,mAltel,,D02,2016-11-01T19:10:24+06:00,
1000000000272170,77755350809,mKcell,mMTS,mKcell,D77,D02,2016-11-01T19:12:38+06:00,
1000000000272171,77785110009,mMTS,mKarTel,mKcell,D01,D77,2016-11-01T19:12:48+06:00,
1000000000272175,77078218503,mKarTel,mMTS,mMTS,D77,D01,2016-11-01T19:19:06+06:00,
1000000000272177,77076186843,mKarTel,mMTS,mMTS,,D01,2016-11-01T19:25:50+06:00,
1000000000272178,77077765515,mKcell,mMTS,mMTS,,D02,2016-11-01T19:27:40+06:00,
1000000000272180,77027822080,mKarTel,mKcell,mKcell,,D01,2016-11-01T19:29:40+06:00,
