NPId,Number,RecipientId,DonorId,RangeHolderId,OldRoute,NewRoute,PortDate,RowCount
1000000000424283,77079191515,mKcell,mMTS,mMTS,,D02,2017-07-18T21:06:39+06:00,4
1000000000424284,77029767664,mMTS,mKcell,mKcell,,D77,2017-07-18T21:17:10+06:00,
1000000000424285,77028211646,mMTS,mKcell,mKcell,,D77,2017-07-18T21:21:58+06:00,
1000000000424286,77022150158,mKarTel,mKcell,mKcell,,D01,2017-07-18T21:23:58+06:00,
