NPId,Number,RecipientId,DonorId,RangeHolderId,OldRoute,NewRoute,PortDate,RowCount
1000000000353718,77017827858,mKarTel,mKcell,mKcell,,D01,2017-03-28T10:05:45+06:00,26
1000000000353719,77087021268,mMTS,mAltel,mAltel,,D77,2017-03-28T10:05:51+06:00,
1000000000353720,77471570318,mKcell,mMTS,mMTS,,D02,2017-03-28T10:07:34+06:00,
1000000000353721,77025206520,mMTS,mKcell,mKcell,,D77,2017-03-28T10:08:41+06:00,
1000000000353723,77789401457,mKarTel,mKcell,mKcell,,D01,2017-03-28T10:10:51+06:00,
1000000000353725,77473252090,mKcell,mMTS,mMTS,,D02,2017-03-28T10:11:23+06:00,
1000000000353726,77056877476,mMTS,mKarTel,mKarTel,,D77,2017-03-28T10:11:39+06:00,
1000000000353727,77078025489,mKcell,mMTS,mMTS,,D02,2017-03-28T10:12:52+06:00,
1000000000353728,77017004774,mKarTel,mKcell,mKcell,,D01,2017-03-28T10:13:33+06:00,
1000000000353729,77475037697,mKcell,mMTS,mMTS,,D02,2017-03-28T10:13:26+06:00,
1000000000353730,77786444532,mKcell,mMTS,mKcell,D77,D02,2017-03-28T10:13:48+06:00,
1000000000353731,77054733777,mKarTel,mMTS,mKarTel,D77,D01,2017-03-28T10:14:31+06:00,
1000000000353732,77017752555,mMTS,mKcell,mKcell,,D77,2017-03-28T10:15:30+06:00,
1000000000353733,77475039744,mKcell,mMTS,mMTS,,D02,2017-03-28T10:15:38+06:00,
1000000000353736,77089191177,mAltel,mMTS,mAltel,D77,D07,2017-03-28T10:16:47+06:00,
1000000000353737,77471570319,mKcell,mMTS,mMTS,,D02,2017-03-28T10:17:41+06:00,
1000000000353738,77771077634,mKcell,mKarTel,mKarTel,,D02,2017-03-28T10:19:22+06:00,
1000000000353739,77015212665,mKarTel,mKcell,mKcell,,D01,2017-03-28T10:20:55+06:00,
1000000000353740,77787867073,mMTS,mKcell,mKcell,,D77,2017-03-28T10:21:20+06:00,
1000000000353742,77078025491,mKcell,mMTS,mMTS,,D02,2017-03-28T10:23:03+06:00,
1000000000353744,77751888000,mAltel,mKcell,mKcell,,D07,2017-03-28T10:23:36+06:00,
1000000000353745,77753623808,mAltel,mKcell,mKcell,,D07,2017-03-28T10:23:37+06:00,
1000000000353746,77479160708,mAltel,mMTS,mMTS,,D07,2017-03-28T10:23:51+06:00,
1000000000353750,77471570065,mKcell,mMTS,mMTS,,D02,2017-03-28T10:27:11+06:00,
1000000000353752,77475430028,mKcell,mMTS,mMTS,,D02,2017-03-28T10:29:07+06:00,
1000000000353753,77471570061,mKcell,mMTS,mMTS,,D02,2017-03-28T10:29:17+06:00,
