NPId,Number,RecipientId,DonorId,RangeHolderId,OldRoute,NewRoute,PortDate,RowCount
1000000000430867,77787380160,mMTS,mKcell,mKcell,,D77,2017-07-30T18:32:25+06:00,7
1000000000430868,77018167863,mKarTel,mKcell,mKcell,,D01,2017-07-30T18:34:20+06:00,
1000000000430869,77777769119,mMTS,mKarTel,mKarTel,,D77,2017-07-30T18:35:18+06:00,
1000000000430870,77787379661,mMTS,mKcell,mKcell,,D77,2017-07-30T18:42:25+06:00,
1000000000430871,77017658152,mKarTel,mKcell,mKcell,,D01,2017-07-30T18:48:56+06:00,
1000000000430872,77082105505,mMTS,mAltel,mAltel,,D77,2017-07-30T18:51:22+06:00,
1000000000430873,77019649100,mKarTel,mKcell,mKcell,D02,D01,2017-07-30T18:56:19+06:00,
