NPId,Number,RecipientId,DonorId,RangeHolderId,OldRoute,NewRoute,PortDate,RowCount
1000000000155587,77710336789,mKcell,mKarTel,mKarTel,,D02,2016-04-19T14:00:00+06:00,35
1000000000155593,77057576557,mKcell,mKarTel,mKarTel,,D02,2016-04-19T14:03:05+06:00,
1000000000155599,77775004506,mKcell,mKarTel,mKarTel,,D02,2016-04-19T14:07:30+06:00,
1000000000155599,77775004540,mKcell,mKarTel,mKarTel,,D02,2016-04-19T14:07:30+06:00,
1000000000155599,77775004548,mKcell,mKarTel,mKarTel,,D02,2016-04-19T14:07:30+06:00,
1000000000155599,77775004552,mKcell,mKarTel,mKarTel,,D02,2016-04-19T14:07:30+06:00,
1000000000155599,77778721177,mKcell,mKarTel,mKarTel,,D02,2016-04-19T14:07:30+06:00,
1000000000155602,77057494714,mKcell,mKarTel,mKarTel,,D02,2016-04-19T14:08:21+06:00,
1000000000155608,77715060502,mKcell,mKarTel,mKarTel,,D02,2016-04-19T14:11:18+06:00,
1000000000155612,77019008042,mKarTel,mKcell,mKcell,,D01,2016-04-19T14:01:25+06:00,
1000000000155615,77083679084,mKcell,mAltel,mAltel,,D02,2016-04-19T14:03:32+06:00,
1000000000155616,77773387373,mKcell,mKarTel,mKarTel,,D02,2016-04-19T14:04:11+06:00,
1000000000155618,77027763659,mMTS,mKcell,mKcell,,D77,2016-04-19T14:04:49+06:00,
1000000000155619,77003233332,mKarTel,mAltel,mAltel,,D01,2016-04-19T14:05:45+06:00,
1000000000155620,77007300855,mMTS,mAltel,mAltel,,D77,2016-04-19T14:06:01+06:00,
1000000000155623,77016436699,mMTS,mKcell,mKcell,,D77,2016-04-19T14:07:27+06:00,
1000000000155624,77759654705,mMTS,mKcell,mKcell,,D77,2016-04-19T14:08:11+06:00,
1000000000155625,77003832467,mMTS,mAltel,mAltel,,D77,2016-04-19T14:08:33+06:00,
1000000000155626,77715060500,mKcell,mKarTel,mKarTel,,D02,2016-04-19T14:11:19+06:00,
1000000000155629,77011667777,mAltel,mKcell,mKcell,,D07,2016-04-19T14:14:04+06:00,
1000000000155630,77016173259,mKcell,mKarTel,mKcell,D01,D02,2016-04-19T14:14:48+06:00,
1000000000155631,77759608680,mMTS,mKcell,mKcell,,D77,2016-04-19T14:15:22+06:00,
1000000000155633,77017656816,mKcell,mAltel,mKcell,D07,D02,2016-04-19T14:16:37+06:00,
1000000000155634,77753391562,mAltel,mKcell,mKcell,,D07,2016-04-19T14:16:35+06:00,
1000000000155636,77052611018,mMTS,mKarTel,mKarTel,,D77,2016-04-19T14:19:56+06:00,
1000000000155637,77013934076,mMTS,mKcell,mKcell,,D77,2016-04-19T14:20:15+06:00,
1000000000155638,77783257211,mMTS,mKcell,mKcell,,D77,2016-04-19T14:20:29+06:00,
1000000000155639,77015126950,mMTS,mKcell,mKcell,,D77,2016-04-19T14:21:27+06:00,
1000000000155640,77014604795,mMTS,mKcell,mKcell,,D77,2016-04-19T14:23:38+06:00,
1000000000155642,77772583600,mMTS,mKarTel,mKarTel,,D77,2016-04-19T14:25:57+06:00,
1000000000155643,77752699964,mMTS,mKcell,mKcell,,D77,2016-04-19T14:27:08+06:00,
1000000000155644,77753384890,mMTS,mKcell,mKcell,,D77,2016-04-19T14:27:28+06:00,
1000000000155646,77085245824,mKcell,mAltel,mAltel,,D02,2016-04-19T14:28:20+06:00,
1000000000155647,77055036712,mKarTel,mAltel,mKarTel,D07,D01,2016-04-19T14:28:49+06:00,
1000000000155648,77718807309,mMTS,mKarTel,mKarTel,,D77,2016-04-19T14:29:23+06:00,
