NPId,Number,RecipientId,DonorId,RangeHolderId,OldRoute,NewRoute,PortDate,RowCount
1000000000429000,77770074044,mKarTel,mKcell,mKarTel,D02,D01,2017-07-27T09:03:02+06:00,4
1000000000429001,77015752963,mKarTel,mKcell,mKcell,,D01,2017-07-27T09:02:57+06:00,
1000000000429004,77473434730,mKarTel,mMTS,mMTS,,D01,2017-07-27T09:09:42+06:00,
1000000000429007,77072270539,mAltel,mMTS,mMTS,,D07,2017-07-27T09:24:29+06:00,
