NPId,Number,RecipientId,DonorId,RangeHolderId,OldRoute,NewRoute,PortDate,RowCount
1000000000002019,77017390988,mKarTel,mKcell,mKcell,,D01,2016-01-06T11:01:03+06:00,26
1000000000002020,77778337755,mAltel,mKarTel,mKarTel,,D07,2016-01-06T11:02:49+06:00,
1000000000002022,77029999059,mAltel,mKcell,mKcell,,D07,2016-01-06T11:03:18+06:00,
1000000000002027,77759988969,mKarTel,mKcell,mKcell,,D01,2016-01-06T11:05:44+06:00,
1000000000002028,77071117706,mAltel,mMTS,mMTS,,D07,2016-01-06T11:05:32+06:00,
1000000000002031,77772909190,mAltel,mKarTel,mKarTel,,D07,2016-01-06T11:07:27+06:00,
1000000000002032,77774777407,mKcell,mKarTel,mKarTel,,D02,2016-01-06T11:08:19+06:00,
1000000000002034,77075155515,mKarTel,mMTS,mMTS,,D01,2016-01-06T11:09:25+06:00,
1000000000002037,77026328401,mAltel,mKcell,mKcell,,D07,2016-01-06T11:10:56+06:00,
1000000000002040,77075560316,mKcell,mMTS,mMTS,,D02,2016-01-06T11:11:30+06:00,
1000000000002041,77770000123,mKcell,mKarTel,mKarTel,,D02,2016-01-06T11:12:30+06:00,
1000000000002043,77756793849,mAltel,mKcell,mKcell,,D07,2016-01-06T11:15:54+06:00,
1000000000002044,77777705990,mAltel,mKarTel,mKarTel,,D07,2016-01-06T11:18:07+06:00,
1000000000002048,77071424285,mKarTel,mMTS,mMTS,,D01,2016-01-06T11:20:21+06:00,
1000000000002050,77075163990,mAltel,mMTS,mMTS,,D07,2016-01-06T11:20:34+06:00,
1000000000002051,77017489761,mKarTel,mKcell,mKcell,,D01,2016-01-06T11:21:07+06:00,
1000000000002052,77077955010,mAltel,mMTS,mMTS,,D07,2016-01-06T11:20:58+06:00,
1000000000002054,77017663067,mKarTel,mKcell,mKcell,,D01,2016-01-06T11:21:28+06:00,
1000000000002056,77014027815,mKarTel,mKcell,mKcell,,D01,2016-01-06T11:22:03+06:00,
1000000000002057,77015134875,mKarTel,mKcell,mKcell,,D01,2016-01-06T11:22:44+06:00,
1000000000002058,77756789268,mAltel,mKcell,mKcell,,D07,2016-01-06T11:24:27+06:00,
1000000000002060,77028970915,mMTS,mKcell,mKcell,,D77,2016-01-06T11:25:28+06:00,
1000000000002061,77783163131,mAltel,mKcell,mKcell,,D07,2016-01-06T11:27:47+06:00,
1000000000002062,77016665560,mAltel,mKcell,mKcell,,D07,2016-01-06T11:28:05+06:00,
1000000000002063,77777770674,mKcell,mKarTel,mKarTel,,D02,2016-01-06T11:28:49+06:00,
1000000000002065,77077309538,mAltel,mMTS,mMTS,,D07,2016-01-06T11:29:29+06:00,
