NPId,Number,RecipientId,DonorId,RangeHolderId,OldRoute,NewRoute,PortDate,RowCount
1000000000168760,77052622288,mMTS,mKarTel,mKarTel,,D77,2016-05-06T15:07:32+06:00,21
1000000000168762,77054579840,mMTS,mKarTel,mKarTel,,D77,2016-05-06T15:09:19+06:00,
1000000000168773,77055451100,mMTS,mKarTel,mKarTel,,D77,2016-05-06T15:20:16+06:00,
1000000000168778,77777494843,mMTS,mKarTel,mKarTel,,D77,2016-05-06T15:22:11+06:00,
1000000000168781,77053427323,mMTS,mKarTel,mKarTel,,D77,2016-05-06T15:25:12+06:00,
1000000000169008,77089169991,mMTS,mAltel,mAltel,,D77,2016-05-06T15:01:03+06:00,
1000000000169011,77027554505,mKcell,mAltel,mKcell,D07,D02,2016-05-06T15:04:27+06:00,
1000000000169012,77475050793,mMTS,mAltel,mMTS,D07,D77,2016-05-06T15:03:32+06:00,
1000000000169015,77085223242,mMTS,mAltel,mAltel,,D77,2016-05-06T15:07:02+06:00,
1000000000169016,77027933471,mMTS,mKcell,mKcell,,D77,2016-05-06T15:07:51+06:00,
1000000000169018,77088212706,mMTS,mAltel,mAltel,,D77,2016-05-06T15:07:38+06:00,
1000000000169020,77004666593,mMTS,mAltel,mAltel,,D77,2016-05-06T15:08:28+06:00,
1000000000169022,77087596593,mMTS,mAltel,mAltel,,D77,2016-05-06T15:09:22+06:00,
1000000000169028,77083088070,mMTS,mAltel,mAltel,,D77,2016-05-06T15:17:29+06:00,
1000000000169029,77009662258,mMTS,mAltel,mAltel,,D77,2016-05-06T15:17:55+06:00,
1000000000169030,77074440506,mKcell,mMTS,mMTS,,D02,2016-05-06T15:19:02+06:00,
1000000000169033,77086566567,mMTS,mAltel,mAltel,,D77,2016-05-06T15:20:37+06:00,
1000000000169040,77081683060,mKcell,mAltel,mAltel,,D02,2016-05-06T15:24:25+06:00,
1000000000169042,77083600110,mMTS,mAltel,mAltel,,D77,2016-05-06T15:25:53+06:00,
1000000000169044,77026266939,mAltel,mKcell,mKcell,,D07,2016-05-06T15:27:47+06:00,
1000000000169045,77015032310,mMTS,mKcell,mKcell,,D77,2016-05-06T15:28:05+06:00,
