NPId,Number,RecipientId,DonorId,RangeHolderId,OldRoute,NewRoute,PortDate,RowCount
1000000000346118,77005159798,mAltel,mKarTel,mAltel,D01,D07,2017-03-14T10:01:27+06:00,29
1000000000346119,77774000344,mMTS,mAltel,mKarTel,D07,D77,2017-03-14T10:02:43+06:00,
1000000000346120,77754023522,mMTS,mKcell,mKcell,D02,D77,2017-03-14T10:02:56+06:00,
1000000000346122,77765099939,mMTS,mKarTel,mKarTel,,D77,2017-03-14T10:08:08+06:00,
1000000000346123,77078568572,mKarTel,mMTS,mMTS,,D01,2017-03-14T10:13:45+06:00,
1000000000346124,77012497749,mKarTel,mKcell,mKcell,,D01,2017-03-14T10:09:04+06:00,
1000000000346125,77473152382,mAltel,mMTS,mMTS,,D07,2017-03-14T10:08:59+06:00,
1000000000346126,77075383017,mKarTel,mMTS,mMTS,,D01,2017-03-14T10:09:45+06:00,
1000000000346128,77018091829,mKarTel,mKcell,mKcell,,D01,2017-03-14T10:16:38+06:00,
1000000000346131,77017584210,mKarTel,mKcell,mKcell,,D01,2017-03-14T10:18:30+06:00,
1000000000346132,77004291648,mMTS,mAltel,mAltel,,D77,2017-03-14T10:11:48+06:00,
1000000000346134,77051811101,mMTS,mKarTel,mKarTel,,D77,2017-03-14T10:13:09+06:00,
1000000000346135,77075020386,mKarTel,mMTS,mMTS,,D01,2017-03-14T10:20:44+06:00,
1000000000346136,77018748968,mKarTel,mKcell,mKcell,,D01,2017-03-14T10:21:59+06:00,
1000000000346138,77078545549,mKcell,mMTS,mMTS,,D02,2017-03-14T10:15:34+06:00,
1000000000346140,77024278890,mMTS,mKarTel,mKcell,D01,D77,2017-03-14T10:17:29+06:00,
1000000000346141,77078332190,mMTS,mKcell,mMTS,D02,D77,2017-03-14T10:17:52+06:00,
1000000000346142,77475037678,mKcell,mMTS,mMTS,,D02,2017-03-14T10:18:02+06:00,
1000000000346143,77779023399,mKarTel,mKcell,mKarTel,D02,D01,2017-03-14T10:18:50+06:00,
1000000000346144,77473252127,mKcell,mMTS,mMTS,,D02,2017-03-14T10:19:39+06:00,
1000000000346145,77017736264,mAltel,mKcell,mKcell,,D07,2017-03-14T10:19:36+06:00,
1000000000346146,77759917267,mMTS,mKcell,mKcell,,D77,2017-03-14T10:19:56+06:00,
1000000000346147,77473758983,mKcell,mMTS,mMTS,,D02,2017-03-14T10:21:16+06:00,
1000000000346148,77015954405,mMTS,mKcell,mKcell,,D77,2017-03-14T10:21:42+06:00,
1000000000346149,77711140101,mAltel,mKarTel,mKarTel,,D07,2017-03-14T10:23:04+06:00,
1000000000346150,77473319068,mKcell,mMTS,mMTS,,D02,2017-03-14T10:23:27+06:00,
1000000000346151,77012061402,mKcell,mAltel,mKcell,D07,D02,2017-03-14T10:24:42+06:00,
1000000000346152,77059720437,mAltel,mKarTel,mKarTel,,D07,2017-03-14T10:25:05+06:00,
1000000000346153,77471666919,mKcell,mMTS,mMTS,,D02,2017-03-14T10:25:03+06:00,
