NPId,Number,RecipientId,DonorId,RangeHolderId,OldRoute,NewRoute,PortDate,RowCount
1000000000439195,77017282895,mAltel,mMTS,mKcell,D77,D07,2017-08-13T13:02:47+06:00,10
1000000000439198,77015821703,mMTS,mKcell,mKcell,,D77,2017-08-13T13:03:37+06:00,
1000000000439199,77021444744,mKarTel,mKcell,mKcell,,D01,2017-08-13T13:04:49+06:00,
1000000000439201,77017226836,mKarTel,mKcell,mKcell,,D01,2017-08-13T13:08:57+06:00,
1000000000439202,77083978978,mMTS,mAltel,mAltel,,D77,2017-08-13T13:09:17+06:00,
1000000000439203,77051899999,mMTS,mKarTel,mKarTel,,D77,2017-08-13T13:16:14+06:00,
1000000000439205,77718771000,mMTS,mKarTel,mKarTel,D01,D77,2017-08-13T13:20:45+06:00,
1000000000439206,77024221575,mMTS,mKcell,mKcell,,D77,2017-08-13T13:23:23+06:00,
1000000000439208,77074109797,mKcell,mMTS,mMTS,,D02,2017-08-13T13:25:11+06:00,
1000000000439209,77027990666,mAltel,mKcell,mKcell,,D07,2017-08-13T13:27:33+06:00,
