NPId,Number,RecipientId,DonorId,RangeHolderId,OldRoute,NewRoute,PortDate,RowCount
1000000000165595,77001521566,mMTS,mAltel,mAltel,,D77,2016-05-02T17:00:59+06:00,31
1000000000165596,77017061935,mKarTel,mKcell,mKcell,,D01,2016-05-02T17:02:20+06:00,
1000000000165597,77772554448,mKarTel,mAltel,mKarTel,D07,D01,2016-05-02T17:02:21+06:00,
1000000000165598,77772252812,mKarTel,mAltel,mKarTel,D07,D01,2016-05-02T17:02:30+06:00,
1000000000165600,77019795605,mMTS,mKcell,mKcell,,D77,2016-05-02T17:11:25+06:00,
1000000000165601,77775155577,mMTS,mKarTel,mKarTel,,D77,2016-05-02T17:04:46+06:00,
1000000000165602,77022467392,mKarTel,mKcell,mKcell,,D01,2016-05-02T17:11:40+06:00,
1000000000165603,77082509800,mMTS,mAltel,mAltel,,D77,2016-05-02T17:05:19+06:00,
1000000000165604,77772525553,mKcell,mKarTel,mKarTel,,D02,2016-05-02T17:11:44+06:00,
1000000000165605,77476268828,mMTS,mKarTel,mMTS,D01,D77,2016-05-02T17:07:24+06:00,
1000000000165606,77077017733,mMTS,mAltel,mMTS,D07,D77,2016-05-02T17:07:18+06:00,
1000000000165607,77057056446,mMTS,mKarTel,mKarTel,,D77,2016-05-02T17:08:38+06:00,
1000000000165608,77751391988,mMTS,mKcell,mKcell,,D77,2016-05-02T17:11:25+06:00,
1000000000165609,77075555978,mKcell,mMTS,mMTS,,D02,2016-05-02T17:11:45+06:00,
1000000000165610,77775937257,mMTS,mKarTel,mKarTel,,D77,2016-05-02T17:10:55+06:00,
1000000000165611,77758888018,mKcell,mMTS,mKcell,D77,D02,2016-05-02T17:12:20+06:00,
1000000000165613,77711792929,mMTS,mKarTel,mKarTel,,D77,2016-05-02T17:13:10+06:00,
1000000000165614,77022232894,mKarTel,mKcell,mKcell,,D01,2016-05-02T17:15:12+06:00,
1000000000165619,77714116472,mKcell,mKarTel,mKarTel,,D02,2016-05-02T17:19:33+06:00,
1000000000165620,77774856807,mAltel,mKarTel,mKarTel,,D07,2016-05-02T17:20:32+06:00,
1000000000165623,77017535945,mKarTel,mKcell,mKcell,,D01,2016-05-02T17:21:57+06:00,
1000000000165624,77014445124,mKcell,mMTS,mKcell,D77,D02,2016-05-02T17:21:56+06:00,
1000000000165625,77778823233,mMTS,mKarTel,mKarTel,,D77,2016-05-02T17:22:21+06:00,
1000000000165626,77761861983,mMTS,mKarTel,mKarTel,,D77,2016-05-02T17:22:20+06:00,
1000000000165627,77017237174,mMTS,mKcell,mKcell,,D77,2016-05-02T17:23:51+06:00,
1000000000165628,77753978855,mMTS,mKcell,mKcell,,D77,2016-05-02T17:24:15+06:00,
1000000000165629,77027788088,mMTS,mKcell,mKcell,,D77,2016-05-02T17:24:28+06:00,
1000000000165630,77004434466,mMTS,mAltel,mAltel,,D77,2016-05-02T17:25:08+06:00,
1000000000165631,77007779917,mMTS,mAltel,mAltel,,D77,2016-05-02T17:25:45+06:00,
1000000000165633,77057777126,mMTS,mKarTel,mKarTel,,D77,2016-05-02T17:27:19+06:00,
1000000000165634,77005236795,mMTS,mAltel,mAltel,,D77,2016-05-02T17:27:29+06:00,
