NPId,Number,RecipientId,DonorId,RangeHolderId,OldRoute,NewRoute,PortDate,RowCount
1000000000226634,77018724559,mMTS,mKcell,mKcell,,D77,2016-08-11T09:12:24+06:00,22
1000000000226637,77018724569,mMTS,mKcell,mKcell,,D77,2016-08-11T09:13:55+06:00,
1000000000226639,77015066872,mMTS,mKcell,mKcell,,D77,2016-08-11T09:14:55+06:00,
1000000000226641,77015066392,mMTS,mKcell,mKcell,,D77,2016-08-11T09:15:44+06:00,
1000000000226644,77015195304,mMTS,mKcell,mKcell,,D77,2016-08-11T09:17:12+06:00,
1000000000226646,77015195306,mMTS,mKcell,mKcell,,D77,2016-08-11T09:18:15+06:00,
1000000000226652,77015017495,mMTS,mKcell,mKcell,,D77,2016-08-11T09:19:03+06:00,
1000000000226654,77018724582,mMTS,mKcell,mKcell,,D77,2016-08-11T09:19:55+06:00,
1000000000226655,77018724584,mMTS,mKcell,mKcell,,D77,2016-08-11T09:20:20+06:00,
1000000000226658,77012202229,mKarTel,mKcell,mKcell,,D01,2016-08-11T09:11:30+06:00,
1000000000226658,77012209902,mKarTel,mKcell,mKcell,,D01,2016-08-11T09:11:30+06:00,
1000000000226658,77012209903,mKarTel,mKcell,mKcell,,D01,2016-08-11T09:11:30+06:00,
1000000000226658,77012209906,mKarTel,mKcell,mKcell,,D01,2016-08-11T09:11:30+06:00,
1000000000226658,77012209907,mKarTel,mKcell,mKcell,,D01,2016-08-11T09:11:30+06:00,
1000000000226658,77012212665,mKarTel,mKcell,mKcell,,D01,2016-08-11T09:11:30+06:00,
1000000000226658,77012212669,mKarTel,mKcell,mKcell,,D01,2016-08-11T09:11:30+06:00,
1000000000226658,77012212748,mKarTel,mKcell,mKcell,,D01,2016-08-11T09:11:30+06:00,
1000000000226658,77012212749,mKarTel,mKcell,mKcell,,D01,2016-08-11T09:11:30+06:00,
1000000000226658,77012218981,mKarTel,mKcell,mKcell,,D01,2016-08-11T09:11:30+06:00,
1000000000226658,77012219025,mKarTel,mKcell,mKcell,,D01,2016-08-11T09:11:30+06:00,
1000000000227179,77779969889,mKarTel,mMTS,mKarTel,D77,D01,2016-08-11T09:02:45+06:00,
1000000000227181,77001117808,mKarTel,mAltel,mAltel,,D01,2016-08-11T09:04:55+06:00,
