NPId,Number,RecipientId,DonorId,RangeHolderId,OldRoute,NewRoute,PortDate,RowCount
1000000000353023,77777543166,mKcell,mKarTel,mKarTel,,D02,2017-03-27T13:00:57+06:00,28
1000000000353025,77051663097,mKarTel,mMTS,mKarTel,D77,D01,2017-03-27T13:02:25+06:00,
1000000000353026,77009840253,mMTS,mAltel,mAltel,,D77,2017-03-27T13:03:29+06:00,
1000000000353027,77759255593,mKarTel,mKcell,mKcell,,D01,2017-03-27T13:04:04+06:00,
1000000000353028,77760009660,mMTS,mKarTel,mKarTel,,D77,2017-03-27T13:04:44+06:00,
1000000000353029,77018884707,mMTS,mAltel,mKcell,D07,D77,2017-03-27T13:07:38+06:00,
1000000000353030,77073060542,mAltel,mMTS,mMTS,,D07,2017-03-27T13:07:41+06:00,
1000000000353031,77017175616,mKarTel,mKcell,mKcell,,D01,2017-03-27T13:09:07+06:00,
1000000000353032,77089615653,mMTS,mAltel,mAltel,,D77,2017-03-27T13:09:01+06:00,
1000000000353033,77018475783,mMTS,mKcell,mKcell,,D77,2017-03-27T13:09:05+06:00,
1000000000353034,77051778916,mMTS,mKarTel,mKarTel,,D77,2017-03-27T13:09:40+06:00,
1000000000353036,77052325226,mMTS,mKarTel,mKarTel,,D77,2017-03-27T13:10:41+06:00,
1000000000353038,77002222226,mKcell,mAltel,mAltel,D07,D02,2017-03-27T13:16:02+06:00,
1000000000353039,77013522644,mMTS,mKcell,mKcell,,D77,2017-03-27T13:16:36+06:00,
1000000000353040,77771309688,mKcell,mKarTel,mKarTel,,D02,2017-03-27T13:17:21+06:00,
1000000000353041,77475840657,mAltel,mMTS,mMTS,,D07,2017-03-27T13:17:22+06:00,
1000000000353043,77088438262,mMTS,mAltel,mAltel,,D77,2017-03-27T13:18:19+06:00,
1000000000353044,77789217213,mMTS,mKcell,mKcell,,D77,2017-03-27T13:18:57+06:00,
1000000000353045,77764466686,mKcell,mAltel,mKarTel,D07,D02,2017-03-27T13:21:58+06:00,
1000000000353046,77473847882,mAltel,mMTS,mMTS,,D07,2017-03-27T13:22:31+06:00,
1000000000353047,77028365354,mKarTel,mKcell,mKcell,,D01,2017-03-27T13:23:31+06:00,
1000000000353048,77057676766,mKcell,mKarTel,mKarTel,,D02,2017-03-27T13:25:46+06:00,
1000000000353051,77470319917,mAltel,mMTS,mMTS,,D07,2017-03-27T13:26:14+06:00,
1000000000353052,77025089208,mAltel,mKcell,mKcell,,D07,2017-03-27T13:26:34+06:00,
1000000000353053,77783203122,mAltel,mKcell,mKcell,,D07,2017-03-27T13:26:34+06:00,
1000000000353054,77771892680,mAltel,mKarTel,mKarTel,,D07,2017-03-27T13:27:19+06:00,
1000000000353055,77057639151,mAltel,mKarTel,mKarTel,,D07,2017-03-27T13:28:40+06:00,
1000000000353056,77479005520,mAltel,mMTS,mMTS,,D07,2017-03-27T13:28:44+06:00,
