NPId,Number,RecipientId,DonorId,RangeHolderId,OldRoute,NewRoute,PortDate,RowCount
1000000000430654,77779213122,mMTS,mKarTel,mKarTel,,D77,2017-07-29T22:42:27+06:00,3
1000000000430655,77779213084,mMTS,mKarTel,mKarTel,,D77,2017-07-29T22:47:40+06:00,
1000000000430656,77779021676,mMTS,mKarTel,mKarTel,,D77,2017-07-29T22:52:32+06:00,
