NPId,Number,RecipientId,DonorId,RangeHolderId,OldRoute,NewRoute,PortDate,RowCount
1000000000106800,77010917620,mKarTel,mKcell,mKcell,,D01,2016-03-04T16:32:00+06:00,40
1000000000106800,77019868832,mKarTel,mKcell,mKcell,,D01,2016-03-04T16:32:00+06:00,
1000000000106934,77012128893,mKarTel,mKcell,mKcell,,D01,2016-03-04T16:30:33+06:00,
1000000000107150,77775334653,mMTS,mKarTel,mKarTel,,D77,2016-03-04T16:43:20+06:00,
1000000000107151,77786922727,mMTS,mKcell,mKcell,,D77,2016-03-04T16:30:54+06:00,
1000000000107153,77755313533,mAltel,mKcell,mKcell,,D07,2016-03-04T16:30:55+06:00,
1000000000107154,77022165742,mMTS,mKcell,mKcell,,D77,2016-03-04T16:31:47+06:00,
1000000000107155,77782943950,mAltel,mKcell,mKcell,,D07,2016-03-04T16:31:43+06:00,
1000000000107161,77015262517,mAltel,mKcell,mKcell,,D07,2016-03-04T16:35:01+06:00,
1000000000107163,77014123559,mMTS,mKcell,mKcell,,D77,2016-03-04T16:35:00+06:00,
1000000000107164,77789593850,mAltel,mKcell,mKcell,,D07,2016-03-04T16:34:57+06:00,
1000000000107165,77778003236,mMTS,mKarTel,mKarTel,,D77,2016-03-04T16:32:48+06:00,
1000000000107168,77073387873,mKarTel,mMTS,mMTS,,D01,2016-03-04T16:35:31+06:00,
1000000000107170,77017646236,mKarTel,mKcell,mKcell,,D01,2016-03-04T16:41:55+06:00,
1000000000107172,77783450404,mMTS,mKcell,mKcell,,D77,2016-03-04T16:41:36+06:00,
1000000000107173,77751173665,mAltel,mKcell,mKcell,,D07,2016-03-04T16:41:36+06:00,
1000000000107177,77787004705,mKarTel,mKcell,mKcell,,D01,2016-03-04T16:41:45+06:00,
1000000000107178,77076907707,mKcell,mMTS,mMTS,,D02,2016-03-04T16:41:36+06:00,
1000000000107183,77082862300,mKarTel,mAltel,mAltel,,D01,2016-03-04T16:41:35+06:00,
1000000000107184,77058681717,mAltel,mKarTel,mKarTel,,D07,2016-03-04T16:42:52+06:00,
1000000000107187,77018050102,mMTS,mKcell,mKcell,,D77,2016-03-04T16:47:24+06:00,
1000000000107188,77779152671,mAltel,mKarTel,mKarTel,,D07,2016-03-04T16:44:09+06:00,
1000000000107189,77013793785,mMTS,mKcell,mKcell,,D77,2016-03-04T16:47:25+06:00,
1000000000107190,77076668355,mAltel,mMTS,mMTS,,D07,2016-03-04T16:44:47+06:00,
1000000000107191,77058019570,mMTS,mKarTel,mKarTel,,D77,2016-03-04T16:46:12+06:00,
1000000000107192,77755379007,mAltel,mKcell,mKcell,,D07,2016-03-04T16:50:06+06:00,
1000000000107193,77011155580,mMTS,mKcell,mKcell,,D77,2016-03-04T16:50:06+06:00,
1000000000107196,77754272774,mMTS,mKcell,mKcell,,D77,2016-03-04T16:50:08+06:00,
1000000000107197,77057606759,mAltel,mKarTel,mKarTel,,D07,2016-03-04T16:47:23+06:00,
1000000000107199,77713585558,mMTS,mKarTel,mKarTel,,D77,2016-03-04T16:48:19+06:00,
1000000000107200,77751863552,mAltel,mKcell,mKcell,,D07,2016-03-04T16:51:07+06:00,
1000000000107202,77752922610,mKarTel,mKcell,mKcell,,D01,2016-03-04T16:51:18+06:00,
1000000000107203,77712755595,mMTS,mKarTel,mKarTel,,D77,2016-03-04T16:51:21+06:00,
1000000000107204,77025910859,mKarTel,mKcell,mKcell,,D01,2016-03-04T16:53:06+06:00,
1000000000107205,77077000087,mAltel,mMTS,mMTS,,D07,2016-03-04T16:51:07+06:00,
1000000000107207,77782715005,mMTS,mKcell,mKcell,,D77,2016-03-04T16:56:03+06:00,
1000000000107208,77015224012,mMTS,mKcell,mKcell,,D77,2016-03-04T16:56:05+06:00,
1000000000107216,77775849755,mAltel,mKarTel,mKarTel,,D07,2016-03-04T16:57:28+06:00,
1000000000107218,77777730265,mAltel,mKarTel,mKarTel,,D07,2016-03-04T16:59:19+06:00,
1000000000107219,77003880007,mMTS,mAltel,mAltel,,D77,2016-03-04T16:59:23+06:00,
