NPId,Number,RecipientId,DonorId,RangeHolderId,OldRoute,NewRoute,PortDate,RowCount
1000000000332029,77002930093,mMTS,mAltel,mAltel,,D77,2017-02-20T19:35:17+06:00,9
1000000000332030,77071471177,mKcell,mMTS,mMTS,,D02,2017-02-20T19:44:02+06:00,
1000000000332031,77015762438,mKarTel,mKcell,mKcell,,D01,2017-02-20T19:48:52+06:00,
1000000000332034,77072216655,mKcell,mMTS,mMTS,,D02,2017-02-20T19:49:25+06:00,
1000000000332036,77011883788,mMTS,mKarTel,mKcell,D01,D77,2017-02-20T19:51:35+06:00,
1000000000332037,77024670651,mKcell,mKarTel,mKcell,D01,D02,2017-02-20T19:54:43+06:00,
1000000000332039,77011110556,mKarTel,mKcell,mKcell,,D01,2017-02-20T19:56:39+06:00,
1000000000332040,77071248323,mKcell,mMTS,mMTS,,D02,2017-02-20T19:58:29+06:00,
1000000000332041,77016355634,mKcell,mMTS,mKcell,D77,D02,2017-02-20T19:58:36+06:00,
