NPId,Number,RecipientId,DonorId,RangeHolderId,OldRoute,NewRoute,PortDate,RowCount
1000000000223449,77017429112,mKarTel,mKcell,mKcell,,D01,2016-08-04T16:04:25+06:00,27
1000000000223452,77015272503,mKarTel,mKcell,mKcell,,D01,2016-08-04T16:05:05+06:00,
1000000000223492,77788887585,mAltel,mKcell,mKcell,,D07,2016-08-04T16:00:29+06:00,
1000000000223496,77771524068,mMTS,mKarTel,mKarTel,,D77,2016-08-04T16:01:58+06:00,
1000000000223497,77713340249,mKarTel,mKcell,mKarTel,D02,D01,2016-08-04T16:00:33+06:00,
1000000000223498,77017761068,mKarTel,mKcell,mKcell,,D01,2016-08-04T16:01:25+06:00,
1000000000223499,77771319586,mMTS,mKarTel,mKarTel,,D77,2016-08-04T16:02:41+06:00,
1000000000223501,77010703080,mKcell,mMTS,mKcell,D77,D02,2016-08-04T16:04:18+06:00,
1000000000223503,77772444054,mKcell,mKarTel,mKarTel,,D02,2016-08-04T16:07:28+06:00,
1000000000223504,77017912080,mMTS,mKcell,mKcell,,D77,2016-08-04T16:06:55+06:00,
1000000000223505,77014433416,mKcell,mAltel,mKcell,D07,D02,2016-08-04T16:07:12+06:00,
1000000000223509,77757562167,mKcell,mAltel,mKcell,D07,D02,2016-08-04T16:11:07+06:00,
1000000000223510,77017227698,mKcell,mKarTel,mKcell,D01,D02,2016-08-04T16:13:03+06:00,
1000000000223512,77055440416,mMTS,mKarTel,mKarTel,,D77,2016-08-04T16:13:54+06:00,
1000000000223513,77089590084,mMTS,mAltel,mAltel,,D77,2016-08-04T16:12:17+06:00,
1000000000223515,77082020777,mKcell,mAltel,mAltel,,D02,2016-08-04T16:13:52+06:00,
1000000000223516,77788788701,mMTS,mKcell,mKcell,,D77,2016-08-04T16:14:28+06:00,
1000000000223519,77774120662,mKarTel,mMTS,mKarTel,D77,D01,2016-08-04T16:20:19+06:00,
1000000000223520,77078129292,mKcell,mMTS,mMTS,,D02,2016-08-04T16:20:34+06:00,
1000000000223521,77089999760,mKcell,mAltel,mAltel,,D02,2016-08-04T16:20:43+06:00,
1000000000223522,77009393991,mKcell,mAltel,mAltel,,D02,2016-08-04T16:22:29+06:00,
1000000000223524,77051793337,mAltel,mKcell,mKarTel,D02,D07,2016-08-04T16:22:39+06:00,
1000000000223525,77710104510,mAltel,mKarTel,mKarTel,,D07,2016-08-04T16:24:22+06:00,
1000000000223526,77071114645,mKcell,mMTS,mMTS,,D02,2016-08-04T16:23:12+06:00,
1000000000223527,77025750502,mKarTel,mKcell,mKcell,,D01,2016-08-04T16:28:38+06:00,
1000000000223528,77755641809,mKcell,mAltel,mKcell,D07,D02,2016-08-04T16:26:32+06:00,
1000000000223529,77778650705,mMTS,mKarTel,mKarTel,,D77,2016-08-04T16:28:39+06:00,
