NPId,Number,RecipientId,DonorId,RangeHolderId,OldRoute,NewRoute,PortDate,RowCount
1000000000257044,77015068470,mKarTel,mKcell,mKcell,,D01,2016-10-05T09:07:49+06:00,11
1000000000257044,77019901506,mKarTel,mKcell,mKcell,,D01,2016-10-05T09:07:49+06:00,
1000000000257045,77712635244,mMTS,mKarTel,mKarTel,,D77,2016-10-05T09:10:56+06:00,
1000000000257047,77001074281,mKarTel,mAltel,mAltel,,D01,2016-10-05T09:17:56+06:00,
1000000000257049,77758852000,mMTS,mKcell,mKcell,,D77,2016-10-05T09:19:10+06:00,
1000000000257050,77071119619,mKarTel,mMTS,mMTS,,D01,2016-10-05T09:20:50+06:00,
1000000000257050,77071209669,mKarTel,mMTS,mMTS,,D01,2016-10-05T09:20:50+06:00,
1000000000257052,77017986940,mKarTel,mKcell,mKcell,,D01,2016-10-05T09:22:25+06:00,
1000000000257052,77017986957,mKarTel,mKcell,mKcell,,D01,2016-10-05T09:22:25+06:00,
1000000000257053,77057109343,mMTS,mKarTel,mKarTel,,D77,2016-10-05T09:24:14+06:00,
1000000000257054,77771171711,mAltel,mKarTel,mKarTel,D01,D07,2016-10-05T09:24:55+06:00,
