NPId,Number,RecipientId,DonorId,RangeHolderId,OldRoute,NewRoute,PortDate,RowCount
1000000000386709,77717800348,mKcell,mKarTel,mKarTel,D01,D02,2017-05-22T11:26:37+06:00,15
1000000000386854,77054260809,mKarTel,mMTS,mKarTel,D77,D01,2017-05-22T11:02:44+06:00,
1000000000386855,77071050611,mKarTel,mMTS,mMTS,,D01,2017-05-22T11:05:32+06:00,
1000000000386857,77755214320,mAltel,mKcell,mKcell,,D07,2017-05-22T11:07:16+06:00,
1000000000386858,77775186842,mMTS,mKarTel,mKarTel,,D77,2017-05-22T11:08:04+06:00,
1000000000386859,77000990292,mMTS,mAltel,mAltel,,D77,2017-05-22T11:07:55+06:00,
1000000000386860,77014964530,mKarTel,mAltel,mKcell,D07,D01,2017-05-22T11:08:53+06:00,
1000000000386861,77015544564,mMTS,mKcell,mKcell,,D77,2017-05-22T11:11:36+06:00,
1000000000386862,77079194992,mAltel,mMTS,mMTS,,D07,2017-05-22T11:11:58+06:00,
1000000000386864,77018506211,mKcell,mAltel,mKcell,D07,D02,2017-05-22T11:18:27+06:00,
1000000000386865,77758157842,mMTS,mKcell,mKcell,,D77,2017-05-22T11:18:36+06:00,
1000000000386866,77777351000,mMTS,mKarTel,mKarTel,,D77,2017-05-22T11:19:16+06:00,
1000000000386867,77078524729,mKcell,mMTS,mMTS,,D02,2017-05-22T11:19:31+06:00,
1000000000386870,77028849630,mKcell,mMTS,mKcell,D77,D02,2017-05-22T11:26:03+06:00,
1000000000386871,77759002266,mKarTel,mKcell,mKcell,,D01,2017-05-22T11:28:00+06:00,
