NPId,Number,RecipientId,DonorId,RangeHolderId,OldRoute,NewRoute,PortDate,RowCount
1000000000003294,77778069000,mAltel,mKarTel,mKarTel,,D07,2016-01-07T17:36:02+06:00,8
1000000000003295,77010910006,mAltel,mKcell,mKcell,,D07,2016-01-07T17:35:55+06:00,
1000000000003297,77474933360,mAltel,mMTS,mMTS,,D07,2016-01-07T17:41:50+06:00,
1000000000003303,77055004383,mAltel,mKarTel,mKarTel,,D07,2016-01-07T17:47:04+06:00,
1000000000003305,77771191415,mAltel,mKarTel,mKarTel,,D07,2016-01-07T17:49:35+06:00,
1000000000003307,77075757776,mKcell,mMTS,mMTS,,D02,2016-01-07T17:52:54+06:00,
1000000000003310,77071113778,mAltel,mMTS,mMTS,,D07,2016-01-07T17:57:14+06:00,
1000000000003311,77775797372,mAltel,mKarTel,mKarTel,,D07,2016-01-07T17:58:05+06:00,
