NPId,Number,RecipientId,DonorId,RangeHolderId,OldRoute,NewRoute,PortDate,RowCount
1000000000099618,77087555074,mKcell,mAltel,mAltel,,D02,2016-02-25T21:09:46+06:00,3
1000000000099619,77015557058,mMTS,mKcell,mKcell,,D77,2016-02-25T21:13:57+06:00,
1000000000099620,77017107068,mMTS,mKcell,mKcell,,D77,2016-02-25T21:16:22+06:00,
