NPId,Number,RecipientId,DonorId,RangeHolderId,OldRoute,NewRoute,PortDate,RowCount
1000000000387803,77053660202,mKarTel,mMTS,mKarTel,D77,D01,2017-05-23T17:00:19+06:00,24
1000000000387804,77761004888,mMTS,mKcell,mKarTel,D02,D77,2017-05-23T17:01:32+06:00,
1000000000387805,77786668787,mAltel,mKcell,mKcell,,D07,2017-05-23T17:02:02+06:00,
1000000000387806,77771604915,mMTS,mKarTel,mKarTel,,D77,2017-05-23T17:02:26+06:00,
1000000000387808,77077770624,mKcell,mMTS,mMTS,,D02,2017-05-23T17:06:00+06:00,
1000000000387809,77087658574,mKcell,mAltel,mAltel,,D02,2017-05-23T17:07:15+06:00,
1000000000387811,77055557860,mAltel,mMTS,mKarTel,D77,D07,2017-05-23T17:08:01+06:00,
1000000000387813,77782280068,mMTS,mKcell,mKcell,,D77,2017-05-23T17:10:15+06:00,
1000000000387814,77077812808,mKcell,mMTS,mMTS,,D02,2017-05-23T17:11:06+06:00,
1000000000387816,77087658572,mKcell,mAltel,mAltel,,D02,2017-05-23T17:12:43+06:00,
1000000000387819,77716989009,mMTS,mKarTel,mKarTel,,D77,2017-05-23T17:15:35+06:00,
1000000000387820,77018110733,mAltel,mKcell,mKcell,,D07,2017-05-23T17:15:52+06:00,
1000000000387821,77013500042,mKcell,mKarTel,mKcell,D01,D02,2017-05-23T17:18:44+06:00,
1000000000387822,77024436095,mKcell,mKarTel,mKcell,D01,D02,2017-05-23T17:19:30+06:00,
1000000000387823,77778073838,mMTS,mKarTel,mKarTel,,D77,2017-05-23T17:19:28+06:00,
1000000000387824,77772272963,mMTS,mKarTel,mKarTel,,D77,2017-05-23T17:20:10+06:00,
1000000000387825,77058355474,mMTS,mKarTel,mKarTel,,D77,2017-05-23T17:20:18+06:00,
1000000000387827,77023051859,mMTS,mKcell,mKcell,,D77,2017-05-23T17:22:55+06:00,
1000000000387828,77071856878,mKcell,mMTS,mMTS,,D02,2017-05-23T17:23:11+06:00,
1000000000387830,77760070480,mKcell,mKarTel,mKarTel,,D02,2017-05-23T17:24:24+06:00,
1000000000387831,77074449907,mKarTel,mMTS,mMTS,,D01,2017-05-23T17:25:18+06:00,
1000000000387832,77012712562,mMTS,mKcell,mKcell,,D77,2017-05-23T17:25:42+06:00,
1000000000387833,77785001744,mMTS,mKcell,mKcell,,D77,2017-05-23T17:26:33+06:00,
1000000000387835,77075409460,mAltel,mMTS,mMTS,,D07,2017-05-23T17:29:37+06:00,
