NPId,Number,RecipientId,DonorId,RangeHolderId,OldRoute,NewRoute,PortDate,RowCount
1000000000213693,77472556552,mKarTel,mMTS,mMTS,,D01,2016-07-19T16:03:15+06:00,10
1000000000213696,77773583898,mMTS,mKarTel,mKarTel,,D77,2016-07-19T16:06:32+06:00,
1000000000213697,77772337433,mKarTel,mMTS,mKarTel,D77,D01,2016-07-19T16:06:52+06:00,
1000000000213698,77051504312,mKarTel,mAltel,mKarTel,D07,D01,2016-07-19T16:07:24+06:00,
1000000000213701,77718793555,mMTS,mKarTel,mKarTel,,D77,2016-07-19T16:12:41+06:00,
1000000000213703,77471237567,mMTS,mAltel,mMTS,D07,D77,2016-07-19T16:14:30+06:00,
1000000000213705,77009655914,mMTS,mAltel,mAltel,,D77,2016-07-19T16:16:44+06:00,
1000000000213706,77071515995,mMTS,mAltel,mMTS,D07,D77,2016-07-19T16:21:47+06:00,
1000000000213710,77009655915,mMTS,mAltel,mAltel,,D77,2016-07-19T16:26:17+06:00,
1000000000213712,77077887800,mMTS,mAltel,mMTS,D07,D77,2016-07-19T16:29:26+06:00,
