NPId,Number,RecipientId,DonorId,RangeHolderId,OldRoute,NewRoute,PortDate,RowCount
1000000000174211,77754181820,mKcell,mAltel,mKcell,D07,D02,2016-05-14T16:01:16+06:00,30
1000000000174212,77071112598,mKcell,mMTS,mMTS,,D02,2016-05-14T16:00:11+06:00,
1000000000174214,77001612044,mMTS,mAltel,mAltel,,D77,2016-05-14T16:02:54+06:00,
1000000000174215,77075500582,mKarTel,mMTS,mMTS,,D01,2016-05-14T16:04:07+06:00,
1000000000174216,77083987340,mMTS,mAltel,mAltel,,D77,2016-05-14T16:04:18+06:00,
1000000000174217,77775356711,mKcell,mKarTel,mKarTel,,D02,2016-05-14T16:05:36+06:00,
1000000000174219,77058771111,mKcell,mAltel,mKarTel,D07,D02,2016-05-14T16:06:06+06:00,
1000000000174221,77008878838,mMTS,mAltel,mAltel,,D77,2016-05-14T16:06:49+06:00,
1000000000174222,77012143266,mMTS,mKcell,mKcell,,D77,2016-05-14T16:07:25+06:00,
1000000000174223,77778392511,mMTS,mKarTel,mKarTel,,D77,2016-05-14T16:07:55+06:00,
1000000000174224,77021229059,mKcell,mMTS,mKcell,D77,D02,2016-05-14T16:09:13+06:00,
1000000000174225,77752695314,mMTS,mKcell,mKcell,,D77,2016-05-14T16:09:16+06:00,
1000000000174226,77775662444,mKcell,mAltel,mKarTel,D07,D02,2016-05-14T16:11:17+06:00,
1000000000174227,77751352222,mMTS,mAltel,mKcell,D07,D77,2016-05-14T16:13:28+06:00,
1000000000174228,77027093232,mKarTel,mKcell,mKcell,,D01,2016-05-14T16:14:16+06:00,
1000000000174229,77019242940,mMTS,mKcell,mKcell,,D77,2016-05-14T16:14:17+06:00,
1000000000174230,77079111400,mMTS,mAltel,mMTS,D07,D77,2016-05-14T16:14:12+06:00,
1000000000174232,77754446420,mMTS,mKcell,mKcell,,D77,2016-05-14T16:16:06+06:00,
1000000000174235,77083490042,mMTS,mAltel,mAltel,,D77,2016-05-14T16:18:29+06:00,
1000000000174236,77784061491,mMTS,mKcell,mKcell,,D77,2016-05-14T16:19:15+06:00,
1000000000174237,77081355515,mMTS,mAltel,mAltel,,D77,2016-05-14T16:19:28+06:00,
1000000000174239,77781109977,mMTS,mKcell,mKcell,,D77,2016-05-14T16:21:40+06:00,
1000000000174240,77773302942,mMTS,mKarTel,mKarTel,,D77,2016-05-14T16:22:21+06:00,
1000000000174243,77026174894,mKarTel,mKcell,mKcell,,D01,2016-05-14T16:24:58+06:00,
1000000000174245,77024127778,mMTS,mKcell,mKcell,,D77,2016-05-14T16:28:07+06:00,
1000000000174246,77029425550,mMTS,mKcell,mKcell,,D77,2016-05-14T16:28:07+06:00,
1000000000174247,77018723777,mKcell,mMTS,mKcell,D77,D02,2016-05-14T16:29:22+06:00,
1000000000174248,77083160060,mMTS,mAltel,mAltel,,D77,2016-05-14T16:28:17+06:00,
1000000000174249,77770689964,mMTS,mKarTel,mKarTel,,D77,2016-05-14T16:28:49+06:00,
1000000000174251,77762152034,mMTS,mKarTel,mKarTel,,D77,2016-05-14T16:29:54+06:00,
