NPId,Number,RecipientId,DonorId,RangeHolderId,OldRoute,NewRoute,PortDate,RowCount
1000000000308209,77017480345,mKarTel,mKcell,mKcell,,D01,2017-01-10T13:20:14+06:00,20
1000000000308372,77477770860,mKcell,mMTS,mMTS,,D02,2017-01-10T13:00:12+06:00,
1000000000308374,77024446766,mMTS,mKcell,mKcell,,D77,2017-01-10T13:00:13+06:00,
1000000000308375,77023466431,mMTS,mKcell,mKcell,,D77,2017-01-10T13:03:06+06:00,
1000000000308376,77763383388,mMTS,mKarTel,mKarTel,,D77,2017-01-10T13:04:12+06:00,
1000000000308377,77777031877,mAltel,mMTS,mKarTel,D77,D07,2017-01-10T13:03:57+06:00,
1000000000308378,77054402166,mMTS,mKarTel,mKarTel,,D77,2017-01-10T13:05:57+06:00,
1000000000308379,77028888459,mKarTel,mKcell,mKcell,,D01,2017-01-10T13:07:20+06:00,
1000000000308381,77773574838,mAltel,mKarTel,mKarTel,,D07,2017-01-10T13:15:16+06:00,
1000000000308382,77022922194,mMTS,mKcell,mKcell,,D77,2017-01-10T13:18:05+06:00,
1000000000308383,77763229999,mKcell,mKarTel,mKarTel,,D02,2017-01-10T13:19:57+06:00,
1000000000308386,77010554405,mKcell,mMTS,mKcell,D77,D02,2017-01-10T13:22:04+06:00,
1000000000308390,77078921222,mAltel,mKarTel,mMTS,D01,D07,2017-01-10T13:23:34+06:00,
1000000000308391,77056260793,mMTS,mKarTel,mKarTel,,D77,2017-01-10T13:23:45+06:00,
1000000000308392,77786730149,mMTS,mKcell,mKcell,,D77,2017-01-10T13:23:57+06:00,
1000000000308393,77772807902,mMTS,mKarTel,mKarTel,,D77,2017-01-10T13:25:21+06:00,
1000000000308394,77712670303,mMTS,mKarTel,mKarTel,,D77,2017-01-10T13:27:10+06:00,
1000000000308395,77760663737,mKcell,mKarTel,mKarTel,,D02,2017-01-10T13:27:49+06:00,
1000000000308397,77765620055,mKcell,mKarTel,mKarTel,,D02,2017-01-10T13:29:05+06:00,
1000000000308398,77054164190,mMTS,mKarTel,mKarTel,,D77,2017-01-10T13:29:38+06:00,
