NPId,Number,RecipientId,DonorId,RangeHolderId,OldRoute,NewRoute,PortDate,RowCount
1000000000280696,77017126000,mMTS,mKcell,mKcell,,D77,2016-11-17T21:32:41+06:00,3
1000000000280697,77781625252,mKcell,mMTS,mKcell,D77,D02,2016-11-17T21:47:24+06:00,
1000000000280698,77766500008,mMTS,mKarTel,mKarTel,,D77,2016-11-17T21:47:56+06:00,
