NPId,Number,RecipientId,DonorId,RangeHolderId,OldRoute,NewRoute,PortDate,RowCount
1000000000413924,77778911100,mKcell,mKarTel,mKarTel,,D02,2017-07-01T12:32:52+06:00,26
1000000000413925,77072208788,mMTS,mAltel,mMTS,D07,D77,2017-07-01T12:31:34+06:00,
1000000000413926,77083643935,mKarTel,mAltel,mAltel,,D01,2017-07-01T12:33:13+06:00,
1000000000413927,77058005002,mMTS,mKarTel,mKarTel,,D77,2017-07-01T12:37:00+06:00,
1000000000413928,77017072818,mMTS,mKcell,mKcell,,D77,2017-07-01T12:34:47+06:00,
1000000000413929,77017541687,mKarTel,mKcell,mKcell,,D01,2017-07-01T12:36:33+06:00,
1000000000413930,77009656288,mKarTel,mAltel,mAltel,D07,D01,2017-07-01T12:37:24+06:00,
1000000000413931,77710181733,mMTS,mKarTel,mKarTel,,D77,2017-07-01T12:40:37+06:00,
1000000000413932,77017405394,mKarTel,mKcell,mKcell,,D01,2017-07-01T12:41:10+06:00,
1000000000413933,77012778431,mKcell,mMTS,mKcell,D77,D02,2017-07-01T12:40:24+06:00,
1000000000413934,77053971447,mMTS,mKarTel,mKarTel,,D77,2017-07-01T12:42:47+06:00,
1000000000413935,77017672288,mMTS,mKcell,mKcell,,D77,2017-07-01T12:40:29+06:00,
1000000000413936,77017296101,mKcell,mMTS,mKcell,D77,D02,2017-07-01T12:41:11+06:00,
1000000000413937,77476560378,mKarTel,mMTS,mMTS,,D01,2017-07-01T12:42:28+06:00,
1000000000413938,77019514607,mMTS,mKcell,mKcell,,D77,2017-07-01T12:44:07+06:00,
1000000000413939,77086679772,mMTS,mAltel,mAltel,,D77,2017-07-01T12:44:36+06:00,
1000000000413940,77015718305,mKarTel,mAltel,mKcell,D07,D01,2017-07-01T12:46:58+06:00,
1000000000413941,77071672555,mAltel,mMTS,mMTS,,D07,2017-07-01T12:46:04+06:00,
1000000000413942,77087740625,mKcell,mAltel,mAltel,,D02,2017-07-01T12:48:47+06:00,
1000000000413944,77783413933,mMTS,mKcell,mKcell,,D77,2017-07-01T12:50:31+06:00,
1000000000413945,77711299999,mKarTel,mAltel,mKarTel,D07,D01,2017-07-01T12:52:40+06:00,
1000000000413946,77781940202,mMTS,mAltel,mKcell,D07,D77,2017-07-01T12:52:38+06:00,
1000000000413947,77074408330,mAltel,mMTS,mMTS,,D07,2017-07-01T12:53:19+06:00,
1000000000413950,77788884040,mKcell,mKarTel,mKcell,D01,D02,2017-07-01T12:57:21+06:00,
1000000000413953,77017133645,mKarTel,mKcell,mKcell,,D01,2017-07-01T12:57:19+06:00,
1000000000413955,77017740010,mKarTel,mKcell,mKcell,,D01,2017-07-01T12:58:31+06:00,
