NPId,Number,RecipientId,DonorId,RangeHolderId,OldRoute,NewRoute,PortDate,RowCount
1000000000175599,77017670019,mMTS,mKcell,mKcell,,D77,2016-05-17T11:00:34+06:00,17
1000000000175602,77015995007,mMTS,mKcell,mKcell,,D77,2016-05-17T11:16:06+06:00,
1000000000175603,77019334295,mMTS,mKcell,mKcell,,D77,2016-05-17T11:15:24+06:00,
1000000000175604,77015995049,mMTS,mKcell,mKcell,,D77,2016-05-17T11:26:19+06:00,
1000000000175605,77712730495,mMTS,mKarTel,mKarTel,,D77,2016-05-17T11:03:19+06:00,
1000000000175607,77021201452,mMTS,mKcell,mKcell,,D77,2016-05-17T11:06:45+06:00,
1000000000175608,77004911111,mAltel,mKcell,mAltel,D02,D07,2016-05-17T11:07:21+06:00,
1000000000175612,77075028080,mKcell,mAltel,mMTS,D07,D02,2016-05-17T11:16:10+06:00,
1000000000175613,77472772277,mAltel,mKcell,mMTS,D02,D07,2016-05-17T11:16:36+06:00,
1000000000175614,77051654709,mKcell,mKarTel,mKarTel,,D02,2016-05-17T11:18:52+06:00,
1000000000175615,77078517773,mKcell,mMTS,mMTS,,D02,2016-05-17T11:18:54+06:00,
1000000000175617,77058420433,mKarTel,mMTS,mKarTel,D77,D01,2016-05-17T11:21:43+06:00,
1000000000175619,77007708600,mKarTel,mAltel,mAltel,,D01,2016-05-17T11:22:35+06:00,
1000000000175621,77071270090,mKcell,mMTS,mMTS,,D02,2016-05-17T11:26:28+06:00,
1000000000175622,77015713737,mKcell,mKarTel,mKcell,D01,D02,2016-05-17T11:27:30+06:00,
1000000000175623,77013640889,mKcell,mMTS,mKcell,D77,D02,2016-05-17T11:28:30+06:00,
1000000000175624,77017198922,mKarTel,mKcell,mKcell,,D01,2016-05-17T11:28:52+06:00,
