NPId,Number,RecipientId,DonorId,RangeHolderId,OldRoute,NewRoute,PortDate,RowCount
1000000000382169,77079337797,mKcell,mAltel,mMTS,D07,D02,2017-05-12T18:02:12+06:00,21
1000000000382171,77787888118,mKcell,mKarTel,mKcell,D01,D02,2017-05-12T18:03:12+06:00,
1000000000382172,77051401750,mMTS,mKarTel,mKarTel,,D77,2017-05-12T18:03:03+06:00,
1000000000382173,77475873031,mMTS,mAltel,mMTS,D07,D77,2017-05-12T18:04:24+06:00,
1000000000382175,77772587616,mKcell,mKarTel,mKarTel,,D02,2017-05-12T18:06:40+06:00,
1000000000382180,77759633295,mMTS,mKcell,mKcell,,D77,2017-05-12T18:07:54+06:00,
1000000000382181,77072441113,mMTS,mAltel,mMTS,D07,D77,2017-05-12T18:07:47+06:00,
1000000000382182,77016260350,mMTS,mKcell,mKcell,,D77,2017-05-12T18:08:12+06:00,
1000000000382183,77073381001,mAltel,mMTS,mMTS,,D07,2017-05-12T18:08:15+06:00,
1000000000382191,77710960010,mAltel,mMTS,mKarTel,D77,D07,2017-05-12T18:11:47+06:00,
1000000000382193,77021810824,mAltel,mKcell,mKcell,,D07,2017-05-12T18:11:58+06:00,
1000000000382194,77710960030,mAltel,mMTS,mKarTel,D77,D07,2017-05-12T18:12:59+06:00,
1000000000382196,77753133107,mKcell,mAltel,mKcell,D07,D02,2017-05-12T18:14:17+06:00,
1000000000382197,77753549397,mKcell,mMTS,mKcell,D77,D02,2017-05-12T18:17:57+06:00,
1000000000382198,77759588502,mMTS,mKcell,mKcell,,D77,2017-05-12T18:17:52+06:00,
1000000000382200,77473505750,mAltel,mMTS,mMTS,,D07,2017-05-12T18:23:14+06:00,
1000000000382201,77017306482,mMTS,mKcell,mKcell,,D77,2017-05-12T18:24:02+06:00,
1000000000382202,77081501192,mAltel,mKcell,mAltel,D02,D07,2017-05-12T18:24:59+06:00,
1000000000382203,77077202230,mKarTel,mMTS,mMTS,,D01,2017-05-12T18:25:33+06:00,
1000000000382204,77778008006,mAltel,mKarTel,mKarTel,,D07,2017-05-12T18:27:46+06:00,
1000000000382205,77023468222,mKarTel,mKcell,mKcell,,D01,2017-05-12T18:28:37+06:00,
