NPId,Number,RecipientId,DonorId,RangeHolderId,OldRoute,NewRoute,PortDate,RowCount
1000000000268206,77023999002,mKcell,mAltel,mKcell,D07,D02,2016-10-26T10:33:10+06:00,12
1000000000268207,77781737343,mMTS,mKcell,mKcell,,D77,2016-10-26T10:35:57+06:00,
1000000000268208,77022162162,mMTS,mKcell,mKcell,,D77,2016-10-26T10:37:50+06:00,
1000000000268209,77027062754,mMTS,mKcell,mKcell,,D77,2016-10-26T10:37:56+06:00,
1000000000268210,77077002004,mAltel,mMTS,mMTS,,D07,2016-10-26T10:39:42+06:00,
1000000000268211,77711552442,mKcell,mKarTel,mKarTel,,D02,2016-10-26T10:45:10+06:00,
1000000000268212,77752310858,mMTS,mKcell,mKcell,,D77,2016-10-26T10:45:37+06:00,
1000000000268213,77072266051,mKcell,mMTS,mMTS,,D02,2016-10-26T10:47:40+06:00,
1000000000268214,77001211735,mAltel,mMTS,mAltel,D77,D07,2016-10-26T10:48:19+06:00,
1000000000268216,77755315226,mAltel,mKcell,mKcell,,D07,2016-10-26T10:50:35+06:00,
1000000000268217,77015268466,mMTS,mKcell,mKcell,,D77,2016-10-26T10:51:14+06:00,
1000000000268218,77786440761,mMTS,mKcell,mKcell,,D77,2016-10-26T10:59:54+06:00,
