NPId,Number,RecipientId,DonorId,RangeHolderId,OldRoute,NewRoute,PortDate,RowCount
1000000000263187,77784614760,mMTS,mKcell,mKcell,,D77,2016-10-16T12:43:24+06:00,5
1000000000263189,77003918682,mMTS,mAltel,mAltel,,D77,2016-10-16T12:48:33+06:00,
1000000000263191,77019159000,mKcell,mKarTel,mKcell,D01,D02,2016-10-16T12:53:04+06:00,
1000000000263192,77770943969,mMTS,mKarTel,mKarTel,,D77,2016-10-16T12:56:56+06:00,
1000000000263193,77759863921,mMTS,mKcell,mKcell,,D77,2016-10-16T12:57:35+06:00,
