NPId,Number,RecipientId,DonorId,RangeHolderId,OldRoute,NewRoute,PortDate,RowCount
1000000000142702,77015393817,mKarTel,mKcell,mKcell,,D01,2016-04-05T15:18:55+06:00,52
1000000000142704,77015289063,mKarTel,mKcell,mKcell,,D01,2016-04-05T15:28:54+06:00,
1000000000142704,77015289160,mKarTel,mKcell,mKcell,,D01,2016-04-05T15:28:54+06:00,
1000000000142704,77015297513,mKarTel,mKcell,mKcell,,D01,2016-04-05T15:28:54+06:00,
1000000000142704,77015297583,mKarTel,mKcell,mKcell,,D01,2016-04-05T15:28:54+06:00,
1000000000142704,77015297586,mKarTel,mKcell,mKcell,,D01,2016-04-05T15:28:54+06:00,
1000000000142704,77015309289,mKarTel,mKcell,mKcell,,D01,2016-04-05T15:28:54+06:00,
1000000000142704,77019185016,mKarTel,mKcell,mKcell,,D01,2016-04-05T15:28:54+06:00,
1000000000143265,77762557000,mMTS,mKarTel,mKarTel,,D77,2016-04-05T15:01:12+06:00,
1000000000143268,77017363124,mMTS,mKcell,mKcell,,D77,2016-04-05T15:01:23+06:00,
1000000000143269,77766666366,mAltel,mKarTel,mKarTel,,D07,2016-04-05T15:06:34+06:00,
1000000000143271,77012125934,mAltel,mKcell,mKcell,,D07,2016-04-05T15:03:44+06:00,
1000000000143272,77007110058,mMTS,mAltel,mAltel,,D77,2016-04-05T15:03:31+06:00,
1000000000143274,77085402546,mMTS,mAltel,mAltel,,D77,2016-04-05T15:06:05+06:00,
1000000000143275,77017242703,mKarTel,mKcell,mKcell,,D01,2016-04-05T15:07:06+06:00,
1000000000143276,77713484848,mKcell,mKarTel,mKarTel,,D02,2016-04-05T15:10:17+06:00,
1000000000143277,77013379795,mMTS,mKcell,mKcell,,D77,2016-04-05T15:08:47+06:00,
1000000000143278,77759134868,mMTS,mKcell,mKcell,,D77,2016-04-05T15:08:47+06:00,
1000000000143280,77017651460,mMTS,mKcell,mKcell,,D77,2016-04-05T15:08:47+06:00,
1000000000143282,77710279999,mMTS,mAltel,mKarTel,D07,D77,2016-04-05T15:07:41+06:00,
1000000000143283,77754686838,mMTS,mKcell,mKcell,,D77,2016-04-05T15:10:16+06:00,
1000000000143284,77023222114,mMTS,mKcell,mKcell,,D77,2016-04-05T15:10:28+06:00,
1000000000143285,77071781989,mKcell,mMTS,mMTS,,D02,2016-04-05T15:10:50+06:00,
1000000000143287,77001417829,mKcell,mAltel,mAltel,,D02,2016-04-05T15:11:01+06:00,
1000000000143288,77087595411,mMTS,mAltel,mAltel,,D77,2016-04-05T15:10:48+06:00,
1000000000143290,77071810073,mMTS,mAltel,mMTS,D07,D77,2016-04-05T15:11:58+06:00,
1000000000143292,77082898939,mMTS,mAltel,mAltel,,D77,2016-04-05T15:12:31+06:00,
1000000000143293,77477770685,mMTS,mAltel,mMTS,D07,D77,2016-04-05T15:12:49+06:00,
1000000000143294,77770999995,mKcell,mKarTel,mKarTel,,D02,2016-04-05T15:15:58+06:00,
1000000000143295,77752817320,mAltel,mKcell,mKcell,,D07,2016-04-05T15:15:05+06:00,
1000000000143296,77081012072,mMTS,mAltel,mAltel,,D77,2016-04-05T15:14:59+06:00,
1000000000143297,77017182125,mKcell,mMTS,mKcell,D77,D02,2016-04-05T15:15:33+06:00,
1000000000143297,77018087899,mKcell,mMTS,mKcell,D77,D02,2016-04-05T15:15:33+06:00,
1000000000143297,77019516728,mKcell,mMTS,mKcell,D77,D02,2016-04-05T15:15:33+06:00,
1000000000143297,77022185437,mKcell,mMTS,mKcell,D77,D02,2016-04-05T15:15:33+06:00,
1000000000143297,77022185448,mKcell,mMTS,mKcell,D77,D02,2016-04-05T15:15:33+06:00,
1000000000143298,77081068992,mKcell,mAltel,mAltel,,D02,2016-04-05T15:15:39+06:00,
1000000000143299,77023971573,mMTS,mKcell,mKcell,,D77,2016-04-05T15:15:51+06:00,
1000000000143300,77718444483,mMTS,mKarTel,mKarTel,,D77,2016-04-05T15:18:20+06:00,
1000000000143301,77775310828,mMTS,mKarTel,mKarTel,,D77,2016-04-05T15:20:36+06:00,
1000000000143302,77770999996,mKcell,mKarTel,mKarTel,,D02,2016-04-05T15:23:25+06:00,
1000000000143303,77019611105,mKcell,mAltel,mKcell,D07,D02,2016-04-05T15:21:36+06:00,
1000000000143304,77012203735,mMTS,mKcell,mKcell,,D77,2016-04-05T15:22:01+06:00,
1000000000143305,77081520504,mMTS,mAltel,mAltel,,D77,2016-04-05T15:21:57+06:00,
1000000000143306,77789000200,mKarTel,mKcell,mKcell,,D01,2016-04-05T15:22:54+06:00,
1000000000143307,77029019529,mMTS,mKcell,mKcell,,D77,2016-04-05T15:23:01+06:00,
1000000000143308,77089529666,mMTS,mAltel,mAltel,,D77,2016-04-05T15:23:55+06:00,
1000000000143309,77477443322,mKarTel,mAltel,mMTS,D07,D01,2016-04-05T15:25:16+06:00,
1000000000143313,77785266060,mMTS,mKcell,mKcell,,D77,2016-04-05T15:27:11+06:00,
1000000000143317,77017182997,mMTS,mKcell,mKcell,,D77,2016-04-05T15:28:47+06:00,
1000000000143318,77024454053,mMTS,mKcell,mKcell,,D77,2016-04-05T15:29:18+06:00,
1000000000143319,77753701156,mMTS,mKcell,mKcell,,D77,2016-04-05T15:29:59+06:00,
