NPId,Number,RecipientId,DonorId,RangeHolderId,OldRoute,NewRoute,PortDate,RowCount
1000000000265843,77758885151,mMTS,mKcell,mKcell,,D77,2016-10-20T20:02:49+06:00,3
1000000000265844,77079811114,mKcell,mMTS,mMTS,,D02,2016-10-20T20:03:09+06:00,
1000000000265845,77019996604,mMTS,mKcell,mKcell,,D77,2016-10-20T20:09:46+06:00,
