NPId,Number,RecipientId,DonorId,RangeHolderId,OldRoute,NewRoute,PortDate,RowCount
1000000000263891,77476476594,mMTS,mKarTel,mMTS,D01,D77,2016-10-17T17:30:13+06:00,55
1000000000263892,77476476596,mMTS,mKarTel,mMTS,D01,D77,2016-10-17T17:30:38+06:00,
1000000000263901,77476476597,mMTS,mKarTel,mMTS,D01,D77,2016-10-17T17:38:23+06:00,
1000000000263908,77476476618,mMTS,mKarTel,mMTS,D01,D77,2016-10-17T17:41:28+06:00,
1000000000263909,77476476615,mMTS,mKarTel,mMTS,D01,D77,2016-10-17T17:42:03+06:00,
1000000000263912,77476476614,mMTS,mKarTel,mMTS,D01,D77,2016-10-17T17:42:59+06:00,
1000000000263924,77000979727,mKcell,mAltel,mAltel,,D02,2016-10-17T17:30:56+06:00,
1000000000263926,77013529384,mMTS,mKcell,mKcell,,D77,2016-10-17T17:31:37+06:00,
1000000000263930,77000252535,mKcell,mAltel,mAltel,,D02,2016-10-17T17:33:10+06:00,
1000000000263931,77000878757,mKcell,mAltel,mAltel,,D02,2016-10-17T17:33:17+06:00,
1000000000263932,77019971523,mKarTel,mKcell,mKcell,,D01,2016-10-17T17:33:48+06:00,
1000000000263935,77000979737,mKcell,mAltel,mAltel,,D02,2016-10-17T17:34:23+06:00,
1000000000263939,77071593575,mAltel,mMTS,mMTS,,D07,2016-10-17T17:35:23+06:00,
1000000000263940,77000878767,mKcell,mAltel,mAltel,,D02,2016-10-17T17:35:42+06:00,
1000000000263941,77719933290,mMTS,mKarTel,mKarTel,,D77,2016-10-17T17:51:19+06:00,
1000000000263942,77000979767,mKcell,mAltel,mAltel,,D02,2016-10-17T17:36:31+06:00,
1000000000263943,77719933240,mMTS,mKarTel,mKarTel,,D77,2016-10-17T17:51:54+06:00,
1000000000263944,77784583337,mAltel,mKcell,mKcell,,D07,2016-10-17T17:36:36+06:00,
1000000000263945,77013889790,mMTS,mKarTel,mKcell,D01,D77,2016-10-17T17:52:29+06:00,
1000000000263946,77013610006,mMTS,mKarTel,mKcell,D01,D77,2016-10-17T17:53:07+06:00,
1000000000263948,77000878747,mKcell,mAltel,mAltel,,D02,2016-10-17T17:38:48+06:00,
1000000000263950,77000252585,mKcell,mAltel,mAltel,,D02,2016-10-17T17:39:34+06:00,
1000000000263952,77479357848,mKarTel,mMTS,mMTS,,D01,2016-10-17T17:39:58+06:00,
1000000000263954,77025280707,mKcell,mMTS,mKcell,D77,D02,2016-10-17T17:40:44+06:00,
1000000000263955,77013376267,mAltel,mKcell,mKcell,,D07,2016-10-17T17:40:59+06:00,
1000000000263956,77000858545,mKcell,mAltel,mAltel,,D02,2016-10-17T17:41:58+06:00,
1000000000263958,77476476613,mMTS,mKarTel,mMTS,D01,D77,2016-10-17T17:58:34+06:00,
1000000000263959,77011288657,mMTS,mKcell,mKcell,,D77,2016-10-17T17:43:24+06:00,
1000000000263960,77000909047,mKcell,mAltel,mAltel,,D02,2016-10-17T17:43:32+06:00,
1000000000263961,77000838353,mKcell,mAltel,mAltel,,D02,2016-10-17T17:45:07+06:00,
1000000000263962,77776866418,mKarTel,mMTS,mKarTel,D77,D01,2016-10-17T17:45:49+06:00,
1000000000263964,77079065044,mKarTel,mMTS,mMTS,,D01,2016-10-17T17:45:50+06:00,
1000000000263966,77000828242,mKcell,mAltel,mAltel,,D02,2016-10-17T17:46:20+06:00,
1000000000263967,77000868676,mKcell,mAltel,mAltel,,D02,2016-10-17T17:47:00+06:00,
1000000000263969,77000878717,mKcell,mAltel,mAltel,,D02,2016-10-17T17:51:18+06:00,
1000000000263970,77072141227,mKarTel,mMTS,mMTS,,D01,2016-10-17T17:49:27+06:00,
1000000000263971,77788030018,mMTS,mKcell,mKcell,,D77,2016-10-17T17:50:22+06:00,
1000000000263972,77017697979,mMTS,mKcell,mKcell,,D77,2016-10-17T17:52:01+06:00,
1000000000263973,77000898969,mKcell,mAltel,mAltel,,D02,2016-10-17T17:52:19+06:00,
1000000000263974,77758330918,mKarTel,mKcell,mKcell,,D01,2016-10-17T17:52:36+06:00,
1000000000263975,77007587788,mMTS,mKcell,mAltel,D02,D77,2016-10-17T17:52:35+06:00,
1000000000263976,77770522353,mMTS,mKarTel,mKarTel,,D77,2016-10-17T17:52:55+06:00,
1000000000263977,77027770034,mKarTel,mKcell,mKcell,,D01,2016-10-17T17:53:02+06:00,
1000000000263978,77763472003,mKcell,mKarTel,mKarTel,,D02,2016-10-17T17:53:23+06:00,
1000000000263979,77006000658,mKcell,mAltel,mAltel,,D02,2016-10-17T17:55:32+06:00,
1000000000263980,77000909067,mKcell,mAltel,mAltel,,D02,2016-10-17T17:56:14+06:00,
1000000000263981,77760005558,mKcell,mMTS,mKarTel,D77,D02,2016-10-17T17:56:24+06:00,
1000000000263982,77021943196,mMTS,mKcell,mKcell,,D77,2016-10-17T17:56:25+06:00,
1000000000263983,77000878727,mKcell,mAltel,mAltel,,D02,2016-10-17T17:57:31+06:00,
1000000000263984,77000989838,mKcell,mAltel,mAltel,,D02,2016-10-17T17:57:34+06:00,
1000000000263985,77073000400,mAltel,mMTS,mMTS,,D07,2016-10-17T17:57:39+06:00,
1000000000263986,77000909083,mKcell,mAltel,mAltel,,D02,2016-10-17T17:57:56+06:00,
1000000000263987,77000808045,mKcell,mAltel,mAltel,,D02,2016-10-17T17:58:30+06:00,
1000000000263988,77073000477,mAltel,mMTS,mMTS,,D07,2016-10-17T17:59:03+06:00,
1000000000263989,77072305709,mKarTel,mMTS,mMTS,,D01,2016-10-17T17:59:30+06:00,
