NPId,Number,RecipientId,DonorId,RangeHolderId,OldRoute,NewRoute,PortDate,RowCount
1000000000091440,77760411118,mKcell,mKarTel,mKarTel,,D02,2016-02-17T17:00:54+06:00,49
1000000000091442,77778333221,mKcell,mKarTel,mKarTel,,D02,2016-02-17T17:01:15+06:00,
1000000000091443,77778824698,mAltel,mKarTel,mKarTel,,D07,2016-02-17T17:01:21+06:00,
1000000000091444,77761889417,mKcell,mKarTel,mKarTel,,D02,2016-02-17T17:01:41+06:00,
1000000000091445,77078087131,mKcell,mMTS,mMTS,,D02,2016-02-17T17:01:27+06:00,
1000000000091446,77019292444,mAltel,mKcell,mKcell,,D07,2016-02-17T17:02:13+06:00,
1000000000091447,77470812903,mKarTel,mMTS,mMTS,,D01,2016-02-17T17:02:24+06:00,
1000000000091449,77784149797,mMTS,mKcell,mKcell,,D77,2016-02-17T17:03:08+06:00,
1000000000091450,77052198973,mMTS,mKarTel,mKarTel,,D77,2016-02-17T17:03:20+06:00,
1000000000091451,77470812981,mKarTel,mMTS,mMTS,,D01,2016-02-17T17:04:23+06:00,
1000000000091453,77013911228,mAltel,mKcell,mKcell,,D07,2016-02-17T17:05:43+06:00,
1000000000091454,77758010108,mAltel,mKcell,mKcell,,D07,2016-02-17T17:06:01+06:00,
1000000000091455,77470812907,mKarTel,mMTS,mMTS,,D01,2016-02-17T17:06:06+06:00,
1000000000091456,77010150600,mMTS,mKcell,mKcell,,D77,2016-02-17T17:06:33+06:00,
1000000000091457,77753757500,mKarTel,mKcell,mKcell,,D01,2016-02-17T17:06:43+06:00,
1000000000091458,77026706707,mMTS,mKcell,mKcell,,D77,2016-02-17T17:06:39+06:00,
1000000000091459,77024978765,mMTS,mKcell,mKcell,,D77,2016-02-17T17:06:56+06:00,
1000000000091461,77015208296,mKarTel,mKcell,mKcell,,D01,2016-02-17T17:08:42+06:00,
1000000000091462,77011218251,mAltel,mKcell,mKcell,,D07,2016-02-17T17:08:45+06:00,
1000000000091464,77019135858,mAltel,mKcell,mKcell,,D07,2016-02-17T17:09:09+06:00,
1000000000091466,77027745454,mMTS,mKcell,mKcell,,D77,2016-02-17T17:11:24+06:00,
1000000000091467,77017833605,mKarTel,mKcell,mKcell,,D01,2016-02-17T17:11:44+06:00,
1000000000091469,77018163015,mAltel,mKcell,mKcell,,D07,2016-02-17T17:11:57+06:00,
1000000000091470,77784790333,mMTS,mKcell,mKcell,,D77,2016-02-17T17:12:03+06:00,
1000000000091471,77758606666,mAltel,mKcell,mKcell,,D07,2016-02-17T17:12:23+06:00,
1000000000091472,77073233032,mAltel,mMTS,mMTS,,D07,2016-02-17T17:12:27+06:00,
1000000000091473,77772170506,mMTS,mKarTel,mKarTel,,D77,2016-02-17T17:13:46+06:00,
1000000000091474,77012269797,mKarTel,mKcell,mKcell,,D01,2016-02-17T17:15:19+06:00,
1000000000091476,77058884342,mAltel,mKarTel,mKarTel,,D07,2016-02-17T17:15:17+06:00,
1000000000091477,77011121279,mAltel,mKcell,mKcell,,D07,2016-02-17T17:15:47+06:00,
1000000000091478,77768333221,mKcell,mKarTel,mKarTel,,D02,2016-02-17T17:16:28+06:00,
1000000000091480,77017728409,mMTS,mKcell,mKcell,,D77,2016-02-17T17:17:01+06:00,
1000000000091483,77022266526,mMTS,mKcell,mKcell,,D77,2016-02-17T17:17:54+06:00,
1000000000091484,77005514300,mKarTel,mAltel,mAltel,,D01,2016-02-17T17:18:33+06:00,
1000000000091485,77055557860,mAltel,mKarTel,mKarTel,,D07,2016-02-17T17:20:07+06:00,
1000000000091486,77028495700,mMTS,mKcell,mKcell,,D77,2016-02-17T17:19:57+06:00,
1000000000091487,77766558794,mAltel,mKarTel,mKarTel,,D07,2016-02-17T17:21:10+06:00,
1000000000091488,77017765084,mAltel,mKcell,mKcell,,D07,2016-02-17T17:21:22+06:00,
1000000000091491,77071024389,mAltel,mMTS,mMTS,,D07,2016-02-17T17:22:53+06:00,
1000000000091492,77777340788,mKcell,mKarTel,mKarTel,,D02,2016-02-17T17:24:06+06:00,
1000000000091493,77012442387,mKarTel,mKcell,mKcell,,D01,2016-02-17T17:24:22+06:00,
1000000000091494,77000001150,mMTS,mAltel,mAltel,,D77,2016-02-17T17:24:31+06:00,
1000000000091495,77016004951,mKarTel,mKcell,mKcell,,D01,2016-02-17T17:25:38+06:00,
1000000000091496,77026205030,mAltel,mKcell,mKcell,,D07,2016-02-17T17:25:40+06:00,
1000000000091497,77081992519,mMTS,mAltel,mAltel,,D77,2016-02-17T17:25:52+06:00,
1000000000091498,77719049258,mMTS,mKarTel,mKarTel,,D77,2016-02-17T17:26:10+06:00,
1000000000091499,77011312132,mMTS,mKcell,mKcell,,D77,2016-02-17T17:27:29+06:00,
1000000000091500,77077009719,mAltel,mMTS,mMTS,,D07,2016-02-17T17:28:11+06:00,
1000000000091501,77012224957,mAltel,mKcell,mKcell,,D07,2016-02-17T17:28:40+06:00,
