NPId,Number,RecipientId,DonorId,RangeHolderId,OldRoute,NewRoute,PortDate,RowCount
1000000000276321,77760109998,mKcell,mKarTel,mKarTel,,D02,2016-11-08T21:03:12+06:00,2
1000000000276322,77079234241,mKcell,mMTS,mMTS,,D02,2016-11-08T21:13:44+06:00,
