NPId,Number,RecipientId,DonorId,RangeHolderId,OldRoute,NewRoute,PortDate,RowCount
1000000000347666,77006003222,mMTS,mAltel,mAltel,,D77,2017-03-16T09:31:05+06:00,8
1000000000347667,77758140545,mMTS,mKcell,mKcell,,D77,2017-03-16T09:31:51+06:00,
1000000000347668,77770040707,mAltel,mMTS,mKarTel,D77,D07,2017-03-16T09:34:27+06:00,
1000000000347669,77476536260,mAltel,mMTS,mMTS,,D07,2017-03-16T09:37:46+06:00,
1000000000347670,77019991161,mMTS,mKcell,mKcell,,D77,2017-03-16T09:40:19+06:00,
1000000000347671,77010143305,mKcell,mMTS,mKcell,D77,D02,2017-03-16T09:52:26+06:00,
1000000000347672,77078028383,mKcell,mMTS,mMTS,,D02,2017-03-16T09:54:31+06:00,
1000000000347673,77756756587,mMTS,mAltel,mKcell,D07,D77,2017-03-16T09:58:12+06:00,
