NPId,Number,RecipientId,DonorId,RangeHolderId,OldRoute,NewRoute,PortDate,RowCount
1000000000138019,77088800085,mMTS,mAltel,mAltel,,D77,2016-03-31T12:30:31+06:00,42
1000000000138020,77763707090,mMTS,mKarTel,mKarTel,,D77,2016-03-31T12:32:07+06:00,
1000000000138021,77051135623,mMTS,mKarTel,mKarTel,,D77,2016-03-31T12:32:09+06:00,
1000000000138022,77778066444,mAltel,mKarTel,mKarTel,,D07,2016-03-31T12:32:10+06:00,
1000000000138024,77023849700,mKarTel,mKcell,mKcell,,D01,2016-03-31T12:33:00+06:00,
1000000000138025,77755942790,mMTS,mKcell,mKcell,,D77,2016-03-31T12:33:52+06:00,
1000000000138026,77019939277,mKarTel,mKcell,mKcell,,D01,2016-03-31T12:41:30+06:00,
1000000000138028,77017252677,mKarTel,mKcell,mKcell,,D01,2016-03-31T12:41:30+06:00,
1000000000138029,77764001994,mKarTel,mAltel,mKarTel,D07,D01,2016-03-31T12:36:57+06:00,
1000000000138030,77772186906,mMTS,mKarTel,mKarTel,,D77,2016-03-31T12:38:22+06:00,
1000000000138031,77015996451,mKarTel,mKcell,mKcell,,D01,2016-03-31T12:41:29+06:00,
1000000000138032,77054967778,mMTS,mKarTel,mKarTel,,D77,2016-03-31T12:38:22+06:00,
1000000000138033,77474834312,mAltel,mMTS,mMTS,,D07,2016-03-31T12:38:34+06:00,
1000000000138036,77075506616,mKcell,mMTS,mMTS,,D02,2016-03-31T12:41:56+06:00,
1000000000138038,77012444102,mMTS,mKcell,mKcell,,D77,2016-03-31T12:42:17+06:00,
1000000000138039,77089286728,mKcell,mAltel,mAltel,,D02,2016-03-31T12:42:43+06:00,
1000000000138042,77023900058,mKarTel,mKcell,mKcell,,D01,2016-03-31T12:43:47+06:00,
1000000000138043,77012210006,mAltel,mKcell,mKcell,,D07,2016-03-31T12:44:35+06:00,
1000000000138044,77773647498,mMTS,mKarTel,mKarTel,,D77,2016-03-31T12:46:03+06:00,
1000000000138046,77712355565,mKarTel,mMTS,mKarTel,D77,D01,2016-03-31T12:46:01+06:00,
1000000000138047,77779339797,mMTS,mKarTel,mKarTel,,D77,2016-03-31T12:46:57+06:00,
1000000000138048,77017588180,mAltel,mKcell,mKcell,,D07,2016-03-31T12:46:03+06:00,
1000000000138050,77712294448,mKcell,mKarTel,mKarTel,,D02,2016-03-31T12:49:24+06:00,
1000000000138051,77712072113,mMTS,mKarTel,mKarTel,,D77,2016-03-31T12:49:30+06:00,
1000000000138053,77051776767,mMTS,mKarTel,mKarTel,,D77,2016-03-31T12:50:00+06:00,
1000000000138054,77072980026,mMTS,mAltel,mMTS,D07,D77,2016-03-31T12:49:52+06:00,
1000000000138055,77011440328,mMTS,mKcell,mKcell,,D77,2016-03-31T12:51:55+06:00,
1000000000138056,77051937391,mMTS,mKarTel,mKarTel,,D77,2016-03-31T12:53:07+06:00,
1000000000138058,77719992333,mMTS,mKarTel,mKarTel,,D77,2016-03-31T12:54:06+06:00,
1000000000138060,77013609979,mMTS,mKcell,mKcell,,D77,2016-03-31T12:53:23+06:00,
1000000000138061,77019891180,mMTS,mKcell,mKcell,,D77,2016-03-31T12:53:23+06:00,
1000000000138062,77081898977,mMTS,mAltel,mAltel,,D77,2016-03-31T12:53:17+06:00,
1000000000138064,77766226688,mMTS,mKarTel,mKarTel,,D77,2016-03-31T12:54:36+06:00,
1000000000138065,77024477153,mMTS,mKcell,mKcell,,D77,2016-03-31T12:54:12+06:00,
1000000000138067,77077456789,mMTS,mKarTel,mMTS,D01,D77,2016-03-31T12:55:31+06:00,
1000000000138069,77762861616,mAltel,mKarTel,mKarTel,,D07,2016-03-31T12:56:55+06:00,
1000000000138070,77476746072,mKarTel,mMTS,mMTS,,D01,2016-03-31T12:56:24+06:00,
1000000000138071,77075870707,mKcell,mMTS,mMTS,,D02,2016-03-31T12:57:16+06:00,
1000000000138072,77023093002,mMTS,mKcell,mKcell,,D77,2016-03-31T12:58:01+06:00,
1000000000138073,77016669798,mMTS,mKcell,mKcell,,D77,2016-03-31T12:58:02+06:00,
1000000000138075,77072221778,mKcell,mMTS,mMTS,,D02,2016-03-31T12:57:52+06:00,
1000000000138078,77010552255,mKarTel,mKcell,mKcell,,D01,2016-03-31T12:59:40+06:00,
