NPId,Number,RecipientId,DonorId,RangeHolderId,OldRoute,NewRoute,PortDate,RowCount
1000000000206447,77017312194,mKcell,mAltel,mKcell,D07,D02,2016-07-08T09:10:03+06:00,8
1000000000207015,77012335807,mKcell,mKarTel,mKcell,D01,D02,2016-07-08T09:14:08+06:00,
1000000000207374,77017508550,mKarTel,mMTS,mKcell,D77,D01,2016-07-08T09:02:26+06:00,
1000000000207375,77715599977,mKarTel,mMTS,mKarTel,D77,D01,2016-07-08T09:02:25+06:00,
1000000000207376,77017204636,mKarTel,mKcell,mKcell,,D01,2016-07-08T09:06:35+06:00,
1000000000207381,77786394212,mKarTel,mKcell,mKcell,,D01,2016-07-08T09:24:13+06:00,
1000000000207382,77003453477,mKarTel,mAltel,mAltel,,D01,2016-07-08T09:24:50+06:00,
1000000000207383,77003248261,mKarTel,mAltel,mAltel,,D01,2016-07-08T09:25:49+06:00,
