NPId,Number,RecipientId,DonorId,RangeHolderId,OldRoute,NewRoute,PortDate,RowCount
1000000000228819,77051194047,mAltel,mKcell,mKarTel,D02,D07,2016-08-14T15:00:12+06:00,12
1000000000228822,77011283973,mMTS,mKcell,mKcell,,D77,2016-08-14T15:07:03+06:00,
1000000000228823,77077717737,mKarTel,mAltel,mMTS,D07,D01,2016-08-14T15:08:38+06:00,
1000000000228824,77752286329,mMTS,mKcell,mKcell,,D77,2016-08-14T15:13:11+06:00,
1000000000228825,77056374803,mMTS,mKarTel,mKarTel,,D77,2016-08-14T15:14:06+06:00,
1000000000228827,77027798182,mMTS,mKcell,mKcell,,D77,2016-08-14T15:15:49+06:00,
1000000000228828,77027221507,mMTS,mKcell,mKcell,,D77,2016-08-14T15:17:44+06:00,
1000000000228829,77752901016,mKcell,mAltel,mKcell,D07,D02,2016-08-14T15:18:44+06:00,
1000000000228830,77017871313,mMTS,mKcell,mKcell,,D77,2016-08-14T15:19:59+06:00,
1000000000228831,77777011104,mAltel,mKarTel,mKarTel,,D07,2016-08-14T15:27:21+06:00,
1000000000228832,77787280190,mKarTel,mKcell,mKcell,,D01,2016-08-14T15:27:19+06:00,
1000000000228833,77001003003,mMTS,mAltel,mAltel,,D77,2016-08-14T15:29:23+06:00,
