NPId,Number,RecipientId,DonorId,RangeHolderId,OldRoute,NewRoute,PortDate,RowCount
1000000000422184,77024996780,mMTS,mKcell,mKcell,,D77,2017-07-15T10:36:14+06:00,15
1000000000422185,77025660342,mMTS,mKcell,mKcell,,D77,2017-07-15T10:36:38+06:00,
1000000000422186,77083140449,mMTS,mAltel,mAltel,,D77,2017-07-15T10:36:58+06:00,
1000000000422187,77052203141,mKarTel,mAltel,mKarTel,D07,D01,2017-07-15T10:38:09+06:00,
1000000000422188,77772142340,mMTS,mKarTel,mKarTel,,D77,2017-07-15T10:45:58+06:00,
1000000000422190,77073999303,mAltel,mMTS,mMTS,,D07,2017-07-15T10:46:56+06:00,
1000000000422191,77016487887,mMTS,mKcell,mKcell,,D77,2017-07-15T10:47:04+06:00,
1000000000422192,77777488798,mMTS,mKarTel,mKarTel,,D77,2017-07-15T10:49:54+06:00,
1000000000422195,77015222515,mKcell,mKarTel,mKcell,D01,D02,2017-07-15T10:52:33+06:00,
1000000000422196,77083140575,mMTS,mAltel,mAltel,,D77,2017-07-15T10:52:00+06:00,
1000000000422197,77012268042,mMTS,mAltel,mKcell,D07,D77,2017-07-15T10:51:59+06:00,
1000000000422198,77750002574,mKcell,mAltel,mKcell,D07,D02,2017-07-15T10:52:40+06:00,
1000000000422199,77029771111,mAltel,mMTS,mKcell,D77,D07,2017-07-15T10:52:46+06:00,
1000000000422201,77021834944,mMTS,mKcell,mKcell,,D77,2017-07-15T10:55:42+06:00,
1000000000422202,77052608458,mMTS,mKcell,mKarTel,D02,D77,2017-07-15T10:57:49+06:00,
