NPId,Number,RecipientId,DonorId,RangeHolderId,OldRoute,NewRoute,PortDate,RowCount
1000000000213020,77022726440,mKcell,mKarTel,mKcell,D01,D02,2016-07-18T13:51:05+06:00,22
1000000000213022,77027616187,mAltel,mKcell,mKcell,,D07,2016-07-18T13:52:31+06:00,
1000000000213023,77025474960,mMTS,mKcell,mKcell,,D77,2016-07-18T13:52:31+06:00,
1000000000213024,77760545494,mMTS,mKarTel,mKarTel,,D77,2016-07-18T13:32:08+06:00,
1000000000213025,77087537495,mMTS,mAltel,mAltel,,D77,2016-07-18T13:34:13+06:00,
1000000000213026,77024554690,mMTS,mKcell,mKcell,,D77,2016-07-18T13:52:31+06:00,
1000000000213027,77012228053,mAltel,mKcell,mKcell,,D07,2016-07-18T13:52:31+06:00,
1000000000213029,77015162449,mKarTel,mKcell,mKcell,,D01,2016-07-18T13:52:54+06:00,
1000000000213029,77015991770,mKarTel,mKcell,mKcell,,D01,2016-07-18T13:52:54+06:00,
1000000000213030,77755555808,mKarTel,mKcell,mKcell,,D01,2016-07-18T13:52:53+06:00,
1000000000213031,77777730063,mMTS,mKarTel,mKarTel,,D77,2016-07-18T13:47:14+06:00,
1000000000213032,77472295687,mKarTel,mMTS,mMTS,,D01,2016-07-18T13:48:22+06:00,
1000000000213033,77751025435,mMTS,mKcell,mKcell,,D77,2016-07-18T13:52:31+06:00,
1000000000213034,77011446766,mAltel,mKcell,mKcell,,D07,2016-07-18T13:52:32+06:00,
1000000000213038,77057707878,mMTS,mKarTel,mKarTel,,D77,2016-07-18T13:54:10+06:00,
1000000000213039,77059521893,mAltel,mKarTel,mKarTel,,D07,2016-07-18T13:54:39+06:00,
1000000000213040,77471205563,mKarTel,mMTS,mMTS,,D01,2016-07-18T13:54:33+06:00,
1000000000213042,77055111161,mMTS,mKarTel,mKarTel,,D77,2016-07-18T13:56:23+06:00,
1000000000213043,77751753703,mMTS,mKcell,mKcell,,D77,2016-07-18T13:57:18+06:00,
1000000000213044,77772954141,mMTS,mKarTel,mKarTel,,D77,2016-07-18T13:57:32+06:00,
1000000000213045,77017535015,mAltel,mKcell,mKcell,,D07,2016-07-18T13:58:34+06:00,
1000000000213047,77082025435,mMTS,mAltel,mAltel,,D77,2016-07-18T13:58:50+06:00,
