NPId,Number,RecipientId,DonorId,RangeHolderId,OldRoute,NewRoute,PortDate,RowCount
1000000000249316,77077184478,mKcell,mMTS,mMTS,D77,D02,2016-09-21T19:32:26+06:00,6
1000000000249317,77777973412,mMTS,mKarTel,mKarTel,,D77,2016-09-21T19:43:47+06:00,
1000000000249318,77017396029,mKcell,mKarTel,mKcell,D01,D02,2016-09-21T19:45:45+06:00,
1000000000249320,77784314627,mKarTel,mKcell,mKcell,,D01,2016-09-21T19:47:22+06:00,
1000000000249321,77077886003,mMTS,mKarTel,mMTS,D01,D77,2016-09-21T19:55:25+06:00,
1000000000249322,77007771778,mKcell,mKarTel,mAltel,D01,D02,2016-09-21T19:57:26+06:00,
