NPId,Number,RecipientId,DonorId,RangeHolderId,OldRoute,NewRoute,PortDate,RowCount
1000000000232772,77054163828,mMTS,mKarTel,mKarTel,,D77,2016-08-23T10:30:51+06:00,15
1000000000232775,77015565111,mKarTel,mKcell,mKcell,,D01,2016-08-23T10:33:10+06:00,
1000000000232777,77766918585,mMTS,mKarTel,mKarTel,,D77,2016-08-23T10:36:23+06:00,
1000000000232778,77072230772,mKcell,mMTS,mMTS,,D02,2016-08-23T10:36:25+06:00,
1000000000232779,77766918484,mMTS,mKarTel,mKarTel,,D77,2016-08-23T10:38:11+06:00,
1000000000232781,77023366094,mMTS,mKcell,mKcell,,D77,2016-08-23T10:37:52+06:00,
1000000000232783,77713355383,mKcell,mKarTel,mKarTel,,D02,2016-08-23T10:41:07+06:00,
1000000000232784,77077388788,mAltel,mMTS,mMTS,,D07,2016-08-23T10:41:17+06:00,
1000000000232786,77771575858,mMTS,mKarTel,mKarTel,,D77,2016-08-23T10:46:28+06:00,
1000000000232787,77766950007,mKcell,mKarTel,mKarTel,,D02,2016-08-23T10:47:29+06:00,
1000000000232788,77074003022,mAltel,mMTS,mMTS,,D07,2016-08-23T10:48:35+06:00,
1000000000232789,77711854913,mMTS,mKarTel,mKarTel,,D77,2016-08-23T10:52:04+06:00,
1000000000232790,77766977797,mKcell,mKarTel,mKarTel,,D02,2016-08-23T10:52:56+06:00,
1000000000232791,77769600001,mAltel,mMTS,mKarTel,D77,D07,2016-08-23T10:54:47+06:00,
1000000000232792,77754889149,mAltel,mKcell,mKcell,,D07,2016-08-23T10:58:43+06:00,
