NPId,Number,RecipientId,DonorId,RangeHolderId,OldRoute,NewRoute,PortDate,RowCount
1000000000141527,77767016611,mMTS,mKarTel,mKarTel,,D77,2016-04-03T18:01:58+06:00,12
1000000000141528,77072941695,mAltel,mMTS,mMTS,,D07,2016-04-03T18:01:28+06:00,
1000000000141529,77784000901,mMTS,mKcell,mKcell,,D77,2016-04-03T18:04:25+06:00,
1000000000141530,77052517983,mMTS,mKarTel,mKarTel,,D77,2016-04-03T18:06:32+06:00,
1000000000141532,77781724533,mMTS,mKcell,mKcell,,D77,2016-04-03T18:05:25+06:00,
1000000000141534,77774221877,mMTS,mKarTel,mKarTel,,D77,2016-04-03T18:09:20+06:00,
1000000000141535,77053002423,mAltel,mKarTel,mKarTel,,D07,2016-04-03T18:10:56+06:00,
1000000000141536,77077272152,mKarTel,mMTS,mMTS,,D01,2016-04-03T18:10:22+06:00,
1000000000141537,77752778857,mMTS,mKcell,mKcell,,D77,2016-04-03T18:12:09+06:00,
1000000000141538,77013560795,mMTS,mAltel,mKcell,D07,D77,2016-04-03T18:15:39+06:00,
1000000000141539,77789154317,mMTS,mKcell,mKcell,,D77,2016-04-03T18:16:03+06:00,
1000000000141543,77024668968,mMTS,mKcell,mKcell,,D77,2016-04-03T18:27:17+06:00,
