NPId,Number,RecipientId,DonorId,RangeHolderId,OldRoute,NewRoute,PortDate,RowCount
1000000000307362,77472826704,mAltel,mMTS,mMTS,,D07,2017-01-08T14:00:13+06:00,10
1000000000307363,77715325238,mMTS,mKarTel,mKarTel,,D77,2017-01-08T14:01:58+06:00,
1000000000307365,77785616969,mAltel,mKcell,mKcell,,D07,2017-01-08T14:04:51+06:00,
1000000000307366,77001164233,mMTS,mAltel,mAltel,,D77,2017-01-08T14:05:57+06:00,
1000000000307367,77078885676,mAltel,mMTS,mMTS,,D07,2017-01-08T14:06:40+06:00,
1000000000307368,77760950995,mKcell,mKarTel,mKarTel,,D02,2017-01-08T14:12:39+06:00,
1000000000307369,77761113302,mAltel,mKarTel,mKarTel,,D07,2017-01-08T14:17:58+06:00,
1000000000307370,77072602720,mAltel,mMTS,mMTS,,D07,2017-01-08T14:24:39+06:00,
1000000000307371,77072601614,mAltel,mMTS,mMTS,,D07,2017-01-08T14:25:41+06:00,
1000000000307372,77074440160,mAltel,mMTS,mMTS,,D07,2017-01-08T14:26:30+06:00,
