NPId,Number,RecipientId,DonorId,RangeHolderId,OldRoute,NewRoute,PortDate,RowCount
1000000000316718,77474343064,mKcell,mMTS,mMTS,,D02,2017-01-25T20:01:46+06:00,7
1000000000316719,77005557596,mKcell,mAltel,mAltel,,D02,2017-01-25T20:05:03+06:00,
1000000000316721,77005557598,mKcell,mAltel,mAltel,,D02,2017-01-25T20:06:58+06:00,
1000000000316722,77057045824,mKarTel,mMTS,mKarTel,D77,D01,2017-01-25T20:07:07+06:00,
1000000000316723,77077955101,mKcell,mMTS,mMTS,,D02,2017-01-25T20:13:31+06:00,
1000000000316724,77005557593,mKcell,mAltel,mAltel,,D02,2017-01-25T20:14:22+06:00,
1000000000316725,77005557592,mKcell,mAltel,mAltel,,D02,2017-01-25T20:21:28+06:00,
