NPId,Number,RecipientId,DonorId,RangeHolderId,OldRoute,NewRoute,PortDate,RowCount
1000000000201970,77718489393,mMTS,mKarTel,mKarTel,,D77,2016-06-28T20:01:34+06:00,6
1000000000201971,77756599990,mMTS,mKcell,mKcell,,D77,2016-06-28T20:07:56+06:00,
1000000000201972,77011117456,mKcell,mMTS,mKcell,D77,D02,2016-06-28T20:11:37+06:00,
1000000000201973,77074710777,mMTS,mAltel,mMTS,D07,D77,2016-06-28T20:17:12+06:00,
1000000000201974,77779782509,mKcell,mAltel,mKarTel,D07,D02,2016-06-28T20:24:13+06:00,
1000000000201975,77712259919,mKcell,mAltel,mKarTel,D07,D02,2016-06-28T20:25:38+06:00,
