NPId,Number,RecipientId,DonorId,RangeHolderId,OldRoute,NewRoute,PortDate,RowCount
1000000000335338,77022144009,mKarTel,mKcell,mKcell,,D01,2017-02-26T13:03:03+06:00,15
1000000000335339,77758293336,mMTS,mKcell,mKcell,,D77,2017-02-26T13:03:26+06:00,
1000000000335340,77022409166,mAltel,mKcell,mKcell,,D07,2017-02-26T13:03:59+06:00,
1000000000335341,77719060774,mMTS,mKarTel,mKarTel,,D77,2017-02-26T13:04:23+06:00,
1000000000335343,77027575890,mMTS,mKcell,mKcell,,D77,2017-02-26T13:11:54+06:00,
1000000000335344,77004000376,mKcell,mAltel,mAltel,,D02,2017-02-26T13:13:30+06:00,
1000000000335345,77003000941,mKcell,mAltel,mAltel,,D02,2017-02-26T13:14:22+06:00,
1000000000335346,77017084747,mMTS,mKcell,mKcell,,D77,2017-02-26T13:14:50+06:00,
1000000000335347,77057399298,mAltel,mKarTel,mKarTel,,D07,2017-02-26T13:16:39+06:00,
1000000000335348,77057259696,mMTS,mKarTel,mKarTel,,D77,2017-02-26T13:17:34+06:00,
1000000000335349,77003000549,mKcell,mAltel,mAltel,,D02,2017-02-26T13:17:42+06:00,
1000000000335351,77003000927,mKcell,mAltel,mAltel,,D02,2017-02-26T13:21:41+06:00,
1000000000335354,77772447069,mMTS,mKarTel,mKarTel,,D77,2017-02-26T13:23:08+06:00,
1000000000335355,77004000862,mKcell,mAltel,mAltel,,D02,2017-02-26T13:27:58+06:00,
1000000000335356,77025117811,mMTS,mKcell,mKcell,,D77,2017-02-26T13:27:54+06:00,
