NPId,Number,RecipientId,DonorId,RangeHolderId,OldRoute,NewRoute,PortDate,RowCount
1000000000237551,77057599000,mMTS,mKarTel,mKarTel,,D77,2016-08-31T17:30:03+06:00,47
1000000000237552,77761209392,mKcell,mKarTel,mKarTel,,D02,2016-08-31T17:32:11+06:00,
1000000000237555,77021025317,mMTS,mKcell,mKcell,,D77,2016-08-31T17:36:43+06:00,
1000000000237556,77053461434,mMTS,mKarTel,mKarTel,,D77,2016-08-31T17:32:50+06:00,
1000000000237557,77017441744,mKarTel,mKcell,mKcell,,D01,2016-08-31T17:32:57+06:00,
1000000000237558,77766261010,mMTS,mKarTel,mKarTel,,D77,2016-08-31T17:33:17+06:00,
1000000000237562,77018777787,mKarTel,mKcell,mKcell,,D01,2016-08-31T17:36:03+06:00,
1000000000237563,77019821031,mKarTel,mKcell,mKcell,,D01,2016-08-31T17:36:38+06:00,
1000000000237564,77012273931,mMTS,mKcell,mKcell,,D77,2016-08-31T17:37:21+06:00,
1000000000237565,77015455523,mAltel,mKcell,mKcell,,D07,2016-08-31T17:37:25+06:00,
1000000000237566,77776480990,mKcell,mKarTel,mKarTel,,D02,2016-08-31T17:38:30+06:00,
1000000000237567,77014028800,mKcell,mKarTel,mKcell,D01,D02,2016-08-31T17:38:43+06:00,
1000000000237568,77078285545,mAltel,mMTS,mMTS,D77,D07,2016-08-31T17:39:31+06:00,
1000000000237569,77015182969,mMTS,mKcell,mKcell,,D77,2016-08-31T17:39:54+06:00,
1000000000237570,77017822895,mAltel,mKcell,mKcell,,D07,2016-08-31T17:40:05+06:00,
1000000000237572,77758222110,mKcell,mAltel,mKcell,D07,D02,2016-08-31T17:41:45+06:00,
1000000000237573,77082220553,mKcell,mKarTel,mAltel,D01,D02,2016-08-31T17:43:11+06:00,
1000000000237574,77071270717,mMTS,mKarTel,mMTS,D01,D77,2016-08-31T17:42:51+06:00,
1000000000237575,77710960111,mMTS,mKarTel,mKarTel,,D77,2016-08-31T17:43:22+06:00,
1000000000237576,77011116579,mMTS,mKcell,mKcell,,D77,2016-08-31T17:42:54+06:00,
1000000000237577,77009118877,mMTS,mAltel,mAltel,,D77,2016-08-31T17:43:01+06:00,
1000000000237578,77027385050,mMTS,mKcell,mKcell,,D77,2016-08-31T17:45:22+06:00,
1000000000237579,77014865515,mKarTel,mKcell,mKcell,,D01,2016-08-31T17:45:43+06:00,
1000000000237580,77014972073,mMTS,mKcell,mKcell,,D77,2016-08-31T17:45:57+06:00,
1000000000237581,77071994219,mKarTel,mKcell,mMTS,D02,D01,2016-08-31T17:46:29+06:00,
1000000000237583,77786596411,mMTS,mKcell,mKcell,,D77,2016-08-31T17:47:29+06:00,
1000000000237585,77019178853,mKarTel,mKcell,mKcell,,D01,2016-08-31T17:48:43+06:00,
1000000000237586,77776259376,mKarTel,mMTS,mKarTel,D77,D01,2016-08-31T17:48:43+06:00,
1000000000237587,77474870805,mKarTel,mMTS,mMTS,,D01,2016-08-31T17:48:43+06:00,
1000000000237588,77779567232,mMTS,mKarTel,mKarTel,,D77,2016-08-31T17:49:33+06:00,
1000000000237589,77751364270,mMTS,mKcell,mKcell,,D77,2016-08-31T17:49:06+06:00,
1000000000237591,77019580777,mKarTel,mKcell,mKcell,,D01,2016-08-31T17:50:48+06:00,
1000000000237593,77072390303,mKcell,mMTS,mMTS,,D02,2016-08-31T17:51:07+06:00,
1000000000237594,77003454042,mKcell,mAltel,mAltel,,D02,2016-08-31T17:52:50+06:00,
1000000000237596,77017556085,mKarTel,mKcell,mKcell,,D01,2016-08-31T17:53:03+06:00,
1000000000237597,77016147870,mMTS,mKcell,mKcell,,D77,2016-08-31T17:52:42+06:00,
1000000000237599,77773138881,mMTS,mKarTel,mKarTel,,D77,2016-08-31T17:53:16+06:00,
1000000000237600,77777002909,mKcell,mKarTel,mKarTel,,D02,2016-08-31T17:54:03+06:00,
1000000000237601,77774721090,mMTS,mKarTel,mKarTel,,D77,2016-08-31T17:54:24+06:00,
1000000000237602,77767677772,mMTS,mKarTel,mKarTel,,D77,2016-08-31T17:54:50+06:00,
1000000000237603,77017813002,mMTS,mKcell,mKcell,,D77,2016-08-31T17:56:16+06:00,
1000000000237605,77015955657,mMTS,mKcell,mKcell,,D77,2016-08-31T17:59:34+06:00,
1000000000237607,77056659655,mMTS,mKarTel,mKarTel,,D77,2016-08-31T17:58:18+06:00,
1000000000237608,77772848560,mMTS,mKarTel,mKarTel,,D77,2016-08-31T17:58:27+06:00,
1000000000237609,77023200357,mMTS,mKcell,mKcell,,D77,2016-08-31T17:58:43+06:00,
1000000000237610,77055760211,mMTS,mKarTel,mKarTel,,D77,2016-08-31T17:59:13+06:00,
1000000000237611,77055125151,mMTS,mKarTel,mKarTel,,D77,2016-08-31T17:59:20+06:00,
