NPId,Number,RecipientId,DonorId,RangeHolderId,OldRoute,NewRoute,PortDate,RowCount
1000000000109521,77054949999,mKcell,mKarTel,mKarTel,,D02,2016-03-07T20:50:47+06:00,3
1000000000109522,77054690009,mMTS,mKarTel,mKarTel,,D77,2016-03-07T20:52:21+06:00,
1000000000109524,77017814120,mAltel,mKcell,mKcell,,D07,2016-03-07T20:57:59+06:00,
