NPId,Number,RecipientId,DonorId,RangeHolderId,OldRoute,NewRoute,PortDate,RowCount
1000000000311712,77001000254,mKcell,mAltel,mAltel,,D02,2017-01-16T20:01:01+06:00,4
1000000000311713,77055406181,mKcell,mKarTel,mKarTel,,D02,2017-01-16T20:03:35+06:00,
1000000000311714,77770391940,mKarTel,mMTS,mKarTel,D77,D01,2017-01-16T20:03:30+06:00,
1000000000311715,77057771702,mKcell,mKarTel,mKarTel,,D02,2017-01-16T20:12:45+06:00,
