NPId,Number,RecipientId,DonorId,RangeHolderId,OldRoute,NewRoute,PortDate,RowCount
1000000000105480,77010272304,mKarTel,mKcell,mKcell,,D01,2016-03-04T09:51:34+06:00,25
1000000000105480,77010357957,mKarTel,mKcell,mKcell,,D01,2016-03-04T09:51:34+06:00,
1000000000105480,77010358341,mKarTel,mKcell,mKcell,,D01,2016-03-04T09:51:34+06:00,
1000000000105480,77019516432,mKarTel,mKcell,mKcell,,D01,2016-03-04T09:51:34+06:00,
1000000000105480,77019583182,mKarTel,mKcell,mKcell,,D01,2016-03-04T09:51:34+06:00,
1000000000105480,77019583183,mKarTel,mKcell,mKcell,,D01,2016-03-04T09:51:34+06:00,
1000000000105480,77019583184,mKarTel,mKcell,mKcell,,D01,2016-03-04T09:51:34+06:00,
1000000000105480,77019583185,mKarTel,mKcell,mKcell,,D01,2016-03-04T09:51:34+06:00,
1000000000105480,77019583186,mKarTel,mKcell,mKcell,,D01,2016-03-04T09:51:34+06:00,
1000000000105480,77019583189,mKarTel,mKcell,mKcell,,D01,2016-03-04T09:51:34+06:00,
1000000000105480,77019583286,mKarTel,mKcell,mKcell,,D01,2016-03-04T09:51:34+06:00,
1000000000105480,77019814201,mKarTel,mKcell,mKcell,,D01,2016-03-04T09:51:34+06:00,
1000000000105480,77019823846,mKarTel,mKcell,mKcell,,D01,2016-03-04T09:51:34+06:00,
1000000000106446,77718242192,mMTS,mKarTel,mKarTel,,D77,2016-03-04T09:33:40+06:00,
1000000000106449,77056401003,mMTS,mKarTel,mKarTel,,D77,2016-03-04T09:44:49+06:00,
1000000000106452,77785955999,mAltel,mKcell,mKcell,,D07,2016-03-04T09:49:28+06:00,
1000000000106454,77712127020,mMTS,mKarTel,mKarTel,,D77,2016-03-04T09:52:43+06:00,
1000000000106455,77012157799,mKarTel,mKcell,mKcell,,D01,2016-03-04T09:52:47+06:00,
1000000000106456,77026344954,mMTS,mKcell,mKcell,,D77,2016-03-04T09:53:07+06:00,
1000000000106457,77712965050,mMTS,mKarTel,mKarTel,,D77,2016-03-04T09:55:37+06:00,
1000000000106458,77017231095,mMTS,mKcell,mKcell,,D77,2016-03-04T09:55:49+06:00,
1000000000106459,77754698063,mAltel,mKcell,mKcell,,D07,2016-03-04T09:56:32+06:00,
1000000000106460,77757918900,mMTS,mKcell,mKcell,,D77,2016-03-04T09:56:57+06:00,
1000000000106461,77015070303,mAltel,mKcell,mKcell,,D07,2016-03-04T09:58:14+06:00,
1000000000106464,77014381999,mMTS,mKcell,mKcell,,D77,2016-03-04T09:59:05+06:00,
