NPId,Number,RecipientId,DonorId,RangeHolderId,OldRoute,NewRoute,PortDate,RowCount
1000000000047162,77012330006,mAltel,mKcell,mKcell,,D07,2016-02-13T15:00:38+06:00,27
1000000000047165,77076539093,mAltel,mMTS,mMTS,,D07,2016-02-13T15:01:51+06:00,
1000000000047166,77750004737,mAltel,mKcell,mKcell,,D07,2016-02-13T15:02:06+06:00,
1000000000047168,77071383777,mAltel,mMTS,mMTS,,D07,2016-02-13T15:05:14+06:00,
1000000000047171,77026110031,mAltel,mKcell,mKcell,,D07,2016-02-13T15:07:59+06:00,
1000000000047173,77018967222,mMTS,mKcell,mKcell,,D77,2016-02-13T15:08:57+06:00,
1000000000047174,77021789348,mMTS,mKcell,mKcell,,D77,2016-02-13T15:09:51+06:00,
1000000000047176,77027307076,mAltel,mKcell,mKcell,,D07,2016-02-13T15:10:24+06:00,
1000000000047180,77759898587,mAltel,mKcell,mKcell,,D07,2016-02-13T15:14:39+06:00,
1000000000047181,77075308484,mKcell,mMTS,mMTS,,D02,2016-02-13T15:15:40+06:00,
1000000000047182,77013575742,mMTS,mKcell,mKcell,,D77,2016-02-13T15:15:32+06:00,
1000000000047183,77071418192,mKcell,mMTS,mMTS,,D02,2016-02-13T15:16:19+06:00,
1000000000047184,77753188881,mMTS,mKcell,mKcell,,D77,2016-02-13T15:16:20+06:00,
1000000000047185,77011404885,mAltel,mKcell,mKcell,,D07,2016-02-13T15:16:22+06:00,
1000000000047189,77017268969,mAltel,mKcell,mKcell,,D07,2016-02-13T15:19:16+06:00,
1000000000047190,77788841199,mMTS,mKcell,mKcell,,D77,2016-02-13T15:21:00+06:00,
1000000000047191,77012579468,mAltel,mKcell,mKcell,,D07,2016-02-13T15:22:40+06:00,
1000000000047193,77024647258,mAltel,mKcell,mKcell,,D07,2016-02-13T15:24:02+06:00,
1000000000047194,77757518588,mAltel,mKcell,mKcell,,D07,2016-02-13T15:24:13+06:00,
1000000000047195,77078192027,mAltel,mMTS,mMTS,,D07,2016-02-13T15:24:17+06:00,
1000000000047196,77017114442,mAltel,mKcell,mKcell,,D07,2016-02-13T15:25:01+06:00,
1000000000047198,77071582010,mKcell,mMTS,mMTS,,D02,2016-02-13T15:25:56+06:00,
1000000000047201,77017258640,mAltel,mKcell,mKcell,,D07,2016-02-13T15:26:24+06:00,
1000000000047203,77017563106,mMTS,mKcell,mKcell,,D77,2016-02-13T15:27:20+06:00,
1000000000047204,77025215116,mMTS,mKcell,mKcell,,D77,2016-02-13T15:28:41+06:00,
1000000000047206,77076028899,mAltel,mMTS,mMTS,,D07,2016-02-13T15:28:39+06:00,
1000000000047208,77016664222,mAltel,mKcell,mKcell,,D07,2016-02-13T15:29:40+06:00,
