NPId,Number,RecipientId,DonorId,RangeHolderId,OldRoute,NewRoute,PortDate,RowCount
1000000000244394,77078205571,mKarTel,mMTS,mMTS,,D01,2016-09-12T16:00:26+06:00,15
1000000000244398,77752767992,mKarTel,mKcell,mKcell,,D01,2016-09-12T16:10:46+06:00,
1000000000244399,77057540005,mAltel,mKcell,mKarTel,D02,D07,2016-09-12T16:11:19+06:00,
1000000000244401,77052222876,mMTS,mKarTel,mKarTel,,D77,2016-09-12T16:16:05+06:00,
1000000000244402,77054147711,mKarTel,mAltel,mKarTel,D07,D01,2016-09-12T16:16:44+06:00,
1000000000244403,77022053537,mMTS,mKcell,mKcell,,D77,2016-09-12T16:17:26+06:00,
1000000000244404,77086243580,mMTS,mAltel,mAltel,,D77,2016-09-12T16:16:12+06:00,
1000000000244405,77055720555,mKarTel,mAltel,mKarTel,D07,D01,2016-09-12T16:19:15+06:00,
1000000000244409,77773716095,mMTS,mAltel,mKarTel,D07,D77,2016-09-12T16:22:27+06:00,
1000000000244410,77770662662,mMTS,mKarTel,mKarTel,,D77,2016-09-12T16:25:46+06:00,
1000000000244411,77017793089,mKarTel,mKcell,mKcell,,D01,2016-09-12T16:24:21+06:00,
1000000000244412,77089606534,mKarTel,mAltel,mAltel,,D01,2016-09-12T16:25:04+06:00,
1000000000244413,77080939767,mMTS,mAltel,mAltel,,D77,2016-09-12T16:24:41+06:00,
1000000000244414,77075015599,mKarTel,mMTS,mMTS,,D01,2016-09-12T16:25:46+06:00,
1000000000244415,77003524900,mKarTel,mAltel,mAltel,,D01,2016-09-12T16:26:25+06:00,
