NPId,Number,RecipientId,DonorId,RangeHolderId,OldRoute,NewRoute,PortDate,RowCount
1000000000398516,77769984999,mMTS,mKarTel,mKarTel,,D77,2017-06-06T15:01:15+06:00,26
1000000000398520,77784316104,mMTS,mKcell,mKcell,,D77,2017-06-06T15:05:36+06:00,
1000000000398521,77712035544,mMTS,mKarTel,mKarTel,,D77,2017-06-06T15:06:41+06:00,
1000000000398523,77021577739,mKarTel,mKcell,mKcell,,D01,2017-06-06T15:08:25+06:00,
1000000000398524,77011201626,mAltel,mKcell,mKcell,,D07,2017-06-06T15:08:13+06:00,
1000000000398526,77022445018,mKarTel,mKcell,mKcell,,D01,2017-06-06T15:10:23+06:00,
1000000000398527,77768777677,mKarTel,mKcell,mKarTel,D02,D01,2017-06-06T15:10:43+06:00,
1000000000398528,77015221556,mKcell,mAltel,mKcell,D07,D02,2017-06-06T15:10:42+06:00,
1000000000398529,77057850727,mMTS,mKarTel,mKarTel,,D77,2017-06-06T15:11:31+06:00,
1000000000398530,77786006670,mKarTel,mKcell,mKcell,,D01,2017-06-06T15:12:03+06:00,
1000000000398531,77074770107,mMTS,mAltel,mMTS,D07,D77,2017-06-06T15:12:33+06:00,
1000000000398532,77051330550,mKcell,mKarTel,mKarTel,,D02,2017-06-06T15:14:14+06:00,
1000000000398533,77000707170,mKcell,mMTS,mAltel,D77,D02,2017-06-06T15:14:20+06:00,
1000000000398535,77013573494,mMTS,mKcell,mKcell,,D77,2017-06-06T15:16:32+06:00,
1000000000398538,77017447231,mAltel,mKcell,mKcell,,D07,2017-06-06T15:18:04+06:00,
1000000000398539,77024373871,mKarTel,mKcell,mKcell,,D01,2017-06-06T15:18:59+06:00,
1000000000398540,77788782069,mKarTel,mKcell,mKcell,,D01,2017-06-06T15:19:00+06:00,
1000000000398541,77000880686,mMTS,mAltel,mAltel,,D77,2017-06-06T15:19:22+06:00,
1000000000398542,77472466531,mAltel,mMTS,mMTS,,D07,2017-06-06T15:21:03+06:00,
1000000000398543,77052022280,mMTS,mKarTel,mKarTel,,D77,2017-06-06T15:22:24+06:00,
1000000000398544,77014863114,mKarTel,mKcell,mKcell,,D01,2017-06-06T15:22:53+06:00,
1000000000398545,77752596216,mMTS,mKcell,mKcell,,D77,2017-06-06T15:24:12+06:00,
1000000000398546,77000880626,mMTS,mAltel,mAltel,,D77,2017-06-06T15:24:07+06:00,
1000000000398547,77779789944,mAltel,mKarTel,mKarTel,,D07,2017-06-06T15:24:59+06:00,
1000000000398549,77007510777,mMTS,mAltel,mAltel,,D77,2017-06-06T15:28:08+06:00,
1000000000398550,77006060076,mAltel,mKcell,mAltel,D02,D07,2017-06-06T15:28:20+06:00,
