NPId,Number,RecipientId,DonorId,RangeHolderId,OldRoute,NewRoute,PortDate,RowCount
1000000000186730,77018763888,mKarTel,mKcell,mKcell,,D01,2016-06-03T14:48:40+06:00,50
1000000000186730,77019386999,mKarTel,mKcell,mKcell,,D01,2016-06-03T14:48:40+06:00,
1000000000186730,77028892752,mKarTel,mKcell,mKcell,,D01,2016-06-03T14:48:40+06:00,
1000000000186730,77028892753,mKarTel,mKcell,mKcell,,D01,2016-06-03T14:48:40+06:00,
1000000000186730,77028892756,mKarTel,mKcell,mKcell,,D01,2016-06-03T14:48:40+06:00,
1000000000186730,77028899214,mKarTel,mKcell,mKcell,,D01,2016-06-03T14:48:40+06:00,
1000000000186730,77028899218,mKarTel,mKcell,mKcell,,D01,2016-06-03T14:48:40+06:00,
1000000000186730,77028899219,mKarTel,mKcell,mKcell,,D01,2016-06-03T14:48:40+06:00,
1000000000186730,77028899242,mKarTel,mKcell,mKcell,,D01,2016-06-03T14:48:40+06:00,
1000000000186730,77028899251,mKarTel,mKcell,mKcell,,D01,2016-06-03T14:48:40+06:00,
1000000000186730,77028899268,mKarTel,mKcell,mKcell,,D01,2016-06-03T14:48:40+06:00,
1000000000186730,77028899330,mKarTel,mKcell,mKcell,,D01,2016-06-03T14:48:40+06:00,
1000000000186730,77028899369,mKarTel,mKcell,mKcell,,D01,2016-06-03T14:48:40+06:00,
1000000000186730,77028899381,mKarTel,mKcell,mKcell,,D01,2016-06-03T14:48:40+06:00,
1000000000186730,77028899390,mKarTel,mKcell,mKcell,,D01,2016-06-03T14:48:40+06:00,
1000000000186730,77028899397,mKarTel,mKcell,mKcell,,D01,2016-06-03T14:48:40+06:00,
1000000000186730,77028899432,mKarTel,mKcell,mKcell,,D01,2016-06-03T14:48:40+06:00,
1000000000186730,77028899522,mKarTel,mKcell,mKcell,,D01,2016-06-03T14:48:40+06:00,
1000000000186730,77028899536,mKarTel,mKcell,mKcell,,D01,2016-06-03T14:48:40+06:00,
1000000000186730,77028899539,mKarTel,mKcell,mKcell,,D01,2016-06-03T14:48:40+06:00,
1000000000186730,77028899569,mKarTel,mKcell,mKcell,,D01,2016-06-03T14:48:40+06:00,
1000000000186730,77028899596,mKarTel,mKcell,mKcell,,D01,2016-06-03T14:48:40+06:00,
1000000000186730,77028899598,mKarTel,mKcell,mKcell,,D01,2016-06-03T14:48:40+06:00,
1000000000186730,77028899605,mKarTel,mKcell,mKcell,,D01,2016-06-03T14:48:40+06:00,
1000000000186730,77028899606,mKarTel,mKcell,mKcell,,D01,2016-06-03T14:48:40+06:00,
1000000000186730,77028899610,mKarTel,mKcell,mKcell,,D01,2016-06-03T14:48:40+06:00,
1000000000186730,77028899616,mKarTel,mKcell,mKcell,,D01,2016-06-03T14:48:40+06:00,
1000000000187177,77717800032,mKcell,mKarTel,mKarTel,,D02,2016-06-03T14:33:58+06:00,
1000000000187181,77755372667,mKarTel,mKcell,mKcell,,D01,2016-06-03T14:31:12+06:00,
1000000000187183,77012927576,mKarTel,mKcell,mKcell,,D01,2016-06-03T14:31:14+06:00,
1000000000187189,77715494233,mMTS,mKarTel,mKarTel,,D77,2016-06-03T14:31:25+06:00,
1000000000187191,77786322804,mMTS,mKcell,mKcell,,D77,2016-06-03T14:31:52+06:00,
1000000000187192,77054781552,mMTS,mKarTel,mKarTel,,D77,2016-06-03T14:31:47+06:00,
1000000000187194,77054246853,mMTS,mKarTel,mKarTel,,D77,2016-06-03T14:37:28+06:00,
1000000000187195,77085626661,mMTS,mAltel,mAltel,,D77,2016-06-03T14:37:08+06:00,
1000000000187196,77052645727,mMTS,mKarTel,mKarTel,,D77,2016-06-03T14:37:32+06:00,
1000000000187197,77071165721,mKarTel,mMTS,mMTS,,D01,2016-06-03T14:41:08+06:00,
1000000000187198,77777392728,mMTS,mKarTel,mKarTel,,D77,2016-06-03T14:42:14+06:00,
1000000000187199,77759981940,mMTS,mKcell,mKcell,,D77,2016-06-03T14:42:56+06:00,
1000000000187200,77002545926,mKcell,mAltel,mAltel,,D02,2016-06-03T14:45:17+06:00,
1000000000187201,77054442246,mKarTel,mMTS,mKarTel,D77,D01,2016-06-03T14:45:14+06:00,
1000000000187202,77017263756,mKarTel,mKcell,mKcell,,D01,2016-06-03T14:47:02+06:00,
1000000000187203,77779239393,mMTS,mKarTel,mKarTel,,D77,2016-06-03T14:47:29+06:00,
1000000000187205,77017439817,mMTS,mKcell,mKcell,,D77,2016-06-03T14:49:54+06:00,
1000000000187206,77081727292,mKcell,mAltel,mAltel,,D02,2016-06-03T14:51:59+06:00,
1000000000187207,77025153233,mMTS,mKcell,mKcell,,D77,2016-06-03T14:51:47+06:00,
1000000000187210,77016076991,mMTS,mKcell,mKcell,,D77,2016-06-03T14:55:38+06:00,
1000000000187212,77772361593,mKarTel,mKcell,mKarTel,D02,D01,2016-06-03T14:57:03+06:00,
1000000000187213,77017629829,mKarTel,mKcell,mKcell,,D01,2016-06-03T14:57:29+06:00,
1000000000187214,77015777322,mMTS,mKcell,mKcell,,D77,2016-06-03T14:58:26+06:00,
