NPId,Number,RecipientId,DonorId,RangeHolderId,OldRoute,NewRoute,PortDate,RowCount
1000000000168658,77057053999,mKcell,mMTS,mKarTel,D77,D02,2016-05-05T20:01:11+06:00,6
1000000000168659,77017532564,mMTS,mKcell,mKcell,,D77,2016-05-05T20:01:23+06:00,
1000000000168660,77007070080,mKcell,mAltel,mAltel,,D02,2016-05-05T20:01:49+06:00,
1000000000168661,77075682535,mKcell,mMTS,mMTS,,D02,2016-05-05T20:04:11+06:00,
1000000000168664,77772429125,mMTS,mKarTel,mKarTel,,D77,2016-05-05T20:22:20+06:00,
1000000000168665,77471777707,mKcell,mMTS,mMTS,,D02,2016-05-05T20:25:06+06:00,
