NPId,Number,RecipientId,DonorId,RangeHolderId,OldRoute,NewRoute,PortDate,RowCount
1000000000266508,77073576507,mAltel,mMTS,mMTS,,D07,2016-10-22T14:30:09+06:00,20
1000000000266509,77022676595,mMTS,mKcell,mKcell,,D77,2016-10-22T14:31:04+06:00,
1000000000266511,77777699194,mAltel,mKarTel,mKarTel,,D07,2016-10-22T14:35:21+06:00,
1000000000266512,77005440101,mKarTel,mAltel,mAltel,,D01,2016-10-22T14:35:30+06:00,
1000000000266513,77765758896,mMTS,mKarTel,mKarTel,,D77,2016-10-22T14:36:28+06:00,
1000000000266515,77056154877,mAltel,mKarTel,mKarTel,,D07,2016-10-22T14:43:55+06:00,
1000000000266516,77002551010,mAltel,mKcell,mAltel,D02,D07,2016-10-22T14:44:02+06:00,
1000000000266518,77759806565,mMTS,mKcell,mKcell,,D77,2016-10-22T14:44:47+06:00,
1000000000266519,77085887500,mKcell,mAltel,mAltel,,D02,2016-10-22T14:45:01+06:00,
1000000000266520,77757008763,mAltel,mKcell,mKcell,,D07,2016-10-22T14:46:01+06:00,
1000000000266521,77775277856,mMTS,mKarTel,mKarTel,,D77,2016-10-22T14:47:41+06:00,
1000000000266522,77751001022,mAltel,mKcell,mKcell,,D07,2016-10-22T14:48:02+06:00,
1000000000266523,77757008762,mAltel,mKcell,mKcell,,D07,2016-10-22T14:48:13+06:00,
1000000000266524,77071995007,mAltel,mKcell,mMTS,D02,D07,2016-10-22T14:51:00+06:00,
1000000000266525,77073977070,mAltel,mMTS,mMTS,,D07,2016-10-22T14:51:10+06:00,
1000000000266527,77076116383,mAltel,mMTS,mMTS,,D07,2016-10-22T14:52:55+06:00,
1000000000266528,77072792999,mKcell,mMTS,mMTS,,D02,2016-10-22T14:53:33+06:00,
1000000000266530,77051447399,mKarTel,mKcell,mKarTel,D02,D01,2016-10-22T14:57:12+06:00,
1000000000266532,77054510400,mKarTel,mMTS,mKarTel,D77,D01,2016-10-22T14:57:35+06:00,
1000000000266533,77779018096,mKarTel,mMTS,mKarTel,D77,D01,2016-10-22T14:58:59+06:00,
