NPId,Number,RecipientId,DonorId,RangeHolderId,OldRoute,NewRoute,PortDate,RowCount
1000000000297299,77768454515,mKcell,mKarTel,mKarTel,,D02,2016-12-19T18:01:26+06:00,14
1000000000297300,77052600117,mKcell,mKarTel,mKarTel,,D02,2016-12-19T18:03:03+06:00,
1000000000297302,77025765659,mMTS,mKcell,mKcell,,D77,2016-12-19T18:07:53+06:00,
1000000000297303,77081886899,mKarTel,mMTS,mAltel,D77,D01,2016-12-19T18:08:59+06:00,
1000000000297304,77015269100,mMTS,mKcell,mKcell,,D77,2016-12-19T18:11:02+06:00,
1000000000297305,77025659222,mMTS,mKcell,mKcell,,D77,2016-12-19T18:12:47+06:00,
1000000000297306,77021616759,mKarTel,mKcell,mKcell,,D01,2016-12-19T18:13:19+06:00,
1000000000297307,77020777880,mMTS,mKcell,mKcell,,D77,2016-12-19T18:13:23+06:00,
1000000000297308,77017160773,mKarTel,mKcell,mKcell,,D01,2016-12-19T18:16:10+06:00,
1000000000297309,77011058468,mKcell,mAltel,mKcell,D07,D02,2016-12-19T18:17:45+06:00,
1000000000297310,77023764146,mMTS,mKcell,mKcell,,D77,2016-12-19T18:18:38+06:00,
1000000000297311,77014611980,mKarTel,mKcell,mKcell,,D01,2016-12-19T18:20:50+06:00,
1000000000297312,77783036000,mAltel,mKcell,mKcell,,D07,2016-12-19T18:22:14+06:00,
1000000000297314,77026861223,mMTS,mKcell,mKcell,,D77,2016-12-19T18:24:29+06:00,
