NPId,Number,RecipientId,DonorId,RangeHolderId,OldRoute,NewRoute,PortDate,RowCount
1000000000239965,77719060892,mMTS,mKarTel,mKarTel,,D77,2016-09-04T11:30:01+06:00,14
1000000000239967,77025267895,mMTS,mKcell,mKcell,,D77,2016-09-04T11:30:49+06:00,
1000000000239968,77719060886,mMTS,mKarTel,mKarTel,,D77,2016-09-04T11:34:42+06:00,
1000000000239972,77774719005,mMTS,mKarTel,mKarTel,,D77,2016-09-04T11:38:59+06:00,
1000000000239973,77052900019,mKarTel,mAltel,mKarTel,D07,D01,2016-09-04T11:37:40+06:00,
1000000000239975,77052900020,mKarTel,mAltel,mKarTel,D07,D01,2016-09-04T11:43:39+06:00,
1000000000239976,77071112361,mKcell,mMTS,mMTS,,D02,2016-09-04T11:44:39+06:00,
1000000000239977,77027775605,mMTS,mKcell,mKcell,,D77,2016-09-04T11:46:54+06:00,
1000000000239978,77089085973,mMTS,mAltel,mAltel,,D77,2016-09-04T11:47:00+06:00,
1000000000239979,77013526562,mKarTel,mKcell,mKcell,,D01,2016-09-04T11:50:16+06:00,
1000000000239981,77089085972,mMTS,mAltel,mAltel,,D77,2016-09-04T11:53:55+06:00,
1000000000239983,77021700102,mKarTel,mKcell,mKcell,,D01,2016-09-04T11:56:17+06:00,
1000000000239984,77077475252,mKarTel,mMTS,mMTS,,D01,2016-09-04T11:58:52+06:00,
1000000000239985,77001399251,mMTS,mAltel,mAltel,,D77,2016-09-04T11:59:14+06:00,
