NPId,Number,RecipientId,DonorId,RangeHolderId,OldRoute,NewRoute,PortDate,RowCount
1000000000390005,77074040955,mKarTel,mMTS,mMTS,,D01,2017-05-26T09:08:13+06:00,3
1000000000390006,77719684999,mKcell,mKarTel,mKarTel,,D02,2017-05-26T09:20:38+06:00,
1000000000390007,77053470464,mAltel,mKarTel,mKarTel,,D07,2017-05-26T09:23:26+06:00,
