NPId,Number,RecipientId,DonorId,RangeHolderId,OldRoute,NewRoute,PortDate,RowCount
1000000000335835,77772728829,mMTS,mKarTel,mKarTel,,D77,2017-03-02T15:54:48+06:00,35
1000000000337960,77015343804,mKcell,mKarTel,mKcell,D01,D02,2017-03-02T15:43:04+06:00,
1000000000337967,77017350188,mKcell,mKarTel,mKcell,D01,D02,2017-03-02T15:49:23+06:00,
1000000000337976,77012216933,mKcell,mKarTel,mKcell,D01,D02,2017-03-02T15:49:11+06:00,
1000000000339457,77087755503,mMTS,mAltel,mAltel,,D77,2017-03-02T15:30:40+06:00,
1000000000339459,77000090808,mKarTel,mAltel,mAltel,,D01,2017-03-02T15:31:51+06:00,
1000000000339461,77028374609,mMTS,mKcell,mKcell,,D77,2017-03-02T15:32:30+06:00,
1000000000339462,77026949485,mMTS,mKcell,mKcell,,D77,2017-03-02T15:32:54+06:00,
1000000000339463,77476758175,mKcell,mMTS,mMTS,,D02,2017-03-02T15:33:49+06:00,
1000000000339464,77051174000,mAltel,mKarTel,mKarTel,,D07,2017-03-02T15:34:37+06:00,
1000000000339465,77077361724,mMTS,mKcell,mMTS,D02,D77,2017-03-02T15:34:22+06:00,
1000000000339467,77056260298,mMTS,mKarTel,mKarTel,,D77,2017-03-02T15:35:12+06:00,
1000000000339468,77072828112,mAltel,mMTS,mMTS,,D07,2017-03-02T15:35:34+06:00,
1000000000339469,77015134465,mMTS,mKarTel,mKcell,D01,D77,2017-03-02T15:36:15+06:00,
1000000000339470,77026338066,mKarTel,mKcell,mKcell,,D01,2017-03-02T15:36:19+06:00,
1000000000339471,77074982137,mMTS,mKarTel,mMTS,D01,D77,2017-03-02T15:39:08+06:00,
1000000000339472,77714236666,mMTS,mKarTel,mKarTel,,D77,2017-03-02T15:39:34+06:00,
1000000000339474,77001110505,mKarTel,mAltel,mAltel,,D01,2017-03-02T15:42:42+06:00,
1000000000339475,77005330158,mKarTel,mAltel,mAltel,,D01,2017-03-02T15:42:47+06:00,
1000000000339476,77052255442,mMTS,mKarTel,mKarTel,,D77,2017-03-02T15:43:10+06:00,
1000000000339477,77023758379,mKarTel,mKcell,mKcell,,D01,2017-03-02T15:43:33+06:00,
1000000000339478,77017992146,mMTS,mKcell,mKcell,,D77,2017-03-02T15:44:55+06:00,
1000000000339479,77472821888,mKarTel,mKcell,mMTS,D02,D01,2017-03-02T15:46:43+06:00,
1000000000339480,77071991666,mKcell,mMTS,mMTS,,D02,2017-03-02T15:47:24+06:00,
1000000000339481,77775111989,mKcell,mKarTel,mKarTel,,D02,2017-03-02T15:48:37+06:00,
1000000000339482,77023790232,mMTS,mKcell,mKcell,,D77,2017-03-02T15:48:18+06:00,
1000000000339483,77007747979,mKarTel,mAltel,mAltel,,D01,2017-03-02T15:49:15+06:00,
1000000000339484,77079951023,mKarTel,mMTS,mMTS,,D01,2017-03-02T15:49:45+06:00,
1000000000339485,77789426991,mAltel,mKarTel,mKcell,D01,D07,2017-03-02T15:50:38+06:00,
1000000000339486,77089230791,mKarTel,mAltel,mAltel,,D01,2017-03-02T15:50:35+06:00,
1000000000339487,77019060102,mAltel,mKcell,mKcell,,D07,2017-03-02T15:53:20+06:00,
1000000000339489,77026477756,mKarTel,mKcell,mKcell,,D01,2017-03-02T15:57:14+06:00,
1000000000339490,77784700047,mKcell,mAltel,mKcell,D07,D02,2017-03-02T15:57:47+06:00,
1000000000339491,77776763963,mMTS,mKarTel,mKarTel,,D77,2017-03-02T15:58:19+06:00,
1000000000339492,77756128870,mMTS,mKcell,mKcell,,D77,2017-03-02T15:59:00+06:00,
