NPId,Number,RecipientId,DonorId,RangeHolderId,OldRoute,NewRoute,PortDate,RowCount
1000000000390649,77771121959,mKarTel,mKcell,mKarTel,D02,D01,2017-05-27T11:30:51+06:00,36
1000000000390650,77771121958,mKarTel,mKcell,mKarTel,D02,D01,2017-05-27T11:31:45+06:00,
1000000000390651,77056665366,mMTS,mKarTel,mKarTel,,D77,2017-05-27T11:32:23+06:00,
1000000000390652,77771121953,mKarTel,mKcell,mKarTel,D02,D01,2017-05-27T11:32:47+06:00,
1000000000390653,77078933370,mKcell,mMTS,mMTS,,D02,2017-05-27T11:33:02+06:00,
1000000000390655,77013256454,mMTS,mKcell,mKcell,,D77,2017-05-27T11:34:30+06:00,
1000000000390656,77771121946,mKarTel,mKcell,mKarTel,D02,D01,2017-05-27T11:35:48+06:00,
1000000000390657,77751622173,mMTS,mKcell,mKcell,,D77,2017-05-27T11:35:42+06:00,
1000000000390658,77003984879,mKcell,mAltel,mAltel,,D02,2017-05-27T11:36:17+06:00,
1000000000390659,77076920920,mKarTel,mMTS,mMTS,,D01,2017-05-27T11:36:20+06:00,
1000000000390660,77771121943,mKarTel,mKcell,mKarTel,D02,D01,2017-05-27T11:37:22+06:00,
1000000000390662,77014917682,mMTS,mKcell,mKcell,,D77,2017-05-27T11:37:18+06:00,
1000000000390663,77771121941,mKarTel,mKcell,mKarTel,D02,D01,2017-05-27T11:38:51+06:00,
1000000000390664,77012135323,mMTS,mKcell,mKcell,,D77,2017-05-27T11:40:26+06:00,
1000000000390666,77055797758,mMTS,mKarTel,mKarTel,,D77,2017-05-27T11:41:16+06:00,
1000000000390667,77771121736,mKarTel,mKcell,mKarTel,D02,D01,2017-05-27T11:43:03+06:00,
1000000000390668,77015709370,mKarTel,mKcell,mKcell,,D01,2017-05-27T11:44:03+06:00,
1000000000390669,77771121734,mKarTel,mKcell,mKarTel,D02,D01,2017-05-27T11:44:20+06:00,
1000000000390670,77475866133,mAltel,mMTS,mMTS,,D07,2017-05-27T11:45:09+06:00,
1000000000390671,77771121733,mKarTel,mKcell,mKarTel,D02,D01,2017-05-27T11:45:32+06:00,
1000000000390672,77071815118,mAltel,mMTS,mMTS,,D07,2017-05-27T11:46:15+06:00,
1000000000390674,77771121699,mKarTel,mKcell,mKarTel,D02,D01,2017-05-27T11:48:30+06:00,
1000000000390675,77472558515,mMTS,mKarTel,mMTS,D01,D77,2017-05-27T11:49:18+06:00,
1000000000390676,77077310144,mKarTel,mMTS,mMTS,,D01,2017-05-27T11:49:19+06:00,
1000000000390677,77024500198,mMTS,mKcell,mKcell,,D77,2017-05-27T11:49:31+06:00,
1000000000390678,77758436234,mKcell,mKarTel,mKcell,D01,D02,2017-05-27T11:50:16+06:00,
1000000000390680,77076667735,mAltel,mMTS,mMTS,,D07,2017-05-27T11:50:05+06:00,
1000000000390681,77053053616,mMTS,mKarTel,mKarTel,,D77,2017-05-27T11:50:50+06:00,
1000000000390683,77025692332,mKarTel,mKcell,mKcell,,D01,2017-05-27T11:51:42+06:00,
1000000000390685,77785992029,mKarTel,mKcell,mKcell,,D01,2017-05-27T11:52:53+06:00,
1000000000390686,77475866144,mAltel,mMTS,mMTS,,D07,2017-05-27T11:53:13+06:00,
1000000000390687,77781741252,mMTS,mKcell,mKcell,,D77,2017-05-27T11:53:49+06:00,
1000000000390688,77770316469,mKarTel,mKcell,mKarTel,D02,D01,2017-05-27T11:54:19+06:00,
1000000000390689,77754017185,mMTS,mKarTel,mKcell,D01,D77,2017-05-27T11:55:34+06:00,
1000000000390690,77014777202,mAltel,mKcell,mKcell,,D07,2017-05-27T11:57:33+06:00,
1000000000390691,77015238730,mKarTel,mKcell,mKcell,,D01,2017-05-27T11:59:18+06:00,
