NPId,Number,RecipientId,DonorId,RangeHolderId,OldRoute,NewRoute,PortDate,RowCount
1000000000204379,77779351922,mMTS,mKarTel,mKarTel,,D77,2016-07-02T17:31:40+06:00,4
1000000000204383,77752157535,mMTS,mKcell,mKcell,,D77,2016-07-02T17:46:46+06:00,
1000000000204384,77771831223,mKarTel,mAltel,mKarTel,D07,D01,2016-07-02T17:52:06+06:00,
1000000000204385,77087737790,mMTS,mAltel,mAltel,,D77,2016-07-02T17:55:29+06:00,
