NPId,Number,RecipientId,DonorId,RangeHolderId,OldRoute,NewRoute,PortDate,RowCount
1000000000280408,77054642021,mKcell,mKarTel,mKarTel,,D02,2016-11-17T14:04:05+06:00,17
1000000000280409,77758685670,mMTS,mKcell,mKcell,,D77,2016-11-17T14:04:06+06:00,
1000000000280410,77767492724,mMTS,mKarTel,mKarTel,,D77,2016-11-17T14:02:11+06:00,
1000000000280411,77770666147,mKarTel,mMTS,mKarTel,D77,D01,2016-11-17T14:02:37+06:00,
1000000000280413,77017867551,mMTS,mKcell,mKcell,,D77,2016-11-17T14:04:01+06:00,
1000000000280415,77027777386,mKarTel,mKcell,mKcell,,D01,2016-11-17T14:07:22+06:00,
1000000000280416,77071515825,mKarTel,mMTS,mMTS,,D01,2016-11-17T14:11:26+06:00,
1000000000280417,77758797847,mMTS,mKcell,mKcell,,D77,2016-11-17T14:11:22+06:00,
1000000000280418,77754416501,mKarTel,mKcell,mKcell,,D01,2016-11-17T14:12:01+06:00,
1000000000280420,77477919620,mKcell,mMTS,mMTS,,D02,2016-11-17T14:13:55+06:00,
1000000000280421,77022548013,mAltel,mKcell,mKcell,,D07,2016-11-17T14:17:01+06:00,
1000000000280423,77779301313,mMTS,mKarTel,mKarTel,,D77,2016-11-17T14:22:53+06:00,
1000000000280424,77758790593,mMTS,mKcell,mKcell,,D77,2016-11-17T14:25:24+06:00,
1000000000280425,77778759777,mMTS,mKarTel,mKarTel,,D77,2016-11-17T14:26:19+06:00,
1000000000280426,77072224725,mAltel,mKcell,mMTS,D02,D07,2016-11-17T14:27:18+06:00,
1000000000280428,77763425101,mMTS,mKarTel,mKarTel,,D77,2016-11-17T14:28:34+06:00,
1000000000280429,77781003195,mMTS,mKcell,mKcell,D02,D77,2016-11-17T14:28:24+06:00,
