NPId,Number,RecipientId,DonorId,RangeHolderId,OldRoute,NewRoute,PortDate,RowCount
1000000000397548,77757787887,mKcell,mKarTel,mKcell,D01,D02,2017-06-05T13:32:22+06:00,32
1000000000397549,77073875006,mAltel,mMTS,mMTS,,D07,2017-06-05T13:31:44+06:00,
1000000000397550,77019992866,mKarTel,mKcell,mKcell,,D01,2017-06-05T13:32:18+06:00,
1000000000397551,77073639960,mKarTel,mMTS,mMTS,,D01,2017-06-05T13:32:12+06:00,
1000000000397552,77015230000,mKarTel,mKcell,mKcell,,D01,2017-06-05T13:33:21+06:00,
1000000000397554,77755602707,mKcell,mAltel,mKcell,D07,D02,2017-06-05T13:33:20+06:00,
1000000000397555,77781290881,mAltel,mKcell,mKcell,,D07,2017-06-05T13:34:45+06:00,
1000000000397556,77015290733,mKarTel,mKcell,mKcell,,D01,2017-06-05T13:36:47+06:00,
1000000000397558,77017055026,mMTS,mKcell,mKcell,,D77,2017-06-05T13:37:49+06:00,
1000000000397559,77019995904,mKarTel,mAltel,mKcell,D07,D01,2017-06-05T13:38:25+06:00,
1000000000397560,77017385477,mMTS,mKcell,mKcell,,D77,2017-06-05T13:38:39+06:00,
1000000000397561,77015214516,mKarTel,mKcell,mKcell,,D01,2017-06-05T13:42:19+06:00,
1000000000397562,77016664788,mMTS,mKcell,mKcell,,D77,2017-06-05T13:42:47+06:00,
1000000000397563,77754660919,mMTS,mKcell,mKcell,,D77,2017-06-05T13:42:52+06:00,
1000000000397564,77716666088,mKcell,mKarTel,mKarTel,,D02,2017-06-05T13:43:45+06:00,
1000000000397565,77015333577,mKarTel,mKcell,mKcell,,D01,2017-06-05T13:44:36+06:00,
1000000000397566,77071925840,mMTS,mKarTel,mMTS,D01,D77,2017-06-05T13:45:46+06:00,
1000000000397567,77765558505,mKcell,mMTS,mKarTel,D77,D02,2017-06-05T13:46:20+06:00,
1000000000397569,77777704005,mKcell,mKarTel,mKarTel,,D02,2017-06-05T13:47:32+06:00,
1000000000397570,77075130085,mMTS,mKarTel,mMTS,D01,D77,2017-06-05T13:48:11+06:00,
1000000000397572,77058874994,mKcell,mKarTel,mKarTel,,D02,2017-06-05T13:48:36+06:00,
1000000000397573,77717845181,mMTS,mKarTel,mKarTel,,D77,2017-06-05T13:48:31+06:00,
1000000000397574,77715463596,mKarTel,mMTS,mKarTel,D77,D01,2017-06-05T13:48:32+06:00,
1000000000397575,77017109395,mMTS,mKcell,mKcell,,D77,2017-06-05T13:48:53+06:00,
1000000000397578,77057001128,mAltel,mKarTel,mKarTel,,D07,2017-06-05T13:52:11+06:00,
1000000000397579,77017265601,mAltel,mKcell,mKcell,,D07,2017-06-05T13:53:27+06:00,
1000000000397582,77053301355,mMTS,mKarTel,mKarTel,,D77,2017-06-05T13:57:53+06:00,
1000000000397585,77015994467,mKarTel,mKcell,mKcell,,D01,2017-06-05T13:58:47+06:00,
1000000000397586,77007777705,mKarTel,mAltel,mAltel,,D01,2017-06-05T13:58:58+06:00,
1000000000397587,77071990115,mAltel,mMTS,mMTS,,D07,2017-06-05T13:58:43+06:00,
1000000000397588,77773731531,mKarTel,mAltel,mKarTel,D07,D01,2017-06-05T13:58:59+06:00,
1000000000397589,77752188877,mKarTel,mKcell,mKcell,,D01,2017-06-05T13:59:19+06:00,
