NPId,Number,RecipientId,DonorId,RangeHolderId,OldRoute,NewRoute,PortDate,RowCount
1000000000403423,77751110222,mKarTel,mKcell,mKcell,,D01,2017-06-14T19:02:47+06:00,13
1000000000403425,77012270150,mMTS,mKcell,mKcell,,D77,2017-06-14T19:03:01+06:00,
1000000000403427,77004215252,mMTS,mAltel,mAltel,,D77,2017-06-14T19:07:04+06:00,
1000000000403428,77473038385,mKarTel,mMTS,mMTS,,D01,2017-06-14T19:08:42+06:00,
1000000000403429,77779998872,mKcell,mAltel,mKarTel,D07,D02,2017-06-14T19:09:33+06:00,
1000000000403431,77087060504,mMTS,mAltel,mAltel,,D77,2017-06-14T19:13:47+06:00,
1000000000403432,77754083777,mMTS,mKcell,mKcell,,D77,2017-06-14T19:14:01+06:00,
1000000000403434,77007507575,mKcell,mAltel,mAltel,,D02,2017-06-14T19:18:49+06:00,
1000000000403435,77089990908,mKcell,mAltel,mAltel,,D02,2017-06-14T19:19:32+06:00,
1000000000403436,77072024006,mAltel,mMTS,mMTS,,D07,2017-06-14T19:19:39+06:00,
1000000000403437,77029242045,mKarTel,mKcell,mKcell,,D01,2017-06-14T19:21:18+06:00,
1000000000403438,77023070408,mKarTel,mKcell,mKcell,,D01,2017-06-14T19:24:15+06:00,
1000000000403439,77007771817,mKcell,mAltel,mAltel,,D02,2017-06-14T19:28:33+06:00,
