NPId,Number,RecipientId,DonorId,RangeHolderId,OldRoute,NewRoute,PortDate,RowCount
1000000000361366,77023506018,mAltel,mKcell,mKcell,,D07,2017-04-07T10:00:16+06:00,7
1000000000361371,77779884811,mKcell,mKarTel,mKarTel,,D02,2017-04-07T10:09:54+06:00,
1000000000361372,77029553481,mKarTel,mKcell,mKcell,D02,D01,2017-04-07T10:10:23+06:00,
1000000000361374,77754224521,mAltel,mKcell,mKcell,,D07,2017-04-07T10:16:15+06:00,
1000000000361376,77753830282,mMTS,mKcell,mKcell,,D77,2017-04-07T10:26:23+06:00,
1000000000361377,77017553937,mKarTel,mAltel,mKcell,D07,D01,2017-04-07T10:28:47+06:00,
1000000000361378,77075051391,mMTS,mKcell,mMTS,D02,D77,2017-04-07T10:28:53+06:00,
