NPId,Number,RecipientId,DonorId,RangeHolderId,OldRoute,NewRoute,PortDate,RowCount
1000000000308840,77072255777,mKarTel,mMTS,mMTS,,D01,2017-01-11T11:31:58+06:00,19
1000000000308841,77024760202,mKcell,mAltel,mKcell,D07,D02,2017-01-11T11:34:45+06:00,
1000000000308842,77012897272,mKcell,mMTS,mKcell,D77,D02,2017-01-11T11:35:12+06:00,
1000000000308843,77754786973,mMTS,mKcell,mKcell,,D77,2017-01-11T11:40:18+06:00,
1000000000308844,77015557339,mKarTel,mKcell,mKcell,,D01,2017-01-11T11:38:24+06:00,
1000000000308845,77475803326,mKcell,mMTS,mMTS,,D02,2017-01-11T11:43:16+06:00,
1000000000308846,77783668533,mKcell,mAltel,mKcell,D07,D02,2017-01-11T11:43:23+06:00,
1000000000308847,77767115577,mKcell,mAltel,mKarTel,D07,D02,2017-01-11T11:44:11+06:00,
1000000000308849,77052888581,mKcell,mKarTel,mKarTel,,D02,2017-01-11T11:48:55+06:00,
1000000000308850,77786360633,mKcell,mMTS,mKcell,D77,D02,2017-01-11T11:49:58+06:00,
1000000000308851,77761190237,mMTS,mKarTel,mKarTel,,D77,2017-01-11T11:48:56+06:00,
1000000000308852,77015712671,mKarTel,mKcell,mKcell,,D01,2017-01-11T11:53:12+06:00,
1000000000308853,77784325209,mKcell,mKarTel,mKcell,D01,D02,2017-01-11T11:53:27+06:00,
1000000000308854,77779953888,mAltel,mKarTel,mKarTel,,D07,2017-01-11T11:53:24+06:00,
1000000000308855,77088950508,mKarTel,mAltel,mAltel,,D01,2017-01-11T11:53:33+06:00,
1000000000308856,77019657151,mKarTel,mKcell,mKcell,D02,D01,2017-01-11T11:54:09+06:00,
1000000000308857,77027000286,mAltel,mKcell,mKcell,,D07,2017-01-11T11:55:21+06:00,
1000000000308858,77010860505,mMTS,mKcell,mKcell,,D77,2017-01-11T11:57:49+06:00,
1000000000308859,77072230505,mKarTel,mMTS,mMTS,,D01,2017-01-11T11:58:03+06:00,
