NPId,Number,RecipientId,DonorId,RangeHolderId,OldRoute,NewRoute,PortDate,RowCount
1000000000310155,77010258533,mKarTel,mKcell,mKcell,,D01,2017-01-13T17:13:03+06:00,23
1000000000310260,77029419464,mKcell,mMTS,mKcell,D77,D02,2017-01-13T17:00:25+06:00,
1000000000310261,77001237280,mKcell,mAltel,mAltel,,D02,2017-01-13T17:01:04+06:00,
1000000000310262,77085328784,mMTS,mAltel,mAltel,,D77,2017-01-13T17:00:54+06:00,
1000000000310263,77072945566,mKarTel,mMTS,mMTS,,D01,2017-01-13T17:03:40+06:00,
1000000000310264,77025647464,mAltel,mKcell,mKcell,,D07,2017-01-13T17:03:40+06:00,
1000000000310265,77780000717,mMTS,mKcell,mKcell,,D77,2017-01-13T17:03:44+06:00,
1000000000310267,77001451199,mKarTel,mAltel,mAltel,,D01,2017-01-13T17:04:38+06:00,
1000000000310268,77715597718,mKcell,mKarTel,mKarTel,,D02,2017-01-13T17:05:52+06:00,
1000000000310270,77786403140,mKcell,mMTS,mKcell,D77,D02,2017-01-13T17:06:04+06:00,
1000000000310271,77071700032,mMTS,mAltel,mMTS,D07,D77,2017-01-13T17:06:04+06:00,
1000000000310272,77081701616,mKcell,mAltel,mAltel,,D02,2017-01-13T17:07:11+06:00,
1000000000310274,77479660927,mAltel,mMTS,mMTS,,D07,2017-01-13T17:10:04+06:00,
1000000000310275,77755148725,mAltel,mKcell,mKcell,,D07,2017-01-13T17:12:04+06:00,
1000000000310276,77024156353,mAltel,mKcell,mKcell,,D07,2017-01-13T17:12:19+06:00,
1000000000310277,77783180781,mMTS,mKcell,mKcell,,D77,2017-01-13T17:15:49+06:00,
1000000000310278,77014888772,mAltel,mKcell,mKcell,,D07,2017-01-13T17:20:44+06:00,
1000000000310279,77012375454,mKarTel,mKcell,mKcell,,D01,2017-01-13T17:21:33+06:00,
1000000000310280,77004799820,mMTS,mAltel,mAltel,,D77,2017-01-13T17:22:46+06:00,
1000000000310281,77017100727,mKarTel,mKcell,mKcell,,D01,2017-01-13T17:23:44+06:00,
1000000000310282,77071450107,mKcell,mMTS,mMTS,,D02,2017-01-13T17:27:55+06:00,
1000000000310283,77772292961,mAltel,mKarTel,mKarTel,,D07,2017-01-13T17:28:53+06:00,
1000000000310285,77079589292,mAltel,mMTS,mMTS,D77,D07,2017-01-13T17:29:57+06:00,
