NPId,Number,RecipientId,DonorId,RangeHolderId,OldRoute,NewRoute,PortDate,RowCount
1000000000255359,77057175728,mMTS,mKarTel,mKarTel,,D77,2016-10-02T14:33:47+06:00,14
1000000000255361,77003050209,mMTS,mAltel,mAltel,,D77,2016-10-02T14:32:49+06:00,
1000000000255362,77014905859,mAltel,mKcell,mKcell,,D07,2016-10-02T14:33:10+06:00,
1000000000255363,77752291225,mMTS,mKcell,mKcell,,D77,2016-10-02T14:33:47+06:00,
1000000000255365,77019833399,mAltel,mKcell,mKcell,D02,D07,2016-10-02T14:37:18+06:00,
1000000000255366,77474634596,mMTS,mKarTel,mMTS,D01,D77,2016-10-02T14:40:42+06:00,
1000000000255367,77015137695,mAltel,mKcell,mKcell,,D07,2016-10-02T14:37:42+06:00,
1000000000255369,77766898999,mMTS,mKarTel,mKarTel,,D77,2016-10-02T14:43:19+06:00,
1000000000255370,77081233354,mMTS,mAltel,mAltel,,D77,2016-10-02T14:40:27+06:00,
1000000000255371,77054509952,mMTS,mKarTel,mKarTel,,D77,2016-10-02T14:46:00+06:00,
1000000000255372,77752159687,mMTS,mKcell,mKcell,,D77,2016-10-02T14:43:01+06:00,
1000000000255373,77773533663,mMTS,mKarTel,mKarTel,,D77,2016-10-02T14:51:14+06:00,
1000000000255374,77081471616,mMTS,mAltel,mAltel,,D77,2016-10-02T14:47:45+06:00,
1000000000255375,77003450707,mKarTel,mAltel,mAltel,,D01,2016-10-02T14:52:34+06:00,
