NPId,Number,RecipientId,DonorId,RangeHolderId,OldRoute,NewRoute,PortDate,RowCount
1000000000349144,77758881292,mAltel,mKcell,mKcell,,D07,2017-03-18T12:01:10+06:00,20
1000000000349145,77781660063,mMTS,mKcell,mKcell,,D77,2017-03-18T12:02:05+06:00,
1000000000349146,77077771461,mAltel,mMTS,mMTS,,D07,2017-03-18T12:02:28+06:00,
1000000000349147,77777044470,mAltel,mMTS,mKarTel,D77,D07,2017-03-18T12:02:41+06:00,
1000000000349150,77081999757,mMTS,mAltel,mAltel,,D77,2017-03-18T12:05:10+06:00,
1000000000349151,77006007070,mMTS,mAltel,mAltel,,D77,2017-03-18T12:06:20+06:00,
1000000000349153,77076263007,mAltel,mMTS,mMTS,,D07,2017-03-18T12:08:40+06:00,
1000000000349156,77026909999,mMTS,mKcell,mKcell,,D77,2017-03-18T12:10:38+06:00,
1000000000349158,77077228488,mKarTel,mMTS,mMTS,,D01,2017-03-18T12:16:10+06:00,
1000000000349159,77777958592,mKarTel,mMTS,mKarTel,D77,D01,2017-03-18T12:16:18+06:00,
1000000000349161,77076655357,mAltel,mMTS,mMTS,,D07,2017-03-18T12:17:06+06:00,
1000000000349162,77075333554,mKarTel,mMTS,mMTS,,D01,2017-03-18T12:18:51+06:00,
1000000000349163,77022171117,mAltel,mKcell,mKcell,,D07,2017-03-18T12:19:53+06:00,
1000000000349164,77783803830,mKarTel,mKcell,mKcell,D02,D01,2017-03-18T12:20:32+06:00,
1000000000349166,77087236704,mKarTel,mAltel,mAltel,,D01,2017-03-18T12:22:06+06:00,
1000000000349167,77015241187,mMTS,mKcell,mKcell,,D77,2017-03-18T12:23:32+06:00,
1000000000349169,77009990123,mKcell,mAltel,mAltel,,D02,2017-03-18T12:24:33+06:00,
1000000000349170,77051823177,mMTS,mAltel,mKarTel,D07,D77,2017-03-18T12:26:44+06:00,
1000000000349171,77777678787,mMTS,mKcell,mKarTel,D02,D77,2017-03-18T12:26:59+06:00,
1000000000349172,77072329096,mAltel,mMTS,mMTS,,D07,2017-03-18T12:27:32+06:00,
