NPId,Number,RecipientId,DonorId,RangeHolderId,OldRoute,NewRoute,PortDate,RowCount
1000000000235871,77770000411,mMTS,mKarTel,mKarTel,,D77,2016-08-29T14:45:13+06:00,22
1000000000235875,77056572775,mAltel,mKarTel,mKarTel,,D07,2016-08-29T14:33:17+06:00,
1000000000235876,77475232717,mMTS,mKcell,mMTS,D02,D77,2016-08-29T14:33:41+06:00,
1000000000235877,77017547635,mMTS,mKcell,mKcell,,D77,2016-08-29T14:34:18+06:00,
1000000000235878,77014144927,mMTS,mKcell,mKcell,,D77,2016-08-29T14:35:03+06:00,
1000000000235879,77782455359,mMTS,mKcell,mKcell,,D77,2016-08-29T14:37:29+06:00,
1000000000235880,77017544492,mMTS,mKcell,mKcell,,D77,2016-08-29T14:38:58+06:00,
1000000000235881,77776277627,mAltel,mKarTel,mKarTel,,D07,2016-08-29T14:41:21+06:00,
1000000000235882,77772211514,mMTS,mKarTel,mKarTel,,D77,2016-08-29T14:41:21+06:00,
1000000000235884,77786254033,mMTS,mKcell,mKcell,,D77,2016-08-29T14:42:25+06:00,
1000000000235885,77024331316,mKarTel,mKcell,mKcell,,D01,2016-08-29T14:44:33+06:00,
1000000000235888,77754983056,mMTS,mKcell,mKcell,,D77,2016-08-29T14:46:39+06:00,
1000000000235889,77004737888,mMTS,mAltel,mAltel,,D77,2016-08-29T14:46:37+06:00,
1000000000235890,77781418736,mMTS,mKcell,mKcell,,D77,2016-08-29T14:47:28+06:00,
1000000000235894,77789106908,mKarTel,mKcell,mKcell,,D01,2016-08-29T14:54:56+06:00,
1000000000235895,77787120737,mMTS,mKcell,mKcell,,D77,2016-08-29T14:54:21+06:00,
1000000000235896,77471470408,mKcell,mMTS,mMTS,,D02,2016-08-29T14:54:25+06:00,
1000000000235898,77786078537,mKarTel,mKcell,mKcell,,D01,2016-08-29T14:55:38+06:00,
1000000000235899,77001110008,mKcell,mAltel,mAltel,,D02,2016-08-29T14:55:34+06:00,
1000000000235900,77014673113,mMTS,mKcell,mKcell,,D77,2016-08-29T14:55:43+06:00,
1000000000235902,77017401910,mMTS,mKcell,mKcell,,D77,2016-08-29T14:57:22+06:00,
1000000000235905,77013560239,mMTS,mKcell,mKcell,,D77,2016-08-29T14:58:37+06:00,
