NPId,Number,RecipientId,DonorId,RangeHolderId,OldRoute,NewRoute,PortDate,RowCount
1000000000241611,77719903418,mKcell,mKarTel,mKarTel,,D02,2016-09-07T12:02:16+06:00,41
1000000000241629,77017770823,mMTS,mKcell,mKcell,,D77,2016-09-07T12:00:11+06:00,
1000000000241630,77086233165,mMTS,mAltel,mAltel,,D77,2016-09-07T12:00:41+06:00,
1000000000241631,77777703000,mAltel,mKarTel,mKarTel,,D07,2016-09-07T12:01:54+06:00,
1000000000241632,77071065514,mAltel,mMTS,mMTS,,D07,2016-09-07T12:02:15+06:00,
1000000000241634,77783030035,mKarTel,mMTS,mKcell,D77,D01,2016-09-07T12:03:28+06:00,
1000000000241635,77015332238,mKarTel,mKcell,mKcell,,D01,2016-09-07T12:04:37+06:00,
1000000000241638,77777772476,mKcell,mMTS,mKarTel,D77,D02,2016-09-07T12:05:48+06:00,
1000000000241639,77013818088,mAltel,mKcell,mKcell,,D07,2016-09-07T12:05:50+06:00,
1000000000241640,77015547807,mMTS,mKcell,mKcell,,D77,2016-09-07T12:06:24+06:00,
1000000000241641,77017105983,mMTS,mKcell,mKcell,,D77,2016-09-07T12:07:08+06:00,
1000000000241643,77777657579,mMTS,mKarTel,mKarTel,,D77,2016-09-07T12:09:08+06:00,
1000000000241644,77025319966,mKarTel,mKcell,mKcell,,D01,2016-09-07T12:09:20+06:00,
1000000000241645,77002181100,mMTS,mAltel,mAltel,,D77,2016-09-07T12:09:03+06:00,
1000000000241646,77770022212,mKarTel,mKcell,mKarTel,D02,D01,2016-09-07T12:10:29+06:00,
1000000000241647,77753919027,mKcell,mMTS,mKcell,D77,D02,2016-09-07T12:10:53+06:00,
1000000000241648,77015305187,mKarTel,mKcell,mKcell,,D01,2016-09-07T12:11:38+06:00,
1000000000241650,77011025610,mMTS,mKcell,mKcell,,D77,2016-09-07T12:11:27+06:00,
1000000000241651,77058204647,mMTS,mKarTel,mKarTel,,D77,2016-09-07T12:14:37+06:00,
1000000000241652,77012507773,mKarTel,mKcell,mKcell,,D01,2016-09-07T12:14:38+06:00,
1000000000241653,77753919026,mKcell,mMTS,mKcell,D77,D02,2016-09-07T12:14:22+06:00,
1000000000241654,77074440111,mMTS,mAltel,mMTS,D07,D77,2016-09-07T12:14:52+06:00,
1000000000241655,77019782823,mAltel,mKcell,mKcell,,D07,2016-09-07T12:15:56+06:00,
1000000000241657,77479161213,mKcell,mMTS,mMTS,,D02,2016-09-07T12:16:30+06:00,
1000000000241658,77758375573,mKarTel,mKcell,mKcell,,D01,2016-09-07T12:17:28+06:00,
1000000000241659,77025895555,mKcell,mAltel,mKcell,D07,D02,2016-09-07T12:17:27+06:00,
1000000000241660,77001420334,mMTS,mAltel,mAltel,,D77,2016-09-07T12:17:24+06:00,
1000000000241662,77015286412,mKarTel,mKcell,mKcell,,D01,2016-09-07T12:20:59+06:00,
1000000000241664,77003303313,mKarTel,mAltel,mAltel,,D01,2016-09-07T12:21:25+06:00,
1000000000241665,77057959122,mKcell,mKarTel,mKarTel,,D02,2016-09-07T12:22:00+06:00,
1000000000241666,77023364440,mKcell,mMTS,mKcell,D77,D02,2016-09-07T12:22:31+06:00,
1000000000241667,77089999871,mKcell,mAltel,mAltel,,D02,2016-09-07T12:22:22+06:00,
1000000000241668,77016451693,mMTS,mKcell,mKcell,,D77,2016-09-07T12:22:33+06:00,
1000000000241669,77079705137,mAltel,mMTS,mMTS,,D07,2016-09-07T12:22:52+06:00,
1000000000241670,77004040103,mKcell,mAltel,mAltel,,D02,2016-09-07T12:24:32+06:00,
1000000000241671,77784753891,mMTS,mKcell,mKcell,,D77,2016-09-07T12:24:31+06:00,
1000000000241672,77777677744,mKarTel,mMTS,mKarTel,D77,D01,2016-09-07T12:25:25+06:00,
1000000000241673,77754933349,mMTS,mKcell,mKcell,,D77,2016-09-07T12:25:59+06:00,
1000000000241674,77023742607,mMTS,mKcell,mKcell,,D77,2016-09-07T12:27:27+06:00,
1000000000241675,77017489183,mKarTel,mKcell,mKcell,,D01,2016-09-07T12:27:50+06:00,
1000000000241676,77077580838,mAltel,mMTS,mMTS,,D07,2016-09-07T12:28:46+06:00,
