NPId,Number,RecipientId,DonorId,RangeHolderId,OldRoute,NewRoute,PortDate,RowCount
1000000000126388,77711222289,mKcell,mKarTel,mKarTel,,D02,2016-03-15T20:40:49+06:00,2
1000000000126389,77011683344,mKarTel,mKcell,mKcell,,D01,2016-03-15T20:43:58+06:00,
