NPId,Number,RecipientId,DonorId,RangeHolderId,OldRoute,NewRoute,PortDate,RowCount
1000000000212764,77056538040,mMTS,mKarTel,mKarTel,,D77,2016-07-17T17:34:45+06:00,11
1000000000212765,77770401369,mMTS,mKarTel,mKarTel,,D77,2016-07-17T17:35:40+06:00,
1000000000212766,77777017101,mMTS,mKarTel,mKarTel,,D77,2016-07-17T17:40:16+06:00,
1000000000212768,77054446444,mKarTel,mAltel,mKarTel,D07,D01,2016-07-17T17:41:48+06:00,
1000000000212769,77053865582,mMTS,mKarTel,mKarTel,,D77,2016-07-17T17:42:24+06:00,
1000000000212770,77012148899,mMTS,mKcell,mKcell,,D77,2016-07-17T17:55:56+06:00,
1000000000212771,77021157108,mKarTel,mKcell,mKcell,,D01,2016-07-17T17:56:30+06:00,
1000000000212772,77057404296,mKarTel,mAltel,mKarTel,D07,D01,2016-07-17T17:48:37+06:00,
1000000000212773,77773293572,mMTS,mKarTel,mKarTel,,D77,2016-07-17T17:56:09+06:00,
1000000000212774,77714077741,mKarTel,mAltel,mKarTel,D07,D01,2016-07-17T17:55:50+06:00,
1000000000212775,77775588885,mAltel,mKarTel,mKarTel,,D07,2016-07-17T17:57:35+06:00,
