NPId,Number,RecipientId,DonorId,RangeHolderId,OldRoute,NewRoute,PortDate,RowCount
1000000000391294,77085080256,mMTS,mAltel,mAltel,,D77,2017-05-28T14:33:05+06:00,9
1000000000391296,77083090143,mMTS,mAltel,mAltel,,D77,2017-05-28T14:37:43+06:00,
1000000000391297,77078097079,mKarTel,mMTS,mMTS,,D01,2017-05-28T14:40:47+06:00,
1000000000391298,77053077747,mAltel,mKarTel,mKarTel,,D07,2017-05-28T14:41:45+06:00,
1000000000391300,77475745859,mAltel,mMTS,mMTS,,D07,2017-05-28T14:44:47+06:00,
1000000000391302,77051800015,mMTS,mKarTel,mKarTel,,D77,2017-05-28T14:48:07+06:00,
1000000000391304,77022755557,mMTS,mKarTel,mKcell,D01,D77,2017-05-28T14:52:46+06:00,
1000000000391305,77083030999,mKcell,mMTS,mAltel,D77,D02,2017-05-28T14:56:11+06:00,
1000000000391306,77019965434,mMTS,mKcell,mKcell,,D77,2017-05-28T14:58:22+06:00,
