NPId,Number,RecipientId,DonorId,RangeHolderId,OldRoute,NewRoute,PortDate,RowCount
1000000000247124,77779024601,mMTS,mKarTel,mKarTel,,D77,2016-09-17T15:01:08+06:00,23
1000000000247125,77774611309,mMTS,mKarTel,mKarTel,,D77,2016-09-17T15:06:25+06:00,
1000000000247126,77007777713,mKcell,mAltel,mAltel,,D02,2016-09-17T15:01:11+06:00,
1000000000247127,77773888471,mKcell,mKarTel,mKarTel,,D02,2016-09-17T15:08:28+06:00,
1000000000247128,77003001070,mKcell,mAltel,mAltel,,D02,2016-09-17T15:05:10+06:00,
1000000000247129,77713767621,mMTS,mKarTel,mKarTel,,D77,2016-09-17T15:08:08+06:00,
1000000000247130,77075352310,mKcell,mMTS,mMTS,,D02,2016-09-17T15:06:26+06:00,
1000000000247131,77024898666,mKarTel,mMTS,mKcell,D77,D01,2016-09-17T15:07:15+06:00,
1000000000247132,77077440434,mAltel,mMTS,mMTS,,D07,2016-09-17T15:06:40+06:00,
1000000000247133,77003905926,mMTS,mAltel,mAltel,,D77,2016-09-17T15:06:59+06:00,
1000000000247135,77476255551,mMTS,mKcell,mMTS,D02,D77,2016-09-17T15:07:29+06:00,
1000000000247136,77071517570,mKarTel,mMTS,mMTS,,D01,2016-09-17T15:08:57+06:00,
1000000000247137,77712115794,mMTS,mKarTel,mKarTel,,D77,2016-09-17T15:12:18+06:00,
1000000000247141,77778894912,mAltel,mKarTel,mKarTel,,D07,2016-09-17T15:17:15+06:00,
1000000000247144,77018177163,mKcell,mAltel,mKcell,D07,D02,2016-09-17T15:19:36+06:00,
1000000000247145,77019098807,mKarTel,mKcell,mKcell,,D01,2016-09-17T15:21:00+06:00,
1000000000247146,77076699620,mKcell,mMTS,mMTS,,D02,2016-09-17T15:20:19+06:00,
1000000000247149,77754354088,mMTS,mKcell,mKcell,,D77,2016-09-17T15:22:32+06:00,
1000000000247150,77054553087,mAltel,mKarTel,mKarTel,,D07,2016-09-17T15:25:16+06:00,
1000000000247151,77054474931,mMTS,mAltel,mKarTel,D07,D77,2016-09-17T15:23:10+06:00,
1000000000247153,77476983150,mKcell,mMTS,mMTS,,D02,2016-09-17T15:23:46+06:00,
1000000000247154,77071212156,mKarTel,mMTS,mMTS,,D01,2016-09-17T15:25:14+06:00,
1000000000247155,77027777357,mKarTel,mKcell,mKcell,,D01,2016-09-17T15:26:07+06:00,
