NPId,Number,RecipientId,DonorId,RangeHolderId,OldRoute,NewRoute,PortDate,RowCount
1000000000098176,77712408806,mKcell,mKarTel,mKarTel,,D02,2016-02-24T15:31:55+06:00,37
1000000000098178,77078208509,mKarTel,mMTS,mMTS,,D01,2016-02-24T15:34:53+06:00,
1000000000098179,77053155557,mAltel,mKarTel,mKarTel,,D07,2016-02-24T15:35:41+06:00,
1000000000098180,77019508299,mMTS,mKcell,mKcell,,D77,2016-02-24T15:37:07+06:00,
1000000000098181,77076694095,mKarTel,mMTS,mMTS,,D01,2016-02-24T15:39:00+06:00,
1000000000098184,77771056676,mKcell,mKarTel,mKarTel,,D02,2016-02-24T15:40:48+06:00,
1000000000098185,77022240681,mKarTel,mKcell,mKcell,,D01,2016-02-24T15:40:44+06:00,
1000000000098186,77012045835,mAltel,mKcell,mKcell,,D07,2016-02-24T15:42:16+06:00,
1000000000098187,77015771073,mKarTel,mKcell,mKcell,,D01,2016-02-24T15:42:42+06:00,
1000000000098187,77017400652,mKarTel,mKcell,mKcell,,D01,2016-02-24T15:42:42+06:00,
1000000000098187,77017400654,mKarTel,mKcell,mKcell,,D01,2016-02-24T15:42:42+06:00,
1000000000098187,77019538397,mKarTel,mKcell,mKcell,,D01,2016-02-24T15:42:42+06:00,
1000000000098188,77783180200,mKarTel,mKcell,mKcell,,D01,2016-02-24T15:42:39+06:00,
1000000000098190,77017995257,mKarTel,mKcell,mKcell,,D01,2016-02-24T15:50:37+06:00,
1000000000098191,77058300858,mMTS,mKarTel,mKarTel,,D77,2016-02-24T15:43:28+06:00,
1000000000098192,77712408817,mKcell,mKarTel,mKarTel,,D02,2016-02-24T15:44:02+06:00,
1000000000098194,77017786897,mAltel,mKcell,mKcell,,D07,2016-02-24T15:44:41+06:00,
1000000000098198,77028641757,mMTS,mKcell,mKcell,,D77,2016-02-24T15:45:41+06:00,
1000000000098199,77011686791,mMTS,mKcell,mKcell,,D77,2016-02-24T15:46:15+06:00,
1000000000098202,77053299345,mMTS,mKarTel,mKarTel,,D77,2016-02-24T15:48:22+06:00,
1000000000098203,77017588272,mKarTel,mKcell,mKcell,,D01,2016-02-24T15:48:50+06:00,
1000000000098204,77752723840,mKarTel,mKcell,mKcell,,D01,2016-02-24T15:48:53+06:00,
1000000000098205,77007000580,mKarTel,mAltel,mAltel,,D01,2016-02-24T15:48:38+06:00,
1000000000098206,77771387541,mKcell,mKarTel,mKarTel,,D02,2016-02-24T15:49:23+06:00,
1000000000098207,77774871900,mAltel,mKarTel,mKarTel,,D07,2016-02-24T15:49:43+06:00,
1000000000098209,77007157878,mMTS,mAltel,mAltel,,D77,2016-02-24T15:50:41+06:00,
1000000000098210,77017110080,mAltel,mKcell,mKcell,,D07,2016-02-24T15:51:07+06:00,
1000000000098211,77086338453,mMTS,mAltel,mAltel,,D77,2016-02-24T15:51:48+06:00,
1000000000098212,77011660681,mMTS,mKcell,mKcell,,D77,2016-02-24T15:54:03+06:00,
1000000000098213,77711118800,mAltel,mKarTel,mKarTel,,D07,2016-02-24T15:54:53+06:00,
1000000000098215,77755535900,mMTS,mKcell,mKcell,,D77,2016-02-24T15:55:17+06:00,
1000000000098216,77053204153,mMTS,mKarTel,mKarTel,,D77,2016-02-24T15:55:33+06:00,
1000000000098217,77712408818,mKcell,mKarTel,mKarTel,,D02,2016-02-24T15:56:57+06:00,
1000000000098218,77079953270,mAltel,mMTS,mMTS,,D07,2016-02-24T15:56:33+06:00,
1000000000098221,77015185673,mMTS,mKcell,mKcell,,D77,2016-02-24T15:57:25+06:00,
1000000000098222,77082225783,mKcell,mAltel,mAltel,,D02,2016-02-24T15:58:04+06:00,
1000000000098224,77017177773,mKarTel,mKcell,mKcell,,D01,2016-02-24T15:59:42+06:00,
