NPId,Number,RecipientId,DonorId,RangeHolderId,OldRoute,NewRoute,PortDate,RowCount
1000000000277178,77020009920,mAltel,mKcell,mKcell,,D07,2016-11-10T13:32:43+06:00,13
1000000000277182,77781277770,mMTS,mKcell,mKcell,,D77,2016-11-10T13:39:20+06:00,
1000000000277183,77475427292,mKcell,mMTS,mMTS,,D02,2016-11-10T13:45:13+06:00,
1000000000277184,77073854952,mKcell,mMTS,mMTS,,D02,2016-11-10T13:47:26+06:00,
1000000000277186,77051100008,mMTS,mKcell,mKarTel,D02,D77,2016-11-10T13:48:39+06:00,
1000000000277187,77756018048,mAltel,mKcell,mKcell,,D07,2016-11-10T13:51:31+06:00,
1000000000277189,77713162102,mMTS,mKarTel,mKarTel,,D77,2016-11-10T13:52:26+06:00,
1000000000277190,77789302525,mAltel,mKcell,mKcell,,D07,2016-11-10T13:52:36+06:00,
1000000000277191,77025011010,mKarTel,mKcell,mKcell,,D01,2016-11-10T13:53:45+06:00,
1000000000277192,77011401234,mMTS,mKcell,mKcell,D02,D77,2016-11-10T13:55:53+06:00,
1000000000277193,77021337978,mMTS,mKcell,mKcell,,D77,2016-11-10T13:58:23+06:00,
1000000000277194,77086800064,mKarTel,mAltel,mAltel,,D01,2016-11-10T13:58:45+06:00,
1000000000277195,77022420484,mMTS,mKcell,mKcell,,D77,2016-11-10T13:58:55+06:00,
