NPId,Number,RecipientId,DonorId,RangeHolderId,OldRoute,NewRoute,PortDate,RowCount
1000000000187208,77010526659,mAltel,mKcell,mKcell,,D07,2016-06-03T16:53:04+06:00,24
1000000000187341,77772349061,mKcell,mKarTel,mKarTel,,D02,2016-06-03T16:30:32+06:00,
1000000000187344,77771197816,mKcell,mKarTel,mKarTel,,D02,2016-06-03T16:30:32+06:00,
1000000000187348,77782148500,mKcell,mMTS,mKcell,D77,D02,2016-06-03T16:36:22+06:00,
1000000000187349,77081781441,mMTS,mAltel,mAltel,,D77,2016-06-03T16:35:12+06:00,
1000000000187350,77071016644,mKarTel,mMTS,mMTS,,D01,2016-06-03T16:35:55+06:00,
1000000000187351,77027354680,mMTS,mKcell,mKcell,,D77,2016-06-03T16:39:20+06:00,
1000000000187352,77052323906,mMTS,mKarTel,mKarTel,,D77,2016-06-03T16:36:45+06:00,
1000000000187353,77785901802,mMTS,mKcell,mKcell,,D77,2016-06-03T16:39:57+06:00,
1000000000187355,77051568937,mMTS,mKarTel,mKarTel,,D77,2016-06-03T16:37:26+06:00,
1000000000187357,77071684009,mMTS,mAltel,mMTS,D07,D77,2016-06-03T16:40:07+06:00,
1000000000187358,77018388046,mAltel,mKcell,mKcell,,D07,2016-06-03T16:41:12+06:00,
1000000000187359,77777778775,mKcell,mMTS,mKarTel,D77,D02,2016-06-03T16:41:37+06:00,
1000000000187360,77012489696,mMTS,mKcell,mKcell,,D77,2016-06-03T16:46:32+06:00,
1000000000187361,77786949893,mMTS,mKcell,mKcell,,D77,2016-06-03T16:46:32+06:00,
1000000000187362,77071518586,mKcell,mMTS,mMTS,,D02,2016-06-03T16:49:54+06:00,
1000000000187363,77018081119,mMTS,mAltel,mKcell,D07,D77,2016-06-03T16:48:55+06:00,
1000000000187364,77011795525,mMTS,mKcell,mKcell,,D77,2016-06-03T16:49:58+06:00,
1000000000187367,77015116346,mKarTel,mKcell,mKcell,,D01,2016-06-03T16:59:07+06:00,
1000000000187370,77015055004,mMTS,mKcell,mKcell,,D77,2016-06-03T16:54:38+06:00,
1000000000187371,77078010309,mMTS,mKcell,mMTS,D02,D77,2016-06-03T16:54:39+06:00,
1000000000187374,77089068789,mKarTel,mAltel,mAltel,,D01,2016-06-03T16:57:09+06:00,
1000000000187376,77018261293,mMTS,mKcell,mKcell,,D77,2016-06-03T16:57:27+06:00,
1000000000187377,77782228880,mAltel,mKcell,mKcell,,D07,2016-06-03T16:58:16+06:00,
