NPId,Number,RecipientId,DonorId,RangeHolderId,OldRoute,NewRoute,PortDate,RowCount
1000000000366587,77003372937,mMTS,mAltel,mAltel,,D77,2017-04-16T13:00:16+06:00,17
1000000000366588,77786632143,mMTS,mKcell,mKcell,,D77,2017-04-16T13:02:53+06:00,
1000000000366590,77014131202,mMTS,mKcell,mKcell,,D77,2017-04-16T13:06:29+06:00,
1000000000366591,77786669071,mMTS,mKcell,mKcell,,D77,2017-04-16T13:07:18+06:00,
1000000000366592,77783215501,mAltel,mKcell,mKcell,,D07,2017-04-16T13:08:29+06:00,
1000000000366593,77786634076,mMTS,mKcell,mKcell,,D77,2017-04-16T13:12:55+06:00,
1000000000366594,77004131202,mMTS,mAltel,mAltel,,D77,2017-04-16T13:13:19+06:00,
1000000000366595,77077446600,mAltel,mMTS,mMTS,,D07,2017-04-16T13:17:08+06:00,
1000000000366596,77011833390,mMTS,mKcell,mKcell,,D77,2017-04-16T13:17:34+06:00,
1000000000366597,77476032060,mAltel,mMTS,mMTS,,D07,2017-04-16T13:18:05+06:00,
1000000000366598,77015113854,mMTS,mKcell,mKcell,,D77,2017-04-16T13:21:34+06:00,
1000000000366599,77003030490,mMTS,mAltel,mAltel,,D77,2017-04-16T13:21:42+06:00,
1000000000366600,77714626705,mAltel,mKarTel,mKarTel,,D07,2017-04-16T13:22:11+06:00,
1000000000366601,77718282281,mAltel,mKarTel,mKarTel,,D07,2017-04-16T13:22:59+06:00,
1000000000366602,77786632147,mMTS,mKcell,mKcell,,D77,2017-04-16T13:22:54+06:00,
1000000000366603,77077140846,mAltel,mMTS,mMTS,,D07,2017-04-16T13:24:49+06:00,
1000000000366604,77788002828,mKarTel,mKcell,mKcell,,D01,2017-04-16T13:28:21+06:00,
