NPId,Number,RecipientId,DonorId,RangeHolderId,OldRoute,NewRoute,PortDate,RowCount
1000000000288183,77017481163,mKcell,mMTS,mKcell,D77,D02,2016-12-05T11:42:29+06:00,20
1000000000289880,77072345699,mMTS,mAltel,mMTS,D07,D77,2016-12-05T11:30:44+06:00,
1000000000289881,77779993965,mKcell,mKarTel,mKarTel,,D02,2016-12-05T11:35:16+06:00,
1000000000289882,77021006749,mMTS,mKcell,mKcell,,D77,2016-12-05T11:33:06+06:00,
1000000000289888,77017688668,mAltel,mKcell,mKcell,,D07,2016-12-05T11:41:21+06:00,
1000000000289890,77025001515,mKcell,mMTS,mKcell,D77,D02,2016-12-05T11:42:07+06:00,
1000000000289893,77085321979,mMTS,mAltel,mAltel,,D77,2016-12-05T11:45:06+06:00,
1000000000289895,77479207017,mKcell,mMTS,mMTS,,D02,2016-12-05T11:45:28+06:00,
1000000000289898,77052175476,mKarTel,mAltel,mKarTel,D07,D01,2016-12-05T11:48:47+06:00,
1000000000289900,77053379009,mKcell,mKarTel,mKarTel,,D02,2016-12-05T11:52:18+06:00,
1000000000289901,77056868426,mKarTel,mMTS,mKarTel,D77,D01,2016-12-05T11:52:34+06:00,
1000000000289902,77014561008,mMTS,mKcell,mKcell,,D77,2016-12-05T11:53:26+06:00,
1000000000289903,77025899428,mMTS,mKcell,mKcell,,D77,2016-12-05T11:53:43+06:00,
1000000000289904,77072500495,mKarTel,mMTS,mMTS,,D01,2016-12-05T11:54:43+06:00,
1000000000289905,77776823563,mMTS,mKarTel,mKarTel,,D77,2016-12-05T11:56:28+06:00,
1000000000289906,77088078800,mKcell,mAltel,mAltel,,D02,2016-12-05T11:56:22+06:00,
1000000000289907,77775066004,mKarTel,mMTS,mKarTel,D77,D01,2016-12-05T11:56:52+06:00,
1000000000289908,77476741164,mKarTel,mMTS,mMTS,,D01,2016-12-05T11:57:29+06:00,
1000000000289909,77087080305,mMTS,mKarTel,mAltel,D01,D77,2016-12-05T11:59:06+06:00,
1000000000289910,77057064634,mKarTel,mMTS,mKarTel,D77,D01,2016-12-05T11:59:15+06:00,
