NPId,Number,RecipientId,DonorId,RangeHolderId,OldRoute,NewRoute,PortDate,RowCount
1000000000438017,77074777334,mKarTel,mMTS,mMTS,,D01,2017-08-10T17:00:40+06:00,29
1000000000438018,77073625284,mAltel,mMTS,mMTS,,D07,2017-08-10T17:01:03+06:00,
1000000000438020,77774068502,mKcell,mKarTel,mKarTel,,D02,2017-08-10T17:02:36+06:00,
1000000000438022,77016089496,mKcell,mMTS,mKcell,D77,D02,2017-08-10T17:02:40+06:00,
1000000000438023,77785979997,mMTS,mKcell,mKcell,,D77,2017-08-10T17:05:09+06:00,
1000000000438026,77471963114,mAltel,mMTS,mMTS,,D07,2017-08-10T17:08:22+06:00,
1000000000438028,77760000706,mMTS,mKarTel,mKarTel,,D77,2017-08-10T17:09:10+06:00,
1000000000438029,77055418305,mKcell,mKarTel,mKarTel,,D02,2017-08-10T17:09:36+06:00,
1000000000438031,77072300138,mKcell,mMTS,mMTS,,D02,2017-08-10T17:09:43+06:00,
1000000000438032,77074607686,mKarTel,mMTS,mMTS,,D01,2017-08-10T17:10:59+06:00,
1000000000438033,77054421616,mKarTel,mMTS,mKarTel,D77,D01,2017-08-10T17:13:41+06:00,
1000000000438034,77082603346,mKarTel,mAltel,mAltel,,D01,2017-08-10T17:14:01+06:00,
1000000000438035,77051717806,mKarTel,mMTS,mKarTel,D77,D01,2017-08-10T17:14:07+06:00,
1000000000438036,77081181988,mMTS,mAltel,mAltel,D07,D77,2017-08-10T17:14:08+06:00,
1000000000438038,77007593387,mAltel,mMTS,mAltel,D77,D07,2017-08-10T17:14:20+06:00,
1000000000438039,77073401034,mKarTel,mMTS,mMTS,,D01,2017-08-10T17:14:46+06:00,
1000000000438041,77769539993,mKcell,mKarTel,mKarTel,,D02,2017-08-10T17:16:27+06:00,
1000000000438042,77052617601,mKarTel,mAltel,mKarTel,D07,D01,2017-08-10T17:16:41+06:00,
1000000000438043,77752656803,mMTS,mKcell,mKcell,,D77,2017-08-10T17:17:34+06:00,
1000000000438044,77784880901,mAltel,mKcell,mKcell,,D07,2017-08-10T17:19:44+06:00,
1000000000438045,77052561547,mMTS,mKarTel,mKarTel,,D77,2017-08-10T17:19:58+06:00,
1000000000438046,77473388857,mKarTel,mMTS,mMTS,,D01,2017-08-10T17:20:15+06:00,
1000000000438047,77021311569,mKarTel,mKcell,mKcell,,D01,2017-08-10T17:20:40+06:00,
1000000000438049,77767777603,mKcell,mKarTel,mKarTel,,D02,2017-08-10T17:24:34+06:00,
1000000000438050,77017992085,mKarTel,mKcell,mKcell,,D01,2017-08-10T17:24:59+06:00,
1000000000438051,77076000036,mKarTel,mMTS,mMTS,,D01,2017-08-10T17:25:24+06:00,
1000000000438052,77472390270,mKarTel,mMTS,mMTS,,D01,2017-08-10T17:25:29+06:00,
1000000000438053,77017087149,mKcell,mAltel,mKcell,D07,D02,2017-08-10T17:25:47+06:00,
1000000000438055,77753326151,mKarTel,mKcell,mKcell,,D01,2017-08-10T17:28:12+06:00,
