NPId,Number,RecipientId,DonorId,RangeHolderId,OldRoute,NewRoute,PortDate,RowCount
1000000000414803,77072469126,mAltel,mMTS,mMTS,,D07,2017-07-02T15:01:30+06:00,11
1000000000414804,77774717750,mKarTel,mAltel,mKarTel,D07,D01,2017-07-02T15:06:17+06:00,
1000000000414806,77772066444,mMTS,mKarTel,mKarTel,,D77,2017-07-02T15:06:47+06:00,
1000000000414807,77778182930,mMTS,mKarTel,mKarTel,,D77,2017-07-02T15:06:49+06:00,
1000000000414808,77013711199,mMTS,mKcell,mKcell,,D77,2017-07-02T15:06:59+06:00,
1000000000414811,77011257765,mMTS,mKcell,mKcell,,D77,2017-07-02T15:11:10+06:00,
1000000000414812,77051614269,mMTS,mKarTel,mKarTel,,D77,2017-07-02T15:12:25+06:00,
1000000000414814,77019143990,mMTS,mKcell,mKcell,,D77,2017-07-02T15:16:55+06:00,
1000000000414815,77074356037,mKcell,mMTS,mMTS,,D02,2017-07-02T15:24:45+06:00,
1000000000414816,77071026077,mMTS,mAltel,mMTS,D07,D77,2017-07-02T15:25:00+06:00,
1000000000414817,77015755775,mAltel,mKcell,mKcell,,D07,2017-07-02T15:28:56+06:00,
