NPId,Number,RecipientId,DonorId,RangeHolderId,OldRoute,NewRoute,PortDate,RowCount
1000000000268035,77766221177,mKcell,mKarTel,mKarTel,,D02,2016-10-25T17:01:03+06:00,19
1000000000268038,77023573736,mKcell,mKarTel,mKcell,D01,D02,2016-10-25T17:05:25+06:00,
1000000000268041,77081023624,mKarTel,mAltel,mAltel,,D01,2016-10-25T17:06:18+06:00,
1000000000268042,77013213141,mKarTel,mMTS,mKcell,D77,D01,2016-10-25T17:07:40+06:00,
1000000000268048,77471991188,mKarTel,mMTS,mMTS,,D01,2016-10-25T17:09:33+06:00,
1000000000268049,77076822322,mKcell,mKarTel,mMTS,D01,D02,2016-10-25T17:09:56+06:00,
1000000000268051,77763443484,mKcell,mKarTel,mKarTel,,D02,2016-10-25T17:10:56+06:00,
1000000000268055,77017742608,mMTS,mKcell,mKcell,,D77,2016-10-25T17:16:02+06:00,
1000000000268057,77783251360,mMTS,mKcell,mKcell,,D77,2016-10-25T17:17:38+06:00,
1000000000268058,77772146474,mAltel,mKarTel,mKarTel,,D07,2016-10-25T17:18:03+06:00,
1000000000268061,77786380950,mKarTel,mKcell,mKcell,,D01,2016-10-25T17:21:30+06:00,
1000000000268062,77028311196,mKcell,mAltel,mKcell,D07,D02,2016-10-25T17:22:28+06:00,
1000000000268063,77756022757,mMTS,mAltel,mKcell,D07,D77,2016-10-25T17:22:29+06:00,
1000000000268064,77758567392,mMTS,mKcell,mKcell,,D77,2016-10-25T17:22:37+06:00,
1000000000268065,77016592995,mAltel,mKcell,mKcell,,D07,2016-10-25T17:24:17+06:00,
1000000000268066,77778048220,mKarTel,mKcell,mKarTel,D02,D01,2016-10-25T17:24:52+06:00,
1000000000268068,77012555975,mKarTel,mAltel,mKcell,D07,D01,2016-10-25T17:26:29+06:00,
1000000000268069,77085111997,mMTS,mAltel,mAltel,,D77,2016-10-25T17:27:26+06:00,
1000000000268070,77783251079,mMTS,mKcell,mKcell,,D77,2016-10-25T17:27:43+06:00,
