NPId,Number,RecipientId,DonorId,RangeHolderId,OldRoute,NewRoute,PortDate,RowCount
1000000000145461,77017554408,mKarTel,mKcell,mKcell,,D01,2016-04-07T16:56:21+06:00,40
1000000000145461,77019294008,mKarTel,mKcell,mKcell,,D01,2016-04-07T16:56:21+06:00,
1000000000145487,77018038989,mKarTel,mKcell,mKcell,,D01,2016-04-07T16:33:50+06:00,
1000000000145721,77711800661,mMTS,mKarTel,mKarTel,,D77,2016-04-07T16:31:12+06:00,
1000000000145723,77018238832,mMTS,mKcell,mKcell,,D77,2016-04-07T16:30:53+06:00,
1000000000145724,77027370747,mMTS,mKcell,mKcell,,D77,2016-04-07T16:31:19+06:00,
1000000000145725,77021798408,mKarTel,mKcell,mKcell,,D01,2016-04-07T16:31:56+06:00,
1000000000145726,77073636163,mMTS,mAltel,mMTS,D07,D77,2016-04-07T16:31:35+06:00,
1000000000145727,77007171787,mMTS,mAltel,mAltel,,D77,2016-04-07T16:31:48+06:00,
1000000000145728,77087651455,mMTS,mAltel,mAltel,,D77,2016-04-07T16:32:57+06:00,
1000000000145729,77085303620,mMTS,mAltel,mAltel,,D77,2016-04-07T16:33:01+06:00,
1000000000145731,77012104000,mMTS,mKcell,mKcell,,D77,2016-04-07T16:33:40+06:00,
1000000000145733,77073312170,mKarTel,mMTS,mMTS,,D01,2016-04-07T16:34:31+06:00,
1000000000145734,77772758502,mMTS,mKarTel,mKarTel,,D77,2016-04-07T16:35:53+06:00,
1000000000145739,77778672425,mMTS,mKarTel,mKarTel,,D77,2016-04-07T16:36:29+06:00,
1000000000145745,77753077470,mMTS,mKcell,mKcell,,D77,2016-04-07T16:37:07+06:00,
1000000000145747,77077899422,mKarTel,mMTS,mMTS,,D01,2016-04-07T16:38:30+06:00,
1000000000145751,77007117111,mKarTel,mAltel,mAltel,,D01,2016-04-07T16:39:43+06:00,
1000000000145752,77772302003,mAltel,mKarTel,mKarTel,,D07,2016-04-07T16:41:08+06:00,
1000000000145753,77028376769,mMTS,mKcell,mKcell,,D77,2016-04-07T16:40:18+06:00,
1000000000145754,77089611710,mMTS,mAltel,mAltel,,D77,2016-04-07T16:40:18+06:00,
1000000000145758,77089569090,mMTS,mAltel,mAltel,,D77,2016-04-07T16:42:00+06:00,
1000000000145762,77019085838,mKarTel,mMTS,mKcell,D77,D01,2016-04-07T16:44:10+06:00,
1000000000145763,77051557541,mKcell,mKarTel,mKarTel,,D02,2016-04-07T16:46:04+06:00,
1000000000145764,77752256999,mKcell,mKarTel,mKcell,D01,D02,2016-04-07T16:46:04+06:00,
1000000000145765,77011915550,mKarTel,mKcell,mKcell,,D01,2016-04-07T16:45:33+06:00,
1000000000145768,77008434040,mMTS,mAltel,mAltel,,D77,2016-04-07T16:47:17+06:00,
1000000000145769,77083031991,mKarTel,mAltel,mAltel,,D01,2016-04-07T16:48:07+06:00,
1000000000145770,77024580284,mKarTel,mKcell,mKcell,,D01,2016-04-07T16:48:06+06:00,
1000000000145773,77773833902,mMTS,mKarTel,mKarTel,,D77,2016-04-07T16:50:02+06:00,
1000000000145775,77023150003,mMTS,mKcell,mKcell,,D77,2016-04-07T16:49:07+06:00,
1000000000145776,77766060800,mMTS,mKarTel,mKarTel,,D77,2016-04-07T16:51:16+06:00,
1000000000145777,77073792229,mKarTel,mMTS,mMTS,,D01,2016-04-07T16:51:56+06:00,
1000000000145778,77717540848,mMTS,mKarTel,mKarTel,,D77,2016-04-07T16:54:25+06:00,
1000000000145779,77012229597,mMTS,mKcell,mKcell,,D77,2016-04-07T16:53:17+06:00,
1000000000145782,77056604040,mKcell,mKarTel,mKarTel,,D02,2016-04-07T16:58:01+06:00,
1000000000145783,77752477760,mMTS,mKcell,mKcell,,D77,2016-04-07T16:55:32+06:00,
1000000000145785,77024487090,mMTS,mKcell,mKcell,,D77,2016-04-07T16:56:55+06:00,
1000000000145786,77717514130,mMTS,mKarTel,mKarTel,,D77,2016-04-07T16:58:56+06:00,
1000000000145787,77083533987,mMTS,mAltel,mAltel,,D77,2016-04-07T16:57:50+06:00,
