NPId,Number,RecipientId,DonorId,RangeHolderId,OldRoute,NewRoute,PortDate,RowCount
1000000000392171,77089172765,mAltel,mKarTel,mAltel,D01,D07,2017-05-29T17:30:19+06:00,33
1000000000392172,77765540974,mAltel,mKarTel,mKarTel,,D07,2017-05-29T17:30:31+06:00,
1000000000392173,77777683767,mMTS,mKarTel,mKarTel,,D77,2017-05-29T17:30:32+06:00,
1000000000392174,77028830200,mMTS,mKcell,mKcell,D02,D77,2017-05-29T17:30:51+06:00,
1000000000392175,77775516666,mKcell,mKarTel,mKarTel,,D02,2017-05-29T17:31:51+06:00,
1000000000392176,77015317523,mMTS,mKcell,mKcell,,D77,2017-05-29T17:31:36+06:00,
1000000000392177,77714101755,mAltel,mKarTel,mKarTel,,D07,2017-05-29T17:33:02+06:00,
1000000000392178,77762104268,mMTS,mKarTel,mKarTel,,D77,2017-05-29T17:33:03+06:00,
1000000000392181,77017113864,mMTS,mAltel,mKcell,D07,D77,2017-05-29T17:33:28+06:00,
1000000000392182,77751020810,mKarTel,mKcell,mKcell,,D01,2017-05-29T17:33:57+06:00,
1000000000392183,77018848645,mMTS,mKcell,mKcell,,D77,2017-05-29T17:34:50+06:00,
1000000000392184,77477884683,mMTS,mKcell,mMTS,D02,D77,2017-05-29T17:35:45+06:00,
1000000000392186,77072803888,mKarTel,mMTS,mMTS,,D01,2017-05-29T17:38:34+06:00,
1000000000392187,77079522568,mAltel,mMTS,mMTS,,D07,2017-05-29T17:38:44+06:00,
1000000000392189,77075356000,mAltel,mMTS,mMTS,,D07,2017-05-29T17:39:26+06:00,
1000000000392190,77770969597,mMTS,mKarTel,mKarTel,D01,D77,2017-05-29T17:39:47+06:00,
1000000000392191,77015344004,mKarTel,mKcell,mKcell,,D01,2017-05-29T17:40:48+06:00,
1000000000392192,77473502472,mAltel,mMTS,mMTS,D77,D07,2017-05-29T17:40:57+06:00,
1000000000392193,77474052113,mAltel,mMTS,mMTS,,D07,2017-05-29T17:41:52+06:00,
1000000000392195,77781012200,mMTS,mKcell,mKcell,,D77,2017-05-29T17:42:49+06:00,
1000000000392197,77025606913,mKcell,mAltel,mKcell,D07,D02,2017-05-29T17:42:59+06:00,
1000000000392198,77759099087,mAltel,mKcell,mKcell,D02,D07,2017-05-29T17:43:28+06:00,
1000000000392199,77029293939,mKarTel,mKcell,mKcell,,D01,2017-05-29T17:44:10+06:00,
1000000000392200,77012222858,mKcell,mMTS,mKcell,D77,D02,2017-05-29T17:46:13+06:00,
1000000000392201,77025144400,mKcell,mAltel,mKcell,D07,D02,2017-05-29T17:45:40+06:00,
1000000000392202,77025102925,mAltel,mKcell,mKcell,,D07,2017-05-29T17:45:41+06:00,
1000000000392207,77763157705,mMTS,mKarTel,mKarTel,,D77,2017-05-29T17:50:21+06:00,
1000000000392208,77787404646,mMTS,mKcell,mKcell,,D77,2017-05-29T17:50:39+06:00,
1000000000392209,77000830404,mMTS,mAltel,mAltel,,D77,2017-05-29T17:51:53+06:00,
1000000000392210,77773070920,mKcell,mKarTel,mKarTel,,D02,2017-05-29T17:52:35+06:00,
1000000000392211,77015205737,mKarTel,mKcell,mKcell,,D01,2017-05-29T17:52:43+06:00,
1000000000392218,77782922833,mMTS,mKcell,mKcell,,D77,2017-05-29T17:57:28+06:00,
1000000000392220,77770022202,mKarTel,mKcell,mKarTel,D02,D01,2017-05-29T17:58:46+06:00,
