NPId,Number,RecipientId,DonorId,RangeHolderId,OldRoute,NewRoute,PortDate,RowCount
1000000000370545,77082221572,mMTS,mAltel,mAltel,,D77,2017-04-24T11:00:04+06:00,29
1000000000370546,77018266033,mKarTel,mKcell,mKcell,,D01,2017-04-24T11:00:58+06:00,
1000000000370547,77015321255,mMTS,mAltel,mKcell,D07,D77,2017-04-24T11:01:09+06:00,
1000000000370549,77082524626,mMTS,mKarTel,mAltel,D01,D77,2017-04-24T11:01:52+06:00,
1000000000370550,77079648480,mKcell,mMTS,mMTS,,D02,2017-04-24T11:02:46+06:00,
1000000000370551,77774918787,mMTS,mKarTel,mKarTel,,D77,2017-04-24T11:03:12+06:00,
1000000000370555,77770767370,mMTS,mKarTel,mKarTel,,D77,2017-04-24T11:07:47+06:00,
1000000000370556,77007772817,mKcell,mAltel,mAltel,,D02,2017-04-24T11:08:38+06:00,
1000000000370558,77754364149,mKcell,mAltel,mKcell,D07,D02,2017-04-24T11:09:54+06:00,
1000000000370559,77007771327,mKcell,mAltel,mAltel,,D02,2017-04-24T11:11:57+06:00,
1000000000370560,77055777497,mKcell,mKarTel,mKarTel,,D02,2017-04-24T11:13:08+06:00,
1000000000370561,77776260444,mKcell,mKarTel,mKarTel,,D02,2017-04-24T11:14:03+06:00,
1000000000370563,77007772317,mKcell,mAltel,mAltel,,D02,2017-04-24T11:14:58+06:00,
1000000000370564,77786008787,mKcell,mKarTel,mKcell,D01,D02,2017-04-24T11:16:18+06:00,
1000000000370568,77014655627,mKarTel,mKcell,mKcell,,D01,2017-04-24T11:18:45+06:00,
1000000000370569,77007771257,mKcell,mAltel,mAltel,,D02,2017-04-24T11:18:38+06:00,
1000000000370570,77088471825,mMTS,mAltel,mAltel,,D77,2017-04-24T11:20:07+06:00,
1000000000370571,77789519456,mMTS,mKcell,mKcell,,D77,2017-04-24T11:20:44+06:00,
1000000000370572,77052782247,mMTS,mKarTel,mKarTel,,D77,2017-04-24T11:22:03+06:00,
1000000000370573,77754498885,mKarTel,mMTS,mKcell,D77,D01,2017-04-24T11:22:01+06:00,
1000000000370574,77007774287,mKcell,mAltel,mAltel,,D02,2017-04-24T11:22:36+06:00,
1000000000370575,77005773340,mKcell,mAltel,mAltel,,D02,2017-04-24T11:23:09+06:00,
1000000000370576,77774777242,mMTS,mKarTel,mKarTel,,D77,2017-04-24T11:23:38+06:00,
1000000000370581,77775575757,mMTS,mKarTel,mKarTel,,D77,2017-04-24T11:25:57+06:00,
1000000000370582,77761064455,mMTS,mKarTel,mKarTel,,D77,2017-04-24T11:25:59+06:00,
1000000000370584,77005888848,mKcell,mAltel,mAltel,,D02,2017-04-24T11:27:20+06:00,
1000000000370585,77082524525,mMTS,mKarTel,mAltel,D01,D77,2017-04-24T11:27:57+06:00,
1000000000370586,77019603270,mKarTel,mKcell,mKcell,,D01,2017-04-24T11:28:08+06:00,
1000000000370587,77059500056,mAltel,mKcell,mKarTel,D02,D07,2017-04-24T11:28:32+06:00,
