NPId,Number,RecipientId,DonorId,RangeHolderId,OldRoute,NewRoute,PortDate,RowCount
1000000000104845,77017385546,mMTS,mKcell,mKcell,,D77,2016-03-02T14:53:11+06:00,35
1000000000104864,77776246815,mAltel,mKarTel,mKarTel,,D07,2016-03-02T14:30:13+06:00,
1000000000104865,77074646544,mAltel,mMTS,mMTS,,D07,2016-03-02T14:31:56+06:00,
1000000000104866,77004569521,mMTS,mAltel,mAltel,,D77,2016-03-02T14:32:17+06:00,
1000000000104868,77772389126,mAltel,mKarTel,mKarTel,,D07,2016-03-02T14:33:37+06:00,
1000000000104869,77015365309,mMTS,mKcell,mKcell,,D77,2016-03-02T14:34:01+06:00,
1000000000104870,77778250101,mMTS,mKarTel,mKarTel,,D77,2016-03-02T14:34:55+06:00,
1000000000104871,77766761366,mAltel,mKarTel,mKarTel,,D07,2016-03-02T14:35:18+06:00,
1000000000104873,77054433727,mMTS,mKarTel,mKarTel,,D77,2016-03-02T14:36:12+06:00,
1000000000104874,77015346015,mAltel,mKcell,mKcell,,D07,2016-03-02T14:37:01+06:00,
1000000000104876,77775322222,mMTS,mKarTel,mKarTel,,D77,2016-03-02T14:37:35+06:00,
1000000000104877,77761501991,mAltel,mKarTel,mKarTel,,D07,2016-03-02T14:37:57+06:00,
1000000000104878,77769463535,mMTS,mKarTel,mKarTel,,D77,2016-03-02T14:38:11+06:00,
1000000000104879,77024920500,mMTS,mKcell,mKcell,,D77,2016-03-02T14:37:57+06:00,
1000000000104881,77786901585,mAltel,mKcell,mKcell,,D07,2016-03-02T14:38:58+06:00,
1000000000104882,77775110110,mAltel,mKarTel,mKarTel,,D07,2016-03-02T14:40:19+06:00,
1000000000104886,77009623187,mMTS,mAltel,mAltel,,D77,2016-03-02T14:41:49+06:00,
1000000000104887,77479009008,mAltel,mMTS,mMTS,,D07,2016-03-02T14:42:29+06:00,
1000000000104888,77789930330,mMTS,mKcell,mKcell,,D77,2016-03-02T14:42:44+06:00,
1000000000104889,77056666724,mAltel,mKarTel,mKarTel,,D07,2016-03-02T14:44:00+06:00,
1000000000104892,77052634153,mMTS,mKarTel,mKarTel,,D77,2016-03-02T14:45:33+06:00,
1000000000104894,77029950770,mKarTel,mKcell,mKcell,,D01,2016-03-02T14:46:25+06:00,
1000000000104895,77083770475,mKcell,mAltel,mAltel,,D02,2016-03-02T14:46:32+06:00,
1000000000104898,77761011100,mKcell,mKarTel,mKarTel,,D02,2016-03-02T14:47:52+06:00,
1000000000104900,77013223992,mAltel,mKcell,mKcell,,D07,2016-03-02T14:48:51+06:00,
1000000000104901,77078400008,mKcell,mMTS,mMTS,,D02,2016-03-02T14:49:01+06:00,
1000000000104902,77771129977,mMTS,mKarTel,mKarTel,,D77,2016-03-02T14:50:04+06:00,
1000000000104903,77085510005,mMTS,mAltel,mAltel,,D77,2016-03-02T14:51:35+06:00,
1000000000104904,77784222740,mMTS,mKcell,mKcell,,D77,2016-03-02T14:51:53+06:00,
1000000000104905,77766608791,mMTS,mKarTel,mKarTel,,D77,2016-03-02T14:53:38+06:00,
1000000000104907,77777066617,mAltel,mKarTel,mKarTel,,D07,2016-03-02T14:57:13+06:00,
1000000000104908,77058161503,mMTS,mKarTel,mKarTel,,D77,2016-03-02T14:57:17+06:00,
1000000000104913,77074279494,mAltel,mMTS,mMTS,,D07,2016-03-02T14:58:31+06:00,
1000000000104914,77078044555,mAltel,mMTS,mMTS,,D07,2016-03-02T14:58:43+06:00,
1000000000104915,77026831565,mKarTel,mKcell,mKcell,,D01,2016-03-02T14:58:58+06:00,
