NPId,Number,RecipientId,DonorId,RangeHolderId,OldRoute,NewRoute,PortDate,RowCount
1000000000219665,77474012979,mKcell,mAltel,mMTS,D07,D02,2016-07-29T19:01:51+06:00,11
1000000000219666,77012888020,mMTS,mKcell,mKcell,,D77,2016-07-29T19:03:17+06:00,
1000000000219667,77071141207,mAltel,mMTS,mMTS,,D07,2016-07-29T19:04:11+06:00,
1000000000219668,77782772525,mKarTel,mKcell,mKcell,,D01,2016-07-29T19:09:29+06:00,
1000000000219670,77051167474,mKcell,mKarTel,mKarTel,,D02,2016-07-29T19:14:26+06:00,
1000000000219671,77089604796,mKarTel,mAltel,mAltel,,D01,2016-07-29T19:15:25+06:00,
1000000000219672,77003652445,mKcell,mAltel,mAltel,,D02,2016-07-29T19:14:47+06:00,
1000000000219673,77017479597,mKcell,mMTS,mKcell,D77,D02,2016-07-29T19:19:34+06:00,
1000000000219674,77077005589,mKcell,mMTS,mMTS,,D02,2016-07-29T19:20:36+06:00,
1000000000219675,77011043838,mKcell,mMTS,mKcell,D77,D02,2016-07-29T19:23:16+06:00,
1000000000219676,77073476208,mKcell,mMTS,mMTS,,D02,2016-07-29T19:29:43+06:00,
