NPId,Number,RecipientId,DonorId,RangeHolderId,OldRoute,NewRoute,PortDate,RowCount
1000000000153558,77072087182,mKarTel,mMTS,mMTS,,D01,2016-04-16T15:00:28+06:00,35
1000000000153559,77756591745,mAltel,mKcell,mKcell,,D07,2016-04-16T15:01:15+06:00,
1000000000153560,77081862951,mMTS,mAltel,mAltel,,D77,2016-04-16T15:02:09+06:00,
1000000000153562,77071731737,mKcell,mMTS,mMTS,,D02,2016-04-16T15:02:54+06:00,
1000000000153563,77004000313,mMTS,mAltel,mAltel,,D77,2016-04-16T15:03:57+06:00,
1000000000153564,77017626766,mKarTel,mKcell,mKcell,,D01,2016-04-16T15:06:10+06:00,
1000000000153565,77759602525,mKarTel,mKcell,mKcell,,D01,2016-04-16T15:06:10+06:00,
1000000000153566,77028826264,mKarTel,mKcell,mKcell,,D01,2016-04-16T15:06:52+06:00,
1000000000153569,77021552000,mMTS,mKcell,mKcell,,D77,2016-04-16T15:06:52+06:00,
1000000000153571,77771771700,mMTS,mKarTel,mKarTel,,D77,2016-04-16T15:09:09+06:00,
1000000000153573,77774001819,mMTS,mKarTel,mKarTel,,D77,2016-04-16T15:10:29+06:00,
1000000000153574,77022926328,mKarTel,mKcell,mKcell,,D01,2016-04-16T15:11:50+06:00,
1000000000153575,77083332181,mMTS,mAltel,mAltel,,D77,2016-04-16T15:11:57+06:00,
1000000000153576,77019333327,mMTS,mKarTel,mKcell,D01,D77,2016-04-16T15:14:10+06:00,
1000000000153577,77010909699,mMTS,mKcell,mKcell,,D77,2016-04-16T15:12:36+06:00,
1000000000153580,77014755596,mMTS,mKcell,mKcell,,D77,2016-04-16T15:13:30+06:00,
1000000000153581,77077770192,mMTS,mAltel,mMTS,D07,D77,2016-04-16T15:12:42+06:00,
1000000000153582,77752561647,mMTS,mKcell,mKcell,,D77,2016-04-16T15:13:52+06:00,
1000000000153583,77058841666,mKcell,mKarTel,mKarTel,,D02,2016-04-16T15:16:08+06:00,
1000000000153584,77758896099,mMTS,mKcell,mKcell,,D77,2016-04-16T15:14:36+06:00,
1000000000153587,77081567893,mMTS,mAltel,mAltel,,D77,2016-04-16T15:15:28+06:00,
1000000000153589,77772229009,mMTS,mKarTel,mKarTel,,D77,2016-04-16T15:19:50+06:00,
1000000000153590,77087711791,mMTS,mAltel,mAltel,,D77,2016-04-16T15:18:20+06:00,
1000000000153591,77074433343,mKarTel,mMTS,mMTS,,D01,2016-04-16T15:19:04+06:00,
1000000000153592,77088100082,mMTS,mAltel,mAltel,,D77,2016-04-16T15:18:35+06:00,
1000000000153593,77759865438,mAltel,mKcell,mKcell,,D07,2016-04-16T15:19:26+06:00,
1000000000153594,77089491100,mMTS,mAltel,mAltel,,D77,2016-04-16T15:19:12+06:00,
1000000000153596,77089530063,mKarTel,mAltel,mAltel,,D01,2016-04-16T15:24:39+06:00,
1000000000153597,77075238899,mAltel,mMTS,mMTS,,D07,2016-04-16T15:24:07+06:00,
1000000000153598,77054444666,mAltel,mKarTel,mKarTel,,D07,2016-04-16T15:26:10+06:00,
1000000000153599,77051444455,mKcell,mKarTel,mKarTel,,D02,2016-04-16T15:27:25+06:00,
1000000000153600,77778188281,mKcell,mKarTel,mKarTel,,D02,2016-04-16T15:28:35+06:00,
1000000000153601,77023732974,mMTS,mKcell,mKcell,,D77,2016-04-16T15:26:57+06:00,
1000000000153602,77776502229,mMTS,mKarTel,mKarTel,,D77,2016-04-16T15:29:51+06:00,
1000000000153604,77088923733,mKarTel,mAltel,mAltel,,D01,2016-04-16T15:29:49+06:00,
