NPId,Number,RecipientId,DonorId,RangeHolderId,OldRoute,NewRoute,PortDate,RowCount
1000000000302069,77015114517,mMTS,mKcell,mKcell,,D77,2016-12-28T17:44:53+06:00,40
1000000000302069,77018045301,mMTS,mKcell,mKcell,,D77,2016-12-28T17:44:53+06:00,
1000000000302069,77018045303,mMTS,mKcell,mKcell,,D77,2016-12-28T17:44:53+06:00,
1000000000302069,77018045304,mMTS,mKcell,mKcell,,D77,2016-12-28T17:44:53+06:00,
1000000000302069,77018045305,mMTS,mKcell,mKcell,,D77,2016-12-28T17:44:53+06:00,
1000000000302069,77019504446,mMTS,mKcell,mKcell,,D77,2016-12-28T17:44:53+06:00,
1000000000302069,77019554446,mMTS,mKcell,mKcell,,D77,2016-12-28T17:44:53+06:00,
1000000000302069,77022171501,mMTS,mKcell,mKcell,,D77,2016-12-28T17:44:53+06:00,
1000000000302430,77071505911,mAltel,mMTS,mMTS,,D07,2016-12-28T17:30:13+06:00,
1000000000302431,77756538298,mKarTel,mKcell,mKcell,,D01,2016-12-28T17:31:07+06:00,
1000000000302434,77028621515,mMTS,mKcell,mKcell,,D77,2016-12-28T17:33:45+06:00,
1000000000302435,77013862121,mMTS,mKcell,mKcell,,D77,2016-12-28T17:34:10+06:00,
1000000000302436,77018055502,mMTS,mKcell,mKcell,,D77,2016-12-28T17:34:17+06:00,
1000000000302437,77473005088,mKarTel,mMTS,mMTS,,D01,2016-12-28T17:34:23+06:00,
1000000000302438,77015016169,mMTS,mKcell,mKcell,,D77,2016-12-28T17:34:40+06:00,
1000000000302439,77003907132,mMTS,mAltel,mAltel,,D77,2016-12-28T17:35:39+06:00,
1000000000302441,77075552768,mKarTel,mMTS,mMTS,,D01,2016-12-28T17:36:13+06:00,
1000000000302442,77053222000,mMTS,mKarTel,mKarTel,,D77,2016-12-28T17:36:21+06:00,
1000000000302443,77752659207,mMTS,mKcell,mKcell,,D77,2016-12-28T17:37:23+06:00,
1000000000302445,77010444442,mMTS,mKcell,mKcell,D02,D77,2016-12-28T17:38:50+06:00,
1000000000302447,77023182200,mMTS,mKcell,mKcell,,D77,2016-12-28T17:42:01+06:00,
1000000000302448,77077714628,mKarTel,mMTS,mMTS,,D01,2016-12-28T17:42:27+06:00,
1000000000302449,77088888798,mKarTel,mAltel,mAltel,,D01,2016-12-28T17:45:57+06:00,
1000000000302450,77015234136,mAltel,mKcell,mKcell,,D07,2016-12-28T17:46:23+06:00,
1000000000302451,77088888578,mKarTel,mAltel,mAltel,,D01,2016-12-28T17:47:01+06:00,
1000000000302453,77073068279,mKarTel,mMTS,mMTS,,D01,2016-12-28T17:49:36+06:00,
1000000000302454,77007714628,mKarTel,mAltel,mAltel,,D01,2016-12-28T17:49:47+06:00,
1000000000302456,77753737106,mAltel,mKcell,mKcell,,D07,2016-12-28T17:50:00+06:00,
1000000000302457,77058335488,mKarTel,mMTS,mKarTel,D77,D01,2016-12-28T17:51:15+06:00,
1000000000302458,77757576838,mMTS,mKcell,mKcell,,D77,2016-12-28T17:52:21+06:00,
1000000000302461,77015501908,mMTS,mKcell,mKcell,D02,D77,2016-12-28T17:54:11+06:00,
1000000000302464,77017797167,mMTS,mKcell,mKcell,,D77,2016-12-28T17:54:43+06:00,
1000000000302466,77476397112,mKarTel,mMTS,mMTS,,D01,2016-12-28T17:55:27+06:00,
1000000000302467,77052238901,mKarTel,mKcell,mKarTel,D02,D01,2016-12-28T17:55:31+06:00,
1000000000302468,77011410044,mAltel,mKcell,mKcell,D02,D07,2016-12-28T17:56:06+06:00,
1000000000302470,77051153039,mMTS,mKarTel,mKarTel,,D77,2016-12-28T17:57:31+06:00,
1000000000302472,77026160303,mKcell,mMTS,mKcell,D77,D02,2016-12-28T17:58:00+06:00,
1000000000302473,77779251111,mMTS,mKarTel,mKarTel,,D77,2016-12-28T17:58:50+06:00,
1000000000302474,77059875541,mKcell,mKarTel,mKarTel,,D02,2016-12-28T17:59:14+06:00,
1000000000302475,77022532224,mKarTel,mKcell,mKcell,,D01,2016-12-28T17:59:07+06:00,
