NPId,Number,RecipientId,DonorId,RangeHolderId,OldRoute,NewRoute,PortDate,RowCount
1000000000383840,77023088038,mMTS,mKcell,mKcell,,D77,2017-05-16T12:30:13+06:00,17
1000000000383843,77027149424,mAltel,mKarTel,mKcell,D01,D07,2017-05-16T12:31:17+06:00,
1000000000383844,77770041768,mKarTel,mAltel,mKarTel,D07,D01,2017-05-16T12:31:49+06:00,
1000000000383846,77752247469,mMTS,mKcell,mKcell,,D77,2017-05-16T12:33:52+06:00,
1000000000383847,77715118070,mKarTel,mKcell,mKarTel,D02,D01,2017-05-16T12:36:43+06:00,
1000000000383851,77009541104,mMTS,mAltel,mAltel,,D77,2017-05-16T12:40:04+06:00,
1000000000383852,77054000797,mKarTel,mAltel,mKarTel,D07,D01,2017-05-16T12:41:25+06:00,
1000000000383853,77471666296,mKarTel,mMTS,mMTS,,D01,2017-05-16T12:43:08+06:00,
1000000000383854,77053867287,mKarTel,mMTS,mKarTel,D77,D01,2017-05-16T12:44:42+06:00,
1000000000383855,77017415213,mKarTel,mKcell,mKcell,,D01,2017-05-16T12:47:20+06:00,
1000000000383856,77084803060,mMTS,mAltel,mAltel,,D77,2017-05-16T12:49:21+06:00,
1000000000383858,77777044443,mKarTel,mAltel,mKarTel,D07,D01,2017-05-16T12:49:39+06:00,
1000000000383860,77003221998,mKcell,mAltel,mAltel,,D02,2017-05-16T12:51:07+06:00,
1000000000383861,77084000971,mAltel,mMTS,mAltel,D77,D07,2017-05-16T12:51:22+06:00,
1000000000383864,77784449714,mKarTel,mKcell,mKcell,,D01,2017-05-16T12:53:49+06:00,
1000000000383865,77074320903,mKcell,mMTS,mMTS,,D02,2017-05-16T12:55:02+06:00,
1000000000383866,77781888091,mKarTel,mKcell,mKcell,,D01,2017-05-16T12:57:38+06:00,
