NPId,Number,RecipientId,DonorId,RangeHolderId,OldRoute,NewRoute,PortDate,RowCount
1000000000391981,77019001427,mKcell,mMTS,mKcell,D77,D02,2017-05-29T15:37:18+06:00,28
1000000000391982,77080444444,mKcell,mAltel,mAltel,,D02,2017-05-29T15:37:15+06:00,
1000000000391984,77027033804,mMTS,mKcell,mKcell,,D77,2017-05-29T15:32:16+06:00,
1000000000391985,77028821700,mMTS,mKcell,mKcell,,D77,2017-05-29T15:32:42+06:00,
1000000000391987,77711122599,mMTS,mKarTel,mKarTel,,D77,2017-05-29T15:34:24+06:00,
1000000000391989,77000985898,mKcell,mAltel,mAltel,,D02,2017-05-29T15:35:13+06:00,
1000000000391990,77057547098,mKarTel,mMTS,mKarTel,D77,D01,2017-05-29T15:35:26+06:00,
1000000000391991,77712727971,mMTS,mKarTel,mKarTel,,D77,2017-05-29T15:36:43+06:00,
1000000000391992,77057456794,mMTS,mKarTel,mKarTel,,D77,2017-05-29T15:38:18+06:00,
1000000000391993,77017638201,mKarTel,mMTS,mKcell,D77,D01,2017-05-29T15:39:39+06:00,
1000000000391995,77018034021,mKarTel,mKcell,mKcell,,D01,2017-05-29T15:41:31+06:00,
1000000000391996,77018769537,mMTS,mKcell,mKcell,,D77,2017-05-29T15:42:27+06:00,
1000000000391998,77019626083,mMTS,mKcell,mKcell,,D77,2017-05-29T15:44:25+06:00,
1000000000391999,77004271706,mKarTel,mAltel,mAltel,,D01,2017-05-29T15:45:44+06:00,
1000000000392001,77057897545,mAltel,mKarTel,mKarTel,,D07,2017-05-29T15:46:27+06:00,
1000000000392002,77076774777,mKcell,mMTS,mMTS,,D02,2017-05-29T15:47:32+06:00,
1000000000392003,77787002224,mMTS,mKcell,mKcell,,D77,2017-05-29T15:47:58+06:00,
1000000000392004,77713070507,mMTS,mKarTel,mKarTel,D01,D77,2017-05-29T15:48:38+06:00,
1000000000392005,77710000093,mKcell,mKarTel,mKarTel,,D02,2017-05-29T15:48:45+06:00,
1000000000392006,77779688886,mKarTel,mKcell,mKarTel,D02,D01,2017-05-29T15:49:17+06:00,
1000000000392007,77072906609,mKcell,mMTS,mMTS,,D02,2017-05-29T15:50:25+06:00,
1000000000392008,77756893687,mKarTel,mKcell,mKcell,,D01,2017-05-29T15:50:43+06:00,
1000000000392009,77015388127,mMTS,mKcell,mKcell,,D77,2017-05-29T15:51:04+06:00,
1000000000392010,77776523944,mMTS,mKarTel,mKarTel,,D77,2017-05-29T15:51:43+06:00,
1000000000392011,77081471296,mMTS,mAltel,mAltel,,D77,2017-05-29T15:53:59+06:00,
1000000000392012,77014688208,mMTS,mKcell,mKcell,,D77,2017-05-29T15:55:20+06:00,
1000000000392015,77075553111,mKarTel,mMTS,mMTS,,D01,2017-05-29T15:57:43+06:00,
1000000000392017,77072205157,mAltel,mMTS,mMTS,,D07,2017-05-29T15:59:37+06:00,
