NPId,Number,RecipientId,DonorId,RangeHolderId,OldRoute,NewRoute,PortDate,RowCount
1000000000313714,77755544662,mKarTel,mKcell,mKcell,,D01,2017-01-20T15:01:28+06:00,26
1000000000313715,77053229054,mMTS,mKarTel,mKarTel,,D77,2017-01-20T15:02:01+06:00,
1000000000313718,77003942895,mKcell,mAltel,mAltel,,D02,2017-01-20T15:04:26+06:00,
1000000000313719,77013944799,mKarTel,mKcell,mKcell,,D01,2017-01-20T15:07:25+06:00,
1000000000313720,77010170176,mAltel,mKcell,mKcell,,D07,2017-01-20T15:07:45+06:00,
1000000000313721,77023881119,mAltel,mMTS,mKcell,D77,D07,2017-01-20T15:07:42+06:00,
1000000000313723,77072500750,mAltel,mMTS,mMTS,,D07,2017-01-20T15:08:36+06:00,
1000000000313724,77753994026,mMTS,mKcell,mKcell,,D77,2017-01-20T15:09:33+06:00,
1000000000313725,77082112330,mMTS,mAltel,mAltel,,D77,2017-01-20T15:12:22+06:00,
1000000000313726,77768002656,mMTS,mAltel,mKarTel,D07,D77,2017-01-20T15:12:30+06:00,
1000000000313730,77071699918,mKarTel,mMTS,mMTS,,D01,2017-01-20T15:14:29+06:00,
1000000000313731,77086249167,mKarTel,mAltel,mAltel,,D01,2017-01-20T15:15:26+06:00,
1000000000313733,77086249168,mKarTel,mAltel,mAltel,,D01,2017-01-20T15:16:30+06:00,
1000000000313734,77078385318,mKarTel,mKcell,mMTS,D02,D01,2017-01-20T15:16:50+06:00,
1000000000313735,77027181998,mMTS,mKcell,mKcell,,D77,2017-01-20T15:17:30+06:00,
1000000000313736,77086249137,mKarTel,mAltel,mAltel,,D01,2017-01-20T15:17:36+06:00,
1000000000313738,77086249172,mKarTel,mAltel,mAltel,,D01,2017-01-20T15:18:33+06:00,
1000000000313740,77086249176,mKarTel,mAltel,mAltel,,D01,2017-01-20T15:19:46+06:00,
1000000000313741,77751554479,mAltel,mKcell,mKcell,,D07,2017-01-20T15:19:51+06:00,
1000000000313742,77022422288,mMTS,mKcell,mKcell,,D77,2017-01-20T15:20:15+06:00,
1000000000313743,77755875424,mKcell,mMTS,mKcell,D77,D02,2017-01-20T15:20:25+06:00,
1000000000313745,77785949590,mAltel,mKcell,mKcell,,D07,2017-01-20T15:22:25+06:00,
1000000000313747,77754664284,mKarTel,mKcell,mKcell,,D01,2017-01-20T15:24:36+06:00,
1000000000313748,77075363700,mAltel,mMTS,mMTS,,D07,2017-01-20T15:25:52+06:00,
1000000000313749,77021620016,mMTS,mKcell,mKcell,,D77,2017-01-20T15:28:02+06:00,
1000000000313750,77071200940,mAltel,mMTS,mMTS,,D07,2017-01-20T15:29:07+06:00,
