NPId,Number,RecipientId,DonorId,RangeHolderId,OldRoute,NewRoute,PortDate,RowCount
1000000000333242,77006060078,mMTS,mAltel,mAltel,,D77,2017-02-22T19:00:33+06:00,12
1000000000333243,77027447077,mAltel,mKcell,mKcell,,D07,2017-02-22T19:00:44+06:00,
1000000000333244,77777174400,mKcell,mKarTel,mKarTel,,D02,2017-02-22T19:02:27+06:00,
1000000000333247,77086936759,mMTS,mAltel,mAltel,,D77,2017-02-22T19:02:57+06:00,
1000000000333248,77475748184,mKcell,mMTS,mMTS,,D02,2017-02-22T19:03:19+06:00,
1000000000333249,77756228893,mKarTel,mKcell,mKcell,,D01,2017-02-22T19:08:40+06:00,
1000000000333251,77016799278,mKarTel,mKcell,mKcell,,D01,2017-02-22T19:12:53+06:00,
1000000000333252,77024074626,mMTS,mKcell,mKcell,,D77,2017-02-22T19:20:44+06:00,
1000000000333253,77787000438,mAltel,mKcell,mKcell,,D07,2017-02-22T19:21:37+06:00,
1000000000333255,77017132004,mKarTel,mKcell,mKcell,,D01,2017-02-22T19:25:51+06:00,
1000000000333256,77017113887,mMTS,mKcell,mKcell,,D77,2017-02-22T19:27:47+06:00,
1000000000333257,77471991055,mKcell,mMTS,mMTS,,D02,2017-02-22T19:29:51+06:00,
