NPId,Number,RecipientId,DonorId,RangeHolderId,OldRoute,NewRoute,PortDate,RowCount
1000000000178321,77077555766,mKcell,mMTS,mMTS,,D02,2016-05-21T11:03:02+06:00,22
1000000000178322,77051626802,mMTS,mKarTel,mKarTel,,D77,2016-05-21T11:02:38+06:00,
1000000000178323,77002338222,mMTS,mAltel,mAltel,,D77,2016-05-21T11:02:34+06:00,
1000000000178324,77004683757,mKcell,mAltel,mAltel,,D02,2016-05-21T11:03:31+06:00,
1000000000178325,77055553501,mKcell,mKarTel,mKarTel,,D02,2016-05-21T11:06:22+06:00,
1000000000178326,77004683756,mKcell,mAltel,mAltel,,D02,2016-05-21T11:07:38+06:00,
1000000000178327,77017668866,mKarTel,mKcell,mKcell,,D01,2016-05-21T11:07:54+06:00,
1000000000178328,77017561898,mAltel,mKcell,mKcell,,D07,2016-05-21T11:07:54+06:00,
1000000000178329,77089817121,mMTS,mAltel,mAltel,,D77,2016-05-21T11:08:28+06:00,
1000000000178330,77781003496,mMTS,mKcell,mKcell,,D77,2016-05-21T11:09:37+06:00,
1000000000178331,77016007205,mMTS,mKcell,mKcell,,D77,2016-05-21T11:10:54+06:00,
1000000000178332,77028836628,mKarTel,mKcell,mKcell,,D01,2016-05-21T11:12:10+06:00,
1000000000178333,77004741787,mMTS,mAltel,mAltel,,D77,2016-05-21T11:12:45+06:00,
1000000000178334,77013835366,mKarTel,mKcell,mKcell,,D01,2016-05-21T11:14:16+06:00,
1000000000178335,77079673598,mKcell,mMTS,mMTS,,D02,2016-05-21T11:14:08+06:00,
1000000000178336,77751367781,mKarTel,mKcell,mKcell,,D01,2016-05-21T11:15:10+06:00,
1000000000178339,77771474951,mMTS,mKarTel,mKarTel,,D77,2016-05-21T11:20:05+06:00,
1000000000178340,77781442000,mMTS,mKcell,mKcell,,D77,2016-05-21T11:21:21+06:00,
1000000000178342,77019397490,mMTS,mKcell,mKcell,,D77,2016-05-21T11:23:08+06:00,
1000000000178344,77015036188,mKcell,mMTS,mKcell,D77,D02,2016-05-21T11:26:34+06:00,
1000000000178345,77776178576,mKcell,mKarTel,mKarTel,,D02,2016-05-21T11:27:13+06:00,
1000000000178346,77009282469,mMTS,mAltel,mAltel,,D77,2016-05-21T11:27:52+06:00,
