NPId,Number,RecipientId,DonorId,RangeHolderId,OldRoute,NewRoute,PortDate,RowCount
1000000000354691,77018548652,mKarTel,mKcell,mKcell,,D01,2017-03-29T12:31:43+06:00,16
1000000000354693,77017771552,mMTS,mKcell,mKcell,D02,D77,2017-03-29T12:35:08+06:00,
1000000000354695,77077587054,mKarTel,mMTS,mMTS,,D01,2017-03-29T12:37:11+06:00,
1000000000354696,77004445455,mMTS,mAltel,mAltel,,D77,2017-03-29T12:37:15+06:00,
1000000000354699,77718384848,mAltel,mKarTel,mKarTel,,D07,2017-03-29T12:39:32+06:00,
1000000000354700,77022413089,mKarTel,mKcell,mKcell,D02,D01,2017-03-29T12:39:29+06:00,
1000000000354702,77779191991,mKarTel,mMTS,mKarTel,D77,D01,2017-03-29T12:42:13+06:00,
1000000000354705,77018168888,mMTS,mKcell,mKcell,,D77,2017-03-29T12:42:49+06:00,
1000000000354706,77757412415,mKarTel,mKcell,mKcell,,D01,2017-03-29T12:44:09+06:00,
1000000000354707,77071112990,mKcell,mMTS,mMTS,,D02,2017-03-29T12:44:24+06:00,
1000000000354708,77775553999,mKcell,mKarTel,mKarTel,,D02,2017-03-29T12:45:49+06:00,
1000000000354709,77023064006,mKarTel,mKcell,mKcell,,D01,2017-03-29T12:46:39+06:00,
1000000000354710,77019104949,mMTS,mKcell,mKcell,,D77,2017-03-29T12:47:45+06:00,
1000000000354711,77012333932,mMTS,mKcell,mKcell,,D77,2017-03-29T12:48:07+06:00,
1000000000354713,77027777559,mAltel,mKcell,mKcell,,D07,2017-03-29T12:51:43+06:00,
1000000000354716,77017852781,mKarTel,mKcell,mKcell,,D01,2017-03-29T12:58:20+06:00,
