NPId,Number,RecipientId,DonorId,RangeHolderId,OldRoute,NewRoute,PortDate,RowCount
1000000000283482,77754588310,mMTS,mKcell,mKcell,,D77,2016-11-24T13:32:40+06:00,25
1000000000283483,77083481224,mMTS,mAltel,mAltel,,D77,2016-11-24T13:34:07+06:00,
1000000000283484,77056812015,mMTS,mKarTel,mKarTel,,D77,2016-11-24T13:35:16+06:00,
1000000000283485,77014999971,mKcell,mMTS,mKcell,D77,D02,2016-11-24T13:35:53+06:00,
1000000000283486,77017718929,mKcell,mMTS,mKcell,D77,D02,2016-11-24T13:36:03+06:00,
1000000000283487,77071230317,mMTS,mKcell,mMTS,D02,D77,2016-11-24T13:36:04+06:00,
1000000000283490,77028545565,mMTS,mKcell,mKcell,,D77,2016-11-24T13:38:24+06:00,
1000000000283492,77077902030,mKcell,mMTS,mMTS,,D02,2016-11-24T13:40:43+06:00,
1000000000283494,77015528968,mKarTel,mKcell,mKcell,,D01,2016-11-24T13:43:54+06:00,
1000000000283495,77781115566,mKarTel,mAltel,mKcell,D07,D01,2016-11-24T13:44:03+06:00,
1000000000283497,77777535320,mMTS,mKarTel,mKarTel,,D77,2016-11-24T13:46:22+06:00,
1000000000283498,77013803734,mMTS,mKcell,mKcell,,D77,2016-11-24T13:46:41+06:00,
1000000000283499,77772163704,mKarTel,mKcell,mKarTel,D02,D01,2016-11-24T13:47:06+06:00,
1000000000283500,77017776771,mMTS,mKcell,mKcell,,D77,2016-11-24T13:47:58+06:00,
1000000000283502,77027982081,mKcell,mMTS,mKcell,D77,D02,2016-11-24T13:48:44+06:00,
1000000000283503,77078710016,mAltel,mMTS,mMTS,,D07,2016-11-24T13:48:44+06:00,
1000000000283504,77014444143,mMTS,mKcell,mKcell,,D77,2016-11-24T13:49:19+06:00,
1000000000283507,77072767707,mMTS,mKcell,mMTS,D02,D77,2016-11-24T13:50:00+06:00,
1000000000283511,77714501135,mKcell,mAltel,mKarTel,D07,D02,2016-11-24T13:54:10+06:00,
1000000000283512,77081580809,mKarTel,mAltel,mAltel,,D01,2016-11-24T13:54:55+06:00,
1000000000283513,77003096179,mKarTel,mAltel,mAltel,,D01,2016-11-24T13:55:06+06:00,
1000000000283514,77017282054,mKarTel,mKcell,mKcell,,D01,2016-11-24T13:57:22+06:00,
1000000000283515,77716663090,mKcell,mKarTel,mKarTel,,D02,2016-11-24T13:59:03+06:00,
1000000000283516,77024094090,mAltel,mKcell,mKcell,,D07,2016-11-24T13:59:15+06:00,
1000000000283518,77021785203,mMTS,mKcell,mKcell,,D77,2016-11-24T13:59:25+06:00,
