NPId,Number,RecipientId,DonorId,RangeHolderId,OldRoute,NewRoute,PortDate,RowCount
1000000000396945,77011920105,mKarTel,mKcell,mKcell,,D01,2017-06-03T17:31:33+06:00,24
1000000000396946,77027272243,mMTS,mKarTel,mKcell,D01,D77,2017-06-03T17:33:49+06:00,
1000000000396947,77024466494,mAltel,mKarTel,mKcell,D01,D07,2017-06-03T17:34:29+06:00,
1000000000396948,77078369777,mKcell,mMTS,mMTS,,D02,2017-06-03T17:35:06+06:00,
1000000000396949,77786990099,mKcell,mMTS,mKcell,D77,D02,2017-06-03T17:35:53+06:00,
1000000000396951,77011117635,mMTS,mKcell,mKcell,,D77,2017-06-03T17:37:06+06:00,
1000000000396953,77751760495,mKarTel,mKcell,mKcell,,D01,2017-06-03T17:38:42+06:00,
1000000000396954,77072223833,mKarTel,mMTS,mMTS,,D01,2017-06-03T17:38:36+06:00,
1000000000396955,77009992525,mKcell,mAltel,mAltel,,D02,2017-06-03T17:39:04+06:00,
1000000000396957,77755010907,mMTS,mKcell,mKcell,,D77,2017-06-03T17:40:34+06:00,
1000000000396958,77027793930,mMTS,mKcell,mKcell,,D77,2017-06-03T17:41:07+06:00,
1000000000396959,77018822044,mMTS,mKcell,mKcell,,D77,2017-06-03T17:42:56+06:00,
1000000000396960,77758227893,mKarTel,mKcell,mKcell,,D01,2017-06-03T17:45:55+06:00,
1000000000396962,77058150304,mMTS,mKarTel,mKarTel,,D77,2017-06-03T17:46:18+06:00,
1000000000396963,77058730053,mMTS,mKarTel,mKarTel,,D77,2017-06-03T17:46:27+06:00,
1000000000396964,77776167225,mKarTel,mAltel,mKarTel,D07,D01,2017-06-03T17:47:29+06:00,
1000000000396965,77026405355,mMTS,mKcell,mKcell,,D77,2017-06-03T17:48:42+06:00,
1000000000396966,77052524251,mMTS,mKarTel,mKarTel,,D77,2017-06-03T17:49:14+06:00,
1000000000396967,77774778767,mMTS,mKarTel,mKarTel,,D77,2017-06-03T17:53:27+06:00,
1000000000396968,77771923737,mMTS,mKarTel,mKarTel,D01,D77,2017-06-03T17:53:41+06:00,
1000000000396969,77015557701,mMTS,mKcell,mKcell,,D77,2017-06-03T17:55:46+06:00,
1000000000396970,77052121111,mKarTel,mKcell,mKarTel,D02,D01,2017-06-03T17:56:00+06:00,
1000000000396972,77017940228,mAltel,mKcell,mKcell,,D07,2017-06-03T17:57:52+06:00,
1000000000396973,77077826676,mKarTel,mMTS,mMTS,,D01,2017-06-03T17:58:08+06:00,
