NPId,Number,RecipientId,DonorId,RangeHolderId,OldRoute,NewRoute,PortDate,RowCount
1000000000168551,77003336646,mKarTel,mAltel,mAltel,,D01,2016-05-05T18:00:37+06:00,27
1000000000168552,77770300166,mMTS,mKarTel,mKarTel,,D77,2016-05-05T18:01:05+06:00,
1000000000168554,77077747014,mKcell,mMTS,mMTS,,D02,2016-05-05T18:03:38+06:00,
1000000000168555,77773739764,mMTS,mKarTel,mKarTel,,D77,2016-05-05T18:04:57+06:00,
1000000000168556,77058400851,mMTS,mKarTel,mKarTel,,D77,2016-05-05T18:05:38+06:00,
1000000000168557,77777414964,mMTS,mKarTel,mKarTel,,D77,2016-05-05T18:06:26+06:00,
1000000000168558,77001188778,mKcell,mAltel,mAltel,,D02,2016-05-05T18:06:49+06:00,
1000000000168560,77027770078,mKarTel,mKcell,mKcell,,D01,2016-05-05T18:08:35+06:00,
1000000000168561,77012521715,mMTS,mKcell,mKcell,,D77,2016-05-05T18:08:24+06:00,
1000000000168562,77087777027,mKcell,mAltel,mAltel,,D02,2016-05-05T18:13:25+06:00,
1000000000168563,77759096878,mKcell,mAltel,mKcell,D07,D02,2016-05-05T18:13:53+06:00,
1000000000168564,77019994173,mAltel,mKcell,mKcell,,D07,2016-05-05T18:13:54+06:00,
1000000000168565,77009806276,mKarTel,mAltel,mAltel,,D01,2016-05-05T18:14:45+06:00,
1000000000168566,77023686786,mMTS,mKcell,mKcell,,D77,2016-05-05T18:15:01+06:00,
1000000000168567,77756605895,mMTS,mKcell,mKcell,,D77,2016-05-05T18:16:22+06:00,
1000000000168568,77776943939,mKcell,mKarTel,mKarTel,,D02,2016-05-05T18:17:32+06:00,
1000000000168570,77015594959,mKcell,mKarTel,mKcell,D01,D02,2016-05-05T18:19:29+06:00,
1000000000168571,77753373807,mKcell,mAltel,mKcell,D07,D02,2016-05-05T18:19:08+06:00,
1000000000168572,77770666147,mMTS,mKarTel,mKarTel,,D77,2016-05-05T18:19:53+06:00,
1000000000168573,77081021947,mMTS,mAltel,mAltel,,D77,2016-05-05T18:19:57+06:00,
1000000000168574,77478390169,mAltel,mMTS,mMTS,,D07,2016-05-05T18:22:41+06:00,
1000000000168576,77002922202,mKcell,mAltel,mAltel,,D02,2016-05-05T18:25:58+06:00,
1000000000168578,77028633343,mKcell,mMTS,mKcell,D77,D02,2016-05-05T18:26:22+06:00,
1000000000168581,77784260111,mKcell,mAltel,mKcell,D07,D02,2016-05-05T18:27:34+06:00,
1000000000168583,77075753671,mMTS,mAltel,mMTS,D07,D77,2016-05-05T18:27:23+06:00,
1000000000168584,77003123133,mMTS,mAltel,mAltel,,D77,2016-05-05T18:27:44+06:00,
1000000000168585,77022261794,mMTS,mKcell,mKcell,,D77,2016-05-05T18:28:11+06:00,
