NPId,Number,RecipientId,DonorId,RangeHolderId,OldRoute,NewRoute,PortDate,RowCount
1000000000303552,77027351091,mKcell,mKarTel,mKcell,D01,D02,2016-12-30T16:15:27+06:00,23
1000000000303555,77474864540,mKcell,mMTS,mMTS,,D02,2016-12-30T16:00:51+06:00,
1000000000303556,77055759969,mAltel,mKarTel,mKarTel,,D07,2016-12-30T16:01:16+06:00,
1000000000303559,77011654010,mAltel,mKcell,mKcell,,D07,2016-12-30T16:04:01+06:00,
1000000000303565,77052021111,mMTS,mKarTel,mKarTel,D01,D77,2016-12-30T16:11:00+06:00,
1000000000303567,77007979447,mMTS,mKarTel,mAltel,D01,D77,2016-12-30T16:13:13+06:00,
1000000000303568,77002342006,mMTS,mAltel,mAltel,,D77,2016-12-30T16:12:59+06:00,
1000000000303570,77077978385,mAltel,mKcell,mMTS,D02,D07,2016-12-30T16:15:09+06:00,
1000000000303571,77024311846,mMTS,mKcell,mKcell,,D77,2016-12-30T16:15:28+06:00,
1000000000303572,77012884430,mKarTel,mKcell,mKcell,,D01,2016-12-30T16:15:55+06:00,
1000000000303573,77714325619,mMTS,mKarTel,mKarTel,,D77,2016-12-30T16:16:44+06:00,
1000000000303574,77054769696,mKcell,mKarTel,mKarTel,,D02,2016-12-30T16:17:27+06:00,
1000000000303575,77028957900,mKcell,mMTS,mKcell,D77,D02,2016-12-30T16:17:58+06:00,
1000000000303576,77022170257,mKcell,mKarTel,mKcell,D01,D02,2016-12-30T16:20:12+06:00,
1000000000303578,77012746468,mKarTel,mKcell,mKcell,,D01,2016-12-30T16:20:39+06:00,
1000000000303579,77005050561,mKcell,mAltel,mAltel,,D02,2016-12-30T16:20:52+06:00,
1000000000303581,77086683200,mAltel,mMTS,mAltel,D77,D07,2016-12-30T16:23:01+06:00,
1000000000303583,77019801855,mKarTel,mKcell,mKcell,,D01,2016-12-30T16:24:11+06:00,
1000000000303584,77757311112,mMTS,mKcell,mKcell,,D77,2016-12-30T16:24:32+06:00,
1000000000303586,77711007111,mKarTel,mKcell,mKarTel,D02,D01,2016-12-30T16:25:34+06:00,
1000000000303589,77478122980,mAltel,mMTS,mMTS,,D07,2016-12-30T16:26:21+06:00,
1000000000303593,77019824086,mMTS,mKcell,mKcell,D02,D77,2016-12-30T16:29:01+06:00,
1000000000303594,77711007090,mKarTel,mKcell,mKarTel,D02,D01,2016-12-30T16:29:58+06:00,
