NPId,Number,RecipientId,DonorId,RangeHolderId,OldRoute,NewRoute,PortDate,RowCount
1000000000274851,77014024777,mMTS,mKcell,mKcell,,D77,2016-11-05T19:00:37+06:00,5
1000000000274854,77782890009,mKarTel,mKcell,mKcell,,D01,2016-11-05T19:03:42+06:00,
1000000000274855,77775844491,mAltel,mKarTel,mKarTel,,D07,2016-11-05T19:05:26+06:00,
1000000000274856,77473336670,mKcell,mMTS,mMTS,,D02,2016-11-05T19:13:41+06:00,
1000000000274857,77014692346,mMTS,mKcell,mKcell,,D77,2016-11-05T19:17:39+06:00,
