NPId,Number,RecipientId,DonorId,RangeHolderId,OldRoute,NewRoute,PortDate,RowCount
1000000000192249,77072221807,mKcell,mMTS,mMTS,,D02,2016-06-12T17:04:44+06:00,8
1000000000192250,77017150600,mKarTel,mKcell,mKcell,,D01,2016-06-12T17:05:50+06:00,
1000000000192251,77076771670,mMTS,mAltel,mMTS,D07,D77,2016-06-12T17:07:13+06:00,
1000000000192253,77089225673,mMTS,mAltel,mAltel,,D77,2016-06-12T17:12:29+06:00,
1000000000192256,77009854734,mKarTel,mAltel,mAltel,,D01,2016-06-12T17:15:29+06:00,
1000000000192257,77013949757,mMTS,mKcell,mKcell,,D77,2016-06-12T17:18:17+06:00,
1000000000192258,77019151271,mAltel,mKcell,mKcell,,D07,2016-06-12T17:22:19+06:00,
1000000000192259,77028653160,mMTS,mKcell,mKcell,,D77,2016-06-12T17:28:01+06:00,
