NPId,Number,RecipientId,DonorId,RangeHolderId,OldRoute,NewRoute,PortDate,RowCount
1000000000436994,77011110846,mKarTel,mKcell,mKcell,,D01,2017-08-08T19:00:50+06:00,11
1000000000436995,77013396686,mKarTel,mKcell,mKcell,,D01,2017-08-08T19:02:11+06:00,
1000000000436996,77027939292,mKcell,mKarTel,mKcell,D01,D02,2017-08-08T19:06:49+06:00,
1000000000436999,77759900088,mKarTel,mMTS,mKcell,D77,D01,2017-08-08T19:08:40+06:00,
1000000000437000,77779677773,mKcell,mKarTel,mKarTel,,D02,2017-08-08T19:11:15+06:00,
1000000000437001,77073441663,mKarTel,mMTS,mMTS,,D01,2017-08-08T19:11:17+06:00,
1000000000437003,77478219978,mKcell,mMTS,mMTS,,D02,2017-08-08T19:13:41+06:00,
1000000000437004,77009433646,mKarTel,mKcell,mAltel,D02,D01,2017-08-08T19:16:32+06:00,
1000000000437006,77056441718,mKcell,mKarTel,mKarTel,,D02,2017-08-08T19:20:33+06:00,
1000000000437007,77474040860,mKarTel,mMTS,mMTS,,D01,2017-08-08T19:25:08+06:00,
1000000000437008,77019200072,mKarTel,mKcell,mKcell,,D01,2017-08-08T19:25:18+06:00,
