NPId,Number,RecipientId,DonorId,RangeHolderId,OldRoute,NewRoute,PortDate,RowCount
1000000000160285,77017830175,mKcell,mAltel,mKcell,D07,D02,2016-04-25T19:01:00+06:00,18
1000000000160286,77765919997,mKcell,mKarTel,mKarTel,,D02,2016-04-25T19:01:30+06:00,
1000000000160287,77015473531,mMTS,mKcell,mKcell,,D77,2016-04-25T19:01:24+06:00,
1000000000160288,77001213121,mKcell,mAltel,mAltel,,D02,2016-04-25T19:02:18+06:00,
1000000000160290,77771546872,mMTS,mKarTel,mKarTel,,D77,2016-04-25T19:02:34+06:00,
1000000000160291,77779992328,mMTS,mKarTel,mKarTel,,D77,2016-04-25T19:02:58+06:00,
1000000000160293,77019091999,mKcell,mAltel,mKcell,D07,D02,2016-04-25T19:07:14+06:00,
1000000000160294,77083622543,mMTS,mAltel,mAltel,,D77,2016-04-25T19:06:20+06:00,
1000000000160296,77028790954,mMTS,mKcell,mKcell,,D77,2016-04-25T19:07:14+06:00,
1000000000160298,77472001286,mKcell,mMTS,mMTS,,D02,2016-04-25T19:08:46+06:00,
1000000000160300,77082022447,mMTS,mAltel,mAltel,,D77,2016-04-25T19:11:58+06:00,
1000000000160301,77005501515,mMTS,mAltel,mAltel,,D77,2016-04-25T19:12:02+06:00,
1000000000160303,77077761233,mKarTel,mMTS,mMTS,,D01,2016-04-25T19:21:22+06:00,
1000000000160304,77026675367,mKcell,mAltel,mKcell,D07,D02,2016-04-25T19:22:06+06:00,
1000000000160305,77028208626,mKcell,mAltel,mKcell,D07,D02,2016-04-25T19:25:16+06:00,
1000000000160306,77016661772,mKarTel,mKcell,mKcell,,D01,2016-04-25T19:26:38+06:00,
1000000000160307,77005559697,mMTS,mAltel,mAltel,,D77,2016-04-25T19:26:59+06:00,
1000000000160308,77789780658,mMTS,mKcell,mKcell,,D77,2016-04-25T19:27:21+06:00,
