NPId,Number,RecipientId,DonorId,RangeHolderId,OldRoute,NewRoute,PortDate,RowCount
1000000000301763,77053346696,mKcell,mKarTel,mKarTel,,D02,2016-12-27T18:01:14+06:00,19
1000000000301764,77056766770,mMTS,mKarTel,mKarTel,,D77,2016-12-27T18:01:58+06:00,
1000000000301766,77027778992,mAltel,mKcell,mKcell,,D07,2016-12-27T18:07:46+06:00,
1000000000301768,77017771227,mKarTel,mKcell,mKcell,,D01,2016-12-27T18:14:16+06:00,
1000000000301769,77773509535,mMTS,mKarTel,mKarTel,,D77,2016-12-27T18:14:21+06:00,
1000000000301770,77021402090,mKarTel,mMTS,mKcell,D77,D01,2016-12-27T18:15:39+06:00,
1000000000301771,77071668686,mKcell,mMTS,mMTS,,D02,2016-12-27T18:16:27+06:00,
1000000000301772,77775551575,mAltel,mKarTel,mKarTel,,D07,2016-12-27T18:16:58+06:00,
1000000000301773,77026224215,mKarTel,mMTS,mKcell,D77,D01,2016-12-27T18:17:19+06:00,
1000000000301775,77775551595,mAltel,mKarTel,mKarTel,,D07,2016-12-27T18:19:49+06:00,
1000000000301776,77052242100,mAltel,mKarTel,mKarTel,,D07,2016-12-27T18:20:49+06:00,
1000000000301777,77781788818,mKarTel,mKcell,mKcell,,D01,2016-12-27T18:21:35+06:00,
1000000000301779,77017780113,mKarTel,mKcell,mKcell,,D01,2016-12-27T18:22:54+06:00,
1000000000301780,77079959025,mMTS,mAltel,mMTS,D07,D77,2016-12-27T18:24:16+06:00,
1000000000301781,77015214492,mMTS,mKcell,mKcell,,D77,2016-12-27T18:24:41+06:00,
1000000000301782,77018028580,mKarTel,mMTS,mKcell,D77,D01,2016-12-27T18:25:27+06:00,
1000000000301785,77772320185,mMTS,mKarTel,mKarTel,,D77,2016-12-27T18:28:02+06:00,
1000000000301786,77003622102,mMTS,mAltel,mAltel,,D77,2016-12-27T18:27:46+06:00,
1000000000301787,77756525234,mAltel,mKcell,mKcell,,D07,2016-12-27T18:28:05+06:00,
