NPId,Number,RecipientId,DonorId,RangeHolderId,OldRoute,NewRoute,PortDate,RowCount
1000000000386556,77016079289,mKarTel,mKcell,mKcell,,D01,2017-05-21T11:09:38+06:00,3
1000000000386560,77018887582,mKcell,mAltel,mKcell,D07,D02,2017-05-21T11:28:00+06:00,
1000000000386561,77022346294,mMTS,mKcell,mKcell,,D77,2017-05-21T11:27:55+06:00,
