NPId,Number,RecipientId,DonorId,RangeHolderId,OldRoute,NewRoute,PortDate,RowCount
1000000000443756,77077369969,mMTS,mAltel,mMTS,D07,D77,2017-08-22T14:32:25+06:00,31
1000000000443757,77015161129,mKcell,mKarTel,mKcell,D01,D02,2017-08-22T14:33:49+06:00,
1000000000443759,77022155272,mKarTel,mKcell,mKcell,,D01,2017-08-22T14:41:05+06:00,
1000000000443760,77017220402,mKarTel,mKcell,mKcell,,D01,2017-08-22T14:41:03+06:00,
1000000000443761,77054446660,mMTS,mKarTel,mKarTel,,D77,2017-08-22T14:36:40+06:00,
1000000000443763,77083353530,mAltel,mMTS,mAltel,D77,D07,2017-08-22T14:37:14+06:00,
1000000000443764,77758450987,mMTS,mKarTel,mKcell,D01,D77,2017-08-22T14:37:36+06:00,
1000000000443765,77757156675,mKcell,mMTS,mKcell,D77,D02,2017-08-22T14:38:58+06:00,
1000000000443766,77072217907,mKarTel,mMTS,mMTS,,D01,2017-08-22T14:41:06+06:00,
1000000000443767,77759621200,mKcell,mAltel,mKcell,D07,D02,2017-08-22T14:40:29+06:00,
1000000000443768,77767130979,mMTS,mKarTel,mKarTel,,D77,2017-08-22T14:40:54+06:00,
1000000000443769,77025773660,mKcell,mKarTel,mKcell,D01,D02,2017-08-22T14:41:24+06:00,
1000000000443770,77022707072,mKarTel,mKcell,mKcell,,D01,2017-08-22T14:41:27+06:00,
1000000000443771,77027054444,mKcell,mAltel,mKcell,D07,D02,2017-08-22T14:41:24+06:00,
1000000000443772,77775855423,mKcell,mKarTel,mKarTel,,D02,2017-08-22T14:43:10+06:00,
1000000000443773,77052467777,mKarTel,mAltel,mKarTel,D07,D01,2017-08-22T14:43:50+06:00,
1000000000443776,77014968989,mKcell,mMTS,mKcell,D77,D02,2017-08-22T14:46:53+06:00,
1000000000443777,77078782323,mKarTel,mMTS,mMTS,,D01,2017-08-22T14:50:49+06:00,
1000000000443778,77078982323,mKarTel,mMTS,mMTS,,D01,2017-08-22T14:50:49+06:00,
1000000000443779,77475067348,mAltel,mMTS,mMTS,,D07,2017-08-22T14:49:09+06:00,
1000000000443780,77081104022,mMTS,mAltel,mAltel,,D77,2017-08-22T14:49:35+06:00,
1000000000443782,77078682323,mKarTel,mMTS,mMTS,,D01,2017-08-22T14:50:48+06:00,
1000000000443783,77011029945,mMTS,mKcell,mKcell,,D77,2017-08-22T14:50:17+06:00,
1000000000443784,77071112323,mKarTel,mMTS,mMTS,,D01,2017-08-22T14:56:38+06:00,
1000000000443785,77004550016,mMTS,mAltel,mAltel,,D77,2017-08-22T14:51:07+06:00,
1000000000443787,77752692981,mKcell,mMTS,mKcell,D77,D02,2017-08-22T14:52:32+06:00,
1000000000443788,77770468118,mAltel,mKarTel,mKarTel,,D07,2017-08-22T14:54:35+06:00,
1000000000443789,77777774102,mKarTel,mKcell,mKarTel,D02,D01,2017-08-22T14:56:39+06:00,
1000000000443791,77059049475,mMTS,mKarTel,mKarTel,,D77,2017-08-22T14:58:22+06:00,
1000000000443792,77072491629,mKcell,mMTS,mMTS,,D02,2017-08-22T14:58:22+06:00,
1000000000443793,77472261918,mKarTel,mMTS,mMTS,,D01,2017-08-22T14:58:26+06:00,
