NPId,Number,RecipientId,DonorId,RangeHolderId,OldRoute,NewRoute,PortDate,RowCount
1000000000180385,77026338173,mMTS,mKcell,mKcell,,D77,2016-05-24T19:31:06+06:00,7
1000000000180386,77779555111,mKcell,mKarTel,mKarTel,,D02,2016-05-24T19:35:23+06:00,
1000000000180387,77052185909,mAltel,mKarTel,mKarTel,,D07,2016-05-24T19:36:47+06:00,
1000000000180390,77075555070,mKcell,mMTS,mMTS,,D02,2016-05-24T19:40:57+06:00,
1000000000180391,77071366676,mKarTel,mMTS,mMTS,,D01,2016-05-24T19:40:33+06:00,
1000000000180392,77011003606,mKcell,mAltel,mKcell,D07,D02,2016-05-24T19:41:36+06:00,
1000000000180396,77770720745,mKcell,mKarTel,mKarTel,,D02,2016-05-24T19:55:23+06:00,
