NPId,Number,RecipientId,DonorId,RangeHolderId,OldRoute,NewRoute,PortDate,RowCount
1000000000263368,77774607793,mMTS,mKarTel,mKarTel,,D77,2016-10-17T10:01:50+06:00,15
1000000000263369,77011209879,mMTS,mKcell,mKcell,,D77,2016-10-17T10:02:33+06:00,
1000000000263370,77072980717,mMTS,mKcell,mMTS,D02,D77,2016-10-17T10:02:38+06:00,
1000000000263371,77075500710,mKcell,mMTS,mMTS,,D02,2016-10-17T10:04:05+06:00,
1000000000263372,77017162385,mMTS,mKcell,mKcell,,D77,2016-10-17T10:05:06+06:00,
1000000000263373,77016212493,mKcell,mMTS,mKcell,D77,D02,2016-10-17T10:05:30+06:00,
1000000000263374,77079010088,mKcell,mMTS,mMTS,,D02,2016-10-17T10:06:16+06:00,
1000000000263375,77789669408,mKarTel,mKcell,mKcell,,D01,2016-10-17T10:06:37+06:00,
1000000000263377,77078621099,mMTS,mKcell,mMTS,D02,D77,2016-10-17T10:15:01+06:00,
1000000000263380,77757538001,mKarTel,mKcell,mKcell,,D01,2016-10-17T10:25:14+06:00,
1000000000263382,77075452225,mAltel,mMTS,mMTS,,D07,2016-10-17T10:23:33+06:00,
1000000000263383,77017323491,mMTS,mKcell,mKcell,,D77,2016-10-17T10:23:58+06:00,
1000000000263384,77077318180,mKcell,mMTS,mMTS,,D02,2016-10-17T10:24:20+06:00,
1000000000263385,77017493008,mAltel,mKcell,mKcell,,D07,2016-10-17T10:25:08+06:00,
1000000000263387,77017323486,mMTS,mKcell,mKcell,,D77,2016-10-17T10:28:24+06:00,
