NPId,Number,RecipientId,DonorId,RangeHolderId,OldRoute,NewRoute,PortDate,RowCount
1000000000149960,77026158333,mKarTel,mKcell,mKcell,,D01,2016-04-12T15:30:39+06:00,47
1000000000149961,77071997067,mKarTel,mMTS,mMTS,,D01,2016-04-12T15:30:40+06:00,
1000000000149962,77781717172,mMTS,mAltel,mKcell,D07,D77,2016-04-12T15:30:10+06:00,
1000000000149963,77783586909,mMTS,mAltel,mKcell,D07,D77,2016-04-12T15:30:18+06:00,
1000000000149964,77021640604,mMTS,mKcell,mKcell,,D77,2016-04-12T15:31:19+06:00,
1000000000149966,77009181665,mMTS,mAltel,mAltel,,D77,2016-04-12T15:31:58+06:00,
1000000000149970,77005690969,mMTS,mAltel,mAltel,,D77,2016-04-12T15:33:27+06:00,
1000000000149973,77058047777,mMTS,mKarTel,mKarTel,,D77,2016-04-12T15:35:55+06:00,
1000000000149974,77015169771,mMTS,mKcell,mKcell,,D77,2016-04-12T15:35:24+06:00,
1000000000149976,77001199337,mMTS,mAltel,mAltel,,D77,2016-04-12T15:37:00+06:00,
1000000000149977,77019411919,mKcell,mKarTel,mKcell,D01,D02,2016-04-12T15:39:51+06:00,
1000000000149978,77752077790,mMTS,mAltel,mKcell,D07,D77,2016-04-12T15:37:45+06:00,
1000000000149980,77077310307,mKcell,mMTS,mMTS,,D02,2016-04-12T15:38:53+06:00,
1000000000149981,77757531960,mMTS,mKcell,mKcell,,D77,2016-04-12T15:40:03+06:00,
1000000000149982,77772060406,mMTS,mKarTel,mKarTel,,D77,2016-04-12T15:40:38+06:00,
1000000000149983,77051993555,mMTS,mKarTel,mKarTel,,D77,2016-04-12T15:40:42+06:00,
1000000000149984,77018868001,mKcell,mMTS,mKcell,D77,D02,2016-04-12T15:40:26+06:00,
1000000000149985,77766055555,mAltel,mKarTel,mKarTel,,D07,2016-04-12T15:42:01+06:00,
1000000000149986,77004141168,mKcell,mAltel,mAltel,,D02,2016-04-12T15:40:43+06:00,
1000000000149989,77025405758,mMTS,mKcell,mKcell,,D77,2016-04-12T15:42:55+06:00,
1000000000149993,77017630995,mMTS,mKcell,mKcell,,D77,2016-04-12T15:45:11+06:00,
1000000000149994,77081608687,mMTS,mAltel,mAltel,,D77,2016-04-12T15:43:28+06:00,
1000000000149995,77058241045,mMTS,mKarTel,mKarTel,,D77,2016-04-12T15:45:24+06:00,
1000000000149996,77017669322,mKarTel,mKcell,mKcell,,D01,2016-04-12T15:47:22+06:00,
1000000000149997,77083547517,mKcell,mAltel,mAltel,,D02,2016-04-12T15:47:40+06:00,
1000000000149999,77071382800,mKcell,mMTS,mMTS,,D02,2016-04-12T15:47:40+06:00,
1000000000150000,77757409297,mMTS,mKcell,mKcell,,D77,2016-04-12T15:47:31+06:00,
1000000000150002,77771350949,mKarTel,mAltel,mKarTel,D07,D01,2016-04-12T15:46:42+06:00,
1000000000150004,77778074900,mMTS,mKarTel,mKarTel,,D77,2016-04-12T15:48:05+06:00,
1000000000150005,77024117853,mMTS,mKcell,mKcell,,D77,2016-04-12T15:48:36+06:00,
1000000000150006,77774654665,mMTS,mKarTel,mKarTel,,D77,2016-04-12T15:49:30+06:00,
1000000000150007,77075310307,mKcell,mMTS,mMTS,,D02,2016-04-12T15:49:46+06:00,
1000000000150008,77059003344,mKcell,mKarTel,mKarTel,,D02,2016-04-12T15:51:57+06:00,
1000000000150009,77081507727,mMTS,mAltel,mAltel,,D77,2016-04-12T15:48:18+06:00,
1000000000150010,77012421625,mMTS,mKcell,mKcell,,D77,2016-04-12T15:52:52+06:00,
1000000000150011,77001700701,mMTS,mAltel,mAltel,,D77,2016-04-12T15:51:39+06:00,
1000000000150012,77028922268,mKarTel,mKcell,mKcell,,D01,2016-04-12T15:53:33+06:00,
1000000000150013,77719064846,mKcell,mKarTel,mKarTel,,D02,2016-04-12T15:55:06+06:00,
1000000000150014,77011943737,mMTS,mKcell,mKcell,,D77,2016-04-12T15:53:04+06:00,
1000000000150015,77774727258,mKcell,mKarTel,mKarTel,,D02,2016-04-12T15:55:32+06:00,
1000000000150016,77776888880,mAltel,mKcell,mKarTel,D02,D07,2016-04-12T15:54:22+06:00,
1000000000150017,77017000016,mMTS,mKcell,mKcell,,D77,2016-04-12T15:55:31+06:00,
1000000000150020,77055881823,mAltel,mKarTel,mKarTel,,D07,2016-04-12T15:58:17+06:00,
1000000000150021,77756096952,mMTS,mKcell,mKcell,,D77,2016-04-12T15:57:08+06:00,
1000000000150023,77027220311,mKarTel,mKcell,mKcell,,D01,2016-04-12T15:58:54+06:00,
1000000000150025,77009191257,mMTS,mAltel,mAltel,,D77,2016-04-12T15:58:51+06:00,
1000000000150027,77079025556,mKcell,mMTS,mMTS,,D02,2016-04-12T15:59:57+06:00,
