NPId,Number,RecipientId,DonorId,RangeHolderId,OldRoute,NewRoute,PortDate,RowCount
1000000000344029,77006006023,mKcell,mAltel,mAltel,,D02,2017-03-09T19:00:17+06:00,22
1000000000344030,77775559500,mKcell,mKarTel,mKarTel,,D02,2017-03-09T19:02:26+06:00,
1000000000344031,77006006035,mKcell,mAltel,mAltel,,D02,2017-03-09T19:02:47+06:00,
1000000000344032,77006006028,mKcell,mAltel,mAltel,,D02,2017-03-09T19:07:16+06:00,
1000000000344034,77006006018,mKcell,mAltel,mAltel,,D02,2017-03-09T19:10:37+06:00,
1000000000344035,77472228561,mAltel,mMTS,mMTS,,D07,2017-03-09T19:10:41+06:00,
1000000000344036,77076691090,mMTS,mAltel,mMTS,D07,D77,2017-03-09T19:11:27+06:00,
1000000000344037,77788844456,mMTS,mKcell,mKcell,,D77,2017-03-09T19:12:15+06:00,
1000000000344038,77021192945,mAltel,mKcell,mKcell,,D07,2017-03-09T19:13:06+06:00,
1000000000344039,77006006015,mKcell,mAltel,mAltel,,D02,2017-03-09T19:13:25+06:00,
1000000000344040,77087555339,mKcell,mKarTel,mAltel,D01,D02,2017-03-09T19:13:47+06:00,
1000000000344042,77006006051,mKcell,mAltel,mAltel,,D02,2017-03-09T19:15:49+06:00,
1000000000344043,77006006043,mKcell,mAltel,mAltel,,D02,2017-03-09T19:17:48+06:00,
1000000000344044,77715229318,mKcell,mKarTel,mKarTel,,D02,2017-03-09T19:18:28+06:00,
1000000000344045,77772574466,mMTS,mKarTel,mKarTel,,D77,2017-03-09T19:18:28+06:00,
1000000000344046,77054154641,mMTS,mKarTel,mKarTel,,D77,2017-03-09T19:20:21+06:00,
1000000000344048,77006006049,mKcell,mAltel,mAltel,,D02,2017-03-09T19:23:55+06:00,
1000000000344049,77778047474,mKcell,mKarTel,mKarTel,,D02,2017-03-09T19:24:56+06:00,
1000000000344050,77756400055,mKarTel,mKcell,mKcell,,D01,2017-03-09T19:25:30+06:00,
1000000000344051,77006006019,mKcell,mAltel,mAltel,,D02,2017-03-09T19:26:56+06:00,
1000000000344052,77006006041,mKcell,mAltel,mAltel,,D02,2017-03-09T19:28:58+06:00,
1000000000344053,77006006042,mKcell,mAltel,mAltel,,D02,2017-03-09T19:29:05+06:00,
