NPId,Number,RecipientId,DonorId,RangeHolderId,OldRoute,NewRoute,PortDate,RowCount
1000000000266246,77779699007,mKarTel,mMTS,mKarTel,D77,D01,2016-10-21T18:31:36+06:00,42
1000000000266247,77013095158,mAltel,mKcell,mKcell,,D07,2016-10-21T18:32:56+06:00,
1000000000266249,77788840000,mAltel,mKarTel,mKcell,D01,D07,2016-10-21T18:37:43+06:00,
1000000000266250,77070607177,mKarTel,mMTS,mMTS,,D01,2016-10-21T18:38:21+06:00,
1000000000266250,77070607178,mKarTel,mMTS,mMTS,,D01,2016-10-21T18:38:21+06:00,
1000000000266250,77070607179,mKarTel,mMTS,mMTS,,D01,2016-10-21T18:38:21+06:00,
1000000000266250,77070607180,mKarTel,mMTS,mMTS,,D01,2016-10-21T18:38:21+06:00,
1000000000266250,77070607181,mKarTel,mMTS,mMTS,,D01,2016-10-21T18:38:21+06:00,
1000000000266250,77070607234,mKarTel,mMTS,mMTS,,D01,2016-10-21T18:38:21+06:00,
1000000000266250,77071059252,mKarTel,mMTS,mMTS,,D01,2016-10-21T18:38:21+06:00,
1000000000266250,77071329252,mKarTel,mMTS,mMTS,,D01,2016-10-21T18:38:21+06:00,
1000000000266250,77071889252,mKarTel,mMTS,mMTS,,D01,2016-10-21T18:38:21+06:00,
1000000000266250,77075990577,mKarTel,mMTS,mMTS,,D01,2016-10-21T18:38:21+06:00,
1000000000266250,77077424543,mKarTel,mMTS,mMTS,,D01,2016-10-21T18:38:21+06:00,
1000000000266250,77077630485,mKarTel,mMTS,mMTS,,D01,2016-10-21T18:38:21+06:00,
1000000000266250,77077897023,mKarTel,mMTS,mMTS,,D01,2016-10-21T18:38:21+06:00,
1000000000266250,77078671446,mKarTel,mMTS,mMTS,,D01,2016-10-21T18:38:21+06:00,
1000000000266250,77079907894,mKarTel,mMTS,mMTS,,D01,2016-10-21T18:38:21+06:00,
1000000000266250,77079989889,mKarTel,mMTS,mMTS,,D01,2016-10-21T18:38:21+06:00,
1000000000266250,77079989899,mKarTel,mMTS,mMTS,,D01,2016-10-21T18:38:21+06:00,
1000000000266250,77079989900,mKarTel,mMTS,mMTS,,D01,2016-10-21T18:38:21+06:00,
1000000000266250,77079989909,mKarTel,mMTS,mMTS,,D01,2016-10-21T18:38:21+06:00,
1000000000266250,77079989933,mKarTel,mMTS,mMTS,,D01,2016-10-21T18:38:21+06:00,
1000000000266250,77471019252,mKarTel,mMTS,mMTS,,D01,2016-10-21T18:38:21+06:00,
1000000000266250,77472170487,mKarTel,mMTS,mMTS,,D01,2016-10-21T18:38:21+06:00,
1000000000266250,77472879533,mKarTel,mMTS,mMTS,,D01,2016-10-21T18:38:21+06:00,
1000000000266250,77475051014,mKarTel,mMTS,mMTS,,D01,2016-10-21T18:38:21+06:00,
1000000000266250,77475190977,mKarTel,mMTS,mMTS,,D01,2016-10-21T18:38:21+06:00,
1000000000266250,77475218378,mKarTel,mMTS,mMTS,,D01,2016-10-21T18:38:21+06:00,
1000000000266250,77475318878,mKarTel,mMTS,mMTS,,D01,2016-10-21T18:38:21+06:00,
1000000000266250,77475795449,mKarTel,mMTS,mMTS,,D01,2016-10-21T18:38:21+06:00,
1000000000266250,77475997059,mKarTel,mMTS,mMTS,,D01,2016-10-21T18:38:21+06:00,
1000000000266250,77479309458,mKarTel,mMTS,mMTS,,D01,2016-10-21T18:38:21+06:00,
1000000000266250,77479309955,mKarTel,mMTS,mMTS,,D01,2016-10-21T18:38:21+06:00,
1000000000266250,77479406653,mKarTel,mMTS,mMTS,,D01,2016-10-21T18:38:21+06:00,
1000000000266250,77479808123,mKarTel,mMTS,mMTS,,D01,2016-10-21T18:38:21+06:00,
1000000000266251,77019210500,mKarTel,mMTS,mKcell,D77,D01,2016-10-21T18:41:11+06:00,
1000000000266253,77017491796,mMTS,mKcell,mKcell,,D77,2016-10-21T18:44:30+06:00,
1000000000266254,77075618104,mAltel,mMTS,mMTS,,D07,2016-10-21T18:47:09+06:00,
1000000000266255,77054440003,mKarTel,mAltel,mKarTel,D07,D01,2016-10-21T18:47:31+06:00,
1000000000266256,77029494994,mMTS,mKcell,mKcell,,D77,2016-10-21T18:47:26+06:00,
1000000000266257,77761449153,mMTS,mAltel,mKarTel,D07,D77,2016-10-21T18:49:32+06:00,
