NPId,Number,RecipientId,DonorId,RangeHolderId,OldRoute,NewRoute,PortDate,RowCount
1000000000373389,77017325779,mKcell,mMTS,mKcell,D77,D02,2017-04-27T19:36:21+06:00,3
1000000000373391,77750009907,mMTS,mKcell,mKcell,,D77,2017-04-27T19:37:53+06:00,
1000000000373392,77787394145,mMTS,mKcell,mKcell,D02,D77,2017-04-27T19:44:57+06:00,
