NPId,Number,RecipientId,DonorId,RangeHolderId,OldRoute,NewRoute,PortDate,RowCount
1000000000182458,77015226899,mMTS,mKcell,mKcell,,D77,2016-05-30T09:28:42+06:00,5
1000000000183360,77752075886,mKarTel,mKcell,mKcell,,D01,2016-05-30T09:02:47+06:00,
1000000000183361,77712885050,mKcell,mKarTel,mKarTel,,D02,2016-05-30T09:18:49+06:00,
1000000000183362,77022727597,mKarTel,mKcell,mKcell,,D01,2016-05-30T09:22:59+06:00,
1000000000183363,77787009919,mKcell,mAltel,mKcell,D07,D02,2016-05-30T09:24:50+06:00,
