NPId,Number,RecipientId,DonorId,RangeHolderId,OldRoute,NewRoute,PortDate,RowCount
1000000000370440,77053825295,mKcell,mKarTel,mKarTel,,D02,2017-04-23T18:32:48+06:00,3
1000000000370442,77766919696,mKcell,mKarTel,mKarTel,,D02,2017-04-23T18:37:23+06:00,
1000000000370444,77765840707,mKcell,mKarTel,mKarTel,,D02,2017-04-23T18:45:13+06:00,
