NPId,Number,RecipientId,DonorId,RangeHolderId,OldRoute,NewRoute,PortDate,RowCount
1000000000279788,77015123534,mKarTel,mKcell,mKcell,,D01,2016-11-17T09:48:28+06:00,13
1000000000279788,77015329834,mKarTel,mKcell,mKcell,,D01,2016-11-17T09:48:28+06:00,
1000000000279788,77019148262,mKarTel,mKcell,mKcell,,D01,2016-11-17T09:48:28+06:00,
1000000000279788,77019518403,mKarTel,mKcell,mKcell,,D01,2016-11-17T09:48:28+06:00,
1000000000279788,77019533667,mKarTel,mKcell,mKcell,,D01,2016-11-17T09:48:28+06:00,
1000000000279788,77019533668,mKarTel,mKcell,mKcell,,D01,2016-11-17T09:48:28+06:00,
1000000000279788,77019939043,mKarTel,mKcell,mKcell,,D01,2016-11-17T09:48:28+06:00,
1000000000279788,77019939489,mKarTel,mKcell,mKcell,,D01,2016-11-17T09:48:28+06:00,
1000000000279788,77019939639,mKarTel,mKcell,mKcell,,D01,2016-11-17T09:48:28+06:00,
1000000000280235,77024313431,mMTS,mKcell,mKcell,,D77,2016-11-17T09:36:51+06:00,
1000000000280237,77022420091,mKcell,mMTS,mKcell,D77,D02,2016-11-17T09:46:15+06:00,
1000000000280238,77755664477,mKarTel,mKcell,mKcell,,D01,2016-11-17T09:52:21+06:00,
1000000000280239,77758894644,mKcell,mMTS,mKcell,D77,D02,2016-11-17T09:59:55+06:00,
