NPId,Number,RecipientId,DonorId,RangeHolderId,OldRoute,NewRoute,PortDate,RowCount
1000000000340143,77017303640,mKarTel,mKcell,mKcell,,D01,2017-03-06T10:10:21+06:00,29
1000000000340144,77015226223,mKarTel,mKcell,mKcell,,D01,2017-03-06T10:14:39+06:00,
1000000000341379,77009796878,mMTS,mKcell,mAltel,D02,D77,2017-03-06T10:01:47+06:00,
1000000000341380,77770700700,mKcell,mKarTel,mKarTel,,D02,2017-03-06T10:05:32+06:00,
1000000000341381,77017177704,mKcell,mMTS,mKcell,D77,D02,2017-03-06T10:06:15+06:00,
1000000000341382,77027002797,mKarTel,mKcell,mKcell,,D01,2017-03-06T10:08:12+06:00,
1000000000341383,77758443889,mAltel,mKcell,mKcell,,D07,2017-03-06T10:09:30+06:00,
1000000000341384,77077455414,mKarTel,mMTS,mMTS,,D01,2017-03-06T10:11:28+06:00,
1000000000341385,77715334411,mMTS,mKarTel,mKarTel,,D77,2017-03-06T10:12:24+06:00,
1000000000341386,77770007505,mKcell,mKarTel,mKarTel,,D02,2017-03-06T10:12:35+06:00,
1000000000341387,77771111677,mKcell,mKarTel,mKarTel,,D02,2017-03-06T10:14:15+06:00,
1000000000341388,77010771203,mKarTel,mKcell,mKcell,,D01,2017-03-06T10:14:18+06:00,
1000000000341389,77771111617,mKcell,mKarTel,mKarTel,,D02,2017-03-06T10:15:26+06:00,
1000000000341391,77775551981,mKcell,mKarTel,mKarTel,,D02,2017-03-06T10:16:53+06:00,
1000000000341392,77051348202,mMTS,mKarTel,mKarTel,,D77,2017-03-06T10:16:32+06:00,
1000000000341394,77775551985,mKcell,mKarTel,mKarTel,,D02,2017-03-06T10:17:27+06:00,
1000000000341395,77775551986,mKcell,mKarTel,mKarTel,,D02,2017-03-06T10:19:08+06:00,
1000000000341396,77775551998,mKcell,mKarTel,mKarTel,,D02,2017-03-06T10:20:14+06:00,
1000000000341397,77775552565,mKcell,mKarTel,mKarTel,,D02,2017-03-06T10:22:01+06:00,
1000000000341398,77015372280,mKarTel,mKcell,mKcell,,D01,2017-03-06T10:22:58+06:00,
1000000000341399,77775555139,mKcell,mKarTel,mKarTel,,D02,2017-03-06T10:23:48+06:00,
1000000000341400,77775557505,mKcell,mKarTel,mKarTel,,D02,2017-03-06T10:24:12+06:00,
1000000000341401,77778880086,mKcell,mKarTel,mKarTel,,D02,2017-03-06T10:25:56+06:00,
1000000000341403,77051549006,mKarTel,mKcell,mKarTel,D02,D01,2017-03-06T10:26:28+06:00,
1000000000341404,77775550057,mKcell,mKarTel,mKarTel,,D02,2017-03-06T10:27:31+06:00,
1000000000341405,77473856746,mKarTel,mMTS,mMTS,,D01,2017-03-06T10:28:29+06:00,
1000000000341406,77770077117,mKcell,mKarTel,mKarTel,,D02,2017-03-06T10:29:15+06:00,
1000000000341408,77770022202,mKcell,mKarTel,mKarTel,,D02,2017-03-06T10:29:51+06:00,
1000000000341410,77785656005,mAltel,mKcell,mKcell,,D07,2017-03-06T10:29:50+06:00,
