NPId,Number,RecipientId,DonorId,RangeHolderId,OldRoute,NewRoute,PortDate,RowCount
1000000000204099,77754988595,mAltel,mKcell,mKcell,,D07,2016-07-25T12:00:07+06:00,30
1000000000216588,77779502256,mKcell,mKarTel,mKarTel,,D02,2016-07-25T12:01:06+06:00,
1000000000216589,77779502260,mKcell,mKarTel,mKarTel,,D02,2016-07-25T12:02:09+06:00,
1000000000216592,77779502261,mKcell,mKarTel,mKarTel,,D02,2016-07-25T12:04:48+06:00,
1000000000216594,77779502257,mKcell,mKarTel,mKarTel,,D02,2016-07-25T12:06:35+06:00,
1000000000216604,77051888858,mMTS,mKarTel,mKarTel,,D77,2016-07-25T12:01:13+06:00,
1000000000216605,77015596066,mKcell,mAltel,mKcell,D07,D02,2016-07-25T12:01:08+06:00,
1000000000216606,77786600209,mMTS,mKcell,mKcell,,D77,2016-07-25T12:02:21+06:00,
1000000000216607,77054417084,mMTS,mKarTel,mKarTel,,D77,2016-07-25T12:04:04+06:00,
1000000000216609,77764211116,mKcell,mKarTel,mKarTel,,D02,2016-07-25T12:06:18+06:00,
1000000000216610,77014227432,mMTS,mKcell,mKcell,,D77,2016-07-25T12:05:31+06:00,
1000000000216611,77752190732,mMTS,mKcell,mKcell,,D77,2016-07-25T12:05:53+06:00,
1000000000216612,77777277000,mMTS,mKarTel,mKarTel,,D77,2016-07-25T12:07:14+06:00,
1000000000216613,77751934062,mMTS,mKcell,mKcell,,D77,2016-07-25T12:07:26+06:00,
1000000000216614,77019656965,mMTS,mKcell,mKcell,,D77,2016-07-25T12:08:53+06:00,
1000000000216616,77762988887,mKcell,mKarTel,mKarTel,,D02,2016-07-25T12:10:42+06:00,
1000000000216617,77029874224,mKcell,mMTS,mKcell,D77,D02,2016-07-25T12:09:43+06:00,
1000000000216618,77070007080,mKarTel,mMTS,mMTS,,D01,2016-07-25T12:10:23+06:00,
1000000000216619,77027479048,mKarTel,mKcell,mKcell,,D01,2016-07-25T12:10:47+06:00,
1000000000216620,77715968282,mMTS,mKarTel,mKarTel,,D77,2016-07-25T12:13:05+06:00,
1000000000216621,77001124544,mMTS,mAltel,mAltel,,D77,2016-07-25T12:12:17+06:00,
1000000000216622,77003000065,mKcell,mAltel,mAltel,,D02,2016-07-25T12:16:49+06:00,
1000000000216624,77007577875,mAltel,mKarTel,mAltel,D01,D07,2016-07-25T12:18:54+06:00,
1000000000216625,77758225962,mMTS,mKcell,mKcell,,D77,2016-07-25T12:20:09+06:00,
1000000000216626,77023649975,mKcell,mAltel,mKcell,D07,D02,2016-07-25T12:18:19+06:00,
1000000000216627,77083238890,mMTS,mAltel,mAltel,,D77,2016-07-25T12:18:08+06:00,
1000000000216628,77777461118,mKarTel,mAltel,mKarTel,D07,D01,2016-07-25T12:20:52+06:00,
1000000000216632,77007771193,mKcell,mAltel,mAltel,,D02,2016-07-25T12:27:05+06:00,
1000000000216633,77786705351,mMTS,mKcell,mKcell,,D77,2016-07-25T12:27:22+06:00,
1000000000216634,77758225961,mMTS,mKcell,mKcell,,D77,2016-07-25T12:29:07+06:00,
