NPId,Number,RecipientId,DonorId,RangeHolderId,OldRoute,NewRoute,PortDate,RowCount
1000000000293672,77766200008,mMTS,mKarTel,mKarTel,,D77,2016-12-11T21:01:57+06:00,2
1000000000293674,77082555255,mKcell,mAltel,mAltel,,D02,2016-12-11T21:26:02+06:00,
