NPId,Number,RecipientId,DonorId,RangeHolderId,OldRoute,NewRoute,PortDate,RowCount
1000000000098570,77771455585,mKcell,mKarTel,mKarTel,,D02,2016-02-24T20:01:12+06:00,7
1000000000098571,77086823251,mKcell,mAltel,mAltel,,D02,2016-02-24T20:02:49+06:00,
1000000000098572,77015161651,mKarTel,mKcell,mKcell,,D01,2016-02-24T20:06:38+06:00,
1000000000098573,77789002983,mAltel,mKcell,mKcell,,D07,2016-02-24T20:10:19+06:00,
1000000000098574,77772362313,mAltel,mKarTel,mKarTel,,D07,2016-02-24T20:12:51+06:00,
1000000000098575,77789002984,mAltel,mKcell,mKcell,,D07,2016-02-24T20:14:15+06:00,
1000000000098580,77766009955,mKcell,mKarTel,mKarTel,,D02,2016-02-24T20:28:37+06:00,
