NPId,Number,RecipientId,DonorId,RangeHolderId,OldRoute,NewRoute,PortDate,RowCount
1000000000404136,77019323537,mKarTel,mKcell,mKcell,,D01,2017-06-16T18:27:44+06:00,18
1000000000404540,77027970886,mKarTel,mKcell,mKcell,,D01,2017-06-16T18:02:43+06:00,
1000000000404541,77774261165,mMTS,mKarTel,mKarTel,,D77,2017-06-16T18:02:48+06:00,
1000000000404542,77780066613,mKarTel,mKcell,mKcell,,D01,2017-06-16T18:03:39+06:00,
1000000000404543,77052111007,mKcell,mMTS,mKarTel,D77,D02,2017-06-16T18:06:35+06:00,
1000000000404544,77016882689,mAltel,mKcell,mKcell,,D07,2017-06-16T18:09:01+06:00,
1000000000404546,77007001964,mKcell,mAltel,mAltel,,D02,2017-06-16T18:11:13+06:00,
1000000000404547,77016326660,mKarTel,mKcell,mKcell,,D01,2017-06-16T18:11:25+06:00,
1000000000404548,77759116227,mKarTel,mMTS,mKcell,D77,D01,2017-06-16T18:13:18+06:00,
1000000000404550,77784497780,mKcell,mKarTel,mKcell,D01,D02,2017-06-16T18:16:58+06:00,
1000000000404551,77010807757,mAltel,mKcell,mKcell,,D07,2017-06-16T18:16:58+06:00,
1000000000404553,77052300830,mMTS,mKarTel,mKarTel,,D77,2017-06-16T18:20:45+06:00,
1000000000404554,77713160495,mMTS,mKarTel,mKarTel,,D77,2017-06-16T18:22:01+06:00,
1000000000404555,77784497781,mKcell,mKarTel,mKcell,D01,D02,2017-06-16T18:23:42+06:00,
1000000000404557,77051684499,mAltel,mKarTel,mKarTel,,D07,2017-06-16T18:24:42+06:00,
1000000000404558,77014750545,mAltel,mKcell,mKcell,D02,D07,2017-06-16T18:25:07+06:00,
1000000000404560,77081878721,mKcell,mAltel,mAltel,,D02,2017-06-16T18:27:50+06:00,
1000000000404561,77785556680,mKarTel,mKcell,mKcell,,D01,2017-06-16T18:28:52+06:00,
