NPId,Number,RecipientId,DonorId,RangeHolderId,OldRoute,NewRoute,PortDate,RowCount
1000000000330154,77017361631,mKarTel,mKcell,mKcell,,D01,2017-02-17T11:36:15+06:00,18
1000000000330205,77017234331,mKcell,mKarTel,mKcell,D01,D02,2017-02-17T11:42:13+06:00,
1000000000330206,77017447719,mKcell,mKarTel,mKcell,D01,D02,2017-02-17T11:44:28+06:00,
1000000000330241,77017333934,mMTS,mKarTel,mKcell,D01,D77,2017-02-17T11:33:31+06:00,
1000000000330242,77018000886,mKcell,mMTS,mKcell,D77,D02,2017-02-17T11:33:45+06:00,
1000000000330243,77710230017,mKcell,mKarTel,mKarTel,,D02,2017-02-17T11:36:59+06:00,
1000000000330244,77015118428,mKarTel,mKcell,mKcell,,D01,2017-02-17T11:36:55+06:00,
1000000000330245,77766677792,mMTS,mKarTel,mKarTel,,D77,2017-02-17T11:38:07+06:00,
1000000000330247,77711772172,mKcell,mKarTel,mKarTel,,D02,2017-02-17T11:39:41+06:00,
1000000000330248,77711772182,mKcell,mKarTel,mKarTel,,D02,2017-02-17T11:43:21+06:00,
1000000000330249,77779944321,mMTS,mKarTel,mKarTel,,D77,2017-02-17T11:45:00+06:00,
1000000000330250,77711772158,mKcell,mKarTel,mKarTel,,D02,2017-02-17T11:45:27+06:00,
1000000000330251,77025053051,mKcell,mMTS,mKcell,D77,D02,2017-02-17T11:48:11+06:00,
1000000000330252,77054209616,mMTS,mKarTel,mKarTel,,D77,2017-02-17T11:49:55+06:00,
1000000000330255,77773137698,mMTS,mKarTel,mKarTel,,D77,2017-02-17T11:52:11+06:00,
1000000000330256,77002201122,mKarTel,mAltel,mAltel,,D01,2017-02-17T11:52:55+06:00,
1000000000330259,77028881566,mKcell,mAltel,mKcell,D07,D02,2017-02-17T11:55:17+06:00,
1000000000330261,77752439955,mKarTel,mKcell,mKcell,,D01,2017-02-17T11:59:45+06:00,
