NPId,Number,RecipientId,DonorId,RangeHolderId,OldRoute,NewRoute,PortDate,RowCount
1000000000274701,77772852400,mMTS,mKarTel,mKarTel,,D77,2016-11-05T16:00:40+06:00,29
1000000000274702,77077377677,mKcell,mMTS,mMTS,,D02,2016-11-05T16:01:21+06:00,
1000000000274703,77072031661,mKarTel,mMTS,mMTS,,D01,2016-11-05T16:04:02+06:00,
1000000000274704,77020002508,mAltel,mKcell,mKcell,,D07,2016-11-05T16:03:59+06:00,
1000000000274706,77012223672,mAltel,mKcell,mKcell,,D07,2016-11-05T16:04:30+06:00,
1000000000274707,77014444039,mKcell,mMTS,mKcell,D77,D02,2016-11-05T16:06:20+06:00,
1000000000274709,77772468381,mMTS,mKarTel,mKarTel,,D77,2016-11-05T16:07:29+06:00,
1000000000274710,77089874619,mKcell,mMTS,mAltel,D77,D02,2016-11-05T16:08:21+06:00,
1000000000274712,77752316688,mAltel,mKcell,mKcell,,D07,2016-11-05T16:08:23+06:00,
1000000000274713,77775595978,mMTS,mKarTel,mKarTel,,D77,2016-11-05T16:09:23+06:00,
1000000000274714,77753553434,mMTS,mKcell,mKcell,,D77,2016-11-05T16:09:18+06:00,
1000000000274715,77013178110,mKarTel,mMTS,mKcell,D77,D01,2016-11-05T16:09:36+06:00,
1000000000274716,77477021257,mKarTel,mMTS,mMTS,,D01,2016-11-05T16:10:01+06:00,
1000000000274717,77079908500,mKcell,mMTS,mMTS,,D02,2016-11-05T16:10:46+06:00,
1000000000274718,77752099501,mKarTel,mKcell,mKcell,,D01,2016-11-05T16:12:13+06:00,
1000000000274719,77757339497,mMTS,mKcell,mKcell,,D77,2016-11-05T16:12:27+06:00,
1000000000274723,77028706458,mAltel,mKcell,mKcell,,D07,2016-11-05T16:13:55+06:00,
1000000000274724,77026815751,mAltel,mKcell,mKcell,,D07,2016-11-05T16:14:08+06:00,
1000000000274725,77013307977,mKcell,mMTS,mKcell,D77,D02,2016-11-05T16:14:39+06:00,
1000000000274726,77473053035,mKcell,mMTS,mMTS,,D02,2016-11-05T16:16:52+06:00,
1000000000274727,77753268962,mMTS,mKcell,mKcell,,D77,2016-11-05T16:17:33+06:00,
1000000000274728,77071856999,mKarTel,mMTS,mMTS,,D01,2016-11-05T16:19:48+06:00,
1000000000274730,77071900067,mKarTel,mMTS,mMTS,,D01,2016-11-05T16:20:30+06:00,
1000000000274731,77765988886,mKcell,mKarTel,mKarTel,,D02,2016-11-05T16:22:33+06:00,
1000000000274732,77059659826,mKcell,mKarTel,mKarTel,,D02,2016-11-05T16:24:31+06:00,
1000000000274733,77022354716,mKarTel,mKcell,mKcell,,D01,2016-11-05T16:25:01+06:00,
1000000000274734,77773706183,mKarTel,mAltel,mKarTel,D07,D01,2016-11-05T16:25:01+06:00,
1000000000274735,77077110189,mKcell,mMTS,mMTS,,D02,2016-11-05T16:26:05+06:00,
1000000000274736,77775836606,mMTS,mKarTel,mKarTel,,D77,2016-11-05T16:29:06+06:00,
