NPId,Number,RecipientId,DonorId,RangeHolderId,OldRoute,NewRoute,PortDate,RowCount
1000000000267946,77018884756,mKarTel,mKcell,mKcell,,D01,2016-10-25T16:01:30+06:00,39
1000000000267947,77000800059,mKcell,mAltel,mAltel,,D02,2016-10-25T16:01:26+06:00,
1000000000267948,77029806999,mAltel,mKcell,mKcell,,D07,2016-10-25T16:01:32+06:00,
1000000000267949,77018884728,mKarTel,mKcell,mKcell,,D01,2016-10-25T16:02:06+06:00,
1000000000267951,77052049762,mMTS,mKarTel,mKarTel,,D77,2016-10-25T16:03:25+06:00,
1000000000267952,77719114454,mMTS,mKarTel,mKarTel,,D77,2016-10-25T16:07:04+06:00,
1000000000267953,77077731133,mKarTel,mMTS,mMTS,,D01,2016-10-25T16:08:09+06:00,
1000000000267954,77089601396,mAltel,mKcell,mAltel,D02,D07,2016-10-25T16:08:02+06:00,
1000000000267955,77017315667,mKarTel,mKcell,mKcell,,D01,2016-10-25T16:08:41+06:00,
1000000000267956,77085443353,mAltel,mMTS,mAltel,D77,D07,2016-10-25T16:09:18+06:00,
1000000000267957,77021089832,mMTS,mKcell,mKcell,,D77,2016-10-25T16:09:27+06:00,
1000000000267958,77008880094,mKcell,mAltel,mAltel,,D02,2016-10-25T16:09:40+06:00,
1000000000267959,77789015585,mKarTel,mKcell,mKcell,,D01,2016-10-25T16:10:34+06:00,
1000000000267960,77785509898,mMTS,mKcell,mKcell,,D77,2016-10-25T16:10:23+06:00,
1000000000267961,77077014200,mKarTel,mMTS,mMTS,,D01,2016-10-25T16:10:34+06:00,
1000000000267962,77014199896,mKarTel,mKcell,mKcell,,D01,2016-10-25T16:11:09+06:00,
1000000000267963,77019896020,mMTS,mKcell,mKcell,,D77,2016-10-25T16:12:02+06:00,
1000000000267964,77715314071,mKarTel,mMTS,mKarTel,D77,D01,2016-10-25T16:14:17+06:00,
1000000000267965,77011113788,mKarTel,mKcell,mKcell,,D01,2016-10-25T16:14:23+06:00,
1000000000267966,77000800058,mKcell,mAltel,mAltel,,D02,2016-10-25T16:14:35+06:00,
1000000000267968,77786748662,mKarTel,mKcell,mKcell,,D01,2016-10-25T16:16:55+06:00,
1000000000267969,77786748661,mKarTel,mKcell,mKcell,,D01,2016-10-25T16:20:09+06:00,
1000000000267970,77015625353,mKcell,mMTS,mKcell,D77,D02,2016-10-25T16:19:52+06:00,
1000000000267971,77000800061,mKcell,mAltel,mAltel,,D02,2016-10-25T16:19:46+06:00,
1000000000267972,77477626768,mAltel,mMTS,mMTS,,D07,2016-10-25T16:20:10+06:00,
1000000000267973,77784370202,mKarTel,mKcell,mKcell,,D01,2016-10-25T16:21:06+06:00,
1000000000267975,77000800062,mKcell,mAltel,mAltel,,D02,2016-10-25T16:21:20+06:00,
1000000000267976,77055988551,mMTS,mKarTel,mKarTel,,D77,2016-10-25T16:22:36+06:00,
1000000000267978,77777435082,mMTS,mKarTel,mKarTel,,D77,2016-10-25T16:22:41+06:00,
1000000000267980,77023054127,mKarTel,mKcell,mKcell,,D01,2016-10-25T16:23:54+06:00,
1000000000267981,77761331111,mMTS,mKarTel,mKarTel,,D77,2016-10-25T16:24:38+06:00,
1000000000267982,77014660880,mMTS,mKcell,mKcell,,D77,2016-10-25T16:24:42+06:00,
1000000000267983,77477877070,mKcell,mMTS,mMTS,D77,D02,2016-10-25T16:24:45+06:00,
1000000000267984,77471370057,mKarTel,mMTS,mMTS,,D01,2016-10-25T16:25:16+06:00,
1000000000267985,77077471048,mKarTel,mMTS,mMTS,,D01,2016-10-25T16:25:27+06:00,
1000000000267987,77021499039,mKarTel,mKcell,mKcell,,D01,2016-10-25T16:26:12+06:00,
1000000000267988,77000800063,mKcell,mAltel,mAltel,,D02,2016-10-25T16:27:03+06:00,
1000000000267989,77018536138,mMTS,mKcell,mKcell,,D77,2016-10-25T16:26:59+06:00,
1000000000267991,77000800064,mKcell,mAltel,mAltel,,D02,2016-10-25T16:29:34+06:00,
