NPId,Number,RecipientId,DonorId,RangeHolderId,OldRoute,NewRoute,PortDate,RowCount
1000000000387220,77011777387,mMTS,mKcell,mKcell,,D77,2017-05-22T17:01:54+06:00,26
1000000000387221,77474641746,mKarTel,mMTS,mMTS,,D01,2017-05-22T17:01:59+06:00,
1000000000387222,77765001992,mAltel,mKarTel,mKarTel,,D07,2017-05-22T17:03:23+06:00,
1000000000387223,77029597743,mKcell,mMTS,mKcell,D77,D02,2017-05-22T17:05:40+06:00,
1000000000387224,77781689577,mKcell,mMTS,mKcell,D77,D02,2017-05-22T17:06:19+06:00,
1000000000387225,77075553995,mAltel,mMTS,mMTS,,D07,2017-05-22T17:08:41+06:00,
1000000000387226,77776124623,mKarTel,mMTS,mKarTel,D77,D01,2017-05-22T17:08:56+06:00,
1000000000387227,77019991161,mKcell,mMTS,mKcell,D77,D02,2017-05-22T17:10:37+06:00,
1000000000387228,77017335200,mKarTel,mKcell,mKcell,,D01,2017-05-22T17:11:11+06:00,
1000000000387229,77755341712,mMTS,mKcell,mKcell,,D77,2017-05-22T17:12:07+06:00,
1000000000387231,77016503863,mKcell,mAltel,mKcell,D07,D02,2017-05-22T17:15:46+06:00,
1000000000387232,77783991865,mKarTel,mKcell,mKcell,,D01,2017-05-22T17:16:27+06:00,
1000000000387234,77012927490,mKarTel,mKcell,mKcell,,D01,2017-05-22T17:18:15+06:00,
1000000000387236,77773012020,mMTS,mKarTel,mKarTel,,D77,2017-05-22T17:20:44+06:00,
1000000000387237,77017113291,mKarTel,mKcell,mKcell,,D01,2017-05-22T17:21:12+06:00,
1000000000387238,77772749339,mMTS,mKarTel,mKarTel,,D77,2017-05-22T17:22:07+06:00,
1000000000387239,77019830103,mAltel,mKcell,mKcell,,D07,2017-05-22T17:23:02+06:00,
1000000000387240,77715987729,mKcell,mKarTel,mKarTel,,D02,2017-05-22T17:24:29+06:00,
1000000000387241,77017292940,mKarTel,mKcell,mKcell,,D01,2017-05-22T17:24:25+06:00,
1000000000387242,77079954905,mKcell,mMTS,mMTS,,D02,2017-05-22T17:25:00+06:00,
1000000000387243,77786778211,mMTS,mAltel,mKcell,D07,D77,2017-05-22T17:25:05+06:00,
1000000000387244,77015668364,mKarTel,mMTS,mKcell,D77,D01,2017-05-22T17:25:23+06:00,
1000000000387246,77022024411,mMTS,mKcell,mKcell,,D77,2017-05-22T17:27:03+06:00,
1000000000387249,77073769712,mKcell,mMTS,mMTS,,D02,2017-05-22T17:28:47+06:00,
1000000000387251,77056290088,mKcell,mKarTel,mKarTel,,D02,2017-05-22T17:29:17+06:00,
1000000000387252,77052493474,mMTS,mKarTel,mKarTel,,D77,2017-05-22T17:29:29+06:00,
