NPId,Number,RecipientId,DonorId,RangeHolderId,OldRoute,NewRoute,PortDate,RowCount
1000000000232233,77057784725,mKarTel,mMTS,mKarTel,D77,D01,2016-08-22T11:00:12+06:00,20
1000000000232234,77027816374,mMTS,mKcell,mKcell,,D77,2016-08-22T11:01:19+06:00,
1000000000232236,77771431808,mKarTel,mMTS,mKarTel,D77,D01,2016-08-22T11:02:34+06:00,
1000000000232237,77087544701,mKcell,mMTS,mAltel,D77,D02,2016-08-22T11:02:57+06:00,
1000000000232240,77017782290,mKarTel,mKcell,mKcell,,D01,2016-08-22T11:07:56+06:00,
1000000000232242,77055998359,mMTS,mKarTel,mKarTel,,D77,2016-08-22T11:09:02+06:00,
1000000000232243,77472634364,mKcell,mMTS,mMTS,,D02,2016-08-22T11:09:41+06:00,
1000000000232244,77018997746,mMTS,mKcell,mKcell,,D77,2016-08-22T11:11:05+06:00,
1000000000232246,77015718305,mKarTel,mKcell,mKcell,,D01,2016-08-22T11:16:01+06:00,
1000000000232247,77759230173,mKcell,mAltel,mKcell,D07,D02,2016-08-22T11:16:07+06:00,
1000000000232248,77053107084,mKcell,mKarTel,mKarTel,,D02,2016-08-22T11:16:29+06:00,
1000000000232250,77776946490,mMTS,mKarTel,mKarTel,,D77,2016-08-22T11:21:14+06:00,
1000000000232251,77765552007,mKcell,mMTS,mKarTel,D77,D02,2016-08-22T11:22:07+06:00,
1000000000232253,77081071814,mMTS,mAltel,mAltel,,D77,2016-08-22T11:24:04+06:00,
1000000000232254,77051574789,mMTS,mKarTel,mKarTel,,D77,2016-08-22T11:24:53+06:00,
1000000000232255,77781522222,mKcell,mMTS,mKcell,D77,D02,2016-08-22T11:24:46+06:00,
1000000000232256,77019992030,mKarTel,mMTS,mKcell,D77,D01,2016-08-22T11:26:15+06:00,
1000000000232260,77055099535,mMTS,mKarTel,mKarTel,,D77,2016-08-22T11:27:52+06:00,
1000000000232261,77081890949,mKarTel,mAltel,mAltel,,D01,2016-08-22T11:27:50+06:00,
1000000000232262,77711276875,mKcell,mKarTel,mKarTel,,D02,2016-08-22T11:28:57+06:00,
