NPId,Number,RecipientId,DonorId,RangeHolderId,OldRoute,NewRoute,PortDate,RowCount
1000000000247408,77776674349,mMTS,mKarTel,mKarTel,,D77,2016-09-18T13:31:36+06:00,11
1000000000247410,77015706663,mKarTel,mKcell,mKcell,,D01,2016-09-18T13:35:50+06:00,
1000000000247411,77475050107,mKarTel,mMTS,mMTS,,D01,2016-09-18T13:42:32+06:00,
1000000000247415,77086181644,mKarTel,mMTS,mAltel,D77,D01,2016-09-18T13:47:46+06:00,
1000000000247416,77001497275,mKcell,mAltel,mAltel,,D02,2016-09-18T13:48:57+06:00,
1000000000247417,77012276712,mKarTel,mKcell,mKcell,,D01,2016-09-18T13:49:21+06:00,
1000000000247418,77770980102,mMTS,mKarTel,mKarTel,,D77,2016-09-18T13:52:14+06:00,
1000000000247420,77019443287,mMTS,mKcell,mKcell,,D77,2016-09-18T13:54:10+06:00,
1000000000247421,77760220055,mMTS,mKarTel,mKarTel,,D77,2016-09-18T13:54:58+06:00,
1000000000247422,77787095161,mAltel,mKcell,mKcell,,D07,2016-09-18T13:55:51+06:00,
1000000000247423,77014457777,mMTS,mKcell,mKcell,,D77,2016-09-18T13:55:53+06:00,
