NPId,Number,RecipientId,DonorId,RangeHolderId,OldRoute,NewRoute,PortDate,RowCount
1000000000045488,77019533943,mKarTel,mKcell,mKcell,,D01,2016-02-12T09:28:29+06:00,18
1000000000045488,77019533946,mKarTel,mKcell,mKcell,,D01,2016-02-12T09:28:29+06:00,
1000000000045489,77019175474,mKarTel,mKcell,mKcell,,D01,2016-02-12T09:02:03+06:00,
1000000000045490,77077655562,mAltel,mMTS,mMTS,,D07,2016-02-12T09:01:44+06:00,
1000000000045493,77711216464,mKcell,mKarTel,mKarTel,,D02,2016-02-12T09:07:03+06:00,
1000000000045493,77713118605,mKcell,mKarTel,mKarTel,,D02,2016-02-12T09:07:03+06:00,
1000000000045493,77713118606,mKcell,mKarTel,mKarTel,,D02,2016-02-12T09:07:03+06:00,
1000000000045495,77071659167,mKarTel,mMTS,mMTS,,D01,2016-02-12T09:10:20+06:00,
1000000000045496,77781008787,mMTS,mKcell,mKcell,,D77,2016-02-12T09:10:35+06:00,
1000000000045498,77015235727,mKarTel,mKcell,mKcell,,D01,2016-02-12T09:19:05+06:00,
1000000000045500,77017530781,mKarTel,mKcell,mKcell,,D01,2016-02-12T09:20:38+06:00,
1000000000045501,77015586870,mMTS,mKcell,mKcell,,D77,2016-02-12T09:21:17+06:00,
1000000000045502,77017944037,mKarTel,mKcell,mKcell,,D01,2016-02-12T09:23:04+06:00,
1000000000045504,77770645900,mAltel,mKarTel,mKarTel,,D07,2016-02-12T09:24:56+06:00,
1000000000045506,77017273860,mKarTel,mKcell,mKcell,,D01,2016-02-12T09:25:48+06:00,
1000000000045510,77017273830,mKarTel,mKcell,mKcell,,D01,2016-02-12T09:27:03+06:00,
1000000000045511,77000907707,mKarTel,mAltel,mAltel,,D01,2016-02-12T09:27:19+06:00,
1000000000045513,77773999559,mMTS,mKarTel,mKarTel,,D77,2016-02-12T09:28:57+06:00,
