NPId,Number,RecipientId,DonorId,RangeHolderId,OldRoute,NewRoute,PortDate,RowCount
1000000000360829,77757465383,mAltel,mKcell,mKcell,D02,D07,2017-04-06T12:01:57+06:00,25
1000000000360830,77020002125,mAltel,mKarTel,mKcell,D01,D07,2017-04-06T12:02:57+06:00,
1000000000360831,77089698646,mMTS,mAltel,mAltel,,D77,2017-04-06T12:03:17+06:00,
1000000000360832,77479750402,mAltel,mMTS,mMTS,,D07,2017-04-06T12:03:35+06:00,
1000000000360833,77010790099,mMTS,mKcell,mKcell,,D77,2017-04-06T12:05:06+06:00,
1000000000360834,77017201808,mKarTel,mKcell,mKcell,,D01,2017-04-06T12:05:42+06:00,
1000000000360837,77017467881,mAltel,mKcell,mKcell,,D07,2017-04-06T12:09:00+06:00,
1000000000360838,77759643554,mKarTel,mMTS,mKcell,D77,D01,2017-04-06T12:09:36+06:00,
1000000000360839,77780878888,mAltel,mKcell,mKcell,,D07,2017-04-06T12:09:30+06:00,
1000000000360841,77711122156,mKcell,mKarTel,mKarTel,,D02,2017-04-06T12:12:06+06:00,
1000000000360842,77757930092,mMTS,mKcell,mKcell,,D77,2017-04-06T12:12:08+06:00,
1000000000360843,77022666630,mKarTel,mMTS,mKcell,D77,D01,2017-04-06T12:12:52+06:00,
1000000000360846,77079210909,mKcell,mMTS,mMTS,,D02,2017-04-06T12:14:47+06:00,
1000000000360847,77772269696,mKcell,mAltel,mKarTel,D07,D02,2017-04-06T12:15:30+06:00,
1000000000360849,77756635554,mKarTel,mKcell,mKcell,,D01,2017-04-06T12:17:49+06:00,
1000000000360850,77057653402,mMTS,mKarTel,mKarTel,,D77,2017-04-06T12:18:08+06:00,
1000000000360851,77026677534,mKcell,mMTS,mKcell,D77,D02,2017-04-06T12:18:24+06:00,
1000000000360854,77783625588,mKcell,mAltel,mKcell,D07,D02,2017-04-06T12:21:30+06:00,
1000000000360855,77056936910,mMTS,mKarTel,mKarTel,,D77,2017-04-06T12:23:51+06:00,
1000000000360856,77787121400,mMTS,mKcell,mKcell,,D77,2017-04-06T12:23:48+06:00,
1000000000360857,77012727480,mKarTel,mKcell,mKcell,,D01,2017-04-06T12:24:19+06:00,
1000000000360858,77017633220,mKcell,mAltel,mKcell,D07,D02,2017-04-06T12:25:10+06:00,
1000000000360859,77076777709,mKcell,mMTS,mMTS,,D02,2017-04-06T12:25:46+06:00,
1000000000360860,77001959575,mMTS,mAltel,mAltel,,D77,2017-04-06T12:25:49+06:00,
1000000000360861,77789387268,mKarTel,mKcell,mKcell,,D01,2017-04-06T12:27:09+06:00,
