NPId,Number,RecipientId,DonorId,RangeHolderId,OldRoute,NewRoute,PortDate,RowCount
1000000000133471,77471415314,mAltel,mMTS,mMTS,,D07,2016-03-25T18:30:32+06:00,31
1000000000133472,77052184543,mMTS,mKarTel,mKarTel,,D77,2016-03-25T18:31:51+06:00,
1000000000133473,77772891212,mMTS,mKarTel,mKarTel,,D77,2016-03-25T18:31:50+06:00,
1000000000133474,77764582200,mMTS,mKarTel,mKarTel,,D77,2016-03-25T18:32:17+06:00,
1000000000133476,77015447403,mAltel,mKcell,mKcell,,D07,2016-03-25T18:32:33+06:00,
1000000000133478,77025020980,mMTS,mKcell,mKcell,,D77,2016-03-25T18:35:36+06:00,
1000000000133479,77014866050,mMTS,mKcell,mKcell,,D77,2016-03-25T18:35:48+06:00,
1000000000133480,77753704108,mMTS,mKcell,mKcell,,D77,2016-03-25T18:36:22+06:00,
1000000000133481,77014442937,mAltel,mKcell,mKcell,,D07,2016-03-25T18:37:10+06:00,
1000000000133482,77007960069,mKcell,mAltel,mAltel,,D02,2016-03-25T18:37:59+06:00,
1000000000133483,77004525594,mKarTel,mAltel,mAltel,,D01,2016-03-25T18:39:48+06:00,
1000000000133484,77017212219,mAltel,mKcell,mKcell,,D07,2016-03-25T18:40:52+06:00,
1000000000133485,77021589225,mMTS,mKcell,mKcell,,D77,2016-03-25T18:40:52+06:00,
1000000000133487,77073373858,mAltel,mMTS,mMTS,,D07,2016-03-25T18:41:33+06:00,
1000000000133488,77026424545,mMTS,mKcell,mKcell,,D77,2016-03-25T18:42:43+06:00,
1000000000133489,77056531546,mMTS,mKarTel,mKarTel,,D77,2016-03-25T18:44:03+06:00,
1000000000133490,77015055579,mKarTel,mKcell,mKcell,,D01,2016-03-25T18:44:29+06:00,
1000000000133491,77779942247,mKarTel,mKcell,mKarTel,D02,D01,2016-03-25T18:45:20+06:00,
1000000000133492,77755226971,mAltel,mKcell,mKcell,,D07,2016-03-25T18:46:04+06:00,
1000000000133495,77022559695,mMTS,mKcell,mKcell,,D77,2016-03-25T18:46:45+06:00,
1000000000133496,77009399983,mKcell,mAltel,mAltel,,D02,2016-03-25T18:47:23+06:00,
1000000000133497,77784204775,mMTS,mKcell,mKcell,,D77,2016-03-25T18:47:35+06:00,
1000000000133498,77012182322,mAltel,mKcell,mKcell,,D07,2016-03-25T18:48:23+06:00,
1000000000133499,77025834000,mKcell,mAltel,mKcell,D07,D02,2016-03-25T18:49:53+06:00,
1000000000133500,77014213322,mAltel,mKcell,mKcell,,D07,2016-03-25T18:50:06+06:00,
1000000000133502,77026553262,mKcell,mMTS,mKcell,D77,D02,2016-03-25T18:51:30+06:00,
1000000000133503,77077991777,mKcell,mMTS,mMTS,,D02,2016-03-25T18:51:46+06:00,
1000000000133505,77771369563,mMTS,mKarTel,mKarTel,,D77,2016-03-25T18:55:01+06:00,
1000000000133506,77077167717,mKarTel,mMTS,mMTS,,D01,2016-03-25T18:57:07+06:00,
1000000000133507,77778750826,mMTS,mKarTel,mKarTel,,D77,2016-03-25T18:58:51+06:00,
1000000000133508,77022694030,mMTS,mKcell,mKcell,,D77,2016-03-25T18:58:51+06:00,
