NPId,Number,RecipientId,DonorId,RangeHolderId,OldRoute,NewRoute,PortDate,RowCount
1000000000320197,77078393184,mMTS,mKarTel,mMTS,D01,D77,2017-01-31T15:31:44+06:00,40
1000000000320199,77078393192,mMTS,mKarTel,mMTS,D01,D77,2017-01-31T15:32:22+06:00,
1000000000320200,77079277777,mMTS,mKarTel,mMTS,D01,D77,2017-01-31T15:33:01+06:00,
1000000000320201,77479809284,mMTS,mKarTel,mMTS,D01,D77,2017-01-31T15:33:43+06:00,
1000000000320203,77479809285,mMTS,mKarTel,mMTS,D01,D77,2017-01-31T15:34:21+06:00,
1000000000320208,77019501414,mKcell,mKarTel,mKcell,D01,D02,2017-01-31T15:38:28+06:00,
1000000000320217,77775201581,mMTS,mKarTel,mKarTel,,D77,2017-01-31T15:30:44+06:00,
1000000000320218,77786607000,mMTS,mKcell,mKcell,,D77,2017-01-31T15:30:52+06:00,
1000000000320220,77055300049,mKcell,mKarTel,mKarTel,,D02,2017-01-31T15:31:40+06:00,
1000000000320221,77073047230,mKcell,mMTS,mMTS,,D02,2017-01-31T15:31:47+06:00,
1000000000320222,77003336979,mKcell,mAltel,mAltel,,D02,2017-01-31T15:31:44+06:00,
1000000000320223,77015382034,mKarTel,mKcell,mKcell,,D01,2017-01-31T15:32:04+06:00,
1000000000320227,77012181440,mKarTel,mKcell,mKcell,,D01,2017-01-31T15:34:13+06:00,
1000000000320228,77022413046,mMTS,mKcell,mKcell,,D77,2017-01-31T15:34:10+06:00,
1000000000320229,77004445939,mKcell,mAltel,mAltel,,D02,2017-01-31T15:34:20+06:00,
1000000000320230,77017677046,mKcell,mKarTel,mKcell,D01,D02,2017-01-31T15:49:46+06:00,
1000000000320233,77773028840,mKarTel,mMTS,mKarTel,D77,D01,2017-01-31T15:36:46+06:00,
1000000000320234,77003334959,mKcell,mAltel,mAltel,,D02,2017-01-31T15:37:39+06:00,
1000000000320235,77025017234,mMTS,mKcell,mKcell,,D77,2017-01-31T15:37:50+06:00,
1000000000320236,77017940254,mKarTel,mKcell,mKcell,,D01,2017-01-31T15:38:05+06:00,
1000000000320237,77017267508,mKcell,mKarTel,mKcell,D01,D02,2017-01-31T15:54:13+06:00,
1000000000320239,77027771450,mKarTel,mKcell,mKcell,,D01,2017-01-31T15:39:13+06:00,
1000000000320240,77015437699,mKcell,mMTS,mKcell,D77,D02,2017-01-31T15:39:13+06:00,
1000000000320241,77007571619,mMTS,mAltel,mAltel,,D77,2017-01-31T15:38:54+06:00,
1000000000320242,77013816741,mMTS,mKcell,mKcell,,D77,2017-01-31T15:39:11+06:00,
1000000000320243,77017713110,mMTS,mKcell,mKcell,,D77,2017-01-31T15:39:16+06:00,
1000000000320244,77774253133,mMTS,mKarTel,mKarTel,,D77,2017-01-31T15:40:21+06:00,
1000000000320245,77075113075,mMTS,mKarTel,mMTS,D01,D77,2017-01-31T15:40:47+06:00,
1000000000320246,77011119408,mKcell,mKarTel,mKcell,D01,D02,2017-01-31T15:56:21+06:00,
1000000000320248,77019533633,mKcell,mKarTel,mKcell,D01,D02,2017-01-31T15:59:11+06:00,
1000000000320249,77056020746,mAltel,mKarTel,mKarTel,,D07,2017-01-31T15:44:54+06:00,
1000000000320250,77772261952,mAltel,mKarTel,mKarTel,,D07,2017-01-31T15:45:27+06:00,
1000000000320252,77051577813,mMTS,mKarTel,mKarTel,,D77,2017-01-31T15:46:09+06:00,
1000000000320253,77072241087,mKcell,mMTS,mMTS,,D02,2017-01-31T15:46:45+06:00,
1000000000320256,77788173882,mMTS,mKcell,mKcell,,D77,2017-01-31T15:48:42+06:00,
1000000000320257,77051014561,mKcell,mMTS,mKarTel,D77,D02,2017-01-31T15:49:01+06:00,
1000000000320265,77011982358,mAltel,mKcell,mKcell,,D07,2017-01-31T15:52:36+06:00,
1000000000320266,77477400000,mKarTel,mKcell,mMTS,D02,D01,2017-01-31T15:53:02+06:00,
1000000000320268,77779982931,mKcell,mKarTel,mKarTel,,D02,2017-01-31T15:53:52+06:00,
1000000000320270,77017322079,mKarTel,mKcell,mKcell,,D01,2017-01-31T15:57:15+06:00,
