NPId,Number,RecipientId,DonorId,RangeHolderId,OldRoute,NewRoute,PortDate,RowCount
1000000000264647,77026660325,mMTS,mKcell,mKcell,,D77,2016-10-18T19:33:19+06:00,5
1000000000264649,77015228248,mKarTel,mAltel,mKcell,D07,D01,2016-10-18T19:38:54+06:00,
1000000000264651,77007778939,mKcell,mAltel,mAltel,,D02,2016-10-18T19:46:37+06:00,
1000000000264652,77077014040,mKcell,mMTS,mMTS,,D02,2016-10-18T19:51:07+06:00,
1000000000264653,77077013030,mKcell,mMTS,mMTS,,D02,2016-10-18T19:53:39+06:00,
