NPId,Number,RecipientId,DonorId,RangeHolderId,OldRoute,NewRoute,PortDate,RowCount
1000000000306902,77471119311,mMTS,mKcell,mMTS,D02,D77,2017-01-07T10:10:29+06:00,5
1000000000306903,77000890079,mMTS,mAltel,mAltel,,D77,2017-01-07T10:16:18+06:00,
1000000000306904,77757123335,mKcell,mMTS,mKcell,D77,D02,2017-01-07T10:18:09+06:00,
1000000000306905,77782278888,mMTS,mKcell,mKcell,,D77,2017-01-07T10:21:24+06:00,
1000000000306907,77753799796,mKcell,mMTS,mKcell,D77,D02,2017-01-07T10:26:52+06:00,
