NPId,Number,RecipientId,DonorId,RangeHolderId,OldRoute,NewRoute,PortDate,RowCount
1000000000435575,77074861494,mKcell,mMTS,mMTS,,D02,2017-08-05T19:08:52+06:00,7
1000000000435576,77075775777,mKarTel,mMTS,mMTS,,D01,2017-08-05T19:12:17+06:00,
1000000000435577,77007770091,mKcell,mMTS,mAltel,D77,D02,2017-08-05T19:15:30+06:00,
1000000000435578,77011777070,mKcell,mKarTel,mKcell,D01,D02,2017-08-05T19:23:21+06:00,
1000000000435579,77015390911,mKarTel,mKcell,mKcell,,D01,2017-08-05T19:23:29+06:00,
1000000000435581,77073839939,mAltel,mMTS,mMTS,,D07,2017-08-05T19:29:34+06:00,
1000000000435582,77473759914,mKcell,mMTS,mMTS,,D02,2017-08-05T19:29:51+06:00,
