NPId,Number,RecipientId,DonorId,RangeHolderId,OldRoute,NewRoute,PortDate,RowCount
1000000000291908,77015195435,mKarTel,mKcell,mKcell,,D01,2016-12-09T10:23:14+06:00,133
1000000000291908,77015195436,mKarTel,mKcell,mKcell,,D01,2016-12-09T10:23:14+06:00,
1000000000291908,77015195438,mKarTel,mKcell,mKcell,,D01,2016-12-09T10:23:14+06:00,
1000000000291908,77015195440,mKarTel,mKcell,mKcell,,D01,2016-12-09T10:23:14+06:00,
1000000000291908,77015195441,mKarTel,mKcell,mKcell,,D01,2016-12-09T10:23:14+06:00,
1000000000291908,77015195442,mKarTel,mKcell,mKcell,,D01,2016-12-09T10:23:14+06:00,
1000000000291908,77017956677,mKarTel,mKcell,mKcell,,D01,2016-12-09T10:23:14+06:00,
1000000000291908,77017958637,mKarTel,mKcell,mKcell,,D01,2016-12-09T10:23:14+06:00,
1000000000291908,77017958638,mKarTel,mKcell,mKcell,,D01,2016-12-09T10:23:14+06:00,
1000000000291908,77017958639,mKarTel,mKcell,mKcell,,D01,2016-12-09T10:23:14+06:00,
1000000000291908,77017958640,mKarTel,mKcell,mKcell,,D01,2016-12-09T10:23:14+06:00,
1000000000291908,77017958641,mKarTel,mKcell,mKcell,,D01,2016-12-09T10:23:14+06:00,
1000000000291908,77017958642,mKarTel,mKcell,mKcell,,D01,2016-12-09T10:23:14+06:00,
1000000000291908,77017958643,mKarTel,mKcell,mKcell,,D01,2016-12-09T10:23:14+06:00,
1000000000291908,77017958644,mKarTel,mKcell,mKcell,,D01,2016-12-09T10:23:14+06:00,
1000000000291908,77017958852,mKarTel,mKcell,mKcell,,D01,2016-12-09T10:23:14+06:00,
1000000000291908,77017958855,mKarTel,mKcell,mKcell,,D01,2016-12-09T10:23:14+06:00,
1000000000291908,77018013354,mKarTel,mKcell,mKcell,,D01,2016-12-09T10:23:14+06:00,
1000000000291908,77018013442,mKarTel,mKcell,mKcell,,D01,2016-12-09T10:23:14+06:00,
1000000000291908,77018013445,mKarTel,mKcell,mKcell,,D01,2016-12-09T10:23:14+06:00,
1000000000291908,77018013446,mKarTel,mKcell,mKcell,,D01,2016-12-09T10:23:14+06:00,
1000000000291908,77018013447,mKarTel,mKcell,mKcell,,D01,2016-12-09T10:23:14+06:00,
1000000000291908,77018013448,mKarTel,mKcell,mKcell,,D01,2016-12-09T10:23:14+06:00,
1000000000291908,77018013540,mKarTel,mKcell,mKcell,,D01,2016-12-09T10:23:14+06:00,
1000000000291908,77018013541,mKarTel,mKcell,mKcell,,D01,2016-12-09T10:23:14+06:00,
1000000000291908,77018013542,mKarTel,mKcell,mKcell,,D01,2016-12-09T10:23:14+06:00,
1000000000291908,77018013543,mKarTel,mKcell,mKcell,,D01,2016-12-09T10:23:14+06:00,
1000000000291908,77018097210,mKarTel,mKcell,mKcell,,D01,2016-12-09T10:23:14+06:00,
1000000000291908,77018097212,mKarTel,mKcell,mKcell,,D01,2016-12-09T10:23:14+06:00,
1000000000291908,77018097213,mKarTel,mKcell,mKcell,,D01,2016-12-09T10:23:14+06:00,
1000000000291908,77018097215,mKarTel,mKcell,mKcell,,D01,2016-12-09T10:23:14+06:00,
1000000000291908,77018097217,mKarTel,mKcell,mKcell,,D01,2016-12-09T10:23:14+06:00,
1000000000291908,77018097219,mKarTel,mKcell,mKcell,,D01,2016-12-09T10:23:14+06:00,
1000000000291908,77018824536,mKarTel,mKcell,mKcell,,D01,2016-12-09T10:23:14+06:00,
1000000000291908,77018824539,mKarTel,mKcell,mKcell,,D01,2016-12-09T10:23:14+06:00,
1000000000291908,77018824540,mKarTel,mKcell,mKcell,,D01,2016-12-09T10:23:14+06:00,
1000000000291908,77018824541,mKarTel,mKcell,mKcell,,D01,2016-12-09T10:23:14+06:00,
1000000000291908,77018824543,mKarTel,mKcell,mKcell,,D01,2016-12-09T10:23:14+06:00,
1000000000291908,77019084715,mKarTel,mKcell,mKcell,,D01,2016-12-09T10:23:14+06:00,
1000000000291908,77019084716,mKarTel,mKcell,mKcell,,D01,2016-12-09T10:23:14+06:00,
1000000000291908,77019084719,mKarTel,mKcell,mKcell,,D01,2016-12-09T10:23:14+06:00,
1000000000291908,77019102876,mKarTel,mKcell,mKcell,,D01,2016-12-09T10:23:14+06:00,
1000000000291908,77019102877,mKarTel,mKcell,mKcell,,D01,2016-12-09T10:23:14+06:00,
1000000000291908,77019102878,mKarTel,mKcell,mKcell,,D01,2016-12-09T10:23:14+06:00,
1000000000291908,77019102879,mKarTel,mKcell,mKcell,,D01,2016-12-09T10:23:14+06:00,
1000000000291908,77019102880,mKarTel,mKcell,mKcell,,D01,2016-12-09T10:23:14+06:00,
1000000000291908,77019241968,mKarTel,mKcell,mKcell,,D01,2016-12-09T10:23:14+06:00,
1000000000291908,77019241969,mKarTel,mKcell,mKcell,,D01,2016-12-09T10:23:14+06:00,
1000000000291908,77019241970,mKarTel,mKcell,mKcell,,D01,2016-12-09T10:23:14+06:00,
1000000000291908,77019241973,mKarTel,mKcell,mKcell,,D01,2016-12-09T10:23:14+06:00,
1000000000291908,77019241975,mKarTel,mKcell,mKcell,,D01,2016-12-09T10:23:14+06:00,
1000000000291908,77019241976,mKarTel,mKcell,mKcell,,D01,2016-12-09T10:23:14+06:00,
1000000000291908,77019519072,mKarTel,mKcell,mKcell,,D01,2016-12-09T10:23:14+06:00,
1000000000291908,77019519073,mKarTel,mKcell,mKcell,,D01,2016-12-09T10:23:14+06:00,
1000000000291908,77019519078,mKarTel,mKcell,mKcell,,D01,2016-12-09T10:23:14+06:00,
1000000000291908,77019519083,mKarTel,mKcell,mKcell,,D01,2016-12-09T10:23:14+06:00,
1000000000291908,77019519084,mKarTel,mKcell,mKcell,,D01,2016-12-09T10:23:14+06:00,
1000000000291908,77019721299,mKarTel,mKcell,mKcell,,D01,2016-12-09T10:23:14+06:00,
1000000000291908,77019721301,mKarTel,mKcell,mKcell,,D01,2016-12-09T10:23:14+06:00,
1000000000291908,77019721302,mKarTel,mKcell,mKcell,,D01,2016-12-09T10:23:14+06:00,
1000000000291908,77019721304,mKarTel,mKcell,mKcell,,D01,2016-12-09T10:23:14+06:00,
1000000000291908,77019721305,mKarTel,mKcell,mKcell,,D01,2016-12-09T10:23:14+06:00,
1000000000291908,77019721308,mKarTel,mKcell,mKcell,,D01,2016-12-09T10:23:14+06:00,
1000000000291908,77019782198,mKarTel,mKcell,mKcell,,D01,2016-12-09T10:23:14+06:00,
1000000000291908,77019782234,mKarTel,mKcell,mKcell,,D01,2016-12-09T10:23:14+06:00,
1000000000291908,77019782235,mKarTel,mKcell,mKcell,,D01,2016-12-09T10:23:14+06:00,
1000000000291908,77019782236,mKarTel,mKcell,mKcell,,D01,2016-12-09T10:23:14+06:00,
1000000000291908,77019782238,mKarTel,mKcell,mKcell,,D01,2016-12-09T10:23:14+06:00,
1000000000291908,77019782240,mKarTel,mKcell,mKcell,,D01,2016-12-09T10:23:14+06:00,
1000000000291908,77019842359,mKarTel,mKcell,mKcell,,D01,2016-12-09T10:23:14+06:00,
1000000000291908,77019842361,mKarTel,mKcell,mKcell,,D01,2016-12-09T10:23:14+06:00,
1000000000291908,77019842362,mKarTel,mKcell,mKcell,,D01,2016-12-09T10:23:14+06:00,
1000000000291908,77019842363,mKarTel,mKcell,mKcell,,D01,2016-12-09T10:23:14+06:00,
1000000000291908,77019842364,mKarTel,mKcell,mKcell,,D01,2016-12-09T10:23:14+06:00,
1000000000291908,77019842366,mKarTel,mKcell,mKcell,,D01,2016-12-09T10:23:14+06:00,
1000000000291908,77019842367,mKarTel,mKcell,mKcell,,D01,2016-12-09T10:23:14+06:00,
1000000000291908,77019842368,mKarTel,mKcell,mKcell,,D01,2016-12-09T10:23:14+06:00,
1000000000291908,77019842806,mKarTel,mKcell,mKcell,,D01,2016-12-09T10:23:14+06:00,
1000000000291908,77019842808,mKarTel,mKcell,mKcell,,D01,2016-12-09T10:23:14+06:00,
1000000000291908,77019842811,mKarTel,mKcell,mKcell,,D01,2016-12-09T10:23:14+06:00,
1000000000291908,77019842812,mKarTel,mKcell,mKcell,,D01,2016-12-09T10:23:14+06:00,
1000000000291908,77019842813,mKarTel,mKcell,mKcell,,D01,2016-12-09T10:23:14+06:00,
1000000000291908,77019843325,mKarTel,mKcell,mKcell,,D01,2016-12-09T10:23:14+06:00,
1000000000291911,77015195437,mKarTel,mKcell,mKcell,,D01,2016-12-09T10:25:38+06:00,
1000000000291911,77015195439,mKarTel,mKcell,mKcell,,D01,2016-12-09T10:25:38+06:00,
1000000000291911,77015195443,mKarTel,mKcell,mKcell,,D01,2016-12-09T10:25:38+06:00,
1000000000291911,77017958645,mKarTel,mKcell,mKcell,,D01,2016-12-09T10:25:38+06:00,
1000000000291911,77017958646,mKarTel,mKcell,mKcell,,D01,2016-12-09T10:25:38+06:00,
1000000000291911,77017958655,mKarTel,mKcell,mKcell,,D01,2016-12-09T10:25:38+06:00,
1000000000291911,77018013449,mKarTel,mKcell,mKcell,,D01,2016-12-09T10:25:38+06:00,
1000000000291911,77018097211,mKarTel,mKcell,mKcell,,D01,2016-12-09T10:25:38+06:00,
1000000000291911,77018097214,mKarTel,mKcell,mKcell,,D01,2016-12-09T10:25:38+06:00,
1000000000291911,77018097216,mKarTel,mKcell,mKcell,,D01,2016-12-09T10:25:38+06:00,
1000000000291911,77018824537,mKarTel,mKcell,mKcell,,D01,2016-12-09T10:25:38+06:00,
1000000000291911,77018824538,mKarTel,mKcell,mKcell,,D01,2016-12-09T10:25:38+06:00,
1000000000291911,77018824542,mKarTel,mKcell,mKcell,,D01,2016-12-09T10:25:38+06:00,
1000000000291911,77019084718,mKarTel,mKcell,mKcell,,D01,2016-12-09T10:25:38+06:00,
1000000000291911,77019241972,mKarTel,mKcell,mKcell,,D01,2016-12-09T10:25:38+06:00,
1000000000291911,77019519074,mKarTel,mKcell,mKcell,,D01,2016-12-09T10:25:38+06:00,
1000000000291911,77019721300,mKarTel,mKcell,mKcell,,D01,2016-12-09T10:25:38+06:00,
1000000000291911,77019721303,mKarTel,mKcell,mKcell,,D01,2016-12-09T10:25:38+06:00,
1000000000291911,77019721306,mKarTel,mKcell,mKcell,,D01,2016-12-09T10:25:38+06:00,
1000000000291911,77019721307,mKarTel,mKcell,mKcell,,D01,2016-12-09T10:25:38+06:00,
1000000000291911,77019782237,mKarTel,mKcell,mKcell,,D01,2016-12-09T10:25:38+06:00,
1000000000291911,77019782239,mKarTel,mKcell,mKcell,,D01,2016-12-09T10:25:38+06:00,
1000000000291911,77019842360,mKarTel,mKcell,mKcell,,D01,2016-12-09T10:25:38+06:00,
1000000000291911,77019842365,mKarTel,mKcell,mKcell,,D01,2016-12-09T10:25:38+06:00,
1000000000291911,77019842804,mKarTel,mKcell,mKcell,,D01,2016-12-09T10:25:38+06:00,
1000000000291911,77019842805,mKarTel,mKcell,mKcell,,D01,2016-12-09T10:25:38+06:00,
1000000000291911,77019842807,mKarTel,mKcell,mKcell,,D01,2016-12-09T10:25:38+06:00,
1000000000291911,77019842809,mKarTel,mKcell,mKcell,,D01,2016-12-09T10:25:38+06:00,
1000000000291911,77019842810,mKarTel,mKcell,mKcell,,D01,2016-12-09T10:25:38+06:00,
1000000000291911,77019843319,mKarTel,mKcell,mKcell,,D01,2016-12-09T10:25:38+06:00,
1000000000292084,77012216933,mKarTel,mKcell,mKcell,,D01,2016-12-09T10:28:53+06:00,
1000000000292084,77015343804,mKarTel,mKcell,mKcell,,D01,2016-12-09T10:28:53+06:00,
1000000000292084,77017350188,mKarTel,mKcell,mKcell,,D01,2016-12-09T10:28:53+06:00,
1000000000292084,77017992358,mKarTel,mKcell,mKcell,,D01,2016-12-09T10:28:53+06:00,
1000000000292390,77015366156,mKarTel,mKcell,mKcell,,D01,2016-12-09T10:17:18+06:00,
1000000000292400,77019588851,mAltel,mKcell,mKcell,,D07,2016-12-09T10:03:02+06:00,
1000000000292410,77017828992,mAltel,mKcell,mKcell,,D07,2016-12-09T10:01:29+06:00,
1000000000292411,77004207150,mMTS,mAltel,mAltel,,D77,2016-12-09T10:00:53+06:00,
1000000000292413,77003000493,mKcell,mAltel,mAltel,,D02,2016-12-09T10:05:08+06:00,
1000000000292414,77773811535,mKarTel,mKcell,mKarTel,D02,D01,2016-12-09T10:09:28+06:00,
1000000000292416,77058888158,mKarTel,mMTS,mKarTel,D77,D01,2016-12-09T10:14:10+06:00,
1000000000292417,77779639888,mMTS,mKarTel,mKarTel,,D77,2016-12-09T10:14:43+06:00,
1000000000292418,77785460723,mMTS,mKcell,mKcell,,D77,2016-12-09T10:16:47+06:00,
1000000000292420,77073481399,mAltel,mMTS,mMTS,,D07,2016-12-09T10:18:38+06:00,
1000000000292421,77771243000,mKcell,mKarTel,mKarTel,,D02,2016-12-09T10:22:15+06:00,
1000000000292422,77016155823,mKcell,mKarTel,mKcell,D01,D02,2016-12-09T10:22:35+06:00,
1000000000292423,77017839357,mMTS,mKcell,mKcell,,D77,2016-12-09T10:22:07+06:00,
1000000000292425,77771859006,mMTS,mKarTel,mKarTel,,D77,2016-12-09T10:23:46+06:00,
1000000000292427,77756126022,mMTS,mKcell,mKcell,,D77,2016-12-09T10:27:43+06:00,
1000000000292429,77787009977,mKarTel,mKcell,mKcell,,D01,2016-12-09T10:29:13+06:00,
