NPId,Number,RecipientId,DonorId,RangeHolderId,OldRoute,NewRoute,PortDate,RowCount
1000000000310314,77053751406,mKcell,mMTS,mKarTel,D77,D02,2017-01-13T18:01:46+06:00,16
1000000000310315,77471523453,mAltel,mMTS,mMTS,,D07,2017-01-13T18:02:12+06:00,
1000000000310316,77013447227,mKarTel,mMTS,mKcell,D77,D01,2017-01-13T18:02:48+06:00,
1000000000310317,77015338932,mKarTel,mKcell,mKcell,,D01,2017-01-13T18:03:34+06:00,
1000000000310318,77755313125,mKarTel,mKcell,mKcell,,D01,2017-01-13T18:05:41+06:00,
1000000000310322,77757965055,mMTS,mKcell,mKcell,,D77,2017-01-13T18:12:49+06:00,
1000000000310323,77759644107,mMTS,mKcell,mKcell,,D77,2017-01-13T18:13:16+06:00,
1000000000310324,77027502209,mAltel,mKcell,mKcell,,D07,2017-01-13T18:16:12+06:00,
1000000000310325,77052166668,mMTS,mKarTel,mKarTel,,D77,2017-01-13T18:18:57+06:00,
1000000000310326,77076635366,mKcell,mMTS,mMTS,,D02,2017-01-13T18:20:30+06:00,
1000000000310328,77078022802,mAltel,mMTS,mMTS,D77,D07,2017-01-13T18:21:35+06:00,
1000000000310329,77756302223,mKcell,mMTS,mKcell,D77,D02,2017-01-13T18:22:29+06:00,
1000000000310330,77771140763,mMTS,mKarTel,mKarTel,,D77,2017-01-13T18:22:59+06:00,
1000000000310333,77715232021,mAltel,mKarTel,mKarTel,,D07,2017-01-13T18:27:16+06:00,
1000000000310336,77012925398,mKarTel,mKcell,mKcell,,D01,2017-01-13T18:28:40+06:00,
1000000000310337,77017336193,mKarTel,mKcell,mKcell,,D01,2017-01-13T18:29:42+06:00,
