NPId,Number,RecipientId,DonorId,RangeHolderId,OldRoute,NewRoute,PortDate,RowCount
1000000000292586,77015566222,mKarTel,mKcell,mKcell,,D01,2016-12-09T13:35:24+06:00,26
1000000000292587,77773591887,mKcell,mKarTel,mKarTel,,D02,2016-12-09T13:35:59+06:00,
1000000000292588,77016553355,mAltel,mKcell,mKcell,,D07,2016-12-09T13:39:01+06:00,
1000000000292589,77056669333,mKarTel,mMTS,mKarTel,D77,D01,2016-12-09T13:39:17+06:00,
1000000000292590,77055866659,mAltel,mKarTel,mKarTel,,D07,2016-12-09T13:39:42+06:00,
1000000000292592,77776618038,mKarTel,mMTS,mKarTel,D77,D01,2016-12-09T13:42:17+06:00,
1000000000292594,77073800380,mKcell,mMTS,mMTS,,D02,2016-12-09T13:43:38+06:00,
1000000000292595,77779393435,mAltel,mKarTel,mKarTel,,D07,2016-12-09T13:43:50+06:00,
1000000000292597,77017738595,mKarTel,mAltel,mKcell,D07,D01,2016-12-09T13:44:21+06:00,
1000000000292598,77057777936,mKcell,mKarTel,mKarTel,,D02,2016-12-09T13:45:52+06:00,
1000000000292599,77077002011,mAltel,mMTS,mMTS,,D07,2016-12-09T13:45:18+06:00,
1000000000292600,77776618039,mKarTel,mKcell,mKarTel,D02,D01,2016-12-09T13:46:25+06:00,
1000000000292601,77077755378,mKarTel,mMTS,mMTS,,D01,2016-12-09T13:46:39+06:00,
1000000000292603,77013565114,mMTS,mKcell,mKcell,D02,D77,2016-12-09T13:49:30+06:00,
1000000000292604,77477336164,mKcell,mMTS,mMTS,,D02,2016-12-09T13:52:17+06:00,
1000000000292605,77074542454,mMTS,mKcell,mMTS,D02,D77,2016-12-09T13:52:44+06:00,
1000000000292606,77022301461,mMTS,mKcell,mKcell,,D77,2016-12-09T13:53:40+06:00,
1000000000292607,77781881111,mKcell,mMTS,mKcell,D77,D02,2016-12-09T13:54:25+06:00,
1000000000292608,77028216963,mMTS,mKcell,mKcell,,D77,2016-12-09T13:54:40+06:00,
1000000000292609,77775755296,mMTS,mKarTel,mKarTel,,D77,2016-12-09T13:54:54+06:00,
1000000000292610,77762331991,mKcell,mKarTel,mKarTel,,D02,2016-12-09T13:56:06+06:00,
1000000000292611,77071739153,mMTS,mAltel,mMTS,D07,D77,2016-12-09T13:56:19+06:00,
1000000000292613,77076268983,mKarTel,mMTS,mMTS,,D01,2016-12-09T13:58:19+06:00,
1000000000292615,77762331988,mKcell,mKarTel,mKarTel,,D02,2016-12-09T13:59:27+06:00,
1000000000292616,77083283858,mMTS,mAltel,mAltel,,D77,2016-12-09T13:58:56+06:00,
1000000000292617,77023442299,mMTS,mKcell,mKcell,,D77,2016-12-09T13:59:12+06:00,
