NPId,Number,RecipientId,DonorId,RangeHolderId,OldRoute,NewRoute,PortDate,RowCount
1000000000192436,77783577707,mKcell,mKarTel,mKcell,D01,D02,2016-06-13T12:00:19+06:00,35
1000000000192438,77777082719,mMTS,mKarTel,mKarTel,,D77,2016-06-13T12:01:51+06:00,
1000000000192440,77075566555,mKcell,mMTS,mMTS,,D02,2016-06-13T12:03:39+06:00,
1000000000192441,77052798828,mMTS,mKarTel,mKarTel,,D77,2016-06-13T12:02:28+06:00,
1000000000192442,77778306052,mKarTel,mMTS,mKarTel,D77,D01,2016-06-13T12:02:38+06:00,
1000000000192443,77015448296,mKcell,mKarTel,mKcell,D01,D02,2016-06-13T12:03:38+06:00,
1000000000192444,77016730806,mKarTel,mKcell,mKcell,,D01,2016-06-13T12:04:24+06:00,
1000000000192445,77013186186,mKcell,mMTS,mKcell,D77,D02,2016-06-13T12:05:07+06:00,
1000000000192446,77714521733,mMTS,mKarTel,mKarTel,,D77,2016-06-13T12:05:29+06:00,
1000000000192447,77077121340,mMTS,mAltel,mMTS,D07,D77,2016-06-13T12:07:08+06:00,
1000000000192448,77714482808,mMTS,mKarTel,mKarTel,,D77,2016-06-13T12:07:36+06:00,
1000000000192449,77003168383,mKcell,mAltel,mAltel,,D02,2016-06-13T12:08:09+06:00,
1000000000192450,77014466627,mKcell,mMTS,mKcell,D77,D02,2016-06-13T12:08:09+06:00,
1000000000192451,77017976664,mKarTel,mKcell,mKcell,,D01,2016-06-13T12:08:54+06:00,
1000000000192452,77013348878,mKcell,mMTS,mKcell,D77,D02,2016-06-13T12:11:59+06:00,
1000000000192453,77011121177,mMTS,mKarTel,mKcell,D01,D77,2016-06-13T12:12:02+06:00,
1000000000192454,77004856739,mMTS,mAltel,mAltel,,D77,2016-06-13T12:11:44+06:00,
1000000000192456,77762166161,mMTS,mKarTel,mKarTel,,D77,2016-06-13T12:12:33+06:00,
1000000000192457,77763844445,mKarTel,mMTS,mKarTel,D77,D01,2016-06-13T12:12:52+06:00,
1000000000192458,77072255660,mKcell,mMTS,mMTS,,D02,2016-06-13T12:13:41+06:00,
1000000000192460,77780009075,mMTS,mKcell,mKcell,,D77,2016-06-13T12:14:10+06:00,
1000000000192461,77714010171,mMTS,mAltel,mKarTel,D07,D77,2016-06-13T12:13:47+06:00,
1000000000192463,77761156789,mMTS,mKarTel,mKarTel,,D77,2016-06-13T12:14:58+06:00,
1000000000192464,77081003059,mMTS,mAltel,mAltel,,D77,2016-06-13T12:15:37+06:00,
1000000000192465,77003291391,mAltel,mMTS,mAltel,D77,D07,2016-06-13T12:18:06+06:00,
1000000000192468,77082238438,mMTS,mAltel,mAltel,,D77,2016-06-13T12:19:24+06:00,
1000000000192470,77056528935,mMTS,mKarTel,mKarTel,,D77,2016-06-13T12:20:55+06:00,
1000000000192471,77754698817,mKcell,mMTS,mKcell,D77,D02,2016-06-13T12:22:02+06:00,
1000000000192472,77071933370,mMTS,mAltel,mMTS,D07,D77,2016-06-13T12:22:28+06:00,
1000000000192473,77751491052,mKarTel,mKcell,mKcell,,D01,2016-06-13T12:23:28+06:00,
1000000000192475,77017535596,mMTS,mKcell,mKcell,,D77,2016-06-13T12:23:28+06:00,
1000000000192476,77051580909,mKarTel,mMTS,mKarTel,D77,D01,2016-06-13T12:24:02+06:00,
1000000000192477,77082036258,mMTS,mAltel,mAltel,,D77,2016-06-13T12:24:22+06:00,
1000000000192479,77054180957,mMTS,mKarTel,mKarTel,,D77,2016-06-13T12:28:29+06:00,
1000000000192481,77017169122,mKarTel,mMTS,mKcell,D77,D01,2016-06-13T12:29:49+06:00,
