NPId,Number,RecipientId,DonorId,RangeHolderId,OldRoute,NewRoute,PortDate,RowCount
1000000000314187,77011315463,mAltel,mKcell,mKcell,,D07,2017-01-21T13:32:43+06:00,18
1000000000314189,77015161278,mKarTel,mMTS,mKcell,D77,D01,2017-01-21T13:39:45+06:00,
1000000000314191,77714115138,mMTS,mKarTel,mKarTel,,D77,2017-01-21T13:40:19+06:00,
1000000000314192,77017347436,mKarTel,mKcell,mKcell,,D01,2017-01-21T13:43:39+06:00,
1000000000314193,77012228442,mAltel,mKcell,mKcell,,D07,2017-01-21T13:44:50+06:00,
1000000000314194,77083595510,mAltel,mMTS,mAltel,D77,D07,2017-01-21T13:45:33+06:00,
1000000000314195,77753091737,mMTS,mKcell,mKcell,,D77,2017-01-21T13:50:15+06:00,
1000000000314196,77773013242,mMTS,mKarTel,mKarTel,,D77,2017-01-21T13:48:05+06:00,
1000000000314197,77777001107,mKcell,mKarTel,mKarTel,,D02,2017-01-21T13:48:45+06:00,
1000000000314198,77750005066,mMTS,mKcell,mKcell,,D77,2017-01-21T13:48:27+06:00,
1000000000314199,77761127888,mKarTel,mMTS,mKarTel,D77,D01,2017-01-21T13:49:20+06:00,
1000000000314201,77766362888,mMTS,mKarTel,mKarTel,,D77,2017-01-21T13:50:57+06:00,
1000000000314202,77000202000,mKcell,mAltel,mAltel,,D02,2017-01-21T13:50:47+06:00,
1000000000314205,77058667302,mMTS,mKarTel,mKarTel,,D77,2017-01-21T13:56:38+06:00,
1000000000314206,77771770760,mAltel,mKarTel,mKarTel,,D07,2017-01-21T13:56:47+06:00,
1000000000314207,77076331041,mKcell,mMTS,mMTS,,D02,2017-01-21T13:56:51+06:00,
1000000000314208,77077575770,mKarTel,mAltel,mMTS,D07,D01,2017-01-21T13:57:01+06:00,
1000000000314210,77759666604,mMTS,mKcell,mKcell,,D77,2017-01-21T13:58:01+06:00,
