NPId,Number,RecipientId,DonorId,RangeHolderId,OldRoute,NewRoute,PortDate,RowCount
1000000000189682,77087512153,mMTS,mAltel,mAltel,,D77,2016-06-07T19:39:58+06:00,3
1000000000189683,77056177773,mKarTel,mMTS,mKarTel,D77,D01,2016-06-07T19:41:03+06:00,
1000000000189684,77087709540,mMTS,mAltel,mAltel,,D77,2016-06-07T19:47:05+06:00,
