NPId,Number,RecipientId,DonorId,RangeHolderId,OldRoute,NewRoute,PortDate,RowCount
1000000000262952,77010333555,mKarTel,mKcell,mKcell,,D01,2016-10-15T16:00:45+06:00,30
1000000000262955,77029399254,mMTS,mKcell,mKcell,,D77,2016-10-15T16:01:55+06:00,
1000000000262958,77783450550,mKcell,mMTS,mKcell,D77,D02,2016-10-15T16:04:22+06:00,
1000000000262959,77051892988,mKcell,mKarTel,mKarTel,,D02,2016-10-15T16:11:53+06:00,
1000000000262960,77789661334,mMTS,mKcell,mKcell,,D77,2016-10-15T16:12:36+06:00,
1000000000262961,77772456717,mMTS,mKarTel,mKarTel,,D77,2016-10-15T16:12:49+06:00,
1000000000262962,77479585288,mAltel,mMTS,mMTS,,D07,2016-10-15T16:15:34+06:00,
1000000000262963,77718800088,mAltel,mKarTel,mKarTel,,D07,2016-10-15T16:16:09+06:00,
1000000000262965,77760999922,mKcell,mKarTel,mKarTel,,D02,2016-10-15T16:17:08+06:00,
1000000000262966,77712900594,mMTS,mKarTel,mKarTel,,D77,2016-10-15T16:16:58+06:00,
1000000000262967,77059834833,mKcell,mAltel,mKarTel,D07,D02,2016-10-15T16:17:07+06:00,
1000000000262968,77078607443,mAltel,mMTS,mMTS,,D07,2016-10-15T16:17:06+06:00,
1000000000262969,77005552363,mKcell,mAltel,mAltel,,D02,2016-10-15T16:18:11+06:00,
1000000000262972,77005554313,mKcell,mAltel,mAltel,,D02,2016-10-15T16:20:40+06:00,
1000000000262973,77027568597,mAltel,mKcell,mKcell,,D07,2016-10-15T16:20:39+06:00,
1000000000262974,77005566679,mKarTel,mAltel,mAltel,,D01,2016-10-15T16:21:01+06:00,
1000000000262975,77751750911,mKarTel,mMTS,mKcell,D77,D01,2016-10-15T16:21:33+06:00,
1000000000262976,77017274503,mKarTel,mKcell,mKcell,,D01,2016-10-15T16:22:07+06:00,
1000000000262977,77081043244,mKarTel,mAltel,mAltel,,D01,2016-10-15T16:22:45+06:00,
1000000000262978,77082662266,mKcell,mAltel,mAltel,,D02,2016-10-15T16:23:14+06:00,
1000000000262979,77089119994,mMTS,mAltel,mAltel,,D77,2016-10-15T16:23:45+06:00,
1000000000262980,77005559313,mKcell,mAltel,mAltel,,D02,2016-10-15T16:26:04+06:00,
1000000000262981,77051887802,mKarTel,mMTS,mKarTel,D77,D01,2016-10-15T16:26:04+06:00,
1000000000262982,77005557363,mKcell,mAltel,mAltel,,D02,2016-10-15T16:26:57+06:00,
1000000000262983,77005551393,mKcell,mAltel,mAltel,,D02,2016-10-15T16:27:51+06:00,
1000000000262984,77016061235,mKcell,mKarTel,mKcell,D01,D02,2016-10-15T16:28:18+06:00,
1000000000262985,77024015460,mAltel,mKcell,mKcell,,D07,2016-10-15T16:28:13+06:00,
1000000000262986,77017463303,mKarTel,mKcell,mKcell,,D01,2016-10-15T16:28:26+06:00,
1000000000262987,77005557383,mKcell,mAltel,mAltel,,D02,2016-10-15T16:28:22+06:00,
1000000000262988,77005552383,mKcell,mAltel,mAltel,,D02,2016-10-15T16:29:26+06:00,
