NPId,Number,RecipientId,DonorId,RangeHolderId,OldRoute,NewRoute,PortDate,RowCount
1000000000164370,77019975299,mKarTel,mKcell,mKcell,,D01,2016-04-30T16:00:05+06:00,40
1000000000164372,77056777777,mKcell,mKarTel,mKarTel,,D02,2016-04-30T16:00:33+06:00,
1000000000164373,77754505995,mKarTel,mKcell,mKcell,,D01,2016-04-30T16:00:48+06:00,
1000000000164374,77028234126,mMTS,mKcell,mKcell,,D77,2016-04-30T16:00:39+06:00,
1000000000164375,77085223435,mMTS,mAltel,mAltel,,D77,2016-04-30T16:00:15+06:00,
1000000000164376,77071112879,mAltel,mMTS,mMTS,,D07,2016-04-30T16:00:28+06:00,
1000000000164377,77012162142,mMTS,mKcell,mKcell,,D77,2016-04-30T16:01:04+06:00,
1000000000164379,77018311989,mMTS,mKcell,mKcell,,D77,2016-04-30T16:01:36+06:00,
1000000000164380,77018329363,mAltel,mKcell,mKcell,,D07,2016-04-30T16:02:55+06:00,
1000000000164381,77081590103,mMTS,mAltel,mAltel,,D77,2016-04-30T16:03:50+06:00,
1000000000164382,77080878787,mAltel,mKarTel,mAltel,D01,D07,2016-04-30T16:04:41+06:00,
1000000000164383,77003757288,mAltel,mMTS,mAltel,D77,D07,2016-04-30T16:04:57+06:00,
1000000000164384,77056890777,mMTS,mKarTel,mKarTel,,D77,2016-04-30T16:05:24+06:00,
1000000000164386,77085223433,mMTS,mAltel,mAltel,,D77,2016-04-30T16:08:17+06:00,
1000000000164387,77013518782,mMTS,mKcell,mKcell,,D77,2016-04-30T16:10:31+06:00,
1000000000164388,77023117974,mAltel,mKcell,mKcell,,D07,2016-04-30T16:12:42+06:00,
1000000000164389,77057685555,mKarTel,mAltel,mKarTel,D07,D01,2016-04-30T16:13:27+06:00,
1000000000164390,77083119933,mMTS,mAltel,mAltel,,D77,2016-04-30T16:14:01+06:00,
1000000000164391,77478254911,mKcell,mMTS,mMTS,,D02,2016-04-30T16:14:43+06:00,
1000000000164392,77755016909,mMTS,mKcell,mKcell,,D77,2016-04-30T16:14:57+06:00,
1000000000164393,77762685555,mKarTel,mAltel,mKarTel,D07,D01,2016-04-30T16:16:28+06:00,
1000000000164399,77786477878,mKcell,mAltel,mKcell,D07,D02,2016-04-30T16:19:45+06:00,
1000000000164400,77762227555,mKarTel,mAltel,mKarTel,D07,D01,2016-04-30T16:20:39+06:00,
1000000000164401,77054613444,mAltel,mKarTel,mKarTel,,D07,2016-04-30T16:20:43+06:00,
1000000000164402,77089494730,mMTS,mAltel,mAltel,,D77,2016-04-30T16:20:58+06:00,
1000000000164403,77089494733,mMTS,mAltel,mAltel,,D77,2016-04-30T16:23:31+06:00,
1000000000164404,77075434698,mKcell,mMTS,mMTS,,D02,2016-04-30T16:24:25+06:00,
1000000000164405,77777386677,mAltel,mKarTel,mKarTel,,D07,2016-04-30T16:24:38+06:00,
1000000000164406,77780008009,mKcell,mMTS,mKcell,D77,D02,2016-04-30T16:25:20+06:00,
1000000000164407,77019482711,mAltel,mKcell,mKcell,,D07,2016-04-30T16:25:35+06:00,
1000000000164408,77755319269,mAltel,mKcell,mKcell,,D07,2016-04-30T16:25:49+06:00,
1000000000164409,77013333325,mKarTel,mKcell,mKcell,,D01,2016-04-30T16:26:10+06:00,
1000000000164410,77018204467,mMTS,mKcell,mKcell,,D77,2016-04-30T16:26:42+06:00,
1000000000164411,77015662595,mKarTel,mKcell,mKcell,,D01,2016-04-30T16:27:27+06:00,
1000000000164412,77029602585,mMTS,mKcell,mKcell,,D77,2016-04-30T16:27:15+06:00,
1000000000164413,77017619741,mMTS,mKcell,mKcell,,D77,2016-04-30T16:27:15+06:00,
1000000000164414,77759543999,mKarTel,mKcell,mKcell,,D01,2016-04-30T16:28:20+06:00,
1000000000164415,77755319271,mAltel,mKcell,mKcell,,D07,2016-04-30T16:28:22+06:00,
1000000000164416,77774170680,mKarTel,mMTS,mKarTel,D77,D01,2016-04-30T16:28:47+06:00,
1000000000164417,77081853515,mKcell,mAltel,mAltel,,D02,2016-04-30T16:29:45+06:00,
