NPId,Number,RecipientId,DonorId,RangeHolderId,OldRoute,NewRoute,PortDate,RowCount
1000000000369588,77712171010,mMTS,mKarTel,mKarTel,,D77,2017-04-21T15:30:49+06:00,31
1000000000369589,77765008300,mMTS,mKarTel,mKarTel,,D77,2017-04-21T15:31:34+06:00,
1000000000369590,77007773187,mKcell,mAltel,mAltel,,D02,2017-04-21T15:32:28+06:00,
1000000000369591,77052758712,mKarTel,mAltel,mKarTel,D07,D01,2017-04-21T15:33:36+06:00,
1000000000369592,77056084380,mMTS,mKarTel,mKarTel,,D77,2017-04-21T15:33:51+06:00,
1000000000369594,77053147791,mKcell,mKarTel,mKarTel,,D02,2017-04-21T15:35:19+06:00,
1000000000369595,77477999949,mKcell,mMTS,mMTS,,D02,2017-04-21T15:35:22+06:00,
1000000000369596,77007773297,mKcell,mAltel,mAltel,,D02,2017-04-21T15:35:19+06:00,
1000000000369597,77053311444,mAltel,mKarTel,mKarTel,,D07,2017-04-21T15:39:12+06:00,
1000000000369598,77001728102,mMTS,mAltel,mAltel,,D77,2017-04-21T15:39:39+06:00,
1000000000369599,77074587476,mKarTel,mMTS,mMTS,,D01,2017-04-21T15:41:24+06:00,
1000000000369600,77750002992,mMTS,mKcell,mKcell,,D77,2017-04-21T15:41:31+06:00,
1000000000369601,77019080009,mKcell,mAltel,mKcell,D07,D02,2017-04-21T15:41:57+06:00,
1000000000369602,77019081699,mMTS,mKcell,mKcell,,D77,2017-04-21T15:42:51+06:00,
1000000000369603,77005179087,mMTS,mAltel,mAltel,,D77,2017-04-21T15:42:51+06:00,
1000000000369604,77054098989,mKarTel,mKcell,mKarTel,D02,D01,2017-04-21T15:44:28+06:00,
1000000000369605,77076338555,mMTS,mKcell,mMTS,D02,D77,2017-04-21T15:44:21+06:00,
1000000000369606,77024375000,mAltel,mKarTel,mKcell,D01,D07,2017-04-21T15:44:30+06:00,
1000000000369608,77077799888,mAltel,mKcell,mMTS,D02,D07,2017-04-21T15:46:03+06:00,
1000000000369610,77761551511,mAltel,mKarTel,mKarTel,,D07,2017-04-21T15:49:40+06:00,
1000000000369611,77077798760,mAltel,mMTS,mMTS,,D07,2017-04-21T15:49:32+06:00,
1000000000369612,77051844877,mAltel,mKarTel,mKarTel,,D07,2017-04-21T15:50:02+06:00,
1000000000369613,77079838777,mKcell,mMTS,mMTS,,D02,2017-04-21T15:51:02+06:00,
1000000000369614,77072500010,mKarTel,mMTS,mMTS,D77,D01,2017-04-21T15:52:06+06:00,
1000000000369615,77772302000,mMTS,mKarTel,mKarTel,D01,D77,2017-04-21T15:53:12+06:00,
1000000000369616,77015317725,mKcell,mKarTel,mKcell,D01,D02,2017-04-21T15:53:55+06:00,
1000000000369617,77017709876,mAltel,mKcell,mKcell,,D07,2017-04-21T15:53:48+06:00,
1000000000369618,77017204626,mKcell,mMTS,mKcell,D77,D02,2017-04-21T15:54:05+06:00,
1000000000369619,77754508000,mMTS,mKcell,mKcell,,D77,2017-04-21T15:54:25+06:00,
1000000000369621,77005999991,mAltel,mKcell,mAltel,D02,D07,2017-04-21T15:56:04+06:00,
1000000000369623,77024828105,mKcell,mAltel,mKcell,D07,D02,2017-04-21T15:57:35+06:00,
