NPId,Number,RecipientId,DonorId,RangeHolderId,OldRoute,NewRoute,PortDate,RowCount
1000000000402175,77029064280,mKcell,mAltel,mKcell,D07,D02,2017-06-12T20:00:07+06:00,4
1000000000402176,77014093838,mKarTel,mKcell,mKcell,,D01,2017-06-12T20:08:28+06:00,
1000000000402177,77029045646,mKarTel,mKcell,mKcell,,D01,2017-06-12T20:10:30+06:00,
1000000000402179,77769990122,mKcell,mKarTel,mKarTel,,D02,2017-06-12T20:24:48+06:00,
