NPId,Number,RecipientId,DonorId,RangeHolderId,OldRoute,NewRoute,PortDate,RowCount
1000000000191576,77013332953,mMTS,mKcell,mKcell,,D77,2016-06-10T20:13:10+06:00,2
1000000000191577,77015994089,mMTS,mKcell,mKcell,,D77,2016-06-10T20:23:47+06:00,
