NPId,Number,RecipientId,DonorId,RangeHolderId,OldRoute,NewRoute,PortDate,RowCount
1000000000190919,77079099040,mKarTel,mMTS,mMTS,,D01,2016-06-09T19:31:23+06:00,6
1000000000190920,77014448118,mMTS,mKcell,mKcell,,D77,2016-06-09T19:36:34+06:00,
1000000000190921,77011228211,mKarTel,mKcell,mKcell,,D01,2016-06-09T19:44:12+06:00,
1000000000190922,77077557703,mKcell,mMTS,mMTS,,D02,2016-06-09T19:44:48+06:00,
1000000000190923,77011116737,mKarTel,mKcell,mKcell,,D01,2016-06-09T19:56:08+06:00,
1000000000190925,77029528800,mMTS,mKcell,mKcell,,D77,2016-06-09T19:58:58+06:00,
