NPId,Number,RecipientId,DonorId,RangeHolderId,OldRoute,NewRoute,PortDate,RowCount
1000000000165726,77778299069,mMTS,mKarTel,mKarTel,,D77,2016-05-02T20:42:36+06:00,2
1000000000165727,77077180108,mKcell,mMTS,mMTS,,D02,2016-05-02T20:47:10+06:00,
