NPId,Number,RecipientId,DonorId,RangeHolderId,OldRoute,NewRoute,PortDate,RowCount
1000000000211494,77014609487,mKarTel,mKcell,mKcell,,D01,2016-07-14T19:02:52+06:00,9
1000000000211495,77015340983,mKcell,mAltel,mKcell,D07,D02,2016-07-14T19:03:47+06:00,
1000000000211496,77019108863,mKarTel,mKcell,mKcell,,D01,2016-07-14T19:06:08+06:00,
1000000000211500,77028732200,mMTS,mKcell,mKcell,,D77,2016-07-14T19:11:28+06:00,
1000000000211501,77076216292,mKarTel,mMTS,mMTS,,D01,2016-07-14T19:15:11+06:00,
1000000000211504,77764562121,mKarTel,mAltel,mKarTel,D07,D01,2016-07-14T19:26:02+06:00,
1000000000211506,77756950483,mKarTel,mKcell,mKcell,,D01,2016-07-14T19:27:28+06:00,
1000000000211507,77019101310,mMTS,mKcell,mKcell,,D77,2016-07-14T19:27:38+06:00,
1000000000211508,77719996871,mKcell,mKarTel,mKarTel,,D02,2016-07-14T19:29:52+06:00,
