NPId,Number,RecipientId,DonorId,RangeHolderId,OldRoute,NewRoute,PortDate,RowCount
1000000000250597,77477666055,mKcell,mMTS,mMTS,,D02,2016-09-24T15:02:28+06:00,16
1000000000250598,77027836395,mMTS,mKcell,mKcell,,D77,2016-09-24T15:05:11+06:00,
1000000000250600,77711832636,mAltel,mKarTel,mKarTel,,D07,2016-09-24T15:09:11+06:00,
1000000000250601,77014007001,mKarTel,mAltel,mKcell,D07,D01,2016-09-24T15:08:12+06:00,
1000000000250602,77011940550,mMTS,mKcell,mKcell,,D77,2016-09-24T15:07:54+06:00,
1000000000250603,77015228729,mKcell,mAltel,mKcell,D07,D02,2016-09-24T15:08:48+06:00,
1000000000250604,77079956055,mKcell,mMTS,mMTS,,D02,2016-09-24T15:09:46+06:00,
1000000000250607,77083179320,mKcell,mAltel,mAltel,,D02,2016-09-24T15:11:13+06:00,
1000000000250608,77072271718,mAltel,mMTS,mMTS,,D07,2016-09-24T15:11:41+06:00,
1000000000250609,77028599991,mKcell,mMTS,mKcell,D77,D02,2016-09-24T15:14:15+06:00,
1000000000250610,77002999988,mKarTel,mAltel,mAltel,,D01,2016-09-24T15:15:56+06:00,
1000000000250613,77712553273,mAltel,mKarTel,mKarTel,,D07,2016-09-24T15:21:53+06:00,
1000000000250614,77771482856,mMTS,mKarTel,mKarTel,,D77,2016-09-24T15:21:52+06:00,
1000000000250615,77074147777,mKarTel,mMTS,mMTS,,D01,2016-09-24T15:19:51+06:00,
1000000000250616,77077732082,mMTS,mKcell,mMTS,D02,D77,2016-09-24T15:21:52+06:00,
1000000000250617,77785425111,mKarTel,mKcell,mKcell,,D01,2016-09-24T15:27:37+06:00,
