NPId,Number,RecipientId,DonorId,RangeHolderId,OldRoute,NewRoute,PortDate,RowCount
1000000000372001,77088070708,mMTS,mAltel,mAltel,,D77,2017-04-26T12:01:01+06:00,25
1000000000372002,77760008800,mKcell,mKarTel,mKarTel,,D02,2017-04-26T12:02:05+06:00,
1000000000372003,77471382001,mKcell,mMTS,mMTS,,D02,2017-04-26T12:02:30+06:00,
1000000000372007,77024739682,mAltel,mKcell,mKcell,,D07,2017-04-26T12:05:42+06:00,
1000000000372008,77022144601,mKcell,mKarTel,mKcell,D01,D02,2017-04-26T12:06:45+06:00,
1000000000372010,77013613643,mKcell,mAltel,mKcell,D07,D02,2017-04-26T12:06:58+06:00,
1000000000372013,77018386777,mMTS,mKcell,mKcell,,D77,2017-04-26T12:09:35+06:00,
1000000000372014,77027095772,mKcell,mAltel,mKcell,D07,D02,2017-04-26T12:10:20+06:00,
1000000000372015,77000500000,mKcell,mKarTel,mAltel,D01,D02,2017-04-26T12:10:56+06:00,
1000000000372016,77016666609,mAltel,mKcell,mKcell,,D07,2017-04-26T12:10:26+06:00,
1000000000372019,77076420912,mAltel,mMTS,mMTS,,D07,2017-04-26T12:12:02+06:00,
1000000000372021,77007774762,mKcell,mAltel,mAltel,,D02,2017-04-26T12:12:19+06:00,
1000000000372022,77789384269,mAltel,mKcell,mKcell,,D07,2017-04-26T12:12:41+06:00,
1000000000372024,77011013247,mKarTel,mKcell,mKcell,,D01,2017-04-26T12:15:40+06:00,
1000000000372026,77053968954,mMTS,mKarTel,mKarTel,,D77,2017-04-26T12:18:19+06:00,
1000000000372028,77013184894,mAltel,mKcell,mKcell,,D07,2017-04-26T12:19:19+06:00,
1000000000372029,77017511151,mMTS,mKcell,mKcell,,D77,2017-04-26T12:19:27+06:00,
1000000000372031,77027598248,mKarTel,mKcell,mKcell,D02,D01,2017-04-26T12:21:50+06:00,
1000000000372033,77053968943,mMTS,mKarTel,mKarTel,,D77,2017-04-26T12:23:15+06:00,
1000000000372034,77054139012,mMTS,mKarTel,mKarTel,,D77,2017-04-26T12:23:16+06:00,
1000000000372036,77081107111,mKcell,mAltel,mAltel,,D02,2017-04-26T12:24:09+06:00,
1000000000372037,77058948875,mMTS,mKarTel,mKarTel,,D77,2017-04-26T12:26:03+06:00,
1000000000372038,77007774763,mKcell,mAltel,mAltel,,D02,2017-04-26T12:25:52+06:00,
1000000000372041,77711606166,mMTS,mKarTel,mKarTel,,D77,2017-04-26T12:28:46+06:00,
1000000000372042,77007773047,mKcell,mAltel,mAltel,,D02,2017-04-26T12:28:54+06:00,
