NPId,Number,RecipientId,DonorId,RangeHolderId,OldRoute,NewRoute,PortDate,RowCount
1000000000188584,77016184795,mMTS,mKcell,mKcell,,D77,2016-06-06T13:33:13+06:00,24
1000000000188586,77475550556,mKcell,mMTS,mMTS,,D02,2016-06-06T13:33:24+06:00,
1000000000188587,77053676848,mMTS,mKarTel,mKarTel,,D77,2016-06-06T13:32:12+06:00,
1000000000188588,77783109191,mMTS,mKcell,mKcell,,D77,2016-06-06T13:33:55+06:00,
1000000000188589,77714054717,mMTS,mKarTel,mKarTel,,D77,2016-06-06T13:34:07+06:00,
1000000000188590,77717888806,mKcell,mKarTel,mKarTel,,D02,2016-06-06T13:35:06+06:00,
1000000000188591,77770598811,mAltel,mKarTel,mKarTel,,D07,2016-06-06T13:36:13+06:00,
1000000000188595,77076660888,mKarTel,mKcell,mMTS,D02,D01,2016-06-06T13:42:57+06:00,
1000000000188596,77001246359,mMTS,mKarTel,mAltel,D01,D77,2016-06-06T13:42:37+06:00,
1000000000188597,77052195300,mAltel,mKarTel,mKarTel,,D07,2016-06-06T13:46:02+06:00,
1000000000188598,77772071969,mMTS,mKarTel,mKarTel,,D77,2016-06-06T13:46:52+06:00,
1000000000188599,77027499364,mMTS,mKcell,mKcell,,D77,2016-06-06T13:48:30+06:00,
1000000000188600,77477449997,mKcell,mMTS,mMTS,,D02,2016-06-06T13:50:01+06:00,
1000000000188601,77753756155,mAltel,mKcell,mKcell,,D07,2016-06-06T13:50:10+06:00,
1000000000188602,77756664544,mMTS,mKcell,mKcell,,D77,2016-06-06T13:51:04+06:00,
1000000000188603,77086600806,mMTS,mAltel,mAltel,,D77,2016-06-06T13:52:00+06:00,
1000000000188604,77784845075,mKcell,mKarTel,mKcell,D01,D02,2016-06-06T13:53:56+06:00,
1000000000188605,77022885058,mKarTel,mKcell,mKcell,,D01,2016-06-06T13:55:15+06:00,
1000000000188607,77016798700,mMTS,mKcell,mKcell,,D77,2016-06-06T13:56:36+06:00,
1000000000188608,77013184678,mKarTel,mKcell,mKcell,,D01,2016-06-06T13:57:02+06:00,
1000000000188609,77017000032,mMTS,mKcell,mKcell,,D77,2016-06-06T13:57:21+06:00,
1000000000188610,77011118409,mKcell,mMTS,mKcell,D77,D02,2016-06-06T13:58:20+06:00,
1000000000188611,77014141914,mKcell,mAltel,mKcell,D07,D02,2016-06-06T13:58:20+06:00,
1000000000188612,77005375333,mKcell,mAltel,mAltel,,D02,2016-06-06T13:58:41+06:00,
