NPId,Number,RecipientId,DonorId,RangeHolderId,OldRoute,NewRoute,PortDate,RowCount
1000000000313222,77017230129,mMTS,mKcell,mKcell,,D77,2017-01-19T15:30:19+06:00,11
1000000000313223,77071516269,mAltel,mMTS,mMTS,,D07,2017-01-19T15:30:24+06:00,
1000000000313224,77007700013,mMTS,mAltel,mAltel,,D77,2017-01-19T15:33:45+06:00,
1000000000313227,77015078584,mKcell,mKarTel,mKcell,D01,D02,2017-01-19T15:41:18+06:00,
1000000000313228,77752249057,mKcell,mKarTel,mKcell,D01,D02,2017-01-19T15:43:18+06:00,
1000000000313230,77072991978,mAltel,mMTS,mMTS,,D07,2017-01-19T15:44:55+06:00,
1000000000313231,77052930707,mKarTel,mMTS,mKarTel,D77,D01,2017-01-19T15:47:15+06:00,
1000000000313232,77016559396,mMTS,mKcell,mKcell,,D77,2017-01-19T15:51:01+06:00,
1000000000313234,77055601610,mKcell,mKarTel,mKarTel,,D02,2017-01-19T15:52:33+06:00,
1000000000313236,77017757072,mMTS,mKarTel,mKcell,D01,D77,2017-01-19T15:59:00+06:00,
1000000000313237,77772607541,mMTS,mKarTel,mKarTel,,D77,2017-01-19T15:59:14+06:00,
