NPId,Number,RecipientId,DonorId,RangeHolderId,OldRoute,NewRoute,PortDate,RowCount
1000000000431091,77017122935,mKarTel,mKcell,mKcell,,D01,2017-08-01T09:39:32+06:00,9
1000000000431091,77017705180,mKarTel,mKcell,mKcell,,D01,2017-08-01T09:39:32+06:00,
1000000000432070,77076079154,mAltel,mMTS,mMTS,,D07,2017-08-01T09:30:54+06:00,
1000000000432073,77075001638,mKcell,mMTS,mMTS,,D02,2017-08-01T09:39:50+06:00,
1000000000432077,77475547928,mKarTel,mMTS,mMTS,,D01,2017-08-01T09:43:46+06:00,
1000000000432082,77017113312,mKcell,mMTS,mKcell,D77,D02,2017-08-01T09:52:12+06:00,
1000000000432084,77076079118,mAltel,mMTS,mMTS,,D07,2017-08-01T09:52:29+06:00,
1000000000432085,77070319031,mKarTel,mMTS,mMTS,,D01,2017-08-01T09:54:04+06:00,
1000000000432088,77015503120,mKcell,mMTS,mKcell,D77,D02,2017-08-01T09:59:15+06:00,
