NPId,Number,RecipientId,DonorId,RangeHolderId,OldRoute,NewRoute,PortDate,RowCount
1000000000204174,77776248029,mKarTel,mMTS,mKarTel,D77,D01,2016-07-02T09:14:53+06:00,2
1000000000204175,77071369704,mKarTel,mMTS,mMTS,,D01,2016-07-02T09:28:33+06:00,
