NPId,Number,RecipientId,DonorId,RangeHolderId,OldRoute,NewRoute,PortDate,RowCount
1000000000317637,77079955415,mMTS,mKarTel,mMTS,D01,D77,2017-01-27T15:31:33+06:00,28
1000000000317638,77029131116,mMTS,mKcell,mKcell,,D77,2017-01-27T15:32:54+06:00,
1000000000317639,77782672153,mMTS,mKcell,mKcell,,D77,2017-01-27T15:33:02+06:00,
1000000000317640,77755012392,mKarTel,mKcell,mKcell,,D01,2017-01-27T15:34:00+06:00,
1000000000317641,77077087086,mAltel,mMTS,mMTS,,D07,2017-01-27T15:33:51+06:00,
1000000000317642,77775577757,mKcell,mKarTel,mKarTel,,D02,2017-01-27T15:36:04+06:00,
1000000000317643,77013583658,mMTS,mKcell,mKcell,,D77,2017-01-27T15:36:19+06:00,
1000000000317644,77007770573,mKcell,mAltel,mAltel,,D02,2017-01-27T15:36:40+06:00,
1000000000317645,77085991386,mKarTel,mAltel,mAltel,,D01,2017-01-27T15:36:48+06:00,
1000000000317648,77052118511,mMTS,mKarTel,mKarTel,,D77,2017-01-27T15:38:22+06:00,
1000000000317651,77001003909,mKcell,mAltel,mAltel,,D02,2017-01-27T15:40:16+06:00,
1000000000317652,77001009808,mKcell,mAltel,mAltel,,D02,2017-01-27T15:40:19+06:00,
1000000000317653,77001005909,mKcell,mAltel,mAltel,,D02,2017-01-27T15:40:20+06:00,
1000000000317654,77001004202,mKcell,mAltel,mAltel,,D02,2017-01-27T15:41:23+06:00,
1000000000317657,77026674464,mMTS,mKcell,mKcell,,D77,2017-01-27T15:43:38+06:00,
1000000000317658,77001006505,mKcell,mAltel,mAltel,,D02,2017-01-27T15:43:40+06:00,
1000000000317659,77017275100,mKarTel,mKcell,mKcell,,D01,2017-01-27T15:45:17+06:00,
1000000000317661,77023336776,mKarTel,mKcell,mKcell,,D01,2017-01-27T15:45:43+06:00,
1000000000317662,77001004505,mKcell,mAltel,mAltel,,D02,2017-01-27T15:46:00+06:00,
1000000000317665,77059033990,mKarTel,mAltel,mKarTel,D07,D01,2017-01-27T15:46:56+06:00,
1000000000317666,77785904020,mAltel,mKcell,mKcell,,D07,2017-01-27T15:48:06+06:00,
1000000000317668,77001008606,mKcell,mAltel,mAltel,,D02,2017-01-27T15:48:16+06:00,
1000000000317669,77001002606,mKcell,mAltel,mAltel,,D02,2017-01-27T15:51:03+06:00,
1000000000317670,77074233339,mAltel,mMTS,mMTS,,D07,2017-01-27T15:49:08+06:00,
1000000000317673,77021777761,mKarTel,mKcell,mKcell,,D01,2017-01-27T15:52:03+06:00,
1000000000317675,77025922263,mMTS,mKcell,mKcell,,D77,2017-01-27T15:52:48+06:00,
1000000000317677,77028525566,mKcell,mAltel,mKcell,D07,D02,2017-01-27T15:55:26+06:00,
1000000000317679,77752100777,mMTS,mKcell,mKcell,,D77,2017-01-27T15:59:26+06:00,
