NPId,Number,RecipientId,DonorId,RangeHolderId,OldRoute,NewRoute,PortDate,RowCount
1000000000301321,77751728308,mKcell,mMTS,mKcell,D77,D02,2016-12-27T10:05:22+06:00,7
1000000000301322,77773290101,mKarTel,mKcell,mKarTel,D02,D01,2016-12-27T10:08:05+06:00,
1000000000301323,77010265488,mMTS,mKcell,mKcell,,D77,2016-12-27T10:16:40+06:00,
1000000000301324,77076948182,mMTS,mAltel,mMTS,D07,D77,2016-12-27T10:16:32+06:00,
1000000000301325,77776606914,mKcell,mKarTel,mKarTel,,D02,2016-12-27T10:19:18+06:00,
1000000000301326,77015827015,mMTS,mKcell,mKcell,,D77,2016-12-27T10:22:44+06:00,
1000000000301327,77774605978,mMTS,mKarTel,mKarTel,,D77,2016-12-27T10:27:58+06:00,
