NPId,Number,RecipientId,DonorId,RangeHolderId,OldRoute,NewRoute,PortDate,RowCount
1000000000313663,77071373137,mKarTel,mMTS,mMTS,,D01,2017-01-20T14:00:08+06:00,19
1000000000313664,77001970019,mKcell,mAltel,mAltel,,D02,2017-01-20T14:01:03+06:00,
1000000000313665,77763311311,mKcell,mKarTel,mKarTel,,D02,2017-01-20T14:01:53+06:00,
1000000000313666,77785184931,mMTS,mKcell,mKcell,,D77,2017-01-20T14:01:45+06:00,
1000000000313668,77019612276,mKarTel,mKcell,mKcell,,D01,2017-01-20T14:05:14+06:00,
1000000000313668,77019615526,mKarTel,mKcell,mKcell,,D01,2017-01-20T14:05:14+06:00,
1000000000313669,77014240655,mKarTel,mKcell,mKcell,,D01,2017-01-20T14:05:59+06:00,
1000000000313670,77015806959,mKarTel,mMTS,mKcell,D77,D01,2017-01-20T14:07:27+06:00,
1000000000313671,77051356412,mMTS,mKarTel,mKarTel,,D77,2017-01-20T14:08:01+06:00,
1000000000313672,77758119999,mKarTel,mKcell,mKcell,,D01,2017-01-20T14:08:34+06:00,
1000000000313674,77001001669,mMTS,mAltel,mAltel,,D77,2017-01-20T14:15:05+06:00,
1000000000313675,77075544508,mAltel,mMTS,mMTS,,D07,2017-01-20T14:16:14+06:00,
1000000000313676,77785185412,mMTS,mKcell,mKcell,,D77,2017-01-20T14:20:11+06:00,
1000000000313677,77019942006,mMTS,mKcell,mKcell,,D77,2017-01-20T14:20:12+06:00,
1000000000313680,77766999952,mKcell,mKarTel,mKarTel,,D02,2017-01-20T14:24:49+06:00,
1000000000313681,77755538744,mKarTel,mKcell,mKcell,,D01,2017-01-20T14:26:38+06:00,
1000000000313682,77019073325,mMTS,mKcell,mKcell,,D77,2017-01-20T14:28:08+06:00,
1000000000313683,77015719479,mAltel,mKarTel,mKcell,D01,D07,2017-01-20T14:29:34+06:00,
1000000000313684,77001770701,mKcell,mAltel,mAltel,,D02,2017-01-20T14:29:33+06:00,
