NPId,Number,RecipientId,DonorId,RangeHolderId,OldRoute,NewRoute,PortDate,RowCount
1000000000214078,77015177679,mKarTel,mKcell,mKcell,,D01,2016-07-20T16:10:25+06:00,26
1000000000214190,77752226000,mKarTel,mKcell,mKcell,,D01,2016-07-20T16:29:07+06:00,
1000000000214288,77074180201,mKcell,mMTS,mMTS,,D02,2016-07-20T16:12:40+06:00,
1000000000214298,77053830950,mMTS,mKarTel,mKarTel,,D77,2016-07-20T16:03:03+06:00,
1000000000214299,77012435230,mMTS,mKcell,mKcell,,D77,2016-07-20T16:04:30+06:00,
1000000000214303,77771597939,mMTS,mKarTel,mKarTel,,D77,2016-07-20T16:05:14+06:00,
1000000000214305,77787044446,mKarTel,mKcell,mKcell,,D01,2016-07-20T16:06:33+06:00,
1000000000214306,77771590735,mMTS,mKarTel,mKarTel,,D77,2016-07-20T16:07:47+06:00,
1000000000214308,77476033290,mAltel,mMTS,mMTS,,D07,2016-07-20T16:08:43+06:00,
1000000000214310,77059797996,mMTS,mKarTel,mKarTel,,D77,2016-07-20T16:11:20+06:00,
1000000000214311,77023311838,mKarTel,mMTS,mKcell,D77,D01,2016-07-20T16:11:46+06:00,
1000000000214312,77767797939,mMTS,mKarTel,mKarTel,,D77,2016-07-20T16:12:20+06:00,
1000000000214314,77015757444,mKcell,mAltel,mKcell,D07,D02,2016-07-20T16:12:41+06:00,
1000000000214316,77768992999,mKcell,mKarTel,mKarTel,,D02,2016-07-20T16:13:42+06:00,
1000000000214319,77023951222,mMTS,mKcell,mKcell,,D77,2016-07-20T16:14:55+06:00,
1000000000214321,77025113731,mKcell,mAltel,mKcell,D07,D02,2016-07-20T16:19:02+06:00,
1000000000214322,77779658383,mMTS,mKarTel,mKarTel,,D77,2016-07-20T16:18:04+06:00,
1000000000214324,77012084436,mKcell,mKarTel,mKcell,D01,D02,2016-07-20T16:22:32+06:00,
1000000000214325,77002177772,mKarTel,mMTS,mAltel,D77,D01,2016-07-20T16:21:07+06:00,
1000000000214326,77024400733,mKcell,mMTS,mKcell,D77,D02,2016-07-20T16:23:44+06:00,
1000000000214327,77001526236,mMTS,mAltel,mAltel,,D77,2016-07-20T16:22:15+06:00,
1000000000214328,77016432737,mMTS,mKcell,mKcell,,D77,2016-07-20T16:23:31+06:00,
1000000000214329,77011122244,mAltel,mKcell,mKcell,,D07,2016-07-20T16:24:27+06:00,
1000000000214330,77768888949,mAltel,mKarTel,mKarTel,,D07,2016-07-20T16:25:04+06:00,
1000000000214331,77017676070,mMTS,mKcell,mKcell,,D77,2016-07-20T16:26:31+06:00,
1000000000214332,77013302353,mMTS,mKcell,mKcell,,D77,2016-07-20T16:27:56+06:00,
