NPId,Number,RecipientId,DonorId,RangeHolderId,OldRoute,NewRoute,PortDate,RowCount
1000000000155767,77054201133,mKcell,mKarTel,mKarTel,,D02,2016-04-19T16:05:53+06:00,38
1000000000155780,77025121262,mKcell,mAltel,mKcell,D07,D02,2016-04-19T16:00:39+06:00,
1000000000155781,77089995858,mKarTel,mAltel,mAltel,,D01,2016-04-19T16:01:06+06:00,
1000000000155782,77782833373,mMTS,mKcell,mKcell,,D77,2016-04-19T16:01:37+06:00,
1000000000155783,77751309792,mMTS,mAltel,mKcell,D07,D77,2016-04-19T16:01:58+06:00,
1000000000155784,77751654989,mMTS,mKcell,mKcell,,D77,2016-04-19T16:03:26+06:00,
1000000000155785,77788484448,mKarTel,mKcell,mKcell,,D01,2016-04-19T16:04:04+06:00,
1000000000155788,77028888881,mKcell,mKarTel,mKcell,D01,D02,2016-04-19T16:20:14+06:00,
1000000000155789,77082261999,mMTS,mAltel,mAltel,,D77,2016-04-19T16:04:29+06:00,
1000000000155790,77087097097,mKcell,mAltel,mAltel,,D02,2016-04-19T16:05:36+06:00,
1000000000155792,77051250637,mMTS,mKarTel,mKarTel,,D77,2016-04-19T16:06:22+06:00,
1000000000155793,77017647242,mMTS,mKcell,mKcell,,D77,2016-04-19T16:07:14+06:00,
1000000000155795,77757564506,mMTS,mKcell,mKcell,,D77,2016-04-19T16:07:44+06:00,
1000000000155796,77001533333,mMTS,mAltel,mAltel,,D77,2016-04-19T16:07:20+06:00,
1000000000155798,77784052223,mKcell,mAltel,mKcell,D07,D02,2016-04-19T16:09:07+06:00,
1000000000155799,77013260220,mMTS,mKcell,mKcell,,D77,2016-04-19T16:09:15+06:00,
1000000000155801,77017758940,mKcell,mKarTel,mKcell,D01,D02,2016-04-19T16:11:48+06:00,
1000000000155802,77012405494,mMTS,mKcell,mKcell,,D77,2016-04-19T16:12:35+06:00,
1000000000155803,77057774484,mKarTel,mKcell,mKarTel,D02,D01,2016-04-19T16:12:48+06:00,
1000000000155804,77011646719,mMTS,mKcell,mKcell,,D77,2016-04-19T16:13:29+06:00,
1000000000155805,77779209303,mKarTel,mKcell,mKarTel,D02,D01,2016-04-19T16:13:39+06:00,
1000000000155806,77007170517,mMTS,mAltel,mAltel,,D77,2016-04-19T16:13:19+06:00,
1000000000155808,77013125433,mMTS,mKcell,mKcell,,D77,2016-04-19T16:15:12+06:00,
1000000000155809,77001444152,mMTS,mAltel,mAltel,,D77,2016-04-19T16:15:06+06:00,
1000000000155810,77789035182,mKcell,mAltel,mKcell,D07,D02,2016-04-19T16:15:49+06:00,
1000000000155812,77771473191,mMTS,mKarTel,mKarTel,,D77,2016-04-19T16:17:40+06:00,
1000000000155813,77078555235,mMTS,mAltel,mMTS,D07,D77,2016-04-19T16:17:58+06:00,
1000000000155815,77024153903,mMTS,mKcell,mKcell,,D77,2016-04-19T16:21:57+06:00,
1000000000155816,77757544033,mAltel,mKcell,mKcell,,D07,2016-04-19T16:22:00+06:00,
1000000000155817,77710010744,mKcell,mKarTel,mKarTel,,D02,2016-04-19T16:22:19+06:00,
1000000000155819,77078143632,mKcell,mMTS,mMTS,,D02,2016-04-19T16:23:43+06:00,
1000000000155821,77073694177,mKcell,mMTS,mMTS,,D02,2016-04-19T16:26:21+06:00,
1000000000155822,77710010745,mKcell,mKarTel,mKarTel,,D02,2016-04-19T16:26:34+06:00,
1000000000155824,77075579767,mKarTel,mMTS,mMTS,,D01,2016-04-19T16:27:06+06:00,
1000000000155825,77057114072,mMTS,mKarTel,mKarTel,,D77,2016-04-19T16:27:48+06:00,
1000000000155826,77756461000,mMTS,mAltel,mKcell,D07,D77,2016-04-19T16:28:14+06:00,
1000000000155827,77087074433,mMTS,mAltel,mAltel,,D77,2016-04-19T16:28:24+06:00,
1000000000155828,77007575717,mMTS,mAltel,mAltel,,D77,2016-04-19T16:29:21+06:00,
