NPId,Number,RecipientId,DonorId,RangeHolderId,OldRoute,NewRoute,PortDate,RowCount
1000000000187819,77013542948,mMTS,mKcell,mKcell,,D77,2016-06-04T15:31:01+06:00,28
1000000000187820,77779932222,mAltel,mKarTel,mKarTel,,D07,2016-06-04T15:31:01+06:00,
1000000000187823,77756406640,mMTS,mKcell,mKcell,,D77,2016-06-04T15:32:44+06:00,
1000000000187824,77075775781,mKarTel,mMTS,mMTS,,D01,2016-06-04T15:33:31+06:00,
1000000000187825,77018798920,mKarTel,mKcell,mKcell,,D01,2016-06-04T15:34:41+06:00,
1000000000187826,77077775255,mKarTel,mMTS,mMTS,,D01,2016-06-04T15:34:56+06:00,
1000000000187827,77016154619,mAltel,mKcell,mKcell,,D07,2016-06-04T15:35:29+06:00,
1000000000187829,77018885203,mKarTel,mKcell,mKcell,,D01,2016-06-04T15:37:44+06:00,
1000000000187830,77014224734,mMTS,mKcell,mKcell,,D77,2016-06-04T15:40:01+06:00,
1000000000187832,77017639221,mKarTel,mKcell,mKcell,,D01,2016-06-04T15:38:20+06:00,
1000000000187834,77016848648,mKcell,mMTS,mKcell,D77,D02,2016-06-04T15:40:50+06:00,
1000000000187835,77015260062,mKcell,mKarTel,mKcell,D01,D02,2016-06-04T15:46:06+06:00,
1000000000187837,77014365268,mKcell,mAltel,mKcell,D07,D02,2016-06-04T15:42:01+06:00,
1000000000187838,77025846444,mMTS,mKarTel,mKcell,D01,D77,2016-06-04T15:41:44+06:00,
1000000000187840,77763303323,mKcell,mKarTel,mKarTel,,D02,2016-06-04T15:46:05+06:00,
1000000000187841,77005055505,mMTS,mAltel,mAltel,,D77,2016-06-04T15:43:02+06:00,
1000000000187842,77015291984,mMTS,mKcell,mKcell,,D77,2016-06-04T15:44:19+06:00,
1000000000187844,77019301387,mKarTel,mKcell,mKcell,,D01,2016-06-04T15:47:06+06:00,
1000000000187845,77713533636,mMTS,mKarTel,mKarTel,,D77,2016-06-04T15:47:23+06:00,
1000000000187846,77025862058,mKarTel,mKcell,mKcell,,D01,2016-06-04T15:48:18+06:00,
1000000000187847,77077001013,mKarTel,mMTS,mMTS,,D01,2016-06-04T15:47:36+06:00,
1000000000187848,77023606529,mAltel,mKcell,mKcell,,D07,2016-06-04T15:48:04+06:00,
1000000000187849,77011544217,mAltel,mKcell,mKcell,,D07,2016-06-04T15:48:58+06:00,
1000000000187851,77018699333,mKarTel,mKcell,mKcell,,D01,2016-06-04T15:50:26+06:00,
1000000000187853,77781383837,mKcell,mAltel,mKcell,D07,D02,2016-06-04T15:58:32+06:00,
1000000000187854,77083532303,mKcell,mAltel,mAltel,,D02,2016-06-04T15:58:33+06:00,
1000000000187855,77017605216,mMTS,mKcell,mKcell,,D77,2016-06-04T15:59:23+06:00,
1000000000187857,77073399330,mMTS,mAltel,mMTS,D07,D77,2016-06-04T15:59:35+06:00,
