NPId,Number,RecipientId,DonorId,RangeHolderId,OldRoute,NewRoute,PortDate,RowCount
1000000000178772,77051415925,mMTS,mKarTel,mKarTel,,D77,2016-05-22T10:33:15+06:00,5
1000000000178773,77084808020,mKarTel,mAltel,mAltel,,D01,2016-05-22T10:35:58+06:00,
1000000000178774,77776788222,mMTS,mKarTel,mKarTel,,D77,2016-05-22T10:41:14+06:00,
1000000000178776,77082320320,mMTS,mAltel,mAltel,,D77,2016-05-22T10:55:55+06:00,
1000000000178777,77057955765,mKarTel,mMTS,mKarTel,D77,D01,2016-05-22T10:59:15+06:00,
