NPId,Number,RecipientId,DonorId,RangeHolderId,OldRoute,NewRoute,PortDate,RowCount
1000000000254233,77001000470,mMTS,mAltel,mAltel,,D77,2016-09-30T17:00:23+06:00,29
1000000000254235,77476485281,mKcell,mMTS,mMTS,,D02,2016-09-30T17:02:28+06:00,
1000000000254236,77013180111,mKcell,mKarTel,mKcell,D01,D02,2016-09-30T17:03:23+06:00,
1000000000254237,77476159134,mAltel,mMTS,mMTS,,D07,2016-09-30T17:02:31+06:00,
1000000000254238,77781292071,mKarTel,mKcell,mKcell,,D01,2016-09-30T17:04:32+06:00,
1000000000254240,77019083815,mKcell,mKarTel,mKcell,D01,D02,2016-09-30T17:08:13+06:00,
1000000000254241,77013835101,mKarTel,mKcell,mKcell,,D01,2016-09-30T17:11:48+06:00,
1000000000254242,77785771858,mAltel,mKcell,mKcell,,D07,2016-09-30T17:09:37+06:00,
1000000000254243,77017941863,mKarTel,mKcell,mKcell,,D01,2016-09-30T17:10:24+06:00,
1000000000254244,77019083814,mKcell,mKarTel,mKcell,D01,D02,2016-09-30T17:11:24+06:00,
1000000000254245,77073884363,mKarTel,mAltel,mMTS,D07,D01,2016-09-30T17:12:24+06:00,
1000000000254246,77774580251,mMTS,mKarTel,mKarTel,,D77,2016-09-30T17:13:04+06:00,
1000000000254248,77005551293,mKcell,mAltel,mAltel,,D02,2016-09-30T17:14:49+06:00,
1000000000254249,77711733334,mKcell,mKarTel,mKarTel,,D02,2016-09-30T17:17:27+06:00,
1000000000254250,77053333188,mMTS,mKarTel,mKarTel,,D77,2016-09-30T17:16:12+06:00,
1000000000254251,77782902929,mAltel,mMTS,mKcell,D77,D07,2016-09-30T17:16:12+06:00,
1000000000254252,77012396430,mKcell,mAltel,mKcell,D07,D02,2016-09-30T17:19:52+06:00,
1000000000254253,77023449787,mKarTel,mKcell,mKcell,,D01,2016-09-30T17:20:27+06:00,
1000000000254254,77021111573,mKarTel,mKcell,mKcell,,D01,2016-09-30T17:21:04+06:00,
1000000000254255,77017147638,mAltel,mKcell,mKcell,,D07,2016-09-30T17:20:52+06:00,
1000000000254256,77022015180,mMTS,mKcell,mKcell,,D77,2016-09-30T17:21:58+06:00,
1000000000254257,77016724000,mKcell,mMTS,mKcell,D77,D02,2016-09-30T17:22:08+06:00,
1000000000254258,77076154785,mKcell,mMTS,mMTS,,D02,2016-09-30T17:23:12+06:00,
1000000000254259,77787884974,mKarTel,mKcell,mKcell,,D01,2016-09-30T17:23:36+06:00,
1000000000254260,77004000607,mKcell,mAltel,mAltel,,D02,2016-09-30T17:24:22+06:00,
1000000000254261,77770017776,mKarTel,mMTS,mKarTel,D77,D01,2016-09-30T17:24:47+06:00,
1000000000254262,77004303589,mKcell,mKarTel,mAltel,D01,D02,2016-09-30T17:25:35+06:00,
1000000000254263,77473210321,mKcell,mMTS,mMTS,,D02,2016-09-30T17:25:28+06:00,
1000000000254264,77019995114,mKarTel,mKcell,mKcell,,D01,2016-09-30T17:27:45+06:00,
