NPId,Number,RecipientId,DonorId,RangeHolderId,OldRoute,NewRoute,PortDate,RowCount
1000000000221722,77774719990,mKarTel,mMTS,mKarTel,D77,D01,2016-08-02T11:30:57+06:00,22
1000000000221723,77056304585,mKcell,mKarTel,mKarTel,,D02,2016-08-02T11:32:55+06:00,
1000000000221724,77014385087,mMTS,mKcell,mKcell,,D77,2016-08-02T11:36:03+06:00,
1000000000221725,77477095512,mAltel,mMTS,mMTS,,D07,2016-08-02T11:33:26+06:00,
1000000000221726,77052466666,mKcell,mMTS,mKarTel,D77,D02,2016-08-02T11:36:59+06:00,
1000000000221728,77714767454,mMTS,mKarTel,mKarTel,,D77,2016-08-02T11:40:43+06:00,
1000000000221729,77789604600,mMTS,mKcell,mKcell,,D77,2016-08-02T11:42:24+06:00,
1000000000221730,77714767456,mMTS,mKarTel,mKarTel,,D77,2016-08-02T11:43:00+06:00,
1000000000221731,77017207404,mKarTel,mKcell,mKcell,,D01,2016-08-02T11:43:00+06:00,
1000000000221732,77015410042,mKcell,mMTS,mKcell,D77,D02,2016-08-02T11:45:07+06:00,
1000000000221733,77010237171,mMTS,mKcell,mKcell,,D77,2016-08-02T11:45:52+06:00,
1000000000221734,77775901313,mAltel,mKarTel,mKarTel,,D07,2016-08-02T11:46:32+06:00,
1000000000221737,77025724994,mKarTel,mMTS,mKcell,D77,D01,2016-08-02T11:50:14+06:00,
1000000000221738,77024800065,mAltel,mKcell,mKcell,,D07,2016-08-02T11:50:30+06:00,
1000000000221740,77051225777,mMTS,mKarTel,mKarTel,,D77,2016-08-02T11:51:24+06:00,
1000000000221741,77773724091,mMTS,mKarTel,mKarTel,,D77,2016-08-02T11:51:34+06:00,
1000000000221744,77789494944,mMTS,mKcell,mKcell,,D77,2016-08-02T11:53:50+06:00,
1000000000221748,77018011419,mKarTel,mKcell,mKcell,,D01,2016-08-02T11:57:25+06:00,
1000000000221749,77010820070,mMTS,mKcell,mKcell,,D77,2016-08-02T11:57:49+06:00,
1000000000221750,77774430897,mMTS,mKarTel,mKarTel,,D77,2016-08-02T11:57:39+06:00,
1000000000221751,77052564545,mMTS,mKarTel,mKarTel,,D77,2016-08-02T11:57:39+06:00,
1000000000221752,77770609060,mMTS,mKarTel,mKarTel,,D77,2016-08-02T11:57:55+06:00,
