NPId,Number,RecipientId,DonorId,RangeHolderId,OldRoute,NewRoute,PortDate,RowCount
1000000000323378,77017490892,mMTS,mKcell,mKcell,,D77,2017-02-04T11:01:40+06:00,23
1000000000323379,77016556220,mKarTel,mKcell,mKcell,,D01,2017-02-04T11:03:17+06:00,
1000000000323380,77778800015,mMTS,mKarTel,mKarTel,,D77,2017-02-04T11:04:08+06:00,
1000000000323381,77052883037,mKarTel,mAltel,mKarTel,D07,D01,2017-02-04T11:04:19+06:00,
1000000000323382,77760050578,mKcell,mKarTel,mKarTel,,D02,2017-02-04T11:06:04+06:00,
1000000000323384,77020002125,mKarTel,mKcell,mKcell,,D01,2017-02-04T11:09:24+06:00,
1000000000323385,77016640544,mMTS,mKcell,mKcell,,D77,2017-02-04T11:09:41+06:00,
1000000000323386,77077872727,mKarTel,mMTS,mMTS,,D01,2017-02-04T11:10:01+06:00,
1000000000323389,77029991335,mAltel,mKcell,mKcell,,D07,2017-02-04T11:16:02+06:00,
1000000000323390,77012446569,mKarTel,mKcell,mKcell,,D01,2017-02-04T11:16:27+06:00,
1000000000323391,77017381209,mMTS,mKcell,mKcell,,D77,2017-02-04T11:17:05+06:00,
1000000000323392,77029968530,mKcell,mAltel,mKcell,D07,D02,2017-02-04T11:18:26+06:00,
1000000000323393,77760077725,mKcell,mKarTel,mKarTel,,D02,2017-02-04T11:18:40+06:00,
1000000000323394,77777770088,mAltel,mKarTel,mKarTel,,D07,2017-02-04T11:19:50+06:00,
1000000000323396,77078464088,mKarTel,mMTS,mMTS,,D01,2017-02-04T11:20:31+06:00,
1000000000323397,77052503042,mMTS,mKarTel,mKarTel,,D77,2017-02-04T11:21:15+06:00,
1000000000323398,77015395188,mMTS,mKcell,mKcell,,D77,2017-02-04T11:22:57+06:00,
1000000000323399,77474483139,mAltel,mKcell,mMTS,D02,D07,2017-02-04T11:24:31+06:00,
1000000000323400,77018311229,mMTS,mKcell,mKcell,D02,D77,2017-02-04T11:25:25+06:00,
1000000000323401,77017589180,mKarTel,mAltel,mKcell,D07,D01,2017-02-04T11:26:39+06:00,
1000000000323402,77772769433,mMTS,mKarTel,mKarTel,,D77,2017-02-04T11:27:26+06:00,
1000000000323403,77077948979,mKarTel,mMTS,mMTS,,D01,2017-02-04T11:28:09+06:00,
1000000000323404,77777312727,mMTS,mKarTel,mKarTel,,D77,2017-02-04T11:29:22+06:00,
