NPId,Number,RecipientId,DonorId,RangeHolderId,OldRoute,NewRoute,PortDate,RowCount
1000000000243843,77016913810,mMTS,mKcell,mKcell,,D77,2016-09-10T16:30:48+06:00,14
1000000000243844,77762225423,mMTS,mKcell,mKarTel,D02,D77,2016-09-10T16:32:00+06:00,
1000000000243845,77757811000,mMTS,mKcell,mKcell,,D77,2016-09-10T16:32:06+06:00,
1000000000243847,77019881169,mKarTel,mKcell,mKcell,,D01,2016-09-10T16:35:04+06:00,
1000000000243848,77018876886,mMTS,mKcell,mKcell,,D77,2016-09-10T16:35:59+06:00,
1000000000243849,77759066070,mMTS,mKcell,mKcell,,D77,2016-09-10T16:37:28+06:00,
1000000000243850,77011121918,mKarTel,mKcell,mKcell,,D01,2016-09-10T16:39:03+06:00,
1000000000243851,77012067392,mMTS,mKcell,mKcell,,D77,2016-09-10T16:42:35+06:00,
1000000000243852,77776035890,mAltel,mKarTel,mKarTel,,D07,2016-09-10T16:48:18+06:00,
1000000000243853,77757281897,mMTS,mKcell,mKcell,,D77,2016-09-10T16:47:52+06:00,
1000000000243855,77027223633,mMTS,mKcell,mKcell,,D77,2016-09-10T16:50:59+06:00,
1000000000243856,77012275689,mMTS,mKcell,mKcell,,D77,2016-09-10T16:51:30+06:00,
1000000000243858,77055223644,mMTS,mKarTel,mKarTel,,D77,2016-09-10T16:53:39+06:00,
1000000000243861,77788880081,mAltel,mKcell,mKcell,,D07,2016-09-10T16:56:47+06:00,
