NPId,Number,RecipientId,DonorId,RangeHolderId,OldRoute,NewRoute,PortDate,RowCount
1000000000278381,77077554477,mKarTel,mAltel,mMTS,D07,D01,2016-11-12T16:30:12+06:00,15
1000000000278382,77005555321,mMTS,mKcell,mAltel,D02,D77,2016-11-12T16:30:32+06:00,
1000000000278385,77477050165,mKarTel,mAltel,mMTS,D07,D01,2016-11-12T16:32:34+06:00,
1000000000278386,77787292030,mMTS,mKcell,mKcell,,D77,2016-11-12T16:35:30+06:00,
1000000000278387,77781383334,mKarTel,mMTS,mKcell,D77,D01,2016-11-12T16:33:29+06:00,
1000000000278389,77017136760,mKarTel,mKcell,mKcell,,D01,2016-11-12T16:34:11+06:00,
1000000000278391,77074888825,mMTS,mKcell,mMTS,D02,D77,2016-11-12T16:39:07+06:00,
1000000000278392,77773956035,mMTS,mKarTel,mKarTel,,D77,2016-11-12T16:39:58+06:00,
1000000000278393,77715120233,mAltel,mKarTel,mKarTel,,D07,2016-11-12T16:40:22+06:00,
1000000000278394,77017167997,mKarTel,mKcell,mKcell,,D01,2016-11-12T16:41:23+06:00,
1000000000278396,77023993690,mMTS,mKcell,mKcell,,D77,2016-11-12T16:44:29+06:00,
1000000000278397,77055585258,mMTS,mKarTel,mKarTel,,D77,2016-11-12T16:44:49+06:00,
1000000000278398,77056665535,mMTS,mKarTel,mKarTel,,D77,2016-11-12T16:45:26+06:00,
1000000000278402,77757564435,mAltel,mKcell,mKcell,,D07,2016-11-12T16:47:46+06:00,
1000000000278404,77479401088,mKarTel,mMTS,mMTS,,D01,2016-11-12T16:53:07+06:00,
