NPId,Number,RecipientId,DonorId,RangeHolderId,OldRoute,NewRoute,PortDate,RowCount
1000000000405692,77073890768,mKarTel,mMTS,mMTS,,D01,2017-06-19T16:01:18+06:00,32
1000000000405693,77477774220,mKarTel,mKcell,mMTS,D02,D01,2017-06-19T16:01:50+06:00,
1000000000405694,77752990998,mKarTel,mKcell,mKcell,,D01,2017-06-19T16:02:04+06:00,
1000000000405695,77773502399,mMTS,mKarTel,mKarTel,,D77,2017-06-19T16:02:20+06:00,
1000000000405697,77016353909,mKcell,mKarTel,mKcell,D01,D02,2017-06-19T16:03:59+06:00,
1000000000405698,77783328888,mMTS,mKcell,mKcell,,D77,2017-06-19T16:04:05+06:00,
1000000000405699,77778900707,mAltel,mKarTel,mKarTel,,D07,2017-06-19T16:05:19+06:00,
1000000000405700,77754108845,mMTS,mKcell,mKcell,,D77,2017-06-19T16:05:22+06:00,
1000000000405701,77788244446,mKarTel,mMTS,mKcell,D77,D01,2017-06-19T16:08:24+06:00,
1000000000405702,77773291986,mAltel,mKarTel,mKarTel,,D07,2017-06-19T16:08:32+06:00,
1000000000405703,77058188851,mKcell,mKarTel,mKarTel,,D02,2017-06-19T16:09:15+06:00,
1000000000405704,77025555171,mKarTel,mAltel,mKcell,D07,D01,2017-06-19T16:08:56+06:00,
1000000000405705,77476599738,mAltel,mMTS,mMTS,,D07,2017-06-19T16:09:09+06:00,
1000000000405707,77754555080,mAltel,mKcell,mKcell,,D07,2017-06-19T16:10:11+06:00,
1000000000405709,77004152959,mMTS,mAltel,mAltel,,D77,2017-06-19T16:11:57+06:00,
1000000000405711,77013849764,mKarTel,mKcell,mKcell,,D01,2017-06-19T16:13:11+06:00,
1000000000405713,77475558055,mAltel,mMTS,mMTS,,D07,2017-06-19T16:13:37+06:00,
1000000000405714,77071286681,mAltel,mMTS,mMTS,,D07,2017-06-19T16:14:49+06:00,
1000000000405715,77028500962,mMTS,mKcell,mKcell,,D77,2017-06-19T16:16:01+06:00,
1000000000405716,77000203010,mMTS,mAltel,mAltel,,D77,2017-06-19T16:16:19+06:00,
1000000000405717,77071119288,mAltel,mMTS,mMTS,,D07,2017-06-19T16:19:03+06:00,
1000000000405718,77755636473,mAltel,mKcell,mKcell,D02,D07,2017-06-19T16:20:24+06:00,
1000000000405719,77057776171,mAltel,mKarTel,mKarTel,,D07,2017-06-19T16:21:34+06:00,
1000000000405720,77715217337,mKarTel,mMTS,mKarTel,D77,D01,2017-06-19T16:23:07+06:00,
1000000000405721,77475586709,mKarTel,mMTS,mMTS,,D01,2017-06-19T16:23:27+06:00,
1000000000405722,77477417636,mAltel,mMTS,mMTS,,D07,2017-06-19T16:23:29+06:00,
1000000000405724,77028393666,mMTS,mKcell,mKcell,,D77,2017-06-19T16:26:42+06:00,
1000000000405726,77075130707,mKcell,mMTS,mMTS,,D02,2017-06-19T16:27:17+06:00,
1000000000405727,77071612112,mAltel,mMTS,mMTS,,D07,2017-06-19T16:26:56+06:00,
1000000000405728,77072066609,mKcell,mMTS,mMTS,,D02,2017-06-19T16:28:04+06:00,
1000000000405729,77478383832,mKarTel,mMTS,mMTS,,D01,2017-06-19T16:28:41+06:00,
1000000000405730,77758530647,mKcell,mMTS,mKcell,D77,D02,2017-06-19T16:29:08+06:00,
