NPId,Number,RecipientId,DonorId,RangeHolderId,OldRoute,NewRoute,PortDate,RowCount
1000000000261589,77004116938,mMTS,mAltel,mAltel,,D77,2016-10-13T11:32:13+06:00,17
1000000000261590,77754993221,mMTS,mKcell,mKcell,,D77,2016-10-13T11:32:28+06:00,
1000000000261591,77025555607,mKcell,mKarTel,mKcell,D01,D02,2016-10-13T11:35:29+06:00,
1000000000261592,77004116797,mMTS,mAltel,mAltel,,D77,2016-10-13T11:36:06+06:00,
1000000000261594,77712002000,mKarTel,mKcell,mKarTel,D02,D01,2016-10-13T11:38:10+06:00,
1000000000261595,77087477888,mMTS,mAltel,mAltel,,D77,2016-10-13T11:38:03+06:00,
1000000000261596,77027932128,mMTS,mAltel,mKcell,D07,D77,2016-10-13T11:40:54+06:00,
1000000000261597,77055020202,mKcell,mKarTel,mKarTel,,D02,2016-10-13T11:44:25+06:00,
1000000000261598,77759396689,mAltel,mKcell,mKcell,,D07,2016-10-13T11:44:15+06:00,
1000000000261600,77055415255,mMTS,mKarTel,mKarTel,,D77,2016-10-13T11:48:17+06:00,
1000000000261601,77016098878,mKcell,mMTS,mKcell,D77,D02,2016-10-13T11:47:57+06:00,
1000000000261602,77013010451,mMTS,mKcell,mKcell,,D77,2016-10-13T11:49:00+06:00,
1000000000261604,77776668252,mKarTel,mMTS,mKarTel,D77,D01,2016-10-13T11:53:23+06:00,
1000000000261605,77015249929,mMTS,mKcell,mKcell,,D77,2016-10-13T11:53:09+06:00,
1000000000261606,77774010140,mKcell,mKarTel,mKarTel,,D02,2016-10-13T11:54:25+06:00,
1000000000261608,77079040904,mKcell,mMTS,mMTS,,D02,2016-10-13T11:55:17+06:00,
1000000000261610,77473479707,mKcell,mMTS,mMTS,,D02,2016-10-13T11:59:38+06:00,
