NPId,Number,RecipientId,DonorId,RangeHolderId,OldRoute,NewRoute,PortDate,RowCount
1000000000430819,77089446084,mMTS,mAltel,mAltel,,D77,2017-07-30T16:02:11+06:00,13
1000000000430820,77714580716,mMTS,mKarTel,mKarTel,,D77,2017-07-30T16:03:02+06:00,
1000000000430821,77761007288,mMTS,mKarTel,mKarTel,,D77,2017-07-30T16:04:43+06:00,
1000000000430822,77019991682,mKarTel,mKcell,mKcell,,D01,2017-07-30T16:05:45+06:00,
1000000000430824,77757005005,mAltel,mKcell,mKcell,,D07,2017-07-30T16:11:12+06:00,
1000000000430826,77012209232,mKarTel,mKcell,mKcell,,D01,2017-07-30T16:14:25+06:00,
1000000000430827,77767010200,mMTS,mKarTel,mKarTel,,D77,2017-07-30T16:14:51+06:00,
1000000000430828,77074908888,mMTS,mAltel,mMTS,D07,D77,2017-07-30T16:14:42+06:00,
1000000000430829,77012066266,mKarTel,mKcell,mKcell,,D01,2017-07-30T16:16:45+06:00,
1000000000430831,77054162558,mAltel,mKarTel,mKarTel,,D07,2017-07-30T16:23:34+06:00,
1000000000430832,77777019910,mMTS,mKarTel,mKarTel,,D77,2017-07-30T16:24:19+06:00,
1000000000430833,77012928508,mAltel,mKcell,mKcell,,D07,2017-07-30T16:26:13+06:00,
1000000000430834,77017417425,mAltel,mKcell,mKcell,,D07,2017-07-30T16:27:04+06:00,
