NPId,Number,RecipientId,DonorId,RangeHolderId,OldRoute,NewRoute,PortDate,RowCount
1000000000048161,77055837751,mKcell,mKarTel,mKarTel,,D02,2016-02-14T21:33:33+06:00,2
1000000000048163,77055837574,mKcell,mKarTel,mKarTel,,D02,2016-02-14T21:55:11+06:00,
