NPId,Number,RecipientId,DonorId,RangeHolderId,OldRoute,NewRoute,PortDate,RowCount
1000000000303485,77012286481,mKcell,mKarTel,mKcell,D01,D02,2016-12-30T15:09:10+06:00,38
1000000000303485,77017873329,mKcell,mKarTel,mKcell,D01,D02,2016-12-30T15:09:10+06:00,
1000000000303485,77017877223,mKcell,mKarTel,mKcell,D01,D02,2016-12-30T15:09:10+06:00,
1000000000303485,77019602105,mKcell,mKarTel,mKcell,D01,D02,2016-12-30T15:09:10+06:00,
1000000000303485,77019602107,mKcell,mKarTel,mKcell,D01,D02,2016-12-30T15:09:10+06:00,
1000000000303485,77019602114,mKcell,mKarTel,mKcell,D01,D02,2016-12-30T15:09:10+06:00,
1000000000303485,77019602115,mKcell,mKarTel,mKcell,D01,D02,2016-12-30T15:09:10+06:00,
1000000000303485,77019602118,mKcell,mKarTel,mKcell,D01,D02,2016-12-30T15:09:10+06:00,
1000000000303485,77019602119,mKcell,mKarTel,mKcell,D01,D02,2016-12-30T15:09:10+06:00,
1000000000303485,77019816857,mKcell,mKarTel,mKcell,D01,D02,2016-12-30T15:09:10+06:00,
1000000000303485,77019823417,mKcell,mKarTel,mKcell,D01,D02,2016-12-30T15:09:10+06:00,
1000000000303485,77019823418,mKcell,mKarTel,mKcell,D01,D02,2016-12-30T15:09:10+06:00,
1000000000303485,77019823457,mKcell,mKarTel,mKcell,D01,D02,2016-12-30T15:09:10+06:00,
1000000000303485,77019823459,mKcell,mKarTel,mKcell,D01,D02,2016-12-30T15:09:10+06:00,
1000000000303485,77719931820,mKcell,mKarTel,mKarTel,,D02,2016-12-30T15:09:10+06:00,
1000000000303485,77719931821,mKcell,mKarTel,mKarTel,,D02,2016-12-30T15:09:10+06:00,
1000000000303485,77719931822,mKcell,mKarTel,mKarTel,,D02,2016-12-30T15:09:10+06:00,
1000000000303496,77784327111,mKcell,mMTS,mKcell,D77,D02,2016-12-30T15:01:48+06:00,
1000000000303499,77473223391,mKarTel,mMTS,mMTS,,D01,2016-12-30T15:02:10+06:00,
1000000000303500,77017117735,mKarTel,mKcell,mKcell,,D01,2016-12-30T15:06:06+06:00,
1000000000303501,77071240416,mKcell,mMTS,mMTS,,D02,2016-12-30T15:05:15+06:00,
1000000000303502,77785775959,mMTS,mKcell,mKcell,,D77,2016-12-30T15:06:10+06:00,
1000000000303503,77758895555,mKarTel,mKcell,mKcell,,D01,2016-12-30T15:06:50+06:00,
1000000000303504,77019592846,mKarTel,mKcell,mKcell,,D01,2016-12-30T15:10:10+06:00,
1000000000303505,77770251432,mMTS,mKarTel,mKarTel,,D77,2016-12-30T15:11:15+06:00,
1000000000303506,77075179782,mKarTel,mMTS,mMTS,,D01,2016-12-30T15:12:17+06:00,
1000000000303507,77073430004,mKcell,mMTS,mMTS,,D02,2016-12-30T15:12:37+06:00,
1000000000303508,77071418999,mMTS,mKcell,mMTS,D02,D77,2016-12-30T15:14:01+06:00,
1000000000303509,77760033300,mMTS,mKarTel,mKarTel,,D77,2016-12-30T15:14:05+06:00,
1000000000303510,77788097707,mMTS,mKcell,mKcell,,D77,2016-12-30T15:16:08+06:00,
1000000000303511,77021118701,mKarTel,mAltel,mKcell,D07,D01,2016-12-30T15:17:02+06:00,
1000000000303513,77783667071,mKcell,mMTS,mKcell,D77,D02,2016-12-30T15:20:39+06:00,
1000000000303514,77714066621,mKcell,mKarTel,mKarTel,,D02,2016-12-30T15:22:01+06:00,
1000000000303515,77772399264,mMTS,mKarTel,mKarTel,,D77,2016-12-30T15:22:28+06:00,
1000000000303517,77071425682,mKarTel,mMTS,mMTS,,D01,2016-12-30T15:23:48+06:00,
1000000000303518,77778477783,mMTS,mKarTel,mKarTel,,D77,2016-12-30T15:25:06+06:00,
1000000000303520,77716166116,mMTS,mKarTel,mKarTel,,D77,2016-12-30T15:26:50+06:00,
1000000000303522,77016353795,mMTS,mKcell,mKcell,,D77,2016-12-30T15:27:22+06:00,
