NPId,Number,RecipientId,DonorId,RangeHolderId,OldRoute,NewRoute,PortDate,RowCount
1000000000280200,77758471038,mMTS,mKcell,mKcell,,D77,2016-11-16T19:05:35+06:00,9
1000000000280202,77016786969,mAltel,mKcell,mKcell,,D07,2016-11-16T19:06:34+06:00,
1000000000280203,77758478569,mMTS,mKcell,mKcell,,D77,2016-11-16T19:08:52+06:00,
1000000000280204,77758478925,mMTS,mKcell,mKcell,,D77,2016-11-16T19:12:55+06:00,
1000000000280205,77018502504,mMTS,mKcell,mKcell,,D77,2016-11-16T19:18:52+06:00,
1000000000280206,77011329630,mKarTel,mKcell,mKcell,,D01,2016-11-16T19:19:28+06:00,
1000000000280207,77075351906,mKarTel,mMTS,mMTS,,D01,2016-11-16T19:21:04+06:00,
1000000000280208,77752874478,mAltel,mKcell,mKcell,D02,D07,2016-11-16T19:24:11+06:00,
1000000000280209,77077060606,mKcell,mMTS,mMTS,,D02,2016-11-16T19:24:44+06:00,
