NPId,Number,RecipientId,DonorId,RangeHolderId,OldRoute,NewRoute,PortDate,RowCount
1000000000328455,77072531407,mKarTel,mMTS,mMTS,,D01,2017-02-13T18:00:06+06:00,19
1000000000328456,77751966640,mAltel,mKcell,mKcell,,D07,2017-02-13T18:01:07+06:00,
1000000000328458,77007700704,mKcell,mAltel,mAltel,,D02,2017-02-13T18:01:27+06:00,
1000000000328459,77029601783,mMTS,mKcell,mKcell,,D77,2017-02-13T18:01:30+06:00,
1000000000328460,77077110184,mMTS,mKarTel,mMTS,D01,D77,2017-02-13T18:02:00+06:00,
1000000000328461,77011562525,mAltel,mKcell,mKcell,,D07,2017-02-13T18:02:59+06:00,
1000000000328463,77016096098,mKarTel,mKcell,mKcell,,D01,2017-02-13T18:05:05+06:00,
1000000000328464,77051339812,mMTS,mKarTel,mKarTel,,D77,2017-02-13T18:06:07+06:00,
1000000000328465,77073282217,mKcell,mMTS,mMTS,,D02,2017-02-13T18:07:14+06:00,
1000000000328467,77017888338,mMTS,mKarTel,mKcell,D01,D77,2017-02-13T18:08:03+06:00,
1000000000328469,77012533480,mMTS,mKcell,mKcell,,D77,2017-02-13T18:12:01+06:00,
1000000000328471,77088039433,mAltel,mKarTel,mAltel,D01,D07,2017-02-13T18:14:13+06:00,
1000000000328474,77012722367,mKarTel,mKcell,mKcell,,D01,2017-02-13T18:14:58+06:00,
1000000000328476,77082330985,mKcell,mMTS,mAltel,D77,D02,2017-02-13T18:19:47+06:00,
1000000000328478,77012187246,mKcell,mMTS,mKcell,D77,D02,2017-02-13T18:23:08+06:00,
1000000000328479,77072912537,mKcell,mMTS,mMTS,,D02,2017-02-13T18:25:31+06:00,
1000000000328480,77754354313,mMTS,mKcell,mKcell,D02,D77,2017-02-13T18:26:10+06:00,
1000000000328481,77017623917,mKarTel,mKcell,mKcell,,D01,2017-02-13T18:26:44+06:00,
1000000000328482,77477770084,mKarTel,mMTS,mMTS,,D01,2017-02-13T18:26:37+06:00,
