NPId,Number,RecipientId,DonorId,RangeHolderId,OldRoute,NewRoute,PortDate,RowCount
1000000000306404,77018800990,mKcell,mKarTel,mKcell,D01,D02,2017-01-06T13:35:12+06:00,32
1000000000306421,77001661994,mKcell,mAltel,mAltel,,D02,2017-01-06T13:32:38+06:00,
1000000000306422,77001661992,mKcell,mAltel,mAltel,,D02,2017-01-06T13:31:28+06:00,
1000000000306424,77053737733,mMTS,mKarTel,mKarTel,,D77,2017-01-06T13:32:57+06:00,
1000000000306425,77759121851,mKarTel,mKcell,mKcell,,D01,2017-01-06T13:33:21+06:00,
1000000000306426,77072432012,mKcell,mMTS,mMTS,,D02,2017-01-06T13:35:12+06:00,
1000000000306427,77007661997,mKcell,mAltel,mAltel,,D02,2017-01-06T13:36:22+06:00,
1000000000306428,77079005519,mKarTel,mMTS,mMTS,,D01,2017-01-06T13:37:22+06:00,
1000000000306429,77072799981,mMTS,mKarTel,mMTS,D01,D77,2017-01-06T13:37:56+06:00,
1000000000306430,77001000532,mKcell,mAltel,mAltel,,D02,2017-01-06T13:39:20+06:00,
1000000000306431,77007661992,mKcell,mAltel,mAltel,,D02,2017-01-06T13:39:23+06:00,
1000000000306432,77789899081,mMTS,mKcell,mKcell,,D77,2017-01-06T13:40:47+06:00,
1000000000306434,77052332156,mMTS,mKarTel,mKarTel,,D77,2017-01-06T13:41:38+06:00,
1000000000306435,77779597447,mKarTel,mKcell,mKarTel,D02,D01,2017-01-06T13:42:45+06:00,
1000000000306436,77007661993,mKcell,mAltel,mAltel,,D02,2017-01-06T13:42:55+06:00,
1000000000306437,77001000542,mKcell,mAltel,mAltel,,D02,2017-01-06T13:43:59+06:00,
1000000000306438,77019009621,mMTS,mKcell,mKcell,,D77,2017-01-06T13:44:05+06:00,
1000000000306439,77001000352,mKcell,mAltel,mAltel,,D02,2017-01-06T13:44:08+06:00,
1000000000306441,77767074498,mKcell,mKarTel,mKarTel,,D02,2017-01-06T13:45:24+06:00,
1000000000306442,77007661995,mKcell,mAltel,mAltel,,D02,2017-01-06T13:46:27+06:00,
1000000000306443,77012947770,mAltel,mKcell,mKcell,,D07,2017-01-06T13:46:57+06:00,
1000000000306444,77079005516,mKarTel,mMTS,mMTS,,D01,2017-01-06T13:47:52+06:00,
1000000000306445,77000857266,mKcell,mAltel,mAltel,,D02,2017-01-06T13:47:49+06:00,
1000000000306446,77075510000,mKarTel,mMTS,mMTS,,D01,2017-01-06T13:48:12+06:00,
1000000000306447,77001000562,mKcell,mAltel,mAltel,,D02,2017-01-06T13:50:42+06:00,
1000000000306448,77000856672,mKcell,mAltel,mAltel,,D02,2017-01-06T13:48:53+06:00,
1000000000306449,77001000872,mKcell,mAltel,mAltel,,D02,2017-01-06T13:50:33+06:00,
1000000000306450,77029756950,mKcell,mKarTel,mKcell,D01,D02,2017-01-06T13:51:24+06:00,
1000000000306453,77015272784,mMTS,mKcell,mKcell,,D77,2017-01-06T13:54:40+06:00,
1000000000306454,77014820728,mKarTel,mKcell,mKcell,,D01,2017-01-06T13:55:22+06:00,
1000000000306456,77024284444,mAltel,mKcell,mKcell,,D07,2017-01-06T13:56:58+06:00,
1000000000306457,77076932134,mKarTel,mMTS,mMTS,,D01,2017-01-06T13:57:39+06:00,
