NPId,Number,RecipientId,DonorId,RangeHolderId,OldRoute,NewRoute,PortDate,RowCount
1000000000159477,77477953097,mKcell,mMTS,mMTS,,D02,2016-04-25T09:34:32+06:00,7
1000000000159478,77752545651,mKcell,mAltel,mKcell,D07,D02,2016-04-25T09:35:47+06:00,
1000000000159480,77051618878,mMTS,mKarTel,mKarTel,,D77,2016-04-25T09:37:21+06:00,
1000000000159482,77088393930,mKcell,mAltel,mAltel,,D02,2016-04-25T09:40:32+06:00,
1000000000159483,77002322291,mMTS,mAltel,mAltel,,D77,2016-04-25T09:41:59+06:00,
1000000000159486,77011710508,mKcell,mKarTel,mKcell,D01,D02,2016-04-25T09:56:00+06:00,
1000000000159487,77071236473,mKarTel,mMTS,mMTS,,D01,2016-04-25T09:56:32+06:00,
