NPId,Number,RecipientId,DonorId,RangeHolderId,OldRoute,NewRoute,PortDate,RowCount
1000000000429700,77017256071,mKarTel,mKcell,mKcell,,D01,2017-07-31T10:16:14+06:00,28
1000000000429700,77017280754,mKarTel,mKcell,mKcell,,D01,2017-07-31T10:16:14+06:00,
1000000000429716,77017220378,mKarTel,mKcell,mKcell,,D01,2017-07-31T10:27:32+06:00,
1000000000429716,77017558334,mKarTel,mKcell,mKcell,,D01,2017-07-31T10:27:32+06:00,
1000000000429716,77017688005,mKarTel,mKcell,mKcell,,D01,2017-07-31T10:27:32+06:00,
1000000000429716,77017688009,mKarTel,mKcell,mKcell,,D01,2017-07-31T10:27:32+06:00,
1000000000429716,77018874483,mKarTel,mKcell,mKcell,,D01,2017-07-31T10:27:32+06:00,
1000000000430920,77072935193,mMTS,mKarTel,mMTS,D01,D77,2017-07-31T10:00:33+06:00,
1000000000430921,77772421213,mMTS,mKarTel,mKarTel,,D77,2017-07-31T10:03:17+06:00,
1000000000430922,77006662016,mMTS,mAltel,mAltel,,D77,2017-07-31T10:03:15+06:00,
1000000000430923,77072911959,mAltel,mMTS,mMTS,,D07,2017-07-31T10:05:11+06:00,
1000000000430924,77024275042,mMTS,mKcell,mKcell,,D77,2017-07-31T10:05:36+06:00,
1000000000430925,77011111510,mKcell,mKarTel,mKcell,D01,D02,2017-07-31T10:09:58+06:00,
1000000000430926,77756122153,mAltel,mKcell,mKcell,,D07,2017-07-31T10:10:44+06:00,
1000000000430928,77757780778,mMTS,mKcell,mKcell,,D77,2017-07-31T10:13:35+06:00,
1000000000430929,77026631332,mMTS,mAltel,mKcell,D07,D77,2017-07-31T10:14:18+06:00,
1000000000430930,77787673739,mMTS,mKcell,mKcell,,D77,2017-07-31T10:15:52+06:00,
1000000000430935,77077707790,mAltel,mMTS,mMTS,,D07,2017-07-31T10:20:33+06:00,
1000000000430937,77010912356,mKarTel,mMTS,mKcell,D77,D01,2017-07-31T10:21:43+06:00,
1000000000430938,77758576469,mKarTel,mKcell,mKcell,,D01,2017-07-31T10:21:52+06:00,
1000000000430939,77010916744,mKarTel,mMTS,mKcell,D77,D01,2017-07-31T10:22:33+06:00,
1000000000430941,77019681855,mKarTel,mMTS,mKcell,D77,D01,2017-07-31T10:23:02+06:00,
1000000000430942,77010351185,mKarTel,mMTS,mKcell,D77,D01,2017-07-31T10:23:32+06:00,
1000000000430943,77013431362,mKarTel,mKcell,mKcell,,D01,2017-07-31T10:23:49+06:00,
1000000000430944,77010916743,mKarTel,mMTS,mKcell,D77,D01,2017-07-31T10:24:09+06:00,
1000000000430945,77010912354,mKarTel,mMTS,mKcell,D77,D01,2017-07-31T10:24:28+06:00,
1000000000430946,77012247888,mKarTel,mMTS,mKcell,D77,D01,2017-07-31T10:24:54+06:00,
1000000000430947,77766616156,mMTS,mKarTel,mKarTel,D01,D77,2017-07-31T10:28:25+06:00,
