NPId,Number,RecipientId,DonorId,RangeHolderId,OldRoute,NewRoute,PortDate,RowCount
1000000000401417,77007172500,mKcell,mAltel,mAltel,,D02,2017-06-11T16:01:48+06:00,12
1000000000401418,77782657815,mMTS,mKcell,mKcell,,D77,2017-06-11T16:02:18+06:00,
1000000000401419,77087608440,mKcell,mMTS,mAltel,D77,D02,2017-06-11T16:03:08+06:00,
1000000000401420,77003030330,mMTS,mAltel,mAltel,,D77,2017-06-11T16:04:31+06:00,
1000000000401421,77752922659,mMTS,mKcell,mKcell,,D77,2017-06-11T16:06:34+06:00,
1000000000401422,77772651060,mMTS,mKarTel,mKarTel,,D77,2017-06-11T16:06:56+06:00,
1000000000401423,77771921560,mMTS,mKarTel,mKarTel,,D77,2017-06-11T16:08:01+06:00,
1000000000401424,77023021214,mMTS,mKarTel,mKcell,D01,D77,2017-06-11T16:10:10+06:00,
1000000000401425,77014255552,mAltel,mKcell,mKcell,,D07,2017-06-11T16:21:02+06:00,
1000000000401427,77074643399,mAltel,mMTS,mMTS,,D07,2017-06-11T16:24:10+06:00,
1000000000401428,77057159193,mKcell,mKarTel,mKarTel,,D02,2017-06-11T16:26:06+06:00,
1000000000401429,77784303434,mKcell,mKarTel,mKcell,D01,D02,2017-06-11T16:26:38+06:00,
