NPId,Number,RecipientId,DonorId,RangeHolderId,OldRoute,NewRoute,PortDate,RowCount
1000000000202001,77010260191,mKarTel,mKcell,mKcell,,D01,2016-06-29T12:25:43+06:00,88
1000000000202001,77010521852,mKarTel,mKcell,mKcell,,D01,2016-06-29T12:25:43+06:00,
1000000000202001,77017121820,mKarTel,mKcell,mKcell,,D01,2016-06-29T12:25:43+06:00,
1000000000202001,77017127010,mKarTel,mKcell,mKcell,,D01,2016-06-29T12:25:43+06:00,
1000000000202001,77019255296,mKarTel,mKcell,mKcell,,D01,2016-06-29T12:25:43+06:00,
1000000000202001,77019804357,mKarTel,mKcell,mKcell,,D01,2016-06-29T12:25:43+06:00,
1000000000202002,77012254215,mKarTel,mKcell,mKcell,,D01,2016-06-29T12:09:10+06:00,
1000000000202002,77015258207,mKarTel,mKcell,mKcell,,D01,2016-06-29T12:09:10+06:00,
1000000000202002,77015303450,mKarTel,mKcell,mKcell,,D01,2016-06-29T12:09:10+06:00,
1000000000202002,77015316949,mKarTel,mKcell,mKcell,,D01,2016-06-29T12:09:10+06:00,
1000000000202002,77017646460,mKarTel,mKcell,mKcell,,D01,2016-06-29T12:09:10+06:00,
1000000000202002,77017646469,mKarTel,mKcell,mKcell,,D01,2016-06-29T12:09:10+06:00,
1000000000202002,77017646480,mKarTel,mKcell,mKcell,,D01,2016-06-29T12:09:10+06:00,
1000000000202002,77017646481,mKarTel,mKcell,mKcell,,D01,2016-06-29T12:09:10+06:00,
1000000000202002,77018029858,mKarTel,mKcell,mKcell,,D01,2016-06-29T12:09:10+06:00,
1000000000202002,77018838263,mKarTel,mKcell,mKcell,,D01,2016-06-29T12:09:10+06:00,
1000000000202002,77018838264,mKarTel,mKcell,mKcell,,D01,2016-06-29T12:09:10+06:00,
1000000000202002,77018864295,mKarTel,mKcell,mKcell,,D01,2016-06-29T12:09:10+06:00,
1000000000202002,77019181603,mKarTel,mKcell,mKcell,,D01,2016-06-29T12:09:10+06:00,
1000000000202002,77019181604,mKarTel,mKcell,mKcell,,D01,2016-06-29T12:09:10+06:00,
1000000000202002,77019181605,mKarTel,mKcell,mKcell,,D01,2016-06-29T12:09:10+06:00,
1000000000202002,77019181606,mKarTel,mKcell,mKcell,,D01,2016-06-29T12:09:10+06:00,
1000000000202002,77019181607,mKarTel,mKcell,mKcell,,D01,2016-06-29T12:09:10+06:00,
1000000000202002,77019181610,mKarTel,mKcell,mKcell,,D01,2016-06-29T12:09:10+06:00,
1000000000202002,77019181619,mKarTel,mKcell,mKcell,,D01,2016-06-29T12:09:10+06:00,
1000000000202002,77019212163,mKarTel,mKcell,mKcell,,D01,2016-06-29T12:09:10+06:00,
1000000000202002,77019212167,mKarTel,mKcell,mKcell,,D01,2016-06-29T12:09:10+06:00,
1000000000202002,77019212170,mKarTel,mKcell,mKcell,,D01,2016-06-29T12:09:10+06:00,
1000000000202002,77019212172,mKarTel,mKcell,mKcell,,D01,2016-06-29T12:09:10+06:00,
1000000000202002,77019212173,mKarTel,mKcell,mKcell,,D01,2016-06-29T12:09:10+06:00,
1000000000202002,77019212174,mKarTel,mKcell,mKcell,,D01,2016-06-29T12:09:10+06:00,
1000000000202002,77019212175,mKarTel,mKcell,mKcell,,D01,2016-06-29T12:09:10+06:00,
1000000000202002,77019212176,mKarTel,mKcell,mKcell,,D01,2016-06-29T12:09:10+06:00,
1000000000202002,77019212177,mKarTel,mKcell,mKcell,,D01,2016-06-29T12:09:10+06:00,
1000000000202002,77019212179,mKarTel,mKcell,mKcell,,D01,2016-06-29T12:09:10+06:00,
1000000000202002,77019212180,mKarTel,mKcell,mKcell,,D01,2016-06-29T12:09:10+06:00,
1000000000202002,77019212181,mKarTel,mKcell,mKcell,,D01,2016-06-29T12:09:10+06:00,
1000000000202002,77019212182,mKarTel,mKcell,mKcell,,D01,2016-06-29T12:09:10+06:00,
1000000000202002,77019550114,mKarTel,mKcell,mKcell,,D01,2016-06-29T12:09:10+06:00,
1000000000202002,77019550281,mKarTel,mKcell,mKcell,,D01,2016-06-29T12:09:10+06:00,
1000000000202002,77019550531,mKarTel,mKcell,mKcell,,D01,2016-06-29T12:09:10+06:00,
1000000000202002,77019550603,mKarTel,mKcell,mKcell,,D01,2016-06-29T12:09:10+06:00,
1000000000202002,77019550702,mKarTel,mKcell,mKcell,,D01,2016-06-29T12:09:10+06:00,
1000000000202002,77019551013,mKarTel,mKcell,mKcell,,D01,2016-06-29T12:09:10+06:00,
1000000000202002,77019551014,mKarTel,mKcell,mKcell,,D01,2016-06-29T12:09:10+06:00,
1000000000202002,77019551242,mKarTel,mKcell,mKcell,,D01,2016-06-29T12:09:10+06:00,
1000000000202002,77019551271,mKarTel,mKcell,mKcell,,D01,2016-06-29T12:09:10+06:00,
1000000000202002,77019551274,mKarTel,mKcell,mKcell,,D01,2016-06-29T12:09:10+06:00,
1000000000202002,77019551275,mKarTel,mKcell,mKcell,,D01,2016-06-29T12:09:10+06:00,
1000000000202002,77019551276,mKarTel,mKcell,mKcell,,D01,2016-06-29T12:09:10+06:00,
1000000000202002,77019551279,mKarTel,mKcell,mKcell,,D01,2016-06-29T12:09:10+06:00,
1000000000202002,77019551285,mKarTel,mKcell,mKcell,,D01,2016-06-29T12:09:10+06:00,
1000000000202002,77019551327,mKarTel,mKcell,mKcell,,D01,2016-06-29T12:09:10+06:00,
1000000000202002,77019551328,mKarTel,mKcell,mKcell,,D01,2016-06-29T12:09:10+06:00,
1000000000202002,77019555012,mKarTel,mKcell,mKcell,,D01,2016-06-29T12:09:10+06:00,
1000000000202002,77019555083,mKarTel,mKcell,mKcell,,D01,2016-06-29T12:09:10+06:00,
1000000000202002,77019555597,mKarTel,mKcell,mKcell,,D01,2016-06-29T12:09:10+06:00,
1000000000202002,77019556080,mKarTel,mKcell,mKcell,,D01,2016-06-29T12:09:10+06:00,
1000000000202002,77019556090,mKarTel,mKcell,mKcell,,D01,2016-06-29T12:09:10+06:00,
1000000000202002,77019557020,mKarTel,mKcell,mKcell,,D01,2016-06-29T12:09:10+06:00,
1000000000202002,77019557050,mKarTel,mKcell,mKcell,,D01,2016-06-29T12:09:10+06:00,
1000000000202002,77019897481,mKarTel,mKcell,mKcell,,D01,2016-06-29T12:09:10+06:00,
1000000000202002,77019897483,mKarTel,mKcell,mKcell,,D01,2016-06-29T12:09:10+06:00,
1000000000202002,77019897485,mKarTel,mKcell,mKcell,,D01,2016-06-29T12:09:10+06:00,
1000000000202002,77019897487,mKarTel,mKcell,mKcell,,D01,2016-06-29T12:09:10+06:00,
1000000000202002,77019897489,mKarTel,mKcell,mKcell,,D01,2016-06-29T12:09:10+06:00,
1000000000202002,77019897493,mKarTel,mKcell,mKcell,,D01,2016-06-29T12:09:10+06:00,
1000000000202002,77019897671,mKarTel,mKcell,mKcell,,D01,2016-06-29T12:09:10+06:00,
1000000000202127,77013698578,mMTS,mKcell,mKcell,,D77,2016-06-29T12:01:52+06:00,
1000000000202129,77012747047,mKarTel,mKcell,mKcell,,D01,2016-06-29T12:03:39+06:00,
1000000000202130,77083008890,mMTS,mAltel,mAltel,,D77,2016-06-29T12:05:16+06:00,
1000000000202131,77073088838,mKcell,mMTS,mMTS,,D02,2016-06-29T12:07:06+06:00,
1000000000202135,77077533825,mKcell,mMTS,mMTS,,D02,2016-06-29T12:18:46+06:00,
1000000000202136,77718655356,mMTS,mKarTel,mKarTel,,D77,2016-06-29T12:09:50+06:00,
1000000000202137,77052220104,mKarTel,mAltel,mKarTel,D07,D01,2016-06-29T12:10:03+06:00,
1000000000202138,77779078161,mAltel,mKarTel,mKarTel,,D07,2016-06-29T12:11:28+06:00,
1000000000202140,77474584008,mKarTel,mMTS,mMTS,,D01,2016-06-29T12:14:30+06:00,
1000000000202144,77071710001,mKarTel,mMTS,mMTS,,D01,2016-06-29T12:17:27+06:00,
1000000000202145,77716678000,mKcell,mKarTel,mKarTel,,D02,2016-06-29T12:25:57+06:00,
1000000000202146,77017120536,mKarTel,mKcell,mKcell,,D01,2016-06-29T12:23:44+06:00,
1000000000202149,77776910109,mMTS,mKarTel,mKarTel,,D77,2016-06-29T12:24:12+06:00,
1000000000202150,77789161602,mAltel,mKcell,mKcell,,D07,2016-06-29T12:25:27+06:00,
1000000000202151,77753232321,mKarTel,mKcell,mKcell,,D01,2016-06-29T12:25:42+06:00,
1000000000202152,77052112135,mAltel,mKarTel,mKarTel,,D07,2016-06-29T12:25:33+06:00,
1000000000202153,77025806450,mKarTel,mKcell,mKcell,,D01,2016-06-29T12:28:25+06:00,
1000000000202154,77014313626,mMTS,mKcell,mKcell,,D77,2016-06-29T12:28:09+06:00,
1000000000202156,77017222833,mMTS,mKarTel,mKcell,D01,D77,2016-06-29T12:27:36+06:00,
1000000000202158,77053988286,mKarTel,mMTS,mKarTel,D77,D01,2016-06-29T12:29:55+06:00,
