NPId,Number,RecipientId,DonorId,RangeHolderId,OldRoute,NewRoute,PortDate,RowCount
1000000000208564,77015259484,mKcell,mAltel,mKcell,D07,D02,2016-07-09T16:31:20+06:00,32
1000000000208565,77027953978,mMTS,mKcell,mKcell,,D77,2016-07-09T16:31:28+06:00,
1000000000208566,77789711873,mAltel,mKcell,mKcell,,D07,2016-07-09T16:33:50+06:00,
1000000000208567,77051132940,mMTS,mKarTel,mKarTel,,D77,2016-07-09T16:35:07+06:00,
1000000000208568,77711340704,mMTS,mKarTel,mKarTel,,D77,2016-07-09T16:37:39+06:00,
1000000000208571,77057892616,mKarTel,mAltel,mKarTel,D07,D01,2016-07-09T16:38:04+06:00,
1000000000208572,77014015415,mMTS,mKcell,mKcell,,D77,2016-07-09T16:38:30+06:00,
1000000000208573,77017739573,mKarTel,mKcell,mKcell,,D01,2016-07-09T16:38:58+06:00,
1000000000208574,77056060007,mMTS,mKarTel,mKarTel,,D77,2016-07-09T16:38:52+06:00,
1000000000208576,77026539009,mMTS,mKcell,mKcell,,D77,2016-07-09T16:39:52+06:00,
1000000000208577,77774705662,mKcell,mKarTel,mKarTel,,D02,2016-07-09T16:40:43+06:00,
1000000000208579,77051999652,mKcell,mKarTel,mKarTel,,D02,2016-07-09T16:43:21+06:00,
1000000000208580,77714559127,mKcell,mKarTel,mKarTel,,D02,2016-07-09T16:43:22+06:00,
1000000000208581,77767271028,mMTS,mKarTel,mKarTel,,D77,2016-07-09T16:44:01+06:00,
1000000000208582,77474267194,mKcell,mMTS,mMTS,,D02,2016-07-09T16:45:52+06:00,
1000000000208583,77059190505,mKarTel,mMTS,mKarTel,D77,D01,2016-07-09T16:47:14+06:00,
1000000000208585,77750006807,mKarTel,mAltel,mKcell,D07,D01,2016-07-09T16:48:26+06:00,
1000000000208586,77755074444,mAltel,mKcell,mKcell,D02,D07,2016-07-09T16:50:35+06:00,
1000000000208587,77768088988,mMTS,mKarTel,mKarTel,,D77,2016-07-09T16:51:38+06:00,
1000000000208588,77015512302,mMTS,mKcell,mKcell,,D77,2016-07-09T16:52:18+06:00,
1000000000208589,77077230802,mKcell,mMTS,mMTS,,D02,2016-07-09T16:52:47+06:00,
1000000000208590,77014682434,mMTS,mKcell,mKcell,,D77,2016-07-09T16:52:37+06:00,
1000000000208591,77021094222,mKcell,mMTS,mKcell,D77,D02,2016-07-09T16:53:16+06:00,
1000000000208593,77759635772,mAltel,mKcell,mKcell,,D07,2016-07-09T16:58:13+06:00,
1000000000208594,77012661883,mMTS,mKcell,mKcell,,D77,2016-07-09T16:54:32+06:00,
1000000000208595,77028899674,mMTS,mKcell,mKcell,,D77,2016-07-09T16:54:46+06:00,
1000000000208596,77759339193,mMTS,mKcell,mKcell,,D77,2016-07-09T16:55:09+06:00,
1000000000208597,77011179393,mKcell,mMTS,mKcell,D77,D02,2016-07-09T16:55:17+06:00,
1000000000208598,77751010066,mKcell,mKarTel,mKcell,D01,D02,2016-07-09T16:55:46+06:00,
1000000000208599,77753574147,mKcell,mMTS,mKcell,D77,D02,2016-07-09T16:56:18+06:00,
1000000000208600,77055620911,mMTS,mKarTel,mKarTel,,D77,2016-07-09T16:57:36+06:00,
1000000000208601,77768018898,mMTS,mKarTel,mKarTel,,D77,2016-07-09T16:59:33+06:00,
