NPId,Number,RecipientId,DonorId,RangeHolderId,OldRoute,NewRoute,PortDate,RowCount
1000000000296834,77017360172,mMTS,mKcell,mKcell,,D77,2016-12-19T11:02:47+06:00,20
1000000000296836,77755732919,mMTS,mKcell,mKcell,D02,D77,2016-12-19T11:04:06+06:00,
1000000000296837,77017974839,mMTS,mKcell,mKcell,,D77,2016-12-19T11:05:17+06:00,
1000000000296838,77073723511,mAltel,mMTS,mMTS,,D07,2016-12-19T11:05:35+06:00,
1000000000296839,77078124100,mAltel,mMTS,mMTS,,D07,2016-12-19T11:06:37+06:00,
1000000000296840,77017663010,mAltel,mKcell,mKcell,,D07,2016-12-19T11:07:17+06:00,
1000000000296841,77011914088,mMTS,mKcell,mKcell,,D77,2016-12-19T11:07:17+06:00,
1000000000296842,77017490648,mAltel,mKcell,mKcell,,D07,2016-12-19T11:09:10+06:00,
1000000000296843,77027878279,mAltel,mKcell,mKcell,,D07,2016-12-19T11:09:12+06:00,
1000000000296845,77026855587,mAltel,mMTS,mKcell,D77,D07,2016-12-19T11:16:25+06:00,
1000000000296846,77001758837,mMTS,mAltel,mAltel,,D77,2016-12-19T11:17:28+06:00,
1000000000296847,77028012808,mMTS,mKcell,mKcell,,D77,2016-12-19T11:18:31+06:00,
1000000000296848,77755388538,mMTS,mKcell,mKcell,,D77,2016-12-19T11:18:51+06:00,
1000000000296849,77017399303,mAltel,mKcell,mKcell,,D07,2016-12-19T11:25:22+06:00,
1000000000296850,77025121528,mAltel,mKcell,mKcell,,D07,2016-12-19T11:23:06+06:00,
1000000000296851,77003988321,mMTS,mAltel,mAltel,,D77,2016-12-19T11:23:21+06:00,
1000000000296853,77771771117,mKcell,mKarTel,mKarTel,D01,D02,2016-12-19T11:26:48+06:00,
1000000000296854,77782507747,mMTS,mKcell,mKcell,,D77,2016-12-19T11:27:46+06:00,
1000000000296855,77012424889,mAltel,mKcell,mKcell,,D07,2016-12-19T11:28:35+06:00,
1000000000296857,77021577705,mMTS,mKcell,mKcell,,D77,2016-12-19T11:29:48+06:00,
