NPId,Number,RecipientId,DonorId,RangeHolderId,OldRoute,NewRoute,PortDate,RowCount
1000000000130411,77051338883,mAltel,mKarTel,mKarTel,,D07,2016-03-21T15:00:02+06:00,34
1000000000130412,77022909838,mMTS,mKcell,mKcell,,D77,2016-03-21T15:00:32+06:00,
1000000000130413,77025536664,mMTS,mKcell,mKcell,,D77,2016-03-21T15:00:56+06:00,
1000000000130414,77772590010,mAltel,mKarTel,mKarTel,,D07,2016-03-21T15:01:43+06:00,
1000000000130417,77074140898,mAltel,mMTS,mMTS,,D07,2016-03-21T15:01:43+06:00,
1000000000130418,77078212170,mAltel,mMTS,mMTS,,D07,2016-03-21T15:02:15+06:00,
1000000000130419,77786767995,mAltel,mKcell,mKcell,,D07,2016-03-21T15:04:26+06:00,
1000000000130420,77057777317,mAltel,mKarTel,mKarTel,,D07,2016-03-21T15:06:38+06:00,
1000000000130421,77089996555,mMTS,mAltel,mAltel,,D77,2016-03-21T15:04:49+06:00,
1000000000130422,77074340898,mAltel,mMTS,mMTS,,D07,2016-03-21T15:05:08+06:00,
1000000000130423,77028755322,mMTS,mKcell,mKcell,,D77,2016-03-21T15:05:50+06:00,
1000000000130424,77781593666,mKarTel,mKcell,mKcell,,D01,2016-03-21T15:06:11+06:00,
1000000000130425,77017265257,mKarTel,mKcell,mKcell,,D01,2016-03-21T15:06:36+06:00,
1000000000130426,77781591666,mKarTel,mKcell,mKcell,,D01,2016-03-21T15:06:36+06:00,
1000000000130427,77019248775,mKarTel,mKcell,mKcell,,D01,2016-03-21T15:07:02+06:00,
1000000000130428,77759593905,mAltel,mKcell,mKcell,,D07,2016-03-21T15:06:50+06:00,
1000000000130430,77054746446,mMTS,mKarTel,mKarTel,,D77,2016-03-21T15:08:41+06:00,
1000000000130432,77051118711,mMTS,mKarTel,mKarTel,,D77,2016-03-21T15:11:06+06:00,
1000000000130433,77776486918,mMTS,mKarTel,mKarTel,,D77,2016-03-21T15:11:10+06:00,
1000000000130435,77473409155,mKarTel,mMTS,mMTS,,D01,2016-03-21T15:13:37+06:00,
1000000000130437,77057777147,mAltel,mKarTel,mKarTel,,D07,2016-03-21T15:16:06+06:00,
1000000000130438,77072398900,mMTS,mAltel,mMTS,D07,D77,2016-03-21T15:15:25+06:00,
1000000000130440,77752255762,mMTS,mKcell,mKcell,,D77,2016-03-21T15:17:06+06:00,
1000000000130441,77014955553,mMTS,mKcell,mKcell,,D77,2016-03-21T15:17:06+06:00,
1000000000130442,77017120288,mAltel,mKcell,mKcell,,D07,2016-03-21T15:17:50+06:00,
1000000000130444,77021409493,mMTS,mKcell,mKcell,,D77,2016-03-21T15:19:39+06:00,
1000000000130445,77786516139,mAltel,mKcell,mKcell,,D07,2016-03-21T15:20:33+06:00,
1000000000130446,77055933336,mKarTel,mAltel,mKarTel,D07,D01,2016-03-21T15:21:40+06:00,
1000000000130448,77771711775,mAltel,mKarTel,mKarTel,,D07,2016-03-21T15:23:45+06:00,
1000000000130449,77759898489,mMTS,mKcell,mKcell,,D77,2016-03-21T15:24:32+06:00,
1000000000130450,77075701697,mKcell,mMTS,mMTS,,D02,2016-03-21T15:25:22+06:00,
1000000000130451,77058858542,mMTS,mKarTel,mKarTel,,D77,2016-03-21T15:26:09+06:00,
1000000000130452,77754653207,mAltel,mKcell,mKcell,,D07,2016-03-21T15:26:09+06:00,
1000000000130454,77025557950,mMTS,mKcell,mKcell,,D77,2016-03-21T15:27:09+06:00,
