NPId,Number,RecipientId,DonorId,RangeHolderId,OldRoute,NewRoute,PortDate,RowCount
1000000000405499,77056053272,mKarTel,mAltel,mKarTel,D07,D01,2017-06-19T13:00:39+06:00,21
1000000000405502,77710436669,mKcell,mKarTel,mKarTel,,D02,2017-06-19T13:05:12+06:00,
1000000000405503,77072104040,mKarTel,mKcell,mMTS,D02,D01,2017-06-19T13:05:08+06:00,
1000000000405504,77777778567,mKcell,mKarTel,mKarTel,,D02,2017-06-19T13:05:22+06:00,
1000000000405505,77759966778,mKcell,mAltel,mKcell,D07,D02,2017-06-19T13:05:28+06:00,
1000000000405506,77774990303,mKarTel,mMTS,mKarTel,D77,D01,2017-06-19T13:05:39+06:00,
1000000000405507,77017877007,mMTS,mKcell,mKcell,,D77,2017-06-19T13:05:45+06:00,
1000000000405509,77082727707,mMTS,mAltel,mAltel,,D77,2017-06-19T13:07:41+06:00,
1000000000405510,77754606667,mMTS,mKcell,mKcell,D02,D77,2017-06-19T13:08:02+06:00,
1000000000405512,77081195637,mMTS,mAltel,mAltel,,D77,2017-06-19T13:10:18+06:00,
1000000000405513,77778233000,mMTS,mKarTel,mKarTel,,D77,2017-06-19T13:11:06+06:00,
1000000000405514,77085848883,mMTS,mAltel,mAltel,,D77,2017-06-19T13:11:05+06:00,
1000000000405515,77013677207,mKcell,mMTS,mKcell,D77,D02,2017-06-19T13:11:34+06:00,
1000000000405516,77013820390,mKarTel,mKcell,mKcell,,D01,2017-06-19T13:14:13+06:00,
1000000000405517,77054642020,mKarTel,mMTS,mKarTel,D77,D01,2017-06-19T13:15:10+06:00,
1000000000405518,77013544006,mKcell,mAltel,mKcell,D07,D02,2017-06-19T13:21:40+06:00,
1000000000405519,77075279611,mMTS,mAltel,mMTS,D07,D77,2017-06-19T13:21:40+06:00,
1000000000405521,77770767273,mAltel,mKarTel,mKarTel,,D07,2017-06-19T13:26:42+06:00,
1000000000405522,77002010215,mMTS,mAltel,mAltel,,D77,2017-06-19T13:26:35+06:00,
1000000000405523,77760440004,mKarTel,mMTS,mKarTel,D77,D01,2017-06-19T13:27:28+06:00,
1000000000405524,77027702438,mKarTel,mKcell,mKcell,,D01,2017-06-19T13:29:37+06:00,
