NPId,Number,RecipientId,DonorId,RangeHolderId,OldRoute,NewRoute,PortDate,RowCount
1000000000048158,77078993194,mAltel,mMTS,mMTS,,D07,2016-02-14T21:05:30+06:00,3
1000000000048159,77055851770,mKcell,mKarTel,mKarTel,,D02,2016-02-14T21:23:37+06:00,
1000000000048160,77055843773,mKcell,mKarTel,mKarTel,,D02,2016-02-14T21:27:15+06:00,
