NPId,Number,RecipientId,DonorId,RangeHolderId,OldRoute,NewRoute,PortDate,RowCount
1000000000431561,77015319072,mKarTel,mKcell,mKcell,,D01,2017-08-01T11:28:10+06:00,44
1000000000431605,77017341043,mKarTel,mKcell,mKcell,,D01,2017-08-01T11:23:52+06:00,
1000000000431610,77015319086,mKarTel,mKcell,mKcell,,D01,2017-08-01T11:26:09+06:00,
1000000000431644,77012779096,mKarTel,mKcell,mKcell,,D01,2017-08-01T11:21:54+06:00,
1000000000431644,77017449836,mKarTel,mKcell,mKcell,,D01,2017-08-01T11:21:54+06:00,
1000000000432096,77717794295,mAltel,mKarTel,mKarTel,,D07,2017-08-01T11:03:07+06:00,
1000000000432163,77017137359,mKarTel,mKcell,mKcell,,D01,2017-08-01T11:00:17+06:00,
1000000000432165,77472067207,mKarTel,mMTS,mMTS,,D01,2017-08-01T11:00:57+06:00,
1000000000432167,77017449190,mKarTel,mKcell,mKcell,,D01,2017-08-01T11:03:36+06:00,
1000000000432168,77051403000,mKcell,mKarTel,mKarTel,,D02,2017-08-01T11:05:20+06:00,
1000000000432170,77783258412,mKarTel,mKcell,mKcell,,D01,2017-08-01T11:05:32+06:00,
1000000000432172,77472277661,mMTS,mAltel,mMTS,D07,D77,2017-08-01T11:05:45+06:00,
1000000000432173,77017707585,mKcell,mKarTel,mKcell,D01,D02,2017-08-01T11:06:46+06:00,
1000000000432174,77781598530,mKcell,mMTS,mKcell,D77,D02,2017-08-01T11:06:40+06:00,
1000000000432175,77077230399,mKarTel,mMTS,mMTS,,D01,2017-08-01T11:07:00+06:00,
1000000000432176,77051280690,mMTS,mKarTel,mKarTel,,D77,2017-08-01T11:07:29+06:00,
1000000000432177,77017899887,mMTS,mKcell,mKcell,,D77,2017-08-01T11:07:40+06:00,
1000000000432178,77472031072,mAltel,mMTS,mMTS,,D07,2017-08-01T11:08:39+06:00,
1000000000432179,77071644644,mKarTel,mMTS,mMTS,,D01,2017-08-01T11:10:01+06:00,
1000000000432180,77015210511,mKcell,mMTS,mKcell,D77,D02,2017-08-01T11:10:58+06:00,
1000000000432182,77715199996,mMTS,mKarTel,mKarTel,,D77,2017-08-01T11:11:53+06:00,
1000000000432183,77017423756,mKarTel,mKcell,mKcell,,D01,2017-08-01T11:11:59+06:00,
1000000000432184,77774009090,mMTS,mKarTel,mKarTel,,D77,2017-08-01T11:12:34+06:00,
1000000000432185,77077567425,mKarTel,mAltel,mMTS,D07,D01,2017-08-01T11:13:40+06:00,
1000000000432186,77017647757,mKcell,mMTS,mKcell,D77,D02,2017-08-01T11:14:48+06:00,
1000000000432187,77772317724,mKarTel,mAltel,mKarTel,D07,D01,2017-08-01T11:16:02+06:00,
1000000000432188,77011001674,mMTS,mKcell,mKcell,,D77,2017-08-01T11:16:08+06:00,
1000000000432189,77003788237,mKcell,mAltel,mAltel,,D02,2017-08-01T11:17:19+06:00,
1000000000432190,77012413535,mKarTel,mMTS,mKcell,D77,D01,2017-08-01T11:19:28+06:00,
1000000000432192,77078624764,mKarTel,mMTS,mMTS,,D01,2017-08-01T11:22:36+06:00,
1000000000432194,77718010106,mAltel,mKarTel,mKarTel,,D07,2017-08-01T11:23:11+06:00,
1000000000432195,77074332082,mAltel,mMTS,mMTS,,D07,2017-08-01T11:23:14+06:00,
1000000000432197,77057647767,mAltel,mKarTel,mKarTel,,D07,2017-08-01T11:23:56+06:00,
1000000000432198,77019596088,mMTS,mKcell,mKcell,,D77,2017-08-01T11:23:40+06:00,
1000000000432199,77081793179,mMTS,mAltel,mAltel,D07,D77,2017-08-01T11:23:41+06:00,
1000000000432200,77019994954,mKcell,mKarTel,mKcell,D01,D02,2017-08-01T11:24:33+06:00,
1000000000432201,77758632002,mKcell,mMTS,mKcell,D77,D02,2017-08-01T11:24:21+06:00,
1000000000432202,77025015181,mMTS,mKcell,mKcell,,D77,2017-08-01T11:24:34+06:00,
1000000000432203,77051374747,mAltel,mKarTel,mKarTel,,D07,2017-08-01T11:25:16+06:00,
1000000000432205,77775782003,mAltel,mKcell,mKarTel,D02,D07,2017-08-01T11:25:51+06:00,
1000000000432206,77088111393,mAltel,mMTS,mAltel,D77,D07,2017-08-01T11:26:23+06:00,
1000000000432207,77072677775,mKarTel,mMTS,mMTS,,D01,2017-08-01T11:27:10+06:00,
1000000000432208,77052717766,mMTS,mKarTel,mKarTel,,D77,2017-08-01T11:27:40+06:00,
1000000000432211,77071889687,mAltel,mKcell,mMTS,D02,D07,2017-08-01T11:29:42+06:00,
