NPId,Number,RecipientId,DonorId,RangeHolderId,OldRoute,NewRoute,PortDate,RowCount
1000000000399513,77017177636,mKarTel,mAltel,mKcell,D07,D01,2017-06-07T19:31:17+06:00,16
1000000000399514,77055796812,mKcell,mKarTel,mKarTel,,D02,2017-06-07T19:32:34+06:00,
1000000000399515,77001013003,mKcell,mAltel,mAltel,,D02,2017-06-07T19:32:53+06:00,
1000000000399516,77028020665,mKarTel,mKcell,mKcell,,D01,2017-06-07T19:36:35+06:00,
1000000000399517,77015885477,mMTS,mKcell,mKcell,,D77,2017-06-07T19:36:29+06:00,
1000000000399518,77015669202,mAltel,mKcell,mKcell,,D07,2017-06-07T19:39:18+06:00,
1000000000399519,77712608588,mKcell,mKarTel,mKarTel,,D02,2017-06-07T19:43:10+06:00,
1000000000399520,77072483540,mKcell,mMTS,mMTS,,D02,2017-06-07T19:43:20+06:00,
1000000000399521,77476448569,mKarTel,mMTS,mMTS,,D01,2017-06-07T19:43:37+06:00,
1000000000399522,77074400967,mKarTel,mMTS,mMTS,,D01,2017-06-07T19:43:27+06:00,
1000000000399523,77085331118,mKcell,mMTS,mAltel,D77,D02,2017-06-07T19:46:12+06:00,
1000000000399524,77089079238,mKcell,mAltel,mAltel,,D02,2017-06-07T19:48:56+06:00,
1000000000399525,77759409609,mMTS,mKcell,mKcell,,D77,2017-06-07T19:50:27+06:00,
1000000000399526,77015438694,mKarTel,mKcell,mKcell,,D01,2017-06-07T19:50:57+06:00,
1000000000399528,77017761030,mKarTel,mKcell,mKcell,,D01,2017-06-07T19:53:49+06:00,
1000000000399529,77011152220,mKarTel,mKcell,mKcell,,D01,2017-06-07T19:54:20+06:00,
