NPId,Number,RecipientId,DonorId,RangeHolderId,OldRoute,NewRoute,PortDate,RowCount
1000000000172066,77053333003,mKcell,mKarTel,mKarTel,,D02,2016-05-11T17:01:41+06:00,38
1000000000172067,77077210594,mKcell,mMTS,mMTS,,D02,2016-05-11T17:00:53+06:00,
1000000000172069,77080088870,mKcell,mAltel,mAltel,,D02,2016-05-11T17:01:19+06:00,
1000000000172071,77785687923,mAltel,mKcell,mKcell,,D07,2016-05-11T17:03:06+06:00,
1000000000172072,77011432989,mKcell,mAltel,mKcell,D07,D02,2016-05-11T17:04:42+06:00,
1000000000172073,77024372475,mKcell,mMTS,mKcell,D77,D02,2016-05-11T17:04:43+06:00,
1000000000172074,77017632587,mKarTel,mKcell,mKcell,,D01,2016-05-11T17:04:59+06:00,
1000000000172075,77775974842,mMTS,mKarTel,mKarTel,,D77,2016-05-11T17:04:29+06:00,
1000000000172076,77785855610,mMTS,mKcell,mKcell,,D77,2016-05-11T17:05:41+06:00,
1000000000172078,77011113745,mKarTel,mKcell,mKcell,,D01,2016-05-11T17:06:18+06:00,
1000000000172079,77771829895,mMTS,mKarTel,mKarTel,,D77,2016-05-11T17:06:03+06:00,
1000000000172080,77779997649,mKcell,mKarTel,mKarTel,,D02,2016-05-11T17:07:39+06:00,
1000000000172082,77471861250,mKarTel,mMTS,mMTS,,D01,2016-05-11T17:07:55+06:00,
1000000000172083,77023212908,mMTS,mKcell,mKcell,,D77,2016-05-11T17:08:33+06:00,
1000000000172084,77079259255,mKcell,mMTS,mMTS,,D02,2016-05-11T17:09:51+06:00,
1000000000172085,77756663737,mKarTel,mKcell,mKcell,,D01,2016-05-11T17:11:58+06:00,
1000000000172086,77023506845,mMTS,mKcell,mKcell,,D77,2016-05-11T17:14:39+06:00,
1000000000172091,77752722551,mMTS,mKcell,mKcell,,D77,2016-05-11T17:16:08+06:00,
1000000000172092,77770535300,mKcell,mKarTel,mKarTel,,D02,2016-05-11T17:16:36+06:00,
1000000000172093,77081703096,mMTS,mAltel,mAltel,,D77,2016-05-11T17:15:16+06:00,
1000000000172094,77089442499,mKcell,mAltel,mAltel,,D02,2016-05-11T17:17:12+06:00,
1000000000172095,77084959797,mMTS,mAltel,mAltel,,D77,2016-05-11T17:16:02+06:00,
1000000000172096,77011325222,mMTS,mKcell,mKcell,,D77,2016-05-11T17:17:35+06:00,
1000000000172097,77055404613,mMTS,mKarTel,mKarTel,,D77,2016-05-11T17:18:40+06:00,
1000000000172098,77018539801,mMTS,mKcell,mKcell,,D77,2016-05-11T17:20:00+06:00,
1000000000172099,77001114183,mMTS,mAltel,mAltel,,D77,2016-05-11T17:19:12+06:00,
1000000000172100,77022027209,mMTS,mKcell,mKcell,,D77,2016-05-11T17:20:28+06:00,
1000000000172101,77012152777,mKarTel,mKcell,mKcell,,D01,2016-05-11T17:21:08+06:00,
1000000000172102,77716283777,mAltel,mKarTel,mKarTel,,D07,2016-05-11T17:20:37+06:00,
1000000000172103,77075822802,mMTS,mKcell,mMTS,D02,D77,2016-05-11T17:21:13+06:00,
1000000000172104,77767000005,mMTS,mKarTel,mKarTel,,D77,2016-05-11T17:22:26+06:00,
1000000000172105,77072141400,mKarTel,mMTS,mMTS,,D01,2016-05-11T17:22:45+06:00,
1000000000172106,77083559195,mMTS,mAltel,mAltel,,D77,2016-05-11T17:23:02+06:00,
1000000000172109,77773914091,mKcell,mKarTel,mKarTel,,D02,2016-05-11T17:27:03+06:00,
1000000000172110,77081210605,mMTS,mAltel,mAltel,,D77,2016-05-11T17:26:55+06:00,
1000000000172111,77011838896,mMTS,mKcell,mKcell,,D77,2016-05-11T17:27:12+06:00,
1000000000172112,77015594539,mAltel,mKcell,mKcell,,D07,2016-05-11T17:27:22+06:00,
1000000000172113,77765369393,mKcell,mKarTel,mKarTel,,D02,2016-05-11T17:28:46+06:00,
