NPId,Number,RecipientId,DonorId,RangeHolderId,OldRoute,NewRoute,PortDate,RowCount
1000000000099774,77054132521,mMTS,mKarTel,mKarTel,,D77,2016-02-26T11:30:28+06:00,29
1000000000099775,77473755385,mKcell,mMTS,mMTS,,D02,2016-02-26T11:31:39+06:00,
1000000000099778,77474842700,mKarTel,mMTS,mMTS,,D01,2016-02-26T11:32:50+06:00,
1000000000099779,77014504961,mMTS,mKcell,mKcell,,D77,2016-02-26T11:33:56+06:00,
1000000000099780,77751039288,mMTS,mKcell,mKcell,,D77,2016-02-26T11:34:24+06:00,
1000000000099781,77075171811,mAltel,mMTS,mMTS,,D07,2016-02-26T11:35:03+06:00,
1000000000099785,77051654943,mMTS,mKarTel,mKarTel,,D77,2016-02-26T11:37:09+06:00,
1000000000099787,77076698730,mKarTel,mMTS,mMTS,,D01,2016-02-26T11:38:17+06:00,
1000000000099790,77773813388,mMTS,mKarTel,mKarTel,,D77,2016-02-26T11:40:53+06:00,
1000000000099791,77754755959,mKarTel,mKcell,mKcell,,D01,2016-02-26T11:41:59+06:00,
1000000000099794,77758257927,mAltel,mKcell,mKcell,,D07,2016-02-26T11:44:05+06:00,
1000000000099797,77756595060,mMTS,mKcell,mKcell,,D77,2016-02-26T11:47:55+06:00,
1000000000099798,77783535301,mMTS,mKcell,mKcell,,D77,2016-02-26T11:48:09+06:00,
1000000000099799,77073457135,mKcell,mMTS,mMTS,,D02,2016-02-26T11:48:51+06:00,
1000000000099800,77027000305,mMTS,mKcell,mKcell,,D77,2016-02-26T11:49:07+06:00,
1000000000099801,77077787839,mAltel,mMTS,mMTS,,D07,2016-02-26T11:50:17+06:00,
1000000000099802,77017510965,mMTS,mKcell,mKcell,,D77,2016-02-26T11:50:56+06:00,
1000000000099803,77009462310,mKcell,mAltel,mAltel,,D02,2016-02-26T11:51:20+06:00,
1000000000099804,77755338877,mKarTel,mKcell,mKcell,,D01,2016-02-26T11:52:36+06:00,
1000000000099805,77015999174,mAltel,mKcell,mKcell,,D07,2016-02-26T11:52:34+06:00,
1000000000099808,77784683102,mMTS,mKcell,mKcell,,D77,2016-02-26T11:53:55+06:00,
1000000000099810,77785338877,mKarTel,mKcell,mKcell,,D01,2016-02-26T11:55:01+06:00,
1000000000099812,77018885900,mAltel,mKcell,mKcell,,D07,2016-02-26T11:55:32+06:00,
1000000000099813,77076698721,mKarTel,mMTS,mMTS,,D01,2016-02-26T11:55:32+06:00,
1000000000099814,77714322880,mMTS,mKarTel,mKarTel,,D77,2016-02-26T11:56:06+06:00,
1000000000099817,77012234773,mKarTel,mKcell,mKcell,,D01,2016-02-26T11:57:27+06:00,
1000000000099818,77056093609,mMTS,mKarTel,mKarTel,,D77,2016-02-26T11:57:55+06:00,
1000000000099820,77073457126,mKcell,mMTS,mMTS,,D02,2016-02-26T11:58:31+06:00,
1000000000099821,77073457132,mKcell,mMTS,mMTS,,D02,2016-02-26T11:59:35+06:00,
