NPId,Number,RecipientId,DonorId,RangeHolderId,OldRoute,NewRoute,PortDate,RowCount
1000000000277438,77055555405,mKcell,mKarTel,mKarTel,,D02,2016-11-10T18:04:54+06:00,10
1000000000277439,77768880400,mKcell,mKarTel,mKarTel,,D02,2016-11-10T18:04:58+06:00,
1000000000277444,77017797999,mAltel,mKcell,mKcell,,D07,2016-11-10T18:08:23+06:00,
1000000000277445,77778696248,mAltel,mKarTel,mKarTel,,D07,2016-11-10T18:09:13+06:00,
1000000000277447,77055550717,mMTS,mKarTel,mKarTel,,D77,2016-11-10T18:14:03+06:00,
1000000000277448,77772107470,mKarTel,mMTS,mKarTel,D77,D01,2016-11-10T18:15:01+06:00,
1000000000277449,77786881928,mMTS,mKcell,mKcell,,D77,2016-11-10T18:16:09+06:00,
1000000000277450,77055190341,mKcell,mKarTel,mKarTel,,D02,2016-11-10T18:19:06+06:00,
1000000000277451,77751185944,mMTS,mKcell,mKcell,,D77,2016-11-10T18:18:59+06:00,
1000000000277452,77077507007,mKcell,mMTS,mMTS,,D02,2016-11-10T18:24:18+06:00,
