NPId,Number,RecipientId,DonorId,RangeHolderId,OldRoute,NewRoute,PortDate,RowCount
1000000000321836,77769990077,mMTS,mKcell,mKarTel,D02,D77,2017-02-01T20:00:44+06:00,18
1000000000321837,77002000748,mKcell,mAltel,mAltel,,D02,2017-02-01T20:02:14+06:00,
1000000000321838,77002000738,mKcell,mAltel,mAltel,,D02,2017-02-01T20:03:02+06:00,
1000000000321839,77002000418,mKcell,mAltel,mAltel,,D02,2017-02-01T20:05:49+06:00,
1000000000321840,77002000645,mKcell,mAltel,mAltel,,D02,2017-02-01T20:05:53+06:00,
1000000000321841,77017746803,mKarTel,mKcell,mKcell,,D01,2017-02-01T20:06:39+06:00,
1000000000321843,77004000218,mKcell,mAltel,mAltel,,D02,2017-02-01T20:08:19+06:00,
1000000000321844,77002000837,mKcell,mAltel,mAltel,,D02,2017-02-01T20:08:49+06:00,
1000000000321845,77058888849,mKcell,mKarTel,mKarTel,,D02,2017-02-01T20:10:32+06:00,
1000000000321846,77021161919,mKarTel,mKcell,mKcell,,D01,2017-02-01T20:10:52+06:00,
1000000000321847,77004000758,mKcell,mAltel,mAltel,,D02,2017-02-01T20:10:54+06:00,
1000000000321848,77004000357,mKcell,mAltel,mAltel,,D02,2017-02-01T20:11:36+06:00,
1000000000321849,77004000287,mKcell,mAltel,mAltel,,D02,2017-02-01T20:13:38+06:00,
1000000000321850,77004000695,mKcell,mAltel,mAltel,,D02,2017-02-01T20:15:09+06:00,
1000000000321851,77775557697,mKcell,mKarTel,mKarTel,,D02,2017-02-01T20:18:17+06:00,
1000000000321852,77004000165,mKcell,mAltel,mAltel,,D02,2017-02-01T20:18:20+06:00,
1000000000321853,77017779218,mMTS,mKcell,mKcell,,D77,2017-02-01T20:18:51+06:00,
1000000000321854,77012280888,mMTS,mKarTel,mKcell,D01,D77,2017-02-01T20:19:37+06:00,
