NPId,Number,RecipientId,DonorId,RangeHolderId,OldRoute,NewRoute,PortDate,RowCount
1000000000204579,77781700967,mMTS,mKcell,mKcell,,D77,2016-07-04T11:03:05+06:00,8
1000000000204585,77017667527,mMTS,mKcell,mKcell,,D77,2016-07-04T11:14:35+06:00,
1000000000204586,77778227673,mMTS,mKarTel,mKarTel,,D77,2016-07-04T11:17:09+06:00,
1000000000204587,77769197766,mKcell,mKarTel,mKarTel,,D02,2016-07-04T11:19:24+06:00,
1000000000204588,77760002266,mKcell,mKarTel,mKarTel,,D02,2016-07-04T11:22:49+06:00,
1000000000204589,77773241835,mKarTel,mKcell,mKarTel,D02,D01,2016-07-04T11:23:33+06:00,
1000000000204590,77024771118,mAltel,mMTS,mKcell,D77,D07,2016-07-04T11:25:29+06:00,
1000000000204591,77017256225,mKarTel,mKcell,mKcell,,D01,2016-07-04T11:29:19+06:00,
