NPId,Number,RecipientId,DonorId,RangeHolderId,OldRoute,NewRoute,PortDate,RowCount
1000000000291097,77779980657,mMTS,mKarTel,mKarTel,,D77,2016-12-06T18:01:54+06:00,18
1000000000291101,77017499314,mMTS,mKcell,mKcell,,D77,2016-12-06T18:02:25+06:00,
1000000000291102,77789557187,mMTS,mKcell,mKcell,,D77,2016-12-06T18:08:58+06:00,
1000000000291103,77754404288,mMTS,mKcell,mKcell,,D77,2016-12-06T18:09:13+06:00,
1000000000291104,77053038553,mKcell,mKarTel,mKarTel,,D02,2016-12-06T18:11:39+06:00,
1000000000291105,77015354571,mKcell,mAltel,mKcell,D07,D02,2016-12-06T18:11:30+06:00,
1000000000291107,77055803161,mAltel,mKarTel,mKarTel,,D07,2016-12-06T18:13:45+06:00,
1000000000291108,77055803162,mAltel,mKarTel,mKarTel,,D07,2016-12-06T18:15:00+06:00,
1000000000291109,77018416252,mMTS,mKcell,mKcell,,D77,2016-12-06T18:15:28+06:00,
1000000000291110,77016219939,mKarTel,mKcell,mKcell,,D01,2016-12-06T18:15:52+06:00,
1000000000291111,77757743989,mKarTel,mKcell,mKcell,,D01,2016-12-06T18:15:54+06:00,
1000000000291112,77753755536,mAltel,mKcell,mKcell,,D07,2016-12-06T18:16:14+06:00,
1000000000291113,77015181254,mKarTel,mKcell,mKcell,,D01,2016-12-06T18:20:21+06:00,
1000000000291114,77017759943,mMTS,mKcell,mKcell,,D77,2016-12-06T18:22:35+06:00,
1000000000291116,77777554219,mKcell,mKarTel,mKarTel,,D02,2016-12-06T18:24:56+06:00,
1000000000291117,77758807847,mMTS,mKcell,mKcell,,D77,2016-12-06T18:24:36+06:00,
1000000000291118,77071233220,mKarTel,mMTS,mMTS,,D01,2016-12-06T18:25:59+06:00,
1000000000291119,77015114678,mMTS,mKcell,mKcell,,D77,2016-12-06T18:27:52+06:00,
