NPId,Number,RecipientId,DonorId,RangeHolderId,OldRoute,NewRoute,PortDate,RowCount
1000000000195302,77007111777,mKarTel,mAltel,mAltel,,D01,2016-06-17T16:30:22+06:00,30
1000000000195303,77754500349,mMTS,mKcell,mKcell,,D77,2016-06-17T16:31:28+06:00,
1000000000195304,77754606667,mKcell,mAltel,mKcell,D07,D02,2016-06-17T16:32:54+06:00,
1000000000195305,77081035184,mMTS,mAltel,mAltel,,D77,2016-06-17T16:33:05+06:00,
1000000000195306,77015756767,mMTS,mKcell,mKcell,,D77,2016-06-17T16:33:39+06:00,
1000000000195308,77089668312,mMTS,mKarTel,mAltel,D01,D77,2016-06-17T16:34:09+06:00,
1000000000195309,77073554580,mKcell,mMTS,mMTS,,D02,2016-06-17T16:36:30+06:00,
1000000000195310,77072288922,mKcell,mMTS,mMTS,,D02,2016-06-17T16:37:38+06:00,
1000000000195311,77772483888,mMTS,mKarTel,mKarTel,,D77,2016-06-17T16:37:49+06:00,
1000000000195312,77765550455,mKcell,mKarTel,mKarTel,,D02,2016-06-17T16:38:54+06:00,
1000000000195313,77055558889,mKcell,mKarTel,mKarTel,,D02,2016-06-17T16:40:10+06:00,
1000000000195314,77026392797,mKcell,mMTS,mKcell,D77,D02,2016-06-17T16:40:10+06:00,
1000000000195315,77751057010,mMTS,mKcell,mKcell,,D77,2016-06-17T16:42:27+06:00,
1000000000195316,77007704657,mMTS,mAltel,mAltel,,D77,2016-06-17T16:42:15+06:00,
1000000000195317,77079879292,mKarTel,mMTS,mMTS,,D01,2016-06-17T16:42:29+06:00,
1000000000195318,77081312050,mKcell,mAltel,mAltel,,D02,2016-06-17T16:44:06+06:00,
1000000000195319,77007773336,mKcell,mAltel,mAltel,,D02,2016-06-17T16:44:33+06:00,
1000000000195320,77004059838,mMTS,mAltel,mAltel,,D77,2016-06-17T16:45:46+06:00,
1000000000195323,77017308931,mAltel,mKcell,mKcell,,D07,2016-06-17T16:46:39+06:00,
1000000000195324,77077111188,mMTS,mAltel,mMTS,D07,D77,2016-06-17T16:47:47+06:00,
1000000000195326,77015189554,mMTS,mKcell,mKcell,,D77,2016-06-17T16:48:48+06:00,
1000000000195327,77053020070,mKarTel,mMTS,mKarTel,D77,D01,2016-06-17T16:49:29+06:00,
1000000000195328,77017248106,mAltel,mKarTel,mKcell,D01,D07,2016-06-17T16:51:44+06:00,
1000000000195329,77052967738,mMTS,mKarTel,mKarTel,,D77,2016-06-17T16:52:30+06:00,
1000000000195330,77716057777,mAltel,mKarTel,mKarTel,,D07,2016-06-17T16:52:36+06:00,
1000000000195331,77761410606,mKcell,mKarTel,mKarTel,,D02,2016-06-17T16:53:55+06:00,
1000000000195332,77018067704,mMTS,mKcell,mKcell,,D77,2016-06-17T16:55:25+06:00,
1000000000195333,77014776519,mMTS,mKcell,mKcell,,D77,2016-06-17T16:55:25+06:00,
1000000000195336,77788277776,mKarTel,mKcell,mKcell,,D01,2016-06-17T16:58:34+06:00,
1000000000195339,77081960801,mMTS,mAltel,mAltel,,D77,2016-06-17T16:58:52+06:00,
