NPId,Number,RecipientId,DonorId,RangeHolderId,OldRoute,NewRoute,PortDate,RowCount
1000000000130323,77026090002,mMTS,mKcell,mKcell,,D77,2016-03-21T14:00:38+06:00,29
1000000000130324,77087733975,mMTS,mAltel,mAltel,,D77,2016-03-21T14:00:50+06:00,
1000000000130325,77014942005,mKcell,mAltel,mKcell,D07,D02,2016-03-21T14:01:41+06:00,
1000000000130326,77781014747,mKarTel,mKcell,mKcell,,D01,2016-03-21T14:02:21+06:00,
1000000000130327,77010887717,mKcell,mAltel,mKcell,D07,D02,2016-03-21T14:03:06+06:00,
1000000000130328,77770316504,mKcell,mKarTel,mKarTel,,D02,2016-03-21T14:05:17+06:00,
1000000000130330,77052897527,mMTS,mKarTel,mKarTel,,D77,2016-03-21T14:06:26+06:00,
1000000000130331,77767878878,mKcell,mKarTel,mKarTel,,D02,2016-03-21T14:07:46+06:00,
1000000000130332,77770316502,mKcell,mKarTel,mKarTel,,D02,2016-03-21T14:07:46+06:00,
1000000000130334,77770316497,mKcell,mKarTel,mKarTel,,D02,2016-03-21T14:09:58+06:00,
1000000000130336,77770316496,mKcell,mKarTel,mKarTel,,D02,2016-03-21T14:12:16+06:00,
1000000000130337,77027178997,mMTS,mKcell,mKcell,,D77,2016-03-21T14:11:35+06:00,
1000000000130338,77770316493,mKcell,mKarTel,mKarTel,,D02,2016-03-21T14:13:37+06:00,
1000000000130339,77758200818,mMTS,mAltel,mKcell,D07,D77,2016-03-21T14:12:09+06:00,
1000000000130341,77083444014,mKarTel,mAltel,mAltel,,D01,2016-03-21T14:13:19+06:00,
1000000000130342,77475037542,mAltel,mMTS,mMTS,,D07,2016-03-21T14:13:46+06:00,
1000000000130343,77770314910,mKcell,mKarTel,mKarTel,,D02,2016-03-21T14:16:21+06:00,
1000000000130344,77751777783,mKcell,mAltel,mKcell,D07,D02,2016-03-21T14:16:53+06:00,
1000000000130345,77770314909,mKcell,mKarTel,mKarTel,,D02,2016-03-21T14:18:29+06:00,
1000000000130346,77026806061,mMTS,mKcell,mKcell,,D77,2016-03-21T14:20:25+06:00,
1000000000130347,77775609894,mMTS,mKarTel,mKarTel,,D77,2016-03-21T14:21:26+06:00,
1000000000130348,77770314901,mKcell,mKarTel,mKarTel,,D02,2016-03-21T14:21:45+06:00,
1000000000130349,77770314899,mKcell,mKarTel,mKarTel,,D02,2016-03-21T14:23:08+06:00,
1000000000130351,77770314895,mKcell,mKarTel,mKarTel,,D02,2016-03-21T14:24:16+06:00,
1000000000130354,77770314894,mKcell,mKarTel,mKarTel,,D02,2016-03-21T14:25:51+06:00,
1000000000130356,77770314893,mKcell,mKarTel,mKarTel,,D02,2016-03-21T14:26:44+06:00,
1000000000130357,77770314888,mKcell,mKarTel,mKarTel,,D02,2016-03-21T14:28:21+06:00,
1000000000130358,77021356609,mMTS,mKcell,mKcell,,D77,2016-03-21T14:27:41+06:00,
1000000000130361,77782327141,mKarTel,mKcell,mKcell,,D01,2016-03-21T14:29:36+06:00,
