NPId,Number,RecipientId,DonorId,RangeHolderId,OldRoute,NewRoute,PortDate,RowCount
1000000000445336,77006006601,mKarTel,mAltel,mAltel,,D01,2017-08-24T21:02:48+06:00,3
1000000000445337,77087639701,mMTS,mAltel,mAltel,,D77,2017-08-24T21:07:37+06:00,
1000000000445338,77017657390,mMTS,mKcell,mKcell,,D77,2017-08-24T21:07:43+06:00,
