NPId,Number,RecipientId,DonorId,RangeHolderId,OldRoute,NewRoute,PortDate,RowCount
1000000000182530,77717222001,mMTS,mKarTel,mKarTel,,D77,2016-05-28T10:16:52+06:00,19
1000000000182532,77009852104,mMTS,mAltel,mAltel,,D77,2016-05-28T10:02:08+06:00,
1000000000182533,77753471931,mMTS,mKcell,mKcell,,D77,2016-05-28T10:02:25+06:00,
1000000000182534,77779308585,mKcell,mKarTel,mKarTel,,D02,2016-05-28T10:06:07+06:00,
1000000000182536,77019997933,mKcell,mAltel,mKcell,D07,D02,2016-05-28T10:08:31+06:00,
1000000000182537,77753901915,mAltel,mKcell,mKcell,,D07,2016-05-28T10:09:41+06:00,
1000000000182539,77756696777,mKcell,mKarTel,mKcell,D01,D02,2016-05-28T10:17:15+06:00,
1000000000182541,77026833951,mAltel,mKcell,mKcell,,D07,2016-05-28T10:17:47+06:00,
1000000000182542,77017802414,mMTS,mKcell,mKcell,,D77,2016-05-28T10:18:57+06:00,
1000000000182543,77086595222,mKarTel,mAltel,mAltel,,D01,2016-05-28T10:19:24+06:00,
1000000000182544,77772402472,mMTS,mKarTel,mKarTel,,D77,2016-05-28T10:19:51+06:00,
1000000000182545,77081885888,mKcell,mAltel,mAltel,,D02,2016-05-28T10:19:50+06:00,
1000000000182547,77028881519,mMTS,mKcell,mKcell,,D77,2016-05-28T10:21:04+06:00,
1000000000182548,77004326072,mKcell,mAltel,mAltel,,D02,2016-05-28T10:22:08+06:00,
1000000000182549,77081886888,mKcell,mAltel,mAltel,,D02,2016-05-28T10:22:23+06:00,
1000000000182551,77081020251,mMTS,mAltel,mAltel,,D77,2016-05-28T10:23:18+06:00,
1000000000182553,77004326070,mKcell,mAltel,mAltel,,D02,2016-05-28T10:27:23+06:00,
1000000000182554,77012282489,mKarTel,mKcell,mKcell,,D01,2016-05-28T10:29:38+06:00,
1000000000182555,77056338487,mKarTel,mAltel,mKarTel,D07,D01,2016-05-28T10:29:31+06:00,
