NPId,Number,RecipientId,DonorId,RangeHolderId,OldRoute,NewRoute,PortDate,RowCount
1000000000315574,77479807703,mMTS,mKarTel,mMTS,D01,D77,2017-01-24T12:11:52+06:00,22
1000000000315577,77016772771,mMTS,mKcell,mKcell,,D77,2017-01-24T12:00:18+06:00,
1000000000315578,77011109799,mKarTel,mKcell,mKcell,,D01,2017-01-24T12:01:06+06:00,
1000000000315579,77754949179,mMTS,mKcell,mKcell,,D77,2017-01-24T12:01:45+06:00,
1000000000315580,77013067777,mKarTel,mKcell,mKcell,,D01,2017-01-24T12:02:51+06:00,
1000000000315581,77089845023,mMTS,mAltel,mAltel,,D77,2017-01-24T12:03:24+06:00,
1000000000315582,77775756045,mMTS,mKarTel,mKarTel,,D77,2017-01-24T12:03:48+06:00,
1000000000315583,77766216668,mMTS,mKarTel,mKarTel,,D77,2017-01-24T12:05:18+06:00,
1000000000315584,77072491000,mKarTel,mMTS,mMTS,,D01,2017-01-24T12:06:50+06:00,
1000000000315585,77015314501,mMTS,mKcell,mKcell,,D77,2017-01-24T12:09:17+06:00,
1000000000315586,77754674431,mMTS,mKcell,mKcell,,D77,2017-01-24T12:10:44+06:00,
1000000000315587,77016098878,mAltel,mKcell,mKcell,D02,D07,2017-01-24T12:12:57+06:00,
1000000000315588,77788725315,mKcell,mMTS,mKcell,D77,D02,2017-01-24T12:13:07+06:00,
1000000000315589,77755674040,mAltel,mKcell,mKcell,,D07,2017-01-24T12:13:54+06:00,
1000000000315591,77073336149,mKcell,mMTS,mMTS,,D02,2017-01-24T12:17:41+06:00,
1000000000315593,77781030001,mAltel,mKcell,mKcell,,D07,2017-01-24T12:18:16+06:00,
1000000000315596,77713132999,mMTS,mKarTel,mKarTel,,D77,2017-01-24T12:23:00+06:00,
1000000000315597,77073339412,mKcell,mMTS,mMTS,,D02,2017-01-24T12:25:43+06:00,
1000000000315599,77019449914,mMTS,mKcell,mKcell,,D77,2017-01-24T12:27:48+06:00,
1000000000315600,77713049473,mMTS,mKarTel,mKarTel,,D77,2017-01-24T12:28:49+06:00,
1000000000315601,77017178755,mAltel,mKcell,mKcell,,D07,2017-01-24T12:29:10+06:00,
1000000000315602,77056455757,mMTS,mKarTel,mKarTel,,D77,2017-01-24T12:29:43+06:00,
