NPId,Number,RecipientId,DonorId,RangeHolderId,OldRoute,NewRoute,PortDate,RowCount
1000000000151482,77014126535,mMTS,mAltel,mKcell,D07,D77,2016-04-14T10:30:33+06:00,21
1000000000151483,77016595214,mMTS,mKcell,mKcell,,D77,2016-04-14T10:31:08+06:00,
1000000000151484,77753835974,mMTS,mKcell,mKcell,,D77,2016-04-14T10:31:08+06:00,
1000000000151485,77023473121,mKarTel,mKcell,mKcell,,D01,2016-04-14T10:32:23+06:00,
1000000000151486,77789205777,mMTS,mKcell,mKcell,,D77,2016-04-14T10:32:22+06:00,
1000000000151487,77772011777,mAltel,mKarTel,mKarTel,,D07,2016-04-14T10:37:09+06:00,
1000000000151488,77774020707,mMTS,mKarTel,mKarTel,,D77,2016-04-14T10:37:07+06:00,
1000000000151489,77013121738,mMTS,mKcell,mKcell,,D77,2016-04-14T10:37:18+06:00,
1000000000151490,77756055158,mKcell,mMTS,mKcell,D77,D02,2016-04-14T10:39:08+06:00,
1000000000151493,77089584220,mMTS,mAltel,mAltel,,D77,2016-04-14T10:40:09+06:00,
1000000000151497,77055270990,mMTS,mKarTel,mKarTel,,D77,2016-04-14T10:43:57+06:00,
1000000000151500,77028270282,mMTS,mKcell,mKcell,,D77,2016-04-14T10:45:02+06:00,
1000000000151503,77753451035,mMTS,mKcell,mKcell,,D77,2016-04-14T10:47:23+06:00,
1000000000151504,77003363503,mKcell,mAltel,mAltel,,D02,2016-04-14T10:48:36+06:00,
1000000000151505,77011037766,mMTS,mAltel,mKcell,D07,D77,2016-04-14T10:50:55+06:00,
1000000000151506,77786509652,mMTS,mKcell,mKcell,,D77,2016-04-14T10:52:05+06:00,
1000000000151507,77764360006,mMTS,mKarTel,mKarTel,,D77,2016-04-14T10:53:29+06:00,
1000000000151510,77089606235,mMTS,mAltel,mAltel,,D77,2016-04-14T10:52:05+06:00,
1000000000151512,77071088151,mMTS,mAltel,mMTS,D07,D77,2016-04-14T10:53:25+06:00,
1000000000151513,77756769498,mMTS,mKcell,mKcell,,D77,2016-04-14T10:54:33+06:00,
1000000000151516,77082340202,mMTS,mAltel,mAltel,,D77,2016-04-14T10:55:39+06:00,
