NPId,Number,RecipientId,DonorId,RangeHolderId,OldRoute,NewRoute,PortDate,RowCount
1000000000376459,77015383965,mAltel,mKcell,mKcell,,D07,2017-05-03T10:31:29+06:00,49
1000000000376724,77010541240,mKarTel,mKcell,mKcell,,D01,2017-05-03T10:50:59+06:00,
1000000000376724,77010541269,mKarTel,mKcell,mKcell,,D01,2017-05-03T10:50:59+06:00,
1000000000376724,77057878737,mKarTel,mKcell,mKarTel,D02,D01,2017-05-03T10:50:59+06:00,
1000000000376724,77717587801,mKarTel,mKcell,mKarTel,D02,D01,2017-05-03T10:50:59+06:00,
1000000000376724,77717587802,mKarTel,mKcell,mKarTel,D02,D01,2017-05-03T10:50:59+06:00,
1000000000376724,77717587805,mKarTel,mKcell,mKarTel,D02,D01,2017-05-03T10:50:59+06:00,
1000000000376724,77717587808,mKarTel,mKcell,mKarTel,D02,D01,2017-05-03T10:50:59+06:00,
1000000000376724,77717587838,mKarTel,mKcell,mKarTel,D02,D01,2017-05-03T10:50:59+06:00,
1000000000376724,77717587874,mKarTel,mKcell,mKarTel,D02,D01,2017-05-03T10:50:59+06:00,
1000000000376724,77717587879,mKarTel,mKcell,mKarTel,D02,D01,2017-05-03T10:50:59+06:00,
1000000000376724,77717587880,mKarTel,mKcell,mKarTel,D02,D01,2017-05-03T10:50:59+06:00,
1000000000376724,77717587888,mKarTel,mKcell,mKarTel,D02,D01,2017-05-03T10:50:59+06:00,
1000000000376724,77717587901,mKarTel,mKcell,mKarTel,D02,D01,2017-05-03T10:50:59+06:00,
1000000000376724,77717587905,mKarTel,mKcell,mKarTel,D02,D01,2017-05-03T10:50:59+06:00,
1000000000376724,77717587909,mKarTel,mKcell,mKarTel,D02,D01,2017-05-03T10:50:59+06:00,
1000000000376724,77717587930,mKarTel,mKcell,mKarTel,D02,D01,2017-05-03T10:50:59+06:00,
1000000000376724,77717587939,mKarTel,mKcell,mKarTel,D02,D01,2017-05-03T10:50:59+06:00,
1000000000376724,77717587958,mKarTel,mKcell,mKarTel,D02,D01,2017-05-03T10:50:59+06:00,
1000000000376724,77717587959,mKarTel,mKcell,mKarTel,D02,D01,2017-05-03T10:50:59+06:00,
1000000000376724,77717587999,mKarTel,mKcell,mKarTel,D02,D01,2017-05-03T10:50:59+06:00,
1000000000376940,77777177577,mKcell,mKarTel,mKarTel,,D02,2017-05-03T10:54:00+06:00,
1000000000376970,77476264161,mKarTel,mMTS,mMTS,,D01,2017-05-03T10:31:08+06:00,
1000000000376971,77075828100,mKcell,mMTS,mMTS,,D02,2017-05-03T10:32:59+06:00,
1000000000376974,77079312949,mAltel,mMTS,mMTS,,D07,2017-05-03T10:36:51+06:00,
1000000000376975,77781777567,mKcell,mMTS,mKcell,D77,D02,2017-05-03T10:37:49+06:00,
1000000000376976,77013280000,mKarTel,mMTS,mKcell,D77,D01,2017-05-03T10:37:50+06:00,
1000000000376977,77025262444,mAltel,mKcell,mKcell,,D07,2017-05-03T10:39:51+06:00,
1000000000376978,77017345155,mMTS,mKcell,mKcell,,D77,2017-05-03T10:40:53+06:00,
1000000000376979,77477887766,mAltel,mMTS,mMTS,,D07,2017-05-03T10:40:51+06:00,
1000000000376980,77017139084,mMTS,mKcell,mKcell,,D77,2017-05-03T10:41:12+06:00,
1000000000376981,77077241951,mAltel,mMTS,mMTS,,D07,2017-05-03T10:41:39+06:00,
1000000000376983,77077714003,mKarTel,mMTS,mMTS,,D01,2017-05-03T10:42:25+06:00,
1000000000376984,77016569144,mMTS,mKcell,mKcell,,D77,2017-05-03T10:43:16+06:00,
1000000000376985,77472925868,mKarTel,mMTS,mMTS,,D01,2017-05-03T10:43:28+06:00,
1000000000376986,77754526049,mMTS,mKcell,mKcell,,D77,2017-05-03T10:43:31+06:00,
1000000000376987,77017121458,mKarTel,mKcell,mKcell,,D01,2017-05-03T10:44:36+06:00,
1000000000376988,77751650106,mMTS,mKcell,mKcell,,D77,2017-05-03T10:44:49+06:00,
1000000000376989,77785709870,mMTS,mKcell,mKcell,,D77,2017-05-03T10:45:00+06:00,
1000000000376991,77089895272,mKarTel,mAltel,mAltel,,D01,2017-05-03T10:47:35+06:00,
1000000000376992,77775951881,mKarTel,mMTS,mKarTel,D77,D01,2017-05-03T10:47:36+06:00,
1000000000376993,77021966932,mKarTel,mKcell,mKcell,,D01,2017-05-03T10:49:59+06:00,
1000000000376995,77004200880,mKarTel,mAltel,mAltel,,D01,2017-05-03T10:51:00+06:00,
1000000000376996,77003620047,mMTS,mAltel,mAltel,,D77,2017-05-03T10:51:29+06:00,
1000000000376997,77017792965,mKarTel,mKcell,mKcell,,D01,2017-05-03T10:51:46+06:00,
1000000000376998,77028829494,mKcell,mAltel,mKcell,D07,D02,2017-05-03T10:51:52+06:00,
1000000000377000,77051410706,mMTS,mKarTel,mKarTel,,D77,2017-05-03T10:54:56+06:00,
1000000000377001,77004200990,mKarTel,mAltel,mAltel,,D01,2017-05-03T10:55:09+06:00,
1000000000377002,77011277123,mKarTel,mKcell,mKcell,,D01,2017-05-03T10:55:46+06:00,
