NPId,Number,RecipientId,DonorId,RangeHolderId,OldRoute,NewRoute,PortDate,RowCount
1000000000189190,77017309389,mMTS,mKcell,mKcell,,D77,2016-06-07T12:34:19+06:00,31
1000000000189191,77000009200,mAltel,mKcell,mAltel,D02,D07,2016-06-07T12:34:19+06:00,
1000000000189192,77775753627,mMTS,mKarTel,mKarTel,,D77,2016-06-07T12:34:18+06:00,
1000000000189193,77784530600,mAltel,mKcell,mKcell,,D07,2016-06-07T12:34:43+06:00,
1000000000189194,77087062991,mMTS,mAltel,mAltel,,D77,2016-06-07T12:34:09+06:00,
1000000000189197,77016179978,mMTS,mKcell,mKcell,,D77,2016-06-07T12:37:52+06:00,
1000000000189198,77784530400,mAltel,mKcell,mKcell,,D07,2016-06-07T12:40:16+06:00,
1000000000189200,77777770783,mKarTel,mAltel,mKarTel,D07,D01,2016-06-07T12:39:09+06:00,
1000000000189201,77007787070,mMTS,mAltel,mAltel,,D77,2016-06-07T12:39:23+06:00,
1000000000189202,77012804603,mKarTel,mKcell,mKcell,,D01,2016-06-07T12:40:13+06:00,
1000000000189203,77071018855,mAltel,mMTS,mMTS,,D07,2016-06-07T12:39:33+06:00,
1000000000189204,77474191908,mAltel,mMTS,mMTS,,D07,2016-06-07T12:41:12+06:00,
1000000000189205,77013260311,mMTS,mAltel,mKcell,D07,D77,2016-06-07T12:41:18+06:00,
1000000000189207,77781103505,mMTS,mKcell,mKcell,,D77,2016-06-07T12:42:24+06:00,
1000000000189208,77476341853,mAltel,mMTS,mMTS,,D07,2016-06-07T12:45:06+06:00,
1000000000189209,77007591085,mKarTel,mAltel,mAltel,,D01,2016-06-07T12:45:39+06:00,
1000000000189210,77771830763,mKarTel,mMTS,mKarTel,D77,D01,2016-06-07T12:47:11+06:00,
1000000000189211,77083620168,mMTS,mAltel,mAltel,,D77,2016-06-07T12:47:49+06:00,
1000000000189212,77086930793,mKarTel,mAltel,mAltel,,D01,2016-06-07T12:48:30+06:00,
1000000000189213,77015195127,mKarTel,mKcell,mKcell,,D01,2016-06-07T12:49:06+06:00,
1000000000189215,77086767524,mKarTel,mAltel,mAltel,,D01,2016-06-07T12:51:40+06:00,
1000000000189218,77013700586,mKcell,mKarTel,mKcell,D01,D02,2016-06-07T12:53:45+06:00,
1000000000189219,77760633332,mKcell,mKarTel,mKarTel,,D02,2016-06-07T12:53:45+06:00,
1000000000189220,77471387450,mAltel,mMTS,mMTS,,D07,2016-06-07T12:54:47+06:00,
1000000000189221,77074210924,mKcell,mMTS,mMTS,,D02,2016-06-07T12:57:28+06:00,
1000000000189223,77005211858,mMTS,mAltel,mAltel,,D77,2016-06-07T12:57:07+06:00,
1000000000189224,77071528252,mMTS,mKcell,mMTS,D02,D77,2016-06-07T12:57:30+06:00,
1000000000189225,77056199995,mKcell,mKarTel,mKarTel,,D02,2016-06-07T12:58:00+06:00,
1000000000189226,77761111400,mMTS,mKarTel,mKarTel,,D77,2016-06-07T12:58:14+06:00,
1000000000189228,77014657535,mMTS,mKcell,mKcell,,D77,2016-06-07T12:59:07+06:00,
1000000000189230,77775050684,mMTS,mKarTel,mKarTel,,D77,2016-06-07T12:59:31+06:00,
