NPId,Number,RecipientId,DonorId,RangeHolderId,OldRoute,NewRoute,PortDate,RowCount
1000000000288839,77077057210,mAltel,mMTS,mMTS,,D07,2016-12-02T18:30:57+06:00,18
1000000000288840,77754445442,mKcell,mKarTel,mKcell,D01,D02,2016-12-02T18:35:04+06:00,
1000000000288841,77015756620,mKarTel,mMTS,mKcell,D77,D01,2016-12-02T18:35:39+06:00,
1000000000288842,77784433886,mMTS,mKcell,mKcell,,D77,2016-12-02T18:35:35+06:00,
1000000000288843,77775759820,mKcell,mKarTel,mKarTel,,D02,2016-12-02T18:36:05+06:00,
1000000000288844,77785053505,mMTS,mKcell,mKcell,,D77,2016-12-02T18:35:51+06:00,
1000000000288847,77025574404,mKcell,mAltel,mKcell,D07,D02,2016-12-02T18:38:31+06:00,
1000000000288848,77751993810,mMTS,mKcell,mKcell,,D77,2016-12-02T18:40:55+06:00,
1000000000288849,77078750850,mKcell,mMTS,mMTS,,D02,2016-12-02T18:41:55+06:00,
1000000000288850,77007569990,mKarTel,mKcell,mAltel,D02,D01,2016-12-02T18:43:01+06:00,
1000000000288851,77025679585,mKarTel,mKcell,mKcell,,D01,2016-12-02T18:46:53+06:00,
1000000000288852,77479076189,mMTS,mKcell,mMTS,D02,D77,2016-12-02T18:45:05+06:00,
1000000000288853,77782222452,mMTS,mKcell,mKcell,,D77,2016-12-02T18:49:18+06:00,
1000000000288854,77012446231,mMTS,mKcell,mKcell,,D77,2016-12-02T18:50:33+06:00,
1000000000288855,77769117117,mMTS,mKarTel,mKarTel,,D77,2016-12-02T18:51:29+06:00,
1000000000288856,77772315018,mKcell,mKarTel,mKarTel,,D02,2016-12-02T18:51:56+06:00,
1000000000288860,77760687070,mKarTel,mKcell,mKarTel,D02,D01,2016-12-02T18:53:59+06:00,
1000000000288861,77071077202,mKarTel,mMTS,mMTS,,D01,2016-12-02T18:59:43+06:00,
