NPId,Number,RecipientId,DonorId,RangeHolderId,OldRoute,NewRoute,PortDate,RowCount
1000000000299768,77765300009,mMTS,mKarTel,mKarTel,,D77,2016-12-23T21:08:05+06:00,4
1000000000299769,77756662966,mKcell,mAltel,mKcell,D07,D02,2016-12-23T21:13:39+06:00,
1000000000299770,77779428181,mMTS,mKarTel,mKarTel,,D77,2016-12-23T21:18:03+06:00,
1000000000299771,77778766464,mMTS,mKarTel,mKarTel,,D77,2016-12-23T21:23:05+06:00,
