NPId,Number,RecipientId,DonorId,RangeHolderId,OldRoute,NewRoute,PortDate,RowCount
1000000000223002,77773386887,mMTS,mKarTel,mKarTel,,D77,2016-08-03T18:00:27+06:00,14
1000000000223003,77714509002,mKcell,mKarTel,mKarTel,,D02,2016-08-03T18:00:38+06:00,
1000000000223007,77779658855,mKarTel,mMTS,mKarTel,D77,D01,2016-08-03T18:02:08+06:00,
1000000000223009,77071177400,mMTS,mKcell,mMTS,D02,D77,2016-08-03T18:03:03+06:00,
1000000000223010,77017319678,mKarTel,mKcell,mKcell,,D01,2016-08-03T18:04:49+06:00,
1000000000223011,77017779537,mKarTel,mKcell,mKcell,,D01,2016-08-03T18:05:55+06:00,
1000000000223013,77783244544,mMTS,mKcell,mKcell,,D77,2016-08-03T18:06:19+06:00,
1000000000223015,77021773120,mMTS,mKcell,mKcell,,D77,2016-08-03T18:07:25+06:00,
1000000000223017,77057649079,mAltel,mKarTel,mKarTel,,D07,2016-08-03T18:11:37+06:00,
1000000000223018,77771510360,mMTS,mKarTel,mKarTel,,D77,2016-08-03T18:13:46+06:00,
1000000000223019,77057014411,mMTS,mKarTel,mKarTel,,D77,2016-08-03T18:16:25+06:00,
1000000000223021,77026999948,mKarTel,mKcell,mKcell,,D01,2016-08-03T18:20:05+06:00,
1000000000223022,77772843634,mMTS,mKarTel,mKarTel,,D77,2016-08-03T18:21:39+06:00,
1000000000223023,77078158480,mMTS,mKcell,mMTS,D02,D77,2016-08-03T18:27:57+06:00,
