NPId,Number,RecipientId,DonorId,RangeHolderId,OldRoute,NewRoute,PortDate,RowCount
1000000000250923,77014215535,mMTS,mKcell,mKcell,,D77,2016-09-25T17:02:45+06:00,14
1000000000250927,77011019001,mAltel,mKcell,mKcell,,D07,2016-09-25T17:01:55+06:00,
1000000000250928,77012250466,mAltel,mKcell,mKcell,,D07,2016-09-25T17:03:57+06:00,
1000000000250929,77014699735,mKarTel,mKcell,mKcell,,D01,2016-09-25T17:08:34+06:00,
1000000000250930,77471113563,mAltel,mKcell,mMTS,D02,D07,2016-09-25T17:08:08+06:00,
1000000000250932,77056034768,mMTS,mKarTel,mKarTel,,D77,2016-09-25T17:15:14+06:00,
1000000000250935,77017510696,mAltel,mKcell,mKcell,,D07,2016-09-25T17:14:39+06:00,
1000000000250938,77715770808,mMTS,mKarTel,mKarTel,D01,D77,2016-09-25T17:21:57+06:00,
1000000000250939,77013943945,mKarTel,mKcell,mKcell,,D01,2016-09-25T17:20:58+06:00,
1000000000250942,77753325303,mKarTel,mKcell,mKcell,,D01,2016-09-25T17:22:51+06:00,
1000000000250943,77051289688,mMTS,mKarTel,mKarTel,,D77,2016-09-25T17:24:43+06:00,
1000000000250944,77014303563,mMTS,mKcell,mKcell,,D77,2016-09-25T17:22:34+06:00,
1000000000250945,77079551559,mAltel,mMTS,mMTS,,D07,2016-09-25T17:24:17+06:00,
1000000000250946,77754321915,mKcell,mMTS,mKcell,D77,D02,2016-09-25T17:25:13+06:00,
