NPId,Number,RecipientId,DonorId,RangeHolderId,OldRoute,NewRoute,PortDate,RowCount
1000000000325768,77751752855,mKcell,mMTS,mKcell,D77,D02,2017-02-08T13:32:54+06:00,17
1000000000325773,77083526987,mMTS,mAltel,mAltel,,D77,2017-02-08T13:34:46+06:00,
1000000000325776,77072130922,mKcell,mMTS,mMTS,,D02,2017-02-08T13:36:03+06:00,
1000000000325777,77072026341,mAltel,mMTS,mMTS,,D07,2017-02-08T13:36:21+06:00,
1000000000325778,77025534240,mKarTel,mKcell,mKcell,,D01,2017-02-08T13:36:50+06:00,
1000000000325779,77789189092,mMTS,mKcell,mKcell,,D77,2017-02-08T13:37:51+06:00,
1000000000325780,77477871313,mAltel,mMTS,mMTS,,D07,2017-02-08T13:38:03+06:00,
1000000000325782,77772516608,mAltel,mKarTel,mKarTel,,D07,2017-02-08T13:39:20+06:00,
1000000000325783,77011257631,mMTS,mKcell,mKcell,,D77,2017-02-08T13:42:04+06:00,
1000000000325784,77754140777,mMTS,mKcell,mKcell,,D77,2017-02-08T13:42:50+06:00,
1000000000325785,77075335351,mKarTel,mKcell,mMTS,D02,D01,2017-02-08T13:43:10+06:00,
1000000000325786,77755778842,mKarTel,mKcell,mKcell,,D01,2017-02-08T13:44:50+06:00,
1000000000325788,77072128686,mKarTel,mMTS,mMTS,D77,D01,2017-02-08T13:46:30+06:00,
1000000000325789,77021566437,mKarTel,mKcell,mKcell,,D01,2017-02-08T13:47:34+06:00,
1000000000325791,77768248800,mMTS,mKarTel,mKarTel,,D77,2017-02-08T13:49:44+06:00,
1000000000325792,77787881190,mMTS,mKcell,mKcell,,D77,2017-02-08T13:52:19+06:00,
1000000000325795,77014922604,mAltel,mKcell,mKcell,,D07,2017-02-08T13:57:37+06:00,
