NPId,Number,RecipientId,DonorId,RangeHolderId,OldRoute,NewRoute,PortDate,RowCount
1000000000259567,77711120608,mMTS,mKarTel,mKarTel,,D77,2016-10-09T18:06:01+06:00,7
1000000000259568,77059836693,mMTS,mKarTel,mKarTel,,D77,2016-10-09T18:13:15+06:00,
1000000000259569,77714140797,mMTS,mKarTel,mKarTel,,D77,2016-10-09T18:16:48+06:00,
1000000000259570,77023777753,mMTS,mKcell,mKcell,,D77,2016-10-09T18:12:50+06:00,
1000000000259571,77758426857,mKarTel,mKcell,mKcell,,D01,2016-10-09T18:16:48+06:00,
1000000000259573,77714140798,mMTS,mKarTel,mKarTel,,D77,2016-10-09T18:22:04+06:00,
1000000000259574,77473333344,mKcell,mMTS,mMTS,,D02,2016-10-09T18:23:11+06:00,
