NPId,Number,RecipientId,DonorId,RangeHolderId,OldRoute,NewRoute,PortDate,RowCount
1000000000392265,77081030671,mKarTel,mAltel,mAltel,,D01,2017-05-29T18:30:30+06:00,24
1000000000392266,77075122882,mAltel,mMTS,mMTS,,D07,2017-05-29T18:30:53+06:00,
1000000000392269,77019933777,mKarTel,mKcell,mKcell,,D01,2017-05-29T18:32:51+06:00,
1000000000392270,77017414149,mMTS,mKcell,mKcell,,D77,2017-05-29T18:33:42+06:00,
1000000000392271,77012227359,mMTS,mKcell,mKcell,,D77,2017-05-29T18:35:02+06:00,
1000000000392272,77077070016,mMTS,mAltel,mMTS,D07,D77,2017-05-29T18:36:59+06:00,
1000000000392273,77059101015,mAltel,mKarTel,mKarTel,,D07,2017-05-29T18:38:25+06:00,
1000000000392275,77022843154,mMTS,mKarTel,mKcell,D01,D77,2017-05-29T18:42:41+06:00,
1000000000392276,77014359969,mAltel,mKcell,mKcell,,D07,2017-05-29T18:45:37+06:00,
1000000000392278,77087499704,mMTS,mAltel,mAltel,,D77,2017-05-29T18:45:50+06:00,
1000000000392279,77073784817,mAltel,mMTS,mMTS,,D07,2017-05-29T18:46:46+06:00,
1000000000392280,77017210600,mKcell,mMTS,mKcell,D77,D02,2017-05-29T18:47:16+06:00,
1000000000392282,77015008801,mKarTel,mKcell,mKcell,,D01,2017-05-29T18:51:31+06:00,
1000000000392283,77003612536,mKcell,mAltel,mAltel,,D02,2017-05-29T18:51:26+06:00,
1000000000392286,77771578800,mMTS,mKarTel,mKarTel,,D77,2017-05-29T18:53:28+06:00,
1000000000392287,77072002223,mKarTel,mMTS,mMTS,,D01,2017-05-29T18:54:29+06:00,
1000000000392288,77785550146,mAltel,mKcell,mKcell,D02,D07,2017-05-29T18:54:27+06:00,
1000000000392289,77474905150,mKarTel,mMTS,mMTS,,D01,2017-05-29T18:56:05+06:00,
1000000000392290,77714111117,mMTS,mKarTel,mKarTel,,D77,2017-05-29T18:56:14+06:00,
1000000000392291,77079988899,mAltel,mMTS,mMTS,,D07,2017-05-29T18:56:40+06:00,
1000000000392292,77083000843,mKcell,mKarTel,mAltel,D01,D02,2017-05-29T18:57:35+06:00,
1000000000392293,77011840542,mMTS,mKcell,mKcell,,D77,2017-05-29T18:57:45+06:00,
1000000000392295,77762105320,mMTS,mKarTel,mKarTel,,D77,2017-05-29T18:58:06+06:00,
1000000000392297,77079815161,mAltel,mMTS,mMTS,,D07,2017-05-29T18:59:57+06:00,
