NPId,Number,RecipientId,DonorId,RangeHolderId,OldRoute,NewRoute,PortDate,RowCount
1000000000222557,77760700660,mKcell,mKarTel,mKarTel,,D02,2016-08-03T12:03:11+06:00,29
1000000000222558,77015221617,mKcell,mKarTel,mKcell,D01,D02,2016-08-03T12:01:52+06:00,
1000000000222560,77752150400,mKcell,mMTS,mKcell,D77,D02,2016-08-03T12:01:39+06:00,
1000000000222561,77779873474,mMTS,mKarTel,mKarTel,,D77,2016-08-03T12:03:26+06:00,
1000000000222562,77005550199,mMTS,mAltel,mAltel,,D77,2016-08-03T12:07:07+06:00,
1000000000222565,77076665786,mKarTel,mMTS,mMTS,,D01,2016-08-03T12:09:17+06:00,
1000000000222566,77072288585,mKarTel,mMTS,mMTS,,D01,2016-08-03T12:10:01+06:00,
1000000000222567,77083863594,mKarTel,mAltel,mAltel,,D01,2016-08-03T12:11:15+06:00,
1000000000222568,77756603311,mKarTel,mKcell,mKcell,,D01,2016-08-03T12:11:51+06:00,
1000000000222569,77014541603,mKarTel,mKcell,mKcell,,D01,2016-08-03T12:12:58+06:00,
1000000000222570,77759755597,mKcell,mKarTel,mKcell,D01,D02,2016-08-03T12:13:51+06:00,
1000000000222572,77052076900,mKcell,mKarTel,mKarTel,,D02,2016-08-03T12:14:30+06:00,
1000000000222573,77776120253,mKarTel,mAltel,mKarTel,D07,D01,2016-08-03T12:14:13+06:00,
1000000000222574,77021918987,mKcell,mMTS,mKcell,D77,D02,2016-08-03T12:15:07+06:00,
1000000000222576,77477340001,mKarTel,mMTS,mMTS,,D01,2016-08-03T12:16:07+06:00,
1000000000222579,77788887700,mMTS,mKcell,mKcell,,D77,2016-08-03T12:17:12+06:00,
1000000000222580,77753343465,mKcell,mMTS,mKcell,D77,D02,2016-08-03T12:18:58+06:00,
1000000000222581,77029707238,mAltel,mKcell,mKcell,,D07,2016-08-03T12:19:13+06:00,
1000000000222582,77015013972,mAltel,mMTS,mKcell,D77,D07,2016-08-03T12:19:14+06:00,
1000000000222584,77000070064,mKcell,mAltel,mAltel,,D02,2016-08-03T12:19:58+06:00,
1000000000222585,77054830550,mKcell,mKarTel,mKarTel,,D02,2016-08-03T12:21:50+06:00,
1000000000222586,77001219333,mMTS,mAltel,mAltel,,D77,2016-08-03T12:21:32+06:00,
1000000000222587,77011330869,mMTS,mKcell,mKcell,,D77,2016-08-03T12:22:27+06:00,
1000000000222588,77022223223,mKarTel,mKcell,mKcell,,D01,2016-08-03T12:22:57+06:00,
1000000000222589,77777953013,mKcell,mKarTel,mKarTel,,D02,2016-08-03T12:24:16+06:00,
1000000000222591,77051080779,mKcell,mKarTel,mKarTel,,D02,2016-08-03T12:26:59+06:00,
1000000000222592,77012772718,mMTS,mKcell,mKcell,,D77,2016-08-03T12:26:13+06:00,
1000000000222595,77012924017,mKcell,mMTS,mKcell,D77,D02,2016-08-03T12:29:22+06:00,
1000000000222597,77006556688,mKarTel,mAltel,mAltel,,D01,2016-08-03T12:29:59+06:00,
