NPId,Number,RecipientId,DonorId,RangeHolderId,OldRoute,NewRoute,PortDate,RowCount
1000000000318722,77017583836,mKarTel,mKcell,mKcell,,D01,2017-01-29T19:00:33+06:00,5
1000000000318728,77082440124,mKarTel,mAltel,mAltel,,D01,2017-01-29T19:06:18+06:00,
1000000000318729,77011103332,mAltel,mKcell,mKcell,,D07,2017-01-29T19:22:27+06:00,
1000000000318731,77057284235,mMTS,mKarTel,mKarTel,,D77,2017-01-29T19:18:03+06:00,
1000000000318732,77057778005,mMTS,mKarTel,mKarTel,,D77,2017-01-29T19:27:40+06:00,
