NPId,Number,RecipientId,DonorId,RangeHolderId,OldRoute,NewRoute,PortDate,RowCount
1000000000250328,77071531993,mKarTel,mMTS,mMTS,,D01,2016-09-24T09:03:38+06:00,2
1000000000250330,77017388533,mKarTel,mKcell,mKcell,,D01,2016-09-24T09:03:37+06:00,
