NPId,Number,RecipientId,DonorId,RangeHolderId,OldRoute,NewRoute,PortDate,RowCount
1000000000316934,77016796270,mMTS,mKcell,mKcell,,D77,2017-01-26T14:00:10+06:00,27
1000000000316935,77021878709,mMTS,mKcell,mKcell,,D77,2017-01-26T14:00:11+06:00,
1000000000316936,77019123695,mMTS,mKcell,mKcell,,D77,2017-01-26T14:00:54+06:00,
1000000000316937,77014393684,mKcell,mMTS,mKcell,D77,D02,2017-01-26T14:01:02+06:00,
1000000000316938,77017005006,mKcell,mMTS,mKcell,D77,D02,2017-01-26T14:01:05+06:00,
1000000000316939,77012502079,mMTS,mKcell,mKcell,,D77,2017-01-26T14:02:00+06:00,
1000000000316940,77010943434,mKcell,mMTS,mKcell,D77,D02,2017-01-26T14:04:59+06:00,
1000000000316941,77754980831,mKcell,mKarTel,mKcell,D01,D02,2017-01-26T14:07:48+06:00,
1000000000316942,77073355168,mMTS,mAltel,mMTS,D07,D77,2017-01-26T14:07:40+06:00,
1000000000316943,77053100040,mMTS,mKarTel,mKarTel,,D77,2017-01-26T14:08:33+06:00,
1000000000316944,77775733942,mMTS,mKarTel,mKarTel,,D77,2017-01-26T14:12:27+06:00,
1000000000316946,77477780001,mKarTel,mMTS,mMTS,D77,D01,2017-01-26T14:12:40+06:00,
1000000000316948,77777350279,mKarTel,mMTS,mKarTel,D77,D01,2017-01-26T14:16:56+06:00,
1000000000316949,77785859085,mMTS,mKcell,mKcell,,D77,2017-01-26T14:16:55+06:00,
1000000000316950,77751475873,mMTS,mKcell,mKcell,,D77,2017-01-26T14:17:48+06:00,
1000000000316951,77751475944,mMTS,mKcell,mKcell,,D77,2017-01-26T14:17:52+06:00,
1000000000316953,77014383494,mKarTel,mKcell,mKcell,,D01,2017-01-26T14:20:02+06:00,
1000000000316956,77007770321,mMTS,mAltel,mAltel,,D77,2017-01-26T14:21:37+06:00,
1000000000316957,77004756162,mAltel,mKarTel,mAltel,D01,D07,2017-01-26T14:22:24+06:00,
1000000000316958,77751475948,mMTS,mKcell,mKcell,,D77,2017-01-26T14:22:42+06:00,
1000000000316959,77766220202,mKcell,mKarTel,mKarTel,,D02,2017-01-26T14:23:28+06:00,
1000000000316960,77001031975,mKcell,mAltel,mAltel,,D02,2017-01-26T14:24:36+06:00,
1000000000316961,77777435082,mKarTel,mMTS,mKarTel,D77,D01,2017-01-26T14:25:04+06:00,
1000000000316963,77079733332,mMTS,mKcell,mMTS,D02,D77,2017-01-26T14:28:25+06:00,
1000000000316964,77075250848,mAltel,mMTS,mMTS,,D07,2017-01-26T14:27:27+06:00,
1000000000316967,77757878783,mKcell,mAltel,mKcell,D07,D02,2017-01-26T14:29:14+06:00,
1000000000316968,77473505767,mKarTel,mMTS,mMTS,,D01,2017-01-26T14:29:23+06:00,
