NPId,Number,RecipientId,DonorId,RangeHolderId,OldRoute,NewRoute,PortDate,RowCount
1000000000411807,77052067875,mMTS,mKarTel,mKarTel,,D77,2017-06-29T00:12:05+06:00,4
1000000000411808,77052067867,mMTS,mKarTel,mKarTel,,D77,2017-06-29T00:17:07+06:00,
1000000000411810,77052058847,mMTS,mKarTel,mKarTel,,D77,2017-06-29T00:22:05+06:00,
1000000000411812,77052069874,mMTS,mKarTel,mKarTel,,D77,2017-06-29T00:27:11+06:00,
