NPId,Number,RecipientId,DonorId,RangeHolderId,OldRoute,NewRoute,PortDate,RowCount
1000000000281720,77071230990,mMTS,mKcell,mMTS,D02,D77,2016-11-21T10:02:39+06:00,7
1000000000281721,77057778878,mKcell,mKarTel,mKarTel,,D02,2016-11-21T10:05:22+06:00,
1000000000281722,77014808277,mMTS,mKcell,mKcell,,D77,2016-11-21T10:18:28+06:00,
1000000000281723,77021703096,mMTS,mKcell,mKcell,,D77,2016-11-21T10:22:40+06:00,
1000000000281724,77756739393,mMTS,mAltel,mKcell,D07,D77,2016-11-21T10:22:33+06:00,
1000000000281726,77784044497,mAltel,mMTS,mKcell,D77,D07,2016-11-21T10:27:27+06:00,
1000000000281727,77016551191,mKcell,mMTS,mKcell,D77,D02,2016-11-21T10:28:59+06:00,
