NPId,Number,RecipientId,DonorId,RangeHolderId,OldRoute,NewRoute,PortDate,RowCount
1000000000363739,77477657070,mKcell,mMTS,mMTS,,D02,2017-04-11T10:36:57+06:00,12
1000000000363740,77075878888,mKarTel,mMTS,mMTS,,D01,2017-04-11T10:37:19+06:00,
1000000000363743,77773192669,mMTS,mKarTel,mKarTel,,D77,2017-04-11T10:47:54+06:00,
1000000000363744,77022988888,mMTS,mKcell,mKcell,,D77,2017-04-11T10:47:51+06:00,
1000000000363745,77018898092,mKarTel,mKcell,mKcell,,D01,2017-04-11T10:48:43+06:00,
1000000000363747,77014566156,mMTS,mKcell,mKcell,,D77,2017-04-11T10:49:34+06:00,
1000000000363748,77073470708,mKcell,mMTS,mMTS,,D02,2017-04-11T10:49:46+06:00,
1000000000363749,77074250733,mKarTel,mMTS,mMTS,,D01,2017-04-11T10:50:12+06:00,
1000000000363750,77074211199,mKarTel,mMTS,mMTS,,D01,2017-04-11T10:51:16+06:00,
1000000000363751,77474017332,mKarTel,mMTS,mMTS,,D01,2017-04-11T10:51:26+06:00,
1000000000363752,77087500095,mMTS,mAltel,mAltel,,D77,2017-04-11T10:51:29+06:00,
1000000000363753,77029123337,mMTS,mKcell,mKcell,,D77,2017-04-11T10:55:11+06:00,
