NPId,Number,RecipientId,DonorId,RangeHolderId,OldRoute,NewRoute,PortDate,RowCount
1000000000351276,77006009131,mKcell,mAltel,mAltel,,D02,2017-03-23T20:04:34+06:00,8
1000000000351277,77714453378,mKcell,mKarTel,mKarTel,,D02,2017-03-23T20:06:45+06:00,
1000000000351278,77012288207,mAltel,mKcell,mKcell,,D07,2017-03-23T20:06:59+06:00,
1000000000351279,77006007929,mKcell,mAltel,mAltel,,D02,2017-03-23T20:07:16+06:00,
1000000000351280,77006001343,mKcell,mAltel,mAltel,,D02,2017-03-23T20:09:16+06:00,
1000000000351281,77004009656,mKcell,mAltel,mAltel,,D02,2017-03-23T20:09:12+06:00,
1000000000351282,77006004353,mKcell,mAltel,mAltel,,D02,2017-03-23T20:14:23+06:00,
1000000000351283,77006009424,mKcell,mAltel,mAltel,,D02,2017-03-23T20:26:23+06:00,
