NPId,Number,RecipientId,DonorId,RangeHolderId,OldRoute,NewRoute,PortDate,RowCount
1000000000312389,77015144777,mKcell,mKarTel,mKcell,D01,D02,2017-01-18T12:32:16+06:00,25
1000000000312393,77015180888,mKcell,mKarTel,mKcell,D01,D02,2017-01-18T12:34:24+06:00,
1000000000312395,77017139397,mKcell,mKarTel,mKcell,D01,D02,2017-01-18T12:36:47+06:00,
1000000000312396,77015180808,mKcell,mKarTel,mKcell,D01,D02,2017-01-18T12:36:47+06:00,
1000000000312400,77017139396,mKcell,mKarTel,mKcell,D01,D02,2017-01-18T12:39:34+06:00,
1000000000312404,77755677746,mAltel,mKcell,mKcell,,D07,2017-01-18T12:31:44+06:00,
1000000000312406,77007766881,mKcell,mAltel,mAltel,,D02,2017-01-18T12:36:10+06:00,
1000000000312407,77776464455,mKcell,mKarTel,mKarTel,,D02,2017-01-18T12:36:22+06:00,
1000000000312408,77471941992,mKcell,mMTS,mMTS,,D02,2017-01-18T12:36:22+06:00,
1000000000312409,77017397626,mKcell,mKarTel,mKcell,D01,D02,2017-01-18T12:52:15+06:00,
1000000000312411,77017397649,mKcell,mKarTel,mKcell,D01,D02,2017-01-18T12:55:04+06:00,
1000000000312412,77775784107,mMTS,mKarTel,mKarTel,,D77,2017-01-18T12:40:30+06:00,
1000000000312413,77078852925,mAltel,mMTS,mMTS,,D07,2017-01-18T12:41:31+06:00,
1000000000312414,77017397659,mKcell,mKarTel,mKcell,D01,D02,2017-01-18T12:58:46+06:00,
1000000000312415,77077000930,mKarTel,mMTS,mMTS,,D01,2017-01-18T12:44:40+06:00,
1000000000312416,77752817160,mKcell,mMTS,mKcell,D77,D02,2017-01-18T12:45:08+06:00,
1000000000312418,77753003303,mKarTel,mKcell,mKcell,,D01,2017-01-18T12:47:02+06:00,
1000000000312420,77076001186,mKarTel,mMTS,mMTS,,D01,2017-01-18T12:47:17+06:00,
1000000000312421,77772439393,mMTS,mAltel,mKarTel,D07,D77,2017-01-18T12:48:02+06:00,
1000000000312424,77021988495,mKcell,mKarTel,mKcell,D01,D02,2017-01-18T12:51:45+06:00,
1000000000312425,77752101991,mKcell,mMTS,mKcell,D77,D02,2017-01-18T12:52:44+06:00,
1000000000312426,77015143496,mKarTel,mKcell,mKcell,,D01,2017-01-18T12:52:48+06:00,
1000000000312434,77714084940,mMTS,mKarTel,mKarTel,,D77,2017-01-18T12:58:00+06:00,
1000000000312435,77079002116,mKcell,mMTS,mMTS,,D02,2017-01-18T12:59:01+06:00,
1000000000312436,77784247181,mAltel,mKcell,mKcell,,D07,2017-01-18T12:59:24+06:00,
