NPId,Number,RecipientId,DonorId,RangeHolderId,OldRoute,NewRoute,PortDate,RowCount
1000000000135766,77015117781,mKcell,mKarTel,mKcell,D01,D02,2016-03-28T18:46:55+06:00,38
1000000000135829,77771097963,mKcell,mKarTel,mKarTel,,D02,2016-03-28T18:30:03+06:00,
1000000000135835,77758964029,mMTS,mKcell,mKcell,,D77,2016-03-28T18:30:28+06:00,
1000000000135836,77019081300,mMTS,mKcell,mKcell,,D77,2016-03-28T18:31:12+06:00,
1000000000135837,77751953620,mKarTel,mKcell,mKcell,,D01,2016-03-28T18:31:52+06:00,
1000000000135838,77015275254,mAltel,mKcell,mKcell,,D07,2016-03-28T18:32:47+06:00,
1000000000135839,77009734063,mMTS,mAltel,mAltel,,D77,2016-03-28T18:31:54+06:00,
1000000000135840,77718537728,mMTS,mKarTel,mKarTel,,D77,2016-03-28T18:33:11+06:00,
1000000000135841,77011558815,mMTS,mKcell,mKcell,,D77,2016-03-28T18:33:01+06:00,
1000000000135842,77753503576,mKarTel,mKcell,mKcell,,D01,2016-03-28T18:33:35+06:00,
1000000000135843,77782210772,mMTS,mKcell,mKcell,,D77,2016-03-28T18:33:17+06:00,
1000000000135845,77753503578,mKarTel,mKcell,mKcell,,D01,2016-03-28T18:34:04+06:00,
1000000000135847,77028228077,mKarTel,mKcell,mKcell,,D01,2016-03-28T18:34:28+06:00,
1000000000135848,77089009901,mMTS,mAltel,mAltel,,D77,2016-03-28T18:34:23+06:00,
1000000000135849,77075274950,mKcell,mMTS,mMTS,,D02,2016-03-28T18:35:16+06:00,
1000000000135850,77757571111,mMTS,mKcell,mKcell,,D77,2016-03-28T18:36:51+06:00,
1000000000135851,77771475959,mMTS,mKarTel,mKarTel,,D77,2016-03-28T18:38:01+06:00,
1000000000135852,77771351603,mMTS,mKarTel,mKarTel,,D77,2016-03-28T18:38:01+06:00,
1000000000135854,77761305555,mKarTel,mAltel,mKarTel,D07,D01,2016-03-28T18:38:48+06:00,
1000000000135855,77077279737,mKcell,mMTS,mMTS,,D02,2016-03-28T18:39:06+06:00,
1000000000135856,77752436707,mMTS,mKcell,mKcell,,D77,2016-03-28T18:39:02+06:00,
1000000000135857,77054572509,mAltel,mKarTel,mKarTel,,D07,2016-03-28T18:41:49+06:00,
1000000000135858,77072727887,mKcell,mMTS,mMTS,,D02,2016-03-28T18:42:04+06:00,
1000000000135859,77086648788,mMTS,mAltel,mAltel,,D77,2016-03-28T18:41:42+06:00,
1000000000135861,77777731900,mKcell,mKarTel,mKarTel,,D02,2016-03-28T18:43:42+06:00,
1000000000135863,77019884513,mKcell,mAltel,mKcell,D07,D02,2016-03-28T18:45:45+06:00,
1000000000135864,77473866625,mKarTel,mMTS,mMTS,,D01,2016-03-28T18:46:00+06:00,
1000000000135868,77017253387,mAltel,mKcell,mKcell,,D07,2016-03-28T18:48:52+06:00,
1000000000135869,77079117119,mAltel,mMTS,mMTS,,D07,2016-03-28T18:48:33+06:00,
1000000000135870,77059959191,mMTS,mKarTel,mKarTel,,D77,2016-03-28T18:50:44+06:00,
1000000000135872,77018887337,mKarTel,mKcell,mKcell,,D01,2016-03-28T18:51:59+06:00,
1000000000135876,77077338807,mAltel,mMTS,mMTS,,D07,2016-03-28T18:53:53+06:00,
1000000000135878,77018887755,mKarTel,mKcell,mKcell,,D01,2016-03-28T18:54:59+06:00,
1000000000135879,77075240431,mAltel,mMTS,mMTS,,D07,2016-03-28T18:54:54+06:00,
1000000000135880,77713536666,mAltel,mKarTel,mKarTel,,D07,2016-03-28T18:58:00+06:00,
1000000000135881,77771351534,mMTS,mKarTel,mKarTel,,D77,2016-03-28T18:57:58+06:00,
1000000000135882,77714549783,mAltel,mKarTel,mKarTel,,D07,2016-03-28T18:58:53+06:00,
1000000000135883,77021288288,mMTS,mKcell,mKcell,,D77,2016-03-28T18:58:24+06:00,
