NPId,Number,RecipientId,DonorId,RangeHolderId,OldRoute,NewRoute,PortDate,RowCount
1000000000192292,77056077700,mMTS,mKarTel,mKarTel,,D77,2016-06-13T09:02:36+06:00,6
1000000000192293,77014473636,mKcell,mMTS,mKcell,D77,D02,2016-06-13T09:02:52+06:00,
1000000000192294,77057656564,mKarTel,mAltel,mKarTel,D07,D01,2016-06-13T09:17:01+06:00,
1000000000192295,77079531079,mAltel,mMTS,mMTS,D77,D07,2016-06-13T09:21:14+06:00,
1000000000192296,77021706446,mKcell,mMTS,mKcell,D77,D02,2016-06-13T09:22:12+06:00,
1000000000192298,77071531532,mAltel,mMTS,mMTS,,D07,2016-06-13T09:24:04+06:00,
