NPId,Number,RecipientId,DonorId,RangeHolderId,OldRoute,NewRoute,PortDate,RowCount
1000000000417663,77750283131,mMTS,mKcell,mKcell,,D77,2017-07-06T16:30:15+06:00,14
1000000000417665,77750000689,mKarTel,mKcell,mKcell,,D01,2017-07-06T16:34:09+06:00,
1000000000417668,77074843596,mKcell,mMTS,mMTS,,D02,2017-07-06T16:36:54+06:00,
1000000000417669,77012427177,mKcell,mMTS,mKcell,D77,D02,2017-07-06T16:38:16+06:00,
1000000000417671,77772222110,mAltel,mKarTel,mKarTel,,D07,2017-07-06T16:44:21+06:00,
1000000000417672,77083534497,mKarTel,mAltel,mAltel,,D01,2017-07-06T16:44:33+06:00,
1000000000417674,77073000357,mAltel,mMTS,mMTS,,D07,2017-07-06T16:49:58+06:00,
1000000000417675,77014801669,mAltel,mKcell,mKcell,,D07,2017-07-06T16:52:30+06:00,
1000000000417676,77014083499,mKarTel,mMTS,mKcell,D77,D01,2017-07-06T16:54:53+06:00,
1000000000417677,77752962717,mKarTel,mKcell,mKcell,,D01,2017-07-06T16:55:08+06:00,
1000000000417679,77056207086,mMTS,mKarTel,mKarTel,,D77,2017-07-06T16:57:11+06:00,
1000000000417680,77787097404,mKcell,mKarTel,mKcell,D01,D02,2017-07-06T16:58:58+06:00,
1000000000417681,77757545444,mMTS,mKcell,mKcell,,D77,2017-07-06T16:58:35+06:00,
1000000000417682,77776204026,mAltel,mKarTel,mKarTel,,D07,2017-07-06T16:59:11+06:00,
