NPId,Number,RecipientId,DonorId,RangeHolderId,OldRoute,NewRoute,PortDate,RowCount
1000000000442383,77003519754,mMTS,mAltel,mAltel,,D77,2017-08-19T13:30:31+06:00,17
1000000000442384,77757096061,mMTS,mKcell,mKcell,,D77,2017-08-19T13:31:55+06:00,
1000000000442386,77075263643,mKarTel,mMTS,mMTS,,D01,2017-08-19T13:37:23+06:00,
1000000000442387,77051114555,mAltel,mKarTel,mKarTel,,D07,2017-08-19T13:40:16+06:00,
1000000000442388,77073002438,mKarTel,mMTS,mMTS,,D01,2017-08-19T13:40:29+06:00,
1000000000442389,77075190512,mKarTel,mMTS,mMTS,,D01,2017-08-19T13:40:39+06:00,
1000000000442390,77475970765,mAltel,mMTS,mMTS,,D07,2017-08-19T13:42:23+06:00,
1000000000442391,77015553808,mMTS,mKcell,mKcell,,D77,2017-08-19T13:42:41+06:00,
1000000000442392,77785981422,mKarTel,mKcell,mKcell,,D01,2017-08-19T13:43:42+06:00,
1000000000442393,77760012202,mKcell,mKarTel,mKarTel,,D02,2017-08-19T13:45:09+06:00,
1000000000442394,77763630927,mAltel,mKcell,mKarTel,D02,D07,2017-08-19T13:45:24+06:00,
1000000000442395,77761544442,mMTS,mKarTel,mKarTel,,D77,2017-08-19T13:47:37+06:00,
1000000000442396,77072205577,mAltel,mMTS,mMTS,,D07,2017-08-19T13:49:04+06:00,
1000000000442397,77080596720,mKcell,mAltel,mAltel,,D02,2017-08-19T13:49:50+06:00,
1000000000442398,77024576668,mMTS,mKarTel,mKcell,D01,D77,2017-08-19T13:50:29+06:00,
1000000000442399,77071941404,mKcell,mMTS,mMTS,D77,D02,2017-08-19T13:50:55+06:00,
1000000000442401,77017111732,mMTS,mKcell,mKcell,,D77,2017-08-19T13:56:23+06:00,
