NPId,Number,RecipientId,DonorId,RangeHolderId,OldRoute,NewRoute,PortDate,RowCount
1000000000170456,77012442991,mKarTel,mKcell,mKcell,,D01,2016-05-09T14:35:03+06:00,18
1000000000170457,77773577767,mKcell,mKarTel,mKarTel,,D02,2016-05-09T14:36:06+06:00,
1000000000170458,77784248111,mKcell,mMTS,mKcell,D77,D02,2016-05-09T14:35:50+06:00,
1000000000170459,77022475174,mAltel,mKcell,mKcell,,D07,2016-05-09T14:41:21+06:00,
1000000000170460,77086782067,mKarTel,mAltel,mAltel,,D01,2016-05-09T14:42:02+06:00,
1000000000170461,77085526590,mMTS,mAltel,mAltel,,D77,2016-05-09T14:42:07+06:00,
1000000000170462,77009695537,mMTS,mAltel,mAltel,,D77,2016-05-09T14:42:04+06:00,
1000000000170463,77089879547,mMTS,mAltel,mAltel,,D77,2016-05-09T14:42:26+06:00,
1000000000170464,77017396029,mMTS,mAltel,mKcell,D07,D77,2016-05-09T14:45:25+06:00,
1000000000170465,77009513119,mMTS,mAltel,mAltel,,D77,2016-05-09T14:47:01+06:00,
1000000000170466,77787307676,mKcell,mAltel,mKcell,D07,D02,2016-05-09T14:47:44+06:00,
1000000000170467,77081257197,mMTS,mAltel,mAltel,,D77,2016-05-09T14:50:39+06:00,
1000000000170468,77718885703,mKcell,mKarTel,mKarTel,,D02,2016-05-09T14:52:10+06:00,
1000000000170469,77072242827,mKarTel,mMTS,mMTS,,D01,2016-05-09T14:55:29+06:00,
1000000000170470,77012888293,mMTS,mKcell,mKcell,,D77,2016-05-09T14:57:00+06:00,
1000000000170472,77001334622,mMTS,mAltel,mAltel,,D77,2016-05-09T14:57:04+06:00,
1000000000170473,77026446640,mAltel,mKcell,mKcell,,D07,2016-05-09T14:59:26+06:00,
1000000000170474,77764811188,mMTS,mKarTel,mKarTel,,D77,2016-05-09T14:59:38+06:00,
