NPId,Number,RecipientId,DonorId,RangeHolderId,OldRoute,NewRoute,PortDate,RowCount
1000000000368453,77009999926,mKcell,mKarTel,mAltel,D01,D02,2017-04-19T16:02:15+06:00,25
1000000000368454,77015188514,mAltel,mKcell,mKcell,,D07,2017-04-19T16:02:51+06:00,
1000000000368455,77755698808,mAltel,mKcell,mKcell,,D07,2017-04-19T16:03:35+06:00,
1000000000368457,77012222018,mKarTel,mKcell,mKcell,,D01,2017-04-19T16:06:04+06:00,
1000000000368458,77000007106,mKcell,mAltel,mAltel,,D02,2017-04-19T16:06:08+06:00,
1000000000368459,77007007034,mKcell,mAltel,mAltel,,D02,2017-04-19T16:07:06+06:00,
1000000000368460,77072103757,mKarTel,mMTS,mMTS,,D01,2017-04-19T16:08:40+06:00,
1000000000368461,77070498885,mKcell,mMTS,mMTS,,D02,2017-04-19T16:11:36+06:00,
1000000000368462,77007007032,mKcell,mAltel,mAltel,,D02,2017-04-19T16:11:46+06:00,
1000000000368463,77072929314,mMTS,mKarTel,mMTS,D01,D77,2017-04-19T16:12:05+06:00,
1000000000368464,77018867617,mMTS,mKcell,mKcell,,D77,2017-04-19T16:11:47+06:00,
1000000000368465,77009465594,mAltel,mMTS,mAltel,D77,D07,2017-04-19T16:11:47+06:00,
1000000000368467,77029411554,mKarTel,mKcell,mKcell,,D01,2017-04-19T16:12:55+06:00,
1000000000368468,77004514732,mMTS,mAltel,mAltel,,D77,2017-04-19T16:13:19+06:00,
1000000000368472,77756565866,mKarTel,mKcell,mKcell,,D01,2017-04-19T16:17:55+06:00,
1000000000368475,77055038216,mKarTel,mKcell,mKarTel,D02,D01,2017-04-19T16:21:50+06:00,
1000000000368476,77027900086,mMTS,mAltel,mKcell,D07,D77,2017-04-19T16:21:43+06:00,
1000000000368477,77752666666,mKarTel,mKcell,mKcell,,D01,2017-04-19T16:24:00+06:00,
1000000000368478,77007007031,mKcell,mAltel,mAltel,,D02,2017-04-19T16:23:57+06:00,
1000000000368480,77011060566,mKarTel,mKcell,mKcell,,D01,2017-04-19T16:25:43+06:00,
1000000000368482,77027058275,mAltel,mKarTel,mKcell,D01,D07,2017-04-19T16:28:17+06:00,
1000000000368483,77760979999,mKcell,mKarTel,mKarTel,,D02,2017-04-19T16:29:05+06:00,
1000000000368485,77078716313,mKarTel,mMTS,mMTS,,D01,2017-04-19T16:29:07+06:00,
1000000000368486,77014695997,mAltel,mKcell,mKcell,,D07,2017-04-19T16:29:32+06:00,
1000000000368487,77773200193,mMTS,mKarTel,mKarTel,,D77,2017-04-19T16:29:57+06:00,
