NPId,Number,RecipientId,DonorId,RangeHolderId,OldRoute,NewRoute,PortDate,RowCount
1000000000109530,77015295555,mKcell,mKarTel,mKcell,D01,D02,2016-03-09T23:50:42+06:00,2
1000000000119941,77022555540,mKcell,mAltel,mKcell,D07,D02,2016-03-09T23:47:29+06:00,
