NPId,Number,RecipientId,DonorId,RangeHolderId,OldRoute,NewRoute,PortDate,RowCount
1000000000392391,77012183317,mKcell,mKarTel,mKcell,D01,D02,2017-05-30T11:12:30+06:00,28
1000000000392395,77017715679,mKcell,mKarTel,mKcell,D01,D02,2017-05-30T11:00:12+06:00,
1000000000392396,77015127323,mKcell,mKarTel,mKcell,D01,D02,2017-05-30T11:01:55+06:00,
1000000000392440,77783626333,mMTS,mKcell,mKcell,,D77,2017-05-30T11:00:15+06:00,
1000000000392441,77015584002,mMTS,mKcell,mKcell,,D77,2017-05-30T11:00:28+06:00,
1000000000392442,77770902999,mAltel,mKarTel,mKarTel,,D07,2017-05-30T11:00:53+06:00,
1000000000392443,77010850307,mMTS,mKcell,mKcell,,D77,2017-05-30T11:00:52+06:00,
1000000000392444,77080440000,mKcell,mAltel,mAltel,,D02,2017-05-30T11:02:32+06:00,
1000000000392445,77762103772,mMTS,mKarTel,mKarTel,,D77,2017-05-30T11:02:04+06:00,
1000000000392446,77773161611,mKcell,mKarTel,mKarTel,D01,D02,2017-05-30T11:02:39+06:00,
1000000000392447,77001204818,mMTS,mAltel,mAltel,,D77,2017-05-30T11:02:33+06:00,
1000000000392450,77015264708,mMTS,mKcell,mKcell,,D77,2017-05-30T11:05:05+06:00,
1000000000392453,77471084896,mKcell,mMTS,mMTS,,D02,2017-05-30T11:07:10+06:00,
1000000000392454,77776207054,mKcell,mKarTel,mKarTel,,D02,2017-05-30T11:07:38+06:00,
1000000000392456,77755163029,mKarTel,mKcell,mKcell,,D01,2017-05-30T11:12:29+06:00,
1000000000392457,77019535555,mKcell,mAltel,mKcell,D07,D02,2017-05-30T11:12:33+06:00,
1000000000392458,77027472416,mKcell,mAltel,mKcell,D07,D02,2017-05-30T11:13:43+06:00,
1000000000392460,77023413597,mKarTel,mKcell,mKcell,,D01,2017-05-30T11:15:10+06:00,
1000000000392462,77025055005,mKcell,mAltel,mKcell,D07,D02,2017-05-30T11:17:35+06:00,
1000000000392463,77051815906,mMTS,mKarTel,mKarTel,,D77,2017-05-30T11:17:52+06:00,
1000000000392464,77770026688,mMTS,mKcell,mKarTel,D02,D77,2017-05-30T11:17:58+06:00,
1000000000392467,77011805571,mMTS,mKarTel,mKcell,D01,D77,2017-05-30T11:20:43+06:00,
1000000000392468,77758899424,mKarTel,mKcell,mKcell,,D01,2017-05-30T11:21:15+06:00,
1000000000392469,77071111984,mMTS,mKarTel,mMTS,D01,D77,2017-05-30T11:22:19+06:00,
1000000000392470,77007655555,mKcell,mAltel,mAltel,,D02,2017-05-30T11:28:36+06:00,
1000000000392471,77470310602,mKcell,mMTS,mMTS,,D02,2017-05-30T11:22:46+06:00,
1000000000392473,77773987678,mMTS,mKarTel,mKarTel,,D77,2017-05-30T11:26:34+06:00,
1000000000392475,77012884272,mAltel,mKarTel,mKcell,D01,D07,2017-05-30T11:29:58+06:00,
