NPId,Number,RecipientId,DonorId,RangeHolderId,OldRoute,NewRoute,PortDate,RowCount
1000000000270327,77779250309,mMTS,mKarTel,mKarTel,,D77,2016-10-30T12:30:10+06:00,14
1000000000270328,77071199050,mAltel,mMTS,mMTS,,D07,2016-10-30T12:30:26+06:00,
1000000000270329,77010275117,mMTS,mKcell,mKcell,,D77,2016-10-30T12:30:52+06:00,
1000000000270330,77076050032,mKarTel,mMTS,mMTS,,D01,2016-10-30T12:31:03+06:00,
1000000000270331,77753838222,mMTS,mKcell,mKcell,,D77,2016-10-30T12:32:00+06:00,
1000000000270332,77774625882,mAltel,mKarTel,mKarTel,,D07,2016-10-30T12:33:04+06:00,
1000000000270333,77755687227,mMTS,mKcell,mKcell,,D77,2016-10-30T12:36:30+06:00,
1000000000270334,77017228686,mKarTel,mKcell,mKcell,,D01,2016-10-30T12:38:49+06:00,
1000000000270335,77051444666,mMTS,mKarTel,mKarTel,,D77,2016-10-30T12:43:44+06:00,
1000000000270337,77018177877,mMTS,mKcell,mKcell,,D77,2016-10-30T12:45:18+06:00,
1000000000270339,77077741717,mKcell,mMTS,mMTS,,D02,2016-10-30T12:49:22+06:00,
1000000000270340,77078515557,mKarTel,mMTS,mMTS,,D01,2016-10-30T12:49:39+06:00,
1000000000270341,77017114238,mKarTel,mKcell,mKcell,,D01,2016-10-30T12:59:19+06:00,
1000000000270342,77017940849,mKarTel,mKcell,mKcell,,D01,2016-10-30T12:57:14+06:00,
