NPId,Number,RecipientId,DonorId,RangeHolderId,OldRoute,NewRoute,PortDate,RowCount
1000000000327202,77083903011,mMTS,mAltel,mAltel,,D77,2017-02-11T11:31:38+06:00,22
1000000000327204,77782558593,mMTS,mKcell,mKcell,,D77,2017-02-11T11:32:48+06:00,
1000000000327205,77058014516,mMTS,mKarTel,mKarTel,,D77,2017-02-11T11:33:40+06:00,
1000000000327206,77019469099,mKcell,mMTS,mKcell,D77,D02,2017-02-11T11:34:08+06:00,
1000000000327207,77781761010,mKcell,mAltel,mKcell,D07,D02,2017-02-11T11:37:01+06:00,
1000000000327208,77018996675,mKarTel,mKcell,mKcell,,D01,2017-02-11T11:37:25+06:00,
1000000000327209,77756036460,mMTS,mKcell,mKcell,,D77,2017-02-11T11:39:44+06:00,
1000000000327210,77015792333,mAltel,mKcell,mKcell,,D07,2017-02-11T11:40:44+06:00,
1000000000327211,77028543265,mKarTel,mKcell,mKcell,,D01,2017-02-11T11:43:30+06:00,
1000000000327212,77011900009,mKarTel,mKcell,mKcell,,D01,2017-02-11T11:44:30+06:00,
1000000000327213,77751790070,mMTS,mKcell,mKcell,,D77,2017-02-11T11:48:04+06:00,
1000000000327214,77786000667,mMTS,mKcell,mKcell,,D77,2017-02-11T11:48:58+06:00,
1000000000327215,77776673025,mAltel,mKarTel,mKarTel,,D07,2017-02-11T11:49:19+06:00,
1000000000327216,77051760003,mKcell,mKarTel,mKarTel,,D02,2017-02-11T11:49:47+06:00,
1000000000327217,77017133900,mKarTel,mKcell,mKcell,,D01,2017-02-11T11:52:00+06:00,
1000000000327218,77055558281,mMTS,mKarTel,mKarTel,,D77,2017-02-11T11:53:01+06:00,
1000000000327219,77752579423,mMTS,mKcell,mKcell,,D77,2017-02-11T11:52:48+06:00,
1000000000327220,77079219190,mAltel,mMTS,mMTS,,D07,2017-02-11T11:54:21+06:00,
1000000000327221,77054597099,mAltel,mKarTel,mKarTel,,D07,2017-02-11T11:55:28+06:00,
1000000000327224,77017338435,mMTS,mKcell,mKcell,,D77,2017-02-11T11:57:47+06:00,
1000000000327225,77011912025,mKarTel,mKcell,mKcell,D02,D01,2017-02-11T11:58:02+06:00,
1000000000327226,77776668686,mAltel,mKarTel,mKarTel,,D07,2017-02-11T11:58:49+06:00,
