NPId,Number,RecipientId,DonorId,RangeHolderId,OldRoute,NewRoute,PortDate,RowCount
1000000000283638,77015057811,mKcell,mKarTel,mKcell,D01,D02,2016-11-24T16:16:19+06:00,16
1000000000283641,77077142257,mAltel,mMTS,mMTS,,D07,2016-11-24T16:03:53+06:00,
1000000000283643,77018222274,mMTS,mAltel,mKcell,D07,D77,2016-11-24T16:08:22+06:00,
1000000000283645,77767333371,mAltel,mMTS,mKarTel,D77,D07,2016-11-24T16:14:49+06:00,
1000000000283646,77077600030,mKarTel,mMTS,mMTS,,D01,2016-11-24T16:15:10+06:00,
1000000000283647,77772001140,mKcell,mKarTel,mKarTel,,D02,2016-11-24T16:23:41+06:00,
1000000000283649,77007777798,mKcell,mAltel,mAltel,,D02,2016-11-24T16:23:41+06:00,
1000000000283650,77000850055,mKcell,mMTS,mAltel,D77,D02,2016-11-24T16:16:38+06:00,
1000000000283651,77013440747,mMTS,mKcell,mKcell,,D77,2016-11-24T16:24:09+06:00,
1000000000283652,77087589694,mAltel,mKarTel,mAltel,D01,D07,2016-11-24T16:18:49+06:00,
1000000000283654,77054110101,mKarTel,mMTS,mKarTel,D77,D01,2016-11-24T16:21:48+06:00,
1000000000283655,77718855507,mAltel,mKarTel,mKarTel,,D07,2016-11-24T16:22:42+06:00,
1000000000283657,77024103377,mAltel,mKcell,mKcell,,D07,2016-11-24T16:24:09+06:00,
1000000000283658,77015993960,mMTS,mKcell,mKcell,,D77,2016-11-24T16:29:18+06:00,
1000000000283659,77013642345,mAltel,mKcell,mKcell,,D07,2016-11-24T16:29:19+06:00,
1000000000283660,77718288678,mAltel,mKarTel,mKarTel,,D07,2016-11-24T16:26:25+06:00,
