NPId,Number,RecipientId,DonorId,RangeHolderId,OldRoute,NewRoute,PortDate,RowCount
1000000000390661,77756842720,mKarTel,mKcell,mKcell,,D01,2017-05-29T13:00:18+06:00,37
1000000000391712,77085175567,mKcell,mAltel,mAltel,,D02,2017-05-29T13:04:51+06:00,
1000000000391736,77767122122,mAltel,mKarTel,mKarTel,,D07,2017-05-29T13:00:28+06:00,
1000000000391737,77014274646,mKarTel,mKcell,mKcell,,D01,2017-05-29T13:01:23+06:00,
1000000000391738,77021036673,mMTS,mKcell,mKcell,,D77,2017-05-29T13:01:54+06:00,
1000000000391739,77016152931,mMTS,mKcell,mKcell,,D77,2017-05-29T13:02:29+06:00,
1000000000391740,77782307120,mMTS,mKcell,mKcell,,D77,2017-05-29T13:02:29+06:00,
1000000000391741,77001000080,mKcell,mAltel,mAltel,,D02,2017-05-29T13:02:37+06:00,
1000000000391742,77782307110,mMTS,mKcell,mKcell,,D77,2017-05-29T13:03:41+06:00,
1000000000391743,77473876007,mAltel,mMTS,mMTS,,D07,2017-05-29T13:03:45+06:00,
1000000000391744,77472277661,mAltel,mMTS,mMTS,,D07,2017-05-29T13:04:45+06:00,
1000000000391745,77755737272,mAltel,mKcell,mKcell,,D07,2017-05-29T13:04:57+06:00,
1000000000391746,77015211931,mAltel,mKcell,mKcell,,D07,2017-05-29T13:05:24+06:00,
1000000000391747,77012222651,mKarTel,mKcell,mKcell,,D01,2017-05-29T13:05:41+06:00,
1000000000391748,77018435857,mMTS,mAltel,mKcell,D07,D77,2017-05-29T13:06:30+06:00,
1000000000391750,77028610197,mMTS,mKcell,mKcell,,D77,2017-05-29T13:07:53+06:00,
1000000000391751,77000990608,mMTS,mAltel,mAltel,,D77,2017-05-29T13:07:46+06:00,
1000000000391752,77017942603,mKarTel,mKcell,mKcell,,D01,2017-05-29T13:09:49+06:00,
1000000000391754,77785088889,mMTS,mKcell,mKcell,,D77,2017-05-29T13:11:26+06:00,
1000000000391755,77007140107,mMTS,mAltel,mAltel,,D77,2017-05-29T13:11:47+06:00,
1000000000391758,77787307898,mMTS,mKcell,mKcell,,D77,2017-05-29T13:14:20+06:00,
1000000000391759,77775961166,mKarTel,mMTS,mKarTel,D77,D01,2017-05-29T13:14:38+06:00,
1000000000391760,77011201017,mKcell,mAltel,mKcell,D07,D02,2017-05-29T13:14:33+06:00,
1000000000391761,77754640009,mMTS,mKcell,mKcell,,D77,2017-05-29T13:14:50+06:00,
1000000000391762,77059834833,mKarTel,mKcell,mKarTel,D02,D01,2017-05-29T13:16:08+06:00,
1000000000391765,77762484440,mMTS,mKarTel,mKarTel,,D77,2017-05-29T13:18:04+06:00,
1000000000391766,77473029490,mAltel,mMTS,mMTS,,D07,2017-05-29T13:19:18+06:00,
1000000000391768,77015553301,mAltel,mKcell,mKcell,,D07,2017-05-29T13:20:22+06:00,
1000000000391769,77786360636,mMTS,mKcell,mKcell,,D77,2017-05-29T13:21:58+06:00,
1000000000391771,77017225504,mKarTel,mKcell,mKcell,,D01,2017-05-29T13:23:44+06:00,
1000000000391774,77004080118,mAltel,mMTS,mAltel,D77,D07,2017-05-29T13:25:46+06:00,
1000000000391776,77007150592,mKarTel,mAltel,mAltel,,D01,2017-05-29T13:28:13+06:00,
1000000000391777,77000800587,mMTS,mAltel,mAltel,,D77,2017-05-29T13:28:19+06:00,
1000000000391781,77078119116,mMTS,mKarTel,mMTS,D01,D77,2017-05-29T13:28:46+06:00,
1000000000391782,77014998635,mMTS,mKcell,mKcell,,D77,2017-05-29T13:28:58+06:00,
1000000000391783,77778668999,mMTS,mKarTel,mKarTel,,D77,2017-05-29T13:29:23+06:00,
1000000000391784,77079666823,mAltel,mMTS,mMTS,,D07,2017-05-29T13:29:32+06:00,
