NPId,Number,RecipientId,DonorId,RangeHolderId,OldRoute,NewRoute,PortDate,RowCount
1000000000187512,77717888805,mKcell,mKarTel,mKarTel,,D02,2016-06-03T19:37:26+06:00,6
1000000000187516,77773888807,mKcell,mKarTel,mKarTel,,D02,2016-06-03T19:39:22+06:00,
1000000000187523,77071510336,mKcell,mMTS,mMTS,,D02,2016-06-03T19:32:21+06:00,
1000000000187525,77087590627,mMTS,mAltel,mAltel,,D77,2016-06-03T19:36:03+06:00,
1000000000187528,77055953356,mKcell,mKarTel,mKarTel,,D02,2016-06-03T19:50:32+06:00,
1000000000187530,77773833538,mMTS,mKarTel,mKarTel,,D77,2016-06-03T19:52:37+06:00,
