NPId,Number,RecipientId,DonorId,RangeHolderId,OldRoute,NewRoute,PortDate,RowCount
1000000000204518,77781558824,mMTS,mKcell,mKcell,,D77,2016-07-03T17:32:20+06:00,5
1000000000204519,77781558825,mMTS,mKcell,mKcell,,D77,2016-07-03T17:42:24+06:00,
1000000000204522,77075795556,mKcell,mMTS,mMTS,,D02,2016-07-03T17:46:58+06:00,
1000000000204523,77085336689,mMTS,mAltel,mAltel,,D77,2016-07-03T17:48:14+06:00,
1000000000204524,77055253926,mKcell,mKarTel,mKarTel,,D02,2016-07-03T17:52:24+06:00,
