NPId,Number,RecipientId,DonorId,RangeHolderId,OldRoute,NewRoute,PortDate,RowCount
1000000000195816,77768888820,mKcell,mKarTel,mKarTel,,D02,2016-06-18T16:02:16+06:00,21
1000000000195818,77011701212,mMTS,mKcell,mKcell,,D77,2016-06-18T16:04:35+06:00,
1000000000195820,77012041981,mKarTel,mKcell,mKcell,,D01,2016-06-18T16:12:29+06:00,
1000000000195821,77089151790,mAltel,mMTS,mAltel,D77,D07,2016-06-18T16:07:11+06:00,
1000000000195822,77075393007,mKcell,mMTS,mMTS,,D02,2016-06-18T16:08:24+06:00,
1000000000195823,77017706464,mKcell,mMTS,mKcell,D77,D02,2016-06-18T16:12:02+06:00,
1000000000195824,77789116666,mAltel,mKcell,mKcell,,D07,2016-06-18T16:12:14+06:00,
1000000000195825,77752855034,mKarTel,mKcell,mKcell,,D01,2016-06-18T16:12:28+06:00,
1000000000195826,77017252425,mKarTel,mKcell,mKcell,,D01,2016-06-18T16:15:02+06:00,
1000000000195827,77021822823,mMTS,mKcell,mKcell,,D77,2016-06-18T16:14:44+06:00,
1000000000195830,77781701555,mAltel,mMTS,mKcell,D77,D07,2016-06-18T16:14:45+06:00,
1000000000195832,77783131848,mMTS,mKcell,mKcell,,D77,2016-06-18T16:17:27+06:00,
1000000000195833,77027921758,mMTS,mKcell,mKcell,,D77,2016-06-18T16:17:25+06:00,
1000000000195836,77009740127,mMTS,mAltel,mAltel,,D77,2016-06-18T16:17:44+06:00,
1000000000195838,77012203753,mAltel,mKcell,mKcell,,D07,2016-06-18T16:20:33+06:00,
1000000000195839,77753444711,mMTS,mKcell,mKcell,,D77,2016-06-18T16:20:33+06:00,
1000000000195840,77017140076,mMTS,mKcell,mKcell,,D77,2016-06-18T16:20:33+06:00,
1000000000195842,77056646087,mMTS,mKarTel,mKarTel,,D77,2016-06-18T16:23:28+06:00,
1000000000195843,77475341108,mKcell,mMTS,mMTS,,D02,2016-06-18T16:24:45+06:00,
1000000000195845,77017757583,mKarTel,mKcell,mKcell,,D01,2016-06-18T16:27:28+06:00,
1000000000195846,77003953661,mMTS,mAltel,mAltel,,D77,2016-06-18T16:28:09+06:00,
