NPId,Number,RecipientId,DonorId,RangeHolderId,OldRoute,NewRoute,PortDate,RowCount
1000000000369733,77058633979,mKarTel,mMTS,mKarTel,D77,D01,2017-04-21T18:00:06+06:00,16
1000000000369734,77082754590,mKarTel,mAltel,mAltel,D07,D01,2017-04-21T18:01:53+06:00,
1000000000369735,77029930429,mMTS,mAltel,mKcell,D07,D77,2017-04-21T18:01:45+06:00,
1000000000369737,77777060909,mKcell,mKarTel,mKarTel,,D02,2017-04-21T18:04:40+06:00,
1000000000369738,77056239600,mMTS,mKarTel,mKarTel,,D77,2017-04-21T18:04:50+06:00,
1000000000369742,77014653250,mKcell,mMTS,mKcell,D77,D02,2017-04-21T18:07:25+06:00,
1000000000369745,77758606668,mKarTel,mMTS,mKcell,D77,D01,2017-04-21T18:09:09+06:00,
1000000000369748,77007773127,mKcell,mAltel,mAltel,,D02,2017-04-21T18:11:39+06:00,
1000000000369749,77007773217,mKcell,mAltel,mAltel,,D02,2017-04-21T18:14:46+06:00,
1000000000369751,77770694488,mAltel,mKarTel,mKarTel,,D07,2017-04-21T18:18:04+06:00,
1000000000369752,77007772467,mKcell,mAltel,mAltel,,D02,2017-04-21T18:20:15+06:00,
1000000000369753,77011090950,mKarTel,mKcell,mKcell,,D01,2017-04-21T18:21:43+06:00,
1000000000369754,77081227971,mAltel,mMTS,mAltel,D77,D07,2017-04-21T18:21:21+06:00,
1000000000369756,77785505505,mMTS,mKcell,mKcell,,D77,2017-04-21T18:26:44+06:00,
1000000000369760,77754023197,mKcell,mMTS,mKcell,D77,D02,2017-04-21T18:27:20+06:00,
1000000000369761,77476893438,mKarTel,mMTS,mMTS,,D01,2017-04-21T18:27:35+06:00,
