NPId,Number,RecipientId,DonorId,RangeHolderId,OldRoute,NewRoute,PortDate,RowCount
1000000000248522,77027900606,mMTS,mKarTel,mKcell,D01,D77,2016-09-20T16:00:34+06:00,23
1000000000248525,77015235423,mMTS,mKcell,mKcell,,D77,2016-09-20T16:01:23+06:00,
1000000000248528,77000080080,mKarTel,mKcell,mAltel,D02,D01,2016-09-20T16:04:48+06:00,
1000000000248529,77752135382,mKarTel,mKcell,mKcell,,D01,2016-09-20T16:05:35+06:00,
1000000000248530,77088097596,mKarTel,mAltel,mAltel,,D01,2016-09-20T16:05:34+06:00,
1000000000248532,77755549813,mMTS,mKcell,mKcell,,D77,2016-09-20T16:07:29+06:00,
1000000000248533,77714655529,mKcell,mKarTel,mKarTel,,D02,2016-09-20T16:10:41+06:00,
1000000000248534,77014624523,mKarTel,mKcell,mKcell,,D01,2016-09-20T16:09:41+06:00,
1000000000248535,77082248707,mMTS,mAltel,mAltel,,D77,2016-09-20T16:09:05+06:00,
1000000000248536,77789992418,mMTS,mKcell,mKcell,,D77,2016-09-20T16:09:36+06:00,
1000000000248537,77028866307,mAltel,mKcell,mKcell,D02,D07,2016-09-20T16:10:14+06:00,
1000000000248538,77473622915,mKarTel,mMTS,mMTS,,D01,2016-09-20T16:12:07+06:00,
1000000000248539,77471444000,mAltel,mKcell,mMTS,D02,D07,2016-09-20T16:12:23+06:00,
1000000000248540,77052230292,mKcell,mKarTel,mKarTel,,D02,2016-09-20T16:14:52+06:00,
1000000000248544,77005000050,mKcell,mAltel,mAltel,,D02,2016-09-20T16:16:45+06:00,
1000000000248545,77015016215,mKarTel,mKcell,mKcell,,D01,2016-09-20T16:21:35+06:00,
1000000000248546,77017749870,mMTS,mKcell,mKcell,,D77,2016-09-20T16:21:09+06:00,
1000000000248547,77758885806,mKcell,mKarTel,mKcell,D01,D02,2016-09-20T16:22:42+06:00,
1000000000248548,77079227283,mAltel,mKarTel,mMTS,D01,D07,2016-09-20T16:24:16+06:00,
1000000000248549,77013949102,mKcell,mAltel,mKcell,D07,D02,2016-09-20T16:22:51+06:00,
1000000000248551,77754103135,mKcell,mMTS,mKcell,D77,D02,2016-09-20T16:23:43+06:00,
1000000000248554,77024422000,mAltel,mKcell,mKcell,,D07,2016-09-20T16:25:27+06:00,
1000000000248555,77089128579,mAltel,mKarTel,mAltel,D01,D07,2016-09-20T16:29:33+06:00,
