NPId,Number,RecipientId,DonorId,RangeHolderId,OldRoute,NewRoute,PortDate,RowCount
1000000000434831,77013361245,mKcell,mKarTel,mKcell,D01,D02,2017-08-04T15:48:54+06:00,28
1000000000434842,77017685555,mKcell,mKarTel,mKcell,D01,D02,2017-08-04T15:58:12+06:00,
1000000000434887,77773402028,mKarTel,mMTS,mKarTel,D77,D01,2017-08-04T15:32:22+06:00,
1000000000434888,77777777257,mMTS,mAltel,mKarTel,D07,D77,2017-08-04T15:32:11+06:00,
1000000000434890,77005291959,mMTS,mAltel,mAltel,,D77,2017-08-04T15:33:13+06:00,
1000000000434891,77053430343,mKarTel,mMTS,mKarTel,D77,D01,2017-08-04T15:34:28+06:00,
1000000000434893,77077449419,mKcell,mMTS,mMTS,,D02,2017-08-04T15:35:26+06:00,
1000000000434896,77013724270,mMTS,mKcell,mKcell,,D77,2017-08-04T15:39:04+06:00,
1000000000434898,77077227024,mAltel,mMTS,mMTS,,D07,2017-08-04T15:39:23+06:00,
1000000000434899,77076844323,mKarTel,mMTS,mMTS,,D01,2017-08-04T15:40:29+06:00,
1000000000434900,77028910700,mAltel,mKcell,mKcell,,D07,2017-08-04T15:41:16+06:00,
1000000000434901,77011737478,mKarTel,mMTS,mKcell,D77,D01,2017-08-04T15:41:41+06:00,
1000000000434902,77015180555,mMTS,mKcell,mKcell,,D77,2017-08-04T15:43:10+06:00,
1000000000434904,77023442299,mKcell,mMTS,mKcell,D77,D02,2017-08-04T15:44:28+06:00,
1000000000434905,77072630964,mAltel,mMTS,mMTS,,D07,2017-08-04T15:44:52+06:00,
1000000000434907,77021886023,mKarTel,mKcell,mKcell,,D01,2017-08-04T15:49:22+06:00,
1000000000434908,77085555900,mKcell,mAltel,mAltel,,D02,2017-08-04T15:48:50+06:00,
1000000000434909,77761111691,mKarTel,mKcell,mKarTel,D02,D01,2017-08-04T15:50:22+06:00,
1000000000434910,77077051193,mAltel,mMTS,mMTS,,D07,2017-08-04T15:51:15+06:00,
1000000000434911,77012223088,mKcell,mKarTel,mKcell,D01,D02,2017-08-04T15:52:07+06:00,
1000000000434912,77017762276,mKarTel,mKcell,mKcell,,D01,2017-08-04T15:53:04+06:00,
1000000000434916,77017774493,mKarTel,mKcell,mKcell,,D01,2017-08-04T15:56:23+06:00,
1000000000434917,77020482799,mMTS,mKcell,mKcell,,D77,2017-08-04T15:56:11+06:00,
1000000000434918,77023111175,mAltel,mKcell,mKcell,,D07,2017-08-04T15:56:24+06:00,
1000000000434920,77072805005,mKarTel,mKcell,mMTS,D02,D01,2017-08-04T15:57:14+06:00,
1000000000434922,77754477710,mMTS,mKcell,mKcell,,D77,2017-08-04T15:58:44+06:00,
1000000000434923,77029009990,mKarTel,mKcell,mKcell,,D01,2017-08-04T15:59:38+06:00,
1000000000434924,77023824380,mKarTel,mKcell,mKcell,,D01,2017-08-04T15:59:49+06:00,
