NPId,Number,RecipientId,DonorId,RangeHolderId,OldRoute,NewRoute,PortDate,RowCount
1000000000227288,77010353380,mKarTel,mKcell,mKcell,,D01,2016-08-12T09:31:51+06:00,29
1000000000227288,77010353381,mKarTel,mKcell,mKcell,,D01,2016-08-12T09:31:51+06:00,
1000000000227288,77010353382,mKarTel,mKcell,mKcell,,D01,2016-08-12T09:31:51+06:00,
1000000000227288,77010543566,mKarTel,mKcell,mKcell,,D01,2016-08-12T09:31:51+06:00,
1000000000227288,77010543567,mKarTel,mKcell,mKcell,,D01,2016-08-12T09:31:51+06:00,
1000000000227288,77012028877,mKarTel,mKcell,mKcell,,D01,2016-08-12T09:31:51+06:00,
1000000000227288,77015380473,mKarTel,mKcell,mKcell,,D01,2016-08-12T09:31:51+06:00,
1000000000227288,77017119395,mKarTel,mKcell,mKcell,,D01,2016-08-12T09:31:51+06:00,
1000000000227288,77017228794,mKarTel,mKcell,mKcell,,D01,2016-08-12T09:31:51+06:00,
1000000000227288,77019147516,mKarTel,mKcell,mKcell,,D01,2016-08-12T09:31:51+06:00,
1000000000227288,77019516731,mKarTel,mKcell,mKcell,,D01,2016-08-12T09:31:51+06:00,
1000000000227288,77019528301,mKarTel,mKcell,mKcell,,D01,2016-08-12T09:31:51+06:00,
1000000000227288,77019528312,mKarTel,mKcell,mKcell,,D01,2016-08-12T09:31:51+06:00,
1000000000227288,77019528313,mKarTel,mKcell,mKcell,,D01,2016-08-12T09:31:51+06:00,
1000000000227288,77019528318,mKarTel,mKcell,mKcell,,D01,2016-08-12T09:31:51+06:00,
1000000000227288,77019528336,mKarTel,mKcell,mKcell,,D01,2016-08-12T09:31:51+06:00,
1000000000227288,77019528337,mKarTel,mKcell,mKcell,,D01,2016-08-12T09:31:51+06:00,
1000000000227288,77019528340,mKarTel,mKcell,mKcell,,D01,2016-08-12T09:31:51+06:00,
1000000000227288,77019528350,mKarTel,mKcell,mKcell,,D01,2016-08-12T09:31:51+06:00,
1000000000227288,77019528356,mKarTel,mKcell,mKcell,,D01,2016-08-12T09:31:51+06:00,
1000000000227288,77019648397,mKarTel,mKcell,mKcell,,D01,2016-08-12T09:31:51+06:00,
1000000000227288,77019814360,mKarTel,mKcell,mKcell,,D01,2016-08-12T09:31:51+06:00,
1000000000227288,77019814365,mKarTel,mKcell,mKcell,,D01,2016-08-12T09:31:51+06:00,
1000000000227288,77019814367,mKarTel,mKcell,mKcell,,D01,2016-08-12T09:31:51+06:00,
1000000000227832,77052031890,mMTS,mAltel,mKarTel,D07,D77,2016-08-12T09:35:48+06:00,
1000000000227833,77016120047,mAltel,mKcell,mKcell,,D07,2016-08-12T09:40:22+06:00,
1000000000227834,77758502280,mMTS,mKcell,mKcell,,D77,2016-08-12T09:49:30+06:00,
1000000000227835,77003635234,mKcell,mAltel,mAltel,,D02,2016-08-12T09:50:22+06:00,
1000000000227837,77017995858,mKarTel,mKcell,mKcell,,D01,2016-08-12T09:57:54+06:00,
