NPId,Number,RecipientId,DonorId,RangeHolderId,OldRoute,NewRoute,PortDate,RowCount
1000000000129882,77021204676,mAltel,mKcell,mKcell,,D07,2016-03-20T14:32:39+06:00,15
1000000000129884,77055555666,mAltel,mKarTel,mKarTel,,D07,2016-03-20T14:35:07+06:00,
1000000000129885,77021204690,mAltel,mKcell,mKcell,,D07,2016-03-20T14:34:56+06:00,
1000000000129886,77759546977,mMTS,mKcell,mKcell,,D77,2016-03-20T14:37:17+06:00,
1000000000129888,77029972297,mMTS,mKcell,mKcell,,D77,2016-03-20T14:38:09+06:00,
1000000000129889,77786664600,mMTS,mKcell,mKcell,,D77,2016-03-20T14:38:29+06:00,
1000000000129890,77017772579,mKarTel,mKcell,mKcell,,D01,2016-03-20T14:39:05+06:00,
1000000000129892,77018578776,mMTS,mKcell,mKcell,,D77,2016-03-20T14:39:47+06:00,
1000000000129895,77011117441,mKcell,mAltel,mKcell,D07,D02,2016-03-20T14:44:44+06:00,
1000000000129897,77028020099,mAltel,mKcell,mKcell,,D07,2016-03-20T14:47:42+06:00,
1000000000129900,77019897464,mAltel,mKcell,mKcell,,D07,2016-03-20T14:49:51+06:00,
1000000000129904,77011670617,mMTS,mKcell,mKcell,,D77,2016-03-20T14:52:00+06:00,
1000000000129906,77011302171,mMTS,mKcell,mKcell,,D77,2016-03-20T14:51:59+06:00,
1000000000129907,77014848001,mMTS,mKcell,mKcell,,D77,2016-03-20T14:53:46+06:00,
1000000000129908,77073582930,mKarTel,mMTS,mMTS,,D01,2016-03-20T14:54:32+06:00,
