NPId,Number,RecipientId,DonorId,RangeHolderId,OldRoute,NewRoute,PortDate,RowCount
1000000000339089,77711907909,mMTS,mKarTel,mKarTel,,D77,2017-03-02T11:33:34+06:00,30
1000000000339091,77711907898,mMTS,mKarTel,mKarTel,,D77,2017-03-02T11:35:09+06:00,
1000000000339092,77711907899,mMTS,mKarTel,mKarTel,,D77,2017-03-02T11:36:06+06:00,
1000000000339093,77711907908,mMTS,mKarTel,mKarTel,,D77,2017-03-02T11:36:51+06:00,
1000000000339098,77017279925,mKcell,mKarTel,mKcell,D01,D02,2017-03-02T11:41:23+06:00,
1000000000339143,77717807897,mMTS,mKarTel,mKarTel,,D77,2017-03-02T11:46:27+06:00,
1000000000339145,77710561375,mMTS,mKarTel,mKarTel,,D77,2017-03-02T11:46:36+06:00,
1000000000339147,77710561374,mMTS,mKarTel,mKarTel,,D77,2017-03-02T11:46:36+06:00,
1000000000339150,77710561378,mMTS,mKarTel,mKarTel,,D77,2017-03-02T11:46:27+06:00,
1000000000339151,77763696064,mMTS,mKarTel,mKarTel,,D77,2017-03-02T11:46:40+06:00,
1000000000339152,77772774504,mMTS,mKarTel,mKarTel,,D77,2017-03-02T11:46:36+06:00,
1000000000339153,77770070497,mMTS,mKarTel,mKarTel,,D77,2017-03-02T11:46:40+06:00,
1000000000339155,77719905914,mMTS,mKarTel,mKarTel,,D77,2017-03-02T11:46:39+06:00,
1000000000339156,77717807895,mMTS,mKarTel,mKarTel,,D77,2017-03-02T11:46:40+06:00,
1000000000339159,77005818081,mMTS,mAltel,mAltel,,D77,2017-03-02T11:33:08+06:00,
1000000000339161,77017421492,mKarTel,mKcell,mKcell,,D01,2017-03-02T11:37:08+06:00,
1000000000339162,77072120818,mKarTel,mMTS,mMTS,,D01,2017-03-02T11:36:55+06:00,
1000000000339163,77052122139,mMTS,mKarTel,mKarTel,,D77,2017-03-02T11:38:08+06:00,
1000000000339164,77051368392,mKarTel,mMTS,mKarTel,D77,D01,2017-03-02T11:39:06+06:00,
1000000000339166,77058880559,mMTS,mKarTel,mKarTel,,D77,2017-03-02T11:43:33+06:00,
1000000000339167,77023400801,mMTS,mKcell,mKcell,,D77,2017-03-02T11:46:00+06:00,
1000000000339168,77019370456,mKarTel,mKcell,mKcell,,D01,2017-03-02T11:49:03+06:00,
1000000000339169,77778585711,mKarTel,mKcell,mKarTel,D02,D01,2017-03-02T11:49:46+06:00,
1000000000339170,77017375606,mMTS,mKcell,mKcell,,D77,2017-03-02T11:49:32+06:00,
1000000000339171,77072020818,mKarTel,mMTS,mMTS,,D01,2017-03-02T11:49:53+06:00,
1000000000339172,77011767617,mKcell,mAltel,mKcell,D07,D02,2017-03-02T11:49:53+06:00,
1000000000339174,77052794298,mMTS,mKarTel,mKarTel,,D77,2017-03-02T11:53:19+06:00,
1000000000339175,77089521862,mMTS,mAltel,mAltel,,D77,2017-03-02T11:56:36+06:00,
1000000000339176,77059027946,mMTS,mKarTel,mKarTel,,D77,2017-03-02T11:57:47+06:00,
1000000000339178,77473329317,mKarTel,mMTS,mMTS,,D01,2017-03-02T11:59:56+06:00,
