NPId,Number,RecipientId,DonorId,RangeHolderId,OldRoute,NewRoute,PortDate,RowCount
1000000000152197,77770955790,mKcell,mKarTel,mKarTel,,D02,2016-04-14T19:04:08+06:00,9
1000000000152198,77015144701,mKcell,mAltel,mKcell,D07,D02,2016-04-14T19:06:07+06:00,
1000000000152199,77479182038,mKcell,mMTS,mMTS,,D02,2016-04-14T19:11:18+06:00,
1000000000152200,77477876812,mKcell,mMTS,mMTS,,D02,2016-04-14T19:12:35+06:00,
1000000000152201,77023375608,mMTS,mKcell,mKcell,,D77,2016-04-14T19:12:49+06:00,
1000000000152202,77000090099,mKcell,mAltel,mAltel,,D02,2016-04-14T19:15:14+06:00,
1000000000152203,77473514137,mKcell,mMTS,mMTS,,D02,2016-04-14T19:15:55+06:00,
1000000000152204,77000000882,mKcell,mAltel,mAltel,,D02,2016-04-14T19:15:54+06:00,
1000000000152207,77089864500,mKcell,mAltel,mAltel,,D02,2016-04-14T19:26:07+06:00,
