NPId,Number,RecipientId,DonorId,RangeHolderId,OldRoute,NewRoute,PortDate,RowCount
1000000000243867,77003453567,mMTS,mKcell,mAltel,D02,D77,2016-09-10T17:00:02+06:00,17
1000000000243871,77025511330,mMTS,mKcell,mKcell,,D77,2016-09-10T17:07:38+06:00,
1000000000243874,77029177777,mMTS,mKcell,mKcell,,D77,2016-09-10T17:08:53+06:00,
1000000000243875,77014753732,mMTS,mKcell,mKcell,,D77,2016-09-10T17:10:51+06:00,
1000000000243876,77017738624,mKarTel,mKcell,mKcell,,D01,2016-09-10T17:11:51+06:00,
1000000000243879,77767454601,mMTS,mKarTel,mKarTel,,D77,2016-09-10T17:13:54+06:00,
1000000000243881,77077698788,mAltel,mMTS,mMTS,,D07,2016-09-10T17:13:19+06:00,
1000000000243884,77770656936,mMTS,mKarTel,mKarTel,,D77,2016-09-10T17:18:34+06:00,
1000000000243885,77710161616,mMTS,mKarTel,mKarTel,,D77,2016-09-10T17:19:11+06:00,
1000000000243887,77077828777,mAltel,mMTS,mMTS,,D07,2016-09-10T17:19:07+06:00,
1000000000243888,77767509999,mMTS,mKarTel,mKarTel,,D77,2016-09-10T17:23:09+06:00,
1000000000243890,77003303335,mKarTel,mKcell,mAltel,D02,D01,2016-09-10T17:23:07+06:00,
1000000000243891,77781800880,mMTS,mKcell,mKcell,,D77,2016-09-10T17:22:56+06:00,
1000000000243893,77079851999,mMTS,mAltel,mMTS,D07,D77,2016-09-10T17:25:30+06:00,
1000000000243894,77086000915,mMTS,mAltel,mAltel,,D77,2016-09-10T17:25:44+06:00,
1000000000243895,77783685353,mMTS,mKcell,mKcell,,D77,2016-09-10T17:27:24+06:00,
1000000000243896,77013506618,mMTS,mKcell,mKcell,,D77,2016-09-10T17:29:23+06:00,
