NPId,Number,RecipientId,DonorId,RangeHolderId,OldRoute,NewRoute,PortDate,RowCount
1000000000142172,77052178737,mKcell,mKarTel,mKarTel,,D02,2016-04-04T17:13:01+06:00,46
1000000000142207,77018727031,mKarTel,mKcell,mKcell,,D01,2016-04-04T17:12:27+06:00,
1000000000142207,77019525744,mKarTel,mKcell,mKcell,,D01,2016-04-04T17:12:27+06:00,
1000000000142378,77772455580,mKcell,mKarTel,mKarTel,,D02,2016-04-04T17:05:26+06:00,
1000000000142383,77753399983,mKarTel,mKcell,mKcell,,D01,2016-04-04T17:05:44+06:00,
1000000000142386,77773703459,mMTS,mKarTel,mKarTel,,D77,2016-04-04T17:02:34+06:00,
1000000000142388,77017248106,mKarTel,mKcell,mKcell,,D01,2016-04-04T17:07:28+06:00,
1000000000142389,77753339760,mMTS,mKcell,mKcell,,D77,2016-04-04T17:07:03+06:00,
1000000000142392,77017077945,mKarTel,mKcell,mKcell,,D01,2016-04-04T17:07:27+06:00,
1000000000142394,77022014505,mKarTel,mKcell,mKcell,,D01,2016-04-04T17:07:27+06:00,
1000000000142396,77777602424,mKcell,mKarTel,mKarTel,,D02,2016-04-04T17:10:25+06:00,
1000000000142398,77755454687,mMTS,mKcell,mKcell,,D77,2016-04-04T17:08:06+06:00,
1000000000142399,77760000959,mKcell,mKarTel,mKarTel,,D02,2016-04-04T17:11:18+06:00,
1000000000142400,77029642001,mKarTel,mKcell,mKcell,,D01,2016-04-04T17:09:40+06:00,
1000000000142402,77015031395,mKcell,mAltel,mKcell,D07,D02,2016-04-04T17:10:26+06:00,
1000000000142402,77015220052,mKcell,mAltel,mKcell,D07,D02,2016-04-04T17:10:26+06:00,
1000000000142402,77015433152,mKcell,mAltel,mKcell,D07,D02,2016-04-04T17:10:26+06:00,
1000000000142402,77015882425,mKcell,mAltel,mKcell,D07,D02,2016-04-04T17:10:26+06:00,
1000000000142402,77017753050,mKcell,mAltel,mKcell,D07,D02,2016-04-04T17:10:26+06:00,
1000000000142402,77019143571,mKcell,mAltel,mKcell,D07,D02,2016-04-04T17:10:26+06:00,
1000000000142404,77015280703,mKarTel,mKcell,mKcell,,D01,2016-04-04T17:10:49+06:00,
1000000000142405,77019249715,mKcell,mKarTel,mKcell,D01,D02,2016-04-04T17:27:48+06:00,
1000000000142406,77719000077,mMTS,mKarTel,mKarTel,,D77,2016-04-04T17:12:28+06:00,
1000000000142407,77021128545,mKarTel,mKcell,mKcell,,D01,2016-04-04T17:13:35+06:00,
1000000000142408,77075016000,mKcell,mMTS,mMTS,,D02,2016-04-04T17:14:13+06:00,
1000000000142411,77025038032,mMTS,mKcell,mKcell,,D77,2016-04-04T17:15:01+06:00,
1000000000142412,77052625567,mMTS,mKarTel,mKarTel,,D77,2016-04-04T17:17:20+06:00,
1000000000142413,77026488988,mMTS,mKcell,mKcell,,D77,2016-04-04T17:17:39+06:00,
1000000000142414,77013933946,mKcell,mAltel,mKcell,D07,D02,2016-04-04T17:18:19+06:00,
1000000000142416,77011460190,mAltel,mKcell,mKcell,,D07,2016-04-04T17:18:30+06:00,
1000000000142417,77001246359,mKarTel,mAltel,mAltel,,D01,2016-04-04T17:19:59+06:00,
1000000000142418,77058305828,mMTS,mKarTel,mKarTel,,D77,2016-04-04T17:21:04+06:00,
1000000000142419,77712060777,mMTS,mKarTel,mKarTel,,D77,2016-04-04T17:21:41+06:00,
1000000000142420,77014514351,mMTS,mKcell,mKcell,,D77,2016-04-04T17:20:40+06:00,
1000000000142422,77029602121,mKarTel,mKcell,mKcell,,D01,2016-04-04T17:23:16+06:00,
1000000000142423,77087209937,mKarTel,mAltel,mAltel,,D01,2016-04-04T17:21:39+06:00,
1000000000142425,77773033398,mKcell,mKarTel,mKarTel,,D02,2016-04-04T17:24:51+06:00,
1000000000142426,77012937449,mMTS,mKcell,mKcell,,D77,2016-04-04T17:23:47+06:00,
1000000000142427,77015446335,mKarTel,mKcell,mKcell,,D01,2016-04-04T17:25:28+06:00,
1000000000142428,77055502333,mKcell,mKarTel,mKarTel,,D02,2016-04-04T17:27:48+06:00,
1000000000142430,77024437625,mMTS,mKcell,mKcell,,D77,2016-04-04T17:25:36+06:00,
1000000000142433,77759390246,mMTS,mKcell,mKcell,,D77,2016-04-04T17:27:59+06:00,
1000000000142434,77081511381,mMTS,mAltel,mAltel,,D77,2016-04-04T17:26:57+06:00,
1000000000142435,77013618134,mMTS,mKcell,mKcell,,D77,2016-04-04T17:29:02+06:00,
1000000000142437,77023113012,mKcell,mAltel,mKcell,D07,D02,2016-04-04T17:29:07+06:00,
1000000000142438,77019936765,mKcell,mAltel,mKcell,D07,D02,2016-04-04T17:29:52+06:00,
