NPId,Number,RecipientId,DonorId,RangeHolderId,OldRoute,NewRoute,PortDate,RowCount
1000000000262150,77012216512,mAltel,mKcell,mKcell,,D07,2016-10-14T14:27:07+06:00,24
1000000000262154,77015091919,mKarTel,mKcell,mKcell,,D01,2016-10-14T14:15:07+06:00,
1000000000262162,77012216518,mAltel,mKcell,mKcell,,D07,2016-10-14T14:29:58+06:00,
1000000000262166,77016800773,mMTS,mKcell,mKcell,,D77,2016-10-14T14:13:55+06:00,
1000000000262336,77719907593,mKcell,mKarTel,mKarTel,,D02,2016-10-14T14:01:31+06:00,
1000000000262340,77772036204,mKcell,mKarTel,mKarTel,,D02,2016-10-14T14:04:02+06:00,
1000000000262341,77772992140,mKcell,mKarTel,mKarTel,,D02,2016-10-14T14:05:15+06:00,
1000000000262343,77778220404,mKcell,mKarTel,mKarTel,,D02,2016-10-14T14:06:01+06:00,
1000000000262344,77772703314,mKcell,mKarTel,mKarTel,,D02,2016-10-14T14:06:29+06:00,
1000000000262352,77784404858,mMTS,mKarTel,mKcell,D01,D77,2016-10-14T14:00:04+06:00,
1000000000262353,77017112161,mAltel,mKcell,mKcell,,D07,2016-10-14T14:02:49+06:00,
1000000000262354,77781018108,mMTS,mKcell,mKcell,,D77,2016-10-14T14:01:57+06:00,
1000000000262355,77017573119,mMTS,mKcell,mKcell,,D77,2016-10-14T14:04:44+06:00,
1000000000262356,77773167780,mMTS,mKarTel,mKarTel,,D77,2016-10-14T14:05:08+06:00,
1000000000262357,77081052860,mAltel,mMTS,mAltel,D77,D07,2016-10-14T14:05:20+06:00,
1000000000262359,77770383883,mAltel,mKcell,mKarTel,D02,D07,2016-10-14T14:06:52+06:00,
1000000000262361,77052065555,mAltel,mKarTel,mKarTel,,D07,2016-10-14T14:11:07+06:00,
1000000000262363,77016120030,mAltel,mKcell,mKcell,,D07,2016-10-14T14:12:31+06:00,
1000000000262364,77471105923,mKarTel,mMTS,mMTS,,D01,2016-10-14T14:14:03+06:00,
1000000000262365,77018189994,mKarTel,mKcell,mKcell,,D01,2016-10-14T14:15:02+06:00,
1000000000262366,77073050000,mKcell,mMTS,mMTS,,D02,2016-10-14T14:15:22+06:00,
1000000000262370,77477011600,mKarTel,mMTS,mMTS,,D01,2016-10-14T14:26:49+06:00,
1000000000262373,77057051030,mMTS,mKarTel,mKarTel,,D77,2016-10-14T14:29:32+06:00,
1000000000262374,77015222021,mAltel,mKcell,mKcell,,D07,2016-10-14T14:29:59+06:00,
