NPId,Number,RecipientId,DonorId,RangeHolderId,OldRoute,NewRoute,PortDate,RowCount
1000000000362693,77015905353,mAltel,mKcell,mKcell,,D07,2017-04-09T11:30:02+06:00,15
1000000000362694,77472576381,mKarTel,mMTS,mMTS,,D01,2017-04-09T11:39:34+06:00,
1000000000362695,77769898898,mMTS,mKarTel,mKarTel,,D77,2017-04-09T11:40:29+06:00,
1000000000362697,77000006808,mKarTel,mAltel,mAltel,,D01,2017-04-09T11:42:33+06:00,
1000000000362698,77055758203,mMTS,mKarTel,mKarTel,,D77,2017-04-09T11:43:21+06:00,
1000000000362699,77012223715,mKcell,mAltel,mKcell,D07,D02,2017-04-09T11:43:19+06:00,
1000000000362700,77007002030,mKcell,mAltel,mAltel,,D02,2017-04-09T11:43:25+06:00,
1000000000362701,77716776633,mMTS,mKarTel,mKarTel,,D77,2017-04-09T11:48:10+06:00,
1000000000362702,77052388774,mAltel,mKarTel,mKarTel,,D07,2017-04-09T11:49:55+06:00,
1000000000362704,77027797979,mMTS,mKcell,mKcell,,D77,2017-04-09T11:52:54+06:00,
1000000000362705,77754890226,mMTS,mKcell,mKcell,,D77,2017-04-09T11:52:53+06:00,
1000000000362706,77772041002,mMTS,mKarTel,mKarTel,,D77,2017-04-09T11:54:45+06:00,
1000000000362707,77089421007,mMTS,mAltel,mAltel,,D77,2017-04-09T11:57:45+06:00,
1000000000362708,77784645837,mMTS,mKcell,mKcell,,D77,2017-04-09T11:58:15+06:00,
1000000000362709,77718881994,mKcell,mKarTel,mKarTel,,D02,2017-04-09T11:59:30+06:00,
