NPId,Number,RecipientId,DonorId,RangeHolderId,OldRoute,NewRoute,PortDate,RowCount
1000000000149853,77017859820,mMTS,mKcell,mKcell,,D77,2016-04-13T09:21:28+06:00,28
1000000000149856,77017859828,mMTS,mKcell,mKcell,,D77,2016-04-13T09:19:39+06:00,
1000000000149884,77017859811,mMTS,mKcell,mKcell,,D77,2016-04-13T09:18:53+06:00,
1000000000149886,77017859834,mMTS,mKcell,mKcell,,D77,2016-04-13T09:20:14+06:00,
1000000000149905,77017859836,mMTS,mKcell,mKcell,,D77,2016-04-13T09:17:46+06:00,
1000000000149932,77017859844,mMTS,mKcell,mKcell,,D77,2016-04-13T09:17:09+06:00,
1000000000149937,77017987208,mMTS,mKcell,mKcell,,D77,2016-04-13T09:16:23+06:00,
1000000000149939,77017859829,mMTS,mKcell,mKcell,,D77,2016-04-13T09:15:09+06:00,
1000000000150038,77017987207,mMTS,mKcell,mKcell,,D77,2016-04-13T09:22:17+06:00,
1000000000150041,77017859846,mMTS,mKcell,mKcell,,D77,2016-04-13T09:20:53+06:00,
1000000000150045,77017987221,mMTS,mKcell,mKcell,,D77,2016-04-13T09:23:19+06:00,
1000000000150046,77017987210,mMTS,mKcell,mKcell,,D77,2016-04-13T09:28:48+06:00,
1000000000150052,77019910562,mMTS,mKcell,mKcell,,D77,2016-04-13T09:28:09+06:00,
1000000000150063,77012186459,mKarTel,mKcell,mKcell,,D01,2016-04-13T09:24:53+06:00,
1000000000150422,77018868753,mKarTel,mKcell,mKcell,,D01,2016-04-13T09:06:30+06:00,
1000000000150423,77012130770,mKarTel,mKcell,mKcell,,D01,2016-04-13T09:06:32+06:00,
1000000000150424,77472683954,mKarTel,mMTS,mMTS,,D01,2016-04-13T09:06:29+06:00,
1000000000150425,77012669483,mKarTel,mKcell,mKcell,,D01,2016-04-13T09:27:28+06:00,
1000000000150425,77017337103,mKarTel,mKcell,mKcell,,D01,2016-04-13T09:27:28+06:00,
1000000000150426,77473021383,mKcell,mMTS,mMTS,,D02,2016-04-13T09:02:57+06:00,
1000000000150427,77473021392,mKcell,mMTS,mMTS,,D02,2016-04-13T09:02:58+06:00,
1000000000150428,77473021422,mKcell,mMTS,mMTS,,D02,2016-04-13T09:03:15+06:00,
1000000000150432,77768010101,mMTS,mKarTel,mKarTel,,D77,2016-04-13T09:19:33+06:00,
1000000000150433,77019248810,mMTS,mKcell,mKcell,,D77,2016-04-13T09:22:17+06:00,
1000000000150434,77011119181,mKarTel,mKcell,mKcell,,D01,2016-04-13T09:24:51+06:00,
1000000000150435,77019249080,mKarTel,mKcell,mKcell,,D01,2016-04-13T09:25:30+06:00,
1000000000150436,77079990908,mKcell,mMTS,mMTS,,D02,2016-04-13T09:25:21+06:00,
1000000000150437,77783761538,mMTS,mKcell,mKcell,,D77,2016-04-13T09:27:09+06:00,
