NPId,Number,RecipientId,DonorId,RangeHolderId,OldRoute,NewRoute,PortDate,RowCount
1000000000214013,77015119424,mKarTel,mKcell,mKcell,,D01,2016-07-20T15:27:29+06:00,31
1000000000214229,77477988899,mKcell,mMTS,mMTS,,D02,2016-07-20T15:00:50+06:00,
1000000000214231,77074777193,mKarTel,mMTS,mMTS,,D01,2016-07-20T15:00:05+06:00,
1000000000214232,77001395714,mMTS,mAltel,mAltel,,D77,2016-07-20T15:01:16+06:00,
1000000000214234,77058322476,mMTS,mKarTel,mKarTel,,D77,2016-07-20T15:06:05+06:00,
1000000000214235,77013272770,mMTS,mKcell,mKcell,,D77,2016-07-20T15:06:14+06:00,
1000000000214237,77059892924,mMTS,mKarTel,mKarTel,,D77,2016-07-20T15:06:32+06:00,
1000000000214238,77013111222,mKarTel,mKcell,mKcell,,D01,2016-07-20T15:06:43+06:00,
1000000000214239,77024092707,mKcell,mMTS,mKcell,D77,D02,2016-07-20T15:06:43+06:00,
1000000000214240,77014334298,mAltel,mKcell,mKcell,,D07,2016-07-20T15:10:49+06:00,
1000000000214241,77023988778,mMTS,mKcell,mKcell,,D77,2016-07-20T15:10:45+06:00,
1000000000214242,77084818282,mKcell,mAltel,mAltel,,D02,2016-07-20T15:12:38+06:00,
1000000000214244,77009182522,mKarTel,mAltel,mAltel,,D01,2016-07-20T15:12:51+06:00,
1000000000214245,77017254929,mKarTel,mKcell,mKcell,,D01,2016-07-20T15:13:46+06:00,
1000000000214246,77083023388,mAltel,mKcell,mAltel,D02,D07,2016-07-20T15:14:23+06:00,
1000000000214249,77011220432,mMTS,mKcell,mKcell,,D77,2016-07-20T15:18:50+06:00,
1000000000214250,77713594349,mKcell,mKarTel,mKarTel,,D02,2016-07-20T15:18:48+06:00,
1000000000214251,77023515161,mMTS,mKcell,mKcell,,D77,2016-07-20T15:16:46+06:00,
1000000000214252,77083331305,mKcell,mAltel,mAltel,,D02,2016-07-20T15:20:17+06:00,
1000000000214253,77017739818,mKarTel,mKcell,mKcell,,D01,2016-07-20T15:18:44+06:00,
1000000000214254,77015329044,mMTS,mKcell,mKcell,,D77,2016-07-20T15:20:20+06:00,
1000000000214255,77056640486,mMTS,mKarTel,mKarTel,,D77,2016-07-20T15:19:48+06:00,
1000000000214257,77712199998,mKcell,mKarTel,mKarTel,,D02,2016-07-20T15:22:49+06:00,
1000000000214258,77474381656,mKcell,mMTS,mMTS,,D02,2016-07-20T15:21:22+06:00,
1000000000214259,77081552014,mAltel,mMTS,mAltel,D77,D07,2016-07-20T15:22:30+06:00,
1000000000214260,77757314142,mKarTel,mKcell,mKcell,,D01,2016-07-20T15:23:20+06:00,
1000000000214261,77018088009,mKarTel,mKcell,mKcell,,D01,2016-07-20T15:24:46+06:00,
1000000000214262,77753559282,mMTS,mKcell,mKcell,,D77,2016-07-20T15:24:34+06:00,
1000000000214263,77017336596,mKarTel,mKcell,mKcell,,D01,2016-07-20T15:26:56+06:00,
1000000000214264,77474030221,mKarTel,mMTS,mMTS,,D01,2016-07-20T15:28:18+06:00,
1000000000214265,77012888899,mKarTel,mKcell,mKcell,,D01,2016-07-20T15:28:52+06:00,
