NPId,Number,RecipientId,DonorId,RangeHolderId,OldRoute,NewRoute,PortDate,RowCount
1000000000418618,77051005313,mKcell,mKarTel,mKarTel,,D02,2017-07-09T15:31:14+06:00,5
1000000000418620,77789422378,mKarTel,mKcell,mKcell,,D01,2017-07-09T15:38:52+06:00,
1000000000418621,77475558898,mKarTel,mMTS,mMTS,,D01,2017-07-09T15:45:55+06:00,
1000000000418622,77026051001,mAltel,mKcell,mKcell,,D07,2017-07-09T15:50:39+06:00,
1000000000418624,77082102475,mMTS,mAltel,mAltel,,D77,2017-07-09T15:54:11+06:00,
