NPId,Number,RecipientId,DonorId,RangeHolderId,OldRoute,NewRoute,PortDate,RowCount
1000000000215184,77015705237,mMTS,mKcell,mKcell,,D77,2016-07-21T21:01:53+06:00,2
1000000000215185,77051821136,mKcell,mKarTel,mKarTel,,D02,2016-07-21T21:10:36+06:00,
