NPId,Number,RecipientId,DonorId,RangeHolderId,OldRoute,NewRoute,PortDate,RowCount
1000000000184224,77777013528,mMTS,mAltel,mKarTel,D07,D77,2016-05-31T09:02:08+06:00,9
1000000000184225,77711917061,mMTS,mKarTel,mKarTel,,D77,2016-05-31T09:09:32+06:00,
1000000000184226,77014298510,mMTS,mKcell,mKcell,,D77,2016-05-31T09:10:02+06:00,
1000000000184227,77760138111,mAltel,mKarTel,mKarTel,,D07,2016-05-31T09:12:44+06:00,
1000000000184228,77017996810,mMTS,mKcell,mKcell,,D77,2016-05-31T09:13:09+06:00,
1000000000184229,77027025555,mKarTel,mKcell,mKcell,,D01,2016-05-31T09:26:29+06:00,
1000000000184232,77051958877,mMTS,mKarTel,mKarTel,,D77,2016-05-31T09:21:28+06:00,
1000000000184234,77714134643,mMTS,mKarTel,mKarTel,,D77,2016-05-31T09:28:06+06:00,
1000000000184235,77014982225,mKarTel,mKcell,mKcell,,D01,2016-05-31T09:28:48+06:00,
