NPId,Number,RecipientId,DonorId,RangeHolderId,OldRoute,NewRoute,PortDate,RowCount
1000000000179646,77007775505,mKcell,mAltel,mAltel,,D02,2016-05-23T18:21:03+06:00,26
1000000000179692,77073066394,mKarTel,mMTS,mMTS,,D01,2016-05-23T18:00:51+06:00,
1000000000179693,77014443519,mKarTel,mKcell,mKcell,,D01,2016-05-23T18:01:27+06:00,
1000000000179694,77087032313,mMTS,mAltel,mAltel,,D77,2016-05-23T18:01:06+06:00,
1000000000179695,77473674406,mKcell,mMTS,mMTS,,D02,2016-05-23T18:04:12+06:00,
1000000000179696,77024458511,mMTS,mKcell,mKcell,,D77,2016-05-23T18:04:01+06:00,
1000000000179697,77716626162,mKcell,mKarTel,mKarTel,,D02,2016-05-23T18:06:54+06:00,
1000000000179698,77775000995,mKcell,mKarTel,mKarTel,,D02,2016-05-23T18:09:02+06:00,
1000000000179699,77007776747,mAltel,mKarTel,mAltel,D01,D07,2016-05-23T18:10:07+06:00,
1000000000179700,77003474792,mMTS,mAltel,mAltel,,D77,2016-05-23T18:12:05+06:00,
1000000000179702,77021816516,mMTS,mKcell,mKcell,,D77,2016-05-23T18:12:37+06:00,
1000000000179703,77075521538,mKarTel,mMTS,mMTS,,D01,2016-05-23T18:13:04+06:00,
1000000000179703,77077718031,mKarTel,mMTS,mMTS,,D01,2016-05-23T18:13:04+06:00,
1000000000179703,77077718187,mKarTel,mMTS,mMTS,,D01,2016-05-23T18:13:04+06:00,
1000000000179703,77077718765,mKarTel,mMTS,mMTS,,D01,2016-05-23T18:13:04+06:00,
1000000000179703,77077718766,mKarTel,mMTS,mMTS,,D01,2016-05-23T18:13:04+06:00,
1000000000179703,77077718774,mKarTel,mMTS,mMTS,,D01,2016-05-23T18:13:04+06:00,
1000000000179703,77079989874,mKarTel,mMTS,mMTS,,D01,2016-05-23T18:13:04+06:00,
1000000000179705,77028666960,mMTS,mKcell,mKcell,,D77,2016-05-23T18:14:42+06:00,
1000000000179706,77777422073,mMTS,mKarTel,mKarTel,,D77,2016-05-23T18:17:39+06:00,
1000000000179707,77029998215,mMTS,mKcell,mKcell,,D77,2016-05-23T18:19:50+06:00,
1000000000179709,77002373632,mMTS,mAltel,mAltel,,D77,2016-05-23T18:22:05+06:00,
1000000000179711,77085475220,mMTS,mAltel,mAltel,,D77,2016-05-23T18:26:23+06:00,
1000000000179713,77081083738,mMTS,mAltel,mAltel,,D77,2016-05-23T18:27:05+06:00,
1000000000179714,77776429211,mMTS,mKarTel,mKarTel,,D77,2016-05-23T18:27:23+06:00,
1000000000179715,77789440180,mMTS,mKcell,mKcell,,D77,2016-05-23T18:27:25+06:00,
