NPId,Number,RecipientId,DonorId,RangeHolderId,OldRoute,NewRoute,PortDate,RowCount
1000000000304120,77782629814,mMTS,mKcell,mKcell,,D77,2016-12-31T17:01:52+06:00,9
1000000000304122,77718888009,mKcell,mKarTel,mKarTel,,D02,2016-12-31T17:08:09+06:00,
1000000000304123,77782629738,mMTS,mKcell,mKcell,,D77,2016-12-31T17:13:20+06:00,
1000000000304124,77017606989,mKcell,mKarTel,mKcell,D01,D02,2016-12-31T17:14:04+06:00,
1000000000304125,77719010066,mAltel,mKarTel,mKarTel,D01,D07,2016-12-31T17:14:38+06:00,
1000000000304126,77017779726,mMTS,mKcell,mKcell,,D77,2016-12-31T17:17:45+06:00,
1000000000304127,77718562662,mMTS,mKarTel,mKarTel,,D77,2016-12-31T17:17:55+06:00,
1000000000304128,77756533649,mMTS,mKcell,mKcell,,D77,2016-12-31T17:22:45+06:00,
1000000000304129,77011115326,mKarTel,mKcell,mKcell,,D01,2016-12-31T17:23:20+06:00,
