NPId,Number,RecipientId,DonorId,RangeHolderId,OldRoute,NewRoute,PortDate,RowCount
1000000000283317,77085132525,mAltel,mMTS,mAltel,D77,D07,2016-11-24T09:32:22+06:00,7
1000000000283318,77471203286,mAltel,mMTS,mMTS,,D07,2016-11-24T09:37:40+06:00,
1000000000283319,77077558888,mMTS,mKcell,mMTS,D02,D77,2016-11-24T09:38:15+06:00,
1000000000283321,77018874482,mAltel,mMTS,mKcell,D77,D07,2016-11-24T09:45:17+06:00,
1000000000283322,77771669578,mKarTel,mMTS,mKarTel,D77,D01,2016-11-24T09:51:17+06:00,
1000000000283323,77072016637,mKarTel,mMTS,mMTS,,D01,2016-11-24T09:57:07+06:00,
1000000000283324,77059010207,mMTS,mKarTel,mKarTel,,D77,2016-11-24T09:58:49+06:00,
