NPId,Number,RecipientId,DonorId,RangeHolderId,OldRoute,NewRoute,PortDate,RowCount
1000000000361467,77015998797,mMTS,mKcell,mKcell,,D77,2017-04-07T12:00:00+06:00,38
1000000000361469,77074618553,mAltel,mMTS,mMTS,,D07,2017-04-07T12:02:04+06:00,
1000000000361470,77770414455,mKcell,mKarTel,mKarTel,,D02,2017-04-07T12:02:51+06:00,
1000000000361471,77015701968,mMTS,mKcell,mKcell,,D77,2017-04-07T12:03:15+06:00,
1000000000361473,77774111103,mKarTel,mAltel,mKarTel,D07,D01,2017-04-07T12:03:35+06:00,
1000000000361474,77054733071,mKcell,mKarTel,mKarTel,,D02,2017-04-07T12:05:26+06:00,
1000000000361477,77473700815,mAltel,mMTS,mMTS,,D07,2017-04-07T12:07:02+06:00,
1000000000361479,77015127612,mAltel,mKcell,mKcell,,D07,2017-04-07T12:07:53+06:00,
1000000000361481,77013399529,mKarTel,mKcell,mKcell,,D01,2017-04-07T12:08:53+06:00,
1000000000361483,77711777999,mKcell,mKarTel,mKarTel,,D02,2017-04-07T12:09:33+06:00,
1000000000361484,77015059513,mKcell,mMTS,mKcell,D77,D02,2017-04-07T12:09:48+06:00,
1000000000361485,77054952331,mAltel,mKarTel,mKarTel,D01,D07,2017-04-07T12:09:58+06:00,
1000000000361486,77023405898,mMTS,mKcell,mKcell,,D77,2017-04-07T12:11:52+06:00,
1000000000361487,77770334343,mMTS,mKarTel,mKarTel,,D77,2017-04-07T12:13:15+06:00,
1000000000361488,77081099058,mMTS,mAltel,mAltel,,D77,2017-04-07T12:12:59+06:00,
1000000000361489,77011111769,mKarTel,mKcell,mKcell,,D01,2017-04-07T12:13:49+06:00,
1000000000361490,77015227864,mMTS,mKcell,mKcell,,D77,2017-04-07T12:13:35+06:00,
1000000000361492,77005557848,mKcell,mAltel,mAltel,,D02,2017-04-07T12:14:17+06:00,
1000000000361493,77079619520,mAltel,mMTS,mMTS,,D07,2017-04-07T12:14:11+06:00,
1000000000361494,77028364480,mMTS,mKcell,mKcell,,D77,2017-04-07T12:16:03+06:00,
1000000000361495,77776238232,mMTS,mKarTel,mKarTel,,D77,2017-04-07T12:17:12+06:00,
1000000000361496,77758819757,mMTS,mKcell,mKcell,,D77,2017-04-07T12:17:18+06:00,
1000000000361498,77001113828,mKcell,mAltel,mAltel,,D02,2017-04-07T12:18:40+06:00,
1000000000361499,77471766935,mKarTel,mMTS,mMTS,,D01,2017-04-07T12:18:44+06:00,
1000000000361500,77015301147,mKcell,mKarTel,mKcell,D01,D02,2017-04-07T12:19:30+06:00,
1000000000361501,77757568888,mKarTel,mKcell,mKcell,,D01,2017-04-07T12:19:23+06:00,
1000000000361502,77082056507,mKarTel,mAltel,mAltel,,D01,2017-04-07T12:19:17+06:00,
1000000000361503,77758819338,mMTS,mKcell,mKcell,,D77,2017-04-07T12:19:39+06:00,
1000000000361504,77015346107,mKcell,mKarTel,mKcell,D01,D02,2017-04-07T12:20:40+06:00,
1000000000361505,77013643761,mMTS,mKcell,mKcell,,D77,2017-04-07T12:20:30+06:00,
1000000000361507,77013012802,mMTS,mKcell,mKcell,,D77,2017-04-07T12:22:15+06:00,
1000000000361508,77758819330,mMTS,mKcell,mKcell,,D77,2017-04-07T12:22:48+06:00,
1000000000361509,77004027994,mMTS,mAltel,mAltel,,D77,2017-04-07T12:24:07+06:00,
1000000000361510,77758819252,mMTS,mKcell,mKcell,,D77,2017-04-07T12:25:36+06:00,
1000000000361511,77017608500,mKarTel,mKcell,mKcell,,D01,2017-04-07T12:26:03+06:00,
1000000000361512,77010325394,mKcell,mKarTel,mKcell,D01,D02,2017-04-07T12:26:59+06:00,
1000000000361513,77784454444,mKarTel,mMTS,mKcell,D77,D01,2017-04-07T12:28:11+06:00,
1000000000361514,77758818517,mMTS,mKcell,mKcell,,D77,2017-04-07T12:29:09+06:00,
