NPId,Number,RecipientId,DonorId,RangeHolderId,OldRoute,NewRoute,PortDate,RowCount
1000000000374455,77475422326,mKcell,mMTS,mMTS,,D02,2017-04-29T13:00:21+06:00,27
1000000000374456,77077170355,mKcell,mMTS,mMTS,,D02,2017-04-29T13:00:58+06:00,
1000000000374457,77762446321,mKcell,mMTS,mKarTel,D77,D02,2017-04-29T13:02:58+06:00,
1000000000374458,77075424168,mKcell,mMTS,mMTS,,D02,2017-04-29T13:04:08+06:00,
1000000000374459,77017932922,mKcell,mKarTel,mKcell,D01,D02,2017-04-29T13:05:39+06:00,
1000000000374460,77772430764,mKarTel,mMTS,mKarTel,D77,D01,2017-04-29T13:07:01+06:00,
1000000000374462,77081070480,mMTS,mAltel,mAltel,,D77,2017-04-29T13:08:35+06:00,
1000000000374463,77086000590,mMTS,mAltel,mAltel,,D77,2017-04-29T13:10:02+06:00,
1000000000374464,77770707778,mKarTel,mKcell,mKarTel,D02,D01,2017-04-29T13:11:16+06:00,
1000000000374465,77052556035,mKarTel,mMTS,mKarTel,D77,D01,2017-04-29T13:12:02+06:00,
1000000000374466,77072053037,mKcell,mMTS,mMTS,,D02,2017-04-29T13:13:02+06:00,
1000000000374467,77752817534,mMTS,mKcell,mKcell,,D77,2017-04-29T13:12:57+06:00,
1000000000374468,77017548384,mMTS,mKcell,mKcell,,D77,2017-04-29T13:13:14+06:00,
1000000000374470,77073171001,mKcell,mMTS,mMTS,,D02,2017-04-29T13:14:06+06:00,
1000000000374472,77072770424,mKarTel,mMTS,mMTS,,D01,2017-04-29T13:15:52+06:00,
1000000000374473,77754252550,mKarTel,mKcell,mKcell,,D01,2017-04-29T13:16:03+06:00,
1000000000374474,77789239040,mMTS,mKcell,mKcell,,D77,2017-04-29T13:16:08+06:00,
1000000000374475,77017993715,mMTS,mKcell,mKcell,,D77,2017-04-29T13:17:08+06:00,
1000000000374477,77026497137,mKarTel,mMTS,mKcell,D77,D01,2017-04-29T13:17:40+06:00,
1000000000374478,77754491999,mKarTel,mKcell,mKcell,,D01,2017-04-29T13:19:27+06:00,
1000000000374479,77029113991,mAltel,mKcell,mKcell,,D07,2017-04-29T13:19:23+06:00,
1000000000374480,77059998092,mKarTel,mAltel,mKarTel,D07,D01,2017-04-29T13:19:27+06:00,
1000000000374481,77052307342,mKarTel,mMTS,mKarTel,D77,D01,2017-04-29T13:20:38+06:00,
1000000000374484,77772823007,mMTS,mKarTel,mKarTel,,D77,2017-04-29T13:25:18+06:00,
1000000000374485,77015140001,mMTS,mKcell,mKcell,,D77,2017-04-29T13:25:00+06:00,
1000000000374486,77085889013,mMTS,mAltel,mAltel,,D77,2017-04-29T13:27:08+06:00,
1000000000374487,77011777765,mAltel,mKcell,mKcell,,D07,2017-04-29T13:29:26+06:00,
