NPId,Number,RecipientId,DonorId,RangeHolderId,OldRoute,NewRoute,PortDate,RowCount
1000000000240775,77076997698,mKcell,mMTS,mMTS,,D02,2016-09-05T16:30:00+06:00,34
1000000000240776,77052024686,mKarTel,mAltel,mKarTel,D07,D01,2016-09-05T16:30:21+06:00,
1000000000240777,77028700929,mMTS,mKcell,mKcell,,D77,2016-09-05T16:31:06+06:00,
1000000000240778,77771496860,mMTS,mKarTel,mKarTel,,D77,2016-09-05T16:31:56+06:00,
1000000000240779,77013336696,mMTS,mKcell,mKcell,,D77,2016-09-05T16:31:40+06:00,
1000000000240781,77072295828,mKcell,mMTS,mMTS,,D02,2016-09-05T16:32:08+06:00,
1000000000240783,77013373699,mKcell,mMTS,mKcell,D77,D02,2016-09-05T16:35:08+06:00,
1000000000240784,77017664544,mKcell,mAltel,mKcell,D07,D02,2016-09-05T16:35:17+06:00,
1000000000240785,77013904617,mKarTel,mKcell,mKcell,,D01,2016-09-05T16:35:26+06:00,
1000000000240786,77756757929,mMTS,mKcell,mKcell,,D77,2016-09-05T16:35:17+06:00,
1000000000240787,77752178478,mMTS,mKcell,mKcell,,D77,2016-09-05T16:38:04+06:00,
1000000000240788,77772237500,mMTS,mKarTel,mKarTel,,D77,2016-09-05T16:38:04+06:00,
1000000000240790,77085000001,mMTS,mAltel,mAltel,,D77,2016-09-05T16:38:25+06:00,
1000000000240791,77051926632,mAltel,mKarTel,mKarTel,,D07,2016-09-05T16:39:02+06:00,
1000000000240792,77711461417,mAltel,mKarTel,mKarTel,,D07,2016-09-05T16:39:34+06:00,
1000000000240793,77077050694,mKarTel,mMTS,mMTS,,D01,2016-09-05T16:39:25+06:00,
1000000000240794,77775603973,mAltel,mKarTel,mKarTel,,D07,2016-09-05T16:41:45+06:00,
1000000000240795,77019412171,mAltel,mKcell,mKcell,,D07,2016-09-05T16:41:34+06:00,
1000000000240796,77712150780,mAltel,mKarTel,mKarTel,,D07,2016-09-05T16:42:44+06:00,
1000000000240798,77788489900,mMTS,mKcell,mKcell,,D77,2016-09-05T16:44:53+06:00,
1000000000240800,77477777656,mAltel,mKarTel,mMTS,D01,D07,2016-09-05T16:46:04+06:00,
1000000000240801,77776777077,mKcell,mAltel,mKarTel,D07,D02,2016-09-05T16:46:08+06:00,
1000000000240802,77767040709,mMTS,mKarTel,mKarTel,,D77,2016-09-05T16:47:50+06:00,
1000000000240803,77077774200,mKcell,mMTS,mMTS,,D02,2016-09-05T16:47:54+06:00,
1000000000240804,77479574350,mKcell,mMTS,mMTS,,D02,2016-09-05T16:48:01+06:00,
1000000000240805,77758261714,mKarTel,mKcell,mKcell,,D01,2016-09-05T16:49:21+06:00,
1000000000240806,77774110440,mMTS,mKarTel,mKarTel,,D77,2016-09-05T16:50:04+06:00,
1000000000240808,77475550336,mKarTel,mMTS,mMTS,,D01,2016-09-05T16:52:05+06:00,
1000000000240810,77015341516,mKarTel,mKcell,mKcell,,D01,2016-09-05T16:53:38+06:00,
1000000000240811,77474844346,mKarTel,mMTS,mMTS,D77,D01,2016-09-05T16:53:47+06:00,
1000000000240812,77013340777,mKarTel,mKcell,mKcell,,D01,2016-09-05T16:55:26+06:00,
1000000000240813,77756605895,mKcell,mMTS,mKcell,D77,D02,2016-09-05T16:56:11+06:00,
1000000000240814,77757122298,mMTS,mKcell,mKcell,,D77,2016-09-05T16:56:37+06:00,
1000000000240815,77022490198,mMTS,mKcell,mKcell,,D77,2016-09-05T16:57:20+06:00,
