NPId,Number,RecipientId,DonorId,RangeHolderId,OldRoute,NewRoute,PortDate,RowCount
1000000000248186,77079181190,mAltel,mMTS,mMTS,,D07,2016-09-20T10:00:08+06:00,21
1000000000248187,77773314300,mMTS,mKarTel,mKarTel,,D77,2016-09-20T10:02:34+06:00,
1000000000248188,77077470708,mMTS,mAltel,mMTS,D07,D77,2016-09-20T10:01:21+06:00,
1000000000248191,77015559882,mMTS,mKarTel,mKcell,D01,D77,2016-09-20T10:04:27+06:00,
1000000000248193,77763333493,mMTS,mKarTel,mKarTel,,D77,2016-09-20T10:06:05+06:00,
1000000000248194,77072135242,mMTS,mAltel,mMTS,D07,D77,2016-09-20T10:04:57+06:00,
1000000000248195,77714511101,mKarTel,mMTS,mKarTel,D77,D01,2016-09-20T10:06:01+06:00,
1000000000248196,77052537707,mMTS,mKarTel,mKarTel,,D77,2016-09-20T10:09:25+06:00,
1000000000248199,77054778861,mMTS,mKarTel,mKarTel,,D77,2016-09-20T10:15:52+06:00,
1000000000248200,77780005544,mAltel,mKcell,mKcell,,D07,2016-09-20T10:14:31+06:00,
1000000000248201,77007474474,mAltel,mMTS,mAltel,D77,D07,2016-09-20T10:15:04+06:00,
1000000000248202,77007907111,mKarTel,mAltel,mAltel,,D01,2016-09-20T10:16:37+06:00,
1000000000248203,77015207673,mMTS,mKcell,mKcell,,D77,2016-09-20T10:17:26+06:00,
1000000000248204,77079191996,mMTS,mKcell,mMTS,D02,D77,2016-09-20T10:18:20+06:00,
1000000000248205,77789853426,mMTS,mKcell,mKcell,,D77,2016-09-20T10:19:45+06:00,
1000000000248207,77023633233,mMTS,mKcell,mKcell,,D77,2016-09-20T10:21:06+06:00,
1000000000248208,77075275921,mAltel,mMTS,mMTS,,D07,2016-09-20T10:22:06+06:00,
1000000000248209,77077191996,mMTS,mKcell,mMTS,D02,D77,2016-09-20T10:22:45+06:00,
1000000000248210,77007773963,mKcell,mAltel,mAltel,,D02,2016-09-20T10:24:21+06:00,
1000000000248211,77772428074,mKarTel,mMTS,mKarTel,D77,D01,2016-09-20T10:25:56+06:00,
1000000000248212,77023443097,mMTS,mKcell,mKcell,,D77,2016-09-20T10:27:33+06:00,
