NPId,Number,RecipientId,DonorId,RangeHolderId,OldRoute,NewRoute,PortDate,RowCount
1000000000416116,77015557219,mMTS,mKcell,mKcell,,D77,2017-07-04T14:00:36+06:00,9
1000000000416118,77757877769,mAltel,mKcell,mKcell,,D07,2017-07-04T14:05:08+06:00,
1000000000416119,77753175400,mAltel,mKcell,mKcell,,D07,2017-07-04T14:06:47+06:00,
1000000000416121,77015185770,mKcell,mMTS,mKcell,D77,D02,2017-07-04T14:07:51+06:00,
1000000000416123,77028152523,mAltel,mKcell,mKcell,,D07,2017-07-04T14:10:20+06:00,
1000000000416125,77783303384,mKcell,mMTS,mKcell,D77,D02,2017-07-04T14:13:34+06:00,
1000000000416130,77477460607,mAltel,mMTS,mMTS,,D07,2017-07-04T14:20:42+06:00,
1000000000416132,77477260607,mAltel,mMTS,mMTS,,D07,2017-07-04T14:22:51+06:00,
1000000000416135,77471209144,mKcell,mMTS,mMTS,,D02,2017-07-04T14:29:17+06:00,
