NPId,Number,RecipientId,DonorId,RangeHolderId,OldRoute,NewRoute,PortDate,RowCount
1000000000273707,77756402814,mKarTel,mKcell,mKcell,,D01,2016-11-04T09:11:39+06:00,5
1000000000273711,77718884248,mKarTel,mAltel,mKarTel,D07,D01,2016-11-04T09:16:19+06:00,
1000000000273713,77018008799,mKcell,mMTS,mKcell,D77,D02,2016-11-04T09:20:03+06:00,
1000000000273715,77774452131,mKarTel,mAltel,mKarTel,D07,D01,2016-11-04T09:24:40+06:00,
1000000000273716,77019294069,mKarTel,mMTS,mKcell,D77,D01,2016-11-04T09:27:07+06:00,
