NPId,Number,RecipientId,DonorId,RangeHolderId,OldRoute,NewRoute,PortDate,RowCount
1000000000250405,77056251122,mMTS,mKarTel,mKarTel,,D77,2016-09-24T11:33:49+06:00,16
1000000000250406,77760080109,mKcell,mKarTel,mKarTel,,D02,2016-09-24T11:35:58+06:00,
1000000000250407,77011412204,mKcell,mMTS,mKcell,D77,D02,2016-09-24T11:34:03+06:00,
1000000000250409,77771967346,mKcell,mKarTel,mKarTel,,D02,2016-09-24T11:40:43+06:00,
1000000000250410,77000928080,mKcell,mAltel,mAltel,,D02,2016-09-24T11:38:51+06:00,
1000000000250411,77471175422,mAltel,mMTS,mMTS,,D07,2016-09-24T11:39:25+06:00,
1000000000250414,77024510177,mMTS,mKcell,mKcell,,D77,2016-09-24T11:42:07+06:00,
1000000000250415,77788323274,mAltel,mKcell,mKcell,,D07,2016-09-24T11:46:28+06:00,
1000000000250418,77759219003,mMTS,mKcell,mKcell,,D77,2016-09-24T11:47:28+06:00,
1000000000250419,77022620973,mMTS,mKcell,mKcell,,D77,2016-09-24T11:47:29+06:00,
1000000000250422,77029093016,mAltel,mKcell,mKcell,,D07,2016-09-24T11:49:23+06:00,
1000000000250423,77053248038,mMTS,mKarTel,mKarTel,,D77,2016-09-24T11:53:45+06:00,
1000000000250426,77017132480,mAltel,mKcell,mKcell,,D07,2016-09-24T11:55:26+06:00,
1000000000250427,77013122187,mMTS,mKarTel,mKcell,D01,D77,2016-09-24T11:59:25+06:00,
1000000000250429,77777090772,mMTS,mKarTel,mKarTel,,D77,2016-09-24T11:59:25+06:00,
1000000000250430,77757070444,mMTS,mKcell,mKcell,,D77,2016-09-24T11:59:01+06:00,
