NPId,Number,RecipientId,DonorId,RangeHolderId,OldRoute,NewRoute,PortDate,RowCount
1000000000387100,77088888879,mKcell,mAltel,mAltel,,D02,2017-05-22T15:30:13+06:00,27
1000000000387101,77074173295,mKcell,mMTS,mMTS,,D02,2017-05-22T15:31:05+06:00,
1000000000387102,77781561380,mMTS,mKcell,mKcell,,D77,2017-05-22T15:31:41+06:00,
1000000000387104,77017662828,mAltel,mKcell,mKcell,,D07,2017-05-22T15:34:40+06:00,
1000000000387107,77479900203,mKcell,mMTS,mMTS,,D02,2017-05-22T15:39:18+06:00,
1000000000387108,77087081993,mMTS,mAltel,mAltel,,D77,2017-05-22T15:39:53+06:00,
1000000000387111,77017368858,mMTS,mKcell,mKcell,,D77,2017-05-22T15:41:38+06:00,
1000000000387112,77477336531,mAltel,mKcell,mMTS,D02,D07,2017-05-22T15:42:35+06:00,
1000000000387113,77783335613,mMTS,mKcell,mKcell,,D77,2017-05-22T15:42:52+06:00,
1000000000387114,77085408101,mKcell,mAltel,mAltel,,D02,2017-05-22T15:42:57+06:00,
1000000000387115,77027643431,mAltel,mKcell,mKcell,,D07,2017-05-22T15:43:36+06:00,
1000000000387117,77014509966,mMTS,mKcell,mKcell,,D77,2017-05-22T15:46:27+06:00,
1000000000387118,77774414510,mMTS,mKarTel,mKarTel,,D77,2017-05-22T15:48:04+06:00,
1000000000387119,77755693226,mMTS,mKcell,mKcell,,D77,2017-05-22T15:47:50+06:00,
1000000000387120,77471333303,mMTS,mKarTel,mMTS,D01,D77,2017-05-22T15:48:21+06:00,
1000000000387121,77051889262,mAltel,mKarTel,mKarTel,,D07,2017-05-22T15:49:39+06:00,
1000000000387122,77080665500,mMTS,mAltel,mAltel,,D77,2017-05-22T15:49:42+06:00,
1000000000387123,77017397496,mAltel,mKcell,mKcell,,D07,2017-05-22T15:51:09+06:00,
1000000000387124,77767888833,mKarTel,mKcell,mKarTel,D02,D01,2017-05-22T15:51:40+06:00,
1000000000387126,77767087780,mMTS,mKarTel,mKarTel,,D77,2017-05-22T15:53:05+06:00,
1000000000387128,77018700303,mMTS,mKcell,mKcell,,D77,2017-05-22T15:55:13+06:00,
1000000000387130,77755645817,mKarTel,mKcell,mKcell,,D01,2017-05-22T15:56:12+06:00,
1000000000387133,77012723183,mKarTel,mMTS,mKcell,D77,D01,2017-05-22T15:56:38+06:00,
1000000000387134,77055377000,mMTS,mKarTel,mKarTel,,D77,2017-05-22T15:56:54+06:00,
1000000000387135,77075560701,mKarTel,mKcell,mMTS,D02,D01,2017-05-22T15:58:03+06:00,
1000000000387137,77072723184,mKarTel,mMTS,mMTS,,D01,2017-05-22T15:59:07+06:00,
1000000000387138,77022822668,mAltel,mKcell,mKcell,,D07,2017-05-22T15:59:18+06:00,
