NPId,Number,RecipientId,DonorId,RangeHolderId,OldRoute,NewRoute,PortDate,RowCount
1000000000331070,77078515557,mMTS,mKarTel,mMTS,D01,D77,2017-02-18T17:03:39+06:00,26
1000000000331071,77478707070,mKarTel,mMTS,mMTS,,D01,2017-02-18T17:03:38+06:00,
1000000000331072,77071347277,mKarTel,mMTS,mMTS,,D01,2017-02-18T17:04:07+06:00,
1000000000331073,77014595588,mAltel,mMTS,mKcell,D77,D07,2017-02-18T17:04:25+06:00,
1000000000331074,77025991750,mMTS,mKcell,mKcell,,D77,2017-02-18T17:04:31+06:00,
1000000000331075,77021899929,mKcell,mAltel,mKcell,D07,D02,2017-02-18T17:04:46+06:00,
1000000000331076,77784044958,mKarTel,mKcell,mKcell,,D01,2017-02-18T17:06:06+06:00,
1000000000331077,77479110007,mKarTel,mMTS,mMTS,,D01,2017-02-18T17:06:01+06:00,
1000000000331078,77759117367,mAltel,mKcell,mKcell,,D07,2017-02-18T17:06:59+06:00,
1000000000331080,77020000897,mKarTel,mAltel,mKcell,D07,D01,2017-02-18T17:08:20+06:00,
1000000000331081,77777968333,mMTS,mKarTel,mKarTel,,D77,2017-02-18T17:09:32+06:00,
1000000000331082,77006004636,mKcell,mAltel,mAltel,,D02,2017-02-18T17:11:12+06:00,
1000000000331084,77776660960,mMTS,mKarTel,mKarTel,,D77,2017-02-18T17:12:42+06:00,
1000000000331085,77758808804,mKarTel,mKcell,mKcell,,D01,2017-02-18T17:13:34+06:00,
1000000000331086,77759738682,mMTS,mKcell,mKcell,,D77,2017-02-18T17:13:58+06:00,
1000000000331087,77014870727,mMTS,mKcell,mKcell,,D77,2017-02-18T17:14:32+06:00,
1000000000331088,77011654456,mAltel,mKcell,mKcell,,D07,2017-02-18T17:15:33+06:00,
1000000000331089,77011853885,mKarTel,mKcell,mKcell,,D01,2017-02-18T17:16:04+06:00,
1000000000331091,77006002434,mKcell,mAltel,mAltel,,D02,2017-02-18T17:20:15+06:00,
1000000000331092,77058764736,mAltel,mKarTel,mKarTel,,D07,2017-02-18T17:21:55+06:00,
1000000000331093,77003501996,mMTS,mAltel,mAltel,,D77,2017-02-18T17:22:42+06:00,
1000000000331094,77787779989,mAltel,mKcell,mKcell,,D07,2017-02-18T17:22:48+06:00,
1000000000331095,77017550998,mKarTel,mKcell,mKcell,,D01,2017-02-18T17:23:46+06:00,
1000000000331096,77006001454,mKcell,mAltel,mAltel,,D02,2017-02-18T17:23:48+06:00,
1000000000331097,77787111991,mAltel,mKcell,mKcell,,D07,2017-02-18T17:24:03+06:00,
1000000000331098,77006009363,mKcell,mAltel,mAltel,,D02,2017-02-18T17:28:38+06:00,
