NPId,Number,RecipientId,DonorId,RangeHolderId,OldRoute,NewRoute,PortDate,RowCount
1000000000236324,77762334443,mKcell,mKarTel,mKarTel,,D02,2016-08-29T20:02:10+06:00,4
1000000000236325,77018705400,mMTS,mKarTel,mKcell,D01,D77,2016-08-29T20:19:08+06:00,
1000000000236326,77075779090,mKcell,mMTS,mMTS,,D02,2016-08-29T20:21:26+06:00,
1000000000236327,77072152002,mMTS,mKarTel,mMTS,D01,D77,2016-08-29T20:24:58+06:00,
