NPId,Number,RecipientId,DonorId,RangeHolderId,OldRoute,NewRoute,PortDate,RowCount
1000000000394439,77022167160,mMTS,mKcell,mKcell,,D77,2017-06-01T20:10:47+06:00,12
1000000000394441,77017830404,mMTS,mKcell,mKcell,,D77,2017-06-01T20:14:59+06:00,
1000000000394443,77015226393,mMTS,mKcell,mKcell,,D77,2017-06-01T20:17:15+06:00,
1000000000394445,77019513741,mMTS,mKcell,mKcell,,D77,2017-06-01T20:19:16+06:00,
1000000000394447,77015225820,mMTS,mKcell,mKcell,,D77,2017-06-01T20:21:27+06:00,
1000000000395513,77019543020,mKarTel,mMTS,mKcell,D77,D01,2017-06-01T20:00:44+06:00,
1000000000395515,77073211234,mMTS,mKcell,mMTS,D02,D77,2017-06-01T20:01:54+06:00,
1000000000395516,77017447819,mMTS,mKcell,mKcell,,D77,2017-06-01T20:01:54+06:00,
1000000000395518,77013723252,mKcell,mMTS,mKcell,D77,D02,2017-06-01T20:05:36+06:00,
1000000000395519,77017888760,mKarTel,mKcell,mKcell,,D01,2017-06-01T20:12:26+06:00,
1000000000395520,77023900063,mKarTel,mKcell,mKcell,,D01,2017-06-01T20:21:43+06:00,
1000000000395521,77753002134,mKarTel,mKcell,mKcell,,D01,2017-06-01T20:22:18+06:00,
