NPId,Number,RecipientId,DonorId,RangeHolderId,OldRoute,NewRoute,PortDate,RowCount
1000000000405019,77007007791,mKcell,mAltel,mAltel,,D02,2017-06-17T20:01:02+06:00,3
1000000000405020,77016255536,mMTS,mKcell,mKcell,,D77,2017-06-17T20:06:45+06:00,
1000000000405021,77778088925,mKcell,mMTS,mKarTel,D77,D02,2017-06-17T20:20:46+06:00,
