NPId,Number,RecipientId,DonorId,RangeHolderId,OldRoute,NewRoute,PortDate,RowCount
1000000000299328,77017309857,mKarTel,mKcell,mKcell,,D01,2016-12-23T12:31:45+06:00,20
1000000000299329,77784442244,mKcell,mAltel,mKcell,D07,D02,2016-12-23T12:32:13+06:00,
1000000000299330,77000070107,mMTS,mAltel,mAltel,,D77,2016-12-23T12:32:11+06:00,
1000000000299331,77766301313,mMTS,mKarTel,mKarTel,,D77,2016-12-23T12:32:53+06:00,
1000000000299332,77785725166,mMTS,mKcell,mKcell,,D77,2016-12-23T12:32:45+06:00,
1000000000299333,77754990120,mMTS,mKcell,mKcell,,D77,2016-12-23T12:33:11+06:00,
1000000000299334,77753381515,mMTS,mKcell,mKcell,,D77,2016-12-23T12:33:28+06:00,
1000000000299335,77015519104,mKarTel,mKcell,mKcell,,D01,2016-12-23T12:36:33+06:00,
1000000000299337,77015977422,mKarTel,mKcell,mKcell,,D01,2016-12-23T12:36:46+06:00,
1000000000299338,77755485692,mMTS,mKcell,mKcell,,D77,2016-12-23T12:37:39+06:00,
1000000000299339,77011114449,mKarTel,mKcell,mKcell,,D01,2016-12-23T12:38:40+06:00,
1000000000299341,77055804825,mMTS,mKarTel,mKarTel,,D77,2016-12-23T12:42:32+06:00,
1000000000299342,77077548355,mKarTel,mMTS,mMTS,,D01,2016-12-23T12:45:42+06:00,
1000000000299343,77761030777,mMTS,mKarTel,mKarTel,,D77,2016-12-23T12:46:51+06:00,
1000000000299345,77779975319,mKarTel,mMTS,mKarTel,D77,D01,2016-12-23T12:49:51+06:00,
1000000000299346,77089172765,mKarTel,mAltel,mAltel,,D01,2016-12-23T12:51:33+06:00,
1000000000299347,77777691910,mAltel,mMTS,mKarTel,D77,D07,2016-12-23T12:55:00+06:00,
1000000000299350,77024904310,mKarTel,mKcell,mKcell,,D01,2016-12-23T12:57:13+06:00,
1000000000299351,77785951888,mKarTel,mKcell,mKcell,,D01,2016-12-23T12:59:19+06:00,
1000000000299352,77019990538,mKarTel,mKcell,mKcell,,D01,2016-12-23T12:59:46+06:00,
