NPId,Number,RecipientId,DonorId,RangeHolderId,OldRoute,NewRoute,PortDate,RowCount
1000000000331444,77081511093,mMTS,mAltel,mAltel,,D77,2017-02-20T10:00:16+06:00,19
1000000000331445,77005511514,mKcell,mMTS,mAltel,D77,D02,2017-02-20T10:01:03+06:00,
1000000000331446,77751237949,mMTS,mKcell,mKcell,D02,D77,2017-02-20T10:02:50+06:00,
1000000000331447,77051888061,mMTS,mKarTel,mKarTel,,D77,2017-02-20T10:03:01+06:00,
1000000000331453,77073655560,mMTS,mAltel,mMTS,D07,D77,2017-02-20T10:08:50+06:00,
1000000000331454,77072220801,mKarTel,mMTS,mMTS,,D01,2017-02-20T10:11:35+06:00,
1000000000331455,77014399060,mKcell,mMTS,mKcell,D77,D02,2017-02-20T10:11:58+06:00,
1000000000331456,77088208898,mMTS,mAltel,mAltel,,D77,2017-02-20T10:11:44+06:00,
1000000000331457,77077500232,mAltel,mMTS,mMTS,,D07,2017-02-20T10:13:19+06:00,
1000000000331458,77019091010,mKarTel,mKcell,mKcell,,D01,2017-02-20T10:15:41+06:00,
1000000000331459,77088208899,mMTS,mAltel,mAltel,,D77,2017-02-20T10:15:19+06:00,
1000000000331460,77773281313,mMTS,mKarTel,mKarTel,,D77,2017-02-20T10:17:05+06:00,
1000000000331461,77787477793,mKarTel,mKcell,mKcell,,D01,2017-02-20T10:17:57+06:00,
1000000000331462,77001040494,mKcell,mAltel,mAltel,,D02,2017-02-20T10:19:41+06:00,
1000000000331463,77776294224,mKarTel,mMTS,mKarTel,D77,D01,2017-02-20T10:22:38+06:00,
1000000000331465,77002050595,mKcell,mAltel,mAltel,,D02,2017-02-20T10:23:40+06:00,
1000000000331467,77016768806,mMTS,mKcell,mKcell,,D77,2017-02-20T10:24:58+06:00,
1000000000331469,77077177776,mAltel,mMTS,mMTS,,D07,2017-02-20T10:25:11+06:00,
1000000000331470,77016591100,mKarTel,mKcell,mKcell,,D01,2017-02-20T10:27:32+06:00,
