NPId,Number,RecipientId,DonorId,RangeHolderId,OldRoute,NewRoute,PortDate,RowCount
1000000000163985,77014663155,mMTS,mKcell,mKcell,,D77,2016-04-30T12:00:21+06:00,37
1000000000163986,77479000090,mMTS,mKcell,mMTS,D02,D77,2016-04-30T12:00:22+06:00,
1000000000163987,77772277874,mMTS,mKarTel,mKarTel,,D77,2016-04-30T12:01:48+06:00,
1000000000163988,77015945634,mMTS,mAltel,mKcell,D07,D77,2016-04-30T12:01:46+06:00,
1000000000163989,77012666673,mMTS,mKcell,mKcell,,D77,2016-04-30T12:02:06+06:00,
1000000000163990,77012350970,mKarTel,mKcell,mKcell,,D01,2016-04-30T12:03:34+06:00,
1000000000163991,77089694913,mMTS,mAltel,mAltel,,D77,2016-04-30T12:04:11+06:00,
1000000000163993,77082858501,mMTS,mAltel,mAltel,,D77,2016-04-30T12:04:35+06:00,
1000000000163994,77013912790,mKarTel,mKcell,mKcell,,D01,2016-04-30T12:05:33+06:00,
1000000000163995,77053334628,mMTS,mKarTel,mKarTel,,D77,2016-04-30T12:07:18+06:00,
1000000000163996,77087749484,mMTS,mAltel,mAltel,,D77,2016-04-30T12:07:00+06:00,
1000000000163999,77719993331,mMTS,mKcell,mKarTel,D02,D77,2016-04-30T12:11:04+06:00,
1000000000164000,77072630170,mKarTel,mMTS,mMTS,,D01,2016-04-30T12:11:15+06:00,
1000000000164001,77001416796,mMTS,mAltel,mAltel,,D77,2016-04-30T12:11:26+06:00,
1000000000164002,77002136280,mMTS,mAltel,mAltel,,D77,2016-04-30T12:11:47+06:00,
1000000000164003,77089436465,mMTS,mAltel,mAltel,,D77,2016-04-30T12:11:58+06:00,
1000000000164005,77017995098,mKarTel,mKcell,mKcell,,D01,2016-04-30T12:13:26+06:00,
1000000000164006,77787096044,mKarTel,mKcell,mKcell,,D01,2016-04-30T12:13:26+06:00,
1000000000164011,77058113898,mMTS,mKarTel,mKarTel,,D77,2016-04-30T12:14:59+06:00,
1000000000164012,77076240797,mKarTel,mMTS,mMTS,,D01,2016-04-30T12:14:59+06:00,
1000000000164013,77019380696,mMTS,mKcell,mKcell,,D77,2016-04-30T12:15:43+06:00,
1000000000164017,77028360440,mKarTel,mKcell,mKcell,,D01,2016-04-30T12:17:21+06:00,
1000000000164018,77012228709,mKarTel,mKcell,mKcell,,D01,2016-04-30T12:17:37+06:00,
1000000000164019,77773018403,mMTS,mKarTel,mKarTel,,D77,2016-04-30T12:17:24+06:00,
1000000000164020,77777777556,mKcell,mKarTel,mKarTel,,D02,2016-04-30T12:18:31+06:00,
1000000000164021,77757809930,mKarTel,mKcell,mKcell,,D01,2016-04-30T12:18:13+06:00,
1000000000164025,77057336653,mMTS,mKarTel,mKarTel,,D77,2016-04-30T12:19:18+06:00,
1000000000164026,77021845005,mMTS,mKcell,mKcell,,D77,2016-04-30T12:19:49+06:00,
1000000000164028,77758870457,mMTS,mKcell,mKcell,,D77,2016-04-30T12:22:38+06:00,
1000000000164029,77774428888,mMTS,mAltel,mKarTel,D07,D77,2016-04-30T12:22:32+06:00,
1000000000164030,77787080080,mMTS,mKcell,mKcell,,D77,2016-04-30T12:23:59+06:00,
1000000000164032,77017431768,mKcell,mAltel,mKcell,D07,D02,2016-04-30T12:27:11+06:00,
1000000000164033,77755997499,mKarTel,mKcell,mKcell,,D01,2016-04-30T12:26:35+06:00,
1000000000164035,77081341121,mMTS,mAltel,mAltel,,D77,2016-04-30T12:26:22+06:00,
1000000000164036,77016441190,mKarTel,mKcell,mKcell,,D01,2016-04-30T12:27:53+06:00,
1000000000164037,77758881097,mMTS,mKcell,mKcell,,D77,2016-04-30T12:27:42+06:00,
1000000000164040,77086868797,mKcell,mAltel,mAltel,,D02,2016-04-30T12:28:58+06:00,
