NPId,Number,RecipientId,DonorId,RangeHolderId,OldRoute,NewRoute,PortDate,RowCount
1000000000320251,77017540135,mKcell,mKarTel,mKcell,D01,D02,2017-01-31T16:01:10+06:00,44
1000000000320264,77010867771,mKcell,mKarTel,mKcell,D01,D02,2017-01-31T16:07:36+06:00,
1000000000320273,77004448979,mKcell,mAltel,mAltel,,D02,2017-01-31T16:00:30+06:00,
1000000000320274,77774619834,mMTS,mKarTel,mKarTel,,D77,2017-01-31T16:02:02+06:00,
1000000000320275,77782660404,mMTS,mKcell,mKcell,,D77,2017-01-31T16:01:48+06:00,
1000000000320276,77017000389,mKarTel,mKcell,mKcell,,D01,2017-01-31T16:02:34+06:00,
1000000000320277,77003338949,mKcell,mAltel,mAltel,,D02,2017-01-31T16:02:32+06:00,
1000000000320278,77781415030,mKarTel,mKcell,mKcell,,D01,2017-01-31T16:03:07+06:00,
1000000000320280,77025319634,mMTS,mKcell,mKcell,,D77,2017-01-31T16:03:36+06:00,
1000000000320281,77004448272,mKcell,mAltel,mAltel,,D02,2017-01-31T16:05:10+06:00,
1000000000320282,77012145514,mMTS,mKcell,mKcell,,D77,2017-01-31T16:05:39+06:00,
1000000000320284,77028734477,mKcell,mKarTel,mKcell,D01,D02,2017-01-31T16:07:42+06:00,
1000000000320286,77770060619,mKcell,mKarTel,mKarTel,,D02,2017-01-31T16:08:03+06:00,
1000000000320289,77475431160,mKcell,mMTS,mMTS,,D02,2017-01-31T16:08:07+06:00,
1000000000320290,77015129139,mKcell,mMTS,mKcell,D77,D02,2017-01-31T16:09:35+06:00,
1000000000320291,77014588529,mKarTel,mKcell,mKcell,,D01,2017-01-31T16:10:32+06:00,
1000000000320292,77751133779,mMTS,mKcell,mKcell,,D77,2017-01-31T16:10:47+06:00,
1000000000320293,77003337252,mKcell,mAltel,mAltel,,D02,2017-01-31T16:12:07+06:00,
1000000000320294,77053344568,mKcell,mKarTel,mKarTel,,D02,2017-01-31T16:12:19+06:00,
1000000000320295,77077240766,mAltel,mKarTel,mMTS,D01,D07,2017-01-31T16:12:24+06:00,
1000000000320297,77057991091,mMTS,mKarTel,mKarTel,,D77,2017-01-31T16:12:50+06:00,
1000000000320298,77082862861,mAltel,mMTS,mAltel,D77,D07,2017-01-31T16:13:27+06:00,
1000000000320299,77014042465,mKarTel,mKcell,mKcell,,D01,2017-01-31T16:14:54+06:00,
1000000000320300,77016355077,mKarTel,mKcell,mKcell,,D01,2017-01-31T16:14:58+06:00,
1000000000320301,77004443262,mKcell,mAltel,mAltel,,D02,2017-01-31T16:15:58+06:00,
1000000000320302,77777056894,mAltel,mKarTel,mKarTel,,D07,2017-01-31T16:16:47+06:00,
1000000000320304,77750697075,mMTS,mKcell,mKcell,,D77,2017-01-31T16:17:51+06:00,
1000000000320305,77051376489,mMTS,mKarTel,mKarTel,,D77,2017-01-31T16:17:58+06:00,
1000000000320307,77056341114,mMTS,mKarTel,mKarTel,,D77,2017-01-31T16:18:36+06:00,
1000000000320308,77023403619,mMTS,mKcell,mKcell,,D77,2017-01-31T16:18:36+06:00,
1000000000320309,77713516950,mMTS,mKarTel,mKarTel,,D77,2017-01-31T16:19:30+06:00,
1000000000320310,77003335474,mKcell,mAltel,mAltel,,D02,2017-01-31T16:21:26+06:00,
1000000000320311,77003331292,mKcell,mAltel,mAltel,,D02,2017-01-31T16:21:54+06:00,
1000000000320312,77479048712,mKarTel,mMTS,mMTS,,D01,2017-01-31T16:22:10+06:00,
1000000000320315,77478850989,mKarTel,mMTS,mMTS,,D01,2017-01-31T16:24:24+06:00,
1000000000320316,77764547373,mAltel,mKarTel,mKarTel,,D07,2017-01-31T16:26:23+06:00,
1000000000320317,77077208668,mKarTel,mMTS,mMTS,,D01,2017-01-31T16:27:07+06:00,
1000000000320318,77004447232,mKcell,mAltel,mAltel,,D02,2017-01-31T16:27:13+06:00,
1000000000320319,77055498133,mMTS,mKarTel,mKarTel,,D77,2017-01-31T16:28:03+06:00,
1000000000320320,77010998868,mMTS,mKcell,mKcell,,D77,2017-01-31T16:27:50+06:00,
1000000000320321,77784119187,mMTS,mKcell,mKcell,,D77,2017-01-31T16:27:50+06:00,
1000000000320322,77023206055,mKarTel,mKcell,mKcell,,D01,2017-01-31T16:28:30+06:00,
1000000000320324,77027774199,mKarTel,mKcell,mKcell,,D01,2017-01-31T16:29:32+06:00,
1000000000320325,77784501900,mKarTel,mKcell,mKcell,,D01,2017-01-31T16:29:50+06:00,
