NPId,Number,RecipientId,DonorId,RangeHolderId,OldRoute,NewRoute,PortDate,RowCount
1000000000263687,77012103884,mKarTel,mKcell,mKcell,,D01,2016-10-17T15:30:37+06:00,27
1000000000263689,77055148753,mMTS,mKarTel,mKarTel,,D77,2016-10-17T15:32:50+06:00,
1000000000263690,77778395577,mKarTel,mKcell,mKarTel,D02,D01,2016-10-17T15:33:32+06:00,
1000000000263691,77077757700,mKarTel,mMTS,mMTS,,D01,2016-10-17T15:33:38+06:00,
1000000000263692,77769999002,mAltel,mKarTel,mKarTel,D01,D07,2016-10-17T15:34:06+06:00,
1000000000263693,77015572642,mKarTel,mKcell,mKcell,,D01,2016-10-17T15:35:41+06:00,
1000000000263698,77712333222,mKarTel,mMTS,mKarTel,D77,D01,2016-10-17T15:39:22+06:00,
1000000000263699,77711675702,mMTS,mKarTel,mKarTel,,D77,2016-10-17T15:41:39+06:00,
1000000000263700,77475472258,mKarTel,mMTS,mMTS,,D01,2016-10-17T15:41:48+06:00,
1000000000263700,77475472259,mKarTel,mMTS,mMTS,,D01,2016-10-17T15:41:48+06:00,
1000000000263700,77475472260,mKarTel,mMTS,mMTS,,D01,2016-10-17T15:41:48+06:00,
1000000000263700,77475472261,mKarTel,mMTS,mMTS,,D01,2016-10-17T15:41:48+06:00,
1000000000263701,77769999004,mAltel,mKarTel,mKarTel,D01,D07,2016-10-17T15:44:26+06:00,
1000000000263702,77027058824,mKarTel,mKcell,mKcell,,D01,2016-10-17T15:45:04+06:00,
1000000000263703,77023515161,mKcell,mMTS,mKcell,D77,D02,2016-10-17T15:45:17+06:00,
1000000000263704,77072011700,mAltel,mMTS,mMTS,,D07,2016-10-17T15:46:28+06:00,
1000000000263705,77011037766,mKcell,mMTS,mKcell,D77,D02,2016-10-17T15:46:41+06:00,
1000000000263708,77071250101,mKcell,mMTS,mMTS,,D02,2016-10-17T15:47:57+06:00,
1000000000263709,77019906600,mAltel,mKcell,mKcell,,D07,2016-10-17T15:48:00+06:00,
1000000000263711,77782224422,mAltel,mKcell,mKcell,,D07,2016-10-17T15:53:45+06:00,
1000000000263712,77003715314,mMTS,mAltel,mAltel,,D77,2016-10-17T15:55:36+06:00,
1000000000263713,77014499010,mMTS,mKcell,mKcell,,D77,2016-10-17T15:56:25+06:00,
1000000000263715,77087036878,mMTS,mAltel,mAltel,,D77,2016-10-17T15:58:06+06:00,
1000000000263716,77076635278,mAltel,mMTS,mMTS,,D07,2016-10-17T15:58:27+06:00,
1000000000263719,77779988898,mKarTel,mMTS,mKarTel,D77,D01,2016-10-17T15:59:22+06:00,
1000000000263721,77779330393,mKarTel,mMTS,mKarTel,D77,D01,2016-10-17T15:59:44+06:00,
1000000000263722,77012997528,mMTS,mKcell,mKcell,,D77,2016-10-17T15:59:56+06:00,
