NPId,Number,RecipientId,DonorId,RangeHolderId,OldRoute,NewRoute,PortDate,RowCount
1000000000314584,77785496627,mMTS,mKcell,mKcell,,D77,2017-01-22T13:01:48+06:00,6
1000000000314588,77076046633,mAltel,mMTS,mMTS,,D07,2017-01-22T13:07:16+06:00,
1000000000314589,77005747079,mMTS,mAltel,mAltel,,D77,2017-01-22T13:07:41+06:00,
1000000000314591,77079329707,mAltel,mKcell,mMTS,D02,D07,2017-01-22T13:15:12+06:00,
1000000000314593,77756223048,mMTS,mKcell,mKcell,,D77,2017-01-22T13:17:51+06:00,
1000000000314596,77787076697,mMTS,mKcell,mKcell,,D77,2017-01-22T13:27:07+06:00,
