NPId,Number,RecipientId,DonorId,RangeHolderId,OldRoute,NewRoute,PortDate,RowCount
1000000000107268,77013337740,mMTS,mKcell,mKcell,,D77,2016-03-04T17:30:29+06:00,33
1000000000107269,77023695106,mMTS,mKcell,mKcell,,D77,2016-03-04T17:30:35+06:00,
1000000000107271,77017373906,mAltel,mKcell,mKcell,,D07,2016-03-04T17:35:56+06:00,
1000000000107272,77758264870,mMTS,mKcell,mKcell,,D77,2016-03-04T17:35:55+06:00,
1000000000107273,77776671989,mMTS,mKarTel,mKarTel,,D77,2016-03-04T17:32:18+06:00,
1000000000107274,77022728372,mKarTel,mKcell,mKcell,,D01,2016-03-04T17:36:18+06:00,
1000000000107275,77014977772,mAltel,mKcell,mKcell,,D07,2016-03-04T17:36:00+06:00,
1000000000107276,77789884001,mMTS,mKcell,mKcell,,D77,2016-03-04T17:35:59+06:00,
1000000000107277,77715556666,mKcell,mKarTel,mKarTel,,D02,2016-03-04T17:38:14+06:00,
1000000000107278,77754097166,mMTS,mKcell,mKcell,,D77,2016-03-04T17:35:59+06:00,
1000000000107281,77777644503,mMTS,mKarTel,mKarTel,,D77,2016-03-04T17:36:30+06:00,
1000000000107282,77075105050,mAltel,mMTS,mMTS,,D07,2016-03-04T17:36:30+06:00,
1000000000107285,77782939592,mMTS,mKcell,mKcell,,D77,2016-03-04T17:42:41+06:00,
1000000000107286,77015369075,mMTS,mKcell,mKcell,,D77,2016-03-04T17:42:41+06:00,
1000000000107287,77019973293,mKarTel,mKcell,mKcell,,D01,2016-03-04T17:42:58+06:00,
1000000000107288,77019907790,mMTS,mKcell,mKcell,,D77,2016-03-04T17:42:41+06:00,
1000000000107290,77077101400,mAltel,mMTS,mMTS,,D07,2016-03-04T17:41:38+06:00,
1000000000107292,77073387863,mKarTel,mMTS,mMTS,,D01,2016-03-04T17:42:13+06:00,
1000000000107293,77057776774,mKcell,mKarTel,mKarTel,,D02,2016-03-04T17:49:29+06:00,
1000000000107294,77779487220,mMTS,mKarTel,mKarTel,,D77,2016-03-04T17:43:23+06:00,
1000000000107296,77773377888,mMTS,mKarTel,mKarTel,,D77,2016-03-04T17:44:51+06:00,
1000000000107297,77473659182,mAltel,mMTS,mMTS,,D07,2016-03-04T17:44:46+06:00,
1000000000107298,77052270545,mMTS,mKarTel,mKarTel,,D77,2016-03-04T17:45:36+06:00,
1000000000107300,77018885735,mAltel,mKcell,mKcell,,D07,2016-03-04T17:47:17+06:00,
1000000000107301,77054474475,mMTS,mKarTel,mKarTel,,D77,2016-03-04T17:46:22+06:00,
1000000000107304,77028434763,mMTS,mKcell,mKcell,,D77,2016-03-04T17:47:19+06:00,
1000000000107305,77776410383,mMTS,mKarTel,mKarTel,,D77,2016-03-04T17:47:18+06:00,
1000000000107308,77051515117,mMTS,mKarTel,mKarTel,,D77,2016-03-04T17:48:56+06:00,
1000000000107310,77777771012,mMTS,mKarTel,mKarTel,,D77,2016-03-04T17:50:12+06:00,
1000000000107311,77775334655,mMTS,mKarTel,mKarTel,,D77,2016-03-04T17:51:54+06:00,
1000000000107316,77713345994,mAltel,mKarTel,mKarTel,,D07,2016-03-04T17:55:02+06:00,
1000000000107321,77076519619,mAltel,mMTS,mMTS,,D07,2016-03-04T17:57:33+06:00,
1000000000107325,77768080777,mMTS,mKarTel,mKarTel,,D77,2016-03-04T17:59:16+06:00,
