NPId,Number,RecipientId,DonorId,RangeHolderId,OldRoute,NewRoute,PortDate,RowCount
1000000000306943,77029191391,mMTS,mKcell,mKcell,,D77,2017-01-07T12:01:50+06:00,15
1000000000306944,77014059495,mKcell,mAltel,mKcell,D07,D02,2017-01-07T12:02:10+06:00,
1000000000306945,77026888803,mKcell,mAltel,mKcell,D07,D02,2017-01-07T12:02:35+06:00,
1000000000306947,77783373707,mMTS,mKcell,mKcell,,D77,2017-01-07T12:07:52+06:00,
1000000000306948,77028880417,mMTS,mAltel,mKcell,D07,D77,2017-01-07T12:12:38+06:00,
1000000000306949,77005553300,mMTS,mAltel,mAltel,,D77,2017-01-07T12:15:22+06:00,
1000000000306950,77052305949,mKarTel,mMTS,mKarTel,D77,D01,2017-01-07T12:17:09+06:00,
1000000000306951,77754666086,mMTS,mKcell,mKcell,,D77,2017-01-07T12:22:11+06:00,
1000000000306952,77769999958,mMTS,mKarTel,mKarTel,,D77,2017-01-07T12:22:05+06:00,
1000000000306953,77772673717,mMTS,mKarTel,mKarTel,,D77,2017-01-07T12:22:47+06:00,
1000000000306954,77782813208,mMTS,mKcell,mKcell,,D77,2017-01-07T12:22:47+06:00,
1000000000306956,77076330855,mKarTel,mMTS,mMTS,,D01,2017-01-07T12:23:25+06:00,
1000000000306957,77763661222,mMTS,mKarTel,mKarTel,,D77,2017-01-07T12:25:47+06:00,
1000000000306958,77024661114,mMTS,mKcell,mKcell,,D77,2017-01-07T12:26:25+06:00,
1000000000306959,77055507230,mMTS,mKarTel,mKarTel,,D77,2017-01-07T12:27:59+06:00,
