NPId,Number,RecipientId,DonorId,RangeHolderId,OldRoute,NewRoute,PortDate,RowCount
1000000000346096,77029444492,mMTS,mKcell,mKcell,,D77,2017-03-13T20:47:49+06:00,3
1000000000346097,77006005393,mKcell,mAltel,mAltel,,D02,2017-03-13T20:50:31+06:00,
1000000000346098,77019996200,mKcell,mMTS,mKcell,D77,D02,2017-03-13T20:52:44+06:00,
