NPId,Number,RecipientId,DonorId,RangeHolderId,OldRoute,NewRoute,PortDate,RowCount
1000000000313796,77014103708,mMTS,mKcell,mKcell,,D77,2017-01-20T16:04:05+06:00,25
1000000000313797,77011001236,mMTS,mKcell,mKcell,,D77,2017-01-20T16:01:01+06:00,
1000000000313798,77027100772,mAltel,mKcell,mKcell,,D07,2017-01-20T16:01:25+06:00,
1000000000313799,77002795030,mMTS,mAltel,mAltel,,D77,2017-01-20T16:01:39+06:00,
1000000000313800,77781806969,mAltel,mKcell,mKcell,,D07,2017-01-20T16:04:06+06:00,
1000000000313803,77023777711,mMTS,mKcell,mKcell,,D77,2017-01-20T16:04:17+06:00,
1000000000313804,77786667316,mMTS,mKcell,mKcell,,D77,2017-01-20T16:04:56+06:00,
1000000000313805,77015131064,mKarTel,mKcell,mKcell,,D01,2017-01-20T16:08:23+06:00,
1000000000313806,77075555767,mAltel,mMTS,mMTS,,D07,2017-01-20T16:07:46+06:00,
1000000000313809,77017941964,mKarTel,mKcell,mKcell,,D01,2017-01-20T16:11:36+06:00,
1000000000313810,77759866477,mKarTel,mKcell,mKcell,,D01,2017-01-20T16:11:50+06:00,
1000000000313811,77774690003,mKcell,mKarTel,mKarTel,D01,D02,2017-01-20T16:13:11+06:00,
1000000000313813,77018298910,mMTS,mKcell,mKcell,,D77,2017-01-20T16:14:11+06:00,
1000000000313814,77087557807,mMTS,mAltel,mAltel,,D77,2017-01-20T16:15:00+06:00,
1000000000313815,77078304305,mKarTel,mMTS,mMTS,,D01,2017-01-20T16:16:37+06:00,
1000000000313818,77072391403,mKcell,mMTS,mMTS,,D02,2017-01-20T16:20:55+06:00,
1000000000313819,77775566616,mKcell,mKarTel,mKarTel,,D02,2017-01-20T16:22:24+06:00,
1000000000313820,77784011318,mKcell,mMTS,mKcell,D77,D02,2017-01-20T16:23:55+06:00,
1000000000313821,77056100723,mMTS,mKarTel,mKarTel,,D77,2017-01-20T16:24:10+06:00,
1000000000313822,77755083816,mKarTel,mKcell,mKcell,,D01,2017-01-20T16:24:48+06:00,
1000000000313823,77013591944,mMTS,mKcell,mKcell,,D77,2017-01-20T16:24:50+06:00,
1000000000313824,77015230303,mKarTel,mKcell,mKcell,,D01,2017-01-20T16:26:25+06:00,
1000000000313825,77074352022,mMTS,mKarTel,mMTS,D01,D77,2017-01-20T16:27:56+06:00,
1000000000313826,77027763598,mKarTel,mKcell,mKcell,,D01,2017-01-20T16:28:10+06:00,
1000000000313828,77711649808,mMTS,mKarTel,mKarTel,,D77,2017-01-20T16:29:56+06:00,
