NPId,Number,RecipientId,DonorId,RangeHolderId,OldRoute,NewRoute,PortDate,RowCount
1000000000274737,77012241506,mAltel,mKcell,mKcell,,D07,2016-11-05T16:31:26+06:00,16
1000000000274738,77757811418,mMTS,mKcell,mKcell,,D77,2016-11-05T16:32:19+06:00,
1000000000274740,77023715005,mMTS,mKcell,mKcell,,D77,2016-11-05T16:33:22+06:00,
1000000000274743,77015390939,mAltel,mKcell,mKcell,,D07,2016-11-05T16:39:51+06:00,
1000000000274744,77759880303,mKcell,mAltel,mKcell,D07,D02,2016-11-05T16:40:35+06:00,
1000000000274745,77001375555,mKarTel,mAltel,mAltel,,D01,2016-11-05T16:42:59+06:00,
1000000000274747,77015711189,mMTS,mKcell,mKcell,,D77,2016-11-05T16:44:59+06:00,
1000000000274750,77751580000,mKcell,mMTS,mKcell,D77,D02,2016-11-05T16:48:21+06:00,
1000000000274751,77759033030,mMTS,mKcell,mKcell,,D77,2016-11-05T16:48:24+06:00,
1000000000274755,77018223336,mKarTel,mKcell,mKcell,,D01,2016-11-05T16:51:30+06:00,
1000000000274756,77768209000,mMTS,mKarTel,mKarTel,,D77,2016-11-05T16:52:04+06:00,
1000000000274758,77778746666,mAltel,mKarTel,mKarTel,,D07,2016-11-05T16:54:26+06:00,
1000000000274759,77089153353,mKcell,mAltel,mAltel,,D02,2016-11-05T16:54:42+06:00,
1000000000274760,77013486888,mKcell,mMTS,mKcell,D77,D02,2016-11-05T16:55:30+06:00,
1000000000274761,77788843399,mMTS,mKcell,mKcell,,D77,2016-11-05T16:55:20+06:00,
1000000000274762,77022222434,mKcell,mKarTel,mKcell,D01,D02,2016-11-05T16:56:58+06:00,
