NPId,Number,RecipientId,DonorId,RangeHolderId,OldRoute,NewRoute,PortDate,RowCount
1000000000150418,77766160495,mMTS,mKarTel,mKarTel,,D77,2016-04-13T07:02:27+06:00,2
1000000000150419,77757494163,mMTS,mKcell,mKcell,,D77,2016-04-13T07:01:26+06:00,
