NPId,Number,RecipientId,DonorId,RangeHolderId,OldRoute,NewRoute,PortDate,RowCount
1000000000163575,77079507272,mMTS,mKarTel,mMTS,D01,D77,2016-04-29T16:30:15+06:00,44
1000000000163576,77472052005,mKcell,mMTS,mMTS,,D02,2016-04-29T16:32:24+06:00,
1000000000163577,77075592435,mKcell,mMTS,mMTS,,D02,2016-04-29T16:32:24+06:00,
1000000000163578,77014300088,mMTS,mKcell,mKcell,,D77,2016-04-29T16:32:34+06:00,
1000000000163579,77082924200,mMTS,mAltel,mAltel,,D77,2016-04-29T16:32:51+06:00,
1000000000163580,77012999160,mMTS,mKcell,mKcell,,D77,2016-04-29T16:33:27+06:00,
1000000000163581,77019433080,mMTS,mKcell,mKcell,,D77,2016-04-29T16:34:09+06:00,
1000000000163583,77000700002,mMTS,mAltel,mAltel,,D77,2016-04-29T16:37:00+06:00,
1000000000163584,77022810684,mMTS,mKcell,mKcell,,D77,2016-04-29T16:38:53+06:00,
1000000000163585,77003272481,mMTS,mAltel,mAltel,,D77,2016-04-29T16:37:01+06:00,
1000000000163586,77787278215,mMTS,mKcell,mKcell,,D77,2016-04-29T16:38:54+06:00,
1000000000163588,77778491977,mMTS,mKarTel,mKarTel,,D77,2016-04-29T16:39:44+06:00,
1000000000163589,77019502502,mKcell,mAltel,mKcell,D07,D02,2016-04-29T16:44:40+06:00,
1000000000163590,77081997174,mMTS,mAltel,mAltel,,D77,2016-04-29T16:40:12+06:00,
1000000000163591,77775383333,mMTS,mKarTel,mKarTel,,D77,2016-04-29T16:56:01+06:00,
1000000000163593,77019502503,mKcell,mAltel,mKcell,D07,D02,2016-04-29T16:45:23+06:00,
1000000000163594,77087543760,mMTS,mAltel,mAltel,,D77,2016-04-29T16:41:15+06:00,
1000000000163595,77019502504,mKcell,mAltel,mKcell,D07,D02,2016-04-29T16:45:58+06:00,
1000000000163596,77023408951,mMTS,mKcell,mKcell,,D77,2016-04-29T16:44:46+06:00,
1000000000163597,77003461518,mMTS,mAltel,mAltel,,D77,2016-04-29T16:41:55+06:00,
1000000000163598,77762207700,mMTS,mKarTel,mKarTel,,D77,2016-04-29T16:42:15+06:00,
1000000000163599,77051705188,mMTS,mKarTel,mKarTel,,D77,2016-04-29T16:44:28+06:00,
1000000000163601,77077854554,mKcell,mMTS,mMTS,,D02,2016-04-29T16:46:58+06:00,
1000000000163602,77767730330,mMTS,mKarTel,mKarTel,,D77,2016-04-29T16:46:05+06:00,
1000000000163604,77028901818,mKcell,mMTS,mKcell,D77,D02,2016-04-29T16:47:52+06:00,
1000000000163605,77718991919,mKcell,mKarTel,mKarTel,,D02,2016-04-29T16:48:25+06:00,
1000000000163606,77019977144,mKarTel,mKcell,mKcell,,D01,2016-04-29T16:47:18+06:00,
1000000000163607,77771012222,mKcell,mKarTel,mKarTel,,D02,2016-04-29T16:50:36+06:00,
1000000000163608,77772777437,mKcell,mKarTel,mKarTel,,D02,2016-04-29T16:50:37+06:00,
1000000000163610,77086266642,mMTS,mAltel,mAltel,,D77,2016-04-29T16:49:11+06:00,
1000000000163612,77028015529,mMTS,mKcell,mKcell,,D77,2016-04-29T16:50:11+06:00,
1000000000163613,77055027540,mMTS,mKarTel,mKarTel,,D77,2016-04-29T16:50:18+06:00,
1000000000163614,77767780880,mMTS,mKarTel,mKarTel,,D77,2016-04-29T16:50:21+06:00,
1000000000163615,77026792095,mMTS,mKcell,mKcell,,D77,2016-04-29T16:50:40+06:00,
1000000000163617,77018880555,mKcell,mKarTel,mKcell,D01,D02,2016-04-29T16:52:17+06:00,
1000000000163620,77785093434,mAltel,mKcell,mKcell,,D07,2016-04-29T16:52:18+06:00,
1000000000163621,77002468414,mMTS,mAltel,mAltel,,D77,2016-04-29T16:52:47+06:00,
1000000000163622,77052029199,mMTS,mKarTel,mKarTel,,D77,2016-04-29T16:56:49+06:00,
1000000000163624,77057391799,mMTS,mKarTel,mKarTel,,D77,2016-04-29T16:57:36+06:00,
1000000000163625,77755544499,mMTS,mKcell,mKcell,,D77,2016-04-29T16:57:45+06:00,
1000000000163627,77005576752,mKcell,mAltel,mAltel,,D02,2016-04-29T16:58:14+06:00,
1000000000163628,77077778369,mKcell,mMTS,mMTS,,D02,2016-04-29T16:58:15+06:00,
1000000000163629,77017538821,mMTS,mKcell,mKcell,,D77,2016-04-29T16:59:56+06:00,
1000000000163630,77085071997,mMTS,mAltel,mAltel,,D77,2016-04-29T16:58:45+06:00,
