NPId,Number,RecipientId,DonorId,RangeHolderId,OldRoute,NewRoute,PortDate,RowCount
1000000000417122,77776363073,mMTS,mKarTel,mKarTel,,D77,2017-07-05T16:00:40+06:00,27
1000000000417123,77010140090,mKarTel,mMTS,mKcell,D77,D01,2017-07-05T16:00:43+06:00,
1000000000417126,77051734919,mKcell,mMTS,mKarTel,D77,D02,2017-07-05T16:02:15+06:00,
1000000000417127,77052028515,mKarTel,mMTS,mKarTel,D77,D01,2017-07-05T16:02:15+06:00,
1000000000417128,77015246455,mKcell,mMTS,mKcell,D77,D02,2017-07-05T16:03:01+06:00,
1000000000417131,77768888688,mAltel,mKcell,mKarTel,D02,D07,2017-07-05T16:03:37+06:00,
1000000000417132,77471872218,mKcell,mMTS,mMTS,,D02,2017-07-05T16:04:25+06:00,
1000000000417134,77756609083,mKarTel,mKcell,mKcell,,D01,2017-07-05T16:05:47+06:00,
1000000000417136,77001724715,mKarTel,mAltel,mAltel,,D01,2017-07-05T16:09:35+06:00,
1000000000417137,77017730222,mKcell,mMTS,mKcell,D77,D02,2017-07-05T16:11:28+06:00,
1000000000417138,77088288979,mMTS,mAltel,mAltel,,D77,2017-07-05T16:11:53+06:00,
1000000000417139,77471597079,mKcell,mMTS,mMTS,,D02,2017-07-05T16:13:18+06:00,
1000000000417140,77017312242,mKcell,mMTS,mKcell,D77,D02,2017-07-05T16:15:00+06:00,
1000000000417141,77757953360,mMTS,mKcell,mKcell,,D77,2017-07-05T16:14:48+06:00,
1000000000417144,77051282919,mKcell,mKarTel,mKarTel,,D02,2017-07-05T16:20:19+06:00,
1000000000417146,77717807891,mKcell,mMTS,mKarTel,D77,D02,2017-07-05T16:21:12+06:00,
1000000000417148,77018570871,mKcell,mMTS,mKcell,D77,D02,2017-07-05T16:22:10+06:00,
1000000000417149,77015664344,mKarTel,mKcell,mKcell,,D01,2017-07-05T16:22:27+06:00,
1000000000417150,77012088527,mKarTel,mKcell,mKcell,,D01,2017-07-05T16:23:22+06:00,
1000000000417151,77713957479,mKcell,mMTS,mKarTel,D77,D02,2017-07-05T16:24:07+06:00,
1000000000417153,77078065808,mKcell,mMTS,mMTS,,D02,2017-07-05T16:25:59+06:00,
1000000000417154,77015301515,mKcell,mKarTel,mKcell,D01,D02,2017-07-05T16:26:33+06:00,
1000000000417157,77018063010,mKarTel,mKcell,mKcell,,D01,2017-07-05T16:27:05+06:00,
1000000000417158,77017779706,mKcell,mAltel,mKcell,D07,D02,2017-07-05T16:27:32+06:00,
1000000000417159,77078065816,mKcell,mMTS,mMTS,,D02,2017-07-05T16:27:50+06:00,
1000000000417160,77752557755,mMTS,mKarTel,mKcell,D01,D77,2017-07-05T16:29:29+06:00,
1000000000417161,77078065769,mKcell,mMTS,mMTS,,D02,2017-07-05T16:29:56+06:00,
