NPId,Number,RecipientId,DonorId,RangeHolderId,OldRoute,NewRoute,PortDate,RowCount
1000000000423712,77017476207,mKarTel,mKcell,mKcell,,D01,2017-07-18T15:14:12+06:00,31
1000000000423891,77715412867,mMTS,mKarTel,mKarTel,,D77,2017-07-18T15:01:25+06:00,
1000000000423894,77000050000,mKcell,mAltel,mAltel,,D02,2017-07-18T15:02:08+06:00,
1000000000423895,77072224002,mKcell,mMTS,mMTS,,D02,2017-07-18T15:02:11+06:00,
1000000000423897,77764888999,mMTS,mKarTel,mKarTel,,D77,2017-07-18T15:06:43+06:00,
1000000000423898,77018770717,mKarTel,mKcell,mKcell,,D01,2017-07-18T15:07:00+06:00,
1000000000423900,77083051993,mKarTel,mAltel,mAltel,,D01,2017-07-18T15:06:49+06:00,
1000000000423902,77052313474,mMTS,mKarTel,mKarTel,,D77,2017-07-18T15:07:42+06:00,
1000000000423904,77021146322,mKarTel,mKcell,mKcell,,D01,2017-07-18T15:08:07+06:00,
1000000000423905,77020000266,mKcell,mMTS,mKcell,D77,D02,2017-07-18T15:08:58+06:00,
1000000000423908,77019596997,mKarTel,mKcell,mKcell,,D01,2017-07-18T15:10:25+06:00,
1000000000423911,77057614244,mKarTel,mMTS,mKarTel,D77,D01,2017-07-18T15:11:48+06:00,
1000000000423912,77475710653,mMTS,mKarTel,mMTS,D01,D77,2017-07-18T15:11:50+06:00,
1000000000423914,77471511585,mKcell,mMTS,mMTS,,D02,2017-07-18T15:11:47+06:00,
1000000000423918,77787284808,mMTS,mKcell,mKcell,,D77,2017-07-18T15:13:41+06:00,
1000000000423920,77784595049,mKarTel,mAltel,mKcell,D07,D01,2017-07-18T15:16:08+06:00,
1000000000423921,77011398970,mKcell,mKarTel,mKcell,D01,D02,2017-07-18T15:17:10+06:00,
1000000000423922,77072511560,mKarTel,mMTS,mMTS,,D01,2017-07-18T15:17:55+06:00,
1000000000423923,77475650506,mKcell,mMTS,mMTS,,D02,2017-07-18T15:18:15+06:00,
1000000000423925,77027663698,mMTS,mKcell,mKcell,,D77,2017-07-18T15:18:53+06:00,
1000000000423927,77019339130,mKcell,mAltel,mKcell,D07,D02,2017-07-18T15:19:44+06:00,
1000000000423930,77023552277,mKcell,mAltel,mKcell,D07,D02,2017-07-18T15:21:31+06:00,
1000000000423931,77784889474,mAltel,mKcell,mKcell,,D07,2017-07-18T15:21:22+06:00,
1000000000423932,77073487686,mKarTel,mMTS,mMTS,,D01,2017-07-18T15:21:36+06:00,
1000000000423933,77077781566,mKarTel,mMTS,mMTS,,D01,2017-07-18T15:22:16+06:00,
1000000000423934,77079955598,mKarTel,mMTS,mMTS,,D01,2017-07-18T15:22:43+06:00,
1000000000423935,77773377010,mMTS,mKarTel,mKarTel,,D77,2017-07-18T15:23:30+06:00,
1000000000423936,77776606060,mKarTel,mAltel,mKarTel,D07,D01,2017-07-18T15:23:34+06:00,
1000000000423937,77073603261,mKarTel,mMTS,mMTS,,D01,2017-07-18T15:26:57+06:00,
1000000000423938,77771024545,mMTS,mKarTel,mKarTel,,D77,2017-07-18T15:27:21+06:00,
1000000000423939,77017580028,mKarTel,mKcell,mKcell,,D01,2017-07-18T15:27:34+06:00,
