NPId,Number,RecipientId,DonorId,RangeHolderId,OldRoute,NewRoute,PortDate,RowCount
1000000000405054,77057078787,mMTS,mKarTel,mKarTel,,D77,2017-06-18T11:30:57+06:00,13
1000000000405056,77015373708,mMTS,mKcell,mKcell,,D77,2017-06-18T11:31:22+06:00,
1000000000405057,77789176243,mMTS,mKcell,mKcell,,D77,2017-06-18T11:31:40+06:00,
1000000000405058,77057078788,mMTS,mKarTel,mKarTel,,D77,2017-06-18T11:33:30+06:00,
1000000000405059,77017763896,mMTS,mKcell,mKcell,,D77,2017-06-18T11:33:26+06:00,
1000000000405060,77022509735,mKarTel,mAltel,mKcell,D07,D01,2017-06-18T11:35:52+06:00,
1000000000405061,77056146547,mMTS,mKarTel,mKarTel,,D77,2017-06-18T11:42:00+06:00,
1000000000405062,77001732003,mMTS,mAltel,mAltel,,D77,2017-06-18T11:46:32+06:00,
1000000000405063,77018083355,mKarTel,mKcell,mKcell,,D01,2017-06-18T11:49:11+06:00,
1000000000405064,77774808248,mKarTel,mAltel,mKarTel,D07,D01,2017-06-18T11:49:12+06:00,
1000000000405065,77789176573,mMTS,mKcell,mKcell,,D77,2017-06-18T11:56:43+06:00,
1000000000405066,77015528818,mAltel,mMTS,mKcell,D77,D07,2017-06-18T11:57:04+06:00,
1000000000405067,77055986000,mAltel,mMTS,mKarTel,D77,D07,2017-06-18T11:58:17+06:00,
