NPId,Number,RecipientId,DonorId,RangeHolderId,OldRoute,NewRoute,PortDate,RowCount
1000000000434326,77012992969,mKcell,mKarTel,mKcell,D01,D02,2017-08-03T17:13:22+06:00,28
1000000000434332,77019892650,mKcell,mKarTel,mKcell,D01,D02,2017-08-03T17:19:37+06:00,
1000000000434336,77017503666,mKcell,mKarTel,mKcell,D01,D02,2017-08-03T17:24:01+06:00,
1000000000434380,77783623322,mKcell,mAltel,mKcell,D07,D02,2017-08-03T17:01:18+06:00,
1000000000434381,77714878943,mKcell,mKarTel,mKarTel,,D02,2017-08-03T17:02:38+06:00,
1000000000434384,77001488154,mMTS,mAltel,mAltel,,D77,2017-08-03T17:03:40+06:00,
1000000000434385,77017956298,mKcell,mMTS,mKcell,D77,D02,2017-08-03T17:04:32+06:00,
1000000000434386,77078747281,mAltel,mMTS,mMTS,,D07,2017-08-03T17:04:26+06:00,
1000000000434387,77024407295,mMTS,mKcell,mKcell,,D77,2017-08-03T17:05:13+06:00,
1000000000434388,77016907557,mKarTel,mKcell,mKcell,,D01,2017-08-03T17:05:30+06:00,
1000000000434390,77015207673,mKarTel,mMTS,mKcell,D77,D01,2017-08-03T17:06:32+06:00,
1000000000434391,77021341510,mKcell,mMTS,mKcell,D77,D02,2017-08-03T17:07:21+06:00,
1000000000434392,77471138979,mAltel,mKarTel,mMTS,D01,D07,2017-08-03T17:07:20+06:00,
1000000000434393,77714478158,mMTS,mKarTel,mKarTel,,D77,2017-08-03T17:07:31+06:00,
1000000000434394,77013670709,mMTS,mKcell,mKcell,,D77,2017-08-03T17:08:39+06:00,
1000000000434396,77774430013,mMTS,mKarTel,mKarTel,,D77,2017-08-03T17:10:18+06:00,
1000000000434397,77012236373,mKcell,mAltel,mKcell,D07,D02,2017-08-03T17:11:06+06:00,
1000000000434399,77019447607,mAltel,mKcell,mKcell,,D07,2017-08-03T17:12:47+06:00,
1000000000434400,77783418067,mKcell,mKarTel,mKcell,D01,D02,2017-08-03T17:13:31+06:00,
1000000000434401,77007362007,mKcell,mAltel,mAltel,,D02,2017-08-03T17:13:47+06:00,
1000000000434403,77714878944,mKcell,mKarTel,mKarTel,,D02,2017-08-03T17:14:49+06:00,
1000000000434408,77025909376,mAltel,mKcell,mKcell,,D07,2017-08-03T17:17:18+06:00,
1000000000434411,77087878007,mMTS,mAltel,mAltel,,D77,2017-08-03T17:19:38+06:00,
1000000000434413,77778881413,mKcell,mKarTel,mKarTel,,D02,2017-08-03T17:22:20+06:00,
1000000000434416,77027156419,mMTS,mKcell,mKcell,,D77,2017-08-03T17:24:45+06:00,
1000000000434417,77077587205,mKarTel,mMTS,mMTS,,D01,2017-08-03T17:27:04+06:00,
1000000000434418,77071294169,mKarTel,mMTS,mMTS,,D01,2017-08-03T17:28:44+06:00,
1000000000434419,77785778093,mMTS,mKcell,mKcell,,D77,2017-08-03T17:29:36+06:00,
