NPId,Number,RecipientId,DonorId,RangeHolderId,OldRoute,NewRoute,PortDate,RowCount
1000000000327428,77754981045,mAltel,mKcell,mKcell,,D07,2017-02-11T15:30:29+06:00,22
1000000000327429,77009998885,mKcell,mAltel,mAltel,,D02,2017-02-11T15:30:58+06:00,
1000000000327430,77773296161,mAltel,mKarTel,mKarTel,,D07,2017-02-11T15:32:32+06:00,
1000000000327431,77014447771,mKarTel,mKcell,mKcell,,D01,2017-02-11T15:33:05+06:00,
1000000000327432,77762555505,mMTS,mKarTel,mKarTel,,D77,2017-02-11T15:34:26+06:00,
1000000000327433,77718303491,mKarTel,mAltel,mKarTel,D07,D01,2017-02-11T15:36:37+06:00,
1000000000327435,77752229898,mMTS,mKcell,mKcell,,D77,2017-02-11T15:37:48+06:00,
1000000000327436,77013835354,mMTS,mKcell,mKcell,,D77,2017-02-11T15:39:30+06:00,
1000000000327437,77750001236,mMTS,mKcell,mKcell,,D77,2017-02-11T15:39:55+06:00,
1000000000327438,77075130085,mKarTel,mMTS,mMTS,,D01,2017-02-11T15:40:13+06:00,
1000000000327439,77085535313,mKcell,mAltel,mAltel,,D02,2017-02-11T15:41:31+06:00,
1000000000327440,77027991679,mAltel,mKcell,mKcell,,D07,2017-02-11T15:42:07+06:00,
1000000000327441,77027271014,mKarTel,mKcell,mKcell,D02,D01,2017-02-11T15:42:53+06:00,
1000000000327442,77778314848,mMTS,mKarTel,mKarTel,,D77,2017-02-11T15:43:26+06:00,
1000000000327443,77770831201,mKarTel,mMTS,mKarTel,D77,D01,2017-02-11T15:43:55+06:00,
1000000000327445,77479709314,mKarTel,mMTS,mMTS,,D01,2017-02-11T15:46:57+06:00,
1000000000327447,77754030113,mMTS,mKcell,mKcell,,D77,2017-02-11T15:47:33+06:00,
1000000000327450,77071702040,mKarTel,mMTS,mMTS,,D01,2017-02-11T15:49:04+06:00,
1000000000327451,77017040700,mAltel,mKcell,mKcell,,D07,2017-02-11T15:50:40+06:00,
1000000000327454,77072433734,mMTS,mKcell,mMTS,D02,D77,2017-02-11T15:55:52+06:00,
1000000000327455,77056100142,mMTS,mKarTel,mKarTel,,D77,2017-02-11T15:57:56+06:00,
1000000000327456,77714424222,mKcell,mKarTel,mKarTel,,D02,2017-02-11T15:58:39+06:00,
