NPId,Number,RecipientId,DonorId,RangeHolderId,OldRoute,NewRoute,PortDate,RowCount
1000000000422393,77756661007,mMTS,mKcell,mKcell,D02,D77,2017-07-15T15:02:27+06:00,12
1000000000422396,77471233338,mKarTel,mMTS,mMTS,,D01,2017-07-15T15:06:56+06:00,
1000000000422400,77777184243,mKcell,mKarTel,mKarTel,,D02,2017-07-15T15:20:30+06:00,
1000000000422401,77770538443,mMTS,mKarTel,mKarTel,,D77,2017-07-15T15:21:10+06:00,
1000000000422403,77011650969,mMTS,mKcell,mKcell,,D77,2017-07-15T15:23:06+06:00,
1000000000422404,77773934993,mKarTel,mMTS,mKarTel,D77,D01,2017-07-15T15:26:44+06:00,
1000000000422405,77021542340,mAltel,mKcell,mKcell,,D07,2017-07-15T15:26:30+06:00,
1000000000422407,77767075253,mMTS,mKarTel,mKarTel,,D77,2017-07-15T15:27:23+06:00,
1000000000422408,77071199708,mMTS,mKcell,mMTS,D02,D77,2017-07-15T15:27:19+06:00,
1000000000422409,77474040840,mAltel,mMTS,mMTS,,D07,2017-07-15T15:27:18+06:00,
1000000000422410,77072909033,mAltel,mMTS,mMTS,,D07,2017-07-15T15:28:27+06:00,
1000000000422411,77783832525,mMTS,mKcell,mKcell,,D77,2017-07-15T15:28:44+06:00,
