NPId,Number,RecipientId,DonorId,RangeHolderId,OldRoute,NewRoute,PortDate,RowCount
1000000000108309,77788880008,mKcell,mAltel,mKcell,D07,D02,2016-03-09T15:04:44+06:00,36
1000000000120410,77766666410,mMTS,mKarTel,mKarTel,,D77,2016-03-09T15:01:13+06:00,
1000000000120411,77021097709,mMTS,mKcell,mKcell,,D77,2016-03-09T15:00:55+06:00,
1000000000120412,77015517511,mMTS,mKcell,mKcell,,D77,2016-03-09T15:01:56+06:00,
1000000000120413,77714160903,mKcell,mKarTel,mKarTel,,D02,2016-03-09T15:06:18+06:00,
1000000000120416,77766666412,mMTS,mKarTel,mKarTel,,D77,2016-03-09T15:07:22+06:00,
1000000000120417,77789614780,mAltel,mKcell,mKcell,,D07,2016-03-09T15:07:22+06:00,
1000000000120418,77021581399,mKarTel,mKcell,mKcell,,D01,2016-03-09T15:08:25+06:00,
1000000000120419,77470518164,mAltel,mMTS,mMTS,,D07,2016-03-09T15:08:11+06:00,
1000000000120421,77051038071,mMTS,mKarTel,mKarTel,,D77,2016-03-09T15:09:39+06:00,
1000000000120422,77016606050,mAltel,mKcell,mKcell,,D07,2016-03-09T15:09:09+06:00,
1000000000120424,77016360221,mMTS,mKcell,mKcell,,D77,2016-03-09T15:10:32+06:00,
1000000000120426,77079991809,mMTS,mAltel,mMTS,D07,D77,2016-03-09T15:11:19+06:00,
1000000000120428,77075081993,mAltel,mMTS,mMTS,,D07,2016-03-09T15:13:26+06:00,
1000000000120429,77757660855,mKarTel,mKcell,mKcell,,D01,2016-03-09T15:14:27+06:00,
1000000000120431,77015443819,mMTS,mKcell,mKcell,,D77,2016-03-09T15:14:59+06:00,
1000000000120432,77022011188,mAltel,mKcell,mKcell,,D07,2016-03-09T15:15:23+06:00,
1000000000120433,77022362864,mMTS,mKcell,mKcell,,D77,2016-03-09T15:16:35+06:00,
1000000000120436,77013887076,mAltel,mKcell,mKcell,,D07,2016-03-09T15:18:38+06:00,
1000000000120437,77711087145,mMTS,mKarTel,mKarTel,,D77,2016-03-09T15:19:39+06:00,
1000000000120438,77024000770,mMTS,mKcell,mKcell,,D77,2016-03-09T15:19:44+06:00,
1000000000120440,77770030099,mAltel,mKarTel,mKarTel,,D07,2016-03-09T15:20:45+06:00,
1000000000120441,77027763652,mKarTel,mKcell,mKcell,,D01,2016-03-09T15:20:34+06:00,
1000000000120442,77027227458,mMTS,mKcell,mKcell,,D77,2016-03-09T15:21:37+06:00,
1000000000120443,77026701282,mMTS,mKcell,mKcell,,D77,2016-03-09T15:21:56+06:00,
1000000000120445,77082296030,mKcell,mAltel,mAltel,,D02,2016-03-09T15:22:37+06:00,
1000000000120446,77753198006,mAltel,mKcell,mKcell,,D07,2016-03-09T15:24:04+06:00,
1000000000120447,77071950318,mKcell,mMTS,mMTS,,D02,2016-03-09T15:24:34+06:00,
1000000000120448,77763515101,mKcell,mKarTel,mKarTel,,D02,2016-03-09T15:25:50+06:00,
1000000000120449,77073155987,mAltel,mMTS,mMTS,,D07,2016-03-09T15:25:51+06:00,
1000000000120451,77026015564,mKarTel,mKcell,mKcell,,D01,2016-03-09T15:27:27+06:00,
1000000000120453,77477770440,mAltel,mMTS,mMTS,,D07,2016-03-09T15:27:50+06:00,
1000000000120454,77778077770,mAltel,mKarTel,mKarTel,,D07,2016-03-09T15:28:32+06:00,
1000000000120455,77017517407,mAltel,mKcell,mKcell,,D07,2016-03-09T15:28:28+06:00,
1000000000120456,77779633182,mMTS,mKarTel,mKarTel,,D77,2016-03-09T15:29:46+06:00,
1000000000120458,77054248078,mKarTel,mMTS,mKarTel,D77,D01,2016-03-09T15:29:43+06:00,
