NPId,Number,RecipientId,DonorId,RangeHolderId,OldRoute,NewRoute,PortDate,RowCount
1000000000352633,77087767939,mAltel,mMTS,mAltel,D77,D07,2017-03-26T15:05:11+06:00,14
1000000000352635,77781289998,mKarTel,mKcell,mKcell,,D01,2017-03-26T15:07:03+06:00,
1000000000352636,77012358441,mAltel,mKcell,mKcell,,D07,2017-03-26T15:07:40+06:00,
1000000000352638,77770200288,mMTS,mKarTel,mKarTel,,D77,2017-03-26T15:11:35+06:00,
1000000000352639,77011104818,mKarTel,mKcell,mKcell,,D01,2017-03-26T15:11:46+06:00,
1000000000352641,77007220101,mKarTel,mAltel,mAltel,,D01,2017-03-26T15:12:56+06:00,
1000000000352642,77078390083,mAltel,mMTS,mMTS,,D07,2017-03-26T15:15:38+06:00,
1000000000352644,77082553815,mKarTel,mAltel,mAltel,,D01,2017-03-26T15:19:45+06:00,
1000000000352645,77019120021,mKarTel,mKcell,mKcell,,D01,2017-03-26T15:21:17+06:00,
1000000000352647,77774602328,mKarTel,mAltel,mKarTel,D07,D01,2017-03-26T15:24:21+06:00,
1000000000352649,77010142073,mMTS,mKcell,mKcell,,D77,2017-03-26T15:26:30+06:00,
1000000000352650,77003388003,mMTS,mAltel,mAltel,,D77,2017-03-26T15:26:57+06:00,
1000000000352652,77755611211,mAltel,mKcell,mKcell,,D07,2017-03-26T15:27:11+06:00,
1000000000352653,77051927377,mKarTel,mAltel,mKarTel,D07,D01,2017-03-26T15:28:15+06:00,
