NPId,Number,RecipientId,DonorId,RangeHolderId,OldRoute,NewRoute,PortDate,RowCount
1000000000445297,77009333777,mKcell,mAltel,mAltel,,D02,2017-08-24T19:02:24+06:00,9
1000000000445298,77021283888,mKarTel,mKcell,mKcell,,D01,2017-08-24T19:03:12+06:00,
1000000000445300,77081553354,mKarTel,mAltel,mAltel,,D01,2017-08-24T19:05:45+06:00,
1000000000445302,77771885666,mKcell,mMTS,mKarTel,D77,D02,2017-08-24T19:09:39+06:00,
1000000000445303,77019442888,mMTS,mKcell,mKcell,,D77,2017-08-24T19:13:47+06:00,
1000000000445304,77052607242,mMTS,mAltel,mKarTel,D07,D77,2017-08-24T19:17:38+06:00,
1000000000445305,77474311544,mKcell,mMTS,mMTS,,D02,2017-08-24T19:18:28+06:00,
1000000000445307,77076706886,mKcell,mMTS,mMTS,,D02,2017-08-24T19:25:03+06:00,
1000000000445308,77055522277,mKcell,mKarTel,mKarTel,,D02,2017-08-24T19:29:46+06:00,
