NPId,Number,RecipientId,DonorId,RangeHolderId,OldRoute,NewRoute,PortDate,RowCount
1000000000330695,77781465329,mKarTel,mKcell,mKcell,,D01,2017-02-17T20:00:42+06:00,14
1000000000330696,77004000738,mKcell,mAltel,mAltel,,D02,2017-02-17T20:01:00+06:00,
1000000000330697,77028525284,mMTS,mKcell,mKcell,,D77,2017-02-17T20:01:46+06:00,
1000000000330698,77475559219,mKcell,mMTS,mMTS,,D02,2017-02-17T20:04:30+06:00,
1000000000330699,77056669333,mKcell,mKarTel,mKarTel,D01,D02,2017-02-17T20:07:06+06:00,
1000000000330701,77075596434,mKcell,mMTS,mMTS,,D02,2017-02-17T20:09:47+06:00,
1000000000330703,77014591666,mKarTel,mKcell,mKcell,,D01,2017-02-17T20:19:20+06:00,
1000000000330704,77012700060,mKarTel,mKcell,mKcell,,D01,2017-02-17T20:20:29+06:00,
1000000000330705,77000999162,mKcell,mAltel,mAltel,,D02,2017-02-17T20:22:24+06:00,
1000000000330706,77000222918,mKcell,mAltel,mAltel,,D02,2017-02-17T20:22:17+06:00,
1000000000330707,77000222753,mKcell,mAltel,mAltel,,D02,2017-02-17T20:22:18+06:00,
1000000000330708,77000999865,mKcell,mAltel,mAltel,,D02,2017-02-17T20:22:27+06:00,
1000000000330709,77000999841,mKcell,mAltel,mAltel,,D02,2017-02-17T20:26:13+06:00,
1000000000330710,77000999261,mKcell,mAltel,mAltel,,D02,2017-02-17T20:26:06+06:00,
