NPId,Number,RecipientId,DonorId,RangeHolderId,OldRoute,NewRoute,PortDate,RowCount
1000000000320874,77719624142,mMTS,mKarTel,mKarTel,,D77,2017-02-01T14:01:46+06:00,50
1000000000320876,77773333233,mKcell,mKarTel,mKarTel,,D02,2017-02-01T14:03:03+06:00,
1000000000320877,77052541830,mMTS,mKarTel,mKarTel,,D77,2017-02-01T14:01:19+06:00,
1000000000320878,77073624969,mAltel,mKarTel,mMTS,D01,D07,2017-02-01T14:02:59+06:00,
1000000000320882,77762785082,mMTS,mKarTel,mKarTel,,D77,2017-02-01T14:01:27+06:00,
1000000000320894,77057044689,mAltel,mKarTel,mKarTel,D01,D07,2017-02-01T14:01:01+06:00,
1000000000320899,77051614801,mMTS,mKarTel,mKarTel,,D77,2017-02-01T14:00:51+06:00,
1000000000320982,77719025248,mKarTel,mMTS,mKarTel,D77,D01,2017-02-01T14:19:54+06:00,
1000000000321172,77003141172,mKarTel,mAltel,mAltel,,D01,2017-02-01T14:00:15+06:00,
1000000000321174,77011777599,mMTS,mKcell,mKcell,,D77,2017-02-01T14:01:48+06:00,
1000000000321175,77007760722,mKcell,mAltel,mAltel,,D02,2017-02-01T14:02:47+06:00,
1000000000321176,77017239995,mKarTel,mKcell,mKcell,,D01,2017-02-01T14:04:45+06:00,
1000000000321177,77019229130,mAltel,mKcell,mKcell,,D07,2017-02-01T14:04:58+06:00,
1000000000321180,77781190210,mMTS,mKarTel,mKcell,D01,D77,2017-02-01T14:08:01+06:00,
1000000000321181,77015559697,mKarTel,mKcell,mKcell,,D01,2017-02-01T14:09:43+06:00,
1000000000321182,77079966507,mKarTel,mMTS,mMTS,,D01,2017-02-01T14:10:19+06:00,
1000000000321182,77079966508,mKarTel,mMTS,mMTS,,D01,2017-02-01T14:10:19+06:00,
1000000000321182,77079966509,mKarTel,mMTS,mMTS,,D01,2017-02-01T14:10:19+06:00,
1000000000321182,77479801017,mKarTel,mMTS,mMTS,,D01,2017-02-01T14:10:19+06:00,
1000000000321183,77028570464,mKarTel,mKcell,mKcell,,D01,2017-02-01T14:10:24+06:00,
1000000000321185,77079666770,mAltel,mMTS,mMTS,,D07,2017-02-01T14:11:00+06:00,
1000000000321186,77783088388,mMTS,mKcell,mKcell,,D77,2017-02-01T14:11:19+06:00,
1000000000321187,77778531365,mAltel,mKarTel,mKarTel,,D07,2017-02-01T14:11:36+06:00,
1000000000321190,77779523334,mMTS,mKarTel,mKarTel,,D77,2017-02-01T14:13:01+06:00,
1000000000321191,77088868808,mAltel,mKcell,mAltel,D02,D07,2017-02-01T14:13:32+06:00,
1000000000321192,77770343444,mMTS,mKarTel,mKarTel,,D77,2017-02-01T14:14:39+06:00,
1000000000321193,77772204626,mAltel,mKarTel,mKarTel,,D07,2017-02-01T14:14:45+06:00,
1000000000321195,77017559914,mMTS,mKcell,mKcell,,D77,2017-02-01T14:15:54+06:00,
1000000000321196,77015387057,mKarTel,mKcell,mKcell,,D01,2017-02-01T14:17:38+06:00,
1000000000321197,77756320261,mKcell,mKarTel,mKcell,D01,D02,2017-02-01T14:16:51+06:00,
1000000000321199,77784370202,mKcell,mKarTel,mKcell,D01,D02,2017-02-01T14:17:04+06:00,
1000000000321201,77768886616,mMTS,mKarTel,mKarTel,,D77,2017-02-01T14:17:40+06:00,
1000000000321202,77051853566,mMTS,mKarTel,mKarTel,,D77,2017-02-01T14:17:46+06:00,
1000000000321203,77026431144,mAltel,mKcell,mKcell,,D07,2017-02-01T14:17:45+06:00,
1000000000321204,77002571176,mMTS,mAltel,mAltel,,D77,2017-02-01T14:18:25+06:00,
1000000000321205,77082823353,mMTS,mKcell,mAltel,D02,D77,2017-02-01T14:19:09+06:00,
1000000000321207,77005255882,mKarTel,mAltel,mAltel,,D01,2017-02-01T14:20:04+06:00,
1000000000321209,77752222055,mKarTel,mKcell,mKcell,,D01,2017-02-01T14:22:25+06:00,
1000000000321213,77072201190,mKarTel,mMTS,mMTS,,D01,2017-02-01T14:23:44+06:00,
1000000000321214,77081798002,mMTS,mAltel,mAltel,,D77,2017-02-01T14:23:54+06:00,
1000000000321215,77714022176,mAltel,mKarTel,mKarTel,,D07,2017-02-01T14:24:47+06:00,
1000000000321216,77780002719,mKarTel,mKcell,mKcell,,D01,2017-02-01T14:25:04+06:00,
1000000000321217,77474732986,mKcell,mMTS,mMTS,,D02,2017-02-01T14:25:22+06:00,
1000000000321218,77015125129,mKcell,mKarTel,mKcell,D01,D02,2017-02-01T14:27:17+06:00,
1000000000321219,77022585949,mAltel,mKcell,mKcell,,D07,2017-02-01T14:26:57+06:00,
1000000000321220,77017050387,mKarTel,mKcell,mKcell,,D01,2017-02-01T14:27:41+06:00,
1000000000321221,77770055557,mMTS,mKarTel,mKarTel,,D77,2017-02-01T14:28:12+06:00,
1000000000321222,77024444987,mKarTel,mKcell,mKcell,,D01,2017-02-01T14:29:21+06:00,
1000000000321224,77014234355,mKarTel,mKcell,mKcell,,D01,2017-02-01T14:29:22+06:00,
1000000000321225,77024599544,mMTS,mKcell,mKcell,,D77,2017-02-01T14:29:42+06:00,
