NPId,Number,RecipientId,DonorId,RangeHolderId,OldRoute,NewRoute,PortDate,RowCount
1000000000186069,77001216872,mKcell,mAltel,mAltel,,D02,2016-06-01T20:00:58+06:00,6
1000000000186070,77769009189,mKcell,mKarTel,mKarTel,,D02,2016-06-01T20:05:07+06:00,
1000000000186071,77077731196,mKarTel,mMTS,mMTS,,D01,2016-06-01T20:09:18+06:00,
1000000000186072,77001057516,mMTS,mAltel,mAltel,,D77,2016-06-01T20:12:06+06:00,
1000000000186074,77085819755,mKcell,mAltel,mAltel,,D02,2016-06-01T20:16:51+06:00,
1000000000186076,77075510550,mKcell,mMTS,mMTS,,D02,2016-06-01T20:23:43+06:00,
