NPId,Number,RecipientId,DonorId,RangeHolderId,OldRoute,NewRoute,PortDate,RowCount
1000000000005381,77071305137,mAltel,mMTS,mMTS,,D07,2016-01-09T11:00:32+06:00,13
1000000000005383,77770606004,mKcell,mKarTel,mKarTel,,D02,2016-01-09T11:02:21+06:00,
1000000000005384,77770606005,mKcell,mKarTel,mKarTel,,D02,2016-01-09T11:07:52+06:00,
1000000000005386,77017860724,mMTS,mKcell,mKcell,,D77,2016-01-09T11:14:15+06:00,
1000000000005387,77027046480,mAltel,mKcell,mKcell,,D07,2016-01-09T11:15:04+06:00,
1000000000005388,77056246691,mKcell,mKarTel,mKarTel,,D02,2016-01-09T11:16:40+06:00,
1000000000005389,77088888812,mKcell,mAltel,mAltel,,D02,2016-01-09T11:20:47+06:00,
1000000000005390,77078991155,mAltel,mMTS,mMTS,,D07,2016-01-09T11:22:40+06:00,
1000000000005391,77773279777,mAltel,mKarTel,mKarTel,,D07,2016-01-09T11:24:21+06:00,
1000000000005392,77078990808,mAltel,mMTS,mMTS,,D07,2016-01-09T11:24:15+06:00,
1000000000005394,77778665959,mAltel,mKarTel,mKarTel,,D07,2016-01-09T11:27:52+06:00,
1000000000005396,77770380888,mKcell,mKarTel,mKarTel,,D02,2016-01-09T11:29:29+06:00,
1000000000005397,77017418740,mAltel,mKcell,mKcell,,D07,2016-01-09T11:29:36+06:00,
