NPId,Number,RecipientId,DonorId,RangeHolderId,OldRoute,NewRoute,PortDate,RowCount
1000000000270647,77714701301,mKcell,mKarTel,mKarTel,,D02,2016-10-31T11:02:15+06:00,37
1000000000270649,77003515843,mMTS,mKarTel,mAltel,D01,D77,2016-10-31T11:03:53+06:00,
1000000000270650,77759712288,mAltel,mKcell,mKcell,,D07,2016-10-31T11:03:47+06:00,
1000000000270651,77017454747,mKcell,mKarTel,mKcell,D01,D02,2016-10-31T11:04:59+06:00,
1000000000270653,77005556919,mKcell,mAltel,mAltel,,D02,2016-10-31T11:06:24+06:00,
1000000000270654,77005554929,mKcell,mAltel,mAltel,,D02,2016-10-31T11:08:11+06:00,
1000000000270656,77051194130,mMTS,mKarTel,mKarTel,,D77,2016-10-31T11:09:27+06:00,
1000000000270658,77474507087,mMTS,mKcell,mMTS,D02,D77,2016-10-31T11:11:02+06:00,
1000000000270659,77004102093,mMTS,mKarTel,mAltel,D01,D77,2016-10-31T11:12:10+06:00,
1000000000270660,77078508844,mMTS,mKarTel,mMTS,D01,D77,2016-10-31T11:15:11+06:00,
1000000000270662,77755997499,mKcell,mAltel,mKcell,D07,D02,2016-10-31T11:15:36+06:00,
1000000000270663,77774619495,mMTS,mKarTel,mKarTel,,D77,2016-10-31T11:17:47+06:00,
1000000000270664,77782682243,mMTS,mKcell,mKcell,,D77,2016-10-31T11:17:37+06:00,
1000000000270665,77078170930,mKcell,mMTS,mMTS,,D02,2016-10-31T11:18:05+06:00,
1000000000270666,77029343603,mKarTel,mKcell,mKcell,,D01,2016-10-31T11:19:09+06:00,
1000000000270667,77004102083,mMTS,mKarTel,mAltel,D01,D77,2016-10-31T11:19:29+06:00,
1000000000270668,77714540009,mMTS,mKarTel,mKarTel,,D77,2016-10-31T11:19:43+06:00,
1000000000270669,77005556929,mKcell,mAltel,mAltel,,D02,2016-10-31T11:20:45+06:00,
1000000000270670,77012222663,mKarTel,mKcell,mKcell,,D01,2016-10-31T11:21:00+06:00,
1000000000270671,77755965790,mKarTel,mKcell,mKcell,,D01,2016-10-31T11:21:04+06:00,
1000000000270672,77015953060,mAltel,mKcell,mKcell,,D07,2016-10-31T11:22:11+06:00,
1000000000270673,77782682237,mMTS,mKcell,mKcell,,D77,2016-10-31T11:22:34+06:00,
1000000000270674,77004539438,mMTS,mKarTel,mAltel,D01,D77,2016-10-31T11:23:22+06:00,
1000000000270675,77076399609,mKcell,mMTS,mMTS,,D02,2016-10-31T11:23:47+06:00,
1000000000270676,77710270955,mMTS,mKarTel,mKarTel,,D77,2016-10-31T11:24:17+06:00,
1000000000270677,77014107090,mKcell,mMTS,mKcell,D77,D02,2016-10-31T11:24:59+06:00,
1000000000270678,77005553989,mKcell,mAltel,mAltel,,D02,2016-10-31T11:25:00+06:00,
1000000000270679,77777172727,mMTS,mKarTel,mKarTel,,D77,2016-10-31T11:25:18+06:00,
1000000000270680,77023158090,mMTS,mKcell,mKcell,,D77,2016-10-31T11:26:27+06:00,
1000000000270682,77004102052,mMTS,mKarTel,mAltel,D01,D77,2016-10-31T11:26:50+06:00,
1000000000270683,77011114388,mKarTel,mKcell,mKcell,,D01,2016-10-31T11:27:52+06:00,
1000000000270684,77782682263,mMTS,mKcell,mKcell,,D77,2016-10-31T11:27:45+06:00,
1000000000270685,77005554131,mKcell,mAltel,mAltel,,D02,2016-10-31T11:29:04+06:00,
1000000000270686,77478457087,mKcell,mMTS,mMTS,,D02,2016-10-31T11:29:00+06:00,
1000000000270687,77017643873,mKcell,mMTS,mKcell,D77,D02,2016-10-31T11:29:03+06:00,
1000000000270688,77476783740,mKcell,mMTS,mMTS,D77,D02,2016-10-31T11:29:26+06:00,
1000000000270689,77059163701,mMTS,mKarTel,mKarTel,,D77,2016-10-31T11:29:44+06:00,
