NPId,Number,RecipientId,DonorId,RangeHolderId,OldRoute,NewRoute,PortDate,RowCount
1000000000142252,77010356722,mKarTel,mKcell,mKcell,,D01,2016-04-04T16:36:01+06:00,39
1000000000142252,77017210844,mKarTel,mKcell,mKcell,,D01,2016-04-04T16:36:01+06:00,
1000000000142324,77003062068,mKarTel,mAltel,mAltel,,D01,2016-04-04T16:31:02+06:00,
1000000000142325,77001577768,mKarTel,mAltel,mAltel,,D01,2016-04-04T16:31:02+06:00,
1000000000142326,77054317955,mMTS,mKarTel,mKarTel,,D77,2016-04-04T16:32:39+06:00,
1000000000142328,77011118653,mMTS,mKcell,mKcell,,D77,2016-04-04T16:32:21+06:00,
1000000000142329,77021074259,mMTS,mKcell,mKcell,,D77,2016-04-04T16:32:21+06:00,
1000000000142330,77774845220,mMTS,mKarTel,mKarTel,,D77,2016-04-04T16:33:15+06:00,
1000000000142331,77056602990,mMTS,mKarTel,mKarTel,,D77,2016-04-04T16:34:20+06:00,
1000000000142332,77479133037,mKcell,mAltel,mMTS,D07,D02,2016-04-04T16:34:25+06:00,
1000000000142333,77082840044,mKarTel,mAltel,mAltel,,D01,2016-04-04T16:34:52+06:00,
1000000000142334,77086279581,mMTS,mAltel,mAltel,,D77,2016-04-04T16:34:30+06:00,
1000000000142335,77777715599,mKcell,mKarTel,mKarTel,,D02,2016-04-04T16:36:38+06:00,
1000000000142338,77786066060,mMTS,mKcell,mKcell,,D77,2016-04-04T16:36:59+06:00,
1000000000142339,77027275985,mAltel,mKcell,mKcell,,D07,2016-04-04T16:37:09+06:00,
1000000000142340,77014817629,mMTS,mKcell,mKcell,,D77,2016-04-04T16:38:41+06:00,
1000000000142341,77007730929,mKcell,mAltel,mAltel,,D02,2016-04-04T16:39:05+06:00,
1000000000142343,77751939696,mMTS,mKcell,mKcell,,D77,2016-04-04T16:39:48+06:00,
1000000000142344,77787884951,mMTS,mKcell,mKcell,,D77,2016-04-04T16:41:59+06:00,
1000000000142345,77759130319,mMTS,mKcell,mKcell,,D77,2016-04-04T16:43:17+06:00,
1000000000142346,77087608186,mMTS,mAltel,mAltel,,D77,2016-04-04T16:44:18+06:00,
1000000000142348,77072548515,mKarTel,mMTS,mMTS,,D01,2016-04-04T16:46:18+06:00,
1000000000142349,77017849417,mMTS,mKcell,mKcell,,D77,2016-04-04T16:46:38+06:00,
1000000000142350,77775191954,mMTS,mAltel,mKarTel,D07,D77,2016-04-04T16:46:44+06:00,
1000000000142351,77085174858,mMTS,mAltel,mAltel,,D77,2016-04-04T16:46:48+06:00,
1000000000142352,77019381111,mKarTel,mKcell,mKcell,,D01,2016-04-04T16:47:53+06:00,
1000000000142353,77079090901,mMTS,mAltel,mMTS,D07,D77,2016-04-04T16:47:39+06:00,
1000000000142355,77017430374,mMTS,mKcell,mKcell,,D77,2016-04-04T16:48:34+06:00,
1000000000142356,77074940818,mKcell,mMTS,mMTS,,D02,2016-04-04T16:48:56+06:00,
1000000000142361,77029563994,mKcell,mMTS,mKcell,D77,D02,2016-04-04T16:49:47+06:00,
1000000000142362,77052793497,mMTS,mKarTel,mKarTel,,D77,2016-04-04T16:50:13+06:00,
1000000000142363,77012142537,mKarTel,mKcell,mKcell,,D01,2016-04-04T16:50:10+06:00,
1000000000142371,77788835656,mMTS,mKcell,mKcell,,D77,2016-04-04T16:50:45+06:00,
1000000000142373,77000995095,mMTS,mAltel,mAltel,,D77,2016-04-04T16:50:45+06:00,
1000000000142375,77773725175,mMTS,mKarTel,mKarTel,,D77,2016-04-04T16:52:58+06:00,
1000000000142376,77015705491,mKcell,mAltel,mKcell,D07,D02,2016-04-04T16:53:44+06:00,
1000000000142380,77000992092,mMTS,mAltel,mAltel,,D77,2016-04-04T16:56:47+06:00,
1000000000142381,77087593040,mMTS,mAltel,mAltel,,D77,2016-04-04T16:58:12+06:00,
1000000000142382,77087541231,mMTS,mAltel,mAltel,,D77,2016-04-04T16:58:20+06:00,
