NPId,Number,RecipientId,DonorId,RangeHolderId,OldRoute,NewRoute,PortDate,RowCount
1000000000215988,77783377724,mMTS,mKcell,mKcell,,D77,2016-07-23T13:30:10+06:00,21
1000000000215989,77078750099,mKcell,mMTS,mMTS,,D02,2016-07-23T13:30:26+06:00,
1000000000215990,77754685118,mMTS,mKcell,mKcell,,D77,2016-07-23T13:30:51+06:00,
1000000000215991,77085266176,mAltel,mKcell,mAltel,D02,D07,2016-07-23T13:32:38+06:00,
1000000000215992,77005575767,mMTS,mAltel,mAltel,,D77,2016-07-23T13:33:13+06:00,
1000000000215993,77771127557,mKarTel,mKcell,mKarTel,D02,D01,2016-07-23T13:34:22+06:00,
1000000000215995,77771127546,mKarTel,mKcell,mKarTel,D02,D01,2016-07-23T13:35:33+06:00,
1000000000215996,77771127544,mKarTel,mKcell,mKarTel,D02,D01,2016-07-23T13:36:43+06:00,
1000000000215997,77771127538,mKarTel,mKcell,mKarTel,D02,D01,2016-07-23T13:38:35+06:00,
1000000000215998,77771127533,mKarTel,mKcell,mKarTel,D02,D01,2016-07-23T13:42:13+06:00,
1000000000216000,77771127525,mKarTel,mKcell,mKarTel,D02,D01,2016-07-23T13:46:36+06:00,
1000000000216001,77714093406,mKcell,mKarTel,mKarTel,,D02,2016-07-23T13:48:29+06:00,
1000000000216002,77771127524,mKarTel,mKcell,mKarTel,D02,D01,2016-07-23T13:48:13+06:00,
1000000000216003,77007122300,mMTS,mAltel,mAltel,,D77,2016-07-23T13:47:43+06:00,
1000000000216004,77771127523,mKarTel,mKcell,mKarTel,D02,D01,2016-07-23T13:49:15+06:00,
1000000000216005,77056222127,mKarTel,mMTS,mKarTel,D77,D01,2016-07-23T13:50:01+06:00,
1000000000216006,77017809010,mAltel,mKcell,mKcell,,D07,2016-07-23T13:50:15+06:00,
1000000000216009,77777757555,mKcell,mKarTel,mKarTel,,D02,2016-07-23T13:56:25+06:00,
1000000000216010,77754011119,mMTS,mKcell,mKcell,,D77,2016-07-23T13:54:42+06:00,
1000000000216011,77015515119,mMTS,mKcell,mKcell,,D77,2016-07-23T13:56:27+06:00,
1000000000216012,77717841602,mMTS,mKarTel,mKarTel,,D77,2016-07-23T13:57:36+06:00,
