NPId,Number,RecipientId,DonorId,RangeHolderId,OldRoute,NewRoute,PortDate,RowCount
1000000000215163,77015031010,mKcell,mKarTel,mKcell,D01,D02,2016-07-21T20:04:28+06:00,4
1000000000215168,77079333118,mKarTel,mMTS,mMTS,,D01,2016-07-21T20:10:45+06:00,
1000000000215171,77023154500,mAltel,mKcell,mKcell,,D07,2016-07-21T20:19:50+06:00,
1000000000215172,77784210904,mAltel,mKcell,mKcell,,D07,2016-07-21T20:24:51+06:00,
