NPId,Number,RecipientId,DonorId,RangeHolderId,OldRoute,NewRoute,PortDate,RowCount
1000000000263502,77027444704,mMTS,mKcell,mKcell,,D77,2016-10-17T12:34:49+06:00,28
1000000000263503,77018749990,mMTS,mKcell,mKcell,,D77,2016-10-17T12:34:49+06:00,
1000000000263504,77059137800,mMTS,mKarTel,mKarTel,,D77,2016-10-17T12:35:26+06:00,
1000000000263505,77007774127,mKcell,mAltel,mAltel,,D02,2016-10-17T12:35:39+06:00,
1000000000263506,77007704505,mAltel,mMTS,mAltel,D77,D07,2016-10-17T12:35:50+06:00,
1000000000263508,77028565285,mMTS,mKcell,mKcell,,D77,2016-10-17T12:37:40+06:00,
1000000000263509,77763080585,mMTS,mKarTel,mKarTel,,D77,2016-10-17T12:38:50+06:00,
1000000000263510,77011772282,mKcell,mMTS,mKcell,D77,D02,2016-10-17T12:39:08+06:00,
1000000000263511,77072177672,mAltel,mMTS,mMTS,,D07,2016-10-17T12:40:22+06:00,
1000000000263512,77058889248,mMTS,mKarTel,mKarTel,,D77,2016-10-17T12:41:55+06:00,
1000000000263514,77027277427,mMTS,mKcell,mKcell,,D77,2016-10-17T12:42:56+06:00,
1000000000263515,77479662861,mKcell,mMTS,mMTS,,D02,2016-10-17T12:42:56+06:00,
1000000000263516,77012242843,mKcell,mAltel,mKcell,D07,D02,2016-10-17T12:43:42+06:00,
1000000000263517,77078079088,mKcell,mMTS,mMTS,,D02,2016-10-17T12:45:01+06:00,
1000000000263518,77478699191,mMTS,mAltel,mMTS,D07,D77,2016-10-17T12:45:33+06:00,
1000000000263519,77071010042,mAltel,mMTS,mMTS,,D07,2016-10-17T12:45:37+06:00,
1000000000263520,77021608787,mMTS,mKcell,mKcell,,D77,2016-10-17T12:45:58+06:00,
1000000000263521,77757803000,mMTS,mKcell,mKcell,,D77,2016-10-17T12:46:57+06:00,
1000000000263522,77085934627,mMTS,mAltel,mAltel,,D77,2016-10-17T12:48:47+06:00,
1000000000263523,77027010005,mKcell,mMTS,mKcell,D77,D02,2016-10-17T12:49:12+06:00,
1000000000263524,77018178971,mMTS,mKcell,mKcell,,D77,2016-10-17T12:49:56+06:00,
1000000000263525,77077105071,mAltel,mMTS,mMTS,,D07,2016-10-17T12:49:51+06:00,
1000000000263527,77017970996,mKarTel,mKcell,mKcell,,D01,2016-10-17T12:51:16+06:00,
1000000000263528,77772339581,mKcell,mKarTel,mKarTel,,D02,2016-10-17T12:52:51+06:00,
1000000000263529,77012887227,mKcell,mMTS,mKcell,D77,D02,2016-10-17T12:54:52+06:00,
1000000000263530,77774226589,mAltel,mKarTel,mKarTel,,D07,2016-10-17T12:57:42+06:00,
1000000000263531,77075008866,mKcell,mMTS,mMTS,,D02,2016-10-17T12:57:27+06:00,
1000000000263533,77013600825,mMTS,mKcell,mKcell,,D77,2016-10-17T12:59:54+06:00,
