NPId,Number,RecipientId,DonorId,RangeHolderId,OldRoute,NewRoute,PortDate,RowCount
1000000000234860,77001157777,mAltel,mKcell,mAltel,D02,D07,2016-08-27T10:34:13+06:00,17
1000000000234861,77051444004,mMTS,mKarTel,mKarTel,,D77,2016-08-27T10:36:20+06:00,
1000000000234862,77007770776,mAltel,mKcell,mAltel,D02,D07,2016-08-27T10:37:28+06:00,
1000000000234863,77025552087,mMTS,mKcell,mKcell,,D77,2016-08-27T10:41:12+06:00,
1000000000234864,77007775701,mAltel,mKcell,mAltel,D02,D07,2016-08-27T10:41:55+06:00,
1000000000234865,77772708000,mKarTel,mMTS,mKarTel,D77,D01,2016-08-27T10:39:25+06:00,
1000000000234867,77760686060,mKcell,mKarTel,mKarTel,,D02,2016-08-27T10:42:08+06:00,
1000000000234869,77078587880,mKcell,mMTS,mMTS,,D02,2016-08-27T10:42:12+06:00,
1000000000234870,77071268341,mKcell,mMTS,mMTS,,D02,2016-08-27T10:43:09+06:00,
1000000000234871,77026985585,mKarTel,mKcell,mKcell,,D01,2016-08-27T10:45:09+06:00,
1000000000234872,77052111001,mKarTel,mMTS,mKarTel,D77,D01,2016-08-27T10:45:43+06:00,
1000000000234874,77751004006,mKcell,mKarTel,mKcell,D01,D02,2016-08-27T10:46:37+06:00,
1000000000234875,77014908508,mMTS,mKcell,mKcell,,D77,2016-08-27T10:47:19+06:00,
1000000000234881,77011249868,mMTS,mKcell,mKcell,,D77,2016-08-27T10:53:04+06:00,
1000000000234882,77071268342,mKcell,mMTS,mMTS,,D02,2016-08-27T10:55:07+06:00,
1000000000234883,77759131636,mKcell,mKarTel,mKcell,D01,D02,2016-08-27T10:56:29+06:00,
1000000000234886,77022621187,mMTS,mKcell,mKcell,,D77,2016-08-27T10:57:26+06:00,
