NPId,Number,RecipientId,DonorId,RangeHolderId,OldRoute,NewRoute,PortDate,RowCount
1000000000409482,77016662251,mAltel,mKcell,mKcell,,D07,2017-06-26T10:00:54+06:00,19
1000000000409483,77712190000,mKcell,mKarTel,mKarTel,,D02,2017-06-26T10:02:18+06:00,
1000000000409484,77012777289,mKarTel,mKcell,mKcell,,D01,2017-06-26T10:05:12+06:00,
1000000000409487,77021548522,mAltel,mKcell,mKcell,,D07,2017-06-26T10:09:42+06:00,
1000000000409488,77074009011,mKarTel,mMTS,mMTS,,D01,2017-06-26T10:11:03+06:00,
1000000000409489,77007178244,mAltel,mKcell,mAltel,D02,D07,2017-06-26T10:12:13+06:00,
1000000000409490,77088783608,mAltel,mKcell,mAltel,D02,D07,2017-06-26T10:12:47+06:00,
1000000000409491,77075096599,mAltel,mMTS,mMTS,,D07,2017-06-26T10:15:12+06:00,
1000000000409493,77772446263,mMTS,mKarTel,mKarTel,,D77,2017-06-26T10:16:10+06:00,
1000000000409494,77078217771,mAltel,mMTS,mMTS,,D07,2017-06-26T10:17:09+06:00,
1000000000409495,77017775138,mKarTel,mKcell,mKcell,,D01,2017-06-26T10:19:15+06:00,
1000000000409497,77018266033,mKcell,mKarTel,mKcell,D01,D02,2017-06-26T10:21:45+06:00,
1000000000409498,77055466666,mMTS,mKarTel,mKarTel,,D77,2017-06-26T10:21:30+06:00,
1000000000409500,77787349531,mMTS,mKarTel,mKcell,D01,D77,2017-06-26T10:22:31+06:00,
1000000000409502,77077670801,mKcell,mMTS,mMTS,,D02,2017-06-26T10:24:02+06:00,
1000000000409504,77475990001,mKcell,mMTS,mMTS,,D02,2017-06-26T10:27:11+06:00,
1000000000409505,77013609595,mKarTel,mKcell,mKcell,,D01,2017-06-26T10:27:23+06:00,
1000000000409506,77079530720,mAltel,mMTS,mMTS,,D07,2017-06-26T10:28:07+06:00,
1000000000409507,77752838589,mMTS,mKcell,mKcell,,D77,2017-06-26T10:28:45+06:00,
