NPId,Number,RecipientId,DonorId,RangeHolderId,OldRoute,NewRoute,PortDate,RowCount
1000000000381642,77071790971,mKarTel,mMTS,mMTS,,D01,2017-05-11T18:30:24+06:00,35
1000000000381643,77757165126,mMTS,mKcell,mKcell,,D77,2017-05-11T18:31:25+06:00,
1000000000381644,77000200013,mMTS,mAltel,mAltel,,D77,2017-05-11T18:31:15+06:00,
1000000000381645,77000200014,mMTS,mAltel,mAltel,,D77,2017-05-11T18:32:01+06:00,
1000000000381646,77012551743,mAltel,mKarTel,mKcell,D01,D07,2017-05-11T18:32:30+06:00,
1000000000381647,77025384620,mMTS,mKcell,mKcell,,D77,2017-05-11T18:32:49+06:00,
1000000000381648,77022407003,mMTS,mKcell,mKcell,,D77,2017-05-11T18:32:49+06:00,
1000000000381649,77472551742,mAltel,mMTS,mMTS,,D07,2017-05-11T18:33:01+06:00,
1000000000381650,77015211291,mAltel,mMTS,mKcell,D77,D07,2017-05-11T18:34:02+06:00,
1000000000381652,77774162733,mKcell,mKarTel,mKarTel,,D02,2017-05-11T18:37:17+06:00,
1000000000381653,77024444910,mMTS,mKcell,mKcell,,D77,2017-05-11T18:36:47+06:00,
1000000000381654,77771147700,mKarTel,mKcell,mKarTel,D02,D01,2017-05-11T18:37:25+06:00,
1000000000381655,77075397574,mKarTel,mMTS,mMTS,,D01,2017-05-11T18:37:31+06:00,
1000000000381656,77077378980,mKcell,mMTS,mMTS,,D02,2017-05-11T18:37:54+06:00,
1000000000381657,77026252619,mMTS,mKcell,mKcell,,D77,2017-05-11T18:38:14+06:00,
1000000000381658,77759859585,mMTS,mKcell,mKcell,,D77,2017-05-11T18:38:28+06:00,
1000000000381659,77077378970,mKcell,mMTS,mMTS,,D02,2017-05-11T18:39:11+06:00,
1000000000381662,77006341959,mMTS,mAltel,mAltel,,D77,2017-05-11T18:41:44+06:00,
1000000000381663,77479213120,mKarTel,mMTS,mMTS,,D01,2017-05-11T18:43:46+06:00,
1000000000381666,77024841167,mMTS,mKcell,mKcell,,D77,2017-05-11T18:46:13+06:00,
1000000000381667,77006250605,mMTS,mAltel,mAltel,,D77,2017-05-11T18:46:25+06:00,
1000000000381669,77013608962,mAltel,mKcell,mKcell,,D07,2017-05-11T18:47:50+06:00,
1000000000381670,77020001087,mKcell,mMTS,mKcell,D77,D02,2017-05-11T18:49:14+06:00,
1000000000381671,77079331055,mKarTel,mMTS,mMTS,,D01,2017-05-11T18:50:09+06:00,
1000000000381672,77003522232,mKcell,mAltel,mAltel,,D02,2017-05-11T18:50:42+06:00,
1000000000381673,77776622828,mKcell,mKarTel,mKarTel,,D02,2017-05-11T18:52:02+06:00,
1000000000381674,77022058013,mKarTel,mKcell,mKcell,,D01,2017-05-11T18:52:03+06:00,
1000000000381676,77052107207,mKarTel,mAltel,mKarTel,D07,D01,2017-05-11T18:52:35+06:00,
1000000000381677,77773355878,mKarTel,mAltel,mKarTel,D07,D01,2017-05-11T18:52:46+06:00,
1000000000381678,77072020760,mKarTel,mMTS,mMTS,,D01,2017-05-11T18:54:02+06:00,
1000000000381679,77774861577,mAltel,mKarTel,mKarTel,,D07,2017-05-11T18:54:21+06:00,
1000000000381680,77072121586,mKarTel,mMTS,mMTS,,D01,2017-05-11T18:54:35+06:00,
1000000000381681,77774413311,mMTS,mKarTel,mKarTel,,D77,2017-05-11T18:55:18+06:00,
1000000000381683,77475151526,mKarTel,mMTS,mMTS,,D01,2017-05-11T18:55:46+06:00,
1000000000381685,77786807321,mMTS,mKcell,mKcell,,D77,2017-05-11T18:58:30+06:00,
