NPId,Number,RecipientId,DonorId,RangeHolderId,OldRoute,NewRoute,PortDate,RowCount
1000000000266097,77004001980,mKcell,mAltel,mAltel,,D02,2016-10-21T17:46:29+06:00,27
1000000000266196,77477775400,mAltel,mMTS,mMTS,,D07,2016-10-21T17:30:06+06:00,
1000000000266197,77010777087,mAltel,mKcell,mKcell,,D07,2016-10-21T17:31:29+06:00,
1000000000266198,77767709791,mAltel,mKarTel,mKarTel,,D07,2016-10-21T17:32:24+06:00,
1000000000266199,77757697804,mKcell,mMTS,mKcell,D77,D02,2016-10-21T17:36:06+06:00,
1000000000266201,77758797796,mKcell,mMTS,mKcell,D77,D02,2016-10-21T17:36:40+06:00,
1000000000266202,77081911690,mMTS,mAltel,mAltel,,D77,2016-10-21T17:37:29+06:00,
1000000000266203,77017202536,mMTS,mKcell,mKcell,,D77,2016-10-21T17:39:20+06:00,
1000000000266204,77013626203,mAltel,mKcell,mKcell,,D07,2016-10-21T17:39:24+06:00,
1000000000266205,77072582911,mKarTel,mMTS,mMTS,,D01,2016-10-21T17:42:37+06:00,
1000000000266206,77772447777,mAltel,mKarTel,mKarTel,,D07,2016-10-21T17:43:41+06:00,
1000000000266208,77017508598,mKarTel,mKcell,mKcell,,D01,2016-10-21T17:44:53+06:00,
1000000000266210,77024958891,mKarTel,mKcell,mKcell,,D01,2016-10-21T17:47:31+06:00,
1000000000266211,77771408777,mAltel,mKarTel,mKarTel,,D07,2016-10-21T17:48:19+06:00,
1000000000266212,77026333338,mKarTel,mKcell,mKcell,,D01,2016-10-21T17:48:54+06:00,
1000000000266213,77755354292,mKarTel,mKcell,mKcell,,D01,2016-10-21T17:49:15+06:00,
1000000000266214,77082148205,mKarTel,mAltel,mAltel,,D01,2016-10-21T17:49:46+06:00,
1000000000266215,77786556406,mMTS,mKcell,mKcell,,D77,2016-10-21T17:49:45+06:00,
1000000000266216,77027474100,mAltel,mKcell,mKcell,,D07,2016-10-21T17:50:36+06:00,
1000000000266217,77087085505,mKarTel,mAltel,mAltel,,D01,2016-10-21T17:52:19+06:00,
1000000000266218,77001415000,mMTS,mAltel,mAltel,,D77,2016-10-21T17:53:07+06:00,
1000000000266219,77052900908,mAltel,mKarTel,mKarTel,,D07,2016-10-21T17:53:50+06:00,
1000000000266220,77077778701,mKcell,mMTS,mMTS,,D02,2016-10-21T17:55:15+06:00,
1000000000266222,77053915577,mAltel,mKarTel,mKarTel,,D07,2016-10-21T17:56:54+06:00,
1000000000266223,77759995057,mMTS,mKcell,mKcell,,D77,2016-10-21T17:57:35+06:00,
1000000000266224,77717490253,mKarTel,mMTS,mKarTel,D77,D01,2016-10-21T17:58:17+06:00,
1000000000266225,77072012925,mKarTel,mMTS,mMTS,,D01,2016-10-21T17:58:37+06:00,
