NPId,Number,RecipientId,DonorId,RangeHolderId,OldRoute,NewRoute,PortDate,RowCount
1000000000201434,77075410206,mMTS,mKcell,mMTS,D02,D77,2016-06-28T14:00:32+06:00,39
1000000000201435,77768888074,mMTS,mKcell,mKarTel,D02,D77,2016-06-28T14:00:54+06:00,
1000000000201436,77055839242,mMTS,mKarTel,mKarTel,,D77,2016-06-28T14:00:46+06:00,
1000000000201437,77756926692,mMTS,mKcell,mKcell,,D77,2016-06-28T14:02:17+06:00,
1000000000201438,77757903181,mMTS,mAltel,mKcell,D07,D77,2016-06-28T14:03:48+06:00,
1000000000201439,77479972633,mKarTel,mMTS,mMTS,,D01,2016-06-28T14:04:20+06:00,
1000000000201440,77001139914,mMTS,mAltel,mAltel,,D77,2016-06-28T14:04:16+06:00,
1000000000201441,77003871355,mMTS,mAltel,mAltel,,D77,2016-06-28T14:05:26+06:00,
1000000000201445,77753881000,mKcell,mKarTel,mKcell,D01,D02,2016-06-28T14:08:21+06:00,
1000000000201447,77017730774,mKarTel,mKcell,mKcell,,D01,2016-06-28T14:08:17+06:00,
1000000000201448,77003953245,mMTS,mAltel,mAltel,,D77,2016-06-28T14:07:24+06:00,
1000000000201449,77081042338,mMTS,mAltel,mAltel,,D77,2016-06-28T14:07:45+06:00,
1000000000201450,77027696136,mAltel,mKcell,mKcell,,D07,2016-06-28T14:09:27+06:00,
1000000000201453,77002220098,mAltel,mMTS,mAltel,D77,D07,2016-06-28T14:12:57+06:00,
1000000000201454,77774505560,mMTS,mKarTel,mKarTel,,D77,2016-06-28T14:13:27+06:00,
1000000000201455,77751872766,mMTS,mKcell,mKcell,,D77,2016-06-28T14:14:03+06:00,
1000000000201456,77001356054,mMTS,mAltel,mAltel,,D77,2016-06-28T14:13:35+06:00,
1000000000201457,77025255533,mMTS,mKcell,mKcell,,D77,2016-06-28T14:14:03+06:00,
1000000000201458,77711407771,mMTS,mKarTel,mKarTel,,D77,2016-06-28T14:15:46+06:00,
1000000000201459,77009712167,mMTS,mAltel,mAltel,,D77,2016-06-28T14:15:28+06:00,
1000000000201460,77766630000,mKarTel,mAltel,mKarTel,D07,D01,2016-06-28T14:16:32+06:00,
1000000000201462,77712918869,mKarTel,mMTS,mKarTel,D77,D01,2016-06-28T14:18:12+06:00,
1000000000201463,77758880889,mKarTel,mKcell,mKcell,,D01,2016-06-28T14:18:53+06:00,
1000000000201466,77479972533,mKarTel,mMTS,mMTS,,D01,2016-06-28T14:19:18+06:00,
1000000000201467,77025749233,mKcell,mAltel,mKcell,D07,D02,2016-06-28T14:20:36+06:00,
1000000000201468,77717751764,mMTS,mKarTel,mKarTel,,D77,2016-06-28T14:20:55+06:00,
1000000000201469,77017695236,mKcell,mKarTel,mKcell,D01,D02,2016-06-28T14:23:44+06:00,
1000000000201469,77017695267,mKcell,mKarTel,mKcell,D01,D02,2016-06-28T14:23:44+06:00,
1000000000201469,77019596333,mKcell,mKarTel,mKcell,D01,D02,2016-06-28T14:23:44+06:00,
1000000000201469,77019596555,mKcell,mKarTel,mKcell,D01,D02,2016-06-28T14:23:44+06:00,
1000000000201470,77717751766,mMTS,mKarTel,mKarTel,,D77,2016-06-28T14:21:31+06:00,
1000000000201471,77772405847,mKcell,mKarTel,mKarTel,,D02,2016-06-28T14:23:08+06:00,
1000000000201473,77076000977,mKcell,mMTS,mMTS,,D02,2016-06-28T14:23:07+06:00,
1000000000201476,77763668030,mMTS,mKarTel,mKarTel,,D77,2016-06-28T14:24:08+06:00,
1000000000201477,77080480360,mMTS,mAltel,mAltel,,D77,2016-06-28T14:25:00+06:00,
1000000000201481,77716002679,mAltel,mKarTel,mKarTel,,D07,2016-06-28T14:27:27+06:00,
1000000000201482,77479972537,mKarTel,mMTS,mMTS,,D01,2016-06-28T14:28:36+06:00,
1000000000201483,77089425562,mKarTel,mAltel,mAltel,,D01,2016-06-28T14:28:36+06:00,
1000000000201485,77004562333,mMTS,mAltel,mAltel,,D77,2016-06-28T14:29:20+06:00,
