NPId,Number,RecipientId,DonorId,RangeHolderId,OldRoute,NewRoute,PortDate,RowCount
1000000000147714,77022395060,mMTS,mKcell,mKcell,,D77,2016-04-10T17:31:00+06:00,19
1000000000147716,77774243053,mMTS,mKarTel,mKarTel,,D77,2016-04-10T17:33:52+06:00,
1000000000147717,77473808479,mMTS,mAltel,mMTS,D07,D77,2016-04-10T17:33:24+06:00,
1000000000147720,77776760391,mMTS,mKarTel,mKarTel,,D77,2016-04-10T17:36:27+06:00,
1000000000147722,77025404343,mMTS,mKcell,mKcell,,D77,2016-04-10T17:37:08+06:00,
1000000000147724,77012876766,mMTS,mKcell,mKcell,,D77,2016-04-10T17:38:07+06:00,
1000000000147725,77077888567,mKcell,mMTS,mMTS,,D02,2016-04-10T17:41:32+06:00,
1000000000147726,77082505099,mMTS,mAltel,mAltel,,D77,2016-04-10T17:41:59+06:00,
1000000000147727,77079668863,mAltel,mMTS,mMTS,,D07,2016-04-10T17:44:00+06:00,
1000000000147728,77789302032,mKcell,mAltel,mKcell,D07,D02,2016-04-10T17:46:22+06:00,
1000000000147729,77752193888,mMTS,mKcell,mKcell,,D77,2016-04-10T17:46:39+06:00,
1000000000147730,77089451758,mMTS,mAltel,mAltel,,D77,2016-04-10T17:46:57+06:00,
1000000000147732,77086656685,mMTS,mAltel,mAltel,,D77,2016-04-10T17:50:22+06:00,
1000000000147735,77001536216,mMTS,mAltel,mAltel,,D77,2016-04-10T17:51:56+06:00,
1000000000147736,77017130235,mKarTel,mKcell,mKcell,,D01,2016-04-10T17:53:43+06:00,
1000000000147738,77015250658,mAltel,mKcell,mKcell,,D07,2016-04-10T17:56:28+06:00,
1000000000147739,77013082403,mMTS,mKcell,mKcell,,D77,2016-04-10T17:56:44+06:00,
1000000000147740,77009695978,mMTS,mAltel,mAltel,,D77,2016-04-10T17:56:57+06:00,
1000000000147741,77081141608,mMTS,mAltel,mAltel,,D77,2016-04-10T17:57:44+06:00,
