NPId,Number,RecipientId,DonorId,RangeHolderId,OldRoute,NewRoute,PortDate,RowCount
1000000000372882,77785287450,mMTS,mKcell,mKcell,,D77,2017-04-27T13:02:31+06:00,20
1000000000372883,77773534433,mAltel,mKarTel,mKarTel,,D07,2017-04-27T13:02:53+06:00,
1000000000372884,77015309743,mKarTel,mKcell,mKcell,,D01,2017-04-27T13:03:50+06:00,
1000000000372885,77752041296,mKarTel,mKcell,mKcell,,D01,2017-04-27T13:05:10+06:00,
1000000000372886,77005005063,mKcell,mAltel,mAltel,,D02,2017-04-27T13:05:15+06:00,
1000000000372889,77761118138,mKcell,mKarTel,mKarTel,,D02,2017-04-27T13:08:54+06:00,
1000000000372890,77005005062,mKcell,mAltel,mAltel,,D02,2017-04-27T13:09:40+06:00,
1000000000372891,77013317117,mKcell,mKarTel,mKcell,D01,D02,2017-04-27T13:10:17+06:00,
1000000000372892,77079779858,mAltel,mMTS,mMTS,,D07,2017-04-27T13:09:42+06:00,
1000000000372896,77759006462,mAltel,mMTS,mKcell,D77,D07,2017-04-27T13:14:18+06:00,
1000000000372897,77005005061,mKcell,mAltel,mAltel,,D02,2017-04-27T13:14:45+06:00,
1000000000372898,77761118139,mKcell,mKarTel,mKarTel,,D02,2017-04-27T13:15:22+06:00,
1000000000372899,77773093899,mKcell,mKarTel,mKarTel,,D02,2017-04-27T13:15:40+06:00,
1000000000372900,77752210777,mAltel,mKcell,mKcell,,D07,2017-04-27T13:16:09+06:00,
1000000000372901,77015999840,mKarTel,mKcell,mKcell,,D01,2017-04-27T13:18:45+06:00,
1000000000372902,77001114182,mMTS,mAltel,mAltel,,D77,2017-04-27T13:18:30+06:00,
1000000000372903,77777012010,mKarTel,mMTS,mKarTel,D77,D01,2017-04-27T13:18:50+06:00,
1000000000372906,77761118140,mKcell,mKarTel,mKarTel,,D02,2017-04-27T13:22:35+06:00,
1000000000372909,77015104705,mMTS,mKcell,mKcell,,D77,2017-04-27T13:26:00+06:00,
1000000000372910,77013176313,mKarTel,mKcell,mKcell,,D01,2017-04-27T13:26:22+06:00,
