NPId,Number,RecipientId,DonorId,RangeHolderId,OldRoute,NewRoute,PortDate,RowCount
1000000000374940,77711918888,mKarTel,mMTS,mKarTel,D77,D01,2017-04-30T11:06:40+06:00,36
1000000000374940,77717093359,mKarTel,mMTS,mKarTel,D77,D01,2017-04-30T11:06:40+06:00,
1000000000374940,77717568888,mKarTel,mMTS,mKarTel,D77,D01,2017-04-30T11:06:40+06:00,
1000000000374940,77717657777,mKarTel,mMTS,mKarTel,D77,D01,2017-04-30T11:06:40+06:00,
1000000000374940,77717795652,mKarTel,mMTS,mKarTel,D77,D01,2017-04-30T11:06:40+06:00,
1000000000374940,77717795653,mKarTel,mMTS,mKarTel,D77,D01,2017-04-30T11:06:40+06:00,
1000000000374940,77717795656,mKarTel,mMTS,mKarTel,D77,D01,2017-04-30T11:06:40+06:00,
1000000000374940,77717795657,mKarTel,mMTS,mKarTel,D77,D01,2017-04-30T11:06:40+06:00,
1000000000374940,77717795660,mKarTel,mMTS,mKarTel,D77,D01,2017-04-30T11:06:40+06:00,
1000000000374940,77717795661,mKarTel,mMTS,mKarTel,D77,D01,2017-04-30T11:06:40+06:00,
1000000000374940,77717795662,mKarTel,mMTS,mKarTel,D77,D01,2017-04-30T11:06:40+06:00,
1000000000374940,77717795667,mKarTel,mMTS,mKarTel,D77,D01,2017-04-30T11:06:40+06:00,
1000000000374940,77717795668,mKarTel,mMTS,mKarTel,D77,D01,2017-04-30T11:06:40+06:00,
1000000000374940,77717795669,mKarTel,mMTS,mKarTel,D77,D01,2017-04-30T11:06:40+06:00,
1000000000374940,77717795672,mKarTel,mMTS,mKarTel,D77,D01,2017-04-30T11:06:40+06:00,
1000000000374940,77717795673,mKarTel,mMTS,mKarTel,D77,D01,2017-04-30T11:06:40+06:00,
1000000000374940,77717795801,mKarTel,mMTS,mKarTel,D77,D01,2017-04-30T11:06:40+06:00,
1000000000374940,77717795802,mKarTel,mMTS,mKarTel,D77,D01,2017-04-30T11:06:40+06:00,
1000000000374940,77717795805,mKarTel,mMTS,mKarTel,D77,D01,2017-04-30T11:06:40+06:00,
1000000000374940,77717795806,mKarTel,mMTS,mKarTel,D77,D01,2017-04-30T11:06:40+06:00,
1000000000374940,77717795807,mKarTel,mMTS,mKarTel,D77,D01,2017-04-30T11:06:40+06:00,
1000000000374940,77717795809,mKarTel,mMTS,mKarTel,D77,D01,2017-04-30T11:06:40+06:00,
1000000000374940,77717795810,mKarTel,mMTS,mKarTel,D77,D01,2017-04-30T11:06:40+06:00,
1000000000374940,77717795811,mKarTel,mMTS,mKarTel,D77,D01,2017-04-30T11:06:40+06:00,
1000000000374940,77717795812,mKarTel,mMTS,mKarTel,D77,D01,2017-04-30T11:06:40+06:00,
1000000000374940,77717795813,mKarTel,mMTS,mKarTel,D77,D01,2017-04-30T11:06:40+06:00,
1000000000374940,77770073810,mKarTel,mMTS,mKarTel,D77,D01,2017-04-30T11:06:40+06:00,
1000000000374940,77770073811,mKarTel,mMTS,mKarTel,D77,D01,2017-04-30T11:06:40+06:00,
1000000000374940,77770073812,mKarTel,mMTS,mKarTel,D77,D01,2017-04-30T11:06:40+06:00,
1000000000374940,77770073818,mKarTel,mMTS,mKarTel,D77,D01,2017-04-30T11:06:40+06:00,
1000000000374940,77777448888,mKarTel,mMTS,mKarTel,D77,D01,2017-04-30T11:06:40+06:00,
1000000000374940,77779448888,mKarTel,mMTS,mKarTel,D77,D01,2017-04-30T11:06:40+06:00,
1000000000374940,77779505532,mKarTel,mMTS,mKarTel,D77,D01,2017-04-30T11:06:40+06:00,
1000000000374946,77055109382,mMTS,mKarTel,mKarTel,,D77,2017-04-30T11:23:03+06:00,
1000000000374947,77054547937,mMTS,mKarTel,mKarTel,,D77,2017-04-30T11:26:42+06:00,
1000000000374948,77021667654,mAltel,mKcell,mKcell,,D07,2017-04-30T11:28:06+06:00,
