NPId,Number,RecipientId,DonorId,RangeHolderId,OldRoute,NewRoute,PortDate,RowCount
1000000000046165,77783801885,mAltel,mKcell,mKcell,,D07,2016-02-12T15:00:29+06:00,61
1000000000046166,77021223525,mAltel,mKcell,mKcell,,D07,2016-02-12T15:01:05+06:00,
1000000000046167,77053162864,mAltel,mKarTel,mKarTel,,D07,2016-02-12T15:01:43+06:00,
1000000000046168,77773426699,mMTS,mKarTel,mKarTel,,D77,2016-02-12T15:05:43+06:00,
1000000000046169,77075666915,mKcell,mMTS,mMTS,,D02,2016-02-12T15:03:32+06:00,
1000000000046171,77014203945,mMTS,mKcell,mKcell,,D77,2016-02-12T15:04:06+06:00,
1000000000046172,77023131084,mAltel,mKcell,mKcell,,D07,2016-02-12T15:04:12+06:00,
1000000000046175,77760222200,mKcell,mKarTel,mKarTel,,D02,2016-02-12T15:06:10+06:00,
1000000000046176,77776450975,mMTS,mKarTel,mKarTel,,D77,2016-02-12T15:05:49+06:00,
1000000000046177,77714198540,mKcell,mKarTel,mKarTel,,D02,2016-02-12T15:06:11+06:00,
1000000000046178,77084981690,mKarTel,mAltel,mAltel,,D01,2016-02-12T15:05:52+06:00,
1000000000046179,77027248097,mMTS,mKcell,mKcell,,D77,2016-02-12T15:06:19+06:00,
1000000000046180,77021111421,mAltel,mKcell,mKcell,,D07,2016-02-12T15:06:32+06:00,
1000000000046181,77071109190,mAltel,mMTS,mMTS,,D07,2016-02-12T15:06:14+06:00,
1000000000046182,77084981885,mKarTel,mAltel,mAltel,,D01,2016-02-12T15:06:42+06:00,
1000000000046183,77777777050,mKcell,mKarTel,mKarTel,,D02,2016-02-12T15:07:17+06:00,
1000000000046184,77014562211,mKarTel,mKcell,mKcell,,D01,2016-02-12T15:07:24+06:00,
1000000000046185,77773590986,mAltel,mKarTel,mKarTel,,D07,2016-02-12T15:07:50+06:00,
1000000000046186,77477770087,mKarTel,mMTS,mMTS,,D01,2016-02-12T15:08:35+06:00,
1000000000046187,77016464377,mMTS,mKcell,mKcell,,D77,2016-02-12T15:08:56+06:00,
1000000000046188,77054518448,mMTS,mKarTel,mKarTel,,D77,2016-02-12T15:10:11+06:00,
1000000000046189,77073622637,mKarTel,mMTS,mMTS,,D01,2016-02-12T15:10:16+06:00,
1000000000046190,77012587719,mAltel,mKcell,mKcell,,D07,2016-02-12T15:11:16+06:00,
1000000000046191,77084981685,mKarTel,mAltel,mAltel,,D01,2016-02-12T15:11:29+06:00,
1000000000046193,77071831300,mKcell,mMTS,mMTS,,D02,2016-02-12T15:12:25+06:00,
1000000000046194,77019889189,mMTS,mKcell,mKcell,,D77,2016-02-12T15:12:52+06:00,
1000000000046195,77084981861,mKarTel,mAltel,mAltel,,D01,2016-02-12T15:13:06+06:00,
1000000000046196,77083135578,mKarTel,mAltel,mAltel,,D01,2016-02-12T15:13:33+06:00,
1000000000046198,77084981922,mKarTel,mAltel,mAltel,,D01,2016-02-12T15:13:44+06:00,
1000000000046199,77015075553,mMTS,mKcell,mKcell,,D77,2016-02-12T15:14:17+06:00,
1000000000046200,77056200956,mMTS,mKarTel,mKarTel,,D77,2016-02-12T15:14:35+06:00,
1000000000046201,77084981683,mKarTel,mAltel,mAltel,,D01,2016-02-12T15:14:54+06:00,
1000000000046202,77017276049,mAltel,mKcell,mKcell,,D07,2016-02-12T15:15:32+06:00,
1000000000046202,77019535648,mAltel,mKcell,mKcell,,D07,2016-02-12T15:15:32+06:00,
1000000000046202,77019535650,mAltel,mKcell,mKcell,,D07,2016-02-12T15:15:32+06:00,
1000000000046202,77019535651,mAltel,mKcell,mKcell,,D07,2016-02-12T15:15:32+06:00,
1000000000046202,77019535654,mAltel,mKcell,mKcell,,D07,2016-02-12T15:15:32+06:00,
1000000000046203,77071115352,mKarTel,mMTS,mMTS,,D01,2016-02-12T15:15:54+06:00,
1000000000046206,77714198584,mKcell,mKarTel,mKarTel,,D02,2016-02-12T15:17:47+06:00,
1000000000046208,77055444030,mMTS,mKarTel,mKarTel,,D77,2016-02-12T15:17:44+06:00,
1000000000046209,77012288224,mAltel,mKcell,mKcell,,D07,2016-02-12T15:18:13+06:00,
1000000000046210,77013177478,mMTS,mKcell,mKcell,,D77,2016-02-12T15:18:55+06:00,
1000000000046211,77086350600,mMTS,mAltel,mAltel,,D77,2016-02-12T15:18:45+06:00,
1000000000046213,77076505003,mKarTel,mMTS,mMTS,,D01,2016-02-12T15:19:23+06:00,
1000000000046214,77084981876,mKarTel,mAltel,mAltel,,D01,2016-02-12T15:19:45+06:00,
1000000000046215,77017781671,mMTS,mKcell,mKcell,,D77,2016-02-12T15:20:21+06:00,
1000000000046216,77772902172,mAltel,mKarTel,mKarTel,,D07,2016-02-12T15:20:56+06:00,
1000000000046217,77014301199,mAltel,mKcell,mKcell,,D07,2016-02-12T15:20:46+06:00,
1000000000046220,77773593410,mMTS,mKarTel,mKarTel,,D77,2016-02-12T15:22:02+06:00,
1000000000046221,77713467799,mAltel,mKarTel,mKarTel,,D07,2016-02-12T15:22:33+06:00,
1000000000046222,77084981881,mKarTel,mAltel,mAltel,,D01,2016-02-12T15:22:25+06:00,
1000000000046223,77475583324,mAltel,mMTS,mMTS,,D07,2016-02-12T15:22:23+06:00,
1000000000046225,77775790737,mMTS,mKarTel,mKarTel,,D77,2016-02-12T15:23:23+06:00,
1000000000046226,77055607625,mMTS,mKarTel,mKarTel,,D77,2016-02-12T15:24:57+06:00,
1000000000046228,77784996000,mMTS,mKcell,mKcell,,D77,2016-02-12T15:25:18+06:00,
1000000000046229,77017570949,mMTS,mKcell,mKcell,,D77,2016-02-12T15:26:16+06:00,
1000000000046230,77023803529,mMTS,mKcell,mKcell,,D77,2016-02-12T15:26:58+06:00,
1000000000046231,77752911116,mMTS,mKcell,mKcell,,D77,2016-02-12T15:26:58+06:00,
1000000000046232,77021735230,mAltel,mKcell,mKcell,,D07,2016-02-12T15:27:37+06:00,
1000000000046233,77788729772,mAltel,mKcell,mKcell,,D07,2016-02-12T15:28:01+06:00,
1000000000046237,77017429499,mMTS,mKcell,mKcell,,D77,2016-02-12T15:29:55+06:00,
