NPId,Number,RecipientId,DonorId,RangeHolderId,OldRoute,NewRoute,PortDate,RowCount
1000000000412250,77015381058,mMTS,mKcell,mKcell,,D77,2017-06-30T11:49:46+06:00,86
1000000000412676,77010265114,mKarTel,mKcell,mKcell,,D01,2017-06-30T11:57:46+06:00,
1000000000412676,77010265116,mKarTel,mKcell,mKcell,,D01,2017-06-30T11:57:46+06:00,
1000000000412676,77010265120,mKarTel,mKcell,mKcell,,D01,2017-06-30T11:57:46+06:00,
1000000000412676,77010265126,mKarTel,mKcell,mKcell,,D01,2017-06-30T11:57:46+06:00,
1000000000412676,77010265150,mKarTel,mKcell,mKcell,,D01,2017-06-30T11:57:46+06:00,
1000000000412676,77010265174,mKarTel,mKcell,mKcell,,D01,2017-06-30T11:57:46+06:00,
1000000000412676,77010265176,mKarTel,mKcell,mKcell,,D01,2017-06-30T11:57:46+06:00,
1000000000412676,77010265177,mKarTel,mKcell,mKcell,,D01,2017-06-30T11:57:46+06:00,
1000000000412676,77012212013,mKarTel,mKcell,mKcell,,D01,2017-06-30T11:57:46+06:00,
1000000000412676,77012212265,mKarTel,mKcell,mKcell,,D01,2017-06-30T11:57:46+06:00,
1000000000412676,77012213088,mKarTel,mKcell,mKcell,,D01,2017-06-30T11:57:46+06:00,
1000000000412676,77012213305,mKarTel,mKcell,mKcell,,D01,2017-06-30T11:57:46+06:00,
1000000000412676,77012213306,mKarTel,mKcell,mKcell,,D01,2017-06-30T11:57:46+06:00,
1000000000412676,77012213384,mKarTel,mKcell,mKcell,,D01,2017-06-30T11:57:46+06:00,
1000000000412676,77012213386,mKarTel,mKcell,mKcell,,D01,2017-06-30T11:57:46+06:00,
1000000000412676,77012230192,mKarTel,mKcell,mKcell,,D01,2017-06-30T11:57:46+06:00,
1000000000412676,77015142123,mKarTel,mKcell,mKcell,,D01,2017-06-30T11:57:46+06:00,
1000000000412676,77015309037,mKarTel,mKcell,mKcell,,D01,2017-06-30T11:57:46+06:00,
1000000000412676,77015309091,mKarTel,mKcell,mKcell,,D01,2017-06-30T11:57:46+06:00,
1000000000412676,77015448844,mKarTel,mKcell,mKcell,,D01,2017-06-30T11:57:46+06:00,
1000000000412676,77015532772,mKarTel,mKcell,mKcell,,D01,2017-06-30T11:57:46+06:00,
1000000000412676,77015551963,mKarTel,mKcell,mKcell,,D01,2017-06-30T11:57:46+06:00,
1000000000412676,77015715483,mKarTel,mKcell,mKcell,,D01,2017-06-30T11:57:46+06:00,
1000000000412676,77015715498,mKarTel,mKcell,mKcell,,D01,2017-06-30T11:57:46+06:00,
1000000000412676,77015715526,mKarTel,mKcell,mKcell,,D01,2017-06-30T11:57:46+06:00,
1000000000412676,77015715527,mKarTel,mKcell,mKcell,,D01,2017-06-30T11:57:46+06:00,
1000000000412676,77015715564,mKarTel,mKcell,mKcell,,D01,2017-06-30T11:57:46+06:00,
1000000000412676,77017146043,mKarTel,mKcell,mKcell,,D01,2017-06-30T11:57:46+06:00,
1000000000412676,77017146045,mKarTel,mKcell,mKcell,,D01,2017-06-30T11:57:46+06:00,
1000000000412676,77017146051,mKarTel,mKcell,mKcell,,D01,2017-06-30T11:57:46+06:00,
1000000000412676,77017146054,mKarTel,mKcell,mKcell,,D01,2017-06-30T11:57:46+06:00,
1000000000412676,77017146067,mKarTel,mKcell,mKcell,,D01,2017-06-30T11:57:46+06:00,
1000000000412676,77017146070,mKarTel,mKcell,mKcell,,D01,2017-06-30T11:57:46+06:00,
1000000000412676,77017146073,mKarTel,mKcell,mKcell,,D01,2017-06-30T11:57:46+06:00,
1000000000412676,77017146088,mKarTel,mKcell,mKcell,,D01,2017-06-30T11:57:46+06:00,
1000000000412676,77017146093,mKarTel,mKcell,mKcell,,D01,2017-06-30T11:57:46+06:00,
1000000000412676,77017146112,mKarTel,mKcell,mKcell,,D01,2017-06-30T11:57:46+06:00,
1000000000412676,77017146117,mKarTel,mKcell,mKcell,,D01,2017-06-30T11:57:46+06:00,
1000000000412676,77017146123,mKarTel,mKcell,mKcell,,D01,2017-06-30T11:57:46+06:00,
1000000000412676,77017146133,mKarTel,mKcell,mKcell,,D01,2017-06-30T11:57:46+06:00,
1000000000412676,77017146134,mKarTel,mKcell,mKcell,,D01,2017-06-30T11:57:46+06:00,
1000000000412676,77017146148,mKarTel,mKcell,mKcell,,D01,2017-06-30T11:57:46+06:00,
1000000000412676,77017146149,mKarTel,mKcell,mKcell,,D01,2017-06-30T11:57:46+06:00,
1000000000412676,77017146150,mKarTel,mKcell,mKcell,,D01,2017-06-30T11:57:46+06:00,
1000000000412676,77017146151,mKarTel,mKcell,mKcell,,D01,2017-06-30T11:57:46+06:00,
1000000000412676,77017146155,mKarTel,mKcell,mKcell,,D01,2017-06-30T11:57:46+06:00,
1000000000412676,77017146158,mKarTel,mKcell,mKcell,,D01,2017-06-30T11:57:46+06:00,
1000000000412676,77017146167,mKarTel,mKcell,mKcell,,D01,2017-06-30T11:57:46+06:00,
1000000000412676,77017146169,mKarTel,mKcell,mKcell,,D01,2017-06-30T11:57:46+06:00,
1000000000412797,77007670033,mAltel,mKarTel,mAltel,D01,D07,2017-06-30T11:30:04+06:00,
1000000000412798,77013688184,mKarTel,mKcell,mKcell,,D01,2017-06-30T11:30:02+06:00,
1000000000412799,77054038047,mAltel,mMTS,mKarTel,D77,D07,2017-06-30T11:30:12+06:00,
1000000000412800,77017283777,mMTS,mKcell,mKcell,,D77,2017-06-30T11:30:55+06:00,
1000000000412802,77015550042,mKcell,mAltel,mKcell,D07,D02,2017-06-30T11:32:04+06:00,
1000000000412803,77009392549,mKarTel,mAltel,mAltel,,D01,2017-06-30T11:31:30+06:00,
1000000000412804,77004834483,mMTS,mAltel,mAltel,,D77,2017-06-30T11:33:00+06:00,
1000000000412805,77074069354,mMTS,mKarTel,mMTS,D01,D77,2017-06-30T11:33:32+06:00,
1000000000412806,77051014433,mMTS,mKarTel,mKarTel,,D77,2017-06-30T11:34:03+06:00,
1000000000412809,77011411190,mKcell,mKarTel,mKcell,D01,D02,2017-06-30T11:39:49+06:00,
1000000000412810,77019126566,mAltel,mKcell,mKcell,,D07,2017-06-30T11:38:45+06:00,
1000000000412811,77016600030,mMTS,mKcell,mKcell,,D77,2017-06-30T11:38:56+06:00,
1000000000412812,77777815505,mKcell,mKarTel,mKarTel,,D02,2017-06-30T11:39:42+06:00,
1000000000412814,77019470907,mKcell,mKarTel,mKcell,D01,D02,2017-06-30T11:39:49+06:00,
1000000000412816,77025676466,mKarTel,mKcell,mKcell,,D01,2017-06-30T11:40:24+06:00,
1000000000412820,77021105545,mKarTel,mKcell,mKcell,,D01,2017-06-30T11:41:28+06:00,
1000000000412820,77781105522,mKarTel,mKcell,mKcell,,D01,2017-06-30T11:41:28+06:00,
1000000000412820,77781105533,mKarTel,mKcell,mKcell,,D01,2017-06-30T11:41:28+06:00,
1000000000412820,77781105588,mKarTel,mKcell,mKcell,,D01,2017-06-30T11:41:28+06:00,
1000000000412822,77076111543,mKcell,mMTS,mMTS,,D02,2017-06-30T11:42:22+06:00,
1000000000412823,77751007294,mKcell,mMTS,mKcell,D77,D02,2017-06-30T11:42:56+06:00,
1000000000412825,77477930298,mKarTel,mMTS,mMTS,,D01,2017-06-30T11:43:17+06:00,
1000000000412827,77055553322,mKcell,mKarTel,mKarTel,,D02,2017-06-30T11:43:54+06:00,
1000000000412829,77028121201,mKcell,mMTS,mKcell,D77,D02,2017-06-30T11:45:02+06:00,
1000000000412832,77029066626,mKarTel,mKcell,mKcell,,D01,2017-06-30T11:45:29+06:00,
1000000000412834,77056229319,mMTS,mKarTel,mKarTel,,D77,2017-06-30T11:47:18+06:00,
1000000000412837,77019164441,mMTS,mKcell,mKcell,,D77,2017-06-30T11:48:50+06:00,
1000000000412838,77056504998,mMTS,mKarTel,mKarTel,,D77,2017-06-30T11:49:32+06:00,
1000000000412839,77019991210,mMTS,mKcell,mKcell,,D77,2017-06-30T11:51:22+06:00,
1000000000412840,77764800008,mKarTel,mMTS,mKarTel,D77,D01,2017-06-30T11:52:17+06:00,
1000000000412842,77477707701,mKarTel,mMTS,mMTS,,D01,2017-06-30T11:52:47+06:00,
1000000000412843,77012990731,mMTS,mKcell,mKcell,,D77,2017-06-30T11:54:21+06:00,
1000000000412844,77758126333,mMTS,mKcell,mKcell,,D77,2017-06-30T11:55:05+06:00,
1000000000412845,77051364499,mMTS,mKarTel,mKarTel,,D77,2017-06-30T11:56:15+06:00,
1000000000412846,77001009141,mKcell,mAltel,mAltel,,D02,2017-06-30T11:57:31+06:00,
1000000000412849,77015547901,mMTS,mKcell,mKcell,,D77,2017-06-30T11:59:41+06:00,
