NPId,Number,RecipientId,DonorId,RangeHolderId,OldRoute,NewRoute,PortDate,RowCount
1000000000199473,77777323433,mKcell,mMTS,mKarTel,D77,D02,2016-06-24T20:02:45+06:00,4
1000000000199474,77015232395,mKcell,mKarTel,mKcell,D01,D02,2016-06-24T20:24:18+06:00,
1000000000199475,77074663839,mKcell,mMTS,mMTS,,D02,2016-06-24T20:29:15+06:00,
1000000000199476,77079119191,mKcell,mMTS,mMTS,,D02,2016-06-24T20:28:34+06:00,
