NPId,Number,RecipientId,DonorId,RangeHolderId,OldRoute,NewRoute,PortDate,RowCount
1000000000293742,77057917978,mKcell,mKarTel,mKarTel,,D02,2016-12-12T17:30:10+06:00,37
1000000000294138,77005486684,mKarTel,mMTS,mAltel,D77,D01,2016-12-12T17:33:32+06:00,
1000000000294139,77011102444,mKarTel,mKcell,mKcell,,D01,2016-12-12T17:33:48+06:00,
1000000000294140,77025723888,mMTS,mKcell,mKcell,,D77,2016-12-12T17:34:31+06:00,
1000000000294141,77019974238,mMTS,mKcell,mKcell,,D77,2016-12-12T17:35:05+06:00,
1000000000294143,77771021616,mKarTel,mMTS,mKarTel,D77,D01,2016-12-12T17:35:50+06:00,
1000000000294146,77783955744,mMTS,mKcell,mKcell,,D77,2016-12-12T17:36:50+06:00,
1000000000294147,77776999363,mAltel,mKarTel,mKarTel,,D07,2016-12-12T17:37:19+06:00,
1000000000294148,77769370007,mMTS,mKarTel,mKarTel,,D77,2016-12-12T17:37:37+06:00,
1000000000294150,77082315225,mKarTel,mAltel,mAltel,,D01,2016-12-12T17:38:08+06:00,
1000000000294151,77758872331,mMTS,mKcell,mKcell,,D77,2016-12-12T17:38:40+06:00,
1000000000294152,77078324838,mKarTel,mMTS,mMTS,,D01,2016-12-12T17:39:44+06:00,
1000000000294153,77017115086,mKarTel,mKcell,mKcell,,D01,2016-12-12T17:40:15+06:00,
1000000000294155,77051110232,mKcell,mKarTel,mKarTel,,D02,2016-12-12T17:41:48+06:00,
1000000000294157,77755625002,mKarTel,mKcell,mKcell,,D01,2016-12-12T17:42:38+06:00,
1000000000294158,77073786368,mAltel,mMTS,mMTS,,D07,2016-12-12T17:42:55+06:00,
1000000000294159,77087609403,mKarTel,mAltel,mAltel,,D01,2016-12-12T17:43:13+06:00,
1000000000294160,77771346902,mMTS,mKarTel,mKarTel,D01,D77,2016-12-12T17:46:49+06:00,
1000000000294162,77056230414,mMTS,mKarTel,mKarTel,,D77,2016-12-12T17:47:28+06:00,
1000000000294163,77015250077,mKarTel,mKcell,mKcell,,D01,2016-12-12T17:47:41+06:00,
1000000000294167,77017594628,mKarTel,mKcell,mKcell,,D01,2016-12-12T17:50:10+06:00,
1000000000294168,77074700999,mMTS,mAltel,mMTS,D07,D77,2016-12-12T17:50:35+06:00,
1000000000294169,77015214736,mMTS,mKcell,mKcell,,D77,2016-12-12T17:50:53+06:00,
1000000000294170,77017283483,mKarTel,mKcell,mKcell,,D01,2016-12-12T17:51:22+06:00,
1000000000294172,77079270489,mKcell,mMTS,mMTS,,D02,2016-12-12T17:51:13+06:00,
1000000000294173,77012654145,mMTS,mKcell,mKcell,,D77,2016-12-12T17:52:47+06:00,
1000000000294175,77015523132,mKarTel,mKcell,mKcell,,D01,2016-12-12T17:53:40+06:00,
1000000000294176,77014662978,mKarTel,mKcell,mKcell,,D01,2016-12-12T17:53:50+06:00,
1000000000294177,77058001629,mKarTel,mMTS,mKarTel,D77,D01,2016-12-12T17:54:25+06:00,
1000000000294178,77001600616,mKcell,mAltel,mAltel,,D02,2016-12-12T17:55:15+06:00,
1000000000294182,77773562320,mKarTel,mMTS,mKarTel,D77,D01,2016-12-12T17:57:25+06:00,
1000000000294184,77476083699,mKarTel,mMTS,mMTS,,D01,2016-12-12T17:57:50+06:00,
1000000000294185,77073620376,mKarTel,mMTS,mMTS,,D01,2016-12-12T17:57:55+06:00,
1000000000294186,77760610161,mMTS,mKarTel,mKarTel,,D77,2016-12-12T17:58:39+06:00,
1000000000294187,77016493482,mMTS,mKcell,mKcell,,D77,2016-12-12T17:58:27+06:00,
1000000000294188,77771111135,mKarTel,mAltel,mKarTel,D07,D01,2016-12-12T17:58:57+06:00,
1000000000294189,77003777093,mMTS,mAltel,mAltel,,D77,2016-12-12T17:59:28+06:00,
