NPId,Number,RecipientId,DonorId,RangeHolderId,OldRoute,NewRoute,PortDate,RowCount
1000000000352049,77076054250,mKarTel,mMTS,mMTS,,D01,2017-03-25T12:00:00+06:00,17
1000000000352050,77753901313,mMTS,mKcell,mKcell,,D77,2017-03-25T12:03:02+06:00,
1000000000352051,77711724251,mMTS,mKarTel,mKarTel,,D77,2017-03-25T12:04:24+06:00,
1000000000352054,77077870020,mAltel,mKcell,mMTS,D02,D07,2017-03-25T12:11:07+06:00,
1000000000352055,77015015912,mMTS,mKcell,mKcell,,D77,2017-03-25T12:11:15+06:00,
1000000000352056,77015030809,mKarTel,mAltel,mKcell,D07,D01,2017-03-25T12:13:37+06:00,
1000000000352057,77028564282,mKarTel,mKcell,mKcell,,D01,2017-03-25T12:13:44+06:00,
1000000000352058,77764556600,mMTS,mKarTel,mKarTel,,D77,2017-03-25T12:14:42+06:00,
1000000000352059,77755008888,mKarTel,mKcell,mKcell,,D01,2017-03-25T12:15:35+06:00,
1000000000352060,77019801855,mKcell,mKarTel,mKcell,D01,D02,2017-03-25T12:17:24+06:00,
1000000000352061,77055299909,mMTS,mKarTel,mKarTel,,D77,2017-03-25T12:17:42+06:00,
1000000000352062,77078010896,mKcell,mMTS,mMTS,,D02,2017-03-25T12:18:13+06:00,
1000000000352065,77087762480,mAltel,mKcell,mAltel,D02,D07,2017-03-25T12:22:09+06:00,
1000000000352066,77752595731,mKarTel,mKcell,mKcell,,D01,2017-03-25T12:22:29+06:00,
1000000000352069,77775807070,mMTS,mKarTel,mKarTel,,D77,2017-03-25T12:23:25+06:00,
1000000000352070,77751002555,mKcell,mKarTel,mKcell,D01,D02,2017-03-25T12:24:33+06:00,
1000000000352073,77019651234,mMTS,mKcell,mKcell,,D77,2017-03-25T12:27:58+06:00,
