NPId,Number,RecipientId,DonorId,RangeHolderId,OldRoute,NewRoute,PortDate,RowCount
1000000000324470,77017199703,mMTS,mKcell,mKcell,,D77,2017-02-06T17:51:25+06:00,39
1000000000324775,77011026262,mAltel,mKcell,mKcell,,D07,2017-02-06T17:31:00+06:00,
1000000000324777,77055555114,mKarTel,mAltel,mKarTel,D07,D01,2017-02-06T17:32:03+06:00,
1000000000324778,77029654601,mKarTel,mKcell,mKcell,,D01,2017-02-06T17:32:36+06:00,
1000000000324780,77076131867,mKarTel,mMTS,mMTS,,D01,2017-02-06T17:33:30+06:00,
1000000000324782,77772166356,mMTS,mKarTel,mKarTel,,D77,2017-02-06T17:34:18+06:00,
1000000000324784,77011026222,mAltel,mKcell,mKcell,,D07,2017-02-06T17:35:13+06:00,
1000000000324785,77072771717,mAltel,mKarTel,mMTS,D01,D07,2017-02-06T17:37:10+06:00,
1000000000324787,77776531846,mKarTel,mAltel,mKarTel,D07,D01,2017-02-06T17:38:18+06:00,
1000000000324789,77787242410,mMTS,mKcell,mKcell,,D77,2017-02-06T17:39:28+06:00,
1000000000324790,77073659815,mKcell,mMTS,mMTS,,D02,2017-02-06T17:39:43+06:00,
1000000000324791,77776210525,mAltel,mKarTel,mKarTel,,D07,2017-02-06T17:40:03+06:00,
1000000000324793,77007700901,mAltel,mMTS,mAltel,D77,D07,2017-02-06T17:40:54+06:00,
1000000000324795,77077773008,mKcell,mMTS,mMTS,,D02,2017-02-06T17:42:25+06:00,
1000000000324797,77014100500,mKarTel,mKcell,mKcell,,D01,2017-02-06T17:43:21+06:00,
1000000000324798,77074441688,mKarTel,mMTS,mMTS,,D01,2017-02-06T17:43:38+06:00,
1000000000324798,77472275740,mKarTel,mMTS,mMTS,,D01,2017-02-06T17:43:38+06:00,
1000000000324798,77476760858,mKarTel,mMTS,mMTS,,D01,2017-02-06T17:43:38+06:00,
1000000000324798,77479800783,mKarTel,mMTS,mMTS,,D01,2017-02-06T17:43:38+06:00,
1000000000324798,77479800784,mKarTel,mMTS,mMTS,,D01,2017-02-06T17:43:38+06:00,
1000000000324798,77479801181,mKarTel,mMTS,mMTS,,D01,2017-02-06T17:43:38+06:00,
1000000000324798,77479801232,mKarTel,mMTS,mMTS,,D01,2017-02-06T17:43:38+06:00,
1000000000324800,77012040970,mKarTel,mKcell,mKcell,,D01,2017-02-06T17:44:47+06:00,
1000000000324803,77028845511,mKarTel,mKcell,mKcell,,D01,2017-02-06T17:45:35+06:00,
1000000000324804,77054443121,mKcell,mKarTel,mKarTel,,D02,2017-02-06T17:46:17+06:00,
1000000000324805,77012040980,mKarTel,mKcell,mKcell,,D01,2017-02-06T17:46:02+06:00,
1000000000324806,77770607593,mMTS,mKarTel,mKarTel,,D77,2017-02-06T17:46:15+06:00,
1000000000324808,77054769666,mMTS,mKarTel,mKarTel,,D77,2017-02-06T17:46:55+06:00,
1000000000324809,77012040950,mKarTel,mKcell,mKcell,,D01,2017-02-06T17:47:22+06:00,
1000000000324810,77026135878,mAltel,mKcell,mKcell,,D07,2017-02-06T17:48:29+06:00,
1000000000324811,77470528534,mKcell,mMTS,mMTS,,D02,2017-02-06T17:50:33+06:00,
1000000000324813,77756597654,mKarTel,mKcell,mKcell,,D01,2017-02-06T17:52:38+06:00,
1000000000324814,77004443121,mKcell,mAltel,mAltel,,D02,2017-02-06T17:53:30+06:00,
1000000000324815,77478333338,mKcell,mMTS,mMTS,,D02,2017-02-06T17:54:16+06:00,
1000000000324817,77017999991,mMTS,mKcell,mKcell,,D77,2017-02-06T17:56:35+06:00,
1000000000324818,77475129395,mAltel,mMTS,mMTS,,D07,2017-02-06T17:56:30+06:00,
1000000000324820,77076061894,mAltel,mMTS,mMTS,,D07,2017-02-06T17:58:00+06:00,
1000000000324822,77022777311,mKcell,mAltel,mKcell,D07,D02,2017-02-06T17:58:54+06:00,
1000000000324824,77023950050,mKarTel,mKcell,mKcell,,D01,2017-02-06T17:59:56+06:00,
