NPId,Number,RecipientId,DonorId,RangeHolderId,OldRoute,NewRoute,PortDate,RowCount
1000000000319868,77025018734,mKarTel,mKcell,mKcell,,D01,2017-01-31T12:00:27+06:00,39
1000000000319869,77473019101,mKcell,mMTS,mMTS,,D02,2017-01-31T12:00:55+06:00,
1000000000319870,77051020718,mMTS,mKarTel,mKarTel,,D77,2017-01-31T12:01:42+06:00,
1000000000319871,77014050234,mMTS,mKcell,mKcell,,D77,2017-01-31T12:01:49+06:00,
1000000000319872,77753520581,mMTS,mKcell,mKcell,,D77,2017-01-31T12:01:48+06:00,
1000000000319873,77788620214,mMTS,mKcell,mKcell,,D77,2017-01-31T12:01:54+06:00,
1000000000319874,77021940929,mMTS,mKcell,mKcell,,D77,2017-01-31T12:01:57+06:00,
1000000000319875,77781782868,mKarTel,mKcell,mKcell,,D01,2017-01-31T12:02:32+06:00,
1000000000319876,77788620185,mMTS,mKcell,mKcell,,D77,2017-01-31T12:02:52+06:00,
1000000000319878,77058383301,mAltel,mKcell,mKarTel,D02,D07,2017-01-31T12:05:19+06:00,
1000000000319879,77026576209,mKarTel,mKcell,mKcell,,D01,2017-01-31T12:06:05+06:00,
1000000000319880,77013333280,mKcell,mKarTel,mKcell,D01,D02,2017-01-31T12:06:52+06:00,
1000000000319882,77071373919,mAltel,mMTS,mMTS,,D07,2017-01-31T12:07:10+06:00,
1000000000319883,77785728946,mMTS,mKcell,mKcell,,D77,2017-01-31T12:07:47+06:00,
1000000000319886,77761110699,mKcell,mKarTel,mKarTel,,D02,2017-01-31T12:10:42+06:00,
1000000000319887,77057590499,mMTS,mKarTel,mKarTel,,D77,2017-01-31T12:11:47+06:00,
1000000000319888,77785727149,mMTS,mKcell,mKcell,,D77,2017-01-31T12:12:45+06:00,
1000000000319889,77776494444,mMTS,mKarTel,mKarTel,,D77,2017-01-31T12:13:48+06:00,
1000000000319890,77786288806,mKarTel,mKcell,mKcell,,D01,2017-01-31T12:14:00+06:00,
1000000000319891,77017189786,mMTS,mKcell,mKcell,,D77,2017-01-31T12:14:07+06:00,
1000000000319892,77077043434,mMTS,mKarTel,mMTS,D01,D77,2017-01-31T12:16:18+06:00,
1000000000319893,77786522989,mKcell,mMTS,mKcell,D77,D02,2017-01-31T12:16:21+06:00,
1000000000319894,77016457957,mKarTel,mKcell,mKcell,,D01,2017-01-31T12:16:55+06:00,
1000000000319895,77013600909,mKarTel,mKcell,mKcell,,D01,2017-01-31T12:16:55+06:00,
1000000000319897,77076040074,mKarTel,mMTS,mMTS,,D01,2017-01-31T12:17:33+06:00,
1000000000319898,77787436627,mMTS,mKcell,mKcell,,D77,2017-01-31T12:17:46+06:00,
1000000000319899,77017223897,mKarTel,mKcell,mKcell,,D01,2017-01-31T12:19:59+06:00,
1000000000319900,77078187557,mMTS,mKcell,mMTS,D02,D77,2017-01-31T12:19:56+06:00,
1000000000319901,77759571213,mAltel,mKcell,mKcell,,D07,2017-01-31T12:20:34+06:00,
1000000000319902,77017102822,mMTS,mKcell,mKcell,,D77,2017-01-31T12:20:34+06:00,
1000000000319903,77770848414,mMTS,mKarTel,mKarTel,,D77,2017-01-31T12:21:01+06:00,
1000000000319904,77787436798,mMTS,mKcell,mKcell,,D77,2017-01-31T12:22:44+06:00,
1000000000319905,77787436861,mMTS,mKcell,mKcell,,D77,2017-01-31T12:22:50+06:00,
1000000000319907,77776777469,mKarTel,mMTS,mKarTel,D77,D01,2017-01-31T12:25:08+06:00,
1000000000319908,77013173835,mKarTel,mKcell,mKcell,,D01,2017-01-31T12:26:46+06:00,
1000000000319909,77015211295,mKarTel,mKcell,mKcell,,D01,2017-01-31T12:27:49+06:00,
1000000000319910,77756730629,mMTS,mKcell,mKcell,,D77,2017-01-31T12:27:49+06:00,
1000000000319911,77055498109,mMTS,mKarTel,mKarTel,,D77,2017-01-31T12:28:04+06:00,
1000000000319912,77011115889,mMTS,mKcell,mKcell,,D77,2017-01-31T12:29:01+06:00,
