NPId,Number,RecipientId,DonorId,RangeHolderId,OldRoute,NewRoute,PortDate,RowCount
1000000000307714,77750008188,mKarTel,mKcell,mKcell,,D01,2017-01-09T13:01:14+06:00,28
1000000000307715,77474882708,mKcell,mMTS,mMTS,,D02,2017-01-09T13:02:01+06:00,
1000000000307716,77781887454,mKcell,mMTS,mKcell,D77,D02,2017-01-09T13:04:49+06:00,
1000000000307717,77022154681,mKarTel,mKcell,mKcell,,D01,2017-01-09T13:05:07+06:00,
1000000000307718,77017267444,mKcell,mMTS,mKcell,D77,D02,2017-01-09T13:06:04+06:00,
1000000000307719,77015555885,mMTS,mKcell,mKcell,,D77,2017-01-09T13:07:54+06:00,
1000000000307721,77776280412,mMTS,mKarTel,mKarTel,,D77,2017-01-09T13:09:04+06:00,
1000000000307724,77014585068,mMTS,mKcell,mKcell,,D77,2017-01-09T13:09:48+06:00,
1000000000307725,77014070349,mMTS,mKcell,mKcell,,D77,2017-01-09T13:16:13+06:00,
1000000000307728,77015120789,mKarTel,mKcell,mKcell,,D01,2017-01-09T13:16:17+06:00,
1000000000307729,77779887070,mKcell,mKarTel,mKarTel,,D02,2017-01-09T13:17:46+06:00,
1000000000307731,77022151677,mMTS,mKcell,mKcell,,D77,2017-01-09T13:17:51+06:00,
1000000000307732,77767600767,mKcell,mKarTel,mKarTel,,D02,2017-01-09T13:19:53+06:00,
1000000000307733,77053323166,mMTS,mKarTel,mKarTel,,D77,2017-01-09T13:19:57+06:00,
1000000000307734,77765233331,mKarTel,mKcell,mKarTel,D02,D01,2017-01-09T13:20:25+06:00,
1000000000307735,77760600767,mKcell,mKarTel,mKarTel,,D02,2017-01-09T13:21:06+06:00,
1000000000307736,77774145522,mMTS,mAltel,mKarTel,D07,D77,2017-01-09T13:21:22+06:00,
1000000000307737,77756343622,mKcell,mMTS,mKcell,D77,D02,2017-01-09T13:22:26+06:00,
1000000000307738,77765333398,mKarTel,mKcell,mKarTel,D02,D01,2017-01-09T13:22:43+06:00,
1000000000307739,77765622228,mKarTel,mKcell,mKarTel,D02,D01,2017-01-09T13:23:36+06:00,
1000000000307740,77781501722,mKcell,mMTS,mKcell,D77,D02,2017-01-09T13:23:48+06:00,
1000000000307741,77765340004,mKarTel,mKcell,mKarTel,D02,D01,2017-01-09T13:24:35+06:00,
1000000000307742,77765740004,mKarTel,mKcell,mKarTel,D02,D01,2017-01-09T13:25:09+06:00,
1000000000307743,77776093965,mKarTel,mMTS,mKarTel,D77,D01,2017-01-09T13:25:44+06:00,
1000000000307744,77083878020,mMTS,mAltel,mAltel,,D77,2017-01-09T13:27:05+06:00,
1000000000307746,77751422225,mKarTel,mKcell,mKcell,,D01,2017-01-09T13:27:40+06:00,
1000000000307747,77757942044,mKcell,mAltel,mKcell,D07,D02,2017-01-09T13:27:50+06:00,
1000000000307748,77015148372,mKcell,mKarTel,mKcell,D01,D02,2017-01-09T13:28:23+06:00,
