NPId,Number,RecipientId,DonorId,RangeHolderId,OldRoute,NewRoute,PortDate,RowCount
1000000000318520,77016180245,mAltel,mKcell,mKcell,,D07,2017-01-29T13:09:58+06:00,11
1000000000318524,77072992099,mMTS,mKcell,mMTS,D02,D77,2017-01-29T13:09:58+06:00,
1000000000318526,77029344345,mMTS,mKcell,mKcell,,D77,2017-01-29T13:10:01+06:00,
1000000000318528,77778288849,mAltel,mKarTel,mKarTel,,D07,2017-01-29T13:04:20+06:00,
1000000000318532,77475111296,mKarTel,mMTS,mMTS,,D01,2017-01-29T13:12:31+06:00,
1000000000318533,77772826260,mKarTel,mAltel,mKarTel,D07,D01,2017-01-29T13:13:15+06:00,
1000000000318535,77017581854,mAltel,mKarTel,mKcell,D01,D07,2017-01-29T13:15:03+06:00,
1000000000318538,77056086158,mMTS,mKarTel,mKarTel,,D77,2017-01-29T13:20:40+06:00,
1000000000318540,77089523758,mKarTel,mMTS,mAltel,D77,D01,2017-01-29T13:25:41+06:00,
1000000000318541,77075555335,mAltel,mKarTel,mMTS,D01,D07,2017-01-29T13:26:11+06:00,
1000000000318543,77089523759,mKarTel,mMTS,mAltel,D77,D01,2017-01-29T13:28:29+06:00,
