NPId,Number,RecipientId,DonorId,RangeHolderId,OldRoute,NewRoute,PortDate,RowCount
1000000000414910,77007141477,mMTS,mAltel,mAltel,,D77,2017-07-02T17:31:28+06:00,7
1000000000414911,77015558343,mAltel,mKcell,mKcell,D02,D07,2017-07-02T17:31:52+06:00,
1000000000414912,77021599590,mAltel,mKcell,mKcell,,D07,2017-07-02T17:37:54+06:00,
1000000000414916,77753077726,mMTS,mKcell,mKcell,,D77,2017-07-02T17:49:57+06:00,
1000000000414919,77017702560,mMTS,mKcell,mKcell,,D77,2017-07-02T17:56:56+06:00,
1000000000414920,77476318224,mAltel,mMTS,mMTS,,D07,2017-07-02T17:57:09+06:00,
1000000000414921,77015271624,mAltel,mKcell,mKcell,,D07,2017-07-02T17:58:04+06:00,
