NPId,Number,RecipientId,DonorId,RangeHolderId,OldRoute,NewRoute,PortDate,RowCount
1000000000442673,77760820006,mKcell,mKarTel,mKarTel,,D02,2017-08-20T11:02:53+06:00,7
1000000000442674,77052300865,mMTS,mKarTel,mKarTel,,D77,2017-08-20T11:05:02+06:00,
1000000000442677,77760626777,mKcell,mKarTel,mKarTel,,D02,2017-08-20T11:09:45+06:00,
1000000000442678,77479116111,mAltel,mMTS,mMTS,,D07,2017-08-20T11:12:07+06:00,
1000000000442682,77772909612,mKarTel,mAltel,mKarTel,D07,D01,2017-08-20T11:26:27+06:00,
1000000000442683,77073070878,mKcell,mMTS,mMTS,,D02,2017-08-20T11:27:54+06:00,
1000000000442684,77772212255,mAltel,mKarTel,mKarTel,,D07,2017-08-20T11:29:10+06:00,
