NPId,Number,RecipientId,DonorId,RangeHolderId,OldRoute,NewRoute,PortDate,RowCount
1000000000304742,77028457689,mKarTel,mKcell,mKcell,,D01,2017-01-03T16:30:55+06:00,24
1000000000304743,77015447204,mKarTel,mKcell,mKcell,,D01,2017-01-03T16:31:41+06:00,
1000000000304744,77775245689,mMTS,mKarTel,mKarTel,,D77,2017-01-03T16:33:34+06:00,
1000000000304745,77058551418,mKcell,mKarTel,mKarTel,,D02,2017-01-03T16:35:27+06:00,
1000000000304746,77758806777,mMTS,mKcell,mKcell,,D77,2017-01-03T16:36:21+06:00,
1000000000304747,77711342257,mMTS,mKarTel,mKarTel,,D77,2017-01-03T16:38:01+06:00,
1000000000304749,77012123366,mMTS,mKcell,mKcell,D02,D77,2017-01-03T16:40:20+06:00,
1000000000304750,77776930535,mMTS,mKarTel,mKarTel,,D77,2017-01-03T16:40:38+06:00,
1000000000304751,77074297973,mKarTel,mMTS,mMTS,,D01,2017-01-03T16:40:46+06:00,
1000000000304752,77054751959,mMTS,mKarTel,mKarTel,,D77,2017-01-03T16:42:04+06:00,
1000000000304753,77758176414,mMTS,mKcell,mKcell,,D77,2017-01-03T16:42:46+06:00,
1000000000304755,77772689084,mMTS,mKarTel,mKarTel,,D77,2017-01-03T16:43:28+06:00,
1000000000304756,77778414888,mMTS,mKarTel,mKarTel,,D77,2017-01-03T16:44:20+06:00,
1000000000304758,77052660900,mKarTel,mMTS,mKarTel,D77,D01,2017-01-03T16:44:28+06:00,
1000000000304759,77001248978,mKarTel,mAltel,mAltel,,D01,2017-01-03T16:44:44+06:00,
1000000000304762,77076887944,mKcell,mMTS,mMTS,,D02,2017-01-03T16:50:46+06:00,
1000000000304764,77017538827,mKarTel,mKcell,mKcell,,D01,2017-01-03T16:51:57+06:00,
1000000000304765,77028435200,mKcell,mKarTel,mKcell,D01,D02,2017-01-03T16:52:31+06:00,
1000000000304768,77754343245,mKarTel,mKcell,mKcell,D02,D01,2017-01-03T16:52:20+06:00,
1000000000304769,77017970690,mMTS,mKarTel,mKcell,D01,D77,2017-01-03T16:53:10+06:00,
1000000000304770,77019464067,mMTS,mKcell,mKcell,,D77,2017-01-03T16:53:04+06:00,
1000000000304771,77028667808,mAltel,mKcell,mKcell,,D07,2017-01-03T16:54:34+06:00,
1000000000304772,77714647419,mAltel,mKarTel,mKarTel,,D07,2017-01-03T16:55:05+06:00,
1000000000304774,77773716095,mKarTel,mMTS,mKarTel,D77,D01,2017-01-03T16:55:35+06:00,
