NPId,Number,RecipientId,DonorId,RangeHolderId,OldRoute,NewRoute,PortDate,RowCount
1000000000448435,77012030919,mKcell,mKarTel,mKcell,D01,D02,2017-08-30T12:02:05+06:00,25
1000000000448436,77750959695,mKcell,mAltel,mKcell,D07,D02,2017-08-30T12:01:55+06:00,
1000000000448437,77774988524,mKcell,mKarTel,mKarTel,,D02,2017-08-30T12:02:26+06:00,
1000000000448438,77011030007,mKarTel,mKcell,mKcell,,D01,2017-08-30T12:04:44+06:00,
1000000000448439,77018886763,mKarTel,mKcell,mKcell,,D01,2017-08-30T12:04:50+06:00,
1000000000448440,77754956151,mMTS,mKcell,mKcell,,D77,2017-08-30T12:07:52+06:00,
1000000000448441,77079400864,mKcell,mMTS,mMTS,,D02,2017-08-30T12:08:26+06:00,
1000000000448442,77019630545,mMTS,mAltel,mKcell,D07,D77,2017-08-30T12:08:38+06:00,
1000000000448443,77052231819,mKarTel,mMTS,mKarTel,D77,D01,2017-08-30T12:11:05+06:00,
1000000000448445,77753065757,mMTS,mKcell,mKcell,,D77,2017-08-30T12:12:52+06:00,
1000000000448446,77071171310,mAltel,mKcell,mMTS,D02,D07,2017-08-30T12:14:36+06:00,
1000000000448448,77054848894,mMTS,mKarTel,mKarTel,,D77,2017-08-30T12:18:01+06:00,
1000000000448449,77017322065,mKcell,mMTS,mKcell,D77,D02,2017-08-30T12:18:02+06:00,
1000000000448450,77015983232,mMTS,mKcell,mKcell,,D77,2017-08-30T12:18:00+06:00,
1000000000448451,77776201433,mKarTel,mMTS,mKarTel,D77,D01,2017-08-30T12:18:25+06:00,
1000000000448454,77058888047,mKcell,mKarTel,mKarTel,,D02,2017-08-30T12:20:47+06:00,
1000000000448455,77004339785,mKcell,mAltel,mAltel,,D02,2017-08-30T12:21:08+06:00,
1000000000448457,77763002333,mMTS,mKarTel,mKarTel,,D77,2017-08-30T12:22:46+06:00,
1000000000448458,77004079431,mMTS,mAltel,mAltel,,D77,2017-08-30T12:22:50+06:00,
1000000000448459,77073532402,mKarTel,mMTS,mMTS,,D01,2017-08-30T12:25:21+06:00,
1000000000448461,77079266664,mMTS,mKarTel,mMTS,D01,D77,2017-08-30T12:27:08+06:00,
1000000000448463,77773934962,mMTS,mKarTel,mKarTel,,D77,2017-08-30T12:28:06+06:00,
1000000000448465,77071265566,mMTS,mKarTel,mMTS,D01,D77,2017-08-30T12:28:23+06:00,
1000000000448466,77472691145,mKarTel,mMTS,mMTS,,D01,2017-08-30T12:28:46+06:00,
1000000000448467,77075210999,mKarTel,mAltel,mMTS,D07,D01,2017-08-30T12:29:15+06:00,
