NPId,Number,RecipientId,DonorId,RangeHolderId,OldRoute,NewRoute,PortDate,RowCount
1000000000239376,77029494394,mKcell,mKarTel,mKcell,D01,D02,2016-09-02T21:16:04+06:00,2
1000000000239377,77766662690,mKcell,mKarTel,mKarTel,,D02,2016-09-02T21:21:21+06:00,
