NPId,Number,RecipientId,DonorId,RangeHolderId,OldRoute,NewRoute,PortDate,RowCount
1000000000262568,77017448525,mKcell,mMTS,mKcell,D77,D02,2016-10-17T16:49:45+06:00,36
1000000000263755,77476476572,mMTS,mKarTel,mMTS,D01,D77,2016-10-17T16:31:57+06:00,
1000000000263757,77476476638,mMTS,mKarTel,mMTS,D01,D77,2016-10-17T16:32:36+06:00,
1000000000263758,77476476626,mMTS,mKarTel,mMTS,D01,D77,2016-10-17T16:33:21+06:00,
1000000000263759,77476476452,mMTS,mKarTel,mMTS,D01,D77,2016-10-17T16:33:58+06:00,
1000000000263761,77476476522,mMTS,mKarTel,mMTS,D01,D77,2016-10-17T16:34:29+06:00,
1000000000263763,77476476523,mMTS,mKarTel,mMTS,D01,D77,2016-10-17T16:35:10+06:00,
1000000000263772,77476476525,mMTS,mKarTel,mMTS,D01,D77,2016-10-17T16:38:27+06:00,
1000000000263786,77053003007,mKcell,mKarTel,mKarTel,,D02,2016-10-17T16:31:47+06:00,
1000000000263787,77026575433,mMTS,mKcell,mKcell,,D77,2016-10-17T16:31:21+06:00,
1000000000263788,77027250004,mKarTel,mKcell,mKcell,,D01,2016-10-17T16:32:06+06:00,
1000000000263791,77767444555,mAltel,mKarTel,mKarTel,D01,D07,2016-10-17T16:32:48+06:00,
1000000000263792,77752990006,mKarTel,mKcell,mKcell,,D01,2016-10-17T16:36:21+06:00,
1000000000263794,77476476582,mMTS,mKarTel,mMTS,D01,D77,2016-10-17T16:52:45+06:00,
1000000000263795,77011537158,mMTS,mKcell,mKcell,,D77,2016-10-17T16:37:55+06:00,
1000000000263797,77056123570,mAltel,mKarTel,mKarTel,,D07,2016-10-17T16:39:00+06:00,
1000000000263799,77476476584,mMTS,mKarTel,mMTS,D01,D77,2016-10-17T16:54:34+06:00,
1000000000263800,77476476458,mMTS,mKarTel,mMTS,D01,D77,2016-10-17T16:55:14+06:00,
1000000000263802,77014566323,mKcell,mMTS,mKcell,D77,D02,2016-10-17T16:41:03+06:00,
1000000000263805,77077770708,mKcell,mMTS,mMTS,,D02,2016-10-17T16:42:37+06:00,
1000000000263806,77002000107,mMTS,mAltel,mAltel,,D77,2016-10-17T16:42:28+06:00,
1000000000263808,77476476494,mMTS,mKarTel,mMTS,D01,D77,2016-10-17T16:58:15+06:00,
1000000000263811,77715063368,mKarTel,mMTS,mKarTel,D77,D01,2016-10-17T16:44:49+06:00,
1000000000263813,77752701359,mMTS,mKcell,mKcell,,D77,2016-10-17T16:48:15+06:00,
1000000000263815,77056966668,mKarTel,mAltel,mKarTel,D07,D01,2016-10-17T16:46:11+06:00,
1000000000263820,77017776968,mKarTel,mKcell,mKcell,,D01,2016-10-17T16:50:28+06:00,
1000000000263825,77055429090,mMTS,mKarTel,mKarTel,,D77,2016-10-17T16:51:31+06:00,
1000000000263826,77752701358,mMTS,mKcell,mKcell,,D77,2016-10-17T16:51:37+06:00,
1000000000263827,77759994445,mKarTel,mMTS,mKcell,D77,D01,2016-10-17T16:51:54+06:00,
1000000000263828,77089158447,mKarTel,mAltel,mAltel,,D01,2016-10-17T16:52:00+06:00,
1000000000263838,77072177007,mKcell,mMTS,mMTS,,D02,2016-10-17T16:56:21+06:00,
1000000000263839,77017415977,mMTS,mKcell,mKcell,,D77,2016-10-17T16:56:28+06:00,
1000000000263843,77479628987,mKarTel,mMTS,mMTS,,D01,2016-10-17T16:57:36+06:00,
1000000000263844,77005551904,mMTS,mAltel,mAltel,,D77,2016-10-17T16:57:30+06:00,
1000000000263845,77005551902,mMTS,mAltel,mAltel,,D77,2016-10-17T16:57:30+06:00,
1000000000263846,77002000106,mMTS,mAltel,mAltel,,D77,2016-10-17T16:57:30+06:00,
