NPId,Number,RecipientId,DonorId,RangeHolderId,OldRoute,NewRoute,PortDate,RowCount
1000000000210357,77019584601,mKcell,mKarTel,mKcell,D01,D02,2016-07-13T11:02:25+06:00,17
1000000000210367,77022235301,mKcell,mKarTel,mKcell,D01,D02,2016-07-13T11:11:02+06:00,
1000000000210376,77019584607,mKcell,mKarTel,mKcell,D01,D02,2016-07-13T11:14:41+06:00,
1000000000210377,77714044999,mMTS,mKarTel,mKarTel,,D77,2016-07-13T11:00:57+06:00,
1000000000210380,77773443300,mMTS,mKarTel,mKarTel,,D77,2016-07-13T11:02:43+06:00,
1000000000210381,77089147529,mKcell,mAltel,mAltel,,D02,2016-07-13T11:03:21+06:00,
1000000000210382,77014544411,mAltel,mKcell,mKcell,,D07,2016-07-13T11:03:24+06:00,
1000000000210384,77073249111,mAltel,mMTS,mMTS,,D07,2016-07-13T11:04:06+06:00,
1000000000210385,77017307761,mAltel,mMTS,mKcell,D77,D07,2016-07-13T11:06:15+06:00,
1000000000210386,77052308075,mMTS,mKarTel,mKarTel,,D77,2016-07-13T11:06:54+06:00,
1000000000210387,77081507959,mMTS,mAltel,mAltel,,D77,2016-07-13T11:06:57+06:00,
1000000000210388,77000001088,mMTS,mAltel,mAltel,,D77,2016-07-13T11:09:18+06:00,
1000000000210390,77077010106,mKcell,mAltel,mMTS,D07,D02,2016-07-13T11:10:38+06:00,
1000000000210391,77015225901,mMTS,mKcell,mKcell,,D77,2016-07-13T11:11:11+06:00,
1000000000210393,77021777387,mKcell,mAltel,mKcell,D07,D02,2016-07-13T11:13:35+06:00,
1000000000210395,77759001484,mKcell,mMTS,mKcell,D77,D02,2016-07-13T11:18:53+06:00,
1000000000210398,77771633060,mMTS,mKarTel,mKarTel,,D77,2016-07-13T11:27:54+06:00,
