NPId,Number,RecipientId,DonorId,RangeHolderId,OldRoute,NewRoute,PortDate,RowCount
1000000000347905,77077139034,mKcell,mMTS,mMTS,,D02,2017-03-16T14:07:27+06:00,14
1000000000347906,77014104946,mKarTel,mKcell,mKcell,,D01,2017-03-16T14:09:22+06:00,
1000000000347908,77019707111,mMTS,mKcell,mKcell,,D77,2017-03-16T14:10:42+06:00,
1000000000347909,77015647857,mMTS,mKcell,mKcell,,D77,2017-03-16T14:17:39+06:00,
1000000000347910,77053845320,mKcell,mKarTel,mKarTel,,D02,2017-03-16T14:19:31+06:00,
1000000000347911,77473252205,mKcell,mMTS,mMTS,,D02,2017-03-16T14:19:24+06:00,
1000000000347912,77089238998,mMTS,mAltel,mAltel,,D77,2017-03-16T14:19:32+06:00,
1000000000347914,77072905287,mAltel,mMTS,mMTS,,D07,2017-03-16T14:21:16+06:00,
1000000000347915,77471570172,mKcell,mMTS,mMTS,,D02,2017-03-16T14:22:05+06:00,
1000000000347917,77471570173,mKcell,mMTS,mMTS,,D02,2017-03-16T14:24:37+06:00,
1000000000347918,77082127797,mKcell,mMTS,mAltel,D77,D02,2017-03-16T14:25:50+06:00,
1000000000347919,77475000110,mKarTel,mMTS,mMTS,,D01,2017-03-16T14:25:57+06:00,
1000000000347921,77074070666,mKcell,mMTS,mMTS,,D02,2017-03-16T14:28:13+06:00,
1000000000347922,77471570124,mKcell,mMTS,mMTS,,D02,2017-03-16T14:28:16+06:00,
