NPId,Number,RecipientId,DonorId,RangeHolderId,OldRoute,NewRoute,PortDate,RowCount
1000000000234075,77017774908,mKarTel,mKcell,mKcell,,D01,2016-08-26T17:52:25+06:00,89
1000000000234075,77019294272,mKarTel,mKcell,mKcell,,D01,2016-08-26T17:52:25+06:00,
1000000000234075,77019294276,mKarTel,mKcell,mKcell,,D01,2016-08-26T17:52:25+06:00,
1000000000234075,77019294277,mKarTel,mKcell,mKcell,,D01,2016-08-26T17:52:25+06:00,
1000000000234075,77019294280,mKarTel,mKcell,mKcell,,D01,2016-08-26T17:52:25+06:00,
1000000000234075,77019294288,mKarTel,mKcell,mKcell,,D01,2016-08-26T17:52:25+06:00,
1000000000234075,77019297908,mKarTel,mKcell,mKcell,,D01,2016-08-26T17:52:25+06:00,
1000000000234075,77019297918,mKarTel,mKcell,mKcell,,D01,2016-08-26T17:52:25+06:00,
1000000000234075,77019297919,mKarTel,mKcell,mKcell,,D01,2016-08-26T17:52:25+06:00,
1000000000234075,77019297924,mKarTel,mKcell,mKcell,,D01,2016-08-26T17:52:25+06:00,
1000000000234075,77019297928,mKarTel,mKcell,mKcell,,D01,2016-08-26T17:52:25+06:00,
1000000000234075,77019297932,mKarTel,mKcell,mKcell,,D01,2016-08-26T17:52:25+06:00,
1000000000234075,77019297934,mKarTel,mKcell,mKcell,,D01,2016-08-26T17:52:25+06:00,
1000000000234075,77019297936,mKarTel,mKcell,mKcell,,D01,2016-08-26T17:52:25+06:00,
1000000000234075,77019297942,mKarTel,mKcell,mKcell,,D01,2016-08-26T17:52:25+06:00,
1000000000234075,77019929920,mKarTel,mKcell,mKcell,,D01,2016-08-26T17:52:25+06:00,
1000000000234075,77019929922,mKarTel,mKcell,mKcell,,D01,2016-08-26T17:52:25+06:00,
1000000000234075,77019929930,mKarTel,mKcell,mKcell,,D01,2016-08-26T17:52:25+06:00,
1000000000234075,77019929931,mKarTel,mKcell,mKcell,,D01,2016-08-26T17:52:25+06:00,
1000000000234075,77019929933,mKarTel,mKcell,mKcell,,D01,2016-08-26T17:52:25+06:00,
1000000000234075,77019929934,mKarTel,mKcell,mKcell,,D01,2016-08-26T17:52:25+06:00,
1000000000234075,77019929936,mKarTel,mKcell,mKcell,,D01,2016-08-26T17:52:25+06:00,
1000000000234075,77019929939,mKarTel,mKcell,mKcell,,D01,2016-08-26T17:52:25+06:00,
1000000000234075,77019929941,mKarTel,mKcell,mKcell,,D01,2016-08-26T17:52:25+06:00,
1000000000234075,77019929944,mKarTel,mKcell,mKcell,,D01,2016-08-26T17:52:25+06:00,
1000000000234075,77019929947,mKarTel,mKcell,mKcell,,D01,2016-08-26T17:52:25+06:00,
1000000000234075,77019929949,mKarTel,mKcell,mKcell,,D01,2016-08-26T17:52:25+06:00,
1000000000234075,77019929950,mKarTel,mKcell,mKcell,,D01,2016-08-26T17:52:25+06:00,
1000000000234075,77019929951,mKarTel,mKcell,mKcell,,D01,2016-08-26T17:52:25+06:00,
1000000000234075,77019929953,mKarTel,mKcell,mKcell,,D01,2016-08-26T17:52:25+06:00,
1000000000234075,77019929955,mKarTel,mKcell,mKcell,,D01,2016-08-26T17:52:25+06:00,
1000000000234075,77019929956,mKarTel,mKcell,mKcell,,D01,2016-08-26T17:52:25+06:00,
1000000000234075,77019929960,mKarTel,mKcell,mKcell,,D01,2016-08-26T17:52:25+06:00,
1000000000234075,77019929961,mKarTel,mKcell,mKcell,,D01,2016-08-26T17:52:25+06:00,
1000000000234075,77019929963,mKarTel,mKcell,mKcell,,D01,2016-08-26T17:52:25+06:00,
1000000000234075,77019929964,mKarTel,mKcell,mKcell,,D01,2016-08-26T17:52:25+06:00,
1000000000234075,77019929966,mKarTel,mKcell,mKcell,,D01,2016-08-26T17:52:25+06:00,
1000000000234075,77019929968,mKarTel,mKcell,mKcell,,D01,2016-08-26T17:52:25+06:00,
1000000000234075,77019929969,mKarTel,mKcell,mKcell,,D01,2016-08-26T17:52:25+06:00,
1000000000234075,77019929971,mKarTel,mKcell,mKcell,,D01,2016-08-26T17:52:25+06:00,
1000000000234075,77019929972,mKarTel,mKcell,mKcell,,D01,2016-08-26T17:52:25+06:00,
1000000000234075,77019929974,mKarTel,mKcell,mKcell,,D01,2016-08-26T17:52:25+06:00,
1000000000234075,77019929977,mKarTel,mKcell,mKcell,,D01,2016-08-26T17:52:25+06:00,
1000000000234075,77019929978,mKarTel,mKcell,mKcell,,D01,2016-08-26T17:52:25+06:00,
1000000000234075,77019929980,mKarTel,mKcell,mKcell,,D01,2016-08-26T17:52:25+06:00,
1000000000234075,77019929982,mKarTel,mKcell,mKcell,,D01,2016-08-26T17:52:25+06:00,
1000000000234075,77019929984,mKarTel,mKcell,mKcell,,D01,2016-08-26T17:52:25+06:00,
1000000000234075,77019929991,mKarTel,mKcell,mKcell,,D01,2016-08-26T17:52:25+06:00,
1000000000234075,77019929995,mKarTel,mKcell,mKcell,,D01,2016-08-26T17:52:25+06:00,
1000000000234075,77019929996,mKarTel,mKcell,mKcell,,D01,2016-08-26T17:52:25+06:00,
1000000000234075,77019929997,mKarTel,mKcell,mKcell,,D01,2016-08-26T17:52:25+06:00,
1000000000234075,77019929998,mKarTel,mKcell,mKcell,,D01,2016-08-26T17:52:25+06:00,
1000000000234684,77719904152,mKcell,mKarTel,mKarTel,,D02,2016-08-26T17:32:28+06:00,
1000000000234687,77719904161,mKcell,mKarTel,mKarTel,,D02,2016-08-26T17:36:12+06:00,
1000000000234694,77719932247,mKcell,mKarTel,mKarTel,,D02,2016-08-26T17:41:24+06:00,
1000000000234699,77770052886,mKcell,mKarTel,mKarTel,,D02,2016-08-26T17:44:27+06:00,
1000000000234700,77715060968,mKcell,mKarTel,mKarTel,,D02,2016-08-26T17:44:27+06:00,
1000000000234703,77079588877,mKcell,mMTS,mMTS,,D02,2016-08-26T17:32:07+06:00,
1000000000234704,77051140220,mMTS,mKarTel,mKarTel,,D77,2016-08-26T17:32:55+06:00,
1000000000234705,77755450497,mMTS,mKcell,mKcell,,D77,2016-08-26T17:32:28+06:00,
1000000000234706,77770052890,mKcell,mKarTel,mKarTel,,D02,2016-08-26T17:48:57+06:00,
1000000000234707,77019510590,mAltel,mKcell,mKcell,,D07,2016-08-26T17:33:45+06:00,
1000000000234709,77019474772,mKarTel,mKcell,mKcell,,D01,2016-08-26T17:37:23+06:00,
1000000000234710,77715535072,mKcell,mKarTel,mKarTel,,D02,2016-08-26T17:50:31+06:00,
1000000000234711,77014622597,mKarTel,mKcell,mKcell,,D01,2016-08-26T17:35:22+06:00,
1000000000234712,77751030397,mMTS,mKcell,mKcell,,D77,2016-08-26T17:35:04+06:00,
1000000000234713,77026029251,mKarTel,mKcell,mKcell,,D01,2016-08-26T17:36:27+06:00,
1000000000234715,77770059277,mKcell,mKarTel,mKarTel,,D02,2016-08-26T17:52:15+06:00,
1000000000234716,77055274477,mMTS,mKarTel,mKarTel,,D77,2016-08-26T17:37:49+06:00,
1000000000234717,77717017315,mKcell,mKarTel,mKarTel,,D02,2016-08-26T17:54:28+06:00,
1000000000234718,77775521586,mKcell,mKarTel,mKarTel,,D02,2016-08-26T17:56:19+06:00,
1000000000234719,77717017329,mKcell,mKarTel,mKarTel,,D02,2016-08-26T17:59:58+06:00,
1000000000234721,77014822231,mKarTel,mKcell,mKcell,,D01,2016-08-26T17:42:54+06:00,
1000000000234722,77771625533,mKcell,mKarTel,mKarTel,,D02,2016-08-26T17:43:16+06:00,
1000000000234723,77012339899,mAltel,mKcell,mKcell,,D07,2016-08-26T17:42:59+06:00,
1000000000234724,77772133885,mKcell,mKarTel,mKarTel,,D02,2016-08-26T17:43:59+06:00,
1000000000234725,77776611493,mKcell,mKarTel,mKarTel,,D02,2016-08-26T17:59:24+06:00,
1000000000234728,77789388812,mMTS,mKcell,mKcell,,D77,2016-08-26T17:46:52+06:00,
1000000000234730,77083528414,mMTS,mAltel,mAltel,,D77,2016-08-26T17:44:48+06:00,
1000000000234731,77022408447,mMTS,mKcell,mKcell,,D77,2016-08-26T17:46:59+06:00,
1000000000234734,77754003606,mKarTel,mKcell,mKcell,,D01,2016-08-26T17:49:12+06:00,
1000000000234735,77051715911,mMTS,mKarTel,mKarTel,,D77,2016-08-26T17:49:43+06:00,
1000000000234736,77079009000,mKcell,mAltel,mMTS,D07,D02,2016-08-26T17:50:56+06:00,
1000000000234737,77784830483,mMTS,mKcell,mKcell,,D77,2016-08-26T17:51:11+06:00,
1000000000234739,77750008310,mAltel,mKcell,mKcell,,D07,2016-08-26T17:51:49+06:00,
1000000000234741,77754119889,mMTS,mKcell,mKcell,,D77,2016-08-26T17:54:40+06:00,
1000000000234743,77778574480,mMTS,mKarTel,mKarTel,,D77,2016-08-26T17:53:17+06:00,
1000000000234745,77012610929,mAltel,mKcell,mKcell,,D07,2016-08-26T17:55:14+06:00,
1000000000234747,77784695996,mMTS,mKcell,mKcell,,D77,2016-08-26T17:55:39+06:00,
