NPId,Number,RecipientId,DonorId,RangeHolderId,OldRoute,NewRoute,PortDate,RowCount
1000000000345484,77081116855,mMTS,mAltel,mAltel,,D77,2017-03-13T11:01:45+06:00,20
1000000000345485,77076595734,mKcell,mKarTel,mMTS,D01,D02,2017-03-13T11:03:21+06:00,
1000000000345486,77769741717,mAltel,mKarTel,mKarTel,,D07,2017-03-13T11:03:28+06:00,
1000000000345487,77017528318,mKarTel,mKcell,mKcell,,D01,2017-03-13T11:05:00+06:00,
1000000000345488,77015445556,mMTS,mKcell,mKcell,,D77,2017-03-13T11:04:56+06:00,
1000000000345489,77003992845,mMTS,mAltel,mAltel,,D77,2017-03-13T11:06:01+06:00,
1000000000345490,77012774905,mAltel,mKcell,mKcell,,D07,2017-03-13T11:06:10+06:00,
1000000000345491,77715171820,mMTS,mKarTel,mKarTel,,D77,2017-03-13T11:07:28+06:00,
1000000000345492,77028008883,mMTS,mKcell,mKcell,,D77,2017-03-13T11:08:10+06:00,
1000000000345496,77762222784,mAltel,mKarTel,mKarTel,,D07,2017-03-13T11:12:27+06:00,
1000000000345498,77074973535,mMTS,mKcell,mMTS,D02,D77,2017-03-13T11:12:50+06:00,
1000000000345499,77757825977,mMTS,mKarTel,mKcell,D01,D77,2017-03-13T11:19:48+06:00,
1000000000345500,77018177722,mKarTel,mKcell,mKcell,,D01,2017-03-13T11:20:03+06:00,
1000000000345501,77015498562,mMTS,mKcell,mKcell,,D77,2017-03-13T11:21:10+06:00,
1000000000345502,77021000105,mAltel,mKcell,mKcell,,D07,2017-03-13T11:22:30+06:00,
1000000000345503,77015605385,mMTS,mKcell,mKcell,,D77,2017-03-13T11:23:14+06:00,
1000000000345506,77010558883,mAltel,mKcell,mKcell,,D07,2017-03-13T11:25:16+06:00,
1000000000345508,77784070170,mAltel,mKcell,mKcell,,D07,2017-03-13T11:26:48+06:00,
1000000000345509,77011302862,mMTS,mKcell,mKcell,,D77,2017-03-13T11:29:52+06:00,
1000000000345511,77752033285,mMTS,mKcell,mKcell,,D77,2017-03-13T11:29:56+06:00,
