NPId,Number,RecipientId,DonorId,RangeHolderId,OldRoute,NewRoute,PortDate,RowCount
1000000000263145,77712921314,mMTS,mKarTel,mKarTel,,D77,2016-10-15T20:37:47+06:00,3
1000000000263146,77788884044,mKcell,mMTS,mKcell,D77,D02,2016-10-15T20:38:40+06:00,
1000000000263147,77014857846,mMTS,mKcell,mKcell,,D77,2016-10-15T20:45:47+06:00,
