NPId,Number,RecipientId,DonorId,RangeHolderId,OldRoute,NewRoute,PortDate,RowCount
1000000000422753,77055656093,mMTS,mKarTel,mKarTel,,D77,2017-07-16T16:01:23+06:00,17
1000000000422754,77756290728,mKarTel,mKcell,mKcell,,D01,2017-07-16T16:01:48+06:00,
1000000000422755,77017418607,mMTS,mKcell,mKcell,,D77,2017-07-16T16:02:55+06:00,
1000000000422756,77785236126,mMTS,mKcell,mKcell,,D77,2017-07-16T16:03:30+06:00,
1000000000422757,77776599962,mKcell,mKarTel,mKarTel,,D02,2017-07-16T16:04:28+06:00,
1000000000422758,77021912209,mKarTel,mMTS,mKcell,D77,D01,2017-07-16T16:05:46+06:00,
1000000000422759,77012615121,mKarTel,mKcell,mKcell,,D01,2017-07-16T16:06:51+06:00,
1000000000422760,77012202051,mMTS,mKcell,mKcell,,D77,2017-07-16T16:07:01+06:00,
1000000000422761,77071629986,mMTS,mKcell,mMTS,D02,D77,2017-07-16T16:12:06+06:00,
1000000000422762,77474925446,mMTS,mAltel,mMTS,D07,D77,2017-07-16T16:13:04+06:00,
1000000000422764,77753093824,mKarTel,mKcell,mKcell,,D01,2017-07-16T16:14:17+06:00,
1000000000422765,77783118001,mKcell,mMTS,mKcell,D77,D02,2017-07-16T16:14:30+06:00,
1000000000422767,77079190187,mKarTel,mMTS,mMTS,,D01,2017-07-16T16:17:09+06:00,
1000000000422768,77751396119,mMTS,mKcell,mKcell,,D77,2017-07-16T16:20:01+06:00,
1000000000422770,77754714450,mMTS,mKcell,mKcell,,D77,2017-07-16T16:22:09+06:00,
1000000000422771,77773023477,mMTS,mKarTel,mKarTel,,D77,2017-07-16T16:27:24+06:00,
1000000000422772,77716135154,mMTS,mKarTel,mKarTel,D01,D77,2017-07-16T16:28:29+06:00,
