NPId,Number,RecipientId,DonorId,RangeHolderId,OldRoute,NewRoute,PortDate,RowCount
1000000000254470,77771821842,mKcell,mKarTel,mKarTel,,D02,2016-10-01T09:43:27+06:00,4
1000000000254471,77077900060,mMTS,mKarTel,mMTS,D01,D77,2016-10-01T09:44:59+06:00,
1000000000254475,77776251278,mKcell,mKarTel,mKarTel,,D02,2016-10-01T09:54:57+06:00,
1000000000254477,77779886435,mKcell,mKarTel,mKarTel,,D02,2016-10-01T09:56:16+06:00,
