NPId,Number,RecipientId,DonorId,RangeHolderId,OldRoute,NewRoute,PortDate,RowCount
1000000000324132,77025450808,mKcell,mMTS,mKcell,D77,D02,2017-02-05T17:00:42+06:00,17
1000000000324134,77004040469,mKcell,mAltel,mAltel,,D02,2017-02-05T17:02:14+06:00,
1000000000324135,77017883423,mMTS,mKcell,mKcell,,D77,2017-02-05T17:07:06+06:00,
1000000000324137,77004040468,mKcell,mAltel,mAltel,,D02,2017-02-05T17:08:20+06:00,
1000000000324138,77004040426,mKcell,mAltel,mAltel,,D02,2017-02-05T17:09:43+06:00,
1000000000324139,77010150003,mKarTel,mKcell,mKcell,,D01,2017-02-05T17:10:15+06:00,
1000000000324140,77769009042,mKcell,mKarTel,mKarTel,,D02,2017-02-05T17:12:16+06:00,
1000000000324141,77773075151,mMTS,mKarTel,mKarTel,,D77,2017-02-05T17:12:04+06:00,
1000000000324142,77002522594,mMTS,mAltel,mAltel,,D77,2017-02-05T17:12:47+06:00,
1000000000324143,77004040472,mKcell,mAltel,mAltel,,D02,2017-02-05T17:13:02+06:00,
1000000000324145,77004040428,mKcell,mAltel,mAltel,,D02,2017-02-05T17:14:34+06:00,
1000000000324146,77770613912,mMTS,mKarTel,mKarTel,,D77,2017-02-05T17:15:20+06:00,
1000000000324147,77022263985,mKcell,mKarTel,mKcell,D01,D02,2017-02-05T17:15:45+06:00,
1000000000324148,77002220171,mKcell,mAltel,mAltel,,D02,2017-02-05T17:19:37+06:00,
1000000000324150,77015183374,mAltel,mKcell,mKcell,,D07,2017-02-05T17:21:42+06:00,
1000000000324151,77752346844,mMTS,mKcell,mKcell,,D77,2017-02-05T17:22:54+06:00,
1000000000324153,77004040453,mKcell,mAltel,mAltel,,D02,2017-02-05T17:26:42+06:00,
