NPId,Number,RecipientId,DonorId,RangeHolderId,OldRoute,NewRoute,PortDate,RowCount
1000000000178375,77766997545,mMTS,mKarTel,mKarTel,,D77,2016-05-21T12:04:21+06:00,21
1000000000178376,77785521422,mMTS,mKcell,mKcell,,D77,2016-05-21T12:04:37+06:00,
1000000000178377,77015111342,mMTS,mKcell,mKcell,,D77,2016-05-21T12:10:20+06:00,
1000000000178378,77472066915,mKcell,mAltel,mMTS,D07,D02,2016-05-21T12:10:50+06:00,
1000000000178380,77011001495,mAltel,mKcell,mKcell,,D07,2016-05-21T12:12:37+06:00,
1000000000178382,77011012514,mAltel,mKcell,mKcell,,D07,2016-05-21T12:14:02+06:00,
1000000000178384,77000006205,mMTS,mAltel,mAltel,,D77,2016-05-21T12:14:13+06:00,
1000000000178385,77751422266,mMTS,mKcell,mKcell,,D77,2016-05-21T12:14:56+06:00,
1000000000178386,77026255718,mMTS,mKcell,mKcell,,D77,2016-05-21T12:17:51+06:00,
1000000000178387,77784559587,mMTS,mKcell,mKcell,,D77,2016-05-21T12:17:51+06:00,
1000000000178388,77774357557,mMTS,mKarTel,mKarTel,,D77,2016-05-21T12:17:27+06:00,
1000000000178389,77778617474,mMTS,mKarTel,mKarTel,,D77,2016-05-21T12:18:51+06:00,
1000000000178390,77770959999,mMTS,mKarTel,mKarTel,,D77,2016-05-21T12:21:12+06:00,
1000000000178392,77771206810,mAltel,mKarTel,mKarTel,,D07,2016-05-21T12:22:02+06:00,
1000000000178393,77078365690,mKcell,mMTS,mMTS,,D02,2016-05-21T12:22:39+06:00,
1000000000178394,77078365675,mKcell,mMTS,mMTS,,D02,2016-05-21T12:22:40+06:00,
1000000000178395,77776338540,mMTS,mKarTel,mKarTel,,D77,2016-05-21T12:23:51+06:00,
1000000000178398,77780005571,mMTS,mKcell,mKcell,,D77,2016-05-21T12:26:19+06:00,
1000000000178399,77077600096,mMTS,mKarTel,mMTS,D01,D77,2016-05-21T12:27:01+06:00,
1000000000178400,77072984950,mAltel,mMTS,mMTS,,D07,2016-05-21T12:28:24+06:00,
1000000000178401,77015257637,mKcell,mAltel,mKcell,D07,D02,2016-05-21T12:29:13+06:00,
