NPId,Number,RecipientId,DonorId,RangeHolderId,OldRoute,NewRoute,PortDate,RowCount
1000000000329109,77017050320,mKarTel,mKcell,mKcell,,D01,2017-02-15T11:31:31+06:00,17
1000000000329111,77072005533,mKarTel,mMTS,mMTS,,D01,2017-02-15T11:33:16+06:00,
1000000000329113,77783983483,mMTS,mKcell,mKcell,,D77,2017-02-15T11:36:21+06:00,
1000000000329114,77015293294,mMTS,mKcell,mKcell,,D77,2017-02-15T11:38:03+06:00,
1000000000329115,77474104557,mKcell,mMTS,mMTS,,D02,2017-02-15T11:38:48+06:00,
1000000000329116,77711696929,mMTS,mKarTel,mKarTel,,D77,2017-02-15T11:40:53+06:00,
1000000000329117,77758488092,mKarTel,mKcell,mKcell,,D01,2017-02-15T11:41:44+06:00,
1000000000329118,77072511157,mKcell,mAltel,mMTS,D07,D02,2017-02-15T11:41:51+06:00,
1000000000329120,77058322255,mMTS,mKarTel,mKarTel,,D77,2017-02-15T11:43:46+06:00,
1000000000329121,77754460991,mKarTel,mKcell,mKcell,,D01,2017-02-15T11:44:11+06:00,
1000000000329122,77023525299,mAltel,mKcell,mKcell,,D07,2017-02-15T11:44:53+06:00,
1000000000329126,77771660666,mKcell,mKarTel,mKarTel,,D02,2017-02-15T11:48:32+06:00,
1000000000329127,77013630088,mMTS,mKcell,mKcell,,D77,2017-02-15T11:48:50+06:00,
1000000000329129,77011611572,mKcell,mMTS,mKcell,D77,D02,2017-02-15T11:52:47+06:00,
1000000000329130,77775701848,mMTS,mKarTel,mKarTel,,D77,2017-02-15T11:53:05+06:00,
1000000000329132,77012577735,mMTS,mKcell,mKcell,,D77,2017-02-15T11:56:42+06:00,
1000000000329134,77477042997,mKarTel,mMTS,mMTS,,D01,2017-02-15T11:58:18+06:00,
