NPId,Number,RecipientId,DonorId,RangeHolderId,OldRoute,NewRoute,PortDate,RowCount
1000000000329293,77012661012,mKarTel,mKcell,mKcell,,D01,2017-02-15T15:00:24+06:00,22
1000000000329294,77475669330,mKcell,mMTS,mMTS,,D02,2017-02-15T15:00:37+06:00,
1000000000329295,77473336651,mMTS,mAltel,mMTS,D07,D77,2017-02-15T15:00:38+06:00,
1000000000329296,77012869034,mKarTel,mKcell,mKcell,,D01,2017-02-15T15:04:07+06:00,
1000000000329297,77782060000,mKarTel,mKcell,mKcell,,D01,2017-02-15T15:06:24+06:00,
1000000000329298,77027779710,mKcell,mAltel,mKcell,D07,D02,2017-02-15T15:07:03+06:00,
1000000000329299,77774341001,mKarTel,mAltel,mKarTel,D07,D01,2017-02-15T15:07:01+06:00,
1000000000329300,77059119161,mMTS,mKarTel,mKarTel,,D77,2017-02-15T15:09:47+06:00,
1000000000329301,77021088864,mAltel,mKcell,mKcell,,D07,2017-02-15T15:10:05+06:00,
1000000000329302,77771488788,mKcell,mKarTel,mKarTel,,D02,2017-02-15T15:11:06+06:00,
1000000000329306,77017532815,mAltel,mKcell,mKcell,,D07,2017-02-15T15:16:31+06:00,
1000000000329307,77471550505,mAltel,mMTS,mMTS,,D07,2017-02-15T15:16:43+06:00,
1000000000329308,77753664455,mKarTel,mKcell,mKcell,,D01,2017-02-15T15:18:46+06:00,
1000000000329309,77051859505,mAltel,mKarTel,mKarTel,,D07,2017-02-15T15:19:16+06:00,
1000000000329310,77077374070,mAltel,mMTS,mMTS,,D07,2017-02-15T15:23:28+06:00,
1000000000329311,77052794808,mKcell,mKarTel,mKarTel,,D02,2017-02-15T15:24:14+06:00,
1000000000329312,77786748782,mKarTel,mKcell,mKcell,,D01,2017-02-15T15:24:15+06:00,
1000000000329314,77082020559,mKarTel,mAltel,mAltel,,D01,2017-02-15T15:24:15+06:00,
1000000000329315,77773017025,mMTS,mKarTel,mKarTel,,D77,2017-02-15T15:24:53+06:00,
1000000000329316,77076045139,mMTS,mKcell,mMTS,D02,D77,2017-02-15T15:25:26+06:00,
1000000000329317,77770577718,mMTS,mKarTel,mKarTel,,D77,2017-02-15T15:25:53+06:00,
1000000000329318,77017018000,mKcell,mKarTel,mKcell,D01,D02,2017-02-15T15:27:40+06:00,
