NPId,Number,RecipientId,DonorId,RangeHolderId,OldRoute,NewRoute,PortDate,RowCount
1000000000233541,77013042970,mMTS,mKcell,mKcell,,D77,2016-08-24T16:01:55+06:00,36
1000000000233543,77011116064,mKarTel,mKcell,mKcell,,D01,2016-08-24T16:01:10+06:00,
1000000000233544,77016864219,mMTS,mKcell,mKcell,,D77,2016-08-24T16:00:58+06:00,
1000000000233545,77052414167,mAltel,mKarTel,mKarTel,,D07,2016-08-24T16:03:16+06:00,
1000000000233546,77017700083,mKcell,mMTS,mKcell,D77,D02,2016-08-24T16:02:29+06:00,
1000000000233547,77016574799,mMTS,mKcell,mKcell,,D77,2016-08-24T16:02:21+06:00,
1000000000233549,77022540808,mKcell,mAltel,mKcell,D07,D02,2016-08-24T16:02:59+06:00,
1000000000233550,77025558103,mMTS,mKcell,mKcell,,D77,2016-08-24T16:04:15+06:00,
1000000000233551,77013108610,mKarTel,mKcell,mKcell,,D01,2016-08-24T16:06:03+06:00,
1000000000233552,77789106786,mKarTel,mKcell,mKcell,,D01,2016-08-24T16:06:04+06:00,
1000000000233553,77771256054,mMTS,mKarTel,mKarTel,,D77,2016-08-24T16:08:50+06:00,
1000000000233554,77072179098,mKarTel,mMTS,mMTS,,D01,2016-08-24T16:10:09+06:00,
1000000000233555,77772684789,mKarTel,mKcell,mKarTel,D02,D01,2016-08-24T16:09:25+06:00,
1000000000233557,77711077001,mMTS,mKarTel,mKarTel,,D77,2016-08-24T16:12:26+06:00,
1000000000233559,77754519443,mKcell,mMTS,mKcell,D77,D02,2016-08-24T16:12:17+06:00,
1000000000233561,77052711862,mMTS,mKarTel,mKarTel,,D77,2016-08-24T16:14:12+06:00,
1000000000233562,77017224000,mKarTel,mKcell,mKcell,,D01,2016-08-24T16:15:03+06:00,
1000000000233563,77073338313,mKarTel,mMTS,mMTS,,D01,2016-08-24T16:15:02+06:00,
1000000000233564,77058029944,mMTS,mKarTel,mKarTel,,D77,2016-08-24T16:16:06+06:00,
1000000000233565,77052577182,mMTS,mKarTel,mKarTel,,D77,2016-08-24T16:19:01+06:00,
1000000000233566,77756010303,mMTS,mKcell,mKcell,,D77,2016-08-24T16:17:46+06:00,
1000000000233567,77075803419,mKcell,mMTS,mMTS,,D02,2016-08-24T16:18:15+06:00,
1000000000233568,77477059677,mKcell,mMTS,mMTS,,D02,2016-08-24T16:18:58+06:00,
1000000000233569,77011672233,mAltel,mKcell,mKcell,,D07,2016-08-24T16:19:07+06:00,
1000000000233571,77028485477,mAltel,mKcell,mKcell,,D07,2016-08-24T16:20:25+06:00,
1000000000233572,77017138833,mMTS,mKcell,mKcell,,D77,2016-08-24T16:21:37+06:00,
1000000000233573,77477770509,mMTS,mKcell,mMTS,D02,D77,2016-08-24T16:24:34+06:00,
1000000000233574,77089584220,mAltel,mMTS,mAltel,D77,D07,2016-08-24T16:24:45+06:00,
1000000000233575,77003988582,mMTS,mAltel,mAltel,,D77,2016-08-24T16:24:57+06:00,
1000000000233576,77083333180,mMTS,mAltel,mAltel,,D77,2016-08-24T16:25:23+06:00,
1000000000233577,77777480842,mKarTel,mMTS,mKarTel,D77,D01,2016-08-24T16:26:09+06:00,
1000000000233578,77773384469,mMTS,mKarTel,mKarTel,,D77,2016-08-24T16:27:47+06:00,
1000000000233579,77713161216,mMTS,mKarTel,mKarTel,,D77,2016-08-24T16:28:28+06:00,
1000000000233580,77017800079,mAltel,mKcell,mKcell,,D07,2016-08-24T16:27:26+06:00,
1000000000233581,77775012877,mMTS,mKarTel,mKarTel,,D77,2016-08-24T16:29:07+06:00,
1000000000233583,77714060573,mKarTel,mMTS,mKarTel,D77,D01,2016-08-24T16:29:49+06:00,
