NPId,Number,RecipientId,DonorId,RangeHolderId,OldRoute,NewRoute,PortDate,RowCount
1000000000404009,77777783377,mKcell,mKarTel,mKarTel,,D02,2017-06-15T18:30:37+06:00,32
1000000000404010,77079579060,mKcell,mAltel,mMTS,D07,D02,2017-06-15T18:30:47+06:00,
1000000000404011,77007701994,mMTS,mAltel,mAltel,,D77,2017-06-15T18:30:49+06:00,
1000000000404012,77012337568,mAltel,mMTS,mKcell,D77,D07,2017-06-15T18:31:56+06:00,
1000000000404013,77015145812,mKcell,mAltel,mKcell,D07,D02,2017-06-15T18:32:32+06:00,
1000000000404015,77026866996,mAltel,mKcell,mKcell,,D07,2017-06-15T18:33:10+06:00,
1000000000404016,77027178585,mKarTel,mKcell,mKcell,,D01,2017-06-15T18:34:12+06:00,
1000000000404017,77022454245,mAltel,mMTS,mKcell,D77,D07,2017-06-15T18:36:21+06:00,
1000000000404018,77003335073,mKcell,mAltel,mAltel,,D02,2017-06-15T18:39:17+06:00,
1000000000404019,77058577776,mKcell,mKarTel,mKarTel,,D02,2017-06-15T18:39:42+06:00,
1000000000404021,77015301213,mKarTel,mKcell,mKcell,,D01,2017-06-15T18:40:40+06:00,
1000000000404023,77079544444,mAltel,mMTS,mMTS,,D07,2017-06-15T18:40:12+06:00,
1000000000404024,77474342320,mAltel,mMTS,mMTS,,D07,2017-06-15T18:41:47+06:00,
1000000000404025,77079014141,mKarTel,mMTS,mMTS,,D01,2017-06-15T18:43:21+06:00,
1000000000404026,77760090689,mMTS,mKarTel,mKarTel,,D77,2017-06-15T18:44:21+06:00,
1000000000404027,77004449014,mKcell,mAltel,mAltel,,D02,2017-06-15T18:45:29+06:00,
1000000000404028,77004448054,mKcell,mAltel,mAltel,,D02,2017-06-15T18:48:17+06:00,
1000000000404029,77777770721,mKcell,mKarTel,mKarTel,,D02,2017-06-15T18:49:04+06:00,
1000000000404030,77078334340,mMTS,mKcell,mMTS,D02,D77,2017-06-15T18:50:31+06:00,
1000000000404032,77003337063,mKcell,mAltel,mAltel,,D02,2017-06-15T18:51:15+06:00,
1000000000404033,77023344948,mMTS,mKcell,mKcell,,D77,2017-06-15T18:51:19+06:00,
1000000000404034,77021761065,mMTS,mKcell,mKcell,,D77,2017-06-15T18:51:41+06:00,
1000000000404035,77021015999,mKcell,mKarTel,mKcell,D01,D02,2017-06-15T18:53:21+06:00,
1000000000404036,77082942123,mMTS,mAltel,mAltel,,D77,2017-06-15T18:54:06+06:00,
1000000000404037,77004446074,mKcell,mAltel,mAltel,,D02,2017-06-15T18:54:31+06:00,
1000000000404038,77021385888,mKcell,mKarTel,mKcell,D01,D02,2017-06-15T18:55:02+06:00,
1000000000404039,77013206165,mKarTel,mKcell,mKcell,,D01,2017-06-15T18:57:07+06:00,
1000000000404040,77004443064,mKcell,mAltel,mAltel,,D02,2017-06-15T18:57:51+06:00,
1000000000404041,77475859487,mKcell,mMTS,mMTS,,D02,2017-06-15T18:58:16+06:00,
1000000000404042,77013225308,mKarTel,mKcell,mKcell,,D01,2017-06-15T18:59:17+06:00,
1000000000404043,77015434932,mKcell,mAltel,mKcell,D07,D02,2017-06-15T18:59:23+06:00,
1000000000404044,77004448024,mKcell,mAltel,mAltel,,D02,2017-06-15T18:59:24+06:00,
