NPId,Number,RecipientId,DonorId,RangeHolderId,OldRoute,NewRoute,PortDate,RowCount
1000000000261495,77054240612,mKarTel,mKcell,mKarTel,D02,D01,2016-10-12T19:31:50+06:00,6
1000000000261496,77013171574,mMTS,mKcell,mKcell,,D77,2016-10-12T19:31:37+06:00,
1000000000261499,77022553889,mMTS,mKcell,mKcell,,D77,2016-10-12T19:40:01+06:00,
1000000000261500,77027144767,mMTS,mKcell,mKcell,,D77,2016-10-12T19:41:45+06:00,
1000000000261501,77058888209,mKcell,mKarTel,mKarTel,,D02,2016-10-12T19:52:08+06:00,
1000000000261503,77757772603,mKarTel,mKcell,mKcell,,D01,2016-10-12T19:54:49+06:00,
