NPId,Number,RecipientId,DonorId,RangeHolderId,OldRoute,NewRoute,PortDate,RowCount
1000000000235393,77055772188,mMTS,mKarTel,mKarTel,,D77,2016-08-28T13:34:30+06:00,8
1000000000235394,77755540059,mKarTel,mKcell,mKcell,,D01,2016-08-28T13:33:51+06:00,
1000000000235395,77770451048,mMTS,mAltel,mKarTel,D07,D77,2016-08-28T13:38:08+06:00,
1000000000235397,77718886181,mAltel,mKarTel,mKarTel,,D07,2016-08-28T13:46:34+06:00,
1000000000235398,77478154948,mKarTel,mMTS,mMTS,,D01,2016-08-28T13:45:54+06:00,
1000000000235400,77751934320,mMTS,mKcell,mKcell,,D77,2016-08-28T13:52:27+06:00,
1000000000235402,77077527925,mKcell,mMTS,mMTS,,D02,2016-08-28T13:57:33+06:00,
1000000000235403,77077887547,mKcell,mMTS,mMTS,,D02,2016-08-28T13:58:35+06:00,
