NPId,Number,RecipientId,DonorId,RangeHolderId,OldRoute,NewRoute,PortDate,RowCount
1000000000309898,77713165083,mMTS,mKarTel,mKarTel,,D77,2017-01-12T20:01:59+06:00,3
1000000000309899,77015999499,mAltel,mKcell,mKcell,,D07,2017-01-12T20:05:32+06:00,
1000000000309900,77019378626,mAltel,mKcell,mKcell,,D07,2017-01-12T20:07:45+06:00,
