NPId,Number,RecipientId,DonorId,RangeHolderId,OldRoute,NewRoute,PortDate,RowCount
1000000000429916,77015528406,mKarTel,mKcell,mKcell,,D01,2017-07-28T15:32:27+06:00,24
1000000000429920,77073489888,mKarTel,mMTS,mMTS,,D01,2017-07-28T15:34:22+06:00,
1000000000429921,77011225984,mKarTel,mKcell,mKcell,,D01,2017-07-28T15:34:48+06:00,
1000000000429922,77753814440,mMTS,mKcell,mKcell,,D77,2017-07-28T15:34:46+06:00,
1000000000429923,77072565819,mAltel,mMTS,mMTS,,D07,2017-07-28T15:36:49+06:00,
1000000000429924,77029018171,mMTS,mKcell,mKcell,,D77,2017-07-28T15:37:17+06:00,
1000000000429925,77071444488,mKcell,mMTS,mMTS,,D02,2017-07-28T15:38:29+06:00,
1000000000429927,77075888287,mKcell,mMTS,mMTS,,D02,2017-07-28T15:40:56+06:00,
1000000000429928,77751160715,mAltel,mMTS,mKcell,D77,D07,2017-07-28T15:41:53+06:00,
1000000000429929,77019980990,mMTS,mKarTel,mKcell,D01,D77,2017-07-28T15:44:32+06:00,
1000000000429930,77015362046,mKarTel,mKcell,mKcell,,D01,2017-07-28T15:46:42+06:00,
1000000000429931,77022879141,mMTS,mKcell,mKcell,,D77,2017-07-28T15:46:33+06:00,
1000000000429932,77017470704,mMTS,mKcell,mKcell,,D77,2017-07-28T15:47:36+06:00,
1000000000429933,77755856080,mKarTel,mKcell,mKcell,,D01,2017-07-28T15:50:40+06:00,
1000000000429936,77010550800,mKarTel,mKcell,mKcell,,D01,2017-07-28T15:51:10+06:00,
1000000000429937,77071433366,mAltel,mMTS,mMTS,D77,D07,2017-07-28T15:51:46+06:00,
1000000000429938,77022503748,mMTS,mKcell,mKcell,,D77,2017-07-28T15:53:45+06:00,
1000000000429940,77471310231,mKcell,mMTS,mMTS,,D02,2017-07-28T15:54:47+06:00,
1000000000429941,77070409510,mKcell,mMTS,mMTS,,D02,2017-07-28T15:55:12+06:00,
1000000000429942,77079000423,mAltel,mMTS,mMTS,,D07,2017-07-28T15:55:29+06:00,
1000000000429943,77018790344,mKarTel,mKcell,mKcell,,D01,2017-07-28T15:56:46+06:00,
1000000000429944,77011163838,mKcell,mMTS,mKcell,D77,D02,2017-07-28T15:56:50+06:00,
1000000000429945,77079000548,mAltel,mMTS,mMTS,,D07,2017-07-28T15:57:06+06:00,
1000000000429946,77079000538,mAltel,mMTS,mMTS,,D07,2017-07-28T15:58:31+06:00,
