NPId,Number,RecipientId,DonorId,RangeHolderId,OldRoute,NewRoute,PortDate,RowCount
1000000000280671,77751776625,mMTS,mKcell,mKcell,,D77,2016-11-17T19:00:13+06:00,10
1000000000280674,77717909075,mKcell,mKarTel,mKarTel,,D02,2016-11-17T19:23:58+06:00,
1000000000280675,77015509586,mKcell,mKarTel,mKcell,D01,D02,2016-11-17T19:09:24+06:00,
1000000000280676,77018882403,mKcell,mMTS,mKcell,D77,D02,2016-11-17T19:08:56+06:00,
1000000000280677,77023732873,mKarTel,mKcell,mKcell,,D01,2016-11-17T19:10:14+06:00,
1000000000280678,77011768211,mKcell,mMTS,mKcell,D77,D02,2016-11-17T19:10:12+06:00,
1000000000280679,77013602468,mKarTel,mKcell,mKcell,,D01,2016-11-17T19:10:36+06:00,
1000000000280680,77053314393,mMTS,mKarTel,mKarTel,,D77,2016-11-17T19:14:47+06:00,
1000000000280683,77786553982,mMTS,mKcell,mKcell,,D77,2016-11-17T19:22:26+06:00,
1000000000280684,77056089191,mKcell,mKarTel,mKarTel,,D02,2016-11-17T19:24:26+06:00,
