NPId,Number,RecipientId,DonorId,RangeHolderId,OldRoute,NewRoute,PortDate,RowCount
1000000000349205,77007421215,mMTS,mAltel,mAltel,,D77,2017-03-18T13:07:16+06:00,10
1000000000349207,77753806052,mMTS,mKcell,mKcell,,D77,2017-03-18T13:10:10+06:00,
1000000000349209,77015519151,mMTS,mKcell,mKcell,,D77,2017-03-18T13:10:54+06:00,
1000000000349212,77009770000,mKcell,mAltel,mAltel,,D02,2017-03-18T13:12:17+06:00,
1000000000349213,77026311802,mKarTel,mKcell,mKcell,,D01,2017-03-18T13:15:32+06:00,
1000000000349216,77478080258,mKarTel,mMTS,mMTS,,D01,2017-03-18T13:17:59+06:00,
1000000000349218,77027800534,mAltel,mMTS,mKcell,D77,D07,2017-03-18T13:18:12+06:00,
1000000000349221,77007700898,mMTS,mAltel,mAltel,,D77,2017-03-18T13:18:53+06:00,
1000000000349223,77079095550,mKcell,mMTS,mMTS,,D02,2017-03-18T13:22:05+06:00,
1000000000349224,77763838638,mKcell,mKarTel,mKarTel,,D02,2017-03-18T13:27:30+06:00,
