NPId,Number,RecipientId,DonorId,RangeHolderId,OldRoute,NewRoute,PortDate,RowCount
1000000000128768,77775549999,mAltel,mKarTel,mKarTel,,D07,2016-03-18T18:02:11+06:00,28
1000000000128772,77082745518,mMTS,mAltel,mAltel,,D77,2016-03-18T18:04:48+06:00,
1000000000128773,77029499474,mMTS,mKcell,mKcell,,D77,2016-03-18T18:07:05+06:00,
1000000000128774,77028560424,mMTS,mKcell,mKcell,,D77,2016-03-18T18:07:06+06:00,
1000000000128776,77772226625,mKcell,mAltel,mKarTel,D07,D02,2016-03-18T18:08:44+06:00,
1000000000128777,77772397786,mAltel,mKarTel,mKarTel,,D07,2016-03-18T18:10:02+06:00,
1000000000128778,77071594230,mKcell,mMTS,mMTS,,D02,2016-03-18T18:10:10+06:00,
1000000000128779,77772303033,mKcell,mKarTel,mKarTel,,D02,2016-03-18T18:11:22+06:00,
1000000000128780,77770316286,mKcell,mKarTel,mKarTel,,D02,2016-03-18T18:11:23+06:00,
1000000000128781,77077755010,mKarTel,mMTS,mMTS,,D01,2016-03-18T18:10:27+06:00,
1000000000128782,77054403886,mKcell,mKarTel,mKarTel,,D02,2016-03-18T18:11:53+06:00,
1000000000128783,77770316280,mKcell,mKarTel,mKarTel,,D02,2016-03-18T18:12:19+06:00,
1000000000128784,77071244744,mKcell,mMTS,mMTS,,D02,2016-03-18T18:12:10+06:00,
1000000000128785,77770316278,mKcell,mKarTel,mKarTel,,D02,2016-03-18T18:14:02+06:00,
1000000000128786,77753042633,mMTS,mKcell,mKcell,,D77,2016-03-18T18:15:00+06:00,
1000000000128787,77012182046,mKarTel,mKcell,mKcell,,D01,2016-03-18T18:14:31+06:00,
1000000000128788,77770316277,mKcell,mKarTel,mKarTel,,D02,2016-03-18T18:16:08+06:00,
1000000000128792,77770316274,mKcell,mKarTel,mKarTel,,D02,2016-03-18T18:17:03+06:00,
1000000000128795,77770316273,mKcell,mKarTel,mKarTel,,D02,2016-03-18T18:20:16+06:00,
1000000000128797,77021122545,mKarTel,mKcell,mKcell,,D01,2016-03-18T18:20:34+06:00,
1000000000128798,77770316271,mKcell,mKarTel,mKarTel,,D02,2016-03-18T18:22:12+06:00,
1000000000128800,77014986647,mMTS,mKcell,mKcell,,D77,2016-03-18T18:22:07+06:00,
1000000000128802,77472577016,mMTS,mAltel,mMTS,D07,D77,2016-03-18T18:23:00+06:00,
1000000000128803,77770316266,mKcell,mKarTel,mKarTel,,D02,2016-03-18T18:24:57+06:00,
1000000000128804,77766005646,mAltel,mKarTel,mKarTel,,D07,2016-03-18T18:27:23+06:00,
1000000000128805,77770316265,mKcell,mKarTel,mKarTel,,D02,2016-03-18T18:27:42+06:00,
1000000000128806,77779004158,mMTS,mKarTel,mKarTel,,D77,2016-03-18T18:27:23+06:00,
1000000000128808,77770316258,mKcell,mKarTel,mKarTel,,D02,2016-03-18T18:29:13+06:00,
