NPId,Number,RecipientId,DonorId,RangeHolderId,OldRoute,NewRoute,PortDate,RowCount
1000000000339871,77021585848,mKarTel,mKcell,mKcell,,D01,2017-03-03T10:35:10+06:00,12
1000000000339872,77059500595,mKcell,mKarTel,mKarTel,,D02,2017-03-03T10:35:49+06:00,
1000000000339873,77770290879,mAltel,mKarTel,mKarTel,,D07,2017-03-03T10:37:32+06:00,
1000000000339874,77017486845,mMTS,mKcell,mKcell,,D77,2017-03-03T10:38:05+06:00,
1000000000339876,77014322046,mMTS,mKcell,mKcell,,D77,2017-03-03T10:41:00+06:00,
1000000000339879,77015251112,mMTS,mKcell,mKcell,,D77,2017-03-03T10:44:34+06:00,
1000000000339880,77013637515,mAltel,mKcell,mKcell,,D07,2017-03-03T10:45:03+06:00,
1000000000339884,77019017779,mKcell,mKarTel,mKcell,D01,D02,2017-03-03T10:52:05+06:00,
1000000000339886,77780005587,mKcell,mAltel,mKcell,D07,D02,2017-03-03T10:53:49+06:00,
1000000000339887,77770731122,mKarTel,mMTS,mKarTel,D77,D01,2017-03-03T10:53:53+06:00,
1000000000339888,77057003339,mKcell,mAltel,mKarTel,D07,D02,2017-03-03T10:57:01+06:00,
1000000000339890,77775955020,mKcell,mKarTel,mKarTel,,D02,2017-03-03T10:58:44+06:00,
