NPId,Number,RecipientId,DonorId,RangeHolderId,OldRoute,NewRoute,PortDate,RowCount
1000000000131428,77713804085,mMTS,mKarTel,mKarTel,,D77,2016-03-23T16:30:40+06:00,34
1000000000131429,77772154075,mMTS,mKarTel,mKarTel,,D77,2016-03-23T16:30:40+06:00,
1000000000131430,77751991372,mMTS,mKcell,mKcell,,D77,2016-03-23T16:30:21+06:00,
1000000000131431,77071234775,mMTS,mAltel,mMTS,D07,D77,2016-03-23T16:31:12+06:00,
1000000000131432,77751420334,mMTS,mKcell,mKcell,,D77,2016-03-23T16:31:24+06:00,
1000000000131433,77757400001,mMTS,mKcell,mKcell,,D77,2016-03-23T16:32:05+06:00,
1000000000131434,77757798969,mMTS,mKcell,mKcell,,D77,2016-03-23T16:32:55+06:00,
1000000000131435,77054740011,mKcell,mKarTel,mKarTel,,D02,2016-03-23T16:33:52+06:00,
1000000000131437,77776533720,mMTS,mKarTel,mKarTel,,D77,2016-03-23T16:34:17+06:00,
1000000000131438,77779944555,mAltel,mKarTel,mKarTel,,D07,2016-03-23T16:34:18+06:00,
1000000000131439,77773695563,mMTS,mKarTel,mKarTel,,D77,2016-03-23T16:37:06+06:00,
1000000000131442,77014665018,mAltel,mKcell,mKcell,,D07,2016-03-23T16:37:03+06:00,
1000000000131443,77000700525,mKcell,mAltel,mAltel,,D02,2016-03-23T16:38:10+06:00,
1000000000131444,77075343422,mAltel,mMTS,mMTS,,D07,2016-03-23T16:39:01+06:00,
1000000000131445,77714251649,mMTS,mKarTel,mKarTel,,D77,2016-03-23T16:40:14+06:00,
1000000000131446,77021233388,mAltel,mKcell,mKcell,,D07,2016-03-23T16:42:33+06:00,
1000000000131448,77750288882,mAltel,mKcell,mKcell,,D07,2016-03-23T16:42:53+06:00,
1000000000131449,77019922661,mMTS,mKcell,mKcell,,D77,2016-03-23T16:44:23+06:00,
1000000000131450,77089173177,mKcell,mAltel,mAltel,,D02,2016-03-23T16:46:00+06:00,
1000000000131452,77759987901,mMTS,mKcell,mKcell,,D77,2016-03-23T16:50:46+06:00,
1000000000131453,77753638403,mKcell,mAltel,mKcell,D07,D02,2016-03-23T16:52:06+06:00,
1000000000131455,77774017360,mAltel,mKarTel,mKarTel,,D07,2016-03-23T16:54:17+06:00,
1000000000131457,77072128020,mKcell,mMTS,mMTS,,D02,2016-03-23T16:54:07+06:00,
1000000000131458,77078101662,mKcell,mMTS,mMTS,,D02,2016-03-23T16:55:30+06:00,
1000000000131460,77771127494,mKcell,mKarTel,mKarTel,,D02,2016-03-23T16:57:05+06:00,
1000000000131461,77754662807,mAltel,mKcell,mKcell,,D07,2016-03-23T16:56:12+06:00,
1000000000131462,77025174946,mKarTel,mKcell,mKcell,,D01,2016-03-23T16:56:36+06:00,
1000000000131463,77009896969,mKcell,mAltel,mAltel,,D02,2016-03-23T16:56:27+06:00,
1000000000131464,77758170324,mMTS,mAltel,mKcell,D07,D77,2016-03-23T16:56:12+06:00,
1000000000131465,77028880533,mKarTel,mKcell,mKcell,,D01,2016-03-23T16:57:24+06:00,
1000000000131466,77788376555,mMTS,mKcell,mKcell,,D77,2016-03-23T16:57:11+06:00,
1000000000131467,77777010001,mKcell,mKarTel,mKarTel,,D02,2016-03-23T16:58:40+06:00,
1000000000131468,77053789071,mMTS,mKarTel,mKarTel,,D77,2016-03-23T16:58:40+06:00,
1000000000131469,77477311524,mKcell,mMTS,mMTS,,D02,2016-03-23T16:58:07+06:00,
