NPId,Number,RecipientId,DonorId,RangeHolderId,OldRoute,NewRoute,PortDate,RowCount
1000000000424973,77773636882,mMTS,mKarTel,mKarTel,,D77,2017-07-20T10:33:56+06:00,13
1000000000425012,77001101058,mKarTel,mAltel,mAltel,,D01,2017-07-20T10:30:16+06:00,
1000000000425013,77012231013,mMTS,mKcell,mKcell,,D77,2017-07-20T10:30:18+06:00,
1000000000425014,77785731047,mMTS,mKcell,mKcell,,D77,2017-07-20T10:32:07+06:00,
1000000000425016,77010298888,mKarTel,mKcell,mKcell,,D01,2017-07-20T10:34:48+06:00,
1000000000425017,77079978086,mAltel,mMTS,mMTS,,D07,2017-07-20T10:37:20+06:00,
1000000000425018,77085248311,mMTS,mAltel,mAltel,,D77,2017-07-20T10:41:48+06:00,
1000000000425019,77752999111,mKcell,mAltel,mKcell,D07,D02,2017-07-20T10:42:46+06:00,
1000000000425022,77072128878,mKcell,mMTS,mMTS,,D02,2017-07-20T10:46:57+06:00,
1000000000425023,77785730952,mMTS,mKcell,mKcell,,D77,2017-07-20T10:47:10+06:00,
1000000000425024,77024661114,mKcell,mMTS,mKcell,D77,D02,2017-07-20T10:48:17+06:00,
1000000000425025,77017795630,mMTS,mKcell,mKcell,,D77,2017-07-20T10:48:21+06:00,
1000000000425027,77012891973,mMTS,mKcell,mKcell,,D77,2017-07-20T10:55:18+06:00,
