NPId,Number,RecipientId,DonorId,RangeHolderId,OldRoute,NewRoute,PortDate,RowCount
1000000000253644,77058159245,mAltel,mKarTel,mKarTel,,D07,2016-09-29T20:01:41+06:00,7
1000000000253645,77052676736,mKarTel,mMTS,mKarTel,D77,D01,2016-09-29T20:00:42+06:00,
1000000000253647,77056109640,mKarTel,mMTS,mKarTel,D77,D01,2016-09-29T20:14:56+06:00,
1000000000253649,77781417354,mMTS,mKcell,mKcell,,D77,2016-09-29T20:17:30+06:00,
1000000000253650,77015030883,mKcell,mMTS,mKcell,D77,D02,2016-09-29T20:23:30+06:00,
1000000000253651,77474023825,mKcell,mMTS,mMTS,,D02,2016-09-29T20:23:33+06:00,
1000000000253652,77781422861,mMTS,mKcell,mKcell,,D77,2016-09-29T20:27:34+06:00,
