NPId,Number,RecipientId,DonorId,RangeHolderId,OldRoute,NewRoute,PortDate,RowCount
1000000000366062,77017287982,mAltel,mKcell,mKcell,,D07,2017-04-17T13:43:29+06:00,25
1000000000367004,77026922823,mKcell,mMTS,mKcell,D77,D02,2017-04-17T13:35:21+06:00,
1000000000367005,77010892202,mMTS,mKcell,mKcell,,D77,2017-04-17T13:36:57+06:00,
1000000000367006,77005555152,mKcell,mAltel,mAltel,,D02,2017-04-17T13:38:09+06:00,
1000000000367007,77777044848,mKcell,mKarTel,mKarTel,,D02,2017-04-17T13:39:44+06:00,
1000000000367008,77055761717,mAltel,mKarTel,mKarTel,,D07,2017-04-17T13:40:05+06:00,
1000000000367009,77078608887,mAltel,mMTS,mMTS,,D07,2017-04-17T13:39:51+06:00,
1000000000367010,77019977110,mKarTel,mKcell,mKcell,,D01,2017-04-17T13:40:37+06:00,
1000000000367011,77711211141,mKcell,mKarTel,mKarTel,,D02,2017-04-17T13:42:23+06:00,
1000000000367013,77763849595,mKcell,mKarTel,mKarTel,,D02,2017-04-17T13:43:18+06:00,
1000000000367014,77757155593,mMTS,mKcell,mKcell,,D77,2017-04-17T13:42:54+06:00,
1000000000367016,77078546864,mKarTel,mMTS,mMTS,,D01,2017-04-17T13:44:47+06:00,
1000000000367017,77787081200,mKcell,mMTS,mKcell,D77,D02,2017-04-17T13:45:14+06:00,
1000000000367018,77010666600,mAltel,mKcell,mKcell,D02,D07,2017-04-17T13:46:02+06:00,
1000000000367019,77771303380,mKarTel,mMTS,mKarTel,D77,D01,2017-04-17T13:46:44+06:00,
1000000000367020,77001010190,mKcell,mAltel,mAltel,,D02,2017-04-17T13:48:03+06:00,
1000000000367021,77015237074,mKarTel,mKcell,mKcell,,D01,2017-04-17T13:50:35+06:00,
1000000000367022,77001010123,mKcell,mAltel,mAltel,,D02,2017-04-17T13:51:21+06:00,
1000000000367023,77075325033,mKarTel,mMTS,mMTS,,D01,2017-04-17T13:52:06+06:00,
1000000000367024,77028728637,mMTS,mKcell,mKcell,,D77,2017-04-17T13:52:09+06:00,
1000000000367025,77021953433,mMTS,mKcell,mKcell,,D77,2017-04-17T13:53:10+06:00,
1000000000367026,77014696936,mMTS,mKcell,mKcell,,D77,2017-04-17T13:53:43+06:00,
1000000000367027,77767067000,mMTS,mKarTel,mKarTel,,D77,2017-04-17T13:54:31+06:00,
1000000000367028,77776555920,mMTS,mKarTel,mKarTel,,D77,2017-04-17T13:55:28+06:00,
1000000000367029,77012242000,mAltel,mKcell,mKcell,,D07,2017-04-17T13:55:58+06:00,
