NPId,Number,RecipientId,DonorId,RangeHolderId,OldRoute,NewRoute,PortDate,RowCount
1000000000155104,77710156702,mKcell,mKarTel,mKarTel,,D02,2016-04-19T17:47:23+06:00,37
1000000000155104,77710156703,mKcell,mKarTel,mKarTel,,D02,2016-04-19T17:47:23+06:00,
1000000000155104,77710156712,mKcell,mKarTel,mKarTel,,D02,2016-04-19T17:47:23+06:00,
1000000000155104,77710156713,mKcell,mKarTel,mKarTel,,D02,2016-04-19T17:47:23+06:00,
1000000000155104,77710962455,mKcell,mKarTel,mKarTel,,D02,2016-04-19T17:47:23+06:00,
1000000000155104,77710963595,mKcell,mKarTel,mKarTel,,D02,2016-04-19T17:47:23+06:00,
1000000000155919,77767000012,mKcell,mKarTel,mKarTel,,D02,2016-04-19T17:33:24+06:00,
1000000000155921,77082221345,mMTS,mAltel,mAltel,,D77,2016-04-19T17:32:37+06:00,
1000000000155922,77758257979,mKcell,mAltel,mKcell,D07,D02,2016-04-19T17:34:02+06:00,
1000000000155924,77055977660,mMTS,mKarTel,mKarTel,,D77,2016-04-19T17:35:20+06:00,
1000000000155926,77078377130,mKarTel,mMTS,mMTS,,D01,2016-04-19T17:38:19+06:00,
1000000000155927,77784067397,mMTS,mKcell,mKcell,,D77,2016-04-19T17:38:34+06:00,
1000000000155928,77018005005,mKarTel,mAltel,mKcell,D07,D01,2016-04-19T17:38:35+06:00,
1000000000155929,77052229573,mAltel,mKarTel,mKarTel,,D07,2016-04-19T17:39:05+06:00,
1000000000155930,77754320188,mMTS,mAltel,mKcell,D07,D77,2016-04-19T17:39:36+06:00,
1000000000155931,77001666699,mMTS,mAltel,mAltel,,D77,2016-04-19T17:39:46+06:00,
1000000000155932,77025752662,mKcell,mAltel,mKcell,D07,D02,2016-04-19T17:40:43+06:00,
1000000000155933,77016098919,mKcell,mKarTel,mKcell,D01,D02,2016-04-19T17:41:47+06:00,
1000000000155935,77013479749,mMTS,mKcell,mKcell,,D77,2016-04-19T17:42:02+06:00,
1000000000155936,77016749835,mMTS,mKcell,mKcell,,D77,2016-04-19T17:42:13+06:00,
1000000000155937,77029993908,mKarTel,mKcell,mKcell,,D01,2016-04-19T17:45:24+06:00,
1000000000155939,77080119076,mKcell,mAltel,mAltel,,D02,2016-04-19T17:46:37+06:00,
1000000000155941,77755575587,mMTS,mKcell,mKcell,,D77,2016-04-19T17:47:40+06:00,
1000000000155943,77753808551,mAltel,mKcell,mKcell,,D07,2016-04-19T17:48:15+06:00,
1000000000155944,77015509151,mMTS,mKcell,mKcell,,D77,2016-04-19T17:49:03+06:00,
1000000000155945,77771573177,mMTS,mKarTel,mKarTel,,D77,2016-04-19T17:48:57+06:00,
1000000000155947,77007170217,mMTS,mAltel,mAltel,,D77,2016-04-19T17:48:45+06:00,
1000000000155948,77089207487,mMTS,mAltel,mAltel,,D77,2016-04-19T17:48:52+06:00,
1000000000155950,77758188635,mKarTel,mKcell,mKcell,,D01,2016-04-19T17:51:43+06:00,
1000000000155951,77018800087,mMTS,mKcell,mKcell,,D77,2016-04-19T17:51:30+06:00,
1000000000155953,77710326000,mKcell,mKarTel,mKarTel,,D02,2016-04-19T17:53:03+06:00,
1000000000155955,77078086272,mKarTel,mMTS,mMTS,,D01,2016-04-19T17:54:08+06:00,
1000000000155956,77759891040,mKarTel,mKcell,mKcell,,D01,2016-04-19T17:55:12+06:00,
1000000000155957,77024608686,mMTS,mKcell,mKcell,,D77,2016-04-19T17:55:02+06:00,
1000000000155961,77004141008,mMTS,mAltel,mAltel,,D77,2016-04-19T17:57:00+06:00,
1000000000155962,77757276809,mMTS,mKcell,mKcell,,D77,2016-04-19T17:59:09+06:00,
1000000000155963,77022477100,mAltel,mKcell,mKcell,,D07,2016-04-19T17:59:26+06:00,
