NPId,Number,RecipientId,DonorId,RangeHolderId,OldRoute,NewRoute,PortDate,RowCount
1000000000414984,77012887812,mKarTel,mKcell,mKcell,,D01,2017-07-03T10:03:33+06:00,19
1000000000414985,77056591640,mMTS,mKarTel,mKarTel,,D77,2017-07-03T10:04:48+06:00,
1000000000414986,77750600315,mAltel,mKcell,mKcell,,D07,2017-07-03T10:08:32+06:00,
1000000000414988,77052847171,mMTS,mKarTel,mKarTel,,D77,2017-07-03T10:11:23+06:00,
1000000000414989,77017399398,mMTS,mKcell,mKcell,,D77,2017-07-03T10:12:04+06:00,
1000000000414990,77779804488,mKarTel,mMTS,mKarTel,D77,D01,2017-07-03T10:12:35+06:00,
1000000000414991,77076280456,mMTS,mKarTel,mMTS,D01,D77,2017-07-03T10:15:14+06:00,
1000000000414993,77053676324,mMTS,mKarTel,mKarTel,,D77,2017-07-03T10:15:29+06:00,
1000000000414994,77473427293,mMTS,mKcell,mMTS,D02,D77,2017-07-03T10:15:23+06:00,
1000000000414996,77772879057,mKarTel,mAltel,mKarTel,D07,D01,2017-07-03T10:16:58+06:00,
1000000000414997,77020005095,mAltel,mKcell,mKcell,,D07,2017-07-03T10:18:15+06:00,
1000000000414998,77070390035,mKcell,mMTS,mMTS,,D02,2017-07-03T10:20:26+06:00,
1000000000414999,77076280455,mMTS,mKarTel,mMTS,D01,D77,2017-07-03T10:20:55+06:00,
1000000000415000,77772654025,mKarTel,mAltel,mKarTel,D07,D01,2017-07-03T10:23:18+06:00,
1000000000415001,77475573307,mKarTel,mMTS,mMTS,,D01,2017-07-03T10:23:34+06:00,
1000000000415002,77015207171,mKcell,mMTS,mKcell,D77,D02,2017-07-03T10:24:01+06:00,
1000000000415003,77017403011,mAltel,mKcell,mKcell,,D07,2017-07-03T10:26:25+06:00,
1000000000415004,77009992285,mAltel,mKarTel,mAltel,D01,D07,2017-07-03T10:28:17+06:00,
1000000000415005,77789180110,mKcell,mAltel,mKcell,D07,D02,2017-07-03T10:28:27+06:00,
