NPId,Number,RecipientId,DonorId,RangeHolderId,OldRoute,NewRoute,PortDate,RowCount
1000000000214503,77016122233,mMTS,mKcell,mKcell,,D77,2016-07-20T19:32:42+06:00,7
1000000000214504,77018885000,mAltel,mKarTel,mKcell,D01,D07,2016-07-20T19:35:00+06:00,
1000000000214506,77019949911,mMTS,mKcell,mKcell,,D77,2016-07-20T19:40:56+06:00,
1000000000214507,77076884302,mKcell,mMTS,mMTS,,D02,2016-07-20T19:54:58+06:00,
1000000000214508,77765321510,mKarTel,mMTS,mKarTel,D77,D01,2016-07-20T19:53:44+06:00,
1000000000214509,77777232424,mKarTel,mAltel,mKarTel,D07,D01,2016-07-20T19:54:30+06:00,
1000000000214539,77087600648,mKarTel,mAltel,mAltel,,D01,2016-07-20T19:59:21+06:00,
