NPId,Number,RecipientId,DonorId,RangeHolderId,OldRoute,NewRoute,PortDate,RowCount
1000000000248888,77029481815,mMTS,mKcell,mKcell,,D77,2016-09-21T12:00:34+06:00,19
1000000000248890,77015206835,mMTS,mKcell,mKcell,,D77,2016-09-21T12:04:59+06:00,
1000000000248893,77000011888,mKcell,mAltel,mAltel,,D02,2016-09-21T12:06:35+06:00,
1000000000248895,77015222035,mKcell,mAltel,mKcell,D07,D02,2016-09-21T12:08:00+06:00,
1000000000248898,77081082457,mAltel,mKarTel,mAltel,D01,D07,2016-09-21T12:11:45+06:00,
1000000000248900,77773025476,mMTS,mKarTel,mKarTel,,D77,2016-09-21T12:12:38+06:00,
1000000000248901,77472120102,mKarTel,mMTS,mMTS,,D01,2016-09-21T12:11:44+06:00,
1000000000248903,77764449333,mMTS,mKarTel,mKarTel,,D77,2016-09-21T12:14:23+06:00,
1000000000248905,77072921253,mAltel,mMTS,mMTS,,D07,2016-09-21T12:14:49+06:00,
1000000000248906,77711836787,mMTS,mKarTel,mKarTel,,D77,2016-09-21T12:18:02+06:00,
1000000000248907,77072598899,mAltel,mMTS,mMTS,,D07,2016-09-21T12:17:01+06:00,
1000000000248908,77012200219,mKarTel,mKcell,mKcell,,D01,2016-09-21T12:18:01+06:00,
1000000000248909,77071764260,mMTS,mKarTel,mMTS,D01,D77,2016-09-21T12:19:51+06:00,
1000000000248910,77783048954,mMTS,mKcell,mKcell,,D77,2016-09-21T12:18:29+06:00,
1000000000248912,77015522952,mKarTel,mKcell,mKcell,,D01,2016-09-21T12:23:21+06:00,
1000000000248913,77024444042,mAltel,mKcell,mKcell,,D07,2016-09-21T12:23:04+06:00,
1000000000248914,77765776611,mMTS,mKarTel,mKarTel,,D77,2016-09-21T12:26:55+06:00,
1000000000248915,77771382220,mMTS,mKarTel,mKarTel,,D77,2016-09-21T12:27:53+06:00,
1000000000248918,77001443350,mMTS,mAltel,mAltel,,D77,2016-09-21T12:29:02+06:00,
