NPId,Number,RecipientId,DonorId,RangeHolderId,OldRoute,NewRoute,PortDate,RowCount
1000000000189590,77073016964,mKcell,mMTS,mMTS,,D02,2016-06-07T22:25:51+06:00,4
1000000000189637,77762240292,mKcell,mKarTel,mKarTel,,D02,2016-06-07T22:13:00+06:00,
1000000000189679,77017977907,mKcell,mMTS,mKcell,D77,D02,2016-06-07T22:23:05+06:00,
1000000000189703,77007777419,mKcell,mAltel,mAltel,,D02,2016-06-07T22:14:38+06:00,
