NPId,Number,RecipientId,DonorId,RangeHolderId,OldRoute,NewRoute,PortDate,RowCount
1000000000311923,77784640007,mAltel,mKcell,mKcell,,D07,2017-01-17T14:00:44+06:00,23
1000000000311924,77078548558,mKarTel,mMTS,mMTS,,D01,2017-01-17T14:01:08+06:00,
1000000000311925,77015209549,mKarTel,mKcell,mKcell,,D01,2017-01-17T14:01:57+06:00,
1000000000311926,77767279494,mAltel,mKarTel,mKarTel,,D07,2017-01-17T14:03:11+06:00,
1000000000311927,77022323395,mAltel,mKcell,mKcell,,D07,2017-01-17T14:02:52+06:00,
1000000000311929,77085180714,mMTS,mAltel,mAltel,,D77,2017-01-17T14:03:45+06:00,
1000000000311930,77758819895,mMTS,mKcell,mKcell,,D77,2017-01-17T14:03:54+06:00,
1000000000311931,77785171136,mMTS,mKcell,mKcell,,D77,2017-01-17T14:06:53+06:00,
1000000000311932,77759638672,mMTS,mKcell,mKcell,,D77,2017-01-17T14:07:45+06:00,
1000000000311933,77079823006,mKcell,mMTS,mMTS,,D02,2017-01-17T14:09:04+06:00,
1000000000311934,77478383865,mKcell,mAltel,mMTS,D07,D02,2017-01-17T14:09:23+06:00,
1000000000311935,77716540311,mAltel,mKarTel,mKarTel,,D07,2017-01-17T14:11:26+06:00,
1000000000311936,77781390093,mKarTel,mKcell,mKcell,,D01,2017-01-17T14:13:28+06:00,
1000000000311937,77013072100,mKcell,mMTS,mKcell,D77,D02,2017-01-17T14:15:43+06:00,
1000000000311938,77788941525,mMTS,mKcell,mKcell,,D77,2017-01-17T14:15:48+06:00,
1000000000311939,77472024764,mMTS,mKarTel,mMTS,D01,D77,2017-01-17T14:17:11+06:00,
1000000000311940,77072928808,mKarTel,mAltel,mMTS,D07,D01,2017-01-17T14:17:29+06:00,
1000000000311941,77001171989,mKarTel,mAltel,mAltel,,D01,2017-01-17T14:19:52+06:00,
1000000000311944,77051662245,mMTS,mKarTel,mKarTel,,D77,2017-01-17T14:23:00+06:00,
1000000000311946,77011227765,mKarTel,mKcell,mKcell,,D01,2017-01-17T14:26:52+06:00,
1000000000311947,77028188899,mMTS,mKcell,mKcell,,D77,2017-01-17T14:26:50+06:00,
1000000000311948,77009919141,mKcell,mAltel,mAltel,,D02,2017-01-17T14:27:58+06:00,
1000000000311950,77001012008,mKcell,mAltel,mAltel,,D02,2017-01-17T14:29:10+06:00,
