NPId,Number,RecipientId,DonorId,RangeHolderId,OldRoute,NewRoute,PortDate,RowCount
1000000000141380,77711087878,mAltel,mKarTel,mKarTel,,D07,2016-04-03T16:01:22+06:00,25
1000000000141382,77014852462,mKarTel,mKcell,mKcell,,D01,2016-04-03T16:02:52+06:00,
1000000000141383,77772648813,mAltel,mKarTel,mKarTel,,D07,2016-04-03T16:04:02+06:00,
1000000000141384,77077876154,mAltel,mMTS,mMTS,,D07,2016-04-03T16:03:24+06:00,
1000000000141385,77027096223,mKarTel,mKcell,mKcell,,D01,2016-04-03T16:04:02+06:00,
1000000000141386,77472525070,mMTS,mAltel,mMTS,D07,D77,2016-04-03T16:03:42+06:00,
1000000000141387,77768000633,mMTS,mKarTel,mKarTel,,D77,2016-04-03T16:05:12+06:00,
1000000000141389,77017934422,mMTS,mKcell,mKcell,,D77,2016-04-03T16:07:21+06:00,
1000000000141391,77058001732,mMTS,mKarTel,mKarTel,,D77,2016-04-03T16:10:08+06:00,
1000000000141393,77000990905,mKcell,mAltel,mAltel,,D02,2016-04-03T16:12:15+06:00,
1000000000141394,77020001087,mMTS,mAltel,mKcell,D07,D77,2016-04-03T16:11:53+06:00,
1000000000141395,77758749200,mMTS,mKcell,mKcell,,D77,2016-04-03T16:13:03+06:00,
1000000000141398,77716663288,mAltel,mKarTel,mKarTel,,D07,2016-04-03T16:19:30+06:00,
1000000000141400,77787075282,mMTS,mKcell,mKcell,,D77,2016-04-03T16:19:01+06:00,
1000000000141401,77022150916,mMTS,mKcell,mKcell,,D77,2016-04-03T16:19:01+06:00,
1000000000141403,77777056060,mAltel,mKarTel,mKarTel,,D07,2016-04-03T16:21:06+06:00,
1000000000141406,77757677788,mKarTel,mKcell,mKcell,,D01,2016-04-03T16:23:08+06:00,
1000000000141407,77075872737,mMTS,mAltel,mMTS,D07,D77,2016-04-03T16:22:47+06:00,
1000000000141408,77757087974,mMTS,mKcell,mKcell,,D77,2016-04-03T16:23:45+06:00,
1000000000141409,77026661222,mMTS,mKarTel,mKcell,D01,D77,2016-04-03T16:24:46+06:00,
1000000000141411,77053164387,mAltel,mKarTel,mKarTel,,D07,2016-04-03T16:25:18+06:00,
1000000000141412,77774105809,mAltel,mKarTel,mKarTel,,D07,2016-04-03T16:25:52+06:00,
1000000000141413,77019007973,mMTS,mKcell,mKcell,,D77,2016-04-03T16:25:52+06:00,
1000000000141414,77754499600,mMTS,mKcell,mKcell,,D77,2016-04-03T16:27:10+06:00,
1000000000141416,77072383716,mAltel,mMTS,mMTS,,D07,2016-04-03T16:28:57+06:00,
