NPId,Number,RecipientId,DonorId,RangeHolderId,OldRoute,NewRoute,PortDate,RowCount
1000000000401241,77781558315,mAltel,mKcell,mKcell,,D07,2017-06-10T18:02:00+06:00,12
1000000000401242,77001471986,mKcell,mAltel,mAltel,,D02,2017-06-10T18:03:11+06:00,
1000000000401243,77071446777,mKcell,mMTS,mMTS,,D02,2017-06-10T18:04:13+06:00,
1000000000401244,77000928900,mKcell,mAltel,mAltel,,D02,2017-06-10T18:07:44+06:00,
1000000000401245,77000942300,mKcell,mAltel,mAltel,,D02,2017-06-10T18:10:23+06:00,
1000000000401246,77019999261,mAltel,mKcell,mKcell,,D07,2017-06-10T18:12:41+06:00,
1000000000401247,77013190280,mMTS,mKcell,mKcell,,D77,2017-06-10T18:14:44+06:00,
1000000000401248,77000949707,mKcell,mAltel,mAltel,,D02,2017-06-10T18:15:19+06:00,
1000000000401249,77015030416,mAltel,mKcell,mKcell,,D07,2017-06-10T18:15:32+06:00,
1000000000401250,77000209702,mKcell,mAltel,mAltel,,D02,2017-06-10T18:15:31+06:00,
1000000000401251,77029736967,mAltel,mKcell,mKcell,,D07,2017-06-10T18:17:24+06:00,
1000000000401253,77000981800,mKcell,mAltel,mAltel,,D02,2017-06-10T18:22:02+06:00,
