NPId,Number,RecipientId,DonorId,RangeHolderId,OldRoute,NewRoute,PortDate,RowCount
1000000000159234,77779660665,mMTS,mKarTel,mKarTel,,D77,2016-04-24T15:04:46+06:00,20
1000000000159235,77071071118,mKcell,mMTS,mMTS,,D02,2016-04-24T15:02:25+06:00,
1000000000159236,77770589393,mAltel,mKarTel,mKarTel,,D07,2016-04-24T15:05:42+06:00,
1000000000159238,77017766306,mKarTel,mKcell,mKcell,,D01,2016-04-24T15:06:43+06:00,
1000000000159242,77763622626,mMTS,mKarTel,mKarTel,,D77,2016-04-24T15:10:13+06:00,
1000000000159244,77768321993,mMTS,mKarTel,mKarTel,,D77,2016-04-24T15:11:35+06:00,
1000000000159245,77052611196,mMTS,mAltel,mKarTel,D07,D77,2016-04-24T15:12:02+06:00,
1000000000159246,77779288321,mKarTel,mAltel,mKarTel,D07,D01,2016-04-24T15:13:07+06:00,
1000000000159247,77014244417,mKarTel,mKcell,mKcell,,D01,2016-04-24T15:14:32+06:00,
1000000000159248,77029593313,mMTS,mKcell,mKcell,,D77,2016-04-24T15:14:30+06:00,
1000000000159249,77017867628,mMTS,mAltel,mKcell,D07,D77,2016-04-24T15:14:12+06:00,
1000000000159251,77082000400,mMTS,mAltel,mAltel,,D77,2016-04-24T15:16:57+06:00,
1000000000159252,77001533430,mMTS,mAltel,mAltel,,D77,2016-04-24T15:17:02+06:00,
1000000000159253,77003626843,mMTS,mAltel,mAltel,,D77,2016-04-24T15:19:11+06:00,
1000000000159256,77786010173,mKarTel,mKcell,mKcell,,D01,2016-04-24T15:21:20+06:00,
1000000000159257,77087744690,mMTS,mAltel,mAltel,,D77,2016-04-24T15:21:24+06:00,
1000000000159258,77077558591,mKarTel,mMTS,mMTS,,D01,2016-04-24T15:21:54+06:00,
1000000000159259,77013230608,mMTS,mKcell,mKcell,,D77,2016-04-24T15:25:43+06:00,
1000000000159260,77056530877,mMTS,mKarTel,mKarTel,,D77,2016-04-24T15:28:33+06:00,
1000000000159261,77083244798,mMTS,mAltel,mAltel,,D77,2016-04-24T15:29:39+06:00,
