NPId,Number,RecipientId,DonorId,RangeHolderId,OldRoute,NewRoute,PortDate,RowCount
1000000000291818,77015136882,mMTS,mKcell,mKcell,,D77,2016-12-07T20:07:41+06:00,2
1000000000291820,77786699555,mMTS,mKcell,mKcell,,D77,2016-12-07T20:09:20+06:00,
