NPId,Number,RecipientId,DonorId,RangeHolderId,OldRoute,NewRoute,PortDate,RowCount
1000000000367615,77071038223,mKarTel,mMTS,mMTS,,D01,2017-04-18T12:01:25+06:00,15
1000000000367616,77017779802,mKarTel,mKcell,mKcell,,D01,2017-04-18T12:02:05+06:00,
1000000000367618,77029866717,mKcell,mAltel,mKcell,D07,D02,2017-04-18T12:03:07+06:00,
1000000000367619,77750719291,mMTS,mKcell,mKcell,,D77,2017-04-18T12:04:27+06:00,
1000000000367620,77774153007,mMTS,mKarTel,mKarTel,,D77,2017-04-18T12:05:45+06:00,
1000000000367621,77029144090,mKcell,mMTS,mKcell,D77,D02,2017-04-18T12:06:42+06:00,
1000000000367622,77768500770,mMTS,mKarTel,mKarTel,,D77,2017-04-18T12:08:59+06:00,
1000000000367623,77054339883,mKcell,mKarTel,mKarTel,,D02,2017-04-18T12:10:14+06:00,
1000000000367624,77789989305,mKarTel,mKcell,mKcell,,D01,2017-04-18T12:14:03+06:00,
1000000000367629,77477778737,mKarTel,mMTS,mMTS,,D01,2017-04-18T12:18:55+06:00,
1000000000367630,77071305858,mMTS,mKcell,mMTS,D02,D77,2017-04-18T12:21:16+06:00,
1000000000367631,77013098884,mKarTel,mKcell,mKcell,,D01,2017-04-18T12:22:52+06:00,
1000000000367633,77056000743,mMTS,mKarTel,mKarTel,,D77,2017-04-18T12:26:06+06:00,
1000000000367634,77023080817,mKcell,mAltel,mKcell,D07,D02,2017-04-18T12:26:39+06:00,
1000000000367635,77018808831,mKarTel,mKcell,mKcell,,D01,2017-04-18T12:27:10+06:00,
