NPId,Number,RecipientId,DonorId,RangeHolderId,OldRoute,NewRoute,PortDate,RowCount
1000000000231207,77778111172,mAltel,mKarTel,mKarTel,,D07,2016-08-19T12:02:21+06:00,14
1000000000231208,77051483709,mMTS,mKarTel,mKarTel,,D77,2016-08-19T12:02:55+06:00,
1000000000231209,77756530343,mKarTel,mKcell,mKcell,,D01,2016-08-19T12:03:35+06:00,
1000000000231210,77773502410,mMTS,mKarTel,mKarTel,,D77,2016-08-19T12:06:15+06:00,
1000000000231211,77075133315,mKarTel,mMTS,mMTS,,D01,2016-08-19T12:07:22+06:00,
1000000000231212,77768110003,mKcell,mKarTel,mKarTel,,D02,2016-08-19T12:10:18+06:00,
1000000000231214,77015709983,mKcell,mMTS,mKcell,D77,D02,2016-08-19T12:09:02+06:00,
1000000000231216,77752926385,mKcell,mAltel,mKcell,D07,D02,2016-08-19T12:12:01+06:00,
1000000000231218,77786077047,mKarTel,mKcell,mKcell,,D01,2016-08-19T12:22:23+06:00,
1000000000231219,77017197569,mKcell,mMTS,mKcell,D77,D02,2016-08-19T12:23:33+06:00,
1000000000231220,77786076694,mKarTel,mKcell,mKcell,,D01,2016-08-19T12:25:34+06:00,
1000000000231221,77072681177,mKarTel,mMTS,mMTS,,D01,2016-08-19T12:26:41+06:00,
1000000000231223,77473579131,mKarTel,mKcell,mMTS,D02,D01,2016-08-19T12:28:31+06:00,
1000000000231224,77075701773,mKarTel,mMTS,mMTS,,D01,2016-08-19T12:29:35+06:00,
