NPId,Number,RecipientId,DonorId,RangeHolderId,OldRoute,NewRoute,PortDate,RowCount
1000000000428992,77773636889,mMTS,mKarTel,mKarTel,,D77,2017-07-26T23:01:27+06:00,3
1000000000428993,77773636885,mMTS,mKarTel,mKarTel,,D77,2017-07-26T23:12:33+06:00,
1000000000428994,77773636739,mMTS,mKarTel,mKarTel,,D77,2017-07-26T23:17:29+06:00,
