NPId,Number,RecipientId,DonorId,RangeHolderId,OldRoute,NewRoute,PortDate,RowCount
1000000000169228,77013600606,mKarTel,mKcell,mKcell,,D01,2016-05-10T11:58:45+06:00,28
1000000000170742,77017209863,mKcell,mMTS,mKcell,D77,D02,2016-05-10T11:31:50+06:00,
1000000000170744,77081020696,mMTS,mAltel,mAltel,,D77,2016-05-10T11:32:10+06:00,
1000000000170745,77012484888,mKarTel,mKcell,mKcell,,D01,2016-05-10T11:33:21+06:00,
1000000000170746,77757788084,mMTS,mAltel,mKcell,D07,D77,2016-05-10T11:34:05+06:00,
1000000000170747,77757763196,mMTS,mKcell,mKcell,,D77,2016-05-10T11:35:37+06:00,
1000000000170748,77771201105,mKcell,mKarTel,mKarTel,,D02,2016-05-10T11:36:42+06:00,
1000000000170749,77011470895,mAltel,mKcell,mKcell,,D07,2016-05-10T11:36:42+06:00,
1000000000170750,77013929798,mKcell,mMTS,mKcell,D77,D02,2016-05-10T11:37:09+06:00,
1000000000170751,77475324253,mKcell,mMTS,mMTS,,D02,2016-05-10T11:37:10+06:00,
1000000000170752,77078992101,mMTS,mAltel,mMTS,D07,D77,2016-05-10T11:41:38+06:00,
1000000000170753,77087536767,mMTS,mAltel,mAltel,,D77,2016-05-10T11:44:28+06:00,
1000000000170754,77768703535,mKcell,mKarTel,mKarTel,,D02,2016-05-10T11:45:47+06:00,
1000000000170755,77075199197,mKcell,mMTS,mMTS,,D02,2016-05-10T11:46:22+06:00,
1000000000170756,77021094897,mMTS,mKcell,mKcell,,D77,2016-05-10T11:47:27+06:00,
1000000000170757,77757800888,mMTS,mKcell,mKcell,,D77,2016-05-10T11:47:50+06:00,
1000000000170759,77015566251,mKcell,mAltel,mKcell,D07,D02,2016-05-10T11:49:56+06:00,
1000000000170760,77085508124,mMTS,mAltel,mAltel,,D77,2016-05-10T11:50:56+06:00,
1000000000170762,77021040733,mMTS,mKcell,mKcell,,D77,2016-05-10T11:52:57+06:00,
1000000000170763,77028570570,mKarTel,mKcell,mKcell,,D01,2016-05-10T11:53:11+06:00,
1000000000170764,77782225311,mMTS,mKcell,mKcell,,D77,2016-05-10T11:54:30+06:00,
1000000000170765,77776286777,mMTS,mKarTel,mKarTel,,D77,2016-05-10T11:55:00+06:00,
1000000000170766,77715957048,mMTS,mKarTel,mKarTel,,D77,2016-05-10T11:56:11+06:00,
1000000000170767,77013652848,mKarTel,mKcell,mKcell,,D01,2016-05-10T11:57:26+06:00,
1000000000170769,77002222067,mMTS,mAltel,mAltel,,D77,2016-05-10T11:57:05+06:00,
1000000000170770,77754226969,mMTS,mKcell,mKcell,,D77,2016-05-10T11:57:35+06:00,
1000000000170771,77003288540,mMTS,mAltel,mAltel,,D77,2016-05-10T11:58:20+06:00,
1000000000170774,77072174747,mMTS,mAltel,mMTS,D07,D77,2016-05-10T11:59:39+06:00,
