NPId,Number,RecipientId,DonorId,RangeHolderId,OldRoute,NewRoute,PortDate,RowCount
1000000000175830,77079555587,mKcell,mMTS,mMTS,,D02,2016-05-17T14:30:36+06:00,33
1000000000175831,77755876710,mMTS,mKcell,mKcell,,D77,2016-05-17T14:32:59+06:00,
1000000000175833,77775217070,mAltel,mKarTel,mKarTel,,D07,2016-05-17T14:35:25+06:00,
1000000000175836,77016475960,mMTS,mKcell,mKcell,,D77,2016-05-17T14:36:18+06:00,
1000000000175838,77015571910,mMTS,mKcell,mKcell,,D77,2016-05-17T14:37:43+06:00,
1000000000175839,77711449963,mMTS,mKarTel,mKarTel,,D77,2016-05-17T14:38:01+06:00,
1000000000175840,77017326380,mAltel,mKcell,mKcell,,D07,2016-05-17T14:38:39+06:00,
1000000000175841,77012469291,mAltel,mKcell,mKcell,,D07,2016-05-17T14:38:54+06:00,
1000000000175842,77026477315,mAltel,mKcell,mKcell,,D07,2016-05-17T14:39:37+06:00,
1000000000175845,77081897879,mMTS,mAltel,mAltel,,D77,2016-05-17T14:41:49+06:00,
1000000000175846,77714524553,mMTS,mKarTel,mKarTel,,D77,2016-05-17T14:43:14+06:00,
1000000000175847,77770277760,mMTS,mKarTel,mKarTel,,D77,2016-05-17T14:46:28+06:00,
1000000000175849,77019533318,mMTS,mKcell,mKcell,,D77,2016-05-17T14:47:28+06:00,
1000000000175850,77014487161,mMTS,mKcell,mKcell,,D77,2016-05-17T14:47:39+06:00,
1000000000175851,77016174533,mMTS,mKcell,mKcell,,D77,2016-05-17T14:48:10+06:00,
1000000000175854,77003836560,mMTS,mAltel,mAltel,,D77,2016-05-17T14:49:18+06:00,
1000000000175855,77013555517,mKarTel,mKcell,mKcell,,D01,2016-05-17T14:54:41+06:00,
1000000000175856,77015593937,mKarTel,mKcell,mKcell,,D01,2016-05-17T14:54:41+06:00,
1000000000175857,77016066672,mAltel,mKcell,mKcell,,D07,2016-05-17T14:54:28+06:00,
1000000000175858,77052127013,mMTS,mKarTel,mKarTel,,D77,2016-05-17T14:50:47+06:00,
1000000000175859,77017429877,mMTS,mKcell,mKcell,,D77,2016-05-17T14:54:27+06:00,
1000000000175860,77017977743,mMTS,mKcell,mKcell,,D77,2016-05-17T14:54:55+06:00,
1000000000175862,77015221196,mKarTel,mKcell,mKcell,,D01,2016-05-17T14:55:12+06:00,
1000000000175864,77755990367,mKarTel,mKcell,mKcell,,D01,2016-05-17T14:55:12+06:00,
1000000000175866,77017994708,mKcell,mMTS,mKcell,D77,D02,2016-05-17T14:55:48+06:00,
1000000000175867,77078633797,mKarTel,mMTS,mMTS,,D01,2016-05-17T14:54:52+06:00,
1000000000175868,77779177788,mKarTel,mMTS,mKarTel,D77,D01,2016-05-17T14:55:00+06:00,
1000000000175869,77779935959,mKcell,mKarTel,mKarTel,,D02,2016-05-17T14:56:08+06:00,
1000000000175870,77027474603,mMTS,mKcell,mKcell,,D77,2016-05-17T14:56:14+06:00,
1000000000175871,77078227576,mKcell,mMTS,mMTS,,D02,2016-05-17T14:57:07+06:00,
1000000000175872,77057507333,mKcell,mKarTel,mKarTel,,D02,2016-05-17T14:57:08+06:00,
1000000000175873,77083230660,mKcell,mAltel,mAltel,,D02,2016-05-17T14:57:10+06:00,
1000000000175876,77081108526,mMTS,mAltel,mAltel,,D77,2016-05-17T14:59:13+06:00,
