NPId,Number,RecipientId,DonorId,RangeHolderId,OldRoute,NewRoute,PortDate,RowCount
1000000000185460,77023305105,mKarTel,mKcell,mKcell,,D01,2016-06-01T13:30:05+06:00,32
1000000000185461,77774101438,mMTS,mKarTel,mKarTel,,D77,2016-06-01T13:30:27+06:00,
1000000000185462,77054961111,mMTS,mKarTel,mKarTel,,D77,2016-06-01T13:31:05+06:00,
1000000000185463,77005399599,mMTS,mAltel,mAltel,,D77,2016-06-01T13:31:19+06:00,
1000000000185464,77026972728,mKcell,mAltel,mKcell,D07,D02,2016-06-01T13:35:54+06:00,
1000000000185466,77012458929,mKarTel,mKcell,mKcell,,D01,2016-06-01T13:38:20+06:00,
1000000000185467,77056889777,mMTS,mKarTel,mKarTel,,D77,2016-06-01T13:38:30+06:00,
1000000000185468,77017155193,mKarTel,mKcell,mKcell,,D01,2016-06-01T13:39:28+06:00,
1000000000185469,77076667772,mKarTel,mMTS,mMTS,,D01,2016-06-01T13:39:15+06:00,
1000000000185470,77017546755,mMTS,mAltel,mKcell,D07,D77,2016-06-01T13:39:55+06:00,
1000000000185471,77007798760,mMTS,mAltel,mAltel,,D77,2016-06-01T13:40:10+06:00,
1000000000185472,77078540362,mKarTel,mMTS,mMTS,,D01,2016-06-01T13:41:00+06:00,
1000000000185474,77017155194,mKarTel,mKcell,mKcell,,D01,2016-06-01T13:41:47+06:00,
1000000000185475,77770493420,mMTS,mKarTel,mKarTel,,D77,2016-06-01T13:41:49+06:00,
1000000000185476,77085308014,mMTS,mAltel,mAltel,,D77,2016-06-01T13:42:08+06:00,
1000000000185477,77077776555,mMTS,mKarTel,mMTS,D01,D77,2016-06-01T13:42:36+06:00,
1000000000185479,77758998240,mMTS,mKcell,mKcell,,D77,2016-06-01T13:45:51+06:00,
1000000000185480,77787777525,mKarTel,mKcell,mKcell,,D01,2016-06-01T13:48:23+06:00,
1000000000185481,77017770227,mKarTel,mKcell,mKcell,,D01,2016-06-01T13:48:21+06:00,
1000000000185482,77073004020,mKcell,mMTS,mMTS,,D02,2016-06-01T13:48:41+06:00,
1000000000185483,77779969644,mMTS,mKarTel,mKarTel,,D77,2016-06-01T13:49:12+06:00,
1000000000185484,77088408084,mKarTel,mAltel,mAltel,,D01,2016-06-01T13:49:43+06:00,
1000000000185485,77007202101,mKarTel,mAltel,mAltel,,D01,2016-06-01T13:50:35+06:00,
1000000000185486,77013244908,mKarTel,mKcell,mKcell,,D01,2016-06-01T13:52:10+06:00,
1000000000185490,77754575166,mKarTel,mKcell,mKcell,,D01,2016-06-01T13:53:15+06:00,
1000000000185491,77055577353,mMTS,mKarTel,mKarTel,,D77,2016-06-01T13:53:12+06:00,
1000000000185492,77757642872,mMTS,mKcell,mKcell,,D77,2016-06-01T13:54:14+06:00,
1000000000185494,77085227912,mMTS,mAltel,mAltel,,D77,2016-06-01T13:54:49+06:00,
1000000000185495,77053870472,mKarTel,mMTS,mKarTel,D77,D01,2016-06-01T13:55:34+06:00,
1000000000185496,77024310202,mKarTel,mKcell,mKcell,,D01,2016-06-01T13:56:06+06:00,
1000000000185497,77787094881,mMTS,mKcell,mKcell,,D77,2016-06-01T13:57:10+06:00,
1000000000185499,77077431674,mKcell,mMTS,mMTS,,D02,2016-06-01T13:57:39+06:00,
