NPId,Number,RecipientId,DonorId,RangeHolderId,OldRoute,NewRoute,PortDate,RowCount
1000000000252814,77012266587,mKcell,mKarTel,mKcell,D01,D02,2016-09-29T18:18:04+06:00,27
1000000000252820,77012266588,mKcell,mKarTel,mKcell,D01,D02,2016-09-29T18:20:04+06:00,
1000000000253570,77778560628,mMTS,mKarTel,mKarTel,,D77,2016-09-29T18:00:47+06:00,
1000000000253571,77052244030,mKcell,mKarTel,mKarTel,,D02,2016-09-29T18:01:59+06:00,
1000000000253574,77012080928,mKcell,mKarTel,mKcell,D01,D02,2016-09-29T18:03:51+06:00,
1000000000253576,77001852012,mKcell,mAltel,mAltel,,D02,2016-09-29T18:02:08+06:00,
1000000000253577,77776441947,mMTS,mKarTel,mKarTel,,D77,2016-09-29T18:04:34+06:00,
1000000000253578,77715340253,mMTS,mKarTel,mKarTel,,D77,2016-09-29T18:04:34+06:00,
1000000000253579,77761299999,mAltel,mKarTel,mKarTel,,D07,2016-09-29T18:05:29+06:00,
1000000000253580,77072300790,mMTS,mKarTel,mMTS,D01,D77,2016-09-29T18:06:27+06:00,
1000000000253581,77018135115,mAltel,mKcell,mKcell,,D07,2016-09-29T18:05:07+06:00,
1000000000253582,77015270539,mMTS,mKcell,mKcell,,D77,2016-09-29T18:05:06+06:00,
1000000000253585,77776057538,mKarTel,mMTS,mKarTel,D77,D01,2016-09-29T18:10:05+06:00,
1000000000253586,77007790940,mMTS,mKarTel,mAltel,D01,D77,2016-09-29T18:12:53+06:00,
1000000000253588,77470827614,mKcell,mMTS,mMTS,,D02,2016-09-29T18:11:25+06:00,
1000000000253589,77023543630,mMTS,mKcell,mKcell,,D77,2016-09-29T18:12:33+06:00,
1000000000253590,77756193108,mKarTel,mKcell,mKcell,,D01,2016-09-29T18:14:40+06:00,
1000000000253592,77002021980,mKcell,mAltel,mAltel,,D02,2016-09-29T18:15:45+06:00,
1000000000253593,77015352487,mMTS,mKcell,mKcell,,D77,2016-09-29T18:17:11+06:00,
1000000000253594,77766594578,mMTS,mKarTel,mKarTel,,D77,2016-09-29T18:20:11+06:00,
1000000000253595,77052287777,mKcell,mKarTel,mKarTel,,D02,2016-09-29T18:25:52+06:00,
1000000000253596,77015354919,mKcell,mKarTel,mKcell,D01,D02,2016-09-29T18:26:55+06:00,
1000000000253599,77766611666,mKcell,mMTS,mKarTel,D77,D02,2016-09-29T18:25:00+06:00,
1000000000253600,77751960005,mMTS,mKcell,mKcell,,D77,2016-09-29T18:27:28+06:00,
1000000000253601,77766594579,mMTS,mKarTel,mKarTel,,D77,2016-09-29T18:29:42+06:00,
1000000000253602,77762292022,mMTS,mKarTel,mKarTel,,D77,2016-09-29T18:29:46+06:00,
1000000000253603,77475009915,mKarTel,mMTS,mMTS,,D01,2016-09-29T18:29:41+06:00,
