NPId,Number,RecipientId,DonorId,RangeHolderId,OldRoute,NewRoute,PortDate,RowCount
1000000000409457,77058163482,mMTS,mKarTel,mKarTel,,D77,2017-06-25T21:52:09+06:00,2
1000000000409458,77777154676,mKcell,mKarTel,mKarTel,,D02,2017-06-25T21:57:08+06:00,
