NPId,Number,RecipientId,DonorId,RangeHolderId,OldRoute,NewRoute,PortDate,RowCount
1000000000192035,77017111750,mKcell,mKarTel,mKcell,D01,D02,2016-06-11T18:05:08+06:00,13
1000000000192040,77086632256,mMTS,mAltel,mAltel,,D77,2016-06-11T18:00:54+06:00,
1000000000192041,77775091340,mMTS,mKarTel,mKarTel,,D77,2016-06-11T18:01:28+06:00,
1000000000192042,77003420570,mMTS,mAltel,mAltel,,D77,2016-06-11T18:01:10+06:00,
1000000000192044,77059877373,mKarTel,mMTS,mKarTel,D77,D01,2016-06-11T18:02:29+06:00,
1000000000192046,77760040101,mKcell,mKarTel,mKarTel,,D02,2016-06-11T18:07:55+06:00,
1000000000192047,77007890320,mKcell,mAltel,mAltel,,D02,2016-06-11T18:08:40+06:00,
1000000000192048,77023306433,mMTS,mKcell,mKcell,,D77,2016-06-11T18:08:16+06:00,
1000000000192051,77021487138,mAltel,mKcell,mKcell,,D07,2016-06-11T18:12:44+06:00,
1000000000192052,77017299904,mKcell,mAltel,mKcell,D07,D02,2016-06-11T18:14:15+06:00,
1000000000192054,77077546670,mAltel,mMTS,mMTS,,D07,2016-06-11T18:15:56+06:00,
1000000000192055,77014763020,mKarTel,mKcell,mKcell,,D01,2016-06-11T18:23:16+06:00,
1000000000192056,77018015252,mMTS,mKcell,mKcell,,D77,2016-06-11T18:29:48+06:00,
