NPId,Number,RecipientId,DonorId,RangeHolderId,OldRoute,NewRoute,PortDate,RowCount
1000000000378275,77027809040,mKarTel,mKcell,mKcell,,D01,2017-05-04T19:33:05+06:00,8
1000000000378277,77024948018,mMTS,mKcell,mKcell,,D77,2017-05-04T19:33:21+06:00,
1000000000378278,77715459988,mMTS,mKarTel,mKarTel,,D77,2017-05-04T19:36:58+06:00,
1000000000378280,77022221162,mMTS,mKcell,mKcell,,D77,2017-05-04T19:40:07+06:00,
1000000000378282,77020002903,mMTS,mKcell,mKcell,,D77,2017-05-04T19:46:05+06:00,
1000000000378285,77759666755,mMTS,mKcell,mKcell,,D77,2017-05-04T19:49:39+06:00,
1000000000378286,77017141819,mMTS,mKcell,mKcell,,D77,2017-05-04T19:50:25+06:00,
1000000000378287,77755534366,mKarTel,mKcell,mKcell,,D01,2017-05-04T19:57:01+06:00,
