NPId,Number,RecipientId,DonorId,RangeHolderId,OldRoute,NewRoute,PortDate,RowCount
1000000000184541,77012170264,mKcell,mKarTel,mKcell,D01,D02,2016-05-31T18:43:46+06:00,43
1000000000184541,77012170268,mKcell,mKarTel,mKcell,D01,D02,2016-05-31T18:43:46+06:00,
1000000000184541,77012170270,mKcell,mKarTel,mKcell,D01,D02,2016-05-31T18:43:46+06:00,
1000000000184541,77012170274,mKcell,mKarTel,mKcell,D01,D02,2016-05-31T18:43:46+06:00,
1000000000184541,77012170276,mKcell,mKarTel,mKcell,D01,D02,2016-05-31T18:43:46+06:00,
1000000000184541,77012170395,mKcell,mKarTel,mKcell,D01,D02,2016-05-31T18:43:46+06:00,
1000000000184541,77012170396,mKcell,mKarTel,mKcell,D01,D02,2016-05-31T18:43:46+06:00,
1000000000184541,77012170398,mKcell,mKarTel,mKcell,D01,D02,2016-05-31T18:43:46+06:00,
1000000000184541,77012170409,mKcell,mKarTel,mKcell,D01,D02,2016-05-31T18:43:46+06:00,
1000000000184541,77012170415,mKcell,mKarTel,mKcell,D01,D02,2016-05-31T18:43:46+06:00,
1000000000184541,77015340886,mKcell,mKarTel,mKcell,D01,D02,2016-05-31T18:43:46+06:00,
1000000000184541,77017120918,mKcell,mKarTel,mKcell,D01,D02,2016-05-31T18:43:46+06:00,
1000000000184541,77017120934,mKcell,mKarTel,mKcell,D01,D02,2016-05-31T18:43:46+06:00,
1000000000184541,77017157894,mKcell,mKarTel,mKcell,D01,D02,2016-05-31T18:43:46+06:00,
1000000000184541,77017216178,mKcell,mKarTel,mKcell,D01,D02,2016-05-31T18:43:46+06:00,
1000000000184541,77017216179,mKcell,mKarTel,mKcell,D01,D02,2016-05-31T18:43:46+06:00,
1000000000184541,77017216181,mKcell,mKarTel,mKcell,D01,D02,2016-05-31T18:43:46+06:00,
1000000000184541,77017496080,mKcell,mKarTel,mKcell,D01,D02,2016-05-31T18:43:46+06:00,
1000000000184541,77017496213,mKcell,mKarTel,mKcell,D01,D02,2016-05-31T18:43:46+06:00,
1000000000184541,77017496217,mKcell,mKarTel,mKcell,D01,D02,2016-05-31T18:43:46+06:00,
1000000000184541,77017496251,mKcell,mKarTel,mKcell,D01,D02,2016-05-31T18:43:46+06:00,
1000000000185021,77024993575,mMTS,mKcell,mKcell,,D77,2016-05-31T18:30:32+06:00,
1000000000185023,77718357070,mKcell,mKarTel,mKarTel,,D02,2016-05-31T18:31:32+06:00,
1000000000185025,77078902594,mAltel,mMTS,mMTS,,D07,2016-05-31T18:31:51+06:00,
1000000000185026,77009671195,mKcell,mAltel,mAltel,,D02,2016-05-31T18:34:47+06:00,
1000000000185027,77772038504,mMTS,mAltel,mKarTel,D07,D77,2016-05-31T18:37:59+06:00,
1000000000185031,77085176044,mMTS,mAltel,mAltel,,D77,2016-05-31T18:42:08+06:00,
1000000000185033,77714742269,mMTS,mKarTel,mKarTel,,D77,2016-05-31T18:42:35+06:00,
1000000000185034,77470310310,mKcell,mMTS,mMTS,,D02,2016-05-31T18:45:14+06:00,
1000000000185035,77014135025,mMTS,mKcell,mKcell,,D77,2016-05-31T18:46:01+06:00,
1000000000185036,77773005150,mKarTel,mMTS,mKarTel,D77,D01,2016-05-31T18:47:17+06:00,
1000000000185037,77003918224,mMTS,mAltel,mAltel,,D77,2016-05-31T18:47:08+06:00,
1000000000185039,77052643998,mMTS,mKarTel,mKarTel,,D77,2016-05-31T18:49:47+06:00,
1000000000185040,77754709528,mMTS,mKcell,mKcell,,D77,2016-05-31T18:50:36+06:00,
1000000000185041,77085291435,mKarTel,mAltel,mAltel,,D01,2016-05-31T18:51:36+06:00,
1000000000185044,77017715844,mMTS,mKcell,mKcell,,D77,2016-05-31T18:53:13+06:00,
1000000000185046,77786415069,mKcell,mAltel,mKcell,D07,D02,2016-05-31T18:55:09+06:00,
1000000000185048,77019253778,mKarTel,mKcell,mKcell,,D01,2016-05-31T18:55:24+06:00,
1000000000185049,77026510041,mMTS,mKarTel,mKcell,D01,D77,2016-05-31T18:55:26+06:00,
1000000000185050,77010771207,mKarTel,mKcell,mKcell,,D01,2016-05-31T18:55:51+06:00,
1000000000185051,77059632223,mKarTel,mMTS,mKarTel,D77,D01,2016-05-31T18:56:30+06:00,
1000000000185053,77776888898,mKarTel,mKcell,mKarTel,D02,D01,2016-05-31T18:57:41+06:00,
1000000000185054,77789089560,mKcell,mMTS,mKcell,D77,D02,2016-05-31T18:59:55+06:00,
