NPId,Number,RecipientId,DonorId,RangeHolderId,OldRoute,NewRoute,PortDate,RowCount
1000000000124917,77010140450,mKarTel,mKcell,mKcell,,D01,2016-03-14T19:40:46+06:00,61
1000000000124917,77010140457,mKarTel,mKcell,mKcell,,D01,2016-03-14T19:40:46+06:00,
1000000000124917,77010140460,mKarTel,mKcell,mKcell,,D01,2016-03-14T19:40:46+06:00,
1000000000124917,77010140487,mKarTel,mKcell,mKcell,,D01,2016-03-14T19:40:46+06:00,
1000000000124917,77010142259,mKarTel,mKcell,mKcell,,D01,2016-03-14T19:40:46+06:00,
1000000000124917,77010142427,mKarTel,mKcell,mKcell,,D01,2016-03-14T19:40:46+06:00,
1000000000124917,77010142534,mKarTel,mKcell,mKcell,,D01,2016-03-14T19:40:46+06:00,
1000000000124917,77010142680,mKarTel,mKcell,mKcell,,D01,2016-03-14T19:40:46+06:00,
1000000000124917,77010144938,mKarTel,mKcell,mKcell,,D01,2016-03-14T19:40:46+06:00,
1000000000124917,77010144981,mKarTel,mKcell,mKcell,,D01,2016-03-14T19:40:46+06:00,
1000000000124917,77010145239,mKarTel,mKcell,mKcell,,D01,2016-03-14T19:40:46+06:00,
1000000000124917,77010260844,mKarTel,mKcell,mKcell,,D01,2016-03-14T19:40:46+06:00,
1000000000124917,77010260845,mKarTel,mKcell,mKcell,,D01,2016-03-14T19:40:46+06:00,
1000000000124917,77010260846,mKarTel,mKcell,mKcell,,D01,2016-03-14T19:40:46+06:00,
1000000000124917,77010274549,mKarTel,mKcell,mKcell,,D01,2016-03-14T19:40:46+06:00,
1000000000124917,77010274550,mKarTel,mKcell,mKcell,,D01,2016-03-14T19:40:46+06:00,
1000000000124917,77010274551,mKarTel,mKcell,mKcell,,D01,2016-03-14T19:40:46+06:00,
1000000000124917,77010291613,mKarTel,mKcell,mKcell,,D01,2016-03-14T19:40:46+06:00,
1000000000124917,77010291614,mKarTel,mKcell,mKcell,,D01,2016-03-14T19:40:46+06:00,
1000000000124917,77010291615,mKarTel,mKcell,mKcell,,D01,2016-03-14T19:40:46+06:00,
1000000000124917,77012273682,mKarTel,mKcell,mKcell,,D01,2016-03-14T19:40:46+06:00,
1000000000124917,77012273968,mKarTel,mKcell,mKcell,,D01,2016-03-14T19:40:46+06:00,
1000000000124917,77012273970,mKarTel,mKcell,mKcell,,D01,2016-03-14T19:40:46+06:00,
1000000000124917,77012273978,mKarTel,mKcell,mKcell,,D01,2016-03-14T19:40:46+06:00,
1000000000124917,77012274026,mKarTel,mKcell,mKcell,,D01,2016-03-14T19:40:46+06:00,
1000000000124917,77012274076,mKarTel,mKcell,mKcell,,D01,2016-03-14T19:40:46+06:00,
1000000000124917,77012274081,mKarTel,mKcell,mKcell,,D01,2016-03-14T19:40:46+06:00,
1000000000124917,77012274084,mKarTel,mKcell,mKcell,,D01,2016-03-14T19:40:46+06:00,
1000000000124917,77012274130,mKarTel,mKcell,mKcell,,D01,2016-03-14T19:40:46+06:00,
1000000000124917,77015110516,mKarTel,mKcell,mKcell,,D01,2016-03-14T19:40:46+06:00,
1000000000124917,77015188110,mKarTel,mKcell,mKcell,,D01,2016-03-14T19:40:46+06:00,
1000000000124917,77015248269,mKarTel,mKcell,mKcell,,D01,2016-03-14T19:40:46+06:00,
1000000000124917,77015248275,mKarTel,mKcell,mKcell,,D01,2016-03-14T19:40:46+06:00,
1000000000124917,77015665859,mKarTel,mKcell,mKcell,,D01,2016-03-14T19:40:46+06:00,
1000000000124917,77015994010,mKarTel,mKcell,mKcell,,D01,2016-03-14T19:40:46+06:00,
1000000000124917,77017866801,mKarTel,mKcell,mKcell,,D01,2016-03-14T19:40:46+06:00,
1000000000124917,77017866802,mKarTel,mKcell,mKcell,,D01,2016-03-14T19:40:46+06:00,
1000000000124917,77017866803,mKarTel,mKcell,mKcell,,D01,2016-03-14T19:40:46+06:00,
1000000000124917,77017866804,mKarTel,mKcell,mKcell,,D01,2016-03-14T19:40:46+06:00,
1000000000124917,77017866805,mKarTel,mKcell,mKcell,,D01,2016-03-14T19:40:46+06:00,
1000000000124917,77017866806,mKarTel,mKcell,mKcell,,D01,2016-03-14T19:40:46+06:00,
1000000000124917,77017866807,mKarTel,mKcell,mKcell,,D01,2016-03-14T19:40:46+06:00,
1000000000124917,77017866808,mKarTel,mKcell,mKcell,,D01,2016-03-14T19:40:46+06:00,
1000000000124917,77019827169,mKarTel,mKcell,mKcell,,D01,2016-03-14T19:40:46+06:00,
1000000000124917,77019827170,mKarTel,mKcell,mKcell,,D01,2016-03-14T19:40:46+06:00,
1000000000124917,77019827172,mKarTel,mKcell,mKcell,,D01,2016-03-14T19:40:46+06:00,
1000000000124917,77019827173,mKarTel,mKcell,mKcell,,D01,2016-03-14T19:40:46+06:00,
1000000000124917,77019827174,mKarTel,mKcell,mKcell,,D01,2016-03-14T19:40:46+06:00,
1000000000124917,77019827175,mKarTel,mKcell,mKcell,,D01,2016-03-14T19:40:46+06:00,
1000000000124917,77019827176,mKarTel,mKcell,mKcell,,D01,2016-03-14T19:40:46+06:00,
1000000000125153,77028453988,mMTS,mKcell,mKcell,,D77,2016-03-14T19:32:06+06:00,
1000000000125154,77004933000,mKcell,mAltel,mAltel,,D02,2016-03-14T19:33:44+06:00,
1000000000125155,77007770891,mKarTel,mAltel,mAltel,,D01,2016-03-14T19:33:34+06:00,
1000000000125156,77013991653,mAltel,mKcell,mKcell,,D07,2016-03-14T19:34:03+06:00,
1000000000125157,77073682127,mAltel,mMTS,mMTS,,D07,2016-03-14T19:34:09+06:00,
1000000000125158,77059840786,mAltel,mKarTel,mKarTel,,D07,2016-03-14T19:36:46+06:00,
1000000000125159,77471705161,mMTS,mAltel,mMTS,D07,D77,2016-03-14T19:42:28+06:00,
1000000000125160,77014710560,mAltel,mKcell,mKcell,,D07,2016-03-14T19:43:47+06:00,
1000000000125161,77017577554,mAltel,mKcell,mKcell,,D07,2016-03-14T19:45:35+06:00,
1000000000125162,77475184728,mKcell,mMTS,mMTS,,D02,2016-03-14T19:50:45+06:00,
1000000000125163,77019508336,mAltel,mKcell,mKcell,,D07,2016-03-14T19:56:20+06:00,
