NPId,Number,RecipientId,DonorId,RangeHolderId,OldRoute,NewRoute,PortDate,RowCount
1000000000304467,77019632425,mKcell,mAltel,mKcell,D07,D02,2017-01-03T12:01:12+06:00,10
1000000000304468,77025262700,mKcell,mAltel,mKcell,D07,D02,2017-01-03T12:03:07+06:00,
1000000000304469,77029369060,mMTS,mKcell,mKcell,,D77,2017-01-03T12:04:58+06:00,
1000000000304470,77015390702,mKarTel,mKcell,mKcell,,D01,2017-01-03T12:05:14+06:00,
1000000000304471,77012225714,mKarTel,mKcell,mKcell,,D01,2017-01-03T12:06:22+06:00,
1000000000304472,77007587465,mKcell,mAltel,mAltel,,D02,2017-01-03T12:06:26+06:00,
1000000000304473,77751045658,mMTS,mKcell,mKcell,,D77,2017-01-03T12:07:57+06:00,
1000000000304475,77019177007,mKarTel,mKcell,mKcell,,D01,2017-01-03T12:13:24+06:00,
1000000000304476,77018800770,mKarTel,mKcell,mKcell,,D01,2017-01-03T12:21:27+06:00,
1000000000304478,77011107767,mKarTel,mKcell,mKcell,,D01,2017-01-03T12:29:30+06:00,
