NPId,Number,RecipientId,DonorId,RangeHolderId,OldRoute,NewRoute,PortDate,RowCount
1000000000301820,77087438684,mKcell,mMTS,mAltel,D77,D02,2016-12-27T19:00:25+06:00,18
1000000000301821,77077190149,mKcell,mMTS,mMTS,,D02,2016-12-27T19:01:42+06:00,
1000000000301822,77751979788,mKarTel,mKcell,mKcell,,D01,2016-12-27T19:02:05+06:00,
1000000000301823,77056781500,mMTS,mKarTel,mKarTel,,D77,2016-12-27T19:03:00+06:00,
1000000000301824,77782784564,mMTS,mKcell,mKcell,,D77,2016-12-27T19:02:44+06:00,
1000000000301825,77751500505,mKcell,mMTS,mKcell,D77,D02,2016-12-27T19:05:36+06:00,
1000000000301826,77015127528,mKcell,mKarTel,mKcell,D01,D02,2016-12-27T19:06:01+06:00,
1000000000301827,77072810505,mKcell,mMTS,mMTS,,D02,2016-12-27T19:07:05+06:00,
1000000000301828,77782784596,mMTS,mKcell,mKcell,,D77,2016-12-27T19:07:42+06:00,
1000000000301829,77072210904,mKcell,mMTS,mMTS,,D02,2016-12-27T19:09:22+06:00,
1000000000301830,77009872715,mMTS,mAltel,mAltel,,D77,2016-12-27T19:10:06+06:00,
1000000000301831,77471518733,mKcell,mMTS,mMTS,,D02,2016-12-27T19:10:59+06:00,
1000000000301832,77756731303,mMTS,mKcell,mKcell,,D77,2016-12-27T19:12:50+06:00,
1000000000301833,77055527500,mMTS,mKarTel,mKarTel,,D77,2016-12-27T19:17:54+06:00,
1000000000301834,77762570333,mKcell,mKarTel,mKarTel,,D02,2016-12-27T19:20:05+06:00,
1000000000301835,77002020249,mKcell,mAltel,mAltel,,D02,2016-12-27T19:26:36+06:00,
1000000000301836,77056879592,mMTS,mKarTel,mKarTel,,D77,2016-12-27T19:27:54+06:00,
1000000000301837,77779648484,mAltel,mKarTel,mKarTel,,D07,2016-12-27T19:29:48+06:00,
