NPId,Number,RecipientId,DonorId,RangeHolderId,OldRoute,NewRoute,PortDate,RowCount
1000000000000981,77076421282,mMTS,mKarTel,mMTS,D01,D77,2016-01-05T12:36:33+06:00,27
1000000000001037,77058130559,mAltel,mKarTel,mKarTel,,D07,2016-01-05T12:30:04+06:00,
1000000000001039,77017765185,mAltel,mKcell,mKcell,,D07,2016-01-05T12:32:51+06:00,
1000000000001040,77025267777,mKarTel,mKcell,mKcell,,D01,2016-01-05T12:32:58+06:00,
1000000000001041,77753536653,mAltel,mKcell,mKcell,,D07,2016-01-05T12:32:57+06:00,
1000000000001042,77027023141,mAltel,mKcell,mKcell,,D07,2016-01-05T12:33:05+06:00,
1000000000001043,77075105001,mAltel,mMTS,mMTS,,D07,2016-01-05T12:34:03+06:00,
1000000000001045,77472481980,mKcell,mMTS,mMTS,,D02,2016-01-05T12:35:54+06:00,
1000000000001049,77074310068,mAltel,mMTS,mMTS,,D07,2016-01-05T12:37:39+06:00,
1000000000001051,77472311333,mKarTel,mMTS,mMTS,,D01,2016-01-05T12:38:27+06:00,
1000000000001054,77777807708,mAltel,mKarTel,mKarTel,,D07,2016-01-05T12:39:15+06:00,
1000000000001055,77758305583,mAltel,mKcell,mKcell,,D07,2016-01-05T12:41:26+06:00,
1000000000001057,77019982540,mAltel,mKcell,mKcell,,D07,2016-01-05T12:43:23+06:00,
1000000000001060,77018006074,mAltel,mKcell,mKcell,,D07,2016-01-05T12:45:36+06:00,
1000000000001062,77021153515,mMTS,mKcell,mKcell,,D77,2016-01-05T12:46:26+06:00,
1000000000001063,77007350077,mKcell,mAltel,mAltel,,D02,2016-01-05T12:47:41+06:00,
1000000000001066,77771609808,mKcell,mKarTel,mKarTel,,D02,2016-01-05T12:50:08+06:00,
1000000000001067,77024334772,mAltel,mKcell,mKcell,,D07,2016-01-05T12:49:55+06:00,
1000000000001069,77016677519,mKarTel,mKcell,mKcell,,D01,2016-01-05T12:50:45+06:00,
1000000000001071,77010771985,mAltel,mKcell,mKcell,,D07,2016-01-05T12:52:50+06:00,
1000000000001073,77761442000,mAltel,mKarTel,mKarTel,,D07,2016-01-05T12:55:04+06:00,
1000000000001076,77471108711,mAltel,mMTS,mMTS,,D07,2016-01-05T12:55:54+06:00,
1000000000001077,77015550556,mAltel,mKcell,mKcell,,D07,2016-01-05T12:56:06+06:00,
1000000000001081,77015895454,mAltel,mKcell,mKcell,,D07,2016-01-05T12:57:04+06:00,
1000000000001084,77077940464,mKcell,mMTS,mMTS,,D02,2016-01-05T12:57:44+06:00,
1000000000001087,77770222999,mAltel,mKarTel,mKarTel,,D07,2016-01-05T12:58:41+06:00,
1000000000001090,77071119955,mAltel,mMTS,mMTS,,D07,2016-01-05T12:59:31+06:00,
