NPId,Number,RecipientId,DonorId,RangeHolderId,OldRoute,NewRoute,PortDate,RowCount
1000000000294502,77011118255,mKarTel,mKcell,mKcell,,D01,2016-12-13T13:33:18+06:00,28
1000000000294506,77052772248,mMTS,mKarTel,mKarTel,,D77,2016-12-13T13:35:51+06:00,
1000000000294508,77777391143,mMTS,mKarTel,mKarTel,,D77,2016-12-13T13:37:30+06:00,
1000000000294509,77079191912,mKcell,mMTS,mMTS,,D02,2016-12-13T13:37:57+06:00,
1000000000294510,77014407306,mKarTel,mKcell,mKcell,,D01,2016-12-13T13:38:38+06:00,
1000000000294511,77782586560,mAltel,mKcell,mKcell,,D07,2016-12-13T13:39:01+06:00,
1000000000294512,77085577747,mMTS,mAltel,mAltel,,D77,2016-12-13T13:39:19+06:00,
1000000000294513,77767891189,mKcell,mKarTel,mKarTel,,D02,2016-12-13T13:41:05+06:00,
1000000000294514,77013303707,mMTS,mAltel,mKcell,D07,D77,2016-12-13T13:41:15+06:00,
1000000000294515,77787452542,mMTS,mKcell,mKcell,,D77,2016-12-13T13:42:38+06:00,
1000000000294516,77011266394,mMTS,mKcell,mKcell,,D77,2016-12-13T13:44:08+06:00,
1000000000294517,77784666191,mMTS,mKcell,mKcell,,D77,2016-12-13T13:45:06+06:00,
1000000000294518,77072031487,mKarTel,mMTS,mMTS,,D01,2016-12-13T13:45:34+06:00,
1000000000294519,77053924335,mMTS,mKarTel,mKarTel,,D77,2016-12-13T13:47:48+06:00,
1000000000294520,77002247526,mKarTel,mAltel,mAltel,,D01,2016-12-13T13:47:57+06:00,
1000000000294520,77005139151,mKarTel,mAltel,mAltel,,D01,2016-12-13T13:47:57+06:00,
1000000000294520,77007447535,mKarTel,mAltel,mAltel,,D01,2016-12-13T13:47:57+06:00,
1000000000294520,77009047793,mKarTel,mAltel,mAltel,,D01,2016-12-13T13:47:57+06:00,
1000000000294520,77089089709,mKarTel,mAltel,mAltel,,D01,2016-12-13T13:47:57+06:00,
1000000000294520,77089089710,mKarTel,mAltel,mAltel,,D01,2016-12-13T13:47:57+06:00,
1000000000294520,77089089711,mKarTel,mAltel,mAltel,,D01,2016-12-13T13:47:57+06:00,
1000000000294521,77017315240,mKarTel,mMTS,mKcell,D77,D01,2016-12-13T13:49:41+06:00,
1000000000294522,77011101086,mKarTel,mKcell,mKcell,,D01,2016-12-13T13:50:31+06:00,
1000000000294523,77765566601,mMTS,mKarTel,mKarTel,,D77,2016-12-13T13:51:02+06:00,
1000000000294524,77053924339,mMTS,mKarTel,mKarTel,,D77,2016-12-13T13:51:31+06:00,
1000000000294526,77016619596,mKcell,mAltel,mKcell,D07,D02,2016-12-13T13:52:02+06:00,
1000000000294527,77017858777,mKarTel,mKcell,mKcell,,D01,2016-12-13T13:53:15+06:00,
1000000000294529,77714288996,mMTS,mKarTel,mKarTel,,D77,2016-12-13T13:54:50+06:00,
