NPId,Number,RecipientId,DonorId,RangeHolderId,OldRoute,NewRoute,PortDate,RowCount
1000000000159583,77085435360,mKcell,mAltel,mAltel,,D02,2016-04-25T11:30:03+06:00,35
1000000000159584,77023680039,mKarTel,mKcell,mKcell,,D01,2016-04-25T11:30:00+06:00,
1000000000159586,77773476298,mMTS,mKarTel,mKarTel,,D77,2016-04-25T11:30:36+06:00,
1000000000159587,77026157887,mMTS,mKcell,mKcell,,D77,2016-04-25T11:32:29+06:00,
1000000000159588,77017176497,mMTS,mKcell,mKcell,,D77,2016-04-25T11:32:25+06:00,
1000000000159590,77053277763,mKarTel,mKcell,mKarTel,D02,D01,2016-04-25T11:35:40+06:00,
1000000000159592,77023679629,mKarTel,mKcell,mKcell,,D01,2016-04-25T11:37:03+06:00,
1000000000159593,77082030129,mKcell,mAltel,mAltel,,D02,2016-04-25T11:38:14+06:00,
1000000000159594,77081711326,mKcell,mAltel,mAltel,,D02,2016-04-25T11:40:48+06:00,
1000000000159598,77077779225,mKcell,mMTS,mMTS,,D02,2016-04-25T11:43:27+06:00,
1000000000159600,77011093231,mKarTel,mKcell,mKcell,,D01,2016-04-25T11:43:54+06:00,
1000000000159601,77761591010,mMTS,mKarTel,mKarTel,,D77,2016-04-25T11:43:58+06:00,
1000000000159602,77088646464,mMTS,mAltel,mAltel,,D77,2016-04-25T11:43:46+06:00,
1000000000159603,77001007755,mKcell,mAltel,mAltel,,D02,2016-04-25T11:44:34+06:00,
1000000000159604,77789982828,mMTS,mKcell,mKcell,,D77,2016-04-25T11:44:22+06:00,
1000000000159605,77771912336,mAltel,mKarTel,mKarTel,,D07,2016-04-25T11:44:43+06:00,
1000000000159608,77053553355,mMTS,mKarTel,mKarTel,,D77,2016-04-25T11:46:35+06:00,
1000000000159609,77754743747,mMTS,mKcell,mKcell,,D77,2016-04-25T11:46:50+06:00,
1000000000159610,77023679609,mKarTel,mKcell,mKcell,,D01,2016-04-25T11:47:36+06:00,
1000000000159611,77788831882,mMTS,mKcell,mKcell,,D77,2016-04-25T11:48:08+06:00,
1000000000159612,77011118314,mKcell,mMTS,mKcell,D77,D02,2016-04-25T11:48:38+06:00,
1000000000159613,77753642784,mMTS,mKcell,mKcell,,D77,2016-04-25T11:48:43+06:00,
1000000000159614,77015589909,mKcell,mMTS,mKcell,D77,D02,2016-04-25T11:48:57+06:00,
1000000000159618,77781884845,mKcell,mAltel,mKcell,D07,D02,2016-04-25T11:51:35+06:00,
1000000000159619,77087384858,mMTS,mAltel,mAltel,,D77,2016-04-25T11:51:08+06:00,
1000000000159620,77026268083,mMTS,mKcell,mKcell,,D77,2016-04-25T11:51:58+06:00,
1000000000159621,77051686858,mMTS,mKarTel,mKarTel,,D77,2016-04-25T11:52:44+06:00,
1000000000159623,77778543509,mMTS,mKarTel,mKarTel,,D77,2016-04-25T11:53:03+06:00,
1000000000159626,77475100813,mKarTel,mMTS,mMTS,,D01,2016-04-25T11:54:52+06:00,
1000000000159627,77023679202,mKarTel,mKcell,mKcell,,D01,2016-04-25T11:55:32+06:00,
1000000000159628,77789423611,mMTS,mKcell,mKcell,,D77,2016-04-25T11:55:34+06:00,
1000000000159629,77712655432,mKcell,mKarTel,mKarTel,,D02,2016-04-25T11:57:05+06:00,
1000000000159630,77057633938,mMTS,mKarTel,mKarTel,,D77,2016-04-25T11:56:49+06:00,
1000000000159633,77751870803,mMTS,mKcell,mKcell,,D77,2016-04-25T11:58:55+06:00,
1000000000159634,77752292227,mKcell,mMTS,mKcell,D77,D02,2016-04-25T11:59:37+06:00,
