NPId,Number,RecipientId,DonorId,RangeHolderId,OldRoute,NewRoute,PortDate,RowCount
1000000000330736,77071704777,mAltel,mMTS,mMTS,,D07,2017-02-18T10:08:29+06:00,7
1000000000330737,77017792337,mKarTel,mKcell,mKcell,,D01,2017-02-18T10:12:16+06:00,
1000000000330738,77779958000,mMTS,mKarTel,mKarTel,,D77,2017-02-18T10:13:13+06:00,
1000000000330739,77750279214,mKarTel,mKcell,mKcell,,D01,2017-02-18T10:15:28+06:00,
1000000000330740,77055807777,mKcell,mKarTel,mKarTel,,D02,2017-02-18T10:20:15+06:00,
1000000000330741,77073530505,mKcell,mMTS,mMTS,,D02,2017-02-18T10:23:24+06:00,
1000000000330742,77774111133,mAltel,mKarTel,mKarTel,,D07,2017-02-18T10:29:16+06:00,
