NPId,Number,RecipientId,DonorId,RangeHolderId,OldRoute,NewRoute,PortDate,RowCount
1000000000244223,77052111133,mKarTel,mMTS,mKarTel,D77,D01,2016-09-12T09:02:45+06:00,2
1000000000244224,77075420004,mKarTel,mMTS,mMTS,,D01,2016-09-12T09:02:44+06:00,
