NPId,Number,RecipientId,DonorId,RangeHolderId,OldRoute,NewRoute,PortDate,RowCount
1000000000123092,77051839388,mMTS,mKarTel,mKarTel,,D77,2016-03-12T12:00:51+06:00,33
1000000000123093,77758119800,mMTS,mKcell,mKcell,,D77,2016-03-12T12:01:04+06:00,
1000000000123094,77073404457,mKarTel,mMTS,mMTS,,D01,2016-03-12T12:01:32+06:00,
1000000000123095,77012411721,mMTS,mKcell,mKcell,,D77,2016-03-12T12:01:58+06:00,
1000000000123096,77013442499,mAltel,mKcell,mKcell,,D07,2016-03-12T12:02:19+06:00,
1000000000123097,77015776770,mAltel,mKcell,mKcell,,D07,2016-03-12T12:03:29+06:00,
1000000000123098,77079933936,mKarTel,mMTS,mMTS,,D01,2016-03-12T12:04:22+06:00,
1000000000123100,77024094422,mKarTel,mKcell,mKcell,,D01,2016-03-12T12:05:06+06:00,
1000000000123101,77772375130,mMTS,mKarTel,mKarTel,,D77,2016-03-12T12:05:50+06:00,
1000000000123102,77011647244,mMTS,mKcell,mKcell,,D77,2016-03-12T12:05:59+06:00,
1000000000123103,77079881015,mAltel,mMTS,mMTS,,D07,2016-03-12T12:06:20+06:00,
1000000000123105,77014515791,mMTS,mKcell,mKcell,,D77,2016-03-12T12:09:39+06:00,
1000000000123106,77017549958,mAltel,mKcell,mKcell,,D07,2016-03-12T12:10:52+06:00,
1000000000123108,77011264285,mMTS,mKcell,mKcell,,D77,2016-03-12T12:14:02+06:00,
1000000000123109,77015309952,mMTS,mKcell,mKcell,,D77,2016-03-12T12:14:03+06:00,
1000000000123111,77009609413,mKarTel,mAltel,mAltel,,D01,2016-03-12T12:15:23+06:00,
1000000000123112,77056333310,mMTS,mKarTel,mKarTel,,D77,2016-03-12T12:16:54+06:00,
1000000000123114,77019117777,mMTS,mKcell,mKcell,,D77,2016-03-12T12:16:45+06:00,
1000000000123116,77007776266,mMTS,mAltel,mAltel,,D77,2016-03-12T12:18:10+06:00,
1000000000123117,77013596945,mAltel,mKcell,mKcell,,D07,2016-03-12T12:19:13+06:00,
1000000000123119,77021020213,mMTS,mKcell,mKcell,,D77,2016-03-12T12:20:20+06:00,
1000000000123120,77772870006,mAltel,mKarTel,mKarTel,,D07,2016-03-12T12:20:38+06:00,
1000000000123122,77771572188,mKcell,mKarTel,mKarTel,,D02,2016-03-12T12:21:53+06:00,
1000000000123123,77753583300,mAltel,mKcell,mKcell,,D07,2016-03-12T12:21:34+06:00,
1000000000123124,77071157617,mKcell,mMTS,mMTS,,D02,2016-03-12T12:22:39+06:00,
1000000000123125,77003950544,mKarTel,mAltel,mAltel,,D01,2016-03-12T12:23:18+06:00,
1000000000123126,77057853000,mAltel,mKarTel,mKarTel,,D07,2016-03-12T12:24:45+06:00,
1000000000123127,77055749474,mAltel,mKarTel,mKarTel,,D07,2016-03-12T12:25:31+06:00,
1000000000123128,77772996644,mMTS,mKarTel,mKarTel,,D77,2016-03-12T12:26:15+06:00,
1000000000123129,77075220555,mAltel,mMTS,mMTS,,D07,2016-03-12T12:25:43+06:00,
1000000000123130,77017776266,mMTS,mKcell,mKcell,,D77,2016-03-12T12:26:41+06:00,
1000000000123131,77764164111,mKcell,mKarTel,mKarTel,,D02,2016-03-12T12:27:28+06:00,
1000000000123133,77775378777,mKcell,mKarTel,mKarTel,,D02,2016-03-12T12:29:34+06:00,
