NPId,Number,RecipientId,DonorId,RangeHolderId,OldRoute,NewRoute,PortDate,RowCount
1000000000362021,77077107346,mKcell,mMTS,mMTS,,D02,2017-04-07T19:01:41+06:00,9
1000000000362023,77717832253,mAltel,mKarTel,mKarTel,,D07,2017-04-07T19:03:54+06:00,
1000000000362025,77760000596,mKcell,mKarTel,mKarTel,,D02,2017-04-07T19:06:41+06:00,
1000000000362026,77017717374,mKcell,mAltel,mKcell,D07,D02,2017-04-07T19:06:44+06:00,
1000000000362027,77754135256,mMTS,mKcell,mKcell,,D77,2017-04-07T19:08:06+06:00,
1000000000362029,77073399608,mKarTel,mMTS,mMTS,,D01,2017-04-07T19:13:55+06:00,
1000000000362031,77078531444,mKcell,mMTS,mMTS,,D02,2017-04-07T19:22:08+06:00,
1000000000362034,77017677848,mAltel,mKcell,mKcell,,D07,2017-04-07T19:28:34+06:00,
1000000000362035,77055501637,mKarTel,mAltel,mKarTel,D07,D01,2017-04-07T19:28:58+06:00,
