NPId,Number,RecipientId,DonorId,RangeHolderId,OldRoute,NewRoute,PortDate,RowCount
1000000000338965,77005556542,mKcell,mAltel,mAltel,,D02,2017-03-01T20:30:25+06:00,7
1000000000338966,77753949900,mKcell,mMTS,mKcell,D77,D02,2017-03-01T20:31:28+06:00,
1000000000338967,77783121000,mKcell,mMTS,mKcell,D77,D02,2017-03-01T20:33:39+06:00,
1000000000338968,77761131989,mKcell,mKarTel,mKarTel,,D02,2017-03-01T20:36:35+06:00,
1000000000338969,77005553568,mKcell,mAltel,mAltel,,D02,2017-03-01T20:38:13+06:00,
1000000000338970,77005553529,mKcell,mAltel,mAltel,,D02,2017-03-01T20:41:12+06:00,
1000000000338972,77015566222,mKcell,mKarTel,mKcell,D01,D02,2017-03-01T20:49:11+06:00,
