NPId,Number,RecipientId,DonorId,RangeHolderId,OldRoute,NewRoute,PortDate,RowCount
1000000000193389,77051417624,mMTS,mKarTel,mKarTel,,D77,2016-06-14T15:07:36+06:00,31
1000000000193391,77017058888,mKarTel,mKcell,mKcell,,D01,2016-06-14T15:19:12+06:00,
1000000000193394,77010770277,mMTS,mKcell,mKcell,,D77,2016-06-14T15:00:48+06:00,
1000000000193398,77086774500,mMTS,mAltel,mAltel,,D77,2016-06-14T15:04:07+06:00,
1000000000193399,77012214205,mKcell,mKarTel,mKcell,D01,D02,2016-06-14T15:20:35+06:00,
1000000000193401,77055374917,mKarTel,mMTS,mKarTel,D77,D01,2016-06-14T15:09:08+06:00,
1000000000193403,77471891959,mKcell,mMTS,mMTS,,D02,2016-06-14T15:11:01+06:00,
1000000000193404,77029867256,mAltel,mKcell,mKcell,,D07,2016-06-14T15:12:34+06:00,
1000000000193405,77026021890,mMTS,mKcell,mKcell,,D77,2016-06-14T15:13:05+06:00,
1000000000193406,77715005055,mKcell,mKarTel,mKarTel,,D02,2016-06-14T15:14:33+06:00,
1000000000193407,77086774501,mMTS,mAltel,mAltel,,D77,2016-06-14T15:15:09+06:00,
1000000000193408,77021566552,mMTS,mKcell,mKcell,,D77,2016-06-14T15:16:00+06:00,
1000000000193409,77016495566,mKcell,mAltel,mKcell,D07,D02,2016-06-14T15:16:22+06:00,
1000000000193410,77016588285,mKarTel,mKcell,mKcell,,D01,2016-06-14T15:16:30+06:00,
1000000000193411,77027002535,mMTS,mKcell,mKcell,,D77,2016-06-14T15:17:23+06:00,
1000000000193412,77476514147,mMTS,mKcell,mMTS,D02,D77,2016-06-14T15:17:37+06:00,
1000000000193413,77751447112,mMTS,mKcell,mKcell,,D77,2016-06-14T15:17:34+06:00,
1000000000193414,77073234003,mAltel,mMTS,mMTS,,D07,2016-06-14T15:17:13+06:00,
1000000000193416,77000777007,mKarTel,mAltel,mAltel,,D01,2016-06-14T15:18:45+06:00,
1000000000193417,77751000004,mKcell,mKarTel,mKcell,D01,D02,2016-06-14T15:22:17+06:00,
1000000000193418,77476514146,mMTS,mKcell,mMTS,D02,D77,2016-06-14T15:22:31+06:00,
1000000000193419,77089051947,mKarTel,mAltel,mAltel,,D01,2016-06-14T15:22:37+06:00,
1000000000193420,77088902080,mMTS,mAltel,mAltel,,D77,2016-06-14T15:23:15+06:00,
1000000000193421,77472590607,mKcell,mMTS,mMTS,,D02,2016-06-14T15:23:45+06:00,
1000000000193422,77001353023,mMTS,mAltel,mAltel,,D77,2016-06-14T15:23:29+06:00,
1000000000193424,77009266345,mAltel,mMTS,mAltel,D77,D07,2016-06-14T15:24:30+06:00,
1000000000193426,77779322233,mMTS,mKarTel,mKarTel,,D77,2016-06-14T15:25:12+06:00,
1000000000193427,77024561256,mMTS,mKcell,mKcell,,D77,2016-06-14T15:25:21+06:00,
1000000000193428,77773077730,mMTS,mKcell,mKarTel,D02,D77,2016-06-14T15:25:21+06:00,
1000000000193429,77072666680,mKcell,mMTS,mMTS,,D02,2016-06-14T15:25:46+06:00,
1000000000193432,77771775575,mKarTel,mAltel,mKarTel,D07,D01,2016-06-14T15:29:32+06:00,
