NPId,Number,RecipientId,DonorId,RangeHolderId,OldRoute,NewRoute,PortDate,RowCount
1000000000336902,77015537955,mKcell,mKarTel,mKcell,D01,D02,2017-04-07T12:40:46+06:00,31
1000000000361515,77010914793,mKcell,mKarTel,mKcell,D01,D02,2017-04-07T12:30:26+06:00,
1000000000361516,77028212563,mKcell,mMTS,mKcell,D77,D02,2017-04-07T12:31:58+06:00,
1000000000361517,77758817637,mMTS,mKcell,mKcell,,D77,2017-04-07T12:33:04+06:00,
1000000000361518,77011261128,mKcell,mMTS,mKcell,D77,D02,2017-04-07T12:33:48+06:00,
1000000000361519,77019519807,mKarTel,mKcell,mKcell,,D01,2017-04-07T12:34:48+06:00,
1000000000361520,77011910024,mMTS,mKcell,mKcell,,D77,2017-04-07T12:34:44+06:00,
1000000000361521,77778822704,mMTS,mKarTel,mKarTel,,D77,2017-04-07T12:35:29+06:00,
1000000000361523,77015351194,mMTS,mKcell,mKcell,,D77,2017-04-07T12:37:54+06:00,
1000000000361526,77015297759,mKcell,mKarTel,mKcell,D01,D02,2017-04-07T12:39:33+06:00,
1000000000361528,77056727189,mMTS,mKarTel,mKarTel,,D77,2017-04-07T12:41:15+06:00,
1000000000361529,77081000840,mKarTel,mAltel,mAltel,,D01,2017-04-07T12:42:35+06:00,
1000000000361530,77015146096,mKcell,mKarTel,mKcell,D01,D02,2017-04-07T12:43:34+06:00,
1000000000361531,77758817536,mMTS,mKcell,mKcell,,D77,2017-04-07T12:43:43+06:00,
1000000000361532,77711771771,mKarTel,mKcell,mKarTel,D02,D01,2017-04-07T12:45:35+06:00,
1000000000361533,77758816749,mMTS,mKcell,mKcell,,D77,2017-04-07T12:45:36+06:00,
1000000000361534,77019519895,mMTS,mKcell,mKcell,,D77,2017-04-07T12:45:42+06:00,
1000000000361536,77020005335,mMTS,mKcell,mKcell,,D77,2017-04-07T12:47:22+06:00,
1000000000361537,77775372024,mKcell,mKarTel,mKarTel,,D02,2017-04-07T12:48:22+06:00,
1000000000361539,77758816491,mMTS,mKcell,mKcell,,D77,2017-04-07T12:47:57+06:00,
1000000000361540,77022315577,mKarTel,mKcell,mKcell,,D01,2017-04-07T12:48:09+06:00,
1000000000361541,77054054752,mKarTel,mKcell,mKarTel,D02,D01,2017-04-07T12:49:07+06:00,
1000000000361542,77772041289,mMTS,mKarTel,mKarTel,,D77,2017-04-07T12:50:11+06:00,
1000000000361543,77758816424,mMTS,mKcell,mKcell,,D77,2017-04-07T12:50:13+06:00,
1000000000361546,77017470737,mAltel,mKcell,mKcell,,D07,2017-04-07T12:51:35+06:00,
1000000000361547,77758815612,mMTS,mKcell,mKcell,,D77,2017-04-07T12:53:52+06:00,
1000000000361549,77058708071,mKcell,mKarTel,mKarTel,,D02,2017-04-07T12:54:26+06:00,
1000000000361550,77788290005,mAltel,mKcell,mKcell,,D07,2017-04-07T12:54:19+06:00,
1000000000361551,77758815076,mMTS,mKcell,mKcell,,D77,2017-04-07T12:57:06+06:00,
1000000000361552,77017089559,mAltel,mKcell,mKcell,,D07,2017-04-07T12:58:20+06:00,
1000000000361553,77758814502,mMTS,mKcell,mKcell,,D77,2017-04-07T12:59:29+06:00,
