NPId,Number,RecipientId,DonorId,RangeHolderId,OldRoute,NewRoute,PortDate,RowCount
1000000000228455,77083541425,mMTS,mKcell,mAltel,D02,D77,2016-08-13T14:00:53+06:00,17
1000000000228456,77015338317,mKcell,mAltel,mKcell,D07,D02,2016-08-13T14:01:38+06:00,
1000000000228457,77788904634,mAltel,mKcell,mKcell,,D07,2016-08-13T14:02:10+06:00,
1000000000228459,77015236968,mKcell,mMTS,mKcell,D77,D02,2016-08-13T14:03:19+06:00,
1000000000228461,77011743001,mAltel,mKcell,mKcell,,D07,2016-08-13T14:09:51+06:00,
1000000000228463,77001589630,mMTS,mAltel,mAltel,,D77,2016-08-13T14:10:51+06:00,
1000000000228464,77024005850,mKarTel,mKcell,mKcell,,D01,2016-08-13T14:12:11+06:00,
1000000000228465,77073338736,mMTS,mAltel,mMTS,D07,D77,2016-08-13T14:11:58+06:00,
1000000000228467,77013677759,mMTS,mKcell,mKcell,D02,D77,2016-08-13T14:14:53+06:00,
1000000000228469,77071899533,mKcell,mMTS,mMTS,,D02,2016-08-13T14:18:51+06:00,
1000000000228473,77772835498,mKarTel,mAltel,mKarTel,D07,D01,2016-08-13T14:19:42+06:00,
1000000000228474,77020001309,mKarTel,mKcell,mKcell,,D01,2016-08-13T14:21:31+06:00,
1000000000228475,77051042141,mKarTel,mMTS,mKarTel,D77,D01,2016-08-13T14:23:28+06:00,
1000000000228476,77784247159,mAltel,mKcell,mKcell,,D07,2016-08-13T14:25:49+06:00,
1000000000228477,77024000657,mMTS,mKcell,mKcell,,D77,2016-08-13T14:26:32+06:00,
1000000000228478,77081999251,mMTS,mAltel,mAltel,,D77,2016-08-13T14:28:33+06:00,
1000000000228479,77003630001,mKcell,mMTS,mAltel,D77,D02,2016-08-13T14:29:32+06:00,
