NPId,Number,RecipientId,DonorId,RangeHolderId,OldRoute,NewRoute,PortDate,RowCount
1000000000270571,77010325504,mKarTel,mKcell,mKcell,,D01,2016-10-31T15:50:12+06:00,91
1000000000270571,77010325506,mKarTel,mKcell,mKcell,,D01,2016-10-31T15:50:12+06:00,
1000000000270571,77010355091,mKarTel,mKcell,mKcell,,D01,2016-10-31T15:50:12+06:00,
1000000000270571,77012186917,mKarTel,mKcell,mKcell,,D01,2016-10-31T15:50:12+06:00,
1000000000270571,77012186994,mKarTel,mKcell,mKcell,,D01,2016-10-31T15:50:12+06:00,
1000000000270571,77015033277,mKarTel,mKcell,mKcell,,D01,2016-10-31T15:50:12+06:00,
1000000000270571,77015344706,mKarTel,mKcell,mKcell,,D01,2016-10-31T15:50:12+06:00,
1000000000270571,77017135894,mKarTel,mKcell,mKcell,,D01,2016-10-31T15:50:12+06:00,
1000000000270571,77017251834,mKarTel,mKcell,mKcell,,D01,2016-10-31T15:50:12+06:00,
1000000000270571,77017303143,mKarTel,mKcell,mKcell,,D01,2016-10-31T15:50:12+06:00,
1000000000270571,77017336256,mKarTel,mKcell,mKcell,,D01,2016-10-31T15:50:12+06:00,
1000000000270571,77017512322,mKarTel,mKcell,mKcell,,D01,2016-10-31T15:50:12+06:00,
1000000000270571,77017618513,mKarTel,mKcell,mKcell,,D01,2016-10-31T15:50:12+06:00,
1000000000270571,77017688718,mKarTel,mKcell,mKcell,,D01,2016-10-31T15:50:12+06:00,
1000000000270571,77017831301,mKarTel,mKcell,mKcell,,D01,2016-10-31T15:50:12+06:00,
1000000000270571,77017851239,mKarTel,mKcell,mKcell,,D01,2016-10-31T15:50:12+06:00,
1000000000270571,77017851272,mKarTel,mKcell,mKcell,,D01,2016-10-31T15:50:12+06:00,
1000000000270571,77017877491,mKarTel,mKcell,mKcell,,D01,2016-10-31T15:50:12+06:00,
1000000000270571,77018862312,mKarTel,mKcell,mKcell,,D01,2016-10-31T15:50:12+06:00,
1000000000270571,77019206701,mKarTel,mKcell,mKcell,,D01,2016-10-31T15:50:12+06:00,
1000000000270571,77019206702,mKarTel,mKcell,mKcell,,D01,2016-10-31T15:50:12+06:00,
1000000000270571,77019206703,mKarTel,mKcell,mKcell,,D01,2016-10-31T15:50:12+06:00,
1000000000270571,77019206705,mKarTel,mKcell,mKcell,,D01,2016-10-31T15:50:12+06:00,
1000000000270571,77019206719,mKarTel,mKcell,mKcell,,D01,2016-10-31T15:50:12+06:00,
1000000000270571,77019206721,mKarTel,mKcell,mKcell,,D01,2016-10-31T15:50:12+06:00,
1000000000270571,77019206724,mKarTel,mKcell,mKcell,,D01,2016-10-31T15:50:12+06:00,
1000000000270571,77019206728,mKarTel,mKcell,mKcell,,D01,2016-10-31T15:50:12+06:00,
1000000000270571,77019206731,mKarTel,mKcell,mKcell,,D01,2016-10-31T15:50:12+06:00,
1000000000270571,77019206732,mKarTel,mKcell,mKcell,,D01,2016-10-31T15:50:12+06:00,
1000000000271098,77005557434,mKcell,mAltel,mAltel,,D02,2016-10-31T15:30:04+06:00,
1000000000271099,77085054006,mKarTel,mAltel,mAltel,,D01,2016-10-31T15:30:59+06:00,
1000000000271101,77715071418,mKcell,mKarTel,mKarTel,,D02,2016-10-31T15:44:22+06:00,
1000000000271102,77713726823,mKcell,mKarTel,mKarTel,,D02,2016-10-31T15:48:35+06:00,
1000000000271103,77755288960,mMTS,mKcell,mKcell,,D77,2016-10-31T15:32:36+06:00,
1000000000271104,77771460189,mMTS,mKarTel,mKarTel,,D77,2016-10-31T15:32:54+06:00,
1000000000271105,77005457545,mKarTel,mAltel,mAltel,,D01,2016-10-31T15:32:52+06:00,
1000000000271106,77770777103,mKcell,mKarTel,mKarTel,,D02,2016-10-31T15:49:46+06:00,
1000000000271107,77025291884,mKcell,mAltel,mKcell,D07,D02,2016-10-31T15:33:31+06:00,
1000000000271108,77012284777,mMTS,mKcell,mKcell,,D77,2016-10-31T15:33:24+06:00,
1000000000271109,77026237172,mMTS,mKcell,mKcell,,D77,2016-10-31T15:33:28+06:00,
1000000000271110,77710229681,mKcell,mKarTel,mKarTel,,D02,2016-10-31T15:51:29+06:00,
1000000000271111,77000005841,mKarTel,mAltel,mAltel,,D01,2016-10-31T15:34:05+06:00,
1000000000271113,77710990592,mKcell,mKarTel,mKarTel,,D02,2016-10-31T15:52:31+06:00,
1000000000271115,77018568606,mKarTel,mMTS,mKcell,D77,D01,2016-10-31T15:35:52+06:00,
1000000000271116,77710990593,mKcell,mKarTel,mKarTel,,D02,2016-10-31T15:53:32+06:00,
1000000000271117,77479877151,mKarTel,mMTS,mMTS,,D01,2016-10-31T15:36:28+06:00,
1000000000271118,77078524251,mKarTel,mMTS,mMTS,,D01,2016-10-31T15:36:55+06:00,
1000000000271119,77710990585,mKcell,mKarTel,mKarTel,,D02,2016-10-31T15:54:40+06:00,
1000000000271120,77013290004,mAltel,mKcell,mKcell,,D07,2016-10-31T15:37:12+06:00,
1000000000271121,77714509705,mMTS,mKarTel,mKarTel,,D77,2016-10-31T15:37:48+06:00,
1000000000271122,77755288673,mMTS,mKcell,mKcell,,D77,2016-10-31T15:37:42+06:00,
1000000000271123,77771460219,mMTS,mKarTel,mKarTel,,D77,2016-10-31T15:37:54+06:00,
1000000000271124,77775993664,mKcell,mKarTel,mKarTel,,D02,2016-10-31T15:59:33+06:00,
1000000000271125,77077086044,mAltel,mMTS,mMTS,,D07,2016-10-31T15:38:10+06:00,
1000000000271128,77719967007,mKcell,mKarTel,mKarTel,,D02,2016-10-31T15:56:43+06:00,
1000000000271130,77021436588,mAltel,mKcell,mKcell,,D07,2016-10-31T15:39:59+06:00,
1000000000271131,77761266900,mKcell,mKarTel,mKarTel,,D02,2016-10-31T15:56:14+06:00,
1000000000271132,77788530968,mMTS,mKcell,mKcell,,D77,2016-10-31T15:41:02+06:00,
1000000000271133,77776778898,mKarTel,mAltel,mKarTel,D07,D01,2016-10-31T15:41:23+06:00,
1000000000271134,77770777108,mKcell,mKarTel,mKarTel,,D02,2016-10-31T15:57:36+06:00,
1000000000271135,77710469909,mKcell,mKarTel,mKarTel,,D02,2016-10-31T15:59:36+06:00,
1000000000271136,77754749016,mMTS,mKcell,mKcell,,D77,2016-10-31T15:42:06+06:00,
1000000000271137,77717013713,mKcell,mKarTel,mKarTel,,D02,2016-10-31T15:59:37+06:00,
1000000000271139,77081074190,mMTS,mAltel,mAltel,,D77,2016-10-31T15:42:21+06:00,
1000000000271140,77771460217,mMTS,mKarTel,mKarTel,,D77,2016-10-31T15:42:58+06:00,
1000000000271141,77771460218,mMTS,mKarTel,mKarTel,,D77,2016-10-31T15:42:56+06:00,
1000000000271142,77771460204,mMTS,mKarTel,mKarTel,,D77,2016-10-31T15:42:58+06:00,
1000000000271144,77005558494,mKcell,mAltel,mAltel,,D02,2016-10-31T15:43:03+06:00,
1000000000271146,77772754555,mMTS,mKarTel,mKarTel,,D77,2016-10-31T15:43:55+06:00,
1000000000271147,77754749015,mMTS,mKcell,mKcell,,D77,2016-10-31T15:43:44+06:00,
1000000000271149,77089106618,mMTS,mAltel,mAltel,,D77,2016-10-31T15:44:06+06:00,
1000000000271150,77001112454,mAltel,mKarTel,mAltel,D01,D07,2016-10-31T15:44:32+06:00,
1000000000271151,77715559997,mKcell,mKarTel,mKarTel,,D02,2016-10-31T15:45:09+06:00,
1000000000271153,77477666585,mKarTel,mMTS,mMTS,,D01,2016-10-31T15:45:26+06:00,
1000000000271155,77083792052,mKarTel,mAltel,mAltel,,D01,2016-10-31T15:47:14+06:00,
1000000000271156,77771460195,mMTS,mKarTel,mKarTel,,D77,2016-10-31T15:47:51+06:00,
1000000000271158,77783033339,mAltel,mKcell,mKcell,,D07,2016-10-31T15:48:44+06:00,
1000000000271159,77771290354,mKcell,mKarTel,mKarTel,,D02,2016-10-31T15:49:15+06:00,
1000000000271160,77078755517,mAltel,mMTS,mMTS,,D07,2016-10-31T15:48:57+06:00,
1000000000271162,77757346411,mKcell,mMTS,mKcell,D77,D02,2016-10-31T15:51:45+06:00,
1000000000271163,77015142478,mAltel,mKcell,mKcell,,D07,2016-10-31T15:51:58+06:00,
1000000000271166,77054151912,mMTS,mKarTel,mKarTel,,D77,2016-10-31T15:52:32+06:00,
1000000000271168,77718511787,mMTS,mKarTel,mKarTel,,D77,2016-10-31T15:52:55+06:00,
1000000000271170,77011914096,mMTS,mKcell,mKcell,,D77,2016-10-31T15:53:01+06:00,
1000000000271172,77078129121,mKcell,mMTS,mMTS,,D02,2016-10-31T15:53:51+06:00,
1000000000271173,77026339591,mMTS,mKcell,mKcell,,D77,2016-10-31T15:54:19+06:00,
1000000000271175,77056130700,mKcell,mKarTel,mKarTel,,D02,2016-10-31T15:54:58+06:00,
1000000000271177,77005557484,mKcell,mAltel,mAltel,,D02,2016-10-31T15:57:17+06:00,
1000000000271178,77766594587,mMTS,mKarTel,mKarTel,,D77,2016-10-31T15:57:53+06:00,
1000000000271182,77085985755,mKcell,mAltel,mAltel,,D02,2016-10-31T15:59:25+06:00,
1000000000271183,77756488726,mAltel,mMTS,mKcell,D77,D07,2016-10-31T15:59:35+06:00,
