NPId,Number,RecipientId,DonorId,RangeHolderId,OldRoute,NewRoute,PortDate,RowCount
1000000000437041,77022024477,mKarTel,mAltel,mKcell,D07,D01,2017-08-09T09:02:57+06:00,2
1000000000437042,77051817337,mKcell,mKarTel,mKarTel,,D02,2017-08-09T09:14:56+06:00,
