NPId,Number,RecipientId,DonorId,RangeHolderId,OldRoute,NewRoute,PortDate,RowCount
1000000000350658,77052660924,mMTS,mKarTel,mKarTel,,D77,2017-03-24T13:00:08+06:00,17
1000000000350659,77052661132,mMTS,mKarTel,mKarTel,,D77,2017-03-24T13:00:09+06:00,
1000000000351491,77759747258,mAltel,mKcell,mKcell,,D07,2017-03-24T13:00:25+06:00,
1000000000351492,77051119900,mKarTel,mAltel,mKarTel,D07,D01,2017-03-24T13:00:34+06:00,
1000000000351495,77711121157,mKarTel,mMTS,mKarTel,D77,D01,2017-03-24T13:04:39+06:00,
1000000000351496,77082221997,mKarTel,mAltel,mAltel,,D01,2017-03-24T13:06:06+06:00,
1000000000351497,77054421980,mMTS,mKarTel,mKarTel,,D77,2017-03-24T13:08:13+06:00,
1000000000351498,77476988806,mKcell,mMTS,mMTS,D77,D02,2017-03-24T13:08:30+06:00,
1000000000351499,77024472730,mAltel,mKcell,mKcell,,D07,2017-03-24T13:08:52+06:00,
1000000000351500,77759662505,mKarTel,mKcell,mKcell,,D01,2017-03-24T13:09:15+06:00,
1000000000351501,77018806888,mKarTel,mKcell,mKcell,,D01,2017-03-24T13:10:50+06:00,
1000000000351502,77019461470,mKcell,mKarTel,mKcell,D01,D02,2017-03-24T13:12:39+06:00,
1000000000351506,77473653759,mAltel,mMTS,mMTS,,D07,2017-03-24T13:19:58+06:00,
1000000000351507,77011246873,mAltel,mKcell,mKcell,,D07,2017-03-24T13:20:52+06:00,
1000000000351509,77022630991,mKcell,mMTS,mKcell,D77,D02,2017-03-24T13:22:24+06:00,
1000000000351510,77775459513,mMTS,mKarTel,mKarTel,,D77,2017-03-24T13:23:13+06:00,
1000000000351512,77781720159,mKarTel,mKcell,mKcell,,D01,2017-03-24T13:27:46+06:00,
