NPId,Number,RecipientId,DonorId,RangeHolderId,OldRoute,NewRoute,PortDate,RowCount
1000000000446626,77077606611,mAltel,mMTS,mMTS,,D07,2017-08-27T13:31:12+06:00,9
1000000000446629,77018077701,mMTS,mKcell,mKcell,,D77,2017-08-27T13:35:40+06:00,
1000000000446630,77471808680,mMTS,mAltel,mMTS,D07,D77,2017-08-27T13:35:58+06:00,
1000000000446632,77081045820,mMTS,mAltel,mAltel,,D77,2017-08-27T13:37:37+06:00,
1000000000446633,77752681952,mMTS,mKcell,mKcell,,D77,2017-08-27T13:37:48+06:00,
1000000000446634,77089102527,mMTS,mAltel,mAltel,,D77,2017-08-27T13:42:45+06:00,
1000000000446635,77757772586,mMTS,mKcell,mKcell,,D77,2017-08-27T13:47:51+06:00,
1000000000446636,77054020378,mMTS,mKarTel,mKarTel,,D77,2017-08-27T13:53:07+06:00,
1000000000446637,77770012347,mMTS,mKarTel,mKarTel,,D77,2017-08-27T13:54:00+06:00,
