NPId,Number,RecipientId,DonorId,RangeHolderId,OldRoute,NewRoute,PortDate,RowCount
1000000000229989,77016519897,mKcell,mKarTel,mKcell,D01,D02,2016-08-16T20:06:21+06:00,6
1000000000229990,77776699511,mKcell,mKarTel,mKarTel,,D02,2016-08-16T20:08:01+06:00,
1000000000229991,77785555550,mKcell,mMTS,mKcell,D77,D02,2016-08-16T20:08:14+06:00,
1000000000229992,77019996576,mKcell,mMTS,mKcell,D77,D02,2016-08-16T20:10:45+06:00,
1000000000229993,77075939583,mKcell,mMTS,mMTS,,D02,2016-08-16T20:16:30+06:00,
1000000000229994,77776644111,mKcell,mKarTel,mKarTel,,D02,2016-08-16T20:23:26+06:00,
