NPId,Number,RecipientId,DonorId,RangeHolderId,OldRoute,NewRoute,PortDate,RowCount
1000000000339566,77763023570,mMTS,mKarTel,mKarTel,,D77,2017-03-02T17:44:54+06:00,44
1000000000339569,77761235731,mMTS,mKarTel,mKarTel,,D77,2017-03-02T17:44:54+06:00,
1000000000339570,77717807896,mMTS,mKarTel,mKarTel,,D77,2017-03-02T17:44:52+06:00,
1000000000339641,77475775720,mKcell,mMTS,mMTS,,D02,2017-03-02T17:31:32+06:00,
1000000000339644,77089512778,mMTS,mAltel,mAltel,,D77,2017-03-02T17:32:03+06:00,
1000000000339645,77012081693,mKarTel,mKcell,mKcell,,D01,2017-03-02T17:32:27+06:00,
1000000000339646,77772922626,mMTS,mKarTel,mKarTel,,D77,2017-03-02T17:32:59+06:00,
1000000000339647,77764977770,mKarTel,mMTS,mKarTel,D77,D01,2017-03-02T17:33:11+06:00,
1000000000339648,77471745523,mKarTel,mMTS,mMTS,,D01,2017-03-02T17:33:48+06:00,
1000000000339649,77475015611,mKarTel,mMTS,mMTS,,D01,2017-03-02T17:34:16+06:00,
1000000000339650,77058199888,mMTS,mKarTel,mKarTel,,D77,2017-03-02T17:34:59+06:00,
1000000000339651,77774892899,mMTS,mKarTel,mKarTel,,D77,2017-03-02T17:35:28+06:00,
1000000000339653,77004507898,mKarTel,mAltel,mAltel,,D01,2017-03-02T17:36:15+06:00,
1000000000339654,77057705070,mMTS,mKarTel,mKarTel,,D77,2017-03-02T17:38:22+06:00,
1000000000339655,77777778477,mKcell,mKarTel,mKarTel,,D02,2017-03-02T17:39:32+06:00,
1000000000339656,77055492780,mMTS,mKarTel,mKarTel,,D77,2017-03-02T17:41:52+06:00,
1000000000339657,77758909410,mMTS,mKcell,mKcell,,D77,2017-03-02T17:41:37+06:00,
1000000000339658,77789999059,mKarTel,mKcell,mKcell,,D01,2017-03-02T17:42:25+06:00,
1000000000339659,77015127303,mKcell,mKarTel,mKcell,D01,D02,2017-03-02T17:42:56+06:00,
1000000000339660,77028575175,mMTS,mKcell,mKcell,,D77,2017-03-02T17:42:47+06:00,
1000000000339661,77772377351,mMTS,mKarTel,mKarTel,,D77,2017-03-02T17:43:05+06:00,
1000000000339662,77778529858,mKcell,mKarTel,mKarTel,,D02,2017-03-02T17:44:52+06:00,
1000000000339663,77054274004,mKcell,mKarTel,mKarTel,,D02,2017-03-02T17:44:52+06:00,
1000000000339664,77011061170,mMTS,mKcell,mKcell,,D77,2017-03-02T17:44:44+06:00,
1000000000339665,77015778413,mMTS,mKcell,mKcell,,D77,2017-03-02T17:45:23+06:00,
1000000000339666,77077783283,mKcell,mMTS,mMTS,D77,D02,2017-03-02T17:46:12+06:00,
1000000000339668,77017279424,mKarTel,mKcell,mKcell,,D01,2017-03-02T17:48:36+06:00,
1000000000339669,77026464006,mKarTel,mKcell,mKcell,,D01,2017-03-02T17:49:23+06:00,
1000000000339670,77001740401,mKcell,mAltel,mAltel,,D02,2017-03-02T17:49:14+06:00,
1000000000339671,77028475090,mKarTel,mKcell,mKcell,,D01,2017-03-02T17:49:31+06:00,
1000000000339673,77019881598,mKarTel,mKcell,mKcell,,D01,2017-03-02T17:50:06+06:00,
1000000000339674,77759057296,mKarTel,mKcell,mKcell,,D01,2017-03-02T17:50:13+06:00,
1000000000339675,77775765676,mAltel,mKarTel,mKarTel,,D07,2017-03-02T17:50:30+06:00,
1000000000339676,77017394855,mKarTel,mKcell,mKcell,,D01,2017-03-02T17:51:37+06:00,
1000000000339677,77029994664,mKcell,mMTS,mKcell,D77,D02,2017-03-02T17:53:20+06:00,
1000000000339678,77013335119,mMTS,mKcell,mKcell,,D77,2017-03-02T17:53:26+06:00,
1000000000339679,77076564236,mKarTel,mMTS,mMTS,,D01,2017-03-02T17:53:48+06:00,
1000000000339680,77767777119,mKcell,mKarTel,mKarTel,,D02,2017-03-02T17:54:22+06:00,
1000000000339685,77779969222,mKcell,mKarTel,mKarTel,,D02,2017-03-02T17:56:48+06:00,
1000000000339686,77001111177,mKcell,mAltel,mAltel,,D02,2017-03-02T17:57:22+06:00,
1000000000339687,77753900030,mMTS,mKcell,mKcell,,D77,2017-03-02T17:57:51+06:00,
1000000000339688,77077707042,mKarTel,mMTS,mMTS,,D01,2017-03-02T17:58:08+06:00,
1000000000339689,77473933545,mKcell,mMTS,mMTS,,D02,2017-03-02T17:58:45+06:00,
1000000000339690,77756843232,mMTS,mKcell,mKcell,,D77,2017-03-02T17:58:53+06:00,
