NPId,Number,RecipientId,DonorId,RangeHolderId,OldRoute,NewRoute,PortDate,RowCount
1000000000310923,77475600005,mKarTel,mMTS,mMTS,,D01,2017-01-15T13:30:16+06:00,4
1000000000310926,77784554445,mMTS,mKcell,mKcell,,D77,2017-01-15T13:42:55+06:00,
1000000000310927,77771114533,mKarTel,mKcell,mKarTel,D02,D01,2017-01-15T13:43:17+06:00,
1000000000310929,77017831521,mMTS,mKcell,mKcell,,D77,2017-01-15T13:45:09+06:00,
