NPId,Number,RecipientId,DonorId,RangeHolderId,OldRoute,NewRoute,PortDate,RowCount
1000000000217140,77017201238,mKcell,mAltel,mKcell,D07,D02,2016-07-25T20:47:52+06:00,2
1000000000217141,77075810333,mKcell,mMTS,mMTS,,D02,2016-07-25T20:56:56+06:00,
