NPId,Number,RecipientId,DonorId,RangeHolderId,OldRoute,NewRoute,PortDate,RowCount
1000000000166870,77010141683,mMTS,mKcell,mKcell,,D77,2016-05-04T10:02:15+06:00,19
1000000000166871,77085491749,mMTS,mAltel,mAltel,,D77,2016-05-04T10:02:02+06:00,
1000000000166872,77071321011,mMTS,mAltel,mMTS,D07,D77,2016-05-04T10:02:02+06:00,
1000000000166873,77012275610,mMTS,mKcell,mKcell,,D77,2016-05-04T10:02:15+06:00,
1000000000166874,77012214525,mMTS,mKcell,mKcell,,D77,2016-05-04T10:02:33+06:00,
1000000000166875,77011112694,mMTS,mAltel,mKcell,D07,D77,2016-05-04T10:02:05+06:00,
1000000000166876,77756685515,mMTS,mKcell,mKcell,,D77,2016-05-04T10:02:33+06:00,
1000000000166877,77005740095,mMTS,mAltel,mAltel,,D77,2016-05-04T10:02:53+06:00,
1000000000166880,77771625065,mMTS,mKarTel,mKarTel,,D77,2016-05-04T10:07:01+06:00,
1000000000166883,77789000500,mMTS,mKcell,mKcell,,D77,2016-05-04T10:10:51+06:00,
1000000000166884,77085220204,mMTS,mAltel,mAltel,,D77,2016-05-04T10:11:24+06:00,
1000000000166887,77018024111,mMTS,mKcell,mKcell,,D77,2016-05-04T10:15:43+06:00,
1000000000166888,77018027111,mMTS,mKcell,mKcell,,D77,2016-05-04T10:16:19+06:00,
1000000000166891,77002222289,mKarTel,mAltel,mAltel,,D01,2016-05-04T10:17:20+06:00,
1000000000166893,77763120055,mMTS,mKarTel,mKarTel,,D77,2016-05-04T10:18:24+06:00,
1000000000166894,77772476960,mKarTel,mMTS,mKarTel,D77,D01,2016-05-04T10:19:30+06:00,
1000000000166895,77028990697,mMTS,mKcell,mKcell,,D77,2016-05-04T10:19:44+06:00,
1000000000166896,77018029111,mMTS,mKcell,mKcell,,D77,2016-05-04T10:19:45+06:00,
1000000000166897,77756223333,mKcell,mMTS,mKcell,D77,D02,2016-05-04T10:21:35+06:00,
