NPId,Number,RecipientId,DonorId,RangeHolderId,OldRoute,NewRoute,PortDate,RowCount
1000000000313274,77017279198,mKarTel,mKcell,mKcell,,D01,2017-01-20T11:34:19+06:00,34
1000000000313299,77015342031,mKarTel,mKcell,mKcell,,D01,2017-01-20T11:41:47+06:00,
1000000000313299,77015342036,mKarTel,mKcell,mKcell,,D01,2017-01-20T11:41:47+06:00,
1000000000313299,77015342039,mKarTel,mKcell,mKcell,,D01,2017-01-20T11:41:47+06:00,
1000000000313299,77015342044,mKarTel,mKcell,mKcell,,D01,2017-01-20T11:41:47+06:00,
1000000000313299,77015342051,mKarTel,mKcell,mKcell,,D01,2017-01-20T11:41:47+06:00,
1000000000313299,77015342052,mKarTel,mKcell,mKcell,,D01,2017-01-20T11:41:47+06:00,
1000000000313299,77015342062,mKarTel,mKcell,mKcell,,D01,2017-01-20T11:41:47+06:00,
1000000000313299,77015435642,mKarTel,mKcell,mKcell,,D01,2017-01-20T11:41:47+06:00,
1000000000313299,77015435643,mKarTel,mKcell,mKcell,,D01,2017-01-20T11:41:47+06:00,
1000000000313299,77015435644,mKarTel,mKcell,mKcell,,D01,2017-01-20T11:41:47+06:00,
1000000000313299,77015435647,mKarTel,mKcell,mKcell,,D01,2017-01-20T11:41:47+06:00,
1000000000313299,77015435648,mKarTel,mKcell,mKcell,,D01,2017-01-20T11:41:47+06:00,
1000000000313299,77015435649,mKarTel,mKcell,mKcell,,D01,2017-01-20T11:41:47+06:00,
1000000000313299,77015435652,mKarTel,mKcell,mKcell,,D01,2017-01-20T11:41:47+06:00,
1000000000313299,77015435654,mKarTel,mKcell,mKcell,,D01,2017-01-20T11:41:47+06:00,
1000000000313299,77015435658,mKarTel,mKcell,mKcell,,D01,2017-01-20T11:41:47+06:00,
1000000000313299,77015435660,mKarTel,mKcell,mKcell,,D01,2017-01-20T11:41:47+06:00,
1000000000313299,77015435661,mKarTel,mKcell,mKcell,,D01,2017-01-20T11:41:47+06:00,
1000000000313299,77017186191,mKarTel,mKcell,mKcell,,D01,2017-01-20T11:41:47+06:00,
1000000000313465,77018796977,mKarTel,mKcell,mKcell,,D01,2017-01-20T11:53:19+06:00,
1000000000313544,77072742827,mKcell,mMTS,mMTS,,D02,2017-01-20T11:34:28+06:00,
1000000000313545,77773989596,mAltel,mKarTel,mKarTel,,D07,2017-01-20T11:34:43+06:00,
1000000000313546,77051561115,mKcell,mKarTel,mKarTel,,D02,2017-01-20T11:35:24+06:00,
1000000000313547,77716666638,mKcell,mKarTel,mKarTel,,D02,2017-01-20T11:36:10+06:00,
1000000000313548,77014132961,mKcell,mMTS,mKcell,D77,D02,2017-01-20T11:36:32+06:00,
1000000000313550,77007075007,mAltel,mMTS,mAltel,D77,D07,2017-01-20T11:39:15+06:00,
1000000000313551,77057389297,mMTS,mKarTel,mKarTel,,D77,2017-01-20T11:39:49+06:00,
1000000000313552,77077500701,mAltel,mMTS,mMTS,,D07,2017-01-20T11:39:51+06:00,
1000000000313553,77027233328,mMTS,mKcell,mKcell,,D77,2017-01-20T11:49:04+06:00,
1000000000313555,77051250505,mKcell,mMTS,mKarTel,D77,D02,2017-01-20T11:52:39+06:00,
1000000000313556,77078500701,mAltel,mMTS,mMTS,,D07,2017-01-20T11:52:20+06:00,
1000000000313557,77015300142,mKarTel,mKcell,mKcell,,D01,2017-01-20T11:54:34+06:00,
1000000000313558,77712971378,mMTS,mKarTel,mKarTel,,D77,2017-01-20T11:54:51+06:00,
