NPId,Number,RecipientId,DonorId,RangeHolderId,OldRoute,NewRoute,PortDate,RowCount
1000000000231668,77029111609,mKarTel,mKcell,mKcell,,D01,2016-08-20T13:01:52+06:00,13
1000000000231671,77475111010,mKarTel,mMTS,mMTS,,D01,2016-08-20T13:07:18+06:00,
1000000000231673,77052328996,mMTS,mKarTel,mKarTel,,D77,2016-08-20T13:10:42+06:00,
1000000000231674,77015888044,mKarTel,mKcell,mKcell,,D01,2016-08-20T13:11:25+06:00,
1000000000231675,77013129266,mMTS,mKarTel,mKcell,D01,D77,2016-08-20T13:14:40+06:00,
1000000000231676,77058606050,mKcell,mKarTel,mKarTel,,D02,2016-08-20T13:16:54+06:00,
1000000000231677,77774222228,mKarTel,mAltel,mKarTel,D07,D01,2016-08-20T13:16:27+06:00,
1000000000231681,77717739910,mMTS,mKarTel,mKarTel,,D77,2016-08-20T13:20:20+06:00,
1000000000231682,77771171383,mMTS,mKarTel,mKarTel,,D77,2016-08-20T13:21:30+06:00,
1000000000231687,77778312626,mKarTel,mAltel,mKarTel,D07,D01,2016-08-20T13:24:19+06:00,
1000000000231688,77059891919,mMTS,mKarTel,mKarTel,,D77,2016-08-20T13:27:06+06:00,
1000000000231689,77021409630,mMTS,mKcell,mKcell,,D77,2016-08-20T13:26:17+06:00,
1000000000231690,77003434042,mMTS,mAltel,mAltel,,D77,2016-08-20T13:29:41+06:00,
