NPId,Number,RecipientId,DonorId,RangeHolderId,OldRoute,NewRoute,PortDate,RowCount
1000000000380238,77079755747,mAltel,mMTS,mMTS,,D07,2017-05-09T13:05:52+06:00,9
1000000000380239,77776966369,mMTS,mKarTel,mKarTel,,D77,2017-05-09T13:07:09+06:00,
1000000000380240,77716444432,mMTS,mKarTel,mKarTel,,D77,2017-05-09T13:08:15+06:00,
1000000000380241,77051505020,mKcell,mKarTel,mKarTel,,D02,2017-05-09T13:12:44+06:00,
1000000000380243,77786148041,mMTS,mKcell,mKcell,,D77,2017-05-09T13:14:38+06:00,
1000000000380245,77014368752,mAltel,mKcell,mKcell,,D07,2017-05-09T13:16:52+06:00,
1000000000380247,77789293508,mMTS,mKcell,mKcell,,D77,2017-05-09T13:20:23+06:00,
1000000000380248,77003130101,mKarTel,mAltel,mAltel,,D01,2017-05-09T13:21:19+06:00,
1000000000380251,77085441636,mMTS,mAltel,mAltel,,D77,2017-05-09T13:28:01+06:00,
