NPId,Number,RecipientId,DonorId,RangeHolderId,OldRoute,NewRoute,PortDate,RowCount
1000000000215364,77024556424,mKcell,mMTS,mKcell,D77,D02,2016-07-22T12:30:15+06:00,8
1000000000215370,77085909911,mKcell,mAltel,mAltel,,D02,2016-07-22T12:34:53+06:00,
1000000000215374,77001001900,mKcell,mAltel,mAltel,,D02,2016-07-22T12:42:32+06:00,
1000000000215381,77006111110,mKcell,mAltel,mAltel,,D02,2016-07-22T12:48:27+06:00,
1000000000215384,77003516264,mMTS,mAltel,mAltel,,D77,2016-07-22T12:52:16+06:00,
1000000000215386,77759767434,mMTS,mAltel,mKcell,D07,D77,2016-07-22T12:53:50+06:00,
1000000000215390,77756363893,mKcell,mMTS,mKcell,D77,D02,2016-07-22T12:58:28+06:00,
1000000000215392,77753080322,mMTS,mKcell,mKcell,,D77,2016-07-22T12:59:25+06:00,
