NPId,Number,RecipientId,DonorId,RangeHolderId,OldRoute,NewRoute,PortDate,RowCount
1000000000153227,77021780282,mKarTel,mKcell,mKcell,,D01,2016-04-16T11:51:23+06:00,30
1000000000153287,77757583499,mMTS,mKcell,mKcell,,D77,2016-04-16T11:30:23+06:00,
1000000000153290,77007171206,mKarTel,mAltel,mAltel,,D01,2016-04-16T11:34:02+06:00,
1000000000153291,77789191429,mMTS,mKcell,mKcell,,D77,2016-04-16T11:35:18+06:00,
1000000000153292,77473699935,mKcell,mMTS,mMTS,,D02,2016-04-16T11:35:23+06:00,
1000000000153293,77776516979,mMTS,mKarTel,mKarTel,,D77,2016-04-16T11:38:17+06:00,
1000000000153294,77773690406,mMTS,mKarTel,mKarTel,,D77,2016-04-16T11:39:05+06:00,
1000000000153295,77758592765,mKarTel,mKcell,mKcell,,D01,2016-04-16T11:38:59+06:00,
1000000000153296,77016111061,mKarTel,mKcell,mKcell,,D01,2016-04-16T11:39:07+06:00,
1000000000153297,77770629653,mMTS,mKarTel,mKarTel,,D77,2016-04-16T11:40:40+06:00,
1000000000153298,77714295901,mMTS,mKarTel,mKarTel,,D77,2016-04-16T11:40:40+06:00,
1000000000153300,77755682620,mMTS,mKcell,mKcell,,D77,2016-04-16T11:43:16+06:00,
1000000000153301,77014608175,mMTS,mKcell,mKcell,,D77,2016-04-16T11:43:58+06:00,
1000000000153302,77470594036,mMTS,mAltel,mMTS,D07,D77,2016-04-16T11:45:05+06:00,
1000000000153304,77089702585,mMTS,mAltel,mAltel,,D77,2016-04-16T11:47:19+06:00,
1000000000153305,77019532903,mMTS,mKcell,mKcell,,D77,2016-04-16T11:48:24+06:00,
1000000000153306,77775939921,mMTS,mKarTel,mKarTel,,D77,2016-04-16T11:49:55+06:00,
1000000000153307,77079019494,mMTS,mAltel,mMTS,D07,D77,2016-04-16T11:48:30+06:00,
1000000000153308,77775957237,mMTS,mKarTel,mKarTel,,D77,2016-04-16T11:51:27+06:00,
1000000000153309,77089558620,mMTS,mAltel,mAltel,,D77,2016-04-16T11:49:06+06:00,
1000000000153310,77777772479,mKcell,mKarTel,mKarTel,,D02,2016-04-16T11:51:53+06:00,
1000000000153311,77710600666,mMTS,mKarTel,mKarTel,,D77,2016-04-16T11:52:15+06:00,
1000000000153313,77016490408,mMTS,mKcell,mKcell,,D77,2016-04-16T11:51:39+06:00,
1000000000153314,77758258773,mMTS,mAltel,mKcell,D07,D77,2016-04-16T11:51:25+06:00,
1000000000153316,77776771697,mMTS,mKarTel,mKarTel,,D77,2016-04-16T11:53:44+06:00,
1000000000153317,77003754345,mMTS,mAltel,mAltel,,D77,2016-04-16T11:52:13+06:00,
1000000000153318,77089557175,mMTS,mAltel,mAltel,,D77,2016-04-16T11:52:51+06:00,
1000000000153319,77019526204,mMTS,mKcell,mKcell,,D77,2016-04-16T11:55:40+06:00,
1000000000153320,77017577737,mMTS,mKcell,mKcell,,D77,2016-04-16T11:55:50+06:00,
1000000000153323,77081096578,mMTS,mAltel,mAltel,,D77,2016-04-16T11:59:58+06:00,
