NPId,Number,RecipientId,DonorId,RangeHolderId,OldRoute,NewRoute,PortDate,RowCount
1000000000363954,77074540397,mKcell,mMTS,mMTS,,D02,2017-04-11T14:00:03+06:00,23
1000000000363955,77059808689,mMTS,mKarTel,mKarTel,,D77,2017-04-11T14:00:56+06:00,
1000000000363956,77714043444,mMTS,mKarTel,mKarTel,,D77,2017-04-11T14:01:46+06:00,
1000000000363957,77018001702,mKcell,mAltel,mKcell,D07,D02,2017-04-11T14:02:47+06:00,
1000000000363958,77071631510,mKcell,mMTS,mMTS,,D02,2017-04-11T14:05:15+06:00,
1000000000363960,77014005002,mKarTel,mKcell,mKcell,,D01,2017-04-11T14:08:38+06:00,
1000000000363961,77082035272,mMTS,mAltel,mAltel,,D77,2017-04-11T14:08:45+06:00,
1000000000363962,77472360329,mKcell,mMTS,mMTS,,D02,2017-04-11T14:09:07+06:00,
1000000000363963,77010120331,mMTS,mKcell,mKcell,,D77,2017-04-11T14:09:40+06:00,
1000000000363964,77073264945,mKarTel,mAltel,mMTS,D07,D01,2017-04-11T14:09:46+06:00,
1000000000363965,77017762379,mKarTel,mKcell,mKcell,,D01,2017-04-11T14:10:17+06:00,
1000000000363968,77000200612,mKcell,mAltel,mAltel,,D02,2017-04-11T14:16:20+06:00,
1000000000363969,77003658087,mKarTel,mAltel,mAltel,,D01,2017-04-11T14:17:20+06:00,
1000000000363971,77057645112,mMTS,mKarTel,mKarTel,,D77,2017-04-11T14:18:16+06:00,
1000000000363972,77771224507,mMTS,mKarTel,mKarTel,,D77,2017-04-11T14:18:57+06:00,
1000000000363974,77785040278,mKcell,mAltel,mKcell,D07,D02,2017-04-11T14:20:30+06:00,
1000000000363977,77027067770,mKarTel,mKcell,mKcell,,D01,2017-04-11T14:22:30+06:00,
1000000000363978,77025355661,mMTS,mKcell,mKcell,,D77,2017-04-11T14:22:54+06:00,
1000000000363979,77762855565,mMTS,mKarTel,mKarTel,,D77,2017-04-11T14:23:13+06:00,
1000000000363981,77079777971,mKarTel,mMTS,mMTS,,D01,2017-04-11T14:24:18+06:00,
1000000000363983,77081559515,mAltel,mKarTel,mAltel,D01,D07,2017-04-11T14:26:04+06:00,
1000000000363985,77003072207,mKarTel,mMTS,mAltel,D77,D01,2017-04-11T14:27:39+06:00,
1000000000363986,77078957879,mKarTel,mMTS,mMTS,D77,D01,2017-04-11T14:28:00+06:00,
