NPId,Number,RecipientId,DonorId,RangeHolderId,OldRoute,NewRoute,PortDate,RowCount
1000000000369625,77005000001,mAltel,mKcell,mAltel,D02,D07,2017-04-21T16:02:28+06:00,14
1000000000369627,77017787766,mKarTel,mKcell,mKcell,,D01,2017-04-21T16:10:28+06:00,
1000000000369628,77016213000,mMTS,mKcell,mKcell,,D77,2017-04-21T16:12:29+06:00,
1000000000369629,77772489990,mKcell,mAltel,mKarTel,D07,D02,2017-04-21T16:14:53+06:00,
1000000000369630,77020006307,mKcell,mMTS,mKcell,D77,D02,2017-04-21T16:15:38+06:00,
1000000000369631,77021793589,mAltel,mKcell,mKcell,,D07,2017-04-21T16:16:24+06:00,
1000000000369632,77058375077,mMTS,mKarTel,mKarTel,,D77,2017-04-21T16:17:30+06:00,
1000000000369633,77711126636,mAltel,mKarTel,mKarTel,,D07,2017-04-21T16:17:40+06:00,
1000000000369635,77760000692,mKcell,mKarTel,mKarTel,,D02,2017-04-21T16:22:34+06:00,
1000000000369636,77021272365,mMTS,mKcell,mKcell,,D77,2017-04-21T16:22:56+06:00,
1000000000369638,77052190058,mMTS,mKarTel,mKarTel,,D77,2017-04-21T16:24:44+06:00,
1000000000369640,77004201212,mKcell,mAltel,mAltel,,D02,2017-04-21T16:25:55+06:00,
1000000000369641,77024108222,mKarTel,mKcell,mKcell,,D01,2017-04-21T16:26:15+06:00,
1000000000369642,77075090486,mKcell,mMTS,mMTS,,D02,2017-04-21T16:26:14+06:00,
