NPId,Number,RecipientId,DonorId,RangeHolderId,OldRoute,NewRoute,PortDate,RowCount
1000000000362975,77085160651,mKcell,mMTS,mAltel,D77,D02,2017-04-09T18:36:19+06:00,3
1000000000362976,77767550555,mKcell,mKarTel,mKarTel,,D02,2017-04-09T18:42:50+06:00,
1000000000362977,77477100021,mKarTel,mMTS,mMTS,,D01,2017-04-09T18:45:03+06:00,
