NPId,Number,RecipientId,DonorId,RangeHolderId,OldRoute,NewRoute,PortDate,RowCount
1000000000364651,77024244752,mMTS,mKcell,mKcell,,D77,2017-04-12T14:01:24+06:00,29
1000000000364653,77777949470,mMTS,mKarTel,mKarTel,,D77,2017-04-12T14:01:49+06:00,
1000000000364655,77774349797,mAltel,mKarTel,mKarTel,,D07,2017-04-12T14:02:15+06:00,
1000000000364657,77017771993,mAltel,mKcell,mKcell,,D07,2017-04-12T14:03:15+06:00,
1000000000364658,77075552204,mKarTel,mMTS,mMTS,,D01,2017-04-12T14:03:28+06:00,
1000000000364659,77013637375,mKcell,mMTS,mKcell,D77,D02,2017-04-12T14:03:42+06:00,
1000000000364660,77777717720,mKcell,mAltel,mKarTel,D07,D02,2017-04-12T14:04:10+06:00,
1000000000364661,77056220080,mMTS,mKarTel,mKarTel,,D77,2017-04-12T14:04:23+06:00,
1000000000364662,77059839171,mKcell,mKarTel,mKarTel,,D02,2017-04-12T14:04:48+06:00,
1000000000364663,77017201822,mKcell,mKarTel,mKcell,D01,D02,2017-04-12T14:05:22+06:00,
1000000000364665,77056563773,mKcell,mKarTel,mKarTel,,D02,2017-04-12T14:06:02+06:00,
1000000000364666,77022178875,mMTS,mKcell,mKcell,,D77,2017-04-12T14:05:55+06:00,
1000000000364667,77775808933,mKcell,mKarTel,mKarTel,,D02,2017-04-12T14:07:55+06:00,
1000000000364669,77025480235,mKarTel,mKcell,mKcell,,D01,2017-04-12T14:08:23+06:00,
1000000000364672,77715934842,mMTS,mKcell,mKarTel,D02,D77,2017-04-12T14:09:52+06:00,
1000000000364677,77007778587,mKcell,mAltel,mAltel,,D02,2017-04-12T14:13:12+06:00,
1000000000364678,77007778873,mKcell,mAltel,mAltel,,D02,2017-04-12T14:14:01+06:00,
1000000000364680,77027587997,mMTS,mKcell,mKcell,,D77,2017-04-12T14:16:17+06:00,
1000000000364681,77013116625,mAltel,mKcell,mKcell,,D07,2017-04-12T14:18:35+06:00,
1000000000364682,77018872638,mKarTel,mKcell,mKcell,,D01,2017-04-12T14:18:59+06:00,
1000000000364683,77001128035,mKcell,mAltel,mAltel,,D02,2017-04-12T14:19:27+06:00,
1000000000364684,77025959393,mMTS,mKcell,mKcell,,D77,2017-04-12T14:20:29+06:00,
1000000000364685,77029476009,mMTS,mKcell,mKcell,,D77,2017-04-12T14:22:56+06:00,
1000000000364687,77476368109,mMTS,mKarTel,mMTS,D01,D77,2017-04-12T14:24:26+06:00,
1000000000364688,77007778874,mKcell,mAltel,mAltel,,D02,2017-04-12T14:25:00+06:00,
1000000000364689,77007778876,mKcell,mAltel,mAltel,,D02,2017-04-12T14:25:07+06:00,
1000000000364690,77006295993,mKcell,mAltel,mAltel,,D02,2017-04-12T14:26:44+06:00,
1000000000364691,77055555021,mMTS,mKarTel,mKarTel,,D77,2017-04-12T14:27:12+06:00,
1000000000364693,77087276343,mKarTel,mAltel,mAltel,,D01,2017-04-12T14:29:36+06:00,
