NPId,Number,RecipientId,DonorId,RangeHolderId,OldRoute,NewRoute,PortDate,RowCount
1000000000408667,77021463520,mKcell,mKarTel,mKcell,D01,D02,2017-06-24T09:30:53+06:00,4
1000000000408669,77711305530,mKcell,mAltel,mKarTel,D07,D02,2017-06-24T09:38:37+06:00,
1000000000408670,77059999882,mKcell,mKarTel,mKarTel,,D02,2017-06-24T09:40:36+06:00,
1000000000408671,77076744752,mKarTel,mMTS,mMTS,,D01,2017-06-24T09:50:39+06:00,
