NPId,Number,RecipientId,DonorId,RangeHolderId,OldRoute,NewRoute,PortDate,RowCount
1000000000282745,77079966998,mKcell,mMTS,mMTS,,D02,2016-11-22T21:03:15+06:00,2
1000000000282746,77015550042,mKcell,mAltel,mKcell,D07,D02,2016-11-22T21:13:53+06:00,
