NPId,Number,RecipientId,DonorId,RangeHolderId,OldRoute,NewRoute,PortDate,RowCount
1000000000241101,77017402092,mAltel,mKcell,mKcell,,D07,2016-09-06T12:38:35+06:00,7
1000000000241106,77003959659,mKcell,mAltel,mAltel,,D02,2016-09-06T12:47:33+06:00,
1000000000241107,77007479497,mKcell,mAltel,mAltel,,D02,2016-09-06T12:49:31+06:00,
1000000000241109,77782218952,mAltel,mKcell,mKcell,,D07,2016-09-06T12:52:50+06:00,
1000000000241111,77760344444,mKcell,mKarTel,mKarTel,,D02,2016-09-06T12:55:16+06:00,
1000000000241112,77760844444,mKcell,mKarTel,mKarTel,,D02,2016-09-06T12:55:52+06:00,
1000000000241113,77785415077,mKcell,mAltel,mKcell,D07,D02,2016-09-06T12:58:27+06:00,
