NPId,Number,RecipientId,DonorId,RangeHolderId,OldRoute,NewRoute,PortDate,RowCount
1000000000201016,77082777063,mKcell,mAltel,mAltel,,D02,2016-06-27T19:30:38+06:00,9
1000000000201018,77007777086,mKcell,mAltel,mAltel,,D02,2016-06-27T19:38:35+06:00,
1000000000201019,77475777770,mKcell,mMTS,mMTS,,D02,2016-06-27T19:38:03+06:00,
1000000000201020,77085558787,mKcell,mAltel,mAltel,,D02,2016-06-27T19:38:04+06:00,
1000000000201021,77073997667,mAltel,mMTS,mMTS,,D07,2016-06-27T19:37:49+06:00,
1000000000201022,77000700011,mKcell,mAltel,mAltel,,D02,2016-06-27T19:41:25+06:00,
1000000000201023,77011204244,mKcell,mAltel,mKcell,D07,D02,2016-06-27T19:43:47+06:00,
1000000000201024,77056320202,mMTS,mKarTel,mKarTel,,D77,2016-06-27T19:43:45+06:00,
1000000000201025,77773111008,mMTS,mKarTel,mKarTel,,D77,2016-06-27T19:53:56+06:00,
