NPId,Number,RecipientId,DonorId,RangeHolderId,OldRoute,NewRoute,PortDate,RowCount
1000000000003366,77767001900,mMTS,mKarTel,mKarTel,,D77,2016-01-08T09:00:25+06:00,67
1000000000003367,77011911040,mKarTel,mKcell,mKcell,,D01,2016-01-08T09:01:54+06:00,
1000000000003372,77071037333,mKcell,mMTS,mMTS,,D02,2016-01-08T09:01:33+06:00,
1000000000003373,77017500911,mKarTel,mKcell,mKcell,,D01,2016-01-08T09:02:52+06:00,
1000000000003374,77017444100,mKarTel,mKcell,mKcell,,D01,2016-01-08T09:01:55+06:00,
1000000000003375,77015210790,mKarTel,mKcell,mKcell,,D01,2016-01-08T09:03:10+06:00,
1000000000003377,77012723375,mKarTel,mKcell,mKcell,,D01,2016-01-08T09:02:58+06:00,
1000000000003378,77784999939,mKarTel,mKcell,mKcell,,D01,2016-01-08T09:03:12+06:00,
1000000000003380,77787282108,mKarTel,mKcell,mKcell,,D01,2016-01-08T09:03:06+06:00,
1000000000003385,77011011488,mKarTel,mKcell,mKcell,,D01,2016-01-08T09:02:58+06:00,
1000000000003390,77017159662,mKarTel,mKcell,mKcell,,D01,2016-01-08T09:02:35+06:00,
1000000000003394,77017478663,mMTS,mKcell,mKcell,,D77,2016-01-08T09:02:16+06:00,
1000000000003396,77025030494,mKarTel,mKcell,mKcell,,D01,2016-01-08T09:02:38+06:00,
1000000000003397,77027771422,mMTS,mKcell,mKcell,,D77,2016-01-08T09:02:23+06:00,
1000000000003400,77785480746,mKarTel,mKcell,mKcell,,D01,2016-01-08T09:03:05+06:00,
1000000000003401,77012529090,mKarTel,mKcell,mKcell,,D01,2016-01-08T09:02:27+06:00,
1000000000003402,77779392333,mMTS,mKarTel,mKarTel,,D77,2016-01-08T09:02:02+06:00,
1000000000003405,77782223939,mMTS,mKcell,mKcell,,D77,2016-01-08T09:02:22+06:00,
1000000000003406,77755016350,mKarTel,mKcell,mKcell,,D01,2016-01-08T09:02:34+06:00,
1000000000003407,77784777111,mMTS,mKcell,mKcell,,D77,2016-01-08T09:02:22+06:00,
1000000000003408,77758575557,mKarTel,mKcell,mKcell,,D01,2016-01-08T09:02:44+06:00,
1000000000003413,77017776337,mKarTel,mKcell,mKcell,,D01,2016-01-08T09:02:47+06:00,
1000000000003414,77028762222,mKarTel,mKcell,mKcell,,D01,2016-01-08T09:02:36+06:00,
1000000000003415,77017773467,mKarTel,mKcell,mKcell,,D01,2016-01-08T09:02:51+06:00,
1000000000003416,77010599995,mKarTel,mKcell,mKcell,,D01,2016-01-08T09:02:59+06:00,
1000000000003417,77028327602,mKarTel,mKcell,mKcell,,D01,2016-01-08T09:03:22+06:00,
1000000000003418,77012233099,mKarTel,mKcell,mKcell,,D01,2016-01-08T09:03:16+06:00,
1000000000003420,77023489496,mKarTel,mKcell,mKcell,,D01,2016-01-08T09:02:27+06:00,
1000000000003422,77017397707,mKarTel,mKcell,mKcell,,D01,2016-01-08T09:03:05+06:00,
1000000000003425,77017540838,mKarTel,mKcell,mKcell,,D01,2016-01-08T09:03:11+06:00,
1000000000003426,77073134820,mKarTel,mMTS,mMTS,,D01,2016-01-08T09:01:58+06:00,
1000000000003430,77473371530,mKarTel,mMTS,mMTS,,D01,2016-01-08T09:02:04+06:00,
1000000000003431,77017489936,mKarTel,mKcell,mKcell,,D01,2016-01-08T09:03:11+06:00,
1000000000003432,77075424543,mKarTel,mMTS,mMTS,,D01,2016-01-08T09:02:03+06:00,
1000000000003433,77019909133,mKarTel,mKcell,mKcell,,D01,2016-01-08T09:02:38+06:00,
1000000000003436,77011117525,mKarTel,mKcell,mKcell,,D01,2016-01-08T09:03:22+06:00,
1000000000003438,77017766955,mKarTel,mKcell,mKcell,,D01,2016-01-08T09:02:58+06:00,
1000000000003439,77077107171,mKarTel,mMTS,mMTS,,D01,2016-01-08T09:02:04+06:00,
1000000000003440,77017840350,mKarTel,mKcell,mKcell,,D01,2016-01-08T09:02:47+06:00,
1000000000003441,77011699198,mKarTel,mKcell,mKcell,,D01,2016-01-08T09:03:16+06:00,
1000000000003442,77019976868,mKarTel,mKcell,mKcell,,D01,2016-01-08T09:03:03+06:00,
1000000000003443,77017461428,mKarTel,mKcell,mKcell,,D01,2016-01-08T09:03:13+06:00,
1000000000003444,77012446565,mKarTel,mKcell,mKcell,,D01,2016-01-08T09:02:40+06:00,
1000000000003445,77018007292,mKarTel,mKcell,mKcell,,D01,2016-01-08T09:03:04+06:00,
1000000000003446,77018831777,mKarTel,mKcell,mKcell,,D01,2016-01-08T09:03:24+06:00,
1000000000003449,77011116457,mKarTel,mKcell,mKcell,,D01,2016-01-08T09:03:28+06:00,
1000000000003450,77011242518,mKarTel,mKcell,mKcell,,D01,2016-01-08T09:02:52+06:00,
1000000000003451,77015194017,mKarTel,mKcell,mKcell,,D01,2016-01-08T09:02:45+06:00,
1000000000003452,77019330063,mKarTel,mKcell,mKcell,,D01,2016-01-08T09:03:23+06:00,
1000000000003453,77078388880,mKarTel,mMTS,mMTS,,D01,2016-01-08T09:02:09+06:00,
1000000000003454,77022610155,mKarTel,mKcell,mKcell,,D01,2016-01-08T09:03:25+06:00,
1000000000003455,77789222121,mKarTel,mKcell,mKcell,,D01,2016-01-08T09:03:03+06:00,
1000000000003456,77077600666,mKarTel,mMTS,mMTS,,D01,2016-01-08T09:02:11+06:00,
1000000000003457,77756326371,mKarTel,mKcell,mKcell,,D01,2016-01-08T09:02:51+06:00,
1000000000003458,77017168691,mKarTel,mKcell,mKcell,,D01,2016-01-08T09:02:47+06:00,
1000000000003460,77025248410,mKarTel,mKcell,mKcell,,D01,2016-01-08T09:02:35+06:00,
1000000000003461,77016001494,mKarTel,mKcell,mKcell,,D01,2016-01-08T09:02:46+06:00,
1000000000003463,77017653344,mMTS,mKcell,mKcell,,D77,2016-01-08T09:11:17+06:00,
1000000000003466,77026290532,mAltel,mKcell,mKcell,,D07,2016-01-08T09:15:06+06:00,
1000000000003467,77011918777,mMTS,mKcell,mKcell,,D77,2016-01-08T09:15:22+06:00,
1000000000003471,77015585017,mKarTel,mKcell,mKcell,,D01,2016-01-08T09:18:49+06:00,
1000000000003472,77017533031,mKarTel,mKcell,mKcell,,D01,2016-01-08T09:18:55+06:00,
1000000000003474,77071617111,mAltel,mMTS,mMTS,,D07,2016-01-08T09:20:13+06:00,
1000000000003475,77079027177,mKarTel,mMTS,mMTS,,D01,2016-01-08T09:21:38+06:00,
1000000000003476,77010899991,mMTS,mKcell,mKcell,,D77,2016-01-08T09:22:02+06:00,
1000000000003477,77013828282,mMTS,mKcell,mKcell,,D77,2016-01-08T09:22:25+06:00,
1000000000003480,77012236136,mMTS,mKcell,mKcell,,D77,2016-01-08T09:27:55+06:00,
