NPId,Number,RecipientId,DonorId,RangeHolderId,OldRoute,NewRoute,PortDate,RowCount
1000000000263466,77074313610,mKarTel,mMTS,mMTS,,D01,2016-10-17T12:01:01+06:00,29
1000000000263467,77077339947,mMTS,mAltel,mMTS,D07,D77,2016-10-17T12:00:58+06:00,
1000000000263469,77019588854,mKcell,mMTS,mKcell,D77,D02,2016-10-17T12:03:20+06:00,
1000000000263471,77016185751,mAltel,mKcell,mKcell,,D07,2016-10-17T12:03:50+06:00,
1000000000263472,77777060012,mAltel,mKarTel,mKarTel,,D07,2016-10-17T12:05:12+06:00,
1000000000263473,77004516642,mKarTel,mAltel,mAltel,,D01,2016-10-17T12:05:13+06:00,
1000000000263474,77753157453,mMTS,mKcell,mKcell,,D77,2016-10-17T12:05:39+06:00,
1000000000263475,77019073111,mKarTel,mKcell,mKcell,,D01,2016-10-17T12:06:39+06:00,
1000000000263476,77774646650,mMTS,mKarTel,mKarTel,,D77,2016-10-17T12:07:53+06:00,
1000000000263478,77007774950,mKarTel,mAltel,mAltel,,D01,2016-10-17T12:08:23+06:00,
1000000000263479,77078591315,mKcell,mMTS,mMTS,,D02,2016-10-17T12:11:32+06:00,
1000000000263482,77005770055,mMTS,mAltel,mAltel,,D77,2016-10-17T12:14:31+06:00,
1000000000263483,77022087305,mAltel,mKcell,mKcell,,D07,2016-10-17T12:15:07+06:00,
1000000000263484,77771440077,mKcell,mKarTel,mKarTel,,D02,2016-10-17T12:16:56+06:00,
1000000000263485,77028516163,mMTS,mKcell,mKcell,,D77,2016-10-17T12:17:32+06:00,
1000000000263486,77071133370,mKcell,mMTS,mMTS,,D02,2016-10-17T12:17:48+06:00,
1000000000263487,77017633762,mAltel,mKcell,mKcell,,D07,2016-10-17T12:17:45+06:00,
1000000000263488,77017628235,mKarTel,mKcell,mKcell,,D01,2016-10-17T12:22:11+06:00,
1000000000263490,77773400060,mMTS,mKarTel,mKarTel,,D77,2016-10-17T12:19:45+06:00,
1000000000263491,77014446917,mKcell,mKarTel,mKcell,D01,D02,2016-10-17T12:23:06+06:00,
1000000000263492,77472928110,mAltel,mMTS,mMTS,,D07,2016-10-17T12:20:09+06:00,
1000000000263493,77770000404,mAltel,mKcell,mKarTel,D02,D07,2016-10-17T12:22:06+06:00,
1000000000263494,77752665967,mKcell,mKarTel,mKcell,D01,D02,2016-10-17T12:23:31+06:00,
1000000000263495,77713371111,mKcell,mMTS,mKarTel,D77,D02,2016-10-17T12:23:41+06:00,
1000000000263496,77017704505,mKcell,mMTS,mKcell,D77,D02,2016-10-17T12:23:48+06:00,
1000000000263497,77772475420,mKcell,mKarTel,mKarTel,,D02,2016-10-17T12:25:09+06:00,
1000000000263498,77052202666,mAltel,mKcell,mKarTel,D02,D07,2016-10-17T12:25:53+06:00,
1000000000263500,77751171710,mAltel,mKcell,mKcell,,D07,2016-10-17T12:27:42+06:00,
1000000000263501,77017222156,mMTS,mKcell,mKcell,,D77,2016-10-17T12:27:42+06:00,
