NPId,Number,RecipientId,DonorId,RangeHolderId,OldRoute,NewRoute,PortDate,RowCount
1000000000404623,77017791057,mKarTel,mKcell,mKcell,,D01,2017-06-17T10:10:13+06:00,8
1000000000404627,77014321161,mAltel,mKcell,mKcell,,D07,2017-06-17T10:15:50+06:00,
1000000000404628,77474566838,mAltel,mMTS,mMTS,,D07,2017-06-17T10:16:21+06:00,
1000000000404629,77071018855,mKcell,mAltel,mMTS,D07,D02,2017-06-17T10:16:58+06:00,
1000000000404630,77017271801,mKarTel,mMTS,mKcell,D77,D01,2017-06-17T10:17:16+06:00,
1000000000404631,77012355034,mAltel,mKcell,mKcell,,D07,2017-06-17T10:17:45+06:00,
1000000000404633,77714482501,mMTS,mKarTel,mKarTel,,D77,2017-06-17T10:21:48+06:00,
1000000000404634,77785861894,mAltel,mKcell,mKcell,,D07,2017-06-17T10:26:27+06:00,
