NPId,Number,RecipientId,DonorId,RangeHolderId,OldRoute,NewRoute,PortDate,RowCount
1000000000215902,77758028838,mAltel,mKcell,mKcell,,D07,2016-07-23T18:16:02+06:00,24
1000000000216195,77753386887,mMTS,mKcell,mKcell,,D77,2016-07-23T18:02:21+06:00,
1000000000216196,77088393919,mAltel,mMTS,mAltel,D77,D07,2016-07-23T18:02:51+06:00,
1000000000216197,77087393919,mAltel,mMTS,mAltel,D77,D07,2016-07-23T18:03:47+06:00,
1000000000216198,77023406260,mKcell,mMTS,mKcell,D77,D02,2016-07-23T18:04:39+06:00,
1000000000216199,77767071007,mKcell,mKarTel,mKarTel,,D02,2016-07-23T18:06:04+06:00,
1000000000216200,77022402725,mKcell,mMTS,mKcell,D77,D02,2016-07-23T18:05:32+06:00,
1000000000216201,77777577717,mMTS,mKarTel,mKarTel,,D77,2016-07-23T18:06:40+06:00,
1000000000216202,77784491107,mKcell,mMTS,mKcell,D77,D02,2016-07-23T18:09:17+06:00,
1000000000216203,77767750055,mKcell,mKarTel,mKarTel,,D02,2016-07-23T18:11:48+06:00,
1000000000216204,77760620007,mKcell,mKarTel,mKarTel,,D02,2016-07-23T18:12:57+06:00,
1000000000216206,77771127481,mKarTel,mKcell,mKarTel,D02,D01,2016-07-23T18:14:14+06:00,
1000000000216207,77771127520,mKarTel,mKcell,mKarTel,D02,D01,2016-07-23T18:15:46+06:00,
1000000000216208,77771127516,mKarTel,mKcell,mKarTel,D02,D01,2016-07-23T18:17:25+06:00,
1000000000216209,77771127506,mKarTel,mKcell,mKarTel,D02,D01,2016-07-23T18:18:14+06:00,
1000000000216210,77771127497,mKarTel,mKcell,mKarTel,D02,D01,2016-07-23T18:19:43+06:00,
1000000000216211,77771127494,mKarTel,mKcell,mKarTel,D02,D01,2016-07-23T18:20:31+06:00,
1000000000216212,77771127490,mKarTel,mKcell,mKarTel,D02,D01,2016-07-23T18:21:42+06:00,
1000000000216214,77771127489,mKarTel,mKcell,mKarTel,D02,D01,2016-07-23T18:22:59+06:00,
1000000000216215,77015312763,mMTS,mKcell,mKcell,,D77,2016-07-23T18:22:25+06:00,
1000000000216216,77771127486,mKarTel,mKcell,mKarTel,D02,D01,2016-07-23T18:24:06+06:00,
1000000000216217,77771127483,mKarTel,mKcell,mKarTel,D02,D01,2016-07-23T18:25:38+06:00,
1000000000216218,77778000443,mKcell,mKarTel,mKarTel,,D02,2016-07-23T18:27:02+06:00,
1000000000216219,77471282028,mKarTel,mMTS,mMTS,,D01,2016-07-23T18:28:43+06:00,
