NPId,Number,RecipientId,DonorId,RangeHolderId,OldRoute,NewRoute,PortDate,RowCount
1000000000418644,77019282047,mKarTel,mKcell,mKcell,,D01,2017-07-09T16:35:35+06:00,7
1000000000418645,77759680353,mMTS,mKcell,mKcell,,D77,2017-07-09T16:35:45+06:00,
1000000000418646,77773085382,mKcell,mKarTel,mKarTel,,D02,2017-07-09T16:38:17+06:00,
1000000000418648,77089024154,mAltel,mMTS,mAltel,D77,D07,2017-07-09T16:43:08+06:00,
1000000000418649,77772580855,mAltel,mKarTel,mKarTel,,D07,2017-07-09T16:43:51+06:00,
1000000000418650,77474191895,mKcell,mMTS,mMTS,,D02,2017-07-09T16:46:20+06:00,
1000000000418651,77779239288,mAltel,mKarTel,mKarTel,,D07,2017-07-09T16:52:05+06:00,
