NPId,Number,RecipientId,DonorId,RangeHolderId,OldRoute,NewRoute,PortDate,RowCount
1000000000197530,77781177699,mMTS,mKcell,mKcell,,D77,2016-06-21T20:12:43+06:00,3
1000000000197532,77058011105,mKcell,mKarTel,mKarTel,,D02,2016-06-21T20:19:08+06:00,
1000000000197533,77784280001,mMTS,mKcell,mKcell,,D77,2016-06-21T20:18:01+06:00,
