NPId,Number,RecipientId,DonorId,RangeHolderId,OldRoute,NewRoute,PortDate,RowCount
1000000000323642,77777771809,mMTS,mKarTel,mKarTel,,D77,2017-02-04T15:02:06+06:00,19
1000000000323643,77473764564,mAltel,mMTS,mMTS,,D07,2017-02-04T15:03:08+06:00,
1000000000323645,77013680571,mMTS,mKcell,mKcell,,D77,2017-02-04T15:04:27+06:00,
1000000000323646,77083510089,mAltel,mKarTel,mAltel,D01,D07,2017-02-04T15:06:37+06:00,
1000000000323647,77053027723,mMTS,mKarTel,mKarTel,,D77,2017-02-04T15:06:39+06:00,
1000000000323649,77077439135,mKarTel,mMTS,mMTS,,D01,2017-02-04T15:06:49+06:00,
1000000000323651,77020004202,mMTS,mKcell,mKcell,,D77,2017-02-04T15:08:07+06:00,
1000000000323654,77713218885,mMTS,mKarTel,mKarTel,,D77,2017-02-04T15:11:41+06:00,
1000000000323655,77014347228,mMTS,mKcell,mKcell,D02,D77,2017-02-04T15:13:01+06:00,
1000000000323656,77026369636,mMTS,mKcell,mKcell,,D77,2017-02-04T15:18:44+06:00,
1000000000323657,77758271580,mKcell,mMTS,mKcell,D77,D02,2017-02-04T15:21:43+06:00,
1000000000323659,77000980818,mKcell,mAltel,mAltel,,D02,2017-02-04T15:25:02+06:00,
1000000000323660,77015434943,mKarTel,mKcell,mKcell,,D01,2017-02-04T15:25:55+06:00,
1000000000323661,77017899189,mAltel,mKcell,mKcell,,D07,2017-02-04T15:25:57+06:00,
1000000000323662,77762207220,mMTS,mKarTel,mKarTel,,D77,2017-02-04T15:26:21+06:00,
1000000000323664,77751325677,mKarTel,mKcell,mKcell,,D01,2017-02-04T15:27:25+06:00,
1000000000323665,77760101900,mKcell,mKarTel,mKarTel,,D02,2017-02-04T15:28:19+06:00,
1000000000323666,77001073352,mMTS,mAltel,mAltel,,D77,2017-02-04T15:27:53+06:00,
1000000000323668,77019928358,mMTS,mKcell,mKcell,,D77,2017-02-04T15:29:08+06:00,
