NPId,Number,RecipientId,DonorId,RangeHolderId,OldRoute,NewRoute,PortDate,RowCount
1000000000418515,77476269966,mMTS,mAltel,mMTS,D07,D77,2017-07-09T10:01:51+06:00,3
1000000000418517,77775112242,mMTS,mKarTel,mKarTel,,D77,2017-07-09T10:14:12+06:00,
1000000000418521,77018164009,mAltel,mKarTel,mKcell,D01,D07,2017-07-09T10:27:21+06:00,
