NPId,Number,RecipientId,DonorId,RangeHolderId,OldRoute,NewRoute,PortDate,RowCount
1000000000264228,77072070606,mKarTel,mMTS,mMTS,,D01,2016-10-18T12:31:39+06:00,23
1000000000264229,77773665619,mMTS,mKarTel,mKarTel,,D77,2016-10-18T12:32:01+06:00,
1000000000264230,77071140022,mKarTel,mMTS,mMTS,,D01,2016-10-18T12:34:00+06:00,
1000000000264231,77016639353,mMTS,mKcell,mKcell,,D77,2016-10-18T12:34:10+06:00,
1000000000264232,77759541396,mMTS,mKcell,mKcell,,D77,2016-10-18T12:36:03+06:00,
1000000000264233,77071199574,mKarTel,mMTS,mMTS,,D01,2016-10-18T12:36:21+06:00,
1000000000264234,77715811506,mAltel,mKarTel,mKarTel,,D07,2016-10-18T12:37:06+06:00,
1000000000264235,77017890840,mKcell,mMTS,mKcell,D77,D02,2016-10-18T12:37:27+06:00,
1000000000264237,77072210707,mKarTel,mMTS,mMTS,,D01,2016-10-18T12:38:23+06:00,
1000000000264239,77773533086,mMTS,mKarTel,mKarTel,,D77,2016-10-18T12:40:42+06:00,
1000000000264240,77014542584,mMTS,mKcell,mKcell,,D77,2016-10-18T12:40:40+06:00,
1000000000264241,77073110588,mKcell,mMTS,mMTS,,D02,2016-10-18T12:41:15+06:00,
1000000000264242,77071554404,mKarTel,mMTS,mMTS,,D01,2016-10-18T12:42:33+06:00,
1000000000264243,77072506081,mKarTel,mMTS,mMTS,,D01,2016-10-18T12:44:27+06:00,
1000000000264244,77072770047,mKarTel,mMTS,mMTS,,D01,2016-10-18T12:45:28+06:00,
1000000000264245,77015019091,mKarTel,mKcell,mKcell,,D01,2016-10-18T12:46:43+06:00,
1000000000264247,77003758013,mAltel,mKcell,mAltel,D02,D07,2016-10-18T12:47:58+06:00,
1000000000264250,77786885991,mMTS,mKcell,mKcell,,D77,2016-10-18T12:48:48+06:00,
1000000000264251,77789556197,mAltel,mKcell,mKcell,,D07,2016-10-18T12:49:19+06:00,
1000000000264253,77021110234,mAltel,mKcell,mKcell,,D07,2016-10-18T12:50:59+06:00,
1000000000264255,77088555161,mMTS,mAltel,mAltel,,D77,2016-10-18T12:53:51+06:00,
1000000000264256,77078682330,mKcell,mMTS,mMTS,,D02,2016-10-18T12:56:01+06:00,
1000000000264257,77075506888,mKcell,mMTS,mMTS,,D02,2016-10-18T12:58:20+06:00,
