NPId,Number,RecipientId,DonorId,RangeHolderId,OldRoute,NewRoute,PortDate,RowCount
1000000000189715,77087808585,mMTS,mAltel,mAltel,,D77,2016-06-08T09:31:41+06:00,4
1000000000189716,77078108826,mMTS,mAltel,mMTS,D07,D77,2016-06-08T09:33:11+06:00,
1000000000189717,77786438361,mAltel,mKcell,mKcell,,D07,2016-06-08T09:52:20+06:00,
1000000000189718,77784405044,mMTS,mKcell,mKcell,,D77,2016-06-08T09:58:16+06:00,
