NPId,Number,RecipientId,DonorId,RangeHolderId,OldRoute,NewRoute,PortDate,RowCount
1000000000231359,77022300878,mKarTel,mKcell,mKcell,,D01,2016-08-19T15:30:42+06:00,16
1000000000231363,77083583358,mMTS,mAltel,mAltel,,D77,2016-08-19T15:33:53+06:00,
1000000000231364,77025586204,mMTS,mKcell,mKcell,,D77,2016-08-19T15:35:00+06:00,
1000000000231366,77087080107,mKarTel,mMTS,mAltel,D77,D01,2016-08-19T15:37:10+06:00,
1000000000231368,77009915343,mKarTel,mAltel,mAltel,,D01,2016-08-19T15:38:17+06:00,
1000000000231369,77022554440,mMTS,mKcell,mKcell,,D77,2016-08-19T15:39:48+06:00,
1000000000231370,77072960665,mKarTel,mMTS,mMTS,,D01,2016-08-19T15:40:34+06:00,
1000000000231373,77028396778,mMTS,mKcell,mKcell,,D77,2016-08-19T15:46:37+06:00,
1000000000231377,77089704652,mAltel,mMTS,mAltel,D77,D07,2016-08-19T15:52:45+06:00,
1000000000231378,77020008711,mKarTel,mKcell,mKcell,,D01,2016-08-19T15:53:22+06:00,
1000000000231379,77071028091,mKcell,mMTS,mMTS,,D02,2016-08-19T15:53:43+06:00,
1000000000231380,77771121997,mKarTel,mKcell,mKarTel,D02,D01,2016-08-19T15:53:58+06:00,
1000000000231381,77078574600,mKcell,mMTS,mMTS,,D02,2016-08-19T15:54:59+06:00,
1000000000231383,77778681616,mKarTel,mMTS,mKarTel,D77,D01,2016-08-19T15:56:31+06:00,
1000000000231386,77477757278,mAltel,mMTS,mMTS,,D07,2016-08-19T15:59:00+06:00,
1000000000231387,77012183039,mAltel,mKcell,mKcell,,D07,2016-08-19T15:59:24+06:00,
