NPId,Number,RecipientId,DonorId,RangeHolderId,OldRoute,NewRoute,PortDate,RowCount
1000000000290779,77758491769,mMTS,mKcell,mKcell,,D77,2016-12-06T13:30:02+06:00,36
1000000000290780,77758492724,mMTS,mKcell,mKcell,,D77,2016-12-06T13:32:40+06:00,
1000000000290781,77076160016,mKcell,mMTS,mMTS,,D02,2016-12-06T13:33:46+06:00,
1000000000290782,77027172425,mKarTel,mKcell,mKcell,,D01,2016-12-06T13:33:48+06:00,
1000000000290783,77772830011,mKcell,mKarTel,mKarTel,,D02,2016-12-06T13:35:17+06:00,
1000000000290784,77758233376,mAltel,mKcell,mKcell,,D07,2016-12-06T13:34:54+06:00,
1000000000290786,77758491243,mMTS,mKcell,mKcell,,D77,2016-12-06T13:36:12+06:00,
1000000000290788,77472122414,mAltel,mMTS,mMTS,,D07,2016-12-06T13:37:02+06:00,
1000000000290789,77752826999,mMTS,mKcell,mKcell,,D77,2016-12-06T13:39:55+06:00,
1000000000290790,77071061016,mAltel,mMTS,mMTS,,D07,2016-12-06T13:38:23+06:00,
1000000000290792,77757867087,mAltel,mKcell,mKcell,,D07,2016-12-06T13:38:42+06:00,
1000000000290794,77071061018,mAltel,mMTS,mMTS,,D07,2016-12-06T13:40:15+06:00,
1000000000290795,77017760570,mKcell,mAltel,mKcell,D07,D02,2016-12-06T13:41:11+06:00,
1000000000290797,77768555541,mKcell,mKarTel,mKarTel,,D02,2016-12-06T13:44:58+06:00,
1000000000290798,77079823007,mKcell,mMTS,mMTS,,D02,2016-12-06T13:44:37+06:00,
1000000000290800,77758470177,mMTS,mKcell,mKcell,,D77,2016-12-06T13:43:13+06:00,
1000000000290801,77782884847,mAltel,mKcell,mKcell,D02,D07,2016-12-06T13:44:17+06:00,
1000000000290802,77079905875,mKarTel,mMTS,mMTS,,D01,2016-12-06T13:44:48+06:00,
1000000000290803,77019993344,mKcell,mKarTel,mKcell,D01,D02,2016-12-06T13:45:18+06:00,
1000000000290804,77758478565,mMTS,mKcell,mKcell,,D77,2016-12-06T13:45:21+06:00,
1000000000290805,77010808787,mAltel,mKcell,mKcell,,D07,2016-12-06T13:45:23+06:00,
1000000000290806,77015314862,mAltel,mKcell,mKcell,,D07,2016-12-06T13:46:19+06:00,
1000000000290807,77077949482,mAltel,mMTS,mMTS,,D07,2016-12-06T13:46:20+06:00,
1000000000290811,77019000108,mAltel,mKcell,mKcell,,D07,2016-12-06T13:48:43+06:00,
1000000000290813,77772733545,mKarTel,mMTS,mKarTel,D77,D01,2016-12-06T13:49:57+06:00,
1000000000290814,77768555524,mKcell,mKarTel,mKarTel,,D02,2016-12-06T13:50:48+06:00,
1000000000290816,77758492841,mMTS,mKcell,mKcell,,D77,2016-12-06T13:51:29+06:00,
1000000000290818,77025423202,mKarTel,mKcell,mKcell,,D01,2016-12-06T13:52:43+06:00,
1000000000290819,77780005587,mAltel,mKcell,mKcell,,D07,2016-12-06T13:52:46+06:00,
1000000000290821,77758477137,mMTS,mKcell,mKcell,,D77,2016-12-06T13:53:29+06:00,
1000000000290822,77768555543,mKcell,mKarTel,mKarTel,,D02,2016-12-06T13:55:39+06:00,
1000000000290823,77758470534,mMTS,mKcell,mKcell,,D77,2016-12-06T13:55:11+06:00,
1000000000290825,77758472993,mMTS,mKcell,mKcell,,D77,2016-12-06T13:57:28+06:00,
1000000000290826,77768555529,mKcell,mKarTel,mKarTel,,D02,2016-12-06T13:58:44+06:00,
1000000000290827,77012080189,mMTS,mKcell,mKcell,,D77,2016-12-06T13:59:03+06:00,
1000000000290828,77772203416,mMTS,mKcell,mKarTel,D02,D77,2016-12-06T13:59:49+06:00,
