NPId,Number,RecipientId,DonorId,RangeHolderId,OldRoute,NewRoute,PortDate,RowCount
1000000000227459,77785060028,mMTS,mKcell,mKcell,,D77,2016-08-11T14:31:06+06:00,30
1000000000227460,77784133993,mKcell,mMTS,mKcell,D77,D02,2016-08-11T14:32:11+06:00,
1000000000227461,77028362982,mKcell,mMTS,mKcell,D77,D02,2016-08-11T14:32:32+06:00,
1000000000227463,77477404253,mMTS,mKcell,mMTS,D02,D77,2016-08-11T14:36:27+06:00,
1000000000227465,77013438011,mMTS,mKcell,mKcell,,D77,2016-08-11T14:38:46+06:00,
1000000000227466,77089636516,mMTS,mAltel,mAltel,,D77,2016-08-11T14:38:52+06:00,
1000000000227467,77021308960,mAltel,mKcell,mKcell,,D07,2016-08-11T14:39:47+06:00,
1000000000227470,77012564440,mMTS,mKcell,mKcell,,D77,2016-08-11T14:41:01+06:00,
1000000000227471,77004002001,mKcell,mAltel,mAltel,,D02,2016-08-11T14:41:21+06:00,
1000000000227472,77058186100,mKarTel,mAltel,mKarTel,D07,D01,2016-08-11T14:43:47+06:00,
1000000000227473,77071330838,mAltel,mMTS,mMTS,,D07,2016-08-11T14:43:50+06:00,
1000000000227474,77787880028,mKcell,mMTS,mKcell,D77,D02,2016-08-11T14:44:19+06:00,
1000000000227475,77015141484,mMTS,mKcell,mKcell,,D77,2016-08-11T14:44:00+06:00,
1000000000227477,77015094888,mMTS,mKcell,mKcell,,D77,2016-08-11T14:46:19+06:00,
1000000000227478,77074449409,mAltel,mMTS,mMTS,,D07,2016-08-11T14:46:13+06:00,
1000000000227479,77072770527,mKarTel,mMTS,mMTS,,D01,2016-08-11T14:47:23+06:00,
1000000000227480,77017127113,mKarTel,mKcell,mKcell,,D01,2016-08-11T14:48:28+06:00,
1000000000227481,77072354407,mAltel,mMTS,mMTS,,D07,2016-08-11T14:48:33+06:00,
1000000000227482,77057632341,mAltel,mKarTel,mKarTel,,D07,2016-08-11T14:50:11+06:00,
1000000000227483,77018889318,mKarTel,mKcell,mKcell,,D01,2016-08-11T14:50:57+06:00,
1000000000227484,77081645464,mMTS,mAltel,mAltel,,D77,2016-08-11T14:50:21+06:00,
1000000000227485,77758970911,mMTS,mKcell,mKcell,,D77,2016-08-11T14:50:39+06:00,
1000000000227486,77076942058,mKcell,mMTS,mMTS,,D02,2016-08-11T14:51:57+06:00,
1000000000227487,77055569961,mMTS,mKarTel,mKarTel,,D77,2016-08-11T14:53:49+06:00,
1000000000227490,77082002410,mMTS,mAltel,mAltel,,D77,2016-08-11T14:53:09+06:00,
1000000000227491,77776710173,mKcell,mKarTel,mKarTel,,D02,2016-08-11T14:55:39+06:00,
1000000000227492,77766134444,mKarTel,mMTS,mKarTel,D77,D01,2016-08-11T14:54:26+06:00,
1000000000227496,77019338712,mMTS,mKcell,mKcell,,D77,2016-08-11T14:58:42+06:00,
1000000000227497,77759479902,mMTS,mKcell,mKcell,,D77,2016-08-11T14:58:48+06:00,
1000000000227498,77082614422,mMTS,mAltel,mAltel,,D77,2016-08-11T14:59:24+06:00,
