NPId,Number,RecipientId,DonorId,RangeHolderId,OldRoute,NewRoute,PortDate,RowCount
1000000000299186,77772246944,mKcell,mKarTel,mKarTel,,D02,2016-12-22T21:30:33+06:00,2
1000000000299187,77785185941,mMTS,mKcell,mKcell,,D77,2016-12-22T21:40:05+06:00,
