NPId,Number,RecipientId,DonorId,RangeHolderId,OldRoute,NewRoute,PortDate,RowCount
1000000000427884,77024092999,mKarTel,mKcell,mKcell,,D01,2017-07-25T14:00:23+06:00,24
1000000000427885,77015115639,mKarTel,mKcell,mKcell,,D01,2017-07-25T14:00:53+06:00,
1000000000427886,77004004342,mMTS,mAltel,mAltel,,D77,2017-07-25T14:01:10+06:00,
1000000000427887,77784444092,mKcell,mAltel,mKcell,D07,D02,2017-07-25T14:05:39+06:00,
1000000000427889,77029877272,mAltel,mKcell,mKcell,,D07,2017-07-25T14:05:40+06:00,
1000000000427890,77014909336,mMTS,mKcell,mKcell,,D77,2017-07-25T14:05:46+06:00,
1000000000427891,77025058595,mKarTel,mKcell,mKcell,,D01,2017-07-25T14:06:39+06:00,
1000000000427892,77004041104,mKcell,mAltel,mAltel,,D02,2017-07-25T14:07:10+06:00,
1000000000427897,77750329191,mMTS,mKcell,mKcell,,D77,2017-07-25T14:09:36+06:00,
1000000000427899,77072109909,mKcell,mMTS,mMTS,,D02,2017-07-25T14:11:57+06:00,
1000000000427901,77017238019,mKarTel,mKcell,mKcell,,D01,2017-07-25T14:12:18+06:00,
1000000000427903,77772120624,mKarTel,mMTS,mKarTel,D77,D01,2017-07-25T14:13:11+06:00,
1000000000427904,77052221696,mKcell,mKarTel,mKarTel,,D02,2017-07-25T14:14:17+06:00,
1000000000427906,77018137700,mMTS,mKcell,mKcell,,D77,2017-07-25T14:16:23+06:00,
1000000000427907,77775595840,mKcell,mKarTel,mKarTel,,D02,2017-07-25T14:17:57+06:00,
1000000000427908,77757447344,mMTS,mKcell,mKcell,,D77,2017-07-25T14:17:36+06:00,
1000000000427909,77015590090,mMTS,mKcell,mKcell,,D77,2017-07-25T14:20:07+06:00,
1000000000427911,77475288884,mKarTel,mMTS,mMTS,,D01,2017-07-25T14:24:04+06:00,
1000000000427912,77008080303,mMTS,mAltel,mAltel,,D77,2017-07-25T14:24:50+06:00,
1000000000427914,77028866894,mKcell,mAltel,mKcell,D07,D02,2017-07-25T14:26:38+06:00,
1000000000427915,77006662083,mMTS,mAltel,mAltel,,D77,2017-07-25T14:27:20+06:00,
1000000000427916,77077870888,mKcell,mMTS,mMTS,D77,D02,2017-07-25T14:28:37+06:00,
1000000000427917,77015286852,mKarTel,mKcell,mKcell,,D01,2017-07-25T14:28:38+06:00,
1000000000427919,77474253126,mKarTel,mMTS,mMTS,,D01,2017-07-25T14:29:03+06:00,
