NPId,Number,RecipientId,DonorId,RangeHolderId,OldRoute,NewRoute,PortDate,RowCount
1000000000262147,77010260532,mKarTel,mKcell,mKcell,,D01,2016-10-17T10:32:35+06:00,45
1000000000262147,77010291723,mKarTel,mKcell,mKcell,,D01,2016-10-17T10:32:35+06:00,
1000000000262147,77010324461,mKarTel,mKcell,mKcell,,D01,2016-10-17T10:32:35+06:00,
1000000000262147,77010326147,mKarTel,mKcell,mKcell,,D01,2016-10-17T10:32:35+06:00,
1000000000262147,77010350891,mKarTel,mKcell,mKcell,,D01,2016-10-17T10:32:35+06:00,
1000000000262147,77017159620,mKarTel,mKcell,mKcell,,D01,2016-10-17T10:32:35+06:00,
1000000000262147,77017159622,mKarTel,mKcell,mKcell,,D01,2016-10-17T10:32:35+06:00,
1000000000262147,77017159650,mKarTel,mKcell,mKcell,,D01,2016-10-17T10:32:35+06:00,
1000000000262147,77017159652,mKarTel,mKcell,mKcell,,D01,2016-10-17T10:32:35+06:00,
1000000000262147,77017159668,mKarTel,mKcell,mKcell,,D01,2016-10-17T10:32:35+06:00,
1000000000262147,77017159695,mKarTel,mKcell,mKcell,,D01,2016-10-17T10:32:35+06:00,
1000000000262147,77017159701,mKarTel,mKcell,mKcell,,D01,2016-10-17T10:32:35+06:00,
1000000000262147,77017159711,mKarTel,mKcell,mKcell,,D01,2016-10-17T10:32:35+06:00,
1000000000262147,77017159727,mKarTel,mKcell,mKcell,,D01,2016-10-17T10:32:35+06:00,
1000000000262147,77017159747,mKarTel,mKcell,mKcell,,D01,2016-10-17T10:32:35+06:00,
1000000000262147,77017159748,mKarTel,mKcell,mKcell,,D01,2016-10-17T10:32:35+06:00,
1000000000262147,77017159774,mKarTel,mKcell,mKcell,,D01,2016-10-17T10:32:35+06:00,
1000000000262147,77017159789,mKarTel,mKcell,mKcell,,D01,2016-10-17T10:32:35+06:00,
1000000000262147,77017159792,mKarTel,mKcell,mKcell,,D01,2016-10-17T10:32:35+06:00,
1000000000262147,77017159794,mKarTel,mKcell,mKcell,,D01,2016-10-17T10:32:35+06:00,
1000000000262147,77017159843,mKarTel,mKcell,mKcell,,D01,2016-10-17T10:32:35+06:00,
1000000000262147,77017159847,mKarTel,mKcell,mKcell,,D01,2016-10-17T10:32:35+06:00,
1000000000262147,77017159865,mKarTel,mKcell,mKcell,,D01,2016-10-17T10:32:35+06:00,
1000000000262147,77017201378,mKarTel,mKcell,mKcell,,D01,2016-10-17T10:32:35+06:00,
1000000000262147,77017201379,mKarTel,mKcell,mKcell,,D01,2016-10-17T10:32:35+06:00,
1000000000262147,77017201397,mKarTel,mKcell,mKcell,,D01,2016-10-17T10:32:35+06:00,
1000000000262147,77017204389,mKarTel,mKcell,mKcell,,D01,2016-10-17T10:32:35+06:00,
1000000000262147,77017204397,mKarTel,mKcell,mKcell,,D01,2016-10-17T10:32:35+06:00,
1000000000262147,77017220179,mKarTel,mKcell,mKcell,,D01,2016-10-17T10:32:35+06:00,
1000000000262147,77017620766,mKarTel,mKcell,mKcell,,D01,2016-10-17T10:32:35+06:00,
1000000000263389,77029115036,mMTS,mKcell,mKcell,,D77,2016-10-17T10:32:46+06:00,
1000000000263390,77014449866,mKcell,mMTS,mKcell,D77,D02,2016-10-17T10:33:38+06:00,
1000000000263391,77024139420,mMTS,mKcell,mKcell,,D77,2016-10-17T10:35:32+06:00,
1000000000263392,77051383270,mMTS,mKarTel,mKarTel,,D77,2016-10-17T10:36:22+06:00,
1000000000263393,77767037676,mMTS,mKarTel,mKarTel,,D77,2016-10-17T10:36:35+06:00,
1000000000263394,77014812452,mAltel,mKcell,mKcell,,D07,2016-10-17T10:37:12+06:00,
1000000000263395,77015103351,mKarTel,mKcell,mKcell,,D01,2016-10-17T10:38:45+06:00,
1000000000263397,77751147736,mMTS,mKcell,mKcell,,D77,2016-10-17T10:43:15+06:00,
1000000000263398,77013333110,mMTS,mKcell,mKcell,,D77,2016-10-17T10:48:42+06:00,
1000000000263399,77010444423,mMTS,mKcell,mKcell,,D77,2016-10-17T10:49:15+06:00,
1000000000263401,77052881984,mKarTel,mKcell,mKarTel,D02,D01,2016-10-17T10:52:47+06:00,
1000000000263402,77054003000,mMTS,mKarTel,mKarTel,,D77,2016-10-17T10:52:49+06:00,
1000000000263403,77073036383,mKarTel,mMTS,mMTS,,D01,2016-10-17T10:54:13+06:00,
1000000000263404,77087422987,mKcell,mAltel,mAltel,,D02,2016-10-17T10:57:30+06:00,
1000000000263405,77710000055,mAltel,mKcell,mKarTel,D02,D07,2016-10-17T10:58:05+06:00,
