NPId,Number,RecipientId,DonorId,RangeHolderId,OldRoute,NewRoute,PortDate,RowCount
1000000000378637,77017300084,mKarTel,mKcell,mKcell,,D01,2017-05-05T16:25:00+06:00,19
1000000000378637,77019604879,mKarTel,mKcell,mKcell,,D01,2017-05-05T16:25:00+06:00,
1000000000378783,77023777355,mKcell,mMTS,mKcell,D77,D02,2017-05-05T16:03:15+06:00,
1000000000378786,77472929380,mKcell,mMTS,mMTS,,D02,2017-05-05T16:05:44+06:00,
1000000000378787,77081514182,mMTS,mAltel,mAltel,,D77,2017-05-05T16:05:59+06:00,
1000000000378788,77711928484,mKarTel,mAltel,mKarTel,D07,D01,2017-05-05T16:10:16+06:00,
1000000000378789,77071313082,mMTS,mKarTel,mMTS,D01,D77,2017-05-05T16:13:05+06:00,
1000000000378790,77022878609,mMTS,mKcell,mKcell,,D77,2017-05-05T16:12:56+06:00,
1000000000378794,77715012674,mAltel,mKarTel,mKarTel,,D07,2017-05-05T16:15:34+06:00,
1000000000378795,77017263235,mMTS,mKcell,mKcell,,D77,2017-05-05T16:17:56+06:00,
1000000000378796,77473535016,mMTS,mAltel,mMTS,D07,D77,2017-05-05T16:18:04+06:00,
1000000000378797,77019996975,mMTS,mKcell,mKcell,,D77,2017-05-05T16:18:35+06:00,
1000000000378798,77719997188,mKarTel,mMTS,mKarTel,D77,D01,2017-05-05T16:18:39+06:00,
1000000000378799,77019455224,mAltel,mKcell,mKcell,D02,D07,2017-05-05T16:20:53+06:00,
1000000000378800,77071031414,mMTS,mKcell,mMTS,D02,D77,2017-05-05T16:23:14+06:00,
1000000000378801,77026860620,mKcell,mKarTel,mKcell,D01,D02,2017-05-05T16:24:27+06:00,
1000000000378802,77024103236,mMTS,mKcell,mKcell,,D77,2017-05-05T16:25:10+06:00,
1000000000378803,77013338765,mKarTel,mKcell,mKcell,,D01,2017-05-05T16:28:27+06:00,
1000000000378806,77023777775,mKcell,mMTS,mKcell,D77,D02,2017-05-05T16:29:50+06:00,
