NPId,Number,RecipientId,DonorId,RangeHolderId,OldRoute,NewRoute,PortDate,RowCount
1000000000174864,77013960755,mKarTel,mKcell,mKcell,,D01,2016-05-16T11:30:28+06:00,30
1000000000174865,77018899808,mKarTel,mKcell,mKcell,,D01,2016-05-16T11:31:14+06:00,
1000000000174867,77017863839,mAltel,mKcell,mKcell,,D07,2016-05-16T11:33:19+06:00,
1000000000174868,77770014747,mKcell,mKarTel,mKarTel,,D02,2016-05-16T11:34:04+06:00,
1000000000174869,77021043979,mMTS,mKcell,mKcell,,D77,2016-05-16T11:35:52+06:00,
1000000000174870,77026339327,mMTS,mKcell,mKcell,,D77,2016-05-16T11:36:19+06:00,
1000000000174872,77007889986,mMTS,mAltel,mAltel,,D77,2016-05-16T11:37:17+06:00,
1000000000174873,77775866565,mAltel,mKarTel,mKarTel,,D07,2016-05-16T11:39:48+06:00,
1000000000174875,77012997789,mKarTel,mKcell,mKcell,,D01,2016-05-16T11:42:28+06:00,
1000000000174877,77000888600,mMTS,mAltel,mAltel,,D77,2016-05-16T11:41:49+06:00,
1000000000174878,77004611287,mKcell,mAltel,mAltel,,D02,2016-05-16T11:43:31+06:00,
1000000000174879,77022414555,mMTS,mKcell,mKcell,,D77,2016-05-16T11:43:28+06:00,
1000000000174880,77017420731,mKarTel,mKcell,mKcell,,D01,2016-05-16T11:44:14+06:00,
1000000000174881,77017262697,mKcell,mMTS,mKcell,D77,D02,2016-05-16T11:44:05+06:00,
1000000000174882,77052622111,mKcell,mKarTel,mKarTel,,D02,2016-05-16T11:44:24+06:00,
1000000000174883,77019906484,mAltel,mKcell,mKcell,,D07,2016-05-16T11:44:53+06:00,
1000000000174884,77471546692,mKcell,mMTS,mMTS,,D02,2016-05-16T11:44:44+06:00,
1000000000174885,77017387747,mKarTel,mKcell,mKcell,,D01,2016-05-16T11:47:36+06:00,
1000000000174886,77770988295,mMTS,mKarTel,mKarTel,,D77,2016-05-16T11:47:28+06:00,
1000000000174887,77015892989,mMTS,mKcell,mKcell,,D77,2016-05-16T11:48:24+06:00,
1000000000174888,77081546692,mKcell,mAltel,mAltel,,D02,2016-05-16T11:49:04+06:00,
1000000000174889,77055720555,mAltel,mKarTel,mKarTel,,D07,2016-05-16T11:49:05+06:00,
1000000000174891,77015218974,mKarTel,mKcell,mKcell,,D01,2016-05-16T11:53:31+06:00,
1000000000174892,77780000081,mMTS,mKcell,mKcell,,D77,2016-05-16T11:53:43+06:00,
1000000000174893,77770016060,mKcell,mKarTel,mKarTel,,D02,2016-05-16T11:54:41+06:00,
1000000000174895,77783288038,mMTS,mKcell,mKcell,,D77,2016-05-16T11:55:38+06:00,
1000000000174897,77016456878,mKcell,mMTS,mKcell,D77,D02,2016-05-16T11:56:10+06:00,
1000000000174898,77002393555,mKarTel,mAltel,mAltel,,D01,2016-05-16T11:56:28+06:00,
1000000000174899,77014866603,mMTS,mKcell,mKcell,,D77,2016-05-16T11:57:03+06:00,
1000000000174900,77089824939,mMTS,mAltel,mAltel,,D77,2016-05-16T11:56:56+06:00,
