NPId,Number,RecipientId,DonorId,RangeHolderId,OldRoute,NewRoute,PortDate,RowCount
1000000000348297,77777719975,mMTS,mKarTel,mKarTel,,D77,2017-03-17T12:46:42+06:00,43
1000000000348299,77717752060,mMTS,mKarTel,mKarTel,,D77,2017-03-17T12:43:52+06:00,
1000000000348300,77717752059,mMTS,mKarTel,mKarTel,,D77,2017-03-17T12:46:43+06:00,
1000000000348302,77717752081,mMTS,mKarTel,mKarTel,,D77,2017-03-17T12:46:42+06:00,
1000000000348303,77717752083,mMTS,mKarTel,mKarTel,,D77,2017-03-17T12:46:16+06:00,
1000000000348304,77717752088,mMTS,mKarTel,mKarTel,,D77,2017-03-17T12:46:47+06:00,
1000000000348305,77717752063,mMTS,mKarTel,mKarTel,,D77,2017-03-17T12:41:41+06:00,
1000000000348308,77717752076,mMTS,mKarTel,mKarTel,,D77,2017-03-17T12:46:43+06:00,
1000000000348321,77717752078,mMTS,mKarTel,mKarTel,,D77,2017-03-17T12:46:42+06:00,
1000000000348324,77057126690,mMTS,mKarTel,mKarTel,,D77,2017-03-17T12:46:47+06:00,
1000000000348325,77717754379,mMTS,mKarTel,mKarTel,,D77,2017-03-17T12:46:50+06:00,
1000000000348337,77012227722,mKcell,mKarTel,mKcell,D01,D02,2017-03-17T12:46:52+06:00,
1000000000348338,77773123641,mAltel,mKarTel,mKarTel,,D07,2017-03-17T12:36:45+06:00,
1000000000348339,77779218252,mAltel,mKarTel,mKarTel,,D07,2017-03-17T12:37:19+06:00,
1000000000348341,77476669776,mMTS,mKarTel,mMTS,D01,D77,2017-03-17T12:37:51+06:00,
1000000000348464,77007007091,mKcell,mAltel,mAltel,,D02,2017-03-17T12:30:15+06:00,
1000000000348465,77076806826,mKcell,mMTS,mMTS,,D02,2017-03-17T12:30:58+06:00,
1000000000348466,77003622661,mKcell,mAltel,mAltel,,D02,2017-03-17T12:31:20+06:00,
1000000000348467,77710448053,mMTS,mKarTel,mKarTel,,D77,2017-03-17T12:46:48+06:00,
1000000000348469,77718730105,mAltel,mKarTel,mKarTel,,D07,2017-03-17T12:33:10+06:00,
1000000000348470,77777964904,mMTS,mKarTel,mKarTel,,D77,2017-03-17T12:33:11+06:00,
1000000000348471,77022913778,mKcell,mMTS,mKcell,D77,D02,2017-03-17T12:33:09+06:00,
1000000000348472,77753580133,mKcell,mMTS,mKcell,D77,D02,2017-03-17T12:33:28+06:00,
1000000000348473,77052172197,mMTS,mKarTel,mKarTel,,D77,2017-03-17T12:34:10+06:00,
1000000000348476,77787887436,mKarTel,mKcell,mKcell,,D01,2017-03-17T12:38:35+06:00,
1000000000348477,77477891982,mAltel,mMTS,mMTS,,D07,2017-03-17T12:38:24+06:00,
1000000000348478,77019335534,mKarTel,mKcell,mKcell,,D01,2017-03-17T12:38:48+06:00,
1000000000348479,77015229552,mKarTel,mKcell,mKcell,,D01,2017-03-17T12:38:49+06:00,
1000000000348481,77025671188,mKcell,mMTS,mKcell,D77,D02,2017-03-17T12:38:53+06:00,
1000000000348485,77711400065,mKcell,mKarTel,mKarTel,,D02,2017-03-17T12:42:01+06:00,
1000000000348486,77751032873,mKcell,mMTS,mKcell,D77,D02,2017-03-17T12:42:05+06:00,
1000000000348487,77017335394,mKarTel,mKcell,mKcell,,D01,2017-03-17T12:42:15+06:00,
1000000000348488,77007007095,mKcell,mAltel,mAltel,,D02,2017-03-17T12:44:01+06:00,
1000000000348489,77007007087,mKcell,mAltel,mAltel,,D02,2017-03-17T12:44:07+06:00,
1000000000348490,77006027977,mKcell,mAltel,mAltel,,D02,2017-03-17T12:44:24+06:00,
1000000000348492,77782747610,mMTS,mKcell,mKcell,,D77,2017-03-17T12:47:49+06:00,
1000000000348493,77751718461,mMTS,mKcell,mKcell,,D77,2017-03-17T12:47:58+06:00,
1000000000348495,77025555195,mAltel,mKcell,mKcell,,D07,2017-03-17T12:49:29+06:00,
1000000000348496,77055419225,mMTS,mKarTel,mKarTel,,D77,2017-03-17T12:50:22+06:00,
1000000000348506,77007775540,mKcell,mKarTel,mAltel,D01,D02,2017-03-17T12:58:58+06:00,
1000000000348508,77056036686,mAltel,mKarTel,mKarTel,,D07,2017-03-17T12:59:07+06:00,
1000000000348511,77015366056,mKarTel,mKcell,mKcell,,D01,2017-03-17T12:59:39+06:00,
1000000000348512,77753122558,mMTS,mKcell,mKcell,,D77,2017-03-17T12:59:36+06:00,
