NPId,Number,RecipientId,DonorId,RangeHolderId,OldRoute,NewRoute,PortDate,RowCount
1000000000252238,77012185060,mKarTel,mKcell,mKcell,,D01,2016-09-28T14:04:26+06:00,45
1000000000252238,77012282071,mKarTel,mKcell,mKcell,,D01,2016-09-28T14:04:26+06:00,
1000000000252238,77012529709,mKarTel,mKcell,mKcell,,D01,2016-09-28T14:04:26+06:00,
1000000000252238,77017942951,mKarTel,mKcell,mKcell,,D01,2016-09-28T14:04:26+06:00,
1000000000252238,77017942952,mKarTel,mKcell,mKcell,,D01,2016-09-28T14:04:26+06:00,
1000000000252238,77017942957,mKarTel,mKcell,mKcell,,D01,2016-09-28T14:04:26+06:00,
1000000000252238,77017942958,mKarTel,mKcell,mKcell,,D01,2016-09-28T14:04:26+06:00,
1000000000252238,77017942959,mKarTel,mKcell,mKcell,,D01,2016-09-28T14:04:26+06:00,
1000000000252238,77019242285,mKarTel,mKcell,mKcell,,D01,2016-09-28T14:04:26+06:00,
1000000000252238,77019246319,mKarTel,mKcell,mKcell,,D01,2016-09-28T14:04:26+06:00,
1000000000252238,77019516575,mKarTel,mKcell,mKcell,,D01,2016-09-28T14:04:26+06:00,
1000000000252580,77472230254,mKcell,mMTS,mMTS,,D02,2016-09-28T14:00:47+06:00,
1000000000252581,77079099933,mKcell,mMTS,mMTS,,D02,2016-09-28T14:01:21+06:00,
1000000000252582,77754888303,mKcell,mMTS,mKcell,D77,D02,2016-09-28T14:01:30+06:00,
1000000000252583,77751159000,mAltel,mKcell,mKcell,,D07,2016-09-28T14:01:52+06:00,
1000000000252584,77772307027,mMTS,mKarTel,mKarTel,,D77,2016-09-28T14:04:27+06:00,
1000000000252585,77025222948,mKarTel,mKcell,mKcell,,D01,2016-09-28T14:03:27+06:00,
1000000000252588,77770747373,mKcell,mKarTel,mKarTel,,D02,2016-09-28T14:06:29+06:00,
1000000000252589,77476022494,mAltel,mMTS,mMTS,,D07,2016-09-28T14:03:37+06:00,
1000000000252591,77754736853,mKcell,mAltel,mKcell,D07,D02,2016-09-28T14:05:13+06:00,
1000000000252592,77751060084,mMTS,mKcell,mKcell,,D77,2016-09-28T14:05:35+06:00,
1000000000252593,77767687000,mKcell,mKarTel,mKarTel,,D02,2016-09-28T14:08:33+06:00,
1000000000252594,77776510338,mKcell,mKarTel,mKarTel,,D02,2016-09-28T14:08:42+06:00,
1000000000252595,77001526484,mMTS,mAltel,mAltel,,D77,2016-09-28T14:07:26+06:00,
1000000000252596,77014772921,mKarTel,mKcell,mKcell,,D01,2016-09-28T14:09:20+06:00,
1000000000252600,77774780552,mKcell,mKarTel,mKarTel,,D02,2016-09-28T14:13:13+06:00,
1000000000252603,77017485932,mMTS,mKcell,mKcell,,D77,2016-09-28T14:11:58+06:00,
1000000000252604,77762091260,mMTS,mKarTel,mKarTel,,D77,2016-09-28T14:15:51+06:00,
1000000000252605,77057935444,mMTS,mKarTel,mKarTel,,D77,2016-09-28T14:16:46+06:00,
1000000000252607,77011254925,mMTS,mKcell,mKcell,,D77,2016-09-28T14:15:54+06:00,
1000000000252608,77017337108,mKcell,mKarTel,mKcell,D01,D02,2016-09-28T14:19:50+06:00,
1000000000252609,77714642954,mMTS,mKarTel,mKarTel,,D77,2016-09-28T14:20:27+06:00,
1000000000252610,77781736843,mMTS,mKcell,mKcell,,D77,2016-09-28T14:17:30+06:00,
1000000000252611,77025817738,mMTS,mKcell,mKcell,,D77,2016-09-28T14:18:23+06:00,
1000000000252613,77788882218,mAltel,mKcell,mKcell,,D07,2016-09-28T14:19:27+06:00,
1000000000252615,77479878999,mKcell,mMTS,mMTS,,D02,2016-09-28T14:21:08+06:00,
1000000000252616,77027177989,mAltel,mKcell,mKcell,,D07,2016-09-28T14:21:29+06:00,
1000000000252617,77013990557,mKarTel,mKcell,mKcell,,D01,2016-09-28T14:23:20+06:00,
1000000000252618,77015011536,mKarTel,mKcell,mKcell,,D01,2016-09-28T14:24:19+06:00,
1000000000252619,77025817728,mMTS,mKcell,mKcell,,D77,2016-09-28T14:23:53+06:00,
1000000000252620,77767701010,mKarTel,mMTS,mKarTel,D77,D01,2016-09-28T14:25:12+06:00,
1000000000252622,77026539009,mKcell,mMTS,mKcell,D77,D02,2016-09-28T14:25:46+06:00,
1000000000252623,77762000060,mKcell,mKarTel,mKarTel,,D02,2016-09-28T14:29:05+06:00,
1000000000252624,77005353355,mMTS,mKcell,mAltel,D02,D77,2016-09-28T14:27:38+06:00,
1000000000252626,77077011026,mMTS,mAltel,mMTS,D07,D77,2016-09-28T14:28:19+06:00,
