NPId,Number,RecipientId,DonorId,RangeHolderId,OldRoute,NewRoute,PortDate,RowCount
1000000000005364,77076990124,mKcell,mMTS,mMTS,,D02,2016-01-09T10:31:34+06:00,12
1000000000005365,77083331118,mKcell,mAltel,mAltel,,D02,2016-01-09T10:31:39+06:00,
1000000000005366,77029211090,mAltel,mKcell,mKcell,,D07,2016-01-09T10:32:11+06:00,
1000000000005368,77757770055,mAltel,mKcell,mKcell,,D07,2016-01-09T10:35:04+06:00,
1000000000005370,77076990125,mKcell,mMTS,mMTS,,D02,2016-01-09T10:37:55+06:00,
1000000000005372,77477403101,mAltel,mMTS,mMTS,,D07,2016-01-09T10:43:41+06:00,
1000000000005373,77078384774,mAltel,mMTS,mMTS,,D07,2016-01-09T10:44:02+06:00,
1000000000005374,77077048000,mAltel,mMTS,mMTS,,D07,2016-01-09T10:44:36+06:00,
1000000000005375,77776035306,mAltel,mKarTel,mKarTel,,D07,2016-01-09T10:49:46+06:00,
1000000000005376,77052220104,mAltel,mKarTel,mKarTel,,D07,2016-01-09T10:49:56+06:00,
1000000000005377,77017159404,mAltel,mKcell,mKcell,,D07,2016-01-09T10:56:33+06:00,
1000000000005379,77018888777,mAltel,mKcell,mKcell,,D07,2016-01-09T10:58:51+06:00,
