NPId,Number,RecipientId,DonorId,RangeHolderId,OldRoute,NewRoute,PortDate,RowCount
1000000000385133,77781271480,mKarTel,mKcell,mKcell,,D01,2017-05-18T14:01:08+06:00,27
1000000000385135,77028770555,mKcell,mKarTel,mKcell,D01,D02,2017-05-18T14:02:12+06:00,
1000000000385136,77771092578,mAltel,mKarTel,mKarTel,,D07,2017-05-18T14:05:44+06:00,
1000000000385137,77081653565,mMTS,mAltel,mAltel,,D77,2017-05-18T14:06:38+06:00,
1000000000385138,77011635119,mKcell,mMTS,mKcell,D77,D02,2017-05-18T14:06:58+06:00,
1000000000385139,77712964868,mKarTel,mMTS,mKarTel,D77,D01,2017-05-18T14:07:22+06:00,
1000000000385140,77781146565,mMTS,mKcell,mKcell,,D77,2017-05-18T14:07:50+06:00,
1000000000385141,77473030844,mKarTel,mMTS,mMTS,,D01,2017-05-18T14:08:05+06:00,
1000000000385142,77083112112,mAltel,mKarTel,mAltel,D01,D07,2017-05-18T14:08:55+06:00,
1000000000385143,77477022211,mAltel,mMTS,mMTS,,D07,2017-05-18T14:09:49+06:00,
1000000000385144,77051933331,mMTS,mKarTel,mKarTel,,D77,2017-05-18T14:11:23+06:00,
1000000000385145,77752387007,mMTS,mKcell,mKcell,,D77,2017-05-18T14:11:24+06:00,
1000000000385146,77077731994,mKcell,mMTS,mMTS,,D02,2017-05-18T14:13:37+06:00,
1000000000385147,77475012425,mAltel,mMTS,mMTS,,D07,2017-05-18T14:13:39+06:00,
1000000000385148,77006202077,mMTS,mAltel,mAltel,,D77,2017-05-18T14:14:46+06:00,
1000000000385149,77013701715,mKcell,mKarTel,mKcell,D01,D02,2017-05-18T14:15:54+06:00,
1000000000385150,77006003222,mAltel,mMTS,mAltel,D77,D07,2017-05-18T14:16:10+06:00,
1000000000385152,77781077705,mKcell,mMTS,mKcell,D77,D02,2017-05-18T14:16:34+06:00,
1000000000385154,77778792310,mKarTel,mMTS,mKarTel,D77,D01,2017-05-18T14:17:18+06:00,
1000000000385155,77756995474,mMTS,mKcell,mKcell,,D77,2017-05-18T14:18:23+06:00,
1000000000385156,77051000646,mKarTel,mMTS,mKarTel,D77,D01,2017-05-18T14:18:40+06:00,
1000000000385158,77017211263,mMTS,mKcell,mKcell,,D77,2017-05-18T14:22:53+06:00,
1000000000385159,77014253407,mKarTel,mKcell,mKcell,,D01,2017-05-18T14:24:23+06:00,
1000000000385160,77004340709,mMTS,mAltel,mAltel,,D77,2017-05-18T14:24:59+06:00,
1000000000385161,77073190885,mKcell,mMTS,mMTS,,D02,2017-05-18T14:26:22+06:00,
1000000000385163,77019084635,mMTS,mKcell,mKcell,,D77,2017-05-18T14:28:12+06:00,
1000000000385164,77779365163,mMTS,mKarTel,mKarTel,,D77,2017-05-18T14:28:43+06:00,
