NPId,Number,RecipientId,DonorId,RangeHolderId,OldRoute,NewRoute,PortDate,RowCount
1000000000260247,77715060961,mKcell,mKarTel,mKarTel,,D02,2016-10-11T09:53:37+06:00,6
1000000000260248,77017177298,mMTS,mKcell,mKcell,,D77,2016-10-11T09:32:48+06:00,
1000000000260249,77080474504,mMTS,mAltel,mAltel,,D77,2016-10-11T09:35:41+06:00,
1000000000260250,77019960398,mAltel,mKcell,mKcell,,D07,2016-10-11T09:36:24+06:00,
1000000000260251,77016407644,mAltel,mKcell,mKcell,,D07,2016-10-11T09:39:47+06:00,
1000000000260252,77013368372,mKarTel,mKcell,mKcell,,D01,2016-10-11T09:44:18+06:00,
