NPId,Number,RecipientId,DonorId,RangeHolderId,OldRoute,NewRoute,PortDate,RowCount
1000000000165990,77054711177,mKcell,mKarTel,mKarTel,,D02,2016-05-03T13:24:23+06:00,33
1000000000166060,77752612929,mKcell,mMTS,mKcell,D77,D02,2016-05-03T13:00:41+06:00,
1000000000166062,77012068921,mAltel,mKcell,mKcell,,D07,2016-05-03T13:01:45+06:00,
1000000000166063,77019492978,mAltel,mKcell,mKcell,,D07,2016-05-03T13:02:33+06:00,
1000000000166064,77017755292,mMTS,mKcell,mKcell,,D77,2016-05-03T13:02:29+06:00,
1000000000166065,77773575314,mMTS,mKarTel,mKarTel,,D77,2016-05-03T13:02:51+06:00,
1000000000166066,77471982883,mMTS,mAltel,mMTS,D07,D77,2016-05-03T13:02:39+06:00,
1000000000166067,77771129977,mKarTel,mMTS,mKarTel,D77,D01,2016-05-03T13:02:54+06:00,
1000000000166068,77011118231,mKarTel,mAltel,mKcell,D07,D01,2016-05-03T13:03:17+06:00,
1000000000166069,77003782392,mKarTel,mAltel,mAltel,,D01,2016-05-03T13:04:48+06:00,
1000000000166071,77086557981,mMTS,mAltel,mAltel,,D77,2016-05-03T13:05:16+06:00,
1000000000166073,77086557980,mMTS,mAltel,mAltel,,D77,2016-05-03T13:06:53+06:00,
1000000000166075,77763957666,mMTS,mKarTel,mKarTel,,D77,2016-05-03T13:07:59+06:00,
1000000000166076,77027304747,mMTS,mKcell,mKcell,,D77,2016-05-03T13:07:53+06:00,
1000000000166078,77028880247,mMTS,mKcell,mKcell,,D77,2016-05-03T13:08:11+06:00,
1000000000166079,77773639510,mMTS,mAltel,mKarTel,D07,D77,2016-05-03T13:08:42+06:00,
1000000000166080,77759369911,mAltel,mKcell,mKcell,,D07,2016-05-03T13:09:37+06:00,
1000000000166082,77017334686,mMTS,mKcell,mKcell,,D77,2016-05-03T13:22:46+06:00,
1000000000166083,77072447336,mMTS,mAltel,mMTS,D07,D77,2016-05-03T13:12:58+06:00,
1000000000166084,77000991000,mMTS,mAltel,mAltel,,D77,2016-05-03T13:13:32+06:00,
1000000000166086,77010466669,mMTS,mKcell,mKcell,,D77,2016-05-03T13:24:34+06:00,
1000000000166087,77087576424,mMTS,mAltel,mAltel,,D77,2016-05-03T13:15:33+06:00,
1000000000166088,77015187338,mMTS,mKcell,mKcell,,D77,2016-05-03T13:24:34+06:00,
1000000000166089,77056428160,mMTS,mKarTel,mKarTel,,D77,2016-05-03T13:17:22+06:00,
1000000000166090,77083601763,mMTS,mAltel,mAltel,,D77,2016-05-03T13:18:15+06:00,
1000000000166091,77712915880,mMTS,mKarTel,mKarTel,,D77,2016-05-03T13:18:48+06:00,
1000000000166092,77026152291,mMTS,mKcell,mKcell,,D77,2016-05-03T13:24:34+06:00,
1000000000166093,77087618836,mMTS,mAltel,mAltel,,D77,2016-05-03T13:21:43+06:00,
1000000000166094,77754311112,mMTS,mKcell,mKcell,,D77,2016-05-03T13:25:41+06:00,
1000000000166096,77017499002,mKcell,mAltel,mKcell,D07,D02,2016-05-03T13:27:57+06:00,
1000000000166098,77026469666,mAltel,mKcell,mKcell,,D07,2016-05-03T13:27:00+06:00,
1000000000166099,77714039634,mMTS,mAltel,mKarTel,D07,D77,2016-05-03T13:26:19+06:00,
1000000000166100,77089167876,mMTS,mAltel,mAltel,,D77,2016-05-03T13:26:30+06:00,
