NPId,Number,RecipientId,DonorId,RangeHolderId,OldRoute,NewRoute,PortDate,RowCount
1000000000368529,77013804222,mKarTel,mKcell,mKcell,,D01,2017-04-19T17:00:23+06:00,31
1000000000368530,77007007068,mKcell,mAltel,mAltel,,D02,2017-04-19T17:01:02+06:00,
1000000000368531,77019158558,mMTS,mKcell,mKcell,,D77,2017-04-19T17:02:59+06:00,
1000000000368532,77071600320,mKcell,mMTS,mMTS,,D02,2017-04-19T17:05:35+06:00,
1000000000368533,77479888906,mKcell,mMTS,mMTS,,D02,2017-04-19T17:09:12+06:00,
1000000000368534,77786768682,mAltel,mKcell,mKcell,,D07,2017-04-19T17:09:03+06:00,
1000000000368536,77760790006,mAltel,mKarTel,mKarTel,,D07,2017-04-19T17:10:40+06:00,
1000000000368537,77074027474,mAltel,mMTS,mMTS,,D07,2017-04-19T17:10:34+06:00,
1000000000368538,77007007056,mKcell,mAltel,mAltel,,D02,2017-04-19T17:10:56+06:00,
1000000000368539,77477314774,mKarTel,mMTS,mMTS,,D01,2017-04-19T17:10:59+06:00,
1000000000368540,77473110658,mKarTel,mMTS,mMTS,,D01,2017-04-19T17:11:56+06:00,
1000000000368541,77017662768,mMTS,mKcell,mKcell,,D77,2017-04-19T17:12:38+06:00,
1000000000368543,77751880888,mMTS,mKcell,mKcell,,D77,2017-04-19T17:13:33+06:00,
1000000000368545,77026232352,mMTS,mKcell,mKcell,,D77,2017-04-19T17:15:44+06:00,
1000000000368546,77014058407,mKcell,mMTS,mKcell,D77,D02,2017-04-19T17:16:22+06:00,
1000000000368547,77054500202,mKarTel,mMTS,mKarTel,D77,D01,2017-04-19T17:16:42+06:00,
1000000000368550,77082001317,mKcell,mAltel,mAltel,,D02,2017-04-19T17:17:17+06:00,
1000000000368551,77017805261,mKarTel,mKcell,mKcell,,D01,2017-04-19T17:17:44+06:00,
1000000000368552,77470597187,mKarTel,mMTS,mMTS,,D01,2017-04-19T17:17:35+06:00,
1000000000368553,77014339433,mKarTel,mKcell,mKcell,,D01,2017-04-19T17:18:14+06:00,
1000000000368555,77077017979,mKarTel,mMTS,mMTS,,D01,2017-04-19T17:20:00+06:00,
1000000000368556,77018171723,mKcell,mMTS,mKcell,D77,D02,2017-04-19T17:20:16+06:00,
1000000000368558,77715185050,mKcell,mKarTel,mKarTel,,D02,2017-04-19T17:21:10+06:00,
1000000000368559,77028994824,mKarTel,mKcell,mKcell,,D01,2017-04-19T17:20:49+06:00,
1000000000368560,77754094055,mKarTel,mKcell,mKcell,,D01,2017-04-19T17:22:41+06:00,
1000000000368561,77057070005,mKcell,mKarTel,mKarTel,,D02,2017-04-19T17:25:07+06:00,
1000000000368562,77028578859,mMTS,mKcell,mKcell,,D77,2017-04-19T17:24:49+06:00,
1000000000368563,77087030101,mKarTel,mAltel,mAltel,D07,D01,2017-04-19T17:27:58+06:00,
1000000000368564,77475552777,mKcell,mMTS,mMTS,,D02,2017-04-19T17:28:26+06:00,
1000000000368565,77757790345,mKcell,mMTS,mKcell,D77,D02,2017-04-19T17:28:54+06:00,
1000000000368566,77029405050,mKarTel,mKcell,mKcell,,D01,2017-04-19T17:29:08+06:00,
