NPId,Number,RecipientId,DonorId,RangeHolderId,OldRoute,NewRoute,PortDate,RowCount
1000000000364424,77054014466,mMTS,mKarTel,mKarTel,,D77,2017-04-12T10:31:54+06:00,19
1000000000364425,77007774191,mKcell,mAltel,mAltel,,D02,2017-04-12T10:32:17+06:00,
1000000000364426,77007771434,mKcell,mAltel,mAltel,,D02,2017-04-12T10:34:19+06:00,
1000000000364427,77015215755,mKarTel,mAltel,mKcell,D07,D01,2017-04-12T10:37:11+06:00,
1000000000364428,77079222257,mKarTel,mMTS,mMTS,,D01,2017-04-12T10:37:22+06:00,
1000000000364429,77007774181,mKcell,mAltel,mAltel,,D02,2017-04-12T10:37:30+06:00,
1000000000364430,77777777353,mKcell,mKarTel,mKarTel,,D02,2017-04-12T10:40:50+06:00,
1000000000364431,77057661242,mMTS,mKarTel,mKarTel,,D77,2017-04-12T10:41:09+06:00,
1000000000364432,77028797981,mKcell,mMTS,mKcell,D77,D02,2017-04-12T10:41:42+06:00,
1000000000364433,77759289911,mKarTel,mKcell,mKcell,,D01,2017-04-12T10:42:54+06:00,
1000000000364435,77015381391,mKarTel,mKcell,mKcell,,D01,2017-04-12T10:45:03+06:00,
1000000000364436,77007774323,mKcell,mAltel,mAltel,,D02,2017-04-12T10:48:32+06:00,
1000000000364438,77007772353,mKcell,mAltel,mAltel,,D02,2017-04-12T10:51:37+06:00,
1000000000364439,77026155531,mKarTel,mKcell,mKcell,,D01,2017-04-12T10:51:46+06:00,
1000000000364440,77082260177,mMTS,mAltel,mAltel,,D77,2017-04-12T10:52:44+06:00,
1000000000364442,77029156243,mMTS,mKcell,mKcell,,D77,2017-04-12T10:57:22+06:00,
1000000000364443,77007772646,mKcell,mAltel,mAltel,,D02,2017-04-12T10:57:54+06:00,
1000000000364444,77022539453,mKcell,mMTS,mKcell,D77,D02,2017-04-12T10:58:37+06:00,
1000000000364445,77761243804,mAltel,mKarTel,mKarTel,,D07,2017-04-12T10:58:53+06:00,
