NPId,Number,RecipientId,DonorId,RangeHolderId,OldRoute,NewRoute,PortDate,RowCount
1000000000439110,77000505005,mKcell,mAltel,mAltel,,D02,2017-08-12T18:10:30+06:00,3
1000000000439111,77776778630,mMTS,mKarTel,mKarTel,,D77,2017-08-12T18:18:23+06:00,
1000000000439113,77072075676,mKcell,mMTS,mMTS,,D02,2017-08-12T18:21:41+06:00,
