NPId,Number,RecipientId,DonorId,RangeHolderId,OldRoute,NewRoute,PortDate,RowCount
1000000000215064,77015244593,mKarTel,mKcell,mKcell,,D01,2016-07-22T16:31:33+06:00,116
1000000000215064,77019510236,mKarTel,mKcell,mKcell,,D01,2016-07-22T16:31:33+06:00,
1000000000215064,77019800256,mKarTel,mKcell,mKcell,,D01,2016-07-22T16:31:33+06:00,
1000000000215234,77717580065,mKcell,mKarTel,mKarTel,,D02,2016-07-22T16:33:36+06:00,
1000000000215234,77717580067,mKcell,mKarTel,mKarTel,,D02,2016-07-22T16:33:36+06:00,
1000000000215234,77717580069,mKcell,mKarTel,mKarTel,,D02,2016-07-22T16:33:36+06:00,
1000000000215234,77717580071,mKcell,mKarTel,mKarTel,,D02,2016-07-22T16:33:36+06:00,
1000000000215234,77717580072,mKcell,mKarTel,mKarTel,,D02,2016-07-22T16:33:36+06:00,
1000000000215234,77717580073,mKcell,mKarTel,mKarTel,,D02,2016-07-22T16:33:36+06:00,
1000000000215234,77717580074,mKcell,mKarTel,mKarTel,,D02,2016-07-22T16:33:36+06:00,
1000000000215234,77717580075,mKcell,mKarTel,mKarTel,,D02,2016-07-22T16:33:36+06:00,
1000000000215234,77717580076,mKcell,mKarTel,mKarTel,,D02,2016-07-22T16:33:36+06:00,
1000000000215234,77717580078,mKcell,mKarTel,mKarTel,,D02,2016-07-22T16:33:36+06:00,
1000000000215234,77717580081,mKcell,mKarTel,mKarTel,,D02,2016-07-22T16:33:36+06:00,
1000000000215234,77717580089,mKcell,mKarTel,mKarTel,,D02,2016-07-22T16:33:36+06:00,
1000000000215234,77717580102,mKcell,mKarTel,mKarTel,,D02,2016-07-22T16:33:36+06:00,
1000000000215234,77717580103,mKcell,mKarTel,mKarTel,,D02,2016-07-22T16:33:36+06:00,
1000000000215234,77717580104,mKcell,mKarTel,mKarTel,,D02,2016-07-22T16:33:36+06:00,
1000000000215234,77717580105,mKcell,mKarTel,mKarTel,,D02,2016-07-22T16:33:36+06:00,
1000000000215234,77717580106,mKcell,mKarTel,mKarTel,,D02,2016-07-22T16:33:36+06:00,
1000000000215234,77717580146,mKcell,mKarTel,mKarTel,,D02,2016-07-22T16:33:36+06:00,
1000000000215234,77717580147,mKcell,mKarTel,mKarTel,,D02,2016-07-22T16:33:36+06:00,
1000000000215234,77717580149,mKcell,mKarTel,mKarTel,,D02,2016-07-22T16:33:36+06:00,
1000000000215234,77717580150,mKcell,mKarTel,mKarTel,,D02,2016-07-22T16:33:36+06:00,
1000000000215234,77717580151,mKcell,mKarTel,mKarTel,,D02,2016-07-22T16:33:36+06:00,
1000000000215234,77717580152,mKcell,mKarTel,mKarTel,,D02,2016-07-22T16:33:36+06:00,
1000000000215234,77717580153,mKcell,mKarTel,mKarTel,,D02,2016-07-22T16:33:36+06:00,
1000000000215234,77717580154,mKcell,mKarTel,mKarTel,,D02,2016-07-22T16:33:36+06:00,
1000000000215234,77717580155,mKcell,mKarTel,mKarTel,,D02,2016-07-22T16:33:36+06:00,
1000000000215234,77717580156,mKcell,mKarTel,mKarTel,,D02,2016-07-22T16:33:36+06:00,
1000000000215234,77717580157,mKcell,mKarTel,mKarTel,,D02,2016-07-22T16:33:36+06:00,
1000000000215234,77717580166,mKcell,mKarTel,mKarTel,,D02,2016-07-22T16:33:36+06:00,
1000000000215234,77717580167,mKcell,mKarTel,mKarTel,,D02,2016-07-22T16:33:36+06:00,
1000000000215234,77717580168,mKcell,mKarTel,mKarTel,,D02,2016-07-22T16:33:36+06:00,
1000000000215234,77717580169,mKcell,mKarTel,mKarTel,,D02,2016-07-22T16:33:36+06:00,
1000000000215234,77717580173,mKcell,mKarTel,mKarTel,,D02,2016-07-22T16:33:36+06:00,
1000000000215234,77717580174,mKcell,mKarTel,mKarTel,,D02,2016-07-22T16:33:36+06:00,
1000000000215234,77717580175,mKcell,mKarTel,mKarTel,,D02,2016-07-22T16:33:36+06:00,
1000000000215234,77717580200,mKcell,mKarTel,mKarTel,,D02,2016-07-22T16:33:36+06:00,
1000000000215234,77717580300,mKcell,mKarTel,mKarTel,,D02,2016-07-22T16:33:36+06:00,
1000000000215234,77717580303,mKcell,mKarTel,mKarTel,,D02,2016-07-22T16:33:36+06:00,
1000000000215234,77717580350,mKcell,mKarTel,mKarTel,,D02,2016-07-22T16:33:36+06:00,
1000000000215234,77717580386,mKcell,mKarTel,mKarTel,,D02,2016-07-22T16:33:36+06:00,
1000000000215234,77717580387,mKcell,mKarTel,mKarTel,,D02,2016-07-22T16:33:36+06:00,
1000000000215234,77717580388,mKcell,mKarTel,mKarTel,,D02,2016-07-22T16:33:36+06:00,
1000000000215234,77717580396,mKcell,mKarTel,mKarTel,,D02,2016-07-22T16:33:36+06:00,
1000000000215234,77717580397,mKcell,mKarTel,mKarTel,,D02,2016-07-22T16:33:36+06:00,
1000000000215234,77717580398,mKcell,mKarTel,mKarTel,,D02,2016-07-22T16:33:36+06:00,
1000000000215234,77717580399,mKcell,mKarTel,mKarTel,,D02,2016-07-22T16:33:36+06:00,
1000000000215234,77717580400,mKcell,mKarTel,mKarTel,,D02,2016-07-22T16:33:36+06:00,
1000000000215234,77717580401,mKcell,mKarTel,mKarTel,,D02,2016-07-22T16:33:36+06:00,
1000000000215234,77717580402,mKcell,mKarTel,mKarTel,,D02,2016-07-22T16:33:36+06:00,
1000000000215234,77717580403,mKcell,mKarTel,mKarTel,,D02,2016-07-22T16:33:36+06:00,
1000000000215234,77717580473,mKcell,mKarTel,mKarTel,,D02,2016-07-22T16:33:36+06:00,
1000000000215234,77717580474,mKcell,mKarTel,mKarTel,,D02,2016-07-22T16:33:36+06:00,
1000000000215234,77717580475,mKcell,mKarTel,mKarTel,,D02,2016-07-22T16:33:36+06:00,
1000000000215234,77717580490,mKcell,mKarTel,mKarTel,,D02,2016-07-22T16:33:36+06:00,
1000000000215234,77717580491,mKcell,mKarTel,mKarTel,,D02,2016-07-22T16:33:36+06:00,
1000000000215234,77717580492,mKcell,mKarTel,mKarTel,,D02,2016-07-22T16:33:36+06:00,
1000000000215234,77717580493,mKcell,mKarTel,mKarTel,,D02,2016-07-22T16:33:36+06:00,
1000000000215234,77717580494,mKcell,mKarTel,mKarTel,,D02,2016-07-22T16:33:36+06:00,
1000000000215234,77717580495,mKcell,mKarTel,mKarTel,,D02,2016-07-22T16:33:36+06:00,
1000000000215234,77717580496,mKcell,mKarTel,mKarTel,,D02,2016-07-22T16:33:36+06:00,
1000000000215234,77717580506,mKcell,mKarTel,mKarTel,,D02,2016-07-22T16:33:36+06:00,
1000000000215234,77717580507,mKcell,mKarTel,mKarTel,,D02,2016-07-22T16:33:36+06:00,
1000000000215234,77717580508,mKcell,mKarTel,mKarTel,,D02,2016-07-22T16:33:36+06:00,
1000000000215234,77717580511,mKcell,mKarTel,mKarTel,,D02,2016-07-22T16:33:36+06:00,
1000000000215234,77717580512,mKcell,mKarTel,mKarTel,,D02,2016-07-22T16:33:36+06:00,
1000000000215234,77717580513,mKcell,mKarTel,mKarTel,,D02,2016-07-22T16:33:36+06:00,
1000000000215234,77717580514,mKcell,mKarTel,mKarTel,,D02,2016-07-22T16:33:36+06:00,
1000000000215234,77717580516,mKcell,mKarTel,mKarTel,,D02,2016-07-22T16:33:36+06:00,
1000000000215234,77717580517,mKcell,mKarTel,mKarTel,,D02,2016-07-22T16:33:36+06:00,
1000000000215234,77717580518,mKcell,mKarTel,mKarTel,,D02,2016-07-22T16:33:36+06:00,
1000000000215234,77717580519,mKcell,mKarTel,mKarTel,,D02,2016-07-22T16:33:36+06:00,
1000000000215234,77717580521,mKcell,mKarTel,mKarTel,,D02,2016-07-22T16:33:36+06:00,
1000000000215234,77717580522,mKcell,mKarTel,mKarTel,,D02,2016-07-22T16:33:36+06:00,
1000000000215234,77717580523,mKcell,mKarTel,mKarTel,,D02,2016-07-22T16:33:36+06:00,
1000000000215234,77717580524,mKcell,mKarTel,mKarTel,,D02,2016-07-22T16:33:36+06:00,
1000000000215234,77717580528,mKcell,mKarTel,mKarTel,,D02,2016-07-22T16:33:36+06:00,
1000000000215234,77717580531,mKcell,mKarTel,mKarTel,,D02,2016-07-22T16:33:36+06:00,
1000000000215234,77717580535,mKcell,mKarTel,mKarTel,,D02,2016-07-22T16:33:36+06:00,
1000000000215234,77717580536,mKcell,mKarTel,mKarTel,,D02,2016-07-22T16:33:36+06:00,
1000000000215234,77717580537,mKcell,mKarTel,mKarTel,,D02,2016-07-22T16:33:36+06:00,
1000000000215234,77717580539,mKcell,mKarTel,mKarTel,,D02,2016-07-22T16:33:36+06:00,
1000000000215234,77717580546,mKcell,mKarTel,mKarTel,,D02,2016-07-22T16:33:36+06:00,
1000000000215234,77717580547,mKcell,mKarTel,mKarTel,,D02,2016-07-22T16:33:36+06:00,
1000000000215234,77717580550,mKcell,mKarTel,mKarTel,,D02,2016-07-22T16:33:36+06:00,
1000000000215234,77717580553,mKcell,mKarTel,mKarTel,,D02,2016-07-22T16:33:36+06:00,
1000000000215234,77717580554,mKcell,mKarTel,mKarTel,,D02,2016-07-22T16:33:36+06:00,
1000000000215234,77717580556,mKcell,mKarTel,mKarTel,,D02,2016-07-22T16:33:36+06:00,
1000000000215234,77717580557,mKcell,mKarTel,mKarTel,,D02,2016-07-22T16:33:36+06:00,
1000000000215234,77717580558,mKcell,mKarTel,mKarTel,,D02,2016-07-22T16:33:36+06:00,
1000000000215234,77717580566,mKcell,mKarTel,mKarTel,,D02,2016-07-22T16:33:36+06:00,
1000000000215234,77717580567,mKcell,mKarTel,mKarTel,,D02,2016-07-22T16:33:36+06:00,
1000000000215234,77717580569,mKcell,mKarTel,mKarTel,,D02,2016-07-22T16:33:36+06:00,
1000000000215234,77717580571,mKcell,mKarTel,mKarTel,,D02,2016-07-22T16:33:36+06:00,
1000000000215234,77717580572,mKcell,mKarTel,mKarTel,,D02,2016-07-22T16:33:36+06:00,
1000000000215234,77717580573,mKcell,mKarTel,mKarTel,,D02,2016-07-22T16:33:36+06:00,
1000000000215234,77717580574,mKcell,mKarTel,mKarTel,,D02,2016-07-22T16:33:36+06:00,
1000000000215234,77717580575,mKcell,mKarTel,mKarTel,,D02,2016-07-22T16:33:36+06:00,
1000000000215234,77717580576,mKcell,mKarTel,mKarTel,,D02,2016-07-22T16:33:36+06:00,
1000000000215234,77717580579,mKcell,mKarTel,mKarTel,,D02,2016-07-22T16:33:36+06:00,
1000000000215234,77717580581,mKcell,mKarTel,mKarTel,,D02,2016-07-22T16:33:36+06:00,
1000000000215646,77775859242,mMTS,mKarTel,mKarTel,,D77,2016-07-22T16:31:36+06:00,
1000000000215647,77012887204,mMTS,mKcell,mKcell,,D77,2016-07-22T16:32:38+06:00,
1000000000215648,77024707327,mMTS,mKcell,mKcell,,D77,2016-07-22T16:32:41+06:00,
1000000000215650,77051836226,mAltel,mKarTel,mKarTel,,D07,2016-07-22T16:40:46+06:00,
1000000000215651,77025662388,mKcell,mMTS,mKcell,D77,D02,2016-07-22T16:40:05+06:00,
1000000000215654,77014343432,mMTS,mKcell,mKcell,,D77,2016-07-22T16:43:39+06:00,
1000000000215657,77777622470,mKarTel,mAltel,mKarTel,D07,D01,2016-07-22T16:48:04+06:00,
1000000000215659,77007010010,mKcell,mAltel,mAltel,,D02,2016-07-22T16:50:07+06:00,
1000000000215660,77778230303,mMTS,mKarTel,mKarTel,,D77,2016-07-22T16:52:13+06:00,
1000000000215661,77089503006,mMTS,mAltel,mAltel,,D77,2016-07-22T16:51:12+06:00,
1000000000215662,77029267560,mMTS,mKcell,mKcell,,D77,2016-07-22T16:51:36+06:00,
1000000000215665,77751774628,mKarTel,mKcell,mKcell,,D01,2016-07-22T16:57:46+06:00,
1000000000215667,77057111030,mMTS,mKarTel,mKarTel,,D77,2016-07-22T16:58:46+06:00,
