NPId,Number,RecipientId,DonorId,RangeHolderId,OldRoute,NewRoute,PortDate,RowCount
1000000000167774,77754622023,mMTS,mAltel,mKcell,D07,D77,2016-05-05T09:30:53+06:00,12
1000000000167775,77017404411,mMTS,mKcell,mKcell,,D77,2016-05-05T09:31:36+06:00,
1000000000167776,77761931973,mMTS,mKarTel,mKarTel,,D77,2016-05-05T09:32:48+06:00,
1000000000167777,77784787878,mMTS,mKcell,mKcell,,D77,2016-05-05T09:33:12+06:00,
1000000000167779,77015441608,mMTS,mKcell,mKcell,,D77,2016-05-05T09:38:13+06:00,
1000000000167780,77012173337,mKcell,mMTS,mKcell,D77,D02,2016-05-05T09:39:45+06:00,
1000000000167782,77019474407,mMTS,mKcell,mKcell,,D77,2016-05-05T09:42:19+06:00,
1000000000167784,77056017026,mMTS,mKarTel,mKarTel,,D77,2016-05-05T09:47:15+06:00,
1000000000167785,77718623377,mMTS,mKarTel,mKarTel,,D77,2016-05-05T09:52:24+06:00,
1000000000167786,77083527016,mKcell,mAltel,mAltel,,D02,2016-05-05T09:55:54+06:00,
1000000000167789,77022911904,mKarTel,mKcell,mKcell,,D01,2016-05-05T09:57:35+06:00,
1000000000167790,77003080979,mMTS,mAltel,mAltel,,D77,2016-05-05T09:57:37+06:00,
