NPId,Number,RecipientId,DonorId,RangeHolderId,OldRoute,NewRoute,PortDate,RowCount
1000000000155261,77089999929,mKcell,mAltel,mAltel,,D02,2016-04-18T20:03:21+06:00,8
1000000000155262,77054977705,mMTS,mKarTel,mKarTel,,D77,2016-04-18T20:03:24+06:00,
1000000000155263,77758301111,mKarTel,mKcell,mKcell,,D01,2016-04-18T20:05:27+06:00,
1000000000155264,77002131212,mKcell,mAltel,mAltel,,D02,2016-04-18T20:05:55+06:00,
1000000000155265,77777067535,mMTS,mKarTel,mKarTel,,D77,2016-04-18T20:07:30+06:00,
1000000000155266,77077777048,mKcell,mMTS,mMTS,,D02,2016-04-18T20:07:57+06:00,
1000000000155267,77015596992,mMTS,mKcell,mKcell,,D77,2016-04-18T20:09:27+06:00,
1000000000155268,77025206350,mMTS,mKcell,mKcell,,D77,2016-04-18T20:11:48+06:00,
