NPId,Number,RecipientId,DonorId,RangeHolderId,OldRoute,NewRoute,PortDate,RowCount
1000000000291619,77019110902,mKarTel,mKcell,mKcell,,D01,2016-12-07T16:30:22+06:00,31
1000000000291621,77001909904,mKarTel,mAltel,mAltel,,D01,2016-12-07T16:31:20+06:00,
1000000000291622,77789995753,mKarTel,mKcell,mKcell,,D01,2016-12-07T16:31:40+06:00,
1000000000291623,77781529449,mMTS,mKcell,mKcell,,D77,2016-12-07T16:32:43+06:00,
1000000000291626,77077825986,mAltel,mMTS,mMTS,,D07,2016-12-07T16:35:24+06:00,
1000000000291627,77028864433,mMTS,mKcell,mKcell,,D77,2016-12-07T16:35:53+06:00,
1000000000291628,77018321010,mMTS,mAltel,mKcell,D07,D77,2016-12-07T16:37:07+06:00,
1000000000291630,77019518077,mAltel,mKcell,mKcell,,D07,2016-12-07T16:38:44+06:00,
1000000000291633,77785126614,mAltel,mKcell,mKcell,,D07,2016-12-07T16:40:42+06:00,
1000000000291635,77770021077,mKcell,mKarTel,mKarTel,,D02,2016-12-07T16:41:57+06:00,
1000000000291637,77075551055,mKarTel,mMTS,mMTS,,D01,2016-12-07T16:43:45+06:00,
1000000000291638,77013420814,mMTS,mKarTel,mKcell,D01,D77,2016-12-07T16:44:00+06:00,
1000000000291641,77012998666,mMTS,mKcell,mKcell,,D77,2016-12-07T16:45:29+06:00,
1000000000291643,77022610903,mAltel,mKcell,mKcell,,D07,2016-12-07T16:46:24+06:00,
1000000000291645,77026047470,mAltel,mKcell,mKcell,,D07,2016-12-07T16:47:59+06:00,
1000000000291646,77016718930,mMTS,mKcell,mKcell,,D77,2016-12-07T16:48:47+06:00,
1000000000291647,77016795594,mMTS,mKcell,mKcell,,D77,2016-12-07T16:49:09+06:00,
1000000000291648,77008880306,mKcell,mKarTel,mAltel,D01,D02,2016-12-07T16:50:16+06:00,
1000000000291650,77014635744,mMTS,mKcell,mKcell,,D77,2016-12-07T16:50:44+06:00,
1000000000291651,77017713169,mMTS,mKcell,mKcell,,D77,2016-12-07T16:50:48+06:00,
1000000000291652,77763965555,mMTS,mKarTel,mKarTel,,D77,2016-12-07T16:52:10+06:00,
1000000000291653,77076214590,mAltel,mMTS,mMTS,,D07,2016-12-07T16:52:10+06:00,
1000000000291654,77051892013,mMTS,mKarTel,mKarTel,,D77,2016-12-07T16:53:05+06:00,
1000000000291655,77771699141,mMTS,mKarTel,mKarTel,,D77,2016-12-07T16:53:46+06:00,
1000000000291656,77714888292,mAltel,mKarTel,mKarTel,,D07,2016-12-07T16:54:06+06:00,
1000000000291657,77089202992,mKcell,mAltel,mAltel,,D02,2016-12-07T16:54:21+06:00,
1000000000291658,77058748367,mAltel,mKarTel,mKarTel,,D07,2016-12-07T16:55:38+06:00,
1000000000291659,77779442929,mKcell,mKarTel,mKarTel,,D02,2016-12-07T16:56:44+06:00,
1000000000291660,77015253459,mMTS,mKcell,mKcell,,D77,2016-12-07T16:56:55+06:00,
1000000000291661,77476361002,mAltel,mMTS,mMTS,,D07,2016-12-07T16:57:18+06:00,
1000000000291662,77714747471,mMTS,mKarTel,mKarTel,,D77,2016-12-07T16:58:01+06:00,
