NPId,Number,RecipientId,DonorId,RangeHolderId,OldRoute,NewRoute,PortDate,RowCount
1000000000438659,77071776845,mMTS,mKarTel,mMTS,D01,D77,2017-08-11T19:01:11+06:00,11
1000000000438660,77005202091,mKarTel,mAltel,mAltel,,D01,2017-08-11T19:03:08+06:00,
1000000000438665,77005202092,mKarTel,mAltel,mAltel,,D01,2017-08-11T19:04:34+06:00,
1000000000438667,77005202090,mKarTel,mAltel,mAltel,,D01,2017-08-11T19:05:40+06:00,
1000000000438668,77072011599,mAltel,mMTS,mMTS,,D07,2017-08-11T19:06:12+06:00,
1000000000438669,77028825231,mKarTel,mMTS,mKcell,D77,D01,2017-08-11T19:07:31+06:00,
1000000000438670,77013565114,mKcell,mMTS,mKcell,D77,D02,2017-08-11T19:09:47+06:00,
1000000000438671,77474988441,mKcell,mMTS,mMTS,,D02,2017-08-11T19:15:46+06:00,
1000000000438672,77771776845,mMTS,mKarTel,mKarTel,,D77,2017-08-11T19:16:11+06:00,
1000000000438673,77022515793,mKcell,mMTS,mKcell,D77,D02,2017-08-11T19:25:50+06:00,
1000000000438675,77000040004,mKarTel,mAltel,mAltel,,D01,2017-08-11T19:28:48+06:00,
