NPId,Number,RecipientId,DonorId,RangeHolderId,OldRoute,NewRoute,PortDate,RowCount
1000000000166134,77775332997,mKcell,mKarTel,mKarTel,,D02,2016-05-03T16:40:17+06:00,53
1000000000166480,77769443222,mKarTel,mKcell,mKarTel,D02,D01,2016-05-03T16:31:06+06:00,
1000000000166481,77021034939,mKarTel,mKcell,mKcell,,D01,2016-05-03T16:31:18+06:00,
1000000000166483,77022852122,mMTS,mKcell,mKcell,,D77,2016-05-03T16:32:09+06:00,
1000000000166484,77756839102,mKarTel,mKcell,mKcell,,D01,2016-05-03T16:32:55+06:00,
1000000000166487,77003564288,mMTS,mAltel,mAltel,,D77,2016-05-03T16:32:17+06:00,
1000000000166490,77753385538,mKarTel,mAltel,mKcell,D07,D01,2016-05-03T16:32:57+06:00,
1000000000166491,77786774795,mMTS,mKcell,mKcell,,D77,2016-05-03T16:33:27+06:00,
1000000000166492,77012477724,mMTS,mKcell,mKcell,,D77,2016-05-03T16:34:11+06:00,
1000000000166493,77087027373,mKarTel,mAltel,mAltel,,D01,2016-05-03T16:33:49+06:00,
1000000000166494,77019524888,mMTS,mKcell,mKcell,,D77,2016-05-03T16:35:29+06:00,
1000000000166495,77021751651,mMTS,mKcell,mKcell,,D77,2016-05-03T16:35:28+06:00,
1000000000166496,77026089691,mKarTel,mKcell,mKcell,,D01,2016-05-03T16:37:55+06:00,
1000000000166497,77012327000,mKarTel,mKcell,mKcell,,D01,2016-05-03T16:37:53+06:00,
1000000000166498,77019624052,mMTS,mKcell,mKcell,,D77,2016-05-03T16:38:15+06:00,
1000000000166499,77017392063,mMTS,mKcell,mKcell,,D77,2016-05-03T16:38:16+06:00,
1000000000166500,77007996250,mMTS,mAltel,mAltel,,D77,2016-05-03T16:37:03+06:00,
1000000000166501,77758218054,mKarTel,mKcell,mKcell,,D01,2016-05-03T16:40:06+06:00,
1000000000166502,77017663974,mKcell,mMTS,mKcell,D77,D02,2016-05-03T16:40:18+06:00,
1000000000166505,77019624055,mMTS,mKcell,mKcell,,D77,2016-05-03T16:42:43+06:00,
1000000000166507,77015927574,mMTS,mKcell,mKcell,,D77,2016-05-03T16:44:28+06:00,
1000000000166509,77074448414,mKcell,mMTS,mMTS,,D02,2016-05-03T16:45:31+06:00,
1000000000166512,77023106131,mKarTel,mKcell,mKcell,,D01,2016-05-03T16:46:38+06:00,
1000000000166514,77780003494,mMTS,mKcell,mKcell,,D77,2016-05-03T16:47:24+06:00,
1000000000166515,77015912442,mMTS,mKcell,mKcell,,D77,2016-05-03T16:48:47+06:00,
1000000000166516,77012622842,mMTS,mKcell,mKcell,,D77,2016-05-03T16:49:28+06:00,
1000000000166517,77019624053,mMTS,mKcell,mKcell,,D77,2016-05-03T16:49:25+06:00,
1000000000166518,77077864505,mAltel,mMTS,mMTS,,D07,2016-05-03T16:49:43+06:00,
1000000000166519,77782220588,mKcell,mKarTel,mKcell,D01,D02,2016-05-03T16:51:06+06:00,
1000000000166520,77761580001,mKcell,mKarTel,mKarTel,,D02,2016-05-03T16:51:07+06:00,
1000000000166521,77085261944,mKcell,mAltel,mAltel,,D02,2016-05-03T16:51:06+06:00,
1000000000166523,77085403096,mMTS,mAltel,mAltel,,D77,2016-05-03T16:51:03+06:00,
1000000000166524,77011427733,mKarTel,mKcell,mKcell,,D01,2016-05-03T16:52:01+06:00,
1000000000166525,77473921181,mKarTel,mMTS,mMTS,,D01,2016-05-03T16:51:50+06:00,
1000000000166526,77015255512,mKarTel,mAltel,mKcell,D07,D01,2016-05-03T16:51:51+06:00,
1000000000166527,77019624054,mMTS,mKcell,mKcell,,D77,2016-05-03T16:52:12+06:00,
1000000000166528,77013804697,mMTS,mKcell,mKcell,,D77,2016-05-03T16:52:30+06:00,
1000000000166529,77009042928,mKarTel,mAltel,mAltel,,D01,2016-05-03T16:53:29+06:00,
1000000000166530,77002051155,mMTS,mAltel,mAltel,,D77,2016-05-03T16:54:49+06:00,
1000000000166531,77081056639,mKarTel,mAltel,mAltel,,D01,2016-05-03T16:55:09+06:00,
1000000000166532,77051636042,mMTS,mKarTel,mKarTel,,D77,2016-05-03T16:55:17+06:00,
1000000000166534,77085261937,mKcell,mAltel,mAltel,,D02,2016-05-03T16:55:32+06:00,
1000000000166535,77019624064,mMTS,mKcell,mKcell,,D77,2016-05-03T16:55:53+06:00,
1000000000166537,77781097979,mMTS,mKcell,mKcell,,D77,2016-05-03T16:56:11+06:00,
1000000000166538,77783415773,mMTS,mKcell,mKcell,,D77,2016-05-03T16:56:11+06:00,
1000000000166539,77770939373,mAltel,mKarTel,mKarTel,,D07,2016-05-03T16:56:26+06:00,
1000000000166541,77012339939,mMTS,mKcell,mKcell,,D77,2016-05-03T16:57:26+06:00,
1000000000166542,77778269195,mMTS,mKarTel,mKarTel,,D77,2016-05-03T16:57:20+06:00,
1000000000166543,77778930633,mKarTel,mKcell,mKarTel,D02,D01,2016-05-03T16:57:35+06:00,
1000000000166544,77014650828,mMTS,mKcell,mKcell,,D77,2016-05-03T16:58:02+06:00,
1000000000166545,77019624065,mMTS,mKcell,mKcell,,D77,2016-05-03T16:58:45+06:00,
1000000000166546,77017587747,mMTS,mKcell,mKcell,,D77,2016-05-03T16:59:50+06:00,
1000000000166547,77711921200,mKarTel,mAltel,mKarTel,D07,D01,2016-05-03T16:59:37+06:00,
