NPId,Number,RecipientId,DonorId,RangeHolderId,OldRoute,NewRoute,PortDate,RowCount
1000000000234921,77013292962,mMTS,mKcell,mKcell,,D77,2016-08-27T11:30:54+06:00,27
1000000000234922,77072416000,mKarTel,mMTS,mMTS,,D01,2016-08-27T11:31:16+06:00,
1000000000234924,77756493269,mMTS,mKcell,mKcell,,D77,2016-08-27T11:32:24+06:00,
1000000000234925,77755062800,mKarTel,mKcell,mKcell,,D01,2016-08-27T11:33:39+06:00,
1000000000234926,77059684666,mMTS,mKarTel,mKarTel,,D77,2016-08-27T11:34:16+06:00,
1000000000234927,77025004141,mKarTel,mKcell,mKcell,,D01,2016-08-27T11:34:15+06:00,
1000000000234929,77077476697,mMTS,mAltel,mMTS,D07,D77,2016-08-27T11:37:19+06:00,
1000000000234930,77075664806,mKcell,mMTS,mMTS,,D02,2016-08-27T11:38:01+06:00,
1000000000234932,77056297071,mKcell,mKarTel,mKarTel,,D02,2016-08-27T11:39:53+06:00,
1000000000234934,77071240123,mKcell,mMTS,mMTS,,D02,2016-08-27T11:44:03+06:00,
1000000000234935,77055782090,mMTS,mKarTel,mKarTel,,D77,2016-08-27T11:42:12+06:00,
1000000000234936,77003375020,mMTS,mAltel,mAltel,,D77,2016-08-27T11:41:45+06:00,
1000000000234940,77075458887,mMTS,mKarTel,mMTS,D01,D77,2016-08-27T11:44:56+06:00,
1000000000234941,77075592269,mKcell,mMTS,mMTS,,D02,2016-08-27T11:45:25+06:00,
1000000000234942,77015436063,mKarTel,mKcell,mKcell,,D01,2016-08-27T11:45:34+06:00,
1000000000234943,77017295263,mKarTel,mKcell,mKcell,,D01,2016-08-27T11:46:48+06:00,
1000000000234944,77027943075,mMTS,mKcell,mKcell,,D77,2016-08-27T11:46:35+06:00,
1000000000234945,77075778338,mKcell,mMTS,mMTS,,D02,2016-08-27T11:46:55+06:00,
1000000000234946,77766648888,mAltel,mKarTel,mKarTel,,D07,2016-08-27T11:48:12+06:00,
1000000000234947,77472777087,mMTS,mAltel,mMTS,D07,D77,2016-08-27T11:47:43+06:00,
1000000000234949,77477979101,mKarTel,mMTS,mMTS,,D01,2016-08-27T11:48:56+06:00,
1000000000234950,77787304741,mKcell,mMTS,mKcell,D77,D02,2016-08-27T11:49:50+06:00,
1000000000234951,77476148512,mKcell,mMTS,mMTS,,D02,2016-08-27T11:52:33+06:00,
1000000000234952,77052067420,mMTS,mKarTel,mKarTel,,D77,2016-08-27T11:52:46+06:00,
1000000000234953,77017422290,mKcell,mMTS,mKcell,D77,D02,2016-08-27T11:54:16+06:00,
1000000000234954,77025155232,mMTS,mKcell,mKcell,,D77,2016-08-27T11:55:37+06:00,
1000000000234955,77779633939,mKarTel,mAltel,mKarTel,D07,D01,2016-08-27T11:58:23+06:00,
