NPId,Number,RecipientId,DonorId,RangeHolderId,OldRoute,NewRoute,PortDate,RowCount
1000000000208675,77017634447,mMTS,mKcell,mKcell,,D77,2016-07-09T19:37:48+06:00,2
1000000000208677,77713788034,mKcell,mKarTel,mKarTel,,D02,2016-07-09T19:46:12+06:00,
