NPId,Number,RecipientId,DonorId,RangeHolderId,OldRoute,NewRoute,PortDate,RowCount
1000000000254729,77473000349,mAltel,mMTS,mMTS,,D07,2016-10-01T13:30:05+06:00,28
1000000000254730,77081469856,mMTS,mAltel,mAltel,,D77,2016-10-01T13:30:29+06:00,
1000000000254731,77071118777,mAltel,mMTS,mMTS,,D07,2016-10-01T13:30:57+06:00,
1000000000254733,77003670330,mMTS,mAltel,mAltel,,D77,2016-10-01T13:32:12+06:00,
1000000000254735,77056610528,mMTS,mKarTel,mKarTel,,D77,2016-10-01T13:33:56+06:00,
1000000000254738,77003281188,mMTS,mAltel,mAltel,,D77,2016-10-01T13:36:09+06:00,
1000000000254739,77010702209,mKarTel,mKcell,mKcell,,D01,2016-10-01T13:36:49+06:00,
1000000000254740,77075254722,mKcell,mMTS,mMTS,,D02,2016-10-01T13:37:28+06:00,
1000000000254741,77476669776,mKarTel,mMTS,mMTS,,D01,2016-10-01T13:39:17+06:00,
1000000000254743,77773388111,mMTS,mKarTel,mKarTel,,D77,2016-10-01T13:40:09+06:00,
1000000000254744,77073695345,mAltel,mKarTel,mMTS,D01,D07,2016-10-01T13:41:15+06:00,
1000000000254745,77017480177,mKarTel,mKcell,mKcell,,D01,2016-10-01T13:41:25+06:00,
1000000000254746,77053598999,mKcell,mKarTel,mKarTel,,D02,2016-10-01T13:42:00+06:00,
1000000000254748,77019209606,mKarTel,mKcell,mKcell,,D01,2016-10-01T13:42:03+06:00,
1000000000254749,77009733856,mMTS,mAltel,mAltel,,D77,2016-10-01T13:42:28+06:00,
1000000000254751,77017764220,mKcell,mMTS,mKcell,D77,D02,2016-10-01T13:44:56+06:00,
1000000000254752,77019300450,mAltel,mKcell,mKcell,,D07,2016-10-01T13:44:57+06:00,
1000000000254753,77057528994,mMTS,mKarTel,mKarTel,,D77,2016-10-01T13:46:26+06:00,
1000000000254755,77776779544,mKarTel,mAltel,mKarTel,D07,D01,2016-10-01T13:47:52+06:00,
1000000000254756,77078567722,mMTS,mKarTel,mMTS,D01,D77,2016-10-01T13:48:21+06:00,
1000000000254757,77077119777,mMTS,mKarTel,mMTS,D01,D77,2016-10-01T13:48:21+06:00,
1000000000254758,77777647144,mMTS,mKarTel,mKarTel,,D77,2016-10-01T13:48:32+06:00,
1000000000254759,77751221188,mKarTel,mKcell,mKcell,,D01,2016-10-01T13:48:57+06:00,
1000000000254760,77072009049,mAltel,mMTS,mMTS,,D07,2016-10-01T13:55:51+06:00,
1000000000254762,77074729989,mAltel,mMTS,mMTS,,D07,2016-10-01T13:56:18+06:00,
1000000000254763,77075000434,mKcell,mMTS,mMTS,,D02,2016-10-01T13:56:31+06:00,
1000000000254764,77051373111,mMTS,mKarTel,mKarTel,,D77,2016-10-01T13:57:56+06:00,
1000000000254766,77054807971,mMTS,mKarTel,mKarTel,,D77,2016-10-01T13:59:36+06:00,
