NPId,Number,RecipientId,DonorId,RangeHolderId,OldRoute,NewRoute,PortDate,RowCount
1000000000198396,77760532012,mMTS,mKarTel,mKarTel,,D77,2016-06-23T15:29:36+06:00,19
1000000000198400,77772368412,mMTS,mKarTel,mKarTel,,D77,2016-06-23T15:28:53+06:00,
1000000000198492,77027435656,mMTS,mKcell,mKcell,,D77,2016-06-23T15:07:06+06:00,
1000000000198503,77071151100,mKcell,mMTS,mMTS,,D02,2016-06-23T15:13:18+06:00,
1000000000198504,77015556684,mMTS,mKcell,mKcell,,D77,2016-06-23T15:15:16+06:00,
1000000000198510,77781077878,mKarTel,mKcell,mKcell,,D01,2016-06-23T15:17:14+06:00,
1000000000198513,77015378830,mKarTel,mKcell,mKcell,,D01,2016-06-23T15:21:20+06:00,
1000000000198515,77017576200,mKarTel,mKcell,mKcell,,D01,2016-06-23T15:20:24+06:00,
1000000000198516,77017998454,mKarTel,mKcell,mKcell,,D01,2016-06-23T15:20:24+06:00,
1000000000198520,77771990004,mKcell,mKarTel,mKarTel,,D02,2016-06-23T15:22:12+06:00,
1000000000198523,77025444040,mKarTel,mMTS,mKcell,D77,D01,2016-06-23T15:22:34+06:00,
1000000000198524,77012337065,mKarTel,mKcell,mKcell,,D01,2016-06-23T15:23:51+06:00,
1000000000198525,77715187587,mKarTel,mMTS,mKarTel,D77,D01,2016-06-23T15:23:24+06:00,
1000000000198526,77024076693,mMTS,mKcell,mKcell,,D77,2016-06-23T15:23:40+06:00,
1000000000198527,77715187577,mKarTel,mMTS,mKarTel,D77,D01,2016-06-23T15:25:22+06:00,
1000000000198529,77760010404,mKcell,mKarTel,mKarTel,,D02,2016-06-23T15:26:33+06:00,
1000000000198530,77015214155,mKarTel,mKcell,mKcell,,D01,2016-06-23T15:26:42+06:00,
1000000000198531,77777241414,mMTS,mKarTel,mKarTel,,D77,2016-06-23T15:26:28+06:00,
1000000000198533,77015885279,mMTS,mKcell,mKcell,,D77,2016-06-23T15:28:35+06:00,
