NPId,Number,RecipientId,DonorId,RangeHolderId,OldRoute,NewRoute,PortDate,RowCount
1000000000140301,77053842026,mKcell,mKarTel,mKarTel,,D02,2016-04-02T12:04:47+06:00,41
1000000000140304,77052134381,mMTS,mKarTel,mKarTel,,D77,2016-04-02T12:02:04+06:00,
1000000000140305,77017215216,mKarTel,mKcell,mKcell,,D01,2016-04-02T12:05:54+06:00,
1000000000140306,77028394746,mMTS,mKcell,mKcell,,D77,2016-04-02T12:05:17+06:00,
1000000000140307,77017050676,mKarTel,mMTS,mKcell,D77,D01,2016-04-02T12:04:52+06:00,
1000000000140308,77018720567,mAltel,mKcell,mKcell,,D07,2016-04-02T12:05:40+06:00,
1000000000140309,77000075090,mKcell,mAltel,mAltel,,D02,2016-04-02T12:06:28+06:00,
1000000000140310,77782244402,mMTS,mKcell,mKcell,,D77,2016-04-02T12:06:04+06:00,
1000000000140311,77783258783,mMTS,mKcell,mKcell,,D77,2016-04-02T12:06:24+06:00,
1000000000140315,77013500006,mMTS,mKcell,mKcell,,D77,2016-04-02T12:09:17+06:00,
1000000000140316,77471515789,mKcell,mMTS,mMTS,,D02,2016-04-02T12:10:42+06:00,
1000000000140318,77776722221,mKcell,mKarTel,mKarTel,,D02,2016-04-02T12:13:04+06:00,
1000000000140319,77773169360,mKcell,mKarTel,mKarTel,,D02,2016-04-02T12:13:15+06:00,
1000000000140320,77085516990,mMTS,mAltel,mAltel,,D77,2016-04-02T12:12:43+06:00,
1000000000140322,77015247324,mMTS,mKcell,mKcell,,D77,2016-04-02T12:13:26+06:00,
1000000000140323,77771515146,mMTS,mKarTel,mKarTel,,D77,2016-04-02T12:15:09+06:00,
1000000000140325,77015268783,mMTS,mKcell,mKcell,,D77,2016-04-02T12:16:32+06:00,
1000000000140326,77017177255,mMTS,mKcell,mKcell,,D77,2016-04-02T12:16:32+06:00,
1000000000140328,77772986527,mMTS,mKarTel,mKarTel,,D77,2016-04-02T12:17:39+06:00,
1000000000140330,77029862890,mMTS,mKcell,mKcell,,D77,2016-04-02T12:17:20+06:00,
1000000000140331,77055267000,mMTS,mKarTel,mKarTel,,D77,2016-04-02T12:18:38+06:00,
1000000000140334,77012409005,mKarTel,mAltel,mKcell,D07,D01,2016-04-02T12:18:38+06:00,
1000000000140335,77019218353,mKarTel,mKcell,mKcell,,D01,2016-04-02T12:18:39+06:00,
1000000000140336,77775080088,mKcell,mKarTel,mKarTel,,D02,2016-04-02T12:20:41+06:00,
1000000000140337,77013800005,mKarTel,mKcell,mKcell,,D01,2016-04-02T12:20:34+06:00,
1000000000140339,77087576991,mMTS,mAltel,mAltel,,D77,2016-04-02T12:20:43+06:00,
1000000000140340,77013527289,mKarTel,mKcell,mKcell,,D01,2016-04-02T12:22:03+06:00,
1000000000140341,77025168594,mAltel,mKcell,mKcell,,D07,2016-04-02T12:21:39+06:00,
1000000000140345,77056060060,mKcell,mKarTel,mKarTel,,D02,2016-04-02T12:26:39+06:00,
1000000000140346,77017177511,mMTS,mKcell,mKcell,,D77,2016-04-02T12:24:51+06:00,
1000000000140347,77024391124,mMTS,mKcell,mKcell,,D77,2016-04-02T12:25:13+06:00,
1000000000140348,77018327854,mMTS,mKcell,mKcell,,D77,2016-04-02T12:25:13+06:00,
1000000000140349,77077788711,mKcell,mMTS,mMTS,,D02,2016-04-02T12:25:32+06:00,
1000000000140350,77011113362,mAltel,mKcell,mKcell,,D07,2016-04-02T12:25:28+06:00,
1000000000140351,77710137182,mMTS,mKarTel,mKarTel,,D77,2016-04-02T12:26:38+06:00,
1000000000140353,77077279959,mKarTel,mMTS,mMTS,,D01,2016-04-02T12:26:10+06:00,
1000000000140354,77471117210,mKcell,mMTS,mMTS,,D02,2016-04-02T12:27:47+06:00,
1000000000140355,77712082525,mMTS,mKarTel,mKarTel,,D77,2016-04-02T12:28:36+06:00,
1000000000140356,77778819008,mKcell,mKarTel,mKarTel,,D02,2016-04-02T12:29:47+06:00,
1000000000140357,77017542102,mKarTel,mKcell,mKcell,,D01,2016-04-02T12:29:06+06:00,
1000000000140359,77014103618,mMTS,mKcell,mKcell,,D77,2016-04-02T12:29:21+06:00,
