NPId,Number,RecipientId,DonorId,RangeHolderId,OldRoute,NewRoute,PortDate,RowCount
1000000000159205,77711208576,mKcell,mKarTel,mKarTel,,D02,2016-04-24T14:30:09+06:00,24
1000000000159206,77011741964,mKarTel,mMTS,mKcell,D77,D01,2016-04-24T14:31:02+06:00,
1000000000159207,77774879500,mMTS,mKarTel,mKarTel,,D77,2016-04-24T14:31:44+06:00,
1000000000159208,77085432738,mMTS,mAltel,mAltel,,D77,2016-04-24T14:32:02+06:00,
1000000000159209,77085202427,mMTS,mAltel,mAltel,,D77,2016-04-24T14:32:08+06:00,
1000000000159210,77752252584,mAltel,mKcell,mKcell,,D07,2016-04-24T14:33:05+06:00,
1000000000159211,77711181972,mKarTel,mKcell,mKarTel,D02,D01,2016-04-24T14:36:53+06:00,
1000000000159213,77786170000,mMTS,mKcell,mKcell,,D77,2016-04-24T14:37:25+06:00,
1000000000159214,77711208589,mKcell,mKarTel,mKarTel,,D02,2016-04-24T14:38:27+06:00,
1000000000159215,77011017231,mKarTel,mKcell,mKcell,,D01,2016-04-24T14:42:11+06:00,
1000000000159216,77019591305,mAltel,mKcell,mKcell,,D07,2016-04-24T14:44:10+06:00,
1000000000159217,77074896104,mMTS,mAltel,mMTS,D07,D77,2016-04-24T14:44:18+06:00,
1000000000159219,77081616522,mMTS,mAltel,mAltel,,D77,2016-04-24T14:45:04+06:00,
1000000000159220,77081515715,mMTS,mAltel,mAltel,,D77,2016-04-24T14:45:04+06:00,
1000000000159221,77014952590,mMTS,mKcell,mKcell,,D77,2016-04-24T14:45:42+06:00,
1000000000159222,77771882991,mMTS,mKarTel,mKarTel,,D77,2016-04-24T14:47:19+06:00,
1000000000159223,77011273139,mMTS,mKcell,mKcell,,D77,2016-04-24T14:50:32+06:00,
1000000000159224,77077216878,mAltel,mMTS,mMTS,,D07,2016-04-24T14:50:45+06:00,
1000000000159225,77772727200,mMTS,mKarTel,mKarTel,,D77,2016-04-24T14:52:26+06:00,
1000000000159226,77052225050,mKcell,mKarTel,mKarTel,,D02,2016-04-24T14:53:00+06:00,
1000000000159228,77714577755,mMTS,mKarTel,mKarTel,,D77,2016-04-24T14:54:08+06:00,
1000000000159229,77056668414,mKcell,mKarTel,mKarTel,,D02,2016-04-24T14:56:23+06:00,
1000000000159230,77019940891,mKarTel,mKcell,mKcell,,D01,2016-04-24T14:56:26+06:00,
1000000000159231,77025075715,mAltel,mKcell,mKcell,,D07,2016-04-24T14:56:32+06:00,
