NPId,Number,RecipientId,DonorId,RangeHolderId,OldRoute,NewRoute,PortDate,RowCount
1000000000337243,77012045399,mKcell,mKarTel,mKcell,D01,D02,2017-02-28T20:30:43+06:00,123
1000000000337243,77012045418,mKcell,mKarTel,mKcell,D01,D02,2017-02-28T20:30:43+06:00,
1000000000337243,77012045420,mKcell,mKarTel,mKcell,D01,D02,2017-02-28T20:30:43+06:00,
1000000000337243,77012142617,mKcell,mKarTel,mKcell,D01,D02,2017-02-28T20:30:43+06:00,
1000000000337243,77012146566,mKcell,mKarTel,mKcell,D01,D02,2017-02-28T20:30:43+06:00,
1000000000337243,77012146567,mKcell,mKarTel,mKcell,D01,D02,2017-02-28T20:30:43+06:00,
1000000000337243,77012146568,mKcell,mKarTel,mKcell,D01,D02,2017-02-28T20:30:43+06:00,
1000000000337243,77012183051,mKcell,mKarTel,mKcell,D01,D02,2017-02-28T20:30:43+06:00,
1000000000337243,77012183052,mKcell,mKarTel,mKcell,D01,D02,2017-02-28T20:30:43+06:00,
1000000000337243,77012183053,mKcell,mKarTel,mKcell,D01,D02,2017-02-28T20:30:43+06:00,
1000000000337243,77012189147,mKcell,mKarTel,mKcell,D01,D02,2017-02-28T20:30:43+06:00,
1000000000337243,77012189148,mKcell,mKarTel,mKcell,D01,D02,2017-02-28T20:30:43+06:00,
1000000000337243,77012203308,mKcell,mKarTel,mKcell,D01,D02,2017-02-28T20:30:43+06:00,
1000000000337243,77012203309,mKcell,mKarTel,mKcell,D01,D02,2017-02-28T20:30:43+06:00,
1000000000337243,77012203361,mKcell,mKarTel,mKcell,D01,D02,2017-02-28T20:30:43+06:00,
1000000000337243,77012204801,mKcell,mKarTel,mKcell,D01,D02,2017-02-28T20:30:43+06:00,
1000000000337243,77012204803,mKcell,mKarTel,mKcell,D01,D02,2017-02-28T20:30:43+06:00,
1000000000337243,77012204804,mKcell,mKarTel,mKcell,D01,D02,2017-02-28T20:30:43+06:00,
1000000000337243,77012213857,mKcell,mKarTel,mKcell,D01,D02,2017-02-28T20:30:43+06:00,
1000000000337243,77012219278,mKcell,mKarTel,mKcell,D01,D02,2017-02-28T20:30:43+06:00,
1000000000337243,77012238757,mKcell,mKarTel,mKcell,D01,D02,2017-02-28T20:30:43+06:00,
1000000000337243,77012241017,mKcell,mKarTel,mKcell,D01,D02,2017-02-28T20:30:43+06:00,
1000000000337243,77012241018,mKcell,mKarTel,mKcell,D01,D02,2017-02-28T20:30:43+06:00,
1000000000337243,77012241031,mKcell,mKarTel,mKcell,D01,D02,2017-02-28T20:30:43+06:00,
1000000000337243,77012241032,mKcell,mKarTel,mKcell,D01,D02,2017-02-28T20:30:43+06:00,
1000000000337243,77012241033,mKcell,mKarTel,mKcell,D01,D02,2017-02-28T20:30:43+06:00,
1000000000337243,77012285740,mKcell,mKarTel,mKcell,D01,D02,2017-02-28T20:30:43+06:00,
1000000000337243,77012285741,mKcell,mKarTel,mKcell,D01,D02,2017-02-28T20:30:43+06:00,
1000000000337243,77012285742,mKcell,mKarTel,mKcell,D01,D02,2017-02-28T20:30:43+06:00,
1000000000337243,77012285743,mKcell,mKarTel,mKcell,D01,D02,2017-02-28T20:30:43+06:00,
1000000000337243,77012285744,mKcell,mKarTel,mKcell,D01,D02,2017-02-28T20:30:43+06:00,
1000000000337243,77012357325,mKcell,mKarTel,mKcell,D01,D02,2017-02-28T20:30:43+06:00,
1000000000337243,77012357327,mKcell,mKarTel,mKcell,D01,D02,2017-02-28T20:30:43+06:00,
1000000000337243,77012357328,mKcell,mKarTel,mKcell,D01,D02,2017-02-28T20:30:43+06:00,
1000000000337243,77012357355,mKcell,mKarTel,mKcell,D01,D02,2017-02-28T20:30:43+06:00,
1000000000337243,77012357362,mKcell,mKarTel,mKcell,D01,D02,2017-02-28T20:30:43+06:00,
1000000000337243,77012357363,mKcell,mKarTel,mKcell,D01,D02,2017-02-28T20:30:43+06:00,
1000000000337243,77012357364,mKcell,mKarTel,mKcell,D01,D02,2017-02-28T20:30:43+06:00,
1000000000337243,77012357365,mKcell,mKarTel,mKcell,D01,D02,2017-02-28T20:30:43+06:00,
1000000000337243,77012550009,mKcell,mKarTel,mKcell,D01,D02,2017-02-28T20:30:43+06:00,
1000000000337243,77015320961,mKcell,mKarTel,mKcell,D01,D02,2017-02-28T20:30:43+06:00,
1000000000337243,77015320971,mKcell,mKarTel,mKcell,D01,D02,2017-02-28T20:30:43+06:00,
1000000000337243,77015320977,mKcell,mKarTel,mKcell,D01,D02,2017-02-28T20:30:43+06:00,
1000000000337243,77015320985,mKcell,mKarTel,mKcell,D01,D02,2017-02-28T20:30:43+06:00,
1000000000337243,77015342804,mKcell,mKarTel,mKcell,D01,D02,2017-02-28T20:30:43+06:00,
1000000000337243,77015342811,mKcell,mKarTel,mKcell,D01,D02,2017-02-28T20:30:43+06:00,
1000000000337243,77015342812,mKcell,mKarTel,mKcell,D01,D02,2017-02-28T20:30:43+06:00,
1000000000337243,77015342814,mKcell,mKarTel,mKcell,D01,D02,2017-02-28T20:30:43+06:00,
1000000000337243,77015342817,mKcell,mKarTel,mKcell,D01,D02,2017-02-28T20:30:43+06:00,
1000000000337243,77015342819,mKcell,mKarTel,mKcell,D01,D02,2017-02-28T20:30:43+06:00,
1000000000337243,77015342823,mKcell,mKarTel,mKcell,D01,D02,2017-02-28T20:30:43+06:00,
1000000000337243,77017158567,mKcell,mKarTel,mKcell,D01,D02,2017-02-28T20:30:43+06:00,
1000000000337243,77017158573,mKcell,mKarTel,mKcell,D01,D02,2017-02-28T20:30:43+06:00,
1000000000337243,77017214862,mKcell,mKarTel,mKcell,D01,D02,2017-02-28T20:30:43+06:00,
1000000000337243,77017224006,mKcell,mKarTel,mKcell,D01,D02,2017-02-28T20:30:43+06:00,
1000000000337243,77017224012,mKcell,mKarTel,mKcell,D01,D02,2017-02-28T20:30:43+06:00,
1000000000337243,77017402472,mKcell,mKarTel,mKcell,D01,D02,2017-02-28T20:30:43+06:00,
1000000000337243,77017402474,mKcell,mKarTel,mKcell,D01,D02,2017-02-28T20:30:43+06:00,
1000000000337243,77017402506,mKcell,mKarTel,mKcell,D01,D02,2017-02-28T20:30:43+06:00,
1000000000337243,77017617674,mKcell,mKarTel,mKcell,D01,D02,2017-02-28T20:30:43+06:00,
1000000000337243,77017650403,mKcell,mKarTel,mKcell,D01,D02,2017-02-28T20:30:43+06:00,
1000000000337243,77017687882,mKcell,mKarTel,mKcell,D01,D02,2017-02-28T20:30:43+06:00,
1000000000337243,77017856703,mKcell,mKarTel,mKcell,D01,D02,2017-02-28T20:30:43+06:00,
1000000000337243,77017856704,mKcell,mKarTel,mKcell,D01,D02,2017-02-28T20:30:43+06:00,
1000000000337243,77017856788,mKcell,mKarTel,mKcell,D01,D02,2017-02-28T20:30:43+06:00,
1000000000337243,77017941715,mKcell,mKarTel,mKcell,D01,D02,2017-02-28T20:30:43+06:00,
1000000000337243,77017941716,mKcell,mKarTel,mKcell,D01,D02,2017-02-28T20:30:43+06:00,
1000000000337243,77017955427,mKcell,mKarTel,mKcell,D01,D02,2017-02-28T20:30:43+06:00,
1000000000337243,77018813924,mKcell,mKarTel,mKcell,D01,D02,2017-02-28T20:30:43+06:00,
1000000000337243,77018813926,mKcell,mKarTel,mKcell,D01,D02,2017-02-28T20:30:43+06:00,
1000000000337243,77018813927,mKcell,mKarTel,mKcell,D01,D02,2017-02-28T20:30:43+06:00,
1000000000337243,77018813942,mKcell,mKarTel,mKcell,D01,D02,2017-02-28T20:30:43+06:00,
1000000000337243,77019375990,mKcell,mKarTel,mKcell,D01,D02,2017-02-28T20:30:43+06:00,
1000000000337243,77019383470,mKcell,mKarTel,mKcell,D01,D02,2017-02-28T20:30:43+06:00,
1000000000337243,77019389326,mKcell,mKarTel,mKcell,D01,D02,2017-02-28T20:30:43+06:00,
1000000000337243,77019435533,mKcell,mKarTel,mKcell,D01,D02,2017-02-28T20:30:43+06:00,
1000000000337243,77019555161,mKcell,mKarTel,mKcell,D01,D02,2017-02-28T20:30:43+06:00,
1000000000337243,77019555162,mKcell,mKarTel,mKcell,D01,D02,2017-02-28T20:30:43+06:00,
1000000000337243,77019555163,mKcell,mKarTel,mKcell,D01,D02,2017-02-28T20:30:43+06:00,
1000000000337243,77019555164,mKcell,mKarTel,mKcell,D01,D02,2017-02-28T20:30:43+06:00,
1000000000337243,77019555165,mKcell,mKarTel,mKcell,D01,D02,2017-02-28T20:30:43+06:00,
1000000000337243,77019555166,mKcell,mKarTel,mKcell,D01,D02,2017-02-28T20:30:43+06:00,
1000000000337243,77019555169,mKcell,mKarTel,mKcell,D01,D02,2017-02-28T20:30:43+06:00,
1000000000337243,77019557406,mKcell,mKarTel,mKcell,D01,D02,2017-02-28T20:30:43+06:00,
1000000000337243,77019557407,mKcell,mKarTel,mKcell,D01,D02,2017-02-28T20:30:43+06:00,
1000000000337243,77019557408,mKcell,mKarTel,mKcell,D01,D02,2017-02-28T20:30:43+06:00,
1000000000337243,77019557413,mKcell,mKarTel,mKcell,D01,D02,2017-02-28T20:30:43+06:00,
1000000000337243,77019557417,mKcell,mKarTel,mKcell,D01,D02,2017-02-28T20:30:43+06:00,
1000000000337243,77019557418,mKcell,mKarTel,mKcell,D01,D02,2017-02-28T20:30:43+06:00,
1000000000337243,77019557420,mKcell,mKarTel,mKcell,D01,D02,2017-02-28T20:30:43+06:00,
1000000000337243,77019557421,mKcell,mKarTel,mKcell,D01,D02,2017-02-28T20:30:43+06:00,
1000000000337243,77019557425,mKcell,mKarTel,mKcell,D01,D02,2017-02-28T20:30:43+06:00,
1000000000337243,77019557519,mKcell,mKarTel,mKcell,D01,D02,2017-02-28T20:30:43+06:00,
1000000000337243,77019557526,mKcell,mKarTel,mKcell,D01,D02,2017-02-28T20:30:43+06:00,
1000000000337243,77019557527,mKcell,mKarTel,mKcell,D01,D02,2017-02-28T20:30:43+06:00,
1000000000337243,77019557531,mKcell,mKarTel,mKcell,D01,D02,2017-02-28T20:30:43+06:00,
1000000000337243,77019557542,mKcell,mKarTel,mKcell,D01,D02,2017-02-28T20:30:43+06:00,
1000000000337243,77019718165,mKcell,mKarTel,mKcell,D01,D02,2017-02-28T20:30:43+06:00,
1000000000337243,77019718166,mKcell,mKarTel,mKcell,D01,D02,2017-02-28T20:30:43+06:00,
1000000000337243,77019718167,mKcell,mKarTel,mKcell,D01,D02,2017-02-28T20:30:43+06:00,
1000000000337243,77019718168,mKcell,mKarTel,mKcell,D01,D02,2017-02-28T20:30:43+06:00,
1000000000337243,77019772488,mKcell,mKarTel,mKcell,D01,D02,2017-02-28T20:30:43+06:00,
1000000000337243,77019772489,mKcell,mKarTel,mKcell,D01,D02,2017-02-28T20:30:43+06:00,
1000000000337243,77019800618,mKcell,mKarTel,mKcell,D01,D02,2017-02-28T20:30:43+06:00,
1000000000337243,77019800620,mKcell,mKarTel,mKcell,D01,D02,2017-02-28T20:30:43+06:00,
1000000000337243,77019800621,mKcell,mKarTel,mKcell,D01,D02,2017-02-28T20:30:43+06:00,
1000000000337243,77019871486,mKcell,mKarTel,mKcell,D01,D02,2017-02-28T20:30:43+06:00,
1000000000337243,77019871488,mKcell,mKarTel,mKcell,D01,D02,2017-02-28T20:30:43+06:00,
1000000000337243,77019899712,mKcell,mKarTel,mKcell,D01,D02,2017-02-28T20:30:43+06:00,
1000000000337243,77019899713,mKcell,mKarTel,mKcell,D01,D02,2017-02-28T20:30:43+06:00,
1000000000337243,77019899714,mKcell,mKarTel,mKcell,D01,D02,2017-02-28T20:30:43+06:00,
1000000000337243,77019899715,mKcell,mKarTel,mKcell,D01,D02,2017-02-28T20:30:43+06:00,
1000000000337243,77019899716,mKcell,mKarTel,mKcell,D01,D02,2017-02-28T20:30:43+06:00,
1000000000337243,77019899718,mKcell,mKarTel,mKcell,D01,D02,2017-02-28T20:30:43+06:00,
1000000000337243,77019899719,mKcell,mKarTel,mKcell,D01,D02,2017-02-28T20:30:43+06:00,
1000000000337243,77019899720,mKcell,mKarTel,mKcell,D01,D02,2017-02-28T20:30:43+06:00,
1000000000337243,77019908520,mKcell,mKarTel,mKcell,D01,D02,2017-02-28T20:30:43+06:00,
1000000000337243,77019908754,mKcell,mKarTel,mKcell,D01,D02,2017-02-28T20:30:43+06:00,
1000000000337243,77019908760,mKcell,mKarTel,mKcell,D01,D02,2017-02-28T20:30:43+06:00,
1000000000337243,77019908764,mKcell,mKarTel,mKcell,D01,D02,2017-02-28T20:30:43+06:00,
1000000000337243,77019908765,mKcell,mKarTel,mKcell,D01,D02,2017-02-28T20:30:43+06:00,
1000000000337859,77753014941,mMTS,mKcell,mKcell,,D77,2017-02-28T20:37:55+06:00,
1000000000337861,77753014972,mMTS,mKcell,mKcell,,D77,2017-02-28T20:47:54+06:00,
