NPId,Number,RecipientId,DonorId,RangeHolderId,OldRoute,NewRoute,PortDate,RowCount
1000000000336420,77012254264,mKarTel,mKcell,mKcell,,D01,2017-02-27T18:00:01+06:00,33
1000000000336421,77003458272,mKarTel,mAltel,mAltel,,D01,2017-02-27T18:00:07+06:00,
1000000000336424,77029777770,mMTS,mKcell,mKcell,,D77,2017-02-27T18:01:26+06:00,
1000000000336425,77751519940,mKarTel,mKcell,mKcell,,D01,2017-02-27T18:02:35+06:00,
1000000000336426,77773162309,mMTS,mKarTel,mKarTel,,D77,2017-02-27T18:02:58+06:00,
1000000000336427,77782276712,mAltel,mKcell,mKcell,,D07,2017-02-27T18:03:57+06:00,
1000000000336428,77763051295,mMTS,mKarTel,mKarTel,,D77,2017-02-27T18:05:11+06:00,
1000000000336429,77751046700,mKcell,mKarTel,mKcell,D01,D02,2017-02-27T18:06:09+06:00,
1000000000336431,77758791179,mMTS,mKcell,mKcell,,D77,2017-02-27T18:06:18+06:00,
1000000000336432,77057799470,mMTS,mKarTel,mKarTel,,D77,2017-02-27T18:07:01+06:00,
1000000000336433,77015992719,mKarTel,mKcell,mKcell,,D01,2017-02-27T18:07:42+06:00,
1000000000336434,77754036622,mMTS,mKcell,mKcell,,D77,2017-02-27T18:08:58+06:00,
1000000000336435,77085058487,mMTS,mAltel,mAltel,,D77,2017-02-27T18:09:18+06:00,
1000000000336436,77019689898,mKarTel,mKcell,mKcell,,D01,2017-02-27T18:13:48+06:00,
1000000000336437,77055082889,mMTS,mKarTel,mKarTel,,D77,2017-02-27T18:15:25+06:00,
1000000000336438,77773568585,mAltel,mKarTel,mKarTel,,D07,2017-02-27T18:15:39+06:00,
1000000000336440,77768001202,mKcell,mKarTel,mKarTel,,D02,2017-02-27T18:18:18+06:00,
1000000000336441,77017418232,mMTS,mKarTel,mKcell,D01,D77,2017-02-27T18:18:42+06:00,
1000000000336442,77023419691,mKcell,mKarTel,mKcell,D01,D02,2017-02-27T18:20:32+06:00,
1000000000336443,77002000951,mKcell,mAltel,mAltel,,D02,2017-02-27T18:20:03+06:00,
1000000000336445,77002000857,mKcell,mAltel,mAltel,,D02,2017-02-27T18:20:28+06:00,
1000000000336447,77012990312,mAltel,mKcell,mKcell,,D07,2017-02-27T18:21:30+06:00,
1000000000336448,77015278506,mMTS,mKcell,mKcell,,D77,2017-02-27T18:21:34+06:00,
1000000000336449,77003000964,mKcell,mAltel,mAltel,,D02,2017-02-27T18:22:03+06:00,
1000000000336450,77006005898,mKcell,mAltel,mAltel,,D02,2017-02-27T18:23:28+06:00,
1000000000336452,77006006079,mKcell,mAltel,mAltel,,D02,2017-02-27T18:24:55+06:00,
1000000000336453,77082976894,mMTS,mAltel,mAltel,,D77,2017-02-27T18:25:52+06:00,
1000000000336455,77006006071,mKcell,mAltel,mAltel,,D02,2017-02-27T18:26:44+06:00,
1000000000336456,77771953000,mMTS,mKarTel,mKarTel,,D77,2017-02-27T18:28:00+06:00,
1000000000336457,77004000529,mKcell,mAltel,mAltel,,D02,2017-02-27T18:28:37+06:00,
1000000000336458,77058111538,mKcell,mKarTel,mKarTel,,D02,2017-02-27T18:29:08+06:00,
1000000000336459,77752777145,mKarTel,mKcell,mKcell,,D01,2017-02-27T18:29:59+06:00,
1000000000336460,77004000657,mKcell,mAltel,mAltel,,D02,2017-02-27T18:29:53+06:00,
