NPId,Number,RecipientId,DonorId,RangeHolderId,OldRoute,NewRoute,PortDate,RowCount
1000000000208912,77058159487,mAltel,mMTS,mKarTel,D77,D07,2016-07-10T17:31:01+06:00,11
1000000000208914,77072832003,mAltel,mMTS,mMTS,,D07,2016-07-10T17:37:32+06:00,
1000000000208915,77783333433,mMTS,mKcell,mKcell,,D77,2016-07-10T17:41:35+06:00,
1000000000208917,77079910622,mMTS,mKarTel,mMTS,D01,D77,2016-07-10T17:42:13+06:00,
1000000000208919,77007775785,mKcell,mAltel,mAltel,,D02,2016-07-10T17:45:31+06:00,
1000000000208920,77015085796,mMTS,mKcell,mKcell,,D77,2016-07-10T17:47:30+06:00,
1000000000208921,77002229201,mMTS,mAltel,mAltel,,D77,2016-07-10T17:49:04+06:00,
1000000000208922,77019222290,mKarTel,mKcell,mKcell,,D01,2016-07-10T17:50:59+06:00,
1000000000208924,77070707070,mAltel,mKcell,mMTS,D02,D07,2016-07-10T17:55:02+06:00,
1000000000208925,77754114396,mKarTel,mKcell,mKcell,,D01,2016-07-10T17:57:19+06:00,
1000000000208926,77774576777,mMTS,mKarTel,mKarTel,,D77,2016-07-10T17:58:46+06:00,
