NPId,Number,RecipientId,DonorId,RangeHolderId,OldRoute,NewRoute,PortDate,RowCount
1000000000277109,77079800637,mMTS,mKarTel,mMTS,D01,D77,2016-11-10T12:32:24+06:00,19
1000000000277113,77079800635,mMTS,mKarTel,mMTS,D01,D77,2016-11-10T12:34:57+06:00,
1000000000277114,77079800640,mMTS,mKarTel,mMTS,D01,D77,2016-11-10T12:35:51+06:00,
1000000000277121,77773849903,mAltel,mKarTel,mKarTel,,D07,2016-11-10T12:45:04+06:00,
1000000000277122,77718129955,mKcell,mKarTel,mKarTel,,D02,2016-11-10T12:32:48+06:00,
1000000000277123,77054920111,mKcell,mKarTel,mKarTel,,D02,2016-11-10T12:33:09+06:00,
1000000000277124,77012501883,mMTS,mKarTel,mKcell,D01,D77,2016-11-10T12:37:58+06:00,
1000000000277125,77017363106,mAltel,mKcell,mKcell,,D07,2016-11-10T12:39:07+06:00,
1000000000277128,77007778020,mAltel,mKcell,mAltel,D02,D07,2016-11-10T12:39:37+06:00,
1000000000277129,77782222656,mAltel,mKcell,mKcell,,D07,2016-11-10T12:40:24+06:00,
1000000000277131,77007778030,mAltel,mKcell,mAltel,D02,D07,2016-11-10T12:43:23+06:00,
1000000000277132,77085527027,mKcell,mAltel,mAltel,,D02,2016-11-10T12:44:06+06:00,
1000000000277133,77762987878,mKcell,mKarTel,mKarTel,,D02,2016-11-10T12:44:36+06:00,
1000000000277134,77025407934,mMTS,mKcell,mKcell,,D77,2016-11-10T12:45:34+06:00,
1000000000277137,77071061106,mKcell,mMTS,mMTS,,D02,2016-11-10T12:49:56+06:00,
1000000000277139,77782752777,mKcell,mMTS,mKcell,D77,D02,2016-11-10T12:55:56+06:00,
1000000000277140,77053535690,mKarTel,mAltel,mKarTel,D07,D01,2016-11-10T12:55:50+06:00,
1000000000277141,77014778815,mKcell,mMTS,mKcell,D77,D02,2016-11-10T12:56:36+06:00,
1000000000277144,77074644404,mKcell,mMTS,mMTS,,D02,2016-11-10T12:59:04+06:00,
