NPId,Number,RecipientId,DonorId,RangeHolderId,OldRoute,NewRoute,PortDate,RowCount
1000000000426688,77758517585,mKcell,mAltel,mKcell,D07,D02,2017-07-23T15:36:43+06:00,7
1000000000426689,77024056030,mMTS,mKcell,mKcell,,D77,2017-07-23T15:40:22+06:00,
1000000000426692,77475559505,mKarTel,mMTS,mMTS,,D01,2017-07-23T15:45:55+06:00,
1000000000426693,77028574391,mKcell,mMTS,mKcell,D77,D02,2017-07-23T15:48:03+06:00,
1000000000426696,77055500202,mKarTel,mMTS,mKarTel,D77,D01,2017-07-23T15:53:44+06:00,
1000000000426697,77021777790,mMTS,mKarTel,mKcell,D01,D77,2017-07-23T15:57:28+06:00,
1000000000426698,77055826343,mAltel,mKarTel,mKarTel,,D07,2017-07-23T15:59:20+06:00,
