NPId,Number,RecipientId,DonorId,RangeHolderId,OldRoute,NewRoute,PortDate,RowCount
1000000000189763,77012695712,mMTS,mKcell,mKcell,,D77,2016-06-08T11:31:28+06:00,14
1000000000189765,77017629938,mAltel,mKcell,mKcell,,D07,2016-06-08T11:37:52+06:00,
1000000000189766,77019934389,mAltel,mKcell,mKcell,,D07,2016-06-08T11:39:27+06:00,
1000000000189767,77017564470,mAltel,mKcell,mKcell,,D07,2016-06-08T11:41:36+06:00,
1000000000189769,77029600898,mAltel,mKcell,mKcell,,D07,2016-06-08T11:43:47+06:00,
1000000000189770,77027461066,mAltel,mKcell,mKcell,,D07,2016-06-08T11:43:43+06:00,
1000000000189772,77011740999,mKcell,mAltel,mKcell,D07,D02,2016-06-08T11:44:46+06:00,
1000000000189773,77029974446,mMTS,mKcell,mKcell,,D77,2016-06-08T11:44:59+06:00,
1000000000189775,77785853579,mMTS,mKcell,mKcell,,D77,2016-06-08T11:47:25+06:00,
1000000000189776,77785882594,mMTS,mKcell,mKcell,,D77,2016-06-08T11:50:38+06:00,
1000000000189777,77077596907,mAltel,mMTS,mMTS,,D07,2016-06-08T11:50:46+06:00,
1000000000189781,77014952358,mMTS,mKcell,mKcell,,D77,2016-06-08T11:57:29+06:00,
1000000000189782,77087718144,mMTS,mAltel,mAltel,,D77,2016-06-08T11:57:36+06:00,
1000000000189783,77019216136,mMTS,mKcell,mKcell,,D77,2016-06-08T11:58:29+06:00,
