NPId,Number,RecipientId,DonorId,RangeHolderId,OldRoute,NewRoute,PortDate,RowCount
1000000000422791,77759215557,mMTS,mKcell,mKcell,,D77,2017-07-16T17:07:00+06:00,9
1000000000422792,77777833999,mAltel,mKarTel,mKarTel,,D07,2017-07-16T17:07:40+06:00,
1000000000422793,77027324020,mKarTel,mKcell,mKcell,,D01,2017-07-16T17:08:30+06:00,
1000000000422794,77754199702,mMTS,mKcell,mKcell,,D77,2017-07-16T17:10:16+06:00,
1000000000422795,77029110363,mMTS,mKcell,mKcell,,D77,2017-07-16T17:11:26+06:00,
1000000000422796,77777053597,mAltel,mKarTel,mKarTel,,D07,2017-07-16T17:13:12+06:00,
1000000000422797,77012491071,mKarTel,mKcell,mKcell,,D01,2017-07-16T17:14:36+06:00,
1000000000422798,77753018088,mMTS,mKcell,mKcell,,D77,2017-07-16T17:18:20+06:00,
1000000000422799,77016142122,mAltel,mKcell,mKcell,,D07,2017-07-16T17:27:33+06:00,
