NPId,Number,RecipientId,DonorId,RangeHolderId,OldRoute,NewRoute,PortDate,RowCount
1000000000194904,77719902824,mKcell,mKarTel,mKarTel,,D02,2016-06-16T21:08:11+06:00,2
1000000000194905,77088882393,mKcell,mAltel,mAltel,,D02,2016-06-16T21:07:52+06:00,
