NPId,Number,RecipientId,DonorId,RangeHolderId,OldRoute,NewRoute,PortDate,RowCount
1000000000404759,77079335335,mKarTel,mMTS,mMTS,,D01,2017-06-17T13:00:38+06:00,19
1000000000404760,77017178173,mKarTel,mKcell,mKcell,,D01,2017-06-17T13:00:54+06:00,
1000000000404761,77059999858,mAltel,mKarTel,mKarTel,,D07,2017-06-17T13:01:38+06:00,
1000000000404763,77752422837,mKarTel,mKcell,mKcell,,D01,2017-06-17T13:07:30+06:00,
1000000000404764,77017466452,mAltel,mKcell,mKcell,,D07,2017-06-17T13:07:43+06:00,
1000000000404765,77015220597,mKarTel,mKcell,mKcell,,D01,2017-06-17T13:10:22+06:00,
1000000000404766,77014360176,mKarTel,mMTS,mKcell,D77,D01,2017-06-17T13:10:38+06:00,
1000000000404767,77789007208,mMTS,mKcell,mKcell,,D77,2017-06-17T13:11:08+06:00,
1000000000404768,77086328476,mKcell,mAltel,mAltel,,D02,2017-06-17T13:11:21+06:00,
1000000000404769,77762620880,mKcell,mKarTel,mKarTel,,D02,2017-06-17T13:15:39+06:00,
1000000000404770,77018396167,mKcell,mKarTel,mKcell,D01,D02,2017-06-17T13:18:27+06:00,
1000000000404771,77056205222,mKarTel,mMTS,mKarTel,D77,D01,2017-06-17T13:20:42+06:00,
1000000000404772,77011880115,mKarTel,mKcell,mKcell,,D01,2017-06-17T13:21:20+06:00,
1000000000404773,77054181819,mKarTel,mMTS,mKarTel,D77,D01,2017-06-17T13:22:10+06:00,
1000000000404774,77074546422,mKarTel,mMTS,mMTS,,D01,2017-06-17T13:22:25+06:00,
1000000000404775,77784455544,mMTS,mAltel,mKcell,D07,D77,2017-06-17T13:22:40+06:00,
1000000000404776,77766661044,mKcell,mAltel,mKarTel,D07,D02,2017-06-17T13:23:23+06:00,
1000000000404779,77773367733,mKcell,mKarTel,mKarTel,,D02,2017-06-17T13:27:31+06:00,
1000000000404780,77760620880,mKcell,mKarTel,mKarTel,,D02,2017-06-17T13:27:35+06:00,
