NPId,Number,RecipientId,DonorId,RangeHolderId,OldRoute,NewRoute,PortDate,RowCount
1000000000284329,77777485888,mAltel,mKarTel,mKarTel,,D07,2016-11-25T18:01:16+06:00,14
1000000000284331,77771421495,mMTS,mKarTel,mKarTel,,D77,2016-11-25T18:02:55+06:00,
1000000000284332,77016353909,mKcell,mAltel,mKcell,D07,D02,2016-11-25T18:04:19+06:00,
1000000000284333,77022745086,mMTS,mKcell,mKcell,,D77,2016-11-25T18:04:45+06:00,
1000000000284334,77024444996,mKcell,mKarTel,mKcell,D01,D02,2016-11-25T18:06:24+06:00,
1000000000284335,77002697209,mKcell,mAltel,mAltel,,D02,2016-11-25T18:09:29+06:00,
1000000000284336,77056364146,mMTS,mKarTel,mKarTel,D01,D77,2016-11-25T18:11:53+06:00,
1000000000284337,77022778899,mMTS,mKarTel,mKcell,D01,D77,2016-11-25T18:12:53+06:00,
1000000000284338,77719115040,mKarTel,mAltel,mKarTel,D07,D01,2016-11-25T18:14:46+06:00,
1000000000284340,77028305473,mKarTel,mKcell,mKcell,,D01,2016-11-25T18:16:55+06:00,
1000000000284341,77774831103,mKarTel,mMTS,mKarTel,D77,D01,2016-11-25T18:18:38+06:00,
1000000000284343,77011949907,mAltel,mKcell,mKcell,,D07,2016-11-25T18:20:28+06:00,
1000000000284346,77072666222,mMTS,mKcell,mMTS,D02,D77,2016-11-25T18:27:43+06:00,
1000000000284347,77789490068,mAltel,mKcell,mKcell,,D07,2016-11-25T18:28:18+06:00,
