NPId,Number,RecipientId,DonorId,RangeHolderId,OldRoute,NewRoute,PortDate,RowCount
1000000000243988,77011017222,mMTS,mKcell,mKcell,,D77,2016-09-10T20:07:31+06:00,2
1000000000243989,77021509957,mAltel,mKcell,mKcell,,D07,2016-09-10T20:25:10+06:00,
