NPId,Number,RecipientId,DonorId,RangeHolderId,OldRoute,NewRoute,PortDate,RowCount
1000000000233777,77076280456,mKarTel,mMTS,mMTS,,D01,2016-08-25T09:02:32+06:00,9
1000000000233778,77015311121,mKarTel,mKcell,mKcell,,D01,2016-08-25T09:02:41+06:00,
1000000000233779,77029994871,mKarTel,mKcell,mKcell,,D01,2016-08-25T09:02:42+06:00,
1000000000233780,77473000805,mKarTel,mMTS,mMTS,,D01,2016-08-25T09:02:33+06:00,
1000000000233781,77778062376,mKarTel,mMTS,mKarTel,D77,D01,2016-08-25T09:02:33+06:00,
1000000000233782,77053610261,mKarTel,mKcell,mKarTel,D02,D01,2016-08-25T09:20:14+06:00,
1000000000233783,77713221080,mKarTel,mKcell,mKarTel,D02,D01,2016-08-25T09:21:59+06:00,
1000000000233784,77772657736,mMTS,mKarTel,mKarTel,,D77,2016-08-25T09:27:58+06:00,
1000000000233785,77082209020,mMTS,mAltel,mAltel,,D77,2016-08-25T09:28:03+06:00,
