NPId,Number,RecipientId,DonorId,RangeHolderId,OldRoute,NewRoute,PortDate,RowCount
1000000000204298,77072106025,mMTS,mKarTel,mMTS,D01,D77,2016-07-02T14:32:35+06:00,8
1000000000204300,77015345612,mKcell,mMTS,mKcell,D77,D02,2016-07-02T14:33:41+06:00,
1000000000204301,77773782400,mMTS,mKarTel,mKarTel,,D77,2016-07-02T14:34:03+06:00,
1000000000204302,77711748981,mMTS,mKarTel,mKarTel,,D77,2016-07-02T14:39:37+06:00,
1000000000204303,77017768843,mKcell,mAltel,mKcell,D07,D02,2016-07-02T14:39:45+06:00,
1000000000204306,77015678263,mMTS,mKcell,mKcell,,D77,2016-07-02T14:47:06+06:00,
1000000000204307,77079800115,mKcell,mMTS,mMTS,,D02,2016-07-02T14:49:41+06:00,
1000000000204308,77087050575,mKcell,mAltel,mAltel,,D02,2016-07-02T14:53:33+06:00,
