NPId,Number,RecipientId,DonorId,RangeHolderId,OldRoute,NewRoute,PortDate,RowCount
1000000000349475,77016765110,mMTS,mKcell,mKcell,,D77,2017-03-18T17:30:02+06:00,19
1000000000349476,77010321050,mKarTel,mKcell,mKcell,,D01,2017-03-18T17:44:07+06:00,
1000000000349477,77085521177,mKarTel,mAltel,mAltel,,D01,2017-03-18T17:33:45+06:00,
1000000000349480,77054056691,mKarTel,mMTS,mKarTel,D77,D01,2017-03-18T17:37:26+06:00,
1000000000349481,77781692852,mKcell,mMTS,mKcell,D77,D02,2017-03-18T17:37:49+06:00,
1000000000349482,77004044774,mMTS,mAltel,mAltel,,D77,2017-03-18T17:38:13+06:00,
1000000000349483,77057579797,mKcell,mKarTel,mKarTel,,D02,2017-03-18T17:41:49+06:00,
1000000000349485,77082228202,mKarTel,mAltel,mAltel,,D01,2017-03-18T17:42:02+06:00,
1000000000349486,77017149866,mAltel,mKcell,mKcell,,D07,2017-03-18T17:42:29+06:00,
1000000000349488,77754906257,mMTS,mKcell,mKcell,,D77,2017-03-18T17:42:50+06:00,
1000000000349489,77014765606,mMTS,mKcell,mKcell,,D77,2017-03-18T17:43:14+06:00,
1000000000349490,77476111641,mKarTel,mMTS,mMTS,,D01,2017-03-18T17:44:29+06:00,
1000000000349491,77003537949,mAltel,mKarTel,mAltel,D01,D07,2017-03-18T17:45:00+06:00,
1000000000349493,77752222303,mAltel,mKcell,mKcell,,D07,2017-03-18T17:46:40+06:00,
1000000000349495,77077770087,mAltel,mMTS,mMTS,,D07,2017-03-18T17:49:55+06:00,
1000000000349496,77075557873,mKcell,mMTS,mMTS,,D02,2017-03-18T17:53:32+06:00,
1000000000349498,77016252696,mKarTel,mKcell,mKcell,,D01,2017-03-18T17:56:36+06:00,
1000000000349500,77024444223,mMTS,mKcell,mKcell,,D77,2017-03-18T17:58:30+06:00,
1000000000349501,77005575010,mMTS,mAltel,mAltel,,D77,2017-03-18T17:58:34+06:00,
