NPId,Number,RecipientId,DonorId,RangeHolderId,OldRoute,NewRoute,PortDate,RowCount
1000000000142576,77019720800,mMTS,mKcell,mKcell,,D77,2016-04-04T19:00:45+06:00,29
1000000000142577,77773522200,mAltel,mKarTel,mKarTel,,D07,2016-04-04T19:00:25+06:00,
1000000000142579,77714491287,mMTS,mKarTel,mKarTel,,D77,2016-04-04T19:02:33+06:00,
1000000000142580,77081746414,mMTS,mAltel,mAltel,,D77,2016-04-04T19:01:16+06:00,
1000000000142581,77011341889,mMTS,mKcell,mKcell,,D77,2016-04-04T19:02:26+06:00,
1000000000142582,77052178013,mMTS,mKarTel,mKarTel,,D77,2016-04-04T19:03:07+06:00,
1000000000142583,77015335838,mKcell,mAltel,mKcell,D07,D02,2016-04-04T19:08:29+06:00,
1000000000142584,77762070808,mAltel,mKarTel,mKarTel,,D07,2016-04-04T19:03:56+06:00,
1000000000142586,77081796909,mMTS,mAltel,mAltel,,D77,2016-04-04T19:03:45+06:00,
1000000000142587,77029374432,mMTS,mKcell,mKcell,,D77,2016-04-04T19:13:26+06:00,
1000000000142588,77058445037,mMTS,mKarTel,mKarTel,,D77,2016-04-04T19:05:45+06:00,
1000000000142589,77786540787,mMTS,mKcell,mKcell,,D77,2016-04-04T19:13:25+06:00,
1000000000142590,77056651204,mKarTel,mAltel,mKarTel,D07,D01,2016-04-04T19:05:10+06:00,
1000000000142591,77027836033,mKarTel,mKcell,mKcell,,D01,2016-04-04T19:15:14+06:00,
1000000000142592,77017282662,mMTS,mKcell,mKcell,,D77,2016-04-04T19:14:45+06:00,
1000000000142594,77019187036,mKarTel,mKcell,mKcell,,D01,2016-04-04T19:15:13+06:00,
1000000000142595,77017690356,mAltel,mKcell,mKcell,,D07,2016-04-04T19:14:47+06:00,
1000000000142596,77754091555,mKcell,mKarTel,mKcell,D01,D02,2016-04-04T19:15:00+06:00,
1000000000142598,77015502554,mMTS,mKcell,mKcell,,D77,2016-04-04T19:14:47+06:00,
1000000000142599,77018998631,mKarTel,mKcell,mKcell,,D01,2016-04-04T19:15:16+06:00,
1000000000142602,77051560550,mMTS,mKarTel,mKarTel,,D77,2016-04-04T19:15:15+06:00,
1000000000142603,77086350603,mMTS,mAltel,mAltel,,D77,2016-04-04T19:13:46+06:00,
1000000000142604,77012239913,mMTS,mKcell,mKcell,,D77,2016-04-04T19:26:50+06:00,
1000000000142606,77715893434,mMTS,mKarTel,mKarTel,,D77,2016-04-04T19:18:28+06:00,
1000000000142609,77770980388,mMTS,mKarTel,mKarTel,,D77,2016-04-04T19:20:05+06:00,
1000000000142613,77712380011,mMTS,mKarTel,mKarTel,,D77,2016-04-04T19:24:50+06:00,
1000000000142615,77003996899,mMTS,mAltel,mAltel,,D77,2016-04-04T19:26:23+06:00,
1000000000142616,77078826619,mAltel,mMTS,mMTS,,D07,2016-04-04T19:27:28+06:00,
1000000000142617,77772033999,mAltel,mKarTel,mKarTel,,D07,2016-04-04T19:29:33+06:00,
