NPId,Number,RecipientId,DonorId,RangeHolderId,OldRoute,NewRoute,PortDate,RowCount
1000000000165087,77711285525,mMTS,mKarTel,mKarTel,,D77,2016-05-01T21:41:33+06:00,2
1000000000165088,77766367777,mKcell,mKarTel,mKarTel,,D02,2016-05-01T21:52:19+06:00,
