NPId,Number,RecipientId,DonorId,RangeHolderId,OldRoute,NewRoute,PortDate,RowCount
1000000000343996,77023799919,mMTS,mKcell,mKcell,,D77,2017-03-09T18:32:12+06:00,30
1000000000343997,77057501651,mMTS,mKarTel,mKarTel,,D77,2017-03-09T18:34:08+06:00,
1000000000343999,77011935206,mKcell,mMTS,mKcell,D77,D02,2017-03-09T18:34:37+06:00,
1000000000344000,77771111805,mKcell,mKarTel,mKarTel,,D02,2017-03-09T18:36:36+06:00,
1000000000344001,77771111867,mKcell,mKarTel,mKarTel,,D02,2017-03-09T18:37:22+06:00,
1000000000344002,77778810880,mAltel,mKarTel,mKarTel,,D07,2017-03-09T18:37:10+06:00,
1000000000344003,77058485555,mMTS,mKarTel,mKarTel,D01,D77,2017-03-09T18:38:07+06:00,
1000000000344004,77777791977,mKcell,mKarTel,mKarTel,,D02,2017-03-09T18:39:27+06:00,
1000000000344005,77777773673,mKcell,mKarTel,mKarTel,,D02,2017-03-09T18:39:49+06:00,
1000000000344006,77082996776,mKcell,mAltel,mAltel,,D02,2017-03-09T18:39:55+06:00,
1000000000344007,77777778672,mKcell,mKarTel,mKarTel,,D02,2017-03-09T18:40:19+06:00,
1000000000344008,77777770616,mKcell,mKarTel,mKarTel,,D02,2017-03-09T18:40:29+06:00,
1000000000344009,77016351470,mMTS,mKcell,mKcell,,D77,2017-03-09T18:41:02+06:00,
1000000000344011,77054969905,mMTS,mKarTel,mKarTel,,D77,2017-03-09T18:41:52+06:00,
1000000000344012,77777776572,mKcell,mKarTel,mKarTel,,D02,2017-03-09T18:43:02+06:00,
1000000000344013,77777774708,mKcell,mKarTel,mKarTel,,D02,2017-03-09T18:43:36+06:00,
1000000000344014,77003523352,mKcell,mAltel,mAltel,,D02,2017-03-09T18:44:55+06:00,
1000000000344015,77777774706,mKcell,mKarTel,mKarTel,,D02,2017-03-09T18:45:29+06:00,
1000000000344016,77012339433,mKarTel,mKcell,mKcell,,D01,2017-03-09T18:46:36+06:00,
1000000000344017,77752629296,mMTS,mKcell,mKcell,,D77,2017-03-09T18:48:29+06:00,
1000000000344018,77055999777,mMTS,mKarTel,mKarTel,,D77,2017-03-09T18:49:04+06:00,
1000000000344019,77017785630,mMTS,mKcell,mKcell,,D77,2017-03-09T18:50:09+06:00,
1000000000344020,77013017000,mKcell,mMTS,mKcell,D77,D02,2017-03-09T18:51:05+06:00,
1000000000344022,77717454571,mAltel,mKarTel,mKarTel,,D07,2017-03-09T18:52:31+06:00,
1000000000344023,77761229912,mKcell,mKarTel,mKarTel,,D02,2017-03-09T18:55:05+06:00,
1000000000344024,77079919601,mAltel,mMTS,mMTS,,D07,2017-03-09T18:55:13+06:00,
1000000000344025,77077100515,mKcell,mMTS,mMTS,,D02,2017-03-09T18:55:42+06:00,
1000000000344026,77786491449,mAltel,mKcell,mKcell,,D07,2017-03-09T18:57:02+06:00,
1000000000344027,77080446031,mAltel,mMTS,mAltel,D77,D07,2017-03-09T18:58:49+06:00,
1000000000344028,77471116598,mAltel,mMTS,mMTS,,D07,2017-03-09T18:59:43+06:00,
