NPId,Number,RecipientId,DonorId,RangeHolderId,OldRoute,NewRoute,PortDate,RowCount
1000000000313471,77019715375,mKcell,mKarTel,mKcell,D01,D02,2017-01-20T09:42:38+06:00,4
1000000000313474,77787108780,mAltel,mMTS,mKcell,D77,D07,2017-01-20T09:37:56+06:00,
1000000000313475,77019388434,mKarTel,mKcell,mKcell,,D01,2017-01-20T09:47:03+06:00,
1000000000313476,77075815815,mKarTel,mMTS,mMTS,,D01,2017-01-20T09:53:46+06:00,
