NPId,Number,RecipientId,DonorId,RangeHolderId,OldRoute,NewRoute,PortDate,RowCount
1000000000382818,77088000798,mMTS,mAltel,mAltel,,D77,2017-05-14T12:32:15+06:00,6
1000000000382821,77015250200,mKarTel,mKcell,mKcell,,D01,2017-05-14T12:42:11+06:00,
1000000000382822,77774131406,mMTS,mKarTel,mKarTel,,D77,2017-05-14T12:48:56+06:00,
1000000000382823,77019058202,mAltel,mKcell,mKcell,,D07,2017-05-14T12:53:00+06:00,
1000000000382824,77017328013,mKarTel,mMTS,mKcell,D77,D01,2017-05-14T12:56:57+06:00,
1000000000382825,77015596433,mMTS,mKcell,mKcell,,D77,2017-05-14T12:57:58+06:00,
