NPId,Number,RecipientId,DonorId,RangeHolderId,OldRoute,NewRoute,PortDate,RowCount
1000000000132604,77076097031,mKcell,mMTS,mMTS,,D02,2016-03-24T19:30:05+06:00,11
1000000000132605,77751470703,mAltel,mKcell,mKcell,,D07,2016-03-24T19:30:22+06:00,
1000000000132606,77785550161,mKarTel,mKcell,mKcell,,D01,2016-03-24T19:31:40+06:00,
1000000000132608,77051005220,mKcell,mKarTel,mKarTel,,D02,2016-03-24T19:42:21+06:00,
1000000000132609,77775710606,mKcell,mKarTel,mKarTel,,D02,2016-03-24T19:42:34+06:00,
1000000000132610,77026026877,mKcell,mMTS,mKcell,D77,D02,2016-03-24T19:45:23+06:00,
1000000000132611,77015425373,mMTS,mKcell,mKcell,,D77,2016-03-24T19:48:00+06:00,
1000000000132612,77752222489,mAltel,mKcell,mKcell,,D07,2016-03-24T19:51:01+06:00,
1000000000132613,77028071602,mAltel,mKcell,mKcell,,D07,2016-03-24T19:51:01+06:00,
1000000000132614,77711130010,mKcell,mKarTel,mKarTel,,D02,2016-03-24T19:53:05+06:00,
1000000000132616,77783041141,mMTS,mKcell,mKcell,,D77,2016-03-24T19:52:09+06:00,
