NPId,Number,RecipientId,DonorId,RangeHolderId,OldRoute,NewRoute,PortDate,RowCount
1000000000201487,77021119521,mMTS,mAltel,mKcell,D07,D77,2016-06-28T14:30:45+06:00,25
1000000000201488,77018018801,mMTS,mKcell,mKcell,,D77,2016-06-28T14:32:42+06:00,
1000000000201489,77072222133,mAltel,mMTS,mMTS,,D07,2016-06-28T14:32:04+06:00,
1000000000201490,77056480952,mKcell,mKarTel,mKarTel,,D02,2016-06-28T14:34:39+06:00,
1000000000201492,77773864246,mAltel,mKarTel,mKarTel,,D07,2016-06-28T14:34:12+06:00,
1000000000201493,77782910405,mMTS,mKarTel,mKcell,D01,D77,2016-06-28T14:35:44+06:00,
1000000000201495,77479972528,mKarTel,mMTS,mMTS,,D01,2016-06-28T14:36:53+06:00,
1000000000201496,77017847858,mAltel,mKcell,mKcell,,D07,2016-06-28T14:38:32+06:00,
1000000000201497,77071100841,mKarTel,mMTS,mMTS,,D01,2016-06-28T14:37:15+06:00,
1000000000201498,77770059778,mMTS,mKarTel,mKarTel,,D77,2016-06-28T14:52:39+06:00,
1000000000201500,77770059781,mMTS,mKarTel,mKarTel,,D77,2016-06-28T14:53:08+06:00,
1000000000201504,77781560111,mKcell,mMTS,mKcell,D77,D02,2016-06-28T14:41:02+06:00,
1000000000201508,77776630263,mKarTel,mKcell,mKarTel,D02,D01,2016-06-28T14:42:41+06:00,
1000000000201510,77715224656,mMTS,mKarTel,mKarTel,,D77,2016-06-28T14:42:17+06:00,
1000000000201511,77770059789,mMTS,mKarTel,mKarTel,,D77,2016-06-28T14:57:52+06:00,
1000000000201512,77770059794,mMTS,mKarTel,mKarTel,,D77,2016-06-28T14:58:25+06:00,
1000000000201514,77770059790,mMTS,mKarTel,mKarTel,,D77,2016-06-28T14:59:17+06:00,
1000000000201515,77027771082,mMTS,mKcell,mKcell,,D77,2016-06-28T14:44:27+06:00,
1000000000201520,77004800050,mKcell,mAltel,mAltel,,D02,2016-06-28T14:49:37+06:00,
1000000000201522,77071259646,mKcell,mMTS,mMTS,,D02,2016-06-28T14:49:36+06:00,
1000000000201523,77751641339,mMTS,mKcell,mKcell,,D77,2016-06-28T14:48:48+06:00,
1000000000201528,77081811996,mMTS,mAltel,mAltel,,D77,2016-06-28T14:50:09+06:00,
1000000000201533,77751757017,mMTS,mKcell,mKcell,,D77,2016-06-28T14:53:38+06:00,
1000000000201534,77772510222,mMTS,mKarTel,mKarTel,,D77,2016-06-28T14:53:54+06:00,
1000000000201537,77076668355,mMTS,mAltel,mMTS,D07,D77,2016-06-28T14:56:39+06:00,
