NPId,Number,RecipientId,DonorId,RangeHolderId,OldRoute,NewRoute,PortDate,RowCount
1000000000413360,77717181751,mKcell,mKarTel,mKarTel,,D02,2017-06-30T18:05:02+06:00,54
1000000000413365,77717181752,mKcell,mKarTel,mKarTel,,D02,2017-06-30T18:08:09+06:00,
1000000000413368,77717181753,mKcell,mKarTel,mKarTel,,D02,2017-06-30T18:09:57+06:00,
1000000000413374,77010594679,mKcell,mKarTel,mKcell,D01,D02,2017-06-30T18:12:51+06:00,
1000000000413375,77717181754,mKcell,mKarTel,mKarTel,,D02,2017-06-30T18:13:00+06:00,
1000000000413379,77010598692,mKcell,mKarTel,mKcell,D01,D02,2017-06-30T18:14:48+06:00,
1000000000413382,77010711391,mKcell,mKarTel,mKcell,D01,D02,2017-06-30T18:16:37+06:00,
1000000000413385,77717181757,mKcell,mKarTel,mKarTel,,D02,2017-06-30T18:18:12+06:00,
1000000000413387,77010711393,mKcell,mKarTel,mKcell,D01,D02,2017-06-30T18:18:28+06:00,
1000000000413394,77717181758,mKcell,mKarTel,mKarTel,,D02,2017-06-30T18:21:10+06:00,
1000000000413396,77010711422,mKcell,mKarTel,mKcell,D01,D02,2017-06-30T18:22:09+06:00,
1000000000413401,77713958418,mKcell,mKarTel,mKarTel,,D02,2017-06-30T18:26:22+06:00,
1000000000413402,77717181760,mKcell,mKarTel,mKarTel,,D02,2017-06-30T18:26:04+06:00,
1000000000413409,77717181761,mKcell,mKarTel,mKarTel,,D02,2017-06-30T18:29:29+06:00,
1000000000413471,77082552014,mKarTel,mAltel,mAltel,,D01,2017-06-30T18:00:50+06:00,
1000000000413472,77774222262,mKarTel,mKcell,mKarTel,D02,D01,2017-06-30T18:01:36+06:00,
1000000000413473,77025281985,mKcell,mMTS,mKcell,D77,D02,2017-06-30T18:02:01+06:00,
1000000000413474,77024412751,mAltel,mKcell,mKcell,,D07,2017-06-30T18:02:02+06:00,
1000000000413476,77000002160,mMTS,mAltel,mAltel,,D77,2017-06-30T18:02:23+06:00,
1000000000413479,77772231418,mKarTel,mKcell,mKarTel,D02,D01,2017-06-30T18:04:47+06:00,
1000000000413480,77087760548,mKarTel,mAltel,mAltel,,D01,2017-06-30T18:04:48+06:00,
1000000000413482,77779473280,mMTS,mKarTel,mKarTel,,D77,2017-06-30T18:05:47+06:00,
1000000000413483,77011115699,mKarTel,mKcell,mKcell,,D01,2017-06-30T18:06:01+06:00,
1000000000413485,77005005259,mKcell,mAltel,mAltel,,D02,2017-06-30T18:05:57+06:00,
1000000000413486,77785333233,mKcell,mKarTel,mKcell,D01,D02,2017-06-30T18:07:17+06:00,
1000000000413488,77029636196,mKarTel,mKcell,mKcell,,D01,2017-06-30T18:07:03+06:00,
1000000000413489,77475060487,mKcell,mMTS,mMTS,,D02,2017-06-30T18:08:28+06:00,
1000000000413490,77017842102,mKarTel,mKcell,mKcell,,D01,2017-06-30T18:09:07+06:00,
1000000000413491,77015464626,mKarTel,mKcell,mKcell,,D01,2017-06-30T18:11:22+06:00,
1000000000413492,77003003934,mKcell,mAltel,mAltel,,D02,2017-06-30T18:11:37+06:00,
1000000000413494,77766818888,mMTS,mKcell,mKarTel,D02,D77,2017-06-30T18:11:51+06:00,
1000000000413496,77012444737,mAltel,mKcell,mKcell,,D07,2017-06-30T18:12:15+06:00,
1000000000413497,77017109627,mKcell,mKarTel,mKcell,D01,D02,2017-06-30T18:12:35+06:00,
1000000000413498,77072266040,mKarTel,mMTS,mMTS,,D01,2017-06-30T18:12:30+06:00,
1000000000413499,77000000131,mAltel,mMTS,mAltel,D77,D07,2017-06-30T18:14:07+06:00,
1000000000413502,77023488179,mMTS,mKcell,mKcell,,D77,2017-06-30T18:15:33+06:00,
1000000000413503,77773161146,mMTS,mKarTel,mKarTel,,D77,2017-06-30T18:16:54+06:00,
1000000000413505,77002225423,mKcell,mMTS,mAltel,D77,D02,2017-06-30T18:16:59+06:00,
1000000000413506,77075559441,mKarTel,mMTS,mMTS,,D01,2017-06-30T18:18:24+06:00,
1000000000413507,77789111511,mKarTel,mKcell,mKcell,,D01,2017-06-30T18:19:01+06:00,
1000000000413508,77023332011,mMTS,mKcell,mKcell,,D77,2017-06-30T18:18:52+06:00,
1000000000413509,77056604040,mMTS,mKcell,mKarTel,D02,D77,2017-06-30T18:19:18+06:00,
1000000000413510,77058882662,mKarTel,mKcell,mKarTel,D02,D01,2017-06-30T18:19:48+06:00,
1000000000413511,77782465557,mMTS,mKcell,mKcell,,D77,2017-06-30T18:19:42+06:00,
1000000000413512,77715410137,mAltel,mKarTel,mKarTel,,D07,2017-06-30T18:20:16+06:00,
1000000000413513,77782040999,mAltel,mKcell,mKcell,,D07,2017-06-30T18:20:40+06:00,
1000000000413514,77078070606,mKcell,mMTS,mMTS,,D02,2017-06-30T18:21:38+06:00,
1000000000413516,77014278255,mAltel,mKcell,mKcell,,D07,2017-06-30T18:22:27+06:00,
1000000000413517,77012140216,mKarTel,mKcell,mKcell,,D01,2017-06-30T18:22:41+06:00,
1000000000413518,77015444286,mKarTel,mKcell,mKcell,,D01,2017-06-30T18:24:50+06:00,
1000000000413519,77075559105,mKarTel,mMTS,mMTS,,D01,2017-06-30T18:25:42+06:00,
1000000000413520,77017491480,mMTS,mKcell,mKcell,,D77,2017-06-30T18:26:55+06:00,
1000000000413521,77773249817,mMTS,mKarTel,mKarTel,,D77,2017-06-30T18:27:43+06:00,
1000000000413522,77017500162,mAltel,mKcell,mKcell,,D07,2017-06-30T18:29:05+06:00,
