NPId,Number,RecipientId,DonorId,RangeHolderId,OldRoute,NewRoute,PortDate,RowCount
1000000000134437,77769933000,mAltel,mKarTel,mKarTel,,D07,2016-03-26T19:31:23+06:00,11
1000000000134438,77056308800,mKcell,mKarTel,mKarTel,,D02,2016-03-26T19:36:41+06:00,
1000000000134439,77075815997,mAltel,mMTS,mMTS,,D07,2016-03-26T19:37:07+06:00,
1000000000134440,77012045450,mAltel,mKcell,mKcell,,D07,2016-03-26T19:38:47+06:00,
1000000000134441,77077308800,mKcell,mMTS,mMTS,,D02,2016-03-26T19:40:35+06:00,
1000000000134442,77711121704,mKcell,mKarTel,mKarTel,,D02,2016-03-26T19:42:20+06:00,
1000000000134443,77052626891,mMTS,mKarTel,mKarTel,,D77,2016-03-26T19:43:33+06:00,
1000000000134444,77019998786,mAltel,mKcell,mKcell,,D07,2016-03-26T19:46:24+06:00,
1000000000134445,77025343673,mKarTel,mKcell,mKcell,,D01,2016-03-26T19:46:43+06:00,
1000000000134446,77077809207,mKcell,mMTS,mMTS,,D02,2016-03-26T19:50:39+06:00,
1000000000134447,77716666633,mAltel,mKarTel,mKarTel,,D07,2016-03-26T19:51:32+06:00,
