NPId,Number,RecipientId,DonorId,RangeHolderId,OldRoute,NewRoute,PortDate,RowCount
1000000000426655,77019896752,mKarTel,mKcell,mKcell,,D01,2017-07-23T14:35:04+06:00,13
1000000000426656,77081727210,mKarTel,mAltel,mAltel,,D01,2017-07-23T14:35:52+06:00,
1000000000426657,77024747087,mMTS,mKcell,mKcell,,D77,2017-07-23T14:35:59+06:00,
1000000000426658,77013666633,mKcell,mMTS,mKcell,D77,D02,2017-07-23T14:37:54+06:00,
1000000000426659,77786387606,mAltel,mKcell,mKcell,,D07,2017-07-23T14:40:06+06:00,
1000000000426660,77019488686,mMTS,mKcell,mKcell,,D77,2017-07-23T14:41:00+06:00,
1000000000426662,77073149509,mMTS,mKarTel,mMTS,D01,D77,2017-07-23T14:49:35+06:00,
1000000000426663,77772267311,mKarTel,mMTS,mKarTel,D77,D01,2017-07-23T14:50:16+06:00,
1000000000426664,77015165923,mMTS,mKcell,mKcell,,D77,2017-07-23T14:52:14+06:00,
1000000000426665,77473202023,mKarTel,mMTS,mMTS,,D01,2017-07-23T14:52:58+06:00,
1000000000426666,77076743500,mKarTel,mMTS,mMTS,,D01,2017-07-23T14:55:47+06:00,
1000000000426667,77757227777,mMTS,mKcell,mKcell,,D77,2017-07-23T14:58:09+06:00,
1000000000426668,77075639844,mAltel,mMTS,mMTS,,D07,2017-07-23T14:58:56+06:00,
