NPId,Number,RecipientId,DonorId,RangeHolderId,OldRoute,NewRoute,PortDate,RowCount
1000000000137834,77010272571,mKarTel,mKcell,mKcell,,D01,2016-03-31T12:02:27+06:00,54
1000000000137834,77010275509,mKarTel,mKcell,mKcell,,D01,2016-03-31T12:02:27+06:00,
1000000000137834,77010275510,mKarTel,mKcell,mKcell,,D01,2016-03-31T12:02:27+06:00,
1000000000137834,77010282313,mKarTel,mKcell,mKcell,,D01,2016-03-31T12:02:27+06:00,
1000000000137834,77010292519,mKarTel,mKcell,mKcell,,D01,2016-03-31T12:02:27+06:00,
1000000000137834,77010320743,mKarTel,mKcell,mKcell,,D01,2016-03-31T12:02:27+06:00,
1000000000137834,77010327968,mKarTel,mKcell,mKcell,,D01,2016-03-31T12:02:27+06:00,
1000000000137834,77010354524,mKarTel,mKcell,mKcell,,D01,2016-03-31T12:02:27+06:00,
1000000000137834,77010916206,mKarTel,mKcell,mKcell,,D01,2016-03-31T12:02:27+06:00,
1000000000137834,77010916207,mKarTel,mKcell,mKcell,,D01,2016-03-31T12:02:27+06:00,
1000000000137834,77010918716,mKarTel,mKcell,mKcell,,D01,2016-03-31T12:02:27+06:00,
1000000000137834,77015165624,mKarTel,mKcell,mKcell,,D01,2016-03-31T12:02:27+06:00,
1000000000137834,77015165625,mKarTel,mKcell,mKcell,,D01,2016-03-31T12:02:27+06:00,
1000000000137834,77015165628,mKarTel,mKcell,mKcell,,D01,2016-03-31T12:02:27+06:00,
1000000000137834,77015168803,mKarTel,mKcell,mKcell,,D01,2016-03-31T12:02:27+06:00,
1000000000137834,77015289747,mKarTel,mKcell,mKcell,,D01,2016-03-31T12:02:27+06:00,
1000000000137834,77015719091,mKarTel,mKcell,mKcell,,D01,2016-03-31T12:02:27+06:00,
1000000000137834,77018885168,mKarTel,mKcell,mKcell,,D01,2016-03-31T12:02:27+06:00,
1000000000137834,77019320727,mKarTel,mKcell,mKcell,,D01,2016-03-31T12:02:27+06:00,
1000000000137975,77080446031,mMTS,mAltel,mAltel,,D77,2016-03-31T12:00:57+06:00,
1000000000137977,77023045559,mMTS,mAltel,mKcell,D07,D77,2016-03-31T12:02:41+06:00,
1000000000137978,77763210095,mKcell,mKarTel,mKarTel,,D02,2016-03-31T12:05:39+06:00,
1000000000137979,77019651438,mMTS,mKcell,mKcell,,D77,2016-03-31T12:05:27+06:00,
1000000000137980,77018689915,mMTS,mAltel,mKcell,D07,D77,2016-03-31T12:06:11+06:00,
1000000000137981,77781450560,mMTS,mKcell,mKcell,,D77,2016-03-31T12:07:12+06:00,
1000000000137982,77776942221,mMTS,mKarTel,mKarTel,,D77,2016-03-31T12:07:52+06:00,
1000000000137984,77015310418,mMTS,mKcell,mKcell,,D77,2016-03-31T12:07:40+06:00,
1000000000137985,77774427121,mKarTel,mAltel,mKarTel,D07,D01,2016-03-31T12:08:18+06:00,
1000000000137986,77018689914,mMTS,mAltel,mKcell,D07,D77,2016-03-31T12:08:17+06:00,
1000000000137987,77782458240,mMTS,mKcell,mKcell,,D77,2016-03-31T12:09:55+06:00,
1000000000137989,77475668789,mKcell,mMTS,mMTS,,D02,2016-03-31T12:10:38+06:00,
1000000000137990,77058895126,mMTS,mKarTel,mKarTel,,D77,2016-03-31T12:13:14+06:00,
1000000000137991,77017991796,mKarTel,mAltel,mKcell,D07,D01,2016-03-31T12:12:18+06:00,
1000000000137992,77014664955,mMTS,mKcell,mKcell,,D77,2016-03-31T12:12:38+06:00,
1000000000137993,77017613490,mMTS,mKcell,mKcell,,D77,2016-03-31T12:12:56+06:00,
1000000000137994,77088706001,mMTS,mAltel,mAltel,,D77,2016-03-31T12:12:36+06:00,
1000000000137996,77004722200,mAltel,mKcell,mAltel,D02,D07,2016-03-31T12:14:37+06:00,
1000000000137997,77072132950,mAltel,mMTS,mMTS,,D07,2016-03-31T12:14:27+06:00,
1000000000137998,77017169123,mMTS,mKcell,mKcell,,D77,2016-03-31T12:15:45+06:00,
1000000000137999,77072227961,mKarTel,mMTS,mMTS,,D01,2016-03-31T12:16:23+06:00,
1000000000138000,77010000187,mMTS,mKcell,mKcell,,D77,2016-03-31T12:16:58+06:00,
1000000000138002,77751081818,mMTS,mKcell,mKcell,,D77,2016-03-31T12:18:10+06:00,
1000000000138004,77028003111,mKarTel,mKcell,mKcell,,D01,2016-03-31T12:19:55+06:00,
1000000000138005,77774705613,mAltel,mKarTel,mKarTel,,D07,2016-03-31T12:22:06+06:00,
1000000000138006,77771712288,mMTS,mKarTel,mKarTel,,D77,2016-03-31T12:23:00+06:00,
1000000000138008,77089027174,mMTS,mAltel,mAltel,,D77,2016-03-31T12:23:06+06:00,
1000000000138009,77787771082,mMTS,mKcell,mKcell,,D77,2016-03-31T12:24:12+06:00,
1000000000138010,77017577934,mMTS,mKcell,mKcell,,D77,2016-03-31T12:24:49+06:00,
1000000000138012,77025544966,mKcell,mKarTel,mKcell,D01,D02,2016-03-31T12:28:29+06:00,
1000000000138014,77028754927,mKcell,mAltel,mKcell,D07,D02,2016-03-31T12:27:43+06:00,
1000000000138015,77052537167,mMTS,mKarTel,mKarTel,,D77,2016-03-31T12:28:26+06:00,
1000000000138016,77054515117,mAltel,mKarTel,mKarTel,,D07,2016-03-31T12:29:25+06:00,
1000000000138017,77011117376,mAltel,mKcell,mKcell,,D07,2016-03-31T12:28:45+06:00,
1000000000138018,77474669098,mAltel,mMTS,mMTS,,D07,2016-03-31T12:29:21+06:00,
