NPId,Number,RecipientId,DonorId,RangeHolderId,OldRoute,NewRoute,PortDate,RowCount
1000000000264673,77019381953,mKarTel,mKcell,mKcell,,D01,2016-10-19T17:02:35+06:00,37
1000000000264680,77018748136,mKarTel,mKcell,mKcell,,D01,2016-10-19T17:21:45+06:00,
1000000000264680,77019520571,mKarTel,mKcell,mKcell,,D01,2016-10-19T17:21:45+06:00,
1000000000264680,77019520572,mKarTel,mKcell,mKcell,,D01,2016-10-19T17:21:45+06:00,
1000000000264680,77019520573,mKarTel,mKcell,mKcell,,D01,2016-10-19T17:21:45+06:00,
1000000000264680,77022163765,mKarTel,mKcell,mKcell,,D01,2016-10-19T17:21:45+06:00,
1000000000265071,77753436671,mMTS,mKcell,mKcell,,D77,2016-10-19T17:01:54+06:00,
1000000000265072,77014498300,mAltel,mKcell,mKcell,,D07,2016-10-19T17:00:09+06:00,
1000000000265073,77017479320,mKcell,mAltel,mKcell,D07,D02,2016-10-19T17:00:22+06:00,
1000000000265074,77023999258,mKarTel,mKcell,mKcell,,D01,2016-10-19T17:01:10+06:00,
1000000000265075,77789999110,mAltel,mKcell,mKcell,,D07,2016-10-19T17:01:33+06:00,
1000000000265077,77718537447,mMTS,mKarTel,mKarTel,,D77,2016-10-19T17:01:53+06:00,
1000000000265081,77018600700,mMTS,mAltel,mKcell,D07,D77,2016-10-19T17:03:34+06:00,
1000000000265084,77772332827,mAltel,mKarTel,mKarTel,,D07,2016-10-19T17:05:21+06:00,
1000000000265086,77077970144,mAltel,mMTS,mMTS,,D07,2016-10-19T17:05:39+06:00,
1000000000265087,77783332255,mAltel,mKcell,mKcell,,D07,2016-10-19T17:05:46+06:00,
1000000000265088,77014649046,mMTS,mKcell,mKcell,,D77,2016-10-19T17:06:14+06:00,
1000000000265090,77072259171,mAltel,mMTS,mMTS,,D07,2016-10-19T17:06:21+06:00,
1000000000265092,77023333253,mKarTel,mKcell,mKcell,,D01,2016-10-19T17:09:39+06:00,
1000000000265094,77714410101,mKarTel,mMTS,mKarTel,D77,D01,2016-10-19T17:11:46+06:00,
1000000000265095,77057885583,mMTS,mKarTel,mKarTel,,D77,2016-10-19T17:12:42+06:00,
1000000000265098,77029838499,mAltel,mKcell,mKcell,,D07,2016-10-19T17:15:47+06:00,
1000000000265099,77079999908,mKcell,mMTS,mMTS,,D02,2016-10-19T17:17:42+06:00,
1000000000265101,77475473163,mKcell,mMTS,mMTS,,D02,2016-10-19T17:16:17+06:00,
1000000000265102,77750000634,mMTS,mKcell,mKcell,,D77,2016-10-19T17:18:57+06:00,
1000000000265104,77782221168,mAltel,mKcell,mKcell,,D07,2016-10-19T17:17:21+06:00,
1000000000265105,77018848460,mAltel,mKcell,mKcell,,D07,2016-10-19T17:18:40+06:00,
1000000000265107,77018848456,mAltel,mKcell,mKcell,,D07,2016-10-19T17:19:27+06:00,
1000000000265108,77784289898,mMTS,mKcell,mKcell,,D77,2016-10-19T17:22:15+06:00,
1000000000265111,77075577554,mKcell,mMTS,mMTS,,D02,2016-10-19T17:21:44+06:00,
1000000000265113,77766669177,mKarTel,mKcell,mKarTel,D02,D01,2016-10-19T17:25:13+06:00,
1000000000265114,77017256049,mMTS,mAltel,mKcell,D07,D77,2016-10-19T17:25:22+06:00,
1000000000265116,77018743835,mKarTel,mKcell,mKcell,,D01,2016-10-19T17:26:02+06:00,
1000000000265117,77022231378,mKarTel,mKcell,mKcell,,D01,2016-10-19T17:26:13+06:00,
1000000000265119,77019429242,mMTS,mKcell,mKcell,,D77,2016-10-19T17:26:15+06:00,
1000000000265121,77083901313,mMTS,mAltel,mAltel,,D77,2016-10-19T17:27:28+06:00,
1000000000265123,77477730026,mMTS,mKcell,mMTS,D02,D77,2016-10-19T17:29:14+06:00,
