NPId,Number,RecipientId,DonorId,RangeHolderId,OldRoute,NewRoute,PortDate,RowCount
1000000000219098,77773112075,mKcell,mKarTel,mKarTel,,D02,2016-07-29T12:06:03+06:00,36
1000000000219102,77774704458,mKcell,mKarTel,mKarTel,,D02,2016-07-29T12:10:44+06:00,
1000000000219105,77774704459,mKcell,mKarTel,mKarTel,,D02,2016-07-29T12:15:07+06:00,
1000000000219107,77754944040,mKarTel,mKcell,mKcell,,D01,2016-07-29T12:01:09+06:00,
1000000000219108,77752375834,mMTS,mKcell,mKcell,,D77,2016-07-29T12:01:22+06:00,
1000000000219109,77772297422,mKcell,mKarTel,mKarTel,,D02,2016-07-29T12:03:24+06:00,
1000000000219110,77017221029,mMTS,mKcell,mKcell,,D77,2016-07-29T12:02:17+06:00,
1000000000219111,77023365582,mKarTel,mKcell,mKcell,,D01,2016-07-29T12:03:08+06:00,
1000000000219113,77777471900,mKcell,mKarTel,mKarTel,,D02,2016-07-29T12:19:52+06:00,
1000000000219114,77754544770,mKarTel,mKcell,mKcell,,D01,2016-07-29T12:04:25+06:00,
1000000000219115,77056339229,mAltel,mMTS,mKarTel,D77,D07,2016-07-29T12:04:53+06:00,
1000000000219116,77012123671,mMTS,mKcell,mKcell,,D77,2016-07-29T12:05:59+06:00,
1000000000219117,77021231133,mKcell,mMTS,mKcell,D77,D02,2016-07-29T12:07:04+06:00,
1000000000219118,77025301834,mMTS,mKcell,mKcell,,D77,2016-07-29T12:07:23+06:00,
1000000000219120,77777471901,mKcell,mKarTel,mKarTel,,D02,2016-07-29T12:24:59+06:00,
1000000000219121,77479610825,mKarTel,mMTS,mMTS,,D01,2016-07-29T12:08:54+06:00,
1000000000219122,77077171555,mKarTel,mMTS,mMTS,,D01,2016-07-29T12:09:19+06:00,
1000000000219123,77472475913,mKarTel,mMTS,mMTS,,D01,2016-07-29T12:10:30+06:00,
1000000000219124,77752500025,mKarTel,mKcell,mKcell,,D01,2016-07-29T12:11:21+06:00,
1000000000219126,77029990621,mKcell,mAltel,mKcell,D07,D02,2016-07-29T12:13:03+06:00,
1000000000219127,77027799929,mKarTel,mKcell,mKcell,,D01,2016-07-29T12:14:50+06:00,
1000000000219128,77071614040,mKcell,mMTS,mMTS,,D02,2016-07-29T12:16:14+06:00,
1000000000219129,77752375894,mMTS,mKcell,mKcell,,D77,2016-07-29T12:17:16+06:00,
1000000000219130,77002220216,mMTS,mAltel,mAltel,,D77,2016-07-29T12:19:43+06:00,
1000000000219131,77003333877,mMTS,mAltel,mAltel,,D77,2016-07-29T12:20:43+06:00,
1000000000219132,77002220217,mMTS,mAltel,mAltel,,D77,2016-07-29T12:21:08+06:00,
1000000000219133,77783689288,mMTS,mAltel,mKcell,D07,D77,2016-07-29T12:21:30+06:00,
1000000000219134,77002220218,mMTS,mAltel,mAltel,,D77,2016-07-29T12:22:12+06:00,
1000000000219136,77778679031,mAltel,mKarTel,mKarTel,,D07,2016-07-29T12:23:26+06:00,
1000000000219138,77009934370,mKcell,mAltel,mAltel,,D02,2016-07-29T12:25:05+06:00,
1000000000219139,77057693917,mMTS,mKarTel,mKarTel,,D77,2016-07-29T12:26:40+06:00,
1000000000219140,77017282895,mMTS,mKcell,mKcell,,D77,2016-07-29T12:26:10+06:00,
1000000000219141,77001110010,mMTS,mAltel,mAltel,,D77,2016-07-29T12:27:16+06:00,
1000000000219142,77765555798,mKcell,mKarTel,mKarTel,,D02,2016-07-29T12:29:07+06:00,
1000000000219143,77013110992,mAltel,mKcell,mKcell,,D07,2016-07-29T12:27:48+06:00,
1000000000219144,77017521041,mKarTel,mKcell,mKcell,,D01,2016-07-29T12:28:41+06:00,
