NPId,Number,RecipientId,DonorId,RangeHolderId,OldRoute,NewRoute,PortDate,RowCount
1000000000388677,77083543334,mMTS,mAltel,mAltel,,D77,2017-05-25T12:01:11+06:00,26
1000000000388678,77014106664,mMTS,mKcell,mKcell,,D77,2017-05-25T12:01:52+06:00,
1000000000388679,77017209080,mMTS,mKarTel,mKcell,D01,D77,2017-05-25T12:02:09+06:00,
1000000000388680,77477022280,mAltel,mMTS,mMTS,,D07,2017-05-25T12:05:25+06:00,
1000000000388681,77004754443,mKcell,mAltel,mAltel,,D02,2017-05-25T12:06:54+06:00,
1000000000388682,77712893154,mAltel,mKarTel,mKarTel,,D07,2017-05-25T12:07:27+06:00,
1000000000388683,77007721997,mMTS,mAltel,mAltel,,D77,2017-05-25T12:07:49+06:00,
1000000000388685,77083200312,mAltel,mKarTel,mAltel,D01,D07,2017-05-25T12:09:15+06:00,
1000000000388686,77783924566,mKarTel,mKcell,mKcell,,D01,2017-05-25T12:12:07+06:00,
1000000000388687,77014713232,mMTS,mKcell,mKcell,,D77,2017-05-25T12:11:59+06:00,
1000000000388689,77789979919,mMTS,mKcell,mKcell,,D77,2017-05-25T12:12:26+06:00,
1000000000388690,77082669062,mMTS,mAltel,mAltel,,D77,2017-05-25T12:12:45+06:00,
1000000000388691,77718240824,mKcell,mKarTel,mKarTel,,D02,2017-05-25T12:13:17+06:00,
1000000000388692,77767182727,mMTS,mKarTel,mKarTel,,D77,2017-05-25T12:16:02+06:00,
1000000000388693,77781242424,mKcell,mAltel,mKcell,D07,D02,2017-05-25T12:16:04+06:00,
1000000000388694,77082725531,mKcell,mAltel,mAltel,,D02,2017-05-25T12:18:18+06:00,
1000000000388695,77017772820,mAltel,mKarTel,mKcell,D01,D07,2017-05-25T12:18:40+06:00,
1000000000388696,77079126611,mAltel,mMTS,mMTS,,D07,2017-05-25T12:18:44+06:00,
1000000000388697,77003915490,mKarTel,mAltel,mAltel,,D01,2017-05-25T12:19:28+06:00,
1000000000388698,77755010254,mKarTel,mKcell,mKcell,,D01,2017-05-25T12:21:02+06:00,
1000000000388699,77075257730,mKarTel,mMTS,mMTS,,D01,2017-05-25T12:22:37+06:00,
1000000000388700,77073254343,mMTS,mAltel,mMTS,D07,D77,2017-05-25T12:24:36+06:00,
1000000000388702,77076686496,mKarTel,mMTS,mMTS,,D01,2017-05-25T12:25:32+06:00,
1000000000388703,77712988460,mAltel,mKarTel,mKarTel,,D07,2017-05-25T12:25:39+06:00,
1000000000388704,77004244249,mMTS,mAltel,mAltel,,D77,2017-05-25T12:25:39+06:00,
1000000000388709,77016652196,mMTS,mKcell,mKcell,,D77,2017-05-25T12:29:56+06:00,
