NPId,Number,RecipientId,DonorId,RangeHolderId,OldRoute,NewRoute,PortDate,RowCount
1000000000447616,77773902080,mKcell,mKarTel,mKarTel,,D02,2017-08-29T12:08:00+06:00,27
1000000000447699,77474982581,mKarTel,mMTS,mMTS,,D01,2017-08-29T12:00:19+06:00,
1000000000447700,77015846714,mAltel,mKcell,mKcell,,D07,2017-08-29T12:00:17+06:00,
1000000000447701,77789469674,mMTS,mKcell,mKcell,,D77,2017-08-29T12:01:52+06:00,
1000000000447703,77024992831,mKarTel,mKcell,mKcell,,D01,2017-08-29T12:03:57+06:00,
1000000000447704,77771308290,mKarTel,mKcell,mKarTel,D02,D01,2017-08-29T12:05:06+06:00,
1000000000447705,77089779904,mMTS,mAltel,mAltel,,D77,2017-08-29T12:05:48+06:00,
1000000000447706,77752222237,mKcell,mAltel,mKcell,D07,D02,2017-08-29T12:08:28+06:00,
1000000000447709,77007137070,mKarTel,mAltel,mAltel,,D01,2017-08-29T12:10:04+06:00,
1000000000447710,77072007666,mKarTel,mMTS,mMTS,,D01,2017-08-29T12:12:41+06:00,
1000000000447711,77053660202,mMTS,mKarTel,mKarTel,D01,D77,2017-08-29T12:13:18+06:00,
1000000000447712,77774449499,mMTS,mKarTel,mKarTel,,D77,2017-08-29T12:13:30+06:00,
1000000000447713,77760770060,mKcell,mKarTel,mKarTel,,D02,2017-08-29T12:15:51+06:00,
1000000000447714,77051352555,mAltel,mKarTel,mKarTel,,D07,2017-08-29T12:16:03+06:00,
1000000000447715,77017767864,mMTS,mKcell,mKcell,,D77,2017-08-29T12:16:02+06:00,
1000000000447717,77017114911,mAltel,mKcell,mKcell,,D07,2017-08-29T12:19:50+06:00,
1000000000447718,77777518177,mKcell,mKarTel,mKarTel,,D02,2017-08-29T12:20:59+06:00,
1000000000447719,77015585858,mKcell,mKarTel,mKcell,D01,D02,2017-08-29T12:22:16+06:00,
1000000000447720,77018811777,mMTS,mKcell,mKcell,,D77,2017-08-29T12:22:04+06:00,
1000000000447721,77058686060,mMTS,mKcell,mKarTel,D02,D77,2017-08-29T12:22:53+06:00,
1000000000447722,77073292824,mKarTel,mMTS,mMTS,,D01,2017-08-29T12:23:12+06:00,
1000000000447723,77786483251,mKarTel,mKcell,mKcell,D02,D01,2017-08-29T12:24:24+06:00,
1000000000447725,77785860777,mKcell,mAltel,mKcell,D07,D02,2017-08-29T12:27:24+06:00,
1000000000447726,77771097420,mMTS,mKarTel,mKarTel,,D77,2017-08-29T12:28:12+06:00,
1000000000447727,77006008000,mKarTel,mAltel,mAltel,,D01,2017-08-29T12:28:30+06:00,
1000000000447728,77710020005,mAltel,mKarTel,mKarTel,,D07,2017-08-29T12:28:45+06:00,
1000000000447729,77078435328,mKarTel,mMTS,mMTS,,D01,2017-08-29T12:29:29+06:00,
