NPId,Number,RecipientId,DonorId,RangeHolderId,OldRoute,NewRoute,PortDate,RowCount
1000000000138035,77010326240,mKarTel,mKcell,mKcell,,D01,2016-03-31T15:39:34+06:00,127
1000000000138035,77010326329,mKarTel,mKcell,mKcell,,D01,2016-03-31T15:39:34+06:00,
1000000000138035,77010350828,mKarTel,mKcell,mKcell,,D01,2016-03-31T15:39:34+06:00,
1000000000138035,77010350829,mKarTel,mKcell,mKcell,,D01,2016-03-31T15:39:34+06:00,
1000000000138035,77010350830,mKarTel,mKcell,mKcell,,D01,2016-03-31T15:39:34+06:00,
1000000000138035,77010919940,mKarTel,mKcell,mKcell,,D01,2016-03-31T15:39:34+06:00,
1000000000138035,77010919942,mKarTel,mKcell,mKcell,,D01,2016-03-31T15:39:34+06:00,
1000000000138035,77010919943,mKarTel,mKcell,mKcell,,D01,2016-03-31T15:39:34+06:00,
1000000000138035,77010919945,mKarTel,mKcell,mKcell,,D01,2016-03-31T15:39:34+06:00,
1000000000138035,77010919946,mKarTel,mKcell,mKcell,,D01,2016-03-31T15:39:34+06:00,
1000000000138035,77011116568,mKarTel,mKcell,mKcell,,D01,2016-03-31T15:39:34+06:00,
1000000000138035,77012183254,mKarTel,mKcell,mKcell,,D01,2016-03-31T15:39:34+06:00,
1000000000138035,77012183255,mKarTel,mKcell,mKcell,,D01,2016-03-31T15:39:34+06:00,
1000000000138035,77012246485,mKarTel,mKcell,mKcell,,D01,2016-03-31T15:39:34+06:00,
1000000000138035,77012246486,mKarTel,mKcell,mKcell,,D01,2016-03-31T15:39:34+06:00,
1000000000138035,77012246489,mKarTel,mKcell,mKcell,,D01,2016-03-31T15:39:34+06:00,
1000000000138035,77012286418,mKarTel,mKcell,mKcell,,D01,2016-03-31T15:39:34+06:00,
1000000000138035,77012286419,mKarTel,mKcell,mKcell,,D01,2016-03-31T15:39:34+06:00,
1000000000138035,77012286423,mKarTel,mKcell,mKcell,,D01,2016-03-31T15:39:34+06:00,
1000000000138035,77012286425,mKarTel,mKcell,mKcell,,D01,2016-03-31T15:39:34+06:00,
1000000000138035,77012286426,mKarTel,mKcell,mKcell,,D01,2016-03-31T15:39:34+06:00,
1000000000138035,77012286427,mKarTel,mKcell,mKcell,,D01,2016-03-31T15:39:34+06:00,
1000000000138035,77012286429,mKarTel,mKcell,mKcell,,D01,2016-03-31T15:39:34+06:00,
1000000000138035,77012286431,mKarTel,mKcell,mKcell,,D01,2016-03-31T15:39:34+06:00,
1000000000138035,77012286435,mKarTel,mKcell,mKcell,,D01,2016-03-31T15:39:34+06:00,
1000000000138035,77012286436,mKarTel,mKcell,mKcell,,D01,2016-03-31T15:39:34+06:00,
1000000000138035,77015231830,mKarTel,mKcell,mKcell,,D01,2016-03-31T15:39:34+06:00,
1000000000138035,77015231831,mKarTel,mKcell,mKcell,,D01,2016-03-31T15:39:34+06:00,
1000000000138035,77017241175,mKarTel,mKcell,mKcell,,D01,2016-03-31T15:39:34+06:00,
1000000000138035,77017241176,mKarTel,mKcell,mKcell,,D01,2016-03-31T15:39:34+06:00,
1000000000138035,77017241183,mKarTel,mKcell,mKcell,,D01,2016-03-31T15:39:34+06:00,
1000000000138035,77017241189,mKarTel,mKcell,mKcell,,D01,2016-03-31T15:39:34+06:00,
1000000000138035,77017268236,mKarTel,mKcell,mKcell,,D01,2016-03-31T15:39:34+06:00,
1000000000138035,77017554396,mKarTel,mKcell,mKcell,,D01,2016-03-31T15:39:34+06:00,
1000000000138035,77017669586,mKarTel,mKcell,mKcell,,D01,2016-03-31T15:39:34+06:00,
1000000000138035,77017686591,mKarTel,mKcell,mKcell,,D01,2016-03-31T15:39:34+06:00,
1000000000138035,77017686592,mKarTel,mKcell,mKcell,,D01,2016-03-31T15:39:34+06:00,
1000000000138035,77017686593,mKarTel,mKcell,mKcell,,D01,2016-03-31T15:39:34+06:00,
1000000000138035,77017686594,mKarTel,mKcell,mKcell,,D01,2016-03-31T15:39:34+06:00,
1000000000138035,77017686596,mKarTel,mKcell,mKcell,,D01,2016-03-31T15:39:34+06:00,
1000000000138035,77017686597,mKarTel,mKcell,mKcell,,D01,2016-03-31T15:39:34+06:00,
1000000000138035,77017688757,mKarTel,mKcell,mKcell,,D01,2016-03-31T15:39:34+06:00,
1000000000138035,77017688767,mKarTel,mKcell,mKcell,,D01,2016-03-31T15:39:34+06:00,
1000000000138035,77017835412,mKarTel,mKcell,mKcell,,D01,2016-03-31T15:39:34+06:00,
1000000000138035,77017835428,mKarTel,mKcell,mKcell,,D01,2016-03-31T15:39:34+06:00,
1000000000138035,77017835429,mKarTel,mKcell,mKcell,,D01,2016-03-31T15:39:34+06:00,
1000000000138035,77017840125,mKarTel,mKcell,mKcell,,D01,2016-03-31T15:39:34+06:00,
1000000000138035,77017840126,mKarTel,mKcell,mKcell,,D01,2016-03-31T15:39:34+06:00,
1000000000138035,77017840127,mKarTel,mKcell,mKcell,,D01,2016-03-31T15:39:34+06:00,
1000000000138035,77017840283,mKarTel,mKcell,mKcell,,D01,2016-03-31T15:39:34+06:00,
1000000000138035,77017850462,mKarTel,mKcell,mKcell,,D01,2016-03-31T15:39:34+06:00,
1000000000138035,77017850463,mKarTel,mKcell,mKcell,,D01,2016-03-31T15:39:34+06:00,
1000000000138035,77017850466,mKarTel,mKcell,mKcell,,D01,2016-03-31T15:39:34+06:00,
1000000000138035,77017850467,mKarTel,mKcell,mKcell,,D01,2016-03-31T15:39:34+06:00,
1000000000138035,77017850468,mKarTel,mKcell,mKcell,,D01,2016-03-31T15:39:34+06:00,
1000000000138035,77019355219,mKarTel,mKcell,mKcell,,D01,2016-03-31T15:39:34+06:00,
1000000000138035,77019535712,mKarTel,mKcell,mKcell,,D01,2016-03-31T15:39:34+06:00,
1000000000138035,77019535713,mKarTel,mKcell,mKcell,,D01,2016-03-31T15:39:34+06:00,
1000000000138035,77019535914,mKarTel,mKcell,mKcell,,D01,2016-03-31T15:39:34+06:00,
1000000000138035,77019535916,mKarTel,mKcell,mKcell,,D01,2016-03-31T15:39:34+06:00,
1000000000138035,77019535918,mKarTel,mKcell,mKcell,,D01,2016-03-31T15:39:34+06:00,
1000000000138035,77019818253,mKarTel,mKcell,mKcell,,D01,2016-03-31T15:39:34+06:00,
1000000000138035,77019818254,mKarTel,mKcell,mKcell,,D01,2016-03-31T15:39:34+06:00,
1000000000138035,77019938140,mKarTel,mKcell,mKcell,,D01,2016-03-31T15:39:34+06:00,
1000000000138035,77022182152,mKarTel,mKcell,mKcell,,D01,2016-03-31T15:39:34+06:00,
1000000000138035,77022182153,mKarTel,mKcell,mKcell,,D01,2016-03-31T15:39:34+06:00,
1000000000138035,77022182154,mKarTel,mKcell,mKcell,,D01,2016-03-31T15:39:34+06:00,
1000000000138035,77022187234,mKarTel,mKcell,mKcell,,D01,2016-03-31T15:39:34+06:00,
1000000000138035,77022187235,mKarTel,mKcell,mKcell,,D01,2016-03-31T15:39:34+06:00,
1000000000138035,77022187236,mKarTel,mKcell,mKcell,,D01,2016-03-31T15:39:34+06:00,
1000000000138035,77022187238,mKarTel,mKcell,mKcell,,D01,2016-03-31T15:39:34+06:00,
1000000000138035,77022187239,mKarTel,mKcell,mKcell,,D01,2016-03-31T15:39:34+06:00,
1000000000138178,77017599763,mKarTel,mKcell,mKcell,,D01,2016-03-31T15:31:01+06:00,
1000000000138336,77010915011,mKarTel,mKcell,mKcell,,D01,2016-03-31T15:59:23+06:00,
1000000000138336,77015349994,mKarTel,mKcell,mKcell,,D01,2016-03-31T15:59:23+06:00,
1000000000138336,77017210833,mKarTel,mKcell,mKcell,,D01,2016-03-31T15:59:23+06:00,
1000000000138336,77017210845,mKarTel,mKcell,mKcell,,D01,2016-03-31T15:59:23+06:00,
1000000000138336,77017210846,mKarTel,mKcell,mKcell,,D01,2016-03-31T15:59:23+06:00,
1000000000138336,77017657162,mKarTel,mKcell,mKcell,,D01,2016-03-31T15:59:23+06:00,
1000000000138336,77019349994,mKarTel,mKcell,mKcell,,D01,2016-03-31T15:59:23+06:00,
1000000000138396,77475111191,mKcell,mMTS,mMTS,,D02,2016-03-31T15:30:10+06:00,
1000000000138397,77019992029,mAltel,mKcell,mKcell,,D07,2016-03-31T15:30:07+06:00,
1000000000138398,77085300320,mMTS,mAltel,mAltel,,D77,2016-03-31T15:30:18+06:00,
1000000000138403,77005552293,mKcell,mAltel,mAltel,,D02,2016-03-31T15:32:30+06:00,
1000000000138404,77773276055,mMTS,mKarTel,mKarTel,,D77,2016-03-31T15:33:17+06:00,
1000000000138405,77751407000,mAltel,mKcell,mKcell,,D07,2016-03-31T15:33:07+06:00,
1000000000138407,77750001212,mAltel,mKcell,mKcell,,D07,2016-03-31T15:38:01+06:00,
1000000000138409,77785124387,mAltel,mKcell,mKcell,,D07,2016-03-31T15:38:01+06:00,
1000000000138410,77058887982,mAltel,mKarTel,mKarTel,,D07,2016-03-31T15:36:25+06:00,
1000000000138411,77776666778,mMTS,mKarTel,mKarTel,,D77,2016-03-31T15:36:54+06:00,
1000000000138413,77773242005,mAltel,mKarTel,mKarTel,,D07,2016-03-31T15:37:19+06:00,
1000000000138414,77782777277,mAltel,mKcell,mKcell,,D07,2016-03-31T15:38:02+06:00,
1000000000138416,77774754555,mMTS,mKarTel,mKarTel,,D77,2016-03-31T15:40:33+06:00,
1000000000138417,77075515716,mAltel,mMTS,mMTS,,D07,2016-03-31T15:40:08+06:00,
1000000000138418,77081065511,mKarTel,mAltel,mAltel,,D01,2016-03-31T15:41:00+06:00,
1000000000138420,77012175031,mMTS,mKcell,mKcell,,D77,2016-03-31T15:46:12+06:00,
1000000000138421,77012246445,mMTS,mAltel,mKcell,D07,D77,2016-03-31T15:43:45+06:00,
1000000000138422,77017919118,mAltel,mKcell,mKcell,,D07,2016-03-31T15:46:12+06:00,
1000000000138423,77018846464,mMTS,mAltel,mKcell,D07,D77,2016-03-31T15:45:04+06:00,
1000000000138424,77472690819,mKcell,mMTS,mMTS,,D02,2016-03-31T15:49:20+06:00,
1000000000138425,77014462322,mMTS,mKcell,mKcell,,D77,2016-03-31T15:48:55+06:00,
1000000000138427,77012060262,mMTS,mAltel,mKcell,D07,D77,2016-03-31T15:46:18+06:00,
1000000000138431,77025933366,mMTS,mKcell,mKcell,,D77,2016-03-31T15:48:55+06:00,
1000000000138432,77472235523,mKcell,mMTS,mMTS,,D02,2016-03-31T15:49:57+06:00,
1000000000138433,77017427799,mMTS,mKcell,mKcell,,D77,2016-03-31T15:49:51+06:00,
1000000000138436,77755079775,mMTS,mKcell,mKcell,,D77,2016-03-31T15:50:09+06:00,
1000000000138439,77751090888,mKcell,mMTS,mKcell,D77,D02,2016-03-31T15:50:25+06:00,
1000000000138440,77773414200,mKcell,mKarTel,mKarTel,,D02,2016-03-31T15:55:43+06:00,
1000000000138441,77025156988,mAltel,mKcell,mKcell,,D07,2016-03-31T15:51:16+06:00,
1000000000138443,77015342163,mMTS,mKcell,mKcell,,D77,2016-03-31T15:54:36+06:00,
1000000000138444,77081502535,mMTS,mAltel,mAltel,,D77,2016-03-31T15:52:08+06:00,
1000000000138446,77787773597,mKarTel,mKcell,mKcell,,D01,2016-03-31T15:54:47+06:00,
1000000000138447,77051785018,mMTS,mKarTel,mKarTel,,D77,2016-03-31T15:56:10+06:00,
1000000000138448,77022277744,mMTS,mKcell,mKcell,,D77,2016-03-31T15:55:40+06:00,
1000000000138449,77072293353,mKcell,mMTS,mMTS,,D02,2016-03-31T15:56:02+06:00,
1000000000138451,77051474825,mMTS,mKarTel,mKarTel,,D77,2016-03-31T15:56:42+06:00,
1000000000138452,77772722421,mAltel,mKarTel,mKarTel,,D07,2016-03-31T15:57:12+06:00,
1000000000138453,77772265446,mAltel,mKarTel,mKarTel,,D07,2016-03-31T15:57:13+06:00,
1000000000138454,77779994649,mAltel,mKarTel,mKarTel,,D07,2016-03-31T15:57:47+06:00,
1000000000138455,77711693736,mMTS,mKarTel,mKarTel,,D77,2016-03-31T15:57:43+06:00,
1000000000138456,77051095328,mMTS,mKarTel,mKarTel,,D77,2016-03-31T15:57:46+06:00,
1000000000138457,77021501141,mMTS,mKcell,mKcell,,D77,2016-03-31T15:56:54+06:00,
1000000000138458,77715550502,mMTS,mKarTel,mKarTel,,D77,2016-03-31T15:58:17+06:00,
1000000000138459,77017236312,mMTS,mKcell,mKcell,,D77,2016-03-31T15:57:35+06:00,
1000000000138460,77012088141,mKarTel,mKcell,mKcell,,D01,2016-03-31T15:58:13+06:00,
1000000000138465,77015556023,mAltel,mKcell,mKcell,,D07,2016-03-31T15:59:40+06:00,
1000000000138466,77081521030,mMTS,mAltel,mAltel,,D77,2016-03-31T15:59:36+06:00,
