NPId,Number,RecipientId,DonorId,RangeHolderId,OldRoute,NewRoute,PortDate,RowCount
1000000000192623,77012219061,mKarTel,mKcell,mKcell,,D01,2016-06-13T14:33:50+06:00,37
1000000000192624,77784609482,mMTS,mKcell,mKcell,,D77,2016-06-13T14:33:35+06:00,
1000000000192625,77017312525,mKarTel,mAltel,mKcell,D07,D01,2016-06-13T14:30:57+06:00,
1000000000192626,77013042977,mMTS,mKcell,mKcell,,D77,2016-06-13T14:33:35+06:00,
1000000000192627,77003428817,mMTS,mAltel,mAltel,,D77,2016-06-13T14:33:53+06:00,
1000000000192629,77752273208,mAltel,mMTS,mKcell,D77,D07,2016-06-13T14:34:24+06:00,
1000000000192630,77017580086,mMTS,mKcell,mKcell,,D77,2016-06-13T14:36:55+06:00,
1000000000192631,77029086999,mMTS,mKcell,mKcell,,D77,2016-06-13T14:36:57+06:00,
1000000000192632,77477887208,mKarTel,mMTS,mMTS,,D01,2016-06-13T14:36:59+06:00,
1000000000192633,77075124929,mKcell,mMTS,mMTS,,D02,2016-06-13T14:39:12+06:00,
1000000000192634,77017592270,mKarTel,mKcell,mKcell,,D01,2016-06-13T14:38:26+06:00,
1000000000192635,77012227474,mKarTel,mAltel,mKcell,D07,D01,2016-06-13T14:37:54+06:00,
1000000000192636,77774585777,mKarTel,mMTS,mKarTel,D77,D01,2016-06-13T14:38:10+06:00,
1000000000192638,77025997717,mKarTel,mKcell,mKcell,,D01,2016-06-13T14:39:09+06:00,
1000000000192639,77478051544,mKcell,mMTS,mMTS,,D02,2016-06-13T14:42:19+06:00,
1000000000192641,77789197919,mMTS,mKcell,mKcell,,D77,2016-06-13T14:42:12+06:00,
1000000000192642,77781161519,mMTS,mKcell,mKcell,,D77,2016-06-13T14:42:50+06:00,
1000000000192643,77028410872,mKcell,mMTS,mKcell,D77,D02,2016-06-13T14:43:35+06:00,
1000000000192644,77024205251,mKarTel,mKcell,mKcell,,D01,2016-06-13T14:43:39+06:00,
1000000000192645,77751775476,mKcell,mMTS,mKcell,D77,D02,2016-06-13T14:44:20+06:00,
1000000000192646,77017252826,mKarTel,mKcell,mKcell,,D01,2016-06-13T14:45:38+06:00,
1000000000192647,77770109901,mKcell,mKarTel,mKarTel,,D02,2016-06-13T14:47:18+06:00,
1000000000192648,77776397771,mKcell,mKarTel,mKarTel,,D02,2016-06-13T14:47:52+06:00,
1000000000192649,77079195999,mKcell,mMTS,mMTS,,D02,2016-06-13T14:48:13+06:00,
1000000000192651,77774359991,mKcell,mKarTel,mKarTel,,D02,2016-06-13T14:52:20+06:00,
1000000000192652,77052762133,mKcell,mKarTel,mKarTel,,D02,2016-06-13T14:52:21+06:00,
1000000000192653,77082208484,mAltel,mMTS,mAltel,D77,D07,2016-06-13T14:51:40+06:00,
1000000000192654,77015344333,mMTS,mKcell,mKcell,,D77,2016-06-13T14:52:47+06:00,
1000000000192656,77077899993,mKcell,mMTS,mMTS,,D02,2016-06-13T14:53:13+06:00,
1000000000192657,77025335500,mMTS,mKcell,mKcell,,D77,2016-06-13T14:52:48+06:00,
1000000000192658,77078761791,mKcell,mMTS,mMTS,,D02,2016-06-13T14:53:28+06:00,
1000000000192659,77753536379,mMTS,mKcell,mKcell,,D77,2016-06-13T14:57:06+06:00,
1000000000192660,77002411155,mMTS,mAltel,mAltel,,D77,2016-06-13T14:54:49+06:00,
1000000000192661,77785287777,mKcell,mKarTel,mKcell,D01,D02,2016-06-13T14:56:02+06:00,
1000000000192662,77024182000,mAltel,mKcell,mKcell,,D07,2016-06-13T14:55:36+06:00,
1000000000192664,77016244806,mKcell,mMTS,mKcell,D77,D02,2016-06-13T14:56:49+06:00,
1000000000192665,77003904950,mKcell,mAltel,mAltel,,D02,2016-06-13T14:57:43+06:00,
