NPId,Number,RecipientId,DonorId,RangeHolderId,OldRoute,NewRoute,PortDate,RowCount
1000000000266277,77781890211,mMTS,mKcell,mKcell,,D77,2016-10-21T20:02:35+06:00,5
1000000000266278,77022207222,mKcell,mMTS,mKcell,D77,D02,2016-10-21T20:14:23+06:00,
1000000000266279,77472828289,mKcell,mAltel,mMTS,D07,D02,2016-10-21T20:15:25+06:00,
1000000000266280,77781872049,mMTS,mKcell,mKcell,,D77,2016-10-21T20:17:35+06:00,
1000000000266281,77786558270,mMTS,mKcell,mKcell,,D77,2016-10-21T20:27:11+06:00,
