NPId,Number,RecipientId,DonorId,RangeHolderId,OldRoute,NewRoute,PortDate,RowCount
1000000000185991,77057906490,mKcell,mKarTel,mKarTel,,D02,2016-06-01T18:45:13+06:00,31
1000000000185997,77073457986,mMTS,mAltel,mMTS,D07,D77,2016-06-01T18:30:03+06:00,
1000000000185998,77014151284,mMTS,mKcell,mKcell,,D77,2016-06-01T18:31:42+06:00,
1000000000185999,77054975397,mMTS,mKarTel,mKarTel,,D77,2016-06-01T18:31:52+06:00,
1000000000186000,77711955843,mMTS,mKarTel,mKarTel,,D77,2016-06-01T18:32:31+06:00,
1000000000186001,77778666868,mKcell,mKarTel,mKarTel,,D02,2016-06-01T18:33:26+06:00,
1000000000186004,77017772426,mAltel,mKcell,mKcell,,D07,2016-06-01T18:33:26+06:00,
1000000000186005,77010170900,mMTS,mAltel,mKcell,D07,D77,2016-06-01T18:33:37+06:00,
1000000000186006,77779902068,mMTS,mKarTel,mKarTel,,D77,2016-06-01T18:34:12+06:00,
1000000000186007,77019166814,mMTS,mKcell,mKcell,,D77,2016-06-01T18:34:20+06:00,
1000000000186008,77755647459,mMTS,mKcell,mKcell,,D77,2016-06-01T18:37:13+06:00,
1000000000186009,77012723183,mMTS,mKcell,mKcell,,D77,2016-06-01T18:37:45+06:00,
1000000000186010,77022200266,mMTS,mKcell,mKcell,,D77,2016-06-01T18:39:44+06:00,
1000000000186011,77085227500,mMTS,mAltel,mAltel,,D77,2016-06-01T18:39:08+06:00,
1000000000186013,77076486888,mAltel,mMTS,mMTS,,D07,2016-06-01T18:40:45+06:00,
1000000000186014,77718052550,mKcell,mKarTel,mKarTel,,D02,2016-06-01T18:46:50+06:00,
1000000000186015,77052739687,mMTS,mAltel,mKarTel,D07,D77,2016-06-01T18:45:35+06:00,
1000000000186016,77055750384,mMTS,mKarTel,mKarTel,,D77,2016-06-01T18:46:11+06:00,
1000000000186018,77075705050,mKcell,mMTS,mMTS,,D02,2016-06-01T18:49:00+06:00,
1000000000186019,77017940296,mKarTel,mKcell,mKcell,,D01,2016-06-01T18:50:20+06:00,
1000000000186020,77028534547,mKarTel,mKcell,mKcell,,D01,2016-06-01T18:50:20+06:00,
1000000000186021,77017140104,mKarTel,mKcell,mKcell,,D01,2016-06-01T18:50:31+06:00,
1000000000186022,77761600008,mKcell,mKarTel,mKarTel,,D02,2016-06-01T18:52:30+06:00,
1000000000186023,77051783118,mMTS,mKarTel,mKarTel,,D77,2016-06-01T18:52:12+06:00,
1000000000186024,77055750386,mMTS,mKarTel,mKarTel,,D77,2016-06-01T18:53:12+06:00,
1000000000186027,77017710184,mKarTel,mKcell,mKcell,,D01,2016-06-01T18:55:58+06:00,
1000000000186028,77776666848,mKarTel,mAltel,mKarTel,D07,D01,2016-06-01T18:55:11+06:00,
1000000000186029,77773077727,mKcell,mKarTel,mKarTel,,D02,2016-06-01T18:57:22+06:00,
1000000000186030,77012661620,mKcell,mMTS,mKcell,D77,D02,2016-06-01T18:57:20+06:00,
1000000000186033,77003555444,mKcell,mAltel,mAltel,,D02,2016-06-01T18:58:40+06:00,
1000000000186034,77016565365,mMTS,mKcell,mKcell,,D77,2016-06-01T18:58:41+06:00,
