NPId,Number,RecipientId,DonorId,RangeHolderId,OldRoute,NewRoute,PortDate,RowCount
1000000000259811,77777585422,mKarTel,mMTS,mKarTel,D77,D01,2016-10-10T14:00:07+06:00,23
1000000000259814,77083776851,mAltel,mKcell,mAltel,D02,D07,2016-10-10T14:17:24+06:00,
1000000000259815,77774161654,mKarTel,mMTS,mKarTel,D77,D01,2016-10-10T14:02:06+06:00,
1000000000259818,77003453333,mKcell,mAltel,mAltel,,D02,2016-10-10T14:04:08+06:00,
1000000000259820,77770451334,mKarTel,mMTS,mKarTel,D77,D01,2016-10-10T14:05:25+06:00,
1000000000259823,77477002488,mKcell,mMTS,mMTS,,D02,2016-10-10T14:08:11+06:00,
1000000000259824,77784848432,mKarTel,mKcell,mKcell,,D01,2016-10-10T14:09:30+06:00,
1000000000259825,77011111766,mKcell,mKarTel,mKcell,D01,D02,2016-10-10T14:10:24+06:00,
1000000000259826,77082999012,mAltel,mMTS,mAltel,D77,D07,2016-10-10T14:10:20+06:00,
1000000000259827,77478186886,mMTS,mAltel,mMTS,D07,D77,2016-10-10T14:10:32+06:00,
1000000000259828,77018801277,mMTS,mKcell,mKcell,,D77,2016-10-10T14:15:21+06:00,
1000000000259829,77073120047,mKarTel,mMTS,mMTS,,D01,2016-10-10T14:17:04+06:00,
1000000000259830,77017598177,mMTS,mKcell,mKcell,,D77,2016-10-10T14:17:13+06:00,
1000000000259831,77077878798,mAltel,mKcell,mMTS,D02,D07,2016-10-10T14:17:49+06:00,
1000000000259832,77782727999,mMTS,mKcell,mKcell,,D77,2016-10-10T14:22:28+06:00,
1000000000259833,77078872730,mKarTel,mMTS,mMTS,,D01,2016-10-10T14:23:17+06:00,
1000000000259834,77028885398,mKarTel,mKcell,mKcell,,D01,2016-10-10T14:24:03+06:00,
1000000000259835,77751325508,mMTS,mKcell,mKcell,,D77,2016-10-10T14:23:52+06:00,
1000000000259836,77029919197,mAltel,mMTS,mKcell,D77,D07,2016-10-10T14:24:55+06:00,
1000000000259837,77017100207,mMTS,mKcell,mKcell,,D77,2016-10-10T14:27:03+06:00,
1000000000259838,77015166881,mKarTel,mKcell,mKcell,,D01,2016-10-10T14:28:24+06:00,
1000000000259839,77029390036,mMTS,mKcell,mKcell,,D77,2016-10-10T14:28:36+06:00,
1000000000259841,77023045153,mMTS,mKcell,mKcell,,D77,2016-10-10T14:29:33+06:00,
