NPId,Number,RecipientId,DonorId,RangeHolderId,OldRoute,NewRoute,PortDate,RowCount
1000000000278866,77025333565,mKarTel,mKcell,mKcell,,D01,2016-11-14T13:30:01+06:00,25
1000000000278867,77774767776,mMTS,mKarTel,mKarTel,,D77,2016-11-14T13:30:15+06:00,
1000000000278868,77758866725,mAltel,mKcell,mKcell,,D07,2016-11-14T13:30:07+06:00,
1000000000278869,77024556400,mMTS,mKcell,mKcell,,D77,2016-11-14T13:31:15+06:00,
1000000000278870,77751237555,mMTS,mKcell,mKcell,,D77,2016-11-14T13:32:19+06:00,
1000000000278871,77015688847,mAltel,mKcell,mKcell,,D07,2016-11-14T13:35:09+06:00,
1000000000278872,77017853519,mAltel,mKarTel,mKcell,D01,D07,2016-11-14T13:35:49+06:00,
1000000000278873,77013254398,mAltel,mKcell,mKcell,D02,D07,2016-11-14T13:38:12+06:00,
1000000000278874,77768082009,mKcell,mKarTel,mKarTel,,D02,2016-11-14T13:39:06+06:00,
1000000000278875,77477007179,mKarTel,mAltel,mMTS,D07,D01,2016-11-14T13:38:35+06:00,
1000000000278876,77081552307,mKarTel,mAltel,mAltel,,D01,2016-11-14T13:39:12+06:00,
1000000000278877,77013735333,mKarTel,mKcell,mKcell,,D01,2016-11-14T13:40:23+06:00,
1000000000278879,77072105025,mMTS,mKarTel,mMTS,D01,D77,2016-11-14T13:40:48+06:00,
1000000000278880,77056720057,mMTS,mKarTel,mKarTel,,D77,2016-11-14T13:42:05+06:00,
1000000000278881,77023252027,mMTS,mKcell,mKcell,,D77,2016-11-14T13:44:57+06:00,
1000000000278883,77771778268,mKarTel,mAltel,mKarTel,D07,D01,2016-11-14T13:46:10+06:00,
1000000000278884,77783648110,mMTS,mKcell,mKcell,,D77,2016-11-14T13:47:40+06:00,
1000000000278886,77056620033,mAltel,mKarTel,mKarTel,,D07,2016-11-14T13:48:31+06:00,
1000000000278887,77089400101,mKcell,mAltel,mAltel,,D02,2016-11-14T13:49:09+06:00,
1000000000278888,77002236060,mKcell,mAltel,mAltel,,D02,2016-11-14T13:49:18+06:00,
1000000000278889,77055707747,mKcell,mMTS,mKarTel,D77,D02,2016-11-14T13:50:46+06:00,
1000000000278890,77475006200,mMTS,mKarTel,mMTS,D01,D77,2016-11-14T13:52:32+06:00,
1000000000278891,77026088889,mAltel,mKcell,mKcell,,D07,2016-11-14T13:53:13+06:00,
1000000000278892,77017669409,mMTS,mKcell,mKcell,,D77,2016-11-14T13:55:40+06:00,
1000000000278893,77023077492,mMTS,mKcell,mKcell,,D77,2016-11-14T13:59:47+06:00,
