NPId,Number,RecipientId,DonorId,RangeHolderId,OldRoute,NewRoute,PortDate,RowCount
1000000000362293,77017709767,mKarTel,mKcell,mKcell,,D01,2017-04-08T13:31:51+06:00,24
1000000000362297,77759683617,mMTS,mAltel,mKcell,D07,D77,2017-04-08T13:32:47+06:00,
1000000000362298,77000070003,mKcell,mAltel,mAltel,,D02,2017-04-08T13:33:52+06:00,
1000000000362300,77007000838,mKcell,mAltel,mAltel,,D02,2017-04-08T13:34:14+06:00,
1000000000362302,77075121330,mKarTel,mMTS,mMTS,,D01,2017-04-08T13:34:48+06:00,
1000000000362303,77018050522,mKarTel,mMTS,mKcell,D77,D01,2017-04-08T13:35:50+06:00,
1000000000362304,77078302378,mKarTel,mMTS,mMTS,,D01,2017-04-08T13:36:38+06:00,
1000000000362306,77015774992,mKarTel,mAltel,mKcell,D07,D01,2017-04-08T13:36:43+06:00,
1000000000362308,77007000696,mKcell,mAltel,mAltel,,D02,2017-04-08T13:38:03+06:00,
1000000000362310,77073755592,mKarTel,mMTS,mMTS,,D01,2017-04-08T13:39:44+06:00,
1000000000362311,77086514142,mKcell,mAltel,mAltel,,D02,2017-04-08T13:40:35+06:00,
1000000000362312,77076478840,mKcell,mMTS,mMTS,,D02,2017-04-08T13:40:48+06:00,
1000000000362315,77478474759,mAltel,mMTS,mMTS,,D07,2017-04-08T13:44:02+06:00,
1000000000362316,77017773198,mMTS,mKcell,mKcell,,D77,2017-04-08T13:44:21+06:00,
1000000000362317,77003041777,mMTS,mAltel,mAltel,,D77,2017-04-08T13:46:35+06:00,
1000000000362320,77778011007,mMTS,mKarTel,mKarTel,,D77,2017-04-08T13:48:04+06:00,
1000000000362324,77015253382,mMTS,mKcell,mKcell,,D77,2017-04-08T13:49:14+06:00,
1000000000362325,77014490010,mKarTel,mKcell,mKcell,,D01,2017-04-08T13:51:09+06:00,
1000000000362328,77783586103,mKarTel,mKcell,mKcell,,D01,2017-04-08T13:54:23+06:00,
1000000000362331,77088888846,mKcell,mAltel,mAltel,,D02,2017-04-08T13:54:59+06:00,
1000000000362332,77029030848,mKarTel,mKcell,mKcell,,D01,2017-04-08T13:55:38+06:00,
1000000000362333,77076048716,mAltel,mMTS,mMTS,,D07,2017-04-08T13:56:50+06:00,
1000000000362334,77058151282,mMTS,mKarTel,mKarTel,,D77,2017-04-08T13:58:00+06:00,
1000000000362335,77074411759,mMTS,mKarTel,mMTS,D01,D77,2017-04-08T13:59:26+06:00,
