NPId,Number,RecipientId,DonorId,RangeHolderId,OldRoute,NewRoute,PortDate,RowCount
1000000000202855,77075155755,mAltel,mKarTel,mMTS,D01,D07,2016-06-30T09:31:16+06:00,21
1000000000202856,77752998581,mMTS,mKcell,mKcell,,D77,2016-06-30T09:33:58+06:00,
1000000000202858,77017869032,mKarTel,mKcell,mKcell,,D01,2016-06-30T09:38:46+06:00,
1000000000202859,77005885511,mKarTel,mMTS,mAltel,D77,D01,2016-06-30T09:40:56+06:00,
1000000000202860,77005055587,mMTS,mAltel,mAltel,,D77,2016-06-30T09:41:08+06:00,
1000000000202861,77005011400,mMTS,mAltel,mAltel,,D77,2016-06-30T09:42:54+06:00,
1000000000202862,77773860636,mMTS,mKarTel,mKarTel,,D77,2016-06-30T09:43:47+06:00,
1000000000202863,77015319033,mMTS,mKcell,mKcell,,D77,2016-06-30T09:44:26+06:00,
1000000000202864,77005055583,mMTS,mAltel,mAltel,,D77,2016-06-30T09:43:38+06:00,
1000000000202865,77005055585,mMTS,mAltel,mAltel,,D77,2016-06-30T09:44:29+06:00,
1000000000202866,77009309395,mMTS,mAltel,mAltel,,D77,2016-06-30T09:45:23+06:00,
1000000000202867,77005055586,mMTS,mAltel,mAltel,,D77,2016-06-30T09:46:21+06:00,
1000000000202868,77753001257,mMTS,mKcell,mKcell,,D77,2016-06-30T09:57:55+06:00,
1000000000202869,77005055582,mMTS,mAltel,mAltel,,D77,2016-06-30T09:47:16+06:00,
1000000000202872,77081042383,mMTS,mAltel,mAltel,,D77,2016-06-30T09:51:38+06:00,
1000000000202873,77009309849,mMTS,mAltel,mAltel,,D77,2016-06-30T09:54:33+06:00,
1000000000202874,77776339808,mMTS,mKarTel,mKarTel,,D77,2016-06-30T09:55:24+06:00,
1000000000202875,77005055581,mMTS,mAltel,mAltel,,D77,2016-06-30T09:55:18+06:00,
1000000000202876,77762536679,mMTS,mKarTel,mKarTel,,D77,2016-06-30T09:55:48+06:00,
1000000000202877,77005011432,mMTS,mAltel,mAltel,,D77,2016-06-30T09:56:04+06:00,
1000000000202882,77005055589,mMTS,mAltel,mAltel,,D77,2016-06-30T09:59:32+06:00,
