NPId,Number,RecipientId,DonorId,RangeHolderId,OldRoute,NewRoute,PortDate,RowCount
1000000000134461,77002221014,mMTS,mAltel,mAltel,,D77,2016-03-27T05:46:54+06:00,2
1000000000134462,77085433197,mMTS,mAltel,mAltel,,D77,2016-03-27T05:56:56+06:00,
