NPId,Number,RecipientId,DonorId,RangeHolderId,OldRoute,NewRoute,PortDate,RowCount
1000000000179940,77002297474,mMTS,mAltel,mAltel,,D77,2016-05-24T12:31:12+06:00,32
1000000000179941,77479539388,mMTS,mAltel,mMTS,D07,D77,2016-05-24T12:31:38+06:00,
1000000000179942,77023306207,mKcell,mMTS,mKcell,D77,D02,2016-05-24T12:35:57+06:00,
1000000000179943,77023477227,mKcell,mMTS,mKcell,D77,D02,2016-05-24T12:37:03+06:00,
1000000000179944,77083013000,mMTS,mAltel,mAltel,,D77,2016-05-24T12:34:30+06:00,
1000000000179945,77772850344,mKcell,mKarTel,mKarTel,,D02,2016-05-24T12:38:03+06:00,
1000000000179947,77021174751,mMTS,mKcell,mKcell,,D77,2016-05-24T12:38:50+06:00,
1000000000179948,77759860894,mMTS,mKcell,mKcell,,D77,2016-05-24T12:38:50+06:00,
1000000000179949,77765285965,mKcell,mMTS,mKarTel,D77,D02,2016-05-24T12:39:17+06:00,
1000000000179950,77017506396,mMTS,mKcell,mKcell,,D77,2016-05-24T12:39:25+06:00,
1000000000179952,77775026266,mKarTel,mMTS,mKarTel,D77,D01,2016-05-24T12:40:14+06:00,
1000000000179953,77025280600,mMTS,mKcell,mKcell,,D77,2016-05-24T12:40:23+06:00,
1000000000179954,77017719340,mMTS,mKcell,mKcell,,D77,2016-05-24T12:40:29+06:00,
1000000000179956,77714056901,mMTS,mKarTel,mKarTel,,D77,2016-05-24T12:41:19+06:00,
1000000000179957,77789006399,mAltel,mKcell,mKcell,,D07,2016-05-24T12:41:48+06:00,
1000000000179958,77004917003,mMTS,mAltel,mAltel,,D77,2016-05-24T12:42:30+06:00,
1000000000179959,77022540808,mAltel,mKcell,mKcell,,D07,2016-05-24T12:42:33+06:00,
1000000000179960,77014501313,mMTS,mKcell,mKcell,,D77,2016-05-24T12:43:32+06:00,
1000000000179961,77767300101,mMTS,mKarTel,mKarTel,,D77,2016-05-24T12:44:01+06:00,
1000000000179962,77007774443,mKarTel,mAltel,mAltel,,D01,2016-05-24T12:45:29+06:00,
1000000000179963,77769335566,mKarTel,mKcell,mKarTel,D02,D01,2016-05-24T12:47:22+06:00,
1000000000179964,77081062150,mMTS,mAltel,mAltel,,D77,2016-05-24T12:47:20+06:00,
1000000000179965,77007774433,mKarTel,mAltel,mAltel,,D01,2016-05-24T12:48:47+06:00,
1000000000179967,77015225758,mKarTel,mMTS,mKcell,D77,D01,2016-05-24T12:51:35+06:00,
1000000000179969,77752151116,mMTS,mKcell,mKcell,,D77,2016-05-24T12:52:06+06:00,
1000000000179970,77012227842,mMTS,mAltel,mKcell,D07,D77,2016-05-24T12:51:59+06:00,
1000000000179971,77018999685,mMTS,mKcell,mKcell,,D77,2016-05-24T12:52:20+06:00,
1000000000179972,77007007444,mKarTel,mAltel,mAltel,,D01,2016-05-24T12:52:47+06:00,
1000000000179974,77075777731,mKcell,mMTS,mMTS,,D02,2016-05-24T12:55:40+06:00,
1000000000179975,77087597492,mMTS,mAltel,mAltel,,D77,2016-05-24T12:55:53+06:00,
1000000000179976,77778929228,mMTS,mKarTel,mKarTel,,D77,2016-05-24T12:57:24+06:00,
1000000000179978,77758828876,mKcell,mAltel,mKcell,D07,D02,2016-05-24T12:58:40+06:00,
