NPId,Number,RecipientId,DonorId,RangeHolderId,OldRoute,NewRoute,PortDate,RowCount
1000000000397174,77016607197,mAltel,mKcell,mKcell,,D07,2017-06-04T15:30:31+06:00,20
1000000000397175,77754234736,mAltel,mKcell,mKcell,,D07,2017-06-04T15:30:34+06:00,
1000000000397176,77078092011,mKarTel,mMTS,mMTS,,D01,2017-06-04T15:31:09+06:00,
1000000000397177,77712811004,mMTS,mKarTel,mKarTel,,D77,2017-06-04T15:31:41+06:00,
1000000000397178,77000000868,mMTS,mAltel,mAltel,,D77,2017-06-04T15:31:58+06:00,
1000000000397179,77714008337,mMTS,mKarTel,mKarTel,,D77,2017-06-04T15:33:03+06:00,
1000000000397180,77784555569,mKarTel,mKcell,mKcell,,D01,2017-06-04T15:33:10+06:00,
1000000000397181,77083735558,mKcell,mAltel,mAltel,,D02,2017-06-04T15:33:29+06:00,
1000000000397182,77017810344,mAltel,mKcell,mKcell,,D07,2017-06-04T15:35:25+06:00,
1000000000397183,77014638585,mKcell,mAltel,mKcell,D07,D02,2017-06-04T15:37:48+06:00,
1000000000397186,77052845554,mKcell,mKarTel,mKarTel,,D02,2017-06-04T15:42:07+06:00,
1000000000397187,77783666657,mMTS,mKcell,mKcell,,D77,2017-06-04T15:42:50+06:00,
1000000000397188,77018060006,mMTS,mKcell,mKcell,,D77,2017-06-04T15:42:57+06:00,
1000000000397189,77085351912,mAltel,mMTS,mAltel,D77,D07,2017-06-04T15:45:49+06:00,
1000000000397190,77077334454,mAltel,mKarTel,mMTS,D01,D07,2017-06-04T15:48:56+06:00,
1000000000397191,77472219902,mAltel,mMTS,mMTS,,D07,2017-06-04T15:49:38+06:00,
1000000000397192,77770103007,mMTS,mKarTel,mKarTel,,D77,2017-06-04T15:53:05+06:00,
1000000000397193,77755444443,mMTS,mKcell,mKcell,,D77,2017-06-04T15:53:12+06:00,
1000000000397194,77085101983,mKarTel,mAltel,mAltel,,D01,2017-06-04T15:53:56+06:00,
1000000000397195,77075150798,mAltel,mMTS,mMTS,,D07,2017-06-04T15:59:50+06:00,
