NPId,Number,RecipientId,DonorId,RangeHolderId,OldRoute,NewRoute,PortDate,RowCount
1000000000217286,77012215193,mKarTel,mKcell,mKcell,,D01,2016-07-27T09:40:58+06:00,10
1000000000217286,77012248558,mKarTel,mKcell,mKcell,,D01,2016-07-27T09:40:58+06:00,
1000000000217286,77017270153,mKarTel,mKcell,mKcell,,D01,2016-07-27T09:40:58+06:00,
1000000000217286,77017337330,mKarTel,mKcell,mKcell,,D01,2016-07-27T09:40:58+06:00,
1000000000217286,77017942972,mKarTel,mKcell,mKcell,,D01,2016-07-27T09:40:58+06:00,
1000000000217286,77019249606,mKarTel,mKcell,mKcell,,D01,2016-07-27T09:40:58+06:00,
1000000000217286,77019605073,mKarTel,mKcell,mKcell,,D01,2016-07-27T09:40:58+06:00,
1000000000217790,77022492123,mKcell,mMTS,mKcell,D77,D02,2016-07-27T09:35:36+06:00,
1000000000217791,77776706006,mMTS,mKarTel,mKarTel,,D77,2016-07-27T09:47:36+06:00,
1000000000217792,77784789898,mMTS,mKcell,mKcell,D02,D77,2016-07-27T09:47:18+06:00,
