NPId,Number,RecipientId,DonorId,RangeHolderId,OldRoute,NewRoute,PortDate,RowCount
1000000000397155,77024922671,mMTS,mKcell,mKcell,,D77,2017-06-04T15:07:22+06:00,13
1000000000397156,77001323130,mKcell,mAltel,mAltel,,D02,2017-06-04T15:08:42+06:00,
1000000000397158,77019932674,mMTS,mKcell,mKcell,,D77,2017-06-04T15:10:19+06:00,
1000000000397160,77019300450,mMTS,mKcell,mKcell,D02,D77,2017-06-04T15:12:57+06:00,
1000000000397163,77075030067,mKarTel,mMTS,mMTS,,D01,2017-06-04T15:17:27+06:00,
1000000000397164,77075888804,mMTS,mKarTel,mMTS,D01,D77,2017-06-04T15:19:28+06:00,
1000000000397165,77055041709,mMTS,mKarTel,mKarTel,,D77,2017-06-04T15:23:45+06:00,
1000000000397166,77769993313,mKcell,mKarTel,mKarTel,,D02,2017-06-04T15:24:44+06:00,
1000000000397168,77009977139,mAltel,mMTS,mAltel,D77,D07,2017-06-04T15:26:50+06:00,
1000000000397169,77073655663,mMTS,mKcell,mMTS,D02,D77,2017-06-04T15:27:50+06:00,
1000000000397170,77075010890,mMTS,mKcell,mMTS,D02,D77,2017-06-04T15:27:55+06:00,
1000000000397171,77011048484,mKcell,mAltel,mKcell,D07,D02,2017-06-04T15:29:00+06:00,
1000000000397172,77770233182,mKcell,mKarTel,mKarTel,,D02,2017-06-04T15:29:55+06:00,
