NPId,Number,RecipientId,DonorId,RangeHolderId,OldRoute,NewRoute,PortDate,RowCount
1000000000122329,77073342159,mAltel,mMTS,mMTS,,D07,2016-03-11T13:31:38+06:00,24
1000000000122331,77710010066,mKcell,mKarTel,mKarTel,,D02,2016-03-11T13:34:39+06:00,
1000000000122333,77753198240,mAltel,mKcell,mKcell,,D07,2016-03-11T13:34:57+06:00,
1000000000122334,77764978888,mKcell,mKarTel,mKarTel,,D02,2016-03-11T13:36:32+06:00,
1000000000122335,77016086270,mAltel,mKcell,mKcell,,D07,2016-03-11T13:36:15+06:00,
1000000000122336,77013070254,mMTS,mKcell,mKcell,,D77,2016-03-11T13:37:03+06:00,
1000000000122337,77786727387,mAltel,mKcell,mKcell,,D07,2016-03-11T13:38:06+06:00,
1000000000122338,77769502829,mAltel,mKarTel,mKarTel,,D07,2016-03-11T13:38:18+06:00,
1000000000122341,77759632999,mMTS,mKcell,mKcell,,D77,2016-03-11T13:40:41+06:00,
1000000000122342,77785860777,mAltel,mKcell,mKcell,,D07,2016-03-11T13:40:53+06:00,
1000000000122343,77058297001,mMTS,mKarTel,mKarTel,,D77,2016-03-11T13:42:07+06:00,
1000000000122346,77072225961,mKcell,mAltel,mMTS,D07,D02,2016-03-11T13:46:34+06:00,
1000000000122347,77779006450,mAltel,mKarTel,mKarTel,,D07,2016-03-11T13:47:53+06:00,
1000000000122348,77013330056,mMTS,mKcell,mKcell,,D77,2016-03-11T13:48:04+06:00,
1000000000122349,77017615959,mKarTel,mKcell,mKcell,,D01,2016-03-11T13:48:24+06:00,
1000000000122352,77015303319,mMTS,mKcell,mKcell,,D77,2016-03-11T13:48:36+06:00,
1000000000122353,77022458769,mMTS,mKcell,mKcell,,D77,2016-03-11T13:49:10+06:00,
1000000000122355,77010220292,mAltel,mKcell,mKcell,,D07,2016-03-11T13:51:19+06:00,
1000000000122356,77072236258,mKcell,mMTS,mMTS,,D02,2016-03-11T13:51:53+06:00,
1000000000122358,77779993817,mAltel,mKarTel,mKarTel,,D07,2016-03-11T13:53:14+06:00,
1000000000122360,77025021004,mMTS,mKcell,mKcell,,D77,2016-03-11T13:53:43+06:00,
1000000000122363,77082400001,mKcell,mAltel,mAltel,,D02,2016-03-11T13:57:11+06:00,
1000000000122364,77473274928,mAltel,mMTS,mMTS,,D07,2016-03-11T13:56:49+06:00,
1000000000122365,77752350526,mMTS,mKcell,mKcell,,D77,2016-03-11T13:57:13+06:00,
