NPId,Number,RecipientId,DonorId,RangeHolderId,OldRoute,NewRoute,PortDate,RowCount
1000000000270969,77082880880,mMTS,mAltel,mAltel,,D77,2016-10-31T14:30:19+06:00,41
1000000000270970,77773761717,mKarTel,mMTS,mKarTel,D77,D01,2016-10-31T14:30:38+06:00,
1000000000270971,77758272956,mKarTel,mKcell,mKcell,,D01,2016-10-31T14:31:08+06:00,
1000000000270972,77781005533,mMTS,mKcell,mKcell,,D77,2016-10-31T14:31:07+06:00,
1000000000270973,77029323931,mKarTel,mKcell,mKcell,,D01,2016-10-31T14:31:23+06:00,
1000000000270974,77777229959,mMTS,mKarTel,mKarTel,,D77,2016-10-31T14:32:07+06:00,
1000000000270976,77024222763,mKcell,mMTS,mKcell,D77,D02,2016-10-31T14:34:35+06:00,
1000000000270977,77052640504,mMTS,mKarTel,mKarTel,,D77,2016-10-31T14:32:52+06:00,
1000000000270978,77757825173,mKcell,mKarTel,mKcell,D01,D02,2016-10-31T14:34:32+06:00,
1000000000270979,77770723888,mKcell,mKarTel,mKarTel,,D02,2016-10-31T14:34:51+06:00,
1000000000270980,77775343477,mMTS,mKarTel,mKarTel,,D77,2016-10-31T14:36:34+06:00,
1000000000270981,77789002700,mMTS,mKcell,mKcell,,D77,2016-10-31T14:36:56+06:00,
1000000000270983,77786936917,mMTS,mKcell,mKcell,,D77,2016-10-31T14:37:35+06:00,
1000000000270984,77758209761,mMTS,mKcell,mKcell,,D77,2016-10-31T14:37:57+06:00,
1000000000270985,77052777887,mMTS,mKarTel,mKarTel,,D77,2016-10-31T14:37:50+06:00,
1000000000270988,77054253292,mAltel,mKarTel,mKarTel,,D07,2016-10-31T14:40:30+06:00,
1000000000270989,77083399366,mMTS,mAltel,mAltel,,D77,2016-10-31T14:40:36+06:00,
1000000000270990,77011612044,mMTS,mKcell,mKcell,,D77,2016-10-31T14:42:32+06:00,
1000000000270991,77756461463,mMTS,mKcell,mKcell,,D77,2016-10-31T14:42:32+06:00,
1000000000270992,77083679775,mMTS,mAltel,mAltel,,D77,2016-10-31T14:42:32+06:00,
1000000000270993,77057938131,mMTS,mKarTel,mKarTel,,D77,2016-10-31T14:44:03+06:00,
1000000000270994,77026426305,mKarTel,mKcell,mKcell,,D01,2016-10-31T14:45:28+06:00,
1000000000270996,77766999976,mAltel,mKarTel,mKarTel,,D07,2016-10-31T14:46:41+06:00,
1000000000270997,77758212390,mMTS,mKcell,mKcell,,D77,2016-10-31T14:47:38+06:00,
1000000000270998,77082903096,mMTS,mAltel,mAltel,,D77,2016-10-31T14:47:47+06:00,
1000000000270999,77019060322,mAltel,mKcell,mKcell,,D07,2016-10-31T14:47:54+06:00,
1000000000271000,77775754332,mMTS,mKarTel,mKarTel,,D77,2016-10-31T14:48:16+06:00,
1000000000271001,77017735373,mKcell,mMTS,mKcell,D77,D02,2016-10-31T14:49:04+06:00,
1000000000271003,77778717701,mKcell,mKarTel,mKarTel,,D02,2016-10-31T14:50:25+06:00,
1000000000271004,77025625862,mKarTel,mKcell,mKcell,,D01,2016-10-31T14:50:14+06:00,
1000000000271005,77078989698,mKarTel,mMTS,mMTS,,D01,2016-10-31T14:50:40+06:00,
1000000000271006,77017341592,mAltel,mKcell,mKcell,,D07,2016-10-31T14:50:30+06:00,
1000000000271007,77018700808,mMTS,mKcell,mKcell,,D77,2016-10-31T14:51:51+06:00,
1000000000271008,77473430240,mAltel,mMTS,mMTS,,D07,2016-10-31T14:52:16+06:00,
1000000000271009,77781357139,mMTS,mKcell,mKcell,,D77,2016-10-31T14:54:59+06:00,
1000000000271015,77021994888,mAltel,mKcell,mKcell,,D07,2016-10-31T14:56:41+06:00,
1000000000271016,77712552558,mMTS,mKarTel,mKarTel,,D77,2016-10-31T14:57:28+06:00,
1000000000271018,77018222505,mKarTel,mKcell,mKcell,,D01,2016-10-31T14:57:51+06:00,
1000000000271020,77473153231,mKarTel,mMTS,mMTS,,D01,2016-10-31T14:58:28+06:00,
1000000000271021,77017943819,mMTS,mKcell,mKcell,,D77,2016-10-31T14:58:47+06:00,
1000000000271022,77077059980,mKcell,mMTS,mMTS,,D02,2016-10-31T14:59:14+06:00,
