NPId,Number,RecipientId,DonorId,RangeHolderId,OldRoute,NewRoute,PortDate,RowCount
1000000000385475,77010136669,mKarTel,mKcell,mKcell,,D01,2017-05-18T20:00:10+06:00,7
1000000000385476,77755043562,mKarTel,mKcell,mKcell,,D01,2017-05-18T20:02:49+06:00,
1000000000385477,77012110472,mAltel,mKcell,mKcell,,D07,2017-05-18T20:03:31+06:00,
1000000000385479,77079777531,mKcell,mAltel,mMTS,D07,D02,2017-05-18T20:08:20+06:00,
1000000000385480,77780585858,mMTS,mKcell,mKcell,,D77,2017-05-18T20:20:56+06:00,
1000000000385481,77083038618,mKcell,mAltel,mAltel,,D02,2017-05-18T20:25:40+06:00,
1000000000385482,77716046677,mMTS,mKarTel,mKarTel,,D77,2017-05-18T20:28:06+06:00,
