NPId,Number,RecipientId,DonorId,RangeHolderId,OldRoute,NewRoute,PortDate,RowCount
1000000000426533,77015285208,mKarTel,mKcell,mKcell,,D01,2017-07-22T18:30:34+06:00,8
1000000000426534,77021112209,mKcell,mKarTel,mKcell,D01,D02,2017-07-22T18:31:21+06:00,
1000000000426535,77017293163,mKarTel,mKcell,mKcell,,D01,2017-07-22T18:38:28+06:00,
1000000000426536,77760395555,mKcell,mAltel,mKarTel,D07,D02,2017-07-22T18:43:27+06:00,
1000000000426537,77083563656,mKarTel,mKcell,mAltel,D02,D01,2017-07-22T18:45:07+06:00,
1000000000426538,77015336363,mMTS,mKcell,mKcell,,D77,2017-07-22T18:49:11+06:00,
1000000000426539,77004186898,mKarTel,mKcell,mAltel,D02,D01,2017-07-22T18:50:34+06:00,
1000000000426540,77779111192,mKarTel,mMTS,mKarTel,D77,D01,2017-07-22T18:55:43+06:00,
