NPId,Number,RecipientId,DonorId,RangeHolderId,OldRoute,NewRoute,PortDate,RowCount
1000000000133930,77055240931,mMTS,mKarTel,mKarTel,,D77,2016-03-26T14:30:11+06:00,37
1000000000133931,77779873277,mKcell,mKarTel,mKarTel,,D02,2016-03-26T14:32:21+06:00,
1000000000133934,77089642484,mMTS,mAltel,mAltel,,D77,2016-03-26T14:31:53+06:00,
1000000000133935,77773158018,mMTS,mKarTel,mKarTel,,D77,2016-03-26T14:33:05+06:00,
1000000000133936,77014435830,mMTS,mKcell,mKcell,,D77,2016-03-26T14:33:05+06:00,
1000000000133937,77055198999,mMTS,mKarTel,mKarTel,,D77,2016-03-26T14:34:00+06:00,
1000000000133938,77005999444,mMTS,mAltel,mAltel,,D77,2016-03-26T14:33:13+06:00,
1000000000133939,77014653097,mAltel,mKcell,mKcell,,D07,2016-03-26T14:33:48+06:00,
1000000000133940,77014466716,mMTS,mKcell,mKcell,,D77,2016-03-26T14:35:42+06:00,
1000000000133941,77776387355,mKcell,mKarTel,mKarTel,,D02,2016-03-26T14:39:06+06:00,
1000000000133942,77025290898,mAltel,mKcell,mKcell,,D07,2016-03-26T14:38:52+06:00,
1000000000133943,77712779077,mMTS,mKarTel,mKarTel,,D77,2016-03-26T14:40:28+06:00,
1000000000133945,77019796968,mAltel,mKcell,mKcell,,D07,2016-03-26T14:40:04+06:00,
1000000000133946,77021522173,mMTS,mKcell,mKcell,,D77,2016-03-26T14:40:20+06:00,
1000000000133947,77082884404,mMTS,mAltel,mAltel,,D77,2016-03-26T14:40:08+06:00,
1000000000133948,77013270579,mMTS,mKcell,mKcell,,D77,2016-03-26T14:40:52+06:00,
1000000000133949,77752222709,mAltel,mKcell,mKcell,,D07,2016-03-26T14:42:09+06:00,
1000000000133950,77053830136,mKarTel,mAltel,mKarTel,D07,D01,2016-03-26T14:43:44+06:00,
1000000000133951,77021828695,mMTS,mKcell,mKcell,,D77,2016-03-26T14:44:18+06:00,
1000000000133952,77762046185,mMTS,mKarTel,mKarTel,,D77,2016-03-26T14:45:28+06:00,
1000000000133953,77017636954,mKarTel,mKcell,mKcell,,D01,2016-03-26T14:45:24+06:00,
1000000000133954,77013449989,mMTS,mKcell,mKcell,,D77,2016-03-26T14:45:11+06:00,
1000000000133956,77011800892,mKarTel,mKcell,mKcell,,D01,2016-03-26T14:46:39+06:00,
1000000000133957,77025552116,mMTS,mKcell,mKcell,,D77,2016-03-26T14:46:35+06:00,
1000000000133958,77712258868,mAltel,mKarTel,mKarTel,,D07,2016-03-26T14:47:35+06:00,
1000000000133959,77775551000,mKcell,mKarTel,mKarTel,,D02,2016-03-26T14:48:09+06:00,
1000000000133960,77051597061,mMTS,mKarTel,mKarTel,,D77,2016-03-26T14:47:59+06:00,
1000000000133962,77019990731,mAltel,mKcell,mKcell,,D07,2016-03-26T14:48:56+06:00,
1000000000133963,77774651001,mMTS,mKarTel,mKarTel,,D77,2016-03-26T14:50:02+06:00,
1000000000133964,77772641161,mMTS,mKarTel,mKarTel,,D77,2016-03-26T14:50:56+06:00,
1000000000133965,77054011011,mMTS,mKarTel,mKarTel,,D77,2016-03-26T14:51:49+06:00,
1000000000133968,77773999223,mMTS,mKarTel,mKarTel,,D77,2016-03-26T14:53:03+06:00,
1000000000133969,77758847070,mMTS,mKcell,mKcell,,D77,2016-03-26T14:52:51+06:00,
1000000000133971,77756241000,mKarTel,mKcell,mKcell,,D01,2016-03-26T14:55:07+06:00,
1000000000133972,77027247175,mMTS,mKcell,mKcell,,D77,2016-03-26T14:55:19+06:00,
1000000000133973,77078611664,mKarTel,mMTS,mMTS,,D01,2016-03-26T14:56:20+06:00,
1000000000133974,77718855292,mAltel,mKarTel,mKarTel,,D07,2016-03-26T14:57:59+06:00,
