NPId,Number,RecipientId,DonorId,RangeHolderId,OldRoute,NewRoute,PortDate,RowCount
1000000000358139,77007774305,mKcell,mAltel,mAltel,,D02,2017-04-02T17:01:24+06:00,13
1000000000358140,77052888817,mAltel,mKarTel,mKarTel,,D07,2017-04-02T17:02:17+06:00,
1000000000358141,77016209191,mKarTel,mKcell,mKcell,,D01,2017-04-02T17:02:35+06:00,
1000000000358142,77007773805,mKcell,mAltel,mAltel,,D02,2017-04-02T17:04:38+06:00,
1000000000358143,77753327677,mKarTel,mKcell,mKcell,,D01,2017-04-02T17:07:37+06:00,
1000000000358145,77052522095,mMTS,mKarTel,mKarTel,,D77,2017-04-02T17:09:29+06:00,
1000000000358146,77074220395,mAltel,mMTS,mMTS,,D07,2017-04-02T17:10:46+06:00,
1000000000358148,77751777771,mKcell,mKarTel,mKcell,D01,D02,2017-04-02T17:12:44+06:00,
1000000000358150,77003758722,mMTS,mAltel,mAltel,,D77,2017-04-02T17:14:18+06:00,
1000000000358152,77077475544,mMTS,mKarTel,mMTS,D01,D77,2017-04-02T17:15:43+06:00,
1000000000358153,77012222585,mKcell,mKarTel,mKcell,D01,D02,2017-04-02T17:23:17+06:00,
1000000000358156,77020777003,mKarTel,mKcell,mKcell,,D01,2017-04-02T17:28:08+06:00,
1000000000358157,77775067573,mMTS,mKarTel,mKarTel,,D77,2017-04-02T17:28:10+06:00,
