NPId,Number,RecipientId,DonorId,RangeHolderId,OldRoute,NewRoute,PortDate,RowCount
1000000000205944,77475011185,mKarTel,mMTS,mMTS,,D01,2016-07-06T14:30:33+06:00,22
1000000000205946,77765207798,mKcell,mKarTel,mKarTel,,D02,2016-07-06T14:33:45+06:00,
1000000000205948,77004303589,mKarTel,mAltel,mAltel,,D01,2016-07-06T14:35:30+06:00,
1000000000205949,77776161652,mMTS,mKarTel,mKarTel,,D77,2016-07-06T14:37:37+06:00,
1000000000205950,77071355999,mKarTel,mMTS,mMTS,,D01,2016-07-06T14:38:41+06:00,
1000000000205951,77077797497,mKarTel,mMTS,mMTS,,D01,2016-07-06T14:39:39+06:00,
1000000000205953,77077400008,mKcell,mMTS,mMTS,,D02,2016-07-06T14:39:57+06:00,
1000000000205954,77055298784,mMTS,mKarTel,mKarTel,,D77,2016-07-06T14:40:30+06:00,
1000000000205956,77014134444,mMTS,mKcell,mKcell,,D77,2016-07-06T14:41:28+06:00,
1000000000205966,77779868686,mKcell,mKarTel,mKarTel,,D02,2016-07-06T14:49:04+06:00,
1000000000205967,77023573736,mKarTel,mAltel,mKcell,D07,D01,2016-07-06T14:49:19+06:00,
1000000000205969,77771881234,mKarTel,mMTS,mKarTel,D77,D01,2016-07-06T14:49:50+06:00,
1000000000205972,77755031252,mMTS,mKcell,mKcell,,D77,2016-07-06T14:51:37+06:00,
1000000000205973,77471666106,mKarTel,mMTS,mMTS,,D01,2016-07-06T14:52:12+06:00,
1000000000205974,77776246697,mMTS,mKarTel,mKarTel,,D77,2016-07-06T14:52:22+06:00,
1000000000205975,77716000002,mKcell,mKarTel,mKarTel,,D02,2016-07-06T14:53:23+06:00,
1000000000205978,77785857654,mMTS,mKcell,mKcell,,D77,2016-07-06T14:54:30+06:00,
1000000000205981,77079776081,mKarTel,mMTS,mMTS,,D01,2016-07-06T14:56:00+06:00,
1000000000205983,77054197270,mAltel,mKarTel,mKarTel,,D07,2016-07-06T14:57:07+06:00,
1000000000205984,77007888001,mKcell,mAltel,mAltel,,D02,2016-07-06T14:57:58+06:00,
1000000000205985,77718878787,mKcell,mKarTel,mKarTel,,D02,2016-07-06T14:58:45+06:00,
1000000000205986,77775691449,mMTS,mKarTel,mKarTel,,D77,2016-07-06T14:59:00+06:00,
