NPId,Number,RecipientId,DonorId,RangeHolderId,OldRoute,NewRoute,PortDate,RowCount
1000000000272165,77477091179,mAltel,mMTS,mMTS,,D07,2016-11-11T10:55:38+06:00,12
1000000000277293,77018885678,mKcell,mKarTel,mKcell,D01,D02,2016-11-11T10:59:54+06:00,
1000000000277565,77018833877,mAltel,mKcell,mKcell,,D07,2016-11-11T10:40:35+06:00,
1000000000277566,77073339605,mKarTel,mMTS,mMTS,,D01,2016-11-11T10:40:57+06:00,
1000000000277568,77017522223,mMTS,mKcell,mKcell,,D77,2016-11-11T10:47:33+06:00,
1000000000277569,77788821153,mMTS,mKcell,mKcell,,D77,2016-11-11T10:48:03+06:00,
1000000000277570,77027777255,mKarTel,mKcell,mKcell,,D01,2016-11-11T10:49:27+06:00,
1000000000277573,77013224444,mKcell,mMTS,mKcell,D77,D02,2016-11-11T10:51:55+06:00,
1000000000277575,77753388339,mKcell,mMTS,mKcell,D77,D02,2016-11-11T10:52:04+06:00,
1000000000277578,77756858488,mMTS,mKcell,mKcell,,D77,2016-11-11T10:53:23+06:00,
1000000000277580,77052519929,mKcell,mKarTel,mKarTel,,D02,2016-11-11T10:55:07+06:00,
1000000000277583,77475402733,mKarTel,mMTS,mMTS,,D01,2016-11-11T10:58:46+06:00,
