NPId,Number,RecipientId,DonorId,RangeHolderId,OldRoute,NewRoute,PortDate,RowCount
1000000000286844,77058308139,mKarTel,mMTS,mKarTel,D77,D01,2016-11-30T13:30:23+06:00,40
1000000000286846,77017599205,mKarTel,mKcell,mKcell,,D01,2016-11-30T13:31:33+06:00,
1000000000286846,77017599206,mKarTel,mKcell,mKcell,,D01,2016-11-30T13:31:33+06:00,
1000000000286846,77017599207,mKarTel,mKcell,mKcell,,D01,2016-11-30T13:31:33+06:00,
1000000000286846,77022049487,mKarTel,mKcell,mKcell,,D01,2016-11-30T13:31:33+06:00,
1000000000286846,77022049489,mKarTel,mKcell,mKcell,,D01,2016-11-30T13:31:33+06:00,
1000000000286846,77022049502,mKarTel,mKcell,mKcell,,D01,2016-11-30T13:31:33+06:00,
1000000000286847,77782255522,mAltel,mKcell,mKcell,,D07,2016-11-30T13:31:16+06:00,
1000000000286848,77075555517,mMTS,mAltel,mMTS,D07,D77,2016-11-30T13:32:10+06:00,
1000000000286849,77077600248,mAltel,mMTS,mMTS,,D07,2016-11-30T13:32:23+06:00,
1000000000286850,77758275696,mMTS,mKcell,mKcell,,D77,2016-11-30T13:32:40+06:00,
1000000000286852,77773947858,mKcell,mKarTel,mKarTel,,D02,2016-11-30T13:34:27+06:00,
1000000000286853,77014034848,mKcell,mAltel,mKcell,D07,D02,2016-11-30T13:35:00+06:00,
1000000000286854,77024475175,mAltel,mKcell,mKcell,,D07,2016-11-30T13:35:58+06:00,
1000000000286855,77027256420,mMTS,mKcell,mKcell,,D77,2016-11-30T13:36:37+06:00,
1000000000286856,77758272060,mMTS,mKcell,mKcell,,D77,2016-11-30T13:37:42+06:00,
1000000000286857,77058213508,mMTS,mKarTel,mKarTel,,D77,2016-11-30T13:39:26+06:00,
1000000000286858,77775774400,mKarTel,mAltel,mKarTel,D07,D01,2016-11-30T13:40:22+06:00,
1000000000286859,77015998811,mAltel,mKcell,mKcell,D02,D07,2016-11-30T13:40:19+06:00,
1000000000286860,77075355975,mKcell,mMTS,mMTS,,D02,2016-11-30T13:40:34+06:00,
1000000000286861,77072786686,mKcell,mMTS,mMTS,,D02,2016-11-30T13:41:59+06:00,
1000000000286862,77072287935,mAltel,mMTS,mMTS,,D07,2016-11-30T13:42:20+06:00,
1000000000286863,77054967839,mMTS,mKarTel,mKarTel,,D77,2016-11-30T13:42:57+06:00,
1000000000286864,77758246651,mMTS,mKcell,mKcell,,D77,2016-11-30T13:42:40+06:00,
1000000000286865,77071541880,mAltel,mMTS,mMTS,,D07,2016-11-30T13:42:53+06:00,
1000000000286866,77077575858,mAltel,mMTS,mMTS,,D07,2016-11-30T13:43:39+06:00,
1000000000286869,77013416141,mAltel,mMTS,mKcell,D77,D07,2016-11-30T13:46:00+06:00,
1000000000286871,77000001980,mKcell,mAltel,mAltel,,D02,2016-11-30T13:47:15+06:00,
1000000000286872,77717923322,mKcell,mMTS,mKarTel,D77,D02,2016-11-30T13:50:11+06:00,
1000000000286875,77059915499,mAltel,mKarTel,mKarTel,,D07,2016-11-30T13:58:40+06:00,
1000000000286876,77026603322,mAltel,mMTS,mKcell,D77,D07,2016-11-30T13:50:21+06:00,
1000000000286879,77007004000,mKcell,mAltel,mAltel,,D02,2016-11-30T13:53:08+06:00,
1000000000286880,77715891221,mMTS,mKarTel,mKarTel,,D77,2016-11-30T13:53:58+06:00,
1000000000286881,77075030365,mKcell,mMTS,mMTS,,D02,2016-11-30T13:53:56+06:00,
1000000000286882,77766224477,mKcell,mKarTel,mKarTel,,D02,2016-11-30T13:55:46+06:00,
1000000000286883,77007577777,mKcell,mAltel,mAltel,,D02,2016-11-30T13:56:31+06:00,
1000000000286884,77089039279,mMTS,mAltel,mAltel,,D77,2016-11-30T13:57:04+06:00,
1000000000286886,77075219212,mAltel,mMTS,mMTS,,D07,2016-11-30T13:57:56+06:00,
1000000000286887,77087053949,mKarTel,mAltel,mAltel,,D01,2016-11-30T13:58:11+06:00,
1000000000286888,77089991116,mAltel,mKcell,mAltel,D02,D07,2016-11-30T13:58:56+06:00,
