NPId,Number,RecipientId,DonorId,RangeHolderId,OldRoute,NewRoute,PortDate,RowCount
1000000000218964,77472679038,mKcell,mMTS,mMTS,,D02,2016-07-28T20:01:16+06:00,3
1000000000218965,77775836753,mKcell,mKarTel,mKarTel,,D02,2016-07-28T20:09:53+06:00,
1000000000218966,77057183300,mKcell,mKarTel,mKarTel,,D02,2016-07-28T20:11:33+06:00,
