NPId,Number,RecipientId,DonorId,RangeHolderId,OldRoute,NewRoute,PortDate,RowCount
1000000000253676,77013948717,mKcell,mMTS,mKcell,D77,D02,2016-09-30T09:23:24+06:00,4
1000000000253677,77081040300,mKarTel,mAltel,mAltel,,D01,2016-09-30T09:23:33+06:00,
1000000000253678,77758387838,mKcell,mKarTel,mKcell,D01,D02,2016-09-30T09:27:40+06:00,
1000000000253680,77073073037,mAltel,mMTS,mMTS,,D07,2016-09-30T09:29:17+06:00,
