NPId,Number,RecipientId,DonorId,RangeHolderId,OldRoute,NewRoute,PortDate,RowCount
1000000000202878,77017309526,mKarTel,mKcell,mKcell,,D01,2016-06-30T10:02:29+06:00,41
1000000000202881,77015329326,mKarTel,mKcell,mKcell,,D01,2016-06-30T10:02:31+06:00,
1000000000202883,77005011407,mMTS,mAltel,mAltel,,D77,2016-06-30T10:00:14+06:00,
1000000000202884,77005055572,mMTS,mAltel,mAltel,,D77,2016-06-30T10:00:57+06:00,
1000000000202885,77004171717,mMTS,mKcell,mAltel,D02,D77,2016-06-30T10:02:39+06:00,
1000000000202886,77078641126,mKarTel,mMTS,mMTS,,D01,2016-06-30T10:02:03+06:00,
1000000000202887,77009324650,mMTS,mAltel,mAltel,,D77,2016-06-30T10:01:59+06:00,
1000000000202888,77017414412,mMTS,mKcell,mKcell,,D77,2016-06-30T10:02:50+06:00,
1000000000202889,77779697740,mMTS,mKarTel,mKarTel,,D77,2016-06-30T10:02:38+06:00,
1000000000202890,77779697730,mMTS,mKarTel,mKarTel,,D77,2016-06-30T10:02:38+06:00,
1000000000202891,77077779494,mMTS,mKarTel,mMTS,D01,D77,2016-06-30T10:02:38+06:00,
1000000000202893,77013864849,mMTS,mKcell,mKcell,,D77,2016-06-30T10:02:50+06:00,
1000000000202895,77009229796,mMTS,mAltel,mAltel,,D77,2016-06-30T10:03:49+06:00,
1000000000202897,77025683000,mKarTel,mKcell,mKcell,,D01,2016-06-30T10:06:06+06:00,
1000000000202898,77012999896,mMTS,mKcell,mKcell,,D77,2016-06-30T10:08:47+06:00,
1000000000202899,77477788814,mKarTel,mMTS,mMTS,,D01,2016-06-30T10:07:18+06:00,
1000000000202900,77752999150,mMTS,mKcell,mKcell,,D77,2016-06-30T10:08:47+06:00,
1000000000202901,77755454730,mKarTel,mKcell,mKcell,,D01,2016-06-30T10:09:04+06:00,
1000000000202902,77017324394,mMTS,mKcell,mKcell,,D77,2016-06-30T10:17:01+06:00,
1000000000202903,77770059897,mMTS,mKarTel,mKarTel,,D77,2016-06-30T10:25:11+06:00,
1000000000202905,77770181911,mMTS,mKarTel,mKarTel,,D77,2016-06-30T10:12:11+06:00,
1000000000202906,77753471407,mMTS,mKcell,mKcell,,D77,2016-06-30T10:17:01+06:00,
1000000000202907,77005055584,mMTS,mAltel,mAltel,,D77,2016-06-30T10:12:47+06:00,
1000000000202908,77770059782,mMTS,mKarTel,mKarTel,,D77,2016-06-30T10:28:45+06:00,
1000000000202909,77080184542,mMTS,mAltel,mAltel,,D77,2016-06-30T10:13:29+06:00,
1000000000202910,77005055571,mMTS,mAltel,mAltel,,D77,2016-06-30T10:14:26+06:00,
1000000000202912,77000800079,mMTS,mAltel,mAltel,,D77,2016-06-30T10:16:19+06:00,
1000000000202913,77017552602,mKcell,mMTS,mKcell,D77,D02,2016-06-30T10:18:14+06:00,
1000000000202914,77014940397,mMTS,mKarTel,mKcell,D01,D77,2016-06-30T10:17:31+06:00,
1000000000202915,77753001563,mMTS,mKcell,mKcell,,D77,2016-06-30T10:18:34+06:00,
1000000000202916,77059882073,mMTS,mKarTel,mKarTel,,D77,2016-06-30T10:17:50+06:00,
1000000000202917,77017775026,mKcell,mMTS,mKcell,D77,D02,2016-06-30T10:20:56+06:00,
1000000000202918,77000800082,mMTS,mAltel,mAltel,,D77,2016-06-30T10:18:32+06:00,
1000000000202920,77772092400,mMTS,mKarTel,mKarTel,,D77,2016-06-30T10:21:47+06:00,
1000000000202921,77711651018,mKarTel,mAltel,mKarTel,D07,D01,2016-06-30T10:22:17+06:00,
1000000000202923,77771765880,mMTS,mKarTel,mKarTel,,D77,2016-06-30T10:27:26+06:00,
1000000000202924,77051028391,mAltel,mKarTel,mKarTel,,D07,2016-06-30T10:27:39+06:00,
1000000000202925,77089781723,mMTS,mAltel,mAltel,,D77,2016-06-30T10:27:24+06:00,
1000000000202926,77003736367,mMTS,mAltel,mAltel,,D77,2016-06-30T10:28:43+06:00,
1000000000202927,77752873863,mMTS,mKcell,mKcell,,D77,2016-06-30T10:28:53+06:00,
1000000000202928,77022770975,mMTS,mKcell,mKcell,,D77,2016-06-30T10:29:31+06:00,
