NPId,Number,RecipientId,DonorId,RangeHolderId,OldRoute,NewRoute,PortDate,RowCount
1000000000223812,77015882761,mKcell,mKarTel,mKcell,D01,D02,2016-08-05T11:02:39+06:00,23
1000000000223814,77015116346,mKcell,mKarTel,mKcell,D01,D02,2016-08-05T11:09:28+06:00,
1000000000223822,77023435006,mKcell,mMTS,mKcell,D77,D02,2016-08-05T11:01:17+06:00,
1000000000223823,77014746745,mMTS,mKcell,mKcell,,D77,2016-08-05T11:02:00+06:00,
1000000000223824,77775230629,mMTS,mKarTel,mKarTel,,D77,2016-08-05T11:02:26+06:00,
1000000000223825,77018172265,mAltel,mKcell,mKcell,,D07,2016-08-05T11:05:02+06:00,
1000000000223826,77001212225,mMTS,mAltel,mAltel,,D77,2016-08-05T11:05:20+06:00,
1000000000223827,77019000510,mKarTel,mMTS,mKcell,D77,D01,2016-08-05T11:07:29+06:00,
1000000000223828,77029460606,mKcell,mMTS,mKcell,D77,D02,2016-08-05T11:07:35+06:00,
1000000000223829,77022187257,mMTS,mKcell,mKcell,,D77,2016-08-05T11:11:05+06:00,
1000000000223830,77015311517,mMTS,mKcell,mKcell,,D77,2016-08-05T11:11:25+06:00,
1000000000223831,77014109969,mKcell,mKarTel,mKcell,D01,D02,2016-08-05T11:13:01+06:00,
1000000000223832,77074410345,mKarTel,mMTS,mMTS,,D01,2016-08-05T11:15:08+06:00,
1000000000223834,77023004090,mKcell,mAltel,mKcell,D07,D02,2016-08-05T11:17:15+06:00,
1000000000223836,77015543830,mKcell,mKarTel,mKcell,D01,D02,2016-08-05T11:19:03+06:00,
1000000000223837,77053017059,mMTS,mKarTel,mKarTel,,D77,2016-08-05T11:21:08+06:00,
1000000000223838,77013861172,mKarTel,mKcell,mKcell,,D01,2016-08-05T11:20:57+06:00,
1000000000223839,77772935557,mAltel,mKarTel,mKarTel,,D07,2016-08-05T11:21:39+06:00,
1000000000223841,77077650906,mKarTel,mMTS,mMTS,,D01,2016-08-05T11:22:48+06:00,
1000000000223842,77714516355,mKcell,mMTS,mKarTel,D77,D02,2016-08-05T11:23:02+06:00,
1000000000223844,77019993691,mAltel,mKcell,mKcell,,D07,2016-08-05T11:23:10+06:00,
1000000000223845,77056116336,mKcell,mKarTel,mKarTel,,D02,2016-08-05T11:24:18+06:00,
1000000000223847,77477044440,mKcell,mMTS,mMTS,,D02,2016-08-05T11:28:48+06:00,
