NPId,Number,RecipientId,DonorId,RangeHolderId,OldRoute,NewRoute,PortDate,RowCount
1000000000359159,77717053941,mKarTel,mKcell,mKarTel,D02,D01,2017-04-04T17:26:10+06:00,84
1000000000359159,77717053942,mKarTel,mKcell,mKarTel,D02,D01,2017-04-04T17:26:10+06:00,
1000000000359159,77717053944,mKarTel,mKcell,mKarTel,D02,D01,2017-04-04T17:26:10+06:00,
1000000000359159,77717053966,mKarTel,mKcell,mKarTel,D02,D01,2017-04-04T17:26:10+06:00,
1000000000359159,77717053967,mKarTel,mKcell,mKarTel,D02,D01,2017-04-04T17:26:10+06:00,
1000000000359159,77717053970,mKarTel,mKcell,mKarTel,D02,D01,2017-04-04T17:26:10+06:00,
1000000000359159,77717053974,mKarTel,mKcell,mKarTel,D02,D01,2017-04-04T17:26:10+06:00,
1000000000359159,77717053994,mKarTel,mKcell,mKarTel,D02,D01,2017-04-04T17:26:10+06:00,
1000000000359159,77717053997,mKarTel,mKcell,mKarTel,D02,D01,2017-04-04T17:26:10+06:00,
1000000000359159,77717053998,mKarTel,mKcell,mKarTel,D02,D01,2017-04-04T17:26:10+06:00,
1000000000359159,77717056654,mKarTel,mKcell,mKarTel,D02,D01,2017-04-04T17:26:10+06:00,
1000000000359159,77717056660,mKarTel,mKcell,mKarTel,D02,D01,2017-04-04T17:26:10+06:00,
1000000000359159,77717056662,mKarTel,mKcell,mKarTel,D02,D01,2017-04-04T17:26:10+06:00,
1000000000359159,77717056663,mKarTel,mKcell,mKarTel,D02,D01,2017-04-04T17:26:10+06:00,
1000000000359159,77717056667,mKarTel,mKcell,mKarTel,D02,D01,2017-04-04T17:26:10+06:00,
1000000000359159,77717056668,mKarTel,mKcell,mKarTel,D02,D01,2017-04-04T17:26:10+06:00,
1000000000359159,77717057200,mKarTel,mKcell,mKarTel,D02,D01,2017-04-04T17:26:10+06:00,
1000000000359159,77717057202,mKarTel,mKcell,mKarTel,D02,D01,2017-04-04T17:26:10+06:00,
1000000000359159,77717057203,mKarTel,mKcell,mKarTel,D02,D01,2017-04-04T17:26:10+06:00,
1000000000359159,77717057204,mKarTel,mKcell,mKarTel,D02,D01,2017-04-04T17:26:10+06:00,
1000000000359159,77717057205,mKarTel,mKcell,mKarTel,D02,D01,2017-04-04T17:26:10+06:00,
1000000000359159,77717057207,mKarTel,mKcell,mKarTel,D02,D01,2017-04-04T17:26:10+06:00,
1000000000359159,77717057208,mKarTel,mKcell,mKarTel,D02,D01,2017-04-04T17:26:10+06:00,
1000000000359159,77717057209,mKarTel,mKcell,mKarTel,D02,D01,2017-04-04T17:26:10+06:00,
1000000000359159,77717057210,mKarTel,mKcell,mKarTel,D02,D01,2017-04-04T17:26:10+06:00,
1000000000359159,77717057212,mKarTel,mKcell,mKarTel,D02,D01,2017-04-04T17:26:10+06:00,
1000000000359159,77717057220,mKarTel,mKcell,mKarTel,D02,D01,2017-04-04T17:26:10+06:00,
1000000000359159,77717057273,mKarTel,mKcell,mKarTel,D02,D01,2017-04-04T17:26:10+06:00,
1000000000359159,77717057325,mKarTel,mKcell,mKarTel,D02,D01,2017-04-04T17:26:10+06:00,
1000000000359159,77717057327,mKarTel,mKcell,mKarTel,D02,D01,2017-04-04T17:26:10+06:00,
1000000000359159,77717057331,mKarTel,mKcell,mKarTel,D02,D01,2017-04-04T17:26:10+06:00,
1000000000359159,77717057332,mKarTel,mKcell,mKarTel,D02,D01,2017-04-04T17:26:10+06:00,
1000000000359159,77717057372,mKarTel,mKcell,mKarTel,D02,D01,2017-04-04T17:26:10+06:00,
1000000000359159,77717580522,mKarTel,mKcell,mKarTel,D02,D01,2017-04-04T17:26:10+06:00,
1000000000359159,77717581340,mKarTel,mKcell,mKarTel,D02,D01,2017-04-04T17:26:10+06:00,
1000000000359159,77717581372,mKarTel,mKcell,mKarTel,D02,D01,2017-04-04T17:26:10+06:00,
1000000000359159,77717588460,mKarTel,mKcell,mKarTel,D02,D01,2017-04-04T17:26:10+06:00,
1000000000359159,77717588463,mKarTel,mKcell,mKarTel,D02,D01,2017-04-04T17:26:10+06:00,
1000000000359159,77717588465,mKarTel,mKcell,mKarTel,D02,D01,2017-04-04T17:26:10+06:00,
1000000000359159,77717588467,mKarTel,mKcell,mKarTel,D02,D01,2017-04-04T17:26:10+06:00,
1000000000359159,77717588468,mKarTel,mKcell,mKarTel,D02,D01,2017-04-04T17:26:10+06:00,
1000000000359159,77717588472,mKarTel,mKcell,mKarTel,D02,D01,2017-04-04T17:26:10+06:00,
1000000000359159,77717588493,mKarTel,mKcell,mKarTel,D02,D01,2017-04-04T17:26:10+06:00,
1000000000359159,77717588495,mKarTel,mKcell,mKarTel,D02,D01,2017-04-04T17:26:10+06:00,
1000000000359159,77717588632,mKarTel,mKcell,mKarTel,D02,D01,2017-04-04T17:26:10+06:00,
1000000000359691,77010338088,mMTS,mKcell,mKcell,,D77,2017-04-04T17:01:12+06:00,
1000000000359692,77007775253,mKcell,mAltel,mAltel,,D02,2017-04-04T17:01:53+06:00,
1000000000359693,77001112325,mKcell,mAltel,mAltel,,D02,2017-04-04T17:03:43+06:00,
1000000000359694,77056370497,mKcell,mKarTel,mKarTel,,D02,2017-04-04T17:04:20+06:00,
1000000000359695,77017328860,mKcell,mMTS,mKcell,D77,D02,2017-04-04T17:03:58+06:00,
1000000000359696,77772761920,mMTS,mKarTel,mKarTel,,D77,2017-04-04T17:04:25+06:00,
1000000000359697,77007779198,mKcell,mAltel,mAltel,,D02,2017-04-04T17:04:47+06:00,
1000000000359698,77756850761,mMTS,mKcell,mKcell,,D77,2017-04-04T17:04:43+06:00,
1000000000359699,77016036896,mMTS,mKcell,mKcell,,D77,2017-04-04T17:05:47+06:00,
1000000000359700,77001115356,mKcell,mAltel,mAltel,,D02,2017-04-04T17:06:25+06:00,
1000000000359701,77007778384,mKcell,mAltel,mAltel,,D02,2017-04-04T17:07:23+06:00,
1000000000359702,77073917754,mAltel,mMTS,mMTS,,D07,2017-04-04T17:07:43+06:00,
1000000000359703,77053146118,mMTS,mKarTel,mKarTel,,D77,2017-04-04T17:08:06+06:00,
1000000000359704,77759609618,mAltel,mKcell,mKcell,,D07,2017-04-04T17:09:29+06:00,
1000000000359705,77777260003,mKcell,mKarTel,mKarTel,,D02,2017-04-04T17:09:58+06:00,
1000000000359706,77078811180,mAltel,mMTS,mMTS,,D07,2017-04-04T17:09:30+06:00,
1000000000359708,77003337679,mKcell,mAltel,mAltel,,D02,2017-04-04T17:13:18+06:00,
1000000000359709,77009702115,mAltel,mMTS,mAltel,D77,D07,2017-04-04T17:13:04+06:00,
1000000000359710,77004442128,mKcell,mAltel,mAltel,,D02,2017-04-04T17:15:14+06:00,
1000000000359712,77083133139,mMTS,mKarTel,mAltel,D01,D77,2017-04-04T17:15:35+06:00,
1000000000359716,77711006524,mKcell,mKarTel,mKarTel,,D02,2017-04-04T17:18:29+06:00,
1000000000359717,77712543817,mKarTel,mAltel,mKarTel,D07,D01,2017-04-04T17:17:47+06:00,
1000000000359718,77003240457,mMTS,mAltel,mAltel,,D77,2017-04-04T17:17:49+06:00,
1000000000359719,77779259640,mKarTel,mMTS,mKarTel,D77,D01,2017-04-04T17:18:18+06:00,
1000000000359720,77072720070,mKcell,mMTS,mMTS,,D02,2017-04-04T17:18:29+06:00,
1000000000359723,77015006606,mAltel,mKcell,mKcell,,D07,2017-04-04T17:19:28+06:00,
1000000000359724,77027560404,mAltel,mKcell,mKcell,,D07,2017-04-04T17:20:28+06:00,
1000000000359726,77009971578,mKcell,mAltel,mAltel,,D02,2017-04-04T17:21:29+06:00,
1000000000359727,77087539504,mAltel,mMTS,mAltel,D77,D07,2017-04-04T17:21:28+06:00,
1000000000359729,77763787070,mMTS,mKarTel,mKarTel,,D77,2017-04-04T17:22:00+06:00,
1000000000359730,77714646853,mMTS,mKarTel,mKarTel,,D77,2017-04-04T17:23:07+06:00,
1000000000359731,77021181015,mKcell,mKarTel,mKcell,D01,D02,2017-04-04T17:24:40+06:00,
1000000000359732,77017456993,mKarTel,mKcell,mKcell,,D01,2017-04-04T17:25:42+06:00,
1000000000359733,77787108780,mMTS,mAltel,mKcell,D07,D77,2017-04-04T17:27:12+06:00,
1000000000359734,77082288911,mKarTel,mAltel,mAltel,,D01,2017-04-04T17:27:42+06:00,
1000000000359735,77071831000,mKcell,mMTS,mMTS,,D02,2017-04-04T17:28:07+06:00,
1000000000359736,77006279597,mKcell,mAltel,mAltel,,D02,2017-04-04T17:28:22+06:00,
1000000000359737,77089855499,mMTS,mAltel,mAltel,,D77,2017-04-04T17:28:42+06:00,
1000000000359738,77760065111,mKarTel,mMTS,mKarTel,D77,D01,2017-04-04T17:29:14+06:00,
