NPId,Number,RecipientId,DonorId,RangeHolderId,OldRoute,NewRoute,PortDate,RowCount
1000000000205004,77004434171,mKcell,mAltel,mAltel,,D02,2016-07-05T12:32:17+06:00,18
1000000000205005,77779381790,mKcell,mKarTel,mKarTel,,D02,2016-07-05T12:33:48+06:00,
1000000000205006,77025655535,mKarTel,mKcell,mKcell,,D01,2016-07-05T12:35:16+06:00,
1000000000205007,77052702705,mKcell,mKarTel,mKarTel,,D02,2016-07-05T12:35:38+06:00,
1000000000205012,77009848253,mKcell,mAltel,mAltel,,D02,2016-07-05T12:45:08+06:00,
1000000000205013,77772036387,mMTS,mKarTel,mKarTel,,D77,2016-07-05T12:45:25+06:00,
1000000000205014,77759374820,mKarTel,mKcell,mKcell,,D01,2016-07-05T12:45:21+06:00,
1000000000205016,77754024662,mKarTel,mKcell,mKcell,,D01,2016-07-05T12:47:33+06:00,
1000000000205017,77788200828,mMTS,mKcell,mKcell,,D77,2016-07-05T12:47:24+06:00,
1000000000205018,77051008144,mAltel,mKarTel,mKarTel,,D07,2016-07-05T12:47:45+06:00,
1000000000205019,77079068166,mKarTel,mMTS,mMTS,,D01,2016-07-05T12:47:42+06:00,
1000000000205020,77055552012,mAltel,mKarTel,mKarTel,,D07,2016-07-05T12:48:44+06:00,
1000000000205024,77056665939,mMTS,mKarTel,mKarTel,D01,D77,2016-07-05T12:51:23+06:00,
1000000000205026,77755521992,mKcell,mMTS,mKcell,D77,D02,2016-07-05T12:53:21+06:00,
1000000000205027,77071121565,mAltel,mMTS,mMTS,,D07,2016-07-05T12:54:55+06:00,
1000000000205028,77074792512,mKcell,mMTS,mMTS,,D02,2016-07-05T12:55:52+06:00,
1000000000205029,77056997374,mMTS,mKarTel,mKarTel,,D77,2016-07-05T12:56:15+06:00,
1000000000205030,77071659165,mMTS,mAltel,mMTS,D07,D77,2016-07-05T12:56:23+06:00,
