NPId,Number,RecipientId,DonorId,RangeHolderId,OldRoute,NewRoute,PortDate,RowCount
1000000000244169,77078199992,mKarTel,mMTS,mMTS,,D01,2016-09-11T16:38:14+06:00,8
1000000000244170,77015165188,mKarTel,mKcell,mKcell,,D01,2016-09-11T16:40:12+06:00,
1000000000244172,77766120606,mAltel,mKarTel,mKarTel,,D07,2016-09-11T16:43:00+06:00,
1000000000244174,77472255981,mAltel,mMTS,mMTS,,D07,2016-09-11T16:41:14+06:00,
1000000000244175,77076768068,mAltel,mMTS,mMTS,,D07,2016-09-11T16:44:47+06:00,
1000000000244176,77719997991,mAltel,mKarTel,mKarTel,,D07,2016-09-11T16:50:57+06:00,
1000000000244177,77082117377,mAltel,mMTS,mAltel,D77,D07,2016-09-11T16:50:00+06:00,
1000000000244179,77013460401,mMTS,mKcell,mKcell,,D77,2016-09-11T16:57:24+06:00,
