NPId,Number,RecipientId,DonorId,RangeHolderId,OldRoute,NewRoute,PortDate,RowCount
1000000000421850,77006636103,mMTS,mAltel,mAltel,,D77,2017-07-14T15:32:19+06:00,29
1000000000421851,77026561426,mKarTel,mKcell,mKcell,,D01,2017-07-14T15:32:44+06:00,
1000000000421852,77006636702,mMTS,mAltel,mAltel,,D77,2017-07-14T15:33:35+06:00,
1000000000421853,77764968888,mKarTel,mMTS,mKarTel,D77,D01,2017-07-14T15:34:41+06:00,
1000000000421854,77006636510,mMTS,mAltel,mAltel,,D77,2017-07-14T15:35:44+06:00,
1000000000421855,77017855688,mMTS,mKcell,mKcell,,D77,2017-07-14T15:41:21+06:00,
1000000000421856,77011100166,mMTS,mKcell,mKcell,,D77,2017-07-14T15:41:31+06:00,
1000000000421857,77018000806,mAltel,mKcell,mKcell,,D07,2017-07-14T15:41:51+06:00,
1000000000421858,77778803473,mAltel,mKarTel,mKarTel,,D07,2017-07-14T15:42:03+06:00,
1000000000421859,77052635636,mAltel,mKarTel,mKarTel,,D07,2017-07-14T15:42:09+06:00,
1000000000421861,77753012394,mKcell,mAltel,mKcell,D07,D02,2017-07-14T15:43:17+06:00,
1000000000421862,77073833833,mKarTel,mMTS,mMTS,,D01,2017-07-14T15:43:57+06:00,
1000000000421863,77788883117,mMTS,mKcell,mKcell,,D77,2017-07-14T15:43:52+06:00,
1000000000421864,77783970806,mKcell,mMTS,mKcell,D77,D02,2017-07-14T15:44:03+06:00,
1000000000421865,77007700301,mKarTel,mAltel,mAltel,,D01,2017-07-14T15:44:02+06:00,
1000000000421867,77755686401,mMTS,mKcell,mKcell,,D77,2017-07-14T15:46:24+06:00,
1000000000421868,77079122028,mKarTel,mMTS,mMTS,,D01,2017-07-14T15:48:56+06:00,
1000000000421870,77759331993,mKarTel,mKcell,mKcell,,D01,2017-07-14T15:51:14+06:00,
1000000000421873,77072017340,mKcell,mMTS,mMTS,,D02,2017-07-14T15:51:51+06:00,
1000000000421874,77026566181,mAltel,mKcell,mKcell,,D07,2017-07-14T15:51:55+06:00,
1000000000421875,77057177337,mMTS,mKarTel,mKarTel,,D77,2017-07-14T15:53:13+06:00,
1000000000421876,77074220425,mAltel,mMTS,mMTS,,D07,2017-07-14T15:52:59+06:00,
1000000000421877,77058747596,mMTS,mKarTel,mKarTel,,D77,2017-07-14T15:53:44+06:00,
1000000000421878,77026222733,mMTS,mKcell,mKcell,,D77,2017-07-14T15:53:55+06:00,
1000000000421879,77071267811,mKarTel,mMTS,mMTS,,D01,2017-07-14T15:54:47+06:00,
1000000000421881,77778807733,mKcell,mKarTel,mKarTel,,D02,2017-07-14T15:56:27+06:00,
1000000000421882,77014499490,mMTS,mKcell,mKcell,,D77,2017-07-14T15:57:01+06:00,
1000000000421883,77763202121,mMTS,mKarTel,mKarTel,,D77,2017-07-14T15:58:08+06:00,
1000000000421884,77006636108,mMTS,mAltel,mAltel,,D77,2017-07-14T15:58:10+06:00,
