NPId,Number,RecipientId,DonorId,RangeHolderId,OldRoute,NewRoute,PortDate,RowCount
1000000000345552,77776919574,mMTS,mKarTel,mKarTel,,D77,2017-03-13T12:44:03+06:00,24
1000000000345575,77018328482,mAltel,mKcell,mKcell,,D07,2017-03-13T12:31:49+06:00,
1000000000345576,77005180006,mKcell,mAltel,mAltel,,D02,2017-03-13T12:33:56+06:00,
1000000000345578,77056611110,mMTS,mKarTel,mKarTel,,D77,2017-03-13T12:37:26+06:00,
1000000000345579,77015541650,mKarTel,mKcell,mKcell,,D01,2017-03-13T12:37:35+06:00,
1000000000345580,77005180002,mKcell,mAltel,mAltel,,D02,2017-03-13T12:37:54+06:00,
1000000000345581,77014860436,mKarTel,mKcell,mKcell,,D01,2017-03-13T12:39:43+06:00,
1000000000345582,77014464633,mMTS,mKcell,mKcell,,D77,2017-03-13T12:40:01+06:00,
1000000000345583,77772657099,mMTS,mKarTel,mKarTel,,D77,2017-03-13T12:40:41+06:00,
1000000000345585,77005180004,mKcell,mAltel,mAltel,,D02,2017-03-13T12:42:01+06:00,
1000000000345586,77471699497,mKcell,mMTS,mMTS,,D02,2017-03-13T12:42:41+06:00,
1000000000345587,77777624081,mMTS,mKarTel,mKarTel,,D77,2017-03-13T12:43:06+06:00,
1000000000345588,77781053157,mMTS,mKcell,mKcell,,D77,2017-03-13T12:44:51+06:00,
1000000000345591,77764767670,mKarTel,mMTS,mKarTel,D77,D01,2017-03-13T12:46:02+06:00,
1000000000345592,77015537942,mMTS,mKcell,mKcell,,D77,2017-03-13T12:46:15+06:00,
1000000000345594,77022600018,mMTS,mKcell,mKcell,,D77,2017-03-13T12:47:52+06:00,
1000000000345596,77087591218,mAltel,mMTS,mAltel,D77,D07,2017-03-13T12:48:56+06:00,
1000000000345598,77017212537,mKarTel,mKcell,mKcell,,D01,2017-03-13T12:50:38+06:00,
1000000000345599,77025250205,mKarTel,mKcell,mKcell,,D01,2017-03-13T12:51:21+06:00,
1000000000345600,77029997299,mAltel,mKcell,mKcell,,D07,2017-03-13T12:52:28+06:00,
1000000000345604,77771967410,mMTS,mKarTel,mKarTel,,D77,2017-03-13T12:56:24+06:00,
1000000000345605,77076664564,mKarTel,mMTS,mMTS,,D01,2017-03-13T12:57:11+06:00,
1000000000345606,77074681992,mMTS,mAltel,mMTS,D07,D77,2017-03-13T12:57:42+06:00,
1000000000345607,77472166229,mMTS,mAltel,mMTS,D07,D77,2017-03-13T12:57:50+06:00,
