NPId,Number,RecipientId,DonorId,RangeHolderId,OldRoute,NewRoute,PortDate,RowCount
1000000000427487,77055433532,mAltel,mKarTel,mKarTel,,D07,2017-07-24T18:31:56+06:00,22
1000000000427489,77054503226,mMTS,mKarTel,mKarTel,,D77,2017-07-24T18:33:22+06:00,
1000000000427490,77058179341,mAltel,mKarTel,mKarTel,,D07,2017-07-24T18:34:54+06:00,
1000000000427491,77014638907,mAltel,mKcell,mKcell,D02,D07,2017-07-24T18:34:51+06:00,
1000000000427492,77476399801,mAltel,mMTS,mMTS,,D07,2017-07-24T18:37:41+06:00,
1000000000427493,77479119139,mAltel,mMTS,mMTS,,D07,2017-07-24T18:38:19+06:00,
1000000000427497,77088000877,mKarTel,mAltel,mAltel,,D01,2017-07-24T18:41:16+06:00,
1000000000427498,77004507777,mKcell,mMTS,mAltel,D77,D02,2017-07-24T18:41:29+06:00,
1000000000427499,77787882177,mMTS,mKcell,mKcell,,D77,2017-07-24T18:41:56+06:00,
1000000000427500,77007701535,mKcell,mAltel,mAltel,,D02,2017-07-24T18:42:51+06:00,
1000000000427501,77078301871,mAltel,mMTS,mMTS,,D07,2017-07-24T18:44:34+06:00,
1000000000427502,77017352818,mKarTel,mKcell,mKcell,,D01,2017-07-24T18:45:19+06:00,
1000000000427503,77007706515,mKcell,mAltel,mAltel,,D02,2017-07-24T18:47:07+06:00,
1000000000427505,77012983777,mMTS,mKcell,mKcell,,D77,2017-07-24T18:48:51+06:00,
1000000000427506,77766112233,mKcell,mKarTel,mKarTel,,D02,2017-07-24T18:51:03+06:00,
1000000000427508,77760959515,mKcell,mKarTel,mKarTel,,D02,2017-07-24T18:52:19+06:00,
1000000000427509,77054787788,mKarTel,mMTS,mKarTel,D77,D01,2017-07-24T18:54:24+06:00,
1000000000427511,77007706545,mKcell,mAltel,mAltel,,D02,2017-07-24T18:55:52+06:00,
1000000000427512,77075158989,mMTS,mKcell,mMTS,D02,D77,2017-07-24T18:55:57+06:00,
1000000000427513,77053862515,mMTS,mKarTel,mKarTel,,D77,2017-07-24T18:56:30+06:00,
1000000000427515,77052881709,mMTS,mKarTel,mKarTel,,D77,2017-07-24T18:57:23+06:00,
1000000000427519,77477610102,mKcell,mMTS,mMTS,,D02,2017-07-24T18:58:24+06:00,
