NPId,Number,RecipientId,DonorId,RangeHolderId,OldRoute,NewRoute,PortDate,RowCount
1000000000295660,77056991619,mMTS,mKarTel,mKarTel,,D77,2016-12-15T14:30:14+06:00,25
1000000000295661,77015358449,mKcell,mKarTel,mKcell,D01,D02,2016-12-15T14:30:58+06:00,
1000000000295663,77055825034,mKcell,mKarTel,mKarTel,,D02,2016-12-15T14:33:03+06:00,
1000000000295664,77011105606,mMTS,mKcell,mKcell,,D77,2016-12-15T14:32:41+06:00,
1000000000295667,77005353005,mMTS,mAltel,mAltel,,D77,2016-12-15T14:35:31+06:00,
1000000000295668,77056640555,mKcell,mKarTel,mKarTel,,D02,2016-12-15T14:37:01+06:00,
1000000000295670,77773444141,mMTS,mKarTel,mKarTel,,D77,2016-12-15T14:37:26+06:00,
1000000000295671,77022644571,mMTS,mKcell,mKcell,,D77,2016-12-15T14:37:17+06:00,
1000000000295675,77077220490,mAltel,mMTS,mMTS,,D07,2016-12-15T14:42:46+06:00,
1000000000295676,77054807971,mKarTel,mMTS,mKarTel,D77,D01,2016-12-15T14:43:14+06:00,
1000000000295677,77052974450,mMTS,mKarTel,mKarTel,,D77,2016-12-15T14:43:32+06:00,
1000000000295678,77014229821,mKcell,mMTS,mKcell,D77,D02,2016-12-15T14:43:35+06:00,
1000000000295679,77757007755,mAltel,mKcell,mKcell,,D07,2016-12-15T14:43:37+06:00,
1000000000295680,77760030313,mMTS,mKarTel,mKarTel,,D77,2016-12-15T14:45:05+06:00,
1000000000295684,77059746464,mMTS,mKarTel,mKarTel,,D77,2016-12-15T14:49:47+06:00,
1000000000295685,77713600709,mAltel,mKarTel,mKarTel,,D07,2016-12-15T14:49:47+06:00,
1000000000295686,77026363667,mMTS,mKcell,mKcell,,D77,2016-12-15T14:57:17+06:00,
1000000000295687,77071771777,mKarTel,mMTS,mMTS,,D01,2016-12-15T14:53:39+06:00,
1000000000295688,77018120966,mKarTel,mKcell,mKcell,,D01,2016-12-15T14:56:41+06:00,
1000000000295689,77772119769,mKcell,mKarTel,mKarTel,,D02,2016-12-15T14:54:55+06:00,
1000000000295691,77053908888,mMTS,mKarTel,mKarTel,,D77,2016-12-15T14:55:43+06:00,
1000000000295692,77087537423,mMTS,mAltel,mAltel,,D77,2016-12-15T14:55:31+06:00,
1000000000295694,77479300705,mKarTel,mMTS,mMTS,,D01,2016-12-15T14:59:29+06:00,
1000000000295694,77479300708,mKarTel,mMTS,mMTS,,D01,2016-12-15T14:59:29+06:00,
1000000000295694,77479801655,mKarTel,mMTS,mMTS,,D01,2016-12-15T14:59:29+06:00,
