NPId,Number,RecipientId,DonorId,RangeHolderId,OldRoute,NewRoute,PortDate,RowCount
1000000000423042,77006636154,mMTS,mAltel,mAltel,,D77,2017-07-17T12:30:45+06:00,32
1000000000423043,77086322807,mKarTel,mKcell,mAltel,D02,D01,2017-07-17T12:31:26+06:00,
1000000000423044,77019122525,mKcell,mMTS,mKcell,D77,D02,2017-07-17T12:31:25+06:00,
1000000000423045,77006636032,mMTS,mAltel,mAltel,,D77,2017-07-17T12:31:46+06:00,
1000000000423046,77754104481,mKcell,mMTS,mKcell,D77,D02,2017-07-17T12:32:05+06:00,
1000000000423047,77027651799,mKarTel,mKcell,mKcell,,D01,2017-07-17T12:35:01+06:00,
1000000000423048,77779940220,mMTS,mKarTel,mKarTel,,D77,2017-07-17T12:38:01+06:00,
1000000000423050,77006636519,mMTS,mAltel,mAltel,,D77,2017-07-17T12:38:17+06:00,
1000000000423052,77006636875,mMTS,mAltel,mAltel,,D77,2017-07-17T12:39:28+06:00,
1000000000423053,77089668312,mKcell,mMTS,mAltel,D77,D02,2017-07-17T12:40:07+06:00,
1000000000423054,77006636167,mMTS,mAltel,mAltel,,D77,2017-07-17T12:41:08+06:00,
1000000000423055,77005050643,mKarTel,mAltel,mAltel,,D01,2017-07-17T12:41:50+06:00,
1000000000423056,77028747722,mMTS,mKcell,mKcell,,D77,2017-07-17T12:41:43+06:00,
1000000000423057,77006636153,mMTS,mAltel,mAltel,,D77,2017-07-17T12:42:11+06:00,
1000000000423058,77016530880,mKcell,mAltel,mKcell,D07,D02,2017-07-17T12:42:49+06:00,
1000000000423059,77019355858,mAltel,mKcell,mKcell,,D07,2017-07-17T12:42:41+06:00,
1000000000423060,77006636670,mMTS,mAltel,mAltel,,D77,2017-07-17T12:44:54+06:00,
1000000000423062,77006636391,mMTS,mAltel,mAltel,,D77,2017-07-17T12:46:15+06:00,
1000000000423063,77073020302,mAltel,mMTS,mMTS,,D07,2017-07-17T12:47:20+06:00,
1000000000423064,77006636051,mMTS,mAltel,mAltel,,D77,2017-07-17T12:47:21+06:00,
1000000000423065,77006636190,mMTS,mAltel,mAltel,,D77,2017-07-17T12:48:27+06:00,
1000000000423066,77075705733,mKcell,mMTS,mMTS,,D02,2017-07-17T12:49:59+06:00,
1000000000423067,77079812060,mAltel,mMTS,mMTS,,D07,2017-07-17T12:49:55+06:00,
1000000000423068,77006636215,mMTS,mAltel,mAltel,,D77,2017-07-17T12:50:52+06:00,
1000000000423069,77054525536,mAltel,mKarTel,mKarTel,,D07,2017-07-17T12:51:46+06:00,
1000000000423070,77006636091,mMTS,mAltel,mAltel,,D77,2017-07-17T12:52:11+06:00,
1000000000423071,77003232308,mKcell,mAltel,mAltel,,D02,2017-07-17T12:53:21+06:00,
1000000000423074,77789329143,mKarTel,mKcell,mKcell,,D01,2017-07-17T12:53:54+06:00,
1000000000423076,77023238421,mKarTel,mKcell,mKcell,,D01,2017-07-17T12:54:51+06:00,
1000000000423077,77006636082,mMTS,mAltel,mAltel,,D77,2017-07-17T12:55:12+06:00,
1000000000423079,77006636743,mMTS,mAltel,mAltel,,D77,2017-07-17T12:56:23+06:00,
1000000000423080,77006636754,mMTS,mAltel,mAltel,,D77,2017-07-17T12:57:31+06:00,
