NPId,Number,RecipientId,DonorId,RangeHolderId,OldRoute,NewRoute,PortDate,RowCount
1000000000159422,77775548738,mMTS,mKarTel,mKarTel,,D77,2016-04-24T18:31:28+06:00,7
1000000000159423,77084868829,mMTS,mAltel,mAltel,,D77,2016-04-24T18:32:00+06:00,
1000000000159424,77755775817,mMTS,mKcell,mKcell,,D77,2016-04-24T18:32:22+06:00,
1000000000159425,77773161513,mMTS,mKarTel,mKarTel,,D77,2016-04-24T18:38:39+06:00,
1000000000159426,77051441524,mMTS,mKarTel,mKarTel,,D77,2016-04-24T18:40:36+06:00,
1000000000159428,77019422585,mMTS,mKcell,mKcell,,D77,2016-04-24T18:42:23+06:00,
1000000000159429,77471219977,mKcell,mMTS,mMTS,,D02,2016-04-24T18:43:32+06:00,
