NPId,Number,RecipientId,DonorId,RangeHolderId,OldRoute,NewRoute,PortDate,RowCount
1000000000265548,77777338686,mMTS,mKarTel,mKarTel,D01,D77,2016-10-20T14:00:13+06:00,19
1000000000265551,77477447707,mAltel,mMTS,mMTS,,D07,2016-10-20T14:03:56+06:00,
1000000000265554,77021097966,mMTS,mKcell,mKcell,,D77,2016-10-20T14:06:51+06:00,
1000000000265556,77762389888,mKcell,mKarTel,mKarTel,,D02,2016-10-20T14:08:03+06:00,
1000000000265557,77076008599,mAltel,mMTS,mMTS,,D07,2016-10-20T14:07:31+06:00,
1000000000265558,77773992777,mMTS,mKarTel,mKarTel,,D77,2016-10-20T14:08:06+06:00,
1000000000265559,77773165306,mMTS,mKarTel,mKarTel,,D77,2016-10-20T14:08:45+06:00,
1000000000265560,77711557700,mKcell,mKarTel,mKarTel,,D02,2016-10-20T14:10:25+06:00,
1000000000265562,77029268648,mKcell,mMTS,mKcell,D77,D02,2016-10-20T14:10:46+06:00,
1000000000265564,77782196861,mKcell,mMTS,mKcell,D77,D02,2016-10-20T14:13:08+06:00,
1000000000265565,77016114851,mMTS,mKcell,mKcell,,D77,2016-10-20T14:13:33+06:00,
1000000000265566,77023955674,mKarTel,mKcell,mKcell,,D01,2016-10-20T14:13:43+06:00,
1000000000265567,77773300901,mAltel,mKarTel,mKarTel,,D07,2016-10-20T14:16:19+06:00,
1000000000265568,77771958500,mKarTel,mAltel,mKarTel,D07,D01,2016-10-20T14:16:26+06:00,
1000000000265571,77772075757,mMTS,mKarTel,mKarTel,,D77,2016-10-20T14:25:39+06:00,
1000000000265572,77472345670,mAltel,mMTS,mMTS,,D07,2016-10-20T14:27:08+06:00,
1000000000265573,77776197051,mKarTel,mMTS,mKarTel,D77,D01,2016-10-20T14:28:04+06:00,
1000000000265575,77781000638,mKarTel,mKcell,mKcell,,D01,2016-10-20T14:28:26+06:00,
1000000000265576,77752286329,mKcell,mMTS,mKcell,D77,D02,2016-10-20T14:29:03+06:00,
