NPId,Number,RecipientId,DonorId,RangeHolderId,OldRoute,NewRoute,PortDate,RowCount
1000000000189553,77781633335,mMTS,mKcell,mKcell,,D77,2016-06-07T17:02:13+06:00,25
1000000000189554,77080701717,mMTS,mAltel,mAltel,,D77,2016-06-07T17:02:09+06:00,
1000000000189555,77770097878,mMTS,mKarTel,mKarTel,,D77,2016-06-07T17:04:20+06:00,
1000000000189556,77016357470,mKarTel,mMTS,mKcell,D77,D01,2016-06-07T17:04:58+06:00,
1000000000189557,77017555101,mAltel,mKcell,mKcell,,D07,2016-06-07T17:09:05+06:00,
1000000000189561,77768087707,mMTS,mKarTel,mKarTel,,D77,2016-06-07T17:09:48+06:00,
1000000000189562,77088771993,mMTS,mAltel,mAltel,,D77,2016-06-07T17:09:42+06:00,
1000000000189565,77026113495,mAltel,mKcell,mKcell,,D07,2016-06-07T17:25:49+06:00,
1000000000189566,77085324768,mMTS,mAltel,mAltel,,D77,2016-06-07T17:11:55+06:00,
1000000000189567,77784022737,mMTS,mKcell,mKcell,,D77,2016-06-07T17:26:03+06:00,
1000000000189570,77079982338,mKarTel,mMTS,mMTS,,D01,2016-06-07T17:12:43+06:00,
1000000000189571,77079991234,mKarTel,mMTS,mMTS,,D01,2016-06-07T17:12:49+06:00,
1000000000189572,77014917797,mMTS,mKcell,mKcell,,D77,2016-06-07T17:26:02+06:00,
1000000000189573,77476236152,mMTS,mAltel,mMTS,D07,D77,2016-06-07T17:16:36+06:00,
1000000000189574,77028885766,mKarTel,mKcell,mKcell,,D01,2016-06-07T17:26:55+06:00,
1000000000189576,77055840584,mMTS,mKarTel,mKarTel,,D77,2016-06-07T17:17:28+06:00,
1000000000189577,77071494236,mKarTel,mMTS,mMTS,,D01,2016-06-07T17:19:23+06:00,
1000000000189578,77012020090,mMTS,mKcell,mKcell,,D77,2016-06-07T17:26:48+06:00,
1000000000189580,77007558888,mMTS,mAltel,mAltel,,D77,2016-06-07T17:20:48+06:00,
1000000000189581,77773361113,mMTS,mKarTel,mKarTel,,D77,2016-06-07T17:21:46+06:00,
1000000000189583,77714759959,mMTS,mKarTel,mKarTel,,D77,2016-06-07T17:22:28+06:00,
1000000000189584,77476079760,mAltel,mMTS,mMTS,,D07,2016-06-07T17:22:23+06:00,
1000000000189586,77017848684,mMTS,mKcell,mKcell,,D77,2016-06-07T17:26:44+06:00,
1000000000189587,77027305276,mMTS,mKcell,mKcell,,D77,2016-06-07T17:26:48+06:00,
1000000000189589,77083221013,mMTS,mAltel,mAltel,,D77,2016-06-07T17:26:24+06:00,
