NPId,Number,RecipientId,DonorId,RangeHolderId,OldRoute,NewRoute,PortDate,RowCount
1000000000154087,77017112277,mAltel,mKcell,mKcell,,D07,2016-04-17T15:30:07+06:00,17
1000000000154088,77029740848,mMTS,mKcell,mKcell,,D77,2016-04-17T15:31:11+06:00,
1000000000154089,77771665268,mAltel,mKarTel,mKarTel,,D07,2016-04-17T15:33:36+06:00,
1000000000154090,77089003840,mMTS,mAltel,mAltel,,D77,2016-04-17T15:31:55+06:00,
1000000000154091,77757930000,mMTS,mKcell,mKcell,,D77,2016-04-17T15:32:23+06:00,
1000000000154092,77770061991,mKarTel,mKcell,mKarTel,D02,D01,2016-04-17T15:33:31+06:00,
1000000000154093,77770061990,mKarTel,mKcell,mKarTel,D02,D01,2016-04-17T15:33:33+06:00,
1000000000154094,77782227222,mAltel,mKcell,mKcell,,D07,2016-04-17T15:34:02+06:00,
1000000000154095,77089899598,mMTS,mAltel,mAltel,,D77,2016-04-17T15:36:00+06:00,
1000000000154099,77755530532,mMTS,mKcell,mKcell,,D77,2016-04-17T15:41:20+06:00,
1000000000154100,77753100030,mMTS,mKcell,mKcell,,D77,2016-04-17T15:42:10+06:00,
1000000000154102,77771925893,mMTS,mKarTel,mKarTel,,D77,2016-04-17T15:48:10+06:00,
1000000000154103,77085185187,mMTS,mAltel,mAltel,,D77,2016-04-17T15:46:03+06:00,
1000000000154104,77081528848,mMTS,mAltel,mAltel,,D77,2016-04-17T15:47:06+06:00,
1000000000154105,77478461682,mAltel,mMTS,mMTS,,D07,2016-04-17T15:50:49+06:00,
1000000000154106,77089121213,mMTS,mAltel,mAltel,,D77,2016-04-17T15:51:22+06:00,
1000000000154107,77751061467,mMTS,mKcell,mKcell,,D77,2016-04-17T15:52:23+06:00,
