NPId,Number,RecipientId,DonorId,RangeHolderId,OldRoute,NewRoute,PortDate,RowCount
1000000000370746,77002101005,mKcell,mAltel,mAltel,,D02,2017-04-24T13:30:10+06:00,32
1000000000370748,77019998521,mKarTel,mKcell,mKcell,,D01,2017-04-24T13:31:29+06:00,
1000000000370749,77071026606,mAltel,mMTS,mMTS,,D07,2017-04-24T13:31:15+06:00,
1000000000370750,77018011987,mAltel,mKcell,mKcell,,D07,2017-04-24T13:31:57+06:00,
1000000000370751,77018882605,mKarTel,mKcell,mKcell,,D01,2017-04-24T13:32:10+06:00,
1000000000370752,77017269468,mAltel,mMTS,mKcell,D77,D07,2017-04-24T13:32:15+06:00,
1000000000370753,77022498911,mKcell,mMTS,mKcell,D77,D02,2017-04-24T13:34:06+06:00,
1000000000370755,77017867625,mAltel,mMTS,mKcell,D77,D07,2017-04-24T13:36:41+06:00,
1000000000370760,77770532506,mMTS,mKarTel,mKarTel,,D77,2017-04-24T13:42:32+06:00,
1000000000370761,77776428020,mMTS,mKarTel,mKarTel,,D77,2017-04-24T13:42:49+06:00,
1000000000370764,77017811122,mKcell,mAltel,mKcell,D07,D02,2017-04-24T13:43:30+06:00,
1000000000370767,77779268338,mKarTel,mKcell,mKarTel,D02,D01,2017-04-24T13:46:18+06:00,
1000000000370768,77787886783,mMTS,mKcell,mKcell,,D77,2017-04-24T13:46:18+06:00,
1000000000370769,77075504050,mAltel,mMTS,mMTS,D77,D07,2017-04-24T13:46:17+06:00,
1000000000370770,77018881326,mKarTel,mKcell,mKcell,,D01,2017-04-24T13:47:09+06:00,
1000000000370773,77015597440,mMTS,mAltel,mKcell,D07,D77,2017-04-24T13:47:25+06:00,
1000000000370777,77015034180,mKarTel,mKcell,mKcell,,D01,2017-04-24T13:50:47+06:00,
1000000000370779,77021635434,mMTS,mKcell,mKcell,,D77,2017-04-24T13:51:33+06:00,
1000000000370780,77007771547,mKcell,mAltel,mAltel,,D02,2017-04-24T13:51:54+06:00,
1000000000370781,77472182419,mKcell,mMTS,mMTS,,D02,2017-04-24T13:52:25+06:00,
1000000000370782,77016355082,mMTS,mKcell,mKcell,,D77,2017-04-24T13:53:15+06:00,
1000000000370783,77757560156,mMTS,mKcell,mKcell,D02,D77,2017-04-24T13:53:30+06:00,
1000000000370784,77780000113,mKcell,mAltel,mKcell,D07,D02,2017-04-24T13:53:51+06:00,
1000000000370785,77007774137,mKcell,mAltel,mAltel,,D02,2017-04-24T13:55:08+06:00,
1000000000370786,77017420956,mKarTel,mKcell,mKcell,,D01,2017-04-24T13:55:26+06:00,
1000000000370787,77719179423,mMTS,mKarTel,mKarTel,,D77,2017-04-24T13:57:10+06:00,
1000000000370789,77761662011,mMTS,mKarTel,mKarTel,,D77,2017-04-24T13:57:29+06:00,
1000000000370790,77007772697,mKcell,mAltel,mAltel,,D02,2017-04-24T13:57:47+06:00,
1000000000370791,77472059539,mKcell,mMTS,mMTS,,D02,2017-04-24T13:57:50+06:00,
1000000000370793,77026943094,mKcell,mKarTel,mKcell,D01,D02,2017-04-24T13:59:18+06:00,
1000000000370794,77785046873,mAltel,mKcell,mKcell,,D07,2017-04-24T13:59:02+06:00,
1000000000370795,77013495645,mKarTel,mKcell,mKcell,,D01,2017-04-24T13:59:38+06:00,
