NPId,Number,RecipientId,DonorId,RangeHolderId,OldRoute,NewRoute,PortDate,RowCount
1000000000156926,77710156713,mKarTel,mKcell,mKarTel,D02,D01,2016-04-21T11:31:43+06:00,33
1000000000157026,77718080111,mKcell,mKarTel,mKarTel,,D02,2016-04-21T11:32:00+06:00,
1000000000157046,77015121889,mKcell,mKarTel,mKcell,D01,D02,2016-04-21T11:49:03+06:00,
1000000000157046,77015121890,mKcell,mKarTel,mKcell,D01,D02,2016-04-21T11:49:03+06:00,
1000000000157046,77015121894,mKcell,mKarTel,mKcell,D01,D02,2016-04-21T11:49:03+06:00,
1000000000157046,77017427311,mKcell,mKarTel,mKcell,D01,D02,2016-04-21T11:49:03+06:00,
1000000000157046,77017427312,mKcell,mKarTel,mKcell,D01,D02,2016-04-21T11:49:03+06:00,
1000000000157046,77018721758,mKcell,mKarTel,mKcell,D01,D02,2016-04-21T11:49:03+06:00,
1000000000157046,77019651884,mKcell,mKarTel,mKcell,D01,D02,2016-04-21T11:49:03+06:00,
1000000000157046,77019651885,mKcell,mKarTel,mKcell,D01,D02,2016-04-21T11:49:03+06:00,
1000000000157046,77019651887,mKcell,mKarTel,mKcell,D01,D02,2016-04-21T11:49:03+06:00,
1000000000157046,77019651889,mKcell,mKarTel,mKcell,D01,D02,2016-04-21T11:49:03+06:00,
1000000000157046,77019651892,mKcell,mKarTel,mKcell,D01,D02,2016-04-21T11:49:03+06:00,
1000000000157046,77019651894,mKcell,mKarTel,mKcell,D01,D02,2016-04-21T11:49:03+06:00,
1000000000157048,77005010301,mKarTel,mAltel,mAltel,,D01,2016-04-21T11:34:42+06:00,
1000000000157050,77022828281,mKarTel,mKcell,mKcell,,D01,2016-04-21T11:37:03+06:00,
1000000000157054,77027081135,mKarTel,mKcell,mKcell,,D01,2016-04-21T11:41:04+06:00,
1000000000157059,77054541815,mMTS,mKarTel,mKarTel,,D77,2016-04-21T11:44:51+06:00,
1000000000157060,77016665270,mKcell,mMTS,mKcell,D77,D02,2016-04-21T11:49:05+06:00,
1000000000157061,77759799905,mMTS,mKcell,mKcell,,D77,2016-04-21T11:49:01+06:00,
1000000000157063,77085210924,mMTS,mAltel,mAltel,,D77,2016-04-21T11:48:05+06:00,
1000000000157064,77059867999,mMTS,mKarTel,mKarTel,,D77,2016-04-21T11:48:54+06:00,
1000000000157065,77759635070,mKarTel,mKcell,mKcell,,D01,2016-04-21T11:50:13+06:00,
1000000000157067,77005553708,mMTS,mKcell,mAltel,D02,D77,2016-04-21T11:50:08+06:00,
1000000000157068,77081909977,mKcell,mAltel,mAltel,,D02,2016-04-21T11:52:07+06:00,
1000000000157069,77017404487,mAltel,mKcell,mKcell,,D07,2016-04-21T11:53:55+06:00,
1000000000157070,77017124793,mMTS,mKcell,mKcell,,D77,2016-04-21T11:54:25+06:00,
1000000000157071,77772322300,mMTS,mKarTel,mKarTel,,D77,2016-04-21T11:55:52+06:00,
1000000000157073,77003555559,mKcell,mAltel,mAltel,,D02,2016-04-21T11:57:46+06:00,
1000000000157074,77081919977,mKcell,mAltel,mAltel,,D02,2016-04-21T11:58:47+06:00,
1000000000157075,77017886444,mMTS,mKcell,mKcell,,D77,2016-04-21T11:59:05+06:00,
1000000000157076,77011854250,mMTS,mKcell,mKcell,,D77,2016-04-21T11:59:42+06:00,
1000000000157077,77756235471,mMTS,mKcell,mKcell,,D77,2016-04-21T11:59:54+06:00,
