NPId,Number,RecipientId,DonorId,RangeHolderId,OldRoute,NewRoute,PortDate,RowCount
1000000000304164,77782227100,mKcell,mKarTel,mKcell,D01,D02,2017-01-01T15:14:07+06:00,5
1000000000304165,77019525464,mMTS,mKcell,mKcell,,D77,2017-01-01T15:15:59+06:00,
1000000000304166,77019992439,mMTS,mKcell,mKcell,,D77,2017-01-01T15:20:45+06:00,
1000000000304167,77789991194,mMTS,mKcell,mKcell,,D77,2017-01-01T15:21:57+06:00,
1000000000304169,77752222775,mAltel,mKcell,mKcell,,D07,2017-01-01T15:22:56+06:00,
