NPId,Number,RecipientId,DonorId,RangeHolderId,OldRoute,NewRoute,PortDate,RowCount
1000000000094157,77017713521,mMTS,mKcell,mKcell,,D77,2016-02-20T13:02:03+06:00,30
1000000000094158,77015249523,mAltel,mKcell,mKcell,,D07,2016-02-20T13:02:11+06:00,
1000000000094161,77780001909,mAltel,mKcell,mKcell,,D07,2016-02-20T13:04:16+06:00,
1000000000094162,77058890325,mAltel,mKarTel,mKarTel,,D07,2016-02-20T13:05:06+06:00,
1000000000094163,77759025345,mMTS,mKcell,mKcell,,D77,2016-02-20T13:05:24+06:00,
1000000000094165,77025912986,mKarTel,mKcell,mKcell,,D01,2016-02-20T13:07:49+06:00,
1000000000094166,77029930429,mAltel,mKcell,mKcell,,D07,2016-02-20T13:08:12+06:00,
1000000000094167,77775694541,mMTS,mKarTel,mKarTel,,D77,2016-02-20T13:08:36+06:00,
1000000000094168,77714070101,mMTS,mKarTel,mKarTel,,D77,2016-02-20T13:09:19+06:00,
1000000000094169,77054321115,mAltel,mKarTel,mKarTel,,D07,2016-02-20T13:09:33+06:00,
1000000000094170,77017079557,mMTS,mKcell,mKcell,,D77,2016-02-20T13:11:31+06:00,
1000000000094171,77017272712,mAltel,mKcell,mKcell,,D07,2016-02-20T13:13:37+06:00,
1000000000094172,77027272166,mAltel,mKcell,mKcell,,D07,2016-02-20T13:14:08+06:00,
1000000000094174,77015208060,mAltel,mKcell,mKcell,,D07,2016-02-20T13:17:54+06:00,
1000000000094175,77054159900,mMTS,mKarTel,mKarTel,,D77,2016-02-20T13:18:15+06:00,
1000000000094176,77476652560,mAltel,mMTS,mMTS,,D07,2016-02-20T13:18:21+06:00,
1000000000094177,77476652510,mAltel,mMTS,mMTS,,D07,2016-02-20T13:18:45+06:00,
1000000000094178,77751591559,mMTS,mKcell,mKcell,,D77,2016-02-20T13:21:53+06:00,
1000000000094179,77015135499,mMTS,mKcell,mKcell,,D77,2016-02-20T13:22:13+06:00,
1000000000094180,77022332244,mMTS,mKcell,mKcell,,D77,2016-02-20T13:22:13+06:00,
1000000000094182,77775814086,mMTS,mKarTel,mKarTel,,D77,2016-02-20T13:23:02+06:00,
1000000000094184,77029921447,mMTS,mKcell,mKcell,,D77,2016-02-20T13:25:30+06:00,
1000000000094185,77754221233,mAltel,mKcell,mKcell,,D07,2016-02-20T13:25:55+06:00,
1000000000094186,77752220077,mAltel,mKcell,mKcell,,D07,2016-02-20T13:26:03+06:00,
1000000000094188,77014552205,mMTS,mKcell,mKcell,,D77,2016-02-20T13:27:10+06:00,
1000000000094189,77718483800,mAltel,mKarTel,mKarTel,,D07,2016-02-20T13:27:20+06:00,
1000000000094190,77085835523,mKarTel,mAltel,mAltel,,D01,2016-02-20T13:28:24+06:00,
1000000000094191,77770497623,mMTS,mKarTel,mKarTel,,D77,2016-02-20T13:28:44+06:00,
1000000000094193,77022164509,mMTS,mKcell,mKcell,,D77,2016-02-20T13:28:50+06:00,
1000000000094194,77027050275,mMTS,mKcell,mKcell,,D77,2016-02-20T13:29:38+06:00,
