NPId,Number,RecipientId,DonorId,RangeHolderId,OldRoute,NewRoute,PortDate,RowCount
1000000000339836,77775950044,mMTS,mKarTel,mKarTel,,D77,2017-03-03T09:34:25+06:00,10
1000000000339837,77011130555,mMTS,mKcell,mKcell,,D77,2017-03-03T09:34:58+06:00,
1000000000339838,77011057993,mMTS,mKcell,mKcell,,D77,2017-03-03T09:36:09+06:00,
1000000000339839,77017331059,mKcell,mMTS,mKcell,D77,D02,2017-03-03T09:37:14+06:00,
1000000000339841,77053083808,mKarTel,mKcell,mKarTel,D02,D01,2017-03-03T09:43:35+06:00,
1000000000339842,77012326135,mMTS,mKcell,mKcell,,D77,2017-03-03T09:49:15+06:00,
1000000000339843,77775517777,mKcell,mKarTel,mKarTel,,D02,2017-03-03T09:52:24+06:00,
1000000000339844,77009494010,mMTS,mAltel,mAltel,,D77,2017-03-03T09:53:07+06:00,
1000000000339845,77773530063,mMTS,mKarTel,mKarTel,,D77,2017-03-03T09:57:19+06:00,
1000000000339846,77718280000,mAltel,mKarTel,mKarTel,,D07,2017-03-03T09:59:39+06:00,
