NPId,Number,RecipientId,DonorId,RangeHolderId,OldRoute,NewRoute,PortDate,RowCount
1000000000361662,77013926374,mAltel,mKcell,mKcell,,D07,2017-04-07T14:01:59+06:00,21
1000000000361663,77082783888,mKarTel,mMTS,mAltel,D77,D01,2017-04-07T14:03:49+06:00,
1000000000361664,77779545983,mKcell,mAltel,mKarTel,D07,D02,2017-04-07T14:05:01+06:00,
1000000000361666,77026002853,mKarTel,mKcell,mKcell,,D01,2017-04-07T14:05:47+06:00,
1000000000361667,77071207998,mKarTel,mMTS,mMTS,,D01,2017-04-07T14:06:34+06:00,
1000000000361668,77020009085,mKarTel,mMTS,mKcell,D77,D01,2017-04-07T14:07:00+06:00,
1000000000361669,77055544242,mKcell,mKarTel,mKarTel,,D02,2017-04-07T14:08:55+06:00,
1000000000361670,77052949498,mKcell,mKarTel,mKarTel,,D02,2017-04-07T14:10:21+06:00,
1000000000361673,77019241515,mKarTel,mKcell,mKcell,,D01,2017-04-07T14:11:55+06:00,
1000000000361674,77075558636,mMTS,mKcell,mMTS,D02,D77,2017-04-07T14:12:10+06:00,
1000000000361675,77074251155,mMTS,mKcell,mMTS,D02,D77,2017-04-07T14:13:37+06:00,
1000000000361676,77073088848,mKarTel,mMTS,mMTS,,D01,2017-04-07T14:15:30+06:00,
1000000000361677,77774087070,mMTS,mAltel,mKarTel,D07,D77,2017-04-07T14:15:12+06:00,
1000000000361679,77072278210,mKarTel,mMTS,mMTS,,D01,2017-04-07T14:17:32+06:00,
1000000000361680,77781768835,mMTS,mKcell,mKcell,,D77,2017-04-07T14:17:54+06:00,
1000000000361684,77075319340,mKarTel,mMTS,mMTS,,D01,2017-04-07T14:18:39+06:00,
1000000000361685,77077171030,mKarTel,mMTS,mMTS,,D01,2017-04-07T14:19:21+06:00,
1000000000361686,77077280347,mKarTel,mMTS,mMTS,,D01,2017-04-07T14:19:42+06:00,
1000000000361689,77775768888,mKcell,mKarTel,mKarTel,,D02,2017-04-07T14:22:16+06:00,
1000000000361690,77024829231,mKcell,mKarTel,mKcell,D01,D02,2017-04-07T14:22:37+06:00,
1000000000361691,77076721999,mKarTel,mMTS,mMTS,,D01,2017-04-07T14:23:52+06:00,
