NPId,Number,RecipientId,DonorId,RangeHolderId,OldRoute,NewRoute,PortDate,RowCount
1000000000221679,77051288886,mKcell,mKarTel,mKarTel,,D02,2016-08-02T10:38:56+06:00,14
1000000000221680,77013749227,mKarTel,mKcell,mKcell,,D01,2016-08-02T10:41:07+06:00,
1000000000221681,77474104048,mAltel,mMTS,mMTS,,D07,2016-08-02T10:42:01+06:00,
1000000000221682,77773040003,mKarTel,mKcell,mKarTel,D02,D01,2016-08-02T10:43:09+06:00,
1000000000221684,77015549936,mKcell,mAltel,mKcell,D07,D02,2016-08-02T10:44:43+06:00,
1000000000221685,77072817776,mKarTel,mMTS,mMTS,,D01,2016-08-02T10:47:31+06:00,
1000000000221687,77078293401,mKarTel,mMTS,mMTS,,D01,2016-08-02T10:48:33+06:00,
1000000000221688,77715197035,mMTS,mKarTel,mKarTel,,D77,2016-08-02T10:50:23+06:00,
1000000000221689,77026667549,mKarTel,mAltel,mKcell,D07,D01,2016-08-02T10:51:23+06:00,
1000000000221690,77013805721,mKarTel,mKcell,mKcell,,D01,2016-08-02T10:51:59+06:00,
1000000000221691,77072404158,mMTS,mAltel,mMTS,D07,D77,2016-08-02T10:52:18+06:00,
1000000000221692,77777904999,mMTS,mKarTel,mKarTel,,D77,2016-08-02T10:55:15+06:00,
1000000000221693,77018149435,mMTS,mKcell,mKcell,,D77,2016-08-02T10:56:40+06:00,
1000000000221694,77785343333,mKcell,mMTS,mKcell,D77,D02,2016-08-02T10:59:56+06:00,
