NPId,Number,RecipientId,DonorId,RangeHolderId,OldRoute,NewRoute,PortDate,RowCount
1000000000279152,77024824539,mAltel,mKcell,mKcell,,D07,2016-11-14T17:30:51+06:00,29
1000000000279153,77771921988,mMTS,mKarTel,mKarTel,,D77,2016-11-14T17:32:11+06:00,
1000000000279154,77781177781,mAltel,mKcell,mKcell,,D07,2016-11-14T17:32:09+06:00,
1000000000279155,77017608715,mMTS,mKcell,mKcell,,D77,2016-11-14T17:32:38+06:00,
1000000000279156,77076807270,mKarTel,mMTS,mMTS,,D01,2016-11-14T17:35:03+06:00,
1000000000279158,77715484343,mKcell,mKarTel,mKarTel,,D02,2016-11-14T17:38:43+06:00,
1000000000279159,77074599790,mKarTel,mMTS,mMTS,,D01,2016-11-14T17:38:37+06:00,
1000000000279160,77055146666,mKarTel,mMTS,mKarTel,D77,D01,2016-11-14T17:38:48+06:00,
1000000000279161,77014828272,mAltel,mKcell,mKcell,,D07,2016-11-14T17:39:51+06:00,
1000000000279162,77786662025,mKarTel,mKcell,mKcell,,D01,2016-11-14T17:40:04+06:00,
1000000000279164,77473807424,mKcell,mMTS,mMTS,,D02,2016-11-14T17:40:57+06:00,
1000000000279165,77711122111,mKcell,mKarTel,mKarTel,,D02,2016-11-14T17:42:25+06:00,
1000000000279166,77717797972,mKcell,mAltel,mKarTel,D07,D02,2016-11-14T17:41:10+06:00,
1000000000279167,77027040558,mKarTel,mKcell,mKcell,,D01,2016-11-14T17:44:05+06:00,
1000000000279168,77079986467,mKarTel,mMTS,mMTS,,D01,2016-11-14T17:41:57+06:00,
1000000000279169,77013144476,mMTS,mKcell,mKcell,,D77,2016-11-14T17:42:10+06:00,
1000000000279170,77782203191,mMTS,mKcell,mKcell,,D77,2016-11-14T17:42:39+06:00,
1000000000279172,77479802175,mKarTel,mMTS,mMTS,,D01,2016-11-14T17:44:54+06:00,
1000000000279174,77079967992,mKarTel,mKcell,mMTS,D02,D01,2016-11-14T17:46:18+06:00,
1000000000279175,77760076698,mMTS,mKarTel,mKarTel,,D77,2016-11-14T17:46:21+06:00,
1000000000279176,77027773555,mMTS,mKcell,mKcell,,D77,2016-11-14T17:46:54+06:00,
1000000000279178,77767760777,mMTS,mKarTel,mKarTel,,D77,2016-11-14T17:50:20+06:00,
1000000000279180,77012872762,mKarTel,mKcell,mKcell,,D01,2016-11-14T17:51:26+06:00,
1000000000279181,77074000170,mKcell,mMTS,mMTS,,D02,2016-11-14T17:51:30+06:00,
1000000000279182,77784315191,mKcell,mKarTel,mKcell,D01,D02,2016-11-14T17:52:53+06:00,
1000000000279183,77078070088,mKarTel,mMTS,mMTS,,D01,2016-11-14T17:51:59+06:00,
1000000000279184,77753517845,mMTS,mKcell,mKcell,,D77,2016-11-14T17:53:59+06:00,
1000000000279185,77019869698,mMTS,mKcell,mKcell,,D77,2016-11-14T17:55:04+06:00,
1000000000279186,77471799990,mKcell,mMTS,mMTS,,D02,2016-11-14T17:57:07+06:00,
