NPId,Number,RecipientId,DonorId,RangeHolderId,OldRoute,NewRoute,PortDate,RowCount
1000000000195484,77001387988,mAltel,mMTS,mAltel,D77,D07,2016-06-18T10:01:35+06:00,15
1000000000195485,77072755374,mKcell,mMTS,mMTS,,D02,2016-06-18T10:03:38+06:00,
1000000000195486,77004718535,mMTS,mKarTel,mAltel,D01,D77,2016-06-18T10:05:31+06:00,
1000000000195487,77057384720,mKcell,mKarTel,mKarTel,,D02,2016-06-18T10:12:55+06:00,
1000000000195488,77079968751,mMTS,mAltel,mMTS,D07,D77,2016-06-18T10:17:18+06:00,
1000000000195489,77474923859,mKcell,mMTS,mMTS,,D02,2016-06-18T10:23:22+06:00,
1000000000195490,77474923872,mKcell,mMTS,mMTS,,D02,2016-06-18T10:23:23+06:00,
1000000000195491,77771806161,mKcell,mKarTel,mKarTel,,D02,2016-06-18T10:23:25+06:00,
1000000000195492,77474923858,mKcell,mMTS,mMTS,,D02,2016-06-18T10:23:23+06:00,
1000000000195493,77053867335,mKcell,mKarTel,mKarTel,,D02,2016-06-18T10:23:24+06:00,
1000000000195494,77763200020,mAltel,mKarTel,mKarTel,,D07,2016-06-18T10:22:35+06:00,
1000000000195495,77474923852,mKcell,mMTS,mMTS,,D02,2016-06-18T10:24:02+06:00,
1000000000195496,77718480212,mKcell,mKarTel,mKarTel,,D02,2016-06-18T10:25:13+06:00,
1000000000195497,77777000051,mMTS,mKarTel,mKarTel,,D77,2016-06-18T10:27:25+06:00,
1000000000195498,77785678967,mMTS,mKcell,mKcell,,D77,2016-06-18T10:27:19+06:00,
