NPId,Number,RecipientId,DonorId,RangeHolderId,OldRoute,NewRoute,PortDate,RowCount
1000000000128885,77770316408,mKcell,mKarTel,mKarTel,,D02,2016-03-18T20:01:25+06:00,15
1000000000128886,77770316405,mKcell,mKarTel,mKarTel,,D02,2016-03-18T20:01:35+06:00,
1000000000128887,77770316397,mKcell,mKarTel,mKarTel,,D02,2016-03-18T20:05:33+06:00,
1000000000128888,77770316394,mKcell,mKarTel,mKarTel,,D02,2016-03-18T20:06:21+06:00,
1000000000128889,77012446565,mKcell,mKarTel,mKcell,D01,D02,2016-03-18T20:08:10+06:00,
1000000000128890,77016236654,mAltel,mKcell,mKcell,,D07,2016-03-18T20:07:48+06:00,
1000000000128891,77012218568,mAltel,mKcell,mKcell,,D07,2016-03-18T20:10:16+06:00,
1000000000128892,77023590003,mAltel,mKcell,mKcell,,D07,2016-03-18T20:11:46+06:00,
1000000000128893,77019976868,mKcell,mKarTel,mKcell,D01,D02,2016-03-18T20:17:12+06:00,
1000000000128894,77053773083,mKcell,mKarTel,mKarTel,,D02,2016-03-18T20:17:36+06:00,
1000000000128895,77770316389,mKcell,mKarTel,mKarTel,,D02,2016-03-18T20:19:26+06:00,
1000000000128896,77770316386,mKcell,mKarTel,mKarTel,,D02,2016-03-18T20:21:06+06:00,
1000000000128897,77770316385,mKcell,mKarTel,mKarTel,,D02,2016-03-18T20:22:11+06:00,
1000000000128898,77770316378,mKcell,mKarTel,mKarTel,,D02,2016-03-18T20:26:01+06:00,
1000000000128899,77770316375,mKcell,mKarTel,mKarTel,,D02,2016-03-18T20:27:30+06:00,
