NPId,Number,RecipientId,DonorId,RangeHolderId,OldRoute,NewRoute,PortDate,RowCount
1000000000426721,77015567500,mAltel,mKcell,mKcell,,D07,2017-07-23T16:35:51+06:00,10
1000000000426723,77011114787,mAltel,mKcell,mKcell,,D07,2017-07-23T16:37:32+06:00,
1000000000426724,77479018210,mMTS,mKarTel,mMTS,D01,D77,2017-07-23T16:40:07+06:00,
1000000000426725,77017814980,mKarTel,mKcell,mKcell,,D01,2017-07-23T16:43:24+06:00,
1000000000426726,77752166736,mKarTel,mMTS,mKcell,D77,D01,2017-07-23T16:44:01+06:00,
1000000000426729,77012768393,mMTS,mKcell,mKcell,,D77,2017-07-23T16:54:41+06:00,
1000000000426730,77077210905,mKcell,mMTS,mMTS,,D02,2017-07-23T16:55:02+06:00,
1000000000426731,77078167872,mKarTel,mMTS,mMTS,,D01,2017-07-23T16:56:49+06:00,
1000000000426732,77787590000,mMTS,mKcell,mKcell,,D77,2017-07-23T16:59:02+06:00,
1000000000426733,77072002015,mAltel,mKcell,mMTS,D02,D07,2017-07-23T16:59:38+06:00,
