NPId,Number,RecipientId,DonorId,RangeHolderId,OldRoute,NewRoute,PortDate,RowCount
1000000000410705,77079001588,mMTS,mKcell,mMTS,D02,D77,2017-06-27T17:37:56+06:00,37
1000000000410708,77072001599,mMTS,mKcell,mMTS,D02,D77,2017-06-27T17:36:14+06:00,
1000000000410713,77079001544,mMTS,mKcell,mMTS,D02,D77,2017-06-27T17:35:43+06:00,
1000000000410714,77773114411,mMTS,mKcell,mKarTel,D02,D77,2017-06-27T17:34:34+06:00,
1000000000410731,77774116611,mMTS,mKcell,mKarTel,D02,D77,2017-06-27T17:33:28+06:00,
1000000000410734,77072001544,mMTS,mKcell,mMTS,D02,D77,2017-06-27T17:32:26+06:00,
1000000000410741,77079409938,mMTS,mKcell,mMTS,D02,D77,2017-06-27T17:31:17+06:00,
1000000000410784,77072001577,mMTS,mKcell,mMTS,D02,D77,2017-06-27T17:54:22+06:00,
1000000000410816,77751458458,mAltel,mKcell,mKcell,,D07,2017-06-27T17:53:39+06:00,
1000000000410817,77013433014,mKcell,mKarTel,mKcell,D01,D02,2017-06-27T17:53:48+06:00,
1000000000410818,77024920500,mKarTel,mKcell,mKcell,D02,D01,2017-06-27T17:54:11+06:00,
1000000000410832,77007701700,mMTS,mAltel,mAltel,,D77,2017-06-27T17:30:20+06:00,
1000000000410833,77778937984,mAltel,mKarTel,mKarTel,,D07,2017-06-27T17:31:27+06:00,
1000000000410834,77017456606,mMTS,mKcell,mKcell,,D77,2017-06-27T17:31:40+06:00,
1000000000410835,77072530062,mMTS,mAltel,mMTS,D07,D77,2017-06-27T17:32:03+06:00,
1000000000410837,77773154438,mAltel,mKarTel,mKarTel,,D07,2017-06-27T17:33:41+06:00,
1000000000410838,77075551191,mKarTel,mMTS,mMTS,,D01,2017-06-27T17:34:21+06:00,
1000000000410840,77018088787,mKarTel,mKcell,mKcell,,D01,2017-06-27T17:35:33+06:00,
1000000000410842,77773510020,mKcell,mAltel,mKarTel,D07,D02,2017-06-27T17:36:25+06:00,
1000000000410843,77783221188,mMTS,mKcell,mKcell,,D77,2017-06-27T17:37:39+06:00,
1000000000410844,77759415307,mMTS,mKcell,mKcell,,D77,2017-06-27T17:38:10+06:00,
1000000000410845,77752350883,mKcell,mKarTel,mKcell,D01,D02,2017-06-27T17:39:18+06:00,
1000000000410846,77472192842,mKarTel,mMTS,mMTS,,D01,2017-06-27T17:38:48+06:00,
1000000000410847,77773138777,mMTS,mKarTel,mKarTel,,D77,2017-06-27T17:39:32+06:00,
1000000000410848,77079151703,mKarTel,mMTS,mMTS,,D01,2017-06-27T17:40:43+06:00,
1000000000410849,77002083060,mKarTel,mAltel,mAltel,,D01,2017-06-27T17:42:43+06:00,
1000000000410850,77016277001,mKcell,mKarTel,mKcell,D01,D02,2017-06-27T17:43:54+06:00,
1000000000410851,77751249700,mAltel,mKcell,mKcell,D02,D07,2017-06-27T17:43:33+06:00,
1000000000410852,77015267707,mKarTel,mKcell,mKcell,,D01,2017-06-27T17:44:26+06:00,
1000000000410853,77777355189,mKarTel,mKcell,mKarTel,D02,D01,2017-06-27T17:45:22+06:00,
1000000000410854,77056027393,mKcell,mKarTel,mKarTel,,D02,2017-06-27T17:46:59+06:00,
1000000000410855,77058838373,mMTS,mKarTel,mKarTel,,D77,2017-06-27T17:49:05+06:00,
1000000000410856,77475588995,mKcell,mMTS,mMTS,,D02,2017-06-27T17:50:59+06:00,
1000000000410857,77015500003,mKarTel,mKcell,mKcell,,D01,2017-06-27T17:54:59+06:00,
1000000000410858,77015880763,mKarTel,mKcell,mKcell,,D01,2017-06-27T17:56:05+06:00,
1000000000410859,77012777630,mMTS,mKcell,mKcell,,D77,2017-06-27T17:55:51+06:00,
1000000000410861,77783989843,mKcell,mMTS,mKcell,D77,D02,2017-06-27T17:59:47+06:00,
