NPId,Number,RecipientId,DonorId,RangeHolderId,OldRoute,NewRoute,PortDate,RowCount
1000000000295214,77078086044,mAltel,mMTS,mMTS,,D07,2016-12-14T16:00:33+06:00,29
1000000000295216,77783661707,mKarTel,mKcell,mKcell,,D01,2016-12-14T16:04:08+06:00,
1000000000295217,77755455556,mAltel,mKcell,mKcell,,D07,2016-12-14T16:05:33+06:00,
1000000000295218,77472232411,mKarTel,mMTS,mMTS,,D01,2016-12-14T16:06:51+06:00,
1000000000295218,77472232413,mKarTel,mMTS,mMTS,,D01,2016-12-14T16:06:51+06:00,
1000000000295219,77019477732,mKcell,mKarTel,mKcell,D01,D02,2016-12-14T16:07:38+06:00,
1000000000295220,77083003008,mKcell,mAltel,mAltel,,D02,2016-12-14T16:09:03+06:00,
1000000000295221,77752766844,mMTS,mKcell,mKcell,,D77,2016-12-14T16:11:18+06:00,
1000000000295224,77015542088,mMTS,mKcell,mKcell,,D77,2016-12-14T16:12:19+06:00,
1000000000295225,77777720209,mMTS,mKarTel,mKarTel,,D77,2016-12-14T16:13:44+06:00,
1000000000295226,77023414012,mMTS,mKcell,mKcell,,D77,2016-12-14T16:13:35+06:00,
1000000000295227,77017123422,mMTS,mKcell,mKcell,,D77,2016-12-14T16:14:38+06:00,
1000000000295228,77018999933,mMTS,mKcell,mKcell,,D77,2016-12-14T16:16:54+06:00,
1000000000295229,77078008080,mMTS,mKcell,mMTS,D02,D77,2016-12-14T16:17:14+06:00,
1000000000295230,77078183122,mKarTel,mMTS,mMTS,,D01,2016-12-14T16:17:29+06:00,
1000000000295232,77472856625,mKcell,mMTS,mMTS,,D02,2016-12-14T16:18:57+06:00,
1000000000295233,77072077074,mAltel,mMTS,mMTS,,D07,2016-12-14T16:19:51+06:00,
1000000000295234,77075009990,mKarTel,mMTS,mMTS,,D01,2016-12-14T16:20:48+06:00,
1000000000295234,77075114440,mKarTel,mMTS,mMTS,,D01,2016-12-14T16:20:48+06:00,
1000000000295234,77079800001,mKarTel,mMTS,mMTS,,D01,2016-12-14T16:20:48+06:00,
1000000000295235,77768886020,mMTS,mKarTel,mKarTel,,D77,2016-12-14T16:20:19+06:00,
1000000000295236,77783102565,mMTS,mKcell,mKcell,,D77,2016-12-14T16:22:41+06:00,
1000000000295237,77024670651,mKarTel,mKcell,mKcell,,D01,2016-12-14T16:23:16+06:00,
1000000000295238,77477067777,mKcell,mMTS,mMTS,,D02,2016-12-14T16:23:09+06:00,
1000000000295239,77085098122,mKcell,mAltel,mAltel,,D02,2016-12-14T16:25:59+06:00,
1000000000295241,77754616151,mKcell,mAltel,mKcell,D07,D02,2016-12-14T16:26:24+06:00,
1000000000295242,77015858757,mMTS,mKcell,mKcell,,D77,2016-12-14T16:27:40+06:00,
1000000000295243,77022859967,mMTS,mKcell,mKcell,,D77,2016-12-14T16:27:52+06:00,
1000000000295244,77073620101,mAltel,mMTS,mMTS,,D07,2016-12-14T16:28:09+06:00,
