NPId,Number,RecipientId,DonorId,RangeHolderId,OldRoute,NewRoute,PortDate,RowCount
1000000000146369,77015552874,mKarTel,mKcell,mKcell,,D01,2016-04-08T15:21:32+06:00,38
1000000000146423,77788888811,mMTS,mKcell,mKcell,,D77,2016-04-08T15:01:18+06:00,
1000000000146582,77779010173,mMTS,mKarTel,mKarTel,,D77,2016-04-08T15:01:10+06:00,
1000000000146583,77015517770,mMTS,mKcell,mKcell,,D77,2016-04-08T15:00:04+06:00,
1000000000146586,77759020103,mMTS,mKcell,mKcell,,D77,2016-04-08T15:01:10+06:00,
1000000000146588,77767569000,mKcell,mKarTel,mKarTel,,D02,2016-04-08T15:05:21+06:00,
1000000000146589,77015269678,mKarTel,mKcell,mKcell,,D01,2016-04-08T15:03:43+06:00,
1000000000146592,77475945296,mAltel,mMTS,mMTS,,D07,2016-04-08T15:05:16+06:00,
1000000000146593,77713184467,mKcell,mKarTel,mKarTel,,D02,2016-04-08T15:07:35+06:00,
1000000000146596,77081991984,mMTS,mAltel,mAltel,,D77,2016-04-08T15:06:38+06:00,
1000000000146599,77058551309,mKcell,mKarTel,mKarTel,,D02,2016-04-08T15:10:30+06:00,
1000000000146600,77081981989,mMTS,mAltel,mAltel,,D77,2016-04-08T15:08:40+06:00,
1000000000146601,77023690045,mMTS,mKcell,mKcell,,D77,2016-04-08T15:10:07+06:00,
1000000000146602,77058925287,mKcell,mKarTel,mKarTel,,D02,2016-04-08T15:12:27+06:00,
1000000000146603,77089233828,mMTS,mAltel,mAltel,,D77,2016-04-08T15:10:35+06:00,
1000000000146604,77082287738,mMTS,mAltel,mAltel,,D77,2016-04-08T15:10:38+06:00,
1000000000146605,77774003388,mKcell,mKarTel,mKarTel,,D02,2016-04-08T15:12:57+06:00,
1000000000146606,77023614368,mKarTel,mKcell,mKcell,,D01,2016-04-08T15:11:48+06:00,
1000000000146609,77779010172,mMTS,mKarTel,mKarTel,,D77,2016-04-08T15:13:08+06:00,
1000000000146610,77088182444,mMTS,mAltel,mAltel,,D77,2016-04-08T15:11:45+06:00,
1000000000146611,77786367240,mMTS,mKcell,mKcell,,D77,2016-04-08T15:12:24+06:00,
1000000000146613,77007411017,mMTS,mAltel,mAltel,,D77,2016-04-08T15:13:15+06:00,
1000000000146614,77059808888,mAltel,mKarTel,mKarTel,,D07,2016-04-08T15:15:08+06:00,
1000000000146617,77005500101,mKarTel,mAltel,mAltel,,D01,2016-04-08T15:15:07+06:00,
1000000000146619,77022519683,mMTS,mKcell,mKcell,,D77,2016-04-08T15:17:27+06:00,
1000000000146620,77784557319,mKcell,mMTS,mKcell,D77,D02,2016-04-08T15:18:04+06:00,
1000000000146624,77012220278,mMTS,mKcell,mKcell,,D77,2016-04-08T15:19:19+06:00,
1000000000146625,77779010171,mMTS,mKarTel,mKarTel,,D77,2016-04-08T15:22:14+06:00,
1000000000146626,77013387896,mKarTel,mKcell,mKcell,,D01,2016-04-08T15:20:51+06:00,
1000000000146628,77004087172,mMTS,mAltel,mAltel,,D77,2016-04-08T15:21:03+06:00,
1000000000146630,77079211000,mMTS,mAltel,mMTS,D07,D77,2016-04-08T15:21:40+06:00,
1000000000146631,77770832232,mMTS,mKarTel,mKarTel,,D77,2016-04-08T15:23:35+06:00,
1000000000146633,77771952699,mKarTel,mAltel,mKarTel,D07,D01,2016-04-08T15:23:35+06:00,
1000000000146634,77022454175,mMTS,mKcell,mKcell,,D77,2016-04-08T15:24:31+06:00,
1000000000146635,77018606163,mMTS,mKcell,mKcell,,D77,2016-04-08T15:26:10+06:00,
1000000000146636,77758400034,mMTS,mKcell,mKcell,,D77,2016-04-08T15:28:15+06:00,
1000000000146638,77004087171,mMTS,mAltel,mAltel,,D77,2016-04-08T15:27:09+06:00,
1000000000146641,77787503761,mKcell,mMTS,mKcell,D77,D02,2016-04-08T15:28:28+06:00,
