NPId,Number,RecipientId,DonorId,RangeHolderId,OldRoute,NewRoute,PortDate,RowCount
1000000000402290,77475557171,mKcell,mMTS,mMTS,,D02,2017-06-13T11:30:10+06:00,31
1000000000402291,77771781718,mKcell,mKarTel,mKarTel,,D02,2017-06-13T11:31:04+06:00,
1000000000402292,77001157606,mKarTel,mAltel,mAltel,,D01,2017-06-13T11:31:08+06:00,
1000000000402294,77053035770,mKcell,mKarTel,mKarTel,,D02,2017-06-13T11:31:47+06:00,
1000000000402295,77001060697,mMTS,mAltel,mAltel,,D77,2017-06-13T11:31:32+06:00,
1000000000402296,77012228601,mKcell,mMTS,mKcell,D77,D02,2017-06-13T11:34:34+06:00,
1000000000402297,77475056257,mKarTel,mMTS,mMTS,,D01,2017-06-13T11:35:59+06:00,
1000000000402298,77786448882,mKcell,mKarTel,mKcell,D01,D02,2017-06-13T11:36:36+06:00,
1000000000402299,77071113677,mKarTel,mMTS,mMTS,,D01,2017-06-13T11:36:11+06:00,
1000000000402300,77078577293,mKarTel,mMTS,mMTS,,D01,2017-06-13T11:36:35+06:00,
1000000000402301,77017983239,mMTS,mKcell,mKcell,,D77,2017-06-13T11:36:28+06:00,
1000000000402302,77766930707,mMTS,mKarTel,mKarTel,,D77,2017-06-13T11:37:00+06:00,
1000000000402303,77059893294,mKarTel,mMTS,mKarTel,D77,D01,2017-06-13T11:38:48+06:00,
1000000000402304,77755794824,mKcell,mMTS,mKcell,D77,D02,2017-06-13T11:39:39+06:00,
1000000000402305,77017150230,mMTS,mKcell,mKcell,,D77,2017-06-13T11:40:43+06:00,
1000000000402306,77017352075,mKarTel,mKcell,mKcell,,D01,2017-06-13T11:41:01+06:00,
1000000000402307,77782683837,mKarTel,mKcell,mKcell,,D01,2017-06-13T11:41:57+06:00,
1000000000402308,77019933429,mKcell,mAltel,mKcell,D07,D02,2017-06-13T11:44:35+06:00,
1000000000402309,77052145781,mAltel,mKarTel,mKarTel,,D07,2017-06-13T11:45:42+06:00,
1000000000402312,77017604559,mMTS,mKcell,mKcell,,D77,2017-06-13T11:46:39+06:00,
1000000000402313,77005566696,mMTS,mAltel,mAltel,,D77,2017-06-13T11:48:29+06:00,
1000000000402314,77071118145,mKarTel,mMTS,mMTS,,D01,2017-06-13T11:49:00+06:00,
1000000000402317,77077479047,mKarTel,mMTS,mMTS,,D01,2017-06-13T11:52:54+06:00,
1000000000402318,77081113070,mMTS,mAltel,mAltel,,D77,2017-06-13T11:53:13+06:00,
1000000000402319,77075281480,mKcell,mAltel,mMTS,D07,D02,2017-06-13T11:53:35+06:00,
1000000000402321,77001377731,mMTS,mAltel,mAltel,,D77,2017-06-13T11:56:00+06:00,
1000000000402322,77058460707,mMTS,mKarTel,mKarTel,,D77,2017-06-13T11:56:55+06:00,
1000000000402323,77081113080,mMTS,mAltel,mAltel,,D77,2017-06-13T11:56:39+06:00,
1000000000402324,77475256404,mKarTel,mMTS,mMTS,,D01,2017-06-13T11:56:58+06:00,
1000000000402325,77017771800,mKarTel,mKcell,mKcell,,D01,2017-06-13T11:58:21+06:00,
1000000000402326,77775191885,mMTS,mKarTel,mKarTel,,D77,2017-06-13T11:59:57+06:00,
