NPId,Number,RecipientId,DonorId,RangeHolderId,OldRoute,NewRoute,PortDate,RowCount
1000000000370589,77059500058,mAltel,mKcell,mKarTel,D02,D07,2017-04-24T11:31:31+06:00,30
1000000000370590,77775321271,mMTS,mKarTel,mKarTel,,D77,2017-04-24T11:32:00+06:00,
1000000000370592,77055313535,mKcell,mKarTel,mKarTel,,D02,2017-04-24T11:34:57+06:00,
1000000000370593,77773639393,mKcell,mKarTel,mKarTel,,D02,2017-04-24T11:35:31+06:00,
1000000000370594,77082189414,mKarTel,mAltel,mAltel,,D01,2017-04-24T11:35:15+06:00,
1000000000370595,77766664446,mKcell,mKarTel,mKarTel,,D02,2017-04-24T11:35:37+06:00,
1000000000370596,77007774390,mKcell,mAltel,mAltel,,D02,2017-04-24T11:35:44+06:00,
1000000000370598,77015818993,mKcell,mMTS,mKcell,D77,D02,2017-04-24T11:37:00+06:00,
1000000000370599,77077167306,mKarTel,mMTS,mMTS,,D01,2017-04-24T11:37:00+06:00,
1000000000370601,77011256935,mKcell,mMTS,mKcell,D77,D02,2017-04-24T11:40:16+06:00,
1000000000370602,77019075257,mAltel,mKcell,mKcell,,D07,2017-04-24T11:40:04+06:00,
1000000000370603,77081484040,mKarTel,mAltel,mAltel,,D01,2017-04-24T11:40:30+06:00,
1000000000370605,77077799951,mAltel,mMTS,mMTS,,D07,2017-04-24T11:41:27+06:00,
1000000000370608,77017324919,mKarTel,mAltel,mKcell,D07,D01,2017-04-24T11:43:14+06:00,
1000000000370609,77754510946,mKarTel,mKcell,mKcell,,D01,2017-04-24T11:46:48+06:00,
1000000000370610,77007177075,mMTS,mAltel,mAltel,,D77,2017-04-24T11:47:46+06:00,
1000000000370611,77088031522,mMTS,mAltel,mAltel,,D77,2017-04-24T11:49:16+06:00,
1000000000370612,77774874040,mKcell,mKarTel,mKarTel,,D02,2017-04-24T11:50:08+06:00,
1000000000370613,77017156108,mMTS,mKcell,mKcell,,D77,2017-04-24T11:49:48+06:00,
1000000000370614,77714118601,mKarTel,mMTS,mKarTel,D77,D01,2017-04-24T11:50:00+06:00,
1000000000370616,77082080473,mKcell,mAltel,mAltel,,D02,2017-04-24T11:51:22+06:00,
1000000000370617,77783385002,mMTS,mKcell,mKcell,,D77,2017-04-24T11:51:30+06:00,
1000000000370618,77052647120,mMTS,mKarTel,mKarTel,,D77,2017-04-24T11:52:12+06:00,
1000000000370622,77085838471,mMTS,mAltel,mAltel,,D77,2017-04-24T11:55:36+06:00,
1000000000370623,77014483949,mMTS,mKcell,mKcell,,D77,2017-04-24T11:55:51+06:00,
1000000000370624,77051362026,mMTS,mKarTel,mKarTel,,D77,2017-04-24T11:56:22+06:00,
1000000000370625,77077655562,mMTS,mAltel,mMTS,D07,D77,2017-04-24T11:57:38+06:00,
1000000000370626,77777722221,mMTS,mKarTel,mKarTel,,D77,2017-04-24T11:58:22+06:00,
1000000000370627,77012020440,mKarTel,mKcell,mKcell,,D01,2017-04-24T11:59:25+06:00,
1000000000370628,77071811100,mMTS,mKcell,mMTS,D02,D77,2017-04-24T11:59:55+06:00,
