NPId,Number,RecipientId,DonorId,RangeHolderId,OldRoute,NewRoute,PortDate,RowCount
1000000000381597,77004905257,mMTS,mAltel,mAltel,,D77,2017-05-11T18:00:31+06:00,34
1000000000381599,77781767007,mAltel,mKcell,mKcell,,D07,2017-05-11T18:01:44+06:00,
1000000000381600,77762621702,mMTS,mKarTel,mKarTel,,D77,2017-05-11T18:01:55+06:00,
1000000000381601,77775661118,mAltel,mKarTel,mKarTel,,D07,2017-05-11T18:02:18+06:00,
1000000000381602,77771530099,mMTS,mKarTel,mKarTel,,D77,2017-05-11T18:02:25+06:00,
1000000000381603,77012046762,mMTS,mKcell,mKcell,,D77,2017-05-11T18:02:19+06:00,
1000000000381604,77027596983,mKcell,mMTS,mKcell,D77,D02,2017-05-11T18:02:45+06:00,
1000000000381605,77058888830,mKcell,mKarTel,mKarTel,,D02,2017-05-11T18:05:17+06:00,
1000000000381606,77021553413,mKarTel,mKcell,mKcell,,D01,2017-05-11T18:06:08+06:00,
1000000000381607,77006211169,mMTS,mAltel,mAltel,,D77,2017-05-11T18:07:04+06:00,
1000000000381608,77773297867,mMTS,mKarTel,mKarTel,,D77,2017-05-11T18:08:05+06:00,
1000000000381609,77086913569,mKarTel,mAltel,mAltel,,D01,2017-05-11T18:08:01+06:00,
1000000000381611,77056017193,mKarTel,mMTS,mKarTel,D77,D01,2017-05-11T18:08:22+06:00,
1000000000381612,77000906300,mMTS,mAltel,mAltel,,D77,2017-05-11T18:08:29+06:00,
1000000000381613,77475766175,mKarTel,mMTS,mMTS,,D01,2017-05-11T18:10:02+06:00,
1000000000381616,77024004378,mKcell,mMTS,mKcell,D77,D02,2017-05-11T18:11:13+06:00,
1000000000381617,77781591666,mKcell,mKarTel,mKcell,D01,D02,2017-05-11T18:11:59+06:00,
1000000000381618,77021117462,mAltel,mKcell,mKcell,,D07,2017-05-11T18:11:42+06:00,
1000000000381621,77002042016,mMTS,mAltel,mAltel,,D77,2017-05-11T18:13:00+06:00,
1000000000381623,77782220929,mMTS,mKcell,mKcell,,D77,2017-05-11T18:13:54+06:00,
1000000000381624,77003848684,mMTS,mAltel,mAltel,,D77,2017-05-11T18:13:51+06:00,
1000000000381626,77013855051,mKarTel,mKcell,mKcell,,D01,2017-05-11T18:14:27+06:00,
1000000000381627,77059632139,mMTS,mKarTel,mKarTel,,D77,2017-05-11T18:14:44+06:00,
1000000000381628,77078627760,mKcell,mMTS,mMTS,,D02,2017-05-11T18:16:17+06:00,
1000000000381629,77020002508,mKcell,mAltel,mKcell,D07,D02,2017-05-11T18:18:34+06:00,
1000000000381631,77475710653,mKarTel,mMTS,mMTS,,D01,2017-05-11T18:19:12+06:00,
1000000000381633,77777444877,mKcell,mAltel,mKarTel,D07,D02,2017-05-11T18:22:07+06:00,
1000000000381634,77056664552,mMTS,mKarTel,mKarTel,,D77,2017-05-11T18:23:12+06:00,
1000000000381635,77075308782,mAltel,mMTS,mMTS,,D07,2017-05-11T18:22:50+06:00,
1000000000381636,77020006202,mMTS,mKcell,mKcell,,D77,2017-05-11T18:23:41+06:00,
1000000000381638,77476605311,mKcell,mMTS,mMTS,,D02,2017-05-11T18:26:11+06:00,
1000000000381639,77021259318,mMTS,mKcell,mKcell,,D77,2017-05-11T18:26:28+06:00,
1000000000381640,77779741449,mKarTel,mMTS,mKarTel,D77,D01,2017-05-11T18:26:54+06:00,
1000000000381641,77786555627,mMTS,mKcell,mKcell,,D77,2017-05-11T18:28:05+06:00,
