NPId,Number,RecipientId,DonorId,RangeHolderId,OldRoute,NewRoute,PortDate,RowCount
1000000000121944,77054556680,mMTS,mKarTel,mKarTel,,D77,2016-03-10T19:01:26+06:00,19
1000000000121945,77016094308,mAltel,mKcell,mKcell,,D07,2016-03-10T19:04:58+06:00,
1000000000121949,77751600918,mAltel,mKcell,mKcell,,D07,2016-03-10T19:06:49+06:00,
1000000000121950,77078090275,mAltel,mMTS,mMTS,,D07,2016-03-10T19:07:47+06:00,
1000000000121951,77075570706,mAltel,mMTS,mMTS,,D07,2016-03-10T19:09:18+06:00,
1000000000121953,77073304073,mAltel,mMTS,mMTS,,D07,2016-03-10T19:10:52+06:00,
1000000000121954,77075038063,mAltel,mMTS,mMTS,,D07,2016-03-10T19:11:57+06:00,
1000000000121956,77022658718,mAltel,mKcell,mKcell,,D07,2016-03-10T19:12:29+06:00,
1000000000121958,77052653750,mKcell,mKarTel,mKarTel,,D02,2016-03-10T19:14:09+06:00,
1000000000121959,77011203083,mAltel,mKcell,mKcell,,D07,2016-03-10T19:13:23+06:00,
1000000000121960,77772125077,mAltel,mKarTel,mKarTel,,D07,2016-03-10T19:17:35+06:00,
1000000000121961,77079768017,mKarTel,mMTS,mMTS,,D01,2016-03-10T19:17:33+06:00,
1000000000121964,77079768018,mKarTel,mMTS,mMTS,,D01,2016-03-10T19:20:04+06:00,
1000000000121965,77013435583,mMTS,mKcell,mKcell,,D77,2016-03-10T19:20:11+06:00,
1000000000121966,77078507050,mAltel,mMTS,mMTS,,D07,2016-03-10T19:21:06+06:00,
1000000000121967,77052653751,mKcell,mKarTel,mKarTel,,D02,2016-03-10T19:23:11+06:00,
1000000000121968,77052653752,mKcell,mKarTel,mKarTel,,D02,2016-03-10T19:24:13+06:00,
1000000000121969,77052653756,mKcell,mKarTel,mKarTel,,D02,2016-03-10T19:25:22+06:00,
1000000000121970,77017950159,mKarTel,mKcell,mKcell,,D01,2016-03-10T19:27:09+06:00,
