NPId,Number,RecipientId,DonorId,RangeHolderId,OldRoute,NewRoute,PortDate,RowCount
1000000000279723,77058817971,mAltel,mKarTel,mKarTel,,D07,2016-11-15T19:02:27+06:00,9
1000000000279725,77019328568,mKarTel,mKcell,mKcell,,D01,2016-11-15T19:02:41+06:00,
1000000000279726,77477056669,mKcell,mMTS,mMTS,,D02,2016-11-15T19:03:46+06:00,
1000000000279728,77788863633,mMTS,mKcell,mKcell,,D77,2016-11-15T19:07:35+06:00,
1000000000279729,77077774044,mKcell,mMTS,mMTS,,D02,2016-11-15T19:08:40+06:00,
1000000000279730,77012144420,mKarTel,mKcell,mKcell,,D01,2016-11-15T19:10:25+06:00,
1000000000279731,77071084659,mKarTel,mMTS,mMTS,,D01,2016-11-15T19:14:59+06:00,
1000000000279732,77051849444,mKarTel,mAltel,mKarTel,D07,D01,2016-11-15T19:18:29+06:00,
1000000000279735,77757354131,mAltel,mKcell,mKcell,,D07,2016-11-15T19:27:31+06:00,
