NPId,Number,RecipientId,DonorId,RangeHolderId,OldRoute,NewRoute,PortDate,RowCount
1000000000413627,77784667551,mMTS,mKcell,mKcell,,D77,2017-06-30T20:00:53+06:00,7
1000000000413628,77784666790,mMTS,mKcell,mKcell,,D77,2017-06-30T20:06:57+06:00,
1000000000413629,77781563178,mMTS,mKcell,mKcell,,D77,2017-06-30T20:06:56+06:00,
1000000000413631,77784666572,mMTS,mKcell,mKcell,,D77,2017-06-30T20:11:49+06:00,
1000000000413633,77783659791,mMTS,mKcell,mKcell,,D77,2017-06-30T20:21:49+06:00,
1000000000413634,77784667579,mMTS,mKcell,mKcell,,D77,2017-06-30T20:21:51+06:00,
1000000000413635,77077782090,mKcell,mMTS,mMTS,,D02,2017-06-30T20:26:08+06:00,
