NPId,Number,RecipientId,DonorId,RangeHolderId,OldRoute,NewRoute,PortDate,RowCount
1000000000442822,77015702232,mKarTel,mKcell,mKcell,,D01,2017-08-20T17:34:37+06:00,6
1000000000442823,77013642510,mKcell,mMTS,mKcell,D77,D02,2017-08-20T17:36:45+06:00,
1000000000442825,77051195111,mMTS,mKarTel,mKarTel,,D77,2017-08-20T17:40:35+06:00,
1000000000442826,77754026723,mMTS,mKcell,mKcell,,D77,2017-08-20T17:40:37+06:00,
1000000000442828,77479509393,mKarTel,mMTS,mMTS,,D01,2017-08-20T17:44:05+06:00,
1000000000442829,77772212410,mAltel,mKarTel,mKarTel,,D07,2017-08-20T17:49:41+06:00,
