NPId,Number,RecipientId,DonorId,RangeHolderId,OldRoute,NewRoute,PortDate,RowCount
1000000000349148,77057545212,mKcell,mKarTel,mKarTel,,D02,2017-03-18T12:44:59+06:00,20
1000000000349174,77788154616,mMTS,mKcell,mKcell,,D77,2017-03-18T12:31:37+06:00,
1000000000349175,77712940817,mMTS,mKarTel,mKarTel,,D77,2017-03-18T12:32:15+06:00,
1000000000349176,77789999930,mAltel,mKcell,mKcell,,D07,2017-03-18T12:35:01+06:00,
1000000000349177,77012851366,mMTS,mKcell,mKcell,,D77,2017-03-18T12:35:26+06:00,
1000000000349178,77017534686,mMTS,mKcell,mKcell,,D77,2017-03-18T12:36:37+06:00,
1000000000349179,77759233335,mMTS,mKcell,mKcell,,D77,2017-03-18T12:36:49+06:00,
1000000000349180,77780000650,mMTS,mKcell,mKcell,,D77,2017-03-18T12:37:22+06:00,
1000000000349181,77776666483,mMTS,mKarTel,mKarTel,,D77,2017-03-18T12:38:11+06:00,
1000000000349183,77028880795,mMTS,mKcell,mKcell,,D77,2017-03-18T12:39:06+06:00,
1000000000349185,77075777825,mKarTel,mMTS,mMTS,,D01,2017-03-18T12:41:48+06:00,
1000000000349187,77029421188,mMTS,mKcell,mKcell,,D77,2017-03-18T12:42:52+06:00,
1000000000349188,77019740813,mMTS,mKcell,mKcell,,D77,2017-03-18T12:42:52+06:00,
1000000000349189,77015341928,mMTS,mKcell,mKcell,,D77,2017-03-18T12:43:54+06:00,
1000000000349192,77003750067,mMTS,mAltel,mAltel,,D77,2017-03-18T12:45:43+06:00,
1000000000349194,77021699736,mKarTel,mKcell,mKcell,,D01,2017-03-18T12:48:53+06:00,
1000000000349199,77017627636,mMTS,mKcell,mKcell,,D77,2017-03-18T12:57:10+06:00,
1000000000349200,77013255995,mKcell,mMTS,mKcell,D77,D02,2017-03-18T12:57:30+06:00,
1000000000349201,77000252550,mKcell,mAltel,mAltel,,D02,2017-03-18T12:58:10+06:00,
1000000000349202,77752324833,mMTS,mKcell,mKcell,,D77,2017-03-18T12:58:47+06:00,
