NPId,Number,RecipientId,DonorId,RangeHolderId,OldRoute,NewRoute,PortDate,RowCount
1000000000360196,77025455976,mKcell,mMTS,mKcell,D77,D02,2017-04-05T14:00:07+06:00,29
1000000000360197,77051753978,mMTS,mKarTel,mKarTel,,D77,2017-04-05T14:00:39+06:00,
1000000000360199,77017598802,mMTS,mKcell,mKcell,,D77,2017-04-05T14:02:00+06:00,
1000000000360200,77753277077,mKarTel,mKcell,mKcell,,D01,2017-04-05T14:03:09+06:00,
1000000000360201,77079696896,mKarTel,mMTS,mMTS,,D01,2017-04-05T14:05:41+06:00,
1000000000360202,77017598803,mMTS,mKcell,mKcell,,D77,2017-04-05T14:06:19+06:00,
1000000000360203,77017680261,mKarTel,mKcell,mKcell,,D01,2017-04-05T14:07:35+06:00,
1000000000360204,77711666916,mKcell,mKarTel,mKarTel,,D02,2017-04-05T14:08:31+06:00,
1000000000360208,77771728077,mMTS,mKarTel,mKarTel,,D77,2017-04-05T14:10:22+06:00,
1000000000360209,77021707700,mAltel,mKcell,mKcell,,D07,2017-04-05T14:11:41+06:00,
1000000000360211,77017598804,mMTS,mKcell,mKcell,,D77,2017-04-05T14:13:31+06:00,
1000000000360212,77016067082,mKarTel,mKcell,mKcell,,D01,2017-04-05T14:14:29+06:00,
1000000000360213,77017000221,mKcell,mMTS,mKcell,D77,D02,2017-04-05T14:14:35+06:00,
1000000000360214,77082006869,mMTS,mKcell,mAltel,D02,D77,2017-04-05T14:14:42+06:00,
1000000000360215,77778386600,mMTS,mAltel,mKarTel,D07,D77,2017-04-05T14:15:00+06:00,
1000000000360216,77017163318,mAltel,mKcell,mKcell,,D07,2017-04-05T14:15:06+06:00,
1000000000360218,77083150555,mKarTel,mAltel,mAltel,,D01,2017-04-05T14:15:29+06:00,
1000000000360219,77025750525,mKcell,mMTS,mKcell,D77,D02,2017-04-05T14:15:46+06:00,
1000000000360221,77713357735,mKarTel,mMTS,mKarTel,D77,D01,2017-04-05T14:16:41+06:00,
1000000000360222,77017452157,mKarTel,mKcell,mKcell,,D01,2017-04-05T14:16:50+06:00,
1000000000360223,77017598805,mMTS,mKcell,mKcell,,D77,2017-04-05T14:17:22+06:00,
1000000000360225,77017598806,mMTS,mKcell,mKcell,,D77,2017-04-05T14:21:03+06:00,
1000000000360226,77072330123,mKarTel,mMTS,mMTS,,D01,2017-04-05T14:21:09+06:00,
1000000000360229,77015220996,mKarTel,mAltel,mKcell,D07,D01,2017-04-05T14:23:10+06:00,
1000000000360230,77011126868,mMTS,mKcell,mKcell,,D77,2017-04-05T14:23:08+06:00,
1000000000360231,77058041151,mMTS,mKarTel,mKarTel,,D77,2017-04-05T14:23:59+06:00,
1000000000360233,77017598807,mMTS,mKcell,mKcell,,D77,2017-04-05T14:25:16+06:00,
1000000000360236,77072332307,mKarTel,mMTS,mMTS,,D01,2017-04-05T14:27:20+06:00,
1000000000360237,77017598809,mMTS,mKcell,mKcell,,D77,2017-04-05T14:28:16+06:00,
