NPId,Number,RecipientId,DonorId,RangeHolderId,OldRoute,NewRoute,PortDate,RowCount
1000000000282811,77083332103,mAltel,mMTS,mAltel,D77,D07,2016-11-23T11:30:20+06:00,25
1000000000282812,77027533077,mMTS,mKcell,mKcell,,D77,2016-11-23T11:30:32+06:00,
1000000000282813,77013752287,mKcell,mAltel,mKcell,D07,D02,2016-11-23T11:31:52+06:00,
1000000000282814,77755313263,mMTS,mKcell,mKcell,,D77,2016-11-23T11:32:48+06:00,
1000000000282815,77017663838,mMTS,mKarTel,mKcell,D01,D77,2016-11-23T11:33:40+06:00,
1000000000282816,77089107023,mKcell,mAltel,mAltel,,D02,2016-11-23T11:33:44+06:00,
1000000000282817,77474212846,mKcell,mMTS,mMTS,,D02,2016-11-23T11:34:06+06:00,
1000000000282818,77786551515,mMTS,mKcell,mKcell,,D77,2016-11-23T11:34:07+06:00,
1000000000282820,77056027974,mAltel,mKarTel,mKarTel,,D07,2016-11-23T11:41:29+06:00,
1000000000282821,77010220808,mAltel,mKcell,mKcell,,D07,2016-11-23T11:41:30+06:00,
1000000000282822,77786641307,mAltel,mKcell,mKcell,,D07,2016-11-23T11:41:33+06:00,
1000000000282823,77718485436,mMTS,mKarTel,mKarTel,,D77,2016-11-23T11:42:51+06:00,
1000000000282824,77001001092,mMTS,mAltel,mAltel,,D77,2016-11-23T11:42:36+06:00,
1000000000282825,77054241984,mMTS,mKarTel,mKarTel,,D77,2016-11-23T11:45:38+06:00,
1000000000282827,77006061998,mKcell,mAltel,mAltel,,D02,2016-11-23T11:47:30+06:00,
1000000000282828,77718485019,mMTS,mKarTel,mKarTel,,D77,2016-11-23T11:47:52+06:00,
1000000000282829,77473481710,mAltel,mMTS,mMTS,,D07,2016-11-23T11:48:05+06:00,
1000000000282830,77751331999,mMTS,mAltel,mKcell,D07,D77,2016-11-23T11:49:02+06:00,
1000000000282833,77089085779,mKarTel,mKcell,mAltel,D02,D01,2016-11-23T11:54:57+06:00,
1000000000282834,77718486230,mMTS,mKarTel,mKarTel,,D77,2016-11-23T11:52:55+06:00,
1000000000282835,77006550600,mKcell,mAltel,mAltel,,D02,2016-11-23T11:55:49+06:00,
1000000000282836,77071035310,mKcell,mMTS,mMTS,,D02,2016-11-23T11:56:59+06:00,
1000000000282837,77029097566,mMTS,mKcell,mKcell,,D77,2016-11-23T11:57:09+06:00,
1000000000282839,77077111795,mKcell,mMTS,mMTS,,D02,2016-11-23T11:59:15+06:00,
1000000000282841,77022095720,mMTS,mKcell,mKcell,,D77,2016-11-23T11:59:28+06:00,
