NPId,Number,RecipientId,DonorId,RangeHolderId,OldRoute,NewRoute,PortDate,RowCount
1000000000170174,77785451418,mKcell,mAltel,mKcell,D07,D02,2016-05-08T15:06:31+06:00,10
1000000000170175,77053388047,mMTS,mKarTel,mKarTel,,D77,2016-05-08T15:07:16+06:00,
1000000000170177,77025830621,mKarTel,mKcell,mKcell,,D01,2016-05-08T15:09:43+06:00,
1000000000170179,77772143789,mMTS,mKarTel,mKarTel,,D77,2016-05-08T15:11:58+06:00,
1000000000170180,77003132179,mMTS,mAltel,mAltel,,D77,2016-05-08T15:11:58+06:00,
1000000000170182,77712873585,mMTS,mKarTel,mKarTel,,D77,2016-05-08T15:12:22+06:00,
1000000000170184,77718318039,mKarTel,mMTS,mKarTel,D77,D01,2016-05-08T15:22:00+06:00,
1000000000170185,77777055988,mMTS,mKarTel,mKarTel,,D77,2016-05-08T15:22:18+06:00,
1000000000170186,77789186969,mMTS,mKcell,mKcell,,D77,2016-05-08T15:22:37+06:00,
1000000000170188,77017266266,mAltel,mKcell,mKcell,,D07,2016-05-08T15:26:13+06:00,
