NPId,Number,RecipientId,DonorId,RangeHolderId,OldRoute,NewRoute,PortDate,RowCount
1000000000184810,77715077750,mKcell,mKarTel,mKarTel,,D02,2016-05-31T16:31:02+06:00,37
1000000000184820,77017127493,mMTS,mKarTel,mKcell,D01,D77,2016-05-31T16:35:40+06:00,
1000000000184839,77770685242,mMTS,mKarTel,mKarTel,,D77,2016-05-31T16:32:28+06:00,
1000000000184840,77774880221,mMTS,mKarTel,mKarTel,,D77,2016-05-31T16:32:29+06:00,
1000000000184844,77013622862,mKarTel,mKcell,mKcell,,D01,2016-05-31T16:35:29+06:00,
1000000000184846,77770386638,mKcell,mKarTel,mKarTel,,D02,2016-05-31T16:40:33+06:00,
1000000000184847,77779888827,mMTS,mKarTel,mKarTel,,D77,2016-05-31T16:36:22+06:00,
1000000000184848,77018667733,mMTS,mAltel,mKcell,D07,D77,2016-05-31T16:36:12+06:00,
1000000000184849,77025012223,mMTS,mKcell,mKcell,,D77,2016-05-31T16:41:08+06:00,
1000000000184850,77013768266,mMTS,mKarTel,mKcell,D01,D77,2016-05-31T16:37:29+06:00,
1000000000184851,77078402384,mMTS,mKcell,mMTS,D02,D77,2016-05-31T16:41:08+06:00,
1000000000184852,77471505009,mMTS,mAltel,mMTS,D07,D77,2016-05-31T16:41:31+06:00,
1000000000184853,77015253669,mMTS,mKcell,mKcell,,D77,2016-05-31T16:42:01+06:00,
1000000000184854,77013595514,mKarTel,mKcell,mKcell,,D01,2016-05-31T16:43:07+06:00,
1000000000184855,77013423250,mMTS,mKcell,mKcell,,D77,2016-05-31T16:44:44+06:00,
1000000000184856,77026891706,mMTS,mKcell,mKcell,,D77,2016-05-31T16:45:04+06:00,
1000000000184859,77755005577,mMTS,mAltel,mKcell,D07,D77,2016-05-31T16:45:21+06:00,
1000000000184860,77011311121,mMTS,mKcell,mKcell,,D77,2016-05-31T16:46:34+06:00,
1000000000184861,77088848888,mAltel,mKarTel,mAltel,D01,D07,2016-05-31T16:46:20+06:00,
1000000000184863,77014744542,mMTS,mKcell,mKcell,,D77,2016-05-31T16:52:41+06:00,
1000000000184864,77083037873,mMTS,mAltel,mAltel,,D77,2016-05-31T16:48:55+06:00,
1000000000184865,77711205656,mMTS,mKarTel,mKarTel,,D77,2016-05-31T16:49:39+06:00,
1000000000184866,77071300609,mMTS,mAltel,mMTS,D07,D77,2016-05-31T16:49:41+06:00,
1000000000184867,77751990192,mAltel,mKcell,mKcell,,D07,2016-05-31T16:52:43+06:00,
1000000000184868,77015996834,mKarTel,mKcell,mKcell,,D01,2016-05-31T16:53:02+06:00,
1000000000184869,77053103959,mMTS,mKarTel,mKarTel,,D77,2016-05-31T16:51:18+06:00,
1000000000184870,77082898586,mKcell,mAltel,mAltel,,D02,2016-05-31T16:53:31+06:00,
1000000000184871,77025551977,mKarTel,mKcell,mKcell,,D01,2016-05-31T16:53:42+06:00,
1000000000184872,77786620691,mKcell,mAltel,mKcell,D07,D02,2016-05-31T16:54:07+06:00,
1000000000184873,77024096069,mKcell,mKarTel,mKcell,D01,D02,2016-05-31T16:54:40+06:00,
1000000000184874,77073236484,mKcell,mMTS,mMTS,,D02,2016-05-31T16:54:06+06:00,
1000000000184875,77017214266,mMTS,mKcell,mKcell,,D77,2016-05-31T16:54:30+06:00,
1000000000184876,77476767670,mKcell,mKarTel,mMTS,D01,D02,2016-05-31T16:55:07+06:00,
1000000000184877,77758950969,mAltel,mKcell,mKcell,,D07,2016-05-31T16:55:38+06:00,
1000000000184878,77773573090,mKcell,mKarTel,mKarTel,,D02,2016-05-31T16:56:58+06:00,
1000000000184879,77018111169,mAltel,mKcell,mKcell,,D07,2016-05-31T16:57:21+06:00,
1000000000184881,77772398101,mMTS,mKarTel,mKarTel,,D77,2016-05-31T16:57:27+06:00,
