NPId,Number,RecipientId,DonorId,RangeHolderId,OldRoute,NewRoute,PortDate,RowCount
1000000000260455,77718878888,mKcell,mKarTel,mKarTel,,D02,2016-10-11T13:32:46+06:00,25
1000000000260458,77051528596,mMTS,mKarTel,mKarTel,,D77,2016-10-11T13:34:25+06:00,
1000000000260459,77057777864,mMTS,mKarTel,mKarTel,,D77,2016-10-11T13:36:07+06:00,
1000000000260460,77081851110,mAltel,mMTS,mAltel,D77,D07,2016-10-11T13:30:52+06:00,
1000000000260461,77788883040,mAltel,mKcell,mKcell,,D07,2016-10-11T13:33:40+06:00,
1000000000260462,77777955811,mMTS,mKarTel,mKarTel,,D77,2016-10-11T13:36:11+06:00,
1000000000260463,77016175791,mMTS,mAltel,mKcell,D07,D77,2016-10-11T13:32:30+06:00,
1000000000260464,77025791112,mMTS,mKcell,mKcell,,D77,2016-10-11T13:32:40+06:00,
1000000000260467,77771075454,mKarTel,mKcell,mKarTel,D02,D01,2016-10-11T13:36:08+06:00,
1000000000260468,77019478777,mMTS,mKcell,mKcell,,D77,2016-10-11T13:38:11+06:00,
1000000000260469,77771376707,mKcell,mKarTel,mKarTel,,D02,2016-10-11T13:43:36+06:00,
1000000000260470,77082402080,mKarTel,mAltel,mAltel,,D01,2016-10-11T13:41:26+06:00,
1000000000260471,77779016002,mMTS,mKarTel,mKarTel,,D77,2016-10-11T13:46:55+06:00,
1000000000260474,77786094159,mMTS,mKcell,mKcell,,D77,2016-10-11T13:44:30+06:00,
1000000000260477,77029361936,mMTS,mKcell,mKcell,,D77,2016-10-11T13:46:08+06:00,
1000000000260478,77016018119,mMTS,mKcell,mKcell,,D77,2016-10-11T13:46:17+06:00,
1000000000260479,77013691995,mMTS,mKcell,mKcell,,D77,2016-10-11T13:46:19+06:00,
1000000000260480,77017015060,mKcell,mAltel,mKcell,D07,D02,2016-10-11T13:46:41+06:00,
1000000000260481,77770609960,mKcell,mKarTel,mKarTel,,D02,2016-10-11T13:52:38+06:00,
1000000000260484,77089642708,mAltel,mKcell,mAltel,D02,D07,2016-10-11T13:50:39+06:00,
1000000000260485,77012200908,mMTS,mKcell,mKcell,,D77,2016-10-11T13:52:24+06:00,
1000000000260486,77757928667,mKcell,mMTS,mKcell,D77,D02,2016-10-11T13:53:12+06:00,
1000000000260487,77018171723,mMTS,mKcell,mKcell,,D77,2016-10-11T13:53:22+06:00,
1000000000260488,77789566655,mMTS,mKcell,mKcell,,D77,2016-10-11T13:54:44+06:00,
1000000000260493,77014705444,mMTS,mKcell,mKcell,,D77,2016-10-11T13:58:27+06:00,
