NPId,Number,RecipientId,DonorId,RangeHolderId,OldRoute,NewRoute,PortDate,RowCount
1000000000343573,77773500221,mAltel,mKarTel,mKarTel,,D07,2017-03-09T11:02:18+06:00,13
1000000000343576,77019102012,mMTS,mKcell,mKcell,,D77,2017-03-09T11:02:56+06:00,
1000000000343577,77782224942,mMTS,mKcell,mKcell,,D77,2017-03-09T11:03:24+06:00,
1000000000343578,77775800007,mMTS,mKarTel,mKarTel,,D77,2017-03-09T11:03:52+06:00,
1000000000343579,77475472254,mKarTel,mMTS,mMTS,,D01,2017-03-09T11:03:51+06:00,
1000000000343580,77012246157,mMTS,mKcell,mKcell,,D77,2017-03-09T11:04:57+06:00,
1000000000343581,77015251815,mMTS,mKcell,mKcell,,D77,2017-03-09T11:09:57+06:00,
1000000000343582,77777682600,mMTS,mKarTel,mKarTel,,D77,2017-03-09T11:11:06+06:00,
1000000000343584,77015196130,mAltel,mKcell,mKcell,,D07,2017-03-09T11:11:44+06:00,
1000000000343585,77071794749,mAltel,mMTS,mMTS,,D07,2017-03-09T11:17:51+06:00,
1000000000343587,77077447744,mKcell,mMTS,mMTS,,D02,2017-03-09T11:18:50+06:00,
1000000000343593,77017263585,mMTS,mKcell,mKcell,,D77,2017-03-09T11:27:37+06:00,
1000000000343594,77762000909,mAltel,mKarTel,mKarTel,D01,D07,2017-03-09T11:27:55+06:00,
