NPId,Number,RecipientId,DonorId,RangeHolderId,OldRoute,NewRoute,PortDate,RowCount
1000000000121995,77013863939,mMTS,mKcell,mKcell,,D77,2016-03-10T20:37:59+06:00,2
1000000000121996,77071110072,mKarTel,mMTS,mMTS,,D01,2016-03-10T20:50:56+06:00,
