NPId,Number,RecipientId,DonorId,RangeHolderId,OldRoute,NewRoute,PortDate,RowCount
1000000000297984,77017263038,mAltel,mKcell,mKcell,,D07,2016-12-21T09:13:13+06:00,8
1000000000297985,77017270167,mMTS,mKcell,mKcell,,D77,2016-12-21T09:15:13+06:00,
1000000000297986,77010589999,mKarTel,mKcell,mKcell,,D01,2016-12-21T09:17:24+06:00,
1000000000297988,77017676889,mKarTel,mKcell,mKcell,,D01,2016-12-21T09:20:47+06:00,
1000000000297990,77019898788,mKcell,mAltel,mKcell,D07,D02,2016-12-21T09:24:03+06:00,
1000000000297991,77777774743,mKcell,mKarTel,mKarTel,,D02,2016-12-21T09:26:40+06:00,
1000000000297992,77057100031,mKarTel,mAltel,mKarTel,D07,D01,2016-12-21T09:27:02+06:00,
1000000000297993,77078050896,mKarTel,mMTS,mMTS,,D01,2016-12-21T09:29:35+06:00,
