NPId,Number,RecipientId,DonorId,RangeHolderId,OldRoute,NewRoute,PortDate,RowCount
1000000000290662,77051331199,mKcell,mKarTel,mKarTel,,D02,2016-12-06T12:06:23+06:00,19
1000000000290673,77024023842,mMTS,mKcell,mKcell,,D77,2016-12-06T12:00:19+06:00,
1000000000290674,77718227722,mMTS,mKarTel,mKarTel,,D77,2016-12-06T12:00:31+06:00,
1000000000290675,77017802810,mKarTel,mKcell,mKcell,,D01,2016-12-06T12:00:49+06:00,
1000000000290676,77025788010,mMTS,mKcell,mKcell,,D77,2016-12-06T12:00:50+06:00,
1000000000290679,77076368363,mAltel,mMTS,mMTS,,D07,2016-12-06T12:02:35+06:00,
1000000000290681,77787408519,mMTS,mKcell,mKcell,,D77,2016-12-06T12:07:43+06:00,
1000000000290682,77772448481,mAltel,mKarTel,mKarTel,,D07,2016-12-06T12:15:09+06:00,
1000000000290683,77777287241,mKcell,mKarTel,mKarTel,,D02,2016-12-06T12:15:19+06:00,
1000000000290685,77762016118,mMTS,mKarTel,mKarTel,,D77,2016-12-06T12:19:02+06:00,
1000000000290687,77015114587,mMTS,mKcell,mKcell,,D77,2016-12-06T12:22:38+06:00,
1000000000290688,77077775715,mKcell,mKarTel,mMTS,D01,D02,2016-12-06T12:23:17+06:00,
1000000000290689,77054618420,mKarTel,mMTS,mKarTel,D77,D01,2016-12-06T12:22:58+06:00,
1000000000290690,77071906200,mKarTel,mAltel,mMTS,D07,D01,2016-12-06T12:23:25+06:00,
1000000000290692,77014445240,mKarTel,mKcell,mKcell,,D01,2016-12-06T12:23:57+06:00,
1000000000290693,77759595821,mAltel,mKcell,mKcell,,D07,2016-12-06T12:24:44+06:00,
1000000000290695,77028480848,mKcell,mMTS,mKcell,D77,D02,2016-12-06T12:27:17+06:00,
1000000000290696,77013131164,mKarTel,mMTS,mKcell,D77,D01,2016-12-06T12:27:50+06:00,
1000000000290697,77753997646,mMTS,mKcell,mKcell,,D77,2016-12-06T12:28:45+06:00,
