NPId,Number,RecipientId,DonorId,RangeHolderId,OldRoute,NewRoute,PortDate,RowCount
1000000000288862,77075551237,mKcell,mMTS,mMTS,,D02,2016-12-02T19:00:12+06:00,11
1000000000288863,77772636593,mKcell,mKarTel,mKarTel,,D02,2016-12-02T19:04:01+06:00,
1000000000288865,77024888810,mAltel,mKcell,mKcell,,D07,2016-12-02T19:07:22+06:00,
1000000000288866,77077080885,mKarTel,mMTS,mMTS,,D01,2016-12-02T19:08:25+06:00,
1000000000288867,77016127951,mKarTel,mKcell,mKcell,,D01,2016-12-02T19:14:05+06:00,
1000000000288868,77077700277,mKcell,mMTS,mMTS,,D02,2016-12-02T19:15:45+06:00,
1000000000288870,77756668979,mMTS,mKcell,mKcell,,D77,2016-12-02T19:17:42+06:00,
1000000000288871,77082101762,mKarTel,mAltel,mAltel,,D01,2016-12-02T19:21:28+06:00,
1000000000288872,77003339449,mKcell,mAltel,mAltel,,D02,2016-12-02T19:21:39+06:00,
1000000000288874,77000005707,mKcell,mAltel,mAltel,,D02,2016-12-02T19:25:45+06:00,
1000000000288875,77051739547,mKcell,mKarTel,mKarTel,,D02,2016-12-02T19:29:02+06:00,
