NPId,Number,RecipientId,DonorId,RangeHolderId,OldRoute,NewRoute,PortDate,RowCount
1000000000142605,77014002523,mMTS,mKcell,mKcell,,D77,2016-04-04T20:04:13+06:00,107
1000000000142610,77017101055,mMTS,mKcell,mKcell,,D77,2016-04-04T20:04:13+06:00,
1000000000142620,77017149798,mKarTel,mKcell,mKcell,,D01,2016-04-04T20:11:52+06:00,
1000000000142624,77017303848,mKarTel,mKcell,mKcell,,D01,2016-04-04T20:11:58+06:00,
1000000000142625,77018151085,mMTS,mKcell,mKcell,,D77,2016-04-04T20:11:21+06:00,
1000000000142626,77752204060,mMTS,mKcell,mKcell,,D77,2016-04-04T20:11:21+06:00,
1000000000142630,77755151809,mMTS,mKcell,mKcell,,D77,2016-04-04T20:11:19+06:00,
1000000000142634,77025545756,mAltel,mKcell,mKcell,,D07,2016-04-04T20:11:17+06:00,
1000000000142637,77015126415,mMTS,mKcell,mKcell,,D77,2016-04-04T20:11:17+06:00,
1000000000142640,77019244003,mMTS,mKcell,mKcell,,D77,2016-04-04T20:11:19+06:00,
1000000000142643,77051988791,mKarTel,mKcell,mKarTel,D02,D01,2016-04-04T20:11:56+06:00,
1000000000142644,77771000007,mKcell,mKarTel,mKarTel,,D02,2016-04-04T20:12:21+06:00,
1000000000142646,77054445528,mKcell,mKarTel,mKarTel,,D02,2016-04-04T20:12:21+06:00,
1000000000142647,77001802077,mKcell,mAltel,mAltel,,D02,2016-04-04T20:12:20+06:00,
1000000000142648,77013332299,mKcell,mKarTel,mKcell,D01,D02,2016-04-04T20:12:22+06:00,
1000000000142649,77755551555,mKcell,mKarTel,mKcell,D01,D02,2016-04-04T20:12:22+06:00,
1000000000142650,77779009696,mKcell,mKarTel,mKarTel,,D02,2016-04-04T20:12:19+06:00,
1000000000142652,77783575352,mMTS,mKcell,mKcell,,D77,2016-04-04T20:12:08+06:00,
1000000000142653,77003870823,mKcell,mAltel,mAltel,,D02,2016-04-04T20:12:50+06:00,
1000000000142654,77710826393,mKcell,mKarTel,mKarTel,,D02,2016-04-04T20:15:52+06:00,
1000000000142654,77710826394,mKcell,mKarTel,mKarTel,,D02,2016-04-04T20:15:52+06:00,
1000000000142654,77710826395,mKcell,mKarTel,mKarTel,,D02,2016-04-04T20:15:52+06:00,
1000000000142654,77710826396,mKcell,mKarTel,mKarTel,,D02,2016-04-04T20:15:52+06:00,
1000000000142654,77710826397,mKcell,mKarTel,mKarTel,,D02,2016-04-04T20:15:52+06:00,
1000000000142654,77710826398,mKcell,mKarTel,mKarTel,,D02,2016-04-04T20:15:52+06:00,
1000000000142654,77710826399,mKcell,mKarTel,mKarTel,,D02,2016-04-04T20:15:52+06:00,
1000000000142654,77710826400,mKcell,mKarTel,mKarTel,,D02,2016-04-04T20:15:52+06:00,
1000000000142654,77710826401,mKcell,mKarTel,mKarTel,,D02,2016-04-04T20:15:52+06:00,
1000000000142654,77710826402,mKcell,mKarTel,mKarTel,,D02,2016-04-04T20:15:52+06:00,
1000000000142654,77710826403,mKcell,mKarTel,mKarTel,,D02,2016-04-04T20:15:52+06:00,
1000000000142654,77710826404,mKcell,mKarTel,mKarTel,,D02,2016-04-04T20:15:52+06:00,
1000000000142654,77710826405,mKcell,mKarTel,mKarTel,,D02,2016-04-04T20:15:52+06:00,
1000000000142654,77710826406,mKcell,mKarTel,mKarTel,,D02,2016-04-04T20:15:52+06:00,
1000000000142654,77710826407,mKcell,mKarTel,mKarTel,,D02,2016-04-04T20:15:52+06:00,
1000000000142654,77710826408,mKcell,mKarTel,mKarTel,,D02,2016-04-04T20:15:52+06:00,
1000000000142654,77710826409,mKcell,mKarTel,mKarTel,,D02,2016-04-04T20:15:52+06:00,
1000000000142654,77710826410,mKcell,mKarTel,mKarTel,,D02,2016-04-04T20:15:52+06:00,
1000000000142654,77710826411,mKcell,mKarTel,mKarTel,,D02,2016-04-04T20:15:52+06:00,
1000000000142654,77710826412,mKcell,mKarTel,mKarTel,,D02,2016-04-04T20:15:52+06:00,
1000000000142656,77085487856,mKcell,mAltel,mAltel,,D02,2016-04-04T20:12:50+06:00,
1000000000142657,77710826373,mKcell,mKarTel,mKarTel,,D02,2016-04-04T20:15:51+06:00,
1000000000142657,77710826374,mKcell,mKarTel,mKarTel,,D02,2016-04-04T20:15:51+06:00,
1000000000142657,77710826375,mKcell,mKarTel,mKarTel,,D02,2016-04-04T20:15:51+06:00,
1000000000142657,77710826376,mKcell,mKarTel,mKarTel,,D02,2016-04-04T20:15:51+06:00,
1000000000142657,77710826377,mKcell,mKarTel,mKarTel,,D02,2016-04-04T20:15:51+06:00,
1000000000142657,77710826378,mKcell,mKarTel,mKarTel,,D02,2016-04-04T20:15:51+06:00,
1000000000142657,77710826379,mKcell,mKarTel,mKarTel,,D02,2016-04-04T20:15:51+06:00,
1000000000142657,77710826380,mKcell,mKarTel,mKarTel,,D02,2016-04-04T20:15:51+06:00,
1000000000142657,77710826381,mKcell,mKarTel,mKarTel,,D02,2016-04-04T20:15:51+06:00,
1000000000142657,77710826382,mKcell,mKarTel,mKarTel,,D02,2016-04-04T20:15:51+06:00,
1000000000142657,77710826383,mKcell,mKarTel,mKarTel,,D02,2016-04-04T20:15:51+06:00,
1000000000142657,77710826384,mKcell,mKarTel,mKarTel,,D02,2016-04-04T20:15:51+06:00,
1000000000142657,77710826385,mKcell,mKarTel,mKarTel,,D02,2016-04-04T20:15:51+06:00,
1000000000142657,77710826386,mKcell,mKarTel,mKarTel,,D02,2016-04-04T20:15:51+06:00,
1000000000142657,77710826387,mKcell,mKarTel,mKarTel,,D02,2016-04-04T20:15:51+06:00,
1000000000142657,77710826388,mKcell,mKarTel,mKarTel,,D02,2016-04-04T20:15:51+06:00,
1000000000142657,77710826389,mKcell,mKarTel,mKarTel,,D02,2016-04-04T20:15:51+06:00,
1000000000142657,77710826390,mKcell,mKarTel,mKarTel,,D02,2016-04-04T20:15:51+06:00,
1000000000142657,77710826391,mKcell,mKarTel,mKarTel,,D02,2016-04-04T20:15:51+06:00,
1000000000142657,77710826392,mKcell,mKarTel,mKarTel,,D02,2016-04-04T20:15:51+06:00,
1000000000142658,77087469999,mKcell,mAltel,mAltel,,D02,2016-04-04T20:13:48+06:00,
1000000000142659,77710826372,mKcell,mKarTel,mKarTel,,D02,2016-04-04T20:15:51+06:00,
1000000000142660,77013707803,mKcell,mAltel,mKcell,D07,D02,2016-04-04T20:13:48+06:00,
1000000000142662,77770601088,mKcell,mKarTel,mKarTel,,D02,2016-04-04T20:18:24+06:00,
1000000000142663,77075030168,mKcell,mMTS,mMTS,,D02,2016-04-04T20:16:54+06:00,
1000000000142664,77710826413,mKcell,mKarTel,mKarTel,,D02,2016-04-04T20:20:13+06:00,
1000000000142664,77710826414,mKcell,mKarTel,mKarTel,,D02,2016-04-04T20:20:13+06:00,
1000000000142664,77710826415,mKcell,mKarTel,mKarTel,,D02,2016-04-04T20:20:13+06:00,
1000000000142664,77710826416,mKcell,mKarTel,mKarTel,,D02,2016-04-04T20:20:13+06:00,
1000000000142664,77710826417,mKcell,mKarTel,mKarTel,,D02,2016-04-04T20:20:13+06:00,
1000000000142664,77710826418,mKcell,mKarTel,mKarTel,,D02,2016-04-04T20:20:13+06:00,
1000000000142664,77710826419,mKcell,mKarTel,mKarTel,,D02,2016-04-04T20:20:13+06:00,
1000000000142664,77710826420,mKcell,mKarTel,mKarTel,,D02,2016-04-04T20:20:13+06:00,
1000000000142664,77710826421,mKcell,mKarTel,mKarTel,,D02,2016-04-04T20:20:13+06:00,
1000000000142664,77710826422,mKcell,mKarTel,mKarTel,,D02,2016-04-04T20:20:13+06:00,
1000000000142664,77710826423,mKcell,mKarTel,mKarTel,,D02,2016-04-04T20:20:13+06:00,
1000000000142664,77710826424,mKcell,mKarTel,mKarTel,,D02,2016-04-04T20:20:13+06:00,
1000000000142664,77710826425,mKcell,mKarTel,mKarTel,,D02,2016-04-04T20:20:13+06:00,
1000000000142664,77710826426,mKcell,mKarTel,mKarTel,,D02,2016-04-04T20:20:13+06:00,
1000000000142664,77710826427,mKcell,mKarTel,mKarTel,,D02,2016-04-04T20:20:13+06:00,
1000000000142664,77710826428,mKcell,mKarTel,mKarTel,,D02,2016-04-04T20:20:13+06:00,
1000000000142664,77710826429,mKcell,mKarTel,mKarTel,,D02,2016-04-04T20:20:13+06:00,
1000000000142664,77710826430,mKcell,mKarTel,mKarTel,,D02,2016-04-04T20:20:13+06:00,
1000000000142664,77710826431,mKcell,mKarTel,mKarTel,,D02,2016-04-04T20:20:13+06:00,
1000000000142664,77710826432,mKcell,mKarTel,mKarTel,,D02,2016-04-04T20:20:13+06:00,
1000000000142665,77766767636,mMTS,mKarTel,mKarTel,,D77,2016-04-04T20:21:25+06:00,
1000000000142666,77710826433,mKcell,mKarTel,mKarTel,,D02,2016-04-04T20:26:09+06:00,
1000000000142666,77710826434,mKcell,mKarTel,mKarTel,,D02,2016-04-04T20:26:09+06:00,
1000000000142666,77710826435,mKcell,mKarTel,mKarTel,,D02,2016-04-04T20:26:09+06:00,
1000000000142666,77710826436,mKcell,mKarTel,mKarTel,,D02,2016-04-04T20:26:09+06:00,
1000000000142666,77710826437,mKcell,mKarTel,mKarTel,,D02,2016-04-04T20:26:09+06:00,
1000000000142666,77710826438,mKcell,mKarTel,mKarTel,,D02,2016-04-04T20:26:09+06:00,
1000000000142666,77710826439,mKcell,mKarTel,mKarTel,,D02,2016-04-04T20:26:09+06:00,
1000000000142666,77710826440,mKcell,mKarTel,mKarTel,,D02,2016-04-04T20:26:09+06:00,
1000000000142666,77710826441,mKcell,mKarTel,mKarTel,,D02,2016-04-04T20:26:09+06:00,
1000000000142666,77710826442,mKcell,mKarTel,mKarTel,,D02,2016-04-04T20:26:09+06:00,
1000000000142666,77710826443,mKcell,mKarTel,mKarTel,,D02,2016-04-04T20:26:09+06:00,
1000000000142666,77710826445,mKcell,mKarTel,mKarTel,,D02,2016-04-04T20:26:09+06:00,
1000000000142666,77710826447,mKcell,mKarTel,mKarTel,,D02,2016-04-04T20:26:09+06:00,
1000000000142666,77710826448,mKcell,mKarTel,mKarTel,,D02,2016-04-04T20:26:09+06:00,
1000000000142666,77710826449,mKcell,mKarTel,mKarTel,,D02,2016-04-04T20:26:09+06:00,
1000000000142666,77710826450,mKcell,mKarTel,mKarTel,,D02,2016-04-04T20:26:09+06:00,
1000000000142666,77710826451,mKcell,mKarTel,mKarTel,,D02,2016-04-04T20:26:09+06:00,
1000000000142666,77710826452,mKcell,mKarTel,mKarTel,,D02,2016-04-04T20:26:09+06:00,
1000000000142666,77710826453,mKcell,mKarTel,mKarTel,,D02,2016-04-04T20:26:09+06:00,
1000000000142666,77710826454,mKcell,mKarTel,mKarTel,,D02,2016-04-04T20:26:09+06:00,
1000000000142667,77785760000,mKarTel,mKcell,mKcell,,D01,2016-04-04T20:23:55+06:00,
