NPId,Number,RecipientId,DonorId,RangeHolderId,OldRoute,NewRoute,PortDate,RowCount
1000000000379896,77715768861,mAltel,mKarTel,mKarTel,,D07,2017-05-08T13:30:02+06:00,22
1000000000379897,77017970727,mKarTel,mKcell,mKcell,,D01,2017-05-08T13:32:38+06:00,
1000000000379898,77055666873,mKarTel,mMTS,mKarTel,D77,D01,2017-05-08T13:32:43+06:00,
1000000000379899,77017111011,mKarTel,mAltel,mKcell,D07,D01,2017-05-08T13:32:59+06:00,
1000000000379900,77011406677,mKcell,mMTS,mKcell,D77,D02,2017-05-08T13:33:35+06:00,
1000000000379901,77010390001,mKarTel,mKcell,mKcell,,D01,2017-05-08T13:34:12+06:00,
1000000000379902,77059778415,mMTS,mKarTel,mKarTel,,D77,2017-05-08T13:35:17+06:00,
1000000000379905,77017497041,mMTS,mKcell,mKcell,,D77,2017-05-08T13:37:37+06:00,
1000000000379907,77774664433,mKarTel,mMTS,mKarTel,D77,D01,2017-05-08T13:38:08+06:00,
1000000000379908,77014366570,mMTS,mKcell,mKcell,,D77,2017-05-08T13:38:23+06:00,
1000000000379909,77014568998,mAltel,mKcell,mKcell,,D07,2017-05-08T13:38:28+06:00,
1000000000379910,77760222255,mMTS,mKarTel,mKarTel,,D77,2017-05-08T13:42:06+06:00,
1000000000379911,77021808236,mKarTel,mKcell,mKcell,,D01,2017-05-08T13:49:02+06:00,
1000000000379913,77007778577,mMTS,mAltel,mAltel,,D77,2017-05-08T13:49:26+06:00,
1000000000379914,77076137880,mKarTel,mMTS,mMTS,,D01,2017-05-08T13:50:13+06:00,
1000000000379915,77712700577,mKcell,mKarTel,mKarTel,,D02,2017-05-08T13:50:40+06:00,
1000000000379916,77764700013,mKcell,mKarTel,mKarTel,,D02,2017-05-08T13:52:06+06:00,
1000000000379917,77014100711,mKarTel,mKcell,mKcell,,D01,2017-05-08T13:52:10+06:00,
1000000000379919,77021046504,mKcell,mMTS,mKcell,D77,D02,2017-05-08T13:54:53+06:00,
1000000000379920,77777706362,mKcell,mMTS,mKarTel,D77,D02,2017-05-08T13:55:23+06:00,
1000000000379921,77022380602,mKcell,mAltel,mKcell,D07,D02,2017-05-08T13:58:16+06:00,
1000000000379922,77024283567,mMTS,mKcell,mKcell,,D77,2017-05-08T13:59:03+06:00,
