NPId,Number,RecipientId,DonorId,RangeHolderId,OldRoute,NewRoute,PortDate,RowCount
1000000000143810,77014008070,mKcell,mMTS,mKcell,D77,D02,2016-04-05T20:38:34+06:00,4
1000000000143811,77018886643,mKarTel,mKcell,mKcell,,D01,2016-04-05T20:39:15+06:00,
1000000000143812,77012141047,mMTS,mAltel,mKcell,D07,D77,2016-04-05T20:42:05+06:00,
1000000000143813,77075757331,mKcell,mMTS,mMTS,,D02,2016-04-05T20:53:06+06:00,
