NPId,Number,RecipientId,DonorId,RangeHolderId,OldRoute,NewRoute,PortDate,RowCount
1000000000281895,77773849257,mAltel,mKarTel,mKarTel,,D07,2016-11-22T09:04:40+06:00,4
1000000000282225,77775298333,mMTS,mKarTel,mKarTel,,D77,2016-11-22T09:07:57+06:00,
1000000000282228,77054191897,mMTS,mKarTel,mKarTel,,D77,2016-11-22T09:22:14+06:00,
1000000000282229,77071960557,mKarTel,mMTS,mMTS,,D01,2016-11-22T09:29:12+06:00,
