NPId,Number,RecipientId,DonorId,RangeHolderId,OldRoute,NewRoute,PortDate,RowCount
1000000000165523,77009154528,mMTS,mAltel,mAltel,,D77,2016-05-02T16:01:02+06:00,27
1000000000165525,77776993219,mMTS,mKarTel,mKarTel,,D77,2016-05-02T16:02:02+06:00,
1000000000165526,77082142284,mMTS,mAltel,mAltel,,D77,2016-05-02T16:02:55+06:00,
1000000000165527,77085352364,mKarTel,mAltel,mAltel,,D01,2016-05-02T16:06:36+06:00,
1000000000165529,77777964646,mMTS,mKarTel,mKarTel,,D77,2016-05-02T16:07:21+06:00,
1000000000165530,77089580813,mMTS,mAltel,mAltel,,D77,2016-05-02T16:07:06+06:00,
1000000000165531,77772988808,mAltel,mKarTel,mKarTel,,D07,2016-05-02T16:09:50+06:00,
1000000000165532,77023321479,mMTS,mKcell,mKcell,,D77,2016-05-02T16:11:33+06:00,
1000000000165533,77756057185,mKarTel,mKcell,mKcell,,D01,2016-05-02T16:11:40+06:00,
1000000000165535,77751654927,mAltel,mKcell,mKcell,,D07,2016-05-02T16:11:33+06:00,
1000000000165537,77002009092,mKcell,mAltel,mAltel,,D02,2016-05-02T16:11:57+06:00,
1000000000165538,77751904896,mMTS,mKcell,mKcell,,D77,2016-05-02T16:12:41+06:00,
1000000000165540,77012032992,mMTS,mKcell,mKcell,,D77,2016-05-02T16:16:07+06:00,
1000000000165542,77086672251,mMTS,mAltel,mAltel,,D77,2016-05-02T16:16:01+06:00,
1000000000165543,77073338048,mKarTel,mMTS,mMTS,,D01,2016-05-02T16:17:30+06:00,
1000000000165544,77714032000,mKcell,mKarTel,mKarTel,,D02,2016-05-02T16:18:56+06:00,
1000000000165545,77753171499,mMTS,mKcell,mKcell,,D77,2016-05-02T16:18:27+06:00,
1000000000165546,77002843055,mMTS,mAltel,mAltel,,D77,2016-05-02T16:19:13+06:00,
1000000000165547,77073199262,mMTS,mAltel,mMTS,D07,D77,2016-05-02T16:20:33+06:00,
1000000000165548,77018814465,mKarTel,mKcell,mKcell,,D01,2016-05-02T16:22:22+06:00,
1000000000165549,77014968940,mKarTel,mKcell,mKcell,,D01,2016-05-02T16:23:55+06:00,
1000000000165550,77074744318,mMTS,mAltel,mMTS,D07,D77,2016-05-02T16:24:21+06:00,
1000000000165551,77775706232,mMTS,mKarTel,mKarTel,,D77,2016-05-02T16:26:16+06:00,
1000000000165552,77754636269,mMTS,mKcell,mKcell,,D77,2016-05-02T16:27:24+06:00,
1000000000165553,77001122944,mMTS,mAltel,mAltel,,D77,2016-05-02T16:27:04+06:00,
1000000000165554,77027233432,mKcell,mAltel,mKcell,D07,D02,2016-05-02T16:27:41+06:00,
1000000000165555,77018011138,mMTS,mKcell,mKcell,,D77,2016-05-02T16:29:55+06:00,
