NPId,Number,RecipientId,DonorId,RangeHolderId,OldRoute,NewRoute,PortDate,RowCount
1000000000123511,77021430377,mKarTel,mKcell,mKcell,,D01,2016-03-12T16:30:35+06:00,25
1000000000123513,77716710101,mMTS,mKarTel,mKarTel,,D77,2016-03-12T16:32:09+06:00,
1000000000123514,77017307386,mAltel,mKcell,mKcell,,D07,2016-03-12T16:32:40+06:00,
1000000000123515,77026634142,mMTS,mKcell,mKcell,,D77,2016-03-12T16:33:44+06:00,
1000000000123516,77776630263,mKcell,mKarTel,mKarTel,,D02,2016-03-12T16:34:31+06:00,
1000000000123517,77078654541,mAltel,mMTS,mMTS,,D07,2016-03-12T16:34:15+06:00,
1000000000123518,77029761817,mAltel,mKcell,mKcell,,D07,2016-03-12T16:35:00+06:00,
1000000000123519,77021116917,mMTS,mKcell,mKcell,,D77,2016-03-12T16:35:42+06:00,
1000000000123521,77027445541,mMTS,mKcell,mKcell,,D77,2016-03-12T16:37:23+06:00,
1000000000123522,77081269266,mMTS,mAltel,mAltel,,D77,2016-03-12T16:36:53+06:00,
1000000000123523,77777866777,mKcell,mKarTel,mKarTel,,D02,2016-03-12T16:38:08+06:00,
1000000000123524,77772777270,mMTS,mAltel,mKarTel,D07,D77,2016-03-12T16:39:08+06:00,
1000000000123526,77019150747,mMTS,mKcell,mKcell,,D77,2016-03-12T16:40:55+06:00,
1000000000123528,77004411811,mKcell,mAltel,mAltel,,D02,2016-03-12T16:42:09+06:00,
1000000000123529,77000810100,mMTS,mAltel,mAltel,,D77,2016-03-12T16:42:49+06:00,
1000000000123530,77754186702,mMTS,mKcell,mKcell,,D77,2016-03-12T16:43:08+06:00,
1000000000123531,77083358338,mKarTel,mAltel,mAltel,,D01,2016-03-12T16:43:15+06:00,
1000000000123533,77022777270,mMTS,mKcell,mKcell,,D77,2016-03-12T16:44:04+06:00,
1000000000123538,77027878285,mAltel,mKcell,mKcell,,D07,2016-03-12T16:47:17+06:00,
1000000000123539,77005753530,mKcell,mAltel,mAltel,,D02,2016-03-12T16:47:38+06:00,
1000000000123541,77021423822,mMTS,mKcell,mKcell,,D77,2016-03-12T16:47:54+06:00,
1000000000123542,77019150757,mMTS,mKcell,mKcell,,D77,2016-03-12T16:48:52+06:00,
1000000000123543,77011244646,mMTS,mKcell,mKcell,,D77,2016-03-12T16:50:01+06:00,
1000000000123544,77011838929,mMTS,mKcell,mKcell,,D77,2016-03-12T16:50:00+06:00,
1000000000123548,77770296434,mMTS,mKarTel,mKarTel,,D77,2016-03-12T16:54:50+06:00,
