NPId,Number,RecipientId,DonorId,RangeHolderId,OldRoute,NewRoute,PortDate,RowCount
1000000000396408,77012538018,mKarTel,mKcell,mKcell,,D01,2017-06-02T20:01:56+06:00,4
1000000000396409,77000835583,mKcell,mAltel,mAltel,,D02,2017-06-02T20:04:08+06:00,
1000000000396411,77078157733,mKcell,mAltel,mMTS,D07,D02,2017-06-02T20:19:05+06:00,
1000000000396412,77027775250,mMTS,mKcell,mKcell,,D77,2017-06-02T20:27:21+06:00,
