NPId,Number,RecipientId,DonorId,RangeHolderId,OldRoute,NewRoute,PortDate,RowCount
1000000000401254,77000860071,mKcell,mAltel,mAltel,,D02,2017-06-10T18:30:10+06:00,2
1000000000401257,77013737619,mMTS,mKcell,mKcell,,D77,2017-06-10T18:46:57+06:00,
