NPId,Number,RecipientId,DonorId,RangeHolderId,OldRoute,NewRoute,PortDate,RowCount
1000000000210905,77756426666,mMTS,mKcell,mKcell,,D77,2016-07-13T18:31:31+06:00,12
1000000000210906,77756435003,mMTS,mKcell,mKcell,,D77,2016-07-13T18:31:10+06:00,
1000000000210908,77087658761,mMTS,mAltel,mAltel,,D77,2016-07-13T18:34:30+06:00,
1000000000210911,77077039400,mAltel,mMTS,mMTS,,D07,2016-07-13T18:38:14+06:00,
1000000000210912,77011665779,mKarTel,mKcell,mKcell,,D01,2016-07-13T18:44:12+06:00,
1000000000210913,77022378201,mAltel,mKcell,mKcell,,D07,2016-07-13T18:44:58+06:00,
1000000000210914,77011441292,mMTS,mKcell,mKcell,,D77,2016-07-13T18:46:01+06:00,
1000000000210915,77016053194,mKarTel,mKcell,mKcell,,D01,2016-07-13T18:48:04+06:00,
1000000000210916,77787292979,mKcell,mMTS,mKcell,D77,D02,2016-07-13T18:51:45+06:00,
1000000000210917,77015525056,mMTS,mKcell,mKcell,,D77,2016-07-13T18:53:51+06:00,
1000000000210918,77751249016,mMTS,mKcell,mKcell,,D77,2016-07-13T18:54:08+06:00,
1000000000210921,77714154596,mKarTel,mAltel,mKarTel,D07,D01,2016-07-13T18:59:26+06:00,
