NPId,Number,RecipientId,DonorId,RangeHolderId,OldRoute,NewRoute,PortDate,RowCount
1000000000283581,77473943907,mKcell,mKarTel,mMTS,D01,D02,2016-11-24T15:13:55+06:00,20
1000000000283585,77788279298,mAltel,mKcell,mKcell,,D07,2016-11-24T15:01:16+06:00,
1000000000283586,77473943916,mKcell,mKarTel,mMTS,D01,D02,2016-11-24T15:17:30+06:00,
1000000000283589,77058602284,mMTS,mKarTel,mKarTel,,D77,2016-11-24T15:07:51+06:00,
1000000000283590,77781769998,mMTS,mKcell,mKcell,,D77,2016-11-24T15:08:10+06:00,
1000000000283591,77005355562,mKarTel,mAltel,mAltel,,D01,2016-11-24T15:08:20+06:00,
1000000000283592,77755509518,mAltel,mKcell,mKcell,,D07,2016-11-24T15:09:07+06:00,
1000000000283593,77473943936,mKcell,mKarTel,mMTS,D01,D02,2016-11-24T15:24:43+06:00,
1000000000283594,77473943937,mKcell,mKarTel,mMTS,D01,D02,2016-11-24T15:26:49+06:00,
1000000000283598,77759477777,mMTS,mKcell,mKcell,,D77,2016-11-24T15:18:45+06:00,
1000000000283600,77021177733,mKcell,mAltel,mKcell,D07,D02,2016-11-24T15:21:23+06:00,
1000000000283601,77756238337,mMTS,mKcell,mKcell,,D77,2016-11-24T15:23:29+06:00,
1000000000283602,77071620290,mMTS,mKcell,mMTS,D02,D77,2016-11-24T15:21:27+06:00,
1000000000283603,77017313161,mMTS,mKcell,mKcell,,D77,2016-11-24T15:21:50+06:00,
1000000000283604,77015307927,mMTS,mKcell,mKcell,,D77,2016-11-24T15:22:01+06:00,
1000000000283605,77015515241,mKarTel,mKcell,mKcell,,D01,2016-11-24T15:22:23+06:00,
1000000000283607,77023453707,mKarTel,mKcell,mKcell,,D01,2016-11-24T15:23:46+06:00,
1000000000283608,77015125338,mKarTel,mKcell,mKcell,,D01,2016-11-24T15:24:02+06:00,
1000000000283610,77017204541,mAltel,mKarTel,mKcell,D01,D07,2016-11-24T15:25:28+06:00,
1000000000283611,77786650047,mKarTel,mKcell,mKcell,,D01,2016-11-24T15:29:02+06:00,
