NPId,Number,RecipientId,DonorId,RangeHolderId,OldRoute,NewRoute,PortDate,RowCount
1000000000224529,77059122101,mKcell,mKarTel,mKarTel,,D02,2016-08-06T14:00:09+06:00,20
1000000000224532,77471503503,mKarTel,mMTS,mMTS,,D01,2016-08-06T14:00:52+06:00,
1000000000224533,77759300658,mAltel,mMTS,mKcell,D77,D07,2016-08-06T14:01:59+06:00,
1000000000224534,77021789546,mMTS,mKcell,mKcell,,D77,2016-08-06T14:02:23+06:00,
1000000000224535,77767760400,mKarTel,mKcell,mKarTel,D02,D01,2016-08-06T14:04:17+06:00,
1000000000224538,77007426961,mAltel,mMTS,mAltel,D77,D07,2016-08-06T14:04:54+06:00,
1000000000224540,77003888808,mMTS,mAltel,mAltel,,D77,2016-08-06T14:06:42+06:00,
1000000000224542,77789998502,mKcell,mKarTel,mKcell,D01,D02,2016-08-06T14:11:56+06:00,
1000000000224544,77077775714,mAltel,mMTS,mMTS,,D07,2016-08-06T14:11:42+06:00,
1000000000224545,77474927969,mKarTel,mAltel,mMTS,D07,D01,2016-08-06T14:12:29+06:00,
1000000000224547,77051887802,mMTS,mKarTel,mKarTel,,D77,2016-08-06T14:15:38+06:00,
1000000000224550,77789000063,mAltel,mKcell,mKcell,,D07,2016-08-06T14:18:25+06:00,
1000000000224551,77013778848,mAltel,mKcell,mKcell,,D07,2016-08-06T14:19:40+06:00,
1000000000224553,77077773763,mKarTel,mMTS,mMTS,,D01,2016-08-06T14:22:24+06:00,
1000000000224554,77018500499,mMTS,mKcell,mKcell,,D77,2016-08-06T14:22:13+06:00,
1000000000224555,77009966721,mMTS,mAltel,mAltel,,D77,2016-08-06T14:22:47+06:00,
1000000000224556,77757512363,mMTS,mKcell,mKcell,,D77,2016-08-06T14:23:28+06:00,
1000000000224557,77079010801,mKarTel,mMTS,mMTS,D77,D01,2016-08-06T14:26:25+06:00,
1000000000224558,77023207016,mMTS,mKcell,mKcell,,D77,2016-08-06T14:28:38+06:00,
1000000000224559,77029024278,mMTS,mKcell,mKcell,,D77,2016-08-06T14:29:58+06:00,
