NPId,Number,RecipientId,DonorId,RangeHolderId,OldRoute,NewRoute,PortDate,RowCount
1000000000132035,77715191212,mMTS,mKarTel,mKarTel,,D77,2016-03-24T14:01:11+06:00,27
1000000000132037,77025444589,mMTS,mKcell,mKcell,,D77,2016-03-24T14:01:24+06:00,
1000000000132039,77787882354,mMTS,mKcell,mKcell,,D77,2016-03-24T14:03:13+06:00,
1000000000132040,77013016101,mMTS,mKcell,mKcell,,D77,2016-03-24T14:03:49+06:00,
1000000000132041,77014515415,mAltel,mKcell,mKcell,,D07,2016-03-24T14:04:32+06:00,
1000000000132042,77078816671,mKcell,mMTS,mMTS,,D02,2016-03-24T14:06:29+06:00,
1000000000132043,77015292903,mMTS,mKcell,mKcell,,D77,2016-03-24T14:06:44+06:00,
1000000000132044,77778929029,mAltel,mKarTel,mKarTel,,D07,2016-03-24T14:07:46+06:00,
1000000000132045,77022779496,mAltel,mKcell,mKcell,,D07,2016-03-24T14:07:04+06:00,
1000000000132048,77052332333,mMTS,mKarTel,mKarTel,,D77,2016-03-24T14:09:27+06:00,
1000000000132049,77761107011,mKcell,mKarTel,mKarTel,,D02,2016-03-24T14:10:10+06:00,
1000000000132051,77026251030,mKarTel,mKcell,mKcell,,D01,2016-03-24T14:11:29+06:00,
1000000000132052,77019223557,mKcell,mAltel,mKcell,D07,D02,2016-03-24T14:11:18+06:00,
1000000000132053,77770502040,mKcell,mKarTel,mKarTel,,D02,2016-03-24T14:13:10+06:00,
1000000000132054,77757274519,mMTS,mKcell,mKcell,,D77,2016-03-24T14:11:42+06:00,
1000000000132055,77024444160,mKcell,mKarTel,mKcell,D01,D02,2016-03-24T14:13:40+06:00,
1000000000132057,77013880774,mMTS,mKcell,mKcell,,D77,2016-03-24T14:12:12+06:00,
1000000000132058,77776737991,mMTS,mKarTel,mKarTel,,D77,2016-03-24T14:13:39+06:00,
1000000000132061,77077747875,mKarTel,mMTS,mMTS,,D01,2016-03-24T14:14:09+06:00,
1000000000132064,77783139774,mMTS,mKcell,mKcell,,D77,2016-03-24T14:15:15+06:00,
1000000000132066,77077214948,mKcell,mMTS,mMTS,,D02,2016-03-24T14:20:04+06:00,
1000000000132067,77765757057,mAltel,mKarTel,mKarTel,,D07,2016-03-24T14:21:03+06:00,
1000000000132068,77779004949,mKarTel,mMTS,mKarTel,D77,D01,2016-03-24T14:21:52+06:00,
1000000000132069,77017578238,mMTS,mKcell,mKcell,,D77,2016-03-24T14:22:24+06:00,
1000000000132070,77015324405,mKcell,mAltel,mKcell,D07,D02,2016-03-24T14:24:13+06:00,
1000000000132071,77012882644,mKarTel,mKcell,mKcell,,D01,2016-03-24T14:24:20+06:00,
1000000000132074,77015991194,mMTS,mKcell,mKcell,,D77,2016-03-24T14:29:12+06:00,
