NPId,Number,RecipientId,DonorId,RangeHolderId,OldRoute,NewRoute,PortDate,RowCount
1000000000091703,77775855258,mMTS,mKarTel,mKarTel,,D77,2016-02-17T20:30:59+06:00,7
1000000000091706,77073623466,mKarTel,mMTS,mMTS,,D01,2016-02-17T20:35:40+06:00,
1000000000091707,77073624258,mKarTel,mMTS,mMTS,,D01,2016-02-17T20:36:22+06:00,
1000000000091708,77073623445,mKarTel,mMTS,mMTS,,D01,2016-02-17T20:37:11+06:00,
1000000000091709,77073623455,mKarTel,mMTS,mMTS,,D01,2016-02-17T20:37:39+06:00,
1000000000091710,77073623448,mKarTel,mMTS,mMTS,,D01,2016-02-17T20:38:47+06:00,
1000000000091712,77012255670,mKarTel,mKcell,mKcell,,D01,2016-02-17T20:42:26+06:00,
