NPId,Number,RecipientId,DonorId,RangeHolderId,OldRoute,NewRoute,PortDate,RowCount
1000000000135434,77770202700,mMTS,mAltel,mKarTel,D07,D77,2016-03-28T15:00:55+06:00,23
1000000000135435,77779990407,mKcell,mKarTel,mKarTel,,D02,2016-03-28T15:07:04+06:00,
1000000000135436,77029074204,mMTS,mKcell,mKcell,,D77,2016-03-28T15:02:49+06:00,
1000000000135437,77012061715,mMTS,mKcell,mKcell,,D77,2016-03-28T15:03:03+06:00,
1000000000135438,77775704411,mMTS,mKarTel,mKarTel,,D77,2016-03-28T15:06:23+06:00,
1000000000135444,77471292909,mMTS,mAltel,mMTS,D07,D77,2016-03-28T15:06:57+06:00,
1000000000135453,77766605556,mMTS,mKarTel,mKarTel,,D77,2016-03-28T15:11:04+06:00,
1000000000135456,77014578133,mMTS,mKcell,mKcell,,D77,2016-03-28T15:11:35+06:00,
1000000000135457,77011585878,mMTS,mKcell,mKcell,,D77,2016-03-28T15:12:16+06:00,
1000000000135461,77751862918,mAltel,mKcell,mKcell,,D07,2016-03-28T15:14:47+06:00,
1000000000135462,77001604476,mMTS,mAltel,mAltel,,D77,2016-03-28T15:15:22+06:00,
1000000000135464,77714174868,mMTS,mKarTel,mKarTel,,D77,2016-03-28T15:17:45+06:00,
1000000000135465,77710812131,mMTS,mKarTel,mKarTel,,D77,2016-03-28T15:18:11+06:00,
1000000000135466,77051934776,mMTS,mKarTel,mKarTel,,D77,2016-03-28T15:18:11+06:00,
1000000000135467,77477760203,mKcell,mMTS,mMTS,,D02,2016-03-28T15:18:11+06:00,
1000000000135468,77011958888,mAltel,mKcell,mKcell,,D07,2016-03-28T15:18:33+06:00,
1000000000135469,77025550177,mMTS,mKcell,mKcell,,D77,2016-03-28T15:18:33+06:00,
1000000000135470,77776667770,mKarTel,mAltel,mKarTel,D07,D01,2016-03-28T15:19:49+06:00,
1000000000135472,77022906393,mAltel,mKcell,mKcell,,D07,2016-03-28T15:20:42+06:00,
1000000000135479,77017415518,mMTS,mKcell,mKcell,,D77,2016-03-28T15:25:59+06:00,
1000000000135480,77083339772,mMTS,mAltel,mAltel,,D77,2016-03-28T15:25:47+06:00,
1000000000135481,77017806750,mAltel,mKcell,mKcell,,D07,2016-03-28T15:26:38+06:00,
1000000000135483,77769859902,mMTS,mKarTel,mKarTel,,D77,2016-03-28T15:28:18+06:00,
