NPId,Number,RecipientId,DonorId,RangeHolderId,OldRoute,NewRoute,PortDate,RowCount
1000000000353058,77781084488,mMTS,mKcell,mKcell,,D77,2017-03-27T13:31:47+06:00,43
1000000000353059,77019270927,mAltel,mKcell,mKcell,,D07,2017-03-27T13:31:55+06:00,
1000000000353060,77083930007,mKcell,mAltel,mAltel,,D02,2017-03-27T13:32:58+06:00,
1000000000353061,77784487449,mKarTel,mKcell,mKcell,,D01,2017-03-27T13:33:42+06:00,
1000000000353062,77017779612,mAltel,mKcell,mKcell,,D07,2017-03-27T13:33:41+06:00,
1000000000353063,77015016767,mMTS,mKcell,mKcell,,D77,2017-03-27T13:34:31+06:00,
1000000000353064,77079333914,mAltel,mMTS,mMTS,,D07,2017-03-27T13:34:38+06:00,
1000000000353065,77761610006,mMTS,mKarTel,mKarTel,,D77,2017-03-27T13:35:26+06:00,
1000000000353066,77015309845,mKcell,mMTS,mKcell,D77,D02,2017-03-27T13:35:31+06:00,
1000000000353067,77778391446,mKcell,mKarTel,mKarTel,,D02,2017-03-27T13:36:23+06:00,
1000000000353068,77772482104,mMTS,mKarTel,mKarTel,,D77,2017-03-27T13:37:18+06:00,
1000000000353069,77054603000,mMTS,mKarTel,mKarTel,,D77,2017-03-27T13:37:40+06:00,
1000000000353070,77027179841,mMTS,mKcell,mKcell,,D77,2017-03-27T13:37:51+06:00,
1000000000353071,77772256777,mMTS,mKarTel,mKarTel,,D77,2017-03-27T13:38:18+06:00,
1000000000353072,77089134798,mKcell,mMTS,mAltel,D77,D02,2017-03-27T13:38:15+06:00,
1000000000353073,77087604086,mMTS,mAltel,mAltel,,D77,2017-03-27T13:38:07+06:00,
1000000000353074,77056285369,mMTS,mKarTel,mKarTel,,D77,2017-03-27T13:40:26+06:00,
1000000000353075,77751397777,mKarTel,mKcell,mKcell,,D01,2017-03-27T13:40:47+06:00,
1000000000353076,77010916273,mKarTel,mKcell,mKcell,,D01,2017-03-27T13:41:06+06:00,
1000000000353077,77713546166,mMTS,mKarTel,mKarTel,,D77,2017-03-27T13:41:43+06:00,
1000000000353078,77012717727,mKcell,mMTS,mKcell,D77,D02,2017-03-27T13:41:46+06:00,
1000000000353079,77784566535,mMTS,mKcell,mKcell,,D77,2017-03-27T13:42:24+06:00,
1000000000353081,77089370725,mKcell,mAltel,mAltel,,D02,2017-03-27T13:42:56+06:00,
1000000000353082,77772872883,mMTS,mKarTel,mKarTel,,D77,2017-03-27T13:43:18+06:00,
1000000000353083,77770091040,mAltel,mKarTel,mKarTel,,D07,2017-03-27T13:44:33+06:00,
1000000000353084,77029992379,mKcell,mAltel,mKcell,D07,D02,2017-03-27T13:45:04+06:00,
1000000000353085,77015255628,mMTS,mKcell,mKcell,,D77,2017-03-27T13:45:42+06:00,
1000000000353088,77774422017,mMTS,mKarTel,mKarTel,,D77,2017-03-27T13:49:42+06:00,
1000000000353089,77071060211,mAltel,mMTS,mMTS,,D07,2017-03-27T13:49:25+06:00,
1000000000353091,77775055080,mMTS,mKarTel,mKarTel,,D77,2017-03-27T13:51:07+06:00,
1000000000353092,77002280550,mMTS,mAltel,mAltel,,D77,2017-03-27T13:50:54+06:00,
1000000000353093,77471570296,mKcell,mMTS,mMTS,,D02,2017-03-27T13:52:07+06:00,
1000000000353094,77773038205,mKarTel,mMTS,mKarTel,D77,D01,2017-03-27T13:52:14+06:00,
1000000000353095,77081020340,mKarTel,mAltel,mAltel,,D01,2017-03-27T13:52:29+06:00,
1000000000353096,77003470040,mMTS,mAltel,mAltel,,D77,2017-03-27T13:52:21+06:00,
1000000000353097,77071918007,mKcell,mMTS,mMTS,,D02,2017-03-27T13:52:35+06:00,
1000000000353100,77710003836,mAltel,mKarTel,mKarTel,,D07,2017-03-27T13:53:47+06:00,
1000000000353102,77471570037,mKcell,mMTS,mMTS,,D02,2017-03-27T13:54:47+06:00,
1000000000353103,77026834223,mAltel,mKcell,mKcell,,D07,2017-03-27T13:55:42+06:00,
1000000000353104,77084154151,mMTS,mAltel,mAltel,,D77,2017-03-27T13:55:51+06:00,
1000000000353105,77058386455,mMTS,mKarTel,mKarTel,,D77,2017-03-27T13:56:38+06:00,
1000000000353106,77771244000,mMTS,mKarTel,mKarTel,,D77,2017-03-27T13:58:14+06:00,
1000000000353107,77715667776,mKcell,mKarTel,mKarTel,,D02,2017-03-27T13:58:33+06:00,
