NPId,Number,RecipientId,DonorId,RangeHolderId,OldRoute,NewRoute,PortDate,RowCount
1000000000281524,77071810804,mAltel,mMTS,mMTS,,D07,2016-11-20T10:19:40+06:00,2
1000000000281525,77000000842,mMTS,mKcell,mAltel,D02,D77,2016-11-20T10:29:17+06:00,
