NPId,Number,RecipientId,DonorId,RangeHolderId,OldRoute,NewRoute,PortDate,RowCount
1000000000403365,77077377576,mKarTel,mMTS,mMTS,,D01,2017-06-14T18:00:07+06:00,19
1000000000403367,77004111169,mAltel,mMTS,mAltel,D77,D07,2017-06-14T18:01:17+06:00,
1000000000403368,77013885134,mKarTel,mKcell,mKcell,,D01,2017-06-14T18:02:09+06:00,
1000000000403372,77023407203,mKarTel,mKcell,mKcell,,D01,2017-06-14T18:05:34+06:00,
1000000000403374,77088400102,mKcell,mAltel,mAltel,,D02,2017-06-14T18:07:55+06:00,
1000000000403376,77017505923,mAltel,mKarTel,mKcell,D01,D07,2017-06-14T18:09:19+06:00,
1000000000403377,77071755009,mAltel,mMTS,mMTS,,D07,2017-06-14T18:09:19+06:00,
1000000000403378,77074207001,mKcell,mMTS,mMTS,,D02,2017-06-14T18:10:18+06:00,
1000000000403380,77754088887,mAltel,mKcell,mKcell,,D07,2017-06-14T18:12:33+06:00,
1000000000403382,77756046664,mMTS,mKcell,mKcell,,D77,2017-06-14T18:13:31+06:00,
1000000000403383,77071755008,mAltel,mMTS,mMTS,,D07,2017-06-14T18:15:13+06:00,
1000000000403384,77089125506,mMTS,mAltel,mAltel,,D77,2017-06-14T18:15:15+06:00,
1000000000403387,77015129503,mKcell,mAltel,mKcell,D07,D02,2017-06-14T18:18:19+06:00,
1000000000403388,77074983747,mKarTel,mMTS,mMTS,,D01,2017-06-14T18:22:24+06:00,
1000000000403389,77007008009,mKcell,mAltel,mAltel,,D02,2017-06-14T18:24:09+06:00,
1000000000403391,77027774510,mKarTel,mKcell,mKcell,,D01,2017-06-14T18:26:23+06:00,
1000000000403392,77076038578,mMTS,mKcell,mMTS,D02,D77,2017-06-14T18:26:35+06:00,
1000000000403393,77012227677,mAltel,mKcell,mKcell,,D07,2017-06-14T18:28:02+06:00,
1000000000403394,77077778258,mMTS,mKcell,mMTS,D02,D77,2017-06-14T18:29:11+06:00,
