NPId,Number,RecipientId,DonorId,RangeHolderId,OldRoute,NewRoute,PortDate,RowCount
1000000000203650,77786914136,mMTS,mKcell,mKcell,,D77,2016-06-30T23:42:34+06:00,2
1000000000203651,77786914163,mMTS,mKcell,mKcell,,D77,2016-06-30T23:52:33+06:00,
