NPId,Number,RecipientId,DonorId,RangeHolderId,OldRoute,NewRoute,PortDate,RowCount
1000000000139905,77018064326,mMTS,mKcell,mKcell,,D77,2016-04-01T18:58:03+06:00,33
1000000000139920,77015130386,mMTS,mKcell,mKcell,,D77,2016-04-01T18:58:04+06:00,
1000000000139965,77015139256,mMTS,mKcell,mKcell,,D77,2016-04-01T18:57:40+06:00,
1000000000140033,77773141381,mKcell,mKarTel,mKarTel,,D02,2016-04-01T18:32:18+06:00,
1000000000140034,77776373727,mMTS,mKarTel,mKarTel,,D77,2016-04-01T18:32:34+06:00,
1000000000140035,77712726262,mMTS,mKarTel,mKarTel,,D77,2016-04-01T18:32:36+06:00,
1000000000140036,77013507874,mMTS,mKcell,mKcell,,D77,2016-04-01T18:32:28+06:00,
1000000000140038,77758890000,mAltel,mKcell,mKcell,,D07,2016-04-01T18:33:01+06:00,
1000000000140039,77010794444,mKarTel,mKcell,mKcell,,D01,2016-04-01T18:34:25+06:00,
1000000000140040,77082509092,mMTS,mAltel,mAltel,,D77,2016-04-01T18:33:54+06:00,
1000000000140041,77026506633,mMTS,mKcell,mKcell,,D77,2016-04-01T18:35:37+06:00,
1000000000140044,77759832012,mKarTel,mKcell,mKcell,,D01,2016-04-01T18:37:15+06:00,
1000000000140045,77772829660,mMTS,mKarTel,mKarTel,,D77,2016-04-01T18:38:14+06:00,
1000000000140046,77085516270,mMTS,mAltel,mAltel,,D77,2016-04-01T18:37:00+06:00,
1000000000140047,77011007511,mKarTel,mKcell,mKcell,,D01,2016-04-01T18:38:12+06:00,
1000000000140049,77073124441,mAltel,mMTS,mMTS,,D07,2016-04-01T18:39:09+06:00,
1000000000140050,77014124342,mMTS,mKcell,mKcell,,D77,2016-04-01T18:40:01+06:00,
1000000000140052,77786508993,mKarTel,mKcell,mKcell,,D01,2016-04-01T18:42:56+06:00,
1000000000140053,77089028632,mKcell,mAltel,mAltel,,D02,2016-04-01T18:43:44+06:00,
1000000000140054,77018874572,mMTS,mKcell,mKcell,,D77,2016-04-01T18:43:53+06:00,
1000000000140056,77770683824,mMTS,mKarTel,mKarTel,,D77,2016-04-01T18:48:06+06:00,
1000000000140057,77075011117,mKcell,mMTS,mMTS,,D02,2016-04-01T18:47:47+06:00,
1000000000140058,77015339250,mKarTel,mKcell,mKcell,,D01,2016-04-01T18:49:28+06:00,
1000000000140060,77789572727,mAltel,mKcell,mKcell,,D07,2016-04-01T18:50:55+06:00,
1000000000140061,77781703558,mAltel,mKcell,mKcell,,D07,2016-04-01T18:50:55+06:00,
1000000000140065,77716540091,mMTS,mKarTel,mKarTel,,D77,2016-04-01T18:53:16+06:00,
1000000000140066,77017852676,mAltel,mKcell,mKcell,,D07,2016-04-01T18:53:08+06:00,
1000000000140069,77013321776,mMTS,mAltel,mKcell,D07,D77,2016-04-01T18:54:50+06:00,
1000000000140072,77057317256,mMTS,mKarTel,mKarTel,,D77,2016-04-01T18:58:24+06:00,
1000000000140073,77714662475,mMTS,mKarTel,mKarTel,,D77,2016-04-01T18:58:24+06:00,
1000000000140074,77779147055,mKarTel,mAltel,mKarTel,D07,D01,2016-04-01T18:57:24+06:00,
1000000000140077,77089666048,mKcell,mAltel,mAltel,,D02,2016-04-01T18:59:35+06:00,
1000000000140078,77476052756,mKarTel,mMTS,mMTS,,D01,2016-04-01T18:59:50+06:00,
