NPId,Number,RecipientId,DonorId,RangeHolderId,OldRoute,NewRoute,PortDate,RowCount
1000000000411013,77017400824,mKarTel,mKcell,mKcell,,D01,2017-06-28T09:03:04+06:00,6
1000000000411014,77017886767,mKarTel,mKcell,mKcell,,D01,2017-06-28T09:03:04+06:00,
1000000000411015,77017400826,mKarTel,mKcell,mKcell,,D01,2017-06-28T09:03:05+06:00,
1000000000411017,77019101206,mKarTel,mKcell,mKcell,,D01,2017-06-28T09:03:31+06:00,
1000000000411018,77072429993,mMTS,mKcell,mMTS,D02,D77,2017-06-28T09:11:01+06:00,
1000000000411024,77027779579,mKarTel,mKcell,mKcell,,D01,2017-06-28T09:20:06+06:00,
