NPId,Number,RecipientId,DonorId,RangeHolderId,OldRoute,NewRoute,PortDate,RowCount
1000000000304196,77079566668,mKcell,mMTS,mMTS,,D02,2017-01-02T11:13:55+06:00,2
1000000000304197,77018240631,mKcell,mAltel,mKcell,D07,D02,2017-01-02T11:20:02+06:00,
