NPId,Number,RecipientId,DonorId,RangeHolderId,OldRoute,NewRoute,PortDate,RowCount
1000000000283432,77014478361,mKarTel,mKcell,mKcell,,D01,2016-11-24T12:31:35+06:00,23
1000000000283433,77073338313,mMTS,mKarTel,mMTS,D01,D77,2016-11-24T12:32:57+06:00,
1000000000283434,77475206565,mKarTel,mMTS,mMTS,,D01,2016-11-24T12:34:03+06:00,
1000000000283435,77022945343,mMTS,mKcell,mKcell,,D77,2016-11-24T12:36:31+06:00,
1000000000283436,77071836580,mKarTel,mMTS,mMTS,,D01,2016-11-24T12:37:09+06:00,
1000000000283437,77015159532,mKcell,mKarTel,mKcell,D01,D02,2016-11-24T12:40:29+06:00,
1000000000283438,77783424868,mMTS,mKcell,mKcell,,D77,2016-11-24T12:43:34+06:00,
1000000000283440,77028888019,mKarTel,mKcell,mKcell,,D01,2016-11-24T12:45:13+06:00,
1000000000283441,77769441777,mMTS,mKarTel,mKarTel,,D77,2016-11-24T12:45:46+06:00,
1000000000283443,77016077440,mAltel,mKcell,mKcell,,D07,2016-11-24T12:47:24+06:00,
1000000000283444,77758273555,mKarTel,mKcell,mKcell,,D01,2016-11-24T12:48:04+06:00,
1000000000283445,77785950565,mMTS,mKcell,mKcell,,D77,2016-11-24T12:47:43+06:00,
1000000000283446,77025859464,mMTS,mKcell,mKcell,,D77,2016-11-24T12:48:30+06:00,
1000000000283448,77022015790,mKarTel,mKcell,mKcell,,D01,2016-11-24T12:50:31+06:00,
1000000000283449,77027770265,mKarTel,mKcell,mKcell,,D01,2016-11-24T12:50:25+06:00,
1000000000283450,77027770273,mKarTel,mKcell,mKcell,,D01,2016-11-24T12:51:11+06:00,
1000000000283451,77010777191,mMTS,mKcell,mKcell,,D77,2016-11-24T12:51:24+06:00,
1000000000283453,77071040101,mAltel,mMTS,mMTS,,D07,2016-11-24T12:52:02+06:00,
1000000000283455,77051688266,mKcell,mKarTel,mKarTel,,D02,2016-11-24T12:53:04+06:00,
1000000000283456,77003515658,mMTS,mAltel,mAltel,,D77,2016-11-24T12:52:33+06:00,
1000000000283457,77765006600,mMTS,mKarTel,mKarTel,,D77,2016-11-24T12:55:13+06:00,
1000000000283458,77010777141,mMTS,mKcell,mKcell,,D77,2016-11-24T12:55:13+06:00,
1000000000283459,77019154971,mMTS,mKcell,mKcell,,D77,2016-11-24T12:56:14+06:00,
