NPId,Number,RecipientId,DonorId,RangeHolderId,OldRoute,NewRoute,PortDate,RowCount
1000000000191381,77788213511,mKcell,mKarTel,mKcell,D01,D02,2016-06-10T16:33:12+06:00,16
1000000000191382,77779960646,mMTS,mKarTel,mKarTel,,D77,2016-06-10T16:32:27+06:00,
1000000000191383,77786675901,mMTS,mKcell,mKcell,,D77,2016-06-10T16:32:23+06:00,
1000000000191386,77717694348,mAltel,mKarTel,mKarTel,,D07,2016-06-10T16:40:09+06:00,
1000000000191387,77755378787,mKcell,mMTS,mKcell,D77,D02,2016-06-10T16:42:15+06:00,
1000000000191389,77087296280,mMTS,mAltel,mAltel,,D77,2016-06-10T16:42:22+06:00,
1000000000191390,77002311123,mKcell,mAltel,mAltel,,D02,2016-06-10T16:43:03+06:00,
1000000000191393,77786675915,mMTS,mKcell,mKcell,,D77,2016-06-10T16:47:28+06:00,
1000000000191394,77772181808,mKcell,mKarTel,mKarTel,,D02,2016-06-10T16:48:19+06:00,
1000000000191397,77012294225,mMTS,mKcell,mKcell,,D77,2016-06-10T16:54:51+06:00,
1000000000191399,77081661916,mMTS,mAltel,mAltel,,D77,2016-06-10T16:55:37+06:00,
1000000000191400,77012223750,mAltel,mKcell,mKcell,,D07,2016-06-10T16:55:49+06:00,
1000000000191401,77051434664,mKarTel,mMTS,mKarTel,D77,D01,2016-06-10T16:55:54+06:00,
1000000000191403,77476709705,mKarTel,mMTS,mMTS,,D01,2016-06-10T16:56:59+06:00,
1000000000191404,77057611752,mMTS,mKarTel,mKarTel,,D77,2016-06-10T16:57:22+06:00,
1000000000191406,77073153146,mKarTel,mMTS,mMTS,,D01,2016-06-10T16:57:49+06:00,
