NPId,Number,RecipientId,DonorId,RangeHolderId,OldRoute,NewRoute,PortDate,RowCount
1000000000340279,77770743035,mMTS,mKarTel,mKarTel,,D77,2017-03-03T17:00:54+06:00,38
1000000000340280,77711260525,mKcell,mKarTel,mKarTel,,D02,2017-03-03T17:01:30+06:00,
1000000000340281,77781496390,mMTS,mKcell,mKcell,,D77,2017-03-03T17:01:48+06:00,
1000000000340282,77027495162,mAltel,mKcell,mKcell,,D07,2017-03-03T17:02:46+06:00,
1000000000340283,77013654004,mKcell,mMTS,mKcell,D77,D02,2017-03-03T17:03:05+06:00,
1000000000340285,77769495040,mAltel,mKarTel,mKarTel,,D07,2017-03-03T17:04:19+06:00,
1000000000340287,77752108202,mMTS,mKcell,mKcell,,D77,2017-03-03T17:07:57+06:00,
1000000000340288,77714964398,mMTS,mKarTel,mKarTel,,D77,2017-03-03T17:09:24+06:00,
1000000000340289,77012646440,mKarTel,mKcell,mKcell,,D01,2017-03-03T17:10:14+06:00,
1000000000340290,77058413781,mMTS,mKarTel,mKarTel,,D77,2017-03-03T17:10:32+06:00,
1000000000340292,77774937037,mKarTel,mMTS,mKarTel,D77,D01,2017-03-03T17:12:09+06:00,
1000000000340293,77013000774,mKcell,mMTS,mKcell,D77,D02,2017-03-03T17:12:20+06:00,
1000000000340294,77776909010,mAltel,mKarTel,mKarTel,,D07,2017-03-03T17:12:26+06:00,
1000000000340295,77771121834,mKarTel,mKcell,mKarTel,D02,D01,2017-03-03T17:12:54+06:00,
1000000000340296,77015363770,mKcell,mKarTel,mKcell,D01,D02,2017-03-03T17:13:18+06:00,
1000000000340298,77771121832,mKarTel,mKcell,mKarTel,D02,D01,2017-03-03T17:15:37+06:00,
1000000000340299,77027950708,mKarTel,mKcell,mKcell,,D01,2017-03-03T17:16:14+06:00,
1000000000340300,77052353838,mMTS,mKarTel,mKarTel,,D77,2017-03-03T17:16:31+06:00,
1000000000340301,77771121829,mKarTel,mKcell,mKarTel,D02,D01,2017-03-03T17:16:41+06:00,
1000000000340302,77054000531,mMTS,mAltel,mKarTel,D07,D77,2017-03-03T17:17:05+06:00,
1000000000340303,77771121828,mKarTel,mKcell,mKarTel,D02,D01,2017-03-03T17:18:02+06:00,
1000000000340304,77053131343,mMTS,mKarTel,mKarTel,,D77,2017-03-03T17:18:06+06:00,
1000000000340305,77081087687,mAltel,mMTS,mAltel,D77,D07,2017-03-03T17:17:58+06:00,
1000000000340306,77777799666,mKarTel,mKcell,mKarTel,D02,D01,2017-03-03T17:18:30+06:00,
1000000000340307,77002229299,mKcell,mAltel,mAltel,,D02,2017-03-03T17:18:16+06:00,
1000000000340309,77771121825,mKarTel,mKcell,mKarTel,D02,D01,2017-03-03T17:19:47+06:00,
1000000000340311,77783264567,mMTS,mKcell,mKcell,,D77,2017-03-03T17:19:59+06:00,
1000000000340312,77057318477,mMTS,mKarTel,mKarTel,,D77,2017-03-03T17:20:20+06:00,
1000000000340314,77770084534,mKcell,mKarTel,mKarTel,,D02,2017-03-03T17:21:23+06:00,
1000000000340315,77771121823,mKarTel,mKcell,mKarTel,D02,D01,2017-03-03T17:21:21+06:00,
1000000000340316,77771597878,mKcell,mKarTel,mKarTel,,D02,2017-03-03T17:22:36+06:00,
1000000000340317,77751040504,mMTS,mKcell,mKcell,,D77,2017-03-03T17:22:11+06:00,
1000000000340318,77081146505,mMTS,mAltel,mAltel,,D77,2017-03-03T17:22:11+06:00,
1000000000340319,77022120041,mMTS,mKarTel,mKcell,D01,D77,2017-03-03T17:23:04+06:00,
1000000000340320,77026999365,mKcell,mAltel,mKcell,D07,D02,2017-03-03T17:26:42+06:00,
1000000000340322,77777692222,mMTS,mKarTel,mKarTel,,D77,2017-03-03T17:27:57+06:00,
1000000000340324,77015998476,mMTS,mKcell,mKcell,,D77,2017-03-03T17:27:57+06:00,
1000000000340326,77015222260,mKarTel,mKcell,mKcell,,D01,2017-03-03T17:28:36+06:00,
