NPId,Number,RecipientId,DonorId,RangeHolderId,OldRoute,NewRoute,PortDate,RowCount
1000000000286114,77074097000,mKcell,mMTS,mMTS,,D02,2016-11-29T14:30:16+06:00,28
1000000000286115,77777057951,mKcell,mKarTel,mKarTel,,D02,2016-11-29T14:30:59+06:00,
1000000000286118,77007766282,mKarTel,mKcell,mAltel,D02,D01,2016-11-29T14:33:20+06:00,
1000000000286120,77786898592,mMTS,mKcell,mKcell,,D77,2016-11-29T14:37:39+06:00,
1000000000286121,77072760000,mKarTel,mMTS,mMTS,,D01,2016-11-29T14:38:03+06:00,
1000000000286122,77052034869,mMTS,mKarTel,mKarTel,,D77,2016-11-29T14:38:17+06:00,
1000000000286123,77473698767,mKcell,mMTS,mMTS,,D02,2016-11-29T14:39:39+06:00,
1000000000286125,77075704707,mKcell,mMTS,mMTS,,D02,2016-11-29T14:40:58+06:00,
1000000000286128,77011707088,mKcell,mMTS,mKcell,D77,D02,2016-11-29T14:43:39+06:00,
1000000000286130,77717732925,mKarTel,mMTS,mKarTel,D77,D01,2016-11-29T14:44:33+06:00,
1000000000286131,77772102514,mMTS,mKarTel,mKarTel,,D77,2016-11-29T14:59:53+06:00,
1000000000286132,77718118008,mMTS,mKarTel,mKarTel,,D77,2016-11-29T14:44:45+06:00,
1000000000286133,77024510177,mKcell,mMTS,mKcell,D77,D02,2016-11-29T14:46:10+06:00,
1000000000286134,77018215333,mKarTel,mKcell,mKcell,,D01,2016-11-29T14:46:13+06:00,
1000000000286135,77016867070,mKcell,mMTS,mKcell,D77,D02,2016-11-29T14:46:41+06:00,
1000000000286136,77755467927,mMTS,mKcell,mKcell,,D77,2016-11-29T14:47:00+06:00,
1000000000286137,77056584590,mMTS,mKarTel,mKarTel,,D77,2016-11-29T14:47:27+06:00,
1000000000286139,77057690910,mKcell,mKarTel,mKarTel,,D02,2016-11-29T14:50:40+06:00,
1000000000286140,77007546508,mKcell,mAltel,mAltel,,D02,2016-11-29T14:50:49+06:00,
1000000000286141,77013655557,mKarTel,mAltel,mKcell,D07,D01,2016-11-29T14:50:47+06:00,
1000000000286142,77076664866,mMTS,mAltel,mMTS,D07,D77,2016-11-29T14:51:29+06:00,
1000000000286143,77715497620,mAltel,mKarTel,mKarTel,,D07,2016-11-29T14:52:14+06:00,
1000000000286144,77786898491,mMTS,mKcell,mKcell,,D77,2016-11-29T14:54:57+06:00,
1000000000286145,77053410268,mMTS,mKarTel,mKarTel,,D77,2016-11-29T14:52:54+06:00,
1000000000286146,77019534493,mMTS,mKcell,mKcell,,D77,2016-11-29T14:53:19+06:00,
1000000000286149,77770193784,mMTS,mKarTel,mKarTel,,D77,2016-11-29T14:57:53+06:00,
1000000000286150,77776250289,mMTS,mKarTel,mKarTel,,D77,2016-11-29T14:58:34+06:00,
1000000000286152,77055564111,mKarTel,mAltel,mKarTel,D07,D01,2016-11-29T14:59:30+06:00,
