NPId,Number,RecipientId,DonorId,RangeHolderId,OldRoute,NewRoute,PortDate,RowCount
1000000000245275,77075757091,mKarTel,mMTS,mMTS,,D01,2016-09-14T13:31:32+06:00,32
1000000000245276,77074151825,mKarTel,mMTS,mMTS,,D01,2016-09-14T13:32:15+06:00,
1000000000245277,77713500578,mKarTel,mAltel,mKarTel,D07,D01,2016-09-14T13:32:57+06:00,
1000000000245279,77014793754,mMTS,mKcell,mKcell,,D77,2016-09-14T13:33:20+06:00,
1000000000245281,77053458885,mKarTel,mMTS,mKarTel,D77,D01,2016-09-14T13:35:09+06:00,
1000000000245282,77052620002,mAltel,mKarTel,mKarTel,,D07,2016-09-14T13:38:16+06:00,
1000000000245283,77711968385,mKarTel,mMTS,mKarTel,D77,D01,2016-09-14T13:38:15+06:00,
1000000000245284,77774179217,mKarTel,mMTS,mKarTel,D77,D01,2016-09-14T13:38:13+06:00,
1000000000245285,77002226654,mKarTel,mAltel,mAltel,,D01,2016-09-14T13:38:14+06:00,
1000000000245286,77758243207,mMTS,mKcell,mKcell,,D77,2016-09-14T13:38:24+06:00,
1000000000245287,77077671115,mKarTel,mMTS,mMTS,,D01,2016-09-14T13:39:42+06:00,
1000000000245288,77079353153,mKarTel,mMTS,mMTS,,D01,2016-09-14T13:39:41+06:00,
1000000000245289,77072440819,mKcell,mMTS,mMTS,,D02,2016-09-14T13:39:20+06:00,
1000000000245290,77010287728,mKarTel,mKcell,mKcell,,D01,2016-09-14T13:40:24+06:00,
1000000000245291,77011121193,mKcell,mMTS,mKcell,D77,D02,2016-09-14T13:39:57+06:00,
1000000000245292,77059729995,mMTS,mKarTel,mKarTel,,D77,2016-09-14T13:42:40+06:00,
1000000000245293,77014152363,mMTS,mKcell,mKcell,,D77,2016-09-14T13:42:29+06:00,
1000000000245294,77072000172,mAltel,mMTS,mMTS,,D07,2016-09-14T13:43:42+06:00,
1000000000245295,77783414472,mKcell,mMTS,mKcell,D77,D02,2016-09-14T13:43:53+06:00,
1000000000245298,77785318888,mMTS,mKcell,mKcell,,D77,2016-09-14T13:46:33+06:00,
1000000000245299,77075285457,mKarTel,mMTS,mMTS,D77,D01,2016-09-14T13:47:52+06:00,
1000000000245300,77027770618,mMTS,mKcell,mKcell,,D77,2016-09-14T13:48:16+06:00,
1000000000245302,77079934515,mAltel,mMTS,mMTS,,D07,2016-09-14T13:50:07+06:00,
1000000000245303,77025719852,mKcell,mMTS,mKcell,D77,D02,2016-09-14T13:54:58+06:00,
1000000000245304,77028770676,mMTS,mKcell,mKcell,,D77,2016-09-14T13:53:03+06:00,
1000000000245305,77789638828,mMTS,mKcell,mKcell,,D77,2016-09-14T13:53:34+06:00,
1000000000245306,77479757797,mKcell,mMTS,mMTS,,D02,2016-09-14T13:54:14+06:00,
1000000000245308,77017307744,mMTS,mKcell,mKcell,,D77,2016-09-14T13:55:52+06:00,
1000000000245310,77081991432,mAltel,mMTS,mAltel,D77,D07,2016-09-14T13:57:24+06:00,
1000000000245311,77023119893,mKcell,mMTS,mKcell,D77,D02,2016-09-14T13:58:05+06:00,
1000000000245312,77012145940,mKarTel,mKcell,mKcell,,D01,2016-09-14T13:59:29+06:00,
1000000000245313,77012211300,mKarTel,mKcell,mKcell,,D01,2016-09-14T13:59:29+06:00,
