NPId,Number,RecipientId,DonorId,RangeHolderId,OldRoute,NewRoute,PortDate,RowCount
1000000000154295,77082293040,mKarTel,mAltel,mAltel,,D01,2016-04-18T10:00:52+06:00,26
1000000000154296,77003998038,mMTS,mAltel,mAltel,,D77,2016-04-18T10:01:19+06:00,
1000000000154297,77029026351,mKcell,mKarTel,mKcell,D01,D02,2016-04-18T10:03:57+06:00,
1000000000154299,77477758444,mMTS,mAltel,mMTS,D07,D77,2016-04-18T10:01:59+06:00,
1000000000154300,77472550060,mMTS,mAltel,mMTS,D07,D77,2016-04-18T10:01:59+06:00,
1000000000154301,77783589589,mMTS,mKcell,mKcell,,D77,2016-04-18T10:02:05+06:00,
1000000000154302,77789002375,mMTS,mKcell,mKcell,,D77,2016-04-18T10:02:05+06:00,
1000000000154303,77770877772,mMTS,mKarTel,mKarTel,,D77,2016-04-18T10:03:14+06:00,
1000000000154305,77004352566,mMTS,mAltel,mAltel,,D77,2016-04-18T10:03:22+06:00,
1000000000154309,77015500521,mMTS,mKcell,mKcell,,D77,2016-04-18T10:04:42+06:00,
1000000000154311,77016396119,mMTS,mKcell,mKcell,,D77,2016-04-18T10:07:08+06:00,
1000000000154313,77085248017,mMTS,mAltel,mAltel,,D77,2016-04-18T10:09:03+06:00,
1000000000154314,77781011189,mMTS,mKcell,mKcell,,D77,2016-04-18T10:09:33+06:00,
1000000000154315,77772285918,mMTS,mKarTel,mKarTel,,D77,2016-04-18T10:11:58+06:00,
1000000000154317,77758342006,mKcell,mAltel,mKcell,D07,D02,2016-04-18T10:12:41+06:00,
1000000000154318,77783425541,mKcell,mAltel,mKcell,D07,D02,2016-04-18T10:14:49+06:00,
1000000000154319,77029070094,mMTS,mKcell,mKcell,,D77,2016-04-18T10:15:18+06:00,
1000000000154320,77055705514,mMTS,mKarTel,mKarTel,,D77,2016-04-18T10:19:04+06:00,
1000000000154321,77002222317,mMTS,mAltel,mAltel,,D77,2016-04-18T10:20:08+06:00,
1000000000154324,77086770270,mMTS,mAltel,mAltel,,D77,2016-04-18T10:21:46+06:00,
1000000000154325,77789999595,mMTS,mKcell,mKcell,,D77,2016-04-18T10:24:12+06:00,
1000000000154326,77757747737,mMTS,mKcell,mKcell,,D77,2016-04-18T10:24:30+06:00,
1000000000154327,77079589228,mMTS,mAltel,mMTS,D07,D77,2016-04-18T10:24:38+06:00,
1000000000154329,77017772471,mMTS,mAltel,mKcell,D07,D77,2016-04-18T10:26:57+06:00,
1000000000154331,77013416636,mKcell,mAltel,mKcell,D07,D02,2016-04-18T10:29:00+06:00,
1000000000154332,77077113901,mMTS,mAltel,mMTS,D07,D77,2016-04-18T10:28:50+06:00,
