NPId,Number,RecipientId,DonorId,RangeHolderId,OldRoute,NewRoute,PortDate,RowCount
1000000000343109,77717654124,mMTS,mKarTel,mKarTel,,D77,2017-03-07T17:46:35+06:00,26
1000000000343159,77018158786,mMTS,mKcell,mKcell,,D77,2017-03-07T17:30:09+06:00,
1000000000343160,77027809746,mAltel,mKcell,mKcell,,D07,2017-03-07T17:30:44+06:00,
1000000000343161,77076000730,mKcell,mMTS,mMTS,,D02,2017-03-07T17:31:22+06:00,
1000000000343162,77018558383,mKarTel,mMTS,mKcell,D77,D01,2017-03-07T17:31:24+06:00,
1000000000343163,77002002041,mKcell,mAltel,mAltel,,D02,2017-03-07T17:31:56+06:00,
1000000000343164,77079296009,mKarTel,mMTS,mMTS,,D01,2017-03-07T17:34:20+06:00,
1000000000343167,77773930999,mKcell,mKarTel,mKarTel,,D02,2017-03-07T17:36:03+06:00,
1000000000343168,77776557475,mKarTel,mMTS,mKarTel,D77,D01,2017-03-07T17:36:42+06:00,
1000000000343169,77029327275,mKarTel,mKcell,mKcell,,D01,2017-03-07T17:36:49+06:00,
1000000000343170,77071666694,mMTS,mKcell,mMTS,D02,D77,2017-03-07T17:36:45+06:00,
1000000000343171,77015433775,mMTS,mKcell,mKcell,,D77,2017-03-07T17:38:53+06:00,
1000000000343173,77012206462,mKarTel,mMTS,mKcell,D77,D01,2017-03-07T17:41:04+06:00,
1000000000343174,77053055059,mMTS,mKarTel,mKarTel,,D77,2017-03-07T17:42:10+06:00,
1000000000343177,77010650312,mMTS,mKcell,mKcell,,D77,2017-03-07T17:43:01+06:00,
1000000000343178,77085343079,mMTS,mAltel,mAltel,,D77,2017-03-07T17:43:32+06:00,
1000000000343179,77082900700,mKcell,mAltel,mAltel,,D02,2017-03-07T17:44:43+06:00,
1000000000343180,77016497669,mKarTel,mMTS,mKcell,D77,D01,2017-03-07T17:46:50+06:00,
1000000000343182,77770926050,mKcell,mKarTel,mKarTel,,D02,2017-03-07T17:49:57+06:00,
1000000000343183,77781388813,mAltel,mKcell,mKcell,,D07,2017-03-07T17:51:02+06:00,
1000000000343184,77754357807,mMTS,mKcell,mKcell,,D77,2017-03-07T17:52:10+06:00,
1000000000343186,77756510909,mAltel,mKcell,mKcell,,D07,2017-03-07T17:53:16+06:00,
1000000000343187,77022380602,mAltel,mKcell,mKcell,,D07,2017-03-07T17:53:21+06:00,
1000000000343191,77014672726,mKarTel,mKcell,mKcell,,D01,2017-03-07T17:55:03+06:00,
1000000000343192,77007000792,mKcell,mAltel,mAltel,,D02,2017-03-07T17:55:59+06:00,
1000000000343193,77019914832,mMTS,mKcell,mKcell,,D77,2017-03-07T17:59:17+06:00,
