NPId,Number,RecipientId,DonorId,RangeHolderId,OldRoute,NewRoute,PortDate,RowCount
1000000000250675,77018034226,mAltel,mKcell,mKcell,,D07,2016-10-14T10:55:11+06:00,15
1000000000262135,77003945118,mMTS,mAltel,mAltel,,D77,2016-10-14T10:33:43+06:00,
1000000000262136,77017682168,mKarTel,mKcell,mKcell,,D01,2016-10-14T10:37:41+06:00,
1000000000262137,77719934006,mMTS,mKarTel,mKarTel,,D77,2016-10-14T10:55:26+06:00,
1000000000262139,77022229696,mMTS,mKcell,mKcell,,D77,2016-10-14T10:40:31+06:00,
1000000000262140,77772620852,mMTS,mKarTel,mKarTel,,D77,2016-10-14T10:45:12+06:00,
1000000000262141,77012648888,mKarTel,mKcell,mKcell,,D01,2016-10-14T10:43:17+06:00,
1000000000262142,77025545168,mMTS,mKcell,mKcell,,D77,2016-10-14T10:44:57+06:00,
1000000000262143,77477877401,mMTS,mKcell,mMTS,D02,D77,2016-10-14T10:44:18+06:00,
1000000000262144,77017154408,mAltel,mKcell,mKcell,,D07,2016-10-14T10:45:09+06:00,
1000000000262146,77013349696,mAltel,mKarTel,mKcell,D01,D07,2016-10-14T10:48:49+06:00,
1000000000262148,77003623236,mMTS,mAltel,mAltel,,D77,2016-10-14T10:47:30+06:00,
1000000000262149,77020007094,mKarTel,mKcell,mKcell,,D01,2016-10-14T10:49:14+06:00,
1000000000262156,77773684048,mMTS,mKarTel,mKarTel,,D77,2016-10-14T10:58:28+06:00,
1000000000262157,77775595550,mMTS,mKarTel,mKarTel,,D77,2016-10-14T10:59:11+06:00,
