NPId,Number,RecipientId,DonorId,RangeHolderId,OldRoute,NewRoute,PortDate,RowCount
1000000000391436,77017754846,mAltel,mKcell,mKcell,,D07,2017-05-28T17:30:36+06:00,10
1000000000391440,77086165558,mMTS,mAltel,mAltel,,D77,2017-05-28T17:41:43+06:00,
1000000000391442,77017320230,mKarTel,mKcell,mKcell,,D01,2017-05-28T17:43:30+06:00,
1000000000391446,77769030001,mKarTel,mKcell,mKarTel,D02,D01,2017-05-28T17:47:53+06:00,
1000000000391447,77023670094,mMTS,mKcell,mKcell,,D77,2017-05-28T17:47:58+06:00,
1000000000391448,77012775548,mKarTel,mKcell,mKcell,,D01,2017-05-28T17:49:06+06:00,
1000000000391449,77022310695,mKarTel,mKcell,mKcell,,D01,2017-05-28T17:49:58+06:00,
1000000000391450,77051823090,mKcell,mKarTel,mKarTel,,D02,2017-05-28T17:51:51+06:00,
1000000000391451,77019890407,mMTS,mKcell,mKcell,,D77,2017-05-28T17:52:50+06:00,
1000000000391452,77026501537,mKcell,mMTS,mKcell,D77,D02,2017-05-28T17:56:57+06:00,
