NPId,Number,RecipientId,DonorId,RangeHolderId,OldRoute,NewRoute,PortDate,RowCount
1000000000382469,77758016835,mKarTel,mKcell,mKcell,,D01,2017-05-13T14:00:38+06:00,26
1000000000382471,77073818855,mAltel,mMTS,mMTS,,D07,2017-05-13T14:00:55+06:00,
1000000000382473,77003586397,mMTS,mAltel,mAltel,,D77,2017-05-13T14:01:43+06:00,
1000000000382474,77017733884,mKcell,mAltel,mKcell,D07,D02,2017-05-13T14:07:31+06:00,
1000000000382475,77011158454,mMTS,mKcell,mKcell,,D77,2017-05-13T14:07:32+06:00,
1000000000382476,77774452446,mMTS,mKarTel,mKarTel,,D77,2017-05-13T14:08:06+06:00,
1000000000382477,77015202778,mKarTel,mKcell,mKcell,,D01,2017-05-13T14:08:24+06:00,
1000000000382478,77475777400,mMTS,mAltel,mMTS,D07,D77,2017-05-13T14:09:13+06:00,
1000000000382480,77782857184,mKarTel,mKcell,mKcell,,D01,2017-05-13T14:10:52+06:00,
1000000000382481,77021800026,mMTS,mKcell,mKcell,,D77,2017-05-13T14:12:34+06:00,
1000000000382482,77001170584,mMTS,mAltel,mAltel,,D77,2017-05-13T14:12:38+06:00,
1000000000382483,77077205252,mKarTel,mMTS,mMTS,,D01,2017-05-13T14:13:40+06:00,
1000000000382484,77016089496,mMTS,mKcell,mKcell,,D77,2017-05-13T14:14:35+06:00,
1000000000382485,77005759423,mKarTel,mAltel,mAltel,,D01,2017-05-13T14:16:08+06:00,
1000000000382486,77002137991,mKarTel,mAltel,mAltel,,D01,2017-05-13T14:16:54+06:00,
1000000000382488,77777600600,mKarTel,mAltel,mKarTel,D07,D01,2017-05-13T14:19:42+06:00,
1000000000382489,77085546378,mKcell,mAltel,mAltel,,D02,2017-05-13T14:21:03+06:00,
1000000000382490,77022419988,mKarTel,mAltel,mKcell,D07,D01,2017-05-13T14:21:41+06:00,
1000000000382491,77075777517,mKcell,mMTS,mMTS,,D02,2017-05-13T14:22:56+06:00,
1000000000382493,77023333070,mAltel,mKcell,mKcell,,D07,2017-05-13T14:22:54+06:00,
1000000000382498,77773722206,mAltel,mKarTel,mKarTel,,D07,2017-05-13T14:25:13+06:00,
1000000000382499,77017426999,mKcell,mMTS,mKcell,D77,D02,2017-05-13T14:25:31+06:00,
1000000000382500,77012876394,mAltel,mKcell,mKcell,,D07,2017-05-13T14:26:14+06:00,
1000000000382502,77774972432,mMTS,mKarTel,mKarTel,,D77,2017-05-13T14:28:16+06:00,
1000000000382504,77019128468,mAltel,mKcell,mKcell,,D07,2017-05-13T14:29:01+06:00,
1000000000382505,77013770222,mMTS,mKcell,mKcell,,D77,2017-05-13T14:29:16+06:00,
