NPId,Number,RecipientId,DonorId,RangeHolderId,OldRoute,NewRoute,PortDate,RowCount
1000000000229920,77011911445,mMTS,mKcell,mKcell,,D77,2016-08-16T18:04:13+06:00,12
1000000000229922,77013949757,mKcell,mMTS,mKcell,D77,D02,2016-08-16T18:08:19+06:00,
1000000000229924,77757306888,mKarTel,mKcell,mKcell,,D01,2016-08-16T18:14:52+06:00,
1000000000229925,77012251102,mKarTel,mKcell,mKcell,,D01,2016-08-16T18:13:12+06:00,
1000000000229928,77771404658,mMTS,mKarTel,mKarTel,,D77,2016-08-16T18:23:40+06:00,
1000000000229930,77087512805,mAltel,mMTS,mAltel,D77,D07,2016-08-16T18:23:38+06:00,
1000000000229931,77007571707,mMTS,mAltel,mAltel,,D77,2016-08-16T18:24:38+06:00,
1000000000229933,77789788778,mKarTel,mMTS,mKcell,D77,D01,2016-08-16T18:26:44+06:00,
1000000000229934,77772170613,mMTS,mKarTel,mKarTel,,D77,2016-08-16T18:28:34+06:00,
1000000000229935,77021220304,mKarTel,mKcell,mKcell,,D01,2016-08-16T18:27:22+06:00,
1000000000229936,77075889807,mKarTel,mMTS,mMTS,,D01,2016-08-16T18:27:59+06:00,
1000000000229939,77776574714,mKcell,mKarTel,mKarTel,,D02,2016-08-16T18:29:50+06:00,
