NPId,Number,RecipientId,DonorId,RangeHolderId,OldRoute,NewRoute,PortDate,RowCount
1000000000232093,77085511860,mMTS,mAltel,mAltel,,D77,2016-08-21T17:03:04+06:00,11
1000000000232094,77022660099,mMTS,mKcell,mKcell,D02,D77,2016-08-21T17:05:46+06:00,
1000000000232096,77002495963,mMTS,mAltel,mAltel,,D77,2016-08-21T17:09:00+06:00,
1000000000232097,77012443608,mKarTel,mKcell,mKcell,,D01,2016-08-21T17:12:36+06:00,
1000000000232098,77075553902,mKarTel,mMTS,mMTS,,D01,2016-08-21T17:13:23+06:00,
1000000000232099,77082421020,mMTS,mAltel,mAltel,,D77,2016-08-21T17:16:00+06:00,
1000000000232102,77027964370,mMTS,mKcell,mKcell,,D77,2016-08-21T17:17:44+06:00,
1000000000232103,77755757238,mMTS,mKcell,mKcell,,D77,2016-08-21T17:18:50+06:00,
1000000000232106,77057351966,mMTS,mKarTel,mKarTel,,D77,2016-08-21T17:24:50+06:00,
1000000000232109,77026828080,mMTS,mKcell,mKcell,,D77,2016-08-21T17:27:46+06:00,
1000000000232110,77051257694,mMTS,mKarTel,mKarTel,,D77,2016-08-21T17:27:49+06:00,
