NPId,Number,RecipientId,DonorId,RangeHolderId,OldRoute,NewRoute,PortDate,RowCount
1000000000176759,77058406367,mMTS,mKarTel,mKarTel,,D77,2016-05-18T17:30:21+06:00,41
1000000000176760,77073485708,mMTS,mAltel,mMTS,D07,D77,2016-05-18T17:30:37+06:00,
1000000000176761,77775055000,mKcell,mKarTel,mKarTel,,D02,2016-05-18T17:31:46+06:00,
1000000000176762,77474477040,mKcell,mMTS,mMTS,,D02,2016-05-18T17:31:44+06:00,
1000000000176763,77755823500,mMTS,mKcell,mKcell,,D77,2016-05-18T17:32:34+06:00,
1000000000176764,77777326068,mMTS,mKarTel,mKarTel,,D77,2016-05-18T17:32:34+06:00,
1000000000176765,77055044141,mMTS,mKarTel,mKarTel,,D77,2016-05-18T17:32:40+06:00,
1000000000176766,77000707910,mMTS,mAltel,mAltel,,D77,2016-05-18T17:32:50+06:00,
1000000000176768,77768505050,mKarTel,mMTS,mKarTel,D77,D01,2016-05-18T17:35:35+06:00,
1000000000176769,77016360233,mAltel,mKcell,mKcell,,D07,2016-05-18T17:36:22+06:00,
1000000000176772,77004159900,mMTS,mAltel,mAltel,,D77,2016-05-18T17:36:10+06:00,
1000000000176774,77075324353,mKcell,mMTS,mMTS,,D02,2016-05-18T17:37:24+06:00,
1000000000176775,77754641177,mMTS,mKcell,mKcell,,D77,2016-05-18T17:37:48+06:00,
1000000000176776,77087030393,mMTS,mAltel,mAltel,,D77,2016-05-18T17:37:59+06:00,
1000000000176777,77026611343,mMTS,mKcell,mKcell,,D77,2016-05-18T17:38:35+06:00,
1000000000176779,77770214019,mMTS,mKarTel,mKarTel,,D77,2016-05-18T17:40:56+06:00,
1000000000176780,77019322528,mMTS,mKcell,mKcell,,D77,2016-05-18T17:42:50+06:00,
1000000000176781,77056000864,mAltel,mKarTel,mKarTel,,D07,2016-05-18T17:43:31+06:00,
1000000000176783,77470520607,mKcell,mMTS,mMTS,,D02,2016-05-18T17:44:34+06:00,
1000000000176784,77059051645,mMTS,mKarTel,mKarTel,,D77,2016-05-18T17:44:20+06:00,
1000000000176785,77079766146,mMTS,mAltel,mMTS,D07,D77,2016-05-18T17:43:57+06:00,
1000000000176786,77002577737,mMTS,mAltel,mAltel,,D77,2016-05-18T17:43:57+06:00,
1000000000176787,77781414745,mKarTel,mKcell,mKcell,,D01,2016-05-18T17:45:31+06:00,
1000000000176788,77752861021,mAltel,mKcell,mKcell,,D07,2016-05-18T17:45:34+06:00,
1000000000176790,77719996718,mKcell,mKarTel,mKarTel,,D02,2016-05-18T17:46:12+06:00,
1000000000176792,77023733414,mMTS,mKcell,mKcell,,D77,2016-05-18T17:46:51+06:00,
1000000000176795,77000909970,mMTS,mAltel,mAltel,,D77,2016-05-18T17:47:09+06:00,
1000000000176796,77022734141,mKcell,mMTS,mKcell,D77,D02,2016-05-18T17:48:54+06:00,
1000000000176797,77054155252,mMTS,mKarTel,mKarTel,,D77,2016-05-18T17:49:36+06:00,
1000000000176798,77765772828,mMTS,mKarTel,mKarTel,,D77,2016-05-18T17:51:53+06:00,
1000000000176800,77011237081,mMTS,mKcell,mKcell,,D77,2016-05-18T17:52:35+06:00,
1000000000176802,77088151515,mKcell,mAltel,mAltel,,D02,2016-05-18T17:53:21+06:00,
1000000000176803,77027230835,mAltel,mKcell,mKcell,,D07,2016-05-18T17:53:44+06:00,
1000000000176804,77016666900,mMTS,mKarTel,mKcell,D01,D77,2016-05-18T17:53:47+06:00,
1000000000176805,77782064013,mMTS,mAltel,mKcell,D07,D77,2016-05-18T17:54:12+06:00,
1000000000176807,77014720042,mKcell,mAltel,mKcell,D07,D02,2016-05-18T17:57:07+06:00,
1000000000176808,77087151515,mKcell,mAltel,mAltel,,D02,2016-05-18T17:57:19+06:00,
1000000000176810,77059660670,mMTS,mKarTel,mKarTel,,D77,2016-05-18T17:57:34+06:00,
1000000000176811,77013051021,mKcell,mMTS,mKcell,D77,D02,2016-05-18T17:58:10+06:00,
1000000000176812,77072547775,mKarTel,mMTS,mMTS,,D01,2016-05-18T17:59:17+06:00,
1000000000176813,77776366991,mAltel,mKarTel,mKarTel,,D07,2016-05-18T17:59:57+06:00,
