NPId,Number,RecipientId,DonorId,RangeHolderId,OldRoute,NewRoute,PortDate,RowCount
1000000000191887,77772697517,mKarTel,mMTS,mKarTel,D77,D01,2016-06-11T15:32:05+06:00,32
1000000000191888,77022294442,mMTS,mKcell,mKcell,,D77,2016-06-11T15:32:10+06:00,
1000000000191889,77789119992,mMTS,mKcell,mKcell,,D77,2016-06-11T15:33:49+06:00,
1000000000191891,77016807907,mKarTel,mKcell,mKcell,,D01,2016-06-11T15:34:14+06:00,
1000000000191892,77775166278,mKcell,mKarTel,mKarTel,,D02,2016-06-11T15:35:09+06:00,
1000000000191893,77779777422,mAltel,mKarTel,mKarTel,,D07,2016-06-11T15:35:00+06:00,
1000000000191895,77003164672,mKarTel,mAltel,mAltel,,D01,2016-06-11T15:36:15+06:00,
1000000000191896,77750007050,mMTS,mKcell,mKcell,,D77,2016-06-11T15:36:51+06:00,
1000000000191898,77054548703,mMTS,mKarTel,mKarTel,,D77,2016-06-11T15:37:31+06:00,
1000000000191901,77783300777,mMTS,mKcell,mKcell,,D77,2016-06-11T15:40:08+06:00,
1000000000191903,77080451111,mMTS,mAltel,mAltel,,D77,2016-06-11T15:40:32+06:00,
1000000000191904,77021154690,mMTS,mKcell,mKcell,,D77,2016-06-11T15:41:39+06:00,
1000000000191905,77027545450,mKarTel,mKcell,mKcell,,D01,2016-06-11T15:42:23+06:00,
1000000000191906,77077426961,mKarTel,mMTS,mMTS,,D01,2016-06-11T15:42:39+06:00,
1000000000191907,77474923682,mKcell,mMTS,mMTS,,D02,2016-06-11T15:45:43+06:00,
1000000000191908,77786964747,mKarTel,mAltel,mKcell,D07,D01,2016-06-11T15:45:25+06:00,
1000000000191909,77716460000,mKcell,mKarTel,mKarTel,,D02,2016-06-11T15:49:19+06:00,
1000000000191910,77081930117,mMTS,mAltel,mAltel,,D77,2016-06-11T15:47:16+06:00,
1000000000191911,77015540413,mKcell,mAltel,mKcell,D07,D02,2016-06-11T15:47:59+06:00,
1000000000191912,77768056464,mAltel,mKarTel,mKarTel,,D07,2016-06-11T15:50:10+06:00,
1000000000191913,77777440009,mMTS,mKarTel,mKarTel,,D77,2016-06-11T15:50:15+06:00,
1000000000191914,77767027202,mMTS,mKarTel,mKarTel,,D77,2016-06-11T15:51:02+06:00,
1000000000191915,77016222054,mAltel,mKcell,mKcell,,D07,2016-06-11T15:54:04+06:00,
1000000000191916,77474534691,mKcell,mMTS,mMTS,,D02,2016-06-11T15:52:37+06:00,
1000000000191918,77474923700,mKcell,mMTS,mMTS,,D02,2016-06-11T15:52:49+06:00,
1000000000191919,77083010185,mKarTel,mAltel,mAltel,,D01,2016-06-11T15:53:01+06:00,
1000000000191920,77474923651,mKcell,mMTS,mMTS,,D02,2016-06-11T15:56:41+06:00,
1000000000191921,77474534686,mKcell,mMTS,mMTS,,D02,2016-06-11T15:56:41+06:00,
1000000000191922,77019210910,mMTS,mKcell,mKcell,,D77,2016-06-11T15:57:09+06:00,
1000000000191923,77073100506,mAltel,mMTS,mMTS,,D07,2016-06-11T15:57:21+06:00,
1000000000191924,77021118693,mMTS,mAltel,mKcell,D07,D77,2016-06-11T15:57:45+06:00,
1000000000191925,77767017101,mMTS,mKarTel,mKarTel,,D77,2016-06-11T15:58:42+06:00,
