NPId,Number,RecipientId,DonorId,RangeHolderId,OldRoute,NewRoute,PortDate,RowCount
1000000000200339,77055856792,mMTS,mKarTel,mKarTel,,D77,2016-06-26T21:02:29+06:00,2
1000000000200340,77055856658,mMTS,mKarTel,mKarTel,,D77,2016-06-26T21:12:34+06:00,
