NPId,Number,RecipientId,DonorId,RangeHolderId,OldRoute,NewRoute,PortDate,RowCount
1000000000211544,77781070014,mMTS,mKcell,mKcell,,D77,2016-07-15T10:02:46+06:00,8
1000000000211545,77710502200,mMTS,mKarTel,mKarTel,,D77,2016-07-15T10:03:18+06:00,
1000000000211546,77011005456,mKcell,mKarTel,mKcell,D01,D02,2016-07-15T10:09:28+06:00,
1000000000211550,77011110272,mKcell,mAltel,mKcell,D07,D02,2016-07-15T10:14:30+06:00,
1000000000211551,77711008180,mMTS,mKarTel,mKarTel,,D77,2016-07-15T10:16:14+06:00,
1000000000211553,77772694807,mMTS,mKarTel,mKarTel,,D77,2016-07-15T10:17:36+06:00,
1000000000211555,77783521935,mMTS,mKcell,mKcell,,D77,2016-07-15T10:18:50+06:00,
1000000000211558,77759664777,mKcell,mMTS,mKcell,D77,D02,2016-07-15T10:25:08+06:00,
