NPId,Number,RecipientId,DonorId,RangeHolderId,OldRoute,NewRoute,PortDate,RowCount
1000000000133560,77052099761,mAltel,mKarTel,mKarTel,,D07,2016-03-25T20:47:26+06:00,2
1000000000133561,77073967707,mKcell,mMTS,mMTS,,D02,2016-03-25T20:56:35+06:00,
