NPId,Number,RecipientId,DonorId,RangeHolderId,OldRoute,NewRoute,PortDate,RowCount
1000000000446557,77077010550,mKarTel,mMTS,mMTS,,D01,2017-08-27T11:00:26+06:00,6
1000000000446559,77772999302,mMTS,mKarTel,mKarTel,,D77,2017-08-27T11:09:11+06:00,
1000000000446560,77785050600,mMTS,mKcell,mKcell,D02,D77,2017-08-27T11:16:34+06:00,
1000000000446561,77479504309,mAltel,mMTS,mMTS,,D07,2017-08-27T11:19:34+06:00,
1000000000446562,77758697262,mMTS,mKcell,mKcell,,D77,2017-08-27T11:22:54+06:00,
1000000000446563,77019888744,mAltel,mKcell,mKcell,,D07,2017-08-27T11:23:54+06:00,
