NPId,Number,RecipientId,DonorId,RangeHolderId,OldRoute,NewRoute,PortDate,RowCount
1000000000327163,77074586888,mKcell,mMTS,mMTS,,D02,2017-02-11T09:38:08+06:00,2
1000000000327164,77005559760,mKcell,mAltel,mAltel,,D02,2017-02-11T09:40:34+06:00,
