NPId,Number,RecipientId,DonorId,RangeHolderId,OldRoute,NewRoute,PortDate,RowCount
1000000000389968,77076440500,mKcell,mMTS,mMTS,,D02,2017-05-25T19:30:59+06:00,15
1000000000389969,77007775878,mKcell,mAltel,mAltel,,D02,2017-05-25T19:31:51+06:00,
1000000000389970,77007775979,mKcell,mAltel,mAltel,,D02,2017-05-25T19:33:19+06:00,
1000000000389971,77001082000,mKarTel,mAltel,mAltel,,D01,2017-05-25T19:37:10+06:00,
1000000000389972,77017516195,mKarTel,mKcell,mKcell,,D01,2017-05-25T19:37:52+06:00,
1000000000389973,77773298834,mMTS,mKarTel,mKarTel,,D77,2017-05-25T19:38:06+06:00,
1000000000389974,77015377247,mAltel,mKcell,mKcell,,D07,2017-05-25T19:40:24+06:00,
1000000000389975,77007776067,mKcell,mAltel,mAltel,,D02,2017-05-25T19:43:03+06:00,
1000000000389976,77007776171,mKcell,mAltel,mAltel,,D02,2017-05-25T19:44:29+06:00,
1000000000389977,77078622024,mKcell,mMTS,mMTS,,D02,2017-05-25T19:46:13+06:00,
1000000000389978,77786761960,mKarTel,mKcell,mKcell,,D01,2017-05-25T19:46:31+06:00,
1000000000389979,77012256900,mKcell,mMTS,mKcell,D77,D02,2017-05-25T19:46:50+06:00,
1000000000389980,77773299117,mMTS,mKarTel,mKarTel,,D77,2017-05-25T19:48:09+06:00,
1000000000389982,77007178700,mKcell,mAltel,mAltel,,D02,2017-05-25T19:57:07+06:00,
1000000000389983,77023452408,mMTS,mKcell,mKcell,,D77,2017-05-25T19:57:55+06:00,
