NPId,Number,RecipientId,DonorId,RangeHolderId,OldRoute,NewRoute,PortDate,RowCount
1000000000350998,77002008454,mKcell,mAltel,mAltel,,D02,2017-03-23T12:00:00+06:00,9
1000000000350999,77011250550,mKcell,mAltel,mKcell,D07,D02,2017-03-23T12:04:46+06:00,
1000000000351000,77059702040,mKcell,mKarTel,mKarTel,,D02,2017-03-23T12:06:33+06:00,
1000000000351003,77078465153,mKcell,mMTS,mMTS,,D02,2017-03-23T12:08:53+06:00,
1000000000351005,77017453800,mMTS,mKcell,mKcell,,D77,2017-03-23T12:10:53+06:00,
1000000000351007,77004009131,mKcell,mAltel,mAltel,,D02,2017-03-23T12:12:27+06:00,
1000000000351013,77076131668,mAltel,mMTS,mMTS,,D07,2017-03-23T12:21:49+06:00,
1000000000351014,77004008959,mKcell,mAltel,mAltel,,D02,2017-03-23T12:22:09+06:00,
1000000000351015,77010179555,mMTS,mKcell,mKcell,,D77,2017-03-23T12:26:00+06:00,
