NPId,Number,RecipientId,DonorId,RangeHolderId,OldRoute,NewRoute,PortDate,RowCount
1000000000275157,77015620011,mKarTel,mKcell,mKcell,,D01,2016-11-07T09:35:32+06:00,6
1000000000275158,77087584986,mKcell,mAltel,mAltel,,D02,2016-11-07T09:36:45+06:00,
1000000000275159,77775752065,mKarTel,mAltel,mKarTel,D07,D01,2016-11-07T09:42:16+06:00,
1000000000275160,77775752064,mKarTel,mAltel,mKarTel,D07,D01,2016-11-07T09:42:42+06:00,
1000000000275163,77019005004,mKarTel,mKcell,mKcell,,D01,2016-11-07T09:57:21+06:00,
1000000000275164,77073757535,mKcell,mMTS,mMTS,,D02,2016-11-07T09:58:55+06:00,
