NPId,Number,RecipientId,DonorId,RangeHolderId,OldRoute,NewRoute,PortDate,RowCount
1000000000367324,77029003093,mKarTel,mKcell,mKcell,,D01,2017-04-17T18:34:01+06:00,24
1000000000367325,77017404140,mAltel,mKcell,mKcell,,D07,2017-04-17T18:34:49+06:00,
1000000000367326,77079645940,mAltel,mMTS,mMTS,,D07,2017-04-17T18:34:49+06:00,
1000000000367327,77751797676,mMTS,mKcell,mKcell,,D77,2017-04-17T18:35:18+06:00,
1000000000367328,77013753302,mKcell,mAltel,mKcell,D07,D02,2017-04-17T18:35:39+06:00,
1000000000367329,77057535252,mKcell,mKarTel,mKarTel,,D02,2017-04-17T18:36:44+06:00,
1000000000367330,77751364411,mKarTel,mKcell,mKcell,,D01,2017-04-17T18:37:14+06:00,
1000000000367331,77789122444,mKcell,mMTS,mKcell,D77,D02,2017-04-17T18:38:32+06:00,
1000000000367332,77478470017,mKcell,mMTS,mMTS,,D02,2017-04-17T18:39:03+06:00,
1000000000367334,77077778622,mKcell,mMTS,mMTS,,D02,2017-04-17T18:39:47+06:00,
1000000000367337,77771676462,mMTS,mKarTel,mKarTel,,D77,2017-04-17T18:44:04+06:00,
1000000000367338,77474836517,mKcell,mMTS,mMTS,,D02,2017-04-17T18:44:23+06:00,
1000000000367339,77770012099,mMTS,mKarTel,mKarTel,,D77,2017-04-17T18:44:35+06:00,
1000000000367341,77005739097,mMTS,mAltel,mAltel,,D77,2017-04-17T18:44:54+06:00,
1000000000367342,77476957336,mKcell,mMTS,mMTS,,D02,2017-04-17T18:45:49+06:00,
1000000000367343,77089089080,mMTS,mAltel,mAltel,,D77,2017-04-17T18:46:17+06:00,
1000000000367344,77017204322,mMTS,mKarTel,mKcell,D01,D77,2017-04-17T18:50:13+06:00,
1000000000367345,77074443363,mAltel,mMTS,mMTS,,D07,2017-04-17T18:50:31+06:00,
1000000000367346,77071888262,mMTS,mAltel,mMTS,D07,D77,2017-04-17T18:52:50+06:00,
1000000000367347,77054307120,mMTS,mKarTel,mKarTel,,D77,2017-04-17T18:53:35+06:00,
1000000000367348,77771298281,mMTS,mKarTel,mKarTel,,D77,2017-04-17T18:54:22+06:00,
1000000000367350,77713411213,mMTS,mKarTel,mKarTel,,D77,2017-04-17T18:56:17+06:00,
1000000000367351,77753523521,mMTS,mKcell,mKcell,,D77,2017-04-17T18:56:29+06:00,
1000000000367352,77751970098,mAltel,mKcell,mKcell,,D07,2017-04-17T18:56:56+06:00,
