NPId,Number,RecipientId,DonorId,RangeHolderId,OldRoute,NewRoute,PortDate,RowCount
1000000000311631,77012034480,mMTS,mKcell,mKcell,,D77,2017-01-16T18:31:22+06:00,21
1000000000311632,77059180000,mKcell,mKarTel,mKarTel,,D02,2017-01-16T18:34:19+06:00,
1000000000311633,77004449818,mKcell,mAltel,mAltel,,D02,2017-01-16T18:34:28+06:00,
1000000000311634,77004445838,mKcell,mAltel,mAltel,,D02,2017-01-16T18:34:56+06:00,
1000000000311635,77004447838,mKcell,mAltel,mAltel,,D02,2017-01-16T18:35:21+06:00,
1000000000311636,77055187115,mKcell,mKarTel,mKarTel,,D02,2017-01-16T18:36:00+06:00,
1000000000311638,77004449878,mKcell,mAltel,mAltel,,D02,2017-01-16T18:36:01+06:00,
1000000000311639,77004445737,mKcell,mAltel,mAltel,,D02,2017-01-16T18:37:26+06:00,
1000000000311641,77055603123,mAltel,mKarTel,mKarTel,,D07,2017-01-16T18:39:11+06:00,
1000000000311643,77059872253,mKarTel,mKcell,mKarTel,D02,D01,2017-01-16T18:40:25+06:00,
1000000000311644,77016506599,mKarTel,mKcell,mKcell,,D01,2017-01-16T18:40:31+06:00,
1000000000311645,77770347511,mKarTel,mMTS,mKarTel,D77,D01,2017-01-16T18:41:03+06:00,
1000000000311646,77017708467,mMTS,mKcell,mKcell,,D77,2017-01-16T18:42:47+06:00,
1000000000311647,77764002666,mMTS,mKarTel,mKarTel,,D77,2017-01-16T18:43:34+06:00,
1000000000311651,77011003414,mKcell,mMTS,mKcell,D77,D02,2017-01-16T18:52:33+06:00,
1000000000311652,77015282879,mKarTel,mKcell,mKcell,,D01,2017-01-16T18:54:36+06:00,
1000000000311653,77074411759,mKarTel,mMTS,mMTS,,D01,2017-01-16T18:55:01+06:00,
1000000000311654,77016421894,mAltel,mKcell,mKcell,,D07,2017-01-16T18:56:01+06:00,
1000000000311655,77770205696,mKcell,mKarTel,mKarTel,,D02,2017-01-16T18:57:57+06:00,
1000000000311656,77011003424,mKcell,mMTS,mKcell,D77,D02,2017-01-16T18:57:45+06:00,
1000000000311657,77052256595,mMTS,mKarTel,mKarTel,,D77,2017-01-16T18:59:51+06:00,
