NPId,Number,RecipientId,DonorId,RangeHolderId,OldRoute,NewRoute,PortDate,RowCount
1000000000422715,77024021677,mMTS,mKcell,mKcell,,D77,2017-07-16T14:30:40+06:00,8
1000000000422716,77014383941,mAltel,mKcell,mKcell,,D07,2017-07-16T14:33:08+06:00,
1000000000422717,77011501042,mMTS,mKcell,mKcell,,D77,2017-07-16T14:37:19+06:00,
1000000000422718,77479001605,mKarTel,mMTS,mMTS,,D01,2017-07-16T14:39:04+06:00,
1000000000422719,77025174285,mMTS,mKcell,mKcell,,D77,2017-07-16T14:49:24+06:00,
1000000000422721,77767777317,mKarTel,mMTS,mKarTel,D77,D01,2017-07-16T14:53:08+06:00,
1000000000422723,77023626997,mMTS,mKcell,mKcell,,D77,2017-07-16T14:57:10+06:00,
1000000000422724,77773157622,mKcell,mKarTel,mKarTel,,D02,2017-07-16T14:58:31+06:00,
