NPId,Number,RecipientId,DonorId,RangeHolderId,OldRoute,NewRoute,PortDate,RowCount
1000000000234395,77777501277,mKcell,mKarTel,mKarTel,,D02,2016-08-26T12:43:45+06:00,16
1000000000234397,77022033000,mKarTel,mKcell,mKcell,,D01,2016-08-26T12:30:59+06:00,
1000000000234398,77012213505,mKarTel,mKcell,mKcell,,D01,2016-08-26T12:31:32+06:00,
1000000000234400,77021034939,mKcell,mKarTel,mKcell,D01,D02,2016-08-26T12:32:50+06:00,
1000000000234401,77057106916,mMTS,mKarTel,mKarTel,,D77,2016-08-26T12:33:22+06:00,
1000000000234404,77029959701,mMTS,mKcell,mKcell,,D77,2016-08-26T12:35:15+06:00,
1000000000234405,77017609382,mKarTel,mKcell,mKcell,,D01,2016-08-26T12:35:44+06:00,
1000000000234406,77004756162,mKarTel,mAltel,mAltel,,D01,2016-08-26T12:35:34+06:00,
1000000000234407,77771905555,mKcell,mKarTel,mKarTel,,D02,2016-08-26T12:36:04+06:00,
1000000000234409,77022144290,mKarTel,mKcell,mKcell,,D01,2016-08-26T12:37:14+06:00,
1000000000234410,77014478087,mKcell,mKarTel,mKcell,D01,D02,2016-08-26T12:37:56+06:00,
1000000000234413,77016424418,mKarTel,mKcell,mKcell,,D01,2016-08-26T12:44:53+06:00,
1000000000234415,77019294069,mMTS,mKcell,mKcell,,D77,2016-08-26T12:49:25+06:00,
1000000000234417,77011684063,mMTS,mKcell,mKcell,,D77,2016-08-26T12:51:17+06:00,
1000000000234418,77017224599,mKcell,mMTS,mKcell,D77,D02,2016-08-26T12:51:56+06:00,
1000000000234419,77779127770,mAltel,mKarTel,mKarTel,,D07,2016-08-26T12:55:41+06:00,
