NPId,Number,RecipientId,DonorId,RangeHolderId,OldRoute,NewRoute,PortDate,RowCount
1000000000382579,77018745919,mKarTel,mKcell,mKcell,,D01,2017-05-13T15:30:09+06:00,20
1000000000382580,77772481698,mMTS,mKarTel,mKarTel,,D77,2017-05-13T15:31:15+06:00,
1000000000382581,77015353030,mKarTel,mKcell,mKcell,,D01,2017-05-13T15:31:53+06:00,
1000000000382582,77007772489,mKarTel,mKcell,mAltel,D02,D01,2017-05-13T15:33:05+06:00,
1000000000382584,77004111040,mMTS,mAltel,mAltel,,D77,2017-05-13T15:34:11+06:00,
1000000000382585,77015788757,mMTS,mKcell,mKcell,,D77,2017-05-13T15:35:08+06:00,
1000000000382586,77764047711,mKarTel,mMTS,mKarTel,D77,D01,2017-05-13T15:36:11+06:00,
1000000000382587,77785755574,mKarTel,mKcell,mKcell,,D01,2017-05-13T15:36:26+06:00,
1000000000382588,77055050075,mKarTel,mAltel,mKarTel,D07,D01,2017-05-13T15:39:24+06:00,
1000000000382590,77768000052,mMTS,mKarTel,mKarTel,,D77,2017-05-13T15:43:07+06:00,
1000000000382592,77014601000,mKarTel,mKcell,mKcell,,D01,2017-05-13T15:45:27+06:00,
1000000000382593,77753249252,mKcell,mAltel,mKcell,D07,D02,2017-05-13T15:46:25+06:00,
1000000000382594,77755509251,mMTS,mKcell,mKcell,,D77,2017-05-13T15:46:39+06:00,
1000000000382597,77471110999,mKarTel,mMTS,mMTS,,D01,2017-05-13T15:49:17+06:00,
1000000000382598,77021922223,mKcell,mKarTel,mKcell,D01,D02,2017-05-13T15:53:06+06:00,
1000000000382599,77768000023,mMTS,mKarTel,mKarTel,,D77,2017-05-13T15:53:07+06:00,
1000000000382600,77006588861,mAltel,mKarTel,mAltel,D01,D07,2017-05-13T15:56:54+06:00,
1000000000382601,77027738118,mAltel,mKarTel,mKcell,D01,D07,2017-05-13T15:57:09+06:00,
1000000000382603,77752526188,mAltel,mKarTel,mKcell,D01,D07,2017-05-13T15:58:52+06:00,
1000000000382604,77761104888,mKarTel,mKcell,mKarTel,D02,D01,2017-05-13T15:59:06+06:00,
