NPId,Number,RecipientId,DonorId,RangeHolderId,OldRoute,NewRoute,PortDate,RowCount
1000000000194870,77773304400,mKcell,mKarTel,mKarTel,,D02,2016-06-16T19:05:15+06:00,12
1000000000194872,77021000552,mKarTel,mKcell,mKcell,,D01,2016-06-16T19:06:31+06:00,
1000000000194873,77772609052,mKarTel,mAltel,mKarTel,D07,D01,2016-06-16T19:02:25+06:00,
1000000000194874,77059950001,mKcell,mKarTel,mKarTel,,D02,2016-06-16T19:06:39+06:00,
1000000000194877,77014147107,mKcell,mMTS,mKcell,D77,D02,2016-06-16T19:10:12+06:00,
1000000000194878,77773509339,mKcell,mKarTel,mKarTel,,D02,2016-06-16T19:14:26+06:00,
1000000000194879,77777977373,mKarTel,mKcell,mKarTel,D02,D01,2016-06-16T19:17:28+06:00,
1000000000194880,77779636670,mKcell,mKarTel,mKarTel,,D02,2016-06-16T19:18:11+06:00,
1000000000194881,77059507073,mKcell,mKarTel,mKarTel,,D02,2016-06-16T19:18:12+06:00,
1000000000194883,77715550502,mKarTel,mMTS,mKarTel,D77,D01,2016-06-16T19:22:03+06:00,
1000000000194884,77010188001,mKcell,mKarTel,mKcell,D01,D02,2016-06-16T19:22:56+06:00,
1000000000194886,77059507071,mKcell,mKarTel,mKarTel,,D02,2016-06-16T19:28:26+06:00,
