NPId,Number,RecipientId,DonorId,RangeHolderId,OldRoute,NewRoute,PortDate,RowCount
1000000000092701,77085404888,mKcell,mAltel,mAltel,,D02,2016-02-18T18:00:42+06:00,35
1000000000092703,77776262750,mMTS,mKarTel,mKarTel,,D77,2016-02-18T18:00:59+06:00,
1000000000092704,77472722011,mAltel,mMTS,mMTS,,D07,2016-02-18T18:01:41+06:00,
1000000000092705,77085404999,mKcell,mAltel,mAltel,,D02,2016-02-18T18:02:10+06:00,
1000000000092706,77779678005,mKcell,mKarTel,mKarTel,,D02,2016-02-18T18:02:53+06:00,
1000000000092707,77774662002,mMTS,mKarTel,mKarTel,,D77,2016-02-18T18:02:42+06:00,
1000000000092708,77012884142,mAltel,mKcell,mKcell,,D07,2016-02-18T18:02:40+06:00,
1000000000092709,77024268182,mMTS,mKcell,mKcell,,D77,2016-02-18T18:02:55+06:00,
1000000000092710,77085402555,mKcell,mAltel,mAltel,,D02,2016-02-18T18:03:18+06:00,
1000000000092712,77027957675,mAltel,mKcell,mKcell,,D07,2016-02-18T18:03:37+06:00,
1000000000092713,77025726787,mAltel,mKcell,mKcell,,D07,2016-02-18T18:03:48+06:00,
1000000000092715,77085405222,mKcell,mAltel,mAltel,,D02,2016-02-18T18:04:35+06:00,
1000000000092717,77759993013,mKarTel,mKcell,mKcell,,D01,2016-02-18T18:05:10+06:00,
1000000000092718,77056490387,mMTS,mKarTel,mKarTel,,D77,2016-02-18T18:05:10+06:00,
1000000000092722,77022280503,mMTS,mKcell,mKcell,,D77,2016-02-18T18:07:02+06:00,
1000000000092726,77072187474,mAltel,mMTS,mMTS,,D07,2016-02-18T18:09:58+06:00,
1000000000092727,77074444147,mKarTel,mMTS,mMTS,,D01,2016-02-18T18:10:28+06:00,
1000000000092728,77018568841,mMTS,mKcell,mKcell,,D77,2016-02-18T18:10:49+06:00,
1000000000092729,77011515600,mAltel,mKcell,mKcell,,D07,2016-02-18T18:11:05+06:00,
1000000000092730,77089056535,mMTS,mAltel,mAltel,,D77,2016-02-18T18:11:48+06:00,
1000000000092733,77029997040,mKarTel,mKcell,mKcell,,D01,2016-02-18T18:13:03+06:00,
1000000000092735,77782693131,mMTS,mKcell,mKcell,,D77,2016-02-18T18:13:25+06:00,
1000000000092736,77756060493,mMTS,mKcell,mKcell,,D77,2016-02-18T18:13:30+06:00,
1000000000092737,77475915141,mAltel,mMTS,mMTS,,D07,2016-02-18T18:15:46+06:00,
1000000000092738,77768181881,mKcell,mKarTel,mKarTel,,D02,2016-02-18T18:16:57+06:00,
1000000000092739,77053287474,mKcell,mKarTel,mKarTel,,D02,2016-02-18T18:17:08+06:00,
1000000000092740,77075083888,mAltel,mMTS,mMTS,,D07,2016-02-18T18:16:57+06:00,
1000000000092741,77005552660,mKcell,mAltel,mAltel,,D02,2016-02-18T18:17:53+06:00,
1000000000092742,77003300030,mKcell,mAltel,mAltel,,D02,2016-02-18T18:19:00+06:00,
1000000000092743,77776262424,mMTS,mKarTel,mKarTel,,D77,2016-02-18T18:23:04+06:00,
1000000000092744,77075552326,mKarTel,mMTS,mMTS,,D01,2016-02-18T18:24:14+06:00,
1000000000092746,77710282222,mKcell,mKarTel,mKarTel,,D02,2016-02-18T18:26:46+06:00,
1000000000092747,77013081754,mAltel,mKcell,mKcell,,D07,2016-02-18T18:27:05+06:00,
1000000000092748,77022663658,mAltel,mKcell,mKcell,,D07,2016-02-18T18:28:46+06:00,
1000000000092749,77024248560,mAltel,mKcell,mKcell,,D07,2016-02-18T18:29:30+06:00,
