NPId,Number,RecipientId,DonorId,RangeHolderId,OldRoute,NewRoute,PortDate,RowCount
1000000000156147,77010911778,mKarTel,mKcell,mKcell,,D01,2016-04-20T16:05:38+06:00,144
1000000000156147,77012207851,mKarTel,mKcell,mKcell,,D01,2016-04-20T16:05:38+06:00,
1000000000156147,77015333340,mKarTel,mKcell,mKcell,,D01,2016-04-20T16:05:38+06:00,
1000000000156147,77015345839,mKarTel,mKcell,mKcell,,D01,2016-04-20T16:05:38+06:00,
1000000000156147,77018842671,mKarTel,mKcell,mKcell,,D01,2016-04-20T16:05:38+06:00,
1000000000156147,77019380137,mKarTel,mKcell,mKcell,,D01,2016-04-20T16:05:38+06:00,
1000000000156147,77019380139,mKarTel,mKcell,mKcell,,D01,2016-04-20T16:05:38+06:00,
1000000000156147,77019380144,mKarTel,mKcell,mKcell,,D01,2016-04-20T16:05:38+06:00,
1000000000156147,77019380156,mKarTel,mKcell,mKcell,,D01,2016-04-20T16:05:38+06:00,
1000000000156147,77019380165,mKarTel,mKcell,mKcell,,D01,2016-04-20T16:05:38+06:00,
1000000000156147,77019380172,mKarTel,mKcell,mKcell,,D01,2016-04-20T16:05:38+06:00,
1000000000156147,77019380215,mKarTel,mKcell,mKcell,,D01,2016-04-20T16:05:38+06:00,
1000000000156147,77019380245,mKarTel,mKcell,mKcell,,D01,2016-04-20T16:05:38+06:00,
1000000000156147,77019380254,mKarTel,mKcell,mKcell,,D01,2016-04-20T16:05:38+06:00,
1000000000156147,77019381253,mKarTel,mKcell,mKcell,,D01,2016-04-20T16:05:38+06:00,
1000000000156147,77019381255,mKarTel,mKcell,mKcell,,D01,2016-04-20T16:05:38+06:00,
1000000000156147,77019381259,mKarTel,mKcell,mKcell,,D01,2016-04-20T16:05:38+06:00,
1000000000156147,77019381276,mKarTel,mKcell,mKcell,,D01,2016-04-20T16:05:38+06:00,
1000000000156147,77019381302,mKarTel,mKcell,mKcell,,D01,2016-04-20T16:05:38+06:00,
1000000000156147,77019381305,mKarTel,mKcell,mKcell,,D01,2016-04-20T16:05:38+06:00,
1000000000156147,77019381306,mKarTel,mKcell,mKcell,,D01,2016-04-20T16:05:38+06:00,
1000000000156147,77019381326,mKarTel,mKcell,mKcell,,D01,2016-04-20T16:05:38+06:00,
1000000000156147,77019381327,mKarTel,mKcell,mKcell,,D01,2016-04-20T16:05:38+06:00,
1000000000156147,77019381431,mKarTel,mKcell,mKcell,,D01,2016-04-20T16:05:38+06:00,
1000000000156147,77019381432,mKarTel,mKcell,mKcell,,D01,2016-04-20T16:05:38+06:00,
1000000000156147,77019381433,mKarTel,mKcell,mKcell,,D01,2016-04-20T16:05:38+06:00,
1000000000156147,77019381932,mKarTel,mKcell,mKcell,,D01,2016-04-20T16:05:38+06:00,
1000000000156147,77019381933,mKarTel,mKcell,mKcell,,D01,2016-04-20T16:05:38+06:00,
1000000000156147,77019381935,mKarTel,mKcell,mKcell,,D01,2016-04-20T16:05:38+06:00,
1000000000156147,77019381936,mKarTel,mKcell,mKcell,,D01,2016-04-20T16:05:38+06:00,
1000000000156147,77019381939,mKarTel,mKcell,mKcell,,D01,2016-04-20T16:05:38+06:00,
1000000000156147,77019381941,mKarTel,mKcell,mKcell,,D01,2016-04-20T16:05:38+06:00,
1000000000156147,77019381948,mKarTel,mKcell,mKcell,,D01,2016-04-20T16:05:38+06:00,
1000000000156147,77019381950,mKarTel,mKcell,mKcell,,D01,2016-04-20T16:05:38+06:00,
1000000000156147,77019381954,mKarTel,mKcell,mKcell,,D01,2016-04-20T16:05:38+06:00,
1000000000156147,77019381955,mKarTel,mKcell,mKcell,,D01,2016-04-20T16:05:38+06:00,
1000000000156147,77019381960,mKarTel,mKcell,mKcell,,D01,2016-04-20T16:05:38+06:00,
1000000000156147,77019381968,mKarTel,mKcell,mKcell,,D01,2016-04-20T16:05:38+06:00,
1000000000156147,77019381975,mKarTel,mKcell,mKcell,,D01,2016-04-20T16:05:38+06:00,
1000000000156147,77019381977,mKarTel,mKcell,mKcell,,D01,2016-04-20T16:05:38+06:00,
1000000000156147,77019381978,mKarTel,mKcell,mKcell,,D01,2016-04-20T16:05:38+06:00,
1000000000156147,77019381979,mKarTel,mKcell,mKcell,,D01,2016-04-20T16:05:38+06:00,
1000000000156147,77019381981,mKarTel,mKcell,mKcell,,D01,2016-04-20T16:05:38+06:00,
1000000000156147,77019381983,mKarTel,mKcell,mKcell,,D01,2016-04-20T16:05:38+06:00,
1000000000156147,77019381987,mKarTel,mKcell,mKcell,,D01,2016-04-20T16:05:38+06:00,
1000000000156147,77019381993,mKarTel,mKcell,mKcell,,D01,2016-04-20T16:05:38+06:00,
1000000000156147,77019381995,mKarTel,mKcell,mKcell,,D01,2016-04-20T16:05:38+06:00,
1000000000156147,77019381997,mKarTel,mKcell,mKcell,,D01,2016-04-20T16:05:38+06:00,
1000000000156147,77019381998,mKarTel,mKcell,mKcell,,D01,2016-04-20T16:05:38+06:00,
1000000000156147,77027395359,mKarTel,mKcell,mKcell,,D01,2016-04-20T16:05:38+06:00,
1000000000156164,77010911795,mKarTel,mKcell,mKcell,,D01,2016-04-20T16:17:27+06:00,
1000000000156164,77010911809,mKarTel,mKcell,mKcell,,D01,2016-04-20T16:17:27+06:00,
1000000000156164,77012126535,mKarTel,mKcell,mKcell,,D01,2016-04-20T16:17:27+06:00,
1000000000156164,77015344686,mKarTel,mKcell,mKcell,,D01,2016-04-20T16:17:27+06:00,
1000000000156164,77015345830,mKarTel,mKcell,mKcell,,D01,2016-04-20T16:17:27+06:00,
1000000000156164,77015345835,mKarTel,mKcell,mKcell,,D01,2016-04-20T16:17:27+06:00,
1000000000156164,77015345842,mKarTel,mKcell,mKcell,,D01,2016-04-20T16:17:27+06:00,
1000000000156164,77017668335,mKarTel,mKcell,mKcell,,D01,2016-04-20T16:17:27+06:00,
1000000000156164,77017668339,mKarTel,mKcell,mKcell,,D01,2016-04-20T16:17:27+06:00,
1000000000156164,77017668340,mKarTel,mKcell,mKcell,,D01,2016-04-20T16:17:27+06:00,
1000000000156164,77017668343,mKarTel,mKcell,mKcell,,D01,2016-04-20T16:17:27+06:00,
1000000000156164,77019127043,mKarTel,mKcell,mKcell,,D01,2016-04-20T16:17:27+06:00,
1000000000156164,77019380149,mKarTel,mKcell,mKcell,,D01,2016-04-20T16:17:27+06:00,
1000000000156164,77019380155,mKarTel,mKcell,mKcell,,D01,2016-04-20T16:17:27+06:00,
1000000000156164,77019380163,mKarTel,mKcell,mKcell,,D01,2016-04-20T16:17:27+06:00,
1000000000156164,77019380175,mKarTel,mKcell,mKcell,,D01,2016-04-20T16:17:27+06:00,
1000000000156164,77019381300,mKarTel,mKcell,mKcell,,D01,2016-04-20T16:17:27+06:00,
1000000000156164,77019381315,mKarTel,mKcell,mKcell,,D01,2016-04-20T16:17:27+06:00,
1000000000156164,77019381316,mKarTel,mKcell,mKcell,,D01,2016-04-20T16:17:27+06:00,
1000000000156164,77019381335,mKarTel,mKcell,mKcell,,D01,2016-04-20T16:17:27+06:00,
1000000000156164,77019381339,mKarTel,mKcell,mKcell,,D01,2016-04-20T16:17:27+06:00,
1000000000156164,77019381340,mKarTel,mKcell,mKcell,,D01,2016-04-20T16:17:27+06:00,
1000000000156164,77019381343,mKarTel,mKcell,mKcell,,D01,2016-04-20T16:17:27+06:00,
1000000000156164,77019381346,mKarTel,mKcell,mKcell,,D01,2016-04-20T16:17:27+06:00,
1000000000156164,77019381350,mKarTel,mKcell,mKcell,,D01,2016-04-20T16:17:27+06:00,
1000000000156164,77019381351,mKarTel,mKcell,mKcell,,D01,2016-04-20T16:17:27+06:00,
1000000000156164,77019381352,mKarTel,mKcell,mKcell,,D01,2016-04-20T16:17:27+06:00,
1000000000156164,77019381353,mKarTel,mKcell,mKcell,,D01,2016-04-20T16:17:27+06:00,
1000000000156164,77019381356,mKarTel,mKcell,mKcell,,D01,2016-04-20T16:17:27+06:00,
1000000000156164,77019381361,mKarTel,mKcell,mKcell,,D01,2016-04-20T16:17:27+06:00,
1000000000156164,77019381362,mKarTel,mKcell,mKcell,,D01,2016-04-20T16:17:27+06:00,
1000000000156164,77019381363,mKarTel,mKcell,mKcell,,D01,2016-04-20T16:17:27+06:00,
1000000000156164,77019381365,mKarTel,mKcell,mKcell,,D01,2016-04-20T16:17:27+06:00,
1000000000156164,77019381366,mKarTel,mKcell,mKcell,,D01,2016-04-20T16:17:27+06:00,
1000000000156164,77019381368,mKarTel,mKcell,mKcell,,D01,2016-04-20T16:17:27+06:00,
1000000000156164,77019381371,mKarTel,mKcell,mKcell,,D01,2016-04-20T16:17:27+06:00,
1000000000156164,77019381373,mKarTel,mKcell,mKcell,,D01,2016-04-20T16:17:27+06:00,
1000000000156164,77019381374,mKarTel,mKcell,mKcell,,D01,2016-04-20T16:17:27+06:00,
1000000000156164,77019381379,mKarTel,mKcell,mKcell,,D01,2016-04-20T16:17:27+06:00,
1000000000156164,77019381380,mKarTel,mKcell,mKcell,,D01,2016-04-20T16:17:27+06:00,
1000000000156164,77019381382,mKarTel,mKcell,mKcell,,D01,2016-04-20T16:17:27+06:00,
1000000000156164,77019381386,mKarTel,mKcell,mKcell,,D01,2016-04-20T16:17:27+06:00,
1000000000156164,77019381389,mKarTel,mKcell,mKcell,,D01,2016-04-20T16:17:27+06:00,
1000000000156164,77019381390,mKarTel,mKcell,mKcell,,D01,2016-04-20T16:17:27+06:00,
1000000000156164,77019381391,mKarTel,mKcell,mKcell,,D01,2016-04-20T16:17:27+06:00,
1000000000156164,77019381394,mKarTel,mKcell,mKcell,,D01,2016-04-20T16:17:27+06:00,
1000000000156164,77019381395,mKarTel,mKcell,mKcell,,D01,2016-04-20T16:17:27+06:00,
1000000000156164,77019381397,mKarTel,mKcell,mKcell,,D01,2016-04-20T16:17:27+06:00,
1000000000156164,77019381400,mKarTel,mKcell,mKcell,,D01,2016-04-20T16:17:27+06:00,
1000000000156164,77019381401,mKarTel,mKcell,mKcell,,D01,2016-04-20T16:17:27+06:00,
1000000000156164,77019381402,mKarTel,mKcell,mKcell,,D01,2016-04-20T16:17:27+06:00,
1000000000156164,77019381404,mKarTel,mKcell,mKcell,,D01,2016-04-20T16:17:27+06:00,
1000000000156164,77019381408,mKarTel,mKcell,mKcell,,D01,2016-04-20T16:17:27+06:00,
1000000000156164,77019381410,mKarTel,mKcell,mKcell,,D01,2016-04-20T16:17:27+06:00,
1000000000156164,77019381412,mKarTel,mKcell,mKcell,,D01,2016-04-20T16:17:27+06:00,
1000000000156164,77019381413,mKarTel,mKcell,mKcell,,D01,2016-04-20T16:17:27+06:00,
1000000000156164,77019381417,mKarTel,mKcell,mKcell,,D01,2016-04-20T16:17:27+06:00,
1000000000156164,77019381418,mKarTel,mKcell,mKcell,,D01,2016-04-20T16:17:27+06:00,
1000000000156164,77019381419,mKarTel,mKcell,mKcell,,D01,2016-04-20T16:17:27+06:00,
1000000000156164,77019381421,mKarTel,mKcell,mKcell,,D01,2016-04-20T16:17:27+06:00,
1000000000156164,77019381422,mKarTel,mKcell,mKcell,,D01,2016-04-20T16:17:27+06:00,
1000000000156164,77019381423,mKarTel,mKcell,mKcell,,D01,2016-04-20T16:17:27+06:00,
1000000000156164,77019381425,mKarTel,mKcell,mKcell,,D01,2016-04-20T16:17:27+06:00,
1000000000156164,77019381429,mKarTel,mKcell,mKcell,,D01,2016-04-20T16:17:27+06:00,
1000000000156197,77019381357,mKarTel,mKcell,mKcell,,D01,2016-04-20T16:22:34+06:00,
1000000000156626,77078969646,mKarTel,mMTS,mMTS,,D01,2016-04-20T16:01:07+06:00,
1000000000156629,77087556862,mMTS,mAltel,mAltel,,D77,2016-04-20T16:04:03+06:00,
1000000000156630,77786666589,mMTS,mKcell,mKcell,,D77,2016-04-20T16:05:41+06:00,
1000000000156631,77477431863,mAltel,mMTS,mMTS,,D07,2016-04-20T16:05:02+06:00,
1000000000156633,77785075902,mKarTel,mKcell,mKcell,,D01,2016-04-20T16:08:25+06:00,
1000000000156635,77018519202,mKarTel,mKcell,mKcell,,D01,2016-04-20T16:09:18+06:00,
1000000000156636,77082943005,mKcell,mAltel,mAltel,,D02,2016-04-20T16:09:55+06:00,
1000000000156637,77017314031,mAltel,mKcell,mKcell,,D07,2016-04-20T16:09:46+06:00,
1000000000156638,77013910203,mKcell,mAltel,mKcell,D07,D02,2016-04-20T16:12:44+06:00,
1000000000156639,77085354075,mMTS,mAltel,mAltel,,D77,2016-04-20T16:11:44+06:00,
1000000000156642,77775574524,mKarTel,mMTS,mKarTel,D77,D01,2016-04-20T16:15:15+06:00,
1000000000156643,77087619163,mKarTel,mAltel,mAltel,,D01,2016-04-20T16:15:20+06:00,
1000000000156644,77789708336,mKcell,mMTS,mKcell,D77,D02,2016-04-20T16:16:17+06:00,
1000000000156645,77027517374,mKcell,mMTS,mKcell,D77,D02,2016-04-20T16:18:58+06:00,
1000000000156646,77783005877,mMTS,mKcell,mKcell,,D77,2016-04-20T16:18:04+06:00,
1000000000156647,77755215200,mKarTel,mKcell,mKcell,,D01,2016-04-20T16:18:16+06:00,
1000000000156648,77087097825,mMTS,mAltel,mAltel,,D77,2016-04-20T16:17:58+06:00,
1000000000156649,77077317147,mKarTel,mMTS,mMTS,,D01,2016-04-20T16:19:00+06:00,
1000000000156650,77087574342,mMTS,mAltel,mAltel,,D77,2016-04-20T16:19:21+06:00,
1000000000156651,77053317707,mMTS,mKarTel,mKarTel,,D77,2016-04-20T16:19:57+06:00,
1000000000156653,77018076622,mMTS,mKcell,mKcell,,D77,2016-04-20T16:23:04+06:00,
1000000000156655,77021134154,mKarTel,mKcell,mKcell,,D01,2016-04-20T16:23:39+06:00,
1000000000156656,77770767777,mMTS,mKarTel,mKarTel,,D77,2016-04-20T16:26:18+06:00,
1000000000156657,77713618807,mMTS,mKarTel,mKarTel,,D77,2016-04-20T16:26:26+06:00,
1000000000156658,77081333653,mMTS,mAltel,mAltel,,D77,2016-04-20T16:27:00+06:00,
1000000000156659,77082080718,mMTS,mAltel,mAltel,,D77,2016-04-20T16:27:06+06:00,
1000000000156660,77476323421,mAltel,mMTS,mMTS,,D07,2016-04-20T16:27:52+06:00,
1000000000156662,77768448884,mMTS,mKarTel,mKarTel,,D77,2016-04-20T16:28:27+06:00,
1000000000156663,77005552705,mMTS,mAltel,mAltel,,D77,2016-04-20T16:29:03+06:00,
