NPId,Number,RecipientId,DonorId,RangeHolderId,OldRoute,NewRoute,PortDate,RowCount
1000000000003364,77775607778,mMTS,mKarTel,mKarTel,,D77,2016-01-08T08:01:54+06:00,2
1000000000003365,77051181181,mKcell,mKarTel,mKarTel,,D02,2016-01-08T08:15:34+06:00,
