NPId,Number,RecipientId,DonorId,RangeHolderId,OldRoute,NewRoute,PortDate,RowCount
1000000000159061,77081343176,mMTS,mAltel,mAltel,,D77,2016-04-24T10:39:59+06:00,7
1000000000159062,77013633336,mKarTel,mKcell,mKcell,,D01,2016-04-24T10:40:44+06:00,
1000000000159064,77089028609,mMTS,mAltel,mAltel,,D77,2016-04-24T10:48:58+06:00,
1000000000159065,77089074499,mMTS,mAltel,mAltel,,D77,2016-04-24T10:52:01+06:00,
1000000000159066,77028569947,mMTS,mKcell,mKcell,,D77,2016-04-24T10:52:30+06:00,
1000000000159068,77017406823,mMTS,mKcell,mKcell,,D77,2016-04-24T10:55:58+06:00,
1000000000159069,77475809049,mKarTel,mMTS,mMTS,,D01,2016-04-24T10:59:22+06:00,
