NPId,Number,RecipientId,DonorId,RangeHolderId,OldRoute,NewRoute,PortDate,RowCount
1000000000195951,77474925481,mKcell,mMTS,mMTS,,D02,2016-06-18T18:30:42+06:00,10
1000000000195952,77022273037,mKcell,mAltel,mKcell,D07,D02,2016-06-18T18:36:04+06:00,
1000000000195953,77474925458,mKcell,mMTS,mMTS,,D02,2016-06-18T18:35:16+06:00,
1000000000195954,77089596520,mMTS,mAltel,mAltel,,D77,2016-06-18T18:37:09+06:00,
1000000000195955,77017548213,mMTS,mKcell,mKcell,,D77,2016-06-18T18:37:38+06:00,
1000000000195956,77474925395,mKcell,mMTS,mMTS,,D02,2016-06-18T18:38:44+06:00,
1000000000195957,77711666682,mMTS,mKarTel,mKarTel,,D77,2016-06-18T18:40:28+06:00,
1000000000195958,77474925383,mKcell,mMTS,mMTS,,D02,2016-06-18T18:42:49+06:00,
1000000000195960,77718480213,mKcell,mKarTel,mKarTel,,D02,2016-06-18T18:46:55+06:00,
1000000000195961,77718914999,mKcell,mKarTel,mKarTel,,D02,2016-06-18T18:52:38+06:00,
