NPId,Number,RecipientId,DonorId,RangeHolderId,OldRoute,NewRoute,PortDate,RowCount
1000000000241338,77711808689,mKcell,mKarTel,mKarTel,,D02,2016-09-06T17:31:48+06:00,24
1000000000241339,77027546089,mAltel,mKcell,mKcell,,D07,2016-09-06T17:31:44+06:00,
1000000000241340,77010268114,mKarTel,mMTS,mKcell,D77,D01,2016-09-06T17:33:10+06:00,
1000000000241340,77011019180,mKarTel,mMTS,mKcell,D77,D01,2016-09-06T17:33:10+06:00,
1000000000241340,77017204055,mKarTel,mMTS,mKcell,D77,D01,2016-09-06T17:33:10+06:00,
1000000000241340,77017530953,mKarTel,mMTS,mKcell,D77,D01,2016-09-06T17:33:10+06:00,
1000000000241340,77019511935,mKarTel,mMTS,mKcell,D77,D01,2016-09-06T17:33:10+06:00,
1000000000241340,77022169175,mKarTel,mMTS,mKcell,D77,D01,2016-09-06T17:33:10+06:00,
1000000000241341,77474945705,mKarTel,mMTS,mMTS,,D01,2016-09-06T17:33:20+06:00,
1000000000241342,77757225822,mAltel,mKcell,mKcell,,D07,2016-09-06T17:34:13+06:00,
1000000000241343,77012226685,mMTS,mKcell,mKcell,,D77,2016-09-06T17:38:49+06:00,
1000000000241344,77477908442,mAltel,mMTS,mMTS,,D07,2016-09-06T17:39:02+06:00,
1000000000241345,77776573457,mAltel,mKarTel,mKarTel,,D07,2016-09-06T17:40:18+06:00,
1000000000241347,77751329025,mKcell,mMTS,mKcell,D77,D02,2016-09-06T17:40:38+06:00,
1000000000241348,77755552555,mKarTel,mKcell,mKcell,,D01,2016-09-06T17:44:22+06:00,
1000000000241349,77004272000,mKcell,mAltel,mAltel,,D02,2016-09-06T17:43:06+06:00,
1000000000241350,77070317949,mKarTel,mMTS,mMTS,,D01,2016-09-06T17:43:22+06:00,
1000000000241351,77017738930,mKarTel,mKcell,mKcell,,D01,2016-09-06T17:44:13+06:00,
1000000000241353,77014744343,mKcell,mMTS,mKcell,D77,D02,2016-09-06T17:45:44+06:00,
1000000000241354,77765802299,mKcell,mKarTel,mKarTel,,D02,2016-09-06T17:48:51+06:00,
1000000000241356,77770554488,mKcell,mKarTel,mKarTel,,D02,2016-09-06T17:51:46+06:00,
1000000000241357,77016709871,mKarTel,mKcell,mKcell,,D01,2016-09-06T17:52:58+06:00,
1000000000241360,77052202435,mAltel,mKarTel,mKarTel,,D07,2016-09-06T17:55:00+06:00,
1000000000241363,77758809180,mKcell,mAltel,mKcell,D07,D02,2016-09-06T17:59:51+06:00,
