NPId,Number,RecipientId,DonorId,RangeHolderId,OldRoute,NewRoute,PortDate,RowCount
1000000000235470,77777504149,mAltel,mKarTel,mKarTel,,D07,2016-08-28T16:37:13+06:00,9
1000000000235472,77057115394,mKarTel,mMTS,mKarTel,D77,D01,2016-08-28T16:40:36+06:00,
1000000000235473,77753916008,mMTS,mKcell,mKcell,,D77,2016-08-28T16:40:03+06:00,
1000000000235474,77773658518,mMTS,mKarTel,mKarTel,,D77,2016-08-28T16:41:56+06:00,
1000000000235477,77788949732,mMTS,mKcell,mKcell,,D77,2016-08-28T16:47:29+06:00,
1000000000235478,77058200063,mKcell,mKarTel,mKarTel,,D02,2016-08-28T16:52:55+06:00,
1000000000235480,77011518569,mMTS,mKcell,mKcell,,D77,2016-08-28T16:53:42+06:00,
1000000000235481,77055245239,mMTS,mKarTel,mKarTel,,D77,2016-08-28T16:55:25+06:00,
1000000000235482,77015552340,mAltel,mKcell,mKcell,,D07,2016-08-28T16:57:18+06:00,
