NPId,Number,RecipientId,DonorId,RangeHolderId,OldRoute,NewRoute,PortDate,RowCount
1000000000328705,77000030015,mAltel,mKcell,mAltel,D02,D07,2017-02-14T13:30:27+06:00,11
1000000000328706,77089534827,mAltel,mMTS,mAltel,D77,D07,2017-02-14T13:36:04+06:00,
1000000000328708,77022824048,mMTS,mKcell,mKcell,,D77,2017-02-14T13:39:26+06:00,
1000000000328710,77712020505,mKarTel,mKcell,mKarTel,D02,D01,2017-02-14T13:44:43+06:00,
1000000000328711,77479377067,mAltel,mMTS,mMTS,,D07,2017-02-14T13:45:48+06:00,
1000000000328713,77718344484,mKarTel,mKcell,mKarTel,D02,D01,2017-02-14T13:47:52+06:00,
1000000000328714,77472525058,mKarTel,mMTS,mMTS,,D01,2017-02-14T13:49:01+06:00,
1000000000328719,77055762228,mMTS,mKarTel,mKarTel,,D77,2017-02-14T13:55:43+06:00,
1000000000328720,77754244608,mMTS,mKcell,mKcell,,D77,2017-02-14T13:57:33+06:00,
1000000000328721,77473250848,mAltel,mMTS,mMTS,,D07,2017-02-14T13:58:20+06:00,
1000000000328723,77771672588,mMTS,mKarTel,mKarTel,,D77,2017-02-14T13:59:17+06:00,
