NPId,Number,RecipientId,DonorId,RangeHolderId,OldRoute,NewRoute,PortDate,RowCount
1000000000226508,77058044440,mMTS,mKarTel,mKarTel,,D77,2016-08-09T20:01:30+06:00,3
1000000000226509,77007292777,mKcell,mAltel,mAltel,,D02,2016-08-09T20:06:27+06:00,
1000000000226510,77785603876,mKcell,mMTS,mKcell,D77,D02,2016-08-09T20:19:41+06:00,
