NPId,Number,RecipientId,DonorId,RangeHolderId,OldRoute,NewRoute,PortDate,RowCount
1000000000407216,77027779504,mAltel,mKcell,mKcell,,D07,2017-06-22T10:01:12+06:00,21
1000000000407218,77080957191,mMTS,mAltel,mAltel,,D77,2017-06-22T10:05:27+06:00,
1000000000407219,77017500041,mMTS,mKcell,mKcell,,D77,2017-06-22T10:05:38+06:00,
1000000000407220,77773002310,mKarTel,mMTS,mKarTel,D77,D01,2017-06-22T10:08:38+06:00,
1000000000407221,77075661201,mAltel,mMTS,mMTS,,D07,2017-06-22T10:08:43+06:00,
1000000000407222,77007001060,mKcell,mAltel,mAltel,,D02,2017-06-22T10:10:09+06:00,
1000000000407223,77007001080,mKcell,mAltel,mAltel,,D02,2017-06-22T10:11:06+06:00,
1000000000407224,77016036660,mKcell,mAltel,mKcell,D07,D02,2017-06-22T10:13:19+06:00,
1000000000407225,77013491477,mMTS,mKcell,mKcell,,D77,2017-06-22T10:14:04+06:00,
1000000000407226,77019938820,mKarTel,mKcell,mKcell,,D01,2017-06-22T10:14:33+06:00,
1000000000407228,77774820335,mMTS,mKarTel,mKarTel,,D77,2017-06-22T10:18:19+06:00,
1000000000407229,77774636122,mMTS,mKarTel,mKarTel,,D77,2017-06-22T10:20:08+06:00,
1000000000407230,77004547728,mMTS,mAltel,mAltel,,D77,2017-06-22T10:21:44+06:00,
1000000000407231,77081087938,mAltel,mKarTel,mAltel,D01,D07,2017-06-22T10:22:14+06:00,
1000000000407232,77787766557,mMTS,mKcell,mKcell,,D77,2017-06-22T10:25:16+06:00,
1000000000407233,77075579242,mAltel,mMTS,mMTS,,D07,2017-06-22T10:25:21+06:00,
1000000000407234,77777770008,mKarTel,mKcell,mKarTel,D02,D01,2017-06-22T10:25:45+06:00,
1000000000407235,77007111004,mMTS,mAltel,mAltel,,D77,2017-06-22T10:27:22+06:00,
1000000000407236,77026968990,mAltel,mKcell,mKcell,,D07,2017-06-22T10:27:46+06:00,
1000000000407238,77070454678,mKarTel,mMTS,mMTS,,D01,2017-06-22T10:29:58+06:00,
1000000000407239,77023151641,mAltel,mKcell,mKcell,,D07,2017-06-22T10:29:49+06:00,
