NPId,Number,RecipientId,DonorId,RangeHolderId,OldRoute,NewRoute,PortDate,RowCount
1000000000202091,77017145642,mKarTel,mKcell,mKcell,,D01,2016-06-29T15:34:07+06:00,45
1000000000202091,77017263458,mKarTel,mKcell,mKcell,,D01,2016-06-29T15:34:07+06:00,
1000000000202091,77017449461,mKarTel,mKcell,mKcell,,D01,2016-06-29T15:34:07+06:00,
1000000000202091,77019550039,mKarTel,mKcell,mKcell,,D01,2016-06-29T15:34:07+06:00,
1000000000202091,77019550530,mKarTel,mKcell,mKcell,,D01,2016-06-29T15:34:07+06:00,
1000000000202091,77019550707,mKarTel,mKcell,mKcell,,D01,2016-06-29T15:34:07+06:00,
1000000000202091,77019552211,mKarTel,mKcell,mKcell,,D01,2016-06-29T15:34:07+06:00,
1000000000202091,77019555504,mKarTel,mKcell,mKcell,,D01,2016-06-29T15:34:07+06:00,
1000000000202091,77019555505,mKarTel,mKcell,mKcell,,D01,2016-06-29T15:34:07+06:00,
1000000000202091,77019555580,mKarTel,mKcell,mKcell,,D01,2016-06-29T15:34:07+06:00,
1000000000202091,77019557700,mKarTel,mKcell,mKcell,,D01,2016-06-29T15:34:07+06:00,
1000000000202410,77770059740,mMTS,mKarTel,mKarTel,,D77,2016-06-29T15:30:45+06:00,
1000000000202443,77019977577,mKarTel,mKcell,mKcell,,D01,2016-06-29T15:48:53+06:00,
1000000000202448,77771768174,mMTS,mKarTel,mKarTel,,D77,2016-06-29T15:32:08+06:00,
1000000000202451,77059886498,mMTS,mKarTel,mKarTel,,D77,2016-06-29T15:35:30+06:00,
1000000000202453,77781118001,mMTS,mAltel,mKcell,D07,D77,2016-06-29T15:36:42+06:00,
1000000000202454,77017527538,mKarTel,mKcell,mKcell,,D01,2016-06-29T15:52:23+06:00,
1000000000202456,77017171250,mAltel,mKcell,mKcell,,D07,2016-06-29T15:51:57+06:00,
1000000000202457,77775548818,mMTS,mKarTel,mKarTel,,D77,2016-06-29T15:41:25+06:00,
1000000000202458,77772261313,mMTS,mKarTel,mKarTel,,D77,2016-06-29T15:42:22+06:00,
1000000000202462,77017850209,mKarTel,mKcell,mKcell,,D01,2016-06-29T15:52:18+06:00,
1000000000202464,77770059838,mMTS,mKarTel,mKarTel,,D77,2016-06-29T15:59:36+06:00,
1000000000202465,77086600737,mMTS,mAltel,mAltel,,D77,2016-06-29T15:44:21+06:00,
1000000000202467,77054430899,mAltel,mKarTel,mKarTel,,D07,2016-06-29T15:45:11+06:00,
1000000000202472,77479974259,mKarTel,mMTS,mMTS,,D01,2016-06-29T15:46:21+06:00,
1000000000202475,77000800406,mMTS,mAltel,mAltel,,D77,2016-06-29T15:47:12+06:00,
1000000000202482,77760740404,mAltel,mKarTel,mKarTel,,D07,2016-06-29T15:49:50+06:00,
1000000000202485,77773339955,mKcell,mKarTel,mKarTel,,D02,2016-06-29T15:55:45+06:00,
1000000000202488,77024411997,mMTS,mKcell,mKcell,,D77,2016-06-29T15:54:14+06:00,
1000000000202489,77052220201,mAltel,mKarTel,mKarTel,,D07,2016-06-29T15:51:25+06:00,
1000000000202491,77007777494,mMTS,mAltel,mAltel,,D77,2016-06-29T15:51:19+06:00,
1000000000202493,77051035777,mMTS,mKarTel,mKarTel,,D77,2016-06-29T15:52:03+06:00,
1000000000202494,77774010303,mMTS,mKarTel,mKarTel,,D77,2016-06-29T15:52:03+06:00,
1000000000202497,77771000500,mKarTel,mMTS,mKarTel,D77,D01,2016-06-29T15:52:23+06:00,
1000000000202499,77017668995,mKcell,mKarTel,mKcell,D01,D02,2016-06-29T15:57:11+06:00,
1000000000202500,77015406589,mKcell,mMTS,mKcell,D77,D02,2016-06-29T15:57:11+06:00,
1000000000202501,77719990150,mKcell,mKarTel,mKarTel,,D02,2016-06-29T15:57:12+06:00,
1000000000202509,77052222275,mKcell,mKarTel,mKarTel,,D02,2016-06-29T15:58:29+06:00,
1000000000202510,77017244521,mKcell,mMTS,mKcell,D77,D02,2016-06-29T15:58:30+06:00,
1000000000202511,77055991920,mKcell,mKarTel,mKarTel,,D02,2016-06-29T15:58:29+06:00,
1000000000202513,77025584098,mMTS,mKcell,mKcell,,D77,2016-06-29T15:59:00+06:00,
1000000000202515,77779820744,mMTS,mKarTel,mKarTel,,D77,2016-06-29T15:57:14+06:00,
1000000000202519,77005542277,mMTS,mAltel,mAltel,,D77,2016-06-29T15:58:07+06:00,
1000000000202521,77756407019,mKcell,mAltel,mKcell,D07,D02,2016-06-29T15:59:40+06:00,
1000000000202522,77070490593,mKcell,mMTS,mMTS,,D02,2016-06-29T15:59:41+06:00,
