NPId,Number,RecipientId,DonorId,RangeHolderId,OldRoute,NewRoute,PortDate,RowCount
1000000000342907,77071764313,mKarTel,mMTS,mMTS,,D01,2017-03-07T15:01:15+06:00,23
1000000000342910,77013292962,mKcell,mMTS,mKcell,D77,D02,2017-03-07T15:03:18+06:00,
1000000000342913,77073979784,mAltel,mMTS,mMTS,,D07,2017-03-07T15:06:28+06:00,
1000000000342915,77015220375,mKcell,mKarTel,mKcell,D01,D02,2017-03-07T15:10:22+06:00,
1000000000342916,77789203450,mMTS,mKcell,mKcell,,D77,2017-03-07T15:09:44+06:00,
1000000000342917,77005556907,mKcell,mAltel,mAltel,,D02,2017-03-07T15:10:35+06:00,
1000000000342918,77781743378,mMTS,mKcell,mKcell,,D77,2017-03-07T15:11:25+06:00,
1000000000342919,77005556807,mKcell,mAltel,mAltel,,D02,2017-03-07T15:12:55+06:00,
1000000000342920,77767717178,mKcell,mKarTel,mKarTel,,D02,2017-03-07T15:15:18+06:00,
1000000000342925,77005556407,mKcell,mAltel,mAltel,,D02,2017-03-07T15:16:05+06:00,
1000000000342928,77752595786,mKcell,mMTS,mKcell,D77,D02,2017-03-07T15:20:00+06:00,
1000000000342929,77767717179,mKcell,mKarTel,mKarTel,,D02,2017-03-07T15:20:16+06:00,
1000000000342930,77005554207,mKcell,mAltel,mAltel,,D02,2017-03-07T15:20:00+06:00,
1000000000342931,77005554307,mKcell,mAltel,mAltel,,D02,2017-03-07T15:20:17+06:00,
1000000000342933,77002002585,mKcell,mAltel,mAltel,,D02,2017-03-07T15:20:35+06:00,
1000000000342934,77778837947,mMTS,mKarTel,mKarTel,,D77,2017-03-07T15:21:12+06:00,
1000000000342935,77082703164,mMTS,mAltel,mAltel,,D77,2017-03-07T15:20:56+06:00,
1000000000342942,77052222335,mKcell,mKarTel,mKarTel,,D02,2017-03-07T15:23:38+06:00,
1000000000342945,77024400240,mKarTel,mKcell,mKcell,,D01,2017-03-07T15:25:00+06:00,
1000000000342947,77005554607,mKcell,mAltel,mAltel,,D02,2017-03-07T15:25:01+06:00,
1000000000342950,77005554907,mKcell,mAltel,mAltel,,D02,2017-03-07T15:25:50+06:00,
1000000000342953,77013357253,mKcell,mKarTel,mKcell,D01,D02,2017-03-07T15:26:45+06:00,
1000000000342963,77081479703,mMTS,mAltel,mAltel,,D77,2017-03-07T15:29:39+06:00,
