NPId,Number,RecipientId,DonorId,RangeHolderId,OldRoute,NewRoute,PortDate,RowCount
1000000000208725,77771855519,mMTS,mKarTel,mKarTel,,D77,2016-07-10T12:00:59+06:00,11
1000000000208726,77089898021,mMTS,mAltel,mAltel,,D77,2016-07-10T12:00:49+06:00,
1000000000208727,77477415589,mMTS,mAltel,mMTS,D07,D77,2016-07-10T12:06:21+06:00,
1000000000208728,77071098797,mMTS,mKarTel,mMTS,D01,D77,2016-07-10T12:09:40+06:00,
1000000000208730,77001399880,mMTS,mAltel,mAltel,,D77,2016-07-10T12:12:12+06:00,
1000000000208732,77072225461,mKcell,mMTS,mMTS,,D02,2016-07-10T12:21:43+06:00,
1000000000208735,77075963038,mKcell,mMTS,mMTS,,D02,2016-07-10T12:24:01+06:00,
1000000000208736,77762600009,mMTS,mKarTel,mKarTel,,D77,2016-07-10T12:24:36+06:00,
1000000000208737,77012554797,mKarTel,mKcell,mKcell,,D01,2016-07-10T12:25:15+06:00,
1000000000208738,77750007805,mKarTel,mKcell,mKcell,,D01,2016-07-10T12:28:08+06:00,
1000000000208739,77086742177,mMTS,mAltel,mAltel,,D77,2016-07-10T12:29:57+06:00,
