NPId,Number,RecipientId,DonorId,RangeHolderId,OldRoute,NewRoute,PortDate,RowCount
1000000000365561,77024441034,mAltel,mKcell,mKcell,,D07,2017-04-14T09:31:29+06:00,11
1000000000365562,77075958270,mKcell,mMTS,mMTS,,D02,2017-04-14T09:35:05+06:00,
1000000000365563,77077258200,mAltel,mMTS,mMTS,,D07,2017-04-14T09:35:35+06:00,
1000000000365564,77015689944,mKcell,mMTS,mKcell,D77,D02,2017-04-14T09:39:56+06:00,
1000000000365565,77017310143,mMTS,mKcell,mKcell,,D77,2017-04-14T09:40:08+06:00,
1000000000365567,77754467555,mKcell,mMTS,mKcell,D77,D02,2017-04-14T09:47:43+06:00,
1000000000365568,77079653883,mKarTel,mMTS,mMTS,,D01,2017-04-14T09:52:48+06:00,
1000000000365570,77020110112,mKarTel,mKcell,mKcell,,D01,2017-04-14T09:55:05+06:00,
1000000000365571,77076851283,mKcell,mMTS,mMTS,,D02,2017-04-14T09:54:54+06:00,
1000000000365573,77055076658,mMTS,mKarTel,mKarTel,,D77,2017-04-14T09:55:48+06:00,
1000000000365574,77016414190,mKcell,mAltel,mKcell,D07,D02,2017-04-14T09:57:57+06:00,
