NPId,Number,RecipientId,DonorId,RangeHolderId,OldRoute,NewRoute,PortDate,RowCount
1000000000203593,77002222033,mKcell,mAltel,mAltel,,D02,2016-06-30T19:00:39+06:00,12
1000000000203594,77053410923,mMTS,mKarTel,mKarTel,,D77,2016-06-30T19:01:36+06:00,
1000000000203596,77007587587,mKarTel,mAltel,mAltel,,D01,2016-06-30T19:04:06+06:00,
1000000000203598,77761250707,mKcell,mKarTel,mKarTel,,D02,2016-06-30T19:06:14+06:00,
1000000000203599,77085785785,mKarTel,mAltel,mAltel,,D01,2016-06-30T19:06:47+06:00,
1000000000203600,77053410822,mMTS,mKarTel,mKarTel,,D77,2016-06-30T19:07:31+06:00,
1000000000203604,77758360773,mMTS,mKcell,mKcell,,D77,2016-06-30T19:14:39+06:00,
1000000000203607,77715555666,mKcell,mKarTel,mKarTel,,D02,2016-06-30T19:16:49+06:00,
1000000000203611,77471606040,mAltel,mMTS,mMTS,,D07,2016-06-30T19:25:22+06:00,
1000000000203612,77011363946,mMTS,mKcell,mKcell,,D77,2016-06-30T19:27:48+06:00,
1000000000203613,77014334441,mMTS,mKcell,mKcell,,D77,2016-06-30T19:27:49+06:00,
1000000000203614,77024713051,mKarTel,mKcell,mKcell,,D01,2016-06-30T19:29:48+06:00,
