NPId,Number,RecipientId,DonorId,RangeHolderId,OldRoute,NewRoute,PortDate,RowCount
1000000000256373,77772288337,mKarTel,mAltel,mKarTel,D07,D01,2016-10-04T09:30:36+06:00,12
1000000000256374,77757772392,mKcell,mMTS,mKcell,D77,D02,2016-10-04T09:37:49+06:00,
1000000000256375,77011960464,mAltel,mKcell,mKcell,,D07,2016-10-04T09:38:12+06:00,
1000000000256377,77014982409,mKcell,mKarTel,mKcell,D01,D02,2016-10-04T09:40:38+06:00,
1000000000256378,77771004100,mKcell,mKarTel,mKarTel,,D02,2016-10-04T09:41:30+06:00,
1000000000256379,77079993331,mKcell,mMTS,mMTS,,D02,2016-10-04T09:42:16+06:00,
1000000000256380,77010782888,mKcell,mMTS,mKcell,D77,D02,2016-10-04T09:49:40+06:00,
1000000000256381,77029475967,mKcell,mAltel,mKcell,D07,D02,2016-10-04T09:51:17+06:00,
1000000000256382,77016028111,mKarTel,mKcell,mKcell,,D01,2016-10-04T09:52:20+06:00,
1000000000256383,77071661181,mKcell,mMTS,mMTS,,D02,2016-10-04T09:52:42+06:00,
1000000000256385,77024488999,mKarTel,mKcell,mKcell,,D01,2016-10-04T09:54:01+06:00,
1000000000256387,77015501240,mMTS,mKcell,mKcell,,D77,2016-10-04T09:56:09+06:00,
