NPId,Number,RecipientId,DonorId,RangeHolderId,OldRoute,NewRoute,PortDate,RowCount
1000000000387876,77475139646,mAltel,mMTS,mMTS,,D07,2017-05-23T18:00:13+06:00,23
1000000000387877,77026371986,mKarTel,mAltel,mKcell,D07,D01,2017-05-23T18:00:50+06:00,
1000000000387878,77773886501,mMTS,mKarTel,mKarTel,,D77,2017-05-23T18:02:48+06:00,
1000000000387879,77009631519,mKarTel,mAltel,mAltel,,D01,2017-05-23T18:02:56+06:00,
1000000000387880,77759174419,mKarTel,mKcell,mKcell,,D01,2017-05-23T18:03:17+06:00,
1000000000387881,77475139656,mAltel,mMTS,mMTS,,D07,2017-05-23T18:04:59+06:00,
1000000000387882,77071690097,mAltel,mMTS,mMTS,,D07,2017-05-23T18:05:58+06:00,
1000000000387883,77772835804,mMTS,mKarTel,mKarTel,,D77,2017-05-23T18:06:19+06:00,
1000000000387884,77013010198,mKcell,mMTS,mKcell,D77,D02,2017-05-23T18:06:30+06:00,
1000000000387886,77055001500,mMTS,mKarTel,mKarTel,,D77,2017-05-23T18:08:08+06:00,
1000000000387887,77016222236,mMTS,mKcell,mKcell,,D77,2017-05-23T18:08:48+06:00,
1000000000387888,77754442404,mMTS,mKcell,mKcell,,D77,2017-05-23T18:09:02+06:00,
1000000000387889,77775456444,mKarTel,mMTS,mKarTel,D77,D01,2017-05-23T18:09:30+06:00,
1000000000387890,77073064087,mKcell,mMTS,mMTS,,D02,2017-05-23T18:10:14+06:00,
1000000000387893,77005256458,mMTS,mAltel,mAltel,D07,D77,2017-05-23T18:12:40+06:00,
1000000000387896,77017166002,mMTS,mKcell,mKcell,,D77,2017-05-23T18:14:40+06:00,
1000000000387897,77777799375,mKcell,mKarTel,mKarTel,,D02,2017-05-23T18:15:32+06:00,
1000000000387899,77752041163,mKcell,mMTS,mKcell,D77,D02,2017-05-23T18:18:41+06:00,
1000000000387900,77475373279,mKarTel,mMTS,mMTS,,D01,2017-05-23T18:21:18+06:00,
1000000000387901,77478614610,mKcell,mMTS,mMTS,,D02,2017-05-23T18:22:34+06:00,
1000000000387902,77073647282,mKarTel,mMTS,mMTS,,D01,2017-05-23T18:24:47+06:00,
1000000000387905,77770228884,mAltel,mKarTel,mKarTel,,D07,2017-05-23T18:26:44+06:00,
1000000000387906,77789104388,mAltel,mKcell,mKcell,,D07,2017-05-23T18:27:40+06:00,
