NPId,Number,RecipientId,DonorId,RangeHolderId,OldRoute,NewRoute,PortDate,RowCount
1000000000239336,77017755111,mKarTel,mKcell,mKcell,,D01,2016-09-02T19:01:49+06:00,12
1000000000239337,77771199912,mKarTel,mMTS,mKarTel,D77,D01,2016-09-02T19:02:07+06:00,
1000000000239339,77011100097,mMTS,mKcell,mKcell,,D77,2016-09-02T19:02:08+06:00,
1000000000239340,77770361000,mKcell,mKarTel,mKarTel,,D02,2016-09-02T19:04:09+06:00,
1000000000239343,77076066265,mKcell,mMTS,mMTS,,D02,2016-09-02T19:10:29+06:00,
1000000000239345,77003474780,mKarTel,mAltel,mAltel,,D01,2016-09-02T19:08:54+06:00,
1000000000239346,77772814010,mKcell,mKarTel,mKarTel,,D02,2016-09-02T19:16:06+06:00,
1000000000239351,77019447616,mKcell,mKarTel,mKcell,D01,D02,2016-09-02T19:19:39+06:00,
1000000000239352,77015166462,mKarTel,mKcell,mKcell,,D01,2016-09-02T19:19:27+06:00,
1000000000239353,77017597230,mKarTel,mKcell,mKcell,,D01,2016-09-02T19:21:58+06:00,
1000000000239355,77072421777,mKcell,mMTS,mMTS,,D02,2016-09-02T19:25:13+06:00,
1000000000239356,77762536679,mKarTel,mMTS,mKarTel,D77,D01,2016-09-02T19:26:32+06:00,
