NPId,Number,RecipientId,DonorId,RangeHolderId,OldRoute,NewRoute,PortDate,RowCount
1000000000232161,77051938436,mMTS,mKarTel,mKarTel,,D77,2016-08-21T20:32:53+06:00,4
1000000000232162,77762106437,mMTS,mKarTel,mKarTel,,D77,2016-08-21T20:38:04+06:00,
1000000000232163,77083653017,mMTS,mAltel,mAltel,,D77,2016-08-21T20:52:22+06:00,
1000000000232164,77087080803,mMTS,mAltel,mAltel,,D77,2016-08-21T20:52:22+06:00,
