NPId,Number,RecipientId,DonorId,RangeHolderId,OldRoute,NewRoute,PortDate,RowCount
1000000000162439,77012846965,mKarTel,mKcell,mKcell,,D01,2016-04-28T13:30:20+06:00,27
1000000000162440,77078770900,mKcell,mMTS,mMTS,,D02,2016-04-28T13:30:25+06:00,
1000000000162441,77015450707,mAltel,mKcell,mKcell,,D07,2016-04-28T13:30:11+06:00,
1000000000162443,77760766656,mMTS,mKarTel,mKarTel,,D77,2016-04-28T13:33:16+06:00,
1000000000162444,77019083815,mKarTel,mKcell,mKcell,,D01,2016-04-28T13:34:17+06:00,
1000000000162445,77756688668,mMTS,mKcell,mKcell,,D77,2016-04-28T13:34:00+06:00,
1000000000162446,77019083814,mKarTel,mKcell,mKcell,,D01,2016-04-28T13:34:53+06:00,
1000000000162447,77085170433,mMTS,mAltel,mAltel,,D77,2016-04-28T13:34:30+06:00,
1000000000162449,77077027232,mKcell,mMTS,mMTS,,D02,2016-04-28T13:35:58+06:00,
1000000000162450,77714232919,mMTS,mAltel,mKarTel,D07,D77,2016-04-28T13:36:01+06:00,
1000000000162451,77022699856,mMTS,mKcell,mKcell,,D77,2016-04-28T13:37:01+06:00,
1000000000162452,77753063364,mMTS,mKcell,mKcell,,D77,2016-04-28T13:37:16+06:00,
1000000000162453,77714560656,mMTS,mAltel,mKarTel,D07,D77,2016-04-28T13:37:21+06:00,
1000000000162455,77010892299,mKarTel,mKcell,mKcell,,D01,2016-04-28T13:39:07+06:00,
1000000000162456,77022706333,mAltel,mKcell,mKcell,,D07,2016-04-28T13:39:16+06:00,
1000000000162457,77778096692,mMTS,mKarTel,mKarTel,,D77,2016-04-28T13:40:46+06:00,
1000000000162459,77000001302,mMTS,mAltel,mAltel,,D77,2016-04-28T13:41:24+06:00,
1000000000162461,77023481975,mMTS,mKcell,mKcell,,D77,2016-04-28T13:42:17+06:00,
1000000000162464,77017297335,mAltel,mKcell,mKcell,,D07,2016-04-28T13:45:48+06:00,
1000000000162465,77055670302,mKcell,mKarTel,mKarTel,,D02,2016-04-28T13:46:47+06:00,
1000000000162466,77016168550,mMTS,mKcell,mKcell,,D77,2016-04-28T13:46:12+06:00,
1000000000162467,77767011212,mAltel,mKarTel,mKarTel,,D07,2016-04-28T13:47:19+06:00,
1000000000162471,77012431300,mAltel,mKcell,mKcell,,D07,2016-04-28T13:50:22+06:00,
1000000000162475,77788829911,mMTS,mKcell,mKcell,,D77,2016-04-28T13:52:08+06:00,
1000000000162477,77017643326,mMTS,mKcell,mKcell,,D77,2016-04-28T13:57:29+06:00,
1000000000162478,77087586298,mMTS,mAltel,mAltel,,D77,2016-04-28T13:56:43+06:00,
1000000000162480,77013395400,mMTS,mKcell,mKcell,,D77,2016-04-28T13:59:36+06:00,
