NPId,Number,RecipientId,DonorId,RangeHolderId,OldRoute,NewRoute,PortDate,RowCount
1000000000218990,77017620715,mMTS,mKcell,mKcell,,D77,2016-07-29T10:02:20+06:00,18
1000000000218991,77015518863,mMTS,mAltel,mKcell,D07,D77,2016-07-29T10:02:17+06:00,
1000000000218992,77017287161,mMTS,mKcell,mKcell,,D77,2016-07-29T10:02:20+06:00,
1000000000218993,77773231440,mMTS,mKarTel,mKarTel,,D77,2016-07-29T10:03:38+06:00,
1000000000218994,77771118150,mKcell,mKarTel,mKarTel,,D02,2016-07-29T10:03:47+06:00,
1000000000218995,77014074780,mMTS,mKcell,mKcell,,D77,2016-07-29T10:03:32+06:00,
1000000000218996,77471710604,mAltel,mMTS,mMTS,,D07,2016-07-29T10:04:56+06:00,
1000000000218998,77017283176,mMTS,mKcell,mKcell,,D77,2016-07-29T10:07:02+06:00,
1000000000218999,77077787998,mKarTel,mMTS,mMTS,,D01,2016-07-29T10:09:48+06:00,
1000000000219001,77071403001,mKarTel,mMTS,mMTS,,D01,2016-07-29T10:11:20+06:00,
1000000000219004,77014647613,mKarTel,mKcell,mKcell,,D01,2016-07-29T10:14:37+06:00,
1000000000219006,77053749850,mKarTel,mAltel,mKarTel,D07,D01,2016-07-29T10:19:19+06:00,
1000000000219007,77010556060,mAltel,mKcell,mKcell,,D07,2016-07-29T10:20:30+06:00,
1000000000219008,77758684339,mMTS,mKcell,mKcell,,D77,2016-07-29T10:22:30+06:00,
1000000000219009,77771892950,mMTS,mKarTel,mKarTel,,D77,2016-07-29T10:24:31+06:00,
1000000000219011,77051168646,mMTS,mKarTel,mKarTel,,D77,2016-07-29T10:26:01+06:00,
1000000000219012,77714557713,mKcell,mKarTel,mKarTel,,D02,2016-07-29T10:26:42+06:00,
1000000000219013,77018293291,mMTS,mKcell,mKcell,,D77,2016-07-29T10:25:59+06:00,
