NPId,Number,RecipientId,DonorId,RangeHolderId,OldRoute,NewRoute,PortDate,RowCount
1000000000348261,77071057715,mAltel,mMTS,mMTS,,D07,2017-03-16T19:32:01+06:00,10
1000000000348262,77776883399,mMTS,mKarTel,mKarTel,,D77,2017-03-16T19:33:08+06:00,
1000000000348263,77078566016,mKcell,mMTS,mMTS,,D02,2017-03-16T19:36:14+06:00,
1000000000348264,77011441383,mMTS,mAltel,mKcell,D07,D77,2017-03-16T19:39:29+06:00,
1000000000348265,77017115086,mKcell,mKarTel,mKcell,D01,D02,2017-03-16T19:40:25+06:00,
1000000000348267,77718074626,mKarTel,mMTS,mKarTel,D77,D01,2017-03-16T19:41:23+06:00,
1000000000348268,77011444009,mKcell,mAltel,mKcell,D07,D02,2017-03-16T19:42:39+06:00,
1000000000348269,77751696731,mMTS,mKcell,mKcell,,D77,2017-03-16T19:42:49+06:00,
1000000000348270,77785658787,mAltel,mKcell,mKcell,,D07,2017-03-16T19:46:01+06:00,
1000000000348273,77072492249,mKarTel,mMTS,mMTS,,D01,2017-03-16T19:56:40+06:00,
