NPId,Number,RecipientId,DonorId,RangeHolderId,OldRoute,NewRoute,PortDate,RowCount
1000000000212993,77000007788,mKcell,mAltel,mAltel,,D02,2016-07-18T13:00:46+06:00,20
1000000000212994,77714508064,mMTS,mKarTel,mKarTel,,D77,2016-07-18T13:02:26+06:00,
1000000000212995,77073332433,mKcell,mMTS,mMTS,,D02,2016-07-18T13:09:41+06:00,
1000000000212996,77751460446,mMTS,mKcell,mKcell,,D77,2016-07-18T13:09:06+06:00,
1000000000212997,77055021243,mMTS,mKarTel,mKarTel,,D77,2016-07-18T13:07:41+06:00,
1000000000212998,77017608108,mKarTel,mKcell,mKcell,,D01,2016-07-18T13:09:20+06:00,
1000000000212999,77777091292,mMTS,mKarTel,mKarTel,,D77,2016-07-18T13:08:47+06:00,
1000000000213000,77710800607,mKcell,mKarTel,mKarTel,,D02,2016-07-18T13:11:19+06:00,
1000000000213001,77774380888,mKcell,mKarTel,mKarTel,,D02,2016-07-18T13:12:09+06:00,
1000000000213002,77017183057,mKarTel,mKcell,mKcell,,D01,2016-07-18T13:10:37+06:00,
1000000000213003,77715345103,mMTS,mKarTel,mKarTel,,D77,2016-07-18T13:14:05+06:00,
1000000000213005,77059115588,mMTS,mKarTel,mKarTel,,D77,2016-07-18T13:15:34+06:00,
1000000000213008,77782752777,mMTS,mKcell,mKcell,,D77,2016-07-18T13:20:22+06:00,
1000000000213011,77081181133,mMTS,mAltel,mAltel,,D77,2016-07-18T13:19:12+06:00,
1000000000213012,77755658965,mKarTel,mKcell,mKcell,,D01,2016-07-18T13:21:18+06:00,
1000000000213014,77072022803,mAltel,mMTS,mMTS,,D07,2016-07-18T13:21:17+06:00,
1000000000213015,77025907268,mAltel,mKcell,mKcell,,D07,2016-07-18T13:21:56+06:00,
1000000000213016,77015122200,mKarTel,mKcell,mKcell,,D01,2016-07-18T13:22:46+06:00,
1000000000213018,77759013202,mMTS,mKcell,mKcell,,D77,2016-07-18T13:24:42+06:00,
1000000000213021,77058667546,mAltel,mKarTel,mKarTel,,D07,2016-07-18T13:27:51+06:00,
