NPId,Number,RecipientId,DonorId,RangeHolderId,OldRoute,NewRoute,PortDate,RowCount
1000000000242107,77015192221,mKarTel,mKcell,mKcell,,D01,2016-09-07T18:01:08+06:00,18
1000000000242109,77015192223,mKarTel,mKcell,mKcell,,D01,2016-09-07T18:02:16+06:00,
1000000000242110,77011007845,mKarTel,mKcell,mKcell,,D01,2016-09-07T18:02:42+06:00,
1000000000242111,77015662516,mMTS,mKcell,mKcell,,D77,2016-09-07T18:02:31+06:00,
1000000000242114,77711441333,mMTS,mKarTel,mKarTel,,D77,2016-09-07T18:06:38+06:00,
1000000000242115,77054474016,mMTS,mKarTel,mKarTel,,D77,2016-09-07T18:09:30+06:00,
1000000000242116,77776204515,mKarTel,mKcell,mKarTel,D02,D01,2016-09-07T18:10:00+06:00,
1000000000242117,77072610228,mKarTel,mMTS,mMTS,,D01,2016-09-07T18:10:26+06:00,
1000000000242120,77771091647,mAltel,mKarTel,mKarTel,,D07,2016-09-07T18:11:00+06:00,
1000000000242122,77013586468,mKarTel,mKcell,mKcell,,D01,2016-09-07T18:13:16+06:00,
1000000000242124,77015507256,mKarTel,mKcell,mKcell,,D01,2016-09-07T18:13:51+06:00,
1000000000242126,77073339959,mKcell,mMTS,mMTS,,D02,2016-09-07T18:14:37+06:00,
1000000000242127,77088888893,mMTS,mAltel,mAltel,,D77,2016-09-07T18:15:47+06:00,
1000000000242129,77079967992,mKcell,mKarTel,mMTS,D01,D02,2016-09-07T18:17:45+06:00,
1000000000242131,77029599295,mKarTel,mKcell,mKcell,,D01,2016-09-07T18:23:15+06:00,
1000000000242132,77029069402,mMTS,mKcell,mKcell,,D77,2016-09-07T18:24:13+06:00,
1000000000242134,77021216101,mKcell,mMTS,mKcell,D77,D02,2016-09-07T18:27:31+06:00,
1000000000242136,77019415864,mMTS,mKcell,mKcell,,D77,2016-09-07T18:29:44+06:00,
