NPId,Number,RecipientId,DonorId,RangeHolderId,OldRoute,NewRoute,PortDate,RowCount
1000000000370216,77015188409,mMTS,mKcell,mKcell,,D77,2017-04-22T17:31:09+06:00,25
1000000000370217,77470461941,mKcell,mMTS,mMTS,,D02,2017-04-22T17:32:39+06:00,
1000000000370218,77001777711,mMTS,mAltel,mAltel,,D77,2017-04-22T17:33:23+06:00,
1000000000370219,77017155113,mAltel,mMTS,mKcell,D77,D07,2017-04-22T17:34:14+06:00,
1000000000370220,77017777644,mAltel,mKcell,mKcell,,D07,2017-04-22T17:35:04+06:00,
1000000000370223,77472215596,mKarTel,mMTS,mMTS,,D01,2017-04-22T17:37:09+06:00,
1000000000370224,77775599924,mMTS,mKarTel,mKarTel,,D77,2017-04-22T17:37:18+06:00,
1000000000370225,77057090499,mKcell,mKarTel,mKarTel,,D02,2017-04-22T17:39:15+06:00,
1000000000370227,77773796582,mKcell,mKarTel,mKarTel,,D02,2017-04-22T17:41:05+06:00,
1000000000370229,77760595979,mKcell,mKarTel,mKarTel,,D02,2017-04-22T17:44:45+06:00,
1000000000370230,77771001978,mKarTel,mAltel,mKarTel,D07,D01,2017-04-22T17:44:42+06:00,
1000000000370231,77778272792,mMTS,mKarTel,mKarTel,,D77,2017-04-22T17:47:38+06:00,
1000000000370232,77789032152,mAltel,mKcell,mKcell,,D07,2017-04-22T17:47:31+06:00,
1000000000370233,77774088787,mMTS,mKarTel,mKarTel,,D77,2017-04-22T17:49:29+06:00,
1000000000370235,77783725986,mAltel,mKcell,mKcell,,D07,2017-04-22T17:49:52+06:00,
1000000000370236,77085232881,mKarTel,mMTS,mAltel,D77,D01,2017-04-22T17:50:49+06:00,
1000000000370237,77760205555,mMTS,mKarTel,mKarTel,,D77,2017-04-22T17:51:00+06:00,
1000000000370238,77082323192,mAltel,mMTS,mAltel,D77,D07,2017-04-22T17:51:45+06:00,
1000000000370239,77055894589,mAltel,mKarTel,mKarTel,,D07,2017-04-22T17:52:39+06:00,
1000000000370240,77785055327,mAltel,mKcell,mKcell,,D07,2017-04-22T17:52:27+06:00,
1000000000370241,77473671462,mAltel,mMTS,mMTS,,D07,2017-04-22T17:53:52+06:00,
1000000000370242,77025266211,mKarTel,mKcell,mKcell,,D01,2017-04-22T17:56:16+06:00,
1000000000370243,77754271970,mAltel,mKcell,mKcell,,D07,2017-04-22T17:57:07+06:00,
1000000000370245,77753761208,mMTS,mKcell,mKcell,,D77,2017-04-22T17:57:56+06:00,
1000000000370246,77760969660,mKcell,mKarTel,mKarTel,,D02,2017-04-22T17:59:29+06:00,
