NPId,Number,RecipientId,DonorId,RangeHolderId,OldRoute,NewRoute,PortDate,RowCount
1000000000171072,77019009199,mMTS,mKcell,mKcell,,D77,2016-05-10T16:00:30+06:00,39
1000000000171074,77079334433,mKcell,mMTS,mMTS,,D02,2016-05-10T16:01:48+06:00,
1000000000171075,77052089288,mKarTel,mAltel,mKarTel,D07,D01,2016-05-10T16:01:23+06:00,
1000000000171076,77017884282,mMTS,mAltel,mKcell,D07,D77,2016-05-10T16:01:26+06:00,
1000000000171077,77778301159,mMTS,mKarTel,mKarTel,,D77,2016-05-10T16:02:03+06:00,
1000000000171078,77011858248,mKarTel,mKcell,mKcell,,D01,2016-05-10T16:02:48+06:00,
1000000000171079,77777172707,mMTS,mKarTel,mKarTel,,D77,2016-05-10T16:03:14+06:00,
1000000000171080,77776262323,mKcell,mKarTel,mKarTel,,D02,2016-05-10T16:04:12+06:00,
1000000000171082,77784777777,mKarTel,mKcell,mKcell,,D01,2016-05-10T16:04:28+06:00,
1000000000171083,77083405008,mKcell,mAltel,mAltel,,D02,2016-05-10T16:07:46+06:00,
1000000000171084,77052459999,mMTS,mKarTel,mKarTel,,D77,2016-05-10T16:06:40+06:00,
1000000000171085,77011823779,mMTS,mKcell,mKcell,,D77,2016-05-10T16:08:17+06:00,
1000000000171086,77011118943,mMTS,mKcell,mKcell,,D77,2016-05-10T16:08:45+06:00,
1000000000171087,77755381854,mKcell,mKarTel,mKcell,D01,D02,2016-05-10T16:09:25+06:00,
1000000000171091,77073771446,mAltel,mMTS,mMTS,,D07,2016-05-10T16:08:39+06:00,
1000000000171092,77072226901,mKcell,mAltel,mMTS,D07,D02,2016-05-10T16:09:25+06:00,
1000000000171093,77758252087,mAltel,mKcell,mKcell,,D07,2016-05-10T16:10:12+06:00,
1000000000171096,77085293009,mMTS,mAltel,mAltel,,D77,2016-05-10T16:13:17+06:00,
1000000000171097,77752101959,mKarTel,mKcell,mKcell,,D01,2016-05-10T16:14:18+06:00,
1000000000171098,77025035315,mKcell,mAltel,mKcell,D07,D02,2016-05-10T16:15:18+06:00,
1000000000171099,77085183051,mKarTel,mAltel,mAltel,,D01,2016-05-10T16:14:44+06:00,
1000000000171100,77765177772,mKcell,mKarTel,mKarTel,,D02,2016-05-10T16:16:32+06:00,
1000000000171101,77018944443,mMTS,mKcell,mKcell,,D77,2016-05-10T16:16:24+06:00,
1000000000171103,77014333400,mKarTel,mKcell,mKcell,,D01,2016-05-10T16:18:32+06:00,
1000000000171104,77015345948,mMTS,mKcell,mKcell,,D77,2016-05-10T16:18:21+06:00,
1000000000171105,77071661656,mKarTel,mMTS,mMTS,,D01,2016-05-10T16:18:55+06:00,
1000000000171106,77021110054,mKcell,mAltel,mKcell,D07,D02,2016-05-10T16:19:57+06:00,
1000000000171107,77782357581,mMTS,mKcell,mKcell,,D77,2016-05-10T16:20:04+06:00,
1000000000171108,77075372707,mAltel,mMTS,mMTS,,D07,2016-05-10T16:20:34+06:00,
1000000000171109,77051320888,mMTS,mKarTel,mKarTel,,D77,2016-05-10T16:21:18+06:00,
1000000000171110,77019965346,mMTS,mKcell,mKcell,,D77,2016-05-10T16:22:14+06:00,
1000000000171111,77772315722,mMTS,mKarTel,mKarTel,,D77,2016-05-10T16:22:23+06:00,
1000000000171112,77475412947,mMTS,mAltel,mMTS,D07,D77,2016-05-10T16:22:05+06:00,
1000000000171113,77089149908,mMTS,mAltel,mAltel,,D77,2016-05-10T16:22:09+06:00,
1000000000171115,77080480317,mMTS,mAltel,mAltel,,D77,2016-05-10T16:23:35+06:00,
1000000000171116,77075501100,mKarTel,mMTS,mMTS,,D01,2016-05-10T16:24:30+06:00,
1000000000171117,77071938716,mMTS,mAltel,mMTS,D07,D77,2016-05-10T16:24:21+06:00,
1000000000171118,77015548280,mKcell,mKarTel,mKcell,D01,D02,2016-05-10T16:26:24+06:00,
1000000000171121,77018884359,mMTS,mKcell,mKcell,,D77,2016-05-10T16:29:43+06:00,
