NPId,Number,RecipientId,DonorId,RangeHolderId,OldRoute,NewRoute,PortDate,RowCount
1000000000343940,77053239648,mKcell,mKarTel,mKarTel,,D02,2017-03-09T17:31:05+06:00,16
1000000000343941,77019900933,mMTS,mKcell,mKcell,,D77,2017-03-09T17:31:46+06:00,
1000000000343943,77027033555,mKcell,mMTS,mKcell,D77,D02,2017-03-09T17:34:26+06:00,
1000000000343944,77017762436,mMTS,mKcell,mKcell,,D77,2017-03-09T17:35:22+06:00,
1000000000343947,77001451661,mKcell,mMTS,mAltel,D77,D02,2017-03-09T17:40:11+06:00,
1000000000343950,77760737383,mKcell,mKarTel,mKarTel,,D02,2017-03-09T17:48:52+06:00,
1000000000343951,77760005553,mKcell,mKarTel,mKarTel,,D02,2017-03-09T17:48:58+06:00,
1000000000343953,77789465665,mKarTel,mKcell,mKcell,,D01,2017-03-09T17:50:43+06:00,
1000000000343954,77054048757,mAltel,mKarTel,mKarTel,,D07,2017-03-09T17:51:22+06:00,
1000000000343955,77777061631,mKcell,mKarTel,mKarTel,,D02,2017-03-09T17:51:31+06:00,
1000000000343956,77767519191,mKcell,mKarTel,mKarTel,,D02,2017-03-09T17:51:38+06:00,
1000000000343957,77015228553,mKarTel,mKcell,mKcell,,D01,2017-03-09T17:51:24+06:00,
1000000000343958,77758074022,mAltel,mKcell,mKcell,,D07,2017-03-09T17:53:39+06:00,
1000000000343959,77052376768,mKcell,mKarTel,mKarTel,,D02,2017-03-09T17:55:15+06:00,
1000000000343961,77082000588,mMTS,mKcell,mAltel,D02,D77,2017-03-09T17:58:17+06:00,
1000000000343962,77718888893,mKarTel,mKcell,mKarTel,D02,D01,2017-03-09T17:59:56+06:00,
