NPId,Number,RecipientId,DonorId,RangeHolderId,OldRoute,NewRoute,PortDate,RowCount
1000000000435305,77773525520,mKarTel,mMTS,mKarTel,D77,D01,2017-08-05T13:36:05+06:00,17
1000000000435306,77007601601,mKcell,mAltel,mAltel,,D02,2017-08-05T13:36:22+06:00,
1000000000435307,77014855888,mKarTel,mKcell,mKcell,,D01,2017-08-05T13:37:25+06:00,
1000000000435309,77712087727,mAltel,mKarTel,mKarTel,,D07,2017-08-05T13:39:09+06:00,
1000000000435310,77078797777,mKarTel,mMTS,mMTS,,D01,2017-08-05T13:42:38+06:00,
1000000000435311,77051403889,mKarTel,mMTS,mKarTel,D77,D01,2017-08-05T13:43:46+06:00,
1000000000435312,77770633069,mMTS,mKarTel,mKarTel,,D77,2017-08-05T13:46:07+06:00,
1000000000435313,77078928272,mKcell,mMTS,mMTS,,D02,2017-08-05T13:48:11+06:00,
1000000000435314,77022245103,mKarTel,mKcell,mKcell,,D01,2017-08-05T13:48:17+06:00,
1000000000435315,77075609417,mMTS,mAltel,mMTS,D07,D77,2017-08-05T13:51:04+06:00,
1000000000435316,77081227440,mKarTel,mAltel,mAltel,,D01,2017-08-05T13:51:28+06:00,
1000000000435317,77077813757,mKarTel,mMTS,mMTS,,D01,2017-08-05T13:52:36+06:00,
1000000000435318,77016817555,mKcell,mMTS,mKcell,D77,D02,2017-08-05T13:53:51+06:00,
1000000000435320,77015284844,mAltel,mKcell,mKcell,,D07,2017-08-05T13:55:03+06:00,
1000000000435321,77011664486,mKcell,mAltel,mKcell,D07,D02,2017-08-05T13:56:28+06:00,
1000000000435323,77772364298,mAltel,mKarTel,mKarTel,,D07,2017-08-05T13:58:34+06:00,
1000000000435324,77018563395,mMTS,mKcell,mKcell,,D77,2017-08-05T13:58:53+06:00,
