NPId,Number,RecipientId,DonorId,RangeHolderId,OldRoute,NewRoute,PortDate,RowCount
1000000000163802,77771771117,mKcell,mKarTel,mKarTel,,D02,2016-04-29T19:01:36+06:00,14
1000000000163803,77026486969,mAltel,mKcell,mKcell,,D07,2016-04-29T19:01:33+06:00,
1000000000163804,77004636362,mMTS,mAltel,mAltel,,D77,2016-04-29T19:01:30+06:00,
1000000000163805,77768003137,mMTS,mKarTel,mKarTel,,D77,2016-04-29T19:02:01+06:00,
1000000000163806,77027661515,mMTS,mKcell,mKcell,,D77,2016-04-29T19:03:01+06:00,
1000000000163807,77026165050,mMTS,mKcell,mKcell,,D77,2016-04-29T19:04:04+06:00,
1000000000163808,77021812343,mMTS,mKcell,mKcell,,D77,2016-04-29T19:07:06+06:00,
1000000000163809,77770083004,mAltel,mMTS,mKarTel,D77,D07,2016-04-29T19:09:14+06:00,
1000000000163810,77475551794,mKarTel,mMTS,mMTS,,D01,2016-04-29T19:11:07+06:00,
1000000000163811,77013325422,mMTS,mKcell,mKcell,,D77,2016-04-29T19:12:05+06:00,
1000000000163813,77777302798,mAltel,mKarTel,mKarTel,,D07,2016-04-29T19:16:06+06:00,
1000000000163814,77017950749,mMTS,mKcell,mKcell,,D77,2016-04-29T19:17:52+06:00,
1000000000163816,77022746491,mKarTel,mKcell,mKcell,,D01,2016-04-29T19:23:31+06:00,
1000000000163817,77026762488,mMTS,mKcell,mKcell,,D77,2016-04-29T19:27:27+06:00,
