NPId,Number,RecipientId,DonorId,RangeHolderId,OldRoute,NewRoute,PortDate,RowCount
1000000000320258,77028157070,mMTS,mKcell,mKcell,,D77,2017-02-01T10:49:06+06:00,32
1000000000320818,77012323501,mMTS,mKcell,mKcell,,D77,2017-02-01T10:31:17+06:00,
1000000000320819,77010799901,mMTS,mKcell,mKcell,,D77,2017-02-01T10:31:31+06:00,
1000000000320820,77011431527,mKcell,mKarTel,mKcell,D01,D02,2017-02-01T10:32:38+06:00,
1000000000320821,77021070377,mKcell,mKarTel,mKcell,D01,D02,2017-02-01T10:33:08+06:00,
1000000000320822,77000999010,mKcell,mAltel,mAltel,,D02,2017-02-01T10:33:45+06:00,
1000000000320823,77077517717,mMTS,mKarTel,mMTS,D01,D77,2017-02-01T10:34:58+06:00,
1000000000320827,77057747774,mKcell,mKarTel,mKarTel,,D02,2017-02-01T10:38:40+06:00,
1000000000320828,77776618548,mMTS,mKarTel,mKarTel,,D77,2017-02-01T10:38:42+06:00,
1000000000320830,77074071567,mMTS,mKcell,mMTS,D02,D77,2017-02-01T10:40:15+06:00,
1000000000320831,77003997756,mKcell,mAltel,mAltel,,D02,2017-02-01T10:41:24+06:00,
1000000000320832,77012124721,mMTS,mKcell,mKcell,,D77,2017-02-01T10:41:18+06:00,
1000000000320833,77002732238,mKarTel,mAltel,mAltel,,D01,2017-02-01T10:42:14+06:00,
1000000000320834,77021333072,mMTS,mKcell,mKcell,,D77,2017-02-01T10:42:18+06:00,
1000000000320840,77081686261,mMTS,mKarTel,mAltel,D01,D77,2017-02-01T10:44:57+06:00,
1000000000320841,77770015350,mAltel,mKarTel,mKarTel,,D07,2017-02-01T10:45:04+06:00,
1000000000320844,77471818492,mAltel,mKarTel,mMTS,D01,D07,2017-02-01T10:45:10+06:00,
1000000000320845,77012729106,mAltel,mKcell,mKcell,,D07,2017-02-01T10:45:19+06:00,
1000000000320847,77001606065,mMTS,mKcell,mAltel,D02,D77,2017-02-01T10:45:38+06:00,
1000000000320848,77024358765,mKcell,mKarTel,mKcell,D01,D02,2017-02-01T10:46:25+06:00,
1000000000320849,77786300591,mAltel,mKcell,mKcell,,D07,2017-02-01T10:46:01+06:00,
1000000000320850,77009172989,mMTS,mAltel,mAltel,,D77,2017-02-01T10:46:45+06:00,
1000000000320853,77770983777,mMTS,mKarTel,mKarTel,,D77,2017-02-01T10:48:23+06:00,
1000000000320855,77028120784,mKcell,mKarTel,mKcell,D01,D02,2017-02-01T10:51:31+06:00,
1000000000320856,77751688800,mKarTel,mKcell,mKcell,,D01,2017-02-01T10:58:12+06:00,
1000000000320859,77015390080,mAltel,mKcell,mKcell,,D07,2017-02-01T10:52:05+06:00,
1000000000320860,77013058168,mMTS,mKcell,mKcell,,D77,2017-02-01T10:52:16+06:00,
1000000000320863,77081570070,mAltel,mKcell,mAltel,D02,D07,2017-02-01T10:53:28+06:00,
1000000000320864,77476662749,mAltel,mMTS,mMTS,,D07,2017-02-01T10:53:28+06:00,
1000000000320865,77029299158,mAltel,mKcell,mKcell,,D07,2017-02-01T10:54:21+06:00,
1000000000320870,77015360080,mAltel,mKcell,mKcell,,D07,2017-02-01T10:56:42+06:00,
1000000000320871,77015145202,mAltel,mKcell,mKcell,,D07,2017-02-01T10:59:30+06:00,
