NPId,Number,RecipientId,DonorId,RangeHolderId,OldRoute,NewRoute,PortDate,RowCount
1000000000201754,77753213824,mAltel,mKcell,mKcell,,D07,2016-06-28T17:06:15+06:00,35
1000000000201756,77770059751,mMTS,mKarTel,mKarTel,,D77,2016-06-28T17:01:57+06:00,
1000000000201757,77087643069,mMTS,mAltel,mAltel,,D77,2016-06-28T17:01:33+06:00,
1000000000201758,77770059889,mMTS,mKarTel,mKarTel,,D77,2016-06-28T17:02:34+06:00,
1000000000201759,77770059719,mMTS,mKarTel,mKarTel,,D77,2016-06-28T17:03:35+06:00,
1000000000201761,77776001929,mKarTel,mMTS,mKarTel,D77,D01,2016-06-28T17:05:01+06:00,
1000000000201762,77079888481,mKarTel,mMTS,mMTS,,D01,2016-06-28T17:05:49+06:00,
1000000000201763,77778328755,mMTS,mKarTel,mKarTel,,D77,2016-06-28T17:06:26+06:00,
1000000000201764,77713990001,mKcell,mKarTel,mKarTel,,D02,2016-06-28T17:08:47+06:00,
1000000000201765,77023117165,mKcell,mAltel,mKcell,D07,D02,2016-06-28T17:08:30+06:00,
1000000000201766,77077707007,mKcell,mMTS,mMTS,,D02,2016-06-28T17:08:31+06:00,
1000000000201767,77019913169,mMTS,mKcell,mKcell,,D77,2016-06-28T17:09:40+06:00,
1000000000201768,77058805379,mMTS,mKarTel,mKarTel,,D77,2016-06-28T17:11:08+06:00,
1000000000201770,77017407174,mKarTel,mKcell,mKcell,,D01,2016-06-28T17:14:52+06:00,
1000000000201771,77017626162,mMTS,mKcell,mKcell,,D77,2016-06-28T17:13:52+06:00,
1000000000201774,77025850081,mMTS,mKcell,mKcell,,D77,2016-06-28T17:13:52+06:00,
1000000000201775,77770059899,mMTS,mKarTel,mKarTel,,D77,2016-06-28T17:13:15+06:00,
1000000000201776,77717751760,mMTS,mKarTel,mKarTel,,D77,2016-06-28T17:13:53+06:00,
1000000000201777,77711087991,mMTS,mKarTel,mKarTel,,D77,2016-06-28T17:13:53+06:00,
1000000000201778,77015370159,mKcell,mAltel,mKcell,D07,D02,2016-06-28T17:15:04+06:00,
1000000000201781,77772433408,mKcell,mKarTel,mKarTel,,D02,2016-06-28T17:16:20+06:00,
1000000000201784,77073730178,mKcell,mMTS,mMTS,,D02,2016-06-28T17:17:14+06:00,
1000000000201786,77017257151,mAltel,mMTS,mKcell,D77,D07,2016-06-28T17:16:41+06:00,
1000000000201787,77717751767,mMTS,mKarTel,mKarTel,,D77,2016-06-28T17:17:35+06:00,
1000000000201788,77028650762,mMTS,mKcell,mKcell,,D77,2016-06-28T17:17:23+06:00,
1000000000201791,77717807891,mMTS,mKarTel,mKarTel,,D77,2016-06-28T17:20:27+06:00,
1000000000201795,77770059818,mMTS,mKarTel,mKarTel,,D77,2016-06-28T17:22:19+06:00,
1000000000201796,77019934401,mAltel,mKcell,mKcell,,D07,2016-06-28T17:22:46+06:00,
1000000000201799,77775819755,mMTS,mKarTel,mKarTel,,D77,2016-06-28T17:23:26+06:00,
1000000000201800,77014305558,mKcell,mKarTel,mKcell,D01,D02,2016-06-28T17:25:05+06:00,
1000000000201802,77085121995,mMTS,mAltel,mAltel,,D77,2016-06-28T17:23:26+06:00,
1000000000201805,77027046470,mMTS,mKcell,mKcell,,D77,2016-06-28T17:25:03+06:00,
1000000000201807,77770059865,mMTS,mKarTel,mKarTel,,D77,2016-06-28T17:25:45+06:00,
1000000000201810,77770059721,mMTS,mKarTel,mKarTel,,D77,2016-06-28T17:26:56+06:00,
1000000000201814,77773507777,mKcell,mKarTel,mKarTel,,D02,2016-06-28T17:29:31+06:00,
