NPId,Number,RecipientId,DonorId,RangeHolderId,OldRoute,NewRoute,PortDate,RowCount
1000000000351116,77013618816,mKcell,mMTS,mKcell,D77,D02,2017-03-23T15:00:56+06:00,17
1000000000351117,77019581667,mAltel,mKcell,mKcell,,D07,2017-03-23T15:01:15+06:00,
1000000000351120,77478383077,mKcell,mMTS,mMTS,,D02,2017-03-23T15:05:45+06:00,
1000000000351121,77075272077,mAltel,mMTS,mMTS,,D07,2017-03-23T15:06:21+06:00,
1000000000351122,77023999005,mAltel,mKcell,mKcell,,D07,2017-03-23T15:06:35+06:00,
1000000000351123,77089031998,mMTS,mAltel,mAltel,,D77,2017-03-23T15:07:39+06:00,
1000000000351124,77779906464,mAltel,mKarTel,mKarTel,,D07,2017-03-23T15:08:56+06:00,
1000000000351126,77023337070,mMTS,mKcell,mKcell,,D77,2017-03-23T15:11:13+06:00,
1000000000351128,77075350588,mKarTel,mMTS,mMTS,,D01,2017-03-23T15:15:02+06:00,
1000000000351130,77027807275,mMTS,mKcell,mKcell,,D77,2017-03-23T15:20:58+06:00,
1000000000351131,77017472419,mKarTel,mKcell,mKcell,,D01,2017-03-23T15:21:27+06:00,
1000000000351132,77026168052,mMTS,mKcell,mKcell,,D77,2017-03-23T15:22:52+06:00,
1000000000351133,77072229621,mKarTel,mMTS,mMTS,,D01,2017-03-23T15:23:04+06:00,
1000000000351134,77788300333,mKarTel,mKcell,mKcell,D02,D01,2017-03-23T15:24:16+06:00,
1000000000351135,77026665645,mKarTel,mMTS,mKcell,D77,D01,2017-03-23T15:24:39+06:00,
1000000000351136,77777844351,mKarTel,mMTS,mKarTel,D77,D01,2017-03-23T15:25:41+06:00,
1000000000351137,77015211429,mKarTel,mKcell,mKcell,,D01,2017-03-23T15:26:25+06:00,
