NPId,Number,RecipientId,DonorId,RangeHolderId,OldRoute,NewRoute,PortDate,RowCount
1000000000274041,77001001987,mKcell,mAltel,mAltel,,D02,2016-11-04T15:03:00+06:00,19
1000000000274042,77002001987,mKcell,mAltel,mAltel,,D02,2016-11-04T15:06:07+06:00,
1000000000274043,77059143314,mMTS,mKarTel,mKarTel,,D77,2016-11-04T15:07:08+06:00,
1000000000274044,77057357700,mKarTel,mKcell,mKarTel,D02,D01,2016-11-04T15:07:06+06:00,
1000000000274046,77751073050,mMTS,mKcell,mKcell,,D77,2016-11-04T15:11:37+06:00,
1000000000274047,77758954555,mMTS,mKcell,mKcell,,D77,2016-11-04T15:13:22+06:00,
1000000000274048,77057685080,mMTS,mKarTel,mKarTel,,D77,2016-11-04T15:15:11+06:00,
1000000000274049,77053203700,mAltel,mKarTel,mKarTel,,D07,2016-11-04T15:16:50+06:00,
1000000000274051,77788881311,mAltel,mKcell,mKcell,,D07,2016-11-04T15:16:55+06:00,
1000000000274052,77015431295,mMTS,mKcell,mKcell,,D77,2016-11-04T15:17:36+06:00,
1000000000274053,77479587788,mKarTel,mMTS,mMTS,,D01,2016-11-04T15:21:07+06:00,
1000000000274054,77019041041,mKcell,mMTS,mKcell,D77,D02,2016-11-04T15:21:29+06:00,
1000000000274056,77075165517,mKcell,mMTS,mMTS,,D02,2016-11-04T15:22:14+06:00,
1000000000274057,77013792102,mMTS,mKcell,mKcell,,D77,2016-11-04T15:22:39+06:00,
1000000000274058,77059868681,mMTS,mKarTel,mKarTel,,D77,2016-11-04T15:23:04+06:00,
1000000000274060,77015567888,mKarTel,mKcell,mKcell,,D01,2016-11-04T15:24:41+06:00,
1000000000274062,77029699056,mMTS,mKcell,mKcell,,D77,2016-11-04T15:26:50+06:00,
1000000000274064,77013019070,mMTS,mKcell,mKcell,,D77,2016-11-04T15:28:15+06:00,
1000000000274066,77754003918,mKcell,mAltel,mKcell,D07,D02,2016-11-04T15:29:19+06:00,
