NPId,Number,RecipientId,DonorId,RangeHolderId,OldRoute,NewRoute,PortDate,RowCount
1000000000406220,77073545383,mMTS,mKarTel,mMTS,D01,D77,2017-06-20T15:28:05+06:00,20
1000000000406291,77775000888,mKarTel,mKcell,mKarTel,D02,D01,2017-06-20T15:00:59+06:00,
1000000000406292,77007000840,mKcell,mAltel,mAltel,,D02,2017-06-20T15:01:19+06:00,
1000000000406295,77759578757,mMTS,mKcell,mKcell,,D77,2017-06-20T15:03:37+06:00,
1000000000406296,77007000680,mKcell,mAltel,mAltel,,D02,2017-06-20T15:04:20+06:00,
1000000000406297,77056698666,mMTS,mKarTel,mKarTel,,D77,2017-06-20T15:06:51+06:00,
1000000000406299,77476662993,mKarTel,mMTS,mMTS,D77,D01,2017-06-20T15:06:56+06:00,
1000000000406301,77072707092,mAltel,mMTS,mMTS,,D07,2017-06-20T15:08:45+06:00,
1000000000406303,77007000620,mKcell,mAltel,mAltel,,D02,2017-06-20T15:10:09+06:00,
1000000000406306,77007000820,mKcell,mAltel,mAltel,,D02,2017-06-20T15:12:33+06:00,
1000000000406308,77777872222,mKcell,mKarTel,mKarTel,,D02,2017-06-20T15:15:47+06:00,
1000000000406309,77001414204,mMTS,mAltel,mAltel,,D77,2017-06-20T15:16:40+06:00,
1000000000406310,77777010305,mAltel,mKarTel,mKarTel,,D07,2017-06-20T15:17:21+06:00,
1000000000406311,77077500056,mKcell,mMTS,mMTS,,D02,2017-06-20T15:19:19+06:00,
1000000000406312,77015646732,mKcell,mMTS,mKcell,D77,D02,2017-06-20T15:21:06+06:00,
1000000000406313,77778975096,mMTS,mKarTel,mKarTel,,D77,2017-06-20T15:23:28+06:00,
1000000000406314,77771308833,mMTS,mKarTel,mKarTel,,D77,2017-06-20T15:24:44+06:00,
1000000000406317,77003553935,mMTS,mAltel,mAltel,,D77,2017-06-20T15:26:12+06:00,
1000000000406318,77007000640,mKcell,mAltel,mAltel,,D02,2017-06-20T15:26:49+06:00,
1000000000406320,77014208806,mMTS,mKcell,mKcell,,D77,2017-06-20T15:29:07+06:00,
