NPId,Number,RecipientId,DonorId,RangeHolderId,OldRoute,NewRoute,PortDate,RowCount
1000000000127488,77775165535,mAltel,mKarTel,mKarTel,,D07,2016-03-17T13:01:21+06:00,28
1000000000127493,77788828124,mAltel,mKcell,mKcell,,D07,2016-03-17T13:02:52+06:00,
1000000000127494,77763343744,mKcell,mKarTel,mKarTel,,D02,2016-03-17T13:04:03+06:00,
1000000000127495,77012227008,mMTS,mKcell,mKcell,,D77,2016-03-17T13:03:13+06:00,
1000000000127497,77018883222,mKarTel,mKcell,mKcell,,D01,2016-03-17T13:05:55+06:00,
1000000000127502,77718525552,mKcell,mKarTel,mKarTel,,D02,2016-03-17T13:10:45+06:00,
1000000000127503,77015710645,mMTS,mKcell,mKcell,,D77,2016-03-17T13:09:46+06:00,
1000000000127504,77021888889,mKarTel,mKcell,mKcell,,D01,2016-03-17T13:10:58+06:00,
1000000000127505,77762303336,mMTS,mKarTel,mKarTel,,D77,2016-03-17T13:11:25+06:00,
1000000000127506,77752479273,mMTS,mKcell,mKcell,,D77,2016-03-17T13:10:48+06:00,
1000000000127507,77474905077,mMTS,mAltel,mMTS,D07,D77,2016-03-17T13:10:37+06:00,
1000000000127508,77771178789,mKarTel,mAltel,mKarTel,D07,D01,2016-03-17T13:10:59+06:00,
1000000000127509,77778062205,mMTS,mKarTel,mKarTel,,D77,2016-03-17T13:12:11+06:00,
1000000000127510,77058464646,mKarTel,mAltel,mKarTel,D07,D01,2016-03-17T13:12:34+06:00,
1000000000127514,77766241661,mMTS,mKarTel,mKarTel,,D77,2016-03-17T13:15:42+06:00,
1000000000127515,77027983234,mMTS,mKcell,mKcell,,D77,2016-03-17T13:15:50+06:00,
1000000000127516,77783820334,mMTS,mKcell,mKcell,,D77,2016-03-17T13:17:30+06:00,
1000000000127517,77012233901,mKcell,mAltel,mKcell,D07,D02,2016-03-17T13:17:40+06:00,
1000000000127518,77777666844,mAltel,mKarTel,mKarTel,,D07,2016-03-17T13:18:25+06:00,
1000000000127519,77054430512,mMTS,mKarTel,mKarTel,,D77,2016-03-17T13:19:13+06:00,
1000000000127520,77752479274,mMTS,mKcell,mKcell,,D77,2016-03-17T13:19:10+06:00,
1000000000127522,77071115128,mKcell,mMTS,mMTS,,D02,2016-03-17T13:21:50+06:00,
1000000000127524,77071237812,mAltel,mMTS,mMTS,,D07,2016-03-17T13:21:31+06:00,
1000000000127525,77014720747,mAltel,mKcell,mKcell,,D07,2016-03-17T13:22:01+06:00,
1000000000127527,77784071803,mKcell,mAltel,mKcell,D07,D02,2016-03-17T13:24:10+06:00,
1000000000127528,77017602735,mMTS,mKcell,mKcell,,D77,2016-03-17T13:24:18+06:00,
1000000000127530,77057304306,mAltel,mKarTel,mKarTel,,D07,2016-03-17T13:27:43+06:00,
1000000000127531,77754771560,mMTS,mKcell,mKcell,,D77,2016-03-17T13:27:21+06:00,
