NPId,Number,RecipientId,DonorId,RangeHolderId,OldRoute,NewRoute,PortDate,RowCount
1000000000341070,77015209168,mKarTel,mKcell,mKcell,,D01,2017-03-04T18:32:38+06:00,11
1000000000341072,77007452548,mKcell,mAltel,mAltel,,D02,2017-03-04T18:37:24+06:00,
1000000000341073,77054445556,mKcell,mKarTel,mKarTel,,D02,2017-03-04T18:38:31+06:00,
1000000000341074,77053866975,mKarTel,mMTS,mKarTel,D77,D01,2017-03-04T18:38:54+06:00,
1000000000341075,77756154463,mAltel,mKcell,mKcell,,D07,2017-03-04T18:39:26+06:00,
1000000000341076,77015599776,mMTS,mKcell,mKcell,,D77,2017-03-04T18:40:17+06:00,
1000000000341079,77019777777,mKarTel,mKcell,mKcell,,D01,2017-03-04T18:50:19+06:00,
1000000000341080,77016302222,mKarTel,mKcell,mKcell,,D01,2017-03-04T18:50:48+06:00,
1000000000341081,77777583509,mMTS,mKarTel,mKarTel,,D77,2017-03-04T18:53:07+06:00,
1000000000341082,77015211859,mKarTel,mKcell,mKcell,,D01,2017-03-04T18:57:19+06:00,
1000000000341083,77028827656,mKarTel,mKcell,mKcell,,D01,2017-03-04T18:58:09+06:00,
