NPId,Number,RecipientId,DonorId,RangeHolderId,OldRoute,NewRoute,PortDate,RowCount
1000000000192074,77057751728,mKcell,mKarTel,mKarTel,,D02,2016-06-11T20:11:15+06:00,2
1000000000192075,77753273070,mKarTel,mKcell,mKcell,,D01,2016-06-11T20:28:40+06:00,
