NPId,Number,RecipientId,DonorId,RangeHolderId,OldRoute,NewRoute,PortDate,RowCount
1000000000311728,77000888623,mKcell,mAltel,mAltel,,D02,2017-01-17T09:05:19+06:00,5
1000000000311729,77000888619,mKcell,mAltel,mAltel,,D02,2017-01-17T09:05:12+06:00,
1000000000311730,77000888643,mKcell,mAltel,mAltel,,D02,2017-01-17T09:05:59+06:00,
1000000000311732,77015575521,mKarTel,mKcell,mKcell,,D01,2017-01-17T09:15:33+06:00,
1000000000311733,77089600277,mMTS,mAltel,mAltel,,D77,2017-01-17T09:22:44+06:00,
