NPId,Number,RecipientId,DonorId,RangeHolderId,OldRoute,NewRoute,PortDate,RowCount
1000000000219872,77075251323,mAltel,mMTS,mMTS,,D07,2016-07-30T13:00:14+06:00,23
1000000000219874,77772171717,mMTS,mKarTel,mKarTel,D01,D77,2016-07-30T13:02:35+06:00,
1000000000219877,77052612020,mMTS,mKarTel,mKarTel,,D77,2016-07-30T13:06:49+06:00,
1000000000219878,77073884363,mAltel,mMTS,mMTS,,D07,2016-07-30T13:05:55+06:00,
1000000000219879,77773354399,mMTS,mKarTel,mKarTel,,D77,2016-07-30T13:08:04+06:00,
1000000000219880,77759024431,mAltel,mKcell,mKcell,,D07,2016-07-30T13:09:08+06:00,
1000000000219881,77015888831,mAltel,mKcell,mKcell,,D07,2016-07-30T13:12:12+06:00,
1000000000219882,77058055689,mMTS,mKarTel,mKarTel,,D77,2016-07-30T13:13:48+06:00,
1000000000219883,77077774319,mKcell,mMTS,mMTS,,D02,2016-07-30T13:12:31+06:00,
1000000000219884,77074711157,mKarTel,mMTS,mMTS,,D01,2016-07-30T13:12:54+06:00,
1000000000219885,77015580000,mAltel,mKcell,mKcell,,D07,2016-07-30T13:12:58+06:00,
1000000000219887,77026696600,mMTS,mKcell,mKcell,,D77,2016-07-30T13:15:00+06:00,
1000000000219889,77781678288,mKarTel,mKcell,mKcell,,D01,2016-07-30T13:17:01+06:00,
1000000000219891,77779830007,mAltel,mKarTel,mKarTel,,D07,2016-07-30T13:20:31+06:00,
1000000000219892,77080770037,mMTS,mAltel,mAltel,,D77,2016-07-30T13:19:32+06:00,
1000000000219893,77029995808,mKarTel,mKcell,mKcell,,D01,2016-07-30T13:21:03+06:00,
1000000000219894,77081690225,mMTS,mAltel,mAltel,,D77,2016-07-30T13:21:43+06:00,
1000000000219895,77015124426,mKarTel,mKcell,mKcell,,D01,2016-07-30T13:22:41+06:00,
1000000000219897,77028652998,mMTS,mKcell,mKcell,,D77,2016-07-30T13:22:21+06:00,
1000000000219900,77474270164,mKarTel,mMTS,mMTS,,D01,2016-07-30T13:26:32+06:00,
1000000000219903,77024119022,mKcell,mKarTel,mKcell,D01,D02,2016-07-30T13:29:06+06:00,
1000000000219904,77075707998,mKarTel,mMTS,mMTS,,D01,2016-07-30T13:29:35+06:00,
1000000000219905,77018727273,mMTS,mKcell,mKcell,,D77,2016-07-30T13:29:52+06:00,
