NPId,Number,RecipientId,DonorId,RangeHolderId,OldRoute,NewRoute,PortDate,RowCount
1000000000136793,77016144334,mMTS,mKcell,mKcell,,D77,2016-03-29T18:00:07+06:00,24
1000000000136794,77754323103,mMTS,mKcell,mKcell,,D77,2016-03-29T18:00:53+06:00,
1000000000136795,77773040088,mMTS,mKarTel,mKarTel,,D77,2016-03-29T18:02:30+06:00,
1000000000136796,77015159456,mMTS,mKcell,mKcell,,D77,2016-03-29T18:04:00+06:00,
1000000000136797,77011814030,mMTS,mKcell,mKcell,,D77,2016-03-29T18:04:32+06:00,
1000000000136798,77762000909,mAltel,mKarTel,mKarTel,,D07,2016-03-29T18:06:56+06:00,
1000000000136799,77001111985,mKcell,mAltel,mAltel,,D02,2016-03-29T18:06:40+06:00,
1000000000136800,77055027296,mMTS,mKarTel,mKarTel,,D77,2016-03-29T18:07:21+06:00,
1000000000136801,77011889901,mMTS,mKcell,mKcell,,D77,2016-03-29T18:06:45+06:00,
1000000000136803,77475000096,mMTS,mAltel,mMTS,D07,D77,2016-03-29T18:07:52+06:00,
1000000000136804,77019999386,mAltel,mKcell,mKcell,,D07,2016-03-29T18:10:57+06:00,
1000000000136805,77772722240,mAltel,mKarTel,mKarTel,,D07,2016-03-29T18:13:34+06:00,
1000000000136806,77081037049,mMTS,mAltel,mAltel,,D77,2016-03-29T18:12:24+06:00,
1000000000136807,77027766702,mKarTel,mKcell,mKcell,,D01,2016-03-29T18:13:31+06:00,
1000000000136808,77015759696,mAltel,mKcell,mKcell,,D07,2016-03-29T18:13:54+06:00,
1000000000136809,77080300000,mMTS,mAltel,mAltel,,D77,2016-03-29T18:13:42+06:00,
1000000000136810,77755510006,mMTS,mKcell,mKcell,,D77,2016-03-29T18:14:06+06:00,
1000000000136812,77081080853,mMTS,mAltel,mAltel,,D77,2016-03-29T18:15:13+06:00,
1000000000136813,77024981070,mAltel,mKcell,mKcell,,D07,2016-03-29T18:15:55+06:00,
1000000000136816,77017124201,mKarTel,mKcell,mKcell,,D01,2016-03-29T18:20:05+06:00,
1000000000136817,77071185560,mKcell,mMTS,mMTS,,D02,2016-03-29T18:19:53+06:00,
1000000000136818,77759988899,mMTS,mKcell,mKcell,,D77,2016-03-29T18:21:03+06:00,
1000000000136820,77018965687,mMTS,mKcell,mKcell,,D77,2016-03-29T18:27:19+06:00,
1000000000136821,77011598844,mKcell,mAltel,mKcell,D07,D02,2016-03-29T18:29:13+06:00,
