NPId,Number,RecipientId,DonorId,RangeHolderId,OldRoute,NewRoute,PortDate,RowCount
1000000000241797,77710506444,mMTS,mKarTel,mKarTel,,D77,2016-09-07T14:01:12+06:00,17
1000000000241800,77754684850,mMTS,mKcell,mKcell,,D77,2016-09-07T14:03:19+06:00,
1000000000241801,77055595050,mMTS,mKarTel,mKarTel,,D77,2016-09-07T14:04:28+06:00,
1000000000241802,77076616767,mKarTel,mMTS,mMTS,,D01,2016-09-07T14:04:17+06:00,
1000000000241804,77770120100,mKarTel,mMTS,mKarTel,D77,D01,2016-09-07T14:06:07+06:00,
1000000000241807,77021918358,mMTS,mKcell,mKcell,,D77,2016-09-07T14:10:25+06:00,
1000000000241808,77772767110,mAltel,mKarTel,mKarTel,,D07,2016-09-07T14:12:46+06:00,
1000000000241811,77058709868,mMTS,mKarTel,mKarTel,,D77,2016-09-07T14:17:42+06:00,
1000000000241813,77717777018,mKcell,mKarTel,mKarTel,,D02,2016-09-07T14:19:48+06:00,
1000000000241814,77078387711,mKarTel,mMTS,mMTS,,D01,2016-09-07T14:22:15+06:00,
1000000000241815,77081001404,mKcell,mMTS,mAltel,D77,D02,2016-09-07T14:24:31+06:00,
1000000000241816,77058880458,mAltel,mKarTel,mKarTel,,D07,2016-09-07T14:24:56+06:00,
1000000000241817,77028812026,mMTS,mKcell,mKcell,,D77,2016-09-07T14:25:52+06:00,
1000000000241818,77004461640,mMTS,mAltel,mAltel,,D77,2016-09-07T14:27:05+06:00,
1000000000241819,77770373737,mKarTel,mAltel,mKarTel,D07,D01,2016-09-07T14:28:14+06:00,
1000000000241820,77474704041,mKarTel,mMTS,mMTS,,D01,2016-09-07T14:29:04+06:00,
1000000000241821,77789893517,mMTS,mKcell,mKcell,,D77,2016-09-07T14:29:52+06:00,
