NPId,Number,RecipientId,DonorId,RangeHolderId,OldRoute,NewRoute,PortDate,RowCount
1000000000254107,77055555542,mKcell,mKarTel,mKarTel,D01,D02,2016-10-17T13:30:55+06:00,10
1000000000263565,77755570013,mMTS,mKcell,mKcell,,D77,2016-10-17T13:32:01+06:00,
1000000000263566,77014402104,mKarTel,mKcell,mKcell,,D01,2016-10-17T13:30:30+06:00,
1000000000263567,77763112222,mKarTel,mMTS,mKarTel,D77,D01,2016-10-17T13:31:29+06:00,
1000000000263568,77028577474,mMTS,mKcell,mKcell,,D77,2016-10-17T13:32:35+06:00,
1000000000263569,77025201234,mKarTel,mKcell,mKcell,,D01,2016-10-17T13:33:43+06:00,
1000000000263571,77777407777,mKcell,mKarTel,mKarTel,,D02,2016-10-17T13:35:48+06:00,
1000000000263573,77017776006,mMTS,mKcell,mKcell,,D77,2016-10-17T13:42:45+06:00,
1000000000263574,77019747007,mAltel,mKcell,mKcell,,D07,2016-10-17T13:43:27+06:00,
1000000000263578,77016089487,mMTS,mKcell,mKcell,,D77,2016-10-17T13:49:31+06:00,
