NPId,Number,RecipientId,DonorId,RangeHolderId,OldRoute,NewRoute,PortDate,RowCount
1000000000295347,77029620086,mMTS,mKcell,mKcell,,D77,2016-12-14T18:00:05+06:00,18
1000000000295348,77001995362,mKcell,mAltel,mAltel,,D02,2016-12-14T18:00:43+06:00,
1000000000295349,77004340101,mKcell,mAltel,mAltel,,D02,2016-12-14T18:01:41+06:00,
1000000000295350,77789003395,mKcell,mAltel,mKcell,D07,D02,2016-12-14T18:02:44+06:00,
1000000000295351,77755236515,mMTS,mKcell,mKcell,,D77,2016-12-14T18:02:42+06:00,
1000000000295352,77788929634,mMTS,mKcell,mKcell,,D77,2016-12-14T18:03:40+06:00,
1000000000295353,77012016227,mKarTel,mKcell,mKcell,,D01,2016-12-14T18:05:12+06:00,
1000000000295354,77771110356,mKcell,mKarTel,mKarTel,,D02,2016-12-14T18:05:25+06:00,
1000000000295356,77777111111,mKcell,mKarTel,mKarTel,,D02,2016-12-14T18:06:45+06:00,
1000000000295359,77012660299,mAltel,mKcell,mKcell,,D07,2016-12-14T18:10:05+06:00,
1000000000295361,77775339978,mKcell,mKarTel,mKarTel,,D02,2016-12-14T18:26:48+06:00,
1000000000295363,77777900111,mKcell,mKarTel,mKarTel,,D02,2016-12-14T18:12:58+06:00,
1000000000295364,77026382888,mMTS,mKcell,mKcell,,D77,2016-12-14T18:13:21+06:00,
1000000000295365,77010676666,mMTS,mKcell,mKcell,,D77,2016-12-14T18:13:35+06:00,
1000000000295366,77024829231,mKarTel,mKcell,mKcell,,D01,2016-12-14T18:17:07+06:00,
1000000000295368,77015582992,mMTS,mKcell,mKcell,,D77,2016-12-14T18:20:05+06:00,
1000000000295369,77775533854,mMTS,mKarTel,mKarTel,,D77,2016-12-14T18:25:05+06:00,
1000000000295370,77786192951,mMTS,mKcell,mKcell,,D77,2016-12-14T18:27:41+06:00,
