NPId,Number,RecipientId,DonorId,RangeHolderId,OldRoute,NewRoute,PortDate,RowCount
1000000000306052,77072315225,mKarTel,mMTS,mMTS,,D01,2017-01-05T16:30:27+06:00,29
1000000000306053,77012527657,mKcell,mAltel,mKcell,D07,D02,2017-01-05T16:31:19+06:00,
1000000000306054,77757575461,mKarTel,mKcell,mKcell,,D01,2017-01-05T16:32:03+06:00,
1000000000306055,77012060357,mAltel,mKcell,mKcell,,D07,2017-01-05T16:31:56+06:00,
1000000000306056,77714105144,mMTS,mAltel,mKarTel,D07,D77,2017-01-05T16:32:23+06:00,
1000000000306057,77022099010,mKcell,mMTS,mKcell,D77,D02,2017-01-05T16:33:02+06:00,
1000000000306058,77758098989,mAltel,mMTS,mKcell,D77,D07,2017-01-05T16:32:50+06:00,
1000000000306059,77017642346,mKcell,mKarTel,mKcell,D01,D02,2017-01-05T16:38:10+06:00,
1000000000306060,77022668822,mMTS,mKcell,mKcell,,D77,2017-01-05T16:38:10+06:00,
1000000000306062,77780008895,mKarTel,mKcell,mKcell,,D01,2017-01-05T16:37:53+06:00,
1000000000306065,77017473766,mMTS,mKcell,mKcell,,D77,2017-01-05T16:38:24+06:00,
1000000000306066,77762211444,mKcell,mKarTel,mKarTel,,D02,2017-01-05T16:41:29+06:00,
1000000000306067,77007008007,mKcell,mAltel,mAltel,,D02,2017-01-05T16:39:30+06:00,
1000000000306068,77002255999,mKarTel,mAltel,mAltel,,D01,2017-01-05T16:39:39+06:00,
1000000000306070,77075687575,mAltel,mMTS,mMTS,,D07,2017-01-05T16:40:55+06:00,
1000000000306072,77056783322,mKcell,mMTS,mKarTel,D77,D02,2017-01-05T16:44:09+06:00,
1000000000306073,77784087070,mMTS,mKcell,mKcell,,D77,2017-01-05T16:44:09+06:00,
1000000000306074,77025398100,mMTS,mKarTel,mKcell,D01,D77,2017-01-05T16:44:57+06:00,
1000000000306075,77013227696,mKcell,mAltel,mKcell,D07,D02,2017-01-05T16:44:58+06:00,
1000000000306076,77015873258,mMTS,mKcell,mKcell,,D77,2017-01-05T16:47:09+06:00,
1000000000306077,77718558151,mKcell,mKarTel,mKarTel,,D02,2017-01-05T16:45:34+06:00,
1000000000306078,77778749714,mKcell,mKarTel,mKarTel,,D02,2017-01-05T16:47:12+06:00,
1000000000306080,77784141334,mMTS,mKcell,mKcell,,D77,2017-01-05T16:48:24+06:00,
1000000000306082,77017517193,mKcell,mMTS,mKcell,D77,D02,2017-01-05T16:49:51+06:00,
1000000000306084,77011009491,mMTS,mKcell,mKcell,,D77,2017-01-05T16:51:05+06:00,
1000000000306085,77022103400,mMTS,mKcell,mKcell,,D77,2017-01-05T16:52:43+06:00,
1000000000306088,77012779066,mAltel,mKcell,mKcell,,D07,2017-01-05T16:54:36+06:00,
1000000000306089,77003167826,mAltel,mKcell,mAltel,D02,D07,2017-01-05T16:55:30+06:00,
1000000000306090,77007707049,mKcell,mAltel,mAltel,,D02,2017-01-05T16:59:16+06:00,
