NPId,Number,RecipientId,DonorId,RangeHolderId,OldRoute,NewRoute,PortDate,RowCount
1000000000406702,77053858883,mKcell,mKarTel,mKarTel,,D02,2017-06-21T11:30:46+06:00,18
1000000000406703,77014789385,mKarTel,mKcell,mKcell,,D01,2017-06-21T11:30:29+06:00,
1000000000406704,77479885023,mAltel,mMTS,mMTS,,D07,2017-06-21T11:30:20+06:00,
1000000000406705,77776172196,mKarTel,mKcell,mKarTel,D02,D01,2017-06-21T11:30:51+06:00,
1000000000406706,77014487440,mKarTel,mKcell,mKcell,,D01,2017-06-21T11:31:01+06:00,
1000000000406708,77777700080,mKcell,mKarTel,mKarTel,,D02,2017-06-21T11:32:13+06:00,
1000000000406710,77074515450,mKcell,mMTS,mMTS,,D02,2017-06-21T11:37:43+06:00,
1000000000406712,77001900089,mMTS,mAltel,mAltel,,D77,2017-06-21T11:39:02+06:00,
1000000000406713,77773444486,mKcell,mKarTel,mKarTel,,D02,2017-06-21T11:40:17+06:00,
1000000000406716,77081941958,mKcell,mAltel,mAltel,,D02,2017-06-21T11:42:27+06:00,
1000000000406717,77758110088,mKarTel,mKcell,mKcell,,D01,2017-06-21T11:42:57+06:00,
1000000000406720,77777795605,mKcell,mKarTel,mKarTel,,D02,2017-06-21T11:51:11+06:00,
1000000000406721,77011110301,mKarTel,mKcell,mKcell,,D01,2017-06-21T11:51:11+06:00,
1000000000406722,77024242300,mMTS,mKcell,mKcell,,D77,2017-06-21T11:51:49+06:00,
1000000000406724,77712777973,mMTS,mKarTel,mKarTel,,D77,2017-06-21T11:53:43+06:00,
1000000000406725,77001001771,mMTS,mAltel,mAltel,,D77,2017-06-21T11:53:35+06:00,
1000000000406727,77788567755,mKarTel,mKcell,mKcell,,D01,2017-06-21T11:57:19+06:00,
1000000000406728,77771725500,mKcell,mMTS,mKarTel,D77,D02,2017-06-21T11:58:02+06:00,
