NPId,Number,RecipientId,DonorId,RangeHolderId,OldRoute,NewRoute,PortDate,RowCount
1000000000234997,77051819987,mMTS,mKarTel,mKarTel,,D77,2016-08-27T13:12:16+06:00,21
1000000000235001,77017140404,mMTS,mKcell,mKcell,,D77,2016-08-27T13:00:38+06:00,
1000000000235002,77011138800,mKcell,mMTS,mKcell,D77,D02,2016-08-27T13:00:53+06:00,
1000000000235003,77472000859,mKcell,mMTS,mMTS,,D02,2016-08-27T13:01:05+06:00,
1000000000235004,77764542044,mMTS,mKarTel,mKarTel,,D77,2016-08-27T13:01:43+06:00,
1000000000235005,77770077702,mKcell,mKarTel,mKarTel,,D02,2016-08-27T13:17:17+06:00,
1000000000235007,77019892732,mKarTel,mMTS,mKcell,D77,D01,2016-08-27T13:02:45+06:00,
1000000000235008,77785664909,mKcell,mAltel,mKcell,D07,D02,2016-08-27T13:06:13+06:00,
1000000000235009,77011742756,mKcell,mMTS,mKcell,D77,D02,2016-08-27T13:06:40+06:00,
1000000000235010,77472000964,mKcell,mMTS,mMTS,,D02,2016-08-27T13:07:07+06:00,
1000000000235011,77079965740,mKarTel,mMTS,mMTS,,D01,2016-08-27T13:07:34+06:00,
1000000000235013,77071769892,mKarTel,mMTS,mMTS,,D01,2016-08-27T13:11:19+06:00,
1000000000235014,77027039957,mMTS,mKcell,mKcell,,D77,2016-08-27T13:12:41+06:00,
1000000000235015,77028142614,mMTS,mKcell,mKcell,,D77,2016-08-27T13:16:16+06:00,
1000000000235016,77015751081,mKcell,mMTS,mKcell,D77,D02,2016-08-27T13:18:50+06:00,
1000000000235017,77015267800,mKarTel,mKcell,mKcell,,D01,2016-08-27T13:19:30+06:00,
1000000000235019,77018884707,mAltel,mKcell,mKcell,,D07,2016-08-27T13:20:23+06:00,
1000000000235021,77775438943,mMTS,mKarTel,mKarTel,,D77,2016-08-27T13:22:30+06:00,
1000000000235022,77715939381,mMTS,mKarTel,mKarTel,,D77,2016-08-27T13:24:30+06:00,
1000000000235025,77769310023,mMTS,mKarTel,mKarTel,,D77,2016-08-27T13:26:58+06:00,
1000000000235027,77783307726,mKarTel,mKcell,mKcell,,D01,2016-08-27T13:28:45+06:00,
