NPId,Number,RecipientId,DonorId,RangeHolderId,OldRoute,NewRoute,PortDate,RowCount
1000000000003035,77019854899,mAltel,mKcell,mKcell,,D07,2016-01-07T13:35:03+06:00,16
1000000000003036,77015381771,mAltel,mKcell,mKcell,,D07,2016-01-07T13:36:04+06:00,
1000000000003037,77017366393,mKarTel,mKcell,mKcell,,D01,2016-01-07T13:37:26+06:00,
1000000000003038,77017386173,mAltel,mKcell,mKcell,,D07,2016-01-07T13:37:36+06:00,
1000000000003039,77011020122,mAltel,mKcell,mKcell,,D07,2016-01-07T13:38:28+06:00,
1000000000003040,77057549458,mAltel,mKarTel,mKarTel,,D07,2016-01-07T13:39:24+06:00,
1000000000003041,77013600133,mAltel,mKcell,mKcell,,D07,2016-01-07T13:41:01+06:00,
1000000000003042,77071140165,mAltel,mMTS,mMTS,,D07,2016-01-07T13:42:50+06:00,
1000000000003043,77011103888,mAltel,mKcell,mKcell,,D07,2016-01-07T13:43:00+06:00,
1000000000003046,77011336666,mAltel,mKcell,mKcell,,D07,2016-01-07T13:44:37+06:00,
1000000000003047,77012150525,mAltel,mKcell,mKcell,,D07,2016-01-07T13:45:01+06:00,
1000000000003055,77013321840,mAltel,mKcell,mKcell,,D07,2016-01-07T13:51:42+06:00,
1000000000003056,77010820005,mAltel,mKcell,mKcell,,D07,2016-01-07T13:52:24+06:00,
1000000000003057,77019066581,mAltel,mKcell,mKcell,,D07,2016-01-07T13:53:31+06:00,
1000000000003059,77017136146,mAltel,mKcell,mKcell,,D07,2016-01-07T13:57:23+06:00,
1000000000003060,77078400440,mAltel,mMTS,mMTS,,D07,2016-01-07T13:57:35+06:00,
