NPId,Number,RecipientId,DonorId,RangeHolderId,OldRoute,NewRoute,PortDate,RowCount
1000000000107651,77015292230,mKarTel,mKcell,mKcell,,D01,2016-03-05T12:00:32+06:00,41
1000000000107651,77015292240,mKarTel,mKcell,mKcell,,D01,2016-03-05T12:00:32+06:00,
1000000000107651,77015292242,mKarTel,mKcell,mKcell,,D01,2016-03-05T12:00:32+06:00,
1000000000107651,77015292248,mKarTel,mKcell,mKcell,,D01,2016-03-05T12:00:32+06:00,
1000000000107651,77015292252,mKarTel,mKcell,mKcell,,D01,2016-03-05T12:00:32+06:00,
1000000000107651,77015292253,mKarTel,mKcell,mKcell,,D01,2016-03-05T12:00:32+06:00,
1000000000107653,77019080009,mAltel,mKcell,mKcell,,D07,2016-03-05T12:00:39+06:00,
1000000000107654,77018027705,mAltel,mKcell,mKcell,,D07,2016-03-05T12:01:03+06:00,
1000000000107655,77024005030,mKarTel,mKcell,mKcell,,D01,2016-03-05T12:01:20+06:00,
1000000000107658,77010780555,mMTS,mKcell,mKcell,,D77,2016-03-05T12:01:14+06:00,
1000000000107660,77771409333,mAltel,mKarTel,mKarTel,,D07,2016-03-05T12:02:15+06:00,
1000000000107662,77013999918,mAltel,mKcell,mKcell,,D07,2016-03-05T12:02:45+06:00,
1000000000107663,77019070470,mAltel,mKcell,mKcell,,D07,2016-03-05T12:03:13+06:00,
1000000000107664,77018027706,mAltel,mKcell,mKcell,,D07,2016-03-05T12:03:56+06:00,
1000000000107669,77018001683,mAltel,mKcell,mKcell,,D07,2016-03-05T12:06:27+06:00,
1000000000107670,77758316650,mMTS,mKcell,mKcell,,D77,2016-03-05T12:07:09+06:00,
1000000000107671,77017773284,mAltel,mKcell,mKcell,,D07,2016-03-05T12:07:42+06:00,
1000000000107673,77071142000,mAltel,mMTS,mMTS,,D07,2016-03-05T12:08:04+06:00,
1000000000107674,77711059032,mMTS,mKarTel,mKarTel,,D77,2016-03-05T12:08:36+06:00,
1000000000107675,77052194545,mMTS,mKarTel,mKarTel,,D77,2016-03-05T12:09:34+06:00,
1000000000107678,77751559519,mAltel,mKcell,mKcell,,D07,2016-03-05T12:13:55+06:00,
1000000000107679,77054170905,mAltel,mKarTel,mKarTel,,D07,2016-03-05T12:12:06+06:00,
1000000000107680,77756032001,mMTS,mKcell,mKcell,,D77,2016-03-05T12:13:54+06:00,
1000000000107681,77015974455,mMTS,mKcell,mKcell,,D77,2016-03-05T12:13:55+06:00,
1000000000107683,77478141790,mKarTel,mMTS,mMTS,,D01,2016-03-05T12:12:34+06:00,
1000000000107684,77017846194,mAltel,mKcell,mKcell,,D07,2016-03-05T12:13:57+06:00,
1000000000107685,77078647213,mKarTel,mMTS,mMTS,,D01,2016-03-05T12:13:50+06:00,
1000000000107686,77053926085,mKcell,mKarTel,mKarTel,,D02,2016-03-05T12:15:50+06:00,
1000000000107689,77778542549,mKcell,mKarTel,mKarTel,,D02,2016-03-05T12:16:12+06:00,
1000000000107691,77057999927,mMTS,mKarTel,mKarTel,,D77,2016-03-05T12:16:46+06:00,
1000000000107692,77017442437,mAltel,mKcell,mKcell,,D07,2016-03-05T12:17:03+06:00,
1000000000107693,77752187750,mMTS,mKcell,mKcell,,D77,2016-03-05T12:17:17+06:00,
1000000000107694,77022209305,mMTS,mKcell,mKcell,,D77,2016-03-05T12:18:03+06:00,
1000000000107695,77007000241,mKcell,mAltel,mAltel,,D02,2016-03-05T12:18:18+06:00,
1000000000107696,77082223210,mKarTel,mAltel,mAltel,,D01,2016-03-05T12:18:20+06:00,
1000000000107698,77026642128,mAltel,mKcell,mKcell,,D07,2016-03-05T12:20:59+06:00,
1000000000107699,77019873510,mKarTel,mKcell,mKcell,,D01,2016-03-05T12:21:44+06:00,
1000000000107700,77716565656,mAltel,mKarTel,mKarTel,,D07,2016-03-05T12:23:18+06:00,
1000000000107702,77072224647,mKcell,mMTS,mMTS,,D02,2016-03-05T12:24:34+06:00,
1000000000107703,77011449797,mAltel,mKcell,mKcell,,D07,2016-03-05T12:25:43+06:00,
1000000000107705,77077664647,mKcell,mMTS,mMTS,,D02,2016-03-05T12:27:05+06:00,
