NPId,Number,RecipientId,DonorId,RangeHolderId,OldRoute,NewRoute,PortDate,RowCount
1000000000365988,77072705390,mKarTel,mAltel,mMTS,D07,D01,2017-04-14T16:35:16+06:00,17
1000000000365989,77019986040,mKcell,mMTS,mKcell,D77,D02,2017-04-14T16:38:33+06:00,
1000000000365990,77779996777,mKcell,mKarTel,mKarTel,,D02,2017-04-14T16:40:12+06:00,
1000000000365992,77774818879,mMTS,mKarTel,mKarTel,,D77,2017-04-14T16:40:23+06:00,
1000000000365993,77478079677,mKcell,mMTS,mMTS,,D02,2017-04-14T16:40:57+06:00,
1000000000365994,77783808491,mMTS,mKcell,mKcell,,D77,2017-04-14T16:41:42+06:00,
1000000000365997,77028883688,mKarTel,mKcell,mKcell,,D01,2017-04-14T16:42:37+06:00,
1000000000365998,77076076162,mAltel,mMTS,mMTS,,D07,2017-04-14T16:43:50+06:00,
1000000000366000,77080190964,mKcell,mAltel,mAltel,,D02,2017-04-14T16:51:36+06:00,
1000000000366001,77055660005,mAltel,mKarTel,mKarTel,,D07,2017-04-14T16:52:31+06:00,
1000000000366002,77057776963,mMTS,mKarTel,mKarTel,,D77,2017-04-14T16:53:02+06:00,
1000000000366005,77772998734,mKcell,mKarTel,mKarTel,,D02,2017-04-14T16:56:21+06:00,
1000000000366006,77777750079,mMTS,mAltel,mKarTel,D07,D77,2017-04-14T16:56:49+06:00,
1000000000366007,77475800141,mKarTel,mMTS,mMTS,,D01,2017-04-14T16:57:15+06:00,
1000000000366008,77782539095,mKarTel,mKcell,mKcell,,D01,2017-04-14T16:57:49+06:00,
1000000000366009,77014071319,mAltel,mKcell,mKcell,,D07,2017-04-14T16:58:23+06:00,
1000000000366011,77772123735,mKcell,mKarTel,mKarTel,,D02,2017-04-14T16:59:49+06:00,
