NPId,Number,RecipientId,DonorId,RangeHolderId,OldRoute,NewRoute,PortDate,RowCount
1000000000175578,77011587480,mMTS,mKcell,mKcell,,D77,2016-05-17T10:30:48+06:00,16
1000000000175580,77753998888,mKarTel,mAltel,mKcell,D07,D01,2016-05-17T10:33:07+06:00,
1000000000175582,77029850429,mKcell,mMTS,mKcell,D77,D02,2016-05-17T10:37:45+06:00,
1000000000175584,77051186585,mAltel,mKarTel,mKarTel,,D07,2016-05-17T10:43:55+06:00,
1000000000175585,77013173807,mKcell,mAltel,mKcell,D07,D02,2016-05-17T10:45:16+06:00,
1000000000175586,77077134433,mKcell,mMTS,mMTS,,D02,2016-05-17T10:45:58+06:00,
1000000000175587,77754531847,mMTS,mKcell,mKcell,,D77,2016-05-17T10:47:07+06:00,
1000000000175588,77022345223,mKcell,mKarTel,mKcell,D01,D02,2016-05-17T10:48:32+06:00,
1000000000175589,77022773000,mKarTel,mKcell,mKcell,,D01,2016-05-17T10:52:33+06:00,
1000000000175590,77757731111,mKarTel,mKcell,mKcell,,D01,2016-05-17T10:52:32+06:00,
1000000000175592,77021586011,mMTS,mKcell,mKcell,,D77,2016-05-17T10:53:22+06:00,
1000000000175593,77071015466,mKcell,mMTS,mMTS,,D02,2016-05-17T10:53:44+06:00,
1000000000175594,77018518686,mKarTel,mKcell,mKcell,,D01,2016-05-17T10:56:08+06:00,
1000000000175595,77026048180,mMTS,mKcell,mKcell,,D77,2016-05-17T10:56:53+06:00,
1000000000175596,77071717617,mKcell,mMTS,mMTS,,D02,2016-05-17T10:56:49+06:00,
1000000000175597,77081888808,mMTS,mAltel,mAltel,,D77,2016-05-17T10:57:19+06:00,
