NPId,Number,RecipientId,DonorId,RangeHolderId,OldRoute,NewRoute,PortDate,RowCount
1000000000278895,77471183454,mMTS,mAltel,mMTS,D07,D77,2016-11-23T10:13:40+06:00,14
1000000000282761,77010349780,mKarTel,mKcell,mKcell,,D01,2016-11-23T10:01:46+06:00,
1000000000282761,77010524230,mKarTel,mKcell,mKcell,,D01,2016-11-23T10:01:46+06:00,
1000000000282764,77026337646,mMTS,mKcell,mKcell,,D77,2016-11-23T10:03:11+06:00,
1000000000282766,77017593372,mAltel,mKcell,mKcell,,D07,2016-11-23T10:06:04+06:00,
1000000000282768,77022320696,mMTS,mKcell,mKcell,,D77,2016-11-23T10:08:00+06:00,
1000000000282769,77055006191,mMTS,mKarTel,mKarTel,,D77,2016-11-23T10:12:28+06:00,
1000000000282772,77018228494,mAltel,mKcell,mKcell,,D07,2016-11-23T10:15:30+06:00,
1000000000282773,77783696912,mAltel,mKcell,mKcell,,D07,2016-11-23T10:17:12+06:00,
1000000000282775,77473705475,mKcell,mMTS,mMTS,,D02,2016-11-23T10:21:22+06:00,
1000000000282776,77001414865,mMTS,mAltel,mAltel,,D77,2016-11-23T10:21:26+06:00,
1000000000282777,77779229932,mKarTel,mMTS,mKarTel,D77,D01,2016-11-23T10:25:58+06:00,
1000000000282778,77056262000,mMTS,mKarTel,mKarTel,,D77,2016-11-23T10:26:16+06:00,
1000000000282779,77016913876,mMTS,mKcell,mKcell,,D77,2016-11-23T10:27:44+06:00,
