NPId,Number,RecipientId,DonorId,RangeHolderId,OldRoute,NewRoute,PortDate,RowCount
1000000000178995,77779777748,mMTS,mAltel,mKarTel,D07,D77,2016-05-22T17:00:39+06:00,15
1000000000178996,77754122222,mAltel,mKcell,mKcell,,D07,2016-05-22T17:01:30+06:00,
1000000000178997,77022601281,mAltel,mKcell,mKcell,,D07,2016-05-22T17:02:05+06:00,
1000000000178998,77004004484,mMTS,mAltel,mAltel,,D77,2016-05-22T17:03:17+06:00,
1000000000178999,77779254122,mMTS,mKarTel,mKarTel,,D77,2016-05-22T17:06:49+06:00,
1000000000179001,77055633344,mMTS,mKarTel,mKarTel,,D77,2016-05-22T17:10:28+06:00,
1000000000179002,77074135184,mKarTel,mMTS,mMTS,,D01,2016-05-22T17:12:07+06:00,
1000000000179003,77074542008,mKarTel,mMTS,mMTS,,D01,2016-05-22T17:15:27+06:00,
1000000000179004,77778993193,mMTS,mKarTel,mKarTel,,D77,2016-05-22T17:17:27+06:00,
1000000000179005,77009857221,mKarTel,mAltel,mAltel,,D01,2016-05-22T17:17:51+06:00,
1000000000179009,77077971117,mAltel,mMTS,mMTS,,D07,2016-05-22T17:22:42+06:00,
1000000000179010,77003759628,mKarTel,mAltel,mAltel,,D01,2016-05-22T17:25:09+06:00,
1000000000179011,77056222262,mMTS,mKarTel,mKarTel,,D77,2016-05-22T17:26:11+06:00,
1000000000179012,77001591041,mKarTel,mAltel,mAltel,,D01,2016-05-22T17:27:10+06:00,
1000000000179013,77017854543,mMTS,mKcell,mKcell,,D77,2016-05-22T17:27:36+06:00,
