NPId,Number,RecipientId,DonorId,RangeHolderId,OldRoute,NewRoute,PortDate,RowCount
1000000000298244,77017058493,mKarTel,mKcell,mKcell,,D01,2016-12-21T16:22:30+06:00,39
1000000000298244,77017710583,mKarTel,mKcell,mKcell,,D01,2016-12-21T16:22:30+06:00,
1000000000298244,77017715938,mKarTel,mKcell,mKcell,,D01,2016-12-21T16:22:30+06:00,
1000000000298244,77017715947,mKarTel,mKcell,mKcell,,D01,2016-12-21T16:22:30+06:00,
1000000000298244,77017715972,mKarTel,mKcell,mKcell,,D01,2016-12-21T16:22:30+06:00,
1000000000298244,77017715985,mKarTel,mKcell,mKcell,,D01,2016-12-21T16:22:30+06:00,
1000000000298244,77017715998,mKarTel,mKcell,mKcell,,D01,2016-12-21T16:22:30+06:00,
1000000000298244,77017716021,mKarTel,mKcell,mKcell,,D01,2016-12-21T16:22:30+06:00,
1000000000298289,77010913401,mKarTel,mKcell,mKcell,,D01,2016-12-21T16:08:35+06:00,
1000000000298289,77012216693,mKarTel,mKcell,mKcell,,D01,2016-12-21T16:08:35+06:00,
1000000000298289,77017598193,mKarTel,mKcell,mKcell,,D01,2016-12-21T16:08:35+06:00,
1000000000298289,77017810901,mKarTel,mKcell,mKcell,,D01,2016-12-21T16:08:35+06:00,
1000000000298289,77017867803,mKarTel,mKcell,mKcell,,D01,2016-12-21T16:08:35+06:00,
1000000000298289,77017867805,mKarTel,mKcell,mKcell,,D01,2016-12-21T16:08:35+06:00,
1000000000298289,77017868274,mKarTel,mKcell,mKcell,,D01,2016-12-21T16:08:35+06:00,
1000000000298340,77761116694,mKcell,mKarTel,mKarTel,,D02,2016-12-21T16:02:30+06:00,
1000000000298341,77073125050,mAltel,mMTS,mMTS,,D07,2016-12-21T16:04:08+06:00,
1000000000298342,77479668345,mKcell,mMTS,mMTS,,D02,2016-12-21T16:04:59+06:00,
1000000000298343,77017452184,mAltel,mKcell,mKcell,,D07,2016-12-21T16:05:07+06:00,
1000000000298344,77001119091,mKarTel,mAltel,mAltel,,D01,2016-12-21T16:06:37+06:00,
1000000000298345,77471088757,mKcell,mMTS,mMTS,,D02,2016-12-21T16:07:30+06:00,
1000000000298346,77771833333,mMTS,mKarTel,mKarTel,,D77,2016-12-21T16:08:19+06:00,
1000000000298349,77761116687,mKcell,mKarTel,mKarTel,,D02,2016-12-21T16:09:55+06:00,
1000000000298351,77004955369,mKarTel,mAltel,mAltel,,D01,2016-12-21T16:10:54+06:00,
1000000000298352,77011202611,mMTS,mKcell,mKcell,,D77,2016-12-21T16:11:00+06:00,
1000000000298354,77761116695,mKcell,mKarTel,mKarTel,,D02,2016-12-21T16:12:14+06:00,
1000000000298355,77774873328,mMTS,mKarTel,mKarTel,,D77,2016-12-21T16:12:38+06:00,
1000000000298358,77021655159,mKarTel,mKcell,mKcell,,D01,2016-12-21T16:13:49+06:00,
1000000000298361,77079494995,mKarTel,mMTS,mMTS,,D01,2016-12-21T16:14:20+06:00,
1000000000298362,77777246610,mKcell,mKarTel,mKarTel,,D02,2016-12-21T16:15:53+06:00,
1000000000298364,77017429941,mKarTel,mKcell,mKcell,,D01,2016-12-21T16:16:03+06:00,
1000000000298365,77012220777,mMTS,mKcell,mKcell,,D77,2016-12-21T16:17:25+06:00,
1000000000298367,77761117096,mKcell,mKarTel,mKarTel,,D02,2016-12-21T16:20:01+06:00,
1000000000298368,77012350886,mKarTel,mKcell,mKcell,,D01,2016-12-21T16:19:57+06:00,
1000000000298369,77751778797,mMTS,mKcell,mKcell,D02,D77,2016-12-21T16:20:22+06:00,
1000000000298370,77761116689,mKcell,mKarTel,mKarTel,,D02,2016-12-21T16:23:21+06:00,
1000000000298372,77017995525,mAltel,mKcell,mKcell,,D07,2016-12-21T16:25:11+06:00,
1000000000298373,77766762000,mKarTel,mMTS,mKarTel,D77,D01,2016-12-21T16:25:29+06:00,
1000000000298374,77015152007,mKarTel,mKcell,mKcell,,D01,2016-12-21T16:26:00+06:00,
