NPId,Number,RecipientId,DonorId,RangeHolderId,OldRoute,NewRoute,PortDate,RowCount
1000000000301879,77072004466,mKcell,mMTS,mMTS,,D02,2016-12-28T09:38:16+06:00,4
1000000000301881,77015524293,mKarTel,mKcell,mKcell,,D01,2016-12-28T09:52:12+06:00,
1000000000301882,77017591672,mKarTel,mKcell,mKcell,,D01,2016-12-28T09:55:33+06:00,
1000000000301883,77775470116,mAltel,mKarTel,mKarTel,,D07,2016-12-28T09:59:14+06:00,
