NPId,Number,RecipientId,DonorId,RangeHolderId,OldRoute,NewRoute,PortDate,RowCount
1000000000210297,77059519393,mKarTel,mAltel,mKarTel,D07,D01,2016-07-13T09:02:25+06:00,9
1000000000210299,77023727859,mKarTel,mKcell,mKcell,,D01,2016-07-13T09:02:54+06:00,
1000000000210302,77774866699,mMTS,mKarTel,mKarTel,,D77,2016-07-13T09:16:56+06:00,
1000000000210303,77018704415,mKarTel,mKcell,mKcell,,D01,2016-07-13T09:20:10+06:00,
1000000000210304,77018704425,mKarTel,mKcell,mKcell,,D01,2016-07-13T09:23:44+06:00,
1000000000210305,77000009987,mMTS,mAltel,mAltel,,D77,2016-07-13T09:20:56+06:00,
1000000000210306,77071113864,mKarTel,mMTS,mMTS,,D01,2016-07-13T09:21:44+06:00,
1000000000210307,77017059872,mKarTel,mKcell,mKcell,,D01,2016-07-13T09:22:45+06:00,
1000000000210308,77011913535,mMTS,mKcell,mKcell,,D77,2016-07-13T09:29:41+06:00,
