NPId,Number,RecipientId,DonorId,RangeHolderId,OldRoute,NewRoute,PortDate,RowCount
1000000000275559,77001126564,mMTS,mAltel,mAltel,,D77,2016-12-06T11:44:01+06:00,31
1000000000277950,77087272581,mMTS,mAltel,mAltel,,D77,2016-12-06T11:43:23+06:00,
1000000000290643,77017210236,mKcell,mAltel,mKcell,D07,D02,2016-12-06T11:31:11+06:00,
1000000000290644,77771120044,mMTS,mKarTel,mKarTel,,D77,2016-12-06T11:32:58+06:00,
1000000000290645,77072501020,mAltel,mMTS,mMTS,,D07,2016-12-06T11:32:42+06:00,
1000000000290646,77017213701,mMTS,mKcell,mKcell,,D77,2016-12-06T11:33:46+06:00,
1000000000290648,77017721101,mKcell,mAltel,mKcell,D07,D02,2016-12-06T11:34:22+06:00,
1000000000290649,77785745858,mKarTel,mKcell,mKcell,,D01,2016-12-06T11:35:49+06:00,
1000000000290651,77022625535,mKarTel,mKcell,mKcell,,D01,2016-12-06T11:38:10+06:00,
1000000000290652,77082454422,mKarTel,mAltel,mAltel,,D01,2016-12-06T11:37:55+06:00,
1000000000290653,77016152192,mAltel,mKcell,mKcell,,D07,2016-12-06T11:38:08+06:00,
1000000000290654,77077573077,mMTS,mKcell,mMTS,D02,D77,2016-12-06T11:39:14+06:00,
1000000000290655,77029207183,mKarTel,mKcell,mKcell,,D01,2016-12-06T11:40:12+06:00,
1000000000290656,77007104045,mKcell,mAltel,mAltel,,D02,2016-12-06T11:40:52+06:00,
1000000000290659,77028688508,mMTS,mKcell,mKcell,,D77,2016-12-06T11:46:06+06:00,
1000000000290661,77017863700,mKarTel,mKcell,mKcell,,D01,2016-12-06T11:50:59+06:00,
1000000000290663,77013283813,mKcell,mMTS,mKcell,D77,D02,2016-12-06T11:52:03+06:00,
1000000000290665,77471342018,mMTS,mKarTel,mMTS,D01,D77,2016-12-06T11:55:51+06:00,
1000000000290666,77017587747,mKcell,mMTS,mKcell,D77,D02,2016-12-06T11:55:56+06:00,
1000000000290667,77768224422,mMTS,mKarTel,mKarTel,,D77,2016-12-06T11:56:23+06:00,
1000000000290668,77072232443,mKarTel,mMTS,mMTS,,D01,2016-12-06T11:57:48+06:00,
1000000000290668,77079803993,mKarTel,mMTS,mMTS,,D01,2016-12-06T11:57:48+06:00,
1000000000290668,77472232410,mKarTel,mMTS,mMTS,,D01,2016-12-06T11:57:48+06:00,
1000000000290668,77472232415,mKarTel,mMTS,mMTS,,D01,2016-12-06T11:57:48+06:00,
1000000000290668,77472232428,mKarTel,mMTS,mMTS,,D01,2016-12-06T11:57:48+06:00,
1000000000290668,77472232453,mKarTel,mMTS,mMTS,,D01,2016-12-06T11:57:48+06:00,
1000000000290668,77472232466,mKarTel,mMTS,mMTS,,D01,2016-12-06T11:57:48+06:00,
1000000000290669,77785860752,mKarTel,mKcell,mKcell,,D01,2016-12-06T11:57:36+06:00,
1000000000290670,77056234444,mKarTel,mKcell,mKarTel,D02,D01,2016-12-06T11:57:43+06:00,
1000000000290671,77017802818,mKarTel,mKcell,mKcell,,D01,2016-12-06T11:57:54+06:00,
1000000000290672,77752247339,mAltel,mKcell,mKcell,,D07,2016-12-06T11:57:43+06:00,
