NPId,Number,RecipientId,DonorId,RangeHolderId,OldRoute,NewRoute,PortDate,RowCount
1000000000142585,77710826351,mKcell,mKarTel,mKarTel,,D02,2016-04-05T09:27:23+06:00,31
1000000000142585,77710826352,mKcell,mKarTel,mKarTel,,D02,2016-04-05T09:27:23+06:00,
1000000000142585,77710826353,mKcell,mKarTel,mKarTel,,D02,2016-04-05T09:27:23+06:00,
1000000000142585,77710826354,mKcell,mKarTel,mKarTel,,D02,2016-04-05T09:27:23+06:00,
1000000000142585,77710826355,mKcell,mKarTel,mKarTel,,D02,2016-04-05T09:27:23+06:00,
1000000000142585,77710826356,mKcell,mKarTel,mKarTel,,D02,2016-04-05T09:27:23+06:00,
1000000000142585,77710826357,mKcell,mKarTel,mKarTel,,D02,2016-04-05T09:27:23+06:00,
1000000000142585,77710826358,mKcell,mKarTel,mKarTel,,D02,2016-04-05T09:27:23+06:00,
1000000000142585,77710826359,mKcell,mKarTel,mKarTel,,D02,2016-04-05T09:27:23+06:00,
1000000000142585,77710826360,mKcell,mKarTel,mKarTel,,D02,2016-04-05T09:27:23+06:00,
1000000000142585,77710826361,mKcell,mKarTel,mKarTel,,D02,2016-04-05T09:27:23+06:00,
1000000000142585,77710826362,mKcell,mKarTel,mKarTel,,D02,2016-04-05T09:27:23+06:00,
1000000000142585,77710826364,mKcell,mKarTel,mKarTel,,D02,2016-04-05T09:27:23+06:00,
1000000000142585,77710826365,mKcell,mKarTel,mKarTel,,D02,2016-04-05T09:27:23+06:00,
1000000000142585,77710826366,mKcell,mKarTel,mKarTel,,D02,2016-04-05T09:27:23+06:00,
1000000000142585,77710826367,mKcell,mKarTel,mKarTel,,D02,2016-04-05T09:27:23+06:00,
1000000000142585,77710826368,mKcell,mKarTel,mKarTel,,D02,2016-04-05T09:27:23+06:00,
1000000000142585,77710826369,mKcell,mKarTel,mKarTel,,D02,2016-04-05T09:27:23+06:00,
1000000000142585,77710826370,mKcell,mKarTel,mKarTel,,D02,2016-04-05T09:27:23+06:00,
1000000000142585,77710826371,mKcell,mKarTel,mKarTel,,D02,2016-04-05T09:27:23+06:00,
1000000000142693,77754412444,mMTS,mKcell,mKcell,,D77,2016-04-05T09:01:49+06:00,
1000000000142694,77019210102,mKarTel,mKcell,mKcell,,D01,2016-04-05T09:04:35+06:00,
1000000000142695,77019210103,mKarTel,mKcell,mKcell,,D01,2016-04-05T09:04:34+06:00,
1000000000142696,77015223406,mKarTel,mKcell,mKcell,,D01,2016-04-05T09:04:34+06:00,
1000000000142697,77018063575,mKarTel,mKcell,mKcell,,D01,2016-04-05T09:04:36+06:00,
1000000000142698,77018063577,mKarTel,mKcell,mKcell,,D01,2016-04-05T09:04:37+06:00,
1000000000142701,77771468340,mMTS,mKarTel,mKarTel,,D77,2016-04-05T09:11:49+06:00,
1000000000142703,77077331100,mKcell,mMTS,mMTS,,D02,2016-04-05T09:18:04+06:00,
1000000000142705,77773365010,mMTS,mKarTel,mKarTel,,D77,2016-04-05T09:26:56+06:00,
1000000000142706,77015992901,mKarTel,mKcell,mKcell,,D01,2016-04-05T09:26:54+06:00,
1000000000142707,77784220999,mMTS,mKcell,mKcell,,D77,2016-04-05T09:29:19+06:00,
