NPId,Number,RecipientId,DonorId,RangeHolderId,OldRoute,NewRoute,PortDate,RowCount
1000000000363681,77762777170,mKcell,mKarTel,mKarTel,,D02,2017-04-10T19:31:18+06:00,8
1000000000363682,77023926130,mKarTel,mKcell,mKcell,,D01,2017-04-10T19:31:59+06:00,
1000000000363683,77053337222,mKcell,mKarTel,mKarTel,,D02,2017-04-10T19:36:29+06:00,
1000000000363684,77018007746,mKarTel,mKcell,mKcell,,D01,2017-04-10T19:37:30+06:00,
1000000000363685,77751998989,mKcell,mAltel,mKcell,D07,D02,2017-04-10T19:37:32+06:00,
1000000000363686,77783515633,mMTS,mKcell,mKcell,,D77,2017-04-10T19:42:52+06:00,
1000000000363688,77005551305,mKarTel,mAltel,mAltel,,D01,2017-04-10T19:52:05+06:00,
1000000000363689,77021432060,mAltel,mKcell,mKcell,,D07,2017-04-10T19:57:30+06:00,
