NPId,Number,RecipientId,DonorId,RangeHolderId,OldRoute,NewRoute,PortDate,RowCount
1000000000297751,77015740311,mAltel,mKcell,mKcell,,D07,2016-12-20T16:30:24+06:00,33
1000000000297755,77073476307,mKarTel,mKcell,mMTS,D02,D01,2016-12-20T16:31:14+06:00,
1000000000297759,77013020651,mKarTel,mMTS,mKcell,D77,D01,2016-12-20T16:30:49+06:00,
1000000000297760,77023647333,mAltel,mKcell,mKcell,,D07,2016-12-20T16:31:03+06:00,
1000000000297761,77477676796,mKcell,mMTS,mMTS,,D02,2016-12-20T16:33:28+06:00,
1000000000297762,77016031629,mKarTel,mKcell,mKcell,,D01,2016-12-20T16:36:13+06:00,
1000000000297763,77004334137,mMTS,mAltel,mAltel,,D77,2016-12-20T16:33:34+06:00,
1000000000297764,77071777985,mKcell,mMTS,mMTS,,D02,2016-12-20T16:34:51+06:00,
1000000000297765,77014941222,mMTS,mKcell,mKcell,,D77,2016-12-20T16:36:11+06:00,
1000000000297766,77027153082,mAltel,mKcell,mKcell,,D07,2016-12-20T16:39:13+06:00,
1000000000297767,77766138898,mKarTel,mKcell,mKarTel,D02,D01,2016-12-20T16:52:10+06:00,
1000000000297768,77059607626,mMTS,mKarTel,mKarTel,,D77,2016-12-20T16:38:25+06:00,
1000000000297769,77072205253,mMTS,mAltel,mMTS,D07,D77,2016-12-20T16:38:32+06:00,
1000000000297770,77779589199,mMTS,mKarTel,mKarTel,,D77,2016-12-20T16:39:37+06:00,
1000000000297771,77764553737,mAltel,mKarTel,mKarTel,,D07,2016-12-20T16:40:01+06:00,
1000000000297772,77017561456,mMTS,mKcell,mKcell,,D77,2016-12-20T16:40:20+06:00,
1000000000297775,77021777555,mMTS,mAltel,mKcell,D07,D77,2016-12-20T16:41:18+06:00,
1000000000297776,77783301617,mMTS,mKcell,mKcell,,D77,2016-12-20T16:41:57+06:00,
1000000000297778,77075564661,mKarTel,mMTS,mMTS,,D01,2016-12-20T16:43:57+06:00,
1000000000297779,77781131424,mMTS,mKcell,mKcell,,D77,2016-12-20T16:44:34+06:00,
1000000000297780,77071776485,mKarTel,mMTS,mMTS,,D01,2016-12-20T16:44:53+06:00,
1000000000297781,77017701464,mKarTel,mKcell,mKcell,,D01,2016-12-20T16:46:15+06:00,
1000000000297784,77772728787,mMTS,mKarTel,mKarTel,,D77,2016-12-20T16:48:01+06:00,
1000000000297785,77012180219,mKarTel,mKcell,mKcell,,D01,2016-12-20T16:48:06+06:00,
1000000000297786,77015566055,mMTS,mKcell,mKcell,,D77,2016-12-20T16:50:30+06:00,
1000000000297788,77075564663,mKarTel,mMTS,mMTS,,D01,2016-12-20T16:52:26+06:00,
1000000000297790,77011237999,mKcell,mKarTel,mKcell,D01,D02,2016-12-20T16:54:05+06:00,
1000000000297791,77012502026,mKarTel,mKcell,mKcell,,D01,2016-12-20T16:55:39+06:00,
1000000000297792,77777321403,mMTS,mKarTel,mKarTel,,D77,2016-12-20T16:55:45+06:00,
1000000000297793,77717005588,mKcell,mKarTel,mKarTel,,D02,2016-12-20T16:56:24+06:00,
1000000000297797,77015013205,mKarTel,mKcell,mKcell,,D01,2016-12-20T16:58:53+06:00,
1000000000297798,77007505707,mMTS,mAltel,mAltel,,D77,2016-12-20T16:58:46+06:00,
1000000000297799,77001001303,mMTS,mAltel,mAltel,,D77,2016-12-20T16:59:15+06:00,
