NPId,Number,RecipientId,DonorId,RangeHolderId,OldRoute,NewRoute,PortDate,RowCount
1000000000124111,77054141489,mAltel,mKarTel,mKarTel,,D07,2016-03-13T17:01:48+06:00,20
1000000000124112,77775007777,mAltel,mKarTel,mKarTel,,D07,2016-03-13T17:02:09+06:00,
1000000000124114,77762181862,mMTS,mKarTel,mKarTel,,D77,2016-03-13T17:05:39+06:00,
1000000000124115,77019387980,mAltel,mKcell,mKcell,,D07,2016-03-13T17:05:31+06:00,
1000000000124117,77778280975,mAltel,mKarTel,mKarTel,,D07,2016-03-13T17:06:14+06:00,
1000000000124120,77762181858,mMTS,mKarTel,mKarTel,,D77,2016-03-13T17:12:46+06:00,
1000000000124121,77002222564,mKcell,mAltel,mAltel,,D02,2016-03-13T17:13:26+06:00,
1000000000124122,77773542299,mMTS,mKarTel,mKarTel,,D77,2016-03-13T17:13:42+06:00,
1000000000124123,77716098686,mAltel,mKarTel,mKarTel,,D07,2016-03-13T17:15:39+06:00,
1000000000124124,77016083144,mMTS,mKcell,mKcell,,D77,2016-03-13T17:16:03+06:00,
1000000000124125,77764879966,mMTS,mKarTel,mKarTel,,D77,2016-03-13T17:18:16+06:00,
1000000000124126,77770484878,mAltel,mKarTel,mKarTel,,D07,2016-03-13T17:18:39+06:00,
1000000000124127,77028543205,mAltel,mKcell,mKcell,,D07,2016-03-13T17:18:39+06:00,
1000000000124128,77028543204,mAltel,mKcell,mKcell,,D07,2016-03-13T17:18:39+06:00,
1000000000124129,77019446567,mMTS,mKcell,mKcell,,D77,2016-03-13T17:20:27+06:00,
1000000000124130,77014885012,mMTS,mKcell,mKcell,,D77,2016-03-13T17:20:58+06:00,
1000000000124132,77762181859,mMTS,mKarTel,mKarTel,,D77,2016-03-13T17:24:10+06:00,
1000000000124133,77017887266,mKarTel,mKcell,mKcell,,D01,2016-03-13T17:24:21+06:00,
1000000000124134,77784929691,mAltel,mKcell,mKcell,,D07,2016-03-13T17:25:19+06:00,
1000000000124136,77775843373,mMTS,mKarTel,mKarTel,,D77,2016-03-13T17:27:05+06:00,
