NPId,Number,RecipientId,DonorId,RangeHolderId,OldRoute,NewRoute,PortDate,RowCount
1000000000361554,77074644010,mKarTel,mMTS,mMTS,,D01,2017-04-07T13:00:02+06:00,52
1000000000361555,77015012927,mKarTel,mKcell,mKcell,,D01,2017-04-07T13:00:38+06:00,
1000000000361556,77014831153,mKarTel,mKcell,mKcell,,D01,2017-04-07T13:00:44+06:00,
1000000000361557,77011117091,mKarTel,mKcell,mKcell,,D01,2017-04-07T13:01:15+06:00,
1000000000361558,77774347139,mAltel,mKarTel,mKarTel,,D07,2017-04-07T13:01:25+06:00,
1000000000361559,77759173608,mMTS,mKcell,mKcell,,D77,2017-04-07T13:01:19+06:00,
1000000000361560,77758813779,mMTS,mKcell,mKcell,,D77,2017-04-07T13:03:20+06:00,
1000000000361561,77052169922,mKcell,mKarTel,mKarTel,,D02,2017-04-07T13:04:10+06:00,
1000000000361562,77472040325,mKarTel,mMTS,mMTS,,D01,2017-04-07T13:04:12+06:00,
1000000000361563,77780538847,mMTS,mKcell,mKcell,,D77,2017-04-07T13:04:46+06:00,
1000000000361564,77001585500,mMTS,mAltel,mAltel,,D77,2017-04-07T13:04:51+06:00,
1000000000361565,77758813297,mMTS,mKcell,mKcell,,D77,2017-04-07T13:05:06+06:00,
1000000000361566,77772529198,mMTS,mKarTel,mKarTel,,D77,2017-04-07T13:05:54+06:00,
1000000000361567,77014449353,mMTS,mKcell,mKcell,,D77,2017-04-07T13:06:53+06:00,
1000000000361568,77758812895,mMTS,mKcell,mKcell,,D77,2017-04-07T13:07:02+06:00,
1000000000361571,77020974784,mMTS,mKcell,mKcell,,D77,2017-04-07T13:08:20+06:00,
1000000000361572,77758812432,mMTS,mKcell,mKcell,,D77,2017-04-07T13:08:37+06:00,
1000000000361573,77781065192,mKarTel,mKcell,mKcell,,D01,2017-04-07T13:09:25+06:00,
1000000000361575,77758812419,mMTS,mKcell,mKcell,,D77,2017-04-07T13:10:26+06:00,
1000000000361578,77003332464,mKcell,mAltel,mAltel,,D02,2017-04-07T13:11:46+06:00,
1000000000361579,77758812162,mMTS,mKcell,mKcell,,D77,2017-04-07T13:12:22+06:00,
1000000000361580,77073605890,mAltel,mMTS,mMTS,,D07,2017-04-07T13:12:14+06:00,
1000000000361582,77757274314,mMTS,mKcell,mKcell,D02,D77,2017-04-07T13:14:13+06:00,
1000000000361583,77780532035,mMTS,mKcell,mKcell,,D77,2017-04-07T13:14:21+06:00,
1000000000361585,77758810936,mMTS,mKcell,mKcell,,D77,2017-04-07T13:14:47+06:00,
1000000000361586,77017663418,mKcell,mKarTel,mKcell,D01,D02,2017-04-07T13:15:22+06:00,
1000000000361588,77758810905,mMTS,mKcell,mKcell,,D77,2017-04-07T13:16:43+06:00,
1000000000361590,77477040325,mKarTel,mMTS,mMTS,,D01,2017-04-07T13:17:33+06:00,
1000000000361591,77780535359,mMTS,mKcell,mKcell,,D77,2017-04-07T13:17:40+06:00,
1000000000361592,77759377509,mMTS,mKcell,mKcell,,D77,2017-04-07T13:17:53+06:00,
1000000000361593,77758810730,mMTS,mKcell,mKcell,,D77,2017-04-07T13:18:18+06:00,
1000000000361595,77015712294,mKcell,mKarTel,mKcell,D01,D02,2017-04-07T13:19:11+06:00,
1000000000361596,77087500539,mMTS,mAltel,mAltel,,D77,2017-04-07T13:18:48+06:00,
1000000000361597,77475330462,mKcell,mMTS,mMTS,,D02,2017-04-07T13:19:26+06:00,
1000000000361598,77758810672,mMTS,mKcell,mKcell,,D77,2017-04-07T13:20:05+06:00,
1000000000361599,77020974781,mMTS,mKcell,mKcell,,D77,2017-04-07T13:20:22+06:00,
1000000000361600,77759256582,mKcell,mMTS,mKcell,D77,D02,2017-04-07T13:21:07+06:00,
1000000000361602,77712012100,mMTS,mKarTel,mKarTel,,D77,2017-04-07T13:21:59+06:00,
1000000000361603,77758810443,mMTS,mKcell,mKcell,,D77,2017-04-07T13:22:05+06:00,
1000000000361604,77780535281,mMTS,mKcell,mKcell,,D77,2017-04-07T13:22:21+06:00,
1000000000361606,77783606111,mKarTel,mKcell,mKcell,,D01,2017-04-07T13:23:24+06:00,
1000000000361607,77029329612,mKarTel,mKcell,mKcell,,D01,2017-04-07T13:23:39+06:00,
1000000000361608,77758810134,mMTS,mKcell,mKcell,,D77,2017-04-07T13:23:39+06:00,
1000000000361609,77015301086,mKcell,mKarTel,mKcell,D01,D02,2017-04-07T13:24:11+06:00,
1000000000361610,77079506318,mKarTel,mMTS,mMTS,,D01,2017-04-07T13:24:32+06:00,
1000000000361611,77011227755,mKarTel,mKcell,mKcell,,D01,2017-04-07T13:24:57+06:00,
1000000000361612,77780538853,mMTS,mKcell,mKcell,,D77,2017-04-07T13:25:05+06:00,
1000000000361614,77075561966,mKarTel,mMTS,mMTS,D77,D01,2017-04-07T13:26:27+06:00,
1000000000361615,77028653572,mMTS,mKcell,mKcell,,D77,2017-04-07T13:27:55+06:00,
1000000000361616,77780533012,mMTS,mKcell,mKcell,,D77,2017-04-07T13:27:59+06:00,
1000000000361617,77787097404,mKarTel,mKcell,mKcell,,D01,2017-04-07T13:28:16+06:00,
1000000000361618,77015718631,mKcell,mKarTel,mKcell,D01,D02,2017-04-07T13:28:49+06:00,
