NPId,Number,RecipientId,DonorId,RangeHolderId,OldRoute,NewRoute,PortDate,RowCount
1000000000213053,77017223441,mKarTel,mKcell,mKcell,,D01,2016-07-19T09:42:29+06:00,17
1000000000213053,77019550131,mKarTel,mKcell,mKcell,,D01,2016-07-19T09:42:29+06:00,
1000000000213053,77019550172,mKarTel,mKcell,mKcell,,D01,2016-07-19T09:42:29+06:00,
1000000000213053,77019550206,mKarTel,mKcell,mKcell,,D01,2016-07-19T09:42:29+06:00,
1000000000213053,77019550226,mKarTel,mKcell,mKcell,,D01,2016-07-19T09:42:29+06:00,
1000000000213053,77019550235,mKarTel,mKcell,mKcell,,D01,2016-07-19T09:42:29+06:00,
1000000000213053,77019550239,mKarTel,mKcell,mKcell,,D01,2016-07-19T09:42:29+06:00,
1000000000213053,77019551380,mKarTel,mKcell,mKcell,,D01,2016-07-19T09:42:29+06:00,
1000000000213053,77019555095,mKarTel,mKcell,mKcell,,D01,2016-07-19T09:42:29+06:00,
1000000000213053,77019555622,mKarTel,mKcell,mKcell,,D01,2016-07-19T09:42:29+06:00,
1000000000213053,77019557806,mKarTel,mKcell,mKcell,,D01,2016-07-19T09:42:29+06:00,
1000000000213053,77019919938,mKarTel,mKcell,mKcell,,D01,2016-07-19T09:42:29+06:00,
1000000000213053,77019919964,mKarTel,mKcell,mKcell,,D01,2016-07-19T09:42:29+06:00,
1000000000213311,77757645519,mMTS,mKcell,mKcell,,D77,2016-07-19T09:43:32+06:00,
1000000000213313,77022053355,mAltel,mKcell,mKcell,,D07,2016-07-19T09:43:33+06:00,
1000000000213314,77071061068,mKarTel,mMTS,mMTS,,D01,2016-07-19T09:41:33+06:00,
1000000000213315,77471531553,mMTS,mAltel,mMTS,D07,D77,2016-07-19T09:42:25+06:00,
