NPId,Number,RecipientId,DonorId,RangeHolderId,OldRoute,NewRoute,PortDate,RowCount
1000000000321927,77777252740,mMTS,mKarTel,mKarTel,,D77,2017-02-02T10:37:56+06:00,34
1000000000321931,77715011493,mMTS,mKarTel,mKarTel,,D77,2017-02-02T10:38:56+06:00,
1000000000321932,77770780812,mMTS,mKarTel,mKarTel,,D77,2017-02-02T10:39:19+06:00,
1000000000321933,77770780810,mMTS,mKarTel,mKarTel,,D77,2017-02-02T10:39:42+06:00,
1000000000321936,77777252742,mMTS,mKarTel,mKarTel,,D77,2017-02-02T10:41:42+06:00,
1000000000321940,77777252743,mMTS,mKarTel,mKarTel,,D77,2017-02-02T10:45:45+06:00,
1000000000321943,77777252744,mMTS,mKarTel,mKarTel,,D77,2017-02-02T10:45:44+06:00,
1000000000321945,77056204807,mAltel,mKarTel,mKarTel,,D07,2017-02-02T10:30:24+06:00,
1000000000321946,77777252745,mMTS,mKarTel,mKarTel,,D77,2017-02-02T10:45:44+06:00,
1000000000321947,77000030068,mMTS,mAltel,mAltel,,D77,2017-02-02T10:31:40+06:00,
1000000000321949,77777252747,mMTS,mKarTel,mKarTel,,D77,2017-02-02T10:48:55+06:00,
1000000000321950,77013445538,mMTS,mKcell,mKcell,,D77,2017-02-02T10:33:53+06:00,
1000000000321951,77777252748,mMTS,mKarTel,mKarTel,,D77,2017-02-02T10:49:19+06:00,
1000000000321953,77773428448,mKarTel,mKcell,mKarTel,D02,D01,2017-02-02T10:38:02+06:00,
1000000000321955,77011112568,mKarTel,mKcell,mKcell,,D01,2017-02-02T10:39:38+06:00,
1000000000321956,77014491980,mKcell,mMTS,mKcell,D77,D02,2017-02-02T10:40:05+06:00,
1000000000321957,77772481757,mMTS,mKarTel,mKarTel,,D77,2017-02-02T10:40:44+06:00,
1000000000321958,77006210100,mKcell,mAltel,mAltel,,D02,2017-02-02T10:42:04+06:00,
1000000000321959,77017815932,mKcell,mKarTel,mKcell,D01,D02,2017-02-02T10:42:34+06:00,
1000000000321960,77052802843,mMTS,mKarTel,mKarTel,,D77,2017-02-02T10:42:39+06:00,
1000000000321962,77002020206,mKcell,mAltel,mAltel,,D02,2017-02-02T10:46:51+06:00,
1000000000321963,77078555896,mKcell,mMTS,mMTS,,D02,2017-02-02T10:47:33+06:00,
1000000000321965,77777087370,mKcell,mKarTel,mKarTel,,D02,2017-02-02T10:50:30+06:00,
1000000000321967,77776073275,mMTS,mKarTel,mKarTel,,D77,2017-02-02T10:53:27+06:00,
1000000000321968,77719999881,mMTS,mKarTel,mKarTel,,D77,2017-02-02T10:53:42+06:00,
1000000000321969,77002020208,mKcell,mAltel,mAltel,,D02,2017-02-02T10:53:48+06:00,
1000000000321970,77026002032,mKcell,mKarTel,mKcell,D01,D02,2017-02-02T10:54:15+06:00,
1000000000321971,77019550005,mKarTel,mKcell,mKcell,,D01,2017-02-02T10:54:13+06:00,
1000000000321972,77002020209,mKcell,mAltel,mAltel,,D02,2017-02-02T10:55:20+06:00,
1000000000321973,77012883251,mKarTel,mKcell,mKcell,,D01,2017-02-02T10:56:19+06:00,
1000000000321974,77078178117,mAltel,mMTS,mMTS,,D07,2017-02-02T10:56:31+06:00,
1000000000321975,77078639261,mKarTel,mMTS,mMTS,,D01,2017-02-02T10:56:47+06:00,
1000000000321976,77059762345,mAltel,mKarTel,mKarTel,,D07,2017-02-02T10:58:07+06:00,
1000000000321977,77788388884,mMTS,mKcell,mKcell,,D77,2017-02-02T10:58:54+06:00,
