NPId,Number,RecipientId,DonorId,RangeHolderId,OldRoute,NewRoute,PortDate,RowCount
1000000000047560,77017624091,mAltel,mKcell,mKcell,,D07,2016-02-13T20:25:20+06:00,4
1000000000047561,77759867586,mMTS,mKcell,mKcell,,D77,2016-02-13T20:25:38+06:00,
1000000000047562,77089598361,mKcell,mAltel,mAltel,,D02,2016-02-13T20:26:51+06:00,
1000000000047563,77019510445,mMTS,mKcell,mKcell,,D77,2016-02-13T20:26:54+06:00,
