NPId,Number,RecipientId,DonorId,RangeHolderId,OldRoute,NewRoute,PortDate,RowCount
1000000000438501,77010297876,mKarTel,mKcell,mKcell,,D01,2017-08-14T12:16:31+06:00,43
1000000000438501,77012182324,mKarTel,mKcell,mKcell,,D01,2017-08-14T12:16:31+06:00,
1000000000438501,77019652719,mKarTel,mKcell,mKcell,,D01,2017-08-14T12:16:31+06:00,
1000000000438501,77019962367,mKarTel,mKcell,mKcell,,D01,2017-08-14T12:16:31+06:00,
1000000000438501,77022247067,mKarTel,mKcell,mKcell,,D01,2017-08-14T12:16:31+06:00,
1000000000439477,77017210234,mMTS,mKcell,mKcell,,D77,2017-08-14T12:02:43+06:00,
1000000000439478,77714233165,mAltel,mKarTel,mKarTel,,D07,2017-08-14T12:03:41+06:00,
1000000000439479,77005549496,mKcell,mAltel,mAltel,,D02,2017-08-14T12:04:34+06:00,
1000000000439480,77087705314,mMTS,mKarTel,mAltel,D01,D77,2017-08-14T12:05:09+06:00,
1000000000439481,77025455578,mKarTel,mKcell,mKcell,,D01,2017-08-14T12:05:47+06:00,
1000000000439482,77072422186,mKarTel,mMTS,mMTS,,D01,2017-08-14T12:05:52+06:00,
1000000000439484,77029465761,mAltel,mKcell,mKcell,,D07,2017-08-14T12:07:08+06:00,
1000000000439485,77472700900,mAltel,mMTS,mMTS,,D07,2017-08-14T12:07:03+06:00,
1000000000439486,77059659826,mAltel,mKcell,mKarTel,D02,D07,2017-08-14T12:08:11+06:00,
1000000000439487,77783099927,mKarTel,mKcell,mKcell,,D01,2017-08-14T12:08:47+06:00,
1000000000439488,77083393238,mKarTel,mAltel,mAltel,,D01,2017-08-14T12:09:24+06:00,
1000000000439490,77714233163,mAltel,mKarTel,mKarTel,,D07,2017-08-14T12:10:47+06:00,
1000000000439491,77087085855,mMTS,mAltel,mAltel,,D77,2017-08-14T12:10:35+06:00,
1000000000439492,77077482307,mAltel,mMTS,mMTS,,D07,2017-08-14T12:11:17+06:00,
1000000000439493,77054540088,mKarTel,mMTS,mKarTel,D77,D01,2017-08-14T12:11:37+06:00,
1000000000439494,77471686858,mAltel,mMTS,mMTS,,D07,2017-08-14T12:11:41+06:00,
1000000000439495,77003760340,mMTS,mAltel,mAltel,,D77,2017-08-14T12:12:24+06:00,
1000000000439496,77781777222,mKarTel,mKcell,mKcell,,D01,2017-08-14T12:13:14+06:00,
1000000000439497,77767762241,mKcell,mKarTel,mKarTel,,D02,2017-08-14T12:13:41+06:00,
1000000000439498,77071800880,mMTS,mKarTel,mMTS,D01,D77,2017-08-14T12:14:12+06:00,
1000000000439499,77072524050,mKcell,mAltel,mMTS,D07,D02,2017-08-14T12:14:11+06:00,
1000000000439500,77014896405,mKcell,mKarTel,mKcell,D01,D02,2017-08-14T12:15:38+06:00,
1000000000439501,77015128400,mAltel,mKcell,mKcell,,D07,2017-08-14T12:15:31+06:00,
1000000000439505,77003866181,mMTS,mAltel,mAltel,,D77,2017-08-14T12:18:39+06:00,
1000000000439506,77021033636,mKcell,mMTS,mKcell,D77,D02,2017-08-14T12:19:36+06:00,
1000000000439507,77472209920,mAltel,mMTS,mMTS,,D07,2017-08-14T12:20:01+06:00,
1000000000439508,77072406025,mAltel,mMTS,mMTS,,D07,2017-08-14T12:20:31+06:00,
1000000000439509,77072333007,mAltel,mMTS,mMTS,,D07,2017-08-14T12:20:55+06:00,
1000000000439512,77019423575,mKcell,mAltel,mKcell,D07,D02,2017-08-14T12:25:12+06:00,
1000000000439513,77711005045,mMTS,mKcell,mKarTel,D02,D77,2017-08-14T12:25:13+06:00,
1000000000439514,77056236444,mKcell,mMTS,mKarTel,D77,D02,2017-08-14T12:25:34+06:00,
1000000000439516,77015665465,mKcell,mKarTel,mKcell,D01,D02,2017-08-14T12:26:11+06:00,
1000000000439518,77019772277,mKarTel,mMTS,mKcell,D77,D01,2017-08-14T12:26:43+06:00,
1000000000439519,77072333006,mAltel,mMTS,mMTS,,D07,2017-08-14T12:28:28+06:00,
1000000000439520,77072702222,mAltel,mMTS,mMTS,,D07,2017-08-14T12:28:50+06:00,
1000000000439521,77022595536,mKcell,mMTS,mKcell,D77,D02,2017-08-14T12:29:17+06:00,
1000000000439522,77072406333,mAltel,mMTS,mMTS,,D07,2017-08-14T12:29:16+06:00,
1000000000439523,77072405002,mAltel,mMTS,mMTS,,D07,2017-08-14T12:29:40+06:00,
