NPId,Number,RecipientId,DonorId,RangeHolderId,OldRoute,NewRoute,PortDate,RowCount
1000000000253765,77018794147,mKarTel,mKcell,mKcell,,D01,2016-09-30T16:21:53+06:00,252
1000000000253765,77018794148,mKarTel,mKcell,mKcell,,D01,2016-09-30T16:21:53+06:00,
1000000000253765,77018794149,mKarTel,mKcell,mKcell,,D01,2016-09-30T16:21:53+06:00,
1000000000253765,77018794150,mKarTel,mKcell,mKcell,,D01,2016-09-30T16:21:53+06:00,
1000000000253765,77018794151,mKarTel,mKcell,mKcell,,D01,2016-09-30T16:21:53+06:00,
1000000000253765,77018794152,mKarTel,mKcell,mKcell,,D01,2016-09-30T16:21:53+06:00,
1000000000253765,77018794154,mKarTel,mKcell,mKcell,,D01,2016-09-30T16:21:53+06:00,
1000000000253765,77018794155,mKarTel,mKcell,mKcell,,D01,2016-09-30T16:21:53+06:00,
1000000000253765,77018794156,mKarTel,mKcell,mKcell,,D01,2016-09-30T16:21:53+06:00,
1000000000253765,77018794158,mKarTel,mKcell,mKcell,,D01,2016-09-30T16:21:53+06:00,
1000000000253765,77018794159,mKarTel,mKcell,mKcell,,D01,2016-09-30T16:21:53+06:00,
1000000000253765,77018794160,mKarTel,mKcell,mKcell,,D01,2016-09-30T16:21:53+06:00,
1000000000253765,77018794161,mKarTel,mKcell,mKcell,,D01,2016-09-30T16:21:53+06:00,
1000000000253765,77018794162,mKarTel,mKcell,mKcell,,D01,2016-09-30T16:21:53+06:00,
1000000000253765,77018794163,mKarTel,mKcell,mKcell,,D01,2016-09-30T16:21:53+06:00,
1000000000253765,77018794164,mKarTel,mKcell,mKcell,,D01,2016-09-30T16:21:53+06:00,
1000000000253765,77018794165,mKarTel,mKcell,mKcell,,D01,2016-09-30T16:21:53+06:00,
1000000000253765,77018794166,mKarTel,mKcell,mKcell,,D01,2016-09-30T16:21:53+06:00,
1000000000253765,77018794168,mKarTel,mKcell,mKcell,,D01,2016-09-30T16:21:53+06:00,
1000000000253765,77018794169,mKarTel,mKcell,mKcell,,D01,2016-09-30T16:21:53+06:00,
1000000000253765,77018794170,mKarTel,mKcell,mKcell,,D01,2016-09-30T16:21:53+06:00,
1000000000253765,77018794171,mKarTel,mKcell,mKcell,,D01,2016-09-30T16:21:53+06:00,
1000000000253765,77018794172,mKarTel,mKcell,mKcell,,D01,2016-09-30T16:21:53+06:00,
1000000000253765,77018794173,mKarTel,mKcell,mKcell,,D01,2016-09-30T16:21:53+06:00,
1000000000253765,77018794174,mKarTel,mKcell,mKcell,,D01,2016-09-30T16:21:53+06:00,
1000000000253765,77018794176,mKarTel,mKcell,mKcell,,D01,2016-09-30T16:21:53+06:00,
1000000000253765,77018794178,mKarTel,mKcell,mKcell,,D01,2016-09-30T16:21:53+06:00,
1000000000253765,77018794179,mKarTel,mKcell,mKcell,,D01,2016-09-30T16:21:53+06:00,
1000000000253765,77018794180,mKarTel,mKcell,mKcell,,D01,2016-09-30T16:21:53+06:00,
1000000000253765,77018794181,mKarTel,mKcell,mKcell,,D01,2016-09-30T16:21:53+06:00,
1000000000253765,77018794182,mKarTel,mKcell,mKcell,,D01,2016-09-30T16:21:53+06:00,
1000000000253765,77018794183,mKarTel,mKcell,mKcell,,D01,2016-09-30T16:21:53+06:00,
1000000000253765,77018794186,mKarTel,mKcell,mKcell,,D01,2016-09-30T16:21:53+06:00,
1000000000253765,77018794187,mKarTel,mKcell,mKcell,,D01,2016-09-30T16:21:53+06:00,
1000000000253765,77018794188,mKarTel,mKcell,mKcell,,D01,2016-09-30T16:21:53+06:00,
1000000000253765,77018794190,mKarTel,mKcell,mKcell,,D01,2016-09-30T16:21:53+06:00,
1000000000253765,77018794191,mKarTel,mKcell,mKcell,,D01,2016-09-30T16:21:53+06:00,
1000000000253765,77018794192,mKarTel,mKcell,mKcell,,D01,2016-09-30T16:21:53+06:00,
1000000000253765,77018794193,mKarTel,mKcell,mKcell,,D01,2016-09-30T16:21:53+06:00,
1000000000253765,77018794194,mKarTel,mKcell,mKcell,,D01,2016-09-30T16:21:53+06:00,
1000000000253765,77018794195,mKarTel,mKcell,mKcell,,D01,2016-09-30T16:21:53+06:00,
1000000000253765,77018794196,mKarTel,mKcell,mKcell,,D01,2016-09-30T16:21:53+06:00,
1000000000253769,77018794549,mKarTel,mKcell,mKcell,,D01,2016-09-30T16:24:03+06:00,
1000000000253769,77018794550,mKarTel,mKcell,mKcell,,D01,2016-09-30T16:24:03+06:00,
1000000000253769,77018794551,mKarTel,mKcell,mKcell,,D01,2016-09-30T16:24:03+06:00,
1000000000253769,77018794553,mKarTel,mKcell,mKcell,,D01,2016-09-30T16:24:03+06:00,
1000000000253769,77018794554,mKarTel,mKcell,mKcell,,D01,2016-09-30T16:24:03+06:00,
1000000000253769,77018794555,mKarTel,mKcell,mKcell,,D01,2016-09-30T16:24:03+06:00,
1000000000253769,77018794556,mKarTel,mKcell,mKcell,,D01,2016-09-30T16:24:03+06:00,
1000000000253769,77018794557,mKarTel,mKcell,mKcell,,D01,2016-09-30T16:24:03+06:00,
1000000000253769,77018794558,mKarTel,mKcell,mKcell,,D01,2016-09-30T16:24:03+06:00,
1000000000253769,77018794560,mKarTel,mKcell,mKcell,,D01,2016-09-30T16:24:03+06:00,
1000000000253769,77018794561,mKarTel,mKcell,mKcell,,D01,2016-09-30T16:24:03+06:00,
1000000000253769,77018794562,mKarTel,mKcell,mKcell,,D01,2016-09-30T16:24:03+06:00,
1000000000253769,77018794563,mKarTel,mKcell,mKcell,,D01,2016-09-30T16:24:03+06:00,
1000000000253769,77018794564,mKarTel,mKcell,mKcell,,D01,2016-09-30T16:24:03+06:00,
1000000000253769,77018794565,mKarTel,mKcell,mKcell,,D01,2016-09-30T16:24:03+06:00,
1000000000253769,77018794566,mKarTel,mKcell,mKcell,,D01,2016-09-30T16:24:03+06:00,
1000000000253769,77018794567,mKarTel,mKcell,mKcell,,D01,2016-09-30T16:24:03+06:00,
1000000000253769,77018794570,mKarTel,mKcell,mKcell,,D01,2016-09-30T16:24:03+06:00,
1000000000253769,77018794571,mKarTel,mKcell,mKcell,,D01,2016-09-30T16:24:03+06:00,
1000000000253769,77018794572,mKarTel,mKcell,mKcell,,D01,2016-09-30T16:24:03+06:00,
1000000000253769,77018794573,mKarTel,mKcell,mKcell,,D01,2016-09-30T16:24:03+06:00,
1000000000253769,77018794575,mKarTel,mKcell,mKcell,,D01,2016-09-30T16:24:03+06:00,
1000000000253769,77018794576,mKarTel,mKcell,mKcell,,D01,2016-09-30T16:24:03+06:00,
1000000000253769,77018794577,mKarTel,mKcell,mKcell,,D01,2016-09-30T16:24:03+06:00,
1000000000253769,77018794578,mKarTel,mKcell,mKcell,,D01,2016-09-30T16:24:03+06:00,
1000000000253769,77018794579,mKarTel,mKcell,mKcell,,D01,2016-09-30T16:24:03+06:00,
1000000000253769,77018794580,mKarTel,mKcell,mKcell,,D01,2016-09-30T16:24:03+06:00,
1000000000253769,77018794581,mKarTel,mKcell,mKcell,,D01,2016-09-30T16:24:03+06:00,
1000000000253769,77018794582,mKarTel,mKcell,mKcell,,D01,2016-09-30T16:24:03+06:00,
1000000000253769,77018794583,mKarTel,mKcell,mKcell,,D01,2016-09-30T16:24:03+06:00,
1000000000253769,77018794584,mKarTel,mKcell,mKcell,,D01,2016-09-30T16:24:03+06:00,
1000000000253769,77018794585,mKarTel,mKcell,mKcell,,D01,2016-09-30T16:24:03+06:00,
1000000000253769,77018794587,mKarTel,mKcell,mKcell,,D01,2016-09-30T16:24:03+06:00,
1000000000253769,77018794588,mKarTel,mKcell,mKcell,,D01,2016-09-30T16:24:03+06:00,
1000000000253769,77018794589,mKarTel,mKcell,mKcell,,D01,2016-09-30T16:24:03+06:00,
1000000000253769,77018794590,mKarTel,mKcell,mKcell,,D01,2016-09-30T16:24:03+06:00,
1000000000253769,77018794591,mKarTel,mKcell,mKcell,,D01,2016-09-30T16:24:03+06:00,
1000000000253769,77018794592,mKarTel,mKcell,mKcell,,D01,2016-09-30T16:24:03+06:00,
1000000000253769,77018794593,mKarTel,mKcell,mKcell,,D01,2016-09-30T16:24:03+06:00,
1000000000253769,77018794594,mKarTel,mKcell,mKcell,,D01,2016-09-30T16:24:03+06:00,
1000000000253769,77018794595,mKarTel,mKcell,mKcell,,D01,2016-09-30T16:24:03+06:00,
1000000000253769,77018794596,mKarTel,mKcell,mKcell,,D01,2016-09-30T16:24:03+06:00,
1000000000253769,77018794597,mKarTel,mKcell,mKcell,,D01,2016-09-30T16:24:03+06:00,
1000000000253769,77018794598,mKarTel,mKcell,mKcell,,D01,2016-09-30T16:24:03+06:00,
1000000000253774,77018794247,mKarTel,mKcell,mKcell,,D01,2016-09-30T16:11:20+06:00,
1000000000253774,77018794248,mKarTel,mKcell,mKcell,,D01,2016-09-30T16:11:20+06:00,
1000000000253774,77018794249,mKarTel,mKcell,mKcell,,D01,2016-09-30T16:11:20+06:00,
1000000000253774,77018794250,mKarTel,mKcell,mKcell,,D01,2016-09-30T16:11:20+06:00,
1000000000253774,77018794251,mKarTel,mKcell,mKcell,,D01,2016-09-30T16:11:20+06:00,
1000000000253774,77018794252,mKarTel,mKcell,mKcell,,D01,2016-09-30T16:11:20+06:00,
1000000000253774,77018794253,mKarTel,mKcell,mKcell,,D01,2016-09-30T16:11:20+06:00,
1000000000253774,77018794254,mKarTel,mKcell,mKcell,,D01,2016-09-30T16:11:20+06:00,
1000000000253774,77018794255,mKarTel,mKcell,mKcell,,D01,2016-09-30T16:11:20+06:00,
1000000000253774,77018794256,mKarTel,mKcell,mKcell,,D01,2016-09-30T16:11:20+06:00,
1000000000253774,77018794257,mKarTel,mKcell,mKcell,,D01,2016-09-30T16:11:20+06:00,
1000000000253774,77018794258,mKarTel,mKcell,mKcell,,D01,2016-09-30T16:11:20+06:00,
1000000000253774,77018794259,mKarTel,mKcell,mKcell,,D01,2016-09-30T16:11:20+06:00,
1000000000253774,77018794260,mKarTel,mKcell,mKcell,,D01,2016-09-30T16:11:20+06:00,
1000000000253774,77018794261,mKarTel,mKcell,mKcell,,D01,2016-09-30T16:11:20+06:00,
1000000000253774,77018794262,mKarTel,mKcell,mKcell,,D01,2016-09-30T16:11:20+06:00,
1000000000253774,77018794263,mKarTel,mKcell,mKcell,,D01,2016-09-30T16:11:20+06:00,
1000000000253774,77018794264,mKarTel,mKcell,mKcell,,D01,2016-09-30T16:11:20+06:00,
1000000000253774,77018794266,mKarTel,mKcell,mKcell,,D01,2016-09-30T16:11:20+06:00,
1000000000253774,77018794267,mKarTel,mKcell,mKcell,,D01,2016-09-30T16:11:20+06:00,
1000000000253774,77018794268,mKarTel,mKcell,mKcell,,D01,2016-09-30T16:11:20+06:00,
1000000000253774,77018794269,mKarTel,mKcell,mKcell,,D01,2016-09-30T16:11:20+06:00,
1000000000253774,77018794270,mKarTel,mKcell,mKcell,,D01,2016-09-30T16:11:20+06:00,
1000000000253774,77018794271,mKarTel,mKcell,mKcell,,D01,2016-09-30T16:11:20+06:00,
1000000000253774,77018794272,mKarTel,mKcell,mKcell,,D01,2016-09-30T16:11:20+06:00,
1000000000253774,77018794274,mKarTel,mKcell,mKcell,,D01,2016-09-30T16:11:20+06:00,
1000000000253774,77018794275,mKarTel,mKcell,mKcell,,D01,2016-09-30T16:11:20+06:00,
1000000000253774,77018794277,mKarTel,mKcell,mKcell,,D01,2016-09-30T16:11:20+06:00,
1000000000253774,77018794278,mKarTel,mKcell,mKcell,,D01,2016-09-30T16:11:20+06:00,
1000000000253774,77018794279,mKarTel,mKcell,mKcell,,D01,2016-09-30T16:11:20+06:00,
1000000000253774,77018794280,mKarTel,mKcell,mKcell,,D01,2016-09-30T16:11:20+06:00,
1000000000253774,77018794282,mKarTel,mKcell,mKcell,,D01,2016-09-30T16:11:20+06:00,
1000000000253774,77018794283,mKarTel,mKcell,mKcell,,D01,2016-09-30T16:11:20+06:00,
1000000000253774,77018794285,mKarTel,mKcell,mKcell,,D01,2016-09-30T16:11:20+06:00,
1000000000253774,77018794286,mKarTel,mKcell,mKcell,,D01,2016-09-30T16:11:20+06:00,
1000000000253774,77018794287,mKarTel,mKcell,mKcell,,D01,2016-09-30T16:11:20+06:00,
1000000000253774,77018794288,mKarTel,mKcell,mKcell,,D01,2016-09-30T16:11:20+06:00,
1000000000253774,77018794289,mKarTel,mKcell,mKcell,,D01,2016-09-30T16:11:20+06:00,
1000000000253774,77018794290,mKarTel,mKcell,mKcell,,D01,2016-09-30T16:11:20+06:00,
1000000000253774,77018794291,mKarTel,mKcell,mKcell,,D01,2016-09-30T16:11:20+06:00,
1000000000253774,77018794292,mKarTel,mKcell,mKcell,,D01,2016-09-30T16:11:20+06:00,
1000000000253774,77018794293,mKarTel,mKcell,mKcell,,D01,2016-09-30T16:11:20+06:00,
1000000000253774,77018794296,mKarTel,mKcell,mKcell,,D01,2016-09-30T16:11:20+06:00,
1000000000253806,77018794297,mKarTel,mKcell,mKcell,,D01,2016-09-30T16:17:23+06:00,
1000000000253806,77018794298,mKarTel,mKcell,mKcell,,D01,2016-09-30T16:17:23+06:00,
1000000000253806,77018794299,mKarTel,mKcell,mKcell,,D01,2016-09-30T16:17:23+06:00,
1000000000253806,77018794300,mKarTel,mKcell,mKcell,,D01,2016-09-30T16:17:23+06:00,
1000000000253806,77018794301,mKarTel,mKcell,mKcell,,D01,2016-09-30T16:17:23+06:00,
1000000000253806,77018794302,mKarTel,mKcell,mKcell,,D01,2016-09-30T16:17:23+06:00,
1000000000253806,77018794303,mKarTel,mKcell,mKcell,,D01,2016-09-30T16:17:23+06:00,
1000000000253806,77018794304,mKarTel,mKcell,mKcell,,D01,2016-09-30T16:17:23+06:00,
1000000000253806,77018794305,mKarTel,mKcell,mKcell,,D01,2016-09-30T16:17:23+06:00,
1000000000253806,77018794306,mKarTel,mKcell,mKcell,,D01,2016-09-30T16:17:23+06:00,
1000000000253806,77018794307,mKarTel,mKcell,mKcell,,D01,2016-09-30T16:17:23+06:00,
1000000000253806,77018794308,mKarTel,mKcell,mKcell,,D01,2016-09-30T16:17:23+06:00,
1000000000253806,77018794309,mKarTel,mKcell,mKcell,,D01,2016-09-30T16:17:23+06:00,
1000000000253806,77018794310,mKarTel,mKcell,mKcell,,D01,2016-09-30T16:17:23+06:00,
1000000000253806,77018794311,mKarTel,mKcell,mKcell,,D01,2016-09-30T16:17:23+06:00,
1000000000253806,77018794312,mKarTel,mKcell,mKcell,,D01,2016-09-30T16:17:23+06:00,
1000000000253806,77018794313,mKarTel,mKcell,mKcell,,D01,2016-09-30T16:17:23+06:00,
1000000000253806,77018794315,mKarTel,mKcell,mKcell,,D01,2016-09-30T16:17:23+06:00,
1000000000253806,77018794317,mKarTel,mKcell,mKcell,,D01,2016-09-30T16:17:23+06:00,
1000000000253806,77018794318,mKarTel,mKcell,mKcell,,D01,2016-09-30T16:17:23+06:00,
1000000000253806,77018794319,mKarTel,mKcell,mKcell,,D01,2016-09-30T16:17:23+06:00,
1000000000253806,77018794320,mKarTel,mKcell,mKcell,,D01,2016-09-30T16:17:23+06:00,
1000000000253806,77018794321,mKarTel,mKcell,mKcell,,D01,2016-09-30T16:17:23+06:00,
1000000000253806,77018794324,mKarTel,mKcell,mKcell,,D01,2016-09-30T16:17:23+06:00,
1000000000253806,77018794325,mKarTel,mKcell,mKcell,,D01,2016-09-30T16:17:23+06:00,
1000000000253806,77018794326,mKarTel,mKcell,mKcell,,D01,2016-09-30T16:17:23+06:00,
1000000000253806,77018794327,mKarTel,mKcell,mKcell,,D01,2016-09-30T16:17:23+06:00,
1000000000253806,77018794328,mKarTel,mKcell,mKcell,,D01,2016-09-30T16:17:23+06:00,
1000000000253806,77018794329,mKarTel,mKcell,mKcell,,D01,2016-09-30T16:17:23+06:00,
1000000000253806,77018794330,mKarTel,mKcell,mKcell,,D01,2016-09-30T16:17:23+06:00,
1000000000253806,77018794331,mKarTel,mKcell,mKcell,,D01,2016-09-30T16:17:23+06:00,
1000000000253806,77018794332,mKarTel,mKcell,mKcell,,D01,2016-09-30T16:17:23+06:00,
1000000000253806,77018794333,mKarTel,mKcell,mKcell,,D01,2016-09-30T16:17:23+06:00,
1000000000253806,77018794334,mKarTel,mKcell,mKcell,,D01,2016-09-30T16:17:23+06:00,
1000000000253806,77018794335,mKarTel,mKcell,mKcell,,D01,2016-09-30T16:17:23+06:00,
1000000000253806,77018794336,mKarTel,mKcell,mKcell,,D01,2016-09-30T16:17:23+06:00,
1000000000253806,77018794338,mKarTel,mKcell,mKcell,,D01,2016-09-30T16:17:23+06:00,
1000000000253806,77018794339,mKarTel,mKcell,mKcell,,D01,2016-09-30T16:17:23+06:00,
1000000000253806,77018794340,mKarTel,mKcell,mKcell,,D01,2016-09-30T16:17:23+06:00,
1000000000253806,77018794341,mKarTel,mKcell,mKcell,,D01,2016-09-30T16:17:23+06:00,
1000000000253806,77018794342,mKarTel,mKcell,mKcell,,D01,2016-09-30T16:17:23+06:00,
1000000000253806,77018794343,mKarTel,mKcell,mKcell,,D01,2016-09-30T16:17:23+06:00,
1000000000253806,77018794344,mKarTel,mKcell,mKcell,,D01,2016-09-30T16:17:23+06:00,
1000000000253806,77018794345,mKarTel,mKcell,mKcell,,D01,2016-09-30T16:17:23+06:00,
1000000000253806,77018794346,mKarTel,mKcell,mKcell,,D01,2016-09-30T16:17:23+06:00,
1000000000253815,77018794347,mKarTel,mKcell,mKcell,,D01,2016-09-30T16:11:29+06:00,
1000000000253815,77018794349,mKarTel,mKcell,mKcell,,D01,2016-09-30T16:11:29+06:00,
1000000000253815,77018794350,mKarTel,mKcell,mKcell,,D01,2016-09-30T16:11:29+06:00,
1000000000253815,77018794352,mKarTel,mKcell,mKcell,,D01,2016-09-30T16:11:29+06:00,
1000000000253815,77018794353,mKarTel,mKcell,mKcell,,D01,2016-09-30T16:11:29+06:00,
1000000000253815,77018794354,mKarTel,mKcell,mKcell,,D01,2016-09-30T16:11:29+06:00,
1000000000253815,77018794356,mKarTel,mKcell,mKcell,,D01,2016-09-30T16:11:29+06:00,
1000000000253815,77018794357,mKarTel,mKcell,mKcell,,D01,2016-09-30T16:11:29+06:00,
1000000000253815,77018794358,mKarTel,mKcell,mKcell,,D01,2016-09-30T16:11:29+06:00,
1000000000253815,77018794359,mKarTel,mKcell,mKcell,,D01,2016-09-30T16:11:29+06:00,
1000000000253815,77018794360,mKarTel,mKcell,mKcell,,D01,2016-09-30T16:11:29+06:00,
1000000000253815,77018794361,mKarTel,mKcell,mKcell,,D01,2016-09-30T16:11:29+06:00,
1000000000253815,77018794363,mKarTel,mKcell,mKcell,,D01,2016-09-30T16:11:29+06:00,
1000000000253815,77018794364,mKarTel,mKcell,mKcell,,D01,2016-09-30T16:11:29+06:00,
1000000000253815,77018794365,mKarTel,mKcell,mKcell,,D01,2016-09-30T16:11:29+06:00,
1000000000253815,77018794366,mKarTel,mKcell,mKcell,,D01,2016-09-30T16:11:29+06:00,
1000000000253815,77018794367,mKarTel,mKcell,mKcell,,D01,2016-09-30T16:11:29+06:00,
1000000000253815,77018794368,mKarTel,mKcell,mKcell,,D01,2016-09-30T16:11:29+06:00,
1000000000253815,77018794369,mKarTel,mKcell,mKcell,,D01,2016-09-30T16:11:29+06:00,
1000000000253815,77018794370,mKarTel,mKcell,mKcell,,D01,2016-09-30T16:11:29+06:00,
1000000000253815,77018794371,mKarTel,mKcell,mKcell,,D01,2016-09-30T16:11:29+06:00,
1000000000253815,77018794372,mKarTel,mKcell,mKcell,,D01,2016-09-30T16:11:29+06:00,
1000000000253815,77018794373,mKarTel,mKcell,mKcell,,D01,2016-09-30T16:11:29+06:00,
1000000000253815,77018794374,mKarTel,mKcell,mKcell,,D01,2016-09-30T16:11:29+06:00,
1000000000253815,77018794375,mKarTel,mKcell,mKcell,,D01,2016-09-30T16:11:29+06:00,
1000000000253815,77018794376,mKarTel,mKcell,mKcell,,D01,2016-09-30T16:11:29+06:00,
1000000000253815,77018794377,mKarTel,mKcell,mKcell,,D01,2016-09-30T16:11:29+06:00,
1000000000253815,77018794378,mKarTel,mKcell,mKcell,,D01,2016-09-30T16:11:29+06:00,
1000000000253815,77018794379,mKarTel,mKcell,mKcell,,D01,2016-09-30T16:11:29+06:00,
1000000000253815,77018794380,mKarTel,mKcell,mKcell,,D01,2016-09-30T16:11:29+06:00,
1000000000253815,77018794381,mKarTel,mKcell,mKcell,,D01,2016-09-30T16:11:29+06:00,
1000000000253815,77018794383,mKarTel,mKcell,mKcell,,D01,2016-09-30T16:11:29+06:00,
1000000000253815,77018794384,mKarTel,mKcell,mKcell,,D01,2016-09-30T16:11:29+06:00,
1000000000253815,77018794385,mKarTel,mKcell,mKcell,,D01,2016-09-30T16:11:29+06:00,
1000000000253815,77018794386,mKarTel,mKcell,mKcell,,D01,2016-09-30T16:11:29+06:00,
1000000000253815,77018794387,mKarTel,mKcell,mKcell,,D01,2016-09-30T16:11:29+06:00,
1000000000253815,77018794388,mKarTel,mKcell,mKcell,,D01,2016-09-30T16:11:29+06:00,
1000000000253815,77018794389,mKarTel,mKcell,mKcell,,D01,2016-09-30T16:11:29+06:00,
1000000000253815,77018794390,mKarTel,mKcell,mKcell,,D01,2016-09-30T16:11:29+06:00,
1000000000253815,77018794391,mKarTel,mKcell,mKcell,,D01,2016-09-30T16:11:29+06:00,
1000000000253815,77018794392,mKarTel,mKcell,mKcell,,D01,2016-09-30T16:11:29+06:00,
1000000000253815,77018794393,mKarTel,mKcell,mKcell,,D01,2016-09-30T16:11:29+06:00,
1000000000253815,77018794394,mKarTel,mKcell,mKcell,,D01,2016-09-30T16:11:29+06:00,
1000000000253815,77018794395,mKarTel,mKcell,mKcell,,D01,2016-09-30T16:11:29+06:00,
1000000000254138,77007778750,mKcell,mAltel,mAltel,,D02,2016-09-30T16:00:52+06:00,
1000000000254140,77784275495,mMTS,mKcell,mKcell,,D77,2016-09-30T16:02:40+06:00,
1000000000254141,77027545139,mAltel,mKcell,mKcell,,D07,2016-09-30T16:04:28+06:00,
1000000000254143,77024414961,mMTS,mKcell,mKcell,,D77,2016-09-30T16:06:30+06:00,
1000000000254144,77776146070,mMTS,mKarTel,mKarTel,,D77,2016-09-30T16:08:06+06:00,
1000000000254145,77007179417,mAltel,mKarTel,mAltel,D01,D07,2016-09-30T16:08:15+06:00,
1000000000254146,77476485836,mKcell,mMTS,mMTS,,D02,2016-09-30T16:08:16+06:00,
1000000000254148,77007797777,mKarTel,mAltel,mAltel,,D01,2016-09-30T16:09:04+06:00,
1000000000254150,77077140393,mAltel,mMTS,mMTS,,D07,2016-09-30T16:09:14+06:00,
1000000000254151,77076713727,mKcell,mMTS,mMTS,,D02,2016-09-30T16:10:56+06:00,
1000000000254153,77010990904,mAltel,mKarTel,mKcell,D01,D07,2016-09-30T16:13:08+06:00,
1000000000254154,77019513968,mKarTel,mKcell,mKcell,,D01,2016-09-30T16:13:51+06:00,
1000000000254155,77017117079,mKcell,mKarTel,mKcell,D01,D02,2016-09-30T16:14:04+06:00,
1000000000254157,77009810192,mKarTel,mAltel,mAltel,,D01,2016-09-30T16:14:50+06:00,
1000000000254158,77076713858,mKcell,mMTS,mMTS,,D02,2016-09-30T16:15:29+06:00,
1000000000254159,77017776741,mKarTel,mKcell,mKcell,,D01,2016-09-30T16:15:37+06:00,
1000000000254162,77072220705,mAltel,mMTS,mMTS,,D07,2016-09-30T16:16:38+06:00,
1000000000254163,77078328566,mKarTel,mMTS,mMTS,,D01,2016-09-30T16:17:14+06:00,
1000000000254166,77785089329,mMTS,mKcell,mKcell,,D77,2016-09-30T16:17:29+06:00,
1000000000254167,77029966999,mMTS,mKcell,mKcell,,D77,2016-09-30T16:17:32+06:00,
1000000000254169,77012500192,mMTS,mKcell,mKcell,,D77,2016-09-30T16:18:06+06:00,
1000000000254170,77078899876,mKcell,mMTS,mMTS,,D02,2016-09-30T16:18:31+06:00,
1000000000254171,77016859040,mAltel,mKcell,mKcell,,D07,2016-09-30T16:19:34+06:00,
1000000000254172,77051101919,mKcell,mKarTel,mKarTel,,D02,2016-09-30T16:21:06+06:00,
1000000000254173,77012060565,mKarTel,mKcell,mKcell,,D01,2016-09-30T16:21:21+06:00,
1000000000254174,77781419582,mMTS,mKcell,mKcell,,D77,2016-09-30T16:22:33+06:00,
1000000000254175,77077773278,mKcell,mMTS,mMTS,D77,D02,2016-09-30T16:22:55+06:00,
1000000000254177,77476483481,mKcell,mMTS,mMTS,,D02,2016-09-30T16:25:38+06:00,
1000000000254180,77027439787,mAltel,mKcell,mKcell,,D07,2016-09-30T16:29:26+06:00,
1000000000254181,77026611958,mAltel,mKcell,mKcell,,D07,2016-09-30T16:29:26+06:00,
1000000000254184,77052160021,mMTS,mKarTel,mKarTel,,D77,2016-09-30T16:29:16+06:00,
1000000000254185,77770817787,mMTS,mKarTel,mKarTel,,D77,2016-09-30T16:29:16+06:00,
1000000000254186,77003134584,mMTS,mAltel,mAltel,,D77,2016-09-30T16:28:43+06:00,
1000000000254187,77056111918,mMTS,mKarTel,mKarTel,,D77,2016-09-30T16:29:26+06:00,
