NPId,Number,RecipientId,DonorId,RangeHolderId,OldRoute,NewRoute,PortDate,RowCount
1000000000205035,77013883876,mKarTel,mKcell,mKcell,,D01,2016-07-05T13:08:29+06:00,13
1000000000205038,77773682878,mKcell,mKarTel,mKarTel,,D02,2016-07-05T13:12:47+06:00,
1000000000205039,77077820111,mMTS,mAltel,mMTS,D07,D77,2016-07-05T13:13:58+06:00,
1000000000205040,77089152957,mKarTel,mMTS,mAltel,D77,D01,2016-07-05T13:18:44+06:00,
1000000000205041,77082800000,mKarTel,mAltel,mAltel,,D01,2016-07-05T13:20:19+06:00,
1000000000205042,77053007777,mMTS,mAltel,mKarTel,D07,D77,2016-07-05T13:21:00+06:00,
1000000000205043,77774607413,mMTS,mKarTel,mKarTel,,D77,2016-07-05T13:22:35+06:00,
1000000000205044,77054172910,mMTS,mKarTel,mKarTel,,D77,2016-07-05T13:22:31+06:00,
1000000000205045,77058739870,mKarTel,mMTS,mKarTel,D77,D01,2016-07-05T13:23:14+06:00,
1000000000205047,77027172888,mKarTel,mKcell,mKcell,D02,D01,2016-07-05T13:24:43+06:00,
1000000000205049,77019777101,mMTS,mKcell,mKcell,,D77,2016-07-05T13:24:58+06:00,
1000000000205050,77713621010,mKcell,mKarTel,mKarTel,,D02,2016-07-05T13:25:47+06:00,
1000000000205052,77071353590,mKarTel,mMTS,mMTS,,D01,2016-07-05T13:28:41+06:00,
