NPId,Number,RecipientId,DonorId,RangeHolderId,OldRoute,NewRoute,PortDate,RowCount
1000000000272229,77083763966,mMTS,mAltel,mAltel,,D77,2016-11-09T16:16:39+06:00,19
1000000000274650,77752051475,mMTS,mAltel,mKcell,D07,D77,2016-11-09T16:26:21+06:00,
1000000000275066,77477559595,mMTS,mAltel,mMTS,D07,D77,2016-11-09T16:28:28+06:00,
1000000000275130,77006090069,mMTS,mAltel,mAltel,,D77,2016-11-09T16:12:28+06:00,
1000000000276789,77012030211,mKcell,mMTS,mKcell,D77,D02,2016-11-09T16:00:53+06:00,
1000000000276790,77017768843,mMTS,mKcell,mKcell,D02,D77,2016-11-09T16:01:27+06:00,
1000000000276791,77015014210,mMTS,mKcell,mKcell,,D77,2016-11-09T16:06:13+06:00,
1000000000276793,77073032121,mKarTel,mAltel,mMTS,D07,D01,2016-11-09T16:08:03+06:00,
1000000000276794,77778383738,mKcell,mKarTel,mKarTel,,D02,2016-11-09T16:08:42+06:00,
1000000000276795,77028645690,mMTS,mKcell,mKcell,,D77,2016-11-09T16:09:39+06:00,
1000000000276797,77072774300,mMTS,mKarTel,mMTS,D01,D77,2016-11-09T16:11:39+06:00,
1000000000276799,77013891699,mKcell,mKarTel,mKcell,D01,D02,2016-11-09T16:13:32+06:00,
1000000000276801,77778004848,mMTS,mKarTel,mKarTel,,D77,2016-11-09T16:15:16+06:00,
1000000000276803,77754920050,mMTS,mKcell,mKcell,,D77,2016-11-09T16:22:22+06:00,
1000000000276804,77055304486,mMTS,mKarTel,mKarTel,,D77,2016-11-09T16:23:16+06:00,
1000000000276807,77053866776,mMTS,mKarTel,mKarTel,,D77,2016-11-09T16:26:43+06:00,
1000000000276808,77785025752,mMTS,mKcell,mKcell,,D77,2016-11-09T16:27:14+06:00,
1000000000276809,77079082598,mKarTel,mMTS,mMTS,,D01,2016-11-09T16:28:49+06:00,
1000000000276810,77787032403,mKcell,mKarTel,mKcell,D01,D02,2016-11-09T16:29:33+06:00,
