NPId,Number,RecipientId,DonorId,RangeHolderId,OldRoute,NewRoute,PortDate,RowCount
1000000000229464,77750001445,mKcell,mMTS,mKcell,D77,D02,2016-08-24T16:42:14+06:00,25
1000000000229612,77073226407,mKcell,mMTS,mMTS,,D02,2016-08-24T16:46:39+06:00,
1000000000233044,77010142388,mKcell,mAltel,mKcell,D07,D02,2016-08-24T16:49:41+06:00,
1000000000233582,77773155940,mAltel,mKarTel,mKarTel,D01,D07,2016-08-24T16:30:31+06:00,
1000000000233584,77781212775,mKarTel,mKcell,mKcell,,D01,2016-08-24T16:30:27+06:00,
1000000000233586,77773290197,mKcell,mKarTel,mKarTel,,D02,2016-08-24T16:34:41+06:00,
1000000000233587,77021630215,mAltel,mKcell,mKcell,,D07,2016-08-24T16:33:05+06:00,
1000000000233588,77001383904,mMTS,mAltel,mAltel,,D77,2016-08-24T16:33:20+06:00,
1000000000233589,77474559964,mAltel,mMTS,mMTS,,D07,2016-08-24T16:33:29+06:00,
1000000000233590,77019604060,mAltel,mKcell,mKcell,,D07,2016-08-24T16:33:58+06:00,
1000000000233591,77021075510,mAltel,mKcell,mKcell,,D07,2016-08-24T16:35:29+06:00,
1000000000233592,77083542257,mMTS,mAltel,mAltel,,D77,2016-08-24T16:36:43+06:00,
1000000000233593,77000012222,mKarTel,mAltel,mAltel,,D01,2016-08-24T16:38:34+06:00,
1000000000233594,77001000997,mAltel,mKcell,mAltel,D02,D07,2016-08-24T16:38:43+06:00,
1000000000233596,77786339979,mMTS,mKcell,mKcell,,D77,2016-08-24T16:44:30+06:00,
1000000000233597,77712211444,mAltel,mKarTel,mKarTel,,D07,2016-08-24T16:46:18+06:00,
1000000000233599,77005129593,mKcell,mAltel,mAltel,,D02,2016-08-24T16:50:08+06:00,
1000000000233600,77074532677,mKarTel,mMTS,mMTS,,D01,2016-08-24T16:51:00+06:00,
1000000000233601,77026286628,mMTS,mKcell,mKcell,,D77,2016-08-24T16:50:30+06:00,
1000000000233603,77755170486,mKcell,mMTS,mKcell,D77,D02,2016-08-24T16:51:15+06:00,
1000000000233604,77082113658,mMTS,mAltel,mAltel,,D77,2016-08-24T16:51:38+06:00,
1000000000233606,77014535569,mMTS,mKcell,mKcell,,D77,2016-08-24T16:53:39+06:00,
1000000000233608,77755771111,mAltel,mKcell,mKcell,,D07,2016-08-24T16:54:41+06:00,
1000000000233609,77024601447,mMTS,mKcell,mKcell,,D77,2016-08-24T16:55:38+06:00,
1000000000233611,77012741659,mKarTel,mKcell,mKcell,,D01,2016-08-24T16:58:26+06:00,
