NPId,Number,RecipientId,DonorId,RangeHolderId,OldRoute,NewRoute,PortDate,RowCount
1000000000227142,77753990403,mKcell,mKarTel,mKcell,D01,D02,2016-08-12T15:26:50+06:00,15
1000000000228084,77071953760,mKarTel,mMTS,mMTS,,D01,2016-08-12T15:01:32+06:00,
1000000000228085,77753131500,mMTS,mKcell,mKcell,,D77,2016-08-12T15:06:47+06:00,
1000000000228087,77775704700,mKarTel,mMTS,mKarTel,D77,D01,2016-08-12T15:09:25+06:00,
1000000000228088,77017701489,mKarTel,mKcell,mKcell,,D01,2016-08-12T15:10:50+06:00,
1000000000228089,77010701313,mMTS,mKcell,mKcell,,D77,2016-08-12T15:11:31+06:00,
1000000000228090,77088080099,mKarTel,mAltel,mAltel,,D01,2016-08-12T15:16:42+06:00,
1000000000228091,77773158080,mKarTel,mMTS,mKarTel,D77,D01,2016-08-12T15:17:21+06:00,
1000000000228092,77718524450,mMTS,mKarTel,mKarTel,,D77,2016-08-12T15:17:49+06:00,
1000000000228093,77017806820,mMTS,mKcell,mKcell,,D77,2016-08-12T15:17:39+06:00,
1000000000228094,77755116358,mKarTel,mKcell,mKcell,,D01,2016-08-12T15:19:30+06:00,
1000000000228095,77086943949,mMTS,mAltel,mAltel,,D77,2016-08-12T15:20:17+06:00,
1000000000228096,77077855555,mKarTel,mMTS,mMTS,,D01,2016-08-12T15:22:16+06:00,
1000000000228097,77014891014,mMTS,mKcell,mKcell,,D77,2016-08-12T15:23:06+06:00,
1000000000228098,77022707776,mKarTel,mKcell,mKcell,,D01,2016-08-12T15:24:00+06:00,
