NPId,Number,RecipientId,DonorId,RangeHolderId,OldRoute,NewRoute,PortDate,RowCount
1000000000319012,77005552495,mKcell,mAltel,mAltel,,D02,2017-01-30T13:31:25+06:00,47
1000000000319013,77005554695,mKcell,mAltel,mAltel,,D02,2017-01-30T13:31:25+06:00,
1000000000319014,77016868633,mKcell,mAltel,mKcell,D07,D02,2017-01-30T13:31:25+06:00,
1000000000319028,77013006737,mKcell,mAltel,mKcell,D07,D02,2017-01-30T13:31:24+06:00,
1000000000319029,77017301106,mKcell,mAltel,mKcell,D07,D02,2017-01-30T13:31:24+06:00,
1000000000319030,77077692890,mKcell,mMTS,mMTS,,D02,2017-01-30T13:31:24+06:00,
1000000000319031,77770621777,mKcell,mKarTel,mKarTel,D01,D02,2017-01-30T13:31:26+06:00,
1000000000319032,77774680405,mKcell,mKarTel,mKarTel,,D02,2017-01-30T13:31:26+06:00,
1000000000319035,77024845509,mMTS,mKcell,mKcell,,D77,2017-01-30T13:31:54+06:00,
1000000000319036,77015556249,mKarTel,mKcell,mKcell,,D01,2017-01-30T13:46:17+06:00,
1000000000319039,77787304505,mAltel,mKcell,mKcell,,D07,2017-01-30T13:46:02+06:00,
1000000000319042,77779300101,mKcell,mKarTel,mKarTel,,D02,2017-01-30T13:46:09+06:00,
1000000000319043,77759803555,mAltel,mKcell,mKcell,,D07,2017-01-30T13:46:04+06:00,
1000000000319044,77759601172,mKcell,mMTS,mKcell,D77,D02,2017-01-30T13:46:10+06:00,
1000000000319045,77012729561,mMTS,mKcell,mKcell,,D77,2017-01-30T13:46:04+06:00,
1000000000319046,77029048511,mKarTel,mKcell,mKcell,,D01,2017-01-30T13:46:23+06:00,
1000000000319048,77756300111,mAltel,mKcell,mKcell,,D07,2017-01-30T13:46:08+06:00,
1000000000319049,77017155373,mKarTel,mKcell,mKcell,,D01,2017-01-30T13:46:22+06:00,
1000000000319050,77057274433,mAltel,mKarTel,mKarTel,,D07,2017-01-30T13:40:55+06:00,
1000000000319052,77012083500,mMTS,mKcell,mKcell,,D77,2017-01-30T13:46:08+06:00,
1000000000319054,77476554024,mKarTel,mMTS,mMTS,,D01,2017-01-30T13:42:05+06:00,
1000000000319056,77007171000,mKarTel,mAltel,mAltel,,D01,2017-01-30T13:42:42+06:00,
1000000000319057,77023418252,mMTS,mKcell,mKcell,,D77,2017-01-30T13:46:08+06:00,
1000000000319058,77019099294,mMTS,mKcell,mKcell,,D77,2017-01-30T13:46:10+06:00,
1000000000319059,77751000902,mMTS,mKcell,mKcell,,D77,2017-01-30T13:46:14+06:00,
1000000000319060,77019067062,mKarTel,mKcell,mKcell,,D01,2017-01-30T13:46:26+06:00,
1000000000319061,77051690911,mKarTel,mMTS,mKarTel,D77,D01,2017-01-30T13:44:12+06:00,
1000000000319064,77017208918,mKcell,mMTS,mKcell,D77,D02,2017-01-30T13:46:16+06:00,
1000000000319065,77017114766,mKcell,mKarTel,mKcell,D01,D02,2017-01-30T13:53:04+06:00,
1000000000319066,77017558770,mKcell,mKarTel,mKcell,D01,D02,2017-01-30T13:53:04+06:00,
1000000000319067,77765844441,mKcell,mKarTel,mKarTel,,D02,2017-01-30T13:53:04+06:00,
1000000000319068,77479659955,mKcell,mMTS,mMTS,,D02,2017-01-30T13:46:20+06:00,
1000000000319069,77753997595,mKcell,mMTS,mKcell,D77,D02,2017-01-30T13:46:19+06:00,
1000000000319070,77753559282,mKcell,mMTS,mKcell,D77,D02,2017-01-30T13:53:04+06:00,
1000000000319071,77762453242,mMTS,mKarTel,mKarTel,,D77,2017-01-30T13:47:59+06:00,
1000000000319072,77019099492,mMTS,mKcell,mKcell,,D77,2017-01-30T13:53:06+06:00,
1000000000319074,77012222585,mKarTel,mKcell,mKcell,,D01,2017-01-30T13:53:25+06:00,
1000000000319075,77077741383,mAltel,mMTS,mMTS,,D07,2017-01-30T13:51:17+06:00,
1000000000319076,77776777092,mMTS,mKarTel,mKarTel,,D77,2017-01-30T13:52:01+06:00,
1000000000319077,77712110828,mMTS,mKarTel,mKarTel,,D77,2017-01-30T13:52:17+06:00,
1000000000319079,77778400003,mMTS,mKarTel,mKarTel,,D77,2017-01-30T13:53:02+06:00,
1000000000319080,77785444420,mMTS,mKcell,mKcell,,D77,2017-01-30T13:53:10+06:00,
1000000000319081,77015033517,mKarTel,mKcell,mKcell,,D01,2017-01-30T13:58:29+06:00,
1000000000319083,77013784121,mMTS,mKcell,mKcell,,D77,2017-01-30T13:58:22+06:00,
1000000000319084,77018080707,mMTS,mKcell,mKcell,,D77,2017-01-30T13:58:29+06:00,
1000000000319085,77477575312,mAltel,mMTS,mMTS,,D07,2017-01-30T13:56:52+06:00,
1000000000319086,77078785972,mMTS,mKarTel,mMTS,D01,D77,2017-01-30T13:57:50+06:00,
