NPId,Number,RecipientId,DonorId,RangeHolderId,OldRoute,NewRoute,PortDate,RowCount
1000000000220272,77082069341,mKcell,mAltel,mAltel,,D02,2016-07-30T19:00:08+06:00,6
1000000000220273,77013797495,mKcell,mMTS,mKcell,D77,D02,2016-07-30T19:04:19+06:00,
1000000000220274,77750000138,mMTS,mKcell,mKcell,,D77,2016-07-30T19:10:28+06:00,
1000000000220275,77017417269,mKarTel,mKcell,mKcell,,D01,2016-07-30T19:12:05+06:00,
1000000000220277,77782731692,mMTS,mKcell,mKcell,,D77,2016-07-30T19:24:43+06:00,
1000000000220278,77013566369,mKcell,mKarTel,mKcell,D01,D02,2016-07-30T19:25:45+06:00,
