NPId,Number,RecipientId,DonorId,RangeHolderId,OldRoute,NewRoute,PortDate,RowCount
1000000000326673,77072922720,mKcell,mMTS,mMTS,,D02,2017-02-09T20:33:19+06:00,2
1000000000326674,77718555666,mKarTel,mAltel,mKarTel,D07,D01,2017-02-09T20:38:07+06:00,
