NPId,Number,RecipientId,DonorId,RangeHolderId,OldRoute,NewRoute,PortDate,RowCount
1000000000397005,77770228833,mKcell,mKarTel,mKarTel,,D02,2017-06-03T19:00:10+06:00,6
1000000000397006,77760605666,mKcell,mKarTel,mKarTel,,D02,2017-06-03T19:00:43+06:00,
1000000000397007,77770600067,mKarTel,mMTS,mKarTel,D77,D01,2017-06-03T19:00:49+06:00,
1000000000397008,77757260464,mMTS,mKcell,mKcell,,D77,2017-06-03T19:05:11+06:00,
1000000000397009,77009266327,mKcell,mAltel,mAltel,,D02,2017-06-03T19:21:08+06:00,
1000000000397010,77758932227,mKcell,mAltel,mKcell,D07,D02,2017-06-03T19:22:43+06:00,
