NPId,Number,RecipientId,DonorId,RangeHolderId,OldRoute,NewRoute,PortDate,RowCount
1000000000288174,77056232732,mKarTel,mMTS,mKarTel,D77,D01,2016-12-02T09:02:44+06:00,6
1000000000288175,77011835867,mKarTel,mKcell,mKcell,,D01,2016-12-02T09:02:49+06:00,
1000000000288176,77014300013,mKarTel,mKcell,mKcell,,D01,2016-12-02T09:02:50+06:00,
1000000000288178,77017365844,mKarTel,mKcell,mKcell,,D01,2016-12-02T09:07:27+06:00,
1000000000288179,77002920242,mKcell,mAltel,mAltel,,D02,2016-12-02T09:17:24+06:00,
1000000000288180,77017999247,mKarTel,mKcell,mKcell,,D01,2016-12-02T09:28:37+06:00,
