NPId,Number,RecipientId,DonorId,RangeHolderId,OldRoute,NewRoute,PortDate,RowCount
1000000000241537,77719903419,mKcell,mKarTel,mKarTel,,D02,2016-09-07T11:16:06+06:00,39
1000000000241544,77058885757,mKcell,mKarTel,mKarTel,,D02,2016-09-07T11:16:15+06:00,
1000000000241545,77781124035,mAltel,mKcell,mKcell,,D07,2016-09-07T11:03:19+06:00,
1000000000241547,77715988323,mMTS,mKarTel,mKarTel,,D77,2016-09-07T11:01:48+06:00,
1000000000241548,77010000786,mKcell,mAltel,mKcell,D07,D02,2016-09-07T11:01:30+06:00,
1000000000241550,77719904144,mKcell,mKarTel,mKarTel,,D02,2016-09-07T11:18:14+06:00,
1000000000241552,77778390563,mMTS,mKarTel,mKarTel,,D77,2016-09-07T11:03:42+06:00,
1000000000241553,77015731966,mKcell,mMTS,mKcell,D77,D02,2016-09-07T11:04:01+06:00,
1000000000241555,77715071414,mKcell,mKarTel,mKarTel,,D02,2016-09-07T11:20:54+06:00,
1000000000241556,77019577757,mMTS,mKcell,mKcell,,D77,2016-09-07T11:05:18+06:00,
1000000000241558,77767164353,mMTS,mKarTel,mKarTel,,D77,2016-09-07T11:07:00+06:00,
1000000000241559,77013775942,mMTS,mKcell,mKcell,,D77,2016-09-07T11:07:39+06:00,
1000000000241560,77013731505,mKcell,mAltel,mKcell,D07,D02,2016-09-07T11:09:12+06:00,
1000000000241561,77028244487,mMTS,mKcell,mKcell,,D77,2016-09-07T11:09:12+06:00,
1000000000241562,77768881388,mKcell,mKarTel,mKarTel,,D02,2016-09-07T11:25:32+06:00,
1000000000241563,77075812077,mKarTel,mMTS,mMTS,,D01,2016-09-07T11:09:39+06:00,
1000000000241564,77753720770,mAltel,mKcell,mKcell,,D07,2016-09-07T11:09:19+06:00,
1000000000241565,77076262707,mKarTel,mMTS,mMTS,,D01,2016-09-07T11:09:39+06:00,
1000000000241566,77472101047,mKarTel,mMTS,mMTS,,D01,2016-09-07T11:09:48+06:00,
1000000000241567,77086940701,mKcell,mMTS,mAltel,D77,D02,2016-09-07T11:09:40+06:00,
1000000000241568,77777286575,mAltel,mKarTel,mKarTel,,D07,2016-09-07T11:11:21+06:00,
1000000000241569,77057956545,mKcell,mKarTel,mKarTel,,D02,2016-09-07T11:11:35+06:00,
1000000000241570,77715539265,mKcell,mKarTel,mKarTel,,D02,2016-09-07T11:28:00+06:00,
1000000000241571,77773362562,mKcell,mKarTel,mKarTel,,D02,2016-09-07T11:29:03+06:00,
1000000000241572,77715527216,mKcell,mKarTel,mKarTel,,D02,2016-09-07T11:29:04+06:00,
1000000000241573,77017852607,mAltel,mKcell,mKcell,,D07,2016-09-07T11:14:19+06:00,
1000000000241577,77775752065,mAltel,mKarTel,mKarTel,,D07,2016-09-07T11:20:06+06:00,
1000000000241579,77071453902,mKarTel,mAltel,mMTS,D07,D01,2016-09-07T11:20:14+06:00,
1000000000241580,77007377776,mKarTel,mAltel,mAltel,,D01,2016-09-07T11:20:14+06:00,
1000000000241582,77017776326,mMTS,mKcell,mKcell,,D77,2016-09-07T11:23:42+06:00,
1000000000241583,77770696767,mMTS,mKarTel,mKarTel,D01,D77,2016-09-07T11:24:14+06:00,
1000000000241584,77019844609,mKarTel,mKcell,mKcell,,D01,2016-09-07T11:25:13+06:00,
1000000000241585,77775752064,mAltel,mKarTel,mKarTel,,D07,2016-09-07T11:25:40+06:00,
1000000000241586,77017203672,mKarTel,mKcell,mKcell,,D01,2016-09-07T11:26:40+06:00,
1000000000241587,77019463281,mMTS,mKcell,mKcell,,D77,2016-09-07T11:28:58+06:00,
1000000000241588,77015333262,mMTS,mKcell,mKcell,,D77,2016-09-07T11:28:00+06:00,
1000000000241590,77755828828,mMTS,mKcell,mKcell,,D77,2016-09-07T11:28:00+06:00,
1000000000241591,77471872955,mMTS,mKarTel,mMTS,D01,D77,2016-09-07T11:29:02+06:00,
1000000000241592,77025418563,mMTS,mKcell,mKcell,,D77,2016-09-07T11:29:04+06:00,
