NPId,Number,RecipientId,DonorId,RangeHolderId,OldRoute,NewRoute,PortDate,RowCount
1000000000279265,77012109925,mKarTel,mKcell,mKcell,,D01,2016-11-14T19:37:02+06:00,6
1000000000279266,77013566948,mKcell,mMTS,mKcell,D77,D02,2016-11-14T19:40:07+06:00,
1000000000279267,77787748855,mKcell,mMTS,mKcell,D77,D02,2016-11-14T19:40:07+06:00,
1000000000279270,77017216000,mAltel,mKcell,mKcell,,D07,2016-11-14T19:48:44+06:00,
1000000000279271,77017481891,mKcell,mAltel,mKcell,D07,D02,2016-11-14T19:51:24+06:00,
1000000000279272,77015275727,mAltel,mKcell,mKcell,,D07,2016-11-14T19:59:33+06:00,
