NPId,Number,RecipientId,DonorId,RangeHolderId,OldRoute,NewRoute,PortDate,RowCount
1000000000281530,77018961196,mMTS,mKcell,mKcell,,D77,2016-11-20T11:07:28+06:00,5
1000000000281533,77078513310,mKarTel,mMTS,mMTS,,D01,2016-11-20T11:20:35+06:00,
1000000000281534,77021689888,mAltel,mKarTel,mKcell,D01,D07,2016-11-20T11:22:46+06:00,
1000000000281535,77013936730,mMTS,mKcell,mKcell,,D77,2016-11-20T11:27:42+06:00,
1000000000281536,77077035605,mMTS,mKcell,mMTS,D02,D77,2016-11-20T11:27:42+06:00,
