NPId,Number,RecipientId,DonorId,RangeHolderId,OldRoute,NewRoute,PortDate,RowCount
1000000000298168,77019134313,mMTS,mKcell,mKcell,,D77,2016-12-21T13:36:57+06:00,10
1000000000298171,77013776283,mMTS,mKcell,mKcell,,D77,2016-12-21T13:40:16+06:00,
1000000000298173,77715115924,mMTS,mKarTel,mKarTel,,D77,2016-12-21T13:43:45+06:00,
1000000000298175,77757064964,mKcell,mMTS,mKcell,D77,D02,2016-12-21T13:44:00+06:00,
1000000000298176,77000005646,mKarTel,mAltel,mAltel,,D01,2016-12-21T13:44:23+06:00,
1000000000298179,77006007292,mMTS,mAltel,mAltel,,D77,2016-12-21T13:45:57+06:00,
1000000000298184,77774418045,mKcell,mKarTel,mKarTel,,D02,2016-12-21T13:51:08+06:00,
1000000000298188,77775289993,mKarTel,mAltel,mKarTel,D07,D01,2016-12-21T13:57:18+06:00,
1000000000298189,77774432692,mMTS,mKarTel,mKarTel,,D77,2016-12-21T13:58:37+06:00,
1000000000298190,77714711665,mKcell,mKarTel,mKarTel,,D02,2016-12-21T13:58:58+06:00,
