NPId,Number,RecipientId,DonorId,RangeHolderId,OldRoute,NewRoute,PortDate,RowCount
1000000000292087,77075616781,mKarTel,mMTS,mMTS,,D01,2016-12-08T14:30:52+06:00,20
1000000000292088,77017249672,mMTS,mKcell,mKcell,,D77,2016-12-08T14:31:58+06:00,
1000000000292089,77053982050,mMTS,mKarTel,mKarTel,,D77,2016-12-08T14:32:42+06:00,
1000000000292090,77011905833,mMTS,mKcell,mKcell,,D77,2016-12-08T14:32:43+06:00,
1000000000292091,77071108150,mKarTel,mMTS,mMTS,,D01,2016-12-08T14:34:01+06:00,
1000000000292092,77023980980,mMTS,mKcell,mKcell,,D77,2016-12-08T14:34:11+06:00,
1000000000292094,77073003031,mKcell,mMTS,mMTS,,D02,2016-12-08T14:40:27+06:00,
1000000000292095,77001356655,mMTS,mAltel,mAltel,,D77,2016-12-08T14:40:25+06:00,
1000000000292096,77784922070,mKarTel,mKcell,mKcell,,D01,2016-12-08T14:40:55+06:00,
1000000000292098,77087590157,mAltel,mMTS,mAltel,D77,D07,2016-12-08T14:42:06+06:00,
1000000000292100,77075882715,mKarTel,mMTS,mMTS,,D01,2016-12-08T14:43:48+06:00,
1000000000292101,77078328979,mMTS,mAltel,mMTS,D07,D77,2016-12-08T14:44:08+06:00,
1000000000292102,77016800972,mMTS,mKcell,mKcell,,D77,2016-12-08T14:44:36+06:00,
1000000000292104,77083033330,mKarTel,mMTS,mAltel,D77,D01,2016-12-08T14:45:50+06:00,
1000000000292105,77058007221,mAltel,mKarTel,mKarTel,,D07,2016-12-08T14:46:51+06:00,
1000000000292106,77029755455,mMTS,mKcell,mKcell,,D77,2016-12-08T14:47:15+06:00,
1000000000292108,77011811772,mKcell,mKarTel,mKcell,D01,D02,2016-12-08T14:48:45+06:00,
1000000000292109,77082022220,mKarTel,mKcell,mAltel,D02,D01,2016-12-08T14:51:17+06:00,
1000000000292111,77787883065,mAltel,mKcell,mKcell,,D07,2016-12-08T14:51:50+06:00,
1000000000292115,77775113112,mMTS,mAltel,mKarTel,D07,D77,2016-12-08T14:57:47+06:00,
