NPId,Number,RecipientId,DonorId,RangeHolderId,OldRoute,NewRoute,PortDate,RowCount
1000000000415321,77472271127,mKcell,mMTS,mMTS,,D02,2017-07-03T14:33:57+06:00,16
1000000000415322,77024101551,mAltel,mKcell,mKcell,,D07,2017-07-03T14:35:18+06:00,
1000000000415323,77017224896,mAltel,mKcell,mKcell,,D07,2017-07-03T14:36:42+06:00,
1000000000415324,77017855438,mAltel,mKcell,mKcell,,D07,2017-07-03T14:37:18+06:00,
1000000000415325,77015055747,mMTS,mKcell,mKcell,,D77,2017-07-03T14:38:46+06:00,
1000000000415327,77014051999,mKcell,mAltel,mKcell,D07,D02,2017-07-03T14:39:27+06:00,
1000000000415329,77751230044,mKcell,mAltel,mKcell,D07,D02,2017-07-03T14:40:22+06:00,
1000000000415333,77017428704,mMTS,mKcell,mKcell,,D77,2017-07-03T14:43:59+06:00,
1000000000415334,77089993999,mKcell,mAltel,mAltel,,D02,2017-07-03T14:44:27+06:00,
1000000000415336,77027372244,mMTS,mKcell,mKcell,,D77,2017-07-03T14:45:10+06:00,
1000000000415342,77022149508,mMTS,mKcell,mKcell,,D77,2017-07-03T14:50:30+06:00,
1000000000415345,77082000505,mAltel,mKcell,mAltel,D02,D07,2017-07-03T14:51:13+06:00,
1000000000415347,77003905431,mMTS,mAltel,mAltel,,D77,2017-07-03T14:51:38+06:00,
1000000000415348,77474821995,mKcell,mMTS,mMTS,,D02,2017-07-03T14:52:02+06:00,
1000000000415350,77002560370,mMTS,mAltel,mAltel,,D77,2017-07-03T14:54:07+06:00,
1000000000415353,77478609360,mAltel,mMTS,mMTS,,D07,2017-07-03T14:57:26+06:00,
