NPId,Number,RecipientId,DonorId,RangeHolderId,OldRoute,NewRoute,PortDate,RowCount
1000000000313271,77088069045,mKcell,mAltel,mAltel,,D02,2017-01-19T16:31:37+06:00,16
1000000000313272,77005522525,mKarTel,mKcell,mAltel,D02,D01,2017-01-19T16:34:57+06:00,
1000000000313275,77750007805,mMTS,mKcell,mKcell,D02,D77,2017-01-19T16:38:41+06:00,
1000000000313276,77762941934,mKcell,mKarTel,mKarTel,,D02,2017-01-19T16:39:48+06:00,
1000000000313277,77070510572,mKcell,mMTS,mMTS,,D02,2017-01-19T16:39:29+06:00,
1000000000313278,77752183303,mKcell,mKarTel,mKcell,D01,D02,2017-01-19T16:41:10+06:00,
1000000000313279,77028031168,mKarTel,mKcell,mKcell,,D01,2017-01-19T16:40:57+06:00,
1000000000313280,77079912344,mKarTel,mMTS,mMTS,,D01,2017-01-19T16:44:40+06:00,
1000000000313282,77054769797,mAltel,mKarTel,mKarTel,,D07,2017-01-19T16:46:59+06:00,
1000000000313283,77017492547,mKarTel,mKcell,mKcell,,D01,2017-01-19T16:51:40+06:00,
1000000000313285,77013490701,mKarTel,mKcell,mKcell,,D01,2017-01-19T16:50:53+06:00,
1000000000313286,77023195229,mKcell,mMTS,mKcell,D77,D02,2017-01-19T16:51:48+06:00,
1000000000313287,77012436383,mKcell,mMTS,mKcell,D77,D02,2017-01-19T16:51:48+06:00,
1000000000313288,77077000606,mMTS,mKarTel,mMTS,D01,D77,2017-01-19T16:52:45+06:00,
1000000000313290,77785231917,mKcell,mMTS,mKcell,D77,D02,2017-01-19T16:56:00+06:00,
1000000000313292,77757790345,mMTS,mKcell,mKcell,,D77,2017-01-19T16:59:15+06:00,
