NPId,Number,RecipientId,DonorId,RangeHolderId,OldRoute,NewRoute,PortDate,RowCount
1000000000178920,77718505050,mKcell,mKarTel,mKarTel,,D02,2016-05-22T15:31:22+06:00,19
1000000000178922,77018209218,mMTS,mKcell,mKcell,,D77,2016-05-22T15:32:22+06:00,
1000000000178925,77752355481,mMTS,mKcell,mKcell,,D77,2016-05-22T15:34:35+06:00,
1000000000178927,77017494100,mMTS,mKcell,mKcell,,D77,2016-05-22T15:35:45+06:00,
1000000000178928,77016029640,mMTS,mKcell,mKcell,,D77,2016-05-22T15:39:29+06:00,
1000000000178929,77004700404,mAltel,mKcell,mAltel,D02,D07,2016-05-22T15:40:56+06:00,
1000000000178930,77781880505,mMTS,mKcell,mKcell,,D77,2016-05-22T15:42:14+06:00,
1000000000178931,77781880303,mMTS,mKcell,mKcell,,D77,2016-05-22T15:42:14+06:00,
1000000000178934,77026161193,mMTS,mAltel,mKcell,D07,D77,2016-05-22T15:45:31+06:00,
1000000000178935,77023094910,mMTS,mKcell,mKcell,,D77,2016-05-22T15:46:42+06:00,
1000000000178936,77017025000,mAltel,mKcell,mKcell,,D07,2016-05-22T15:47:14+06:00,
1000000000178937,77775640608,mMTS,mKarTel,mKarTel,,D77,2016-05-22T15:48:27+06:00,
1000000000178939,77075779931,mKcell,mMTS,mMTS,,D02,2016-05-22T15:49:14+06:00,
1000000000178941,77071252596,mMTS,mAltel,mMTS,D07,D77,2016-05-22T15:50:34+06:00,
1000000000178942,77072700067,mKarTel,mMTS,mMTS,,D01,2016-05-22T15:51:18+06:00,
1000000000178943,77087799999,mKcell,mAltel,mAltel,,D02,2016-05-22T15:51:36+06:00,
1000000000178944,77753705295,mMTS,mKcell,mKcell,,D77,2016-05-22T15:53:43+06:00,
1000000000178945,77776056677,mKarTel,mAltel,mKarTel,D07,D01,2016-05-22T15:56:05+06:00,
1000000000178949,77076107676,mAltel,mMTS,mMTS,,D07,2016-05-22T15:59:48+06:00,
