NPId,Number,RecipientId,DonorId,RangeHolderId,OldRoute,NewRoute,PortDate,RowCount
1000000000400494,77760081999,mKcell,mKarTel,mKarTel,,D02,2017-06-09T15:00:04+06:00,20
1000000000400496,77081842422,mKcell,mAltel,mAltel,,D02,2017-06-09T15:03:58+06:00,
1000000000400498,77073506907,mAltel,mMTS,mMTS,,D07,2017-06-09T15:04:51+06:00,
1000000000400500,77029084449,mKarTel,mKcell,mKcell,,D01,2017-06-09T15:07:09+06:00,
1000000000400501,77025255111,mKarTel,mKcell,mKcell,,D01,2017-06-09T15:07:13+06:00,
1000000000400502,77471759598,mAltel,mMTS,mMTS,,D07,2017-06-09T15:07:35+06:00,
1000000000400504,77785059660,mMTS,mKcell,mKcell,,D77,2017-06-09T15:07:47+06:00,
1000000000400505,77784990088,mKcell,mMTS,mKcell,D77,D02,2017-06-09T15:07:57+06:00,
1000000000400509,77019999150,mKarTel,mKcell,mKcell,,D01,2017-06-09T15:13:02+06:00,
1000000000400510,77015597710,mMTS,mKcell,mKcell,,D77,2017-06-09T15:12:51+06:00,
1000000000400511,77715269031,mKcell,mKarTel,mKarTel,,D02,2017-06-09T15:13:55+06:00,
1000000000400512,77716675600,mMTS,mKarTel,mKarTel,,D77,2017-06-09T15:14:32+06:00,
1000000000400513,77077417861,mKcell,mMTS,mMTS,,D02,2017-06-09T15:15:08+06:00,
1000000000400516,77023507234,mMTS,mKcell,mKcell,,D77,2017-06-09T15:17:51+06:00,
1000000000400517,77776093301,mMTS,mKcell,mKarTel,D02,D77,2017-06-09T15:19:46+06:00,
1000000000400518,77012559269,mKarTel,mKcell,mKcell,,D01,2017-06-09T15:21:34+06:00,
1000000000400519,77715269041,mKcell,mKarTel,mKarTel,,D02,2017-06-09T15:22:10+06:00,
1000000000400520,77779580098,mMTS,mKarTel,mKarTel,,D77,2017-06-09T15:22:29+06:00,
1000000000400522,77778500500,mAltel,mKarTel,mKarTel,,D07,2017-06-09T15:24:50+06:00,
1000000000400524,77755500112,mKarTel,mKcell,mKcell,,D01,2017-06-09T15:28:00+06:00,
