NPId,Number,RecipientId,DonorId,RangeHolderId,OldRoute,NewRoute,PortDate,RowCount
1000000000174694,77009827399,mMTS,mAltel,mAltel,,D77,2016-05-15T17:32:08+06:00,19
1000000000174695,77087759787,mMTS,mAltel,mAltel,,D77,2016-05-15T17:32:33+06:00,
1000000000174696,77017300600,mMTS,mKcell,mKcell,,D77,2016-05-15T17:34:39+06:00,
1000000000174697,77770665533,mMTS,mKarTel,mKarTel,,D77,2016-05-15T17:34:29+06:00,
1000000000174698,77015589774,mMTS,mKcell,mKcell,,D77,2016-05-15T17:36:12+06:00,
1000000000174699,77081721993,mMTS,mAltel,mAltel,,D77,2016-05-15T17:35:11+06:00,
1000000000174700,77001262525,mMTS,mAltel,mAltel,,D77,2016-05-15T17:35:58+06:00,
1000000000174701,77756786494,mMTS,mKcell,mKcell,,D77,2016-05-15T17:39:57+06:00,
1000000000174703,77057810671,mMTS,mKarTel,mKarTel,,D77,2016-05-15T17:41:26+06:00,
1000000000174704,77012560404,mMTS,mKcell,mKcell,,D77,2016-05-15T17:42:47+06:00,
1000000000174705,77002825555,mMTS,mAltel,mAltel,,D77,2016-05-15T17:43:40+06:00,
1000000000174706,77007909040,mMTS,mAltel,mAltel,,D77,2016-05-15T17:45:05+06:00,
1000000000174707,77023088778,mKcell,mAltel,mKcell,D07,D02,2016-05-15T17:46:29+06:00,
1000000000174708,77026020569,mMTS,mKcell,mKcell,,D77,2016-05-15T17:46:53+06:00,
1000000000174709,77027477847,mMTS,mKcell,mKcell,,D77,2016-05-15T17:47:18+06:00,
1000000000174710,77081772787,mMTS,mAltel,mAltel,,D77,2016-05-15T17:50:19+06:00,
1000000000174712,77785879393,mMTS,mKcell,mKcell,,D77,2016-05-15T17:57:18+06:00,
1000000000174713,77011114301,mMTS,mKcell,mKcell,,D77,2016-05-15T17:57:18+06:00,
1000000000174714,77753180348,mMTS,mKcell,mKcell,,D77,2016-05-15T17:59:25+06:00,
