NPId,Number,RecipientId,DonorId,RangeHolderId,OldRoute,NewRoute,PortDate,RowCount
1000000000443103,77772401592,mKcell,mKarTel,mKarTel,,D02,2017-08-21T15:38:42+06:00,34
1000000000443105,77763779988,mMTS,mKarTel,mKarTel,,D77,2017-08-21T15:38:47+06:00,
1000000000443194,77071417271,mAltel,mMTS,mMTS,,D07,2017-08-21T15:31:03+06:00,
1000000000443196,77011802908,mMTS,mKcell,mKcell,,D77,2017-08-21T15:34:12+06:00,
1000000000443197,77019300941,mMTS,mKcell,mKcell,,D77,2017-08-21T15:34:47+06:00,
1000000000443198,77013333477,mKcell,mAltel,mKcell,D07,D02,2017-08-21T15:34:49+06:00,
1000000000443200,77755463656,mMTS,mKcell,mKcell,,D77,2017-08-21T15:37:41+06:00,
1000000000443201,77753006675,mMTS,mKcell,mKcell,,D77,2017-08-21T15:38:47+06:00,
1000000000443202,77474103494,mAltel,mMTS,mMTS,,D07,2017-08-21T15:38:43+06:00,
1000000000443203,77018273289,mKarTel,mKcell,mKcell,,D01,2017-08-21T15:39:48+06:00,
1000000000443204,77027712516,mKarTel,mKcell,mKcell,,D01,2017-08-21T15:39:59+06:00,
1000000000443205,77474647760,mKarTel,mMTS,mMTS,,D01,2017-08-21T15:40:26+06:00,
1000000000443206,77023601661,mKcell,mMTS,mKcell,D77,D02,2017-08-21T15:40:37+06:00,
1000000000443207,77015550618,mKarTel,mKcell,mKcell,,D01,2017-08-21T15:40:58+06:00,
1000000000443208,77015552441,mKarTel,mKcell,mKcell,,D01,2017-08-21T15:41:28+06:00,
1000000000443213,77782719873,mMTS,mKcell,mKcell,,D77,2017-08-21T15:42:50+06:00,
1000000000443214,77027051997,mKcell,mAltel,mKcell,D07,D02,2017-08-21T15:43:11+06:00,
1000000000443215,77476971919,mKarTel,mMTS,mMTS,,D01,2017-08-21T15:43:22+06:00,
1000000000443216,77017770298,mKarTel,mKcell,mKcell,,D01,2017-08-21T15:43:28+06:00,
1000000000443217,77018148000,mKcell,mMTS,mKcell,D77,D02,2017-08-21T15:43:57+06:00,
1000000000443219,77071322244,mKcell,mMTS,mMTS,,D02,2017-08-21T15:46:19+06:00,
1000000000443220,77759098797,mMTS,mKcell,mKcell,,D77,2017-08-21T15:46:14+06:00,
1000000000443222,77719175088,mKarTel,mMTS,mKarTel,D77,D01,2017-08-21T15:47:45+06:00,
1000000000443223,77010132002,mAltel,mKcell,mKcell,,D07,2017-08-21T15:47:46+06:00,
1000000000443224,77011421876,mKarTel,mKcell,mKcell,,D01,2017-08-21T15:49:07+06:00,
1000000000443225,77002007209,mMTS,mAltel,mAltel,,D77,2017-08-21T15:49:39+06:00,
1000000000443226,77081561212,mKarTel,mAltel,mAltel,,D01,2017-08-21T15:50:44+06:00,
1000000000443227,77027801112,mMTS,mKcell,mKcell,,D77,2017-08-21T15:51:48+06:00,
1000000000443229,77018007272,mKcell,mAltel,mKcell,D07,D02,2017-08-21T15:53:13+06:00,
1000000000443231,77775846947,mKcell,mKarTel,mKarTel,,D02,2017-08-21T15:55:05+06:00,
1000000000443232,77756007801,mKarTel,mKcell,mKcell,,D01,2017-08-21T15:54:34+06:00,
1000000000443234,77789566222,mMTS,mKcell,mKcell,,D77,2017-08-21T15:55:40+06:00,
1000000000443237,77004602602,mMTS,mAltel,mAltel,,D77,2017-08-21T15:56:40+06:00,
1000000000443238,77017475964,mKcell,mAltel,mKcell,D07,D02,2017-08-21T15:57:54+06:00,
