NPId,Number,RecipientId,DonorId,RangeHolderId,OldRoute,NewRoute,PortDate,RowCount
1000000000417385,77752843878,mKcell,mAltel,mKcell,D07,D02,2017-07-05T20:00:26+06:00,5
1000000000417386,77071779090,mKcell,mMTS,mMTS,,D02,2017-07-05T20:02:57+06:00,
1000000000417387,77760021415,mKcell,mKarTel,mKarTel,,D02,2017-07-05T20:04:09+06:00,
1000000000417390,77783702112,mMTS,mKcell,mKcell,,D77,2017-07-05T20:21:52+06:00,
1000000000417391,77471771170,mKcell,mMTS,mMTS,,D02,2017-07-05T20:29:53+06:00,
