NPId,Number,RecipientId,DonorId,RangeHolderId,OldRoute,NewRoute,PortDate,RowCount
1000000000213383,77771527867,mMTS,mKarTel,mKarTel,,D77,2016-07-19T11:34:42+06:00,6
1000000000213387,77057955916,mMTS,mKarTel,mKarTel,,D77,2016-07-19T11:39:46+06:00,
1000000000213388,77078783838,mKarTel,mMTS,mMTS,,D01,2016-07-19T11:39:39+06:00,
1000000000213395,77716089006,mMTS,mKarTel,mKarTel,,D77,2016-07-19T11:45:30+06:00,
1000000000213396,77775202220,mKarTel,mAltel,mKarTel,D07,D01,2016-07-19T11:45:42+06:00,
1000000000213405,77089102544,mMTS,mAltel,mAltel,,D77,2016-07-19T11:57:12+06:00,
