NPId,Number,RecipientId,DonorId,RangeHolderId,OldRoute,NewRoute,PortDate,RowCount
1000000000281556,77016200044,mMTS,mKcell,mKcell,,D77,2016-11-20T13:00:12+06:00,11
1000000000281557,77787376977,mMTS,mKcell,mKcell,,D77,2016-11-20T13:02:22+06:00,
1000000000281558,77072377387,mMTS,mAltel,mMTS,D07,D77,2016-11-20T13:02:56+06:00,
1000000000281559,77783796474,mAltel,mKcell,mKcell,,D07,2016-11-20T13:06:33+06:00,
1000000000281560,77776747109,mMTS,mKarTel,mKarTel,D01,D77,2016-11-20T13:11:52+06:00,
1000000000281561,77782244190,mMTS,mKcell,mKcell,,D77,2016-11-20T13:12:27+06:00,
1000000000281562,77787887407,mKarTel,mKcell,mKcell,D02,D01,2016-11-20T13:13:02+06:00,
1000000000281563,77054190532,mMTS,mKarTel,mKarTel,,D77,2016-11-20T13:17:05+06:00,
1000000000281564,77014357285,mMTS,mKcell,mKcell,,D77,2016-11-20T13:17:00+06:00,
1000000000281565,77055473491,mMTS,mKarTel,mKarTel,,D77,2016-11-20T13:20:31+06:00,
1000000000281566,77713581525,mMTS,mKarTel,mKarTel,,D77,2016-11-20T13:25:04+06:00,
