NPId,Number,RecipientId,DonorId,RangeHolderId,OldRoute,NewRoute,PortDate,RowCount
1000000000443514,77025166668,mKcell,mKarTel,mKcell,D01,D02,2017-08-22T09:34:37+06:00,10
1000000000443516,77752714001,mMTS,mKcell,mKcell,,D77,2017-08-22T09:37:16+06:00,
1000000000443517,77769715858,mMTS,mKarTel,mKarTel,,D77,2017-08-22T09:38:27+06:00,
1000000000443519,77018696666,mKcell,mAltel,mKcell,D07,D02,2017-08-22T09:40:31+06:00,
1000000000443520,77752714000,mMTS,mKcell,mKcell,,D77,2017-08-22T09:42:58+06:00,
1000000000443521,77001203610,mKcell,mAltel,mAltel,,D02,2017-08-22T09:46:36+06:00,
1000000000443522,77078958899,mKcell,mMTS,mMTS,,D02,2017-08-22T09:49:04+06:00,
1000000000443523,77776766202,mKarTel,mKcell,mKarTel,D02,D01,2017-08-22T09:56:31+06:00,
1000000000443524,77776858098,mKarTel,mAltel,mKarTel,D07,D01,2017-08-22T09:56:21+06:00,
1000000000443525,77071035330,mKcell,mMTS,mMTS,,D02,2017-08-22T09:59:23+06:00,
