NPId,Number,RecipientId,DonorId,RangeHolderId,OldRoute,NewRoute,PortDate,RowCount
1000000000297983,77773696048,mKcell,mKarTel,mKarTel,,D02,2016-12-21T18:43:59+06:00,19
1000000000298117,77056536034,mKcell,mKarTel,mKarTel,,D02,2016-12-21T18:33:12+06:00,
1000000000298220,77777797088,mKcell,mKarTel,mKarTel,,D02,2016-12-21T18:34:25+06:00,
1000000000298224,77717808454,mKcell,mKarTel,mKarTel,,D02,2016-12-21T18:36:17+06:00,
1000000000298513,77761116681,mKcell,mKarTel,mKarTel,,D02,2016-12-21T18:30:09+06:00,
1000000000298515,77761116684,mKcell,mKarTel,mKarTel,,D02,2016-12-21T18:31:40+06:00,
1000000000298518,77075150485,mKarTel,mMTS,mMTS,,D01,2016-12-21T18:34:24+06:00,
1000000000298519,77770008878,mAltel,mKarTel,mKarTel,,D07,2016-12-21T18:39:20+06:00,
1000000000298520,77015253325,mAltel,mKcell,mKcell,,D07,2016-12-21T18:39:52+06:00,
1000000000298521,77769944446,mKcell,mKarTel,mKarTel,,D02,2016-12-21T18:40:24+06:00,
1000000000298522,77017777954,mKarTel,mKcell,mKcell,,D01,2016-12-21T18:40:50+06:00,
1000000000298523,77767007696,mKcell,mKarTel,mKarTel,,D02,2016-12-21T18:42:49+06:00,
1000000000298525,77027022975,mMTS,mKcell,mKcell,,D77,2016-12-21T18:43:23+06:00,
1000000000298527,77767077696,mKcell,mKarTel,mKarTel,,D02,2016-12-21T18:45:40+06:00,
1000000000298528,77717890137,mKarTel,mAltel,mKarTel,D07,D01,2016-12-21T18:47:07+06:00,
1000000000298529,77005958800,mKarTel,mAltel,mAltel,,D01,2016-12-21T18:49:48+06:00,
1000000000298530,77771885666,mMTS,mKarTel,mKarTel,,D77,2016-12-21T18:53:00+06:00,
1000000000298532,77005744555,mMTS,mAltel,mAltel,,D77,2016-12-21T18:57:34+06:00,
1000000000298534,77012085923,mKarTel,mKcell,mKcell,D02,D01,2016-12-21T18:59:22+06:00,
