NPId,Number,RecipientId,DonorId,RangeHolderId,OldRoute,NewRoute,PortDate,RowCount
1000000000277641,77057640005,mMTS,mKarTel,mKarTel,,D77,2016-11-11T12:00:00+06:00,22
1000000000277642,77786061282,mKarTel,mKcell,mKcell,,D01,2016-11-11T12:00:09+06:00,
1000000000277643,77771439751,mAltel,mKarTel,mKarTel,,D07,2016-11-11T12:01:44+06:00,
1000000000277644,77025496716,mMTS,mKcell,mKcell,,D77,2016-11-11T12:01:37+06:00,
1000000000277645,77788125657,mMTS,mKcell,mKcell,,D77,2016-11-11T12:01:39+06:00,
1000000000277646,77025900040,mKarTel,mKcell,mKcell,,D01,2016-11-11T12:02:24+06:00,
1000000000277647,77077777726,mKcell,mMTS,mMTS,,D02,2016-11-11T12:03:24+06:00,
1000000000277648,77011307066,mMTS,mKcell,mKcell,,D77,2016-11-11T12:03:23+06:00,
1000000000277649,77781033373,mKarTel,mKcell,mKcell,,D01,2016-11-11T12:04:32+06:00,
1000000000277650,77077879077,mKcell,mMTS,mMTS,,D02,2016-11-11T12:04:28+06:00,
1000000000277651,77077777762,mKcell,mMTS,mMTS,,D02,2016-11-11T12:05:26+06:00,
1000000000277653,77077777424,mKcell,mMTS,mMTS,,D02,2016-11-11T12:07:11+06:00,
1000000000277654,77024407682,mMTS,mKcell,mKcell,,D77,2016-11-11T12:09:19+06:00,
1000000000277659,77751018040,mMTS,mKcell,mKcell,,D77,2016-11-11T12:15:24+06:00,
1000000000277660,77027888867,mAltel,mKcell,mKcell,,D07,2016-11-11T12:16:12+06:00,
1000000000277661,77017337026,mMTS,mKcell,mKcell,,D77,2016-11-11T12:17:38+06:00,
1000000000277663,77002300100,mKcell,mKarTel,mAltel,D01,D02,2016-11-11T12:21:50+06:00,
1000000000277665,77022686292,mKcell,mKarTel,mKcell,D01,D02,2016-11-11T12:24:49+06:00,
1000000000277666,77027488363,mKcell,mKarTel,mKcell,D01,D02,2016-11-11T12:24:52+06:00,
1000000000277667,77025563335,mMTS,mKcell,mKcell,,D77,2016-11-11T12:25:21+06:00,
1000000000277669,77055191515,mAltel,mKarTel,mKarTel,,D07,2016-11-11T12:27:16+06:00,
1000000000277670,77027908311,mKarTel,mKcell,mKcell,,D01,2016-11-11T12:27:42+06:00,
