NPId,Number,RecipientId,DonorId,RangeHolderId,OldRoute,NewRoute,PortDate,RowCount
1000000000233805,77073173170,mKcell,mKarTel,mMTS,D01,D02,2016-08-25T10:32:33+06:00,11
1000000000233806,77074531811,mKarTel,mMTS,mMTS,,D01,2016-08-25T10:33:20+06:00,
1000000000233807,77053880902,mKarTel,mAltel,mKarTel,D07,D01,2016-08-25T10:42:34+06:00,
1000000000233808,77012529367,mKarTel,mKcell,mKcell,,D01,2016-08-25T10:42:59+06:00,
1000000000233809,77087089790,mAltel,mKarTel,mAltel,D01,D07,2016-08-25T10:49:19+06:00,
1000000000233813,77017461174,mMTS,mKcell,mKcell,,D77,2016-08-25T10:52:28+06:00,
1000000000233816,77077964964,mMTS,mAltel,mMTS,D07,D77,2016-08-25T10:55:01+06:00,
1000000000233817,77011101433,mKarTel,mKcell,mKcell,,D01,2016-08-25T10:57:50+06:00,
1000000000233818,77017761513,mKarTel,mKcell,mKcell,,D01,2016-08-25T10:56:13+06:00,
1000000000233819,77711404414,mAltel,mKarTel,mKarTel,,D07,2016-08-25T10:59:08+06:00,
1000000000233820,77026960321,mMTS,mKcell,mKcell,,D77,2016-08-25T10:59:32+06:00,
