NPId,Number,RecipientId,DonorId,RangeHolderId,OldRoute,NewRoute,PortDate,RowCount
1000000000387461,77072123232,mMTS,mAltel,mMTS,D07,D77,2017-05-23T11:32:08+06:00,24
1000000000387462,77071659932,mAltel,mMTS,mMTS,,D07,2017-05-23T11:32:47+06:00,
1000000000387463,77026248915,mMTS,mKcell,mKcell,,D77,2017-05-23T11:32:54+06:00,
1000000000387464,77078660922,mAltel,mMTS,mMTS,,D07,2017-05-23T11:32:59+06:00,
1000000000387465,77777013050,mMTS,mKarTel,mKarTel,,D77,2017-05-23T11:33:42+06:00,
1000000000387466,77078546789,mAltel,mMTS,mMTS,,D07,2017-05-23T11:33:25+06:00,
1000000000387467,77078850401,mAltel,mMTS,mMTS,,D07,2017-05-23T11:37:19+06:00,
1000000000387468,77013477177,mMTS,mKcell,mKcell,,D77,2017-05-23T11:37:45+06:00,
1000000000387469,77011218999,mKcell,mMTS,mKcell,D77,D02,2017-05-23T11:38:21+06:00,
1000000000387470,77054000808,mKarTel,mKcell,mKarTel,D02,D01,2017-05-23T11:38:56+06:00,
1000000000387471,77015285495,mMTS,mKcell,mKcell,,D77,2017-05-23T11:39:15+06:00,
1000000000387472,77760542020,mMTS,mKarTel,mKarTel,,D77,2017-05-23T11:40:27+06:00,
1000000000387473,77001470091,mKarTel,mAltel,mAltel,,D01,2017-05-23T11:41:37+06:00,
1000000000387474,77083728089,mKarTel,mAltel,mAltel,,D01,2017-05-23T11:42:18+06:00,
1000000000387475,77784163032,mAltel,mKcell,mKcell,,D07,2017-05-23T11:42:57+06:00,
1000000000387477,77474863612,mAltel,mMTS,mMTS,,D07,2017-05-23T11:43:15+06:00,
1000000000387478,77017707585,mKarTel,mKcell,mKcell,,D01,2017-05-23T11:45:35+06:00,
1000000000387483,77017828163,mKarTel,mKcell,mKcell,,D01,2017-05-23T11:54:21+06:00,
1000000000387484,77021002888,mMTS,mKarTel,mKcell,D01,D77,2017-05-23T11:54:41+06:00,
1000000000387485,77022144012,mMTS,mKcell,mKcell,,D77,2017-05-23T11:55:21+06:00,
1000000000387486,77755141333,mKcell,mMTS,mKcell,D77,D02,2017-05-23T11:56:20+06:00,
1000000000387489,77474863557,mAltel,mMTS,mMTS,,D07,2017-05-23T11:56:15+06:00,
1000000000387491,77755141222,mKcell,mMTS,mKcell,D77,D02,2017-05-23T11:57:21+06:00,
1000000000387492,77052828444,mMTS,mKarTel,mKarTel,,D77,2017-05-23T11:59:29+06:00,
