NPId,Number,RecipientId,DonorId,RangeHolderId,OldRoute,NewRoute,PortDate,RowCount
1000000000173075,77057773031,mMTS,mKarTel,mKarTel,,D77,2016-05-12T20:32:27+06:00,3
1000000000173076,77084844711,mKcell,mAltel,mAltel,,D02,2016-05-12T20:45:05+06:00,
1000000000173077,77786210709,mKcell,mMTS,mKcell,D77,D02,2016-05-12T20:52:22+06:00,
