NPId,Number,RecipientId,DonorId,RangeHolderId,OldRoute,NewRoute,PortDate,RowCount
1000000000281788,77773709813,mKcell,mKarTel,mKarTel,,D02,2016-11-21T12:01:53+06:00,19
1000000000281789,77475545905,mKarTel,mMTS,mMTS,,D01,2016-11-21T12:05:29+06:00,
1000000000281790,77011099235,mMTS,mAltel,mKcell,D07,D77,2016-11-21T12:06:26+06:00,
1000000000281791,77027453046,mKcell,mMTS,mKcell,D77,D02,2016-11-21T12:12:30+06:00,
1000000000281792,77718303491,mAltel,mKarTel,mKarTel,,D07,2016-11-21T12:13:09+06:00,
1000000000281793,77785058465,mMTS,mKcell,mKcell,,D77,2016-11-21T12:14:29+06:00,
1000000000281794,77472007309,mKarTel,mMTS,mMTS,,D01,2016-11-21T12:15:11+06:00,
1000000000281795,77474429203,mKcell,mMTS,mMTS,,D02,2016-11-21T12:16:08+06:00,
1000000000281796,77057505313,mKarTel,mMTS,mKarTel,D77,D01,2016-11-21T12:16:54+06:00,
1000000000281797,77074940002,mMTS,mKarTel,mMTS,D01,D77,2016-11-21T12:17:08+06:00,
1000000000281798,77761933003,mKcell,mKarTel,mKarTel,,D02,2016-11-21T12:18:10+06:00,
1000000000281799,77000700777,mMTS,mAltel,mAltel,,D77,2016-11-21T12:17:34+06:00,
1000000000281800,77013566116,mKcell,mMTS,mKcell,D77,D02,2016-11-21T12:17:46+06:00,
1000000000281802,77028888318,mMTS,mKcell,mKcell,,D77,2016-11-21T12:22:22+06:00,
1000000000281803,77755778737,mMTS,mKcell,mKcell,,D77,2016-11-21T12:23:38+06:00,
1000000000281805,77472008319,mKarTel,mMTS,mMTS,,D01,2016-11-21T12:23:56+06:00,
1000000000281806,77029715053,mMTS,mKcell,mKcell,,D77,2016-11-21T12:24:54+06:00,
1000000000281807,77054755542,mKcell,mKarTel,mKarTel,,D02,2016-11-21T12:26:25+06:00,
1000000000281808,77756501100,mMTS,mKcell,mKcell,,D77,2016-11-21T12:28:28+06:00,
