NPId,Number,RecipientId,DonorId,RangeHolderId,OldRoute,NewRoute,PortDate,RowCount
1000000000222214,77077774741,mKcell,mMTS,mMTS,,D02,2016-08-02T17:00:14+06:00,31
1000000000222215,77783131751,mMTS,mKcell,mKcell,,D77,2016-08-02T17:00:29+06:00,
1000000000222217,77015292226,mKcell,mKarTel,mKcell,D01,D02,2016-08-02T17:01:39+06:00,
1000000000222221,77010260700,mMTS,mKcell,mKcell,,D77,2016-08-02T17:02:12+06:00,
1000000000222223,77777182522,mAltel,mKarTel,mKarTel,,D07,2016-08-02T17:03:15+06:00,
1000000000222224,77087607513,mKcell,mAltel,mAltel,,D02,2016-08-02T17:03:28+06:00,
1000000000222230,77024791178,mKarTel,mKcell,mKcell,,D01,2016-08-02T17:10:31+06:00,
1000000000222231,77086881458,mKarTel,mAltel,mAltel,,D01,2016-08-02T17:10:31+06:00,
1000000000222232,77015292228,mKcell,mKarTel,mKcell,D01,D02,2016-08-02T17:10:55+06:00,
1000000000222233,77029911178,mMTS,mKcell,mKcell,,D77,2016-08-02T17:10:42+06:00,
1000000000222234,77075650525,mKarTel,mMTS,mMTS,,D01,2016-08-02T17:11:01+06:00,
1000000000222235,77755338383,mKcell,mAltel,mKcell,D07,D02,2016-08-02T17:12:07+06:00,
1000000000222239,77762503808,mKcell,mKarTel,mKarTel,,D02,2016-08-02T17:14:41+06:00,
1000000000222240,77789944922,mKarTel,mKcell,mKcell,,D01,2016-08-02T17:14:35+06:00,
1000000000222241,77053402151,mKcell,mKarTel,mKarTel,,D02,2016-08-02T17:15:38+06:00,
1000000000222242,77756077706,mKarTel,mKcell,mKcell,,D01,2016-08-02T17:15:26+06:00,
1000000000222243,77779444449,mAltel,mKarTel,mKarTel,,D07,2016-08-02T17:16:02+06:00,
1000000000222244,77027924192,mKcell,mMTS,mKcell,D77,D02,2016-08-02T17:16:18+06:00,
1000000000222245,77012479945,mMTS,mKcell,mKcell,,D77,2016-08-02T17:19:23+06:00,
1000000000222246,77774784808,mKcell,mKarTel,mKarTel,,D02,2016-08-02T17:18:28+06:00,
1000000000222247,77072490509,mMTS,mAltel,mMTS,D07,D77,2016-08-02T17:18:35+06:00,
1000000000222248,77471840122,mMTS,mKarTel,mMTS,D01,D77,2016-08-02T17:19:21+06:00,
1000000000222249,77773300120,mKcell,mKarTel,mKarTel,,D02,2016-08-02T17:21:20+06:00,
1000000000222251,77770626337,mMTS,mKarTel,mKarTel,,D77,2016-08-02T17:22:13+06:00,
1000000000222252,77016731173,mKcell,mMTS,mKcell,D77,D02,2016-08-02T17:22:27+06:00,
1000000000222254,77009234842,mMTS,mAltel,mAltel,,D77,2016-08-02T17:24:24+06:00,
1000000000222255,77007247484,mMTS,mAltel,mAltel,,D77,2016-08-02T17:24:31+06:00,
1000000000222256,77711863832,mMTS,mKarTel,mKarTel,,D77,2016-08-02T17:25:45+06:00,
1000000000222257,77010904545,mMTS,mKcell,mKcell,,D77,2016-08-02T17:26:37+06:00,
1000000000222259,77015335878,mMTS,mKcell,mKcell,,D77,2016-08-02T17:27:33+06:00,
1000000000222260,77787348055,mMTS,mKcell,mKcell,,D77,2016-08-02T17:28:46+06:00,
