NPId,Number,RecipientId,DonorId,RangeHolderId,OldRoute,NewRoute,PortDate,RowCount
1000000000285748,77018705674,mKarTel,mKcell,mKcell,,D01,2016-11-28T18:32:20+06:00,23
1000000000285749,77019911448,mKarTel,mKcell,mKcell,,D01,2016-11-28T18:34:59+06:00,
1000000000285750,77055650704,mKcell,mMTS,mKarTel,D77,D02,2016-11-28T18:35:08+06:00,
1000000000285751,77052172828,mKarTel,mMTS,mKarTel,D77,D01,2016-11-28T18:35:26+06:00,
1000000000285752,77782658620,mMTS,mKcell,mKcell,,D77,2016-11-28T18:37:39+06:00,
1000000000285755,77019994175,mMTS,mKcell,mKcell,,D77,2016-11-28T18:41:24+06:00,
1000000000285756,77772496268,mMTS,mKarTel,mKarTel,,D77,2016-11-28T18:42:51+06:00,
1000000000285757,77782658592,mMTS,mKcell,mKcell,,D77,2016-11-28T18:42:41+06:00,
1000000000285759,77770482992,mMTS,mKarTel,mKarTel,,D77,2016-11-28T18:45:34+06:00,
1000000000285760,77017577904,mKarTel,mKcell,mKcell,,D01,2016-11-28T18:46:09+06:00,
1000000000285763,77029345734,mMTS,mKcell,mKcell,,D77,2016-11-28T18:50:29+06:00,
1000000000285764,77775055710,mKcell,mKarTel,mKarTel,,D02,2016-11-28T18:51:44+06:00,
1000000000285765,77029866207,mKcell,mMTS,mKcell,D77,D02,2016-11-28T18:51:38+06:00,
1000000000285766,77782658692,mMTS,mKcell,mKcell,,D77,2016-11-28T18:52:43+06:00,
1000000000285767,77088373476,mMTS,mAltel,mAltel,,D77,2016-11-28T18:52:36+06:00,
1000000000285768,77022222850,mKarTel,mKcell,mKcell,,D01,2016-11-28T18:52:57+06:00,
1000000000285769,77019159761,mKarTel,mKcell,mKcell,,D01,2016-11-28T18:53:12+06:00,
1000000000285770,77026162628,mMTS,mKcell,mKcell,,D77,2016-11-28T18:53:33+06:00,
1000000000285771,77078486984,mKcell,mMTS,mMTS,,D02,2016-11-28T18:54:58+06:00,
1000000000285772,77018801307,mKarTel,mKcell,mKcell,,D01,2016-11-28T18:56:30+06:00,
1000000000285773,77055760211,mKarTel,mMTS,mKarTel,D77,D01,2016-11-28T18:56:50+06:00,
1000000000285774,77076661120,mKcell,mMTS,mMTS,,D02,2016-11-28T18:58:15+06:00,
1000000000285777,77016586845,mKarTel,mKcell,mKcell,,D01,2016-11-28T18:59:58+06:00,
