NPId,Number,RecipientId,DonorId,RangeHolderId,OldRoute,NewRoute,PortDate,RowCount
1000000000301661,77785055055,mMTS,mKcell,mKcell,,D77,2016-12-27T16:31:40+06:00,19
1000000000301663,77015560136,mAltel,mKcell,mKcell,,D07,2016-12-27T16:32:01+06:00,
1000000000301666,77764909000,mKcell,mKarTel,mKarTel,,D02,2016-12-27T16:34:40+06:00,
1000000000301667,77714443322,mKarTel,mMTS,mKarTel,D77,D01,2016-12-27T16:35:22+06:00,
1000000000301669,77056503000,mMTS,mKarTel,mKarTel,,D77,2016-12-27T16:37:08+06:00,
1000000000301670,77058523428,mMTS,mKarTel,mKarTel,,D77,2016-12-27T16:37:52+06:00,
1000000000301671,77767777094,mKcell,mKarTel,mKarTel,,D02,2016-12-27T16:38:44+06:00,
1000000000301672,77077181087,mKcell,mMTS,mMTS,,D02,2016-12-27T16:38:37+06:00,
1000000000301673,77017366171,mMTS,mKcell,mKcell,,D77,2016-12-27T16:39:17+06:00,
1000000000301674,77075702610,mKcell,mMTS,mMTS,,D02,2016-12-27T16:40:06+06:00,
1000000000301675,77011113409,mKarTel,mKcell,mKcell,,D01,2016-12-27T16:41:11+06:00,
1000000000301676,77751992292,mMTS,mKcell,mKcell,,D77,2016-12-27T16:41:27+06:00,
1000000000301677,77771171922,mMTS,mKarTel,mKarTel,,D77,2016-12-27T16:41:46+06:00,
1000000000301679,77026660124,mAltel,mKcell,mKcell,,D07,2016-12-27T16:45:13+06:00,
1000000000301681,77053403259,mKcell,mKarTel,mKarTel,,D02,2016-12-27T16:48:51+06:00,
1000000000301682,77078656850,mKarTel,mMTS,mMTS,,D01,2016-12-27T16:49:26+06:00,
1000000000301684,77012202555,mKarTel,mKcell,mKcell,,D01,2016-12-27T16:51:35+06:00,
1000000000301688,77026099696,mKarTel,mKcell,mKcell,,D01,2016-12-27T16:53:48+06:00,
1000000000301692,77017272374,mMTS,mKcell,mKcell,,D77,2016-12-27T16:56:44+06:00,
