NPId,Number,RecipientId,DonorId,RangeHolderId,OldRoute,NewRoute,PortDate,RowCount
1000000000170475,77089407506,mMTS,mAltel,mAltel,,D77,2016-05-09T15:01:18+06:00,15
1000000000170477,77015165277,mMTS,mKcell,mKcell,,D77,2016-05-09T15:03:58+06:00,
1000000000170478,77714899055,mMTS,mKarTel,mKarTel,,D77,2016-05-09T15:05:59+06:00,
1000000000170479,77773337303,mKarTel,mMTS,mKarTel,D77,D01,2016-05-09T15:05:58+06:00,
1000000000170480,77086898847,mMTS,mAltel,mAltel,,D77,2016-05-09T15:07:15+06:00,
1000000000170481,77052011555,mKarTel,mMTS,mKarTel,D77,D01,2016-05-09T15:09:52+06:00,
1000000000170482,77781879827,mMTS,mKcell,mKcell,,D77,2016-05-09T15:10:06+06:00,
1000000000170484,77770923535,mKcell,mKarTel,mKarTel,,D02,2016-05-09T15:11:00+06:00,
1000000000170485,77017563814,mMTS,mKcell,mKcell,,D77,2016-05-09T15:12:50+06:00,
1000000000170486,77023333988,mMTS,mKcell,mKcell,,D77,2016-05-09T15:13:06+06:00,
1000000000170487,77029045002,mAltel,mKcell,mKcell,,D07,2016-05-09T15:15:49+06:00,
1000000000170489,77087680217,mKarTel,mAltel,mAltel,,D01,2016-05-09T15:18:59+06:00,
1000000000170492,77058319631,mAltel,mKarTel,mKarTel,,D07,2016-05-09T15:23:37+06:00,
1000000000170493,77717931111,mMTS,mKarTel,mKarTel,,D77,2016-05-09T15:24:56+06:00,
1000000000170494,77756302100,mMTS,mKcell,mKcell,,D77,2016-05-09T15:26:20+06:00,
