NPId,Number,RecipientId,DonorId,RangeHolderId,OldRoute,NewRoute,PortDate,RowCount
1000000000176295,77778867941,mMTS,mKarTel,mKarTel,,D77,2016-05-18T11:00:27+06:00,22
1000000000176296,77755257605,mKarTel,mKcell,mKcell,,D01,2016-05-18T11:01:06+06:00,
1000000000176297,77776746666,mKcell,mMTS,mKarTel,D77,D02,2016-05-18T11:01:41+06:00,
1000000000176298,77015557075,mMTS,mKcell,mKcell,,D77,2016-05-18T11:01:40+06:00,
1000000000176299,77019204065,mMTS,mKcell,mKcell,,D77,2016-05-18T11:02:12+06:00,
1000000000176300,77003007779,mMTS,mAltel,mAltel,,D77,2016-05-18T11:04:11+06:00,
1000000000176301,77755563937,mKarTel,mKcell,mKcell,,D01,2016-05-18T11:07:47+06:00,
1000000000176302,77772086666,mKcell,mMTS,mKarTel,D77,D02,2016-05-18T11:09:07+06:00,
1000000000176303,77477787765,mKcell,mMTS,mMTS,,D02,2016-05-18T11:09:34+06:00,
1000000000176304,77074441646,mKcell,mMTS,mMTS,,D02,2016-05-18T11:11:28+06:00,
1000000000176305,77071203205,mKcell,mMTS,mMTS,,D02,2016-05-18T11:11:46+06:00,
1000000000176306,77027277333,mMTS,mKcell,mKcell,,D77,2016-05-18T11:12:45+06:00,
1000000000176307,77015979886,mKarTel,mKcell,mKcell,,D01,2016-05-18T11:13:26+06:00,
1000000000176309,77075570097,mKcell,mMTS,mMTS,,D02,2016-05-18T11:16:08+06:00,
1000000000176310,77017127775,mKarTel,mKcell,mKcell,,D01,2016-05-18T11:17:21+06:00,
1000000000176311,77752800035,mKarTel,mKcell,mKcell,,D01,2016-05-18T11:21:03+06:00,
1000000000176312,77057911111,mKcell,mAltel,mKarTel,D07,D02,2016-05-18T11:22:19+06:00,
1000000000176313,77017592521,mKarTel,mKcell,mKcell,,D01,2016-05-18T11:23:26+06:00,
1000000000176314,77751428533,mMTS,mKcell,mKcell,,D77,2016-05-18T11:24:59+06:00,
1000000000176315,77011222611,mMTS,mKcell,mKcell,,D77,2016-05-18T11:26:00+06:00,
1000000000176318,77017651245,mMTS,mKcell,mKcell,,D77,2016-05-18T11:27:25+06:00,
1000000000176320,77774121222,mMTS,mKarTel,mKarTel,,D77,2016-05-18T11:28:44+06:00,
