NPId,Number,RecipientId,DonorId,RangeHolderId,OldRoute,NewRoute,PortDate,RowCount
1000000000145875,77772213461,mKcell,mKarTel,mKarTel,,D02,2016-04-07T18:01:58+06:00,33
1000000000145878,77012184761,mMTS,mAltel,mKcell,D07,D77,2016-04-07T18:01:11+06:00,
1000000000145879,77089076138,mMTS,mAltel,mAltel,,D77,2016-04-07T18:01:46+06:00,
1000000000145880,77765095005,mKcell,mKarTel,mKarTel,,D02,2016-04-07T18:04:47+06:00,
1000000000145881,77081711306,mMTS,mAltel,mAltel,,D77,2016-04-07T18:02:37+06:00,
1000000000145882,77756011235,mMTS,mKcell,mKcell,,D77,2016-04-07T18:03:47+06:00,
1000000000145883,77771377725,mMTS,mKarTel,mKarTel,,D77,2016-04-07T18:06:21+06:00,
1000000000145884,77014233825,mKcell,mAltel,mKcell,D07,D02,2016-04-07T18:05:08+06:00,
1000000000145886,77071666694,mKcell,mMTS,mMTS,,D02,2016-04-07T18:07:35+06:00,
1000000000145887,77764569090,mKcell,mKarTel,mKarTel,,D02,2016-04-07T18:09:41+06:00,
1000000000145888,77019871060,mAltel,mKcell,mKcell,,D07,2016-04-07T18:08:36+06:00,
1000000000145889,77086850059,mMTS,mAltel,mAltel,,D77,2016-04-07T18:08:27+06:00,
1000000000145892,77021878371,mMTS,mKcell,mKcell,,D77,2016-04-07T18:09:42+06:00,
1000000000145893,77082560182,mMTS,mAltel,mAltel,,D77,2016-04-07T18:09:40+06:00,
1000000000145896,77476707755,mMTS,mAltel,mMTS,D07,D77,2016-04-07T18:10:59+06:00,
1000000000145898,77017727465,mMTS,mKcell,mKcell,,D77,2016-04-07T18:12:44+06:00,
1000000000145899,77085238636,mMTS,mAltel,mAltel,,D77,2016-04-07T18:13:10+06:00,
1000000000145900,77055670601,mKcell,mKarTel,mKarTel,,D02,2016-04-07T18:16:45+06:00,
1000000000145901,77761794000,mKarTel,mMTS,mKarTel,D77,D01,2016-04-07T18:16:19+06:00,
1000000000145902,77089189992,mKarTel,mAltel,mAltel,,D01,2016-04-07T18:17:01+06:00,
1000000000145903,77089020580,mMTS,mAltel,mAltel,,D77,2016-04-07T18:16:40+06:00,
1000000000145904,77015340935,mMTS,mKcell,mKcell,,D77,2016-04-07T18:17:27+06:00,
1000000000145905,77051510736,mMTS,mKarTel,mKarTel,,D77,2016-04-07T18:18:58+06:00,
1000000000145906,77071672320,mKarTel,mMTS,mMTS,,D01,2016-04-07T18:18:21+06:00,
1000000000145908,77016503863,mAltel,mKcell,mKcell,,D07,2016-04-07T18:24:38+06:00,
1000000000145909,77013321840,mMTS,mAltel,mKcell,D07,D77,2016-04-07T18:20:59+06:00,
1000000000145910,77770692783,mMTS,mKarTel,mKarTel,,D77,2016-04-07T18:23:53+06:00,
1000000000145911,77017208980,mKcell,mAltel,mKcell,D07,D02,2016-04-07T18:24:37+06:00,
1000000000145914,77760521515,mKcell,mKarTel,mKarTel,,D02,2016-04-07T18:29:33+06:00,
1000000000145915,77017653952,mMTS,mKcell,mKcell,,D77,2016-04-07T18:27:46+06:00,
1000000000145917,77013039596,mKcell,mAltel,mKcell,D07,D02,2016-04-07T18:28:26+06:00,
1000000000145918,77015666092,mMTS,mKcell,mKcell,,D77,2016-04-07T18:28:41+06:00,
1000000000145919,77086534757,mMTS,mAltel,mAltel,,D77,2016-04-07T18:28:52+06:00,
