NPId,Number,RecipientId,DonorId,RangeHolderId,OldRoute,NewRoute,PortDate,RowCount
1000000000404683,77758890005,mAltel,mKcell,mKcell,,D07,2017-06-17T11:33:40+06:00,17
1000000000404684,77007776969,mMTS,mAltel,mAltel,,D77,2017-06-17T11:33:41+06:00,
1000000000404685,77025656269,mMTS,mKcell,mKcell,,D77,2017-06-17T11:35:13+06:00,
1000000000404686,77070491981,mKarTel,mMTS,mMTS,,D01,2017-06-17T11:36:35+06:00,
1000000000404688,77750000049,mKarTel,mKcell,mKcell,,D01,2017-06-17T11:45:53+06:00,
1000000000404689,77026170408,mMTS,mKcell,mKcell,,D77,2017-06-17T11:46:17+06:00,
1000000000404690,77051440909,mAltel,mKarTel,mKarTel,,D07,2017-06-17T11:48:26+06:00,
1000000000404692,77475772115,mKarTel,mMTS,mMTS,,D01,2017-06-17T11:50:27+06:00,
1000000000404695,77772099911,mMTS,mKarTel,mKarTel,,D77,2017-06-17T11:52:23+06:00,
1000000000404696,77051907009,mMTS,mKarTel,mKarTel,,D77,2017-06-17T11:52:23+06:00,
1000000000404697,77016120293,mKcell,mMTS,mKcell,D77,D02,2017-06-17T11:52:29+06:00,
1000000000404698,77018800381,mKcell,mKarTel,mKcell,D01,D02,2017-06-17T11:52:53+06:00,
1000000000404699,77001140330,mMTS,mAltel,mAltel,,D77,2017-06-17T11:53:32+06:00,
1000000000404700,77473989028,mKarTel,mMTS,mMTS,,D01,2017-06-17T11:55:17+06:00,
1000000000404701,77785553972,mKcell,mKarTel,mKcell,D01,D02,2017-06-17T11:56:00+06:00,
1000000000404703,77774533636,mKcell,mAltel,mKarTel,D07,D02,2017-06-17T11:56:04+06:00,
1000000000404704,77027535822,mKcell,mKarTel,mKcell,D01,D02,2017-06-17T11:56:35+06:00,
