NPId,Number,RecipientId,DonorId,RangeHolderId,OldRoute,NewRoute,PortDate,RowCount
1000000000350061,77012226442,mKarTel,mKcell,mKcell,,D01,2017-03-20T14:33:11+06:00,18
1000000000350063,77776668406,mKcell,mKarTel,mKarTel,,D02,2017-03-20T14:36:10+06:00,
1000000000350064,77772399138,mKcell,mKarTel,mKarTel,,D02,2017-03-20T14:39:25+06:00,
1000000000350066,77477853411,mMTS,mKarTel,mMTS,D01,D77,2017-03-20T14:40:49+06:00,
1000000000350067,77056263161,mKcell,mKarTel,mKarTel,,D02,2017-03-20T14:41:15+06:00,
1000000000350068,77787878877,mKcell,mKarTel,mKcell,D01,D02,2017-03-20T14:42:13+06:00,
1000000000350072,77757108968,mKarTel,mKcell,mKcell,,D01,2017-03-20T14:48:59+06:00,
1000000000350073,77786947127,mAltel,mKcell,mKcell,,D07,2017-03-20T14:49:15+06:00,
1000000000350074,77775110586,mKarTel,mAltel,mKarTel,D07,D01,2017-03-20T14:49:43+06:00,
1000000000350075,77055198693,mMTS,mKarTel,mKarTel,,D77,2017-03-20T14:49:56+06:00,
1000000000350076,77023160035,mMTS,mKcell,mKcell,,D77,2017-03-20T14:49:56+06:00,
1000000000350078,77782613945,mMTS,mKcell,mKcell,,D77,2017-03-20T14:52:52+06:00,
1000000000350079,77758377784,mMTS,mKcell,mKcell,,D77,2017-03-20T14:54:11+06:00,
1000000000350081,77782342157,mMTS,mKcell,mKcell,,D77,2017-03-20T14:57:56+06:00,
1000000000350082,77029955474,mMTS,mKcell,mKcell,,D77,2017-03-20T14:57:59+06:00,
1000000000350083,77762220574,mKcell,mMTS,mKarTel,D77,D02,2017-03-20T14:58:49+06:00,
1000000000350084,77758377785,mMTS,mKcell,mKcell,,D77,2017-03-20T14:58:39+06:00,
1000000000350085,77015760813,mMTS,mKcell,mKcell,,D77,2017-03-20T14:59:24+06:00,
