NPId,Number,RecipientId,DonorId,RangeHolderId,OldRoute,NewRoute,PortDate,RowCount
1000000000208312,77015225672,mKcell,mAltel,mKcell,D07,D02,2016-07-09T12:02:13+06:00,17
1000000000208313,77754662807,mMTS,mAltel,mKcell,D07,D77,2016-07-09T12:03:37+06:00,
1000000000208314,77017481505,mMTS,mKcell,mKcell,,D77,2016-07-09T12:04:36+06:00,
1000000000208315,77017716896,mMTS,mKarTel,mKcell,D01,D77,2016-07-09T12:06:39+06:00,
1000000000208317,77089709411,mMTS,mAltel,mAltel,,D77,2016-07-09T12:06:34+06:00,
1000000000208318,77077797799,mKarTel,mKcell,mMTS,D02,D01,2016-07-09T12:07:07+06:00,
1000000000208320,77002500008,mKarTel,mKcell,mAltel,D02,D01,2016-07-09T12:08:37+06:00,
1000000000208322,77022172001,mMTS,mKcell,mKcell,,D77,2016-07-09T12:12:08+06:00,
1000000000208323,77081996407,mMTS,mAltel,mAltel,,D77,2016-07-09T12:12:31+06:00,
1000000000208328,77007607700,mKarTel,mAltel,mAltel,,D01,2016-07-09T12:15:38+06:00,
1000000000208330,77015156081,mMTS,mKcell,mKcell,,D77,2016-07-09T12:15:58+06:00,
1000000000208331,77003300507,mMTS,mAltel,mAltel,,D77,2016-07-09T12:16:17+06:00,
1000000000208333,77077301712,mKcell,mMTS,mMTS,,D02,2016-07-09T12:17:47+06:00,
1000000000208334,77021010855,mKcell,mAltel,mKcell,D07,D02,2016-07-09T12:18:38+06:00,
1000000000208335,77019017901,mMTS,mKcell,mKcell,,D77,2016-07-09T12:20:42+06:00,
1000000000208338,77017754006,mMTS,mKcell,mKcell,,D77,2016-07-09T12:22:07+06:00,
1000000000208339,77015550745,mKcell,mMTS,mKcell,D77,D02,2016-07-09T12:22:11+06:00,
