NPId,Number,RecipientId,DonorId,RangeHolderId,OldRoute,NewRoute,PortDate,RowCount
1000000000315994,77000961998,mKcell,mAltel,mAltel,,D02,2017-01-24T18:30:29+06:00,22
1000000000315997,77755511199,mKcell,mAltel,mKcell,D07,D02,2017-01-24T18:33:52+06:00,
1000000000315998,77773122859,mMTS,mKarTel,mKarTel,,D77,2017-01-24T18:36:47+06:00,
1000000000315999,77712925336,mMTS,mKarTel,mKarTel,,D77,2017-01-24T18:36:50+06:00,
1000000000316001,77089698374,mAltel,mMTS,mAltel,D77,D07,2017-01-24T18:37:33+06:00,
1000000000316002,77075551015,mAltel,mKcell,mMTS,D02,D07,2017-01-24T18:39:27+06:00,
1000000000316004,77026285431,mAltel,mKcell,mKcell,,D07,2017-01-24T18:41:09+06:00,
1000000000316005,77014937220,mMTS,mKcell,mKcell,,D77,2017-01-24T18:41:16+06:00,
1000000000316006,77783045117,mMTS,mKcell,mKcell,,D77,2017-01-24T18:43:37+06:00,
1000000000316009,77014498449,mMTS,mKcell,mKcell,,D77,2017-01-24T18:44:13+06:00,
1000000000316013,77022743052,mMTS,mKcell,mKcell,,D77,2017-01-24T18:47:51+06:00,
1000000000316014,77784072253,mKarTel,mKcell,mKcell,,D01,2017-01-24T18:49:23+06:00,
1000000000316016,77017374943,mKarTel,mKcell,mKcell,,D01,2017-01-24T18:50:11+06:00,
1000000000316017,77771660757,mMTS,mKarTel,mKarTel,,D77,2017-01-24T18:50:35+06:00,
1000000000316018,77000989698,mKcell,mAltel,mAltel,,D02,2017-01-24T18:51:58+06:00,
1000000000316019,77754320188,mKcell,mMTS,mKcell,D77,D02,2017-01-24T18:52:20+06:00,
1000000000316020,77471119959,mAltel,mMTS,mMTS,,D07,2017-01-24T18:53:44+06:00,
1000000000316021,77015235806,mKarTel,mMTS,mKcell,D77,D01,2017-01-24T18:54:41+06:00,
1000000000316022,77777759775,mAltel,mMTS,mKarTel,D77,D07,2017-01-24T18:55:42+06:00,
1000000000316023,77002230011,mMTS,mAltel,mAltel,,D77,2017-01-24T18:57:40+06:00,
1000000000316024,77019801088,mKarTel,mMTS,mKcell,D77,D01,2017-01-24T18:58:01+06:00,
1000000000316025,77000961997,mKcell,mAltel,mAltel,,D02,2017-01-24T18:58:07+06:00,
