NPId,Number,RecipientId,DonorId,RangeHolderId,OldRoute,NewRoute,PortDate,RowCount
1000000000173048,77017011824,mMTS,mKcell,mKcell,,D77,2016-05-12T19:32:01+06:00,12
1000000000173049,77477755001,mMTS,mAltel,mMTS,D07,D77,2016-05-12T19:32:01+06:00,
1000000000173051,77015366715,mAltel,mKcell,mKcell,,D07,2016-05-12T19:35:19+06:00,
1000000000173055,77017264750,mMTS,mKcell,mKcell,,D77,2016-05-12T19:42:38+06:00,
1000000000173056,77017327303,mMTS,mAltel,mKcell,D07,D77,2016-05-12T19:42:01+06:00,
1000000000173057,77007378008,mKcell,mAltel,mAltel,,D02,2016-05-12T19:46:48+06:00,
1000000000173058,77473831787,mMTS,mAltel,mMTS,D07,D77,2016-05-12T19:46:09+06:00,
1000000000173059,77753534750,mAltel,mKcell,mKcell,,D07,2016-05-12T19:46:56+06:00,
1000000000173061,77713273065,mKcell,mKarTel,mKarTel,,D02,2016-05-12T19:52:12+06:00,
1000000000173063,77014913678,mMTS,mKcell,mKcell,,D77,2016-05-12T19:57:38+06:00,
1000000000173064,77011473787,mMTS,mKcell,mKcell,,D77,2016-05-12T19:58:45+06:00,
1000000000173065,77475830003,mMTS,mAltel,mMTS,D07,D77,2016-05-12T19:58:33+06:00,
