NPId,Number,RecipientId,DonorId,RangeHolderId,OldRoute,NewRoute,PortDate,RowCount
1000000000213867,77071988921,mKcell,mMTS,mMTS,,D02,2016-07-20T14:23:32+06:00,19
1000000000214074,77007771022,mKcell,mAltel,mAltel,,D02,2016-07-20T14:07:00+06:00,
1000000000214180,77017556667,mMTS,mKcell,mKcell,,D77,2016-07-20T14:02:46+06:00,
1000000000214181,77059109223,mKcell,mKarTel,mKarTel,,D02,2016-07-20T14:04:26+06:00,
1000000000214183,77010336667,mMTS,mKcell,mKcell,,D77,2016-07-20T14:03:40+06:00,
1000000000214189,77071012333,mMTS,mAltel,mMTS,D07,D77,2016-07-20T14:13:03+06:00,
1000000000214191,77081308138,mMTS,mAltel,mAltel,,D77,2016-07-20T14:14:28+06:00,
1000000000214192,77777170191,mKarTel,mAltel,mKarTel,D07,D01,2016-07-20T14:15:07+06:00,
1000000000214193,77024494044,mMTS,mKcell,mKcell,,D77,2016-07-20T14:16:05+06:00,
1000000000214194,77016869738,mMTS,mKcell,mKcell,,D77,2016-07-20T14:16:21+06:00,
1000000000214196,77017666619,mKarTel,mKcell,mKcell,,D01,2016-07-20T14:18:25+06:00,
1000000000214197,77017585853,mMTS,mKcell,mKcell,,D77,2016-07-20T14:19:53+06:00,
1000000000214198,77785553718,mKcell,mAltel,mKcell,D07,D02,2016-07-20T14:22:00+06:00,
1000000000214199,77757511269,mMTS,mKcell,mKcell,,D77,2016-07-20T14:21:40+06:00,
1000000000214200,77771400199,mAltel,mKarTel,mKarTel,,D07,2016-07-20T14:21:52+06:00,
1000000000214201,77011535595,mKarTel,mKcell,mKcell,,D01,2016-07-20T14:22:36+06:00,
1000000000214202,77004935360,mKcell,mAltel,mAltel,,D02,2016-07-20T14:25:29+06:00,
1000000000214203,77009185727,mKcell,mAltel,mAltel,,D02,2016-07-20T14:28:06+06:00,
1000000000214205,77787108205,mAltel,mKcell,mKcell,,D07,2016-07-20T14:28:48+06:00,
