NPId,Number,RecipientId,DonorId,RangeHolderId,OldRoute,NewRoute,PortDate,RowCount
1000000000336579,77028402030,mKcell,mAltel,mKcell,D07,D02,2017-02-27T21:01:38+06:00,2
1000000000336580,77772447074,mMTS,mKarTel,mKarTel,,D77,2017-02-27T21:02:07+06:00,
