NPId,Number,RecipientId,DonorId,RangeHolderId,OldRoute,NewRoute,PortDate,RowCount
1000000000390371,77776382257,mMTS,mKarTel,mKarTel,,D77,2017-05-26T16:30:05+06:00,35
1000000000390373,77475678888,mKcell,mAltel,mMTS,D07,D02,2017-05-26T16:30:08+06:00,
1000000000390374,77757202221,mMTS,mKarTel,mKcell,D01,D77,2017-05-26T16:30:46+06:00,
1000000000390375,77017171867,mMTS,mKcell,mKcell,,D77,2017-05-26T16:32:55+06:00,
1000000000390377,77075577898,mKarTel,mAltel,mMTS,D07,D01,2017-05-26T16:33:37+06:00,
1000000000390378,77758556472,mMTS,mKcell,mKcell,,D77,2017-05-26T16:33:57+06:00,
1000000000390379,77085374074,mMTS,mAltel,mAltel,,D77,2017-05-26T16:34:12+06:00,
1000000000390380,77017177322,mMTS,mKcell,mKcell,,D77,2017-05-26T16:35:00+06:00,
1000000000390382,77787891360,mKarTel,mKcell,mKcell,,D01,2017-05-26T16:37:19+06:00,
1000000000390383,77057239966,mAltel,mKarTel,mKarTel,,D07,2017-05-26T16:37:19+06:00,
1000000000390384,77477776666,mKcell,mMTS,mMTS,,D02,2017-05-26T16:37:56+06:00,
1000000000390385,77787830088,mKarTel,mKcell,mKcell,,D01,2017-05-26T16:39:11+06:00,
1000000000390388,77023200592,mKarTel,mKcell,mKcell,,D01,2017-05-26T16:39:22+06:00,
1000000000390390,77077112911,mKarTel,mMTS,mMTS,,D01,2017-05-26T16:40:40+06:00,
1000000000390392,77029438545,mKarTel,mKcell,mKcell,,D01,2017-05-26T16:43:54+06:00,
1000000000390393,77018797719,mKarTel,mKcell,mKcell,,D01,2017-05-26T16:44:01+06:00,
1000000000390394,77007007712,mKcell,mAltel,mAltel,,D02,2017-05-26T16:44:53+06:00,
1000000000390396,77011980484,mKcell,mMTS,mKcell,D77,D02,2017-05-26T16:45:45+06:00,
1000000000390397,77777776767,mKcell,mKarTel,mKarTel,,D02,2017-05-26T16:46:13+06:00,
1000000000390398,77470565710,mAltel,mMTS,mMTS,,D07,2017-05-26T16:45:52+06:00,
1000000000390399,77056395228,mMTS,mKarTel,mKarTel,,D77,2017-05-26T16:47:22+06:00,
1000000000390401,77777201288,mAltel,mKarTel,mKarTel,,D07,2017-05-26T16:48:00+06:00,
1000000000390403,77055241971,mAltel,mKarTel,mKarTel,,D07,2017-05-26T16:48:40+06:00,
1000000000390404,77012039753,mAltel,mKcell,mKcell,,D07,2017-05-26T16:48:54+06:00,
1000000000390405,77024676622,mKcell,mMTS,mKcell,D77,D02,2017-05-26T16:49:15+06:00,
1000000000390406,77052335424,mMTS,mKarTel,mKarTel,,D77,2017-05-26T16:51:40+06:00,
1000000000390407,77017478023,mMTS,mKcell,mKcell,,D77,2017-05-26T16:51:51+06:00,
1000000000390408,77077871515,mKcell,mMTS,mMTS,,D02,2017-05-26T16:52:05+06:00,
1000000000390409,77015249847,mAltel,mKcell,mKcell,,D07,2017-05-26T16:53:23+06:00,
1000000000390410,77016184453,mMTS,mKcell,mKcell,,D77,2017-05-26T16:55:58+06:00,
1000000000390411,77054407924,mAltel,mKarTel,mKarTel,,D07,2017-05-26T16:56:31+06:00,
1000000000390412,77025202565,mMTS,mKcell,mKcell,,D77,2017-05-26T16:57:53+06:00,
1000000000390413,77759068781,mAltel,mKcell,mKcell,,D07,2017-05-26T16:58:22+06:00,
1000000000390416,77782912688,mMTS,mKarTel,mKcell,D01,D77,2017-05-26T16:59:46+06:00,
1000000000390417,77015168055,mMTS,mKcell,mKcell,,D77,2017-05-26T16:59:52+06:00,
