NPId,Number,RecipientId,DonorId,RangeHolderId,OldRoute,NewRoute,PortDate,RowCount
1000000000156901,77022332244,mKarTel,mMTS,mKcell,D77,D01,2016-04-21T09:02:08+06:00,7
1000000000156902,77087566862,mKarTel,mAltel,mAltel,,D01,2016-04-21T09:02:07+06:00,
1000000000156903,77025665288,mMTS,mKcell,mKcell,,D77,2016-04-21T09:02:06+06:00,
1000000000156905,77776775525,mAltel,mKarTel,mKarTel,,D07,2016-04-21T09:21:48+06:00,
1000000000156907,77055885885,mKarTel,mAltel,mKarTel,D07,D01,2016-04-21T09:25:19+06:00,
1000000000156908,77776669509,mMTS,mKarTel,mKarTel,,D77,2016-04-21T09:26:05+06:00,
1000000000156910,77755055500,mMTS,mKcell,mKcell,,D77,2016-04-21T09:27:07+06:00,
