NPId,Number,RecipientId,DonorId,RangeHolderId,OldRoute,NewRoute,PortDate,RowCount
1000000000352617,77015282133,mKcell,mKarTel,mKcell,D01,D02,2017-03-26T14:32:32+06:00,11
1000000000352618,77076045612,mKarTel,mMTS,mMTS,,D01,2017-03-26T14:32:46+06:00,
1000000000352619,77071252425,mMTS,mKcell,mMTS,D02,D77,2017-03-26T14:32:52+06:00,
1000000000352621,77076045613,mKarTel,mMTS,mMTS,,D01,2017-03-26T14:33:45+06:00,
1000000000352622,77072131358,mKarTel,mMTS,mMTS,,D01,2017-03-26T14:37:22+06:00,
1000000000352623,77025901010,mAltel,mKcell,mKcell,,D07,2017-03-26T14:37:26+06:00,
1000000000352624,77019007723,mAltel,mKcell,mKcell,,D07,2017-03-26T14:39:39+06:00,
1000000000352625,77027236526,mMTS,mKcell,mKcell,,D77,2017-03-26T14:48:36+06:00,
1000000000352626,77773089666,mKcell,mKarTel,mKarTel,,D02,2017-03-26T14:51:42+06:00,
1000000000352627,77773089343,mKcell,mKarTel,mKarTel,,D02,2017-03-26T14:53:59+06:00,
1000000000352628,77001002919,mMTS,mAltel,mAltel,,D77,2017-03-26T14:58:31+06:00,
