NPId,Number,RecipientId,DonorId,RangeHolderId,OldRoute,NewRoute,PortDate,RowCount
1000000000358388,77710323555,mMTS,mKarTel,mKarTel,,D77,2017-04-03T12:09:04+06:00,34
1000000000358436,77013715207,mAltel,mKcell,mKcell,,D07,2017-04-03T12:00:18+06:00,
1000000000358437,77051695437,mKarTel,mMTS,mKarTel,D77,D01,2017-04-03T12:00:48+06:00,
1000000000358438,77017186384,mAltel,mKcell,mKcell,,D07,2017-04-03T12:01:02+06:00,
1000000000358439,77776614302,mMTS,mKarTel,mKarTel,,D77,2017-04-03T12:02:27+06:00,
1000000000358440,77001190207,mMTS,mAltel,mAltel,,D77,2017-04-03T12:02:07+06:00,
1000000000358441,77018213435,mMTS,mKcell,mKcell,,D77,2017-04-03T12:04:56+06:00,
1000000000358442,77072172179,mAltel,mMTS,mMTS,,D07,2017-04-03T12:05:05+06:00,
1000000000358443,77019891496,mKarTel,mKcell,mKcell,,D01,2017-04-03T12:05:54+06:00,
1000000000358445,77758626794,mKarTel,mKcell,mKcell,,D01,2017-04-03T12:07:03+06:00,
1000000000358451,77017849102,mAltel,mKcell,mKcell,,D07,2017-04-03T12:11:56+06:00,
1000000000358452,77023060031,mKcell,mKarTel,mKcell,D01,D02,2017-04-03T12:13:08+06:00,
1000000000358454,77012427911,mAltel,mKcell,mKcell,,D07,2017-04-03T12:13:05+06:00,
1000000000358455,77017113664,mMTS,mKcell,mKcell,,D77,2017-04-03T12:13:32+06:00,
1000000000358456,77767538787,mMTS,mKarTel,mKarTel,,D77,2017-04-03T12:13:59+06:00,
1000000000358457,77767770533,mKcell,mKarTel,mKarTel,,D02,2017-04-03T12:16:04+06:00,
1000000000358458,77789333904,mMTS,mKcell,mKcell,,D77,2017-04-03T12:17:33+06:00,
1000000000358459,77770555591,mMTS,mKarTel,mKarTel,,D77,2017-04-03T12:18:27+06:00,
1000000000358460,77089449054,mAltel,mKarTel,mAltel,D01,D07,2017-04-03T12:18:31+06:00,
1000000000358461,77022363236,mKarTel,mKcell,mKcell,,D01,2017-04-03T12:19:26+06:00,
1000000000358462,77778008284,mKcell,mKarTel,mKarTel,,D02,2017-04-03T12:19:47+06:00,
1000000000358463,77011777735,mKcell,mAltel,mKcell,D07,D02,2017-04-03T12:20:44+06:00,
1000000000358464,77015314071,mMTS,mKcell,mKcell,,D77,2017-04-03T12:20:55+06:00,
1000000000358466,77775715260,mMTS,mKarTel,mKarTel,,D77,2017-04-03T12:22:10+06:00,
1000000000358469,77056126614,mMTS,mKarTel,mKarTel,,D77,2017-04-03T12:23:24+06:00,
1000000000358470,77752564477,mKcell,mMTS,mKcell,D77,D02,2017-04-03T12:23:37+06:00,
1000000000358473,77005559601,mMTS,mAltel,mAltel,,D77,2017-04-03T12:25:37+06:00,
1000000000358474,77018193377,mMTS,mKcell,mKcell,,D77,2017-04-03T12:26:14+06:00,
1000000000358475,77000291964,mKcell,mMTS,mAltel,D77,D02,2017-04-03T12:27:01+06:00,
1000000000358476,77029341888,mMTS,mKcell,mKcell,,D77,2017-04-03T12:27:28+06:00,
1000000000358477,77017242570,mKcell,mMTS,mKcell,D77,D02,2017-04-03T12:27:53+06:00,
1000000000358478,77051086627,mAltel,mKarTel,mKarTel,,D07,2017-04-03T12:29:20+06:00,
1000000000358479,77475430026,mKcell,mMTS,mMTS,,D02,2017-04-03T12:29:32+06:00,
1000000000358480,77713042304,mMTS,mKarTel,mKarTel,,D77,2017-04-03T12:29:35+06:00,
