NPId,Number,RecipientId,DonorId,RangeHolderId,OldRoute,NewRoute,PortDate,RowCount
1000000000270872,77026724927,mKarTel,mKcell,mKcell,,D01,2016-10-31T13:30:01+06:00,32
1000000000270874,77785648913,mMTS,mKcell,mKcell,,D77,2016-10-31T13:32:35+06:00,
1000000000270875,77012233210,mKarTel,mKcell,mKcell,D02,D01,2016-10-31T13:33:08+06:00,
1000000000270876,77073332131,mKcell,mMTS,mMTS,,D02,2016-10-31T13:33:34+06:00,
1000000000270877,77007502138,mMTS,mAltel,mAltel,,D77,2016-10-31T13:34:16+06:00,
1000000000270878,77057451195,mMTS,mKarTel,mKarTel,,D77,2016-10-31T13:34:56+06:00,
1000000000270880,77711017676,mAltel,mMTS,mKarTel,D77,D07,2016-10-31T13:36:20+06:00,
1000000000270882,77054111190,mMTS,mKarTel,mKarTel,,D77,2016-10-31T13:39:14+06:00,
1000000000270883,77009696049,mMTS,mAltel,mAltel,,D77,2016-10-31T13:41:11+06:00,
1000000000270885,77055812030,mAltel,mKarTel,mKarTel,,D07,2016-10-31T13:42:33+06:00,
1000000000270886,77051604128,mMTS,mKarTel,mKarTel,,D77,2016-10-31T13:42:53+06:00,
1000000000270889,77059158642,mAltel,mKarTel,mKarTel,,D07,2016-10-31T13:44:51+06:00,
1000000000270890,77711691328,mAltel,mKarTel,mKarTel,,D07,2016-10-31T13:46:31+06:00,
1000000000270891,77777030030,mAltel,mKarTel,mKarTel,,D07,2016-10-31T13:46:57+06:00,
1000000000270892,77015385116,mAltel,mKcell,mKcell,,D07,2016-10-31T13:47:33+06:00,
1000000000270896,77075557172,mKarTel,mMTS,mMTS,,D01,2016-10-31T13:50:48+06:00,
1000000000270897,77012224870,mKarTel,mKcell,mKcell,,D01,2016-10-31T13:51:49+06:00,
1000000000270898,77770071887,mKarTel,mAltel,mKarTel,D07,D01,2016-10-31T13:52:14+06:00,
1000000000270899,77779997685,mMTS,mKarTel,mKarTel,,D77,2016-10-31T13:52:38+06:00,
1000000000270900,77785648919,mMTS,mKcell,mKcell,,D77,2016-10-31T13:56:39+06:00,
1000000000270901,77770262770,mMTS,mKarTel,mKarTel,,D77,2016-10-31T13:52:54+06:00,
1000000000270902,77052890545,mAltel,mKarTel,mKarTel,,D07,2016-10-31T13:53:15+06:00,
1000000000270903,77010551505,mKarTel,mKcell,mKcell,,D01,2016-10-31T13:53:38+06:00,
1000000000270905,77014647001,mMTS,mKcell,mKcell,,D77,2016-10-31T13:56:40+06:00,
1000000000270906,77772791039,mMTS,mAltel,mKarTel,D07,D77,2016-10-31T13:55:51+06:00,
1000000000270907,77054628422,mMTS,mKarTel,mKarTel,,D77,2016-10-31T13:57:12+06:00,
1000000000270909,77771000567,mMTS,mKarTel,mKarTel,,D77,2016-10-31T13:57:33+06:00,
1000000000270910,77777691351,mKarTel,mMTS,mKarTel,D77,D01,2016-10-31T13:57:24+06:00,
1000000000270914,77713710765,mMTS,mKarTel,mKarTel,,D77,2016-10-31T13:57:45+06:00,
1000000000270917,77472009399,mKcell,mMTS,mMTS,,D02,2016-10-31T13:58:39+06:00,
1000000000270918,77005166362,mMTS,mAltel,mAltel,,D77,2016-10-31T13:58:27+06:00,
1000000000270919,77081071000,mAltel,mMTS,mAltel,D77,D07,2016-10-31T13:58:41+06:00,
