NPId,Number,RecipientId,DonorId,RangeHolderId,OldRoute,NewRoute,PortDate,RowCount
1000000000215481,77012500534,mKcell,mMTS,mKcell,D77,D02,2016-08-10T21:30:24+06:00,2
1000000000223242,77771560251,mKcell,mKarTel,mKarTel,,D02,2016-08-10T21:53:36+06:00,
