NPId,Number,RecipientId,DonorId,RangeHolderId,OldRoute,NewRoute,PortDate,RowCount
1000000000135077,77059157510,mAltel,mKarTel,mKarTel,,D07,2016-03-28T12:00:08+06:00,33
1000000000135078,77760428888,mKcell,mKarTel,mKarTel,,D02,2016-03-28T12:01:03+06:00,
1000000000135079,77018115534,mKarTel,mKcell,mKcell,,D01,2016-03-28T12:00:07+06:00,
1000000000135081,77772348450,mMTS,mKarTel,mKarTel,,D77,2016-03-28T12:01:26+06:00,
1000000000135082,77753737712,mMTS,mKcell,mKcell,,D77,2016-03-28T12:01:13+06:00,
1000000000135083,77716095555,mMTS,mKarTel,mKarTel,,D77,2016-03-28T12:02:18+06:00,
1000000000135084,77772869351,mKarTel,mAltel,mKarTel,D07,D01,2016-03-28T12:01:52+06:00,
1000000000135086,77757520611,mMTS,mKcell,mKcell,,D77,2016-03-28T12:02:12+06:00,
1000000000135087,77474170233,mKarTel,mMTS,mMTS,,D01,2016-03-28T12:02:42+06:00,
1000000000135089,77765551983,mKcell,mKarTel,mKarTel,,D02,2016-03-28T12:04:53+06:00,
1000000000135091,77017543000,mKcell,mMTS,mKcell,D77,D02,2016-03-28T12:09:21+06:00,
1000000000135092,77021305649,mMTS,mKcell,mKcell,,D77,2016-03-28T12:09:20+06:00,
1000000000135093,77766200000,mKcell,mKarTel,mKarTel,,D02,2016-03-28T12:10:36+06:00,
1000000000135094,77019512123,mAltel,mKcell,mKcell,,D07,2016-03-28T12:10:15+06:00,
1000000000135095,77073069079,mKarTel,mMTS,mMTS,,D01,2016-03-28T12:12:43+06:00,
1000000000135096,77011234028,mMTS,mKcell,mKcell,,D77,2016-03-28T12:14:18+06:00,
1000000000135098,77021925555,mAltel,mKcell,mKcell,,D07,2016-03-28T12:15:25+06:00,
1000000000135099,77714507869,mMTS,mKarTel,mKarTel,,D77,2016-03-28T12:16:03+06:00,
1000000000135102,77013379486,mKarTel,mKcell,mKcell,,D01,2016-03-28T12:16:53+06:00,
1000000000135105,77760400400,mMTS,mKarTel,mKarTel,,D77,2016-03-28T12:18:08+06:00,
1000000000135107,77772125775,mKcell,mKarTel,mKarTel,,D02,2016-03-28T12:19:39+06:00,
1000000000135108,77024398410,mKcell,mKarTel,mKcell,D01,D02,2016-03-28T12:20:07+06:00,
1000000000135109,77787886432,mMTS,mKcell,mKcell,,D77,2016-03-28T12:18:46+06:00,
1000000000135113,77023344433,mMTS,mKcell,mKcell,,D77,2016-03-28T12:22:07+06:00,
1000000000135114,77029100212,mAltel,mKcell,mKcell,,D07,2016-03-28T12:22:57+06:00,
1000000000135115,77054067055,mMTS,mKarTel,mKarTel,,D77,2016-03-28T12:24:04+06:00,
1000000000135117,77081506015,mMTS,mAltel,mAltel,,D77,2016-03-28T12:24:34+06:00,
1000000000135118,77714508231,mMTS,mKarTel,mKarTel,,D77,2016-03-28T12:26:11+06:00,
1000000000135119,77771355904,mKcell,mKarTel,mKarTel,,D02,2016-03-28T12:28:13+06:00,
1000000000135120,77017143377,mKarTel,mKcell,mKcell,,D01,2016-03-28T12:27:29+06:00,
1000000000135121,77073902070,mKcell,mMTS,mMTS,,D02,2016-03-28T12:27:59+06:00,
1000000000135124,77017523487,mMTS,mKcell,mKcell,,D77,2016-03-28T12:28:23+06:00,
1000000000135125,77755216102,mMTS,mKcell,mKcell,,D77,2016-03-28T12:28:35+06:00,
