NPId,Number,RecipientId,DonorId,RangeHolderId,OldRoute,NewRoute,PortDate,RowCount
1000000000369328,77005000270,mMTS,mAltel,mAltel,,D77,2017-04-21T10:37:44+06:00,16
1000000000369329,77078988292,mKarTel,mMTS,mMTS,,D01,2017-04-21T10:41:06+06:00,
1000000000369330,77078988191,mKarTel,mMTS,mMTS,,D01,2017-04-21T10:42:37+06:00,
1000000000369331,77014800900,mMTS,mKcell,mKcell,,D77,2017-04-21T10:43:08+06:00,
1000000000369332,77004986177,mMTS,mAltel,mAltel,,D77,2017-04-21T10:43:17+06:00,
1000000000369334,77017713113,mKcell,mKarTel,mKcell,D01,D02,2017-04-21T10:45:31+06:00,
1000000000369336,77773056939,mAltel,mKarTel,mKarTel,,D07,2017-04-21T10:45:52+06:00,
1000000000369337,77000860626,mMTS,mAltel,mAltel,,D77,2017-04-21T10:45:42+06:00,
1000000000369338,77089434210,mKarTel,mAltel,mAltel,,D01,2017-04-21T10:46:07+06:00,
1000000000369339,77012256722,mKarTel,mKcell,mKcell,,D01,2017-04-21T10:47:48+06:00,
1000000000369340,77054499026,mKcell,mMTS,mKarTel,D77,D02,2017-04-21T10:49:00+06:00,
1000000000369341,77074634334,mMTS,mKcell,mMTS,D02,D77,2017-04-21T10:52:51+06:00,
1000000000369342,77476873461,mKarTel,mMTS,mMTS,,D01,2017-04-21T10:54:53+06:00,
1000000000369343,77012280427,mKarTel,mKcell,mKcell,,D01,2017-04-21T10:57:06+06:00,
1000000000369344,77072136063,mKcell,mKarTel,mMTS,D01,D02,2017-04-21T10:57:36+06:00,
1000000000369345,77773281313,mKarTel,mMTS,mKarTel,D77,D01,2017-04-21T10:59:17+06:00,
