NPId,Number,RecipientId,DonorId,RangeHolderId,OldRoute,NewRoute,PortDate,RowCount
1000000000180767,77763930095,mKcell,mKarTel,mKarTel,,D02,2016-05-25T16:17:48+06:00,34
1000000000180833,77082104996,mMTS,mAltel,mAltel,,D77,2016-05-25T16:01:08+06:00,
1000000000180834,77001330368,mMTS,mAltel,mAltel,,D77,2016-05-25T16:01:59+06:00,
1000000000180835,77076358009,mAltel,mMTS,mMTS,,D07,2016-05-25T16:02:48+06:00,
1000000000180836,77087567758,mMTS,mAltel,mAltel,,D77,2016-05-25T16:03:35+06:00,
1000000000180837,77768692003,mKcell,mKarTel,mKarTel,,D02,2016-05-25T16:04:51+06:00,
1000000000180840,77012424906,mKarTel,mKcell,mKcell,,D01,2016-05-25T16:07:36+06:00,
1000000000180841,77753680109,mMTS,mAltel,mKcell,D07,D77,2016-05-25T16:07:03+06:00,
1000000000180842,77786666645,mAltel,mKcell,mKcell,,D07,2016-05-25T16:07:52+06:00,
1000000000180843,77752860628,mMTS,mKcell,mKcell,,D77,2016-05-25T16:07:52+06:00,
1000000000180844,77011111694,mMTS,mAltel,mKcell,D07,D77,2016-05-25T16:07:46+06:00,
1000000000180845,77011529485,mMTS,mKcell,mKcell,,D77,2016-05-25T16:08:32+06:00,
1000000000180846,77082831315,mMTS,mAltel,mAltel,,D77,2016-05-25T16:08:02+06:00,
1000000000180847,77774322727,mKcell,mKarTel,mKarTel,,D02,2016-05-25T16:09:33+06:00,
1000000000180848,77773349898,mKcell,mKarTel,mKarTel,,D02,2016-05-25T16:11:05+06:00,
1000000000180849,77007700807,mMTS,mAltel,mAltel,,D77,2016-05-25T16:12:08+06:00,
1000000000180850,77014888321,mKarTel,mKcell,mKcell,,D01,2016-05-25T16:12:46+06:00,
1000000000180851,77075005735,mMTS,mAltel,mMTS,D07,D77,2016-05-25T16:15:31+06:00,
1000000000180852,77773250145,mKcell,mKarTel,mKarTel,,D02,2016-05-25T16:17:21+06:00,
1000000000180854,77081198115,mMTS,mAltel,mAltel,,D77,2016-05-25T16:17:12+06:00,
1000000000180856,77775249999,mKcell,mKarTel,mKarTel,,D02,2016-05-25T16:18:52+06:00,
1000000000180857,77751143525,mKarTel,mKcell,mKcell,,D01,2016-05-25T16:20:11+06:00,
1000000000180858,77776059999,mKcell,mKarTel,mKarTel,,D02,2016-05-25T16:20:42+06:00,
1000000000180860,77017132677,mKarTel,mKcell,mKcell,,D01,2016-05-25T16:21:17+06:00,
1000000000180861,77021790217,mKcell,mAltel,mKcell,D07,D02,2016-05-25T16:23:31+06:00,
1000000000180863,77717567498,mMTS,mKarTel,mKarTel,,D77,2016-05-25T16:23:30+06:00,
1000000000180865,77021180566,mMTS,mKcell,mKcell,,D77,2016-05-25T16:24:19+06:00,
1000000000180866,77077886666,mKarTel,mMTS,mMTS,,D01,2016-05-25T16:24:17+06:00,
1000000000180867,77029055570,mKcell,mMTS,mKcell,D77,D02,2016-05-25T16:26:00+06:00,
1000000000180868,77017635187,mKarTel,mKcell,mKcell,,D01,2016-05-25T16:26:31+06:00,
1000000000180869,77759336763,mMTS,mAltel,mKcell,D07,D77,2016-05-25T16:25:55+06:00,
1000000000180871,77017124187,mKarTel,mKcell,mKcell,,D01,2016-05-25T16:28:00+06:00,
1000000000180872,77059170338,mMTS,mKarTel,mKarTel,,D77,2016-05-25T16:27:46+06:00,
1000000000180873,77055094972,mAltel,mKarTel,mKarTel,,D07,2016-05-25T16:28:29+06:00,
