NPId,Number,RecipientId,DonorId,RangeHolderId,OldRoute,NewRoute,PortDate,RowCount
1000000000405785,77002777779,mKcell,mKarTel,mAltel,D01,D02,2017-06-19T17:00:23+06:00,22
1000000000405787,77478478090,mKarTel,mMTS,mMTS,,D01,2017-06-19T17:00:11+06:00,
1000000000405789,77767865500,mMTS,mKarTel,mKarTel,,D77,2017-06-19T17:01:35+06:00,
1000000000405796,77003688076,mKarTel,mAltel,mAltel,,D01,2017-06-19T17:02:58+06:00,
1000000000405797,77055571166,mKarTel,mKcell,mKarTel,D02,D01,2017-06-19T17:03:31+06:00,
1000000000405798,77005112222,mKcell,mKarTel,mAltel,D01,D02,2017-06-19T17:05:23+06:00,
1000000000405799,77473710000,mMTS,mKcell,mMTS,D02,D77,2017-06-19T17:06:05+06:00,
1000000000405801,77071114508,mMTS,mKarTel,mMTS,D01,D77,2017-06-19T17:09:42+06:00,
1000000000405802,77768010101,mAltel,mKarTel,mKarTel,D01,D07,2017-06-19T17:10:18+06:00,
1000000000405803,77011761879,mKcell,mAltel,mKcell,D07,D02,2017-06-19T17:11:03+06:00,
1000000000405804,77074611107,mKarTel,mMTS,mMTS,,D01,2017-06-19T17:12:30+06:00,
1000000000405806,77764704545,mAltel,mKarTel,mKarTel,,D07,2017-06-19T17:15:00+06:00,
1000000000405807,77017521101,mKcell,mMTS,mKcell,D77,D02,2017-06-19T17:19:20+06:00,
1000000000405808,77764703838,mAltel,mKarTel,mKarTel,,D07,2017-06-19T17:19:27+06:00,
1000000000405809,77001081994,mMTS,mAltel,mAltel,,D77,2017-06-19T17:19:17+06:00,
1000000000405810,77028129528,mAltel,mKcell,mKcell,,D07,2017-06-19T17:20:17+06:00,
1000000000405811,77778677194,mMTS,mKarTel,mKarTel,,D77,2017-06-19T17:22:00+06:00,
1000000000405813,77788404804,mKcell,mMTS,mKcell,D77,D02,2017-06-19T17:22:36+06:00,
1000000000405814,77086511720,mMTS,mAltel,mAltel,,D77,2017-06-19T17:22:58+06:00,
1000000000405815,77471114723,mMTS,mKcell,mMTS,D02,D77,2017-06-19T17:24:25+06:00,
1000000000405816,77775007575,mKcell,mKarTel,mKarTel,,D02,2017-06-19T17:25:40+06:00,
1000000000405818,77079287664,mMTS,mKcell,mMTS,D02,D77,2017-06-19T17:28:33+06:00,
