NPId,Number,RecipientId,DonorId,RangeHolderId,OldRoute,NewRoute,PortDate,RowCount
1000000000329585,77784485740,mMTS,mKcell,mKcell,,D77,2017-02-15T20:32:47+06:00,2
1000000000329586,77014956564,mMTS,mKcell,mKcell,,D77,2017-02-15T20:52:51+06:00,
