NPId,Number,RecipientId,DonorId,RangeHolderId,OldRoute,NewRoute,PortDate,RowCount
1000000000094651,77085835936,mKarTel,mAltel,mAltel,,D01,2016-02-20T17:31:03+06:00,32
1000000000094652,77073066399,mKcell,mMTS,mMTS,,D02,2016-02-20T17:32:20+06:00,
1000000000094653,77085835421,mKarTel,mAltel,mAltel,,D01,2016-02-20T17:34:02+06:00,
1000000000094654,77015114177,mAltel,mKcell,mKcell,,D07,2016-02-20T17:35:43+06:00,
1000000000094655,77073066664,mKcell,mMTS,mMTS,,D02,2016-02-20T17:35:46+06:00,
1000000000094656,77021700049,mMTS,mKcell,mKcell,,D77,2016-02-20T17:35:54+06:00,
1000000000094657,77017729095,mMTS,mKcell,mKcell,,D77,2016-02-20T17:36:09+06:00,
1000000000094659,77014090400,mAltel,mKcell,mKcell,,D07,2016-02-20T17:36:51+06:00,
1000000000094660,77085835417,mKarTel,mAltel,mAltel,,D01,2016-02-20T17:37:01+06:00,
1000000000094662,77018557485,mAltel,mKcell,mKcell,,D07,2016-02-20T17:37:01+06:00,
1000000000094665,77073066364,mKcell,mMTS,mMTS,,D02,2016-02-20T17:40:09+06:00,
1000000000094670,77017553055,mMTS,mKcell,mKcell,,D77,2016-02-20T17:42:12+06:00,
1000000000094671,77089897960,mKarTel,mAltel,mAltel,,D01,2016-02-20T17:42:48+06:00,
1000000000094672,77782470211,mMTS,mKcell,mKcell,,D77,2016-02-20T17:42:48+06:00,
1000000000094673,77017439004,mKarTel,mKcell,mKcell,,D01,2016-02-20T17:43:27+06:00,
1000000000094674,77775800009,mAltel,mKarTel,mKarTel,,D07,2016-02-20T17:44:43+06:00,
1000000000094675,77016227874,mAltel,mKcell,mKcell,,D07,2016-02-20T17:45:01+06:00,
1000000000094676,77071091189,mAltel,mMTS,mMTS,,D07,2016-02-20T17:47:32+06:00,
1000000000094677,77014635801,mMTS,mKcell,mKcell,,D77,2016-02-20T17:48:14+06:00,
1000000000094679,77014576833,mMTS,mKcell,mKcell,,D77,2016-02-20T17:48:32+06:00,
1000000000094680,77011105404,mKarTel,mKcell,mKcell,,D01,2016-02-20T17:51:21+06:00,
1000000000094681,77029559273,mAltel,mKcell,mKcell,,D07,2016-02-20T17:50:22+06:00,
1000000000094684,77023266252,mAltel,mKcell,mKcell,,D07,2016-02-20T17:51:45+06:00,
1000000000094685,77056222589,mMTS,mKarTel,mKarTel,,D77,2016-02-20T17:52:11+06:00,
1000000000094686,77712408820,mKcell,mKarTel,mKarTel,,D02,2016-02-20T17:54:18+06:00,
1000000000094688,77479076727,mKcell,mMTS,mMTS,,D02,2016-02-20T17:55:26+06:00,
1000000000094689,77073858888,mAltel,mMTS,mMTS,,D07,2016-02-20T17:56:17+06:00,
1000000000094690,77022944777,mMTS,mKcell,mKcell,,D77,2016-02-20T17:56:53+06:00,
1000000000094691,77786034008,mMTS,mKcell,mKcell,,D77,2016-02-20T17:56:57+06:00,
1000000000094692,77016002829,mAltel,mKcell,mKcell,,D07,2016-02-20T17:57:22+06:00,
1000000000094693,77012375066,mAltel,mKcell,mKcell,,D07,2016-02-20T17:57:30+06:00,
1000000000094695,77773983878,mMTS,mKarTel,mKarTel,,D77,2016-02-20T17:59:46+06:00,
