NPId,Number,RecipientId,DonorId,RangeHolderId,OldRoute,NewRoute,PortDate,RowCount
1000000000299122,77760000793,mKcell,mKarTel,mKarTel,,D02,2016-12-22T18:30:47+06:00,22
1000000000299123,77754101615,mMTS,mKcell,mKcell,,D77,2016-12-22T18:30:24+06:00,
1000000000299124,77003236610,mMTS,mAltel,mAltel,,D77,2016-12-22T18:32:17+06:00,
1000000000299125,77753456597,mMTS,mKcell,mKcell,,D77,2016-12-22T18:32:43+06:00,
1000000000299126,77026941416,mKcell,mMTS,mKcell,D77,D02,2016-12-22T18:33:10+06:00,
1000000000299127,77774587448,mKarTel,mMTS,mKarTel,D77,D01,2016-12-22T18:35:45+06:00,
1000000000299128,77012087714,mMTS,mKcell,mKcell,,D77,2016-12-22T18:37:51+06:00,
1000000000299129,77786088289,mMTS,mKcell,mKcell,,D77,2016-12-22T18:38:10+06:00,
1000000000299130,77004049000,mKcell,mAltel,mAltel,,D02,2016-12-22T18:39:01+06:00,
1000000000299134,77077050150,mKarTel,mMTS,mMTS,,D01,2016-12-22T18:42:47+06:00,
1000000000299136,77009952597,mKcell,mAltel,mAltel,,D02,2016-12-22T18:43:36+06:00,
1000000000299137,77718585554,mMTS,mKarTel,mKarTel,,D77,2016-12-22T18:46:22+06:00,
1000000000299139,77057474705,mMTS,mKarTel,mKarTel,,D77,2016-12-22T18:46:39+06:00,
1000000000299140,77772420059,mKarTel,mMTS,mKarTel,D77,D01,2016-12-22T18:47:22+06:00,
1000000000299141,77777119396,mMTS,mKarTel,mKarTel,,D77,2016-12-22T18:47:41+06:00,
1000000000299142,77714365340,mMTS,mKarTel,mKarTel,,D77,2016-12-22T18:48:00+06:00,
1000000000299143,77072839988,mMTS,mAltel,mMTS,D07,D77,2016-12-22T18:49:35+06:00,
1000000000299144,77015302503,mAltel,mKcell,mKcell,,D07,2016-12-22T18:52:05+06:00,
1000000000299145,77015133763,mKcell,mKarTel,mKcell,D01,D02,2016-12-22T18:53:38+06:00,
1000000000299146,77779130003,mKarTel,mKcell,mKarTel,D02,D01,2016-12-22T18:55:25+06:00,
1000000000299147,77023956698,mKcell,mAltel,mKcell,D07,D02,2016-12-22T18:55:49+06:00,
1000000000299148,77479048549,mKcell,mMTS,mMTS,,D02,2016-12-22T18:59:48+06:00,
