NPId,Number,RecipientId,DonorId,RangeHolderId,OldRoute,NewRoute,PortDate,RowCount
1000000000340788,77000950605,mKcell,mAltel,mAltel,,D02,2017-03-04T15:01:08+06:00,30
1000000000340789,77774506600,mKcell,mKarTel,mKarTel,,D02,2017-03-04T15:04:43+06:00,
1000000000340792,77714915083,mMTS,mKarTel,mKarTel,,D77,2017-03-04T15:06:58+06:00,
1000000000340793,77000982008,mKcell,mAltel,mAltel,,D02,2017-03-04T15:07:25+06:00,
1000000000340794,77012991133,mAltel,mKcell,mKcell,,D07,2017-03-04T15:07:19+06:00,
1000000000340795,77777779772,mKcell,mKarTel,mKarTel,,D02,2017-03-04T15:08:29+06:00,
1000000000340798,77077777589,mKarTel,mMTS,mMTS,,D01,2017-03-04T15:11:45+06:00,
1000000000340799,77012553525,mMTS,mKcell,mKcell,,D77,2017-03-04T15:12:15+06:00,
1000000000340801,77000912001,mKcell,mAltel,mAltel,,D02,2017-03-04T15:13:40+06:00,
1000000000340802,77777773772,mKcell,mKarTel,mKarTel,,D02,2017-03-04T15:14:26+06:00,
1000000000340803,77016090387,mMTS,mKcell,mKcell,,D77,2017-03-04T15:15:41+06:00,
1000000000340805,77017653436,mMTS,mKcell,mKcell,,D77,2017-03-04T15:16:46+06:00,
1000000000340806,77017116777,mKcell,mKarTel,mKcell,D01,D02,2017-03-04T15:17:20+06:00,
1000000000340807,77015588505,mMTS,mKcell,mKcell,,D77,2017-03-04T15:17:17+06:00,
1000000000340808,77479266510,mAltel,mMTS,mMTS,,D07,2017-03-04T15:17:48+06:00,
1000000000340809,77777773774,mKcell,mKarTel,mKarTel,,D02,2017-03-04T15:18:30+06:00,
1000000000340810,77028161355,mMTS,mKcell,mKcell,,D77,2017-03-04T15:18:13+06:00,
1000000000340811,77022309729,mKarTel,mKcell,mKcell,,D01,2017-03-04T15:18:46+06:00,
1000000000340812,77015258718,mMTS,mKcell,mKcell,,D77,2017-03-04T15:18:53+06:00,
1000000000340813,77479266511,mAltel,mMTS,mMTS,,D07,2017-03-04T15:19:31+06:00,
1000000000340815,77071313082,mKarTel,mMTS,mMTS,,D01,2017-03-04T15:21:18+06:00,
1000000000340816,77777779775,mKcell,mKarTel,mKarTel,,D02,2017-03-04T15:22:31+06:00,
1000000000340818,77075253202,mKarTel,mMTS,mMTS,,D01,2017-03-04T15:23:25+06:00,
1000000000340819,77078133700,mKcell,mMTS,mMTS,,D02,2017-03-04T15:23:32+06:00,
1000000000340820,77781557177,mAltel,mKcell,mKcell,,D07,2017-03-04T15:23:42+06:00,
1000000000340821,77761009006,mAltel,mKarTel,mKarTel,,D07,2017-03-04T15:24:25+06:00,
1000000000340823,77077474451,mAltel,mMTS,mMTS,,D07,2017-03-04T15:26:01+06:00,
1000000000340824,77000282700,mMTS,mAltel,mAltel,,D77,2017-03-04T15:28:00+06:00,
1000000000340825,77017872124,mMTS,mKcell,mKcell,,D77,2017-03-04T15:29:12+06:00,
1000000000340826,77014449577,mMTS,mKcell,mKcell,D02,D77,2017-03-04T15:29:59+06:00,
