NPId,Number,RecipientId,DonorId,RangeHolderId,OldRoute,NewRoute,PortDate,RowCount
1000000000367984,77056104898,mMTS,mKarTel,mKarTel,,D77,2017-04-18T18:30:13+06:00,25
1000000000367986,77079400817,mAltel,mMTS,mMTS,,D07,2017-04-18T18:31:07+06:00,
1000000000367987,77780404008,mMTS,mKcell,mKcell,,D77,2017-04-18T18:32:38+06:00,
1000000000367988,77012707621,mMTS,mKcell,mKcell,,D77,2017-04-18T18:32:51+06:00,
1000000000367989,77071288826,mKcell,mMTS,mMTS,,D02,2017-04-18T18:33:45+06:00,
1000000000367991,77777057677,mKarTel,mKcell,mKarTel,D02,D01,2017-04-18T18:34:30+06:00,
1000000000367992,77024171545,mAltel,mKcell,mKcell,,D07,2017-04-18T18:34:46+06:00,
1000000000367993,77004470074,mMTS,mAltel,mAltel,,D77,2017-04-18T18:35:48+06:00,
1000000000367994,77071304200,mKcell,mMTS,mMTS,,D02,2017-04-18T18:36:36+06:00,
1000000000367995,77761626222,mKcell,mKarTel,mKarTel,,D02,2017-04-18T18:39:06+06:00,
1000000000367996,77052739079,mMTS,mKarTel,mKarTel,,D77,2017-04-18T18:38:55+06:00,
1000000000367998,77051859233,mKarTel,mMTS,mKarTel,D77,D01,2017-04-18T18:40:00+06:00,
1000000000368000,77000222096,mMTS,mAltel,mAltel,,D77,2017-04-18T18:41:36+06:00,
1000000000368003,77780001568,mMTS,mKcell,mKcell,,D77,2017-04-18T18:44:59+06:00,
1000000000368004,77028277170,mKarTel,mKcell,mKcell,,D01,2017-04-18T18:46:47+06:00,
1000000000368005,77786774444,mAltel,mKcell,mKcell,,D07,2017-04-18T18:49:00+06:00,
1000000000368006,77000240000,mKcell,mAltel,mAltel,,D02,2017-04-18T18:49:37+06:00,
1000000000368007,77077737799,mKcell,mMTS,mMTS,,D02,2017-04-18T18:50:20+06:00,
1000000000368010,77474404701,mKarTel,mMTS,mMTS,,D01,2017-04-18T18:52:21+06:00,
1000000000368011,77007770075,mKcell,mAltel,mAltel,,D02,2017-04-18T18:52:57+06:00,
1000000000368012,77051025782,mMTS,mKarTel,mKarTel,,D77,2017-04-18T18:53:45+06:00,
1000000000368013,77022231653,mKarTel,mKcell,mKcell,,D01,2017-04-18T18:54:57+06:00,
1000000000368014,77007771170,mKcell,mAltel,mAltel,,D02,2017-04-18T18:55:40+06:00,
1000000000368015,77007771993,mKcell,mAltel,mAltel,,D02,2017-04-18T18:58:10+06:00,
1000000000368016,77016500050,mKarTel,mKcell,mKcell,,D01,2017-04-18T18:59:45+06:00,
