NPId,Number,RecipientId,DonorId,RangeHolderId,OldRoute,NewRoute,PortDate,RowCount
1000000000211586,77055268585,mAltel,mKarTel,mKarTel,,D07,2016-07-15T11:00:36+06:00,18
1000000000211589,77024042042,mMTS,mKcell,mKcell,,D77,2016-07-15T11:02:20+06:00,
1000000000211590,77073008888,mKarTel,mMTS,mMTS,,D01,2016-07-15T11:04:02+06:00,
1000000000211592,77014165641,mKcell,mMTS,mKcell,D77,D02,2016-07-15T11:07:40+06:00,
1000000000211594,77081191818,mAltel,mMTS,mAltel,D77,D07,2016-07-15T11:06:38+06:00,
1000000000211595,77022873795,mMTS,mKcell,mKcell,,D77,2016-07-15T11:09:11+06:00,
1000000000211596,77019918878,mKcell,mAltel,mKcell,D07,D02,2016-07-15T11:10:51+06:00,
1000000000211599,77710468000,mKcell,mKarTel,mKarTel,,D02,2016-07-15T11:12:28+06:00,
1000000000211600,77710467000,mKcell,mKarTel,mKarTel,,D02,2016-07-15T11:14:14+06:00,
1000000000211601,77073700700,mKcell,mMTS,mMTS,,D02,2016-07-15T11:13:13+06:00,
1000000000211602,77024233500,mKarTel,mKcell,mKcell,,D01,2016-07-15T11:14:18+06:00,
1000000000211603,77059859252,mKarTel,mKcell,mKarTel,D02,D01,2016-07-15T11:14:47+06:00,
1000000000211605,77717519970,mAltel,mKarTel,mKarTel,,D07,2016-07-15T11:16:54+06:00,
1000000000211606,77476662195,mKarTel,mMTS,mMTS,,D01,2016-07-15T11:16:30+06:00,
1000000000211608,77772806343,mKarTel,mMTS,mKarTel,D77,D01,2016-07-15T11:19:57+06:00,
1000000000211610,77013892340,mKcell,mMTS,mKcell,D77,D02,2016-07-15T11:20:59+06:00,
1000000000211612,77014560044,mAltel,mKcell,mKcell,,D07,2016-07-15T11:24:02+06:00,
1000000000211613,77011256935,mMTS,mKcell,mKcell,D02,D77,2016-07-15T11:26:00+06:00,
