NPId,Number,RecipientId,DonorId,RangeHolderId,OldRoute,NewRoute,PortDate,RowCount
1000000000247445,77776390419,mMTS,mKarTel,mKarTel,,D77,2016-09-18T14:32:54+06:00,12
1000000000247446,77473330827,mKarTel,mMTS,mMTS,,D01,2016-09-18T14:33:38+06:00,
1000000000247447,77756377796,mAltel,mMTS,mKcell,D77,D07,2016-09-18T14:33:55+06:00,
1000000000247449,77071522225,mKcell,mMTS,mMTS,,D02,2016-09-18T14:34:43+06:00,
1000000000247450,77087578287,mAltel,mKarTel,mAltel,D01,D07,2016-09-18T14:37:54+06:00,
1000000000247451,77017890407,mMTS,mKcell,mKcell,,D77,2016-09-18T14:38:04+06:00,
1000000000247453,77076785432,mKarTel,mMTS,mMTS,,D01,2016-09-18T14:44:12+06:00,
1000000000247456,77024717823,mMTS,mKcell,mKcell,,D77,2016-09-18T14:47:38+06:00,
1000000000247457,77002777777,mAltel,mKarTel,mAltel,D01,D07,2016-09-18T14:51:39+06:00,
1000000000247458,77019006497,mKarTel,mKcell,mKcell,,D01,2016-09-18T14:53:20+06:00,
1000000000247460,77052610680,mMTS,mKarTel,mKarTel,,D77,2016-09-18T14:57:58+06:00,
1000000000247462,77762011120,mMTS,mKarTel,mKarTel,,D77,2016-09-18T14:59:01+06:00,
