NPId,Number,RecipientId,DonorId,RangeHolderId,OldRoute,NewRoute,PortDate,RowCount
1000000000373788,77083359142,mMTS,mAltel,mAltel,,D77,2017-04-28T14:30:22+06:00,27
1000000000373791,77018700777,mMTS,mKcell,mKcell,,D77,2017-04-28T14:34:28+06:00,
1000000000373792,77779522201,mMTS,mKarTel,mKarTel,,D77,2017-04-28T14:34:46+06:00,
1000000000373793,77071773758,mKcell,mMTS,mMTS,,D02,2017-04-28T14:35:34+06:00,
1000000000373794,77017320024,mKarTel,mKcell,mKcell,,D01,2017-04-28T14:35:50+06:00,
1000000000373797,77013222407,mMTS,mKcell,mKcell,,D77,2017-04-28T14:37:53+06:00,
1000000000373798,77753337083,mAltel,mKcell,mKcell,,D07,2017-04-28T14:38:11+06:00,
1000000000373800,77017074217,mMTS,mKcell,mKcell,,D77,2017-04-28T14:41:56+06:00,
1000000000373802,77003338091,mKarTel,mAltel,mAltel,,D01,2017-04-28T14:42:52+06:00,
1000000000373803,77768088888,mMTS,mKarTel,mKarTel,,D77,2017-04-28T14:43:06+06:00,
1000000000373805,77071310084,mAltel,mMTS,mMTS,,D07,2017-04-28T14:43:50+06:00,
1000000000373806,77075444457,mMTS,mKarTel,mMTS,D01,D77,2017-04-28T14:44:19+06:00,
1000000000373807,77015250100,mMTS,mKcell,mKcell,,D77,2017-04-28T14:44:25+06:00,
1000000000373809,77072311192,mKcell,mMTS,mMTS,,D02,2017-04-28T14:45:56+06:00,
1000000000373811,77751171127,mAltel,mKarTel,mKcell,D01,D07,2017-04-28T14:47:29+06:00,
1000000000373812,77758786962,mMTS,mKcell,mKcell,,D77,2017-04-28T14:47:50+06:00,
1000000000373813,77026668788,mMTS,mKcell,mKcell,,D77,2017-04-28T14:47:52+06:00,
1000000000373814,77782768691,mMTS,mKcell,mKcell,,D77,2017-04-28T14:47:57+06:00,
1000000000373817,77764788888,mMTS,mKarTel,mKarTel,,D77,2017-04-28T14:49:05+06:00,
1000000000373818,77026947139,mMTS,mKcell,mKcell,,D77,2017-04-28T14:49:22+06:00,
1000000000373819,77757136575,mKcell,mAltel,mKcell,D07,D02,2017-04-28T14:49:33+06:00,
1000000000373821,77787442094,mMTS,mKcell,mKcell,,D77,2017-04-28T14:51:08+06:00,
1000000000373823,77014205859,mMTS,mKcell,mKcell,,D77,2017-04-28T14:51:48+06:00,
1000000000373825,77710010780,mKcell,mKarTel,mKarTel,,D02,2017-04-28T14:52:46+06:00,
1000000000373826,77782768681,mMTS,mKcell,mKcell,,D77,2017-04-28T14:52:55+06:00,
1000000000373833,77017597580,mMTS,mKcell,mKcell,,D77,2017-04-28T14:55:36+06:00,
1000000000373834,77056054332,mKarTel,mKcell,mKarTel,D02,D01,2017-04-28T14:56:04+06:00,
