NPId,Number,RecipientId,DonorId,RangeHolderId,OldRoute,NewRoute,PortDate,RowCount
1000000000354062,77751584292,mMTS,mKcell,mKcell,,D77,2017-03-28T15:08:59+06:00,29
1000000000354080,77057793993,mMTS,mKarTel,mKarTel,,D77,2017-03-28T15:00:38+06:00,
1000000000354081,77023335145,mAltel,mKcell,mKcell,,D07,2017-03-28T15:01:32+06:00,
1000000000354082,77025500505,mKarTel,mKcell,mKcell,,D01,2017-03-28T15:02:10+06:00,
1000000000354083,77014889025,mMTS,mKcell,mKcell,,D77,2017-03-28T15:02:03+06:00,
1000000000354084,77751780824,mMTS,mKcell,mKcell,,D77,2017-03-28T15:03:13+06:00,
1000000000354088,77777582211,mMTS,mKarTel,mKarTel,,D77,2017-03-28T15:06:47+06:00,
1000000000354089,77017170313,mKarTel,mKcell,mKcell,,D01,2017-03-28T15:06:43+06:00,
1000000000354091,77089557633,mMTS,mAltel,mAltel,,D77,2017-03-28T15:07:49+06:00,
1000000000354093,77015998000,mKarTel,mKcell,mKcell,,D01,2017-03-28T15:10:07+06:00,
1000000000354094,77019145999,mKarTel,mKcell,mKcell,,D01,2017-03-28T15:10:34+06:00,
1000000000354095,77019501307,mMTS,mKcell,mKcell,,D77,2017-03-28T15:10:36+06:00,
1000000000354096,77018643232,mMTS,mKcell,mKcell,,D77,2017-03-28T15:11:24+06:00,
1000000000354097,77076779207,mKcell,mMTS,mMTS,,D02,2017-03-28T15:11:24+06:00,
1000000000354098,77051740880,mMTS,mKarTel,mKarTel,,D77,2017-03-28T15:11:38+06:00,
1000000000354099,77777692211,mMTS,mKarTel,mKarTel,,D77,2017-03-28T15:11:43+06:00,
1000000000354100,77073853434,mAltel,mMTS,mMTS,D77,D07,2017-03-28T15:12:45+06:00,
1000000000354101,77012326830,mMTS,mKcell,mKcell,,D77,2017-03-28T15:12:57+06:00,
1000000000354103,77076664402,mKcell,mMTS,mMTS,,D02,2017-03-28T15:14:47+06:00,
1000000000354104,77019997021,mAltel,mKcell,mKcell,,D07,2017-03-28T15:14:45+06:00,
1000000000354105,77784646463,mKarTel,mKcell,mKcell,,D01,2017-03-28T15:17:52+06:00,
1000000000354106,77077161274,mKarTel,mMTS,mMTS,,D01,2017-03-28T15:18:35+06:00,
1000000000354107,77006205608,mMTS,mAltel,mAltel,,D77,2017-03-28T15:19:26+06:00,
1000000000354109,77001204595,mMTS,mAltel,mAltel,,D77,2017-03-28T15:22:44+06:00,
1000000000354110,77781600076,mMTS,mKcell,mKcell,,D77,2017-03-28T15:24:03+06:00,
1000000000354111,77014687878,mAltel,mKcell,mKcell,,D07,2017-03-28T15:24:08+06:00,
1000000000354113,77774438888,mMTS,mKarTel,mKarTel,,D77,2017-03-28T15:27:09+06:00,
1000000000354116,77054998353,mAltel,mKarTel,mKarTel,,D07,2017-03-28T15:28:11+06:00,
1000000000354117,77756997404,mMTS,mKcell,mKcell,,D77,2017-03-28T15:28:35+06:00,
