NPId,Number,RecipientId,DonorId,RangeHolderId,OldRoute,NewRoute,PortDate,RowCount
1000000000410235,77712330396,mMTS,mKarTel,mKarTel,,D77,2017-06-27T01:47:06+06:00,2
1000000000410238,77712330312,mMTS,mKarTel,mKarTel,,D77,2017-06-27T01:57:07+06:00,
