NPId,Number,RecipientId,DonorId,RangeHolderId,OldRoute,NewRoute,PortDate,RowCount
1000000000363579,77477319584,mKcell,mMTS,mMTS,,D02,2017-04-10T18:00:29+06:00,23
1000000000363582,77013108610,mKcell,mKarTel,mKcell,D01,D02,2017-04-10T18:01:51+06:00,
1000000000363584,77015771143,mMTS,mKcell,mKcell,,D77,2017-04-10T18:01:39+06:00,
1000000000363586,77057128800,mMTS,mKcell,mKarTel,D02,D77,2017-04-10T18:01:50+06:00,
1000000000363591,77782055004,mMTS,mKcell,mKcell,,D77,2017-04-10T18:02:48+06:00,
1000000000363593,77789007050,mKcell,mMTS,mKcell,D77,D02,2017-04-10T18:03:25+06:00,
1000000000363594,77014357444,mMTS,mKcell,mKcell,,D77,2017-04-10T18:03:23+06:00,
1000000000363598,77017127120,mKcell,mKarTel,mKcell,D01,D02,2017-04-10T18:04:37+06:00,
1000000000363600,77474450682,mMTS,mKarTel,mMTS,D01,D77,2017-04-10T18:04:47+06:00,
1000000000363602,77017578916,mKarTel,mKcell,mKcell,,D01,2017-04-10T18:05:22+06:00,
1000000000363609,77011299911,mMTS,mKcell,mKcell,,D77,2017-04-10T18:07:54+06:00,
1000000000363611,77077870035,mKcell,mMTS,mMTS,,D02,2017-04-10T18:10:15+06:00,
1000000000363612,77076352167,mAltel,mMTS,mMTS,,D07,2017-04-10T18:10:19+06:00,
1000000000363613,77059879003,mKcell,mKarTel,mKarTel,,D02,2017-04-10T18:10:51+06:00,
1000000000363615,77477761511,mKcell,mMTS,mMTS,,D02,2017-04-10T18:13:07+06:00,
1000000000363617,77021777211,mKarTel,mKcell,mKcell,,D01,2017-04-10T18:15:07+06:00,
1000000000363618,77471223392,mKcell,mMTS,mMTS,,D02,2017-04-10T18:15:08+06:00,
1000000000363621,77029999344,mKarTel,mKcell,mKcell,,D01,2017-04-10T18:21:36+06:00,
1000000000363622,77788888987,mKarTel,mKcell,mKcell,,D01,2017-04-10T18:22:42+06:00,
1000000000363623,77015387836,mKarTel,mKcell,mKcell,,D01,2017-04-10T18:23:09+06:00,
1000000000363625,77083051735,mKarTel,mAltel,mAltel,,D01,2017-04-10T18:23:29+06:00,
1000000000363627,77783788805,mKarTel,mKcell,mKcell,,D01,2017-04-10T18:28:50+06:00,
1000000000363628,77472008878,mKarTel,mAltel,mMTS,D07,D01,2017-04-10T18:29:34+06:00,
