NPId,Number,RecipientId,DonorId,RangeHolderId,OldRoute,NewRoute,PortDate,RowCount
1000000000107421,77770449999,mKcell,mKarTel,mKarTel,,D02,2016-03-15T09:18:46+06:00,14
1000000000125183,77017700417,mMTS,mKcell,mKcell,,D77,2016-03-15T09:01:21+06:00,
1000000000125184,77017629385,mKarTel,mKcell,mKcell,,D01,2016-03-15T09:03:29+06:00,
1000000000125185,77017368679,mKarTel,mKcell,mKcell,,D01,2016-03-15T09:03:31+06:00,
1000000000125186,77782887575,mKarTel,mKcell,mKcell,,D01,2016-03-15T09:03:31+06:00,
1000000000125188,77789307885,mAltel,mKcell,mKcell,,D07,2016-03-15T09:03:04+06:00,
1000000000125189,77761162636,mMTS,mKarTel,mKarTel,,D77,2016-03-15T09:02:28+06:00,
1000000000125190,77027777455,mAltel,mKcell,mKcell,,D07,2016-03-15T09:05:55+06:00,
1000000000125191,77778450101,mMTS,mKarTel,mKarTel,,D77,2016-03-15T09:08:31+06:00,
1000000000125192,77751592247,mMTS,mKcell,mKcell,,D77,2016-03-15T09:19:31+06:00,
1000000000125194,77007790940,mKcell,mAltel,mAltel,,D02,2016-03-15T09:22:49+06:00,
1000000000125195,77016365666,mAltel,mKcell,mKcell,,D07,2016-03-15T09:23:32+06:00,
1000000000125197,77005262838,mKcell,mAltel,mAltel,,D02,2016-03-15T09:25:32+06:00,
1000000000125199,77014630828,mAltel,mKcell,mKcell,,D07,2016-03-15T09:28:15+06:00,
