NPId,Number,RecipientId,DonorId,RangeHolderId,OldRoute,NewRoute,PortDate,RowCount
1000000000293337,77076212108,mKarTel,mMTS,mMTS,,D01,2016-12-10T17:34:37+06:00,22
1000000000293339,77054996890,mAltel,mKarTel,mKarTel,,D07,2016-12-10T17:37:02+06:00,
1000000000293340,77016947737,mMTS,mKcell,mKcell,,D77,2016-12-10T17:37:41+06:00,
1000000000293341,77053377545,mKcell,mKarTel,mKarTel,,D02,2016-12-10T17:39:00+06:00,
1000000000293342,77027771117,mKarTel,mKcell,mKcell,,D01,2016-12-10T17:39:34+06:00,
1000000000293343,77015905000,mKcell,mAltel,mKcell,D07,D02,2016-12-10T17:40:13+06:00,
1000000000293344,77780005131,mMTS,mKcell,mKcell,,D77,2016-12-10T17:41:59+06:00,
1000000000293347,77010588080,mMTS,mKcell,mKcell,,D77,2016-12-10T17:44:57+06:00,
1000000000293350,77023344486,mMTS,mKcell,mKcell,,D77,2016-12-10T17:45:50+06:00,
1000000000293352,77089017878,mMTS,mAltel,mAltel,,D77,2016-12-10T17:47:04+06:00,
1000000000293353,77001055083,mKcell,mAltel,mAltel,,D02,2016-12-10T17:49:44+06:00,
1000000000293354,77762511116,mMTS,mKarTel,mKarTel,,D77,2016-12-10T17:50:39+06:00,
1000000000293355,77774290153,mAltel,mKarTel,mKarTel,,D07,2016-12-10T17:50:46+06:00,
1000000000293358,77785588352,mKarTel,mKcell,mKcell,,D01,2016-12-10T17:51:44+06:00,
1000000000293360,77078556143,mKarTel,mMTS,mMTS,,D01,2016-12-10T17:53:47+06:00,
1000000000293361,77712054242,mMTS,mKarTel,mKarTel,,D77,2016-12-10T17:55:00+06:00,
1000000000293362,77074660909,mKarTel,mMTS,mMTS,,D01,2016-12-10T17:55:14+06:00,
1000000000293363,77002003219,mMTS,mAltel,mAltel,,D77,2016-12-10T17:55:11+06:00,
1000000000293364,77010930111,mMTS,mKcell,mKcell,,D77,2016-12-10T17:55:13+06:00,
1000000000293365,77016751698,mMTS,mKcell,mKcell,,D77,2016-12-10T17:55:38+06:00,
1000000000293366,77071508585,mKcell,mMTS,mMTS,,D02,2016-12-10T17:56:41+06:00,
1000000000293367,77074786638,mMTS,mKcell,mMTS,D02,D77,2016-12-10T17:58:50+06:00,
