NPId,Number,RecipientId,DonorId,RangeHolderId,OldRoute,NewRoute,PortDate,RowCount
1000000000094970,77085836158,mKarTel,mAltel,mAltel,,D01,2016-02-21T14:00:13+06:00,30
1000000000094975,77772599111,mMTS,mKarTel,mKarTel,,D77,2016-02-21T14:03:05+06:00,
1000000000094976,77071113211,mAltel,mMTS,mMTS,,D07,2016-02-21T14:03:21+06:00,
1000000000094978,77085836149,mKarTel,mAltel,mAltel,,D01,2016-02-21T14:05:22+06:00,
1000000000094979,77758676115,mAltel,mKcell,mKcell,,D07,2016-02-21T14:05:46+06:00,
1000000000094980,77084983325,mKcell,mAltel,mAltel,,D02,2016-02-21T14:07:55+06:00,
1000000000094981,77788792113,mMTS,mKcell,mKcell,,D77,2016-02-21T14:08:19+06:00,
1000000000094982,77085836139,mKarTel,mAltel,mAltel,,D01,2016-02-21T14:10:29+06:00,
1000000000094983,77018333627,mMTS,mKcell,mKcell,,D77,2016-02-21T14:11:57+06:00,
1000000000094984,77073939393,mAltel,mMTS,mMTS,,D07,2016-02-21T14:13:16+06:00,
1000000000094985,77074494812,mAltel,mMTS,mMTS,,D07,2016-02-21T14:13:58+06:00,
1000000000094987,77756974325,mAltel,mKcell,mKcell,,D07,2016-02-21T14:14:33+06:00,
1000000000094988,77075552830,mAltel,mMTS,mMTS,,D07,2016-02-21T14:14:29+06:00,
1000000000094989,77026711118,mAltel,mKcell,mKcell,,D07,2016-02-21T14:15:41+06:00,
1000000000094990,77012259198,mAltel,mKcell,mKcell,,D07,2016-02-21T14:16:28+06:00,
1000000000094991,77085836129,mKarTel,mAltel,mAltel,,D01,2016-02-21T14:16:44+06:00,
1000000000094992,77774595664,mMTS,mKarTel,mKarTel,,D77,2016-02-21T14:17:46+06:00,
1000000000094994,77084983372,mKcell,mAltel,mAltel,,D02,2016-02-21T14:18:32+06:00,
1000000000094996,77085836228,mKarTel,mAltel,mAltel,,D01,2016-02-21T14:20:29+06:00,
1000000000094998,77775093544,mAltel,mKarTel,mKarTel,,D07,2016-02-21T14:21:46+06:00,
1000000000094999,77072293819,mAltel,mMTS,mMTS,,D07,2016-02-21T14:22:19+06:00,
1000000000095000,77085836221,mKarTel,mAltel,mAltel,,D01,2016-02-21T14:22:50+06:00,
1000000000095001,77770301840,mMTS,mKarTel,mKarTel,,D77,2016-02-21T14:23:59+06:00,
1000000000095002,77000920022,mMTS,mAltel,mAltel,,D77,2016-02-21T14:23:59+06:00,
1000000000095003,77084983361,mKcell,mAltel,mAltel,,D02,2016-02-21T14:25:19+06:00,
1000000000095004,77028575572,mMTS,mKcell,mKcell,,D77,2016-02-21T14:26:24+06:00,
1000000000095005,77085836217,mKarTel,mAltel,mAltel,,D01,2016-02-21T14:26:54+06:00,
1000000000095007,77773640060,mMTS,mKarTel,mKarTel,,D77,2016-02-21T14:27:07+06:00,
1000000000095008,77773811505,mAltel,mKarTel,mKarTel,,D07,2016-02-21T14:27:43+06:00,
1000000000095010,77016859506,mAltel,mKcell,mKcell,,D07,2016-02-21T14:29:28+06:00,
