NPId,Number,RecipientId,DonorId,RangeHolderId,OldRoute,NewRoute,PortDate,RowCount
1000000000289493,77773845314,mMTS,mKarTel,mKarTel,D01,D77,2016-12-04T11:30:16+06:00,9
1000000000289494,77017217373,mMTS,mKcell,mKcell,D02,D77,2016-12-04T11:31:46+06:00,
1000000000289495,77763570717,mMTS,mKarTel,mKarTel,,D77,2016-12-04T11:35:40+06:00,
1000000000289497,77027598248,mMTS,mKcell,mKcell,,D77,2016-12-04T11:42:12+06:00,
1000000000289498,77012263408,mKarTel,mKcell,mKcell,,D01,2016-12-04T11:42:36+06:00,
1000000000289500,77777620023,mMTS,mKarTel,mKarTel,,D77,2016-12-04T11:43:15+06:00,
1000000000289501,77057000661,mMTS,mKarTel,mKarTel,,D77,2016-12-04T11:45:50+06:00,
1000000000289503,77026318692,mAltel,mKcell,mKcell,,D07,2016-12-04T11:53:26+06:00,
1000000000289506,77055753390,mMTS,mKarTel,mKarTel,,D77,2016-12-04T11:58:33+06:00,
