NPId,Number,RecipientId,DonorId,RangeHolderId,OldRoute,NewRoute,PortDate,RowCount
1000000000301838,77002020265,mKcell,mAltel,mAltel,,D02,2016-12-27T19:30:02+06:00,22
1000000000301839,77754495949,mMTS,mKcell,mKcell,,D77,2016-12-27T19:30:12+06:00,
1000000000301840,77002020263,mKcell,mAltel,mAltel,,D02,2016-12-27T19:31:37+06:00,
1000000000301841,77024379131,mKarTel,mKcell,mKcell,,D01,2016-12-27T19:34:36+06:00,
1000000000301842,77002020267,mKcell,mAltel,mAltel,,D02,2016-12-27T19:35:24+06:00,
1000000000301843,77773344809,mMTS,mKarTel,mKarTel,,D77,2016-12-27T19:38:03+06:00,
1000000000301845,77002020268,mKcell,mAltel,mAltel,,D02,2016-12-27T19:38:23+06:00,
1000000000301846,77008888888,mKcell,mAltel,mAltel,,D02,2016-12-27T19:41:22+06:00,
1000000000301847,77002020269,mKcell,mAltel,mAltel,,D02,2016-12-27T19:41:59+06:00,
1000000000301848,77773945794,mAltel,mKarTel,mKarTel,,D07,2016-12-27T19:42:21+06:00,
1000000000301849,77002020276,mKcell,mAltel,mAltel,,D02,2016-12-27T19:42:42+06:00,
1000000000301850,77002020278,mKcell,mAltel,mAltel,,D02,2016-12-27T19:45:26+06:00,
1000000000301851,77756821973,mAltel,mKcell,mKcell,,D07,2016-12-27T19:45:15+06:00,
1000000000301852,77019358885,mKarTel,mKcell,mKcell,,D01,2016-12-27T19:45:46+06:00,
1000000000301853,77072120502,mKcell,mMTS,mMTS,,D02,2016-12-27T19:46:12+06:00,
1000000000301856,77056879381,mMTS,mKarTel,mKarTel,,D77,2016-12-27T19:47:59+06:00,
1000000000301857,77002020275,mKcell,mAltel,mAltel,,D02,2016-12-27T19:48:08+06:00,
1000000000301858,77012101310,mMTS,mKcell,mKcell,,D77,2016-12-27T19:48:56+06:00,
1000000000301859,77002020273,mKcell,mAltel,mAltel,,D02,2016-12-27T19:49:09+06:00,
1000000000301860,77005557709,mAltel,mKarTel,mAltel,D01,D07,2016-12-27T19:50:07+06:00,
1000000000301861,77002020274,mKcell,mAltel,mAltel,,D02,2016-12-27T19:52:56+06:00,
1000000000301863,77079900013,mAltel,mMTS,mMTS,,D07,2016-12-27T19:54:25+06:00,
