NPId,Number,RecipientId,DonorId,RangeHolderId,OldRoute,NewRoute,PortDate,RowCount
1000000000248710,77772500802,mMTS,mKarTel,mKarTel,,D77,2016-09-20T18:30:29+06:00,33
1000000000248712,77475899521,mAltel,mMTS,mMTS,,D07,2016-09-20T18:30:47+06:00,
1000000000248713,77010723343,mKarTel,mKcell,mKcell,,D01,2016-09-20T18:32:14+06:00,
1000000000248714,77023333392,mAltel,mKcell,mKcell,,D07,2016-09-20T18:31:38+06:00,
1000000000248715,77057751605,mKarTel,mMTS,mKarTel,D77,D01,2016-09-20T18:33:14+06:00,
1000000000248716,77774882282,mKarTel,mAltel,mKarTel,D07,D01,2016-09-20T18:34:08+06:00,
1000000000248717,77012172105,mKarTel,mKcell,mKcell,,D01,2016-09-20T18:35:00+06:00,
1000000000248718,77788463999,mKarTel,mKcell,mKcell,,D01,2016-09-20T18:35:54+06:00,
1000000000248719,77786513666,mMTS,mKcell,mKcell,,D77,2016-09-20T18:35:46+06:00,
1000000000248720,77018458631,mAltel,mKcell,mKcell,,D07,2016-09-20T18:37:17+06:00,
1000000000248721,77754845906,mAltel,mKcell,mKcell,,D07,2016-09-20T18:38:34+06:00,
1000000000248722,77084065818,mKcell,mAltel,mAltel,,D02,2016-09-20T18:40:45+06:00,
1000000000248723,77786383040,mMTS,mKcell,mKcell,,D77,2016-09-20T18:40:50+06:00,
1000000000248724,77025054743,mKcell,mAltel,mKcell,D07,D02,2016-09-20T18:41:01+06:00,
1000000000248725,77010346365,mKarTel,mKcell,mKcell,,D01,2016-09-20T18:44:59+06:00,
1000000000248725,77010346445,mKarTel,mKcell,mKcell,,D01,2016-09-20T18:44:59+06:00,
1000000000248725,77010348762,mKarTel,mKcell,mKcell,,D01,2016-09-20T18:44:59+06:00,
1000000000248725,77010348841,mKarTel,mKcell,mKcell,,D01,2016-09-20T18:44:59+06:00,
1000000000248725,77010352612,mKarTel,mKcell,mKcell,,D01,2016-09-20T18:44:59+06:00,
1000000000248725,77010540269,mKarTel,mKcell,mKcell,,D01,2016-09-20T18:44:59+06:00,
1000000000248725,77017688759,mKarTel,mKcell,mKcell,,D01,2016-09-20T18:44:59+06:00,
1000000000248725,77019605381,mKarTel,mKcell,mKcell,,D01,2016-09-20T18:44:59+06:00,
1000000000248725,77019605384,mKarTel,mKcell,mKcell,,D01,2016-09-20T18:44:59+06:00,
1000000000248725,77019605385,mKarTel,mKcell,mKcell,,D01,2016-09-20T18:44:59+06:00,
1000000000248725,77019605791,mKarTel,mKcell,mKcell,,D01,2016-09-20T18:44:59+06:00,
1000000000248726,77027416012,mMTS,mKcell,mKcell,,D77,2016-09-20T18:42:44+06:00,
1000000000248727,77022611916,mKcell,mMTS,mKcell,D77,D02,2016-09-20T18:42:59+06:00,
1000000000248728,77014473598,mAltel,mKcell,mKcell,,D07,2016-09-20T18:43:57+06:00,
1000000000248730,77015553813,mMTS,mKcell,mKcell,,D77,2016-09-20T18:49:10+06:00,
1000000000248731,77759117939,mKcell,mMTS,mKcell,D77,D02,2016-09-20T18:47:53+06:00,
1000000000248733,77057646697,mKarTel,mMTS,mKarTel,D77,D01,2016-09-20T18:54:46+06:00,
1000000000248734,77057511828,mMTS,mKarTel,mKarTel,,D77,2016-09-20T18:57:35+06:00,
1000000000248736,77073442662,mKcell,mMTS,mMTS,,D02,2016-09-20T18:55:58+06:00,
