NPId,Number,RecipientId,DonorId,RangeHolderId,OldRoute,NewRoute,PortDate,RowCount
1000000000294864,77084808242,mAltel,mMTS,mAltel,D77,D07,2016-12-13T19:37:22+06:00,5
1000000000294865,77017372424,mKcell,mMTS,mKcell,D77,D02,2016-12-13T19:42:32+06:00,
1000000000294866,77079094948,mKarTel,mMTS,mMTS,,D01,2016-12-13T19:54:30+06:00,
1000000000294867,77019355246,mMTS,mKcell,mKcell,,D77,2016-12-13T19:57:45+06:00,
1000000000294868,77079971092,mKcell,mMTS,mMTS,,D02,2016-12-13T19:59:31+06:00,
