NPId,Number,RecipientId,DonorId,RangeHolderId,OldRoute,NewRoute,PortDate,RowCount
1000000000203777,77053380191,mKarTel,mMTS,mKarTel,D77,D01,2016-07-01T22:36:31+06:00,2
1000000000203778,77757951505,mKcell,mMTS,mKcell,D77,D02,2016-07-01T22:36:41+06:00,
