NPId,Number,RecipientId,DonorId,RangeHolderId,OldRoute,NewRoute,PortDate,RowCount
1000000000091910,77714198508,mKcell,mKarTel,mKarTel,,D02,2016-02-18T12:00:36+06:00,41
1000000000091911,77773965645,mAltel,mKarTel,mKarTel,,D07,2016-02-18T12:00:18+06:00,
1000000000091912,77759839782,mAltel,mKcell,mKcell,,D07,2016-02-18T12:00:12+06:00,
1000000000091913,77027156640,mMTS,mKcell,mKcell,,D77,2016-02-18T12:00:38+06:00,
1000000000091915,77014724308,mMTS,mKcell,mKcell,,D77,2016-02-18T12:00:56+06:00,
1000000000091916,77471770595,mAltel,mMTS,mMTS,,D07,2016-02-18T12:01:27+06:00,
1000000000091918,77028492705,mMTS,mKcell,mKcell,,D77,2016-02-18T12:02:09+06:00,
1000000000091921,77789575530,mMTS,mKcell,mKcell,,D77,2016-02-18T12:02:51+06:00,
1000000000091923,77011799935,mMTS,mKcell,mKcell,,D77,2016-02-18T12:05:56+06:00,
1000000000091924,77711116841,mAltel,mKarTel,mKarTel,,D07,2016-02-18T12:07:27+06:00,
1000000000091925,77012801304,mAltel,mKcell,mKcell,,D07,2016-02-18T12:07:23+06:00,
1000000000091926,77054643701,mMTS,mKarTel,mKarTel,,D77,2016-02-18T12:08:23+06:00,
1000000000091927,77757596403,mMTS,mKcell,mKcell,,D77,2016-02-18T12:08:46+06:00,
1000000000091928,77057153773,mAltel,mKarTel,mKarTel,,D07,2016-02-18T12:09:10+06:00,
1000000000091929,77776111516,mAltel,mKarTel,mKarTel,,D07,2016-02-18T12:09:22+06:00,
1000000000091930,77754003005,mKarTel,mKcell,mKcell,,D01,2016-02-18T12:10:06+06:00,
1000000000091931,77028496490,mMTS,mKcell,mKcell,,D77,2016-02-18T12:09:58+06:00,
1000000000091933,77072002366,mKarTel,mMTS,mMTS,,D01,2016-02-18T12:11:42+06:00,
1000000000091934,77054421616,mMTS,mKarTel,mKarTel,,D77,2016-02-18T12:12:11+06:00,
1000000000091935,77784338800,mMTS,mKcell,mKcell,,D77,2016-02-18T12:12:39+06:00,
1000000000091936,77017372379,mKarTel,mKcell,mKcell,,D01,2016-02-18T12:13:19+06:00,
1000000000091938,77017573929,mKarTel,mKcell,mKcell,,D01,2016-02-18T12:13:57+06:00,
1000000000091941,77072901235,mKcell,mMTS,mMTS,,D02,2016-02-18T12:15:19+06:00,
1000000000091942,77027000608,mMTS,mKcell,mKcell,,D77,2016-02-18T12:15:55+06:00,
1000000000091948,77473330020,mAltel,mMTS,mMTS,,D07,2016-02-18T12:18:33+06:00,
1000000000091950,77761441993,mAltel,mKarTel,mKarTel,,D07,2016-02-18T12:19:35+06:00,
1000000000091952,77779954222,mAltel,mKarTel,mKarTel,,D07,2016-02-18T12:21:03+06:00,
1000000000091953,77782764423,mAltel,mKcell,mKcell,,D07,2016-02-18T12:20:52+06:00,
1000000000091955,77013911781,mMTS,mKcell,mKcell,,D77,2016-02-18T12:21:49+06:00,
1000000000091957,77013395643,mMTS,mKcell,mKcell,,D77,2016-02-18T12:22:20+06:00,
1000000000091958,77071174727,mAltel,mMTS,mMTS,,D07,2016-02-18T12:22:14+06:00,
1000000000091959,77014318934,mKarTel,mKcell,mKcell,,D01,2016-02-18T12:22:49+06:00,
1000000000091962,77777360666,mMTS,mKarTel,mKarTel,,D77,2016-02-18T12:23:20+06:00,
1000000000091963,77017757733,mAltel,mKcell,mKcell,,D07,2016-02-18T12:23:40+06:00,
1000000000091965,77013611295,mAltel,mKcell,mKcell,,D07,2016-02-18T12:23:39+06:00,
1000000000091966,77026060660,mAltel,mKcell,mKcell,,D07,2016-02-18T12:24:22+06:00,
1000000000091969,77715000770,mAltel,mKarTel,mKarTel,,D07,2016-02-18T12:26:31+06:00,
1000000000091970,77761176343,mAltel,mKarTel,mKarTel,,D07,2016-02-18T12:26:43+06:00,
1000000000091971,77077792221,mKarTel,mMTS,mMTS,,D01,2016-02-18T12:27:13+06:00,
1000000000091973,77775852899,mAltel,mKarTel,mKarTel,,D07,2016-02-18T12:29:38+06:00,
1000000000091974,77017446012,mMTS,mKcell,mKcell,,D77,2016-02-18T12:29:36+06:00,
