NPId,Number,RecipientId,DonorId,RangeHolderId,OldRoute,NewRoute,PortDate,RowCount
1000000000238384,77767307730,mMTS,mKarTel,mKarTel,,D77,2016-09-01T16:31:03+06:00,27
1000000000238385,77771002221,mMTS,mKarTel,mKarTel,,D77,2016-09-01T16:31:02+06:00,
1000000000238387,77052020300,mAltel,mKarTel,mKarTel,,D07,2016-09-01T16:31:58+06:00,
1000000000238388,77017627743,mAltel,mKarTel,mKcell,D01,D07,2016-09-01T16:32:47+06:00,
1000000000238392,77014096010,mAltel,mKcell,mKcell,,D07,2016-09-01T16:31:50+06:00,
1000000000238394,77028769189,mMTS,mKcell,mKcell,,D77,2016-09-01T16:32:29+06:00,
1000000000238395,77015508109,mMTS,mKcell,mKcell,,D77,2016-09-01T16:33:03+06:00,
1000000000238398,77473342427,mAltel,mMTS,mMTS,,D07,2016-09-01T16:35:34+06:00,
1000000000238400,77782912688,mMTS,mKcell,mKcell,,D77,2016-09-01T16:36:31+06:00,
1000000000238402,77770669997,mMTS,mKarTel,mKarTel,,D77,2016-09-01T16:40:26+06:00,
1000000000238408,77773321818,mKcell,mKarTel,mKarTel,,D02,2016-09-01T16:43:58+06:00,
1000000000238409,77089109169,mMTS,mAltel,mAltel,,D77,2016-09-01T16:41:59+06:00,
1000000000238410,77786609191,mMTS,mAltel,mKcell,D07,D77,2016-09-01T16:43:08+06:00,
1000000000238413,77007115050,mKcell,mAltel,mAltel,,D02,2016-09-01T16:44:34+06:00,
1000000000238414,77015449181,mAltel,mKarTel,mKcell,D01,D07,2016-09-01T16:46:29+06:00,
1000000000238416,77761738181,mAltel,mKarTel,mKarTel,,D07,2016-09-01T16:47:09+06:00,
1000000000238417,77081074161,mMTS,mAltel,mAltel,,D77,2016-09-01T16:45:52+06:00,
1000000000238419,77075088800,mKarTel,mMTS,mMTS,,D01,2016-09-01T16:48:00+06:00,
1000000000238421,77085132525,mMTS,mAltel,mAltel,,D77,2016-09-01T16:47:21+06:00,
1000000000238422,77080770088,mKcell,mAltel,mAltel,,D02,2016-09-01T16:49:31+06:00,
1000000000238423,77761094040,mMTS,mKarTel,mKarTel,,D77,2016-09-01T16:52:24+06:00,
1000000000238424,77475790494,mMTS,mKarTel,mMTS,D01,D77,2016-09-01T16:53:42+06:00,
1000000000238425,77773881332,mMTS,mKarTel,mKarTel,,D77,2016-09-01T16:54:24+06:00,
1000000000238427,77751506775,mMTS,mKcell,mKcell,,D77,2016-09-01T16:56:38+06:00,
1000000000238429,77077077071,mKcell,mMTS,mMTS,,D02,2016-09-01T16:57:50+06:00,
1000000000238430,77078162498,mKcell,mMTS,mMTS,,D02,2016-09-01T16:57:54+06:00,
1000000000238431,77759508483,mMTS,mKcell,mKcell,,D77,2016-09-01T16:59:28+06:00,
