NPId,Number,RecipientId,DonorId,RangeHolderId,OldRoute,NewRoute,PortDate,RowCount
1000000000377883,77774842329,mKcell,mKarTel,mKarTel,,D02,2017-05-04T13:00:44+06:00,20
1000000000377884,77475780171,mAltel,mMTS,mMTS,,D07,2017-05-04T13:01:02+06:00,
1000000000377885,77089629798,mKarTel,mAltel,mAltel,,D01,2017-05-04T13:02:22+06:00,
1000000000377887,77017586020,mMTS,mKcell,mKcell,,D77,2017-05-04T13:06:36+06:00,
1000000000377888,77472066058,mKarTel,mMTS,mMTS,,D01,2017-05-04T13:07:53+06:00,
1000000000377889,77783558170,mKarTel,mKcell,mKcell,,D01,2017-05-04T13:08:13+06:00,
1000000000377890,77015274196,mMTS,mKcell,mKcell,,D77,2017-05-04T13:09:56+06:00,
1000000000377891,77012455149,mKarTel,mKcell,mKcell,,D01,2017-05-04T13:10:35+06:00,
1000000000377892,77716661662,mAltel,mKarTel,mKarTel,,D07,2017-05-04T13:15:16+06:00,
1000000000377896,77089337921,mKarTel,mAltel,mAltel,,D01,2017-05-04T13:17:08+06:00,
1000000000377898,77055839242,mKarTel,mMTS,mKarTel,D77,D01,2017-05-04T13:18:17+06:00,
1000000000377899,77005750001,mKarTel,mAltel,mAltel,,D01,2017-05-04T13:18:46+06:00,
1000000000377902,77769190777,mMTS,mKarTel,mKarTel,,D77,2017-05-04T13:19:31+06:00,
1000000000377903,77015149997,mMTS,mKcell,mKcell,,D77,2017-05-04T13:22:52+06:00,
1000000000377904,77771561735,mMTS,mKarTel,mKarTel,,D77,2017-05-04T13:23:05+06:00,
1000000000377907,77057133690,mKcell,mKarTel,mKarTel,,D02,2017-05-04T13:23:56+06:00,
1000000000377908,77011821516,mMTS,mKcell,mKcell,,D77,2017-05-04T13:23:35+06:00,
1000000000377909,77015037728,mMTS,mKcell,mKcell,,D77,2017-05-04T13:24:35+06:00,
1000000000377911,77086196395,mKcell,mAltel,mAltel,,D02,2017-05-04T13:25:55+06:00,
1000000000377912,77015120200,mMTS,mKcell,mKcell,,D77,2017-05-04T13:26:04+06:00,
