NPId,Number,RecipientId,DonorId,RangeHolderId,OldRoute,NewRoute,PortDate,RowCount
1000000000334522,77474916319,mKcell,mMTS,mMTS,,D02,2017-02-24T18:02:01+06:00,23
1000000000334523,77779293066,mKcell,mKarTel,mKarTel,,D02,2017-02-24T18:03:17+06:00,
1000000000334524,77076844999,mAltel,mMTS,mMTS,,D07,2017-02-24T18:04:16+06:00,
1000000000334525,77017175165,mKarTel,mMTS,mKcell,D77,D01,2017-02-24T18:04:40+06:00,
1000000000334526,77006003464,mKcell,mAltel,mAltel,,D02,2017-02-24T18:07:01+06:00,
1000000000334527,77006002686,mKcell,mAltel,mAltel,,D02,2017-02-24T18:08:54+06:00,
1000000000334528,77006002383,mKcell,mAltel,mAltel,,D02,2017-02-24T18:09:07+06:00,
1000000000334529,77770437474,mKcell,mKarTel,mKarTel,,D02,2017-02-24T18:11:08+06:00,
1000000000334530,77019325687,mKarTel,mKcell,mKcell,,D01,2017-02-24T18:12:44+06:00,
1000000000334531,77006002747,mKcell,mAltel,mAltel,,D02,2017-02-24T18:13:13+06:00,
1000000000334534,77019891889,mKarTel,mKcell,mKcell,,D01,2017-02-24T18:16:30+06:00,
1000000000334535,77715179062,mAltel,mKarTel,mKarTel,,D07,2017-02-24T18:16:38+06:00,
1000000000334537,77006005282,mKcell,mAltel,mAltel,,D02,2017-02-24T18:17:07+06:00,
1000000000334538,77015393745,mKcell,mMTS,mKcell,D77,D02,2017-02-24T18:17:10+06:00,
1000000000334539,77753073522,mAltel,mMTS,mKcell,D77,D07,2017-02-24T18:17:40+06:00,
1000000000334540,77006005212,mKcell,mAltel,mAltel,,D02,2017-02-24T18:18:08+06:00,
1000000000334541,77028295053,mKarTel,mKcell,mKcell,,D01,2017-02-24T18:18:11+06:00,
1000000000334544,77017777657,mKarTel,mMTS,mKcell,D77,D01,2017-02-24T18:19:55+06:00,
1000000000334545,77006008292,mKcell,mAltel,mAltel,,D02,2017-02-24T18:20:33+06:00,
1000000000334546,77018078907,mKcell,mKarTel,mKcell,D01,D02,2017-02-24T18:21:32+06:00,
1000000000334547,77006009383,mKcell,mAltel,mAltel,,D02,2017-02-24T18:21:19+06:00,
1000000000334548,77019502183,mMTS,mKcell,mKcell,,D77,2017-02-24T18:23:02+06:00,
1000000000334549,77006005272,mKcell,mAltel,mAltel,,D02,2017-02-24T18:23:15+06:00,
