NPId,Number,RecipientId,DonorId,RangeHolderId,OldRoute,NewRoute,PortDate,RowCount
1000000000211365,77051460292,mKcell,mAltel,mKarTel,D07,D02,2016-07-14T16:31:47+06:00,22
1000000000211367,77077256852,mKarTel,mMTS,mMTS,,D01,2016-07-14T16:32:18+06:00,
1000000000211368,77756796463,mMTS,mKcell,mKcell,,D77,2016-07-14T16:33:49+06:00,
1000000000211369,77471918850,mKarTel,mMTS,mMTS,,D01,2016-07-14T16:33:36+06:00,
1000000000211372,77777026682,mMTS,mKarTel,mKarTel,,D77,2016-07-14T16:36:36+06:00,
1000000000211373,77029553481,mKcell,mKarTel,mKcell,D01,D02,2016-07-14T16:38:16+06:00,
1000000000211375,77754955315,mKarTel,mKcell,mKcell,,D01,2016-07-14T16:43:37+06:00,
1000000000211377,77761104888,mKcell,mKarTel,mKarTel,,D02,2016-07-14T16:46:29+06:00,
1000000000211378,77086350679,mKcell,mAltel,mAltel,,D02,2016-07-14T16:47:17+06:00,
1000000000211380,77072718771,mKcell,mMTS,mMTS,,D02,2016-07-14T16:46:55+06:00,
1000000000211381,77776844227,mMTS,mKarTel,mKarTel,,D77,2016-07-14T16:47:36+06:00,
1000000000211382,77017771296,mKarTel,mKcell,mKcell,,D01,2016-07-14T16:49:17+06:00,
1000000000211383,77769100910,mMTS,mKarTel,mKarTel,,D77,2016-07-14T16:48:49+06:00,
1000000000211384,77029119909,mMTS,mKcell,mKcell,,D77,2016-07-14T16:49:01+06:00,
1000000000211386,77768886686,mAltel,mKcell,mKarTel,D02,D07,2016-07-14T16:51:40+06:00,
1000000000211387,77074747070,mKcell,mMTS,mMTS,,D02,2016-07-14T16:53:13+06:00,
1000000000211389,77753004377,mMTS,mKcell,mKcell,,D77,2016-07-14T16:53:16+06:00,
1000000000211390,77079279650,mAltel,mKarTel,mMTS,D01,D07,2016-07-14T16:52:47+06:00,
1000000000211392,77027774993,mKarTel,mKcell,mKcell,,D01,2016-07-14T16:55:03+06:00,
1000000000211394,77076603630,mKarTel,mMTS,mMTS,,D01,2016-07-14T16:57:09+06:00,
1000000000211396,77770767396,mMTS,mKarTel,mKarTel,,D77,2016-07-14T16:57:36+06:00,
1000000000211398,77021818667,mMTS,mKcell,mKcell,,D77,2016-07-14T16:59:52+06:00,
