NPId,Number,RecipientId,DonorId,RangeHolderId,OldRoute,NewRoute,PortDate,RowCount
1000000000208927,77083926916,mMTS,mAltel,mAltel,,D77,2016-07-10T18:01:15+06:00,4
1000000000208928,77021006044,mKcell,mAltel,mKcell,D07,D02,2016-07-10T18:05:07+06:00,
1000000000208930,77083926935,mMTS,mAltel,mAltel,,D77,2016-07-10T18:17:16+06:00,
1000000000208931,77012444416,mKarTel,mAltel,mKcell,D07,D01,2016-07-10T18:21:30+06:00,
