NPId,Number,RecipientId,DonorId,RangeHolderId,OldRoute,NewRoute,PortDate,RowCount
1000000000320737,77015012966,mKarTel,mKcell,mKcell,,D01,2017-02-01T14:33:35+06:00,55
1000000000320737,77015133393,mKarTel,mKcell,mKcell,,D01,2017-02-01T14:33:35+06:00,
1000000000320737,77015264584,mKarTel,mKcell,mKcell,,D01,2017-02-01T14:33:35+06:00,
1000000000320737,77015437055,mKarTel,mKcell,mKcell,,D01,2017-02-01T14:33:35+06:00,
1000000000320737,77019131096,mKarTel,mKcell,mKcell,,D01,2017-02-01T14:33:35+06:00,
1000000000320737,77019798369,mKarTel,mKcell,mKcell,,D01,2017-02-01T14:33:35+06:00,
1000000000320760,77010143871,mKarTel,mKcell,mKcell,,D01,2017-02-01T14:43:22+06:00,
1000000000320760,77010143910,mKarTel,mKcell,mKcell,,D01,2017-02-01T14:43:22+06:00,
1000000000320760,77027771933,mKarTel,mKcell,mKcell,,D01,2017-02-01T14:43:22+06:00,
1000000000321226,77075643926,mKarTel,mMTS,mMTS,,D01,2017-02-01T14:30:24+06:00,
1000000000321227,77015553446,mMTS,mKcell,mKcell,,D77,2017-02-01T14:31:04+06:00,
1000000000321228,77022273205,mKcell,mMTS,mKcell,D77,D02,2017-02-01T14:31:33+06:00,
1000000000321229,77054445777,mMTS,mKarTel,mKarTel,,D77,2017-02-01T14:32:09+06:00,
1000000000321231,77010878686,mKcell,mAltel,mKcell,D07,D02,2017-02-01T14:32:19+06:00,
1000000000321232,77769508880,mMTS,mKarTel,mKarTel,,D77,2017-02-01T14:32:27+06:00,
1000000000321233,77754699649,mKarTel,mKcell,mKcell,,D01,2017-02-01T14:32:36+06:00,
1000000000321234,77478426196,mKcell,mMTS,mMTS,,D02,2017-02-01T14:32:25+06:00,
1000000000321236,77015133369,mKarTel,mKcell,mKcell,,D01,2017-02-01T14:33:09+06:00,
1000000000321237,77071908356,mKcell,mMTS,mMTS,,D02,2017-02-01T14:33:38+06:00,
1000000000321239,77075058630,mKcell,mMTS,mMTS,,D02,2017-02-01T14:34:09+06:00,
1000000000321240,77017225719,mKcell,mKarTel,mKcell,D01,D02,2017-02-01T14:49:33+06:00,
1000000000321243,77785551100,mMTS,mKcell,mKcell,,D77,2017-02-01T14:34:09+06:00,
1000000000321245,77017996913,mKarTel,mKcell,mKcell,,D01,2017-02-01T14:34:44+06:00,
1000000000321246,77015553937,mAltel,mKcell,mKcell,,D07,2017-02-01T14:34:54+06:00,
1000000000321251,77753542424,mKcell,mMTS,mKcell,D77,D02,2017-02-01T14:38:30+06:00,
1000000000321254,77750288555,mMTS,mKcell,mKcell,,D77,2017-02-01T14:39:10+06:00,
1000000000321255,77059992789,mKcell,mKarTel,mKarTel,,D02,2017-02-01T14:40:04+06:00,
1000000000321256,77777326634,mMTS,mKarTel,mKarTel,,D77,2017-02-01T14:40:08+06:00,
1000000000321258,77023945054,mKarTel,mKcell,mKcell,,D01,2017-02-01T14:40:16+06:00,
1000000000321262,77025442555,mMTS,mKcell,mKcell,,D77,2017-02-01T14:42:01+06:00,
1000000000321263,77763999956,mMTS,mKarTel,mKarTel,,D77,2017-02-01T14:42:26+06:00,
1000000000321264,77015440494,mAltel,mKcell,mKcell,,D07,2017-02-01T14:42:26+06:00,
1000000000321266,77005551520,mMTS,mAltel,mAltel,,D77,2017-02-01T14:42:36+06:00,
1000000000321267,77052034141,mMTS,mKarTel,mKarTel,D01,D77,2017-02-01T14:43:09+06:00,
1000000000321268,77772462819,mAltel,mKcell,mKarTel,D02,D07,2017-02-01T14:42:48+06:00,
1000000000321274,77028330005,mMTS,mKarTel,mKcell,D01,D77,2017-02-01T14:46:39+06:00,
1000000000321275,77712024921,mAltel,mKcell,mKarTel,D02,D07,2017-02-01T14:46:25+06:00,
1000000000321277,77762170780,mKarTel,mMTS,mKarTel,D77,D01,2017-02-01T14:46:53+06:00,
1000000000321280,77017378263,mMTS,mKcell,mKcell,,D77,2017-02-01T14:48:05+06:00,
1000000000321281,77088280880,mMTS,mAltel,mAltel,,D77,2017-02-01T14:48:19+06:00,
1000000000321282,77712970099,mKcell,mKarTel,mKarTel,,D02,2017-02-01T14:49:34+06:00,
1000000000321283,77754734444,mKcell,mKarTel,mKcell,D01,D02,2017-02-01T14:50:41+06:00,
1000000000321284,77766779993,mMTS,mKarTel,mKarTel,,D77,2017-02-01T14:51:37+06:00,
1000000000321286,77055010702,mKarTel,mMTS,mKarTel,D77,D01,2017-02-01T14:52:40+06:00,
1000000000321288,77051831045,mAltel,mKarTel,mKarTel,,D07,2017-02-01T14:53:45+06:00,
1000000000321290,77053975780,mMTS,mKarTel,mKarTel,,D77,2017-02-01T14:55:01+06:00,
1000000000321291,77025444644,mAltel,mKcell,mKcell,,D07,2017-02-01T14:55:28+06:00,
1000000000321292,77021444066,mAltel,mKcell,mKcell,,D07,2017-02-01T14:56:18+06:00,
1000000000321293,77017448525,mMTS,mKcell,mKcell,D02,D77,2017-02-01T14:56:45+06:00,
1000000000321294,77074508765,mKcell,mMTS,mMTS,,D02,2017-02-01T14:57:16+06:00,
1000000000321296,77007546474,mMTS,mKcell,mAltel,D02,D77,2017-02-01T14:57:25+06:00,
1000000000321297,77715796216,mMTS,mKarTel,mKarTel,,D77,2017-02-01T14:58:05+06:00,
1000000000321298,77770002888,mKarTel,mMTS,mKarTel,D77,D01,2017-02-01T14:58:23+06:00,
1000000000321299,77778822008,mKcell,mKarTel,mKarTel,,D02,2017-02-01T14:59:08+06:00,
1000000000321300,77477175707,mKarTel,mMTS,mMTS,,D01,2017-02-01T14:59:47+06:00,
