NPId,Number,RecipientId,DonorId,RangeHolderId,OldRoute,NewRoute,PortDate,RowCount
1000000000350343,77712355551,mKarTel,mAltel,mKarTel,D07,D01,2017-03-21T10:00:11+06:00,7
1000000000350344,77771542222,mMTS,mKarTel,mKarTel,,D77,2017-03-21T10:02:30+06:00,
1000000000350346,77056151555,mMTS,mKarTel,mKarTel,,D77,2017-03-21T10:06:20+06:00,
1000000000350347,77052415004,mAltel,mKarTel,mKarTel,,D07,2017-03-21T10:06:54+06:00,
1000000000350348,77017103338,mKarTel,mKcell,mKcell,,D01,2017-03-21T10:09:10+06:00,
1000000000350349,77788934799,mMTS,mKcell,mKcell,,D77,2017-03-21T10:12:49+06:00,
1000000000350351,77015315482,mKcell,mKarTel,mKcell,D01,D02,2017-03-21T10:28:53+06:00,
