NPId,Number,RecipientId,DonorId,RangeHolderId,OldRoute,NewRoute,PortDate,RowCount
1000000000005922,77012561564,mAltel,mKcell,mKcell,,D07,2016-01-09T20:04:30+06:00,4
1000000000005923,77012561563,mAltel,mKcell,mKcell,,D07,2016-01-09T20:06:17+06:00,
1000000000005924,77012561561,mAltel,mKcell,mKcell,,D07,2016-01-09T20:08:20+06:00,
1000000000005925,77016886556,mAltel,mKcell,mKcell,,D07,2016-01-09T20:16:47+06:00,
