NPId,Number,RecipientId,DonorId,RangeHolderId,OldRoute,NewRoute,PortDate,RowCount
1000000000348036,77019246780,mKarTel,mKcell,mKcell,,D01,2017-03-17T10:50:14+06:00,22
1000000000348038,77015272334,mKarTel,mKcell,mKcell,,D01,2017-03-17T10:49:14+06:00,
1000000000348040,77019246512,mKarTel,mKcell,mKcell,,D01,2017-03-17T10:49:14+06:00,
1000000000348125,77012188860,mMTS,mKcell,mKcell,,D77,2017-03-17T10:58:36+06:00,
1000000000348136,77012188862,mMTS,mKcell,mKcell,,D77,2017-03-17T10:58:46+06:00,
1000000000348346,77017777208,mKcell,mMTS,mKcell,D77,D02,2017-03-17T10:30:10+06:00,
1000000000348347,77089077935,mMTS,mAltel,mAltel,,D77,2017-03-17T10:30:42+06:00,
1000000000348349,77784205168,mAltel,mKcell,mKcell,,D07,2017-03-17T10:34:24+06:00,
1000000000348350,77014643552,mKcell,mMTS,mKcell,D77,D02,2017-03-17T10:37:53+06:00,
1000000000348351,77019447758,mAltel,mKcell,mKcell,,D07,2017-03-17T10:38:46+06:00,
1000000000348352,77779003300,mAltel,mKarTel,mKarTel,,D07,2017-03-17T10:40:01+06:00,
1000000000348353,77027774791,mKcell,mKarTel,mKcell,D01,D02,2017-03-17T10:41:25+06:00,
1000000000348355,77017215315,mMTS,mKcell,mKcell,,D77,2017-03-17T10:42:59+06:00,
1000000000348356,77773161611,mKarTel,mMTS,mKarTel,D77,D01,2017-03-17T10:47:15+06:00,
1000000000348357,77756622344,mMTS,mKcell,mKcell,,D77,2017-03-17T10:43:35+06:00,
1000000000348358,77752299982,mMTS,mKcell,mKcell,,D77,2017-03-17T10:45:19+06:00,
1000000000348359,77079976775,mKcell,mMTS,mMTS,,D02,2017-03-17T10:46:29+06:00,
1000000000348360,77019576933,mKarTel,mKcell,mKcell,,D01,2017-03-17T10:51:17+06:00,
1000000000348361,77083747260,mMTS,mAltel,mAltel,,D77,2017-03-17T10:48:58+06:00,
1000000000348365,77028500058,mMTS,mKcell,mKcell,,D77,2017-03-17T10:52:51+06:00,
1000000000348366,77019647947,mAltel,mKcell,mKcell,,D07,2017-03-17T10:57:36+06:00,
1000000000348367,77083127653,mMTS,mAltel,mAltel,,D77,2017-03-17T10:57:49+06:00,
