NPId,Number,RecipientId,DonorId,RangeHolderId,OldRoute,NewRoute,PortDate,RowCount
1000000000231560,77789995907,mKcell,mKarTel,mKcell,D01,D02,2016-08-19T20:05:47+06:00,2
1000000000231561,77754748666,mKcell,mMTS,mKcell,D77,D02,2016-08-19T20:22:49+06:00,
