NPId,Number,RecipientId,DonorId,RangeHolderId,OldRoute,NewRoute,PortDate,RowCount
1000000000418185,77711296084,mAltel,mKarTel,mKarTel,,D07,2017-07-08T10:46:59+06:00,9
1000000000418186,77016488117,mAltel,mKcell,mKcell,,D07,2017-07-08T10:49:31+06:00,
1000000000418187,77774873328,mKarTel,mMTS,mKarTel,D77,D01,2017-07-08T10:49:45+06:00,
1000000000418188,77017100728,mKcell,mKarTel,mKcell,D01,D02,2017-07-08T10:50:36+06:00,
1000000000418189,77024735444,mKarTel,mKcell,mKcell,,D01,2017-07-08T10:52:46+06:00,
1000000000418190,77009938055,mMTS,mAltel,mAltel,,D77,2017-07-08T10:52:33+06:00,
1000000000418191,77052880903,mKarTel,mMTS,mKarTel,D77,D01,2017-07-08T10:54:33+06:00,
1000000000418195,77027014277,mAltel,mKcell,mKcell,,D07,2017-07-08T10:59:24+06:00,
1000000000418196,77751370022,mMTS,mKcell,mKcell,,D77,2017-07-08T10:59:54+06:00,
