NPId,Number,RecipientId,DonorId,RangeHolderId,OldRoute,NewRoute,PortDate,RowCount
1000000000402020,77774344448,mAltel,mKarTel,mKarTel,,D07,2017-06-12T17:00:30+06:00,30
1000000000402022,77753322013,mKcell,mAltel,mKcell,D07,D02,2017-06-12T17:03:58+06:00,
1000000000402023,77767727771,mAltel,mKarTel,mKarTel,,D07,2017-06-12T17:04:14+06:00,
1000000000402025,77710431313,mMTS,mKarTel,mKarTel,,D77,2017-06-12T17:04:29+06:00,
1000000000402026,77015104503,mAltel,mKcell,mKcell,,D07,2017-06-12T17:04:26+06:00,
1000000000402027,77075121496,mAltel,mMTS,mMTS,,D07,2017-06-12T17:04:20+06:00,
1000000000402028,77086683995,mMTS,mAltel,mAltel,,D77,2017-06-12T17:04:22+06:00,
1000000000402029,77756564612,mAltel,mKcell,mKcell,,D07,2017-06-12T17:04:41+06:00,
1000000000402032,77015018817,mMTS,mKcell,mKcell,,D77,2017-06-12T17:06:41+06:00,
1000000000402033,77013749956,mKarTel,mKcell,mKcell,,D01,2017-06-12T17:07:05+06:00,
1000000000402034,77081998069,mKcell,mKarTel,mAltel,D01,D02,2017-06-12T17:07:16+06:00,
1000000000402035,77089090883,mKcell,mAltel,mAltel,,D02,2017-06-12T17:07:20+06:00,
1000000000402036,77005355157,mKcell,mMTS,mAltel,D77,D02,2017-06-12T17:07:53+06:00,
1000000000402037,77059172999,mKarTel,mMTS,mKarTel,D77,D01,2017-06-12T17:08:11+06:00,
1000000000402039,77089090884,mKcell,mAltel,mAltel,,D02,2017-06-12T17:08:49+06:00,
1000000000402040,77772739205,mMTS,mKarTel,mKarTel,,D77,2017-06-12T17:09:30+06:00,
1000000000402041,77715492004,mKarTel,mMTS,mKarTel,D77,D01,2017-06-12T17:09:47+06:00,
1000000000402042,77751552355,mKarTel,mKcell,mKcell,,D01,2017-06-12T17:11:04+06:00,
1000000000402044,77017163792,mMTS,mKcell,mKcell,,D77,2017-06-12T17:11:39+06:00,
1000000000402045,77075121498,mAltel,mMTS,mMTS,,D07,2017-06-12T17:12:25+06:00,
1000000000402046,77755322466,mKarTel,mKcell,mKcell,,D01,2017-06-12T17:15:13+06:00,
1000000000402047,77058748367,mKarTel,mAltel,mKarTel,D07,D01,2017-06-12T17:15:18+06:00,
1000000000402048,77770555026,mKcell,mKarTel,mKarTel,,D02,2017-06-12T17:16:20+06:00,
1000000000402049,77078580870,mKcell,mMTS,mMTS,,D02,2017-06-12T17:17:13+06:00,
1000000000402051,77076668288,mMTS,mKarTel,mMTS,D01,D77,2017-06-12T17:18:21+06:00,
1000000000402052,77015166300,mKarTel,mKcell,mKcell,,D01,2017-06-12T17:18:22+06:00,
1000000000402055,77015215740,mKarTel,mKcell,mKcell,,D01,2017-06-12T17:21:04+06:00,
1000000000402056,77016746058,mMTS,mKcell,mKcell,,D77,2017-06-12T17:21:56+06:00,
1000000000402057,77017779953,mKcell,mMTS,mKcell,D77,D02,2017-06-12T17:22:48+06:00,
1000000000402058,77472388602,mKarTel,mMTS,mMTS,,D01,2017-06-12T17:27:29+06:00,
