NPId,Number,RecipientId,DonorId,RangeHolderId,OldRoute,NewRoute,PortDate,RowCount
1000000000182759,77715551585,mAltel,mKarTel,mKarTel,,D07,2016-05-28T13:33:50+06:00,23
1000000000182774,77051119157,mMTS,mKarTel,mKarTel,,D77,2016-05-28T13:30:22+06:00,
1000000000182775,77017941720,mMTS,mKcell,mKcell,,D77,2016-05-28T13:32:35+06:00,
1000000000182776,77775082651,mMTS,mKarTel,mKarTel,,D77,2016-05-28T13:35:05+06:00,
1000000000182777,77775600055,mKcell,mKarTel,mKarTel,,D02,2016-05-28T13:36:23+06:00,
1000000000182778,77751364512,mMTS,mKcell,mKcell,,D77,2016-05-28T13:37:36+06:00,
1000000000182779,77772631415,mMTS,mKarTel,mKarTel,,D77,2016-05-28T13:37:28+06:00,
1000000000182780,77017308943,mKarTel,mKcell,mKcell,,D01,2016-05-28T13:38:07+06:00,
1000000000182781,77473548928,mKcell,mMTS,mMTS,,D02,2016-05-28T13:38:23+06:00,
1000000000182783,77753111113,mKcell,mMTS,mKcell,D77,D02,2016-05-28T13:42:17+06:00,
1000000000182784,77478641383,mMTS,mAltel,mMTS,D07,D77,2016-05-28T13:42:45+06:00,
1000000000182785,77751993397,mMTS,mKcell,mKcell,,D77,2016-05-28T13:45:18+06:00,
1000000000182786,77025511341,mAltel,mKcell,mKcell,,D07,2016-05-28T13:46:43+06:00,
1000000000182787,77077345172,mKarTel,mMTS,mMTS,,D01,2016-05-28T13:47:32+06:00,
1000000000182788,77017422290,mMTS,mKcell,mKcell,,D77,2016-05-28T13:48:06+06:00,
1000000000182789,77002947072,mKarTel,mAltel,mAltel,,D01,2016-05-28T13:47:55+06:00,
1000000000182790,77016667656,mMTS,mKcell,mKcell,,D77,2016-05-28T13:49:33+06:00,
1000000000182791,77011010699,mKcell,mAltel,mKcell,D07,D02,2016-05-28T13:49:48+06:00,
1000000000182792,77013083690,mKarTel,mKcell,mKcell,,D01,2016-05-28T13:50:31+06:00,
1000000000182796,77758844022,mMTS,mKcell,mKcell,,D77,2016-05-28T13:54:47+06:00,
1000000000182797,77026530457,mMTS,mKcell,mKcell,,D77,2016-05-28T13:58:35+06:00,
1000000000182798,77055759816,mMTS,mKarTel,mKarTel,,D77,2016-05-28T13:58:35+06:00,
1000000000182799,77017191081,mAltel,mKcell,mKcell,,D07,2016-05-28T13:59:00+06:00,
