NPId,Number,RecipientId,DonorId,RangeHolderId,OldRoute,NewRoute,PortDate,RowCount
1000000000094754,77079925566,mKcell,mMTS,mMTS,,D02,2016-02-20T19:01:06+06:00,12
1000000000094756,77073623831,mKarTel,mMTS,mMTS,,D01,2016-02-20T19:03:29+06:00,
1000000000094759,77027339450,mAltel,mKcell,mKcell,,D07,2016-02-20T19:06:59+06:00,
1000000000094760,77784444323,mAltel,mKcell,mKcell,,D07,2016-02-20T19:07:29+06:00,
1000000000094761,77017289490,mAltel,mKcell,mKcell,,D07,2016-02-20T19:09:32+06:00,
1000000000094763,77013450486,mMTS,mKcell,mKcell,,D77,2016-02-20T19:15:57+06:00,
1000000000094764,77077339450,mAltel,mMTS,mMTS,,D07,2016-02-20T19:18:50+06:00,
1000000000094765,77476606522,mAltel,mMTS,mMTS,,D07,2016-02-20T19:19:40+06:00,
1000000000094767,77075000831,mKcell,mMTS,mMTS,,D02,2016-02-20T19:23:18+06:00,
1000000000094768,77014963049,mMTS,mKcell,mKcell,,D77,2016-02-20T19:23:32+06:00,
1000000000094769,77760021956,mKcell,mKarTel,mKarTel,,D02,2016-02-20T19:23:54+06:00,
1000000000094770,77021771176,mAltel,mKcell,mKcell,,D07,2016-02-20T19:25:39+06:00,
