NPId,Number,RecipientId,DonorId,RangeHolderId,OldRoute,NewRoute,PortDate,RowCount
1000000000103739,77010280617,mKarTel,mKcell,mKcell,,D01,2016-03-02T11:16:56+06:00,102
1000000000103739,77010280628,mKarTel,mKcell,mKcell,,D01,2016-03-02T11:16:56+06:00,
1000000000103739,77015334368,mKarTel,mKcell,mKcell,,D01,2016-03-02T11:16:56+06:00,
1000000000103739,77015718642,mKarTel,mKcell,mKcell,,D01,2016-03-02T11:16:56+06:00,
1000000000103739,77017328618,mKarTel,mKcell,mKcell,,D01,2016-03-02T11:16:56+06:00,
1000000000103739,77017328621,mKarTel,mKcell,mKcell,,D01,2016-03-02T11:16:56+06:00,
1000000000103739,77017573245,mKarTel,mKcell,mKcell,,D01,2016-03-02T11:16:56+06:00,
1000000000103739,77017994452,mKarTel,mKcell,mKcell,,D01,2016-03-02T11:16:56+06:00,
1000000000103739,77019102087,mKarTel,mKcell,mKcell,,D01,2016-03-02T11:16:56+06:00,
1000000000103739,77019102089,mKarTel,mKcell,mKcell,,D01,2016-03-02T11:16:56+06:00,
1000000000103739,77019102090,mKarTel,mKcell,mKcell,,D01,2016-03-02T11:16:56+06:00,
1000000000103739,77019102092,mKarTel,mKcell,mKcell,,D01,2016-03-02T11:16:56+06:00,
1000000000103739,77019102094,mKarTel,mKcell,mKcell,,D01,2016-03-02T11:16:56+06:00,
1000000000103739,77019102095,mKarTel,mKcell,mKcell,,D01,2016-03-02T11:16:56+06:00,
1000000000103739,77019102098,mKarTel,mKcell,mKcell,,D01,2016-03-02T11:16:56+06:00,
1000000000103739,77019102099,mKarTel,mKcell,mKcell,,D01,2016-03-02T11:16:56+06:00,
1000000000103739,77019102643,mKarTel,mKcell,mKcell,,D01,2016-03-02T11:16:56+06:00,
1000000000103739,77019102644,mKarTel,mKcell,mKcell,,D01,2016-03-02T11:16:56+06:00,
1000000000103739,77019689194,mKarTel,mKcell,mKcell,,D01,2016-03-02T11:16:56+06:00,
1000000000103739,77752351250,mKarTel,mKcell,mKcell,,D01,2016-03-02T11:16:56+06:00,
1000000000104492,77055600954,mKcell,mKarTel,mKarTel,,D02,2016-03-02T11:01:47+06:00,
1000000000104493,77081720504,mKcell,mAltel,mAltel,,D02,2016-03-02T11:01:43+06:00,
1000000000104494,77075505516,mKcell,mMTS,mMTS,,D02,2016-03-02T11:01:34+06:00,
1000000000104496,77021000201,mAltel,mKcell,mKcell,,D07,2016-03-02T11:01:54+06:00,
1000000000104499,77753567553,mAltel,mKcell,mKcell,,D07,2016-03-02T11:02:25+06:00,
1000000000104500,77015752917,mAltel,mKcell,mKcell,,D07,2016-03-02T11:03:19+06:00,
1000000000104502,77017383237,mMTS,mKcell,mKcell,,D77,2016-03-02T11:03:47+06:00,
1000000000104504,77756146444,mMTS,mKcell,mKcell,,D77,2016-03-02T11:06:36+06:00,
1000000000104507,77015483784,mAltel,mKcell,mKcell,,D07,2016-03-02T11:09:40+06:00,
1000000000104508,77024178618,mMTS,mKcell,mKcell,,D77,2016-03-02T11:10:20+06:00,
1000000000104509,77713552018,mAltel,mKarTel,mKarTel,,D07,2016-03-02T11:10:45+06:00,
1000000000104510,77018490717,mAltel,mKcell,mKcell,,D07,2016-03-02T11:10:41+06:00,
1000000000104511,77025003534,mMTS,mKcell,mKcell,,D77,2016-03-02T11:10:53+06:00,
1000000000104512,77077889801,mAltel,mMTS,mMTS,,D07,2016-03-02T11:10:59+06:00,
1000000000104513,77766073131,mMTS,mKarTel,mKarTel,,D77,2016-03-02T11:12:15+06:00,
1000000000104514,77771190005,mMTS,mKarTel,mKarTel,,D77,2016-03-02T11:12:21+06:00,
1000000000104518,77076922503,mKarTel,mMTS,mMTS,,D01,2016-03-02T11:15:07+06:00,
1000000000104518,77076924812,mKarTel,mMTS,mMTS,,D01,2016-03-02T11:15:07+06:00,
1000000000104518,77076927672,mKarTel,mMTS,mMTS,,D01,2016-03-02T11:15:07+06:00,
1000000000104518,77077778196,mKarTel,mMTS,mMTS,,D01,2016-03-02T11:15:07+06:00,
1000000000104518,77078964463,mKarTel,mMTS,mMTS,,D01,2016-03-02T11:15:07+06:00,
1000000000104518,77078964483,mKarTel,mMTS,mMTS,,D01,2016-03-02T11:15:07+06:00,
1000000000104518,77078964484,mKarTel,mMTS,mMTS,,D01,2016-03-02T11:15:07+06:00,
1000000000104518,77078964486,mKarTel,mMTS,mMTS,,D01,2016-03-02T11:15:07+06:00,
1000000000104518,77078964487,mKarTel,mMTS,mMTS,,D01,2016-03-02T11:15:07+06:00,
1000000000104518,77078964490,mKarTel,mMTS,mMTS,,D01,2016-03-02T11:15:07+06:00,
1000000000104518,77078964492,mKarTel,mMTS,mMTS,,D01,2016-03-02T11:15:07+06:00,
1000000000104518,77078964493,mKarTel,mMTS,mMTS,,D01,2016-03-02T11:15:07+06:00,
1000000000104518,77078964500,mKarTel,mMTS,mMTS,,D01,2016-03-02T11:15:07+06:00,
1000000000104518,77078964501,mKarTel,mMTS,mMTS,,D01,2016-03-02T11:15:07+06:00,
1000000000104518,77078964507,mKarTel,mMTS,mMTS,,D01,2016-03-02T11:15:07+06:00,
1000000000104518,77078964508,mKarTel,mMTS,mMTS,,D01,2016-03-02T11:15:07+06:00,
1000000000104518,77078964509,mKarTel,mMTS,mMTS,,D01,2016-03-02T11:15:07+06:00,
1000000000104518,77078964510,mKarTel,mMTS,mMTS,,D01,2016-03-02T11:15:07+06:00,
1000000000104518,77078964512,mKarTel,mMTS,mMTS,,D01,2016-03-02T11:15:07+06:00,
1000000000104518,77078964513,mKarTel,mMTS,mMTS,,D01,2016-03-02T11:15:07+06:00,
1000000000104518,77078964514,mKarTel,mMTS,mMTS,,D01,2016-03-02T11:15:07+06:00,
1000000000104518,77078964516,mKarTel,mMTS,mMTS,,D01,2016-03-02T11:15:07+06:00,
1000000000104518,77078964518,mKarTel,mMTS,mMTS,,D01,2016-03-02T11:15:07+06:00,
1000000000104518,77078964519,mKarTel,mMTS,mMTS,,D01,2016-03-02T11:15:07+06:00,
1000000000104518,77078964520,mKarTel,mMTS,mMTS,,D01,2016-03-02T11:15:07+06:00,
1000000000104518,77078964524,mKarTel,mMTS,mMTS,,D01,2016-03-02T11:15:07+06:00,
1000000000104518,77078964526,mKarTel,mMTS,mMTS,,D01,2016-03-02T11:15:07+06:00,
1000000000104518,77078964528,mKarTel,mMTS,mMTS,,D01,2016-03-02T11:15:07+06:00,
1000000000104518,77078964529,mKarTel,mMTS,mMTS,,D01,2016-03-02T11:15:07+06:00,
1000000000104518,77078964530,mKarTel,mMTS,mMTS,,D01,2016-03-02T11:15:07+06:00,
1000000000104518,77078964531,mKarTel,mMTS,mMTS,,D01,2016-03-02T11:15:07+06:00,
1000000000104518,77078964532,mKarTel,mMTS,mMTS,,D01,2016-03-02T11:15:07+06:00,
1000000000104518,77078964535,mKarTel,mMTS,mMTS,,D01,2016-03-02T11:15:07+06:00,
1000000000104518,77078964536,mKarTel,mMTS,mMTS,,D01,2016-03-02T11:15:07+06:00,
1000000000104518,77078964538,mKarTel,mMTS,mMTS,,D01,2016-03-02T11:15:07+06:00,
1000000000104518,77078964542,mKarTel,mMTS,mMTS,,D01,2016-03-02T11:15:07+06:00,
1000000000104518,77078964603,mKarTel,mMTS,mMTS,,D01,2016-03-02T11:15:07+06:00,
1000000000104518,77078964613,mKarTel,mMTS,mMTS,,D01,2016-03-02T11:15:07+06:00,
1000000000104518,77078964627,mKarTel,mMTS,mMTS,,D01,2016-03-02T11:15:07+06:00,
1000000000104518,77078964628,mKarTel,mMTS,mMTS,,D01,2016-03-02T11:15:07+06:00,
1000000000104518,77078964668,mKarTel,mMTS,mMTS,,D01,2016-03-02T11:15:07+06:00,
1000000000104518,77078964672,mKarTel,mMTS,mMTS,,D01,2016-03-02T11:15:07+06:00,
1000000000104518,77078964697,mKarTel,mMTS,mMTS,,D01,2016-03-02T11:15:07+06:00,
1000000000104518,77078964710,mKarTel,mMTS,mMTS,,D01,2016-03-02T11:15:07+06:00,
1000000000104518,77078964734,mKarTel,mMTS,mMTS,,D01,2016-03-02T11:15:07+06:00,
1000000000104518,77078964901,mKarTel,mMTS,mMTS,,D01,2016-03-02T11:15:07+06:00,
1000000000104519,77024494629,mMTS,mKcell,mKcell,,D77,2016-03-02T11:20:08+06:00,
1000000000104520,77026558526,mAltel,mKcell,mKcell,,D07,2016-03-02T11:20:08+06:00,
1000000000104521,77076833936,mAltel,mMTS,mMTS,,D07,2016-03-02T11:13:58+06:00,
1000000000104522,77759503266,mKarTel,mKcell,mKcell,,D01,2016-03-02T11:20:42+06:00,
1000000000104523,77787880511,mAltel,mKcell,mKcell,,D07,2016-03-02T11:19:50+06:00,
1000000000104525,77074744318,mAltel,mMTS,mMTS,,D07,2016-03-02T11:16:18+06:00,
1000000000104526,77009659972,mKcell,mAltel,mAltel,,D02,2016-03-02T11:18:30+06:00,
1000000000104527,77083002922,mKcell,mAltel,mAltel,,D02,2016-03-02T11:18:30+06:00,
1000000000104528,77073199262,mAltel,mMTS,mMTS,,D07,2016-03-02T11:16:42+06:00,
1000000000104529,77776001929,mMTS,mKarTel,mKarTel,,D77,2016-03-02T11:17:12+06:00,
1000000000104530,77776199586,mMTS,mKarTel,mKarTel,,D77,2016-03-02T11:17:12+06:00,
1000000000104532,77714370820,mMTS,mKarTel,mKarTel,,D77,2016-03-02T11:18:19+06:00,
1000000000104533,77015355394,mMTS,mKcell,mKcell,,D77,2016-03-02T11:20:08+06:00,
1000000000104534,77070420042,mAltel,mMTS,mMTS,,D07,2016-03-02T11:18:55+06:00,
1000000000104535,77078178025,mKarTel,mMTS,mMTS,,D01,2016-03-02T11:20:05+06:00,
1000000000104537,77016542434,mMTS,mKcell,mKcell,,D77,2016-03-02T11:21:59+06:00,
1000000000104538,77772555559,mMTS,mKarTel,mKarTel,,D77,2016-03-02T11:22:15+06:00,
1000000000104539,77766062121,mMTS,mKarTel,mKarTel,,D77,2016-03-02T11:22:15+06:00,
1000000000104540,77013810557,mMTS,mKcell,mKcell,,D77,2016-03-02T11:24:09+06:00,
1000000000104544,77023628507,mAltel,mKcell,mKcell,,D07,2016-03-02T11:27:18+06:00,
