NPId,Number,RecipientId,DonorId,RangeHolderId,OldRoute,NewRoute,PortDate,RowCount
1000000000429476,77010262546,mKarTel,mKcell,mKcell,,D01,2017-07-28T11:58:09+06:00,23
1000000000429694,77017872225,mKarTel,mKcell,mKcell,,D01,2017-07-28T11:31:22+06:00,
1000000000429698,77085161529,mAltel,mMTS,mAltel,D77,D07,2017-07-28T11:35:49+06:00,
1000000000429702,77017509896,mAltel,mKcell,mKcell,,D07,2017-07-28T11:39:56+06:00,
1000000000429703,77019999631,mAltel,mKcell,mKcell,,D07,2017-07-28T11:40:25+06:00,
1000000000429705,77017222011,mMTS,mKcell,mKcell,,D77,2017-07-28T11:41:22+06:00,
1000000000429707,77000200884,mKarTel,mAltel,mAltel,,D01,2017-07-28T11:42:55+06:00,
1000000000429708,77012924662,mKarTel,mKcell,mKcell,,D01,2017-07-28T11:44:21+06:00,
1000000000429709,77077112083,mKarTel,mMTS,mMTS,,D01,2017-07-28T11:44:44+06:00,
1000000000429709,77471030250,mKarTel,mMTS,mMTS,,D01,2017-07-28T11:44:44+06:00,
1000000000429709,77475435622,mKarTel,mMTS,mMTS,,D01,2017-07-28T11:44:44+06:00,
1000000000429709,77475435623,mKarTel,mMTS,mMTS,,D01,2017-07-28T11:44:44+06:00,
1000000000429711,77053331177,mKarTel,mAltel,mKarTel,D07,D01,2017-07-28T11:45:47+06:00,
1000000000429712,77023700069,mAltel,mKcell,mKcell,,D07,2017-07-28T11:46:51+06:00,
1000000000429713,77017138048,mKarTel,mKcell,mKcell,,D01,2017-07-28T11:48:34+06:00,
1000000000429714,77775367017,mAltel,mKarTel,mKarTel,,D07,2017-07-28T11:50:04+06:00,
1000000000429715,77025627992,mKcell,mAltel,mKcell,D07,D02,2017-07-28T11:50:34+06:00,
1000000000429718,77058309364,mKarTel,mAltel,mKarTel,D07,D01,2017-07-28T11:55:21+06:00,
1000000000429719,77758300478,mKarTel,mKcell,mKcell,,D01,2017-07-28T11:56:40+06:00,
1000000000429720,77015503509,mMTS,mKcell,mKcell,,D77,2017-07-28T11:57:10+06:00,
1000000000429721,77017500086,mKarTel,mKcell,mKcell,,D01,2017-07-28T11:57:30+06:00,
1000000000429722,77712831919,mAltel,mKarTel,mKarTel,,D07,2017-07-28T11:57:43+06:00,
1000000000429723,77082112636,mMTS,mAltel,mAltel,,D77,2017-07-28T11:57:26+06:00,
