NPId,Number,RecipientId,DonorId,RangeHolderId,OldRoute,NewRoute,PortDate,RowCount
1000000000289700,77007111040,mMTS,mAltel,mAltel,,D77,2016-12-04T16:36:37+06:00,13
1000000000289701,77075549035,mAltel,mMTS,mMTS,,D07,2016-12-04T16:36:50+06:00,
1000000000289702,77055555282,mMTS,mKarTel,mKarTel,,D77,2016-12-04T16:37:20+06:00,
1000000000289705,77774503693,mMTS,mKarTel,mKarTel,,D77,2016-12-04T16:41:23+06:00,
1000000000289706,77025620228,mAltel,mKcell,mKcell,,D07,2016-12-04T16:43:15+06:00,
1000000000289707,77753005500,mMTS,mKcell,mKcell,,D77,2016-12-04T16:43:15+06:00,
1000000000289708,77771693445,mMTS,mKarTel,mKarTel,,D77,2016-12-04T16:44:06+06:00,
1000000000289709,77017313197,mKarTel,mKcell,mKcell,,D01,2016-12-04T16:45:17+06:00,
1000000000289711,77003333263,mMTS,mAltel,mAltel,,D77,2016-12-04T16:47:40+06:00,
1000000000289712,77013138872,mAltel,mKcell,mKcell,,D07,2016-12-04T16:47:59+06:00,
1000000000289713,77026914544,mAltel,mKcell,mKcell,,D07,2016-12-04T16:50:32+06:00,
1000000000289714,77028397839,mKcell,mKarTel,mKcell,D01,D02,2016-12-04T16:51:40+06:00,
1000000000289715,77021835137,mKcell,mAltel,mKcell,D07,D02,2016-12-04T16:52:17+06:00,
