NPId,Number,RecipientId,DonorId,RangeHolderId,OldRoute,NewRoute,PortDate,RowCount
1000000000362614,77073070465,mAltel,mMTS,mMTS,,D07,2017-04-08T18:00:29+06:00,15
1000000000362615,77023333140,mKarTel,mKcell,mKcell,,D01,2017-04-08T18:02:17+06:00,
1000000000362616,77059999539,mAltel,mKarTel,mKarTel,,D07,2017-04-08T18:05:31+06:00,
1000000000362617,77785502810,mKarTel,mKcell,mKcell,,D01,2017-04-08T18:06:17+06:00,
1000000000362618,77013757971,mMTS,mKcell,mKcell,,D77,2017-04-08T18:06:29+06:00,
1000000000362619,77017997399,mKarTel,mKcell,mKcell,,D01,2017-04-08T18:06:48+06:00,
1000000000362620,77077642845,mAltel,mMTS,mMTS,,D07,2017-04-08T18:07:06+06:00,
1000000000362623,77029490830,mKarTel,mKcell,mKcell,,D01,2017-04-08T18:10:41+06:00,
1000000000362625,77476046257,mKarTel,mMTS,mMTS,,D01,2017-04-08T18:13:00+06:00,
1000000000362626,77075509111,mKarTel,mMTS,mMTS,,D01,2017-04-08T18:15:27+06:00,
1000000000362628,77017951224,mMTS,mKcell,mKcell,,D77,2017-04-08T18:18:58+06:00,
1000000000362629,77788289959,mMTS,mKcell,mKcell,,D77,2017-04-08T18:22:49+06:00,
1000000000362632,77087644550,mKcell,mMTS,mAltel,D77,D02,2017-04-08T18:24:04+06:00,
1000000000362633,77017877397,mKarTel,mKcell,mKcell,,D01,2017-04-08T18:26:03+06:00,
1000000000362634,77017108789,mAltel,mKcell,mKcell,,D07,2017-04-08T18:27:12+06:00,
