NPId,Number,RecipientId,DonorId,RangeHolderId,OldRoute,NewRoute,PortDate,RowCount
1000000000320704,77010278200,mKarTel,mKcell,mKcell,,D01,2017-02-01T15:12:43+06:00,124
1000000000320704,77010281080,mKarTel,mKcell,mKcell,,D01,2017-02-01T15:12:43+06:00,
1000000000320704,77010355912,mKarTel,mKcell,mKcell,,D01,2017-02-01T15:12:43+06:00,
1000000000320704,77010355913,mKarTel,mKcell,mKcell,,D01,2017-02-01T15:12:43+06:00,
1000000000320704,77010355981,mKarTel,mKcell,mKcell,,D01,2017-02-01T15:12:43+06:00,
1000000000320704,77010356004,mKarTel,mKcell,mKcell,,D01,2017-02-01T15:12:43+06:00,
1000000000320704,77010356012,mKarTel,mKcell,mKcell,,D01,2017-02-01T15:12:43+06:00,
1000000000320704,77010356013,mKarTel,mKcell,mKcell,,D01,2017-02-01T15:12:43+06:00,
1000000000320704,77010356014,mKarTel,mKcell,mKcell,,D01,2017-02-01T15:12:43+06:00,
1000000000320704,77010356016,mKarTel,mKcell,mKcell,,D01,2017-02-01T15:12:43+06:00,
1000000000320704,77010356019,mKarTel,mKcell,mKcell,,D01,2017-02-01T15:12:43+06:00,
1000000000320704,77010356093,mKarTel,mKcell,mKcell,,D01,2017-02-01T15:12:43+06:00,
1000000000320704,77010592191,mKarTel,mKcell,mKcell,,D01,2017-02-01T15:12:43+06:00,
1000000000320704,77012202803,mKarTel,mKcell,mKcell,,D01,2017-02-01T15:12:43+06:00,
1000000000320704,77012262361,mKarTel,mKcell,mKcell,,D01,2017-02-01T15:12:43+06:00,
1000000000320704,77012263370,mKarTel,mKcell,mKcell,,D01,2017-02-01T15:12:43+06:00,
1000000000320704,77015033747,mKarTel,mKcell,mKcell,,D01,2017-02-01T15:12:43+06:00,
1000000000320704,77015037060,mKarTel,mKcell,mKcell,,D01,2017-02-01T15:12:43+06:00,
1000000000320704,77015234393,mKarTel,mKcell,mKcell,,D01,2017-02-01T15:12:43+06:00,
1000000000320704,77015243105,mKarTel,mKcell,mKcell,,D01,2017-02-01T15:12:43+06:00,
1000000000320704,77015333353,mKarTel,mKcell,mKcell,,D01,2017-02-01T15:12:43+06:00,
1000000000320704,77015506555,mKarTel,mKcell,mKcell,,D01,2017-02-01T15:12:43+06:00,
1000000000320704,77015530724,mKarTel,mKcell,mKcell,,D01,2017-02-01T15:12:43+06:00,
1000000000320704,77017294450,mKarTel,mKcell,mKcell,,D01,2017-02-01T15:12:43+06:00,
1000000000320704,77017395063,mKarTel,mKcell,mKcell,,D01,2017-02-01T15:12:43+06:00,
1000000000320704,77017417910,mKarTel,mKcell,mKcell,,D01,2017-02-01T15:12:43+06:00,
1000000000320704,77017452396,mKarTel,mKcell,mKcell,,D01,2017-02-01T15:12:43+06:00,
1000000000320704,77017517466,mKarTel,mKcell,mKcell,,D01,2017-02-01T15:12:43+06:00,
1000000000320704,77017586542,mKarTel,mKcell,mKcell,,D01,2017-02-01T15:12:43+06:00,
1000000000320704,77017609552,mKarTel,mKcell,mKcell,,D01,2017-02-01T15:12:43+06:00,
1000000000320704,77017609554,mKarTel,mKcell,mKcell,,D01,2017-02-01T15:12:43+06:00,
1000000000320704,77017685327,mKarTel,mKcell,mKcell,,D01,2017-02-01T15:12:43+06:00,
1000000000320704,77017685349,mKarTel,mKcell,mKcell,,D01,2017-02-01T15:12:43+06:00,
1000000000320704,77017830952,mKarTel,mKcell,mKcell,,D01,2017-02-01T15:12:43+06:00,
1000000000320704,77017830953,mKarTel,mKcell,mKcell,,D01,2017-02-01T15:12:43+06:00,
1000000000320704,77017851211,mKarTel,mKcell,mKcell,,D01,2017-02-01T15:12:43+06:00,
1000000000320704,77017851547,mKarTel,mKcell,mKcell,,D01,2017-02-01T15:12:43+06:00,
1000000000320704,77019627062,mKarTel,mKcell,mKcell,,D01,2017-02-01T15:12:43+06:00,
1000000000320704,77019892378,mKarTel,mKcell,mKcell,,D01,2017-02-01T15:12:43+06:00,
1000000000320704,77019893653,mKarTel,mKcell,mKcell,,D01,2017-02-01T15:12:43+06:00,
1000000000320704,77022102383,mKarTel,mKcell,mKcell,,D01,2017-02-01T15:12:43+06:00,
1000000000320704,77754080805,mKarTel,mKcell,mKcell,,D01,2017-02-01T15:12:43+06:00,
1000000000320704,77052852222,mKarTel,mKcell,mKarTel,D02,D01,2017-02-01T15:12:43+06:00,
1000000000320736,77019827884,mKarTel,mKcell,mKcell,,D01,2017-02-01T15:12:47+06:00,
1000000000321295,77719930848,mMTS,mKarTel,mKarTel,,D77,2017-02-01T15:12:45+06:00,
1000000000321301,77015592324,mMTS,mKcell,mKcell,,D77,2017-02-01T15:01:00+06:00,
1000000000321302,77717795654,mMTS,mKarTel,mKarTel,,D77,2017-02-01T15:16:42+06:00,
1000000000321303,77717795655,mMTS,mKarTel,mKarTel,,D77,2017-02-01T15:17:11+06:00,
1000000000321304,77075887520,mMTS,mKcell,mMTS,D02,D77,2017-02-01T15:01:53+06:00,
1000000000321305,77717795662,mMTS,mKarTel,mKarTel,,D77,2017-02-01T15:17:33+06:00,
1000000000321306,77477067373,mKcell,mMTS,mMTS,,D02,2017-02-01T15:02:32+06:00,
1000000000321307,77717795806,mMTS,mKarTel,mKarTel,,D77,2017-02-01T15:18:07+06:00,
1000000000321308,77076050320,mKarTel,mMTS,mMTS,,D01,2017-02-01T15:02:57+06:00,
1000000000321309,77717795807,mMTS,mKarTel,mKarTel,,D77,2017-02-01T15:18:39+06:00,
1000000000321310,77012524847,mAltel,mKcell,mKcell,,D07,2017-02-01T15:03:50+06:00,
1000000000321311,77717795808,mMTS,mKarTel,mKarTel,,D77,2017-02-01T15:19:09+06:00,
1000000000321312,77717795813,mMTS,mKarTel,mKarTel,,D77,2017-02-01T15:19:51+06:00,
1000000000321313,77015280386,mKarTel,mKcell,mKcell,,D01,2017-02-01T15:04:49+06:00,
1000000000321314,77770073810,mMTS,mKarTel,mKarTel,,D77,2017-02-01T15:20:15+06:00,
1000000000321316,77010477177,mMTS,mKarTel,mKcell,D01,D77,2017-02-01T15:05:39+06:00,
1000000000321318,77015225468,mKcell,mKarTel,mKcell,D01,D02,2017-02-01T15:07:17+06:00,
1000000000321319,77776114011,mKcell,mKarTel,mKarTel,,D02,2017-02-01T15:07:41+06:00,
1000000000321320,77016006523,mAltel,mKcell,mKcell,,D07,2017-02-01T15:07:19+06:00,
1000000000321322,77089444358,mKarTel,mAltel,mAltel,,D01,2017-02-01T15:10:18+06:00,
1000000000321323,77073759969,mAltel,mMTS,mMTS,,D07,2017-02-01T15:10:07+06:00,
1000000000321324,77013830906,mAltel,mKcell,mKcell,,D07,2017-02-01T15:10:31+06:00,
1000000000321325,77076611257,mKarTel,mMTS,mMTS,,D01,2017-02-01T15:10:52+06:00,
1000000000321325,77076611263,mKarTel,mMTS,mMTS,,D01,2017-02-01T15:10:52+06:00,
1000000000321325,77076611265,mKarTel,mMTS,mMTS,,D01,2017-02-01T15:10:52+06:00,
1000000000321325,77076611267,mKarTel,mMTS,mMTS,,D01,2017-02-01T15:10:52+06:00,
1000000000321325,77076611269,mKarTel,mMTS,mMTS,,D01,2017-02-01T15:10:52+06:00,
1000000000321325,77076611270,mKarTel,mMTS,mMTS,,D01,2017-02-01T15:10:52+06:00,
1000000000321325,77076611272,mKarTel,mMTS,mMTS,,D01,2017-02-01T15:10:52+06:00,
1000000000321325,77076611273,mKarTel,mMTS,mMTS,,D01,2017-02-01T15:10:52+06:00,
1000000000321325,77076611274,mKarTel,mMTS,mMTS,,D01,2017-02-01T15:10:52+06:00,
1000000000321325,77076611276,mKarTel,mMTS,mMTS,,D01,2017-02-01T15:10:52+06:00,
1000000000321325,77076611279,mKarTel,mMTS,mMTS,,D01,2017-02-01T15:10:52+06:00,
1000000000321325,77076611280,mKarTel,mMTS,mMTS,,D01,2017-02-01T15:10:52+06:00,
1000000000321325,77076611282,mKarTel,mMTS,mMTS,,D01,2017-02-01T15:10:52+06:00,
1000000000321325,77076611285,mKarTel,mMTS,mMTS,,D01,2017-02-01T15:10:52+06:00,
1000000000321325,77076611287,mKarTel,mMTS,mMTS,,D01,2017-02-01T15:10:52+06:00,
1000000000321327,77717795812,mMTS,mKarTel,mKarTel,,D77,2017-02-01T15:27:01+06:00,
1000000000321329,77717795810,mMTS,mKarTel,mKarTel,,D77,2017-02-01T15:28:58+06:00,
1000000000321330,77717795811,mMTS,mKarTel,mKarTel,,D77,2017-02-01T15:29:31+06:00,
1000000000321332,77015203260,mKarTel,mKcell,mKcell,,D01,2017-02-01T15:14:39+06:00,
1000000000321334,77470949501,mKarTel,mMTS,mMTS,,D01,2017-02-01T15:15:50+06:00,
1000000000321334,77470949502,mKarTel,mMTS,mMTS,,D01,2017-02-01T15:15:50+06:00,
1000000000321334,77470949503,mKarTel,mMTS,mMTS,,D01,2017-02-01T15:15:50+06:00,
1000000000321334,77470949504,mKarTel,mMTS,mMTS,,D01,2017-02-01T15:15:50+06:00,
1000000000321334,77470949505,mKarTel,mMTS,mMTS,,D01,2017-02-01T15:15:50+06:00,
1000000000321334,77470949506,mKarTel,mMTS,mMTS,,D01,2017-02-01T15:15:50+06:00,
1000000000321334,77470949507,mKarTel,mMTS,mMTS,,D01,2017-02-01T15:15:50+06:00,
1000000000321334,77470949508,mKarTel,mMTS,mMTS,,D01,2017-02-01T15:15:50+06:00,
1000000000321334,77470949509,mKarTel,mMTS,mMTS,,D01,2017-02-01T15:15:50+06:00,
1000000000321334,77470949510,mKarTel,mMTS,mMTS,,D01,2017-02-01T15:15:50+06:00,
1000000000321334,77470949511,mKarTel,mMTS,mMTS,,D01,2017-02-01T15:15:50+06:00,
1000000000321334,77470949512,mKarTel,mMTS,mMTS,,D01,2017-02-01T15:15:50+06:00,
1000000000321334,77470949513,mKarTel,mMTS,mMTS,,D01,2017-02-01T15:15:50+06:00,
1000000000321334,77470949514,mKarTel,mMTS,mMTS,,D01,2017-02-01T15:15:50+06:00,
1000000000321334,77470949515,mKarTel,mMTS,mMTS,,D01,2017-02-01T15:15:50+06:00,
1000000000321334,77470949516,mKarTel,mMTS,mMTS,,D01,2017-02-01T15:15:50+06:00,
1000000000321334,77470949517,mKarTel,mMTS,mMTS,,D01,2017-02-01T15:15:50+06:00,
1000000000321334,77470949518,mKarTel,mMTS,mMTS,,D01,2017-02-01T15:15:50+06:00,
1000000000321334,77470949519,mKarTel,mMTS,mMTS,,D01,2017-02-01T15:15:50+06:00,
1000000000321334,77470949520,mKarTel,mMTS,mMTS,,D01,2017-02-01T15:15:50+06:00,
1000000000321335,77027856888,mMTS,mKcell,mKcell,,D77,2017-02-01T15:15:30+06:00,
1000000000321336,77789959894,mKcell,mKarTel,mKcell,D01,D02,2017-02-01T15:16:11+06:00,
1000000000321337,77001210000,mKarTel,mAltel,mAltel,,D01,2017-02-01T15:17:15+06:00,
1000000000321338,77474512422,mAltel,mMTS,mMTS,,D07,2017-02-01T15:18:01+06:00,
1000000000321339,77027104343,mKcell,mMTS,mKcell,D77,D02,2017-02-01T15:20:03+06:00,
1000000000321340,77017474842,mMTS,mKcell,mKcell,,D77,2017-02-01T15:19:58+06:00,
1000000000321341,77010335333,mMTS,mKcell,mKcell,,D77,2017-02-01T15:20:04+06:00,
1000000000321343,77012452902,mAltel,mKcell,mKcell,,D07,2017-02-01T15:21:01+06:00,
1000000000321344,77072200720,mMTS,mKcell,mMTS,D02,D77,2017-02-01T15:21:01+06:00,
1000000000321345,77079904405,mAltel,mMTS,mMTS,,D07,2017-02-01T15:20:56+06:00,
1000000000321346,77777122220,mKarTel,mKcell,mKarTel,D02,D01,2017-02-01T15:21:48+06:00,
1000000000321347,77071555414,mKcell,mMTS,mMTS,,D02,2017-02-01T15:23:05+06:00,
1000000000321348,77015535733,mKarTel,mKcell,mKcell,,D01,2017-02-01T15:23:18+06:00,
1000000000321349,77078112102,mMTS,mKarTel,mMTS,D01,D77,2017-02-01T15:23:51+06:00,
1000000000321354,77056482786,mKcell,mKarTel,mKarTel,,D02,2017-02-01T15:26:32+06:00,
1000000000321355,77013787103,mMTS,mKcell,mKcell,,D77,2017-02-01T15:27:07+06:00,
1000000000321358,77019086346,mMTS,mKcell,mKcell,,D77,2017-02-01T15:28:27+06:00,
1000000000321361,77775123438,mMTS,mKarTel,mKarTel,,D77,2017-02-01T15:29:12+06:00,
1000000000321362,77770645111,mKarTel,mMTS,mKarTel,D77,D01,2017-02-01T15:29:21+06:00,
