NPId,Number,RecipientId,DonorId,RangeHolderId,OldRoute,NewRoute,PortDate,RowCount
1000000000428971,77028764400,mKarTel,mKcell,mKcell,,D01,2017-07-26T19:31:02+06:00,8
1000000000428972,77752972020,mMTS,mKcell,mKcell,,D77,2017-07-26T19:31:48+06:00,
1000000000428973,77013441120,mKarTel,mKcell,mKcell,,D01,2017-07-26T19:33:17+06:00,
1000000000428975,77751223546,mKarTel,mKcell,mKcell,,D01,2017-07-26T19:36:45+06:00,
1000000000428976,77757511228,mKarTel,mAltel,mKcell,D07,D01,2017-07-26T19:41:53+06:00,
1000000000428977,77477395311,mAltel,mKarTel,mMTS,D01,D07,2017-07-26T19:47:54+06:00,
1000000000428978,77081116378,mKcell,mAltel,mAltel,,D02,2017-07-26T19:49:33+06:00,
1000000000428981,77755879086,mMTS,mKcell,mKcell,,D77,2017-07-26T19:57:17+06:00,
