NPId,Number,RecipientId,DonorId,RangeHolderId,OldRoute,NewRoute,PortDate,RowCount
1000000000295911,77078335241,mKcell,mMTS,mMTS,,D02,2016-12-15T19:33:07+06:00,6
1000000000295912,77774472345,mKcell,mKarTel,mKarTel,,D02,2016-12-15T19:34:38+06:00,
1000000000295913,77713162711,mMTS,mKarTel,mKarTel,,D77,2016-12-15T19:37:58+06:00,
1000000000295914,77017601875,mKarTel,mKcell,mKcell,,D01,2016-12-15T19:40:56+06:00,
1000000000295917,77022266066,mKarTel,mKcell,mKcell,,D01,2016-12-15T19:54:13+06:00,
1000000000295918,77011010974,mKarTel,mKcell,mKcell,,D01,2016-12-15T19:58:37+06:00,
