NPId,Number,RecipientId,DonorId,RangeHolderId,OldRoute,NewRoute,PortDate,RowCount
1000000000216759,77779502254,mKcell,mKarTel,mKarTel,,D02,2016-07-25T14:43:30+06:00,27
1000000000216763,77072851358,mKarTel,mMTS,mMTS,,D01,2016-07-25T14:30:20+06:00,
1000000000216764,77076534222,mKcell,mMTS,mMTS,,D02,2016-07-25T14:30:53+06:00,
1000000000216765,77027045258,mMTS,mKcell,mKcell,,D77,2016-07-25T14:30:06+06:00,
1000000000216766,77015551857,mKcell,mMTS,mKcell,D77,D02,2016-07-25T14:30:54+06:00,
1000000000216767,77761121111,mKarTel,mKcell,mKarTel,D02,D01,2016-07-25T14:31:41+06:00,
1000000000216768,77072809533,mKarTel,mMTS,mMTS,,D01,2016-07-25T14:32:25+06:00,
1000000000216769,77017728020,mKarTel,mKcell,mKcell,,D01,2016-07-25T14:33:34+06:00,
1000000000216770,77027790956,mKcell,mMTS,mKcell,D77,D02,2016-07-25T14:34:22+06:00,
1000000000216772,77003837154,mMTS,mAltel,mAltel,,D77,2016-07-25T14:35:40+06:00,
1000000000216773,77476760538,mKcell,mMTS,mMTS,,D02,2016-07-25T14:38:21+06:00,
1000000000216774,77026506633,mKcell,mMTS,mKcell,D77,D02,2016-07-25T14:38:50+06:00,
1000000000216775,77073301527,mKcell,mMTS,mMTS,,D02,2016-07-25T14:38:50+06:00,
1000000000216779,77770310080,mKcell,mKarTel,mKarTel,,D02,2016-07-25T14:42:18+06:00,
1000000000216780,77073077677,mKarTel,mMTS,mMTS,,D01,2016-07-25T14:42:00+06:00,
1000000000216781,77779111171,mKcell,mKarTel,mKarTel,,D02,2016-07-25T14:43:30+06:00,
1000000000216782,77053410468,mMTS,mKarTel,mKarTel,,D77,2016-07-25T14:44:34+06:00,
1000000000216787,77019890123,mAltel,mKcell,mKcell,,D07,2016-07-25T14:43:44+06:00,
1000000000216789,77477604096,mKarTel,mMTS,mMTS,,D01,2016-07-25T14:49:16+06:00,
1000000000216793,77013393865,mMTS,mKcell,mKcell,,D77,2016-07-25T14:51:47+06:00,
1000000000216794,77471910424,mMTS,mKarTel,mMTS,D01,D77,2016-07-25T14:53:18+06:00,
1000000000216795,77759556502,mMTS,mAltel,mKcell,D07,D77,2016-07-25T14:52:23+06:00,
1000000000216796,77017177997,mKarTel,mKcell,mKcell,,D01,2016-07-25T14:53:40+06:00,
1000000000216797,77017177357,mKarTel,mKcell,mKcell,,D01,2016-07-25T14:55:52+06:00,
1000000000216799,77086564023,mKcell,mAltel,mAltel,,D02,2016-07-25T14:56:49+06:00,
1000000000216800,77757313140,mMTS,mKcell,mKcell,,D77,2016-07-25T14:57:08+06:00,
1000000000216801,77751865767,mMTS,mAltel,mKcell,D07,D77,2016-07-25T14:57:16+06:00,
