NPId,Number,RecipientId,DonorId,RangeHolderId,OldRoute,NewRoute,PortDate,RowCount
1000000000400237,77718898111,mMTS,mKarTel,mKarTel,,D77,2017-06-09T12:00:38+06:00,23
1000000000400271,77772103543,mAltel,mKarTel,mKarTel,,D07,2017-06-09T12:24:56+06:00,
1000000000400307,77075078707,mKarTel,mMTS,mMTS,,D01,2017-06-09T12:03:04+06:00,
1000000000400308,77019471007,mKarTel,mAltel,mKcell,D07,D01,2017-06-09T12:05:41+06:00,
1000000000400309,77086524143,mMTS,mAltel,mAltel,,D77,2017-06-09T12:05:54+06:00,
1000000000400310,77004425109,mMTS,mAltel,mAltel,,D77,2017-06-09T12:06:04+06:00,
1000000000400311,77016357082,mMTS,mKcell,mKcell,,D77,2017-06-09T12:06:55+06:00,
1000000000400312,77753743999,mAltel,mKcell,mKcell,,D07,2017-06-09T12:08:06+06:00,
1000000000400314,77772871804,mKarTel,mAltel,mKarTel,D07,D01,2017-06-09T12:09:07+06:00,
1000000000400315,77077886858,mMTS,mKcell,mMTS,D02,D77,2017-06-09T12:09:30+06:00,
1000000000400316,77071322021,mAltel,mMTS,mMTS,,D07,2017-06-09T12:10:05+06:00,
1000000000400317,77472345670,mKcell,mMTS,mMTS,D77,D02,2017-06-09T12:12:08+06:00,
1000000000400318,77076600234,mKarTel,mMTS,mMTS,,D01,2017-06-09T12:12:06+06:00,
1000000000400319,77768011181,mKcell,mKarTel,mKarTel,,D02,2017-06-09T12:13:53+06:00,
1000000000400320,77780532864,mKcell,mMTS,mKcell,D77,D02,2017-06-09T12:13:53+06:00,
1000000000400321,77780532044,mKcell,mMTS,mKcell,D77,D02,2017-06-09T12:14:48+06:00,
1000000000400323,77079970090,mMTS,mKcell,mMTS,D02,D77,2017-06-09T12:17:03+06:00,
1000000000400324,77472199536,mAltel,mMTS,mMTS,,D07,2017-06-09T12:17:01+06:00,
1000000000400326,77780532082,mKcell,mMTS,mKcell,D77,D02,2017-06-09T12:20:19+06:00,
1000000000400327,77776191557,mAltel,mKarTel,mKarTel,,D07,2017-06-09T12:23:16+06:00,
1000000000400328,77780538211,mKcell,mMTS,mKcell,D77,D02,2017-06-09T12:24:15+06:00,
1000000000400331,77029470622,mMTS,mKcell,mKcell,,D77,2017-06-09T12:27:51+06:00,
1000000000400332,77012501444,mMTS,mKcell,mKcell,,D77,2017-06-09T12:27:52+06:00,
