NPId,Number,RecipientId,DonorId,RangeHolderId,OldRoute,NewRoute,PortDate,RowCount
1000000000228200,77027921984,mKarTel,mKcell,mKcell,,D01,2016-08-12T17:31:00+06:00,17
1000000000228201,77024516363,mMTS,mKcell,mKcell,,D77,2016-08-12T17:33:50+06:00,
1000000000228202,77081292223,mMTS,mAltel,mAltel,,D77,2016-08-12T17:33:52+06:00,
1000000000228204,77005529000,mKcell,mAltel,mAltel,,D02,2016-08-12T17:37:19+06:00,
1000000000228206,77081292224,mMTS,mAltel,mAltel,,D77,2016-08-12T17:39:25+06:00,
1000000000228207,77078181747,mKcell,mMTS,mMTS,,D02,2016-08-12T17:41:34+06:00,
1000000000228208,77784843535,mMTS,mKcell,mKcell,,D77,2016-08-12T17:42:42+06:00,
1000000000228209,77024466070,mMTS,mKcell,mKcell,,D77,2016-08-12T17:43:07+06:00,
1000000000228211,77083029796,mKcell,mAltel,mAltel,,D02,2016-08-12T17:44:26+06:00,
1000000000228214,77472200049,mKarTel,mMTS,mMTS,,D01,2016-08-12T17:47:48+06:00,
1000000000228215,77478271174,mAltel,mMTS,mMTS,,D07,2016-08-12T17:48:41+06:00,
1000000000228217,77077775518,mKcell,mMTS,mMTS,,D02,2016-08-12T17:51:24+06:00,
1000000000228218,77014905470,mMTS,mKcell,mKcell,,D77,2016-08-12T17:52:20+06:00,
1000000000228219,77057690239,mKcell,mKarTel,mKarTel,,D02,2016-08-12T17:55:06+06:00,
1000000000228220,77757711966,mMTS,mKcell,mKcell,,D77,2016-08-12T17:54:39+06:00,
1000000000228221,77017240163,mKarTel,mKcell,mKcell,,D01,2016-08-12T17:55:31+06:00,
1000000000228223,77780005020,mAltel,mKcell,mKcell,D02,D07,2016-08-12T17:58:24+06:00,
