NPId,Number,RecipientId,DonorId,RangeHolderId,OldRoute,NewRoute,PortDate,RowCount
1000000000224705,77786704728,mAltel,mKcell,mKcell,,D07,2016-08-06T17:00:14+06:00,10
1000000000224707,77471931939,mKcell,mMTS,mMTS,,D02,2016-08-06T17:02:23+06:00,
1000000000224708,77782999700,mMTS,mKcell,mKcell,,D77,2016-08-06T17:04:40+06:00,
1000000000224710,77789114420,mMTS,mKcell,mKcell,,D77,2016-08-06T17:05:44+06:00,
1000000000224711,77003643229,mKcell,mAltel,mAltel,,D02,2016-08-06T17:06:55+06:00,
1000000000224715,77009999926,mKarTel,mKcell,mAltel,D02,D01,2016-08-06T17:17:33+06:00,
1000000000224721,77767158000,mMTS,mKarTel,mKarTel,,D77,2016-08-06T17:22:18+06:00,
1000000000224724,77015555180,mKcell,mKarTel,mKcell,D01,D02,2016-08-06T17:23:33+06:00,
1000000000224729,77785684830,mAltel,mKcell,mKcell,,D07,2016-08-06T17:25:48+06:00,
1000000000224731,77004250555,mKarTel,mAltel,mAltel,,D01,2016-08-06T17:29:21+06:00,
