NPId,Number,RecipientId,DonorId,RangeHolderId,OldRoute,NewRoute,PortDate,RowCount
1000000000205573,77786746386,mMTS,mKcell,mKcell,,D77,2016-07-06T10:31:51+06:00,17
1000000000205574,77089684243,mMTS,mAltel,mAltel,,D77,2016-07-06T10:32:14+06:00,
1000000000205575,77054494999,mMTS,mKarTel,mKarTel,D01,D77,2016-07-06T10:32:33+06:00,
1000000000205580,77001550000,mKcell,mAltel,mAltel,,D02,2016-07-06T10:35:37+06:00,
1000000000205582,77710228654,mMTS,mKarTel,mKarTel,,D77,2016-07-06T10:39:01+06:00,
1000000000205585,77077854554,mMTS,mKcell,mMTS,D02,D77,2016-07-06T10:40:42+06:00,
1000000000205586,77022494646,mMTS,mKcell,mKcell,,D77,2016-07-06T10:41:21+06:00,
1000000000205589,77786884886,mAltel,mKcell,mKcell,,D07,2016-07-06T10:45:11+06:00,
1000000000205592,77470344899,mAltel,mMTS,mMTS,,D07,2016-07-06T10:46:51+06:00,
1000000000205595,77002898699,mKcell,mAltel,mAltel,,D02,2016-07-06T10:47:50+06:00,
1000000000205597,77083276357,mMTS,mAltel,mAltel,,D77,2016-07-06T10:48:55+06:00,
1000000000205598,77471489722,mMTS,mAltel,mMTS,D07,D77,2016-07-06T10:49:50+06:00,
1000000000205599,77005541129,mKcell,mAltel,mAltel,,D02,2016-07-06T10:51:12+06:00,
1000000000205601,77055775544,mMTS,mKarTel,mKarTel,,D77,2016-07-06T10:54:25+06:00,
1000000000205602,77076001523,mKarTel,mMTS,mMTS,,D01,2016-07-06T10:55:18+06:00,
1000000000205603,77786110846,mMTS,mKcell,mKcell,,D77,2016-07-06T10:57:43+06:00,
1000000000205605,77052413808,mMTS,mKarTel,mKarTel,D01,D77,2016-07-06T10:58:54+06:00,
