NPId,Number,RecipientId,DonorId,RangeHolderId,OldRoute,NewRoute,PortDate,RowCount
1000000000442831,77010177711,mKcell,mKarTel,mKcell,D01,D02,2017-08-20T18:02:30+06:00,4
1000000000442834,77777950331,mKcell,mKarTel,mKarTel,,D02,2017-08-20T18:17:54+06:00,
1000000000442835,77715210299,mKarTel,mMTS,mKarTel,D77,D01,2017-08-20T18:19:57+06:00,
1000000000442836,77772622221,mMTS,mKcell,mKarTel,D02,D77,2017-08-20T18:27:44+06:00,
