NPId,Number,RecipientId,DonorId,RangeHolderId,OldRoute,NewRoute,PortDate,RowCount
1000000000382431,77055023074,mKarTel,mMTS,mKarTel,D77,D01,2017-05-13T13:02:21+06:00,13
1000000000382432,77755123704,mMTS,mKarTel,mKcell,D01,D77,2017-05-13T13:04:23+06:00,
1000000000382433,77089879747,mKcell,mAltel,mAltel,,D02,2017-05-13T13:05:04+06:00,
1000000000382435,77788044400,mAltel,mKcell,mKcell,,D07,2017-05-13T13:07:15+06:00,
1000000000382436,77773325035,mMTS,mKarTel,mKarTel,,D77,2017-05-13T13:10:32+06:00,
1000000000382437,77073698000,mKarTel,mMTS,mMTS,,D01,2017-05-13T13:11:12+06:00,
1000000000382439,77016659003,mMTS,mKcell,mKcell,,D77,2017-05-13T13:14:33+06:00,
1000000000382440,77051760003,mKarTel,mKcell,mKarTel,D02,D01,2017-05-13T13:18:32+06:00,
1000000000382441,77027776260,mAltel,mKcell,mKcell,,D07,2017-05-13T13:22:33+06:00,
1000000000382442,77017446668,mAltel,mKcell,mKcell,,D07,2017-05-13T13:24:40+06:00,
1000000000382443,77011116344,mAltel,mKcell,mKcell,,D07,2017-05-13T13:25:30+06:00,
1000000000382444,77078886000,mAltel,mMTS,mMTS,,D07,2017-05-13T13:25:47+06:00,
1000000000382446,77016660700,mMTS,mKcell,mKcell,,D77,2017-05-13T13:28:36+06:00,
