NPId,Number,RecipientId,DonorId,RangeHolderId,OldRoute,NewRoute,PortDate,RowCount
1000000000216291,77082080709,mMTS,mAltel,mAltel,,D77,2016-07-24T13:07:11+06:00,5
1000000000216295,77028572998,mMTS,mKcell,mKcell,,D77,2016-07-24T13:10:31+06:00,
1000000000216296,77003592011,mMTS,mAltel,mAltel,,D77,2016-07-24T13:12:16+06:00,
1000000000216297,77075447000,mKarTel,mMTS,mMTS,D77,D01,2016-07-24T13:14:30+06:00,
1000000000216300,77081880607,mMTS,mAltel,mAltel,,D77,2016-07-24T13:27:15+06:00,
