NPId,Number,RecipientId,DonorId,RangeHolderId,OldRoute,NewRoute,PortDate,RowCount
1000000000430883,77715480679,mMTS,mKarTel,mKarTel,,D77,2017-07-30T21:57:40+06:00,3
1000000000430884,77715480678,mMTS,mKarTel,mKarTel,,D77,2017-07-30T21:57:40+06:00,
1000000000430885,77715480674,mMTS,mKarTel,mKarTel,,D77,2017-07-30T21:57:41+06:00,
