NPId,Number,RecipientId,DonorId,RangeHolderId,OldRoute,NewRoute,PortDate,RowCount
1000000000314501,77758880889,mKcell,mKarTel,mKcell,D01,D02,2017-01-21T19:06:17+06:00,4
1000000000314502,77772370361,mKcell,mKarTel,mKarTel,,D02,2017-01-21T19:07:18+06:00,
1000000000314504,77013861555,mAltel,mKcell,mKcell,,D07,2017-01-21T19:07:57+06:00,
1000000000314505,77072147800,mAltel,mMTS,mMTS,,D07,2017-01-21T19:20:36+06:00,
