NPId,Number,RecipientId,DonorId,RangeHolderId,OldRoute,NewRoute,PortDate,RowCount
1000000000403326,77754554554,mKcell,mMTS,mKcell,D77,D02,2017-06-14T17:31:54+06:00,24
1000000000403327,77059809887,mMTS,mKarTel,mKarTel,,D77,2017-06-14T17:32:11+06:00,
1000000000403330,77007303797,mKarTel,mAltel,mAltel,,D01,2017-06-14T17:34:13+06:00,
1000000000403332,77017291887,mAltel,mKcell,mKcell,,D07,2017-06-14T17:36:01+06:00,
1000000000403333,77765001122,mAltel,mKarTel,mKarTel,,D07,2017-06-14T17:36:55+06:00,
1000000000403334,77770637304,mMTS,mKarTel,mKarTel,,D77,2017-06-14T17:36:57+06:00,
1000000000403338,77017291889,mAltel,mKcell,mKcell,,D07,2017-06-14T17:40:09+06:00,
1000000000403339,77018000782,mAltel,mKcell,mKcell,,D07,2017-06-14T17:41:03+06:00,
1000000000403340,77000240083,mKcell,mAltel,mAltel,,D02,2017-06-14T17:41:19+06:00,
1000000000403344,77077482764,mMTS,mKarTel,mMTS,D01,D77,2017-06-14T17:43:27+06:00,
1000000000403345,77019980098,mAltel,mKcell,mKcell,,D07,2017-06-14T17:43:38+06:00,
1000000000403346,77015204874,mAltel,mKcell,mKcell,,D07,2017-06-14T17:44:14+06:00,
1000000000403347,77777795265,mMTS,mKarTel,mKarTel,,D77,2017-06-14T17:44:46+06:00,
1000000000403348,77017681055,mKarTel,mKcell,mKcell,,D01,2017-06-14T17:48:04+06:00,
1000000000403352,77019493512,mKcell,mAltel,mKcell,D07,D02,2017-06-14T17:51:54+06:00,
1000000000403354,77017164612,mKarTel,mKcell,mKcell,,D01,2017-06-14T17:52:21+06:00,
1000000000403355,77051787807,mAltel,mMTS,mKarTel,D77,D07,2017-06-14T17:53:06+06:00,
1000000000403356,77015508350,mAltel,mKcell,mKcell,,D07,2017-06-14T17:54:01+06:00,
1000000000403357,77013261569,mAltel,mKcell,mKcell,,D07,2017-06-14T17:54:24+06:00,
1000000000403359,77071804216,mKarTel,mMTS,mMTS,,D01,2017-06-14T17:56:20+06:00,
1000000000403361,77056143980,mMTS,mKarTel,mKarTel,,D77,2017-06-14T17:57:03+06:00,
1000000000403362,77070314100,mKarTel,mMTS,mMTS,,D01,2017-06-14T17:57:59+06:00,
1000000000403363,77072766276,mKarTel,mMTS,mMTS,,D01,2017-06-14T17:58:15+06:00,
1000000000403364,77009771040,mMTS,mAltel,mAltel,,D77,2017-06-14T17:58:45+06:00,
