NPId,Number,RecipientId,DonorId,RangeHolderId,OldRoute,NewRoute,PortDate,RowCount
1000000000296609,77781056992,mMTS,mKcell,mKcell,,D77,2016-12-18T13:31:35+06:00,15
1000000000296611,77015551345,mAltel,mKcell,mKcell,,D07,2016-12-18T13:32:23+06:00,
1000000000296612,77009826984,mMTS,mAltel,mAltel,,D77,2016-12-18T13:32:36+06:00,
1000000000296613,77011017242,mMTS,mKcell,mKcell,,D77,2016-12-18T13:32:42+06:00,
1000000000296615,77751251304,mAltel,mKcell,mKcell,,D07,2016-12-18T13:34:58+06:00,
1000000000296618,77477056591,mAltel,mMTS,mMTS,,D07,2016-12-18T13:40:00+06:00,
1000000000296619,77781056735,mMTS,mKcell,mKcell,,D77,2016-12-18T13:41:21+06:00,
1000000000296621,77007797878,mMTS,mKcell,mAltel,D02,D77,2016-12-18T13:44:57+06:00,
1000000000296622,77472291469,mMTS,mAltel,mMTS,D07,D77,2016-12-18T13:45:23+06:00,
1000000000296623,77781181739,mMTS,mKcell,mKcell,,D77,2016-12-18T13:50:06+06:00,
1000000000296626,77078955303,mAltel,mKcell,mMTS,D02,D07,2016-12-18T13:53:18+06:00,
1000000000296627,77028293359,mMTS,mKcell,mKcell,,D77,2016-12-18T13:55:28+06:00,
1000000000296628,77712449210,mMTS,mKarTel,mKarTel,,D77,2016-12-18T13:56:19+06:00,
1000000000296629,77005111500,mMTS,mAltel,mAltel,,D77,2016-12-18T13:58:16+06:00,
1000000000296630,77012229425,mKarTel,mAltel,mKcell,D07,D01,2016-12-18T13:59:08+06:00,
