NPId,Number,RecipientId,DonorId,RangeHolderId,OldRoute,NewRoute,PortDate,RowCount
1000000000402879,77023571437,mMTS,mAltel,mKcell,D07,D77,2017-06-14T09:00:23+06:00,11
1000000000402880,77029997527,mMTS,mKarTel,mKcell,D01,D77,2017-06-14T09:01:59+06:00,
1000000000402882,77755235646,mKarTel,mMTS,mKcell,D77,D01,2017-06-14T09:02:49+06:00,
1000000000402883,77009173191,mMTS,mAltel,mAltel,,D77,2017-06-14T09:08:24+06:00,
1000000000402884,77058671731,mMTS,mKarTel,mKarTel,,D77,2017-06-14T09:09:17+06:00,
1000000000402886,77025363534,mAltel,mKcell,mKcell,D02,D07,2017-06-14T09:10:10+06:00,
1000000000402888,77004526088,mMTS,mAltel,mAltel,,D77,2017-06-14T09:12:30+06:00,
1000000000402889,77011732392,mMTS,mKcell,mKcell,,D77,2017-06-14T09:22:28+06:00,
1000000000402890,77011179771,mKarTel,mKcell,mKcell,,D01,2017-06-14T09:23:39+06:00,
1000000000402891,77001324114,mMTS,mAltel,mAltel,,D77,2017-06-14T09:24:56+06:00,
1000000000402893,77777798977,mKcell,mKarTel,mKarTel,,D02,2017-06-14T09:28:28+06:00,
