NPId,Number,RecipientId,DonorId,RangeHolderId,OldRoute,NewRoute,PortDate,RowCount
1000000000255752,77010540842,mKarTel,mKcell,mKcell,,D01,2016-10-03T12:31:34+06:00,63
1000000000255752,77010540843,mKarTel,mKcell,mKcell,,D01,2016-10-03T12:31:34+06:00,
1000000000255752,77010543071,mKarTel,mKcell,mKcell,,D01,2016-10-03T12:31:34+06:00,
1000000000255752,77012080637,mKarTel,mKcell,mKcell,,D01,2016-10-03T12:31:34+06:00,
1000000000255752,77015718505,mKarTel,mKcell,mKcell,,D01,2016-10-03T12:31:34+06:00,
1000000000255752,77017160080,mKarTel,mKcell,mKcell,,D01,2016-10-03T12:31:34+06:00,
1000000000255752,77017201847,mKarTel,mKcell,mKcell,,D01,2016-10-03T12:31:34+06:00,
1000000000255752,77017212091,mKarTel,mKcell,mKcell,,D01,2016-10-03T12:31:34+06:00,
1000000000255752,77017234331,mKarTel,mKcell,mKcell,,D01,2016-10-03T12:31:34+06:00,
1000000000255752,77017575937,mKarTel,mKcell,mKcell,,D01,2016-10-03T12:31:34+06:00,
1000000000255752,77017865160,mKarTel,mKcell,mKcell,,D01,2016-10-03T12:31:34+06:00,
1000000000255752,77017865186,mKarTel,mKcell,mKcell,,D01,2016-10-03T12:31:34+06:00,
1000000000255752,77019501136,mKarTel,mKcell,mKcell,,D01,2016-10-03T12:31:34+06:00,
1000000000255752,77019530385,mKarTel,mKcell,mKcell,,D01,2016-10-03T12:31:34+06:00,
1000000000255753,77789072222,mKcell,mKarTel,mKcell,D01,D02,2016-10-03T12:30:27+06:00,
1000000000255757,77777954774,mMTS,mKarTel,mKarTel,,D77,2016-10-03T12:33:05+06:00,
1000000000255759,77785406161,mMTS,mKcell,mKcell,,D77,2016-10-03T12:31:30+06:00,
1000000000255761,77017387004,mKcell,mMTS,mKcell,D77,D02,2016-10-03T12:32:10+06:00,
1000000000255762,77012356838,mMTS,mKcell,mKcell,,D77,2016-10-03T12:34:57+06:00,
1000000000255764,77011269606,mKcell,mKarTel,mKcell,D01,D02,2016-10-03T12:38:50+06:00,
1000000000255765,77013837700,mKarTel,mKcell,mKcell,,D01,2016-10-03T12:37:02+06:00,
1000000000255767,77007070011,mMTS,mAltel,mAltel,,D77,2016-10-03T12:37:28+06:00,
1000000000255768,77770523322,mMTS,mKarTel,mKarTel,,D77,2016-10-03T12:41:25+06:00,
1000000000255770,77777730910,mMTS,mKarTel,mKarTel,,D77,2016-10-03T12:41:27+06:00,
1000000000255771,77017523487,mKcell,mKarTel,mKcell,D01,D02,2016-10-03T12:43:17+06:00,
1000000000255772,77751773370,mAltel,mKcell,mKcell,,D07,2016-10-03T12:40:57+06:00,
1000000000255773,77011666611,mMTS,mKcell,mKcell,,D77,2016-10-03T12:39:27+06:00,
1000000000255774,77010262106,mKarTel,mKcell,mKcell,,D01,2016-10-03T12:44:15+06:00,
1000000000255774,77010272310,mKarTel,mKcell,mKcell,,D01,2016-10-03T12:44:15+06:00,
1000000000255774,77010347170,mKarTel,mKcell,mKcell,,D01,2016-10-03T12:44:15+06:00,
1000000000255774,77010867771,mKarTel,mKcell,mKcell,,D01,2016-10-03T12:44:15+06:00,
1000000000255774,77011119408,mKarTel,mKcell,mKcell,,D01,2016-10-03T12:44:15+06:00,
1000000000255774,77017400063,mKarTel,mKcell,mKcell,,D01,2016-10-03T12:44:15+06:00,
1000000000255774,77017540105,mKarTel,mKcell,mKcell,,D01,2016-10-03T12:44:15+06:00,
1000000000255774,77017540135,mKarTel,mKcell,mKcell,,D01,2016-10-03T12:44:15+06:00,
1000000000255774,77017650576,mKarTel,mKcell,mKcell,,D01,2016-10-03T12:44:15+06:00,
1000000000255774,77017650607,mKarTel,mKcell,mKcell,,D01,2016-10-03T12:44:15+06:00,
1000000000255774,77017677031,mKarTel,mKcell,mKcell,,D01,2016-10-03T12:44:15+06:00,
1000000000255774,77017677046,mKarTel,mKcell,mKcell,,D01,2016-10-03T12:44:15+06:00,
1000000000255774,77019501161,mKarTel,mKcell,mKcell,,D01,2016-10-03T12:44:15+06:00,
1000000000255774,77019501167,mKarTel,mKcell,mKcell,,D01,2016-10-03T12:44:15+06:00,
1000000000255775,77077369969,mAltel,mMTS,mMTS,,D07,2016-10-03T12:40:08+06:00,
1000000000255776,77013333204,mMTS,mKcell,mKcell,,D77,2016-10-03T12:40:28+06:00,
1000000000255777,77004002612,mKarTel,mAltel,mAltel,,D01,2016-10-03T12:42:48+06:00,
1000000000255778,77011517599,mKarTel,mKcell,mKcell,,D01,2016-10-03T12:42:49+06:00,
1000000000255779,77015638655,mMTS,mKcell,mKcell,,D77,2016-10-03T12:42:32+06:00,
1000000000255780,77773715822,mMTS,mKarTel,mKarTel,,D77,2016-10-03T12:45:41+06:00,
1000000000255781,77717318645,mKarTel,mMTS,mKarTel,D77,D01,2016-10-03T12:44:16+06:00,
1000000000255782,77774988484,mMTS,mKarTel,mKarTel,,D77,2016-10-03T12:47:05+06:00,
1000000000255783,77006000695,mKcell,mAltel,mAltel,,D02,2016-10-03T12:44:09+06:00,
1000000000255784,77029070222,mKcell,mKarTel,mKcell,D01,D02,2016-10-03T12:48:45+06:00,
1000000000255785,77018739808,mMTS,mKcell,mKcell,,D77,2016-10-03T12:48:22+06:00,
1000000000255786,77081775592,mMTS,mAltel,mAltel,,D77,2016-10-03T12:46:05+06:00,
1000000000255788,77058623933,mMTS,mKarTel,mKarTel,,D77,2016-10-03T12:51:11+06:00,
1000000000255789,77014322111,mMTS,mKcell,mKcell,,D77,2016-10-03T12:49:55+06:00,
1000000000255790,77472008410,mKcell,mMTS,mMTS,,D02,2016-10-03T12:50:13+06:00,
1000000000255792,77710806000,mAltel,mKarTel,mKarTel,,D07,2016-10-03T12:54:00+06:00,
1000000000255793,77017434420,mMTS,mKcell,mKcell,,D77,2016-10-03T12:52:08+06:00,
1000000000255795,77073434881,mKarTel,mMTS,mMTS,,D01,2016-10-03T12:53:49+06:00,
1000000000255797,77014651172,mKcell,mAltel,mKcell,D07,D02,2016-10-03T12:55:42+06:00,
1000000000255798,77017163049,mKcell,mMTS,mKcell,D77,D02,2016-10-03T12:58:29+06:00,
1000000000255800,77751301827,mMTS,mKcell,mKcell,,D77,2016-10-03T12:57:33+06:00,
1000000000255801,77022668667,mAltel,mKcell,mKcell,,D07,2016-10-03T12:57:56+06:00,
