NPId,Number,RecipientId,DonorId,RangeHolderId,OldRoute,NewRoute,PortDate,RowCount
1000000000200022,77017771813,mMTS,mKcell,mKcell,,D77,2016-06-25T21:31:38+06:00,2
1000000000200023,77013480458,mKarTel,mKcell,mKcell,,D01,2016-06-25T21:38:11+06:00,
