NPId,Number,RecipientId,DonorId,RangeHolderId,OldRoute,NewRoute,PortDate,RowCount
1000000000130118,77007705700,mMTS,mAltel,mAltel,,D77,2016-03-21T10:36:46+06:00,10
1000000000130119,77081222156,mMTS,mAltel,mAltel,,D77,2016-03-21T10:39:15+06:00,
1000000000130120,77073706020,mKcell,mMTS,mMTS,,D02,2016-03-21T10:39:41+06:00,
1000000000130121,77054384457,mMTS,mKarTel,mKarTel,,D77,2016-03-21T10:40:43+06:00,
1000000000130122,77784554585,mMTS,mKcell,mKcell,,D77,2016-03-21T10:40:13+06:00,
1000000000130123,77013330298,mAltel,mKarTel,mKcell,D01,D07,2016-03-21T10:46:17+06:00,
1000000000130125,77751939983,mMTS,mKcell,mKcell,,D77,2016-03-21T10:47:35+06:00,
1000000000130127,77785983924,mKarTel,mKcell,mKcell,,D01,2016-03-21T10:52:58+06:00,
1000000000130128,77073706010,mKcell,mMTS,mMTS,,D02,2016-03-21T10:56:53+06:00,
1000000000130129,77015144375,mMTS,mKcell,mKcell,,D77,2016-03-21T10:58:59+06:00,
