NPId,Number,RecipientId,DonorId,RangeHolderId,OldRoute,NewRoute,PortDate,RowCount
1000000000427610,77018297003,mKarTel,mKcell,mKcell,,D01,2017-07-25T10:33:36+06:00,18
1000000000427611,77072220119,mKcell,mMTS,mMTS,,D02,2017-07-25T10:34:55+06:00,
1000000000427613,77752320222,mMTS,mKcell,mKcell,D02,D77,2017-07-25T10:38:55+06:00,
1000000000427614,77077693737,mMTS,mKarTel,mMTS,D01,D77,2017-07-25T10:39:19+06:00,
1000000000427615,77771860744,mMTS,mKarTel,mKarTel,,D77,2017-07-25T10:40:15+06:00,
1000000000427616,77013844829,mKarTel,mKcell,mKcell,,D01,2017-07-25T10:41:21+06:00,
1000000000427617,77017426999,mMTS,mKcell,mKcell,D02,D77,2017-07-25T10:41:14+06:00,
1000000000427618,77004462140,mMTS,mAltel,mAltel,,D77,2017-07-25T10:41:19+06:00,
1000000000427620,77002009092,mMTS,mKcell,mAltel,D02,D77,2017-07-25T10:42:17+06:00,
1000000000427621,77017943109,mKcell,mMTS,mKcell,D77,D02,2017-07-25T10:43:01+06:00,
1000000000427623,77077560775,mKarTel,mMTS,mMTS,,D01,2017-07-25T10:45:09+06:00,
1000000000427624,77007693737,mMTS,mKarTel,mAltel,D01,D77,2017-07-25T10:45:51+06:00,
1000000000427627,77776265694,mMTS,mKarTel,mKarTel,,D77,2017-07-25T10:49:31+06:00,
1000000000427630,77012778687,mKcell,mKarTel,mKcell,D01,D02,2017-07-25T10:50:59+06:00,
1000000000427631,77006662081,mMTS,mAltel,mAltel,,D77,2017-07-25T10:51:20+06:00,
1000000000427633,77772511504,mKarTel,mAltel,mKarTel,D07,D01,2017-07-25T10:54:14+06:00,
1000000000427637,77783162527,mAltel,mKcell,mKcell,,D07,2017-07-25T10:56:24+06:00,
1000000000427643,77478447859,mKarTel,mMTS,mMTS,,D01,2017-07-25T10:59:40+06:00,
