NPId,Number,RecipientId,DonorId,RangeHolderId,OldRoute,NewRoute,PortDate,RowCount
1000000000153930,77017716896,mKarTel,mKcell,mKcell,,D01,2016-04-17T14:19:50+06:00,23
1000000000154012,77017343888,mMTS,mKcell,mKcell,,D77,2016-04-17T14:04:26+06:00,
1000000000154013,77773186624,mKcell,mKarTel,mKarTel,,D02,2016-04-17T14:07:36+06:00,
1000000000154014,77714222671,mMTS,mKarTel,mKarTel,,D77,2016-04-17T14:07:10+06:00,
1000000000154016,77054524880,mMTS,mKarTel,mKarTel,,D77,2016-04-17T14:10:40+06:00,
1000000000154017,77779642306,mMTS,mKarTel,mKarTel,,D77,2016-04-17T14:13:28+06:00,
1000000000154018,77017741744,mMTS,mKcell,mKcell,,D77,2016-04-17T14:12:28+06:00,
1000000000154019,77085407874,mMTS,mAltel,mAltel,,D77,2016-04-17T14:11:58+06:00,
1000000000154020,77753426061,mMTS,mKcell,mKcell,,D77,2016-04-17T14:14:25+06:00,
1000000000154021,77029993614,mAltel,mKarTel,mKcell,D01,D07,2016-04-17T14:15:44+06:00,
1000000000154022,77751977190,mMTS,mAltel,mKcell,D07,D77,2016-04-17T14:15:17+06:00,
1000000000154023,77055068310,mKcell,mKarTel,mKarTel,,D02,2016-04-17T14:18:35+06:00,
1000000000154025,77022765068,mAltel,mKcell,mKcell,,D07,2016-04-17T14:20:08+06:00,
1000000000154027,77024111182,mKcell,mAltel,mKcell,D07,D02,2016-04-17T14:21:40+06:00,
1000000000154028,77022349902,mMTS,mAltel,mKcell,D07,D77,2016-04-17T14:21:21+06:00,
1000000000154030,77776346680,mMTS,mKarTel,mKarTel,,D77,2016-04-17T14:24:10+06:00,
1000000000154031,77017142108,mMTS,mKcell,mKcell,,D77,2016-04-17T14:24:09+06:00,
1000000000154032,77051727000,mKarTel,mAltel,mKarTel,D07,D01,2016-04-17T14:24:53+06:00,
1000000000154033,77087597824,mMTS,mAltel,mAltel,,D77,2016-04-17T14:24:50+06:00,
1000000000154034,77089005670,mMTS,mAltel,mAltel,,D77,2016-04-17T14:25:52+06:00,
1000000000154036,77077274748,mMTS,mKarTel,mMTS,D01,D77,2016-04-17T14:29:11+06:00,
1000000000154038,77786661234,mMTS,mAltel,mKcell,D07,D77,2016-04-17T14:29:39+06:00,
1000000000154039,77087737333,mMTS,mAltel,mAltel,,D77,2016-04-17T14:29:59+06:00,
