NPId,Number,RecipientId,DonorId,RangeHolderId,OldRoute,NewRoute,PortDate,RowCount
1000000000324937,77017487978,mMTS,mKcell,mKcell,,D77,2017-02-06T20:01:49+06:00,14
1000000000324938,77054575555,mKarTel,mMTS,mKarTel,D77,D01,2017-02-06T20:03:07+06:00,
1000000000324940,77476160060,mKcell,mMTS,mMTS,,D02,2017-02-06T20:04:27+06:00,
1000000000324941,77768060000,mKarTel,mMTS,mKarTel,D77,D01,2017-02-06T20:04:48+06:00,
1000000000324942,77011000991,mKcell,mMTS,mKcell,D77,D02,2017-02-06T20:13:56+06:00,
1000000000324943,77001003898,mKcell,mAltel,mAltel,,D02,2017-02-06T20:17:21+06:00,
1000000000324944,77001006838,mKcell,mAltel,mAltel,,D02,2017-02-06T20:17:17+06:00,
1000000000324945,77001004696,mKcell,mAltel,mAltel,,D02,2017-02-06T20:17:24+06:00,
1000000000324946,77001006848,mKcell,mAltel,mAltel,,D02,2017-02-06T20:17:34+06:00,
1000000000324947,77001005797,mKcell,mAltel,mAltel,,D02,2017-02-06T20:19:48+06:00,
1000000000324948,77001003595,mKcell,mAltel,mAltel,,D02,2017-02-06T20:20:07+06:00,
1000000000324949,77001002494,mKcell,mAltel,mAltel,,D02,2017-02-06T20:19:57+06:00,
1000000000324950,77001008696,mKcell,mAltel,mAltel,,D02,2017-02-06T20:20:03+06:00,
1000000000324951,77001004595,mKcell,mAltel,mAltel,,D02,2017-02-06T20:21:23+06:00,
