NPId,Number,RecipientId,DonorId,RangeHolderId,OldRoute,NewRoute,PortDate,RowCount
1000000000227144,77752055055,mMTS,mKcell,mKcell,,D77,2016-08-10T19:00:35+06:00,4
1000000000227147,77017735353,mMTS,mKcell,mKcell,,D77,2016-08-10T19:05:18+06:00,
1000000000227149,77013837504,mKcell,mMTS,mKcell,D77,D02,2016-08-10T19:10:36+06:00,
1000000000227152,77012323035,mKarTel,mKcell,mKcell,,D01,2016-08-10T19:16:58+06:00,
