NPId,Number,RecipientId,DonorId,RangeHolderId,OldRoute,NewRoute,PortDate,RowCount
1000000000188293,77022577541,mMTS,mKcell,mKcell,,D77,2016-06-05T18:00:36+06:00,8
1000000000188294,77013649244,mMTS,mKcell,mKcell,,D77,2016-06-05T18:02:29+06:00,
1000000000188295,77789999978,mMTS,mKcell,mKcell,,D77,2016-06-05T18:02:47+06:00,
1000000000188297,77027020469,mMTS,mKcell,mKcell,,D77,2016-06-05T18:05:32+06:00,
1000000000188299,77079020172,mMTS,mAltel,mMTS,D07,D77,2016-06-05T18:17:10+06:00,
1000000000188302,77016664040,mMTS,mKcell,mKcell,,D77,2016-06-05T18:24:03+06:00,
1000000000188303,77776931251,mKcell,mKarTel,mKarTel,,D02,2016-06-05T18:24:21+06:00,
1000000000188306,77071994243,mKarTel,mMTS,mMTS,,D01,2016-06-05T18:27:19+06:00,
