NPId,Number,RecipientId,DonorId,RangeHolderId,OldRoute,NewRoute,PortDate,RowCount
1000000000130229,77778224454,mMTS,mKarTel,mKarTel,,D77,2016-03-21T12:31:02+06:00,19
1000000000130231,77081768668,mMTS,mAltel,mAltel,,D77,2016-03-21T12:32:33+06:00,
1000000000130232,77082344278,mMTS,mAltel,mAltel,,D77,2016-03-21T12:33:25+06:00,
1000000000130233,77772993569,mMTS,mKarTel,mKarTel,,D77,2016-03-21T12:36:58+06:00,
1000000000130234,77023997885,mAltel,mKcell,mKcell,,D07,2016-03-21T12:36:58+06:00,
1000000000130236,77714466992,mKcell,mKarTel,mKarTel,,D02,2016-03-21T12:39:44+06:00,
1000000000130237,77077322680,mAltel,mMTS,mMTS,,D07,2016-03-21T12:38:36+06:00,
1000000000130239,77017192027,mAltel,mKcell,mKcell,,D07,2016-03-21T12:41:37+06:00,
1000000000130241,77014228718,mMTS,mKcell,mKcell,,D77,2016-03-21T12:43:55+06:00,
1000000000130243,77784010777,mMTS,mKcell,mKcell,,D77,2016-03-21T12:46:42+06:00,
1000000000130244,77089151790,mMTS,mAltel,mAltel,,D77,2016-03-21T12:46:32+06:00,
1000000000130246,77022330700,mMTS,mKarTel,mKcell,D01,D77,2016-03-21T12:49:27+06:00,
1000000000130247,77787415901,mMTS,mKcell,mKcell,,D77,2016-03-21T12:49:21+06:00,
1000000000130250,77754441458,mMTS,mKcell,mKcell,,D77,2016-03-21T12:52:11+06:00,
1000000000130251,77017518706,mAltel,mKcell,mKcell,,D07,2016-03-21T12:52:59+06:00,
1000000000130252,77015187715,mKarTel,mKcell,mKcell,,D01,2016-03-21T12:53:27+06:00,
1000000000130253,77783400089,mMTS,mKcell,mKcell,,D77,2016-03-21T12:53:06+06:00,
1000000000130256,77012045531,mMTS,mKcell,mKcell,,D77,2016-03-21T12:57:08+06:00,
1000000000130257,77475001414,mMTS,mKarTel,mMTS,D01,D77,2016-03-21T12:59:50+06:00,
