NPId,Number,RecipientId,DonorId,RangeHolderId,OldRoute,NewRoute,PortDate,RowCount
1000000000218372,77022205008,mMTS,mKcell,mKcell,,D77,2016-07-27T20:30:14+06:00,6
1000000000218373,77078880444,mKcell,mMTS,mMTS,,D02,2016-07-27T20:30:57+06:00,
1000000000218374,77755651229,mKarTel,mKcell,mKcell,,D01,2016-07-27T20:42:27+06:00,
1000000000218375,77766161212,mKcell,mKarTel,mKarTel,,D02,2016-07-27T20:46:56+06:00,
1000000000218377,77779526060,mMTS,mKarTel,mKarTel,,D77,2016-07-27T20:55:41+06:00,
1000000000218378,77779579900,mMTS,mKarTel,mKarTel,,D77,2016-07-27T20:57:52+06:00,
