NPId,Number,RecipientId,DonorId,RangeHolderId,OldRoute,NewRoute,PortDate,RowCount
1000000000311658,77072211872,mKcell,mMTS,mMTS,,D02,2017-01-16T19:01:27+06:00,16
1000000000311660,77767770998,mMTS,mKarTel,mKarTel,,D77,2017-01-16T19:03:00+06:00,
1000000000311661,77075577505,mKcell,mMTS,mMTS,,D02,2017-01-16T19:04:43+06:00,
1000000000311662,77001000528,mKcell,mAltel,mAltel,,D02,2017-01-16T19:06:18+06:00,
1000000000311663,77071029660,mKcell,mMTS,mMTS,,D02,2017-01-16T19:07:03+06:00,
1000000000311664,77781082883,mMTS,mKcell,mKcell,,D77,2017-01-16T19:07:58+06:00,
1000000000311667,77015146587,mMTS,mKcell,mKcell,,D77,2017-01-16T19:12:53+06:00,
1000000000311669,77027017601,mMTS,mKcell,mKcell,,D77,2017-01-16T19:14:13+06:00,
1000000000311670,77479654399,mMTS,mKcell,mMTS,D02,D77,2017-01-16T19:17:42+06:00,
1000000000311671,77011382424,mKcell,mMTS,mKcell,D77,D02,2017-01-16T19:25:13+06:00,
1000000000311672,77012181316,mKcell,mKarTel,mKcell,D01,D02,2017-01-16T19:25:38+06:00,
1000000000311673,77471222905,mKarTel,mMTS,mMTS,,D01,2017-01-16T19:25:53+06:00,
1000000000311675,77755778579,mKarTel,mKcell,mKcell,,D01,2017-01-16T19:27:08+06:00,
1000000000311677,77028200021,mMTS,mKcell,mKcell,,D77,2017-01-16T19:27:58+06:00,
1000000000311678,77014028141,mAltel,mKcell,mKcell,,D07,2017-01-16T19:29:01+06:00,
1000000000311679,77058722081,mMTS,mKarTel,mKarTel,,D77,2017-01-16T19:29:28+06:00,
