NPId,Number,RecipientId,DonorId,RangeHolderId,OldRoute,NewRoute,PortDate,RowCount
1000000000361057,77712020715,mKarTel,mKcell,mKarTel,D02,D01,2017-04-06T15:33:11+06:00,18
1000000000361058,77015006260,mKarTel,mKcell,mKcell,,D01,2017-04-06T15:33:26+06:00,
1000000000361059,77474524135,mKcell,mMTS,mMTS,,D02,2017-04-06T15:33:28+06:00,
1000000000361060,77772854695,mMTS,mKarTel,mKarTel,D01,D77,2017-04-06T15:35:02+06:00,
1000000000361062,77777040301,mKcell,mKarTel,mKarTel,,D02,2017-04-06T15:49:02+06:00,
1000000000361063,77715222569,mKarTel,mMTS,mKarTel,D77,D01,2017-04-06T15:40:36+06:00,
1000000000361065,77016157555,mMTS,mKcell,mKcell,,D77,2017-04-06T15:44:10+06:00,
1000000000361067,77019761376,mKarTel,mKcell,mKcell,,D01,2017-04-06T15:44:27+06:00,
1000000000361068,77015885697,mAltel,mKcell,mKcell,,D07,2017-04-06T15:46:42+06:00,
1000000000361071,77002002707,mMTS,mAltel,mAltel,,D77,2017-04-06T15:45:19+06:00,
1000000000361072,77022838842,mKarTel,mKcell,mKcell,,D01,2017-04-06T15:46:49+06:00,
1000000000361073,77474276137,mKcell,mMTS,mMTS,,D02,2017-04-06T15:55:59+06:00,
1000000000361075,77753737808,mAltel,mKcell,mKcell,,D07,2017-04-06T15:51:21+06:00,
1000000000361076,77058270019,mMTS,mKarTel,mKarTel,,D77,2017-04-06T15:52:26+06:00,
1000000000361077,77077342200,mAltel,mMTS,mMTS,,D07,2017-04-06T15:53:54+06:00,
1000000000361078,77751743179,mKarTel,mKcell,mKcell,,D01,2017-04-06T15:57:42+06:00,
1000000000361079,77013162297,mAltel,mKcell,mKcell,,D07,2017-04-06T15:57:37+06:00,
1000000000361082,77024937333,mMTS,mKcell,mKcell,,D77,2017-04-06T15:59:13+06:00,
