NPId,Number,RecipientId,DonorId,RangeHolderId,OldRoute,NewRoute,PortDate,RowCount
1000000000436109,77010265314,mKarTel,mKcell,mKcell,,D01,2017-08-08T10:13:00+06:00,59
1000000000436109,77010265315,mKarTel,mKcell,mKcell,,D01,2017-08-08T10:13:00+06:00,
1000000000436109,77010276470,mKarTel,mKcell,mKcell,,D01,2017-08-08T10:13:00+06:00,
1000000000436109,77010276471,mKarTel,mKcell,mKcell,,D01,2017-08-08T10:13:00+06:00,
1000000000436109,77010276473,mKarTel,mKcell,mKcell,,D01,2017-08-08T10:13:00+06:00,
1000000000436109,77010276474,mKarTel,mKcell,mKcell,,D01,2017-08-08T10:13:00+06:00,
1000000000436109,77010347472,mKarTel,mKcell,mKcell,,D01,2017-08-08T10:13:00+06:00,
1000000000436109,77010347721,mKarTel,mKcell,mKcell,,D01,2017-08-08T10:13:00+06:00,
1000000000436109,77010347724,mKarTel,mKcell,mKcell,,D01,2017-08-08T10:13:00+06:00,
1000000000436109,77010541694,mKarTel,mKcell,mKcell,,D01,2017-08-08T10:13:00+06:00,
1000000000436109,77010599658,mKarTel,mKcell,mKcell,,D01,2017-08-08T10:13:00+06:00,
1000000000436109,77010910678,mKarTel,mKcell,mKcell,,D01,2017-08-08T10:13:00+06:00,
1000000000436109,77010910680,mKarTel,mKcell,mKcell,,D01,2017-08-08T10:13:00+06:00,
1000000000436109,77010910681,mKarTel,mKcell,mKcell,,D01,2017-08-08T10:13:00+06:00,
1000000000436109,77010910682,mKarTel,mKcell,mKcell,,D01,2017-08-08T10:13:00+06:00,
1000000000436109,77012030029,mKarTel,mKcell,mKcell,,D01,2017-08-08T10:13:00+06:00,
1000000000436109,77012030041,mKarTel,mKcell,mKcell,,D01,2017-08-08T10:13:00+06:00,
1000000000436109,77012030042,mKarTel,mKcell,mKcell,,D01,2017-08-08T10:13:00+06:00,
1000000000436109,77012124444,mKarTel,mKcell,mKcell,,D01,2017-08-08T10:13:00+06:00,
1000000000436109,77012235177,mKarTel,mKcell,mKcell,,D01,2017-08-08T10:13:00+06:00,
1000000000436109,77015121677,mKarTel,mKcell,mKcell,,D01,2017-08-08T10:13:00+06:00,
1000000000436109,77015123855,mKarTel,mKcell,mKcell,,D01,2017-08-08T10:13:00+06:00,
1000000000436109,77015125377,mKarTel,mKcell,mKcell,,D01,2017-08-08T10:13:00+06:00,
1000000000436109,77015125477,mKarTel,mKcell,mKcell,,D01,2017-08-08T10:13:00+06:00,
1000000000436109,77015126977,mKarTel,mKcell,mKcell,,D01,2017-08-08T10:13:00+06:00,
1000000000436109,77015127355,mKarTel,mKcell,mKcell,,D01,2017-08-08T10:13:00+06:00,
1000000000436109,77015127568,mKarTel,mKcell,mKcell,,D01,2017-08-08T10:13:00+06:00,
1000000000436109,77015127630,mKarTel,mKcell,mKcell,,D01,2017-08-08T10:13:00+06:00,
1000000000436109,77015127644,mKarTel,mKcell,mKcell,,D01,2017-08-08T10:13:00+06:00,
1000000000436109,77015127655,mKarTel,mKcell,mKcell,,D01,2017-08-08T10:13:00+06:00,
1000000000436109,77015127950,mKarTel,mKcell,mKcell,,D01,2017-08-08T10:13:00+06:00,
1000000000436109,77015127955,mKarTel,mKcell,mKcell,,D01,2017-08-08T10:13:00+06:00,
1000000000436109,77015127988,mKarTel,mKcell,mKcell,,D01,2017-08-08T10:13:00+06:00,
1000000000436109,77015128277,mKarTel,mKcell,mKcell,,D01,2017-08-08T10:13:00+06:00,
1000000000436109,77015128477,mKarTel,mKcell,mKcell,,D01,2017-08-08T10:13:00+06:00,
1000000000436109,77015128771,mKarTel,mKcell,mKcell,,D01,2017-08-08T10:13:00+06:00,
1000000000436109,77015129477,mKarTel,mKcell,mKcell,,D01,2017-08-08T10:13:00+06:00,
1000000000436109,77015129577,mKarTel,mKcell,mKcell,,D01,2017-08-08T10:13:00+06:00,
1000000000436109,77015149558,mKarTel,mKcell,mKcell,,D01,2017-08-08T10:13:00+06:00,
1000000000436109,77015149565,mKarTel,mKcell,mKcell,,D01,2017-08-08T10:13:00+06:00,
1000000000436109,77015149605,mKarTel,mKcell,mKcell,,D01,2017-08-08T10:13:00+06:00,
1000000000436109,77015149631,mKarTel,mKcell,mKcell,,D01,2017-08-08T10:13:00+06:00,
1000000000436109,77015149633,mKarTel,mKcell,mKcell,,D01,2017-08-08T10:13:00+06:00,
1000000000436109,77015149637,mKarTel,mKcell,mKcell,,D01,2017-08-08T10:13:00+06:00,
1000000000436109,77015149678,mKarTel,mKcell,mKcell,,D01,2017-08-08T10:13:00+06:00,
1000000000436109,77015245862,mKarTel,mKcell,mKcell,,D01,2017-08-08T10:13:00+06:00,
1000000000436109,77015245863,mKarTel,mKcell,mKcell,,D01,2017-08-08T10:13:00+06:00,
1000000000436109,77017660944,mKarTel,mKcell,mKcell,,D01,2017-08-08T10:13:00+06:00,
1000000000436109,77017660946,mKarTel,mKcell,mKcell,,D01,2017-08-08T10:13:00+06:00,
1000000000436109,77017958687,mKarTel,mKcell,mKcell,,D01,2017-08-08T10:13:00+06:00,
1000000000436511,77018008107,mKarTel,mKcell,mKcell,,D01,2017-08-08T10:00:02+06:00,
1000000000436512,77078550024,mMTS,mKarTel,mMTS,D01,D77,2017-08-08T10:02:49+06:00,
1000000000436513,77021506109,mKcell,mMTS,mKcell,D77,D02,2017-08-08T10:02:53+06:00,
1000000000436514,77023366258,mKcell,mMTS,mKcell,D77,D02,2017-08-08T10:03:14+06:00,
1000000000436515,77007774620,mMTS,mAltel,mAltel,,D77,2017-08-08T10:04:22+06:00,
1000000000436516,77079970010,mKarTel,mMTS,mMTS,,D01,2017-08-08T10:10:07+06:00,
1000000000436518,77784207222,mAltel,mKcell,mKcell,,D07,2017-08-08T10:19:22+06:00,
1000000000436521,77750093900,mMTS,mKcell,mKcell,,D77,2017-08-08T10:23:35+06:00,
1000000000436522,77771257333,mKcell,mKarTel,mKarTel,,D02,2017-08-08T10:25:32+06:00,
