NPId,Number,RecipientId,DonorId,RangeHolderId,OldRoute,NewRoute,PortDate,RowCount
1000000000285179,77013137973,mAltel,mKcell,mKcell,,D07,2016-11-28T10:30:40+06:00,22
1000000000285180,77024226818,mAltel,mKcell,mKcell,,D07,2016-11-28T10:31:54+06:00,
1000000000285181,77023534292,mMTS,mKcell,mKcell,,D77,2016-11-28T10:32:57+06:00,
1000000000285182,77012523506,mKarTel,mAltel,mKcell,D07,D01,2016-11-28T10:33:29+06:00,
1000000000285183,77015559056,mKarTel,mKcell,mKcell,,D01,2016-11-28T10:34:11+06:00,
1000000000285185,77014445645,mKarTel,mKcell,mKcell,,D01,2016-11-28T10:34:53+06:00,
1000000000285186,77028882577,mMTS,mKcell,mKcell,,D77,2016-11-28T10:34:53+06:00,
1000000000285187,77082236400,mAltel,mMTS,mAltel,D77,D07,2016-11-28T10:35:52+06:00,
1000000000285188,77753066620,mKarTel,mKcell,mKcell,,D01,2016-11-28T10:37:42+06:00,
1000000000285190,77075998343,mAltel,mMTS,mMTS,,D07,2016-11-28T10:38:19+06:00,
1000000000285191,77088880101,mKarTel,mAltel,mAltel,,D01,2016-11-28T10:39:05+06:00,
1000000000285192,77018257117,mKcell,mMTS,mKcell,D77,D02,2016-11-28T10:39:17+06:00,
1000000000285193,77053348889,mMTS,mKarTel,mKarTel,,D77,2016-11-28T10:40:46+06:00,
1000000000285194,77075551919,mKarTel,mMTS,mMTS,,D01,2016-11-28T10:41:00+06:00,
1000000000285195,77088478020,mMTS,mAltel,mAltel,,D77,2016-11-28T10:43:09+06:00,
1000000000285196,77765480048,mAltel,mKarTel,mKarTel,,D07,2016-11-28T10:43:49+06:00,
1000000000285197,77015147484,mKarTel,mKcell,mKcell,,D01,2016-11-28T10:44:26+06:00,
1000000000285201,77759992005,mKarTel,mKcell,mKcell,,D01,2016-11-28T10:49:36+06:00,
1000000000285202,77760060678,mKcell,mKarTel,mKarTel,,D02,2016-11-28T10:51:42+06:00,
1000000000285203,77027220770,mKcell,mKarTel,mKcell,D01,D02,2016-11-28T10:50:08+06:00,
1000000000285204,77017568595,mMTS,mKcell,mKcell,,D77,2016-11-28T10:54:21+06:00,
1000000000285205,77012102277,mKarTel,mKcell,mKcell,,D01,2016-11-28T10:55:21+06:00,
