NPId,Number,RecipientId,DonorId,RangeHolderId,OldRoute,NewRoute,PortDate,RowCount
1000000000003009,77019820335,mAltel,mKcell,mKcell,,D07,2016-01-07T13:01:32+06:00,19
1000000000003011,77775827777,mKcell,mKarTel,mKarTel,,D02,2016-01-07T13:00:07+06:00,
1000000000003013,77778267777,mKcell,mKarTel,mKarTel,,D02,2016-01-07T13:04:35+06:00,
1000000000003014,77012260282,mKarTel,mKcell,mKcell,,D01,2016-01-07T13:04:38+06:00,
1000000000003015,77779995540,mAltel,mKarTel,mKarTel,,D07,2016-01-07T13:05:46+06:00,
1000000000003016,77012552888,mAltel,mKcell,mKcell,,D07,2016-01-07T13:09:03+06:00,
1000000000003017,77019222275,mAltel,mKcell,mKcell,,D07,2016-01-07T13:13:59+06:00,
1000000000003019,77777770248,mAltel,mKarTel,mKarTel,,D07,2016-01-07T13:17:16+06:00,
1000000000003020,77012676132,mAltel,mKcell,mKcell,,D07,2016-01-07T13:20:01+06:00,
1000000000003021,77078149424,mKcell,mMTS,mMTS,,D02,2016-01-07T13:20:23+06:00,
1000000000003022,77000000090,mKcell,mAltel,mAltel,,D02,2016-01-07T13:22:36+06:00,
1000000000003023,77026660660,mAltel,mKcell,mKcell,,D07,2016-01-07T13:23:20+06:00,
1000000000003024,77016665639,mAltel,mKcell,mKcell,,D07,2016-01-07T13:25:09+06:00,
1000000000003025,77029994490,mAltel,mKcell,mKcell,,D07,2016-01-07T13:25:42+06:00,
1000000000003027,77055999995,mAltel,mKarTel,mKarTel,,D07,2016-01-07T13:27:36+06:00,
1000000000003028,77774355556,mAltel,mKarTel,mKarTel,,D07,2016-01-07T13:27:36+06:00,
1000000000003030,77012297016,mKarTel,mKcell,mKcell,,D01,2016-01-07T13:28:49+06:00,
1000000000003031,77710909909,mAltel,mKarTel,mKarTel,,D07,2016-01-07T13:28:59+06:00,
1000000000003032,77015330736,mKarTel,mKcell,mKcell,,D01,2016-01-07T13:29:26+06:00,
