NPId,Number,RecipientId,DonorId,RangeHolderId,OldRoute,NewRoute,PortDate,RowCount
1000000000309616,77773616492,mAltel,mKarTel,mKarTel,,D07,2017-01-12T15:00:10+06:00,35
1000000000309617,77089019001,mKcell,mAltel,mAltel,,D02,2017-01-12T15:00:28+06:00,
1000000000309618,77476532207,mKcell,mMTS,mMTS,,D02,2017-01-12T15:00:47+06:00,
1000000000309619,77759866611,mMTS,mKcell,mKcell,,D77,2017-01-12T15:00:54+06:00,
1000000000309620,77766677000,mMTS,mKarTel,mKarTel,,D77,2017-01-12T15:02:23+06:00,
1000000000309621,77018642402,mKcell,mMTS,mKcell,D77,D02,2017-01-12T15:02:45+06:00,
1000000000309624,77771464450,mKcell,mKarTel,mKarTel,,D02,2017-01-12T15:07:00+06:00,
1000000000309627,77015708098,mKarTel,mKcell,mKcell,,D01,2017-01-12T15:07:07+06:00,
1000000000309629,77017779146,mKcell,mMTS,mKcell,D77,D02,2017-01-12T15:07:46+06:00,
1000000000309630,77712355554,mAltel,mKarTel,mKarTel,,D07,2017-01-12T15:09:22+06:00,
1000000000309631,77715290450,mMTS,mKarTel,mKarTel,,D77,2017-01-12T15:09:46+06:00,
1000000000309632,77009999717,mKarTel,mAltel,mAltel,,D01,2017-01-12T15:10:06+06:00,
1000000000309633,77756066629,mKcell,mKarTel,mKcell,D01,D02,2017-01-12T15:11:18+06:00,
1000000000309635,77029388055,mKarTel,mKcell,mKcell,,D01,2017-01-12T15:11:35+06:00,
1000000000309638,77074011152,mKarTel,mMTS,mMTS,,D01,2017-01-12T15:14:09+06:00,
1000000000309639,77077317314,mKarTel,mMTS,mMTS,,D01,2017-01-12T15:15:32+06:00,
1000000000309640,77003000781,mKcell,mAltel,mAltel,,D02,2017-01-12T15:15:41+06:00,
1000000000309641,77003000972,mKcell,mAltel,mAltel,,D02,2017-01-12T15:18:36+06:00,
1000000000309642,77071992410,mKcell,mMTS,mMTS,,D02,2017-01-12T15:18:09+06:00,
1000000000309643,77003000589,mKcell,mAltel,mAltel,,D02,2017-01-12T15:18:46+06:00,
1000000000309644,77076269669,mAltel,mMTS,mMTS,,D07,2017-01-12T15:18:38+06:00,
1000000000309645,77754271111,mKarTel,mKcell,mKcell,,D01,2017-01-12T15:20:17+06:00,
1000000000309646,77021722172,mAltel,mKcell,mKcell,,D07,2017-01-12T15:20:44+06:00,
1000000000309647,77476003625,mAltel,mMTS,mMTS,D77,D07,2017-01-12T15:21:48+06:00,
1000000000309648,77765722221,mKarTel,mKcell,mKarTel,D02,D01,2017-01-12T15:23:26+06:00,
1000000000309649,77765233336,mKarTel,mKcell,mKarTel,D02,D01,2017-01-12T15:24:22+06:00,
1000000000309650,77003000718,mKcell,mAltel,mAltel,,D02,2017-01-12T15:24:45+06:00,
1000000000309652,77017540156,mKarTel,mKcell,mKcell,,D01,2017-01-12T15:26:16+06:00,
1000000000309653,77077870888,mKcell,mMTS,mMTS,,D02,2017-01-12T15:28:05+06:00,
1000000000309654,77028071188,mKarTel,mMTS,mKcell,D77,D01,2017-01-12T15:26:47+06:00,
1000000000309655,77781429217,mMTS,mKcell,mKcell,,D77,2017-01-12T15:27:49+06:00,
1000000000309656,77076119909,mAltel,mMTS,mMTS,,D07,2017-01-12T15:27:47+06:00,
1000000000309657,77003000971,mKcell,mAltel,mAltel,,D02,2017-01-12T15:28:05+06:00,
1000000000309658,77750006296,mMTS,mKcell,mKcell,,D77,2017-01-12T15:28:12+06:00,
1000000000309659,77085277782,mKarTel,mAltel,mAltel,,D01,2017-01-12T15:29:54+06:00,
