NPId,Number,RecipientId,DonorId,RangeHolderId,OldRoute,NewRoute,PortDate,RowCount
1000000000409510,77013086880,mMTS,mKcell,mKcell,,D77,2017-06-26T10:30:58+06:00,18
1000000000409512,77014044447,mMTS,mKcell,mKcell,,D77,2017-06-26T10:34:54+06:00,
1000000000409513,77754885288,mAltel,mKcell,mKcell,,D07,2017-06-26T10:35:17+06:00,
1000000000409514,77771171811,mKarTel,mMTS,mKarTel,D77,D01,2017-06-26T10:35:26+06:00,
1000000000409515,77758884955,mAltel,mKcell,mKcell,,D07,2017-06-26T10:41:05+06:00,
1000000000409516,77788727071,mMTS,mKcell,mKcell,,D77,2017-06-26T10:41:36+06:00,
1000000000409517,77000002002,mMTS,mKarTel,mAltel,D01,D77,2017-06-26T10:41:56+06:00,
1000000000409518,77787072545,mKarTel,mKcell,mKcell,,D01,2017-06-26T10:42:48+06:00,
1000000000409519,77018799555,mMTS,mKcell,mKcell,,D77,2017-06-26T10:43:43+06:00,
1000000000409520,77021943330,mAltel,mKcell,mKcell,,D07,2017-06-26T10:45:27+06:00,
1000000000409521,77016560818,mKcell,mKarTel,mKcell,D01,D02,2017-06-26T10:46:19+06:00,
1000000000409523,77759080107,mKarTel,mKcell,mKcell,,D01,2017-06-26T10:51:14+06:00,
1000000000409524,77756240788,mMTS,mKcell,mKcell,,D77,2017-06-26T10:51:39+06:00,
1000000000409525,77476689347,mMTS,mKcell,mMTS,D02,D77,2017-06-26T10:51:51+06:00,
1000000000409526,77072005152,mKcell,mMTS,mMTS,,D02,2017-06-26T10:52:13+06:00,
1000000000409528,77775341816,mMTS,mKarTel,mKarTel,,D77,2017-06-26T10:56:02+06:00,
1000000000409529,77079899006,mAltel,mMTS,mMTS,,D07,2017-06-26T10:55:53+06:00,
1000000000409531,77077430854,mMTS,mAltel,mMTS,D07,D77,2017-06-26T10:58:13+06:00,
