NPId,Number,RecipientId,DonorId,RangeHolderId,OldRoute,NewRoute,PortDate,RowCount
1000000000278697,77775777749,mKcell,mKarTel,mKarTel,,D02,2016-11-13T18:31:43+06:00,3
1000000000278698,77753026629,mKcell,mMTS,mKcell,D77,D02,2016-11-13T18:46:17+06:00,
1000000000278699,77011114363,mKcell,mMTS,mKcell,D77,D02,2016-11-13T18:50:25+06:00,
