NPId,Number,RecipientId,DonorId,RangeHolderId,OldRoute,NewRoute,PortDate,RowCount
1000000000279912,77029973689,mAltel,mKcell,mKcell,,D07,2016-11-16T13:31:04+06:00,20
1000000000279913,77011647102,mKarTel,mMTS,mKcell,D77,D01,2016-11-16T13:32:45+06:00,
1000000000279914,77012710089,mAltel,mKcell,mKcell,,D07,2016-11-16T13:33:58+06:00,
1000000000279915,77015162987,mKarTel,mKcell,mKcell,,D01,2016-11-16T13:35:36+06:00,
1000000000279917,77756737810,mAltel,mKcell,mKcell,,D07,2016-11-16T13:36:25+06:00,
1000000000279918,77059747474,mMTS,mKarTel,mKarTel,,D77,2016-11-16T13:37:53+06:00,
1000000000279919,77000121212,mKarTel,mAltel,mAltel,,D01,2016-11-16T13:38:01+06:00,
1000000000279920,77752488929,mKcell,mMTS,mKcell,D77,D02,2016-11-16T13:38:38+06:00,
1000000000279921,77774933333,mMTS,mKcell,mKarTel,D02,D77,2016-11-16T13:42:39+06:00,
1000000000279923,77478669467,mMTS,mKarTel,mMTS,D01,D77,2016-11-16T13:44:02+06:00,
1000000000279925,77017015823,mKarTel,mKcell,mKcell,,D01,2016-11-16T13:46:06+06:00,
1000000000279926,77753077718,mKarTel,mKcell,mKcell,,D01,2016-11-16T13:48:28+06:00,
1000000000279927,77778000606,mAltel,mKarTel,mKarTel,,D07,2016-11-16T13:48:49+06:00,
1000000000279929,77012965500,mKcell,mMTS,mKcell,D77,D02,2016-11-16T13:51:24+06:00,
1000000000279930,77755677350,mMTS,mKcell,mKcell,,D77,2016-11-16T13:52:41+06:00,
1000000000279931,77019184213,mMTS,mKcell,mKcell,,D77,2016-11-16T13:52:49+06:00,
1000000000279932,77781664708,mMTS,mKcell,mKcell,,D77,2016-11-16T13:52:49+06:00,
1000000000279933,77751574123,mMTS,mKcell,mKcell,,D77,2016-11-16T13:52:49+06:00,
1000000000279935,77023097477,mMTS,mKcell,mKcell,D02,D77,2016-11-16T13:57:07+06:00,
1000000000279937,77028577934,mMTS,mKcell,mKcell,,D77,2016-11-16T13:59:12+06:00,
