NPId,Number,RecipientId,DonorId,RangeHolderId,OldRoute,NewRoute,PortDate,RowCount
1000000000271796,77778688245,mMTS,mKarTel,mKarTel,,D77,2016-11-08T15:19:27+06:00,27
1000000000271809,77004563333,mMTS,mKarTel,mAltel,D01,D77,2016-11-08T15:19:30+06:00,
1000000000271830,77025053051,mMTS,mKcell,mKcell,,D77,2016-11-08T15:19:39+06:00,
1000000000271871,77058311888,mMTS,mKarTel,mKarTel,,D77,2016-11-08T15:19:47+06:00,
1000000000271949,77714026797,mMTS,mKarTel,mKarTel,,D77,2016-11-08T15:19:18+06:00,
1000000000276036,77019884489,mAltel,mKcell,mKcell,,D07,2016-11-08T15:00:12+06:00,
1000000000276038,77015212699,mMTS,mKcell,mKcell,,D77,2016-11-08T15:00:47+06:00,
1000000000276041,77770010799,mKcell,mKarTel,mKarTel,,D02,2016-11-08T15:06:44+06:00,
1000000000276042,77015343651,mKcell,mMTS,mKcell,D77,D02,2016-11-08T15:06:20+06:00,
1000000000276043,77081817074,mKarTel,mAltel,mAltel,,D01,2016-11-08T15:08:12+06:00,
1000000000276044,77713418363,mAltel,mKarTel,mKarTel,,D07,2016-11-08T15:08:50+06:00,
1000000000276045,77015343652,mKcell,mMTS,mKcell,D77,D02,2016-11-08T15:10:10+06:00,
1000000000276048,77017226777,mAltel,mKcell,mKcell,,D07,2016-11-08T15:12:41+06:00,
1000000000276049,77058888588,mKcell,mKarTel,mKarTel,,D02,2016-11-08T15:14:09+06:00,
1000000000276050,77755608410,mMTS,mKcell,mKcell,,D77,2016-11-08T15:15:13+06:00,
1000000000276052,77774183314,mKarTel,mMTS,mKarTel,D77,D01,2016-11-08T15:16:16+06:00,
1000000000276053,77757455715,mMTS,mKcell,mKcell,,D77,2016-11-08T15:16:32+06:00,
1000000000276057,77785111271,mKarTel,mKcell,mKcell,,D01,2016-11-08T15:19:20+06:00,
1000000000276059,77078208778,mKarTel,mMTS,mMTS,,D01,2016-11-08T15:19:59+06:00,
1000000000276060,77072007576,mKcell,mMTS,mMTS,,D02,2016-11-08T15:22:10+06:00,
1000000000276062,77765879007,mMTS,mKarTel,mKarTel,,D77,2016-11-08T15:23:20+06:00,
1000000000276063,77085243997,mKcell,mAltel,mAltel,,D02,2016-11-08T15:23:20+06:00,
1000000000276064,77054080077,mMTS,mKarTel,mKarTel,,D77,2016-11-08T15:23:57+06:00,
1000000000276065,77024403469,mMTS,mKcell,mKcell,,D77,2016-11-08T15:23:51+06:00,
1000000000276066,77074009083,mMTS,mKcell,mMTS,D02,D77,2016-11-08T15:26:03+06:00,
1000000000276067,77476286767,mKcell,mMTS,mMTS,,D02,2016-11-08T15:27:16+06:00,
1000000000276068,77013443464,mMTS,mKarTel,mKcell,D01,D77,2016-11-08T15:29:34+06:00,
