NPId,Number,RecipientId,DonorId,RangeHolderId,OldRoute,NewRoute,PortDate,RowCount
1000000000316092,77781001002,mKarTel,mMTS,mKcell,D77,D01,2017-01-25T10:02:32+06:00,17
1000000000316093,77017789799,mMTS,mKcell,mKcell,,D77,2017-01-25T10:02:50+06:00,
1000000000316094,77779019111,mKarTel,mMTS,mKarTel,D77,D01,2017-01-25T10:03:08+06:00,
1000000000316095,77786850330,mKarTel,mKcell,mKcell,,D01,2017-01-25T10:05:17+06:00,
1000000000316096,77078418756,mKarTel,mMTS,mMTS,,D01,2017-01-25T10:07:18+06:00,
1000000000316097,77017239475,mAltel,mKcell,mKcell,,D07,2017-01-25T10:08:49+06:00,
1000000000316099,77001777382,mKarTel,mAltel,mAltel,,D01,2017-01-25T10:09:43+06:00,
1000000000316100,77012530108,mMTS,mKcell,mKcell,,D77,2017-01-25T10:10:05+06:00,
1000000000316101,77017076645,mKarTel,mKcell,mKcell,,D01,2017-01-25T10:10:35+06:00,
1000000000316102,77774512328,mKarTel,mMTS,mKarTel,D77,D01,2017-01-25T10:11:02+06:00,
1000000000316103,77715743322,mAltel,mKarTel,mKarTel,,D07,2017-01-25T10:15:15+06:00,
1000000000316105,77015953060,mKcell,mAltel,mKcell,D07,D02,2017-01-25T10:21:28+06:00,
1000000000316107,77082820877,mKcell,mAltel,mAltel,,D02,2017-01-25T10:24:47+06:00,
1000000000316109,77019817959,mMTS,mKcell,mKcell,,D77,2017-01-25T10:25:33+06:00,
1000000000316110,77054720736,mKarTel,mMTS,mKarTel,D77,D01,2017-01-25T10:27:08+06:00,
1000000000316111,77023577842,mMTS,mKcell,mKcell,,D77,2017-01-25T10:27:06+06:00,
1000000000316113,77017270086,mKarTel,mKcell,mKcell,,D01,2017-01-25T10:28:33+06:00,
