NPId,Number,RecipientId,DonorId,RangeHolderId,OldRoute,NewRoute,PortDate,RowCount
1000000000168682,77017568554,mKcell,mMTS,mKcell,D77,D02,2016-05-06T09:35:12+06:00,12
1000000000168686,77087729933,mMTS,mAltel,mAltel,,D77,2016-05-06T09:42:06+06:00,
1000000000168687,77081007382,mKcell,mAltel,mAltel,,D02,2016-05-06T09:44:51+06:00,
1000000000168688,77078606669,mMTS,mAltel,mMTS,D07,D77,2016-05-06T09:44:21+06:00,
1000000000168689,77470518005,mKcell,mAltel,mMTS,D07,D02,2016-05-06T09:47:00+06:00,
1000000000168691,77076879952,mKcell,mMTS,mMTS,,D02,2016-05-06T09:58:18+06:00,
1000000000168691,77076880125,mKcell,mMTS,mMTS,,D02,2016-05-06T09:58:18+06:00,
1000000000168691,77076880127,mKcell,mMTS,mMTS,,D02,2016-05-06T09:58:18+06:00,
1000000000168691,77076880136,mKcell,mMTS,mMTS,,D02,2016-05-06T09:58:18+06:00,
1000000000168691,77076880181,mKcell,mMTS,mMTS,,D02,2016-05-06T09:58:18+06:00,
1000000000168691,77076880286,mKcell,mMTS,mMTS,,D02,2016-05-06T09:58:18+06:00,
1000000000168691,77479300642,mKcell,mMTS,mMTS,,D02,2016-05-06T09:58:18+06:00,
