NPId,Number,RecipientId,DonorId,RangeHolderId,OldRoute,NewRoute,PortDate,RowCount
1000000000386796,77755615299,mKarTel,mMTS,mKcell,D77,D01,2017-05-22T09:38:10+06:00,8
1000000000386797,77779330676,mMTS,mKarTel,mKarTel,,D77,2017-05-22T09:41:57+06:00,
1000000000386798,77075126481,mKarTel,mMTS,mMTS,,D01,2017-05-22T09:44:57+06:00,
1000000000386799,77774603539,mMTS,mKarTel,mKarTel,,D77,2017-05-22T09:49:22+06:00,
1000000000386800,77015000896,mKcell,mAltel,mKcell,D07,D02,2017-05-22T09:50:16+06:00,
1000000000386802,77085287919,mKcell,mAltel,mAltel,,D02,2017-05-22T09:57:59+06:00,
1000000000386803,77762128857,mMTS,mKarTel,mKarTel,,D77,2017-05-22T09:59:24+06:00,
1000000000386804,77783777738,mMTS,mKcell,mKcell,,D77,2017-05-22T09:59:30+06:00,
