NPId,Number,RecipientId,DonorId,RangeHolderId,OldRoute,NewRoute,PortDate,RowCount
1000000000406594,77079252552,mKcell,mMTS,mMTS,,D02,2017-06-20T20:23:23+06:00,3
1000000000406595,77477538776,mKcell,mMTS,mMTS,,D02,2017-06-20T20:24:25+06:00,
1000000000406596,77079252535,mKcell,mMTS,mMTS,,D02,2017-06-20T20:27:11+06:00,
