NPId,Number,RecipientId,DonorId,RangeHolderId,OldRoute,NewRoute,PortDate,RowCount
1000000000266817,77019870744,mMTS,mKcell,mKcell,,D77,2016-10-23T13:02:46+06:00,14
1000000000266818,77472101121,mAltel,mMTS,mMTS,,D07,2016-10-23T13:04:10+06:00,
1000000000266820,77774490314,mAltel,mMTS,mKarTel,D77,D07,2016-10-23T13:07:53+06:00,
1000000000266821,77026799937,mMTS,mKcell,mKcell,,D77,2016-10-23T13:08:19+06:00,
1000000000266823,77073740888,mKarTel,mMTS,mMTS,,D01,2016-10-23T13:10:00+06:00,
1000000000266824,77051879071,mAltel,mKarTel,mKarTel,,D07,2016-10-23T13:10:19+06:00,
1000000000266825,77011114429,mMTS,mKcell,mKcell,,D77,2016-10-23T13:12:00+06:00,
1000000000266827,77019627308,mKarTel,mKcell,mKcell,,D01,2016-10-23T13:16:29+06:00,
1000000000266828,77026354500,mMTS,mKcell,mKcell,,D77,2016-10-23T13:16:54+06:00,
1000000000266829,77019627309,mKarTel,mKcell,mKcell,,D01,2016-10-23T13:19:43+06:00,
1000000000266831,77078772444,mAltel,mMTS,mMTS,D77,D07,2016-10-23T13:25:44+06:00,
1000000000266832,77013447666,mMTS,mKcell,mKcell,,D77,2016-10-23T13:27:18+06:00,
1000000000266833,77018051019,mMTS,mKcell,mKcell,,D77,2016-10-23T13:27:36+06:00,
1000000000266834,77012832869,mKarTel,mKcell,mKcell,,D01,2016-10-23T13:28:28+06:00,
