NPId,Number,RecipientId,DonorId,RangeHolderId,OldRoute,NewRoute,PortDate,RowCount
1000000000309660,77765611110,mKarTel,mKcell,mKarTel,D02,D01,2017-01-12T15:30:09+06:00,28
1000000000309661,77771749658,mMTS,mKarTel,mKarTel,,D77,2017-01-12T15:31:12+06:00,
1000000000309662,77029959585,mMTS,mKcell,mKcell,,D77,2017-01-12T15:32:57+06:00,
1000000000309663,77002022032,mKarTel,mAltel,mAltel,,D01,2017-01-12T15:33:35+06:00,
1000000000309664,77772022032,mKarTel,mAltel,mKarTel,D07,D01,2017-01-12T15:34:51+06:00,
1000000000309665,77076860024,mKarTel,mMTS,mMTS,,D01,2017-01-12T15:36:03+06:00,
1000000000309668,77029993318,mKarTel,mKcell,mKcell,,D01,2017-01-12T15:36:51+06:00,
1000000000309669,77057965839,mMTS,mKarTel,mKarTel,,D77,2017-01-12T15:38:05+06:00,
1000000000309670,77786748661,mKcell,mKarTel,mKcell,D01,D02,2017-01-12T15:39:10+06:00,
1000000000309671,77767906565,mKcell,mKarTel,mKarTel,,D02,2017-01-12T15:40:57+06:00,
1000000000309672,77012224779,mAltel,mKcell,mKcell,,D07,2017-01-12T15:40:07+06:00,
1000000000309673,77015736367,mKcell,mMTS,mKcell,D77,D02,2017-01-12T15:41:22+06:00,
1000000000309674,77752179897,mMTS,mKcell,mKcell,,D77,2017-01-12T15:42:48+06:00,
1000000000309675,77785558811,mMTS,mKcell,mKcell,D02,D77,2017-01-12T15:43:27+06:00,
1000000000309676,77024040170,mKcell,mKarTel,mKcell,D01,D02,2017-01-12T15:45:45+06:00,
1000000000309677,77760626660,mMTS,mKarTel,mKarTel,,D77,2017-01-12T15:45:47+06:00,
1000000000309678,77774968236,mMTS,mKarTel,mKarTel,,D77,2017-01-12T15:47:58+06:00,
1000000000309679,77054059028,mMTS,mKarTel,mKarTel,,D77,2017-01-12T15:49:09+06:00,
1000000000309680,77021262021,mMTS,mKcell,mKcell,,D77,2017-01-12T15:49:07+06:00,
1000000000309681,77471884922,mKarTel,mMTS,mMTS,,D01,2017-01-12T15:50:26+06:00,
1000000000309683,77004000983,mKcell,mAltel,mAltel,,D02,2017-01-12T15:52:19+06:00,
1000000000309684,77079438787,mKcell,mMTS,mMTS,,D02,2017-01-12T15:52:25+06:00,
1000000000309686,77007770018,mKcell,mAltel,mAltel,,D02,2017-01-12T15:55:06+06:00,
1000000000309687,77058193402,mKarTel,mMTS,mKarTel,D77,D01,2017-01-12T15:56:13+06:00,
1000000000309688,77004000293,mKcell,mAltel,mAltel,,D02,2017-01-12T15:56:28+06:00,
1000000000309689,77078033662,mAltel,mKcell,mMTS,D02,D07,2017-01-12T15:56:34+06:00,
1000000000309691,77088153692,mMTS,mAltel,mAltel,D07,D77,2017-01-12T15:57:37+06:00,
1000000000309693,77010811001,mKarTel,mKcell,mKcell,,D01,2017-01-12T15:58:53+06:00,
