NPId,Number,RecipientId,DonorId,RangeHolderId,OldRoute,NewRoute,PortDate,RowCount
1000000000241092,77712921888,mKcell,mKarTel,mKarTel,,D02,2016-09-06T14:17:20+06:00,11
1000000000241093,77051151001,mKcell,mKarTel,mKarTel,,D02,2016-09-06T14:21:06+06:00,
1000000000241161,77017286696,mKarTel,mKcell,mKcell,,D01,2016-09-06T14:01:57+06:00,
1000000000241164,77780007895,mKcell,mAltel,mKcell,D07,D02,2016-09-06T14:04:32+06:00,
1000000000241165,77752228800,mKarTel,mKcell,mKcell,,D01,2016-09-06T14:05:26+06:00,
1000000000241166,77769991133,mKarTel,mAltel,mKarTel,D07,D01,2016-09-06T14:06:16+06:00,
1000000000241168,77017311823,mKarTel,mKcell,mKcell,,D01,2016-09-06T14:07:51+06:00,
1000000000241174,77005335555,mKarTel,mAltel,mAltel,,D01,2016-09-06T14:15:41+06:00,
1000000000241175,77779997117,mKcell,mKarTel,mKarTel,,D02,2016-09-06T14:18:48+06:00,
1000000000241176,77019324323,mKarTel,mKcell,mKcell,,D01,2016-09-06T14:20:37+06:00,
1000000000241180,77087040023,mKarTel,mAltel,mAltel,,D01,2016-09-06T14:29:17+06:00,
