NPId,Number,RecipientId,DonorId,RangeHolderId,OldRoute,NewRoute,PortDate,RowCount
1000000000403721,77020111196,mKcell,mAltel,mKcell,D07,D02,2017-06-15T14:01:09+06:00,22
1000000000403722,77474339550,mAltel,mMTS,mMTS,,D07,2017-06-15T14:01:09+06:00,
1000000000403723,77074698797,mMTS,mKarTel,mMTS,D01,D77,2017-06-15T14:01:34+06:00,
1000000000403724,77752259881,mAltel,mKcell,mKcell,,D07,2017-06-15T14:02:28+06:00,
1000000000403725,77078710000,mKarTel,mMTS,mMTS,,D01,2017-06-15T14:04:23+06:00,
1000000000403727,77776657111,mAltel,mKarTel,mKarTel,,D07,2017-06-15T14:11:14+06:00,
1000000000403728,77023573114,mKcell,mMTS,mKcell,D77,D02,2017-06-15T14:11:27+06:00,
1000000000403729,77089120460,mKcell,mAltel,mAltel,,D02,2017-06-15T14:11:30+06:00,
1000000000403730,77786146414,mMTS,mKcell,mKcell,,D77,2017-06-15T14:11:39+06:00,
1000000000403732,77058517604,mKcell,mKarTel,mKarTel,,D02,2017-06-15T14:14:01+06:00,
1000000000403734,77015663746,mKarTel,mAltel,mKcell,D07,D01,2017-06-15T14:14:27+06:00,
1000000000403735,77019099973,mKarTel,mMTS,mKcell,D77,D01,2017-06-15T14:15:19+06:00,
1000000000403736,77479402265,mKarTel,mMTS,mMTS,,D01,2017-06-15T14:16:04+06:00,
1000000000403738,77758884447,mKcell,mKarTel,mKcell,D01,D02,2017-06-15T14:17:14+06:00,
1000000000403740,77475085871,mKarTel,mMTS,mMTS,,D01,2017-06-15T14:18:21+06:00,
1000000000403741,77023331814,mMTS,mKcell,mKcell,,D77,2017-06-15T14:18:46+06:00,
1000000000403742,77752424398,mAltel,mKcell,mKcell,,D07,2017-06-15T14:20:44+06:00,
1000000000403743,77776120022,mKcell,mKarTel,mKarTel,,D02,2017-06-15T14:21:51+06:00,
1000000000403745,77770777780,mKcell,mKarTel,mKarTel,,D02,2017-06-15T14:22:40+06:00,
1000000000403747,77718438787,mKcell,mKarTel,mKarTel,,D02,2017-06-15T14:24:02+06:00,
1000000000403748,77002221014,mAltel,mKarTel,mAltel,D01,D07,2017-06-15T14:24:13+06:00,
1000000000403750,77082360547,mKarTel,mAltel,mAltel,,D01,2017-06-15T14:25:40+06:00,
