NPId,Number,RecipientId,DonorId,RangeHolderId,OldRoute,NewRoute,PortDate,RowCount
1000000000253531,77019378001,mKarTel,mKcell,mKcell,,D01,2016-09-30T14:16:13+06:00,31
1000000000253531,77019561610,mKarTel,mKcell,mKcell,,D01,2016-09-30T14:16:13+06:00,
1000000000253987,77054074074,mKcell,mKarTel,mKarTel,,D02,2016-09-30T14:00:02+06:00,
1000000000253989,77011212919,mKcell,mKarTel,mKcell,D01,D02,2016-09-30T14:00:23+06:00,
1000000000253990,77776536112,mMTS,mKarTel,mKarTel,,D77,2016-09-30T14:00:23+06:00,
1000000000253993,77472040056,mKarTel,mMTS,mMTS,,D01,2016-09-30T14:02:00+06:00,
1000000000253995,77055991979,mKcell,mKarTel,mKarTel,,D02,2016-09-30T14:03:51+06:00,
1000000000253997,77775456501,mKcell,mKarTel,mKarTel,,D02,2016-09-30T14:05:01+06:00,
1000000000253998,77018027785,mKcell,mKarTel,mKcell,D01,D02,2016-09-30T14:04:58+06:00,
1000000000253999,77053299670,mMTS,mKarTel,mKarTel,,D77,2016-09-30T14:07:58+06:00,
1000000000254000,77471337796,mKcell,mMTS,mMTS,,D02,2016-09-30T14:07:44+06:00,
1000000000254001,77778646488,mAltel,mKarTel,mKarTel,,D07,2016-09-30T14:08:39+06:00,
1000000000254002,77770496868,mKcell,mKarTel,mKarTel,,D02,2016-09-30T14:09:53+06:00,
1000000000254003,77079949401,mKarTel,mMTS,mMTS,,D01,2016-09-30T14:09:23+06:00,
1000000000254005,77077051060,mKarTel,mMTS,mMTS,,D01,2016-09-30T14:09:33+06:00,
1000000000254007,77051202337,mKcell,mKarTel,mKarTel,,D02,2016-09-30T14:10:48+06:00,
1000000000254009,77055609558,mMTS,mKarTel,mKarTel,,D77,2016-09-30T14:13:02+06:00,
1000000000254010,77074145000,mKarTel,mMTS,mMTS,,D01,2016-09-30T14:14:06+06:00,
1000000000254012,77476484573,mKcell,mMTS,mMTS,,D02,2016-09-30T14:15:55+06:00,
1000000000254013,77011112511,mAltel,mKcell,mKcell,,D07,2016-09-30T14:16:47+06:00,
1000000000254014,77754987042,mMTS,mKcell,mKcell,,D77,2016-09-30T14:16:59+06:00,
1000000000254015,77712824023,mKcell,mKarTel,mKarTel,,D02,2016-09-30T14:17:30+06:00,
1000000000254016,77783014319,mMTS,mKcell,mKcell,,D77,2016-09-30T14:17:32+06:00,
1000000000254017,77051114404,mMTS,mKarTel,mKarTel,,D77,2016-09-30T14:18:24+06:00,
1000000000254018,77774977921,mKcell,mKarTel,mKarTel,,D02,2016-09-30T14:19:52+06:00,
1000000000254019,77071419971,mAltel,mMTS,mMTS,,D07,2016-09-30T14:19:55+06:00,
1000000000254022,77776661900,mKcell,mKarTel,mKarTel,,D02,2016-09-30T14:22:02+06:00,
1000000000254023,77753744344,mMTS,mKcell,mKcell,,D77,2016-09-30T14:25:03+06:00,
1000000000254024,77015500552,mKarTel,mKcell,mKcell,,D01,2016-09-30T14:26:32+06:00,
1000000000254025,77055589090,mKarTel,mMTS,mKarTel,D77,D01,2016-09-30T14:26:43+06:00,
1000000000254027,77077743878,mMTS,mKarTel,mMTS,D01,D77,2016-09-30T14:29:11+06:00,
