NPId,Number,RecipientId,DonorId,RangeHolderId,OldRoute,NewRoute,PortDate,RowCount
1000000000245178,77071448524,mMTS,mAltel,mMTS,D07,D77,2016-09-14T12:00:24+06:00,19
1000000000245179,77787003999,mMTS,mKcell,mKcell,,D77,2016-09-14T12:00:30+06:00,
1000000000245180,77717582154,mKcell,mKarTel,mKarTel,,D02,2016-09-14T12:03:07+06:00,
1000000000245181,77010878888,mKarTel,mAltel,mKcell,D07,D01,2016-09-14T12:02:06+06:00,
1000000000245182,77014489992,mAltel,mKcell,mKcell,,D07,2016-09-14T12:02:36+06:00,
1000000000245183,77775383333,mKarTel,mMTS,mKarTel,D77,D01,2016-09-14T12:04:20+06:00,
1000000000245184,77017698494,mKcell,mMTS,mKcell,D77,D02,2016-09-14T12:05:03+06:00,
1000000000245187,77013415038,mKcell,mMTS,mKcell,D77,D02,2016-09-14T12:15:00+06:00,
1000000000245188,77014976901,mMTS,mAltel,mKcell,D07,D77,2016-09-14T12:15:41+06:00,
1000000000245190,77015869272,mKarTel,mKcell,mKcell,,D01,2016-09-14T12:21:17+06:00,
1000000000245191,77477252301,mKcell,mMTS,mMTS,,D02,2016-09-14T12:22:22+06:00,
1000000000245192,77054223548,mMTS,mKarTel,mKarTel,,D77,2016-09-14T12:24:32+06:00,
1000000000245194,77753811469,mKcell,mMTS,mKcell,D77,D02,2016-09-14T12:23:29+06:00,
1000000000245195,77018443328,mAltel,mKcell,mKcell,,D07,2016-09-14T12:24:30+06:00,
1000000000245196,77073910699,mKarTel,mMTS,mMTS,,D01,2016-09-14T12:25:22+06:00,
1000000000245197,77717588569,mKcell,mKarTel,mKarTel,,D02,2016-09-14T12:27:11+06:00,
1000000000245198,77029046672,mKcell,mMTS,mKcell,D77,D02,2016-09-14T12:25:28+06:00,
1000000000245199,77026021226,mKcell,mMTS,mKcell,D77,D02,2016-09-14T12:26:10+06:00,
1000000000245200,77718488759,mMTS,mKarTel,mKarTel,,D77,2016-09-14T12:29:37+06:00,
