NPId,Number,RecipientId,DonorId,RangeHolderId,OldRoute,NewRoute,PortDate,RowCount
1000000000417983,77082959898,mMTS,mAltel,mAltel,,D77,2017-07-07T15:00:49+06:00,19
1000000000417984,77076113353,mKarTel,mMTS,mMTS,,D01,2017-07-07T15:01:36+06:00,
1000000000417985,77713111313,mKcell,mKarTel,mKarTel,,D02,2017-07-07T15:07:01+06:00,
1000000000417987,77075757735,mKcell,mMTS,mMTS,,D02,2017-07-07T15:06:54+06:00,
1000000000417988,77077639727,mKarTel,mMTS,mMTS,,D01,2017-07-07T15:08:54+06:00,
1000000000417989,77011478156,mMTS,mKcell,mKcell,,D77,2017-07-07T15:09:35+06:00,
1000000000417991,77011937791,mAltel,mKcell,mKcell,,D07,2017-07-07T15:10:31+06:00,
1000000000417994,77000002812,mMTS,mAltel,mAltel,,D77,2017-07-07T15:15:21+06:00,
1000000000417995,77762548012,mMTS,mKarTel,mKarTel,,D77,2017-07-07T15:17:38+06:00,
1000000000417996,77053333450,mKcell,mKarTel,mKarTel,,D02,2017-07-07T15:18:49+06:00,
1000000000417997,77079179555,mKarTel,mMTS,mMTS,,D01,2017-07-07T15:20:51+06:00,
1000000000417999,77789997301,mKcell,mAltel,mKcell,D07,D02,2017-07-07T15:21:59+06:00,
1000000000418000,77057268404,mKcell,mKarTel,mKarTel,,D02,2017-07-07T15:24:40+06:00,
1000000000418001,77015314120,mMTS,mKcell,mKcell,,D77,2017-07-07T15:25:06+06:00,
1000000000418002,77004580798,mMTS,mAltel,mAltel,,D77,2017-07-07T15:26:08+06:00,
1000000000418004,77751013726,mMTS,mKcell,mKcell,,D77,2017-07-07T15:26:59+06:00,
1000000000418005,77015289177,mMTS,mKcell,mKcell,,D77,2017-07-07T15:27:24+06:00,
1000000000418006,77077776801,mAltel,mMTS,mMTS,,D07,2017-07-07T15:29:04+06:00,
1000000000418007,77772472777,mKarTel,mAltel,mKarTel,D07,D01,2017-07-07T15:29:35+06:00,
