NPId,Number,RecipientId,DonorId,RangeHolderId,OldRoute,NewRoute,PortDate,RowCount
1000000000138970,77787788788,mKarTel,mKcell,mKcell,,D01,2016-04-01T10:31:28+06:00,29
1000000000138972,77014001056,mMTS,mKcell,mKcell,,D77,2016-04-01T10:32:39+06:00,
1000000000138973,77022105652,mKcell,mKarTel,mKcell,D01,D02,2016-04-01T10:34:57+06:00,
1000000000138974,77775077235,mAltel,mKarTel,mKarTel,,D07,2016-04-01T10:34:42+06:00,
1000000000138975,77782821111,mMTS,mKcell,mKcell,,D77,2016-04-01T10:33:39+06:00,
1000000000138976,77770101020,mMTS,mKarTel,mKarTel,,D77,2016-04-01T10:34:46+06:00,
1000000000138979,77779543434,mMTS,mKarTel,mKarTel,,D77,2016-04-01T10:37:07+06:00,
1000000000138980,77478971230,mKarTel,mMTS,mMTS,,D01,2016-04-01T10:36:36+06:00,
1000000000138982,77015884569,mMTS,mKcell,mKcell,,D77,2016-04-01T10:37:19+06:00,
1000000000138983,77017483540,mMTS,mKcell,mKcell,,D77,2016-04-01T10:39:20+06:00,
1000000000138985,77765555300,mKcell,mKarTel,mKarTel,,D02,2016-04-01T10:41:19+06:00,
1000000000138987,77017551737,mMTS,mKcell,mKcell,,D77,2016-04-01T10:40:38+06:00,
1000000000138989,77770101018,mMTS,mKarTel,mKarTel,,D77,2016-04-01T10:43:19+06:00,
1000000000138991,77089032546,mMTS,mAltel,mAltel,,D77,2016-04-01T10:42:27+06:00,
1000000000138992,77075557655,mKarTel,mMTS,mMTS,,D01,2016-04-01T10:43:17+06:00,
1000000000138993,77023424677,mKcell,mKarTel,mKcell,D01,D02,2016-04-01T10:48:09+06:00,
1000000000138994,77021914757,mKcell,mMTS,mKcell,D77,D02,2016-04-01T10:47:14+06:00,
1000000000138996,77081098699,mMTS,mAltel,mAltel,,D77,2016-04-01T10:46:51+06:00,
1000000000138997,77054129132,mMTS,mKarTel,mKarTel,,D77,2016-04-01T10:48:21+06:00,
1000000000138998,77752963854,mMTS,mKcell,mKcell,,D77,2016-04-01T10:48:11+06:00,
1000000000138999,77776236262,mAltel,mKarTel,mKarTel,,D07,2016-04-01T10:48:23+06:00,
1000000000139001,77770092727,mMTS,mKarTel,mKarTel,,D77,2016-04-01T10:48:53+06:00,
1000000000139003,77019891385,mMTS,mKcell,mKcell,,D77,2016-04-01T10:48:45+06:00,
1000000000139004,77085336803,mMTS,mAltel,mAltel,,D77,2016-04-01T10:48:29+06:00,
1000000000139005,77776516669,mMTS,mKarTel,mKarTel,,D77,2016-04-01T10:49:51+06:00,
1000000000139007,77718331456,mMTS,mKarTel,mKarTel,,D77,2016-04-01T10:51:42+06:00,
1000000000139011,77058886654,mMTS,mKarTel,mKarTel,,D77,2016-04-01T10:55:25+06:00,
1000000000139013,77017227610,mKarTel,mKcell,mKcell,,D01,2016-04-01T10:55:52+06:00,
1000000000139015,77002339211,mMTS,mAltel,mAltel,,D77,2016-04-01T10:56:56+06:00,
