NPId,Number,RecipientId,DonorId,RangeHolderId,OldRoute,NewRoute,PortDate,RowCount
1000000000334638,77059944799,mMTS,mKarTel,mKarTel,,D77,2017-02-24T20:32:13+06:00,7
1000000000334639,77001006171,mKcell,mAltel,mAltel,,D02,2017-02-24T20:32:26+06:00,
1000000000334640,77001009121,mKcell,mAltel,mAltel,,D02,2017-02-24T20:34:17+06:00,
1000000000334641,77001008767,mKcell,mAltel,mAltel,,D02,2017-02-24T20:37:16+06:00,
1000000000334642,77001003141,mKcell,mAltel,mAltel,,D02,2017-02-24T20:37:23+06:00,
1000000000334643,77027938202,mAltel,mKcell,mKcell,,D07,2017-02-24T20:43:54+06:00,
1000000000334644,77771116106,mMTS,mKarTel,mKarTel,,D77,2017-02-24T20:55:02+06:00,
