NPId,Number,RecipientId,DonorId,RangeHolderId,OldRoute,NewRoute,PortDate,RowCount
1000000000302499,77003450025,mMTS,mAltel,mAltel,,D77,2016-12-28T18:30:17+06:00,11
1000000000302500,77014070389,mKarTel,mKcell,mKcell,,D01,2016-12-28T18:31:11+06:00,
1000000000302502,77017770226,mMTS,mKcell,mKcell,,D77,2016-12-28T18:34:17+06:00,
1000000000302503,77718861470,mMTS,mKarTel,mKarTel,,D77,2016-12-28T18:38:24+06:00,
1000000000302506,77077778585,mKarTel,mMTS,mMTS,,D01,2016-12-28T18:44:19+06:00,
1000000000302507,77017461718,mMTS,mKcell,mKcell,,D77,2016-12-28T18:47:42+06:00,
1000000000302509,77071148719,mKcell,mMTS,mMTS,,D02,2016-12-28T18:54:27+06:00,
1000000000302510,77015317965,mMTS,mKcell,mKcell,,D77,2016-12-28T18:57:50+06:00,
1000000000302511,77053787190,mMTS,mKarTel,mKarTel,,D77,2016-12-28T18:55:42+06:00,
1000000000302513,77024760892,mMTS,mKcell,mKcell,,D77,2016-12-28T18:57:27+06:00,
1000000000302514,77076211000,mMTS,mAltel,mMTS,D07,D77,2016-12-28T18:59:36+06:00,
