NPId,Number,RecipientId,DonorId,RangeHolderId,OldRoute,NewRoute,PortDate,RowCount
1000000000212574,77070406001,mKarTel,mMTS,mMTS,,D01,2016-07-17T10:01:26+06:00,2
1000000000212576,77009173977,mMTS,mAltel,mAltel,,D77,2016-07-17T10:12:49+06:00,
