NPId,Number,RecipientId,DonorId,RangeHolderId,OldRoute,NewRoute,PortDate,RowCount
1000000000301007,77019626792,mKarTel,mKcell,mKcell,,D01,2016-12-26T16:30:14+06:00,33
1000000000301008,77776619170,mKcell,mKarTel,mKarTel,,D02,2016-12-26T16:31:19+06:00,
1000000000301009,77088990629,mMTS,mAltel,mAltel,,D77,2016-12-26T16:32:38+06:00,
1000000000301010,77021105075,mKcell,mKarTel,mKcell,D01,D02,2016-12-26T16:33:47+06:00,
1000000000301011,77004007485,mAltel,mMTS,mAltel,D77,D07,2016-12-26T16:33:29+06:00,
1000000000301012,77764457775,mMTS,mKarTel,mKarTel,,D77,2016-12-26T16:33:53+06:00,
1000000000301013,77019933426,mAltel,mKcell,mKcell,,D07,2016-12-26T16:34:07+06:00,
1000000000301014,77013476333,mMTS,mKcell,mKcell,,D77,2016-12-26T16:34:25+06:00,
1000000000301017,77012228599,mKarTel,mKcell,mKcell,,D01,2016-12-26T16:35:52+06:00,
1000000000301018,77771714907,mMTS,mKarTel,mKarTel,,D77,2016-12-26T16:36:12+06:00,
1000000000301019,77072080879,mAltel,mMTS,mMTS,,D07,2016-12-26T16:37:30+06:00,
1000000000301020,77077540205,mKcell,mMTS,mMTS,,D02,2016-12-26T16:38:21+06:00,
1000000000301022,77774598475,mMTS,mKarTel,mKarTel,,D77,2016-12-26T16:39:33+06:00,
1000000000301023,77015102099,mMTS,mAltel,mKcell,D07,D77,2016-12-26T16:40:02+06:00,
1000000000301024,77075055544,mAltel,mMTS,mMTS,,D07,2016-12-26T16:40:51+06:00,
1000000000301026,77073196231,mAltel,mMTS,mMTS,,D07,2016-12-26T16:42:31+06:00,
1000000000301027,77771458331,mMTS,mKarTel,mKarTel,,D77,2016-12-26T16:43:00+06:00,
1000000000301028,77754444100,mKcell,mMTS,mKcell,D77,D02,2016-12-26T16:42:54+06:00,
1000000000301030,77015726321,mMTS,mKcell,mKcell,,D77,2016-12-26T16:45:13+06:00,
1000000000301031,77014081695,mMTS,mKcell,mKcell,,D77,2016-12-26T16:45:44+06:00,
1000000000301032,77757211174,mMTS,mKcell,mKcell,,D77,2016-12-26T16:45:55+06:00,
1000000000301035,77024442244,mAltel,mKcell,mKcell,,D07,2016-12-26T16:49:20+06:00,
1000000000301039,77753051480,mMTS,mKcell,mKcell,,D77,2016-12-26T16:50:27+06:00,
1000000000301040,77018863232,mAltel,mKcell,mKcell,,D07,2016-12-26T16:51:41+06:00,
1000000000301041,77712060846,mAltel,mKarTel,mKarTel,,D07,2016-12-26T16:52:00+06:00,
1000000000301042,77017745554,mKcell,mAltel,mKcell,D07,D02,2016-12-26T16:51:58+06:00,
1000000000301045,77015012274,mKcell,mAltel,mKcell,D07,D02,2016-12-26T16:52:31+06:00,
1000000000301046,77077641678,mMTS,mKarTel,mMTS,D01,D77,2016-12-26T16:52:56+06:00,
1000000000301049,77477890207,mKcell,mMTS,mMTS,,D02,2016-12-26T16:56:19+06:00,
1000000000301050,77758139617,mMTS,mKcell,mKcell,,D77,2016-12-26T16:56:22+06:00,
1000000000301051,77007111969,mKarTel,mAltel,mAltel,,D01,2016-12-26T16:56:29+06:00,
1000000000301052,77015445494,mKarTel,mKcell,mKcell,,D01,2016-12-26T16:57:16+06:00,
1000000000301053,77017792771,mKarTel,mKcell,mKcell,,D01,2016-12-26T16:59:09+06:00,
