NPId,Number,RecipientId,DonorId,RangeHolderId,OldRoute,NewRoute,PortDate,RowCount
1000000000159448,77758208260,mKarTel,mKcell,mKcell,,D01,2016-04-24T20:01:16+06:00,3
1000000000159449,77003100755,mMTS,mAltel,mAltel,,D77,2016-04-24T20:22:02+06:00,
1000000000159450,77015351559,mMTS,mKcell,mKcell,,D77,2016-04-24T20:24:13+06:00,
