NPId,Number,RecipientId,DonorId,RangeHolderId,OldRoute,NewRoute,PortDate,RowCount
1000000000344054,77006006038,mKcell,mAltel,mAltel,,D02,2017-03-09T19:30:30+06:00,16
1000000000344055,77077650524,mKarTel,mMTS,mMTS,,D01,2017-03-09T19:31:07+06:00,
1000000000344056,77019491369,mKcell,mKarTel,mKcell,D01,D02,2017-03-09T19:33:21+06:00,
1000000000344058,77789698666,mAltel,mKcell,mKcell,,D07,2017-03-09T19:34:36+06:00,
1000000000344059,77006006029,mKcell,mAltel,mAltel,,D02,2017-03-09T19:36:54+06:00,
1000000000344060,77053830000,mKarTel,mAltel,mKarTel,D07,D01,2017-03-09T19:37:17+06:00,
1000000000344061,77006006024,mKcell,mAltel,mAltel,,D02,2017-03-09T19:38:40+06:00,
1000000000344063,77018476853,mMTS,mKcell,mKcell,,D77,2017-03-09T19:42:55+06:00,
1000000000344064,77073300034,mAltel,mMTS,mMTS,,D07,2017-03-09T19:43:15+06:00,
1000000000344065,77007179417,mMTS,mAltel,mAltel,D07,D77,2017-03-09T19:44:18+06:00,
1000000000344066,77711181188,mKarTel,mKcell,mKarTel,D02,D01,2017-03-09T19:46:36+06:00,
1000000000344067,77788787999,mMTS,mKcell,mKcell,,D77,2017-03-09T19:47:53+06:00,
1000000000344068,77015217750,mKcell,mMTS,mKcell,D77,D02,2017-03-09T19:50:13+06:00,
1000000000344069,77778839339,mKcell,mKarTel,mKarTel,,D02,2017-03-09T19:54:29+06:00,
1000000000344070,77773003906,mKcell,mKarTel,mKarTel,,D02,2017-03-09T19:55:03+06:00,
1000000000344071,77085055591,mKcell,mAltel,mAltel,,D02,2017-03-09T19:55:52+06:00,
