NPId,Number,RecipientId,DonorId,RangeHolderId,OldRoute,NewRoute,PortDate,RowCount
1000000000332160,77771122369,mKarTel,mKcell,mKarTel,D02,D01,2017-02-21T11:31:29+06:00,22
1000000000332161,77771122362,mKarTel,mKcell,mKarTel,D02,D01,2017-02-21T11:32:45+06:00,
1000000000332162,77771122359,mKarTel,mKcell,mKarTel,D02,D01,2017-02-21T11:34:03+06:00,
1000000000332163,77775101920,mKcell,mKarTel,mKarTel,,D02,2017-02-21T11:34:28+06:00,
1000000000332164,77771121911,mKarTel,mKcell,mKarTel,D02,D01,2017-02-21T11:35:39+06:00,
1000000000332165,77770055363,mKarTel,mAltel,mKarTel,D07,D01,2017-02-21T11:38:47+06:00,
1000000000332166,77017209937,mKarTel,mKcell,mKcell,,D01,2017-02-21T11:38:57+06:00,
1000000000332168,77013553189,mMTS,mAltel,mKcell,D07,D77,2017-02-21T11:46:48+06:00,
1000000000332169,77754480100,mAltel,mKcell,mKcell,,D07,2017-02-21T11:47:42+06:00,
1000000000332170,77076669443,mKcell,mMTS,mMTS,D77,D02,2017-02-21T11:47:38+06:00,
1000000000332171,77771121906,mKarTel,mKcell,mKarTel,D02,D01,2017-02-21T11:48:01+06:00,
1000000000332172,77775966180,mMTS,mKarTel,mKarTel,,D77,2017-02-21T11:48:03+06:00,
1000000000332173,77025383878,mKarTel,mKcell,mKcell,,D01,2017-02-21T11:48:28+06:00,
1000000000332174,77766600092,mAltel,mKarTel,mKarTel,,D07,2017-02-21T11:48:43+06:00,
1000000000332175,77075214035,mAltel,mMTS,mMTS,,D07,2017-02-21T11:49:33+06:00,
1000000000332176,77077570285,mAltel,mMTS,mMTS,,D07,2017-02-21T11:50:16+06:00,
1000000000332177,77073732446,mKcell,mMTS,mMTS,,D02,2017-02-21T11:51:16+06:00,
1000000000332178,77761933003,mMTS,mKcell,mKarTel,D02,D77,2017-02-21T11:52:33+06:00,
1000000000332179,77016281793,mKarTel,mKcell,mKcell,,D01,2017-02-21T11:53:07+06:00,
1000000000332180,77017535660,mKcell,mKarTel,mKcell,D01,D02,2017-02-21T11:53:30+06:00,
1000000000332182,77058006661,mMTS,mKarTel,mKarTel,,D77,2017-02-21T11:55:40+06:00,
1000000000332183,77473555216,mAltel,mMTS,mMTS,,D07,2017-02-21T11:55:26+06:00,
