NPId,Number,RecipientId,DonorId,RangeHolderId,OldRoute,NewRoute,PortDate,RowCount
1000000000401456,77783643459,mMTS,mKcell,mKcell,,D77,2017-06-11T17:39:20+06:00,5
1000000000401458,77014979776,mMTS,mKcell,mKcell,,D77,2017-06-11T17:39:57+06:00,
1000000000401459,77005333116,mKcell,mAltel,mAltel,,D02,2017-06-11T17:44:23+06:00,
1000000000401466,77019797787,mAltel,mKcell,mKcell,,D07,2017-06-11T17:49:14+06:00,
1000000000401468,77774697074,mMTS,mKarTel,mKarTel,,D77,2017-06-11T17:52:05+06:00,
