NPId,Number,RecipientId,DonorId,RangeHolderId,OldRoute,NewRoute,PortDate,RowCount
1000000000277253,77021058634,mMTS,mKcell,mKcell,,D77,2016-11-10T15:00:03+06:00,18
1000000000277254,77015596922,mKcell,mMTS,mKcell,D77,D02,2016-11-10T15:00:41+06:00,
1000000000277255,77473876827,mKarTel,mMTS,mMTS,,D01,2016-11-10T15:06:03+06:00,
1000000000277256,77024839009,mAltel,mKcell,mKcell,,D07,2016-11-10T15:04:54+06:00,
1000000000277258,77759147137,mMTS,mKcell,mKcell,,D77,2016-11-10T15:08:11+06:00,
1000000000277259,77776660807,mKarTel,mMTS,mKarTel,D77,D01,2016-11-10T15:08:43+06:00,
1000000000277260,77786680246,mKarTel,mKcell,mKcell,,D01,2016-11-10T15:10:21+06:00,
1000000000277264,77777070708,mKcell,mKarTel,mKarTel,,D02,2016-11-10T15:13:41+06:00,
1000000000277265,77016884271,mMTS,mKcell,mKcell,,D77,2016-11-10T15:13:06+06:00,
1000000000277266,77014717475,mMTS,mKcell,mKcell,,D77,2016-11-10T15:13:34+06:00,
1000000000277267,77012080031,mKarTel,mKcell,mKcell,,D01,2016-11-10T15:14:17+06:00,
1000000000277268,77028933331,mKarTel,mKcell,mKcell,,D01,2016-11-10T15:17:03+06:00,
1000000000277269,77022331134,mKarTel,mKcell,mKcell,,D01,2016-11-10T15:20:26+06:00,
1000000000277271,77053676827,mMTS,mKarTel,mKarTel,,D77,2016-11-10T15:22:53+06:00,
1000000000277273,77476663054,mKarTel,mMTS,mMTS,,D01,2016-11-10T15:23:22+06:00,
1000000000277274,77751501555,mMTS,mKcell,mKcell,,D77,2016-11-10T15:24:57+06:00,
1000000000277275,77018618199,mMTS,mKcell,mKcell,,D77,2016-11-10T15:25:20+06:00,
1000000000277277,77754709590,mAltel,mKcell,mKcell,,D07,2016-11-10T15:29:33+06:00,
