NPId,Number,RecipientId,DonorId,RangeHolderId,OldRoute,NewRoute,PortDate,RowCount
1000000000260240,77007777069,mAltel,mKcell,mAltel,D02,D07,2016-10-11T09:02:36+06:00,3
1000000000260242,77759593000,mKarTel,mKcell,mKcell,,D01,2016-10-11T09:17:30+06:00,
1000000000260245,77009724025,mAltel,mMTS,mAltel,D77,D07,2016-10-11T09:24:15+06:00,
