NPId,Number,RecipientId,DonorId,RangeHolderId,OldRoute,NewRoute,PortDate,RowCount
1000000000401719,77085739631,mKarTel,mAltel,mAltel,,D01,2017-06-12T13:00:45+06:00,29
1000000000401720,77017763211,mAltel,mKcell,mKcell,,D07,2017-06-12T13:00:52+06:00,
1000000000401721,77784388888,mAltel,mMTS,mKcell,D77,D07,2017-06-12T13:00:50+06:00,
1000000000401722,77074442373,mAltel,mMTS,mMTS,,D07,2017-06-12T13:00:56+06:00,
1000000000401723,77058166366,mAltel,mKarTel,mKarTel,,D07,2017-06-12T13:02:40+06:00,
1000000000401725,77772227117,mMTS,mKarTel,mKarTel,,D77,2017-06-12T13:04:37+06:00,
1000000000401726,77001628282,mKcell,mAltel,mAltel,,D02,2017-06-12T13:04:59+06:00,
1000000000401727,77017142901,mMTS,mKcell,mKcell,,D77,2017-06-12T13:05:23+06:00,
1000000000401728,77784000201,mMTS,mKcell,mKcell,,D77,2017-06-12T13:08:38+06:00,
1000000000401729,77787884343,mMTS,mKcell,mKcell,,D77,2017-06-12T13:09:10+06:00,
1000000000401730,77013790204,mAltel,mKcell,mKcell,,D07,2017-06-12T13:11:41+06:00,
1000000000401732,77027000712,mKarTel,mMTS,mKcell,D77,D01,2017-06-12T13:12:15+06:00,
1000000000401733,77017561675,mKarTel,mKcell,mKcell,,D01,2017-06-12T13:12:21+06:00,
1000000000401736,77023659947,mKarTel,mKcell,mKcell,,D01,2017-06-12T13:14:06+06:00,
1000000000401737,77774324343,mMTS,mKarTel,mKarTel,D01,D77,2017-06-12T13:15:44+06:00,
1000000000401738,77073261222,mMTS,mKarTel,mMTS,D01,D77,2017-06-12T13:17:00+06:00,
1000000000401739,77013805798,mAltel,mKcell,mKcell,,D07,2017-06-12T13:17:23+06:00,
1000000000401740,77770870275,mMTS,mKarTel,mKarTel,,D77,2017-06-12T13:17:54+06:00,
1000000000401741,77013689329,mKcell,mAltel,mKcell,D07,D02,2017-06-12T13:18:18+06:00,
1000000000401743,77018898197,mKcell,mAltel,mKcell,D07,D02,2017-06-12T13:19:34+06:00,
1000000000401744,77013580808,mKcell,mKarTel,mKcell,D01,D02,2017-06-12T13:20:29+06:00,
1000000000401745,77016762772,mKcell,mMTS,mKcell,D77,D02,2017-06-12T13:20:54+06:00,
1000000000401747,77013426468,mKcell,mMTS,mKcell,D77,D02,2017-06-12T13:23:20+06:00,
1000000000401749,77071015390,mKcell,mMTS,mMTS,,D02,2017-06-12T13:24:30+06:00,
1000000000401750,77018035888,mKarTel,mKcell,mKcell,,D01,2017-06-12T13:24:53+06:00,
1000000000401751,77024704747,mKcell,mAltel,mKcell,D07,D02,2017-06-12T13:24:49+06:00,
1000000000401754,77781119844,mMTS,mKcell,mKcell,,D77,2017-06-12T13:26:48+06:00,
1000000000401756,77010708338,mKarTel,mKcell,mKcell,,D01,2017-06-12T13:27:43+06:00,
1000000000401757,77082557505,mKcell,mMTS,mAltel,D77,D02,2017-06-12T13:29:41+06:00,
