NPId,Number,RecipientId,DonorId,RangeHolderId,OldRoute,NewRoute,PortDate,RowCount
1000000000406889,77770982222,mMTS,mKarTel,mKarTel,,D77,2017-06-21T15:00:36+06:00,23
1000000000406890,77081606037,mMTS,mAltel,mAltel,,D77,2017-06-21T15:00:30+06:00,
1000000000406892,77053020200,mKcell,mKarTel,mKarTel,,D02,2017-06-21T15:01:20+06:00,
1000000000406894,77770626337,mAltel,mKarTel,mKarTel,D01,D07,2017-06-21T15:02:28+06:00,
1000000000406895,77076252424,mKcell,mMTS,mMTS,,D02,2017-06-21T15:02:35+06:00,
1000000000406896,77028889930,mKcell,mAltel,mKcell,D07,D02,2017-06-21T15:05:55+06:00,
1000000000406897,77785577799,mKcell,mKarTel,mKcell,D01,D02,2017-06-21T15:07:03+06:00,
1000000000406901,77787000456,mMTS,mKcell,mKcell,,D77,2017-06-21T15:06:46+06:00,
1000000000406902,77079097050,mKarTel,mMTS,mMTS,D77,D01,2017-06-21T15:06:57+06:00,
1000000000406904,77015348926,mAltel,mKcell,mKcell,,D07,2017-06-21T15:08:34+06:00,
1000000000406905,77017142763,mKarTel,mKcell,mKcell,,D01,2017-06-21T15:09:37+06:00,
1000000000406906,77476252828,mKarTel,mMTS,mMTS,,D01,2017-06-21T15:09:47+06:00,
1000000000406908,77772242254,mAltel,mKarTel,mKarTel,,D07,2017-06-21T15:13:57+06:00,
1000000000406909,77778233775,mAltel,mKarTel,mKarTel,,D07,2017-06-21T15:14:57+06:00,
1000000000406910,77005553836,mKcell,mAltel,mAltel,,D02,2017-06-21T15:15:07+06:00,
1000000000406911,77076677677,mKarTel,mMTS,mMTS,,D01,2017-06-21T15:17:35+06:00,
1000000000406912,77751155840,mMTS,mKcell,mKcell,,D77,2017-06-21T15:18:54+06:00,
1000000000406913,77772478767,mKarTel,mMTS,mKarTel,D77,D01,2017-06-21T15:21:55+06:00,
1000000000406914,77769999041,mMTS,mKarTel,mKarTel,,D77,2017-06-21T15:23:07+06:00,
1000000000406915,77058838859,mAltel,mKarTel,mKarTel,,D07,2017-06-21T15:23:16+06:00,
1000000000406916,77077763435,mKcell,mMTS,mMTS,,D02,2017-06-21T15:23:25+06:00,
1000000000406917,77786322488,mKarTel,mKcell,mKcell,,D01,2017-06-21T15:25:47+06:00,
1000000000406918,77082045854,mKarTel,mAltel,mAltel,,D01,2017-06-21T15:25:43+06:00,
