NPId,Number,RecipientId,DonorId,RangeHolderId,OldRoute,NewRoute,PortDate,RowCount
1000000000236544,77019559142,mKarTel,mKcell,mKcell,,D01,2016-08-30T14:00:09+06:00,32
1000000000236545,77781006352,mKcell,mKarTel,mKcell,D01,D02,2016-08-30T14:00:30+06:00,
1000000000236548,77757405470,mKarTel,mKcell,mKcell,,D01,2016-08-30T14:00:27+06:00,
1000000000236549,77072707022,mKcell,mMTS,mMTS,,D02,2016-08-30T14:01:10+06:00,
1000000000236552,77013853002,mKcell,mKarTel,mKcell,D01,D02,2016-08-30T14:02:19+06:00,
1000000000236553,77786454565,mMTS,mKcell,mKcell,,D77,2016-08-30T14:02:30+06:00,
1000000000236554,77056608129,mMTS,mKarTel,mKarTel,,D77,2016-08-30T14:03:12+06:00,
1000000000236557,77019559143,mKarTel,mKcell,mKcell,,D01,2016-08-30T14:09:03+06:00,
1000000000236558,77072707050,mKcell,mMTS,mMTS,,D02,2016-08-30T14:06:52+06:00,
1000000000236559,77074633721,mKarTel,mMTS,mMTS,,D01,2016-08-30T14:07:14+06:00,
1000000000236561,77054284142,mKcell,mKarTel,mKarTel,,D02,2016-08-30T14:08:41+06:00,
1000000000236562,77089679251,mKarTel,mAltel,mAltel,,D01,2016-08-30T14:08:36+06:00,
1000000000236563,77077199995,mAltel,mMTS,mMTS,,D07,2016-08-30T14:09:22+06:00,
1000000000236566,77054061045,mKcell,mKarTel,mKarTel,,D02,2016-08-30T14:15:04+06:00,
1000000000236568,77787333332,mKarTel,mAltel,mKcell,D07,D01,2016-08-30T14:16:40+06:00,
1000000000236569,77051113913,mKarTel,mKcell,mKarTel,D02,D01,2016-08-30T14:18:21+06:00,
1000000000236570,77059174805,mKarTel,mMTS,mKarTel,D77,D01,2016-08-30T14:18:29+06:00,
1000000000236571,77056762814,mMTS,mKarTel,mKarTel,,D77,2016-08-30T14:19:40+06:00,
1000000000236572,77001138033,mMTS,mAltel,mAltel,,D77,2016-08-30T14:19:51+06:00,
1000000000236573,77017774456,mKarTel,mKcell,mKcell,,D01,2016-08-30T14:23:17+06:00,
1000000000236574,77089495160,mAltel,mMTS,mAltel,D77,D07,2016-08-30T14:21:12+06:00,
1000000000236576,77085168218,mAltel,mMTS,mAltel,D77,D07,2016-08-30T14:22:24+06:00,
1000000000236577,77473269388,mAltel,mMTS,mMTS,,D07,2016-08-30T14:22:39+06:00,
1000000000236578,77012777715,mMTS,mKcell,mKcell,,D77,2016-08-30T14:23:54+06:00,
1000000000236579,77779999818,mKcell,mKarTel,mKarTel,,D02,2016-08-30T14:25:24+06:00,
1000000000236580,77085168214,mAltel,mMTS,mAltel,D77,D07,2016-08-30T14:25:03+06:00,
1000000000236581,77766666981,mKarTel,mAltel,mKarTel,D07,D01,2016-08-30T14:26:30+06:00,
1000000000236582,77789401542,mMTS,mKcell,mKcell,,D77,2016-08-30T14:27:26+06:00,
1000000000236583,77025527691,mMTS,mKcell,mKcell,,D77,2016-08-30T14:28:13+06:00,
1000000000236584,77776936344,mMTS,mKarTel,mKarTel,,D77,2016-08-30T14:28:41+06:00,
1000000000236585,77781339632,mKarTel,mKcell,mKcell,,D01,2016-08-30T14:28:47+06:00,
1000000000236587,77026890340,mMTS,mKcell,mKcell,,D77,2016-08-30T14:29:43+06:00,
