NPId,Number,RecipientId,DonorId,RangeHolderId,OldRoute,NewRoute,PortDate,RowCount
1000000000332055,77052641830,mMTS,mKarTel,mKarTel,,D77,2017-02-20T22:48:06+06:00,2
1000000000332056,77055421466,mMTS,mKarTel,mKarTel,,D77,2017-02-20T22:58:05+06:00,
