NPId,Number,RecipientId,DonorId,RangeHolderId,OldRoute,NewRoute,PortDate,RowCount
1000000000130658,77776602244,mMTS,mKarTel,mKarTel,,D77,2016-03-22T09:50:22+06:00,2
1000000000130660,77012148807,mMTS,mKcell,mKcell,,D77,2016-03-22T09:56:28+06:00,
