NPId,Number,RecipientId,DonorId,RangeHolderId,OldRoute,NewRoute,PortDate,RowCount
1000000000143777,77015888855,mKarTel,mAltel,mKcell,D07,D01,2016-04-05T19:30:13+06:00,18
1000000000143778,77759593999,mKarTel,mKcell,mKcell,,D01,2016-04-05T19:31:22+06:00,
1000000000143779,77089056076,mKcell,mAltel,mAltel,,D02,2016-04-05T19:31:23+06:00,
1000000000143781,77052666699,mKcell,mKarTel,mKarTel,,D02,2016-04-05T19:34:13+06:00,
1000000000143782,77013116097,mMTS,mKcell,mKcell,,D77,2016-04-05T19:36:34+06:00,
1000000000143783,77085142646,mMTS,mAltel,mAltel,,D77,2016-04-05T19:36:34+06:00,
1000000000143784,77081931902,mMTS,mAltel,mAltel,,D77,2016-04-05T19:36:56+06:00,
1000000000143786,77017884991,mKarTel,mKcell,mKcell,,D01,2016-04-05T19:42:20+06:00,
1000000000143787,77007446599,mMTS,mAltel,mAltel,,D77,2016-04-05T19:41:42+06:00,
1000000000143788,77076889533,mKcell,mAltel,mMTS,D07,D02,2016-04-05T19:43:56+06:00,
1000000000143789,77005111700,mMTS,mAltel,mAltel,,D77,2016-04-05T19:45:52+06:00,
1000000000143790,77773546060,mAltel,mKarTel,mKarTel,,D07,2016-04-05T19:49:26+06:00,
1000000000143791,77085242816,mKcell,mAltel,mAltel,,D02,2016-04-05T19:48:57+06:00,
1000000000143792,77076889534,mKcell,mAltel,mMTS,D07,D02,2016-04-05T19:49:51+06:00,
1000000000143793,77013824582,mMTS,mKcell,mKcell,,D77,2016-04-05T19:53:23+06:00,
1000000000143794,77071023888,mKcell,mMTS,mMTS,,D02,2016-04-05T19:53:54+06:00,
1000000000143795,77029972779,mMTS,mKcell,mKcell,,D77,2016-04-05T19:55:52+06:00,
1000000000143797,77003332631,mMTS,mAltel,mAltel,,D77,2016-04-05T19:56:58+06:00,
