NPId,Number,RecipientId,DonorId,RangeHolderId,OldRoute,NewRoute,PortDate,RowCount
1000000000152039,77025558742,mMTS,mKcell,mKcell,,D77,2016-04-14T17:30:01+06:00,56
1000000000152040,77086600618,mMTS,mAltel,mAltel,,D77,2016-04-14T17:30:04+06:00,
1000000000152041,77082298227,mMTS,mAltel,mAltel,,D77,2016-04-14T17:30:40+06:00,
1000000000152043,77754096512,mMTS,mKcell,mKcell,,D77,2016-04-14T17:32:19+06:00,
1000000000152044,77083440177,mMTS,mAltel,mAltel,,D77,2016-04-14T17:31:59+06:00,
1000000000152045,77755321061,mAltel,mKcell,mKcell,,D07,2016-04-14T17:32:59+06:00,
1000000000152046,77013963725,mMTS,mKcell,mKcell,,D77,2016-04-14T17:32:59+06:00,
1000000000152048,77007404936,mMTS,mAltel,mAltel,,D77,2016-04-14T17:33:09+06:00,
1000000000152049,77086600604,mMTS,mAltel,mAltel,,D77,2016-04-14T17:34:28+06:00,
1000000000152050,77087590675,mMTS,mAltel,mAltel,,D77,2016-04-14T17:34:51+06:00,
1000000000152051,77769993272,mMTS,mKarTel,mKarTel,,D77,2016-04-14T17:36:38+06:00,
1000000000152052,77026454242,mMTS,mKcell,mKcell,,D77,2016-04-14T17:36:15+06:00,
1000000000152053,77778555755,mMTS,mKarTel,mKarTel,,D77,2016-04-14T17:37:32+06:00,
1000000000152055,77087562847,mMTS,mAltel,mAltel,,D77,2016-04-14T17:36:41+06:00,
1000000000152056,77017818694,mMTS,mKcell,mKcell,,D77,2016-04-14T17:37:06+06:00,
1000000000152057,77715593254,mMTS,mKarTel,mKarTel,,D77,2016-04-14T17:38:14+06:00,
1000000000152059,77773174321,mMTS,mKarTel,mKarTel,,D77,2016-04-14T17:38:14+06:00,
1000000000152060,77755318497,mAltel,mKcell,mKcell,,D07,2016-04-14T17:37:26+06:00,
1000000000152063,77017411767,mKcell,mKarTel,mKcell,D01,D02,2016-04-14T17:40:34+06:00,
1000000000152064,77086600617,mMTS,mAltel,mAltel,,D77,2016-04-14T17:38:01+06:00,
1000000000152065,77017548911,mMTS,mKcell,mKcell,,D77,2016-04-14T17:39:03+06:00,
1000000000152066,77755321192,mAltel,mKcell,mKcell,,D07,2016-04-14T17:39:03+06:00,
1000000000152067,77755318494,mAltel,mKcell,mKcell,,D07,2016-04-14T17:39:42+06:00,
1000000000152068,77051809995,mKcell,mKarTel,mKarTel,,D02,2016-04-14T17:41:19+06:00,
1000000000152071,77754096513,mMTS,mKcell,mKcell,,D77,2016-04-14T17:40:23+06:00,
1000000000152072,77027237337,mKcell,mAltel,mKcell,D07,D02,2016-04-14T17:40:44+06:00,
1000000000152073,77077710828,mKcell,mMTS,mMTS,,D02,2016-04-14T17:40:56+06:00,
1000000000152075,77755318528,mAltel,mKcell,mKcell,,D07,2016-04-14T17:41:31+06:00,
1000000000152076,77014625768,mMTS,mKcell,mKcell,,D77,2016-04-14T17:41:31+06:00,
1000000000152078,77014675292,mMTS,mKcell,mKcell,,D77,2016-04-14T17:42:28+06:00,
1000000000152079,77755320914,mAltel,mKcell,mKcell,,D07,2016-04-14T17:43:39+06:00,
1000000000152080,77755320876,mAltel,mKcell,mKcell,,D07,2016-04-14T17:44:00+06:00,
1000000000152081,77025777712,mKcell,mMTS,mKcell,D77,D02,2016-04-14T17:44:59+06:00,
1000000000152082,77024298183,mKcell,mMTS,mKcell,D77,D02,2016-04-14T17:45:27+06:00,
1000000000152083,77755321052,mAltel,mKcell,mKcell,,D07,2016-04-14T17:45:17+06:00,
1000000000152084,77000966606,mMTS,mAltel,mAltel,,D77,2016-04-14T17:45:17+06:00,
1000000000152085,77070495298,mMTS,mKarTel,mMTS,D01,D77,2016-04-14T17:47:03+06:00,
1000000000152086,77026559992,mAltel,mKcell,mKcell,,D07,2016-04-14T17:46:05+06:00,
1000000000152088,77781919515,mMTS,mKcell,mKcell,,D77,2016-04-14T17:47:12+06:00,
1000000000152089,77081287249,mMTS,mAltel,mAltel,,D77,2016-04-14T17:46:59+06:00,
1000000000152090,77471141013,mKcell,mMTS,mMTS,,D02,2016-04-14T17:47:55+06:00,
1000000000152091,77767766667,mKcell,mKarTel,mKarTel,,D02,2016-04-14T17:50:22+06:00,
1000000000152092,77025772727,mKcell,mAltel,mKcell,D07,D02,2016-04-14T17:49:33+06:00,
1000000000152093,77772802370,mKcell,mKarTel,mKarTel,,D02,2016-04-14T17:51:10+06:00,
1000000000152094,77009741692,mKcell,mAltel,mAltel,,D02,2016-04-14T17:49:34+06:00,
1000000000152095,77772990470,mMTS,mKarTel,mKarTel,,D77,2016-04-14T17:51:17+06:00,
1000000000152096,77080445828,mMTS,mAltel,mAltel,,D77,2016-04-14T17:49:38+06:00,
1000000000152098,77015285405,mKcell,mMTS,mKcell,D77,D02,2016-04-14T17:50:22+06:00,
1000000000152100,77024453121,mMTS,mKcell,mKcell,,D77,2016-04-14T17:50:43+06:00,
1000000000152104,77017481140,mKarTel,mKcell,mKcell,,D01,2016-04-14T17:53:32+06:00,
1000000000152105,77005234922,mKcell,mMTS,mAltel,D77,D02,2016-04-14T17:53:10+06:00,
1000000000152106,77713231000,mKcell,mKarTel,mKarTel,,D02,2016-04-14T17:55:54+06:00,
1000000000152109,77083070984,mMTS,mAltel,mAltel,,D77,2016-04-14T17:54:02+06:00,
1000000000152110,77774150212,mKcell,mKarTel,mKarTel,,D02,2016-04-14T17:56:56+06:00,
1000000000152112,77783282057,mKarTel,mKcell,mKcell,,D01,2016-04-14T17:55:44+06:00,
1000000000152113,77788782288,mMTS,mKcell,mKcell,,D77,2016-04-14T17:57:13+06:00,
