NPId,Number,RecipientId,DonorId,RangeHolderId,OldRoute,NewRoute,PortDate,RowCount
1000000000205219,77018053111,mKcell,mAltel,mKcell,D07,D02,2016-07-08T08:53:16+06:00,7
1000000000205706,77019140317,mKcell,mKarTel,mKcell,D01,D02,2016-07-08T08:57:23+06:00,
1000000000205852,77017074290,mKcell,mMTS,mKcell,D77,D02,2016-07-08T08:34:39+06:00,
1000000000205955,77015533887,mKcell,mAltel,mKcell,D07,D02,2016-07-08T08:39:14+06:00,
1000000000206062,77015297007,mKcell,mMTS,mKcell,D77,D02,2016-07-08T08:51:23+06:00,
1000000000206927,77017717622,mKcell,mAltel,mKcell,D07,D02,2016-07-08T08:33:48+06:00,
1000000000207372,77477172007,mKcell,mMTS,mMTS,,D02,2016-07-08T08:45:38+06:00,
