NPId,Number,RecipientId,DonorId,RangeHolderId,OldRoute,NewRoute,PortDate,RowCount
1000000000208820,77017797370,mAltel,mKcell,mKcell,,D07,2016-07-10T15:00:25+06:00,20
1000000000208821,77014055060,mMTS,mKcell,mKcell,,D77,2016-07-10T15:00:25+06:00,
1000000000208822,77771568040,mMTS,mKarTel,mKarTel,,D77,2016-07-10T15:00:57+06:00,
1000000000208823,77788126776,mMTS,mKcell,mKcell,,D77,2016-07-10T15:01:15+06:00,
1000000000208824,77081782881,mAltel,mMTS,mAltel,D77,D07,2016-07-10T15:01:39+06:00,
1000000000208825,77014678400,mAltel,mKcell,mKcell,,D07,2016-07-10T15:03:40+06:00,
1000000000208826,77014335398,mMTS,mKcell,mKcell,,D77,2016-07-10T15:05:17+06:00,
1000000000208827,77056957576,mMTS,mKarTel,mKarTel,,D77,2016-07-10T15:06:02+06:00,
1000000000208828,77082555668,mKarTel,mAltel,mAltel,,D01,2016-07-10T15:06:20+06:00,
1000000000208829,77025596224,mMTS,mKcell,mKcell,,D77,2016-07-10T15:09:03+06:00,
1000000000208830,77011110434,mKcell,mKarTel,mKcell,D01,D02,2016-07-10T15:10:35+06:00,
1000000000208831,77755292626,mMTS,mKcell,mKcell,,D77,2016-07-10T15:10:18+06:00,
1000000000208835,77055200678,mMTS,mKarTel,mKarTel,,D77,2016-07-10T15:13:19+06:00,
1000000000208836,77752179878,mMTS,mKcell,mKcell,,D77,2016-07-10T15:15:12+06:00,
1000000000208837,77002253303,mKarTel,mAltel,mAltel,,D01,2016-07-10T15:17:00+06:00,
1000000000208838,77072076317,mMTS,mKcell,mMTS,D02,D77,2016-07-10T15:19:37+06:00,
1000000000208839,77009606931,mMTS,mAltel,mAltel,,D77,2016-07-10T15:22:14+06:00,
1000000000208841,77751080999,mMTS,mKcell,mKcell,,D77,2016-07-10T15:26:07+06:00,
1000000000208842,77082011681,mMTS,mAltel,mAltel,,D77,2016-07-10T15:27:13+06:00,
1000000000208843,77071260424,mKcell,mMTS,mMTS,,D02,2016-07-10T15:28:37+06:00,
