NPId,Number,RecipientId,DonorId,RangeHolderId,OldRoute,NewRoute,PortDate,RowCount
1000000000228670,77075217261,mKarTel,mMTS,mMTS,,D01,2016-08-13T18:00:40+06:00,16
1000000000228671,77021878371,mKcell,mMTS,mKcell,D77,D02,2016-08-13T18:00:56+06:00,
1000000000228672,77077777889,mKcell,mMTS,mMTS,,D02,2016-08-13T18:01:24+06:00,
1000000000228675,77757223916,mAltel,mKcell,mKcell,,D07,2016-08-13T18:01:56+06:00,
1000000000228676,77055966654,mMTS,mKarTel,mKarTel,,D77,2016-08-13T18:02:16+06:00,
1000000000228677,77011391333,mAltel,mKcell,mKcell,,D07,2016-08-13T18:03:11+06:00,
1000000000228679,77001330004,mKcell,mAltel,mAltel,,D02,2016-08-13T18:05:36+06:00,
1000000000228682,77025306535,mAltel,mKcell,mKcell,,D07,2016-08-13T18:10:32+06:00,
1000000000228685,77071288855,mKcell,mMTS,mMTS,,D02,2016-08-13T18:09:33+06:00,
1000000000228686,77010677747,mKcell,mMTS,mKcell,D77,D02,2016-08-13T18:09:32+06:00,
1000000000228688,77056221264,mKcell,mKarTel,mKarTel,,D02,2016-08-13T18:10:31+06:00,
1000000000228689,77711777887,mKcell,mKarTel,mKarTel,,D02,2016-08-13T18:10:52+06:00,
1000000000228690,77004122151,mKcell,mAltel,mAltel,,D02,2016-08-13T18:11:07+06:00,
1000000000228691,77028222811,mKarTel,mKcell,mKcell,,D01,2016-08-13T18:12:22+06:00,
1000000000228692,77015861000,mKcell,mMTS,mKcell,D77,D02,2016-08-13T18:15:50+06:00,
1000000000228693,77015191331,mKarTel,mKcell,mKcell,,D01,2016-08-13T18:16:54+06:00,
