NPId,Number,RecipientId,DonorId,RangeHolderId,OldRoute,NewRoute,PortDate,RowCount
1000000000447608,77781112958,mKarTel,mAltel,mKcell,D07,D01,2017-08-29T11:01:23+06:00,43
1000000000447612,77088051010,mKarTel,mAltel,mAltel,,D01,2017-08-29T11:05:37+06:00,
1000000000447617,77021573953,mKcell,mKarTel,mKcell,D01,D02,2017-08-29T11:08:46+06:00,
1000000000447620,77017489495,mKarTel,mKcell,mKcell,,D01,2017-08-29T11:09:41+06:00,
1000000000447621,77769077666,mMTS,mKarTel,mKarTel,,D77,2017-08-29T11:10:15+06:00,
1000000000447622,77009318485,mMTS,mAltel,mAltel,,D77,2017-08-29T11:09:57+06:00,
1000000000447623,77772080088,mKarTel,mAltel,mKarTel,D07,D01,2017-08-29T11:10:33+06:00,
1000000000447624,77018088853,mKcell,mMTS,mKcell,D77,D02,2017-08-29T11:11:37+06:00,
1000000000447625,77009318480,mMTS,mAltel,mAltel,,D77,2017-08-29T11:11:21+06:00,
1000000000447627,77009146088,mMTS,mAltel,mAltel,,D77,2017-08-29T11:11:56+06:00,
1000000000447628,77009146027,mMTS,mAltel,mAltel,,D77,2017-08-29T11:12:39+06:00,
1000000000447629,77019761183,mMTS,mKcell,mKcell,,D77,2017-08-29T11:12:50+06:00,
1000000000447630,77004216267,mAltel,mMTS,mAltel,D77,D07,2017-08-29T11:12:50+06:00,
1000000000447631,77009146025,mMTS,mAltel,mAltel,,D77,2017-08-29T11:13:16+06:00,
1000000000447632,77075994230,mMTS,mKcell,mMTS,D02,D77,2017-08-29T11:13:44+06:00,
1000000000447633,77009146006,mMTS,mAltel,mAltel,,D77,2017-08-29T11:13:59+06:00,
1000000000447634,77009146005,mMTS,mAltel,mAltel,,D77,2017-08-29T11:14:41+06:00,
1000000000447636,77009145987,mMTS,mAltel,mAltel,,D77,2017-08-29T11:15:17+06:00,
1000000000447637,77009145678,mMTS,mAltel,mAltel,,D77,2017-08-29T11:15:57+06:00,
1000000000447638,77773510020,mKarTel,mKcell,mKarTel,D02,D01,2017-08-29T11:16:38+06:00,
1000000000447639,77009145598,mMTS,mAltel,mAltel,,D77,2017-08-29T11:16:45+06:00,
1000000000447640,77009145407,mMTS,mAltel,mAltel,,D77,2017-08-29T11:17:18+06:00,
1000000000447642,77009145378,mMTS,mAltel,mAltel,,D77,2017-08-29T11:18:00+06:00,
1000000000447643,77009145334,mMTS,mAltel,mAltel,,D77,2017-08-29T11:18:59+06:00,
1000000000447644,77761232755,mMTS,mKarTel,mKarTel,,D77,2017-08-29T11:19:36+06:00,
1000000000447645,77009145269,mMTS,mAltel,mAltel,,D77,2017-08-29T11:19:37+06:00,
1000000000447646,77079166916,mKarTel,mMTS,mMTS,,D01,2017-08-29T11:19:58+06:00,
1000000000447647,77053021414,mKcell,mKarTel,mKarTel,,D02,2017-08-29T11:20:29+06:00,
1000000000447648,77009145268,mMTS,mAltel,mAltel,,D77,2017-08-29T11:20:18+06:00,
1000000000447649,77009145267,mMTS,mAltel,mAltel,,D77,2017-08-29T11:20:56+06:00,
1000000000447650,77009145249,mMTS,mAltel,mAltel,,D77,2017-08-29T11:21:36+06:00,
1000000000447652,77078393383,mAltel,mMTS,mMTS,,D07,2017-08-29T11:21:53+06:00,
1000000000447653,77009145243,mMTS,mAltel,mAltel,,D77,2017-08-29T11:22:12+06:00,
1000000000447656,77007225601,mMTS,mAltel,mAltel,,D77,2017-08-29T11:22:49+06:00,
1000000000447657,77002400532,mMTS,mAltel,mAltel,,D77,2017-08-29T11:23:31+06:00,
1000000000447658,77002306251,mMTS,mAltel,mAltel,,D77,2017-08-29T11:24:13+06:00,
1000000000447661,77002225585,mMTS,mAltel,mAltel,,D77,2017-08-29T11:25:10+06:00,
1000000000447662,77755145559,mKarTel,mAltel,mKcell,D07,D01,2017-08-29T11:25:31+06:00,
1000000000447664,77053434888,mMTS,mKarTel,mKarTel,,D77,2017-08-29T11:28:04+06:00,
1000000000447666,77017840584,mAltel,mKcell,mKcell,,D07,2017-08-29T11:28:52+06:00,
1000000000447667,77003107880,mKcell,mAltel,mAltel,,D02,2017-08-29T11:29:16+06:00,
1000000000447668,77003354699,mKcell,mAltel,mAltel,,D02,2017-08-29T11:29:23+06:00,
1000000000447669,77754497769,mKarTel,mAltel,mKcell,D07,D01,2017-08-29T11:29:36+06:00,
