NPId,Number,RecipientId,DonorId,RangeHolderId,OldRoute,NewRoute,PortDate,RowCount
1000000000224651,77778922209,mMTS,mKarTel,mKarTel,,D77,2016-08-06T16:00:36+06:00,14
1000000000224652,77718526383,mMTS,mKarTel,mKarTel,,D77,2016-08-06T16:01:14+06:00,
1000000000224654,77757835706,mAltel,mKcell,mKcell,,D07,2016-08-06T16:02:16+06:00,
1000000000224656,77718310602,mMTS,mKarTel,mKarTel,,D77,2016-08-06T16:04:21+06:00,
1000000000224658,77023383158,mMTS,mKcell,mKcell,,D77,2016-08-06T16:03:29+06:00,
1000000000224659,77021822254,mKarTel,mKcell,mKcell,,D01,2016-08-06T16:04:18+06:00,
1000000000224660,77783060349,mMTS,mKcell,mKcell,,D77,2016-08-06T16:19:26+06:00,
1000000000224661,77076444487,mKarTel,mMTS,mMTS,,D01,2016-08-06T16:09:11+06:00,
1000000000224662,77779141112,mAltel,mKarTel,mKarTel,,D07,2016-08-06T16:10:51+06:00,
1000000000224663,77754060306,mMTS,mKcell,mKcell,,D77,2016-08-06T16:19:56+06:00,
1000000000224665,77754999693,mKarTel,mKcell,mKcell,,D01,2016-08-06T16:21:15+06:00,
1000000000224666,77777601546,mMTS,mKarTel,mKarTel,,D77,2016-08-06T16:18:50+06:00,
1000000000224667,77776661011,mMTS,mKarTel,mKarTel,,D77,2016-08-06T16:22:52+06:00,
1000000000224672,77775723676,mMTS,mKarTel,mKarTel,,D77,2016-08-06T16:29:08+06:00,
