NPId,Number,RecipientId,DonorId,RangeHolderId,OldRoute,NewRoute,PortDate,RowCount
1000000000358876,77017287968,mKarTel,mKcell,mKcell,,D01,2017-04-04T10:40:07+06:00,15
1000000000359155,77017140525,mKarTel,mKcell,mKcell,,D01,2017-04-04T10:33:29+06:00,
1000000000359198,77014377393,mAltel,mKcell,mKcell,,D07,2017-04-04T10:30:37+06:00,
1000000000359199,77078408292,mKarTel,mMTS,mMTS,,D01,2017-04-04T10:30:55+06:00,
1000000000359200,77015141780,mKcell,mKarTel,mKcell,D01,D02,2017-04-04T10:31:51+06:00,
1000000000359201,77713783440,mMTS,mKarTel,mKarTel,,D77,2017-04-04T10:32:47+06:00,
1000000000359205,77015229871,mKarTel,mKcell,mKcell,,D01,2017-04-04T10:44:35+06:00,
1000000000359208,77018883390,mKarTel,mKcell,mKcell,,D01,2017-04-04T10:47:11+06:00,
1000000000359210,77017437046,mAltel,mKcell,mKcell,,D07,2017-04-04T10:47:00+06:00,
1000000000359211,77756012422,mAltel,mKcell,mKcell,,D07,2017-04-04T10:47:38+06:00,
1000000000359212,77077634808,mKarTel,mMTS,mMTS,,D01,2017-04-04T10:50:55+06:00,
1000000000359214,77718329149,mAltel,mKarTel,mKarTel,,D07,2017-04-04T10:55:43+06:00,
1000000000359215,77477552255,mKarTel,mMTS,mMTS,,D01,2017-04-04T10:58:17+06:00,
1000000000359216,77019554351,mKarTel,mKcell,mKcell,,D01,2017-04-04T10:59:19+06:00,
1000000000359217,77017392300,mKarTel,mKcell,mKcell,,D01,2017-04-04T10:59:54+06:00,
