NPId,Number,RecipientId,DonorId,RangeHolderId,OldRoute,NewRoute,PortDate,RowCount
1000000000220248,77072295586,mKcell,mMTS,mMTS,,D02,2016-07-30T18:32:16+06:00,19
1000000000220249,77771122167,mKarTel,mKcell,mKarTel,D02,D01,2016-07-30T18:32:40+06:00,
1000000000220250,77014820580,mMTS,mKcell,mKcell,,D77,2016-07-30T18:33:43+06:00,
1000000000220252,77012384066,mKcell,mMTS,mKcell,D77,D02,2016-07-30T18:36:20+06:00,
1000000000220253,77003003000,mKarTel,mAltel,mAltel,,D01,2016-07-30T18:37:18+06:00,
1000000000220255,77776442774,mKarTel,mAltel,mKarTel,D07,D01,2016-07-30T18:39:39+06:00,
1000000000220257,77771122164,mKarTel,mKcell,mKarTel,D02,D01,2016-07-30T18:41:13+06:00,
1000000000220258,77000888773,mKarTel,mAltel,mAltel,,D01,2016-07-30T18:41:34+06:00,
1000000000220259,77751934230,mMTS,mKcell,mKcell,,D77,2016-07-30T18:42:58+06:00,
1000000000220261,77471556195,mKarTel,mMTS,mMTS,,D01,2016-07-30T18:43:31+06:00,
1000000000220262,77007009904,mKarTel,mAltel,mAltel,,D01,2016-07-30T18:43:50+06:00,
1000000000220263,77771122136,mKarTel,mKcell,mKarTel,D02,D01,2016-07-30T18:46:12+06:00,
1000000000220264,77007070701,mKarTel,mAltel,mAltel,,D01,2016-07-30T18:46:20+06:00,
1000000000220265,77771122158,mKarTel,mKcell,mKarTel,D02,D01,2016-07-30T18:47:44+06:00,
1000000000220266,77079359359,mKarTel,mMTS,mMTS,,D01,2016-07-30T18:49:21+06:00,
1000000000220267,77023373745,mKarTel,mKcell,mKcell,,D01,2016-07-30T18:49:38+06:00,
1000000000220269,77771122151,mKarTel,mKcell,mKarTel,D02,D01,2016-07-30T18:52:32+06:00,
1000000000220270,77773483447,mMTS,mKarTel,mKarTel,,D77,2016-07-30T18:55:00+06:00,
1000000000220271,77771122135,mKarTel,mKcell,mKarTel,D02,D01,2016-07-30T18:56:40+06:00,
