NPId,Number,RecipientId,DonorId,RangeHolderId,OldRoute,NewRoute,PortDate,RowCount
1000000000239950,77075809205,mMTS,mKarTel,mMTS,D01,D77,2016-09-04T10:32:27+06:00,7
1000000000239951,77763982022,mMTS,mKarTel,mKarTel,,D77,2016-09-04T10:38:14+06:00,
1000000000239952,77015555779,mAltel,mKcell,mKcell,,D07,2016-09-04T10:38:20+06:00,
1000000000239953,77773164224,mMTS,mKarTel,mKarTel,,D77,2016-09-04T10:53:30+06:00,
1000000000239954,77718281312,mMTS,mKarTel,mKarTel,,D77,2016-09-04T10:53:29+06:00,
1000000000239955,77058689898,mMTS,mKarTel,mKarTel,,D77,2016-09-04T10:54:16+06:00,
1000000000239956,77078897547,mMTS,mKarTel,mMTS,D01,D77,2016-09-04T10:57:35+06:00,
