NPId,Number,RecipientId,DonorId,RangeHolderId,OldRoute,NewRoute,PortDate,RowCount
1000000000154781,77017171739,mKcell,mAltel,mKcell,D07,D02,2016-04-18T18:01:50+06:00,38
1000000000154794,77017459927,mKcell,mMTS,mKcell,D77,D02,2016-04-18T18:09:55+06:00,
1000000000154811,77077704420,mKcell,mMTS,mMTS,,D02,2016-04-18T18:15:50+06:00,
1000000000154828,77000000210,mKcell,mAltel,mAltel,,D02,2016-04-18T18:28:23+06:00,
1000000000154901,77001110076,mKcell,mAltel,mAltel,,D02,2016-04-18T18:04:01+06:00,
1000000000154942,77018888746,mKcell,mKarTel,mKcell,D01,D02,2016-04-18T18:28:23+06:00,
1000000000155128,77082696900,mMTS,mAltel,mAltel,,D77,2016-04-18T18:00:17+06:00,
1000000000155129,77014445572,mMTS,mAltel,mKcell,D07,D77,2016-04-18T18:00:59+06:00,
1000000000155131,77086901225,mMTS,mAltel,mAltel,,D77,2016-04-18T18:01:54+06:00,
1000000000155132,77712092828,mMTS,mKarTel,mKarTel,,D77,2016-04-18T18:02:28+06:00,
1000000000155133,77019998853,mKarTel,mKcell,mKcell,,D01,2016-04-18T18:03:04+06:00,
1000000000155135,77089798577,mKarTel,mAltel,mAltel,,D01,2016-04-18T18:04:40+06:00,
1000000000155136,77077248440,mMTS,mAltel,mMTS,D07,D77,2016-04-18T18:05:17+06:00,
1000000000155137,77015888358,mKarTel,mKcell,mKcell,,D01,2016-04-18T18:07:12+06:00,
1000000000155138,77013457391,mMTS,mKcell,mKcell,,D77,2016-04-18T18:07:10+06:00,
1000000000155139,77077888600,mKcell,mMTS,mMTS,,D02,2016-04-18T18:08:57+06:00,
1000000000155140,77753692177,mKcell,mAltel,mKcell,D07,D02,2016-04-18T18:08:56+06:00,
1000000000155142,77088460061,mMTS,mAltel,mAltel,,D77,2016-04-18T18:07:00+06:00,
1000000000155143,77000888676,mKcell,mAltel,mAltel,,D02,2016-04-18T18:09:09+06:00,
1000000000155144,77089666958,mMTS,mAltel,mAltel,,D77,2016-04-18T18:08:37+06:00,
1000000000155146,77756592195,mKcell,mMTS,mKcell,D77,D02,2016-04-18T18:09:40+06:00,
1000000000155147,77766226000,mKarTel,mAltel,mKarTel,D07,D01,2016-04-18T18:10:22+06:00,
1000000000155148,77000888575,mKcell,mAltel,mAltel,,D02,2016-04-18T18:10:13+06:00,
1000000000155149,77083082223,mKcell,mAltel,mAltel,,D02,2016-04-18T18:11:22+06:00,
1000000000155154,77077766662,mAltel,mMTS,mMTS,,D07,2016-04-18T18:14:24+06:00,
1000000000155157,77017611289,mMTS,mKcell,mKcell,,D77,2016-04-18T18:16:31+06:00,
1000000000155158,77058986998,mAltel,mKarTel,mKarTel,,D07,2016-04-18T18:17:16+06:00,
1000000000155159,77051111281,mMTS,mKarTel,mKarTel,,D77,2016-04-18T18:17:23+06:00,
1000000000155160,77710003733,mMTS,mKarTel,mKarTel,,D77,2016-04-18T18:17:41+06:00,
1000000000155163,77772809655,mMTS,mKarTel,mKarTel,,D77,2016-04-18T18:20:27+06:00,
1000000000155165,77024111333,mMTS,mKcell,mKcell,,D77,2016-04-18T18:20:45+06:00,
1000000000155167,77714444150,mKcell,mKarTel,mKarTel,,D02,2016-04-18T18:24:35+06:00,
1000000000155169,77012067403,mMTS,mKcell,mKcell,,D77,2016-04-18T18:25:05+06:00,
1000000000155170,77023789977,mAltel,mKcell,mKcell,,D07,2016-04-18T18:25:48+06:00,
1000000000155172,77011221221,mAltel,mKcell,mKcell,,D07,2016-04-18T18:28:53+06:00,
1000000000155173,77076931965,mKarTel,mMTS,mMTS,,D01,2016-04-18T18:28:42+06:00,
1000000000155174,77089112234,mKarTel,mAltel,mAltel,,D01,2016-04-18T18:28:47+06:00,
1000000000155175,77781500020,mMTS,mKcell,mKcell,,D77,2016-04-18T18:29:35+06:00,
