NPId,Number,RecipientId,DonorId,RangeHolderId,OldRoute,NewRoute,PortDate,RowCount
1000000000104359,77015273192,mKarTel,mKcell,mKcell,,D01,2016-03-02T11:58:57+06:00,51
1000000000104359,77019670698,mKarTel,mKcell,mKcell,,D01,2016-03-02T11:58:57+06:00,
1000000000104359,77019670699,mKarTel,mKcell,mKcell,,D01,2016-03-02T11:58:57+06:00,
1000000000104359,77019670705,mKarTel,mKcell,mKcell,,D01,2016-03-02T11:58:57+06:00,
1000000000104359,77019670719,mKarTel,mKcell,mKcell,,D01,2016-03-02T11:58:57+06:00,
1000000000104359,77019670721,mKarTel,mKcell,mKcell,,D01,2016-03-02T11:58:57+06:00,
1000000000104359,77019670722,mKarTel,mKcell,mKcell,,D01,2016-03-02T11:58:57+06:00,
1000000000104359,77019670723,mKarTel,mKcell,mKcell,,D01,2016-03-02T11:58:57+06:00,
1000000000104359,77019670724,mKarTel,mKcell,mKcell,,D01,2016-03-02T11:58:57+06:00,
1000000000104359,77019670725,mKarTel,mKcell,mKcell,,D01,2016-03-02T11:58:57+06:00,
1000000000104359,77019670726,mKarTel,mKcell,mKcell,,D01,2016-03-02T11:58:57+06:00,
1000000000104359,77019670727,mKarTel,mKcell,mKcell,,D01,2016-03-02T11:58:57+06:00,
1000000000104359,77019670728,mKarTel,mKcell,mKcell,,D01,2016-03-02T11:58:57+06:00,
1000000000104359,77019670729,mKarTel,mKcell,mKcell,,D01,2016-03-02T11:58:57+06:00,
1000000000104359,77019670730,mKarTel,mKcell,mKcell,,D01,2016-03-02T11:58:57+06:00,
1000000000104359,77019670731,mKarTel,mKcell,mKcell,,D01,2016-03-02T11:58:57+06:00,
1000000000104359,77019670732,mKarTel,mKcell,mKcell,,D01,2016-03-02T11:58:57+06:00,
1000000000104547,77754785207,mMTS,mKcell,mKcell,,D77,2016-03-02T11:30:37+06:00,
1000000000104549,77778004109,mMTS,mKarTel,mKarTel,,D77,2016-03-02T11:31:49+06:00,
1000000000104550,77766074949,mMTS,mKarTel,mKarTel,,D77,2016-03-02T11:32:16+06:00,
1000000000104551,77776747109,mMTS,mKarTel,mKarTel,,D77,2016-03-02T11:36:24+06:00,
1000000000104553,77015321339,mMTS,mKcell,mKcell,,D77,2016-03-02T11:37:14+06:00,
1000000000104554,77766462424,mMTS,mKarTel,mKarTel,,D77,2016-03-02T11:37:18+06:00,
1000000000104555,77016011144,mMTS,mKcell,mKcell,,D77,2016-03-02T11:37:24+06:00,
1000000000104556,77007777700,mKarTel,mAltel,mAltel,,D01,2016-03-02T11:37:49+06:00,
1000000000104557,77019178981,mMTS,mKcell,mKcell,,D77,2016-03-02T11:38:03+06:00,
1000000000104558,77027469519,mMTS,mKcell,mKcell,,D77,2016-03-02T11:38:15+06:00,
1000000000104559,77059993233,mAltel,mKarTel,mKarTel,,D07,2016-03-02T11:39:28+06:00,
1000000000104562,77005000000,mKarTel,mAltel,mAltel,,D01,2016-03-02T11:40:10+06:00,
1000000000104564,77012217611,mMTS,mKcell,mKcell,,D77,2016-03-02T11:40:38+06:00,
1000000000104565,77055963833,mAltel,mKarTel,mKarTel,,D07,2016-03-02T11:41:35+06:00,
1000000000104566,77017250830,mKarTel,mKcell,mKcell,,D01,2016-03-02T11:42:41+06:00,
1000000000104567,77714193737,mMTS,mKarTel,mKarTel,,D77,2016-03-02T11:42:14+06:00,
1000000000104568,77073133334,mAltel,mMTS,mMTS,,D07,2016-03-02T11:41:51+06:00,
1000000000104569,77760770076,mKcell,mKarTel,mKarTel,,D02,2016-03-02T11:42:42+06:00,
1000000000104570,77059869981,mKcell,mKarTel,mKarTel,,D02,2016-03-02T11:43:26+06:00,
1000000000104571,77014848386,mKarTel,mKcell,mKcell,,D01,2016-03-02T11:43:46+06:00,
1000000000104572,77751515649,mAltel,mKcell,mKcell,,D07,2016-03-02T11:44:41+06:00,
1000000000104573,77775714774,mAltel,mKarTel,mKarTel,,D07,2016-03-02T11:45:05+06:00,
1000000000104574,77021117299,mMTS,mKcell,mKcell,,D77,2016-03-02T11:47:24+06:00,
1000000000104575,77019704104,mMTS,mKcell,mKcell,,D77,2016-03-02T11:47:24+06:00,
1000000000104576,77766031999,mMTS,mKarTel,mKarTel,,D77,2016-03-02T11:47:08+06:00,
1000000000104577,77751515089,mAltel,mKcell,mKcell,,D07,2016-03-02T11:47:24+06:00,
1000000000104578,77018320131,mMTS,mKcell,mKcell,,D77,2016-03-02T11:47:32+06:00,
1000000000104581,77013303707,mAltel,mKcell,mKcell,,D07,2016-03-02T11:50:02+06:00,
1000000000104582,77760300004,mMTS,mKarTel,mKarTel,,D77,2016-03-02T11:50:22+06:00,
1000000000104585,77018707011,mAltel,mKcell,mKcell,,D07,2016-03-02T11:52:09+06:00,
1000000000104586,77025538173,mMTS,mKcell,mKcell,,D77,2016-03-02T11:52:21+06:00,
1000000000104588,77012331677,mAltel,mKcell,mKcell,,D07,2016-03-02T11:55:23+06:00,
1000000000104590,77766461515,mMTS,mKarTel,mKarTel,,D77,2016-03-02T11:57:13+06:00,
1000000000104592,77079087410,mKarTel,mMTS,mMTS,,D01,2016-03-02T11:59:42+06:00,
