NPId,Number,RecipientId,DonorId,RangeHolderId,OldRoute,NewRoute,PortDate,RowCount
1000000000266359,77017363651,mKcell,mMTS,mKcell,D77,D02,2016-10-22T12:01:54+06:00,17
1000000000266360,77773177772,mKcell,mKarTel,mKarTel,,D02,2016-10-22T12:02:52+06:00,
1000000000266361,77019600899,mKarTel,mKcell,mKcell,,D01,2016-10-22T12:04:21+06:00,
1000000000266362,77072770003,mKcell,mMTS,mMTS,,D02,2016-10-22T12:05:02+06:00,
1000000000266363,77017363358,mMTS,mKcell,mKcell,,D77,2016-10-22T12:07:43+06:00,
1000000000266364,77073033707,mKcell,mMTS,mMTS,,D02,2016-10-22T12:11:22+06:00,
1000000000266365,77015228543,mKcell,mKarTel,mKcell,D01,D02,2016-10-22T12:13:54+06:00,
1000000000266366,77085439787,mMTS,mAltel,mAltel,,D77,2016-10-22T12:14:52+06:00,
1000000000266368,77772542020,mMTS,mKarTel,mKarTel,,D77,2016-10-22T12:17:51+06:00,
1000000000266369,77782475517,mMTS,mKcell,mKcell,,D77,2016-10-22T12:17:37+06:00,
1000000000266370,77014272290,mKarTel,mKcell,mKcell,,D01,2016-10-22T12:20:48+06:00,
1000000000266371,77026454254,mMTS,mKcell,mKcell,,D77,2016-10-22T12:22:48+06:00,
1000000000266372,77774857062,mKcell,mKarTel,mKarTel,,D02,2016-10-22T12:24:12+06:00,
1000000000266375,77086180382,mMTS,mAltel,mAltel,,D77,2016-10-22T12:26:36+06:00,
1000000000266376,77071712527,mKarTel,mMTS,mMTS,,D01,2016-10-22T12:27:31+06:00,
1000000000266378,77784081533,mMTS,mKcell,mKcell,,D77,2016-10-22T12:29:00+06:00,
1000000000266379,77015502052,mKarTel,mKcell,mKcell,,D01,2016-10-22T12:29:16+06:00,
