NPId,Number,RecipientId,DonorId,RangeHolderId,OldRoute,NewRoute,PortDate,RowCount
1000000000359543,77716300100,mKcell,mKarTel,mKarTel,,D02,2017-04-04T15:33:56+06:00,32
1000000000359544,77056646868,mMTS,mKarTel,mKarTel,,D77,2017-04-04T15:34:02+06:00,
1000000000359545,77712556165,mKcell,mKarTel,mKarTel,,D02,2017-04-04T15:34:21+06:00,
1000000000359547,77479874597,mAltel,mMTS,mMTS,,D07,2017-04-04T15:36:43+06:00,
1000000000359548,77003332724,mKcell,mAltel,mAltel,,D02,2017-04-04T15:37:39+06:00,
1000000000359550,77005050096,mMTS,mAltel,mAltel,,D77,2017-04-04T15:37:38+06:00,
1000000000359551,77786160009,mMTS,mKcell,mKcell,,D77,2017-04-04T15:37:56+06:00,
1000000000359552,77753134012,mKarTel,mKcell,mKcell,,D01,2017-04-04T15:38:50+06:00,
1000000000359555,77077270717,mKcell,mMTS,mMTS,,D02,2017-04-04T15:42:46+06:00,
1000000000359558,77001589904,mKarTel,mAltel,mAltel,,D01,2017-04-04T15:43:39+06:00,
1000000000359559,77058888418,mKarTel,mAltel,mKarTel,D07,D01,2017-04-04T15:44:13+06:00,
1000000000359560,77055779922,mMTS,mKarTel,mKarTel,,D77,2017-04-04T15:44:48+06:00,
1000000000359561,77781202860,mKcell,mKarTel,mKcell,D01,D02,2017-04-04T15:45:58+06:00,
1000000000359562,77029484466,mAltel,mMTS,mKcell,D77,D07,2017-04-04T15:46:15+06:00,
1000000000359563,77016839677,mKarTel,mKcell,mKcell,,D01,2017-04-04T15:46:48+06:00,
1000000000359564,77017000783,mKcell,mKarTel,mKcell,D01,D02,2017-04-04T15:47:17+06:00,
1000000000359565,77075642558,mKcell,mKarTel,mMTS,D01,D02,2017-04-04T15:47:30+06:00,
1000000000359566,77001700173,mMTS,mAltel,mAltel,,D77,2017-04-04T15:47:58+06:00,
1000000000359567,77787131776,mMTS,mKcell,mKcell,,D77,2017-04-04T15:48:17+06:00,
1000000000359568,77001700181,mMTS,mAltel,mAltel,,D77,2017-04-04T15:49:57+06:00,
1000000000359569,77059179222,mMTS,mKarTel,mKarTel,,D77,2017-04-04T15:50:25+06:00,
1000000000359570,77010266219,mAltel,mKcell,mKcell,,D07,2017-04-04T15:50:41+06:00,
1000000000359571,77001700175,mMTS,mAltel,mAltel,,D77,2017-04-04T15:51:21+06:00,
1000000000359572,77773830547,mAltel,mKarTel,mKarTel,,D07,2017-04-04T15:52:15+06:00,
1000000000359573,77077772110,mKcell,mMTS,mMTS,,D02,2017-04-04T15:53:53+06:00,
1000000000359574,77079912005,mKarTel,mAltel,mMTS,D07,D01,2017-04-04T15:54:31+06:00,
1000000000359575,77762222770,mKcell,mKarTel,mKarTel,,D02,2017-04-04T15:55:08+06:00,
1000000000359576,77012121210,mKarTel,mKcell,mKcell,,D01,2017-04-04T15:55:48+06:00,
1000000000359577,77015354350,mKarTel,mKcell,mKcell,,D01,2017-04-04T15:56:25+06:00,
1000000000359578,77077051060,mMTS,mKarTel,mMTS,D01,D77,2017-04-04T15:58:08+06:00,
1000000000359580,77081046745,mKarTel,mAltel,mAltel,,D01,2017-04-04T15:58:58+06:00,
1000000000359582,77010551000,mAltel,mKcell,mKcell,,D07,2017-04-04T15:59:51+06:00,
