NPId,Number,RecipientId,DonorId,RangeHolderId,OldRoute,NewRoute,PortDate,RowCount
1000000000414758,77787771169,mMTS,mAltel,mKcell,D07,D77,2017-07-02T14:01:35+06:00,15
1000000000414760,77003091689,mAltel,mKarTel,mAltel,D01,D07,2017-07-02T14:03:22+06:00,
1000000000414761,77018002106,mAltel,mKcell,mKcell,,D07,2017-07-02T14:03:52+06:00,
1000000000414763,77028530601,mMTS,mKcell,mKcell,,D77,2017-07-02T14:07:29+06:00,
1000000000414764,77077069985,mKarTel,mMTS,mMTS,,D01,2017-07-02T14:10:53+06:00,
1000000000414765,77472057721,mKarTel,mMTS,mMTS,,D01,2017-07-02T14:11:17+06:00,
1000000000414766,77759124242,mKarTel,mKcell,mKcell,,D01,2017-07-02T14:11:41+06:00,
1000000000414767,77056078275,mMTS,mKarTel,mKarTel,,D77,2017-07-02T14:12:20+06:00,
1000000000414769,77774104825,mMTS,mKarTel,mKarTel,,D77,2017-07-02T14:16:13+06:00,
1000000000414771,77051661829,mMTS,mKarTel,mKarTel,,D77,2017-07-02T14:18:16+06:00,
1000000000414772,77771824898,mMTS,mKarTel,mKarTel,,D77,2017-07-02T14:19:53+06:00,
1000000000414773,77052606909,mMTS,mKarTel,mKarTel,,D77,2017-07-02T14:21:29+06:00,
1000000000414774,77017154553,mKarTel,mKcell,mKcell,,D01,2017-07-02T14:22:15+06:00,
1000000000414775,77014679288,mKarTel,mKcell,mKcell,,D01,2017-07-02T14:21:58+06:00,
1000000000414777,77057050050,mKarTel,mAltel,mKarTel,D07,D01,2017-07-02T14:24:48+06:00,
