NPId,Number,RecipientId,DonorId,RangeHolderId,OldRoute,NewRoute,PortDate,RowCount
1000000000185115,77057410543,mKarTel,mKcell,mKarTel,D02,D01,2016-06-01T09:03:04+06:00,48
1000000000185117,77017148618,mKarTel,mKcell,mKcell,,D01,2016-06-01T09:03:05+06:00,
1000000000185121,77013061881,mKarTel,mKcell,mKcell,,D01,2016-06-01T09:03:01+06:00,
1000000000185122,77015892932,mKarTel,mKcell,mKcell,,D01,2016-06-01T09:03:05+06:00,
1000000000185124,77753726116,mKarTel,mKcell,mKcell,,D01,2016-06-01T09:03:06+06:00,
1000000000185127,77017816545,mKarTel,mKcell,mKcell,,D01,2016-06-01T09:03:57+06:00,
1000000000185127,77018048537,mKarTel,mKcell,mKcell,,D01,2016-06-01T09:03:57+06:00,
1000000000185127,77018048539,mKarTel,mKcell,mKcell,,D01,2016-06-01T09:03:57+06:00,
1000000000185127,77019371532,mKarTel,mKcell,mKcell,,D01,2016-06-01T09:03:57+06:00,
1000000000185127,77019371533,mKarTel,mKcell,mKcell,,D01,2016-06-01T09:03:57+06:00,
1000000000185127,77019371534,mKarTel,mKcell,mKcell,,D01,2016-06-01T09:03:57+06:00,
1000000000185127,77019371536,mKarTel,mKcell,mKcell,,D01,2016-06-01T09:03:57+06:00,
1000000000185127,77019371538,mKarTel,mKcell,mKcell,,D01,2016-06-01T09:03:57+06:00,
1000000000185127,77019371539,mKarTel,mKcell,mKcell,,D01,2016-06-01T09:03:57+06:00,
1000000000185127,77019371540,mKarTel,mKcell,mKcell,,D01,2016-06-01T09:03:57+06:00,
1000000000185127,77019371544,mKarTel,mKcell,mKcell,,D01,2016-06-01T09:03:57+06:00,
1000000000185127,77019371545,mKarTel,mKcell,mKcell,,D01,2016-06-01T09:03:57+06:00,
1000000000185127,77019371546,mKarTel,mKcell,mKcell,,D01,2016-06-01T09:03:57+06:00,
1000000000185127,77019371547,mKarTel,mKcell,mKcell,,D01,2016-06-01T09:03:57+06:00,
1000000000185127,77019371548,mKarTel,mKcell,mKcell,,D01,2016-06-01T09:03:57+06:00,
1000000000185127,77019371549,mKarTel,mKcell,mKcell,,D01,2016-06-01T09:03:57+06:00,
1000000000185127,77019371560,mKarTel,mKcell,mKcell,,D01,2016-06-01T09:03:57+06:00,
1000000000185127,77019371562,mKarTel,mKcell,mKcell,,D01,2016-06-01T09:03:57+06:00,
1000000000185127,77019371563,mKarTel,mKcell,mKcell,,D01,2016-06-01T09:03:57+06:00,
1000000000185127,77019371565,mKarTel,mKcell,mKcell,,D01,2016-06-01T09:03:57+06:00,
1000000000185127,77019381902,mKarTel,mKcell,mKcell,,D01,2016-06-01T09:03:57+06:00,
1000000000185127,77019381903,mKarTel,mKcell,mKcell,,D01,2016-06-01T09:03:57+06:00,
1000000000185127,77019381904,mKarTel,mKcell,mKcell,,D01,2016-06-01T09:03:57+06:00,
1000000000185127,77019673779,mKarTel,mKcell,mKcell,,D01,2016-06-01T09:03:57+06:00,
1000000000185127,77019834766,mKarTel,mKcell,mKcell,,D01,2016-06-01T09:03:57+06:00,
1000000000185128,77011119722,mKarTel,mKcell,mKcell,,D01,2016-06-01T09:03:13+06:00,
1000000000185129,77777808012,mKarTel,mAltel,mKarTel,D07,D01,2016-06-01T09:04:37+06:00,
1000000000185132,77010143702,mKarTel,mKcell,mKcell,,D01,2016-06-01T09:29:29+06:00,
1000000000185132,77010145903,mKarTel,mKcell,mKcell,,D01,2016-06-01T09:29:29+06:00,
1000000000185132,77012186409,mKarTel,mKcell,mKcell,,D01,2016-06-01T09:29:29+06:00,
1000000000185132,77012272643,mKarTel,mKcell,mKcell,,D01,2016-06-01T09:29:29+06:00,
1000000000185132,77015128791,mKarTel,mKcell,mKcell,,D01,2016-06-01T09:29:29+06:00,
1000000000185132,77019833001,mKarTel,mKcell,mKcell,,D01,2016-06-01T09:29:29+06:00,
1000000000185132,77019833002,mKarTel,mKcell,mKcell,,D01,2016-06-01T09:29:29+06:00,
1000000000185132,77019833004,mKarTel,mKcell,mKcell,,D01,2016-06-01T09:29:29+06:00,
1000000000185132,77019833005,mKarTel,mKcell,mKcell,,D01,2016-06-01T09:29:29+06:00,
1000000000185132,77019833007,mKarTel,mKcell,mKcell,,D01,2016-06-01T09:29:29+06:00,
1000000000185132,77789748283,mKarTel,mKcell,mKcell,,D01,2016-06-01T09:29:29+06:00,
1000000000185132,77789748289,mKarTel,mKcell,mKcell,,D01,2016-06-01T09:29:29+06:00,
1000000000185144,77012660277,mMTS,mKcell,mKcell,,D77,2016-06-01T09:19:51+06:00,
1000000000185146,77780006768,mKarTel,mAltel,mKcell,D07,D01,2016-06-01T09:24:47+06:00,
1000000000185150,77056736633,mMTS,mKarTel,mKarTel,,D77,2016-06-01T09:27:08+06:00,
1000000000185152,77056130261,mKarTel,mMTS,mKarTel,D77,D01,2016-06-01T09:29:14+06:00,
