NPId,Number,RecipientId,DonorId,RangeHolderId,OldRoute,NewRoute,PortDate,RowCount
1000000000274959,77019901122,mKcell,mKarTel,mKcell,D01,D02,2016-11-06T14:01:52+06:00,7
1000000000274960,77021190656,mMTS,mKcell,mKcell,,D77,2016-11-06T14:01:54+06:00,
1000000000274963,77777160500,mMTS,mKarTel,mKarTel,,D77,2016-11-06T14:26:02+06:00,
1000000000274964,77771633257,mMTS,mKarTel,mKarTel,,D77,2016-11-06T14:11:28+06:00,
1000000000274965,77753249898,mMTS,mKcell,mKcell,,D77,2016-11-06T14:14:42+06:00,
1000000000274966,77771559117,mMTS,mKarTel,mKarTel,,D77,2016-11-06T14:20:08+06:00,
1000000000274967,77052560531,mMTS,mKarTel,mKarTel,,D77,2016-11-06T14:27:53+06:00,
