NPId,Number,RecipientId,DonorId,RangeHolderId,OldRoute,NewRoute,PortDate,RowCount
1000000000426914,77757863561,mMTS,mKcell,mKcell,D02,D77,2017-07-24T12:00:56+06:00,24
1000000000426916,77005505037,mKcell,mAltel,mAltel,,D02,2017-07-24T12:03:43+06:00,
1000000000426917,77086913562,mKarTel,mAltel,mAltel,,D01,2017-07-24T12:05:37+06:00,
1000000000426919,77052709959,mMTS,mKarTel,mKarTel,,D77,2017-07-24T12:07:27+06:00,
1000000000426920,77005005527,mKcell,mAltel,mAltel,,D02,2017-07-24T12:07:52+06:00,
1000000000426923,77004490846,mAltel,mKcell,mAltel,D02,D07,2017-07-24T12:09:55+06:00,
1000000000426924,77471686158,mKcell,mMTS,mMTS,,D02,2017-07-24T12:10:42+06:00,
1000000000426926,77005005537,mKcell,mAltel,mAltel,,D02,2017-07-24T12:11:07+06:00,
1000000000426929,77756971879,mAltel,mKcell,mKcell,,D07,2017-07-24T12:11:19+06:00,
1000000000426930,77017232023,mMTS,mKcell,mKcell,,D77,2017-07-24T12:14:35+06:00,
1000000000426932,77052672275,mKcell,mKarTel,mKarTel,,D02,2017-07-24T12:18:06+06:00,
1000000000426933,77053277598,mAltel,mKarTel,mKarTel,,D07,2017-07-24T12:19:04+06:00,
1000000000426934,77077983677,mAltel,mMTS,mMTS,,D07,2017-07-24T12:18:59+06:00,
1000000000426935,77005005567,mKcell,mAltel,mAltel,,D02,2017-07-24T12:20:01+06:00,
1000000000426937,77028200067,mMTS,mKcell,mKcell,,D77,2017-07-24T12:22:06+06:00,
1000000000426939,77028336061,mKarTel,mKcell,mKcell,,D01,2017-07-24T12:23:03+06:00,
1000000000426940,77005005574,mKcell,mAltel,mAltel,,D02,2017-07-24T12:23:28+06:00,
1000000000426941,77771696464,mMTS,mKarTel,mKarTel,,D77,2017-07-24T12:23:37+06:00,
1000000000426943,77077788891,mKcell,mMTS,mMTS,,D02,2017-07-24T12:23:41+06:00,
1000000000426944,77714909092,mKarTel,mMTS,mKarTel,D77,D01,2017-07-24T12:24:12+06:00,
1000000000426945,77077983631,mAltel,mMTS,mMTS,,D07,2017-07-24T12:24:00+06:00,
1000000000426948,77077273545,mAltel,mMTS,mMTS,,D07,2017-07-24T12:24:55+06:00,
1000000000426949,77478389358,mKarTel,mMTS,mMTS,,D01,2017-07-24T12:25:10+06:00,
1000000000426954,77005005576,mKcell,mAltel,mAltel,,D02,2017-07-24T12:28:20+06:00,
