NPId,Number,RecipientId,DonorId,RangeHolderId,OldRoute,NewRoute,PortDate,RowCount
1000000000281729,77072742437,mKarTel,mMTS,mMTS,,D01,2016-11-21T10:39:06+06:00,9
1000000000281730,77018665354,mMTS,mKcell,mKcell,,D77,2016-11-21T10:41:38+06:00,
1000000000281732,77024078635,mKarTel,mKcell,mKcell,,D01,2016-11-21T10:43:17+06:00,
1000000000281733,77022997910,mKarTel,mKcell,mKcell,,D01,2016-11-21T10:43:59+06:00,
1000000000281735,77012709076,mMTS,mKcell,mKcell,,D77,2016-11-21T10:47:05+06:00,
1000000000281736,77473089173,mKarTel,mMTS,mMTS,,D01,2016-11-21T10:47:43+06:00,
1000000000281737,77027895681,mMTS,mKcell,mKcell,,D77,2016-11-21T10:49:49+06:00,
1000000000281739,77761117611,mAltel,mKarTel,mKarTel,,D07,2016-11-21T10:52:04+06:00,
1000000000281740,77472009840,mKarTel,mMTS,mMTS,,D01,2016-11-21T10:59:31+06:00,
