NPId,Number,RecipientId,DonorId,RangeHolderId,OldRoute,NewRoute,PortDate,RowCount
1000000000209849,77758523201,mKarTel,mKcell,mKcell,,D01,2016-07-12T13:00:03+06:00,20
1000000000209850,77077999095,mMTS,mKcell,mMTS,D02,D77,2016-07-12T13:00:41+06:00,
1000000000209852,77022100335,mAltel,mKcell,mKcell,,D07,2016-07-12T13:01:56+06:00,
1000000000209853,77072209177,mKarTel,mMTS,mMTS,,D01,2016-07-12T13:01:58+06:00,
1000000000209855,77012660526,mAltel,mKcell,mKcell,,D07,2016-07-12T13:10:14+06:00,
1000000000209857,77757993914,mAltel,mKcell,mKcell,,D07,2016-07-12T13:11:17+06:00,
1000000000209858,77776728135,mKcell,mKarTel,mKarTel,,D02,2016-07-12T13:11:51+06:00,
1000000000209859,77755084444,mAltel,mKcell,mKcell,D02,D07,2016-07-12T13:12:19+06:00,
1000000000209860,77012088720,mMTS,mKcell,mKcell,,D77,2016-07-12T13:12:37+06:00,
1000000000209862,77016474714,mKarTel,mKcell,mKcell,,D01,2016-07-12T13:17:27+06:00,
1000000000209863,77752635626,mMTS,mKcell,mKcell,,D77,2016-07-12T13:17:27+06:00,
1000000000209865,77783041644,mKarTel,mKcell,mKcell,,D01,2016-07-12T13:19:41+06:00,
1000000000209866,77086299673,mKarTel,mAltel,mAltel,,D01,2016-07-12T13:19:10+06:00,
1000000000209867,77029343777,mMTS,mKcell,mKcell,,D77,2016-07-12T13:20:15+06:00,
1000000000209868,77054444243,mKcell,mKarTel,mKarTel,,D02,2016-07-12T13:20:26+06:00,
1000000000209871,77019999334,mMTS,mKcell,mKcell,,D77,2016-07-12T13:25:37+06:00,
1000000000209872,77018518540,mMTS,mKcell,mKcell,,D77,2016-07-12T13:27:44+06:00,
1000000000209873,77477707785,mKarTel,mMTS,mMTS,,D01,2016-07-12T13:27:54+06:00,
1000000000209874,77071777527,mKarTel,mMTS,mMTS,,D01,2016-07-12T13:28:43+06:00,
1000000000209875,77001456440,mMTS,mAltel,mAltel,,D77,2016-07-12T13:29:28+06:00,
