NPId,Number,RecipientId,DonorId,RangeHolderId,OldRoute,NewRoute,PortDate,RowCount
1000000000232593,77057870007,mMTS,mKarTel,mKarTel,,D77,2016-08-22T17:00:35+06:00,18
1000000000232594,77007600719,mMTS,mAltel,mAltel,,D77,2016-08-22T17:01:23+06:00,
1000000000232595,77019400001,mKarTel,mKcell,mKcell,,D01,2016-08-22T17:02:49+06:00,
1000000000232596,77014746602,mAltel,mKcell,mKcell,D02,D07,2016-08-22T17:02:58+06:00,
1000000000232597,77774167904,mMTS,mKarTel,mKarTel,,D77,2016-08-22T17:04:28+06:00,
1000000000232598,77052962200,mMTS,mKarTel,mKarTel,,D77,2016-08-22T17:06:34+06:00,
1000000000232601,77471414141,mKcell,mMTS,mMTS,,D02,2016-08-22T17:08:36+06:00,
1000000000232602,77081093077,mKcell,mMTS,mAltel,D77,D02,2016-08-22T17:10:06+06:00,
1000000000232603,77076300914,mKcell,mMTS,mMTS,,D02,2016-08-22T17:10:13+06:00,
1000000000232604,77777172707,mKarTel,mMTS,mKarTel,D77,D01,2016-08-22T17:11:22+06:00,
1000000000232607,77051427878,mKcell,mKarTel,mKarTel,,D02,2016-08-22T17:14:17+06:00,
1000000000232608,77757509898,mAltel,mKcell,mKcell,,D07,2016-08-22T17:16:39+06:00,
1000000000232610,77004937111,mMTS,mAltel,mAltel,,D77,2016-08-22T17:18:23+06:00,
1000000000232613,77052220236,mMTS,mKarTel,mKarTel,,D77,2016-08-22T17:22:51+06:00,
1000000000232614,77023371186,mKcell,mMTS,mKcell,D77,D02,2016-08-22T17:23:24+06:00,
1000000000232615,77081714080,mMTS,mAltel,mAltel,,D77,2016-08-22T17:24:06+06:00,
1000000000232616,77053806483,mAltel,mKarTel,mKarTel,,D07,2016-08-22T17:26:53+06:00,
1000000000232617,77026488848,mKcell,mMTS,mKcell,D77,D02,2016-08-22T17:26:59+06:00,
