NPId,Number,RecipientId,DonorId,RangeHolderId,OldRoute,NewRoute,PortDate,RowCount
1000000000322797,77003472938,mKarTel,mAltel,mAltel,,D01,2017-02-03T12:01:16+06:00,19
1000000000322798,77784081983,mMTS,mKcell,mKcell,,D77,2017-02-03T12:01:49+06:00,
1000000000322799,77071233707,mKcell,mMTS,mMTS,,D02,2017-02-03T12:05:48+06:00,
1000000000322801,77783893047,mMTS,mKcell,mKcell,,D77,2017-02-03T12:07:52+06:00,
1000000000322802,77021660556,mMTS,mKcell,mKcell,,D77,2017-02-03T12:08:37+06:00,
1000000000322803,77751447766,mKarTel,mKcell,mKcell,,D01,2017-02-03T12:09:33+06:00,
1000000000322805,77715122201,mKarTel,mMTS,mKarTel,D77,D01,2017-02-03T12:09:38+06:00,
1000000000322806,77474656119,mKcell,mMTS,mMTS,,D02,2017-02-03T12:10:46+06:00,
1000000000322808,77772367127,mKarTel,mMTS,mKarTel,D77,D01,2017-02-03T12:14:34+06:00,
1000000000322809,77761866444,mAltel,mKarTel,mKarTel,,D07,2017-02-03T12:15:45+06:00,
1000000000322810,77013054365,mKcell,mMTS,mKcell,D77,D02,2017-02-03T12:16:11+06:00,
1000000000322811,77471337796,mMTS,mKcell,mMTS,D02,D77,2017-02-03T12:18:19+06:00,
1000000000322814,77027799969,mKarTel,mKcell,mKcell,,D01,2017-02-03T12:21:23+06:00,
1000000000322815,77017689978,mKarTel,mKcell,mKcell,,D01,2017-02-03T12:22:40+06:00,
1000000000322816,77058312860,mMTS,mKarTel,mKarTel,,D77,2017-02-03T12:23:11+06:00,
1000000000322817,77782090740,mAltel,mKcell,mKcell,,D07,2017-02-03T12:23:05+06:00,
1000000000322819,77014422233,mKarTel,mKcell,mKcell,,D01,2017-02-03T12:25:14+06:00,
1000000000322820,77003289497,mKcell,mAltel,mAltel,,D02,2017-02-03T12:25:38+06:00,
1000000000322823,77057739287,mKarTel,mMTS,mKarTel,D77,D01,2017-02-03T12:28:38+06:00,
