NPId,Number,RecipientId,DonorId,RangeHolderId,OldRoute,NewRoute,PortDate,RowCount
1000000000300705,77011510015,mKarTel,mKcell,mKcell,,D01,2016-12-26T12:02:15+06:00,30
1000000000300706,77057263931,mMTS,mKarTel,mKarTel,,D77,2016-12-26T12:02:08+06:00,
1000000000300708,77015266126,mKcell,mKarTel,mKcell,D01,D02,2016-12-26T12:19:10+06:00,
1000000000300712,77020117011,mMTS,mKcell,mKcell,,D77,2016-12-26T12:06:09+06:00,
1000000000300713,77017547306,mKcell,mKarTel,mKcell,D01,D02,2016-12-26T12:07:54+06:00,
1000000000300714,77078129026,mMTS,mAltel,mMTS,D07,D77,2016-12-26T12:07:38+06:00,
1000000000300715,77751904853,mMTS,mKcell,mKcell,,D77,2016-12-26T12:07:40+06:00,
1000000000300716,77076491280,mKcell,mMTS,mMTS,,D02,2016-12-26T12:10:11+06:00,
1000000000300720,77758691000,mMTS,mKcell,mKcell,,D77,2016-12-26T12:15:13+06:00,
1000000000300721,77027312121,mKcell,mMTS,mKcell,D77,D02,2016-12-26T12:16:06+06:00,
1000000000300722,77013723686,mMTS,mKcell,mKcell,,D77,2016-12-26T12:17:26+06:00,
1000000000300723,77774200042,mKarTel,mAltel,mKarTel,D07,D01,2016-12-26T12:17:37+06:00,
1000000000300724,77751904815,mMTS,mKcell,mKcell,,D77,2016-12-26T12:17:48+06:00,
1000000000300726,77081459500,mMTS,mAltel,mAltel,,D77,2016-12-26T12:19:19+06:00,
1000000000300727,77756989446,mKcell,mMTS,mKcell,D77,D02,2016-12-26T12:20:17+06:00,
1000000000300728,77074676255,mKcell,mMTS,mMTS,,D02,2016-12-26T12:21:21+06:00,
1000000000300729,77788818086,mKarTel,mKcell,mKcell,,D01,2016-12-26T12:21:37+06:00,
1000000000300730,77711377373,mMTS,mKarTel,mKarTel,,D77,2016-12-26T12:21:45+06:00,
1000000000300731,77764339944,mKarTel,mMTS,mKarTel,D77,D01,2016-12-26T12:21:42+06:00,
1000000000300732,77770660667,mKarTel,mMTS,mKarTel,D77,D01,2016-12-26T12:23:03+06:00,
1000000000300733,77011500407,mMTS,mKcell,mKcell,,D77,2016-12-26T12:23:42+06:00,
1000000000300734,77716677555,mAltel,mMTS,mKarTel,D77,D07,2016-12-26T12:23:50+06:00,
1000000000300735,77075115009,mAltel,mKarTel,mMTS,D01,D07,2016-12-26T12:24:31+06:00,
1000000000300737,77017393555,mKarTel,mKcell,mKcell,,D01,2016-12-26T12:24:57+06:00,
1000000000300738,77772295562,mKarTel,mAltel,mKarTel,D07,D01,2016-12-26T12:27:38+06:00,
1000000000300739,77779678067,mMTS,mKarTel,mKarTel,,D77,2016-12-26T12:27:58+06:00,
1000000000300740,77017438873,mMTS,mKcell,mKcell,,D77,2016-12-26T12:27:44+06:00,
1000000000300741,77784531060,mMTS,mKcell,mKcell,,D77,2016-12-26T12:27:44+06:00,
1000000000300742,77019156341,mKarTel,mKcell,mKcell,,D01,2016-12-26T12:28:09+06:00,
1000000000300744,77017439525,mMTS,mKcell,mKcell,,D77,2016-12-26T12:29:16+06:00,
