NPId,Number,RecipientId,DonorId,RangeHolderId,OldRoute,NewRoute,PortDate,RowCount
1000000000300263,77017744293,mMTS,mKcell,mKcell,,D77,2016-12-24T20:26:24+06:00,3
1000000000300264,77784801690,mMTS,mKcell,mKcell,,D77,2016-12-24T20:27:45+06:00,
1000000000300265,77762266997,mMTS,mKarTel,mKarTel,,D77,2016-12-24T20:28:00+06:00,
