NPId,Number,RecipientId,DonorId,RangeHolderId,OldRoute,NewRoute,PortDate,RowCount
1000000000143151,77710968960,mAltel,mKarTel,mKarTel,,D07,2016-04-05T14:00:29+06:00,54
1000000000143154,77001332426,mMTS,mAltel,mAltel,,D77,2016-04-05T14:00:04+06:00,
1000000000143155,77024559325,mMTS,mKcell,mKcell,,D77,2016-04-05T14:01:12+06:00,
1000000000143156,77756368185,mMTS,mKcell,mKcell,,D77,2016-04-05T14:02:09+06:00,
1000000000143158,77754239999,mMTS,mKcell,mKcell,,D77,2016-04-05T14:09:12+06:00,
1000000000143159,77056663311,mMTS,mKarTel,mKarTel,,D77,2016-04-05T14:05:26+06:00,
1000000000143161,77072221228,mAltel,mMTS,mMTS,,D07,2016-04-05T14:05:14+06:00,
1000000000143162,77089700043,mMTS,mAltel,mAltel,,D77,2016-04-05T14:05:52+06:00,
1000000000143163,77774888787,mMTS,mKcell,mKarTel,D02,D77,2016-04-05T14:09:51+06:00,
1000000000143164,77051718290,mMTS,mKarTel,mKarTel,,D77,2016-04-05T14:08:18+06:00,
1000000000143166,77021426723,mMTS,mKcell,mKcell,,D77,2016-04-05T14:09:51+06:00,
1000000000143168,77053042545,mMTS,mKarTel,mKarTel,,D77,2016-04-05T14:08:53+06:00,
1000000000143169,77017686701,mMTS,mKcell,mKcell,,D77,2016-04-05T14:09:51+06:00,
1000000000143170,77028880785,mMTS,mKcell,mKcell,,D77,2016-04-05T14:09:51+06:00,
1000000000143171,77081712107,mMTS,mAltel,mAltel,,D77,2016-04-05T14:07:42+06:00,
1000000000143172,77086632013,mMTS,mAltel,mAltel,,D77,2016-04-05T14:07:53+06:00,
1000000000143174,77751039180,mMTS,mKcell,mKcell,,D77,2016-04-05T14:09:51+06:00,
1000000000143175,77072020436,mKcell,mMTS,mMTS,,D02,2016-04-05T14:10:30+06:00,
1000000000143176,77003330633,mMTS,mAltel,mAltel,,D77,2016-04-05T14:10:03+06:00,
1000000000143177,77479521366,mKcell,mMTS,mMTS,,D02,2016-04-05T14:10:42+06:00,
1000000000143178,77015571515,mKcell,mAltel,mKcell,D07,D02,2016-04-05T14:10:43+06:00,
1000000000143179,77719793770,mKcell,mKarTel,mKarTel,,D02,2016-04-05T14:12:22+06:00,
1000000000143182,77756009548,mMTS,mKcell,mKcell,,D77,2016-04-05T14:10:57+06:00,
1000000000143183,77075000567,mAltel,mMTS,mMTS,,D07,2016-04-05T14:11:01+06:00,
1000000000143184,77751302797,mMTS,mKcell,mKcell,,D77,2016-04-05T14:11:47+06:00,
1000000000143185,77777893339,mMTS,mKarTel,mKarTel,,D77,2016-04-05T14:13:42+06:00,
1000000000143186,77017211704,mMTS,mKcell,mKcell,,D77,2016-04-05T14:12:23+06:00,
1000000000143188,77051600370,mAltel,mKarTel,mKarTel,,D07,2016-04-05T14:14:53+06:00,
1000000000143190,77015256420,mMTS,mKcell,mKcell,,D77,2016-04-05T14:14:48+06:00,
1000000000143192,77089448226,mMTS,mAltel,mAltel,,D77,2016-04-05T14:15:25+06:00,
1000000000143193,77019445788,mKarTel,mKcell,mKcell,,D01,2016-04-05T14:15:59+06:00,
1000000000143194,77021111444,mKcell,mMTS,mKcell,D77,D02,2016-04-05T14:15:59+06:00,
1000000000143195,77089025293,mMTS,mAltel,mAltel,,D77,2016-04-05T14:15:47+06:00,
1000000000143196,77021687624,mKcell,mKarTel,mKcell,D01,D02,2016-04-05T14:17:47+06:00,
1000000000143197,77017993818,mAltel,mKcell,mKcell,,D07,2016-04-05T14:17:02+06:00,
1000000000143198,77013312356,mKcell,mAltel,mKcell,D07,D02,2016-04-05T14:17:48+06:00,
1000000000143199,77017020969,mKarTel,mKcell,mKcell,,D01,2016-04-05T14:17:43+06:00,
1000000000143200,77005604505,mMTS,mAltel,mAltel,,D77,2016-04-05T14:17:14+06:00,
1000000000143201,77016911330,mMTS,mKcell,mKcell,,D77,2016-04-05T14:19:50+06:00,
1000000000143202,77077022332,mMTS,mAltel,mMTS,D07,D77,2016-04-05T14:19:44+06:00,
1000000000143203,77019656554,mMTS,mKcell,mKcell,,D77,2016-04-05T14:20:41+06:00,
1000000000143206,77761870606,mKcell,mKarTel,mKarTel,,D02,2016-04-05T14:25:35+06:00,
1000000000143207,77027878502,mKcell,mKarTel,mKcell,D01,D02,2016-04-05T14:25:54+06:00,
1000000000143208,77762063838,mMTS,mKarTel,mKarTel,,D77,2016-04-05T14:25:38+06:00,
1000000000143209,77770859900,mKcell,mKarTel,mKarTel,,D02,2016-04-05T14:27:39+06:00,
1000000000143210,77016073332,mMTS,mKcell,mKcell,,D77,2016-04-05T14:26:10+06:00,
1000000000143211,77089706175,mMTS,mAltel,mAltel,,D77,2016-04-05T14:26:36+06:00,
1000000000143212,77479887787,mMTS,mAltel,mMTS,D07,D77,2016-04-05T14:26:53+06:00,
1000000000143213,77472789008,mKcell,mMTS,mMTS,,D02,2016-04-05T14:27:20+06:00,
1000000000143214,77026002443,mMTS,mKcell,mKcell,,D77,2016-04-05T14:27:45+06:00,
1000000000143215,77017679768,mKarTel,mKcell,mKcell,,D01,2016-04-05T14:29:00+06:00,
1000000000143216,77003623629,mKcell,mAltel,mAltel,,D02,2016-04-05T14:29:03+06:00,
1000000000143217,77758459475,mMTS,mKcell,mKcell,,D77,2016-04-05T14:29:01+06:00,
1000000000143218,77015527507,mMTS,mKcell,mKcell,,D77,2016-04-05T14:29:10+06:00,
