NPId,Number,RecipientId,DonorId,RangeHolderId,OldRoute,NewRoute,PortDate,RowCount
1000000000275085,77019859572,mAltel,mKcell,mKcell,,D07,2016-11-06T17:31:45+06:00,10
1000000000275087,77025559996,mMTS,mKcell,mKcell,,D77,2016-11-06T17:33:12+06:00,
1000000000275088,77019422871,mKarTel,mKcell,mKcell,,D01,2016-11-06T17:36:27+06:00,
1000000000275089,77023185553,mKarTel,mKcell,mKcell,,D01,2016-11-06T17:36:32+06:00,
1000000000275090,77776608160,mMTS,mKarTel,mKarTel,,D77,2016-11-06T17:38:21+06:00,
1000000000275091,77760081888,mKcell,mKarTel,mKarTel,,D02,2016-11-06T17:39:24+06:00,
1000000000275093,77710421497,mMTS,mKarTel,mKarTel,,D77,2016-11-06T17:40:46+06:00,
1000000000275094,77059657214,mAltel,mKarTel,mKarTel,,D07,2016-11-06T17:42:21+06:00,
1000000000275095,77787870270,mAltel,mKcell,mKcell,,D07,2016-11-06T17:43:05+06:00,
1000000000275096,77000222808,mKcell,mAltel,mAltel,,D02,2016-11-06T17:49:08+06:00,
