NPId,Number,RecipientId,DonorId,RangeHolderId,OldRoute,NewRoute,PortDate,RowCount
1000000000346190,77475430021,mKcell,mMTS,mMTS,,D02,2017-03-14T14:00:20+06:00,33
1000000000346193,77471570213,mKcell,mMTS,mMTS,,D02,2017-03-14T14:04:13+06:00,
1000000000346196,77471570145,mKcell,mMTS,mMTS,,D02,2017-03-14T14:07:06+06:00,
1000000000346197,77471570187,mKcell,mMTS,mMTS,,D02,2017-03-14T14:08:56+06:00,
1000000000346204,77471570125,mKcell,mMTS,mMTS,,D02,2017-03-14T14:13:54+06:00,
1000000000346208,77473252128,mKcell,mMTS,mMTS,,D02,2017-03-14T14:15:32+06:00,
1000000000346215,77078545280,mKcell,mMTS,mMTS,,D02,2017-03-14T14:18:58+06:00,
1000000000346233,77022175751,mKcell,mKarTel,mKcell,D01,D02,2017-03-14T14:29:41+06:00,
1000000000346387,77714323222,mKarTel,mKcell,mKarTel,D02,D01,2017-03-14T14:00:42+06:00,
1000000000346388,77017510074,mAltel,mKarTel,mKcell,D01,D07,2017-03-14T14:02:06+06:00,
1000000000346389,77054551310,mMTS,mKarTel,mKarTel,,D77,2017-03-14T14:02:14+06:00,
1000000000346390,77055705753,mMTS,mKarTel,mKarTel,,D77,2017-03-14T14:03:09+06:00,
1000000000346391,77078101997,mKarTel,mMTS,mMTS,,D01,2017-03-14T14:03:47+06:00,
1000000000346392,77078457206,mKarTel,mMTS,mMTS,,D01,2017-03-14T14:04:02+06:00,
1000000000346393,77479009000,mKcell,mAltel,mMTS,D07,D02,2017-03-14T14:06:14+06:00,
1000000000346394,77774900090,mKcell,mKarTel,mKarTel,,D02,2017-03-14T14:07:07+06:00,
1000000000346395,77072080502,mMTS,mKarTel,mMTS,D01,D77,2017-03-14T14:07:18+06:00,
1000000000346398,77057174004,mKcell,mKarTel,mKarTel,,D02,2017-03-14T14:08:08+06:00,
1000000000346399,77055667369,mAltel,mKarTel,mKarTel,,D07,2017-03-14T14:08:27+06:00,
1000000000346400,77022680029,mMTS,mKcell,mKcell,,D77,2017-03-14T14:09:03+06:00,
1000000000346401,77001336063,mKcell,mAltel,mAltel,,D02,2017-03-14T14:09:51+06:00,
1000000000346402,77760603000,mKcell,mKarTel,mKarTel,,D02,2017-03-14T14:10:31+06:00,
1000000000346403,77479011294,mKarTel,mMTS,mMTS,,D01,2017-03-14T14:12:41+06:00,
1000000000346405,77054438587,mMTS,mKarTel,mKarTel,,D77,2017-03-14T14:13:27+06:00,
1000000000346406,77026726220,mMTS,mKcell,mKcell,,D77,2017-03-14T14:14:29+06:00,
1000000000346407,77018385192,mMTS,mKarTel,mKcell,D01,D77,2017-03-14T14:16:17+06:00,
1000000000346408,77013887791,mKcell,mKarTel,mKcell,D01,D02,2017-03-14T14:17:00+06:00,
1000000000346409,77784765343,mAltel,mKcell,mKcell,,D07,2017-03-14T14:17:59+06:00,
1000000000346410,77762622222,mMTS,mKarTel,mKarTel,,D77,2017-03-14T14:19:55+06:00,
1000000000346411,77079090496,mAltel,mMTS,mMTS,,D07,2017-03-14T14:20:12+06:00,
1000000000346413,77715552555,mKcell,mKarTel,mKarTel,,D02,2017-03-14T14:22:16+06:00,
1000000000346415,77074975037,mKcell,mMTS,mMTS,,D02,2017-03-14T14:25:21+06:00,
1000000000346417,77782080891,mKarTel,mKcell,mKcell,,D01,2017-03-14T14:26:42+06:00,
