NPId,Number,RecipientId,DonorId,RangeHolderId,OldRoute,NewRoute,PortDate,RowCount
1000000000436480,77019879790,mAltel,mKcell,mKcell,,D07,2017-08-07T20:30:27+06:00,3
1000000000436481,77029411076,mKcell,mMTS,mKcell,D77,D02,2017-08-07T20:38:39+06:00,
1000000000436482,77015551178,mMTS,mKcell,mKcell,,D77,2017-08-07T20:47:43+06:00,
