NPId,Number,RecipientId,DonorId,RangeHolderId,OldRoute,NewRoute,PortDate,RowCount
1000000000226556,77715199582,mMTS,mKarTel,mKarTel,,D77,2016-08-10T10:38:00+06:00,6
1000000000226557,77054362989,mMTS,mKarTel,mKarTel,,D77,2016-08-10T10:42:46+06:00,
1000000000226558,77017751182,mKarTel,mKcell,mKcell,,D01,2016-08-10T10:42:53+06:00,
1000000000226559,77017601878,mKarTel,mKcell,mKcell,,D01,2016-08-10T10:43:42+06:00,
1000000000226560,77773473761,mKarTel,mMTS,mKarTel,D77,D01,2016-08-10T10:45:38+06:00,
1000000000226564,77778938367,mMTS,mKarTel,mKarTel,,D77,2016-08-10T10:55:30+06:00,
