NPId,Number,RecipientId,DonorId,RangeHolderId,OldRoute,NewRoute,PortDate,RowCount
1000000000219495,77079281791,mKcell,mMTS,mMTS,,D02,2016-08-01T12:48:24+06:00,28
1000000000220903,77472260733,mMTS,mKarTel,mMTS,D01,D77,2016-08-01T12:30:53+06:00,
1000000000220904,77012503127,mMTS,mKcell,mKcell,,D77,2016-08-01T12:31:55+06:00,
1000000000220905,77017650129,mMTS,mKcell,mKcell,,D77,2016-08-01T12:32:44+06:00,
1000000000220906,77017653210,mMTS,mKcell,mKcell,,D77,2016-08-01T12:32:44+06:00,
1000000000220908,77057906421,mMTS,mKarTel,mKarTel,,D77,2016-08-01T12:33:50+06:00,
1000000000220910,77003658446,mMTS,mAltel,mAltel,,D77,2016-08-01T12:34:20+06:00,
1000000000220914,77010121232,mMTS,mKcell,mKcell,,D77,2016-08-01T12:37:28+06:00,
1000000000220916,77019469866,mKarTel,mKcell,mKcell,,D01,2016-08-01T12:38:19+06:00,
1000000000220919,77772323342,mMTS,mKarTel,mKarTel,,D77,2016-08-01T12:40:56+06:00,
1000000000220920,77767096060,mKcell,mKarTel,mKarTel,,D02,2016-08-01T12:41:25+06:00,
1000000000220922,77011703644,mKcell,mKarTel,mKcell,D01,D02,2016-08-01T12:43:57+06:00,
1000000000220923,77471072719,mKarTel,mMTS,mMTS,,D01,2016-08-01T12:43:36+06:00,
1000000000220924,77754647913,mMTS,mKcell,mKcell,,D77,2016-08-01T12:44:56+06:00,
1000000000220926,77776565320,mKcell,mKarTel,mKarTel,,D02,2016-08-01T12:46:58+06:00,
1000000000220927,77752244566,mMTS,mAltel,mKcell,D07,D77,2016-08-01T12:47:02+06:00,
1000000000220928,77085128340,mKcell,mAltel,mAltel,,D02,2016-08-01T12:47:29+06:00,
1000000000220929,77015305393,mKcell,mKarTel,mKcell,D01,D02,2016-08-01T12:48:03+06:00,
1000000000220932,77783426565,mMTS,mKcell,mKcell,,D77,2016-08-01T12:51:36+06:00,
1000000000220933,77025005599,mAltel,mKcell,mKcell,,D07,2016-08-01T12:51:43+06:00,
1000000000220934,77003472562,mMTS,mAltel,mAltel,,D77,2016-08-01T12:52:47+06:00,
1000000000220935,77772332572,mMTS,mKarTel,mKarTel,,D77,2016-08-01T12:54:01+06:00,
1000000000220936,77000818100,mMTS,mAltel,mAltel,,D77,2016-08-01T12:53:41+06:00,
1000000000220937,77021464447,mKcell,mKarTel,mKcell,D01,D02,2016-08-01T12:54:59+06:00,
1000000000220940,77021489696,mMTS,mKcell,mKcell,,D77,2016-08-01T12:58:28+06:00,
1000000000220941,77026661122,mKcell,mMTS,mKcell,D77,D02,2016-08-01T12:58:55+06:00,
1000000000220942,77017425689,mKcell,mMTS,mKcell,D77,D02,2016-08-01T12:59:20+06:00,
1000000000220944,77081757666,mMTS,mAltel,mAltel,,D77,2016-08-01T12:59:46+06:00,
