NPId,Number,RecipientId,DonorId,RangeHolderId,OldRoute,NewRoute,PortDate,RowCount
1000000000346874,77471570230,mKcell,mMTS,mMTS,,D02,2017-03-15T13:39:42+06:00,42
1000000000346892,77771390986,mMTS,mKarTel,mKarTel,,D77,2017-03-15T13:57:41+06:00,
1000000000346894,77056776767,mMTS,mKarTel,mKarTel,,D77,2017-03-15T13:58:16+06:00,
1000000000347135,77718099466,mMTS,mKarTel,mKarTel,,D77,2017-03-15T13:44:48+06:00,
1000000000347140,77718099468,mMTS,mKarTel,mKarTel,,D77,2017-03-15T13:44:51+06:00,
1000000000347145,77718099470,mMTS,mKarTel,mKarTel,,D77,2017-03-15T13:44:51+06:00,
1000000000347174,77473318928,mKcell,mMTS,mMTS,,D02,2017-03-15T13:30:15+06:00,
1000000000347175,77084023334,mMTS,mAltel,mAltel,,D77,2017-03-15T13:30:53+06:00,
1000000000347176,77019108819,mKarTel,mKcell,mKcell,,D01,2017-03-15T13:31:29+06:00,
1000000000347177,77473758978,mKcell,mMTS,mMTS,,D02,2017-03-15T13:31:46+06:00,
1000000000347178,77473758970,mKcell,mMTS,mMTS,,D02,2017-03-15T13:33:35+06:00,
1000000000347179,77017586828,mAltel,mKcell,mKcell,,D07,2017-03-15T13:34:52+06:00,
1000000000347180,77007778949,mKcell,mAltel,mAltel,,D02,2017-03-15T13:35:00+06:00,
1000000000347181,77089128872,mAltel,mKarTel,mAltel,D01,D07,2017-03-15T13:36:36+06:00,
1000000000347182,77782068444,mAltel,mKcell,mKcell,,D07,2017-03-15T13:36:25+06:00,
1000000000347183,77471570184,mKcell,mMTS,mMTS,,D02,2017-03-15T13:37:10+06:00,
1000000000347184,77777265149,mMTS,mKarTel,mKarTel,,D77,2017-03-15T13:37:48+06:00,
1000000000347185,77015083358,mMTS,mKcell,mKcell,,D77,2017-03-15T13:37:50+06:00,
1000000000347186,77471570067,mKcell,mMTS,mMTS,,D02,2017-03-15T13:38:35+06:00,
1000000000347190,77013882091,mKarTel,mKcell,mKcell,,D01,2017-03-15T13:41:29+06:00,
1000000000347191,77011659383,mKcell,mMTS,mKcell,D77,D02,2017-03-15T13:41:34+06:00,
1000000000347192,77751774703,mAltel,mKcell,mKcell,,D07,2017-03-15T13:41:30+06:00,
1000000000347194,77473983225,mKcell,mMTS,mMTS,,D02,2017-03-15T13:42:17+06:00,
1000000000347195,77770144142,mKcell,mKarTel,mKarTel,,D02,2017-03-15T13:44:46+06:00,
1000000000347196,77017477795,mKarTel,mKcell,mKcell,,D01,2017-03-15T13:44:23+06:00,
1000000000347197,77471570177,mKcell,mMTS,mMTS,,D02,2017-03-15T13:45:29+06:00,
1000000000347198,77001291020,mMTS,mAltel,mAltel,,D77,2017-03-15T13:45:23+06:00,
1000000000347199,77013506546,mAltel,mKcell,mKcell,,D07,2017-03-15T13:46:01+06:00,
1000000000347203,77471570179,mKcell,mMTS,mMTS,,D02,2017-03-15T13:49:19+06:00,
1000000000347204,77013356143,mMTS,mKcell,mKcell,,D77,2017-03-15T13:50:35+06:00,
1000000000347205,77075775707,mKcell,mMTS,mMTS,,D02,2017-03-15T13:50:48+06:00,
1000000000347207,77471570123,mKcell,mMTS,mMTS,,D02,2017-03-15T13:51:27+06:00,
1000000000347209,77022135570,mMTS,mKcell,mKcell,,D77,2017-03-15T13:51:40+06:00,
1000000000347211,77017361836,mMTS,mKcell,mKcell,,D77,2017-03-15T13:52:18+06:00,
1000000000347212,77755757238,mKcell,mMTS,mKcell,D77,D02,2017-03-15T13:52:31+06:00,
1000000000347213,77471570256,mKcell,mMTS,mMTS,,D02,2017-03-15T13:53:29+06:00,
1000000000347216,77026303332,mAltel,mKcell,mKcell,,D07,2017-03-15T13:54:58+06:00,
1000000000347217,77473758843,mKcell,mMTS,mMTS,,D02,2017-03-15T13:55:12+06:00,
1000000000347223,77765000820,mMTS,mKarTel,mKarTel,,D77,2017-03-15T13:57:47+06:00,
1000000000347224,77475038679,mKcell,mMTS,mMTS,,D02,2017-03-15T13:58:17+06:00,
1000000000347225,77002225618,mKcell,mKarTel,mAltel,D01,D02,2017-03-15T13:59:24+06:00,
1000000000347226,77754012643,mKarTel,mKcell,mKcell,,D01,2017-03-15T13:59:21+06:00,
