NPId,Number,RecipientId,DonorId,RangeHolderId,OldRoute,NewRoute,PortDate,RowCount
1000000000304424,77773000818,mKcell,mKarTel,mKarTel,,D02,2017-01-02T20:00:29+06:00,4
1000000000304425,77077047047,mMTS,mKarTel,mMTS,D01,D77,2017-01-02T20:03:00+06:00,
1000000000304426,77017759723,mKarTel,mKcell,mKcell,,D01,2017-01-02T20:06:49+06:00,
1000000000304427,77756363776,mMTS,mKcell,mKcell,,D77,2017-01-02T20:27:48+06:00,
