NPId,Number,RecipientId,DonorId,RangeHolderId,OldRoute,NewRoute,PortDate,RowCount
1000000000123134,77771775575,mAltel,mKarTel,mKarTel,,D07,2016-03-12T12:30:19+06:00,28
1000000000123137,77017570912,mMTS,mKcell,mKcell,,D77,2016-03-12T12:35:36+06:00,
1000000000123138,77077707700,mKcell,mMTS,mMTS,,D02,2016-03-12T12:35:47+06:00,
1000000000123139,77074000044,mMTS,mAltel,mMTS,D07,D77,2016-03-12T12:35:54+06:00,
1000000000123140,77786280765,mMTS,mKcell,mKcell,,D77,2016-03-12T12:36:12+06:00,
1000000000123141,77011168839,mMTS,mKcell,mKcell,,D77,2016-03-12T12:36:49+06:00,
1000000000123142,77020002703,mAltel,mKcell,mKcell,,D07,2016-03-12T12:38:04+06:00,
1000000000123143,77753820913,mAltel,mKcell,mKcell,,D07,2016-03-12T12:39:02+06:00,
1000000000123144,77714010171,mAltel,mKarTel,mKarTel,,D07,2016-03-12T12:40:22+06:00,
1000000000123146,77015262460,mAltel,mKcell,mKcell,,D07,2016-03-12T12:42:17+06:00,
1000000000123147,77001606060,mKcell,mAltel,mAltel,,D02,2016-03-12T12:42:19+06:00,
1000000000123148,77753757557,mAltel,mKcell,mKcell,,D07,2016-03-12T12:42:29+06:00,
1000000000123149,77022207222,mMTS,mKcell,mKcell,,D77,2016-03-12T12:43:30+06:00,
1000000000123151,77776448996,mAltel,mKarTel,mKarTel,,D07,2016-03-12T12:45:00+06:00,
1000000000123152,77712767676,mKcell,mKarTel,mKarTel,,D02,2016-03-12T12:47:04+06:00,
1000000000123153,77772871370,mMTS,mKarTel,mKarTel,,D77,2016-03-12T12:47:49+06:00,
1000000000123154,77753005557,mMTS,mKcell,mKcell,,D77,2016-03-12T12:47:49+06:00,
1000000000123155,77021616888,mMTS,mKcell,mKcell,,D77,2016-03-12T12:49:31+06:00,
1000000000123156,77772954736,mAltel,mKarTel,mKarTel,,D07,2016-03-12T12:50:42+06:00,
1000000000123157,77774746794,mAltel,mKarTel,mKarTel,,D07,2016-03-12T12:50:50+06:00,
1000000000123158,77014420909,mKarTel,mKcell,mKcell,,D01,2016-03-12T12:51:00+06:00,
1000000000123159,77019991855,mKcell,mAltel,mKcell,D07,D02,2016-03-12T12:51:24+06:00,
1000000000123160,77001496238,mMTS,mAltel,mAltel,,D77,2016-03-12T12:51:51+06:00,
1000000000123161,77017520767,mMTS,mKcell,mKcell,,D77,2016-03-12T12:52:30+06:00,
1000000000123163,77017591027,mAltel,mKcell,mKcell,,D07,2016-03-12T12:53:27+06:00,
1000000000123164,77022349527,mMTS,mKcell,mKcell,,D77,2016-03-12T12:55:27+06:00,
1000000000123165,77476496979,mKcell,mMTS,mMTS,,D02,2016-03-12T12:55:53+06:00,
1000000000123166,77717911767,mMTS,mKarTel,mKarTel,,D77,2016-03-12T12:58:09+06:00,
