NPId,Number,RecipientId,DonorId,RangeHolderId,OldRoute,NewRoute,PortDate,RowCount
1000000000234022,77022035205,mMTS,mKcell,mKcell,,D77,2016-08-25T15:01:30+06:00,18
1000000000234023,77015695610,mMTS,mKcell,mKcell,,D77,2016-08-25T15:02:07+06:00,
1000000000234024,77023999656,mAltel,mKcell,mKcell,,D07,2016-08-25T15:02:16+06:00,
1000000000234025,77472617977,mKcell,mMTS,mMTS,,D02,2016-08-25T15:03:49+06:00,
1000000000234026,77776762412,mMTS,mKarTel,mKarTel,,D77,2016-08-25T15:07:47+06:00,
1000000000234027,77017123632,mKarTel,mKcell,mKcell,,D01,2016-08-25T15:08:10+06:00,
1000000000234028,77787828101,mMTS,mKcell,mKcell,,D77,2016-08-25T15:09:17+06:00,
1000000000234031,77081344197,mKcell,mAltel,mAltel,,D02,2016-08-25T15:11:39+06:00,
1000000000234032,77082281028,mKarTel,mAltel,mAltel,,D01,2016-08-25T15:12:07+06:00,
1000000000234034,77782556378,mKarTel,mKcell,mKcell,,D01,2016-08-25T15:13:26+06:00,
1000000000234035,77053344400,mKcell,mKarTel,mKarTel,,D02,2016-08-25T15:15:35+06:00,
1000000000234037,77074135555,mMTS,mKarTel,mMTS,D01,D77,2016-08-25T15:19:06+06:00,
1000000000234038,77019120979,mKarTel,mKcell,mKcell,,D01,2016-08-25T15:20:56+06:00,
1000000000234039,77009949729,mKarTel,mAltel,mAltel,,D01,2016-08-25T15:21:03+06:00,
1000000000234042,77472377771,mAltel,mMTS,mMTS,,D07,2016-08-25T15:26:02+06:00,
1000000000234043,77085454055,mKcell,mAltel,mAltel,,D02,2016-08-25T15:27:20+06:00,
1000000000234044,77754277355,mMTS,mKcell,mKcell,,D77,2016-08-25T15:28:41+06:00,
1000000000234045,77472120303,mKcell,mMTS,mMTS,,D02,2016-08-25T15:29:18+06:00,
