NPId,Number,RecipientId,DonorId,RangeHolderId,OldRoute,NewRoute,PortDate,RowCount
1000000000321870,77775753727,mKcell,mKarTel,mKarTel,,D02,2017-02-01T21:00:50+06:00,3
1000000000321873,77774785241,mKarTel,mMTS,mKarTel,D77,D01,2017-02-01T21:07:24+06:00,
1000000000321874,77776590321,mKarTel,mMTS,mKarTel,D77,D01,2017-02-01T21:09:05+06:00,
