NPId,Number,RecipientId,DonorId,RangeHolderId,OldRoute,NewRoute,PortDate,RowCount
1000000000238016,77012086747,mKcell,mMTS,mKcell,D77,D02,2016-11-22T12:12:03+06:00,19
1000000000282306,77022324432,mAltel,mKcell,mKcell,D02,D07,2016-11-22T12:01:31+06:00,
1000000000282308,77026341721,mAltel,mKcell,mKcell,,D07,2016-11-22T12:05:27+06:00,
1000000000282309,77027152625,mMTS,mKcell,mKcell,,D77,2016-11-22T12:08:40+06:00,
1000000000282311,77754343555,mKarTel,mKcell,mKcell,,D01,2016-11-22T12:09:18+06:00,
1000000000282312,77089383366,mMTS,mAltel,mAltel,,D77,2016-11-22T12:09:47+06:00,
1000000000282313,77051441445,mMTS,mKarTel,mKarTel,,D77,2016-11-22T12:12:48+06:00,
1000000000282314,77088010357,mMTS,mAltel,mAltel,,D77,2016-11-22T12:13:23+06:00,
1000000000282316,77001050597,mKcell,mAltel,mAltel,,D02,2016-11-22T12:16:33+06:00,
1000000000282317,77017700725,mAltel,mKcell,mKcell,,D07,2016-11-22T12:18:01+06:00,
1000000000282320,77051815252,mKarTel,mAltel,mKarTel,D07,D01,2016-11-22T12:22:33+06:00,
1000000000282321,77075366305,mKarTel,mMTS,mMTS,,D01,2016-11-22T12:22:49+06:00,
1000000000282322,77787012002,mAltel,mKcell,mKcell,,D07,2016-11-22T12:25:11+06:00,
1000000000282323,77004477828,mKarTel,mAltel,mAltel,,D01,2016-11-22T12:25:39+06:00,
1000000000282324,77029541254,mMTS,mKcell,mKcell,,D77,2016-11-22T12:26:10+06:00,
1000000000282325,77772579630,mKcell,mKarTel,mKarTel,,D02,2016-11-22T12:29:09+06:00,
1000000000282326,77755958282,mKarTel,mKcell,mKcell,,D01,2016-11-22T12:27:02+06:00,
1000000000282327,77078285545,mMTS,mAltel,mMTS,D07,D77,2016-11-22T12:26:59+06:00,
1000000000282329,77003377732,mMTS,mAltel,mAltel,,D77,2016-11-22T12:29:38+06:00,
