NPId,Number,RecipientId,DonorId,RangeHolderId,OldRoute,NewRoute,PortDate,RowCount
1000000000303260,77017433473,mKarTel,mKcell,mKcell,,D01,2016-12-30T11:06:24+06:00,13
1000000000303261,77027177119,mKcell,mAltel,mKcell,D07,D02,2016-12-30T11:06:49+06:00,
1000000000303262,77078707161,mAltel,mKcell,mMTS,D02,D07,2016-12-30T11:06:37+06:00,
1000000000303264,77052629095,mKarTel,mKcell,mKarTel,D02,D01,2016-12-30T11:09:29+06:00,
1000000000303265,77052629096,mKarTel,mKcell,mKarTel,D02,D01,2016-12-30T11:11:08+06:00,
1000000000303268,77071050410,mAltel,mMTS,mMTS,,D07,2016-12-30T11:13:57+06:00,
1000000000303269,77788037008,mKarTel,mKcell,mKcell,,D01,2016-12-30T11:21:05+06:00,
1000000000303271,77087777731,mKcell,mAltel,mAltel,,D02,2016-12-30T11:22:37+06:00,
1000000000303273,77767078786,mKcell,mKarTel,mKarTel,,D02,2016-12-30T11:26:28+06:00,
1000000000303274,77716666639,mKcell,mKarTel,mKarTel,,D02,2016-12-30T11:28:12+06:00,
1000000000303275,77475333130,mKarTel,mKcell,mMTS,D02,D01,2016-12-30T11:28:29+06:00,
1000000000303276,77027211727,mMTS,mKcell,mKcell,,D77,2016-12-30T11:28:34+06:00,
1000000000303277,77789306166,mKcell,mAltel,mKcell,D07,D02,2016-12-30T11:29:19+06:00,
