NPId,Number,RecipientId,DonorId,RangeHolderId,OldRoute,NewRoute,PortDate,RowCount
1000000000364905,77015442265,mKcell,mKarTel,mKcell,D01,D02,2017-04-12T18:04:43+06:00,39
1000000000364910,77015442830,mKcell,mKarTel,mKcell,D01,D02,2017-04-12T18:07:13+06:00,
1000000000364915,77019538036,mKcell,mKarTel,mKcell,D01,D02,2017-04-12T18:10:36+06:00,
1000000000364918,77019538037,mKcell,mKarTel,mKcell,D01,D02,2017-04-12T18:12:53+06:00,
1000000000364929,77019589206,mKcell,mKarTel,mKcell,D01,D02,2017-04-12T18:17:40+06:00,
1000000000364971,77776838655,mKarTel,mAltel,mKarTel,D07,D01,2017-04-12T18:01:20+06:00,
1000000000364972,77073198120,mKarTel,mMTS,mMTS,,D01,2017-04-12T18:01:41+06:00,
1000000000364974,77007774525,mKcell,mAltel,mAltel,,D02,2017-04-12T18:02:29+06:00,
1000000000364975,77010992200,mKarTel,mKcell,mKcell,,D01,2017-04-12T18:03:27+06:00,
1000000000364976,77017374007,mAltel,mKcell,mKcell,,D07,2017-04-12T18:04:22+06:00,
1000000000364977,77003003534,mKcell,mAltel,mAltel,,D02,2017-04-12T18:05:45+06:00,
1000000000364978,77077975060,mKarTel,mMTS,mMTS,,D01,2017-04-12T18:06:21+06:00,
1000000000364979,77055694968,mMTS,mKarTel,mKarTel,,D77,2017-04-12T18:06:42+06:00,
1000000000364980,77052781748,mKcell,mKarTel,mKarTel,,D02,2017-04-12T18:06:55+06:00,
1000000000364981,77011000017,mKcell,mAltel,mKcell,D07,D02,2017-04-12T18:07:53+06:00,
1000000000364982,77007772363,mKcell,mAltel,mAltel,,D02,2017-04-12T18:08:31+06:00,
1000000000364983,77470627323,mAltel,mMTS,mMTS,,D07,2017-04-12T18:08:55+06:00,
1000000000364985,77015159610,mAltel,mKcell,mKcell,,D07,2017-04-12T18:11:19+06:00,
1000000000364986,77003003438,mKcell,mAltel,mAltel,,D02,2017-04-12T18:12:10+06:00,
1000000000364987,77771431366,mKarTel,mMTS,mKarTel,D77,D01,2017-04-12T18:12:20+06:00,
1000000000364988,77025000038,mMTS,mKcell,mKcell,D02,D77,2017-04-12T18:12:56+06:00,
1000000000364989,77073007707,mMTS,mKcell,mMTS,D02,D77,2017-04-12T18:14:14+06:00,
1000000000364990,77007772919,mKcell,mAltel,mAltel,,D02,2017-04-12T18:15:23+06:00,
1000000000364991,77059009719,mKarTel,mMTS,mKarTel,D77,D01,2017-04-12T18:15:33+06:00,
1000000000364992,77075101097,mAltel,mMTS,mMTS,,D07,2017-04-12T18:16:07+06:00,
1000000000364993,77474178491,mAltel,mMTS,mMTS,,D07,2017-04-12T18:16:52+06:00,
1000000000364994,77005005258,mKcell,mAltel,mAltel,,D02,2017-04-12T18:17:46+06:00,
1000000000364995,77073564428,mAltel,mMTS,mMTS,,D07,2017-04-12T18:19:44+06:00,
1000000000364996,77002002328,mKcell,mAltel,mAltel,,D02,2017-04-12T18:20:49+06:00,
1000000000364997,77779852218,mKarTel,mAltel,mKarTel,D07,D01,2017-04-12T18:21:17+06:00,
1000000000364998,77073998060,mAltel,mMTS,mMTS,,D07,2017-04-12T18:21:51+06:00,
1000000000365000,77074182828,mAltel,mMTS,mMTS,,D07,2017-04-12T18:23:34+06:00,
1000000000365001,77005005954,mKcell,mAltel,mAltel,,D02,2017-04-12T18:25:12+06:00,
1000000000365002,77013754346,mMTS,mKcell,mKcell,,D77,2017-04-12T18:25:47+06:00,
1000000000365003,77011112274,mAltel,mKarTel,mKcell,D01,D07,2017-04-12T18:26:12+06:00,
1000000000365005,77011933370,mMTS,mKcell,mKcell,,D77,2017-04-12T18:26:54+06:00,
1000000000365006,77001001215,mKcell,mAltel,mAltel,,D02,2017-04-12T18:28:45+06:00,
1000000000365007,77715535543,mKcell,mKarTel,mKarTel,,D02,2017-04-12T18:29:24+06:00,
1000000000365008,77011202123,mMTS,mKcell,mKcell,,D77,2017-04-12T18:29:28+06:00,
