NPId,Number,RecipientId,DonorId,RangeHolderId,OldRoute,NewRoute,PortDate,RowCount
1000000000208203,77015149300,mAltel,mKcell,mKcell,,D07,2016-07-11T13:00:08+06:00,41
1000000000208578,77017843918,mAltel,mKcell,mKcell,,D07,2016-07-11T13:00:07+06:00,
1000000000208901,77017601777,mMTS,mKcell,mKcell,,D77,2016-07-11T13:00:07+06:00,
1000000000209148,77085488002,mAltel,mMTS,mAltel,D77,D07,2016-07-11T13:00:27+06:00,
1000000000209149,77771549489,mMTS,mKarTel,mKarTel,,D77,2016-07-11T13:01:13+06:00,
1000000000209150,77024778664,mMTS,mKcell,mKcell,,D77,2016-07-11T13:02:03+06:00,
1000000000209152,77085460079,mKarTel,mAltel,mAltel,,D01,2016-07-11T13:03:04+06:00,
1000000000209153,77017313841,mAltel,mKcell,mKcell,,D07,2016-07-11T13:04:12+06:00,
1000000000209156,77028222102,mMTS,mAltel,mKcell,D07,D77,2016-07-11T13:03:24+06:00,
1000000000209157,77012188767,mMTS,mKcell,mKcell,,D77,2016-07-11T13:04:13+06:00,
1000000000209158,77075333885,mKcell,mMTS,mMTS,,D02,2016-07-11T13:06:12+06:00,
1000000000209159,77777435964,mMTS,mKarTel,mKarTel,,D77,2016-07-11T13:06:06+06:00,
1000000000209160,77071449366,mAltel,mMTS,mMTS,,D07,2016-07-11T13:06:38+06:00,
1000000000209161,77081701107,mMTS,mKcell,mAltel,D02,D77,2016-07-11T13:08:01+06:00,
1000000000209162,77770906566,mMTS,mKarTel,mKarTel,,D77,2016-07-11T13:07:35+06:00,
1000000000209163,77027588820,mMTS,mKcell,mKcell,D02,D77,2016-07-11T13:08:01+06:00,
1000000000209164,77075256045,mKcell,mMTS,mMTS,,D02,2016-07-11T13:08:03+06:00,
1000000000209165,77752760447,mKcell,mAltel,mKcell,D07,D02,2016-07-11T13:08:01+06:00,
1000000000209167,77022816411,mKcell,mAltel,mKcell,D07,D02,2016-07-11T13:09:44+06:00,
1000000000209168,77075221272,mAltel,mMTS,mMTS,,D07,2016-07-11T13:09:19+06:00,
1000000000209169,77087432515,mMTS,mAltel,mAltel,,D77,2016-07-11T13:10:18+06:00,
1000000000209172,77786497440,mMTS,mKcell,mKcell,,D77,2016-07-11T13:12:02+06:00,
1000000000209173,77011526180,mAltel,mKcell,mKcell,,D07,2016-07-11T13:12:34+06:00,
1000000000209174,77763504000,mMTS,mAltel,mKarTel,D07,D77,2016-07-11T13:12:12+06:00,
1000000000209175,77009626152,mMTS,mKarTel,mAltel,D01,D77,2016-07-11T13:12:38+06:00,
1000000000209176,77021684959,mAltel,mKcell,mKcell,,D07,2016-07-11T13:13:12+06:00,
1000000000209177,77075344094,mAltel,mMTS,mMTS,,D07,2016-07-11T13:15:30+06:00,
1000000000209179,77003688530,mKarTel,mAltel,mAltel,,D01,2016-07-11T13:16:13+06:00,
1000000000209180,77058043432,mKarTel,mMTS,mKarTel,D77,D01,2016-07-11T13:16:44+06:00,
1000000000209181,77089128872,mKarTel,mAltel,mAltel,,D01,2016-07-11T13:18:01+06:00,
1000000000209182,77016909077,mAltel,mKcell,mKcell,,D07,2016-07-11T13:18:15+06:00,
1000000000209183,77017402048,mMTS,mKcell,mKcell,,D77,2016-07-11T13:18:26+06:00,
1000000000209184,77001218887,mAltel,mMTS,mAltel,D77,D07,2016-07-11T13:20:00+06:00,
1000000000209185,77027989478,mMTS,mKcell,mKcell,,D77,2016-07-11T13:21:01+06:00,
1000000000209186,77017402031,mMTS,mKcell,mKcell,,D77,2016-07-11T13:21:56+06:00,
1000000000209187,77057661534,mMTS,mKarTel,mKarTel,,D77,2016-07-11T13:21:56+06:00,
1000000000209188,77019445377,mKarTel,mKcell,mKcell,,D01,2016-07-11T13:22:49+06:00,
1000000000209190,77777600656,mMTS,mKarTel,mKarTel,,D77,2016-07-11T13:24:35+06:00,
1000000000209191,77078877850,mKcell,mMTS,mMTS,,D02,2016-07-11T13:25:43+06:00,
1000000000209193,77072406707,mKarTel,mMTS,mMTS,,D01,2016-07-11T13:27:38+06:00,
1000000000209196,77773866777,mKcell,mKarTel,mKarTel,,D02,2016-07-11T13:28:36+06:00,
