NPId,Number,RecipientId,DonorId,RangeHolderId,OldRoute,NewRoute,PortDate,RowCount
1000000000320721,77006000397,mKcell,mAltel,mAltel,,D02,2017-01-31T21:01:39+06:00,3
1000000000320722,77004000267,mKcell,mAltel,mAltel,,D02,2017-01-31T21:02:09+06:00,
1000000000320723,77789573109,mMTS,mKcell,mKcell,,D77,2017-01-31T21:02:48+06:00,
