NPId,Number,RecipientId,DonorId,RangeHolderId,OldRoute,NewRoute,PortDate,RowCount
1000000000446192,77759152885,mKcell,mAltel,mKcell,D07,D02,2017-08-26T14:00:48+06:00,30
1000000000446193,77053322808,mMTS,mKarTel,mKarTel,,D77,2017-08-26T14:00:58+06:00,
1000000000446194,77000939302,mMTS,mAltel,mAltel,,D77,2017-08-26T14:01:14+06:00,
1000000000446195,77016912040,mMTS,mKcell,mKcell,,D77,2017-08-26T14:01:44+06:00,
1000000000446197,77012518393,mAltel,mKcell,mKcell,,D07,2017-08-26T14:02:13+06:00,
1000000000446199,77027506515,mMTS,mKcell,mKcell,,D77,2017-08-26T14:04:08+06:00,
1000000000446200,77017507724,mKcell,mMTS,mKcell,D77,D02,2017-08-26T14:05:03+06:00,
1000000000446201,77783369002,mMTS,mKcell,mKcell,,D77,2017-08-26T14:04:59+06:00,
1000000000446202,77071220112,mKcell,mMTS,mMTS,,D02,2017-08-26T14:05:13+06:00,
1000000000446204,77000949402,mMTS,mAltel,mAltel,,D77,2017-08-26T14:05:35+06:00,
1000000000446205,77088088727,mKcell,mAltel,mAltel,,D02,2017-08-26T14:05:59+06:00,
1000000000446207,77007171106,mMTS,mAltel,mAltel,,D77,2017-08-26T14:06:59+06:00,
1000000000446211,77088088343,mKcell,mAltel,mAltel,,D02,2017-08-26T14:09:41+06:00,
1000000000446212,77755255100,mKarTel,mKcell,mKcell,,D01,2017-08-26T14:10:46+06:00,
1000000000446213,77015065108,mKarTel,mKcell,mKcell,,D01,2017-08-26T14:11:17+06:00,
1000000000446214,77023209989,mMTS,mKcell,mKcell,,D77,2017-08-26T14:12:57+06:00,
1000000000446217,77088011991,mKcell,mAltel,mAltel,,D02,2017-08-26T14:17:16+06:00,
1000000000446218,77000898948,mMTS,mAltel,mAltel,,D77,2017-08-26T14:16:56+06:00,
1000000000446220,77014711213,mKcell,mMTS,mKcell,D77,D02,2017-08-26T14:20:07+06:00,
1000000000446221,77022644158,mKarTel,mKcell,mKcell,,D01,2017-08-26T14:20:19+06:00,
1000000000446222,77082220939,mKarTel,mAltel,mAltel,,D01,2017-08-26T14:21:47+06:00,
1000000000446225,77752777277,mMTS,mKcell,mKcell,,D77,2017-08-26T14:22:53+06:00,
1000000000446226,77473943102,mMTS,mAltel,mMTS,D07,D77,2017-08-26T14:24:36+06:00,
1000000000446227,77768898898,mKarTel,mMTS,mKarTel,D77,D01,2017-08-26T14:25:26+06:00,
1000000000446228,77089509394,mKarTel,mAltel,mAltel,,D01,2017-08-26T14:26:27+06:00,
1000000000446229,77083958402,mKarTel,mAltel,mAltel,,D01,2017-08-26T14:26:58+06:00,
1000000000446230,77015918107,mKcell,mAltel,mKcell,D07,D02,2017-08-26T14:27:21+06:00,
1000000000446231,77013389333,mKcell,mAltel,mKcell,D07,D02,2017-08-26T14:27:48+06:00,
1000000000446232,77781990461,mMTS,mKcell,mKcell,,D77,2017-08-26T14:27:56+06:00,
1000000000446233,77711596496,mMTS,mKarTel,mKarTel,,D77,2017-08-26T14:28:11+06:00,
