NPId,Number,RecipientId,DonorId,RangeHolderId,OldRoute,NewRoute,PortDate,RowCount
1000000000285075,77002600101,mKcell,mKarTel,mAltel,D01,D02,2016-11-27T17:00:30+06:00,14
1000000000285077,77006209171,mMTS,mAltel,mAltel,,D77,2016-11-27T17:07:44+06:00,
1000000000285079,77778472736,mMTS,mKarTel,mKarTel,,D77,2016-11-27T17:12:21+06:00,
1000000000285081,77774000068,mMTS,mKarTel,mKarTel,,D77,2016-11-27T17:14:10+06:00,
1000000000285082,77058020304,mMTS,mKarTel,mKarTel,,D77,2016-11-27T17:16:54+06:00,
1000000000285083,77028705871,mMTS,mKcell,mKcell,,D77,2016-11-27T17:17:19+06:00,
1000000000285085,77017572300,mMTS,mKcell,mKcell,,D77,2016-11-27T17:19:31+06:00,
1000000000285086,77078683557,mKarTel,mMTS,mMTS,,D01,2016-11-27T17:20:50+06:00,
1000000000285087,77089991999,mAltel,mKcell,mAltel,D02,D07,2016-11-27T17:22:01+06:00,
1000000000285088,77760111113,mKcell,mKarTel,mKarTel,,D02,2016-11-27T17:23:30+06:00,
1000000000285089,77017033256,mAltel,mKcell,mKcell,,D07,2016-11-27T17:24:40+06:00,
1000000000285090,77764419666,mMTS,mKarTel,mKarTel,,D77,2016-11-27T17:26:31+06:00,
1000000000285093,77769005200,mAltel,mKarTel,mKarTel,,D07,2016-11-27T17:29:08+06:00,
1000000000285094,77026630962,mMTS,mKcell,mKcell,,D77,2016-11-27T17:29:28+06:00,
