NPId,Number,RecipientId,DonorId,RangeHolderId,OldRoute,NewRoute,PortDate,RowCount
1000000000317845,77002101098,mKcell,mAltel,mAltel,,D02,2017-01-27T18:31:09+06:00,22
1000000000317846,77754292012,mMTS,mKcell,mKcell,,D77,2017-01-27T18:32:24+06:00,
1000000000317850,77089688810,mKcell,mAltel,mAltel,,D02,2017-01-27T18:34:10+06:00,
1000000000317851,77011000028,mKarTel,mAltel,mKcell,D07,D01,2017-01-27T18:36:03+06:00,
1000000000317853,77009504510,mAltel,mMTS,mAltel,D77,D07,2017-01-27T18:39:50+06:00,
1000000000317854,77001101097,mKcell,mAltel,mAltel,,D02,2017-01-27T18:41:26+06:00,
1000000000317855,77082749459,mKarTel,mMTS,mAltel,D77,D01,2017-01-27T18:43:34+06:00,
1000000000317856,77017197020,mKcell,mAltel,mKcell,D07,D02,2017-01-27T18:44:40+06:00,
1000000000317858,77471988795,mKarTel,mMTS,mMTS,,D01,2017-01-27T18:46:30+06:00,
1000000000317859,77020001213,mAltel,mKcell,mKcell,,D07,2017-01-27T18:47:08+06:00,
1000000000317860,77012456799,mKarTel,mKcell,mKcell,,D01,2017-01-27T18:47:47+06:00,
1000000000317861,77079210659,mAltel,mMTS,mMTS,,D07,2017-01-27T18:47:34+06:00,
1000000000317863,77753520648,mMTS,mKcell,mKcell,,D77,2017-01-27T18:47:54+06:00,
1000000000317864,77070001985,mMTS,mKcell,mMTS,D02,D77,2017-01-27T18:49:14+06:00,
1000000000317865,77014447586,mMTS,mKcell,mKcell,,D77,2017-01-27T18:49:40+06:00,
1000000000317867,77005645354,mKcell,mAltel,mAltel,,D02,2017-01-27T18:52:33+06:00,
1000000000317868,77017569927,mAltel,mKcell,mKcell,,D07,2017-01-27T18:53:49+06:00,
1000000000317869,77026075472,mMTS,mKcell,mKcell,,D77,2017-01-27T18:55:43+06:00,
1000000000317872,77074007760,mKcell,mMTS,mMTS,,D02,2017-01-27T18:57:39+06:00,
1000000000317873,77774619470,mMTS,mKarTel,mKarTel,,D77,2017-01-27T18:58:05+06:00,
1000000000317874,77753520629,mMTS,mKcell,mKcell,,D77,2017-01-27T18:57:52+06:00,
1000000000317876,77471043558,mAltel,mMTS,mMTS,,D07,2017-01-27T18:59:02+06:00,
