NPId,Number,RecipientId,DonorId,RangeHolderId,OldRoute,NewRoute,PortDate,RowCount
1000000000000652,77018038004,mKarTel,mKcell,mKcell,,D01,2016-01-04T09:01:49+06:00,3
1000000000000653,77018038005,mKarTel,mKcell,mKcell,,D01,2016-01-04T09:01:50+06:00,
1000000000000654,77783300048,mKarTel,mKcell,mKcell,,D01,2016-01-04T09:01:53+06:00,
