NPId,Number,RecipientId,DonorId,RangeHolderId,OldRoute,NewRoute,PortDate,RowCount
1000000000268239,77019166816,mKarTel,mKcell,mKcell,,D01,2016-10-26T11:30:31+06:00,16
1000000000268243,77015034433,mKarTel,mKcell,mKcell,,D01,2016-10-26T11:35:29+06:00,
1000000000268247,77015639649,mKcell,mMTS,mKcell,D77,D02,2016-10-26T11:41:12+06:00,
1000000000268249,77001761000,mAltel,mKcell,mAltel,D02,D07,2016-10-26T11:41:58+06:00,
1000000000268250,77076493520,mKarTel,mMTS,mMTS,,D01,2016-10-26T11:42:09+06:00,
1000000000268252,77071267675,mAltel,mMTS,mMTS,,D07,2016-10-26T11:45:02+06:00,
1000000000268254,77770935449,mMTS,mKarTel,mKarTel,,D77,2016-10-26T11:47:11+06:00,
1000000000268257,77017567636,mKcell,mMTS,mKcell,D77,D02,2016-10-26T11:48:49+06:00,
1000000000268258,77758963838,mKarTel,mKcell,mKcell,,D01,2016-10-26T11:51:16+06:00,
1000000000268259,77001766525,mKarTel,mAltel,mAltel,,D01,2016-10-26T11:52:12+06:00,
1000000000268260,77086415160,mKcell,mAltel,mAltel,,D02,2016-10-26T11:52:17+06:00,
1000000000268261,77759155392,mMTS,mKcell,mKcell,,D77,2016-10-26T11:52:23+06:00,
1000000000268263,77023669419,mMTS,mKcell,mKcell,,D77,2016-10-26T11:55:52+06:00,
1000000000268265,77077879894,mAltel,mMTS,mMTS,,D07,2016-10-26T11:59:03+06:00,
1000000000268266,77024908835,mKcell,mMTS,mKcell,D77,D02,2016-10-26T11:59:25+06:00,
1000000000268267,77011112630,mKarTel,mKcell,mKcell,,D01,2016-10-26T11:59:38+06:00,
