NPId,Number,RecipientId,DonorId,RangeHolderId,OldRoute,NewRoute,PortDate,RowCount
1000000000193067,77013825455,mKarTel,mKcell,mKcell,,D01,2016-06-14T10:00:10+06:00,24
1000000000193068,77023025409,mMTS,mKcell,mKcell,,D77,2016-06-14T10:00:11+06:00,
1000000000193070,77002210008,mMTS,mAltel,mAltel,,D77,2016-06-14T10:02:08+06:00,
1000000000193071,77017403028,mKcell,mMTS,mKcell,D77,D02,2016-06-14T10:04:13+06:00,
1000000000193072,77015677722,mMTS,mAltel,mKcell,D07,D77,2016-06-14T10:04:37+06:00,
1000000000193073,77781888128,mKcell,mAltel,mKcell,D07,D02,2016-06-14T10:05:42+06:00,
1000000000193074,77024415588,mKcell,mMTS,mKcell,D77,D02,2016-06-14T10:08:09+06:00,
1000000000193075,77023020155,mMTS,mKcell,mKcell,,D77,2016-06-14T10:07:51+06:00,
1000000000193076,77015260769,mKarTel,mKcell,mKcell,,D01,2016-06-14T10:08:55+06:00,
1000000000193078,77014832532,mKarTel,mKcell,mKcell,,D01,2016-06-14T10:12:43+06:00,
1000000000193079,77023021929,mMTS,mKcell,mKcell,,D77,2016-06-14T10:15:55+06:00,
1000000000193080,77783770002,mMTS,mKcell,mKcell,,D77,2016-06-14T10:14:48+06:00,
1000000000193081,77072148278,mAltel,mMTS,mMTS,,D07,2016-06-14T10:14:39+06:00,
1000000000193082,77786550471,mMTS,mKcell,mKcell,,D77,2016-06-14T10:16:37+06:00,
1000000000193083,77771172338,mAltel,mKarTel,mKarTel,,D07,2016-06-14T10:17:22+06:00,
1000000000193084,77782220078,mMTS,mKcell,mKcell,,D77,2016-06-14T10:18:08+06:00,
1000000000193085,77023020521,mMTS,mKcell,mKcell,,D77,2016-06-14T10:20:03+06:00,
1000000000193087,77022174937,mKarTel,mKcell,mKcell,,D01,2016-06-14T10:21:22+06:00,
1000000000193089,77023024831,mMTS,mKcell,mKcell,,D77,2016-06-14T10:24:09+06:00,
1000000000193090,77007499975,mKcell,mAltel,mAltel,,D02,2016-06-14T10:24:37+06:00,
1000000000193092,77756378888,mAltel,mKcell,mKcell,,D07,2016-06-14T10:25:12+06:00,
1000000000193093,77028459091,mMTS,mKcell,mKcell,,D77,2016-06-14T10:26:47+06:00,
1000000000193094,77756101110,mMTS,mKcell,mKcell,,D77,2016-06-14T10:28:41+06:00,
1000000000193095,77751351001,mKarTel,mMTS,mKcell,D77,D01,2016-06-14T10:29:08+06:00,
