NPId,Number,RecipientId,DonorId,RangeHolderId,OldRoute,NewRoute,PortDate,RowCount
1000000000217681,77015582444,mKarTel,mKcell,mKcell,,D01,2016-07-27T14:57:56+06:00,30
1000000000217681,77019827440,mKarTel,mKcell,mKcell,,D01,2016-07-27T14:57:56+06:00,
1000000000217681,77019829245,mKarTel,mKcell,mKcell,,D01,2016-07-27T14:57:56+06:00,
1000000000218035,77753153394,mMTS,mKcell,mKcell,,D77,2016-07-27T14:30:05+06:00,
1000000000218036,77011474710,mMTS,mKcell,mKcell,,D77,2016-07-27T14:31:00+06:00,
1000000000218037,77028604448,mKcell,mMTS,mKcell,D77,D02,2016-07-27T14:31:34+06:00,
1000000000218038,77472437168,mKcell,mMTS,mMTS,,D02,2016-07-27T14:32:07+06:00,
1000000000218039,77026266226,mMTS,mKcell,mKcell,,D77,2016-07-27T14:32:22+06:00,
1000000000218041,77472437166,mKcell,mMTS,mMTS,,D02,2016-07-27T14:33:29+06:00,
1000000000218042,77775454990,mKcell,mKarTel,mKarTel,,D02,2016-07-27T14:36:00+06:00,
1000000000218043,77472437204,mKcell,mMTS,mMTS,,D02,2016-07-27T14:34:44+06:00,
1000000000218044,77004088277,mKarTel,mAltel,mAltel,,D01,2016-07-27T14:35:17+06:00,
1000000000218046,77002772050,mMTS,mAltel,mAltel,,D77,2016-07-27T14:35:18+06:00,
1000000000218047,77003620002,mKcell,mAltel,mAltel,,D02,2016-07-27T14:36:07+06:00,
1000000000218048,77028655353,mKarTel,mKcell,mKcell,,D01,2016-07-27T14:37:48+06:00,
1000000000218049,77477921929,mKcell,mMTS,mMTS,,D02,2016-07-27T14:37:59+06:00,
1000000000218050,77754109420,mMTS,mKcell,mKcell,,D77,2016-07-27T14:38:39+06:00,
1000000000218052,77757509927,mKarTel,mKcell,mKcell,,D01,2016-07-27T14:40:13+06:00,
1000000000218053,77027273460,mMTS,mKcell,mKcell,,D77,2016-07-27T14:39:34+06:00,
1000000000218055,77074184389,mAltel,mMTS,mMTS,,D07,2016-07-27T14:43:22+06:00,
1000000000218056,77772772050,mMTS,mKarTel,mKarTel,,D77,2016-07-27T14:45:18+06:00,
1000000000218057,77014832590,mMTS,mKcell,mKcell,,D77,2016-07-27T14:46:00+06:00,
1000000000218059,77011364331,mKcell,mMTS,mKcell,D77,D02,2016-07-27T14:50:49+06:00,
1000000000218060,77758735777,mKcell,mMTS,mKcell,D77,D02,2016-07-27T14:51:46+06:00,
1000000000218061,77758446534,mKarTel,mKcell,mKcell,,D01,2016-07-27T14:53:49+06:00,
1000000000218062,77053322705,mKarTel,mAltel,mKarTel,D07,D01,2016-07-27T14:53:48+06:00,
1000000000218063,77003446097,mKarTel,mAltel,mAltel,,D01,2016-07-27T14:53:49+06:00,
1000000000218065,77003446098,mKarTel,mAltel,mAltel,,D01,2016-07-27T14:54:36+06:00,
1000000000218066,77776347867,mAltel,mKarTel,mKarTel,,D07,2016-07-27T14:56:53+06:00,
1000000000218067,77015289332,mKarTel,mKcell,mKcell,,D01,2016-07-27T14:56:50+06:00,
