NPId,Number,RecipientId,DonorId,RangeHolderId,OldRoute,NewRoute,PortDate,RowCount
1000000000213469,77012266468,mKcell,mKarTel,mKcell,D01,D02,2016-07-19T13:52:23+06:00,37
1000000000213471,77015167452,mKcell,mKarTel,mKcell,D01,D02,2016-07-19T13:52:23+06:00,
1000000000213472,77015167433,mKcell,mKarTel,mKcell,D01,D02,2016-07-19T13:52:23+06:00,
1000000000213473,77015167415,mKcell,mKarTel,mKcell,D01,D02,2016-07-19T13:52:24+06:00,
1000000000213476,77015240289,mKcell,mKarTel,mKcell,D01,D02,2016-07-19T13:52:22+06:00,
1000000000213477,77015240297,mKcell,mKarTel,mKcell,D01,D02,2016-07-19T13:52:24+06:00,
1000000000213479,77012266467,mKcell,mKarTel,mKcell,D01,D02,2016-07-19T13:52:25+06:00,
1000000000213480,77015240272,mKcell,mKarTel,mKcell,D01,D02,2016-07-19T13:52:25+06:00,
1000000000213481,77015167442,mKcell,mKarTel,mKcell,D01,D02,2016-07-19T13:52:25+06:00,
1000000000213482,77012174303,mKcell,mKarTel,mKcell,D01,D02,2016-07-19T13:52:25+06:00,
1000000000213484,77015167456,mKcell,mKarTel,mKcell,D01,D02,2016-07-19T13:52:26+06:00,
1000000000213486,77015240257,mKcell,mKarTel,mKcell,D01,D02,2016-07-19T13:52:26+06:00,
1000000000213491,77757306010,mMTS,mKcell,mKcell,,D77,2016-07-19T13:32:50+06:00,
1000000000213492,77759929996,mMTS,mKcell,mKcell,,D77,2016-07-19T13:32:54+06:00,
1000000000213493,77756605660,mMTS,mKcell,mKcell,,D77,2016-07-19T13:32:49+06:00,
1000000000213494,77013621913,mKarTel,mKcell,mKcell,,D01,2016-07-19T13:33:05+06:00,
1000000000213500,77024477988,mMTS,mKcell,mKcell,,D77,2016-07-19T13:32:53+06:00,
1000000000213507,77757455788,mMTS,mKcell,mKcell,,D77,2016-07-19T13:32:49+06:00,
1000000000213517,77011162213,mMTS,mKcell,mKcell,,D77,2016-07-19T13:32:49+06:00,
1000000000213518,77026487755,mKcell,mMTS,mKcell,D77,D02,2016-07-19T13:52:21+06:00,
1000000000213519,77015181944,mKcell,mMTS,mKcell,D77,D02,2016-07-19T13:52:22+06:00,
1000000000213521,77753473521,mKcell,mAltel,mKcell,D07,D02,2016-07-19T13:52:24+06:00,
1000000000213522,77005151500,mKcell,mAltel,mAltel,,D02,2016-07-19T13:52:26+06:00,
1000000000213523,77052020008,mKcell,mKarTel,mKarTel,,D02,2016-07-19T13:52:26+06:00,
1000000000213526,77779597447,mKcell,mKarTel,mKarTel,,D02,2016-07-19T13:52:27+06:00,
1000000000213528,77027459292,mKcell,mAltel,mKcell,D07,D02,2016-07-19T13:52:27+06:00,
1000000000213529,77089990012,mKcell,mMTS,mAltel,D77,D02,2016-07-19T13:52:27+06:00,
1000000000213530,77479262605,mKcell,mMTS,mMTS,,D02,2016-07-19T13:52:27+06:00,
1000000000213531,77789800914,mKcell,mMTS,mKcell,D77,D02,2016-07-19T13:52:28+06:00,
1000000000213532,77005256458,mKcell,mAltel,mAltel,,D02,2016-07-19T13:52:28+06:00,
1000000000213555,77019591288,mAltel,mMTS,mKcell,D77,D07,2016-07-19T13:38:35+06:00,
1000000000213557,77751766777,mMTS,mAltel,mKcell,D07,D77,2016-07-19T13:42:21+06:00,
1000000000213559,77015310602,mKarTel,mAltel,mKcell,D07,D01,2016-07-19T13:44:30+06:00,
1000000000213560,77771287778,mAltel,mKarTel,mKarTel,,D07,2016-07-19T13:44:46+06:00,
1000000000213563,77079949400,mAltel,mMTS,mMTS,,D07,2016-07-19T13:49:26+06:00,
1000000000213567,77471055515,mAltel,mMTS,mMTS,,D07,2016-07-19T13:53:32+06:00,
1000000000213575,77771814329,mMTS,mKarTel,mKarTel,,D77,2016-07-19T13:59:22+06:00,
