NPId,Number,RecipientId,DonorId,RangeHolderId,OldRoute,NewRoute,PortDate,RowCount
1000000000344155,77017607912,mKarTel,mKcell,mKcell,,D01,2017-03-10T12:44:16+06:00,22
1000000000344222,77022772259,mKarTel,mKcell,mKcell,,D01,2017-03-10T12:32:40+06:00,
1000000000344226,77024797555,mAltel,mKcell,mKcell,,D07,2017-03-10T12:35:38+06:00,
1000000000344227,77783888924,mMTS,mKcell,mKcell,,D77,2017-03-10T12:36:11+06:00,
1000000000344228,77079293950,mKcell,mMTS,mMTS,,D02,2017-03-10T12:36:35+06:00,
1000000000344229,77054613547,mKcell,mKarTel,mKarTel,,D02,2017-03-10T12:39:13+06:00,
1000000000344230,77057513520,mAltel,mMTS,mKarTel,D77,D07,2017-03-10T12:39:20+06:00,
1000000000344231,77716995519,mKcell,mKarTel,mKarTel,,D02,2017-03-10T12:40:36+06:00,
1000000000344232,77782752905,mMTS,mKcell,mKcell,,D77,2017-03-10T12:40:46+06:00,
1000000000344233,77081218995,mMTS,mAltel,mAltel,,D77,2017-03-10T12:43:02+06:00,
1000000000344234,77779856638,mMTS,mKarTel,mKarTel,,D77,2017-03-10T12:46:03+06:00,
1000000000344235,77029432867,mKcell,mMTS,mKcell,D77,D02,2017-03-10T12:47:21+06:00,
1000000000344236,77012921508,mKcell,mKarTel,mKcell,D01,D02,2017-03-10T12:48:59+06:00,
1000000000344237,77015193424,mMTS,mKcell,mKcell,,D77,2017-03-10T12:49:17+06:00,
1000000000344240,77029555495,mKarTel,mKcell,mKcell,,D01,2017-03-10T12:51:04+06:00,
1000000000344241,77783155108,mKcell,mAltel,mKcell,D07,D02,2017-03-10T12:51:46+06:00,
1000000000344242,77081725237,mKarTel,mAltel,mAltel,,D01,2017-03-10T12:51:54+06:00,
1000000000344244,77753582320,mMTS,mKcell,mKcell,,D77,2017-03-10T12:53:20+06:00,
1000000000344245,77755310707,mKcell,mMTS,mKcell,D77,D02,2017-03-10T12:55:08+06:00,
1000000000344246,77072560851,mAltel,mMTS,mMTS,,D07,2017-03-10T12:54:49+06:00,
1000000000344247,77017772520,mMTS,mKcell,mKcell,,D77,2017-03-10T12:58:34+06:00,
1000000000344248,77014272771,mAltel,mKarTel,mKcell,D01,D07,2017-03-10T12:59:35+06:00,
