NPId,Number,RecipientId,DonorId,RangeHolderId,OldRoute,NewRoute,PortDate,RowCount
1000000000301409,77021418880,mMTS,mKcell,mKcell,,D77,2016-12-27T12:31:52+06:00,32
1000000000301410,77019993840,mMTS,mKcell,mKcell,,D77,2016-12-27T12:30:40+06:00,
1000000000301412,77710133146,mMTS,mKarTel,mKarTel,,D77,2016-12-27T12:33:05+06:00,
1000000000301415,77007576899,mKarTel,mAltel,mAltel,,D01,2016-12-27T12:33:58+06:00,
1000000000301415,77087903550,mKarTel,mAltel,mAltel,,D01,2016-12-27T12:33:58+06:00,
1000000000301415,77087903551,mKarTel,mAltel,mAltel,,D01,2016-12-27T12:33:58+06:00,
1000000000301415,77087903552,mKarTel,mAltel,mAltel,,D01,2016-12-27T12:33:58+06:00,
1000000000301415,77087903554,mKarTel,mAltel,mAltel,,D01,2016-12-27T12:33:58+06:00,
1000000000301415,77087903556,mKarTel,mAltel,mAltel,,D01,2016-12-27T12:33:58+06:00,
1000000000301415,77087903557,mKarTel,mAltel,mAltel,,D01,2016-12-27T12:33:58+06:00,
1000000000301415,77087903558,mKarTel,mAltel,mAltel,,D01,2016-12-27T12:33:58+06:00,
1000000000301415,77087903559,mKarTel,mAltel,mAltel,,D01,2016-12-27T12:33:58+06:00,
1000000000301415,77087903560,mKarTel,mAltel,mAltel,,D01,2016-12-27T12:33:58+06:00,
1000000000301415,77017826583,mKarTel,mAltel,mKcell,D07,D01,2016-12-27T12:33:58+06:00,
1000000000301417,77005279808,mMTS,mAltel,mAltel,,D77,2016-12-27T12:35:54+06:00,
1000000000301418,77789662943,mKcell,mMTS,mKcell,D77,D02,2016-12-27T12:37:26+06:00,
1000000000301419,77057707891,mMTS,mKarTel,mKarTel,,D77,2016-12-27T12:37:56+06:00,
1000000000301421,77781142510,mMTS,mKcell,mKcell,,D77,2016-12-27T12:38:22+06:00,
1000000000301422,77005279806,mMTS,mAltel,mAltel,,D77,2016-12-27T12:38:35+06:00,
1000000000301424,77021500826,mKarTel,mKcell,mKcell,,D01,2016-12-27T12:41:30+06:00,
1000000000301425,77001487787,mMTS,mAltel,mAltel,,D77,2016-12-27T12:41:36+06:00,
1000000000301427,77477111720,mAltel,mMTS,mMTS,,D07,2016-12-27T12:42:35+06:00,
1000000000301428,77074627610,mMTS,mKarTel,mMTS,D01,D77,2016-12-27T12:43:49+06:00,
1000000000301429,77016232393,mMTS,mKcell,mKcell,,D77,2016-12-27T12:44:18+06:00,
1000000000301430,77077016115,mKarTel,mMTS,mMTS,,D01,2016-12-27T12:45:26+06:00,
1000000000301431,77761229595,mKcell,mKarTel,mKarTel,,D02,2016-12-27T12:45:48+06:00,
1000000000301432,77019000107,mAltel,mKcell,mKcell,,D07,2016-12-27T12:45:55+06:00,
1000000000301434,77015235250,mKcell,mMTS,mKcell,D77,D02,2016-12-27T12:47:16+06:00,
1000000000301435,77074898940,mAltel,mMTS,mMTS,,D07,2016-12-27T12:49:04+06:00,
1000000000301436,77078413414,mAltel,mMTS,mMTS,,D07,2016-12-27T12:49:13+06:00,
1000000000301437,77004800069,mKarTel,mAltel,mAltel,,D01,2016-12-27T12:49:42+06:00,
1000000000301440,77089507465,mAltel,mMTS,mAltel,D77,D07,2016-12-27T12:58:53+06:00,
