NPId,Number,RecipientId,DonorId,RangeHolderId,OldRoute,NewRoute,PortDate,RowCount
1000000000401359,77769992272,mKcell,mKarTel,mKarTel,,D02,2017-06-11T14:01:31+06:00,17
1000000000401360,77003072207,mMTS,mKarTel,mAltel,D01,D77,2017-06-11T14:01:31+06:00,
1000000000401362,77769994474,mKcell,mKarTel,mKarTel,,D02,2017-06-11T14:02:23+06:00,
1000000000401365,77782253222,mMTS,mKcell,mKcell,,D77,2017-06-11T14:06:25+06:00,
1000000000401366,77078218749,mAltel,mMTS,mMTS,,D07,2017-06-11T14:07:19+06:00,
1000000000401368,77470596058,mAltel,mMTS,mMTS,,D07,2017-06-11T14:10:28+06:00,
1000000000401369,77769995575,mKcell,mKarTel,mKarTel,,D02,2017-06-11T14:12:52+06:00,
1000000000401370,77769998676,mKcell,mKarTel,mKarTel,,D02,2017-06-11T14:12:58+06:00,
1000000000401371,77714147996,mMTS,mKarTel,mKarTel,,D77,2017-06-11T14:13:21+06:00,
1000000000401372,77750008999,mMTS,mKcell,mKcell,,D77,2017-06-11T14:14:36+06:00,
1000000000401373,77018381133,mAltel,mKcell,mKcell,,D07,2017-06-11T14:18:13+06:00,
1000000000401374,77009813571,mMTS,mAltel,mAltel,,D77,2017-06-11T14:21:29+06:00,
1000000000401375,77769992282,mKcell,mKarTel,mKarTel,,D02,2017-06-11T14:24:04+06:00,
1000000000401376,77714444330,mMTS,mKarTel,mKarTel,,D77,2017-06-11T14:24:46+06:00,
1000000000401377,77769994484,mKcell,mKarTel,mKarTel,,D02,2017-06-11T14:25:54+06:00,
1000000000401379,77073213311,mAltel,mMTS,mMTS,,D07,2017-06-11T14:28:25+06:00,
1000000000401380,77083219111,mMTS,mAltel,mAltel,,D77,2017-06-11T14:29:07+06:00,
