NPId,Number,RecipientId,DonorId,RangeHolderId,OldRoute,NewRoute,PortDate,RowCount
1000000000169327,77770053302,mMTS,mKarTel,mKarTel,,D77,2016-05-06T18:04:43+06:00,21
1000000000169328,77717093751,mMTS,mKarTel,mKarTel,,D77,2016-05-06T18:06:01+06:00,
1000000000169339,77771761122,mMTS,mKarTel,mKarTel,,D77,2016-05-06T18:00:16+06:00,
1000000000169341,77027974021,mKarTel,mKcell,mKcell,,D01,2016-05-06T18:02:05+06:00,
1000000000169342,77004242808,mMTS,mAltel,mAltel,,D77,2016-05-06T18:01:35+06:00,
1000000000169344,77013021549,mAltel,mKcell,mKcell,,D07,2016-05-06T18:03:14+06:00,
1000000000169345,77082192197,mKcell,mAltel,mAltel,,D02,2016-05-06T18:03:31+06:00,
1000000000169348,77071521607,mMTS,mAltel,mMTS,D07,D77,2016-05-06T18:04:25+06:00,
1000000000169350,77013480044,mMTS,mKcell,mKcell,,D77,2016-05-06T18:07:38+06:00,
1000000000169351,77762222250,mKcell,mKarTel,mKarTel,,D02,2016-05-06T18:09:27+06:00,
1000000000169352,77026102666,mMTS,mKcell,mKcell,,D77,2016-05-06T18:09:38+06:00,
1000000000169354,77051013031,mMTS,mKarTel,mKarTel,,D77,2016-05-06T18:12:18+06:00,
1000000000169355,77089531028,mKarTel,mAltel,mAltel,,D01,2016-05-06T18:13:59+06:00,
1000000000169359,77081899496,mMTS,mAltel,mAltel,,D77,2016-05-06T18:16:32+06:00,
1000000000169360,77478820876,mKarTel,mMTS,mMTS,,D01,2016-05-06T18:18:59+06:00,
1000000000169361,77002228494,mKarTel,mAltel,mAltel,,D01,2016-05-06T18:20:10+06:00,
1000000000169364,77776542454,mMTS,mKarTel,mKarTel,,D77,2016-05-06T18:24:49+06:00,
1000000000169365,77775200439,mAltel,mKarTel,mKarTel,,D07,2016-05-06T18:25:20+06:00,
1000000000169366,77712611212,mKcell,mKarTel,mKarTel,,D02,2016-05-06T18:26:01+06:00,
1000000000169367,77012162163,mMTS,mKcell,mKcell,,D77,2016-05-06T18:26:06+06:00,
1000000000169368,77076892320,mKcell,mMTS,mMTS,,D02,2016-05-06T18:26:04+06:00,
