NPId,Number,RecipientId,DonorId,RangeHolderId,OldRoute,NewRoute,PortDate,RowCount
1000000000338870,77051033605,mMTS,mKarTel,mKarTel,,D77,2017-03-01T18:30:07+06:00,29
1000000000338871,77023631564,mKcell,mMTS,mKcell,D77,D02,2017-03-01T18:30:06+06:00,
1000000000338873,77712731892,mKcell,mKarTel,mKarTel,,D02,2017-03-01T18:32:50+06:00,
1000000000338875,77079888084,mAltel,mMTS,mMTS,,D07,2017-03-01T18:32:59+06:00,
1000000000338876,77783334223,mKarTel,mKcell,mKcell,,D01,2017-03-01T18:34:05+06:00,
1000000000338877,77014344507,mAltel,mKcell,mKcell,,D07,2017-03-01T18:34:11+06:00,
1000000000338878,77055552533,mKcell,mKarTel,mKarTel,,D02,2017-03-01T18:35:00+06:00,
1000000000338879,77059177312,mMTS,mKarTel,mKarTel,,D77,2017-03-01T18:34:51+06:00,
1000000000338881,77778829999,mKcell,mKarTel,mKarTel,,D02,2017-03-01T18:36:16+06:00,
1000000000338882,77027011588,mMTS,mKcell,mKcell,,D77,2017-03-01T18:36:00+06:00,
1000000000338883,77716043139,mAltel,mKarTel,mKarTel,D01,D07,2017-03-01T18:37:14+06:00,
1000000000338885,77755500255,mMTS,mKcell,mKcell,,D77,2017-03-01T18:39:29+06:00,
1000000000338886,77025050625,mMTS,mKcell,mKcell,,D77,2017-03-01T18:39:45+06:00,
1000000000338888,77015328020,mMTS,mKcell,mKcell,,D77,2017-03-01T18:41:17+06:00,
1000000000338889,77760090914,mKarTel,mMTS,mKarTel,D77,D01,2017-03-01T18:41:46+06:00,
1000000000338890,77755433333,mAltel,mKcell,mKcell,,D07,2017-03-01T18:43:29+06:00,
1000000000338891,77051318341,mMTS,mKarTel,mKarTel,,D77,2017-03-01T18:44:46+06:00,
1000000000338893,77078359564,mKarTel,mMTS,mMTS,,D01,2017-03-01T18:45:29+06:00,
1000000000338894,77022140551,mMTS,mKcell,mKcell,,D77,2017-03-01T18:46:31+06:00,
1000000000338895,77017630567,mKarTel,mKcell,mKcell,,D01,2017-03-01T18:47:03+06:00,
1000000000338896,77781404233,mMTS,mKcell,mKcell,,D77,2017-03-01T18:47:06+06:00,
1000000000338897,77771070744,mMTS,mKarTel,mKarTel,,D77,2017-03-01T18:48:12+06:00,
1000000000338898,77054444186,mMTS,mKarTel,mKarTel,,D77,2017-03-01T18:48:29+06:00,
1000000000338899,77012243282,mAltel,mKcell,mKcell,,D07,2017-03-01T18:48:09+06:00,
1000000000338901,77012990623,mMTS,mKcell,mKcell,,D77,2017-03-01T18:48:31+06:00,
1000000000338904,77774858686,mMTS,mKarTel,mKarTel,,D77,2017-03-01T18:52:26+06:00,
1000000000338908,77007116669,mKarTel,mMTS,mAltel,D77,D01,2017-03-01T18:56:00+06:00,
1000000000338909,77713721589,mMTS,mKarTel,mKarTel,,D77,2017-03-01T18:57:44+06:00,
1000000000338910,77021999947,mKcell,mAltel,mKcell,D07,D02,2017-03-01T18:57:49+06:00,
