NPId,Number,RecipientId,DonorId,RangeHolderId,OldRoute,NewRoute,PortDate,RowCount
1000000000215161,77710566270,mKcell,mKarTel,mKarTel,,D02,2016-07-22T23:18:44+06:00,295
1000000000215161,77710566271,mKcell,mKarTel,mKarTel,,D02,2016-07-22T23:18:44+06:00,
1000000000215161,77710566272,mKcell,mKarTel,mKarTel,,D02,2016-07-22T23:18:44+06:00,
1000000000215161,77710566273,mKcell,mKarTel,mKarTel,,D02,2016-07-22T23:18:44+06:00,
1000000000215161,77710566274,mKcell,mKarTel,mKarTel,,D02,2016-07-22T23:18:44+06:00,
1000000000215161,77710566275,mKcell,mKarTel,mKarTel,,D02,2016-07-22T23:18:44+06:00,
1000000000215161,77710566276,mKcell,mKarTel,mKarTel,,D02,2016-07-22T23:18:44+06:00,
1000000000215161,77710566278,mKcell,mKarTel,mKarTel,,D02,2016-07-22T23:18:44+06:00,
1000000000215161,77710566279,mKcell,mKarTel,mKarTel,,D02,2016-07-22T23:18:44+06:00,
1000000000215161,77710566280,mKcell,mKarTel,mKarTel,,D02,2016-07-22T23:18:44+06:00,
1000000000215161,77710566281,mKcell,mKarTel,mKarTel,,D02,2016-07-22T23:18:44+06:00,
1000000000215161,77710566282,mKcell,mKarTel,mKarTel,,D02,2016-07-22T23:18:44+06:00,
1000000000215161,77710566283,mKcell,mKarTel,mKarTel,,D02,2016-07-22T23:18:44+06:00,
1000000000215161,77710566284,mKcell,mKarTel,mKarTel,,D02,2016-07-22T23:18:44+06:00,
1000000000215161,77710566285,mKcell,mKarTel,mKarTel,,D02,2016-07-22T23:18:44+06:00,
1000000000215161,77710566286,mKcell,mKarTel,mKarTel,,D02,2016-07-22T23:18:44+06:00,
1000000000215161,77710566287,mKcell,mKarTel,mKarTel,,D02,2016-07-22T23:18:44+06:00,
1000000000215161,77710566288,mKcell,mKarTel,mKarTel,,D02,2016-07-22T23:18:44+06:00,
1000000000215161,77710566289,mKcell,mKarTel,mKarTel,,D02,2016-07-22T23:18:44+06:00,
1000000000215161,77710566290,mKcell,mKarTel,mKarTel,,D02,2016-07-22T23:18:44+06:00,
1000000000215161,77710566291,mKcell,mKarTel,mKarTel,,D02,2016-07-22T23:18:44+06:00,
1000000000215161,77710566293,mKcell,mKarTel,mKarTel,,D02,2016-07-22T23:18:44+06:00,
1000000000215161,77710566294,mKcell,mKarTel,mKarTel,,D02,2016-07-22T23:18:44+06:00,
1000000000215161,77710566295,mKcell,mKarTel,mKarTel,,D02,2016-07-22T23:18:44+06:00,
1000000000215161,77710566296,mKcell,mKarTel,mKarTel,,D02,2016-07-22T23:18:44+06:00,
1000000000215161,77710566297,mKcell,mKarTel,mKarTel,,D02,2016-07-22T23:18:44+06:00,
1000000000215161,77710566298,mKcell,mKarTel,mKarTel,,D02,2016-07-22T23:18:44+06:00,
1000000000215161,77710566299,mKcell,mKarTel,mKarTel,,D02,2016-07-22T23:18:44+06:00,
1000000000215161,77710566300,mKcell,mKarTel,mKarTel,,D02,2016-07-22T23:18:44+06:00,
1000000000215161,77710566301,mKcell,mKarTel,mKarTel,,D02,2016-07-22T23:18:44+06:00,
1000000000215161,77710566302,mKcell,mKarTel,mKarTel,,D02,2016-07-22T23:18:44+06:00,
1000000000215161,77710566303,mKcell,mKarTel,mKarTel,,D02,2016-07-22T23:18:44+06:00,
1000000000215161,77710566304,mKcell,mKarTel,mKarTel,,D02,2016-07-22T23:18:44+06:00,
1000000000215161,77710566305,mKcell,mKarTel,mKarTel,,D02,2016-07-22T23:18:44+06:00,
1000000000215161,77710566306,mKcell,mKarTel,mKarTel,,D02,2016-07-22T23:18:44+06:00,
1000000000215161,77710566308,mKcell,mKarTel,mKarTel,,D02,2016-07-22T23:18:44+06:00,
1000000000215161,77710566309,mKcell,mKarTel,mKarTel,,D02,2016-07-22T23:18:44+06:00,
1000000000215161,77710566310,mKcell,mKarTel,mKarTel,,D02,2016-07-22T23:18:44+06:00,
1000000000215161,77710566311,mKcell,mKarTel,mKarTel,,D02,2016-07-22T23:18:44+06:00,
1000000000215161,77710566312,mKcell,mKarTel,mKarTel,,D02,2016-07-22T23:18:44+06:00,
1000000000215161,77710566313,mKcell,mKarTel,mKarTel,,D02,2016-07-22T23:18:44+06:00,
1000000000215161,77710566314,mKcell,mKarTel,mKarTel,,D02,2016-07-22T23:18:44+06:00,
1000000000215161,77710566315,mKcell,mKarTel,mKarTel,,D02,2016-07-22T23:18:44+06:00,
1000000000215161,77710566316,mKcell,mKarTel,mKarTel,,D02,2016-07-22T23:18:44+06:00,
1000000000215161,77710566364,mKcell,mKarTel,mKarTel,,D02,2016-07-22T23:18:44+06:00,
1000000000215161,77710566365,mKcell,mKarTel,mKarTel,,D02,2016-07-22T23:18:44+06:00,
1000000000215161,77710566414,mKcell,mKarTel,mKarTel,,D02,2016-07-22T23:18:44+06:00,
1000000000215161,77710566415,mKcell,mKarTel,mKarTel,,D02,2016-07-22T23:18:44+06:00,
1000000000215161,77710566416,mKcell,mKarTel,mKarTel,,D02,2016-07-22T23:18:44+06:00,
1000000000215161,77710566417,mKcell,mKarTel,mKarTel,,D02,2016-07-22T23:18:44+06:00,
1000000000215161,77710566418,mKcell,mKarTel,mKarTel,,D02,2016-07-22T23:18:44+06:00,
1000000000215161,77710566422,mKcell,mKarTel,mKarTel,,D02,2016-07-22T23:18:44+06:00,
1000000000215161,77710566423,mKcell,mKarTel,mKarTel,,D02,2016-07-22T23:18:44+06:00,
1000000000215161,77710566424,mKcell,mKarTel,mKarTel,,D02,2016-07-22T23:18:44+06:00,
1000000000215161,77710566425,mKcell,mKarTel,mKarTel,,D02,2016-07-22T23:18:44+06:00,
1000000000215161,77710566427,mKcell,mKarTel,mKarTel,,D02,2016-07-22T23:18:44+06:00,
1000000000215161,77710566428,mKcell,mKarTel,mKarTel,,D02,2016-07-22T23:18:44+06:00,
1000000000215161,77710566429,mKcell,mKarTel,mKarTel,,D02,2016-07-22T23:18:44+06:00,
1000000000215161,77710566430,mKcell,mKarTel,mKarTel,,D02,2016-07-22T23:18:44+06:00,
1000000000215161,77710566431,mKcell,mKarTel,mKarTel,,D02,2016-07-22T23:18:44+06:00,
1000000000215161,77710566432,mKcell,mKarTel,mKarTel,,D02,2016-07-22T23:18:44+06:00,
1000000000215161,77710566433,mKcell,mKarTel,mKarTel,,D02,2016-07-22T23:18:44+06:00,
1000000000215161,77710566435,mKcell,mKarTel,mKarTel,,D02,2016-07-22T23:18:44+06:00,
1000000000215161,77710566436,mKcell,mKarTel,mKarTel,,D02,2016-07-22T23:18:44+06:00,
1000000000215161,77710566437,mKcell,mKarTel,mKarTel,,D02,2016-07-22T23:18:44+06:00,
1000000000215161,77710566438,mKcell,mKarTel,mKarTel,,D02,2016-07-22T23:18:44+06:00,
1000000000215161,77710566439,mKcell,mKarTel,mKarTel,,D02,2016-07-22T23:18:44+06:00,
1000000000215161,77710566440,mKcell,mKarTel,mKarTel,,D02,2016-07-22T23:18:44+06:00,
1000000000215161,77710566441,mKcell,mKarTel,mKarTel,,D02,2016-07-22T23:18:44+06:00,
1000000000215161,77710566442,mKcell,mKarTel,mKarTel,,D02,2016-07-22T23:18:44+06:00,
1000000000215161,77710566443,mKcell,mKarTel,mKarTel,,D02,2016-07-22T23:18:44+06:00,
1000000000215161,77710566445,mKcell,mKarTel,mKarTel,,D02,2016-07-22T23:18:44+06:00,
1000000000215161,77710566447,mKcell,mKarTel,mKarTel,,D02,2016-07-22T23:18:44+06:00,
1000000000215161,77710566448,mKcell,mKarTel,mKarTel,,D02,2016-07-22T23:18:44+06:00,
1000000000215161,77710566449,mKcell,mKarTel,mKarTel,,D02,2016-07-22T23:18:44+06:00,
1000000000215161,77710566450,mKcell,mKarTel,mKarTel,,D02,2016-07-22T23:18:44+06:00,
1000000000215161,77710566451,mKcell,mKarTel,mKarTel,,D02,2016-07-22T23:18:44+06:00,
1000000000215161,77710566452,mKcell,mKarTel,mKarTel,,D02,2016-07-22T23:18:44+06:00,
1000000000215161,77710566453,mKcell,mKarTel,mKarTel,,D02,2016-07-22T23:18:44+06:00,
1000000000215161,77710566454,mKcell,mKarTel,mKarTel,,D02,2016-07-22T23:18:44+06:00,
1000000000215161,77710566455,mKcell,mKarTel,mKarTel,,D02,2016-07-22T23:18:44+06:00,
1000000000215161,77710566456,mKcell,mKarTel,mKarTel,,D02,2016-07-22T23:18:44+06:00,
1000000000215161,77710566458,mKcell,mKarTel,mKarTel,,D02,2016-07-22T23:18:44+06:00,
1000000000215161,77710566459,mKcell,mKarTel,mKarTel,,D02,2016-07-22T23:18:44+06:00,
1000000000215161,77710566460,mKcell,mKarTel,mKarTel,,D02,2016-07-22T23:18:44+06:00,
1000000000215161,77710566461,mKcell,mKarTel,mKarTel,,D02,2016-07-22T23:18:44+06:00,
1000000000215161,77710566462,mKcell,mKarTel,mKarTel,,D02,2016-07-22T23:18:44+06:00,
1000000000215161,77710566463,mKcell,mKarTel,mKarTel,,D02,2016-07-22T23:18:44+06:00,
1000000000215161,77710566465,mKcell,mKarTel,mKarTel,,D02,2016-07-22T23:18:44+06:00,
1000000000215161,77710566466,mKcell,mKarTel,mKarTel,,D02,2016-07-22T23:18:44+06:00,
1000000000215161,77710566467,mKcell,mKarTel,mKarTel,,D02,2016-07-22T23:18:44+06:00,
1000000000215161,77710566468,mKcell,mKarTel,mKarTel,,D02,2016-07-22T23:18:44+06:00,
1000000000215161,77710566469,mKcell,mKarTel,mKarTel,,D02,2016-07-22T23:18:44+06:00,
1000000000215161,77710566470,mKcell,mKarTel,mKarTel,,D02,2016-07-22T23:18:44+06:00,
1000000000215161,77710566471,mKcell,mKarTel,mKarTel,,D02,2016-07-22T23:18:44+06:00,
1000000000215161,77710566472,mKcell,mKarTel,mKarTel,,D02,2016-07-22T23:18:44+06:00,
1000000000215161,77710566473,mKcell,mKarTel,mKarTel,,D02,2016-07-22T23:18:44+06:00,
1000000000215161,77710566474,mKcell,mKarTel,mKarTel,,D02,2016-07-22T23:18:44+06:00,
1000000000215161,77710566475,mKcell,mKarTel,mKarTel,,D02,2016-07-22T23:18:44+06:00,
1000000000215161,77710566476,mKcell,mKarTel,mKarTel,,D02,2016-07-22T23:18:44+06:00,
1000000000215164,77717581628,mKcell,mKarTel,mKarTel,,D02,2016-07-22T23:20:52+06:00,
1000000000215164,77717581632,mKcell,mKarTel,mKarTel,,D02,2016-07-22T23:20:52+06:00,
1000000000215164,77717581635,mKcell,mKarTel,mKarTel,,D02,2016-07-22T23:20:52+06:00,
1000000000215164,77717581637,mKcell,mKarTel,mKarTel,,D02,2016-07-22T23:20:52+06:00,
1000000000215164,77717581638,mKcell,mKarTel,mKarTel,,D02,2016-07-22T23:20:52+06:00,
1000000000215164,77717581641,mKcell,mKarTel,mKarTel,,D02,2016-07-22T23:20:52+06:00,
1000000000215164,77717581643,mKcell,mKarTel,mKarTel,,D02,2016-07-22T23:20:52+06:00,
1000000000215164,77717581647,mKcell,mKarTel,mKarTel,,D02,2016-07-22T23:20:52+06:00,
1000000000215164,77717581648,mKcell,mKarTel,mKarTel,,D02,2016-07-22T23:20:52+06:00,
1000000000215164,77717581657,mKcell,mKarTel,mKarTel,,D02,2016-07-22T23:20:52+06:00,
1000000000215164,77717581664,mKcell,mKarTel,mKarTel,,D02,2016-07-22T23:20:52+06:00,
1000000000215164,77717581670,mKcell,mKarTel,mKarTel,,D02,2016-07-22T23:20:52+06:00,
1000000000215164,77717581671,mKcell,mKarTel,mKarTel,,D02,2016-07-22T23:20:52+06:00,
1000000000215164,77717581672,mKcell,mKarTel,mKarTel,,D02,2016-07-22T23:20:52+06:00,
1000000000215164,77717581673,mKcell,mKarTel,mKarTel,,D02,2016-07-22T23:20:52+06:00,
1000000000215164,77717581674,mKcell,mKarTel,mKarTel,,D02,2016-07-22T23:20:52+06:00,
1000000000215164,77717581678,mKcell,mKarTel,mKarTel,,D02,2016-07-22T23:20:52+06:00,
1000000000215164,77717581679,mKcell,mKarTel,mKarTel,,D02,2016-07-22T23:20:52+06:00,
1000000000215164,77717581681,mKcell,mKarTel,mKarTel,,D02,2016-07-22T23:20:52+06:00,
1000000000215164,77717581683,mKcell,mKarTel,mKarTel,,D02,2016-07-22T23:20:52+06:00,
1000000000215164,77717581693,mKcell,mKarTel,mKarTel,,D02,2016-07-22T23:20:52+06:00,
1000000000215164,77717581694,mKcell,mKarTel,mKarTel,,D02,2016-07-22T23:20:52+06:00,
1000000000215164,77717581770,mKcell,mKarTel,mKarTel,,D02,2016-07-22T23:20:52+06:00,
1000000000215164,77717581797,mKcell,mKarTel,mKarTel,,D02,2016-07-22T23:20:52+06:00,
1000000000215164,77717581852,mKcell,mKarTel,mKarTel,,D02,2016-07-22T23:20:52+06:00,
1000000000215164,77717581876,mKcell,mKarTel,mKarTel,,D02,2016-07-22T23:20:52+06:00,
1000000000215164,77717581893,mKcell,mKarTel,mKarTel,,D02,2016-07-22T23:20:52+06:00,
1000000000215164,77717581903,mKcell,mKarTel,mKarTel,,D02,2016-07-22T23:20:52+06:00,
1000000000215164,77717581904,mKcell,mKarTel,mKarTel,,D02,2016-07-22T23:20:52+06:00,
1000000000215164,77717581939,mKcell,mKarTel,mKarTel,,D02,2016-07-22T23:20:52+06:00,
1000000000215164,77717581972,mKcell,mKarTel,mKarTel,,D02,2016-07-22T23:20:52+06:00,
1000000000215164,77717581986,mKcell,mKarTel,mKarTel,,D02,2016-07-22T23:20:52+06:00,
1000000000215164,77717581987,mKcell,mKarTel,mKarTel,,D02,2016-07-22T23:20:52+06:00,
1000000000215164,77717581990,mKcell,mKarTel,mKarTel,,D02,2016-07-22T23:20:52+06:00,
1000000000215164,77717583005,mKcell,mKarTel,mKarTel,,D02,2016-07-22T23:20:52+06:00,
1000000000215164,77717583007,mKcell,mKarTel,mKarTel,,D02,2016-07-22T23:20:52+06:00,
1000000000215164,77717583010,mKcell,mKarTel,mKarTel,,D02,2016-07-22T23:20:52+06:00,
1000000000215164,77717583021,mKcell,mKarTel,mKarTel,,D02,2016-07-22T23:20:52+06:00,
1000000000215164,77717583039,mKcell,mKarTel,mKarTel,,D02,2016-07-22T23:20:52+06:00,
1000000000215164,77717583071,mKcell,mKarTel,mKarTel,,D02,2016-07-22T23:20:52+06:00,
1000000000215164,77717583077,mKcell,mKarTel,mKarTel,,D02,2016-07-22T23:20:52+06:00,
1000000000215164,77717583088,mKcell,mKarTel,mKarTel,,D02,2016-07-22T23:20:52+06:00,
1000000000215164,77717583095,mKcell,mKarTel,mKarTel,,D02,2016-07-22T23:20:52+06:00,
1000000000215164,77717583151,mKcell,mKarTel,mKarTel,,D02,2016-07-22T23:20:52+06:00,
1000000000215164,77717583236,mKcell,mKarTel,mKarTel,,D02,2016-07-22T23:20:52+06:00,
1000000000215164,77717583273,mKcell,mKarTel,mKarTel,,D02,2016-07-22T23:20:52+06:00,
1000000000215164,77717583553,mKcell,mKarTel,mKarTel,,D02,2016-07-22T23:20:52+06:00,
1000000000215164,77717583930,mKcell,mKarTel,mKarTel,,D02,2016-07-22T23:20:52+06:00,
1000000000215164,77717587194,mKcell,mKarTel,mKarTel,,D02,2016-07-22T23:20:52+06:00,
1000000000215164,77717587195,mKcell,mKarTel,mKarTel,,D02,2016-07-22T23:20:52+06:00,
1000000000215164,77717587196,mKcell,mKarTel,mKarTel,,D02,2016-07-22T23:20:52+06:00,
1000000000215164,77717587197,mKcell,mKarTel,mKarTel,,D02,2016-07-22T23:20:52+06:00,
1000000000215164,77717587198,mKcell,mKarTel,mKarTel,,D02,2016-07-22T23:20:52+06:00,
1000000000215164,77717587217,mKcell,mKarTel,mKarTel,,D02,2016-07-22T23:20:52+06:00,
1000000000215164,77717587218,mKcell,mKarTel,mKarTel,,D02,2016-07-22T23:20:52+06:00,
1000000000215164,77717587222,mKcell,mKarTel,mKarTel,,D02,2016-07-22T23:20:52+06:00,
1000000000215164,77717587223,mKcell,mKarTel,mKarTel,,D02,2016-07-22T23:20:52+06:00,
1000000000215164,77717587224,mKcell,mKarTel,mKarTel,,D02,2016-07-22T23:20:52+06:00,
1000000000215164,77717587233,mKcell,mKarTel,mKarTel,,D02,2016-07-22T23:20:52+06:00,
1000000000215164,77717587234,mKcell,mKarTel,mKarTel,,D02,2016-07-22T23:20:52+06:00,
1000000000215164,77717587235,mKcell,mKarTel,mKarTel,,D02,2016-07-22T23:20:52+06:00,
1000000000215164,77717587236,mKcell,mKarTel,mKarTel,,D02,2016-07-22T23:20:52+06:00,
1000000000215164,77717587237,mKcell,mKarTel,mKarTel,,D02,2016-07-22T23:20:52+06:00,
1000000000215164,77717587238,mKcell,mKarTel,mKarTel,,D02,2016-07-22T23:20:52+06:00,
1000000000215164,77717587240,mKcell,mKarTel,mKarTel,,D02,2016-07-22T23:20:52+06:00,
1000000000215164,77717587241,mKcell,mKarTel,mKarTel,,D02,2016-07-22T23:20:52+06:00,
1000000000215164,77717587242,mKcell,mKarTel,mKarTel,,D02,2016-07-22T23:20:52+06:00,
1000000000215164,77717587243,mKcell,mKarTel,mKarTel,,D02,2016-07-22T23:20:52+06:00,
1000000000215164,77717587245,mKcell,mKarTel,mKarTel,,D02,2016-07-22T23:20:52+06:00,
1000000000215164,77717587246,mKcell,mKarTel,mKarTel,,D02,2016-07-22T23:20:52+06:00,
1000000000215164,77717587247,mKcell,mKarTel,mKarTel,,D02,2016-07-22T23:20:52+06:00,
1000000000215164,77717587248,mKcell,mKarTel,mKarTel,,D02,2016-07-22T23:20:52+06:00,
1000000000215164,77717587249,mKcell,mKarTel,mKarTel,,D02,2016-07-22T23:20:52+06:00,
1000000000215164,77717587250,mKcell,mKarTel,mKarTel,,D02,2016-07-22T23:20:52+06:00,
1000000000215164,77717587251,mKcell,mKarTel,mKarTel,,D02,2016-07-22T23:20:52+06:00,
1000000000215164,77717587257,mKcell,mKarTel,mKarTel,,D02,2016-07-22T23:20:52+06:00,
1000000000215164,77717587258,mKcell,mKarTel,mKarTel,,D02,2016-07-22T23:20:52+06:00,
1000000000215164,77717587259,mKcell,mKarTel,mKarTel,,D02,2016-07-22T23:20:52+06:00,
1000000000215164,77717587260,mKcell,mKarTel,mKarTel,,D02,2016-07-22T23:20:52+06:00,
1000000000215164,77717587261,mKcell,mKarTel,mKarTel,,D02,2016-07-22T23:20:52+06:00,
1000000000215164,77717587262,mKcell,mKarTel,mKarTel,,D02,2016-07-22T23:20:52+06:00,
1000000000215164,77717587263,mKcell,mKarTel,mKarTel,,D02,2016-07-22T23:20:52+06:00,
1000000000215164,77717587264,mKcell,mKarTel,mKarTel,,D02,2016-07-22T23:20:52+06:00,
1000000000215164,77717587265,mKcell,mKarTel,mKarTel,,D02,2016-07-22T23:20:52+06:00,
1000000000215164,77717587266,mKcell,mKarTel,mKarTel,,D02,2016-07-22T23:20:52+06:00,
1000000000215164,77717587267,mKcell,mKarTel,mKarTel,,D02,2016-07-22T23:20:52+06:00,
1000000000215164,77717587268,mKcell,mKarTel,mKarTel,,D02,2016-07-22T23:20:52+06:00,
1000000000215164,77717587269,mKcell,mKarTel,mKarTel,,D02,2016-07-22T23:20:52+06:00,
1000000000215164,77717587274,mKcell,mKarTel,mKarTel,,D02,2016-07-22T23:20:52+06:00,
1000000000215164,77717587276,mKcell,mKarTel,mKarTel,,D02,2016-07-22T23:20:52+06:00,
1000000000215164,77717587279,mKcell,mKarTel,mKarTel,,D02,2016-07-22T23:20:52+06:00,
1000000000215164,77717587280,mKcell,mKarTel,mKarTel,,D02,2016-07-22T23:20:52+06:00,
1000000000215164,77717587281,mKcell,mKarTel,mKarTel,,D02,2016-07-22T23:20:52+06:00,
1000000000215164,77717587282,mKcell,mKarTel,mKarTel,,D02,2016-07-22T23:20:52+06:00,
1000000000215164,77717587283,mKcell,mKarTel,mKarTel,,D02,2016-07-22T23:20:52+06:00,
1000000000215164,77717587284,mKcell,mKarTel,mKarTel,,D02,2016-07-22T23:20:52+06:00,
1000000000215164,77717587285,mKcell,mKarTel,mKarTel,,D02,2016-07-22T23:20:52+06:00,
1000000000215164,77717587286,mKcell,mKarTel,mKarTel,,D02,2016-07-22T23:20:52+06:00,
1000000000215164,77717587287,mKcell,mKarTel,mKarTel,,D02,2016-07-22T23:20:52+06:00,
1000000000215164,77717587289,mKcell,mKarTel,mKarTel,,D02,2016-07-22T23:20:52+06:00,
1000000000215231,77717582038,mKcell,mKarTel,mKarTel,,D02,2016-07-22T23:09:19+06:00,
1000000000215231,77717582039,mKcell,mKarTel,mKarTel,,D02,2016-07-22T23:09:19+06:00,
1000000000215231,77717582050,mKcell,mKarTel,mKarTel,,D02,2016-07-22T23:09:19+06:00,
1000000000215231,77717582065,mKcell,mKarTel,mKarTel,,D02,2016-07-22T23:09:19+06:00,
1000000000215231,77717582133,mKcell,mKarTel,mKarTel,,D02,2016-07-22T23:09:19+06:00,
1000000000215231,77717582141,mKcell,mKarTel,mKarTel,,D02,2016-07-22T23:09:19+06:00,
1000000000215231,77717582145,mKcell,mKarTel,mKarTel,,D02,2016-07-22T23:09:19+06:00,
1000000000215231,77717582150,mKcell,mKarTel,mKarTel,,D02,2016-07-22T23:09:19+06:00,
1000000000215231,77717582151,mKcell,mKarTel,mKarTel,,D02,2016-07-22T23:09:19+06:00,
1000000000215231,77717582152,mKcell,mKarTel,mKarTel,,D02,2016-07-22T23:09:19+06:00,
1000000000215231,77717582153,mKcell,mKarTel,mKarTel,,D02,2016-07-22T23:09:19+06:00,
1000000000215231,77717582158,mKcell,mKarTel,mKarTel,,D02,2016-07-22T23:09:19+06:00,
1000000000215231,77717582163,mKcell,mKarTel,mKarTel,,D02,2016-07-22T23:09:19+06:00,
1000000000215231,77717582165,mKcell,mKarTel,mKarTel,,D02,2016-07-22T23:09:19+06:00,
1000000000215231,77717582166,mKcell,mKarTel,mKarTel,,D02,2016-07-22T23:09:19+06:00,
1000000000215231,77717582167,mKcell,mKarTel,mKarTel,,D02,2016-07-22T23:09:19+06:00,
1000000000215231,77717582168,mKcell,mKarTel,mKarTel,,D02,2016-07-22T23:09:19+06:00,
1000000000215231,77717582169,mKcell,mKarTel,mKarTel,,D02,2016-07-22T23:09:19+06:00,
1000000000215231,77717582170,mKcell,mKarTel,mKarTel,,D02,2016-07-22T23:09:19+06:00,
1000000000215231,77717582171,mKcell,mKarTel,mKarTel,,D02,2016-07-22T23:09:19+06:00,
1000000000215231,77717582172,mKcell,mKarTel,mKarTel,,D02,2016-07-22T23:09:19+06:00,
1000000000215231,77717582173,mKcell,mKarTel,mKarTel,,D02,2016-07-22T23:09:19+06:00,
1000000000215231,77717582174,mKcell,mKarTel,mKarTel,,D02,2016-07-22T23:09:19+06:00,
1000000000215231,77717582176,mKcell,mKarTel,mKarTel,,D02,2016-07-22T23:09:19+06:00,
1000000000215231,77717582177,mKcell,mKarTel,mKarTel,,D02,2016-07-22T23:09:19+06:00,
1000000000215231,77717582179,mKcell,mKarTel,mKarTel,,D02,2016-07-22T23:09:19+06:00,
1000000000215231,77717582181,mKcell,mKarTel,mKarTel,,D02,2016-07-22T23:09:19+06:00,
1000000000215231,77717582182,mKcell,mKarTel,mKarTel,,D02,2016-07-22T23:09:19+06:00,
1000000000215231,77717582184,mKcell,mKarTel,mKarTel,,D02,2016-07-22T23:09:19+06:00,
1000000000215231,77717582185,mKcell,mKarTel,mKarTel,,D02,2016-07-22T23:09:19+06:00,
1000000000215231,77717582186,mKcell,mKarTel,mKarTel,,D02,2016-07-22T23:09:19+06:00,
1000000000215231,77717582187,mKcell,mKarTel,mKarTel,,D02,2016-07-22T23:09:19+06:00,
1000000000215231,77717582189,mKcell,mKarTel,mKarTel,,D02,2016-07-22T23:09:19+06:00,
1000000000215231,77717582190,mKcell,mKarTel,mKarTel,,D02,2016-07-22T23:09:19+06:00,
1000000000215231,77717582194,mKcell,mKarTel,mKarTel,,D02,2016-07-22T23:09:19+06:00,
1000000000215231,77717582200,mKcell,mKarTel,mKarTel,,D02,2016-07-22T23:09:19+06:00,
1000000000215231,77717582202,mKcell,mKarTel,mKarTel,,D02,2016-07-22T23:09:19+06:00,
1000000000215231,77717582205,mKcell,mKarTel,mKarTel,,D02,2016-07-22T23:09:19+06:00,
1000000000215231,77717582206,mKcell,mKarTel,mKarTel,,D02,2016-07-22T23:09:19+06:00,
1000000000215231,77717582207,mKcell,mKarTel,mKarTel,,D02,2016-07-22T23:09:19+06:00,
1000000000215231,77717582208,mKcell,mKarTel,mKarTel,,D02,2016-07-22T23:09:19+06:00,
1000000000215231,77717582210,mKcell,mKarTel,mKarTel,,D02,2016-07-22T23:09:19+06:00,
1000000000215231,77717582214,mKcell,mKarTel,mKarTel,,D02,2016-07-22T23:09:19+06:00,
1000000000215231,77717582215,mKcell,mKarTel,mKarTel,,D02,2016-07-22T23:09:19+06:00,
1000000000215231,77717582216,mKcell,mKarTel,mKarTel,,D02,2016-07-22T23:09:19+06:00,
1000000000215231,77717582218,mKcell,mKarTel,mKarTel,,D02,2016-07-22T23:09:19+06:00,
1000000000215231,77717582221,mKcell,mKarTel,mKarTel,,D02,2016-07-22T23:09:19+06:00,
1000000000215231,77717582223,mKcell,mKarTel,mKarTel,,D02,2016-07-22T23:09:19+06:00,
1000000000215231,77717582225,mKcell,mKarTel,mKarTel,,D02,2016-07-22T23:09:19+06:00,
1000000000215231,77717582226,mKcell,mKarTel,mKarTel,,D02,2016-07-22T23:09:19+06:00,
1000000000215231,77717582229,mKcell,mKarTel,mKarTel,,D02,2016-07-22T23:09:19+06:00,
1000000000215231,77717582231,mKcell,mKarTel,mKarTel,,D02,2016-07-22T23:09:19+06:00,
1000000000215231,77717582233,mKcell,mKarTel,mKarTel,,D02,2016-07-22T23:09:19+06:00,
1000000000215231,77717582234,mKcell,mKarTel,mKarTel,,D02,2016-07-22T23:09:19+06:00,
1000000000215231,77717582240,mKcell,mKarTel,mKarTel,,D02,2016-07-22T23:09:19+06:00,
1000000000215231,77717582243,mKcell,mKarTel,mKarTel,,D02,2016-07-22T23:09:19+06:00,
1000000000215231,77717582244,mKcell,mKarTel,mKarTel,,D02,2016-07-22T23:09:19+06:00,
1000000000215231,77717582245,mKcell,mKarTel,mKarTel,,D02,2016-07-22T23:09:19+06:00,
1000000000215231,77717582246,mKcell,mKarTel,mKarTel,,D02,2016-07-22T23:09:19+06:00,
1000000000215231,77717582247,mKcell,mKarTel,mKarTel,,D02,2016-07-22T23:09:19+06:00,
1000000000215231,77717582249,mKcell,mKarTel,mKarTel,,D02,2016-07-22T23:09:19+06:00,
1000000000215231,77717582250,mKcell,mKarTel,mKarTel,,D02,2016-07-22T23:09:19+06:00,
1000000000215231,77717582251,mKcell,mKarTel,mKarTel,,D02,2016-07-22T23:09:19+06:00,
1000000000215231,77717582252,mKcell,mKarTel,mKarTel,,D02,2016-07-22T23:09:19+06:00,
1000000000215231,77717582253,mKcell,mKarTel,mKarTel,,D02,2016-07-22T23:09:19+06:00,
1000000000215231,77717582254,mKcell,mKarTel,mKarTel,,D02,2016-07-22T23:09:19+06:00,
1000000000215231,77717582256,mKcell,mKarTel,mKarTel,,D02,2016-07-22T23:09:19+06:00,
1000000000215231,77717582257,mKcell,mKarTel,mKarTel,,D02,2016-07-22T23:09:19+06:00,
1000000000215231,77717582258,mKcell,mKarTel,mKarTel,,D02,2016-07-22T23:09:19+06:00,
1000000000215231,77717582260,mKcell,mKarTel,mKarTel,,D02,2016-07-22T23:09:19+06:00,
1000000000215231,77717582264,mKcell,mKarTel,mKarTel,,D02,2016-07-22T23:09:19+06:00,
1000000000215231,77717582265,mKcell,mKarTel,mKarTel,,D02,2016-07-22T23:09:19+06:00,
1000000000215231,77717582266,mKcell,mKarTel,mKarTel,,D02,2016-07-22T23:09:19+06:00,
1000000000215231,77717582267,mKcell,mKarTel,mKarTel,,D02,2016-07-22T23:09:19+06:00,
1000000000215231,77717582268,mKcell,mKarTel,mKarTel,,D02,2016-07-22T23:09:19+06:00,
1000000000215231,77717582269,mKcell,mKarTel,mKarTel,,D02,2016-07-22T23:09:19+06:00,
1000000000215231,77717582270,mKcell,mKarTel,mKarTel,,D02,2016-07-22T23:09:19+06:00,
1000000000215231,77717582271,mKcell,mKarTel,mKarTel,,D02,2016-07-22T23:09:19+06:00,
1000000000215231,77717582272,mKcell,mKarTel,mKarTel,,D02,2016-07-22T23:09:19+06:00,
1000000000215231,77717582275,mKcell,mKarTel,mKarTel,,D02,2016-07-22T23:09:19+06:00,
1000000000215231,77717582276,mKcell,mKarTel,mKarTel,,D02,2016-07-22T23:09:19+06:00,
1000000000215231,77717582277,mKcell,mKarTel,mKarTel,,D02,2016-07-22T23:09:19+06:00,
1000000000215231,77717582280,mKcell,mKarTel,mKarTel,,D02,2016-07-22T23:09:19+06:00,
1000000000215231,77717582282,mKcell,mKarTel,mKarTel,,D02,2016-07-22T23:09:19+06:00,
1000000000215231,77717582283,mKcell,mKarTel,mKarTel,,D02,2016-07-22T23:09:19+06:00,
1000000000215231,77717582284,mKcell,mKarTel,mKarTel,,D02,2016-07-22T23:09:19+06:00,
1000000000215231,77717582285,mKcell,mKarTel,mKarTel,,D02,2016-07-22T23:09:19+06:00,
1000000000215231,77717582286,mKcell,mKarTel,mKarTel,,D02,2016-07-22T23:09:19+06:00,
1000000000215231,77717582288,mKcell,mKarTel,mKarTel,,D02,2016-07-22T23:09:19+06:00,
1000000000215231,77717582291,mKcell,mKarTel,mKarTel,,D02,2016-07-22T23:09:19+06:00,
1000000000215231,77717582292,mKcell,mKarTel,mKarTel,,D02,2016-07-22T23:09:19+06:00,
1000000000215231,77717582293,mKcell,mKarTel,mKarTel,,D02,2016-07-22T23:09:19+06:00,
1000000000215231,77717582294,mKcell,mKarTel,mKarTel,,D02,2016-07-22T23:09:19+06:00,
1000000000215231,77717582297,mKcell,mKarTel,mKarTel,,D02,2016-07-22T23:09:19+06:00,
1000000000215231,77717582298,mKcell,mKarTel,mKarTel,,D02,2016-07-22T23:09:19+06:00,
