NPId,Number,RecipientId,DonorId,RangeHolderId,OldRoute,NewRoute,PortDate,RowCount
1000000000433158,77015034963,mKarTel,mKcell,mKcell,D02,D01,2017-08-02T16:48:22+06:00,43
1000000000433158,77015034964,mKarTel,mKcell,mKcell,D02,D01,2017-08-02T16:48:22+06:00,
1000000000433158,77015034968,mKarTel,mKcell,mKcell,D02,D01,2017-08-02T16:48:22+06:00,
1000000000433158,77017055804,mKarTel,mKcell,mKcell,D02,D01,2017-08-02T16:48:22+06:00,
1000000000433158,77018067484,mKarTel,mKcell,mKcell,D02,D01,2017-08-02T16:48:22+06:00,
1000000000433158,77019531848,mKarTel,mKcell,mKcell,D02,D01,2017-08-02T16:48:22+06:00,
1000000000433158,77019842165,mKarTel,mKcell,mKcell,D02,D01,2017-08-02T16:48:22+06:00,
1000000000433158,77022145126,mKarTel,mKcell,mKcell,D02,D01,2017-08-02T16:48:22+06:00,
1000000000433215,77012228269,mKarTel,mKcell,mKcell,,D01,2017-08-02T16:53:23+06:00,
1000000000433593,77015214033,mKcell,mMTS,mKcell,D77,D02,2017-08-02T16:30:09+06:00,
1000000000433594,77017323944,mKarTel,mKcell,mKcell,,D01,2017-08-02T16:30:08+06:00,
1000000000433595,77015954588,mKarTel,mKcell,mKcell,,D01,2017-08-02T16:30:28+06:00,
1000000000433597,77021131106,mMTS,mKcell,mKcell,,D77,2017-08-02T16:31:00+06:00,
1000000000433598,77019955312,mMTS,mKcell,mKcell,,D77,2017-08-02T16:31:43+06:00,
1000000000433599,77003151990,mKcell,mAltel,mAltel,,D02,2017-08-02T16:33:15+06:00,
1000000000433601,77018880485,mMTS,mKarTel,mKcell,D01,D77,2017-08-02T16:34:49+06:00,
1000000000433602,77716250000,mMTS,mKarTel,mKarTel,,D77,2017-08-02T16:35:21+06:00,
1000000000433603,77471099027,mKcell,mMTS,mMTS,,D02,2017-08-02T16:36:29+06:00,
1000000000433604,77075975519,mKcell,mMTS,mMTS,,D02,2017-08-02T16:37:15+06:00,
1000000000433605,77027990624,mMTS,mKcell,mKcell,,D77,2017-08-02T16:37:50+06:00,
1000000000433606,77785556973,mAltel,mKcell,mKcell,,D07,2017-08-02T16:37:56+06:00,
1000000000433607,77016193427,mMTS,mKcell,mKcell,,D77,2017-08-02T16:41:00+06:00,
1000000000433608,77017142458,mMTS,mKcell,mKcell,,D77,2017-08-02T16:43:53+06:00,
1000000000433609,77057782662,mMTS,mAltel,mKarTel,D07,D77,2017-08-02T16:43:56+06:00,
1000000000433611,77006097007,mKcell,mAltel,mAltel,,D02,2017-08-02T16:45:47+06:00,
1000000000433612,77004599344,mKcell,mMTS,mAltel,D77,D02,2017-08-02T16:46:06+06:00,
1000000000433613,77073044432,mKarTel,mMTS,mMTS,,D01,2017-08-02T16:46:05+06:00,
1000000000433614,77027985859,mKarTel,mKcell,mKcell,,D01,2017-08-02T16:46:41+06:00,
1000000000433616,77083031070,mMTS,mKarTel,mAltel,D01,D77,2017-08-02T16:47:31+06:00,
1000000000433617,77017224934,mKarTel,mMTS,mKcell,D77,D01,2017-08-02T16:47:31+06:00,
1000000000433618,77477005599,mKcell,mMTS,mMTS,,D02,2017-08-02T16:47:32+06:00,
1000000000433620,77058121929,mMTS,mKarTel,mKarTel,,D77,2017-08-02T16:50:30+06:00,
1000000000433622,77056194795,mAltel,mKarTel,mKarTel,,D07,2017-08-02T16:51:54+06:00,
1000000000433624,77015789632,mKarTel,mKcell,mKcell,,D01,2017-08-02T16:52:01+06:00,
1000000000433625,77076988833,mMTS,mKcell,mMTS,D02,D77,2017-08-02T16:51:57+06:00,
1000000000433627,77785720860,mKarTel,mKcell,mKcell,,D01,2017-08-02T16:53:48+06:00,
1000000000433628,77084959697,mMTS,mAltel,mAltel,,D77,2017-08-02T16:53:45+06:00,
1000000000433629,77754634430,mMTS,mKcell,mKcell,,D77,2017-08-02T16:54:34+06:00,
1000000000433631,77012206233,mKcell,mKarTel,mKcell,D01,D02,2017-08-02T16:55:30+06:00,
1000000000433632,77006459680,mMTS,mAltel,mAltel,,D77,2017-08-02T16:55:03+06:00,
1000000000433633,77770551188,mMTS,mKcell,mKarTel,D02,D77,2017-08-02T16:55:22+06:00,
1000000000433634,77015551262,mKarTel,mKcell,mKcell,,D01,2017-08-02T16:57:22+06:00,
1000000000433637,77015765372,mKcell,mAltel,mKcell,D07,D02,2017-08-02T16:59:39+06:00,
