NPId,Number,RecipientId,DonorId,RangeHolderId,OldRoute,NewRoute,PortDate,RowCount
1000000000266566,77779963242,mKarTel,mMTS,mKarTel,D77,D01,2016-10-22T15:30:43+06:00,27
1000000000266567,77011903600,mKarTel,mKcell,mKcell,,D01,2016-10-22T15:32:53+06:00,
1000000000266568,77015038178,mKarTel,mKcell,mKcell,,D01,2016-10-22T15:33:14+06:00,
1000000000266569,77078309332,mKcell,mMTS,mMTS,,D02,2016-10-22T15:33:05+06:00,
1000000000266571,77761111085,mAltel,mKarTel,mKarTel,,D07,2016-10-22T15:36:12+06:00,
1000000000266572,77028460004,mAltel,mKcell,mKcell,,D07,2016-10-22T15:36:04+06:00,
1000000000266573,77755340000,mMTS,mKcell,mKcell,,D77,2016-10-22T15:37:33+06:00,
1000000000266574,77011624739,mMTS,mKcell,mKcell,,D77,2016-10-22T15:37:45+06:00,
1000000000266575,77087580780,mMTS,mAltel,mAltel,,D77,2016-10-22T15:37:39+06:00,
1000000000266576,77785848384,mMTS,mKcell,mKcell,,D77,2016-10-22T15:38:42+06:00,
1000000000266577,77087580779,mMTS,mAltel,mAltel,,D77,2016-10-22T15:39:21+06:00,
1000000000266578,77015579712,mAltel,mKcell,mKcell,,D07,2016-10-22T15:42:49+06:00,
1000000000266579,77017757733,mKcell,mAltel,mKcell,D07,D02,2016-10-22T15:42:30+06:00,
1000000000266580,77085222388,mAltel,mMTS,mAltel,D77,D07,2016-10-22T15:42:43+06:00,
1000000000266581,77075550444,mKcell,mMTS,mMTS,,D02,2016-10-22T15:48:57+06:00,
1000000000266582,77783088663,mKarTel,mKcell,mKcell,,D01,2016-10-22T15:43:22+06:00,
1000000000266583,77778555562,mAltel,mKarTel,mKarTel,,D07,2016-10-22T15:44:11+06:00,
1000000000266584,77477996633,mKarTel,mMTS,mMTS,,D01,2016-10-22T15:44:02+06:00,
1000000000266585,77074891761,mKarTel,mMTS,mMTS,,D01,2016-10-22T15:44:25+06:00,
1000000000266586,77015319555,mMTS,mKcell,mKcell,,D77,2016-10-22T15:45:07+06:00,
1000000000266587,77475558619,mMTS,mKcell,mMTS,D02,D77,2016-10-22T15:46:14+06:00,
1000000000266588,77059119681,mMTS,mKarTel,mKarTel,,D77,2016-10-22T15:47:50+06:00,
1000000000266591,77015225911,mAltel,mKcell,mKcell,,D07,2016-10-22T15:50:45+06:00,
1000000000266594,77029996173,mMTS,mKcell,mKcell,,D77,2016-10-22T15:52:41+06:00,
1000000000266595,77777770308,mKarTel,mAltel,mKarTel,D07,D01,2016-10-22T15:53:23+06:00,
1000000000266596,77012941662,mAltel,mKcell,mKcell,,D07,2016-10-22T15:53:45+06:00,
1000000000266598,77775670228,mKcell,mKarTel,mKarTel,,D02,2016-10-22T15:58:54+06:00,
