NPId,Number,RecipientId,DonorId,RangeHolderId,OldRoute,NewRoute,PortDate,RowCount
1000000000225519,77764335566,mKcell,mKarTel,mKarTel,,D02,2016-08-08T15:07:47+06:00,8
1000000000225522,77028120784,mKarTel,mKcell,mKcell,,D01,2016-08-08T15:07:57+06:00,
1000000000225526,77765502255,mMTS,mKarTel,mKarTel,,D77,2016-08-08T15:10:09+06:00,
1000000000225533,77089126696,mMTS,mAltel,mAltel,,D77,2016-08-08T15:12:16+06:00,
1000000000225536,77714444449,mAltel,mKarTel,mKarTel,,D07,2016-08-08T15:26:48+06:00,
1000000000225537,77713333335,mAltel,mKarTel,mKarTel,,D07,2016-08-08T15:27:24+06:00,
1000000000225538,77714444440,mAltel,mKarTel,mKarTel,,D07,2016-08-08T15:28:00+06:00,
1000000000225539,77088077273,mMTS,mKcell,mAltel,D02,D77,2016-08-08T15:26:17+06:00,
