NPId,Number,RecipientId,DonorId,RangeHolderId,OldRoute,NewRoute,PortDate,RowCount
1000000000132699,77775555794,mKcell,mKarTel,mKarTel,,D02,2016-03-25T10:33:07+06:00,17
1000000000132700,77005595444,mMTS,mAltel,mAltel,,D77,2016-03-25T10:32:32+06:00,
1000000000132702,77789322525,mMTS,mKcell,mKcell,,D77,2016-03-25T10:37:10+06:00,
1000000000132704,77017797622,mKarTel,mKcell,mKcell,,D01,2016-03-25T10:39:44+06:00,
1000000000132707,77755357323,mAltel,mKcell,mKcell,,D07,2016-03-25T10:41:38+06:00,
1000000000132712,77477000737,mAltel,mMTS,mMTS,,D07,2016-03-25T10:45:51+06:00,
1000000000132714,77085437094,mMTS,mAltel,mAltel,,D77,2016-03-25T10:47:50+06:00,
1000000000132715,77765010010,mMTS,mKarTel,mKarTel,,D77,2016-03-25T10:49:22+06:00,
1000000000132717,77759004093,mMTS,mKcell,mKcell,,D77,2016-03-25T10:50:50+06:00,
1000000000132720,77088287788,mKarTel,mAltel,mAltel,,D01,2016-03-25T10:53:48+06:00,
1000000000132721,77089056669,mMTS,mAltel,mAltel,,D77,2016-03-25T10:53:12+06:00,
1000000000132722,77009700749,mKarTel,mAltel,mAltel,,D01,2016-03-25T10:53:51+06:00,
1000000000132723,77017884489,mMTS,mKcell,mKcell,,D77,2016-03-25T10:54:08+06:00,
1000000000132724,77017386020,mMTS,mKcell,mKcell,,D77,2016-03-25T10:54:56+06:00,
1000000000132725,77017420203,mAltel,mKcell,mKcell,,D07,2016-03-25T10:54:56+06:00,
1000000000132727,77757988011,mAltel,mKcell,mKcell,,D07,2016-03-25T10:55:31+06:00,
1000000000132732,77082210055,mMTS,mAltel,mAltel,,D77,2016-03-25T10:59:32+06:00,
