NPId,Number,RecipientId,DonorId,RangeHolderId,OldRoute,NewRoute,PortDate,RowCount
1000000000209824,77751141119,mMTS,mKcell,mKcell,,D77,2016-07-12T12:30:38+06:00,19
1000000000209826,77773706775,mKarTel,mMTS,mKarTel,D77,D01,2016-07-12T12:31:46+06:00,
1000000000209827,77757316733,mMTS,mKcell,mKcell,,D77,2016-07-12T12:33:37+06:00,
1000000000209829,77011082882,mMTS,mKcell,mKcell,,D77,2016-07-12T12:35:16+06:00,
1000000000209830,77073357576,mKcell,mMTS,mMTS,,D02,2016-07-12T12:36:41+06:00,
1000000000209831,77012025055,mKarTel,mKcell,mKcell,,D01,2016-07-12T12:36:56+06:00,
1000000000209832,77774404108,mKcell,mKarTel,mKarTel,,D02,2016-07-12T12:38:42+06:00,
1000000000209833,77773766696,mMTS,mKarTel,mKarTel,,D77,2016-07-12T12:38:32+06:00,
1000000000209834,77011371968,mMTS,mKcell,mKcell,,D77,2016-07-12T12:39:25+06:00,
1000000000209836,77018879426,mAltel,mKcell,mKcell,,D07,2016-07-12T12:41:46+06:00,
1000000000209837,77757316926,mMTS,mKcell,mKcell,,D77,2016-07-12T12:42:50+06:00,
1000000000209838,77021152500,mMTS,mKcell,mKcell,,D77,2016-07-12T12:43:09+06:00,
1000000000209839,77054620209,mKarTel,mMTS,mKarTel,D77,D01,2016-07-12T12:43:22+06:00,
1000000000209842,77772684485,mAltel,mKarTel,mKarTel,,D07,2016-07-12T12:48:31+06:00,
1000000000209844,77058888392,mMTS,mKarTel,mKarTel,,D77,2016-07-12T12:50:12+06:00,
1000000000209845,77773951566,mAltel,mKarTel,mKarTel,,D07,2016-07-12T12:52:11+06:00,
1000000000209846,77789305151,mKarTel,mKcell,mKcell,,D01,2016-07-12T12:54:21+06:00,
1000000000209847,77754894889,mKarTel,mKcell,mKcell,,D01,2016-07-12T12:55:21+06:00,
1000000000209848,77024443990,mKcell,mMTS,mKcell,D77,D02,2016-07-12T12:57:19+06:00,
