NPId,Number,RecipientId,DonorId,RangeHolderId,OldRoute,NewRoute,PortDate,RowCount
1000000000239577,77018998199,mKcell,mAltel,mKcell,D07,D02,2016-09-03T13:35:01+06:00,32
1000000000239578,77071115715,mKcell,mMTS,mMTS,,D02,2016-09-03T13:35:43+06:00,
1000000000239580,77003030071,mKcell,mAltel,mAltel,,D02,2016-09-03T13:35:43+06:00,
1000000000239584,77756148555,mKcell,mMTS,mKcell,D77,D02,2016-09-03T13:32:44+06:00,
1000000000239585,77053414433,mMTS,mKarTel,mKarTel,,D77,2016-09-03T13:32:47+06:00,
1000000000239586,77781201816,mAltel,mKcell,mKcell,,D07,2016-09-03T13:32:41+06:00,
1000000000239589,77015002007,mKcell,mAltel,mKcell,D07,D02,2016-09-03T13:34:33+06:00,
1000000000239590,77026020191,mMTS,mKcell,mKcell,,D77,2016-09-03T13:36:02+06:00,
1000000000239591,77752247413,mKarTel,mKcell,mKcell,,D01,2016-09-03T13:37:07+06:00,
1000000000239592,77071746276,mKcell,mMTS,mMTS,,D02,2016-09-03T13:38:27+06:00,
1000000000239593,77058844101,mAltel,mKarTel,mKarTel,,D07,2016-09-03T13:39:35+06:00,
1000000000239594,77079281752,mAltel,mMTS,mMTS,,D07,2016-09-03T13:39:07+06:00,
1000000000239595,77022937070,mMTS,mKcell,mKcell,,D77,2016-09-03T13:39:34+06:00,
1000000000239596,77017873045,mMTS,mKcell,mKcell,,D77,2016-09-03T13:39:46+06:00,
1000000000239597,77017592186,mMTS,mKcell,mKcell,,D77,2016-09-03T13:39:53+06:00,
1000000000239598,77012031782,mMTS,mKcell,mKcell,,D77,2016-09-03T13:40:09+06:00,
1000000000239599,77053434040,mKarTel,mAltel,mKarTel,D07,D01,2016-09-03T13:40:36+06:00,
1000000000239600,77023602408,mKarTel,mKcell,mKcell,,D01,2016-09-03T13:41:19+06:00,
1000000000239601,77017408600,mMTS,mKcell,mKcell,,D77,2016-09-03T13:44:47+06:00,
1000000000239602,77076045181,mKcell,mMTS,mMTS,,D02,2016-09-03T13:43:57+06:00,
1000000000239607,77013328794,mAltel,mMTS,mKcell,D77,D07,2016-09-03T13:46:40+06:00,
1000000000239609,77015635100,mMTS,mKcell,mKcell,,D77,2016-09-03T13:47:27+06:00,
1000000000239610,77055549369,mKcell,mKarTel,mKarTel,,D02,2016-09-03T13:48:22+06:00,
1000000000239613,77777907158,mMTS,mKarTel,mKarTel,,D77,2016-09-03T13:50:09+06:00,
1000000000239614,77013249353,mKarTel,mKcell,mKcell,,D01,2016-09-03T13:50:24+06:00,
1000000000239615,77753423349,mAltel,mKcell,mKcell,,D07,2016-09-03T13:52:40+06:00,
1000000000239617,77751071845,mMTS,mKcell,mKcell,,D77,2016-09-03T13:55:50+06:00,
1000000000239618,77054463993,mKarTel,mMTS,mKarTel,D77,D01,2016-09-03T13:56:07+06:00,
1000000000239620,77088888660,mKcell,mAltel,mAltel,,D02,2016-09-03T13:57:03+06:00,
1000000000239621,77051989411,mMTS,mKarTel,mKarTel,,D77,2016-09-03T13:57:52+06:00,
1000000000239623,77057995625,mKcell,mKarTel,mKarTel,,D02,2016-09-03T13:58:16+06:00,
1000000000239624,77781101979,mMTS,mKcell,mKcell,,D77,2016-09-03T13:57:55+06:00,
