NPId,Number,RecipientId,DonorId,RangeHolderId,OldRoute,NewRoute,PortDate,RowCount
1000000000328600,77015126411,mKarTel,mKcell,mKcell,,D01,2017-02-14T11:01:38+06:00,21
1000000000328601,77054030909,mKcell,mKarTel,mKarTel,,D02,2017-02-14T11:02:35+06:00,
1000000000328602,77714814728,mAltel,mKarTel,mKarTel,,D07,2017-02-14T11:03:27+06:00,
1000000000328603,77779957717,mKarTel,mKcell,mKarTel,D02,D01,2017-02-14T11:04:12+06:00,
1000000000328604,77071510261,mKcell,mMTS,mMTS,,D02,2017-02-14T11:05:22+06:00,
1000000000328605,77012060480,mKcell,mKarTel,mKcell,D01,D02,2017-02-14T11:07:24+06:00,
1000000000328606,77000009940,mKcell,mAltel,mAltel,,D02,2017-02-14T11:07:48+06:00,
1000000000328607,77029968796,mAltel,mKcell,mKcell,,D07,2017-02-14T11:09:56+06:00,
1000000000328609,77770564040,mMTS,mKarTel,mKarTel,,D77,2017-02-14T11:17:00+06:00,
1000000000328610,77787352494,mKarTel,mKcell,mKcell,,D01,2017-02-14T11:16:58+06:00,
1000000000328611,77021601595,mKarTel,mKcell,mKcell,,D01,2017-02-14T11:18:27+06:00,
1000000000328612,77783090914,mKarTel,mKcell,mKcell,,D01,2017-02-14T11:18:27+06:00,
1000000000328613,77763000090,mKarTel,mKcell,mKarTel,D02,D01,2017-02-14T11:20:44+06:00,
1000000000328614,77001996019,mKcell,mAltel,mAltel,,D02,2017-02-14T11:21:46+06:00,
1000000000328615,77752095507,mMTS,mKcell,mKcell,,D77,2017-02-14T11:22:50+06:00,
1000000000328617,77051960035,mKarTel,mMTS,mKarTel,D77,D01,2017-02-14T11:24:22+06:00,
1000000000328618,77029866717,mAltel,mKcell,mKcell,,D07,2017-02-14T11:24:43+06:00,
1000000000328619,77755123073,mMTS,mKcell,mKcell,,D77,2017-02-14T11:27:48+06:00,
1000000000328620,77759805000,mMTS,mKcell,mKcell,,D77,2017-02-14T11:27:54+06:00,
1000000000328621,77774444111,mKarTel,mMTS,mKarTel,D77,D01,2017-02-14T11:28:03+06:00,
1000000000328622,77075274499,mAltel,mMTS,mMTS,,D07,2017-02-14T11:28:47+06:00,
