NPId,Number,RecipientId,DonorId,RangeHolderId,OldRoute,NewRoute,PortDate,RowCount
1000000000416081,77076056684,mKcell,mMTS,mMTS,,D02,2017-07-04T13:30:51+06:00,16
1000000000416082,77026247760,mMTS,mKcell,mKcell,,D77,2017-07-04T13:32:07+06:00,
1000000000416083,77015571454,mMTS,mKcell,mKcell,,D77,2017-07-04T13:32:26+06:00,
1000000000416085,77013352346,mAltel,mKcell,mKcell,,D07,2017-07-04T13:35:45+06:00,
1000000000416086,77007300577,mKcell,mAltel,mAltel,,D02,2017-07-04T13:36:28+06:00,
1000000000416089,77077441690,mAltel,mMTS,mMTS,,D07,2017-07-04T13:36:31+06:00,
1000000000416091,77023335145,mKcell,mAltel,mKcell,D07,D02,2017-07-04T13:38:49+06:00,
1000000000416092,77016141717,mKcell,mMTS,mKcell,D77,D02,2017-07-04T13:39:26+06:00,
1000000000416094,77753286368,mMTS,mKcell,mKcell,,D77,2017-07-04T13:40:15+06:00,
1000000000416096,77753245074,mMTS,mKcell,mKcell,,D77,2017-07-04T13:44:13+06:00,
1000000000416100,77017581555,mMTS,mKcell,mKcell,,D77,2017-07-04T13:45:42+06:00,
1000000000416101,77027183252,mKcell,mAltel,mKcell,D07,D02,2017-07-04T13:46:07+06:00,
1000000000416106,77027261045,mMTS,mKcell,mKcell,,D77,2017-07-04T13:53:52+06:00,
1000000000416108,77019501307,mKcell,mMTS,mKcell,D77,D02,2017-07-04T13:54:45+06:00,
1000000000416111,77750677772,mMTS,mKcell,mKcell,,D77,2017-07-04T13:56:59+06:00,
1000000000416113,77027094448,mMTS,mKcell,mKcell,,D77,2017-07-04T13:58:06+06:00,
