NPId,Number,RecipientId,DonorId,RangeHolderId,OldRoute,NewRoute,PortDate,RowCount
1000000000368236,77471330003,mKarTel,mMTS,mMTS,,D01,2017-04-19T12:31:06+06:00,25
1000000000368237,77785959993,mMTS,mKcell,mKcell,,D77,2017-04-19T12:31:50+06:00,
1000000000368238,77017663119,mKarTel,mKcell,mKcell,,D01,2017-04-19T12:32:13+06:00,
1000000000368239,77011111751,mKcell,mKarTel,mKcell,D01,D02,2017-04-19T12:33:05+06:00,
1000000000368240,77015999719,mMTS,mKcell,mKcell,,D77,2017-04-19T12:32:51+06:00,
1000000000368241,77082000505,mKcell,mAltel,mAltel,,D02,2017-04-19T12:33:57+06:00,
1000000000368243,77015180772,mMTS,mKcell,mKcell,,D77,2017-04-19T12:34:02+06:00,
1000000000368244,77787987429,mMTS,mKcell,mKcell,,D77,2017-04-19T12:36:18+06:00,
1000000000368245,77015324658,mMTS,mKcell,mKcell,,D77,2017-04-19T12:37:48+06:00,
1000000000368246,77773992871,mMTS,mKarTel,mKarTel,,D77,2017-04-19T12:40:19+06:00,
1000000000368247,77022804362,mMTS,mKcell,mKcell,,D77,2017-04-19T12:40:06+06:00,
1000000000368248,77081117097,mKcell,mAltel,mAltel,,D02,2017-04-19T12:40:23+06:00,
1000000000368249,77087071987,mKcell,mAltel,mAltel,,D02,2017-04-19T12:41:05+06:00,
1000000000368250,77074445479,mKcell,mMTS,mMTS,,D02,2017-04-19T12:43:18+06:00,
1000000000368252,77087071989,mKcell,mAltel,mAltel,,D02,2017-04-19T12:46:59+06:00,
1000000000368253,77001231981,mKcell,mAltel,mAltel,,D02,2017-04-19T12:50:18+06:00,
1000000000368254,77755999744,mAltel,mKcell,mKcell,,D07,2017-04-19T12:50:07+06:00,
1000000000368255,77775280875,mMTS,mKarTel,mKarTel,,D77,2017-04-19T12:52:00+06:00,
1000000000368256,77001971008,mMTS,mAltel,mAltel,,D77,2017-04-19T12:52:16+06:00,
1000000000368257,77474704884,mAltel,mMTS,mMTS,,D07,2017-04-19T12:55:18+06:00,
1000000000368258,77785320370,mMTS,mKcell,mKcell,,D77,2017-04-19T12:55:50+06:00,
1000000000368259,77755826867,mKarTel,mKcell,mKcell,,D01,2017-04-19T12:56:12+06:00,
1000000000368260,77012144621,mKarTel,mKcell,mKcell,,D01,2017-04-19T12:56:33+06:00,
1000000000368262,77770466794,mMTS,mKarTel,mKarTel,,D77,2017-04-19T12:58:26+06:00,
1000000000368265,77075505149,mKarTel,mMTS,mMTS,,D01,2017-04-19T12:59:46+06:00,
