NPId,Number,RecipientId,DonorId,RangeHolderId,OldRoute,NewRoute,PortDate,RowCount
1000000000203644,77786914217,mMTS,mKcell,mKcell,,D77,2016-06-30T22:37:20+06:00,3
1000000000203646,77779530824,mMTS,mKarTel,mKarTel,,D77,2016-06-30T22:52:33+06:00,
1000000000203647,77786914068,mMTS,mKcell,mKcell,,D77,2016-06-30T22:58:18+06:00,
