NPId,Number,RecipientId,DonorId,RangeHolderId,OldRoute,NewRoute,PortDate,RowCount
1000000000156463,77714003222,mKcell,mKarTel,mKarTel,,D02,2016-04-20T14:31:03+06:00,33
1000000000156467,77475999996,mKcell,mMTS,mMTS,,D02,2016-04-20T14:32:43+06:00,
1000000000156491,77472874588,mKarTel,mMTS,mMTS,,D01,2016-04-20T14:30:28+06:00,
1000000000156492,77772700067,mKcell,mKarTel,mKarTel,,D02,2016-04-20T14:32:44+06:00,
1000000000156494,77757741747,mMTS,mKcell,mKcell,,D77,2016-04-20T14:32:56+06:00,
1000000000156495,77029347691,mMTS,mKcell,mKcell,,D77,2016-04-20T14:34:54+06:00,
1000000000156496,77770127711,mKcell,mKarTel,mKarTel,,D02,2016-04-20T14:35:47+06:00,
1000000000156497,77073303552,mAltel,mMTS,mMTS,,D07,2016-04-20T14:34:48+06:00,
1000000000156498,77027339998,mMTS,mKcell,mKcell,,D77,2016-04-20T14:36:25+06:00,
1000000000156499,77017587316,mKcell,mKarTel,mKcell,D01,D02,2016-04-20T14:57:41+06:00,
1000000000156499,77017596484,mKcell,mKarTel,mKcell,D01,D02,2016-04-20T14:57:41+06:00,
1000000000156499,77017596494,mKcell,mKarTel,mKcell,D01,D02,2016-04-20T14:57:41+06:00,
1000000000156500,77028362782,mMTS,mKcell,mKcell,,D77,2016-04-20T14:37:13+06:00,
1000000000156501,77086527250,mMTS,mAltel,mAltel,,D77,2016-04-20T14:36:58+06:00,
1000000000156502,77059868010,mMTS,mKarTel,mKarTel,,D77,2016-04-20T14:37:56+06:00,
1000000000156504,77082733322,mMTS,mAltel,mAltel,,D77,2016-04-20T14:40:16+06:00,
1000000000156507,77081777582,mMTS,mAltel,mAltel,,D77,2016-04-20T14:41:34+06:00,
1000000000156508,77011408620,mKarTel,mKcell,mKcell,,D01,2016-04-20T14:43:27+06:00,
1000000000156509,77773892777,mKcell,mKarTel,mKarTel,,D02,2016-04-20T14:44:38+06:00,
1000000000156511,77029607778,mKcell,mKarTel,mKcell,D01,D02,2016-04-20T14:45:13+06:00,
1000000000156512,77003721049,mKcell,mAltel,mAltel,,D02,2016-04-20T14:44:56+06:00,
1000000000156513,77007770888,mKcell,mAltel,mAltel,,D02,2016-04-20T14:44:57+06:00,
1000000000156515,77082931020,mMTS,mAltel,mAltel,,D77,2016-04-20T14:45:22+06:00,
1000000000156516,77779539947,mKcell,mKarTel,mKarTel,,D02,2016-04-20T14:46:41+06:00,
1000000000156517,77023811497,mMTS,mAltel,mKcell,D07,D77,2016-04-20T14:47:01+06:00,
1000000000156518,77776237465,mMTS,mKarTel,mKarTel,,D77,2016-04-20T14:47:21+06:00,
1000000000156519,77028441188,mKcell,mAltel,mKcell,D07,D02,2016-04-20T14:48:14+06:00,
1000000000156520,77025797969,mMTS,mKcell,mKcell,,D77,2016-04-20T14:48:38+06:00,
1000000000156521,77057071111,mKcell,mKarTel,mKarTel,,D02,2016-04-20T14:49:47+06:00,
1000000000156523,77083016066,mMTS,mAltel,mAltel,,D77,2016-04-20T14:50:44+06:00,
1000000000156524,77014176701,mKarTel,mKcell,mKcell,,D01,2016-04-20T14:51:35+06:00,
1000000000156527,77059812961,mMTS,mKarTel,mKarTel,,D77,2016-04-20T14:57:21+06:00,
1000000000156528,77081991813,mMTS,mAltel,mAltel,,D77,2016-04-20T14:59:28+06:00,
