NPId,Number,RecipientId,DonorId,RangeHolderId,OldRoute,NewRoute,PortDate,RowCount
1000000000309116,77785577799,mKarTel,mKcell,mKcell,,D01,2017-01-11T16:33:53+06:00,32
1000000000309118,77019606165,mMTS,mKcell,mKcell,,D77,2017-01-11T16:33:57+06:00,
1000000000309119,77019995682,mMTS,mKcell,mKcell,,D77,2017-01-11T16:34:11+06:00,
1000000000309121,77754208080,mAltel,mKcell,mKcell,,D07,2017-01-11T16:34:56+06:00,
1000000000309122,77779334707,mAltel,mMTS,mKarTel,D77,D07,2017-01-11T16:35:14+06:00,
1000000000309124,77019408020,mMTS,mKcell,mKcell,,D77,2017-01-11T16:36:08+06:00,
1000000000309125,77787328283,mKcell,mKarTel,mKcell,D01,D02,2017-01-11T16:36:48+06:00,
1000000000309126,77071710215,mKcell,mMTS,mMTS,,D02,2017-01-11T16:36:31+06:00,
1000000000309127,77013004729,mAltel,mKcell,mKcell,,D07,2017-01-11T16:36:56+06:00,
1000000000309128,77002327777,mKcell,mAltel,mAltel,,D02,2017-01-11T16:38:08+06:00,
1000000000309129,77052681843,mKcell,mKarTel,mKarTel,,D02,2017-01-11T16:38:29+06:00,
1000000000309130,77019727736,mKcell,mMTS,mKcell,D77,D02,2017-01-11T16:38:33+06:00,
1000000000309131,77774153553,mAltel,mKarTel,mKarTel,,D07,2017-01-11T16:39:27+06:00,
1000000000309132,77021979741,mMTS,mKcell,mKcell,,D77,2017-01-11T16:40:21+06:00,
1000000000309133,77074770237,mAltel,mMTS,mMTS,,D07,2017-01-11T16:41:28+06:00,
1000000000309134,77018872897,mMTS,mKcell,mKcell,,D77,2017-01-11T16:42:03+06:00,
1000000000309136,77471572324,mAltel,mMTS,mMTS,,D07,2017-01-11T16:42:25+06:00,
1000000000309139,77762058089,mKcell,mKarTel,mKarTel,,D02,2017-01-11T16:43:44+06:00,
1000000000309140,77789109940,mMTS,mKcell,mKcell,,D77,2017-01-11T16:43:27+06:00,
1000000000309141,77764009933,mKcell,mKarTel,mKarTel,,D02,2017-01-11T16:44:03+06:00,
1000000000309143,77012818818,mKarTel,mKcell,mKcell,D02,D01,2017-01-11T16:45:47+06:00,
1000000000309144,77085050909,mMTS,mAltel,mAltel,,D77,2017-01-11T16:45:36+06:00,
1000000000309145,77754387005,mAltel,mKcell,mKcell,,D07,2017-01-11T16:45:48+06:00,
1000000000309147,77779739623,mMTS,mKarTel,mKarTel,,D77,2017-01-11T16:48:06+06:00,
1000000000309149,77012250911,mMTS,mKcell,mKcell,,D77,2017-01-11T16:49:51+06:00,
1000000000309150,77760070893,mKcell,mKarTel,mKarTel,,D02,2017-01-11T16:50:12+06:00,
1000000000309151,77751590007,mKarTel,mKcell,mKcell,,D01,2017-01-11T16:52:21+06:00,
1000000000309152,77760060618,mKcell,mKarTel,mKarTel,,D02,2017-01-11T16:53:43+06:00,
1000000000309153,77024272770,mKcell,mMTS,mKcell,D77,D02,2017-01-11T16:55:45+06:00,
1000000000309155,77758703216,mMTS,mKcell,mKcell,,D77,2017-01-11T16:56:05+06:00,
1000000000309157,77760050694,mKcell,mKarTel,mKarTel,,D02,2017-01-11T16:59:44+06:00,
1000000000309158,77081111362,mKcell,mAltel,mAltel,,D02,2017-01-11T16:59:51+06:00,
