NPId,Number,RecipientId,DonorId,RangeHolderId,OldRoute,NewRoute,PortDate,RowCount
1000000000004359,77017810213,mMTS,mKcell,mKcell,,D77,2016-01-08T15:32:00+06:00,36
1000000000004543,77017442293,mAltel,mKcell,mKcell,,D07,2016-01-08T15:32:20+06:00,
1000000000004857,77012457434,mAltel,mKcell,mKcell,,D07,2016-01-08T15:31:18+06:00,
1000000000004859,77026081818,mAltel,mKcell,mKcell,,D07,2016-01-08T15:31:23+06:00,
1000000000004860,77789316776,mMTS,mKcell,mKcell,,D77,2016-01-08T15:32:52+06:00,
1000000000004861,77071706060,mKarTel,mMTS,mMTS,,D01,2016-01-08T15:33:08+06:00,
1000000000004862,77754477242,mAltel,mKcell,mKcell,,D07,2016-01-08T15:34:19+06:00,
1000000000004863,77022845615,mAltel,mKcell,mKcell,,D07,2016-01-08T15:34:25+06:00,
1000000000004864,77015393666,mKarTel,mKcell,mKcell,,D01,2016-01-08T15:35:16+06:00,
1000000000004865,77011285374,mKarTel,mKcell,mKcell,,D01,2016-01-08T15:35:57+06:00,
1000000000004868,77077005555,mKarTel,mMTS,mMTS,,D01,2016-01-08T15:37:39+06:00,
1000000000004869,77775355500,mKcell,mKarTel,mKarTel,,D02,2016-01-08T15:38:15+06:00,
1000000000004870,77713127242,mMTS,mKarTel,mKarTel,,D77,2016-01-08T15:38:25+06:00,
1000000000004871,77776888880,mKcell,mKarTel,mKarTel,,D02,2016-01-08T15:38:48+06:00,
1000000000004875,77011745820,mMTS,mKcell,mKcell,,D77,2016-01-08T15:40:35+06:00,
1000000000004876,77071303080,mKarTel,mMTS,mMTS,,D01,2016-01-08T15:41:07+06:00,
1000000000004878,77022264465,mKarTel,mKcell,mKcell,,D01,2016-01-08T15:41:58+06:00,
1000000000004879,77073763899,mKcell,mMTS,mMTS,,D02,2016-01-08T15:41:56+06:00,
1000000000004880,77759374344,mAltel,mKcell,mKcell,,D07,2016-01-08T15:42:12+06:00,
1000000000004881,77753506415,mAltel,mKcell,mKcell,,D07,2016-01-08T15:42:48+06:00,
1000000000004882,77762466664,mMTS,mKarTel,mKarTel,,D77,2016-01-08T15:43:17+06:00,
1000000000004883,77018422334,mAltel,mKcell,mKcell,,D07,2016-01-08T15:44:07+06:00,
1000000000004884,77078226001,mKarTel,mMTS,mMTS,,D01,2016-01-08T15:45:13+06:00,
1000000000004885,77015308115,mKarTel,mKcell,mKcell,,D01,2016-01-08T15:46:09+06:00,
1000000000004888,77085251094,mMTS,mAltel,mAltel,,D77,2016-01-08T15:48:37+06:00,
1000000000004891,77013553189,mAltel,mKcell,mKcell,,D07,2016-01-08T15:50:35+06:00,
1000000000004893,77017182223,mKarTel,mKcell,mKcell,,D01,2016-01-08T15:51:47+06:00,
1000000000004900,77019080011,mMTS,mKcell,mKcell,,D77,2016-01-08T15:55:47+06:00,
1000000000004902,77085251095,mMTS,mAltel,mAltel,,D77,2016-01-08T15:55:51+06:00,
1000000000004903,77473998404,mAltel,mMTS,mMTS,,D07,2016-01-08T15:56:44+06:00,
1000000000004904,77059134833,mKcell,mKarTel,mKarTel,,D02,2016-01-08T15:57:27+06:00,
1000000000004905,77770222600,mAltel,mKarTel,mKarTel,,D07,2016-01-08T15:57:30+06:00,
1000000000004907,77075666897,mAltel,mMTS,mMTS,,D07,2016-01-08T15:57:30+06:00,
1000000000004908,77011073344,mKarTel,mKcell,mKcell,,D01,2016-01-08T15:58:03+06:00,
1000000000004909,77059904181,mAltel,mKarTel,mKarTel,,D07,2016-01-08T15:58:38+06:00,
1000000000004911,77079792888,mKcell,mMTS,mMTS,,D02,2016-01-08T15:59:54+06:00,
