NPId,Number,RecipientId,DonorId,RangeHolderId,OldRoute,NewRoute,PortDate,RowCount
1000000000169989,77023162959,mKarTel,mAltel,mKcell,D07,D01,2016-05-07T18:35:14+06:00,8
1000000000169991,77713995511,mKcell,mKarTel,mKarTel,,D02,2016-05-07T18:42:25+06:00,
1000000000169992,77058733766,mKcell,mAltel,mKarTel,D07,D02,2016-05-07T18:45:23+06:00,
1000000000169993,77021379592,mKcell,mAltel,mKcell,D07,D02,2016-05-07T18:45:23+06:00,
1000000000169994,77059666659,mKcell,mKarTel,mKarTel,,D02,2016-05-07T18:46:47+06:00,
1000000000169995,77015580854,mMTS,mKcell,mKcell,,D77,2016-05-07T18:47:38+06:00,
1000000000169998,77002331964,mMTS,mAltel,mAltel,,D77,2016-05-07T18:57:03+06:00,
1000000000169999,77785222424,mMTS,mKcell,mKcell,,D77,2016-05-07T18:57:39+06:00,
