NPId,Number,RecipientId,DonorId,RangeHolderId,OldRoute,NewRoute,PortDate,RowCount
1000000000378058,77029191958,mMTS,mKcell,mKcell,,D77,2017-05-04T15:31:52+06:00,21
1000000000378059,77025559131,mMTS,mKcell,mKcell,,D77,2017-05-04T15:31:55+06:00,
1000000000378060,77023266937,mMTS,mKcell,mKcell,,D77,2017-05-04T15:37:54+06:00,
1000000000378061,77007121242,mMTS,mAltel,mAltel,,D77,2017-05-04T15:39:25+06:00,
1000000000378063,77754120099,mMTS,mKcell,mKcell,,D77,2017-05-04T15:41:31+06:00,
1000000000378065,77769999168,mAltel,mKarTel,mKarTel,,D07,2017-05-04T15:43:01+06:00,
1000000000378068,77059600044,mMTS,mKarTel,mKarTel,,D77,2017-05-04T15:43:38+06:00,
1000000000378070,77772515627,mMTS,mKarTel,mKarTel,,D77,2017-05-04T15:45:14+06:00,
1000000000378073,77013404346,mKcell,mMTS,mKcell,D77,D02,2017-05-04T15:47:33+06:00,
1000000000378074,77078932967,mAltel,mMTS,mMTS,,D07,2017-05-04T15:48:59+06:00,
1000000000378076,77006004044,mMTS,mAltel,mAltel,,D77,2017-05-04T15:50:02+06:00,
1000000000378077,77078932992,mAltel,mMTS,mMTS,,D07,2017-05-04T15:50:03+06:00,
1000000000378078,77076854583,mKarTel,mMTS,mMTS,,D01,2017-05-04T15:50:31+06:00,
1000000000378079,77754141441,mKarTel,mKcell,mKcell,,D01,2017-05-04T15:51:07+06:00,
1000000000378080,77472120440,mKcell,mMTS,mMTS,,D02,2017-05-04T15:54:46+06:00,
1000000000378081,77017882365,mKarTel,mKcell,mKcell,,D01,2017-05-04T15:55:57+06:00,
1000000000378082,77775058323,mMTS,mKarTel,mKarTel,,D77,2017-05-04T15:56:24+06:00,
1000000000378083,77004777707,mMTS,mAltel,mAltel,,D77,2017-05-04T15:56:40+06:00,
1000000000378084,77777769715,mKarTel,mKcell,mKarTel,D02,D01,2017-05-04T15:58:35+06:00,
1000000000378086,77718886333,mKcell,mKarTel,mKarTel,,D02,2017-05-04T15:59:27+06:00,
1000000000378087,77772567820,mMTS,mKarTel,mKarTel,,D77,2017-05-04T15:59:16+06:00,
