NPId,Number,RecipientId,DonorId,RangeHolderId,OldRoute,NewRoute,PortDate,RowCount
1000000000138857,77013144558,mMTS,mKcell,mKcell,,D77,2016-04-01T09:00:58+06:00,16
1000000000138858,77053358662,mKarTel,mKcell,mKarTel,D02,D01,2016-04-01T09:02:19+06:00,
1000000000138859,77775179514,mKarTel,mKcell,mKarTel,D02,D01,2016-04-01T09:02:20+06:00,
1000000000138860,77776585764,mKarTel,mKcell,mKarTel,D02,D01,2016-04-01T09:02:20+06:00,
1000000000138861,77772131367,mKarTel,mKcell,mKarTel,D02,D01,2016-04-01T09:02:19+06:00,
1000000000138862,77073536482,mKarTel,mMTS,mMTS,,D01,2016-04-01T09:02:16+06:00,
1000000000138864,77712643947,mKarTel,mAltel,mKarTel,D07,D01,2016-04-01T09:02:18+06:00,
1000000000138865,77015187714,mKarTel,mKcell,mKcell,,D01,2016-04-01T09:02:19+06:00,
1000000000138867,77714143434,mKarTel,mAltel,mKarTel,D07,D01,2016-04-01T09:02:16+06:00,
1000000000138868,77027807700,mKarTel,mKcell,mKcell,,D01,2016-04-01T09:02:19+06:00,
1000000000138870,77780000030,mKarTel,mKcell,mKcell,,D01,2016-04-01T09:02:48+06:00,
1000000000138872,77072223718,mKarTel,mMTS,mMTS,,D01,2016-04-01T09:02:18+06:00,
1000000000138873,77773632820,mMTS,mKarTel,mKarTel,,D77,2016-04-01T09:03:17+06:00,
1000000000138874,77776779993,mAltel,mKarTel,mKarTel,,D07,2016-04-01T09:03:17+06:00,
1000000000138876,77054910700,mMTS,mKarTel,mKarTel,,D77,2016-04-01T09:21:21+06:00,
1000000000138877,77057771537,mMTS,mKarTel,mKarTel,,D77,2016-04-01T09:21:50+06:00,
