NPId,Number,RecipientId,DonorId,RangeHolderId,OldRoute,NewRoute,PortDate,RowCount
1000000000228732,77778770001,mMTS,mKarTel,mKarTel,,D77,2016-08-14T10:33:17+06:00,4
1000000000228733,77081614332,mKarTel,mAltel,mAltel,,D01,2016-08-14T10:33:58+06:00,
1000000000228735,77472636999,mMTS,mAltel,mMTS,D07,D77,2016-08-14T10:46:25+06:00,
1000000000228736,77055488303,mMTS,mKarTel,mKarTel,,D77,2016-08-14T10:49:03+06:00,
