NPId,Number,RecipientId,DonorId,RangeHolderId,OldRoute,NewRoute,PortDate,RowCount
1000000000422859,77001487073,mMTS,mAltel,mAltel,,D77,2017-07-17T09:16:37+06:00,3
1000000000422862,77017296868,mKarTel,mKcell,mKcell,,D01,2017-07-17T09:24:51+06:00,
1000000000422863,77073674191,mAltel,mMTS,mMTS,,D07,2017-07-17T09:25:53+06:00,
