NPId,Number,RecipientId,DonorId,RangeHolderId,OldRoute,NewRoute,PortDate,RowCount
1000000000299893,77025358128,mAltel,mKcell,mKcell,,D07,2016-12-24T12:30:10+06:00,26
1000000000299894,77000909911,mKcell,mAltel,mAltel,,D02,2016-12-24T12:32:19+06:00,
1000000000299895,77029029285,mKcell,mKarTel,mKcell,D01,D02,2016-12-24T12:33:05+06:00,
1000000000299896,77759922336,mAltel,mKcell,mKcell,,D07,2016-12-24T12:32:42+06:00,
1000000000299897,77015180211,mKarTel,mKcell,mKcell,,D01,2016-12-24T12:32:58+06:00,
1000000000299898,77077030903,mKarTel,mMTS,mMTS,,D01,2016-12-24T12:33:13+06:00,
1000000000299899,77000905588,mKcell,mAltel,mAltel,,D02,2016-12-24T12:34:56+06:00,
1000000000299900,77019335778,mKarTel,mKcell,mKcell,,D01,2016-12-24T12:34:39+06:00,
1000000000299901,77015300410,mAltel,mKcell,mKcell,,D07,2016-12-24T12:34:33+06:00,
1000000000299902,77021170909,mKcell,mMTS,mKcell,D77,D02,2016-12-24T12:35:15+06:00,
1000000000299903,77000909988,mKcell,mAltel,mAltel,,D02,2016-12-24T12:36:50+06:00,
1000000000299906,77023049287,mAltel,mKcell,mKcell,,D07,2016-12-24T12:37:50+06:00,
1000000000299907,77012201256,mKarTel,mKcell,mKcell,,D01,2016-12-24T12:39:45+06:00,
1000000000299908,77786110147,mAltel,mKcell,mKcell,,D07,2016-12-24T12:39:49+06:00,
1000000000299910,77051974695,mKarTel,mMTS,mKarTel,D77,D01,2016-12-24T12:43:00+06:00,
1000000000299911,77081011604,mKcell,mAltel,mAltel,,D02,2016-12-24T12:45:34+06:00,
1000000000299912,77011006451,mMTS,mKcell,mKcell,,D77,2016-12-24T12:46:06+06:00,
1000000000299913,77011006452,mMTS,mKcell,mKcell,,D77,2016-12-24T12:47:09+06:00,
1000000000299914,77777916890,mKarTel,mMTS,mKarTel,D77,D01,2016-12-24T12:50:36+06:00,
1000000000299915,77052015279,mMTS,mKarTel,mKarTel,,D77,2016-12-24T12:52:10+06:00,
1000000000299916,77089109999,mMTS,mAltel,mAltel,,D77,2016-12-24T12:52:16+06:00,
1000000000299918,77775761073,mMTS,mKarTel,mKarTel,D01,D77,2016-12-24T12:53:07+06:00,
1000000000299919,77756661007,mKcell,mMTS,mKcell,D77,D02,2016-12-24T12:53:41+06:00,
1000000000299920,77475589944,mKarTel,mMTS,mMTS,,D01,2016-12-24T12:53:51+06:00,
1000000000299922,77013455413,mMTS,mKcell,mKcell,,D77,2016-12-24T12:54:25+06:00,
1000000000299923,77019627946,mKarTel,mKcell,mKcell,,D01,2016-12-24T12:59:15+06:00,
