NPId,Number,RecipientId,DonorId,RangeHolderId,OldRoute,NewRoute,PortDate,RowCount
1000000000160690,77029280098,mMTS,mKcell,mKcell,,D77,2016-04-26T13:30:15+06:00,35
1000000000160691,77051281717,mKarTel,mAltel,mKarTel,D07,D01,2016-04-26T13:30:19+06:00,
1000000000160692,77475027444,mKcell,mMTS,mMTS,,D02,2016-04-26T13:31:05+06:00,
1000000000160693,77770344950,mMTS,mKarTel,mKarTel,,D77,2016-04-26T13:31:03+06:00,
1000000000160694,77023628857,mMTS,mKcell,mKcell,,D77,2016-04-26T13:33:40+06:00,
1000000000160696,77770957878,mKcell,mKarTel,mKarTel,,D02,2016-04-26T13:34:51+06:00,
1000000000160697,77023679370,mKarTel,mKcell,mKcell,,D01,2016-04-26T13:34:24+06:00,
1000000000160699,77017369640,mAltel,mKcell,mKcell,,D07,2016-04-26T13:35:46+06:00,
1000000000160700,77759962172,mAltel,mKcell,mKcell,,D07,2016-04-26T13:37:10+06:00,
1000000000160704,77472277716,mKcell,mMTS,mMTS,,D02,2016-04-26T13:39:12+06:00,
1000000000160705,77086197777,mKcell,mAltel,mAltel,,D02,2016-04-26T13:39:26+06:00,
1000000000160706,77023679247,mKarTel,mKcell,mKcell,,D01,2016-04-26T13:41:08+06:00,
1000000000160707,77756652675,mKarTel,mMTS,mKcell,D77,D01,2016-04-26T13:40:42+06:00,
1000000000160708,77022153140,mKcell,mAltel,mKcell,D07,D02,2016-04-26T13:41:19+06:00,
1000000000160709,77021889277,mKcell,mAltel,mKcell,D07,D02,2016-04-26T13:42:20+06:00,
1000000000160710,77011817732,mMTS,mKcell,mKcell,,D77,2016-04-26T13:41:56+06:00,
1000000000160711,77027790090,mMTS,mKcell,mKcell,,D77,2016-04-26T13:42:33+06:00,
1000000000160712,77081101811,mMTS,mAltel,mAltel,,D77,2016-04-26T13:42:21+06:00,
1000000000160713,77086181953,mMTS,mAltel,mAltel,,D77,2016-04-26T13:42:31+06:00,
1000000000160715,77013345675,mMTS,mKcell,mKcell,,D77,2016-04-26T13:45:16+06:00,
1000000000160716,77072511848,mMTS,mAltel,mMTS,D07,D77,2016-04-26T13:45:50+06:00,
1000000000160717,77710503325,mKcell,mKarTel,mKarTel,,D02,2016-04-26T13:46:41+06:00,
1000000000160718,77023679240,mKarTel,mKcell,mKcell,,D01,2016-04-26T13:46:28+06:00,
1000000000160719,77074440504,mMTS,mAltel,mMTS,D07,D77,2016-04-26T13:46:04+06:00,
1000000000160720,77772276062,mKcell,mKarTel,mKarTel,,D02,2016-04-26T13:47:37+06:00,
1000000000160722,77054499579,mMTS,mKarTel,mKarTel,,D77,2016-04-26T13:49:24+06:00,
1000000000160723,77026003402,mAltel,mKcell,mKcell,,D07,2016-04-26T13:49:40+06:00,
1000000000160725,77785972012,mKcell,mAltel,mKcell,D07,D02,2016-04-26T13:51:11+06:00,
1000000000160726,77023679627,mKarTel,mKcell,mKcell,,D01,2016-04-26T13:51:20+06:00,
1000000000160727,77083256221,mMTS,mAltel,mAltel,,D77,2016-04-26T13:51:31+06:00,
1000000000160729,77087777413,mKcell,mAltel,mAltel,,D02,2016-04-26T13:53:28+06:00,
1000000000160730,77058880070,mKcell,mKarTel,mKarTel,,D02,2016-04-26T13:57:56+06:00,
1000000000160732,77071020202,mKarTel,mMTS,mMTS,,D01,2016-04-26T13:57:58+06:00,
1000000000160733,77023679872,mKarTel,mKcell,mKcell,,D01,2016-04-26T13:58:52+06:00,
1000000000160734,77082256221,mMTS,mAltel,mAltel,,D77,2016-04-26T13:58:36+06:00,
