NPId,Number,RecipientId,DonorId,RangeHolderId,OldRoute,NewRoute,PortDate,RowCount
1000000000265782,77717800500,mMTS,mKarTel,mKarTel,,D77,2016-10-20T18:04:43+06:00,11
1000000000265794,77762807555,mMTS,mKarTel,mKarTel,,D77,2016-10-20T18:02:20+06:00,
1000000000265795,77073091682,mKarTel,mMTS,mMTS,,D01,2016-10-20T18:03:03+06:00,
1000000000265796,77013633336,mKcell,mKarTel,mKcell,D01,D02,2016-10-20T18:06:58+06:00,
1000000000265797,77013725999,mMTS,mAltel,mKcell,D07,D77,2016-10-20T18:06:50+06:00,
1000000000265799,77789993142,mMTS,mKcell,mKcell,,D77,2016-10-20T18:11:54+06:00,
1000000000265802,77784980073,mKcell,mMTS,mKcell,D77,D02,2016-10-20T18:16:43+06:00,
1000000000265803,77018883944,mKcell,mMTS,mKcell,D77,D02,2016-10-20T18:18:35+06:00,
1000000000265807,77071476891,mKcell,mMTS,mMTS,,D02,2016-10-20T18:27:28+06:00,
1000000000265808,77018732145,mMTS,mKcell,mKcell,,D77,2016-10-20T18:29:39+06:00,
1000000000265809,77477773139,mKarTel,mMTS,mMTS,,D01,2016-10-20T18:29:52+06:00,
