NPId,Number,RecipientId,DonorId,RangeHolderId,OldRoute,NewRoute,PortDate,RowCount
1000000000302580,77079799917,mMTS,mKarTel,mMTS,D01,D77,2016-12-29T09:31:44+06:00,12
1000000000302581,77078201248,mKarTel,mMTS,mMTS,,D01,2016-12-29T09:37:31+06:00,
1000000000302583,77072994999,mMTS,mAltel,mMTS,D07,D77,2016-12-29T09:43:03+06:00,
1000000000302584,77472305050,mMTS,mKarTel,mMTS,D01,D77,2016-12-29T09:44:17+06:00,
1000000000302586,77026500807,mKcell,mMTS,mKcell,D77,D02,2016-12-29T09:47:05+06:00,
1000000000302588,77074814796,mMTS,mKarTel,mMTS,D01,D77,2016-12-29T09:48:34+06:00,
1000000000302589,77073829562,mMTS,mKarTel,mMTS,D01,D77,2016-12-29T09:50:14+06:00,
1000000000302591,77775857338,mKcell,mKarTel,mKarTel,,D02,2016-12-29T09:53:31+06:00,
1000000000302592,77771700237,mKarTel,mMTS,mKarTel,D77,D01,2016-12-29T09:54:52+06:00,
1000000000302593,77788845488,mAltel,mKcell,mKcell,,D07,2016-12-29T09:56:53+06:00,
1000000000302594,77002326666,mKarTel,mAltel,mAltel,,D01,2016-12-29T09:57:21+06:00,
1000000000302596,77786847208,mKcell,mAltel,mKcell,D07,D02,2016-12-29T09:59:39+06:00,
