NPId,Number,RecipientId,DonorId,RangeHolderId,OldRoute,NewRoute,PortDate,RowCount
1000000000304317,77754888411,mKarTel,mKcell,mKcell,,D01,2017-01-02T15:00:06+06:00,10
1000000000304318,77786882565,mMTS,mKcell,mKcell,,D77,2017-01-02T15:03:50+06:00,
1000000000304321,77714433433,mKcell,mKarTel,mKarTel,,D02,2017-01-02T15:06:42+06:00,
1000000000304324,77773254826,mMTS,mKarTel,mKarTel,,D77,2017-01-02T15:07:53+06:00,
1000000000304326,77013231043,mMTS,mKcell,mKcell,,D77,2017-01-02T15:13:24+06:00,
1000000000304327,77055017009,mMTS,mKarTel,mKarTel,,D77,2017-01-02T15:16:35+06:00,
1000000000304329,77027141775,mKarTel,mKcell,mKcell,,D01,2017-01-02T15:21:17+06:00,
1000000000304330,77055966444,mAltel,mKarTel,mKarTel,,D07,2017-01-02T15:22:07+06:00,
1000000000304331,77785282838,mMTS,mKcell,mKcell,,D77,2017-01-02T15:22:50+06:00,
1000000000304332,77003462756,mMTS,mAltel,mAltel,,D77,2017-01-02T15:27:36+06:00,
