NPId,Number,RecipientId,DonorId,RangeHolderId,OldRoute,NewRoute,PortDate,RowCount
1000000000438240,77017685111,mKcell,mKarTel,mKcell,D01,D02,2017-08-11T17:10:16+06:00,26
1000000000438548,77756565065,mMTS,mKcell,mKcell,,D77,2017-08-11T17:00:56+06:00,
1000000000438549,77029996680,mKarTel,mKcell,mKcell,,D01,2017-08-11T17:01:56+06:00,
1000000000438550,77714009542,mMTS,mKarTel,mKarTel,,D77,2017-08-11T17:02:41+06:00,
1000000000438551,77026924130,mMTS,mKcell,mKcell,,D77,2017-08-11T17:02:43+06:00,
1000000000438552,77473215237,mAltel,mMTS,mMTS,,D07,2017-08-11T17:04:49+06:00,
1000000000438557,77027016252,mMTS,mKcell,mKcell,,D77,2017-08-11T17:10:11+06:00,
1000000000438559,77754440414,mKcell,mMTS,mKcell,D77,D02,2017-08-11T17:12:03+06:00,
1000000000438562,77003128282,mAltel,mMTS,mAltel,D77,D07,2017-08-11T17:15:25+06:00,
1000000000438564,77015553778,mKarTel,mKcell,mKcell,,D01,2017-08-11T17:16:50+06:00,
1000000000438565,77011778887,mKarTel,mKcell,mKcell,,D01,2017-08-11T17:18:08+06:00,
1000000000438567,77472003141,mKarTel,mMTS,mMTS,,D01,2017-08-11T17:20:14+06:00,
1000000000438568,77756237650,mMTS,mKcell,mKcell,,D77,2017-08-11T17:22:14+06:00,
1000000000438569,77075603726,mAltel,mKcell,mMTS,D02,D07,2017-08-11T17:22:13+06:00,
1000000000438570,77017309026,mKarTel,mKcell,mKcell,,D01,2017-08-11T17:22:31+06:00,
1000000000438571,77071325314,mAltel,mMTS,mMTS,,D07,2017-08-11T17:22:39+06:00,
1000000000438572,77026589999,mKarTel,mKcell,mKcell,,D01,2017-08-11T17:24:22+06:00,
1000000000438573,77758995154,mKarTel,mKcell,mKcell,,D01,2017-08-11T17:24:38+06:00,
1000000000438576,77474505019,mAltel,mMTS,mMTS,,D07,2017-08-11T17:26:09+06:00,
1000000000438577,77769999585,mKcell,mKarTel,mKarTel,,D02,2017-08-11T17:26:46+06:00,
1000000000438578,77760091819,mKcell,mKarTel,mKarTel,,D02,2017-08-11T17:26:43+06:00,
1000000000438579,77016490037,mMTS,mKcell,mKcell,,D77,2017-08-11T17:27:29+06:00,
1000000000438580,77054756688,mAltel,mMTS,mKarTel,D77,D07,2017-08-11T17:28:03+06:00,
1000000000438581,77786886666,mKcell,mKarTel,mKcell,D01,D02,2017-08-11T17:28:48+06:00,
1000000000438582,77057357891,mMTS,mKarTel,mKarTel,,D77,2017-08-11T17:29:20+06:00,
1000000000438583,77055137700,mMTS,mKarTel,mKarTel,,D77,2017-08-11T17:29:29+06:00,
