NPId,Number,RecipientId,DonorId,RangeHolderId,OldRoute,NewRoute,PortDate,RowCount
1000000000426493,77754168468,mKarTel,mKcell,mKcell,,D01,2017-07-24T13:00:17+06:00,44
1000000000426931,77017703233,mKcell,mKarTel,mKcell,D01,D02,2017-07-24T13:15:33+06:00,
1000000000426947,77773579725,mKcell,mKarTel,mKarTel,D01,D02,2017-07-24T13:25:21+06:00,
1000000000426952,77769888484,mKcell,mKarTel,mKarTel,,D02,2017-07-24T13:27:54+06:00,
1000000000427006,77778240402,mKcell,mKarTel,mKarTel,,D02,2017-07-24T13:00:30+06:00,
1000000000427009,77712755301,mMTS,mKarTel,mKarTel,,D77,2017-07-24T13:01:06+06:00,
1000000000427010,77083140574,mMTS,mAltel,mAltel,,D77,2017-07-24T13:01:05+06:00,
1000000000427011,77006009212,mKcell,mAltel,mAltel,,D02,2017-07-24T13:03:50+06:00,
1000000000427012,77768887590,mKarTel,mMTS,mKarTel,D77,D01,2017-07-24T13:03:36+06:00,
1000000000427014,77021352525,mKcell,mAltel,mKcell,D07,D02,2017-07-24T13:05:00+06:00,
1000000000427016,77752105993,mAltel,mKcell,mKcell,,D07,2017-07-24T13:05:22+06:00,
1000000000427017,77011630405,mAltel,mKcell,mKcell,,D07,2017-07-24T13:05:31+06:00,
1000000000427018,77023229906,mAltel,mKcell,mKcell,,D07,2017-07-24T13:05:48+06:00,
1000000000427019,77777747074,mKarTel,mAltel,mKarTel,D07,D01,2017-07-24T13:06:29+06:00,
1000000000427020,77006008141,mKcell,mAltel,mAltel,,D02,2017-07-24T13:06:37+06:00,
1000000000427021,77053429939,mMTS,mKarTel,mKarTel,,D77,2017-07-24T13:07:09+06:00,
1000000000427023,77017207354,mAltel,mKcell,mKcell,,D07,2017-07-24T13:09:27+06:00,
1000000000427024,77776935828,mMTS,mKarTel,mKarTel,,D77,2017-07-24T13:09:39+06:00,
1000000000427025,77019658484,mAltel,mKcell,mKcell,,D07,2017-07-24T13:09:57+06:00,
1000000000427026,77071034208,mKarTel,mMTS,mMTS,,D01,2017-07-24T13:11:42+06:00,
1000000000427027,77474934847,mKcell,mMTS,mMTS,,D02,2017-07-24T13:12:05+06:00,
1000000000427028,77017362752,mMTS,mKcell,mKcell,,D77,2017-07-24T13:12:11+06:00,
1000000000427029,77006006961,mKcell,mAltel,mAltel,,D02,2017-07-24T13:13:00+06:00,
1000000000427030,77021352424,mKcell,mAltel,mKcell,D07,D02,2017-07-24T13:13:37+06:00,
1000000000427031,77014163342,mMTS,mKcell,mKcell,,D77,2017-07-24T13:13:47+06:00,
1000000000427032,77789007257,mMTS,mKcell,mKcell,,D77,2017-07-24T13:13:51+06:00,
1000000000427034,77001505858,mMTS,mAltel,mAltel,,D77,2017-07-24T13:15:44+06:00,
1000000000427035,77052309629,mMTS,mKarTel,mKarTel,,D77,2017-07-24T13:16:47+06:00,
1000000000427037,77713278777,mKarTel,mKcell,mKarTel,D02,D01,2017-07-24T13:18:07+06:00,
1000000000427038,77021356265,mKcell,mAltel,mKcell,D07,D02,2017-07-24T13:18:35+06:00,
1000000000427040,77021130390,mKarTel,mKcell,mKcell,,D01,2017-07-24T13:19:33+06:00,
1000000000427041,77006006367,mKcell,mAltel,mAltel,,D02,2017-07-24T13:21:01+06:00,
1000000000427042,77776367044,mKarTel,mAltel,mKarTel,D07,D01,2017-07-24T13:21:24+06:00,
1000000000427043,77075541070,mKcell,mMTS,mMTS,,D02,2017-07-24T13:21:35+06:00,
1000000000427044,77478378155,mAltel,mMTS,mMTS,,D07,2017-07-24T13:22:06+06:00,
1000000000427045,77027773077,mKcell,mAltel,mKcell,D07,D02,2017-07-24T13:22:27+06:00,
1000000000427046,77787311656,mKcell,mAltel,mKcell,D07,D02,2017-07-24T13:22:46+06:00,
1000000000427048,77004157974,mMTS,mAltel,mAltel,,D77,2017-07-24T13:22:56+06:00,
1000000000427050,77759644107,mKarTel,mMTS,mKcell,D77,D01,2017-07-24T13:24:58+06:00,
1000000000427051,77006006769,mKcell,mAltel,mAltel,,D02,2017-07-24T13:25:09+06:00,
1000000000427052,77028881202,mKcell,mAltel,mKcell,D07,D02,2017-07-24T13:25:40+06:00,
1000000000427053,77012152002,mMTS,mKcell,mKcell,,D77,2017-07-24T13:27:16+06:00,
1000000000427054,77786113589,mAltel,mKcell,mKcell,,D07,2017-07-24T13:29:05+06:00,
1000000000427056,77075076188,mAltel,mMTS,mMTS,,D07,2017-07-24T13:29:57+06:00,
