NPId,Number,RecipientId,DonorId,RangeHolderId,OldRoute,NewRoute,PortDate,RowCount
1000000000235194,77016707474,mKarTel,mKcell,mKcell,,D01,2016-08-27T16:30:28+06:00,22
1000000000235196,77013914030,mKcell,mMTS,mKcell,D77,D02,2016-08-27T16:33:16+06:00,
1000000000235197,77764656555,mMTS,mKarTel,mKarTel,,D77,2016-08-27T16:35:41+06:00,
1000000000235199,77787886990,mAltel,mKcell,mKcell,,D07,2016-08-27T16:37:18+06:00,
1000000000235200,77759860806,mMTS,mKcell,mKcell,,D77,2016-08-27T16:37:27+06:00,
1000000000235201,77472228459,mKcell,mMTS,mMTS,,D02,2016-08-27T16:38:12+06:00,
1000000000235202,77071985711,mKcell,mMTS,mMTS,,D02,2016-08-27T16:39:16+06:00,
1000000000235204,77072228459,mKcell,mMTS,mMTS,,D02,2016-08-27T16:43:57+06:00,
1000000000235205,77027532462,mAltel,mKcell,mKcell,,D07,2016-08-27T16:43:38+06:00,
1000000000235206,77776665623,mAltel,mKarTel,mKarTel,,D07,2016-08-27T16:45:52+06:00,
1000000000235207,77784477700,mKarTel,mKcell,mKcell,,D01,2016-08-27T16:45:48+06:00,
1000000000235209,77018081088,mKarTel,mKcell,mKcell,,D01,2016-08-27T16:47:50+06:00,
1000000000235211,77077591262,mKcell,mMTS,mMTS,,D02,2016-08-27T16:49:16+06:00,
1000000000235213,77017321363,mMTS,mKcell,mKcell,,D77,2016-08-27T16:54:47+06:00,
1000000000235214,77773777790,mMTS,mKarTel,mKarTel,,D77,2016-08-27T16:52:23+06:00,
1000000000235215,77078878778,mKcell,mMTS,mMTS,,D02,2016-08-27T16:55:05+06:00,
1000000000235216,77081301303,mAltel,mKcell,mAltel,D02,D07,2016-08-27T16:54:59+06:00,
1000000000235217,77022808777,mKarTel,mKcell,mKcell,,D01,2016-08-27T16:53:47+06:00,
1000000000235218,77018005172,mKarTel,mKcell,mKcell,,D01,2016-08-27T16:54:31+06:00,
1000000000235220,77779666696,mAltel,mKarTel,mKarTel,,D07,2016-08-27T16:58:41+06:00,
1000000000235221,77080609992,mAltel,mKcell,mAltel,D02,D07,2016-08-27T16:57:03+06:00,
1000000000235223,77016161663,mMTS,mKcell,mKcell,,D77,2016-08-27T16:59:08+06:00,
