NPId,Number,RecipientId,DonorId,RangeHolderId,OldRoute,NewRoute,PortDate,RowCount
1000000000258617,77754000015,mMTS,mKarTel,mKcell,D01,D77,2016-10-07T16:02:06+06:00,13
1000000000258620,77022426888,mKcell,mMTS,mKcell,D77,D02,2016-10-07T16:07:22+06:00,
1000000000258621,77025162341,mKcell,mMTS,mKcell,D77,D02,2016-10-07T16:09:42+06:00,
1000000000258622,77002020404,mMTS,mAltel,mAltel,,D77,2016-10-07T16:09:30+06:00,
1000000000258623,77472082323,mKcell,mMTS,mMTS,,D02,2016-10-07T16:11:18+06:00,
1000000000258626,77016904466,mMTS,mKcell,mKcell,,D77,2016-10-07T16:14:54+06:00,
1000000000258627,77070314221,mMTS,mKcell,mMTS,D02,D77,2016-10-07T16:18:18+06:00,
1000000000258628,77024275858,mMTS,mKcell,mKcell,,D77,2016-10-07T16:19:27+06:00,
1000000000258630,77053821684,mMTS,mKarTel,mKarTel,,D77,2016-10-07T16:24:23+06:00,
1000000000258631,77000000050,mAltel,mMTS,mAltel,D77,D07,2016-10-07T16:20:33+06:00,
1000000000258632,77719994483,mKcell,mAltel,mKarTel,D07,D02,2016-10-07T16:21:15+06:00,
1000000000258636,77002288800,mKcell,mAltel,mAltel,,D02,2016-10-07T16:27:32+06:00,
1000000000258637,77077749467,mKcell,mMTS,mMTS,,D02,2016-10-07T16:27:39+06:00,
