NPId,Number,RecipientId,DonorId,RangeHolderId,OldRoute,NewRoute,PortDate,RowCount
1000000000404562,77017109190,mKarTel,mKcell,mKcell,,D01,2017-06-16T18:30:54+06:00,15
1000000000404563,77078345696,mAltel,mMTS,mMTS,,D07,2017-06-16T18:31:58+06:00,
1000000000404576,77476802823,mKarTel,mMTS,mMTS,,D01,2017-06-16T18:36:54+06:00,
1000000000404577,77075553922,mKarTel,mMTS,mMTS,,D01,2017-06-16T18:37:29+06:00,
1000000000404578,77719880001,mMTS,mKarTel,mKarTel,,D77,2017-06-16T18:39:12+06:00,
1000000000404579,77058628475,mMTS,mKarTel,mKarTel,,D77,2017-06-16T18:39:11+06:00,
1000000000404580,77783637009,mAltel,mMTS,mKcell,D77,D07,2017-06-16T18:39:45+06:00,
1000000000404581,77783545435,mKcell,mKarTel,mKcell,D01,D02,2017-06-16T18:42:44+06:00,
1000000000404582,77001891976,mKcell,mAltel,mAltel,,D02,2017-06-16T18:45:09+06:00,
1000000000404583,77011212195,mKarTel,mAltel,mKcell,D07,D01,2017-06-16T18:47:26+06:00,
1000000000404585,77007770799,mKcell,mAltel,mAltel,,D02,2017-06-16T18:53:19+06:00,
1000000000404586,77076800018,mMTS,mKarTel,mMTS,D01,D77,2017-06-16T18:53:47+06:00,
1000000000404587,77023993295,mKarTel,mKcell,mKcell,,D01,2017-06-16T18:53:58+06:00,
1000000000404588,77053819077,mMTS,mKarTel,mKarTel,,D77,2017-06-16T18:56:32+06:00,
1000000000404590,77474389496,mKcell,mMTS,mMTS,,D02,2017-06-16T18:57:41+06:00,
