NPId,Number,RecipientId,DonorId,RangeHolderId,OldRoute,NewRoute,PortDate,RowCount
1000000000438992,77079623861,mKarTel,mMTS,mMTS,,D01,2017-08-12T15:30:29+06:00,24
1000000000438994,77713629191,mMTS,mKarTel,mKarTel,,D77,2017-08-12T15:33:28+06:00,
1000000000438995,77003303330,mKarTel,mAltel,mAltel,,D01,2017-08-12T15:34:03+06:00,
1000000000438997,77759075035,mAltel,mKcell,mKcell,,D07,2017-08-12T15:36:45+06:00,
1000000000438998,77472057315,mKcell,mMTS,mMTS,,D02,2017-08-12T15:36:58+06:00,
1000000000439000,77772999119,mMTS,mKarTel,mKarTel,,D77,2017-08-12T15:37:40+06:00,
1000000000439001,77056217770,mKarTel,mKcell,mKarTel,D02,D01,2017-08-12T15:39:32+06:00,
1000000000439002,77016171420,mAltel,mKcell,mKcell,,D07,2017-08-12T15:39:38+06:00,
1000000000439003,77789399903,mMTS,mKcell,mKcell,,D77,2017-08-12T15:40:04+06:00,
1000000000439004,77073297379,mKarTel,mMTS,mMTS,,D01,2017-08-12T15:42:37+06:00,
1000000000439006,77471604438,mAltel,mMTS,mMTS,,D07,2017-08-12T15:45:46+06:00,
1000000000439007,77784777797,mMTS,mKcell,mKcell,,D77,2017-08-12T15:47:20+06:00,
1000000000439010,77070421116,mKcell,mMTS,mMTS,,D02,2017-08-12T15:48:55+06:00,
1000000000439011,77075634777,mKarTel,mMTS,mMTS,,D01,2017-08-12T15:49:20+06:00,
1000000000439012,77079007794,mKcell,mAltel,mMTS,D07,D02,2017-08-12T15:50:39+06:00,
1000000000439013,77762874770,mKcell,mKarTel,mKarTel,,D02,2017-08-12T15:52:50+06:00,
1000000000439014,77757158700,mAltel,mKcell,mKcell,,D07,2017-08-12T15:52:33+06:00,
1000000000439017,77079778878,mKcell,mMTS,mMTS,,D02,2017-08-12T15:56:32+06:00,
1000000000439018,77756484840,mMTS,mKcell,mKcell,,D77,2017-08-12T15:56:47+06:00,
1000000000439019,77013586870,mKarTel,mKcell,mKcell,,D01,2017-08-12T15:57:35+06:00,
1000000000439020,77714229899,mMTS,mKarTel,mKarTel,,D77,2017-08-12T15:58:25+06:00,
1000000000439021,77752697505,mMTS,mKcell,mKcell,,D77,2017-08-12T15:58:31+06:00,
1000000000439022,77782399269,mMTS,mKcell,mKcell,,D77,2017-08-12T15:59:05+06:00,
1000000000439023,77772966024,mMTS,mKarTel,mKarTel,,D77,2017-08-12T15:59:23+06:00,
