NPId,Number,RecipientId,DonorId,RangeHolderId,OldRoute,NewRoute,PortDate,RowCount
1000000000215368,77029990325,mKcell,mMTS,mKcell,D77,D02,2016-07-26T14:32:12+06:00,19
1000000000217445,77024854488,mMTS,mKcell,mKcell,,D77,2016-07-26T14:30:48+06:00,
1000000000217448,77051057777,mKcell,mKarTel,mKarTel,,D02,2016-07-26T14:30:36+06:00,
1000000000217449,77051793964,mMTS,mKarTel,mKarTel,,D77,2016-07-26T14:32:42+06:00,
1000000000217451,77022550046,mKcell,mMTS,mKcell,D77,D02,2016-07-26T14:32:51+06:00,
1000000000217452,77017785410,mMTS,mKcell,mKcell,,D77,2016-07-26T14:33:21+06:00,
1000000000217453,77789424757,mKcell,mKarTel,mKcell,D01,D02,2016-07-26T14:34:28+06:00,
1000000000217454,77073589999,mKcell,mMTS,mMTS,,D02,2016-07-26T14:36:53+06:00,
1000000000217456,77017875873,mMTS,mKcell,mKcell,,D77,2016-07-26T14:39:02+06:00,
1000000000217457,77019962226,mKarTel,mKcell,mKcell,,D01,2016-07-26T14:39:19+06:00,
1000000000217458,77087219101,mMTS,mAltel,mAltel,,D77,2016-07-26T14:40:11+06:00,
1000000000217460,77086350453,mAltel,mMTS,mAltel,D77,D07,2016-07-26T14:41:00+06:00,
1000000000217462,77023639144,mMTS,mKcell,mKcell,,D77,2016-07-26T14:44:19+06:00,
1000000000217463,77005555747,mKcell,mAltel,mAltel,,D02,2016-07-26T14:45:53+06:00,
1000000000217465,77071052299,mAltel,mMTS,mMTS,,D07,2016-07-26T14:46:02+06:00,
1000000000217467,77017142221,mMTS,mKcell,mKcell,,D77,2016-07-26T14:51:40+06:00,
1000000000217468,77785158810,mKcell,mMTS,mKcell,D77,D02,2016-07-26T14:55:00+06:00,
1000000000217470,77787773337,mMTS,mKcell,mKcell,,D77,2016-07-26T14:54:52+06:00,
1000000000217471,77011000446,mKcell,mKarTel,mKcell,D01,D02,2016-07-26T14:56:11+06:00,
