NPId,Number,RecipientId,DonorId,RangeHolderId,OldRoute,NewRoute,PortDate,RowCount
1000000000157713,77769999002,mAltel,mKarTel,mKarTel,,D07,2016-04-22T09:31:42+06:00,15
1000000000157714,77022779455,mMTS,mKcell,mKcell,,D77,2016-04-22T09:34:22+06:00,
1000000000157715,77712460008,mMTS,mKarTel,mKarTel,,D77,2016-04-22T09:34:31+06:00,
1000000000157716,77776706337,mMTS,mKarTel,mKarTel,,D77,2016-04-22T09:36:58+06:00,
1000000000157717,77025186319,mMTS,mKcell,mKcell,,D77,2016-04-22T09:38:47+06:00,
1000000000157718,77079513237,mKarTel,mMTS,mMTS,,D01,2016-04-22T09:41:21+06:00,
1000000000157719,77757627128,mMTS,mAltel,mKcell,D07,D77,2016-04-22T09:40:42+06:00,
1000000000157720,77772310410,mMTS,mKarTel,mKarTel,,D77,2016-04-22T09:41:42+06:00,
1000000000157721,77056018072,mMTS,mKarTel,mKarTel,,D77,2016-04-22T09:42:23+06:00,
1000000000157722,77005797999,mKarTel,mAltel,mAltel,,D01,2016-04-22T09:43:29+06:00,
1000000000157723,77772633636,mKcell,mKarTel,mKarTel,,D02,2016-04-22T09:46:12+06:00,
1000000000157724,77085409056,mKcell,mAltel,mAltel,,D02,2016-04-22T09:50:28+06:00,
1000000000157725,77022987730,mKarTel,mMTS,mKcell,D77,D01,2016-04-22T09:51:57+06:00,
1000000000157726,77764444968,mMTS,mAltel,mKarTel,D07,D77,2016-04-22T09:52:30+06:00,
1000000000157728,77022808627,mKarTel,mMTS,mKcell,D77,D01,2016-04-22T09:55:32+06:00,
