NPId,Number,RecipientId,DonorId,RangeHolderId,OldRoute,NewRoute,PortDate,RowCount
1000000000257237,77017619583,mAltel,mKcell,mKcell,,D07,2016-10-05T13:31:45+06:00,34
1000000000257239,77002223301,mKarTel,mAltel,mAltel,,D01,2016-10-05T13:33:10+06:00,
1000000000257240,77011446665,mKarTel,mKcell,mKcell,,D01,2016-10-05T13:34:05+06:00,
1000000000257241,77075765081,mAltel,mMTS,mMTS,,D07,2016-10-05T13:33:37+06:00,
1000000000257243,77018851175,mKcell,mMTS,mKcell,D77,D02,2016-10-05T13:36:09+06:00,
1000000000257244,77781615999,mMTS,mKcell,mKcell,,D77,2016-10-05T13:36:55+06:00,
1000000000257245,77017547545,mMTS,mKcell,mKcell,,D77,2016-10-05T13:37:50+06:00,
1000000000257246,77021311271,mMTS,mKcell,mKcell,,D77,2016-10-05T13:38:26+06:00,
1000000000257247,77019973559,mMTS,mKcell,mKcell,,D77,2016-10-05T13:39:03+06:00,
1000000000257248,77019392222,mAltel,mKcell,mKcell,,D07,2016-10-05T13:39:24+06:00,
1000000000257249,77058612631,mAltel,mKarTel,mKarTel,,D07,2016-10-05T13:40:34+06:00,
1000000000257250,77077811206,mKarTel,mMTS,mMTS,,D01,2016-10-05T13:40:44+06:00,
1000000000257251,77017803156,mKcell,mKarTel,mKcell,D01,D02,2016-10-05T13:41:33+06:00,
1000000000257253,77015265949,mKcell,mKarTel,mKcell,D01,D02,2016-10-05T13:43:05+06:00,
1000000000257254,77087092013,mMTS,mAltel,mAltel,,D77,2016-10-05T13:42:38+06:00,
1000000000257255,77779615373,mMTS,mKarTel,mKarTel,,D77,2016-10-05T13:44:22+06:00,
1000000000257256,77012707698,mKcell,mMTS,mKcell,D77,D02,2016-10-05T13:44:42+06:00,
1000000000257257,77011291929,mAltel,mKcell,mKcell,,D07,2016-10-05T13:44:40+06:00,
1000000000257258,77077281717,mAltel,mMTS,mMTS,,D07,2016-10-05T13:45:16+06:00,
1000000000257259,77055817077,mMTS,mKarTel,mKarTel,,D77,2016-10-05T13:46:12+06:00,
1000000000257260,77075744750,mKarTel,mMTS,mMTS,,D01,2016-10-05T13:46:38+06:00,
1000000000257261,77016000014,mKcell,mKarTel,mKcell,D01,D02,2016-10-05T13:47:39+06:00,
1000000000257262,77071104910,mAltel,mMTS,mMTS,,D07,2016-10-05T13:46:57+06:00,
1000000000257263,77089132613,mMTS,mAltel,mAltel,,D77,2016-10-05T13:47:02+06:00,
1000000000257265,77072759995,mKcell,mMTS,mMTS,,D02,2016-10-05T13:48:15+06:00,
1000000000257266,77019529778,mMTS,mKcell,mKcell,,D77,2016-10-05T13:49:03+06:00,
1000000000257267,77712884424,mKcell,mKarTel,mKarTel,,D02,2016-10-05T13:50:08+06:00,
1000000000257268,77076665267,mAltel,mMTS,mMTS,,D07,2016-10-05T13:49:31+06:00,
1000000000257269,77774027578,mKarTel,mKcell,mKarTel,D02,D01,2016-10-05T13:51:58+06:00,
1000000000257270,77058171761,mMTS,mKarTel,mKarTel,,D77,2016-10-05T13:52:56+06:00,
1000000000257271,77772707912,mKcell,mKarTel,mKarTel,,D02,2016-10-05T13:54:07+06:00,
1000000000257272,77021999501,mKarTel,mKcell,mKcell,,D01,2016-10-05T13:55:54+06:00,
1000000000257273,77772992406,mKarTel,mMTS,mKarTel,D77,D01,2016-10-05T13:57:15+06:00,
1000000000257275,77076220002,mKarTel,mMTS,mMTS,,D01,2016-10-05T13:59:55+06:00,
