NPId,Number,RecipientId,DonorId,RangeHolderId,OldRoute,NewRoute,PortDate,RowCount
1000000000164958,77754775717,mMTS,mKcell,mKcell,,D77,2016-05-01T16:30:49+06:00,26
1000000000164959,77018864040,mKarTel,mKcell,mKcell,,D01,2016-05-01T16:34:23+06:00,
1000000000164962,77776509877,mMTS,mKarTel,mKarTel,,D77,2016-05-01T16:34:47+06:00,
1000000000164963,77718901484,mMTS,mKarTel,mKarTel,,D77,2016-05-01T16:34:57+06:00,
1000000000164964,77755119278,mAltel,mKcell,mKcell,,D07,2016-05-01T16:34:47+06:00,
1000000000164966,77017146050,mAltel,mKcell,mKcell,,D07,2016-05-01T16:36:54+06:00,
1000000000164969,77081091651,mMTS,mAltel,mAltel,,D77,2016-05-01T16:37:12+06:00,
1000000000164970,77056509595,mMTS,mKarTel,mKarTel,,D77,2016-05-01T16:38:55+06:00,
1000000000164972,77071914107,mMTS,mAltel,mMTS,D07,D77,2016-05-01T16:40:41+06:00,
1000000000164974,77082024001,mMTS,mAltel,mAltel,,D77,2016-05-01T16:42:06+06:00,
1000000000164975,77012757000,mMTS,mKcell,mKcell,,D77,2016-05-01T16:42:42+06:00,
1000000000164976,77019473342,mKarTel,mKcell,mKcell,,D01,2016-05-01T16:42:55+06:00,
1000000000164978,77071187777,mKarTel,mMTS,mMTS,,D01,2016-05-01T16:42:48+06:00,
1000000000164979,77057277339,mKcell,mAltel,mKarTel,D07,D02,2016-05-01T16:43:45+06:00,
1000000000164981,77016092595,mMTS,mKcell,mKcell,,D77,2016-05-01T16:45:26+06:00,
1000000000164982,77081706989,mMTS,mAltel,mAltel,,D77,2016-05-01T16:45:26+06:00,
1000000000164983,77082024003,mMTS,mAltel,mAltel,,D77,2016-05-01T16:47:02+06:00,
1000000000164984,77755119259,mAltel,mKcell,mKcell,,D07,2016-05-01T16:47:48+06:00,
1000000000164985,77766728672,mMTS,mKarTel,mKarTel,,D77,2016-05-01T16:49:16+06:00,
1000000000164987,77019426520,mMTS,mKcell,mKcell,,D77,2016-05-01T16:51:44+06:00,
1000000000164988,77070491171,mMTS,mKarTel,mMTS,D01,D77,2016-05-01T16:52:19+06:00,
1000000000164990,77774625050,mAltel,mKarTel,mKarTel,,D07,2016-05-01T16:53:46+06:00,
1000000000164991,77003338788,mMTS,mAltel,mAltel,,D77,2016-05-01T16:56:03+06:00,
1000000000164992,77017712755,mMTS,mKcell,mKcell,,D77,2016-05-01T16:57:30+06:00,
1000000000164993,77778837373,mKcell,mKarTel,mKarTel,,D02,2016-05-01T16:59:09+06:00,
1000000000164994,77081699493,mMTS,mAltel,mAltel,,D77,2016-05-01T16:58:42+06:00,
