NPId,Number,RecipientId,DonorId,RangeHolderId,OldRoute,NewRoute,PortDate,RowCount
1000000000429781,77758889839,mKarTel,mKcell,mKcell,,D01,2017-07-28T13:00:49+06:00,17
1000000000429782,77076005220,mKcell,mMTS,mMTS,,D02,2017-07-28T13:01:46+06:00,
1000000000429783,77753633551,mKarTel,mKcell,mKcell,,D01,2017-07-28T13:02:31+06:00,
1000000000429786,77787111000,mKarTel,mKcell,mKcell,,D01,2017-07-28T13:06:09+06:00,
1000000000429787,77075598000,mKarTel,mMTS,mMTS,,D01,2017-07-28T13:08:26+06:00,
1000000000429788,77474432205,mKarTel,mMTS,mMTS,,D01,2017-07-28T13:08:37+06:00,
1000000000429790,77773848800,mAltel,mKarTel,mKarTel,,D07,2017-07-28T13:10:30+06:00,
1000000000429792,77054324542,mKarTel,mAltel,mKarTel,D07,D01,2017-07-28T13:11:46+06:00,
1000000000429793,77089074857,mMTS,mAltel,mAltel,,D77,2017-07-28T13:12:29+06:00,
1000000000429794,77772161991,mAltel,mMTS,mKarTel,D77,D07,2017-07-28T13:13:30+06:00,
1000000000429795,77051892094,mKarTel,mMTS,mKarTel,D77,D01,2017-07-28T13:14:25+06:00,
1000000000429796,77775544000,mKarTel,mAltel,mKarTel,D07,D01,2017-07-28T13:15:01+06:00,
1000000000429797,77754937766,mMTS,mKcell,mKcell,,D77,2017-07-28T13:15:13+06:00,
1000000000429798,77017784964,mKarTel,mKcell,mKcell,,D01,2017-07-28T13:17:08+06:00,
1000000000429801,77089444396,mMTS,mAltel,mAltel,,D77,2017-07-28T13:22:45+06:00,
1000000000429802,77025920061,mMTS,mKcell,mKcell,,D77,2017-07-28T13:26:38+06:00,
1000000000429803,77017072030,mMTS,mKcell,mKcell,,D77,2017-07-28T13:27:33+06:00,
