NPId,Number,RecipientId,DonorId,RangeHolderId,OldRoute,NewRoute,PortDate,RowCount
1000000000235137,77775030707,mMTS,mKarTel,mKarTel,,D77,2016-08-27T15:30:42+06:00,20
1000000000235139,77075564815,mKarTel,mMTS,mMTS,,D01,2016-08-27T15:30:38+06:00,
1000000000235140,77775778866,mKcell,mKarTel,mKarTel,,D02,2016-08-27T15:33:41+06:00,
1000000000235141,77073330444,mMTS,mAltel,mMTS,D07,D77,2016-08-27T15:32:00+06:00,
1000000000235142,77766221199,mMTS,mKarTel,mKarTel,,D77,2016-08-27T15:34:40+06:00,
1000000000235143,77774400022,mAltel,mMTS,mKarTel,D77,D07,2016-08-27T15:37:33+06:00,
1000000000235144,77053158232,mKcell,mMTS,mKarTel,D77,D02,2016-08-27T15:43:20+06:00,
1000000000235145,77772755327,mKcell,mKarTel,mKarTel,,D02,2016-08-27T15:45:52+06:00,
1000000000235146,77772863344,mAltel,mKarTel,mKarTel,,D07,2016-08-27T15:45:39+06:00,
1000000000235147,77015030309,mAltel,mKcell,mKcell,,D07,2016-08-27T15:44:03+06:00,
1000000000235148,77775063114,mMTS,mKarTel,mKarTel,,D77,2016-08-27T15:47:47+06:00,
1000000000235150,77029029285,mKarTel,mKcell,mKcell,,D01,2016-08-27T15:48:35+06:00,
1000000000235152,77089878750,mKarTel,mAltel,mAltel,,D01,2016-08-27T15:49:15+06:00,
1000000000235153,77781133103,mMTS,mKcell,mKcell,,D77,2016-08-27T15:51:38+06:00,
1000000000235154,77081145172,mKcell,mMTS,mAltel,D77,D02,2016-08-27T15:53:09+06:00,
1000000000235155,77022870735,mMTS,mKcell,mKcell,,D77,2016-08-27T15:54:53+06:00,
1000000000235156,77714929966,mMTS,mKarTel,mKarTel,,D77,2016-08-27T15:57:45+06:00,
1000000000235157,77089878751,mKarTel,mAltel,mAltel,,D01,2016-08-27T15:56:27+06:00,
1000000000235159,77758888798,mMTS,mKcell,mKcell,,D77,2016-08-27T15:57:45+06:00,
1000000000235160,77771191122,mMTS,mKarTel,mKarTel,,D77,2016-08-27T15:59:15+06:00,
