NPId,Number,RecipientId,DonorId,RangeHolderId,OldRoute,NewRoute,PortDate,RowCount
1000000000243023,77779410007,mKcell,mKarTel,mKarTel,,D02,2016-09-09T13:54:40+06:00,24
1000000000243120,77007512454,mAltel,mMTS,mAltel,D77,D07,2016-09-09T13:30:42+06:00,
1000000000243121,77021301516,mKcell,mAltel,mKcell,D07,D02,2016-09-09T13:32:30+06:00,
1000000000243122,77028061920,mAltel,mKcell,mKcell,,D07,2016-09-09T13:35:29+06:00,
1000000000243123,77714003117,mKarTel,mMTS,mKarTel,D77,D01,2016-09-09T13:34:05+06:00,
1000000000243124,77024833135,mKcell,mAltel,mKcell,D07,D02,2016-09-09T13:35:39+06:00,
1000000000243125,77778031053,mAltel,mKarTel,mKarTel,,D07,2016-09-09T13:39:12+06:00,
1000000000243128,77019158831,mKcell,mAltel,mKcell,D07,D02,2016-09-09T13:40:09+06:00,
1000000000243129,77751339222,mMTS,mKcell,mKcell,,D77,2016-09-09T13:40:11+06:00,
1000000000243130,77004545545,mKcell,mAltel,mAltel,,D02,2016-09-09T13:41:04+06:00,
1000000000243131,77027258380,mMTS,mKcell,mKcell,,D77,2016-09-09T13:41:43+06:00,
1000000000243132,77017845400,mAltel,mKcell,mKcell,,D07,2016-09-09T13:41:50+06:00,
1000000000243133,77089114014,mAltel,mMTS,mAltel,D77,D07,2016-09-09T13:42:05+06:00,
1000000000243134,77054970215,mMTS,mKarTel,mKarTel,,D77,2016-09-09T13:44:17+06:00,
1000000000243135,77051137498,mKarTel,mMTS,mKarTel,D77,D01,2016-09-09T13:43:36+06:00,
1000000000243136,77070420260,mAltel,mMTS,mMTS,,D07,2016-09-09T13:43:35+06:00,
1000000000243137,77026666608,mKcell,mMTS,mKcell,D77,D02,2016-09-09T13:43:55+06:00,
1000000000243138,77086860221,mKarTel,mAltel,mAltel,,D01,2016-09-09T13:44:14+06:00,
1000000000243140,77051946654,mKarTel,mMTS,mKarTel,D77,D01,2016-09-09T13:46:08+06:00,
1000000000243141,77019902222,mKcell,mAltel,mKcell,D07,D02,2016-09-09T13:48:04+06:00,
1000000000243142,77017801078,mKcell,mMTS,mKcell,D77,D02,2016-09-09T13:52:31+06:00,
1000000000243143,77074908086,mKcell,mMTS,mMTS,,D02,2016-09-09T13:54:09+06:00,
1000000000243145,77078014149,mMTS,mAltel,mMTS,D07,D77,2016-09-09T13:56:19+06:00,
1000000000243148,77028040707,mKarTel,mKcell,mKcell,,D01,2016-09-09T13:58:45+06:00,
