NPId,Number,RecipientId,DonorId,RangeHolderId,OldRoute,NewRoute,PortDate,RowCount
1000000000310423,77786383833,mKarTel,mMTS,mKcell,D77,D01,2017-01-14T11:03:49+06:00,11
1000000000310424,77076901067,mMTS,mKcell,mMTS,D02,D77,2017-01-14T11:06:48+06:00,
1000000000310425,77075007234,mKcell,mMTS,mMTS,,D02,2017-01-14T11:09:49+06:00,
1000000000310426,77027080973,mKcell,mMTS,mKcell,D77,D02,2017-01-14T11:12:42+06:00,
1000000000310427,77058285036,mMTS,mKarTel,mKarTel,,D77,2017-01-14T11:12:59+06:00,
1000000000310429,77077595907,mKcell,mMTS,mMTS,,D02,2017-01-14T11:17:35+06:00,
1000000000310432,77029499794,mAltel,mKcell,mKcell,,D07,2017-01-14T11:23:15+06:00,
1000000000310433,77076127771,mAltel,mMTS,mMTS,,D07,2017-01-14T11:26:20+06:00,
1000000000310434,77089554519,mAltel,mKarTel,mAltel,D01,D07,2017-01-14T11:27:08+06:00,
1000000000310435,77014493888,mAltel,mKcell,mKcell,,D07,2017-01-14T11:27:26+06:00,
1000000000310436,77058288068,mMTS,mKarTel,mKarTel,,D77,2017-01-14T11:28:01+06:00,
