NPId,Number,RecipientId,DonorId,RangeHolderId,OldRoute,NewRoute,PortDate,RowCount
1000000000128070,77776666648,mKcell,mKarTel,mKarTel,,D02,2016-03-17T21:00:11+06:00,2
1000000000128071,77019333800,mMTS,mKcell,mKcell,,D77,2016-03-17T21:24:19+06:00,
