NPId,Number,RecipientId,DonorId,RangeHolderId,OldRoute,NewRoute,PortDate,RowCount
1000000000204423,77781744471,mKarTel,mKcell,mKcell,,D01,2016-07-03T11:04:57+06:00,3
1000000000204424,77771547421,mMTS,mKarTel,mKarTel,,D77,2016-07-03T11:05:13+06:00,
1000000000204425,77017166286,mKcell,mMTS,mKcell,D77,D02,2016-07-03T11:18:38+06:00,
