NPId,Number,RecipientId,DonorId,RangeHolderId,OldRoute,NewRoute,PortDate,RowCount
1000000000259371,77059653210,mAltel,mKarTel,mKarTel,,D07,2016-10-09T12:03:22+06:00,10
1000000000259374,77025550411,mAltel,mKcell,mKcell,,D07,2016-10-09T12:04:54+06:00,
1000000000259375,77029666346,mMTS,mKcell,mKcell,,D77,2016-10-09T12:07:36+06:00,
1000000000259376,77713360336,mMTS,mKarTel,mKarTel,,D77,2016-10-09T12:13:48+06:00,
1000000000259377,77014888733,mMTS,mKcell,mKcell,,D77,2016-10-09T12:09:17+06:00,
1000000000259379,77789815519,mMTS,mKcell,mKcell,,D77,2016-10-09T12:17:38+06:00,
1000000000259380,77017444496,mAltel,mKcell,mKcell,,D07,2016-10-09T12:18:13+06:00,
1000000000259381,77477880600,mKarTel,mMTS,mMTS,,D01,2016-10-09T12:22:34+06:00,
1000000000259382,77014893666,mAltel,mKcell,mKcell,,D07,2016-10-09T12:26:58+06:00,
1000000000259383,77752488583,mMTS,mKcell,mKcell,,D77,2016-10-09T12:25:02+06:00,
