NPId,Number,RecipientId,DonorId,RangeHolderId,OldRoute,NewRoute,PortDate,RowCount
1000000000186012,77767061194,mKcell,mKarTel,mKarTel,,D02,2016-06-01T19:01:11+06:00,12
1000000000186037,77075448536,mKarTel,mMTS,mMTS,,D01,2016-06-01T19:03:12+06:00,
1000000000186040,77017175532,mKarTel,mKcell,mKcell,,D01,2016-06-01T19:09:46+06:00,
1000000000186041,77017844269,mMTS,mKcell,mKcell,,D77,2016-06-01T19:12:32+06:00,
1000000000186042,77770600301,mMTS,mKarTel,mKarTel,,D77,2016-06-01T19:12:55+06:00,
1000000000186043,77771469595,mKcell,mKarTel,mKarTel,,D02,2016-06-01T19:18:06+06:00,
1000000000186047,77001000036,mKcell,mAltel,mAltel,,D02,2016-06-01T19:24:02+06:00,
1000000000186048,77013222442,mAltel,mKcell,mKcell,,D07,2016-06-01T19:23:27+06:00,
1000000000186050,77076237013,mAltel,mMTS,mMTS,,D07,2016-06-01T19:25:29+06:00,
1000000000186051,77754084933,mMTS,mKcell,mKcell,,D77,2016-06-01T19:26:17+06:00,
1000000000186052,77004966742,mKarTel,mAltel,mAltel,,D01,2016-06-01T19:28:37+06:00,
1000000000186053,77024075552,mMTS,mKcell,mKcell,,D77,2016-06-01T19:29:01+06:00,
