NPId,Number,RecipientId,DonorId,RangeHolderId,OldRoute,NewRoute,PortDate,RowCount
1000000000317289,77766171007,mMTS,mKarTel,mKarTel,,D77,2017-01-26T19:33:04+06:00,10
1000000000317290,77772481768,mMTS,mKarTel,mKarTel,,D77,2017-01-26T19:33:04+06:00,
1000000000317293,77477349546,mKarTel,mMTS,mMTS,,D01,2017-01-26T19:37:06+06:00,
1000000000317294,77772481749,mMTS,mKarTel,mKarTel,,D77,2017-01-26T19:38:01+06:00,
1000000000317295,77771446713,mMTS,mKarTel,mKarTel,,D77,2017-01-26T19:38:22+06:00,
1000000000317296,77753256705,mKarTel,mKcell,mKcell,,D01,2017-01-26T19:43:40+06:00,
1000000000317297,77025837981,mMTS,mKcell,mKcell,,D77,2017-01-26T19:47:51+06:00,
1000000000317298,77772481751,mMTS,mKarTel,mKarTel,,D77,2017-01-26T19:48:03+06:00,
1000000000317299,77078212676,mAltel,mMTS,mMTS,,D07,2017-01-26T19:51:29+06:00,
1000000000317300,77772481740,mMTS,mKarTel,mKarTel,,D77,2017-01-26T19:52:58+06:00,
