NPId,Number,RecipientId,DonorId,RangeHolderId,OldRoute,NewRoute,PortDate,RowCount
1000000000259334,77479799101,mKcell,mMTS,mMTS,,D02,2016-10-08T19:10:15+06:00,4
1000000000259335,77052083052,mKarTel,mMTS,mKarTel,D77,D01,2016-10-08T19:12:57+06:00,
1000000000259336,77019800801,mKcell,mMTS,mKcell,D77,D02,2016-10-08T19:23:21+06:00,
1000000000259337,77714144094,mMTS,mAltel,mKarTel,D07,D77,2016-10-08T19:26:22+06:00,
