NPId,Number,RecipientId,DonorId,RangeHolderId,OldRoute,NewRoute,PortDate,RowCount
1000000000155272,77010550300,mKcell,mAltel,mKcell,D07,D02,2016-04-18T21:16:28+06:00,22
1000000000155273,77771579935,mKcell,mKarTel,mKarTel,,D02,2016-04-18T21:23:22+06:00,
1000000000155273,77771579979,mKcell,mKarTel,mKarTel,,D02,2016-04-18T21:23:22+06:00,
1000000000155273,77771580074,mKcell,mKarTel,mKarTel,,D02,2016-04-18T21:23:22+06:00,
1000000000155273,77771580138,mKcell,mKarTel,mKarTel,,D02,2016-04-18T21:23:22+06:00,
1000000000155273,77771580167,mKcell,mKarTel,mKarTel,,D02,2016-04-18T21:23:22+06:00,
1000000000155273,77771580174,mKcell,mKarTel,mKarTel,,D02,2016-04-18T21:23:22+06:00,
1000000000155273,77771580190,mKcell,mKarTel,mKarTel,,D02,2016-04-18T21:23:22+06:00,
1000000000155273,77771580212,mKcell,mKarTel,mKarTel,,D02,2016-04-18T21:23:22+06:00,
1000000000155273,77771580286,mKcell,mKarTel,mKarTel,,D02,2016-04-18T21:23:22+06:00,
1000000000155273,77771580349,mKcell,mKarTel,mKarTel,,D02,2016-04-18T21:23:22+06:00,
1000000000155273,77771580395,mKcell,mKarTel,mKarTel,,D02,2016-04-18T21:23:22+06:00,
1000000000155273,77771580432,mKcell,mKarTel,mKarTel,,D02,2016-04-18T21:23:22+06:00,
1000000000155273,77771580466,mKcell,mKarTel,mKarTel,,D02,2016-04-18T21:23:22+06:00,
1000000000155273,77771580489,mKcell,mKarTel,mKarTel,,D02,2016-04-18T21:23:22+06:00,
1000000000155273,77771580657,mKcell,mKarTel,mKarTel,,D02,2016-04-18T21:23:22+06:00,
1000000000155273,77771580926,mKcell,mKarTel,mKarTel,,D02,2016-04-18T21:23:22+06:00,
1000000000155273,77771580995,mKcell,mKarTel,mKarTel,,D02,2016-04-18T21:23:22+06:00,
1000000000155274,77754377000,mMTS,mKcell,mKcell,,D77,2016-04-18T21:23:48+06:00,
1000000000155275,77777780887,mMTS,mKarTel,mKarTel,,D77,2016-04-18T21:26:03+06:00,
1000000000155276,77759738654,mMTS,mKcell,mKcell,,D77,2016-04-18T21:27:44+06:00,
1000000000155277,77052400400,mMTS,mKarTel,mKarTel,,D77,2016-04-18T21:29:39+06:00,
