NPId,Number,RecipientId,DonorId,RangeHolderId,OldRoute,NewRoute,PortDate,RowCount
1000000000273726,77056214127,mKcell,mKarTel,mKarTel,,D02,2016-11-04T10:01:37+06:00,10
1000000000273736,77714365383,mMTS,mKarTel,mKarTel,,D77,2016-11-04T10:01:53+06:00,
1000000000273738,77777102222,mKcell,mKarTel,mKarTel,,D02,2016-11-04T10:18:38+06:00,
1000000000273741,77072339243,mKarTel,mMTS,mMTS,,D01,2016-11-04T10:07:29+06:00,
1000000000273744,77714365526,mMTS,mKarTel,mKarTel,,D77,2016-11-04T10:12:48+06:00,
1000000000273745,77476660091,mKcell,mMTS,mMTS,,D02,2016-11-04T10:14:37+06:00,
1000000000273746,77027644705,mMTS,mKcell,mKcell,,D77,2016-11-04T10:16:59+06:00,
1000000000273747,77772754326,mKarTel,mMTS,mKarTel,D77,D01,2016-11-04T10:19:09+06:00,
1000000000273748,77011413241,mKarTel,mKcell,mKcell,,D01,2016-11-04T10:28:41+06:00,
1000000000273749,77057209798,mMTS,mKarTel,mKarTel,D01,D77,2016-11-04T10:26:50+06:00,
