NPId,Number,RecipientId,DonorId,RangeHolderId,OldRoute,NewRoute,PortDate,RowCount
1000000000366672,77021938768,mMTS,mKcell,mKcell,,D77,2017-04-16T16:31:52+06:00,14
1000000000366674,77004957299,mMTS,mAltel,mAltel,,D77,2017-04-16T16:37:43+06:00,
1000000000366675,77015207486,mMTS,mKcell,mKcell,,D77,2017-04-16T16:39:58+06:00,
1000000000366676,77768889848,mMTS,mKarTel,mKarTel,,D77,2017-04-16T16:41:28+06:00,
1000000000366678,77011212216,mKarTel,mKcell,mKcell,,D01,2017-04-16T16:44:52+06:00,
1000000000366679,77051593371,mKcell,mKarTel,mKarTel,,D02,2017-04-16T16:46:05+06:00,
1000000000366680,77022727003,mKarTel,mKcell,mKcell,,D01,2017-04-16T16:47:16+06:00,
1000000000366681,77024559909,mMTS,mKarTel,mKcell,D01,D77,2017-04-16T16:48:08+06:00,
1000000000366682,77022500006,mMTS,mKcell,mKcell,,D77,2017-04-16T16:48:03+06:00,
1000000000366683,77784066608,mMTS,mKcell,mKcell,,D77,2017-04-16T16:49:14+06:00,
1000000000366684,77718519406,mMTS,mKarTel,mKarTel,,D77,2017-04-16T16:49:49+06:00,
1000000000366686,77759009445,mKcell,mMTS,mKcell,D77,D02,2017-04-16T16:54:26+06:00,
1000000000366687,77024971316,mAltel,mKcell,mKcell,,D07,2017-04-16T16:57:28+06:00,
1000000000366688,77786444469,mAltel,mMTS,mKcell,D77,D07,2017-04-16T16:58:40+06:00,
