NPId,Number,RecipientId,DonorId,RangeHolderId,OldRoute,NewRoute,PortDate,RowCount
1000000000326701,77073474333,mMTS,mKarTel,mMTS,D01,D77,2017-02-10T10:35:03+06:00,5
1000000000326702,77010870222,mKarTel,mKcell,mKcell,,D01,2017-02-10T10:37:55+06:00,
1000000000326703,77000191268,mMTS,mAltel,mAltel,,D77,2017-02-10T10:41:43+06:00,
1000000000326704,77058904202,mMTS,mKarTel,mKarTel,,D77,2017-02-10T10:46:17+06:00,
1000000000326707,77017212572,mKarTel,mKcell,mKcell,,D01,2017-02-10T10:56:23+06:00,
