NPId,Number,RecipientId,DonorId,RangeHolderId,OldRoute,NewRoute,PortDate,RowCount
1000000000316506,77015221893,mKarTel,mKcell,mKcell,,D01,2017-01-25T17:05:32+06:00,34
1000000000316531,77024080014,mKarTel,mKcell,mKcell,,D01,2017-01-25T17:01:52+06:00,
1000000000316532,77013707505,mMTS,mKcell,mKcell,,D77,2017-01-25T17:02:38+06:00,
1000000000316533,77789943889,mMTS,mKcell,mKcell,,D77,2017-01-25T17:02:42+06:00,
1000000000316536,77015183866,mKcell,mKarTel,mKcell,D01,D02,2017-01-25T17:04:17+06:00,
1000000000316537,77018749197,mMTS,mKcell,mKcell,,D77,2017-01-25T17:07:40+06:00,
1000000000316539,77003158850,mKarTel,mAltel,mAltel,,D01,2017-01-25T17:09:58+06:00,
1000000000316540,77773770777,mKcell,mKarTel,mKarTel,,D02,2017-01-25T17:12:00+06:00,
1000000000316543,77014031413,mKcell,mAltel,mKcell,D07,D02,2017-01-25T17:12:54+06:00,
1000000000316549,77058513444,mMTS,mKarTel,mKarTel,,D77,2017-01-25T17:15:04+06:00,
1000000000316550,77018887145,mAltel,mKcell,mKcell,,D07,2017-01-25T17:14:54+06:00,
1000000000316551,77011008888,mKarTel,mKcell,mKcell,,D01,2017-01-25T17:15:16+06:00,
1000000000316552,77017657123,mKarTel,mKcell,mKcell,,D01,2017-01-25T17:15:52+06:00,
1000000000316554,77000976697,mKcell,mAltel,mAltel,,D02,2017-01-25T17:16:56+06:00,
1000000000316555,77015554711,mKarTel,mKcell,mKcell,,D01,2017-01-25T17:17:41+06:00,
1000000000316557,77001011090,mKcell,mAltel,mAltel,,D02,2017-01-25T17:22:39+06:00,
1000000000316558,77014716562,mMTS,mKcell,mKcell,,D77,2017-01-25T17:22:21+06:00,
1000000000316559,77026664440,mMTS,mKcell,mKcell,,D77,2017-01-25T17:22:22+06:00,
1000000000316560,77013117152,mKcell,mMTS,mKcell,D77,D02,2017-01-25T17:20:40+06:00,
1000000000316561,77022627888,mAltel,mKcell,mKcell,,D07,2017-01-25T17:20:36+06:00,
1000000000316562,77074463045,mKcell,mMTS,mMTS,,D02,2017-01-25T17:20:53+06:00,
1000000000316563,77086195619,mMTS,mAltel,mAltel,,D77,2017-01-25T17:21:00+06:00,
1000000000316566,77000929300,mKcell,mAltel,mAltel,,D02,2017-01-25T17:22:36+06:00,
1000000000316567,77778677555,mKarTel,mMTS,mKarTel,D77,D01,2017-01-25T17:22:54+06:00,
1000000000316568,77007771010,mKcell,mAltel,mAltel,,D02,2017-01-25T17:23:06+06:00,
1000000000316569,77474205617,mMTS,mKcell,mMTS,D02,D77,2017-01-25T17:22:56+06:00,
1000000000316570,77018845517,mKarTel,mKcell,mKcell,,D01,2017-01-25T17:24:28+06:00,
1000000000316571,77000969500,mKcell,mAltel,mAltel,,D02,2017-01-25T17:25:04+06:00,
1000000000316572,77055556491,mKcell,mKarTel,mKarTel,,D02,2017-01-25T17:26:32+06:00,
1000000000316573,77472232278,mKarTel,mMTS,mMTS,,D01,2017-01-25T17:26:08+06:00,
1000000000316574,77718964188,mKcell,mKarTel,mKarTel,,D02,2017-01-25T17:26:36+06:00,
1000000000316575,77013209605,mKcell,mMTS,mKcell,D77,D02,2017-01-25T17:26:57+06:00,
1000000000316577,77081818090,mMTS,mAltel,mAltel,,D77,2017-01-25T17:27:38+06:00,
1000000000316579,77011057974,mMTS,mKcell,mKcell,,D77,2017-01-25T17:29:49+06:00,
