NPId,Number,RecipientId,DonorId,RangeHolderId,OldRoute,NewRoute,PortDate,RowCount
1000000000420763,77477587203,mKarTel,mMTS,mMTS,,D01,2017-07-12T20:03:59+06:00,2
1000000000420765,77017182916,mKcell,mAltel,mKcell,D07,D02,2017-07-12T20:19:08+06:00,
