NPId,Number,RecipientId,DonorId,RangeHolderId,OldRoute,NewRoute,PortDate,RowCount
1000000000325701,77051366277,mMTS,mKarTel,mKarTel,,D77,2017-02-08T12:30:18+06:00,29
1000000000325703,77753741150,mMTS,mKcell,mKcell,,D77,2017-02-08T12:30:33+06:00,
1000000000325704,77774184550,mKcell,mKarTel,mKarTel,,D02,2017-02-08T12:31:10+06:00,
1000000000325705,77077706061,mKcell,mMTS,mMTS,,D02,2017-02-08T12:31:16+06:00,
1000000000325707,77004447072,mKcell,mAltel,mAltel,,D02,2017-02-08T12:32:35+06:00,
1000000000325708,77757004774,mKcell,mMTS,mKcell,D77,D02,2017-02-08T12:32:48+06:00,
1000000000325709,77015010525,mMTS,mKcell,mKcell,,D77,2017-02-08T12:33:15+06:00,
1000000000325710,77012642425,mAltel,mKcell,mKcell,,D07,2017-02-08T12:35:40+06:00,
1000000000325711,77021191663,mMTS,mKcell,mKcell,,D77,2017-02-08T12:35:54+06:00,
1000000000325713,77052512168,mMTS,mKarTel,mKarTel,,D77,2017-02-08T12:38:05+06:00,
1000000000325715,77071712177,mKcell,mMTS,mMTS,,D02,2017-02-08T12:41:11+06:00,
1000000000325717,77012444597,mMTS,mKcell,mKcell,,D77,2017-02-08T12:42:03+06:00,
1000000000325718,77781588282,mAltel,mKcell,mKcell,,D07,2017-02-08T12:42:47+06:00,
1000000000325720,77773440185,mMTS,mKarTel,mKarTel,,D77,2017-02-08T12:45:40+06:00,
1000000000325721,77779478858,mKcell,mKarTel,mKarTel,,D02,2017-02-08T12:45:51+06:00,
1000000000325723,77078077338,mKcell,mMTS,mMTS,,D02,2017-02-08T12:45:50+06:00,
1000000000325724,77781100078,mKarTel,mKcell,mKcell,,D01,2017-02-08T12:45:55+06:00,
1000000000325725,77757787887,mKarTel,mMTS,mKcell,D77,D01,2017-02-08T12:46:17+06:00,
1000000000325726,77779770239,mKarTel,mMTS,mKarTel,D77,D01,2017-02-08T12:47:27+06:00,
1000000000325727,77072224595,mAltel,mMTS,mMTS,,D07,2017-02-08T12:47:28+06:00,
1000000000325728,77779895050,mMTS,mKarTel,mKarTel,,D77,2017-02-08T12:47:51+06:00,
1000000000325729,77055838198,mMTS,mKarTel,mKarTel,,D77,2017-02-08T12:48:12+06:00,
1000000000325730,77026414124,mMTS,mKcell,mKcell,,D77,2017-02-08T12:50:50+06:00,
1000000000325732,77714482098,mMTS,mKarTel,mKarTel,,D77,2017-02-08T12:52:59+06:00,
1000000000325734,77014747147,mMTS,mKcell,mKcell,,D77,2017-02-08T12:54:37+06:00,
1000000000325735,77753399221,mMTS,mKcell,mKcell,,D77,2017-02-08T12:54:49+06:00,
1000000000325737,77772777717,mAltel,mKarTel,mKarTel,,D07,2017-02-08T12:58:20+06:00,
1000000000325738,77089121838,mKarTel,mAltel,mAltel,,D01,2017-02-08T12:58:34+06:00,
1000000000325739,77017779925,mKarTel,mKcell,mKcell,,D01,2017-02-08T12:59:11+06:00,
