NPId,Number,RecipientId,DonorId,RangeHolderId,OldRoute,NewRoute,PortDate,RowCount
1000000000401643,77711425678,mKcell,mKarTel,mKarTel,,D02,2017-06-12T12:00:22+06:00,37
1000000000401644,77083086385,mKarTel,mAltel,mAltel,,D01,2017-06-12T12:00:04+06:00,
1000000000401645,77475270799,mKcell,mMTS,mMTS,,D02,2017-06-12T12:00:53+06:00,
1000000000401646,77751491073,mKarTel,mMTS,mKcell,D77,D01,2017-06-12T12:02:05+06:00,
1000000000401647,77754175452,mKarTel,mMTS,mKcell,D77,D01,2017-06-12T12:05:13+06:00,
1000000000401648,77753936007,mKarTel,mKcell,mKcell,,D01,2017-06-12T12:05:38+06:00,
1000000000401649,77083086384,mKarTel,mAltel,mAltel,,D01,2017-06-12T12:06:54+06:00,
1000000000401650,77782072600,mMTS,mKcell,mKcell,,D77,2017-06-12T12:08:17+06:00,
1000000000401651,77075556939,mKcell,mMTS,mMTS,,D02,2017-06-12T12:09:04+06:00,
1000000000401652,77018232110,mMTS,mKcell,mKcell,,D77,2017-06-12T12:08:38+06:00,
1000000000401653,77769997040,mKcell,mKarTel,mKarTel,,D02,2017-06-12T12:10:37+06:00,
1000000000401654,77015379885,mKarTel,mKcell,mKcell,,D01,2017-06-12T12:10:51+06:00,
1000000000401655,77011751643,mKcell,mMTS,mKcell,D77,D02,2017-06-12T12:12:20+06:00,
1000000000401656,77769997050,mKcell,mKarTel,mKarTel,,D02,2017-06-12T12:13:37+06:00,
1000000000401659,77764689999,mKcell,mKarTel,mKarTel,,D02,2017-06-12T12:14:48+06:00,
1000000000401661,77025558001,mAltel,mKcell,mKcell,,D07,2017-06-12T12:14:47+06:00,
1000000000401662,77710404444,mKcell,mKarTel,mKarTel,,D02,2017-06-12T12:15:52+06:00,
1000000000401663,77013893980,mMTS,mKcell,mKcell,,D77,2017-06-12T12:15:30+06:00,
1000000000401664,77019102401,mKarTel,mKcell,mKcell,,D01,2017-06-12T12:15:58+06:00,
1000000000401665,77479770797,mKarTel,mMTS,mMTS,,D01,2017-06-12T12:16:05+06:00,
1000000000401668,77764679999,mKcell,mKarTel,mKarTel,,D02,2017-06-12T12:18:45+06:00,
1000000000401669,77781339434,mMTS,mKcell,mKcell,,D77,2017-06-12T12:19:17+06:00,
1000000000401670,77769997060,mKcell,mKarTel,mKarTel,,D02,2017-06-12T12:20:19+06:00,
1000000000401671,77017231910,mKcell,mAltel,mKcell,D07,D02,2017-06-12T12:20:56+06:00,
1000000000401672,77011760373,mMTS,mKcell,mKcell,,D77,2017-06-12T12:21:00+06:00,
1000000000401673,77079942744,mKarTel,mMTS,mMTS,,D01,2017-06-12T12:23:42+06:00,
1000000000401674,77073111434,mKcell,mMTS,mMTS,,D02,2017-06-12T12:24:20+06:00,
1000000000401675,77021072007,mMTS,mKcell,mKcell,,D77,2017-06-12T12:25:30+06:00,
1000000000401676,77028094477,mKarTel,mKcell,mKcell,,D01,2017-06-12T12:25:39+06:00,
1000000000401677,77014805984,mKcell,mMTS,mKcell,D77,D02,2017-06-12T12:26:00+06:00,
1000000000401678,77769997071,mKcell,mKarTel,mKarTel,,D02,2017-06-12T12:27:01+06:00,
1000000000401679,77083052030,mMTS,mAltel,mAltel,,D77,2017-06-12T12:27:30+06:00,
1000000000401680,77758111141,mMTS,mKcell,mKcell,,D77,2017-06-12T12:27:38+06:00,
1000000000401681,77472211250,mMTS,mAltel,mMTS,D07,D77,2017-06-12T12:28:07+06:00,
1000000000401682,77751939293,mKcell,mMTS,mKcell,D77,D02,2017-06-12T12:28:45+06:00,
1000000000401683,77079292573,mKcell,mMTS,mMTS,,D02,2017-06-12T12:28:44+06:00,
1000000000401684,77760140090,mMTS,mKarTel,mKarTel,,D77,2017-06-12T12:29:43+06:00,
