NPId,Number,RecipientId,DonorId,RangeHolderId,OldRoute,NewRoute,PortDate,RowCount
1000000000143703,77012771525,mKarTel,mKcell,mKcell,,D01,2016-04-05T18:30:38+06:00,42
1000000000143703,77017881894,mKarTel,mKcell,mKcell,,D01,2016-04-05T18:30:38+06:00,
1000000000143703,77019526455,mKarTel,mKcell,mKcell,,D01,2016-04-05T18:30:38+06:00,
1000000000143703,77019526468,mKarTel,mKcell,mKcell,,D01,2016-04-05T18:30:38+06:00,
1000000000143703,77019532556,mKarTel,mKcell,mKcell,,D01,2016-04-05T18:30:38+06:00,
1000000000143703,77019719236,mKarTel,mKcell,mKcell,,D01,2016-04-05T18:30:38+06:00,
1000000000143703,77025124526,mKarTel,mKcell,mKcell,,D01,2016-04-05T18:30:38+06:00,
1000000000143703,77752223223,mKarTel,mKcell,mKcell,,D01,2016-04-05T18:30:38+06:00,
1000000000143704,77059999880,mKcell,mKarTel,mKarTel,,D02,2016-04-05T18:32:53+06:00,
1000000000143705,77083180389,mMTS,mAltel,mAltel,,D77,2016-04-05T18:30:57+06:00,
1000000000143706,77059190505,mMTS,mKarTel,mKarTel,,D77,2016-04-05T18:33:07+06:00,
1000000000143707,77073330020,mKcell,mAltel,mMTS,D07,D02,2016-04-05T18:32:06+06:00,
1000000000143708,77079176280,mMTS,mAltel,mMTS,D07,D77,2016-04-05T18:31:33+06:00,
1000000000143709,77071053925,mKarTel,mMTS,mMTS,,D01,2016-04-05T18:32:26+06:00,
1000000000143709,77077371409,mKarTel,mMTS,mMTS,,D01,2016-04-05T18:32:26+06:00,
1000000000143709,77478155829,mKarTel,mMTS,mMTS,,D01,2016-04-05T18:32:26+06:00,
1000000000143711,77012271720,mMTS,mKcell,mKcell,,D77,2016-04-05T18:33:40+06:00,
1000000000143712,77015779932,mKarTel,mKcell,mKcell,,D01,2016-04-05T18:34:17+06:00,
1000000000143714,77471114959,mKarTel,mMTS,mMTS,,D01,2016-04-05T18:35:59+06:00,
1000000000143715,77785225246,mMTS,mKcell,mKcell,,D77,2016-04-05T18:36:02+06:00,
1000000000143716,77018063354,mKarTel,mKcell,mKcell,,D01,2016-04-05T18:37:14+06:00,
1000000000143717,77015330315,mKarTel,mKcell,mKcell,,D01,2016-04-05T18:37:54+06:00,
1000000000143717,77019126682,mKarTel,mKcell,mKcell,,D01,2016-04-05T18:37:54+06:00,
1000000000143717,77019629836,mKarTel,mKcell,mKcell,,D01,2016-04-05T18:37:54+06:00,
1000000000143717,77022234178,mKarTel,mKcell,mKcell,,D01,2016-04-05T18:37:54+06:00,
1000000000143718,77011279137,mMTS,mKcell,mKcell,,D77,2016-04-05T18:37:50+06:00,
1000000000143720,77089088077,mMTS,mAltel,mAltel,,D77,2016-04-05T18:37:50+06:00,
1000000000143721,77027908390,mKarTel,mKcell,mKcell,,D01,2016-04-05T18:38:33+06:00,
1000000000143722,77089103131,mMTS,mAltel,mAltel,,D77,2016-04-05T18:41:56+06:00,
1000000000143723,77073930990,mMTS,mAltel,mMTS,D07,D77,2016-04-05T18:41:58+06:00,
1000000000143724,77021975212,mMTS,mKcell,mKcell,,D77,2016-04-05T18:42:45+06:00,
1000000000143725,77087618751,mMTS,mAltel,mAltel,,D77,2016-04-05T18:43:13+06:00,
1000000000143728,77019966179,mMTS,mKcell,mKcell,,D77,2016-04-05T18:45:03+06:00,
1000000000143729,77053399009,mKcell,mKarTel,mKarTel,,D02,2016-04-05T18:46:55+06:00,
1000000000143730,77017566744,mKcell,mAltel,mKcell,D07,D02,2016-04-05T18:46:23+06:00,
1000000000143732,77003301300,mKcell,mAltel,mAltel,,D02,2016-04-05T18:49:51+06:00,
1000000000143733,77013061113,mAltel,mKcell,mKcell,,D07,2016-04-05T18:50:16+06:00,
1000000000143734,77089145388,mKcell,mAltel,mAltel,,D02,2016-04-05T18:51:11+06:00,
1000000000143736,77771123541,mMTS,mKarTel,mKarTel,,D77,2016-04-05T18:53:21+06:00,
1000000000143739,77784957277,mMTS,mKcell,mKcell,,D77,2016-04-05T18:55:27+06:00,
1000000000143740,77029381189,mMTS,mKcell,mKcell,,D77,2016-04-05T18:56:32+06:00,
1000000000143741,77771598699,mMTS,mKarTel,mKarTel,,D77,2016-04-05T18:58:27+06:00,
