NPId,Number,RecipientId,DonorId,RangeHolderId,OldRoute,NewRoute,PortDate,RowCount
1000000000178516,77773098188,mMTS,mKarTel,mKarTel,,D77,2016-05-21T14:31:44+06:00,17
1000000000178517,77753990619,mMTS,mKcell,mKcell,,D77,2016-05-21T14:33:53+06:00,
1000000000178520,77018883787,mMTS,mKcell,mKcell,,D77,2016-05-21T14:35:40+06:00,
1000000000178521,77027238049,mMTS,mKcell,mKcell,,D77,2016-05-21T14:36:34+06:00,
1000000000178522,77085793272,mMTS,mAltel,mAltel,,D77,2016-05-21T14:38:01+06:00,
1000000000178523,77714321919,mMTS,mKarTel,mKarTel,,D77,2016-05-21T14:38:35+06:00,
1000000000178525,77005899787,mKcell,mAltel,mAltel,,D02,2016-05-21T14:40:31+06:00,
1000000000178526,77082370780,mKcell,mAltel,mAltel,,D02,2016-05-21T14:41:12+06:00,
1000000000178527,77472202044,mMTS,mAltel,mMTS,D07,D77,2016-05-21T14:41:12+06:00,
1000000000178528,77005512477,mKcell,mAltel,mAltel,,D02,2016-05-21T14:42:03+06:00,
1000000000178529,77021101527,mMTS,mKcell,mKcell,,D77,2016-05-21T14:43:04+06:00,
1000000000178530,77085427752,mKcell,mAltel,mAltel,,D02,2016-05-21T14:44:17+06:00,
1000000000178531,77089694875,mMTS,mAltel,mAltel,,D77,2016-05-21T14:47:40+06:00,
1000000000178532,77001072222,mKarTel,mAltel,mAltel,,D01,2016-05-21T14:49:57+06:00,
1000000000178533,77784374843,mMTS,mKcell,mKcell,,D77,2016-05-21T14:50:11+06:00,
1000000000178534,77021612121,mMTS,mKcell,mKcell,,D77,2016-05-21T14:56:04+06:00,
1000000000178535,77089030609,mMTS,mAltel,mAltel,,D77,2016-05-21T14:57:55+06:00,
