NPId,Number,RecipientId,DonorId,RangeHolderId,OldRoute,NewRoute,PortDate,RowCount
1000000000443053,77012279390,mKcell,mKarTel,mKcell,D01,D02,2017-08-21T13:31:55+06:00,30
1000000000443054,77753020000,mMTS,mKcell,mKcell,D02,D77,2017-08-21T13:31:29+06:00,
1000000000443055,77079824264,mKcell,mMTS,mMTS,,D02,2017-08-21T13:32:23+06:00,
1000000000443057,77763030487,mMTS,mKarTel,mKarTel,,D77,2017-08-21T13:32:56+06:00,
1000000000443058,77029562459,mMTS,mKcell,mKcell,,D77,2017-08-21T13:32:47+06:00,
1000000000443059,77026477125,mKarTel,mKcell,mKcell,,D01,2017-08-21T13:33:08+06:00,
1000000000443060,77787052208,mKarTel,mKcell,mKcell,,D01,2017-08-21T13:35:35+06:00,
1000000000443061,77784640440,mAltel,mKcell,mKcell,,D07,2017-08-21T13:36:54+06:00,
1000000000443063,77785359044,mMTS,mKcell,mKcell,,D77,2017-08-21T13:39:01+06:00,
1000000000443064,77073719671,mAltel,mMTS,mMTS,,D07,2017-08-21T13:39:31+06:00,
1000000000443065,77777131471,mKarTel,mMTS,mKarTel,D77,D01,2017-08-21T13:43:10+06:00,
1000000000443067,77083905568,mKcell,mAltel,mAltel,,D02,2017-08-21T13:43:20+06:00,
1000000000443068,77077114477,mKarTel,mKcell,mMTS,D02,D01,2017-08-21T13:44:06+06:00,
1000000000443069,77004404757,mKcell,mAltel,mAltel,,D02,2017-08-21T13:44:29+06:00,
1000000000443070,77754994822,mMTS,mKcell,mKcell,,D77,2017-08-21T13:45:06+06:00,
1000000000443071,77476305110,mAltel,mMTS,mMTS,,D07,2017-08-21T13:45:57+06:00,
1000000000443072,77071457505,mKarTel,mMTS,mMTS,,D01,2017-08-21T13:46:35+06:00,
1000000000443073,77017743664,mKarTel,mKcell,mKcell,,D01,2017-08-21T13:46:49+06:00,
1000000000443074,77775076712,mMTS,mKarTel,mKarTel,,D77,2017-08-21T13:47:44+06:00,
1000000000443076,77471789579,mKarTel,mMTS,mMTS,D77,D01,2017-08-21T13:48:37+06:00,
1000000000443077,77770684868,mKcell,mKarTel,mKarTel,,D02,2017-08-21T13:50:50+06:00,
1000000000443078,77471111177,mKcell,mAltel,mMTS,D07,D02,2017-08-21T13:50:47+06:00,
1000000000443079,77473868505,mKarTel,mMTS,mMTS,,D01,2017-08-21T13:51:56+06:00,
1000000000443080,77479664313,mAltel,mMTS,mMTS,,D07,2017-08-21T13:53:30+06:00,
1000000000443081,77071446444,mKarTel,mAltel,mMTS,D07,D01,2017-08-21T13:53:53+06:00,
1000000000443082,77777776444,mAltel,mKarTel,mKarTel,D01,D07,2017-08-21T13:54:51+06:00,
1000000000443084,77076493733,mKarTel,mMTS,mMTS,,D01,2017-08-21T13:55:16+06:00,
1000000000443086,77019120979,mMTS,mKarTel,mKcell,D01,D77,2017-08-21T13:58:03+06:00,
1000000000443087,77054287760,mKarTel,mMTS,mKarTel,D77,D01,2017-08-21T13:58:04+06:00,
1000000000443088,77755353857,mAltel,mKcell,mKcell,,D07,2017-08-21T13:58:04+06:00,
