NPId,Number,RecipientId,DonorId,RangeHolderId,OldRoute,NewRoute,PortDate,RowCount
1000000000326415,77781595956,mAltel,mKcell,mKcell,,D07,2017-02-09T14:31:59+06:00,22
1000000000326416,77711008181,mMTS,mKarTel,mKarTel,,D77,2017-02-09T14:32:24+06:00,
1000000000326417,77071301900,mKarTel,mMTS,mMTS,,D01,2017-02-09T14:32:24+06:00,
1000000000326418,77077778812,mKcell,mMTS,mMTS,,D02,2017-02-09T14:33:12+06:00,
1000000000326419,77015328652,mKarTel,mKcell,mKcell,,D01,2017-02-09T14:43:06+06:00,
1000000000326420,77016070969,mKarTel,mKcell,mKcell,,D01,2017-02-09T14:43:12+06:00,
1000000000326422,77772961041,mMTS,mKarTel,mKarTel,,D77,2017-02-09T14:39:43+06:00,
1000000000326424,77777252735,mMTS,mKarTel,mKarTel,,D77,2017-02-09T14:56:56+06:00,
1000000000326425,77022448080,mKcell,mAltel,mKcell,D07,D02,2017-02-09T14:43:54+06:00,
1000000000326427,77076975458,mAltel,mMTS,mMTS,,D07,2017-02-09T14:44:41+06:00,
1000000000326430,77015353339,mMTS,mKcell,mKcell,,D77,2017-02-09T14:47:11+06:00,
1000000000326431,77019993755,mKarTel,mKcell,mKcell,,D01,2017-02-09T14:47:48+06:00,
1000000000326432,77055374999,mAltel,mKarTel,mKarTel,,D07,2017-02-09T14:47:57+06:00,
1000000000326433,77076616166,mKarTel,mKcell,mMTS,D02,D01,2017-02-09T14:49:56+06:00,
1000000000326434,77075895083,mKcell,mMTS,mMTS,,D02,2017-02-09T14:50:12+06:00,
1000000000326435,77012704201,mKcell,mMTS,mKcell,D77,D02,2017-02-09T14:51:09+06:00,
1000000000326436,77015330337,mKarTel,mKcell,mKcell,,D01,2017-02-09T14:52:56+06:00,
1000000000326437,77015205263,mMTS,mKcell,mKcell,,D77,2017-02-09T14:52:51+06:00,
1000000000326438,77785855862,mMTS,mKcell,mKcell,,D77,2017-02-09T14:53:04+06:00,
1000000000326439,77076028790,mKarTel,mMTS,mMTS,,D01,2017-02-09T14:54:05+06:00,
1000000000326440,77779377773,mKcell,mKarTel,mKarTel,,D02,2017-02-09T14:55:27+06:00,
1000000000326442,77762902901,mKcell,mKarTel,mKarTel,,D02,2017-02-09T14:59:35+06:00,
