NPId,Number,RecipientId,DonorId,RangeHolderId,OldRoute,NewRoute,PortDate,RowCount
1000000000176247,77083272129,mMTS,mAltel,mAltel,,D77,2016-05-18T10:01:03+06:00,16
1000000000176248,77011322752,mMTS,mKcell,mKcell,,D77,2016-05-18T10:02:22+06:00,
1000000000176250,77026043455,mMTS,mKcell,mKcell,,D77,2016-05-18T10:02:22+06:00,
1000000000176251,77759253141,mMTS,mKcell,mKcell,,D77,2016-05-18T10:02:23+06:00,
1000000000176252,77054176932,mMTS,mKarTel,mKarTel,,D77,2016-05-18T10:02:31+06:00,
1000000000176254,77021972355,mMTS,mKcell,mKcell,,D77,2016-05-18T10:02:22+06:00,
1000000000176255,77758271137,mKcell,mMTS,mKcell,D77,D02,2016-05-18T10:06:02+06:00,
1000000000176257,77012104751,mKarTel,mKcell,mKcell,,D01,2016-05-18T10:10:08+06:00,
1000000000176258,77774344485,mMTS,mKarTel,mKarTel,,D77,2016-05-18T10:12:22+06:00,
1000000000176259,77055188740,mMTS,mKarTel,mKarTel,,D77,2016-05-18T10:14:06+06:00,
1000000000176260,77012378180,mMTS,mKcell,mKcell,,D77,2016-05-18T10:19:20+06:00,
1000000000176261,77022222331,mKarTel,mKcell,mKcell,,D01,2016-05-18T10:20:14+06:00,
1000000000176269,77082500308,mMTS,mAltel,mAltel,,D77,2016-05-18T10:24:46+06:00,
1000000000176270,77785203557,mAltel,mKcell,mKcell,,D07,2016-05-18T10:25:11+06:00,
1000000000176271,77082025788,mMTS,mAltel,mAltel,,D77,2016-05-18T10:25:54+06:00,
1000000000176275,77017288097,mKarTel,mKcell,mKcell,,D01,2016-05-18T10:29:57+06:00,
