NPId,Number,RecipientId,DonorId,RangeHolderId,OldRoute,NewRoute,PortDate,RowCount
1000000000374333,77071947474,mKcell,mMTS,mMTS,,D02,2017-04-29T11:00:31+06:00,21
1000000000374334,77016336666,mKcell,mMTS,mKcell,D77,D02,2017-04-29T11:04:42+06:00,
1000000000374335,77712537393,mKarTel,mMTS,mKarTel,D77,D01,2017-04-29T11:05:26+06:00,
1000000000374336,77017182407,mKarTel,mKcell,mKcell,,D01,2017-04-29T11:06:02+06:00,
1000000000374337,77079707714,mAltel,mMTS,mMTS,,D07,2017-04-29T11:07:40+06:00,
1000000000374338,77773426016,mMTS,mKarTel,mKarTel,,D77,2017-04-29T11:08:03+06:00,
1000000000374339,77025280707,mKcell,mMTS,mKcell,D77,D02,2017-04-29T11:08:52+06:00,
1000000000374340,77053999292,mAltel,mKarTel,mKarTel,,D07,2017-04-29T11:09:35+06:00,
1000000000374341,77051861339,mMTS,mKarTel,mKarTel,,D77,2017-04-29T11:10:11+06:00,
1000000000374344,77007673285,mKarTel,mAltel,mAltel,,D01,2017-04-29T11:14:16+06:00,
1000000000374345,77012778008,mKcell,mMTS,mKcell,D77,D02,2017-04-29T11:15:12+06:00,
1000000000374347,77023242250,mMTS,mKcell,mKcell,,D77,2017-04-29T11:16:14+06:00,
1000000000374349,77056982558,mAltel,mMTS,mKarTel,D77,D07,2017-04-29T11:17:41+06:00,
1000000000374350,77088088380,mMTS,mAltel,mAltel,,D77,2017-04-29T11:19:39+06:00,
1000000000374351,77019857545,mKarTel,mKcell,mKcell,,D01,2017-04-29T11:20:28+06:00,
1000000000374353,77012048567,mKarTel,mAltel,mKcell,D07,D01,2017-04-29T11:20:48+06:00,
1000000000374354,77023950707,mMTS,mKcell,mKcell,,D77,2017-04-29T11:24:00+06:00,
1000000000374355,77077460119,mKarTel,mMTS,mMTS,,D01,2017-04-29T11:26:21+06:00,
1000000000374356,77016440444,mKcell,mMTS,mKcell,D77,D02,2017-04-29T11:28:00+06:00,
1000000000374357,77710247711,mMTS,mKarTel,mKarTel,,D77,2017-04-29T11:28:08+06:00,
1000000000374358,77772230493,mMTS,mKarTel,mKarTel,,D77,2017-04-29T11:28:13+06:00,
