NPId,Number,RecipientId,DonorId,RangeHolderId,OldRoute,NewRoute,PortDate,RowCount
1000000000259067,77773204750,mMTS,mKarTel,mKarTel,,D77,2016-10-08T14:35:33+06:00,22
1000000000259068,77079876339,mKcell,mMTS,mMTS,,D02,2016-10-08T14:35:04+06:00,
1000000000259069,77017438798,mMTS,mKcell,mKcell,,D77,2016-10-08T14:35:29+06:00,
1000000000259070,77011362697,mAltel,mKcell,mKcell,,D07,2016-10-08T14:35:55+06:00,
1000000000259072,77005378528,mKarTel,mAltel,mAltel,,D01,2016-10-08T14:39:03+06:00,
1000000000259073,77083808186,mKcell,mAltel,mAltel,,D02,2016-10-08T14:38:04+06:00,
1000000000259074,77085550033,mMTS,mAltel,mAltel,,D77,2016-10-08T14:38:02+06:00,
1000000000259075,77712822017,mMTS,mKarTel,mKarTel,,D77,2016-10-08T14:48:01+06:00,
1000000000259076,77021444431,mMTS,mKcell,mKcell,,D77,2016-10-08T14:42:35+06:00,
1000000000259077,77017263323,mKarTel,mKcell,mKcell,,D01,2016-10-08T14:44:24+06:00,
1000000000259078,77077363969,mKcell,mMTS,mMTS,,D02,2016-10-08T14:45:47+06:00,
1000000000259079,77026452225,mKarTel,mKcell,mKcell,,D01,2016-10-08T14:47:57+06:00,
1000000000259080,77018964758,mMTS,mKcell,mKcell,,D77,2016-10-08T14:48:01+06:00,
1000000000259081,77077180967,mKcell,mMTS,mMTS,,D02,2016-10-08T14:48:39+06:00,
1000000000259082,77024997577,mKarTel,mKcell,mKcell,,D01,2016-10-08T14:51:32+06:00,
1000000000259083,77751196749,mAltel,mKcell,mKcell,,D07,2016-10-08T14:52:01+06:00,
1000000000259084,77075555035,mKcell,mMTS,mMTS,,D02,2016-10-08T14:52:05+06:00,
1000000000259087,77018883343,mKcell,mMTS,mKcell,D77,D02,2016-10-08T14:54:11+06:00,
1000000000259088,77026000419,mAltel,mKcell,mKcell,,D07,2016-10-08T14:54:43+06:00,
1000000000259089,77014719422,mAltel,mKcell,mKcell,,D07,2016-10-08T14:55:08+06:00,
1000000000259090,77002621000,mKcell,mMTS,mAltel,D77,D02,2016-10-08T14:55:15+06:00,
1000000000259092,77018883054,mKcell,mMTS,mKcell,D77,D02,2016-10-08T14:56:56+06:00,
