NPId,Number,RecipientId,DonorId,RangeHolderId,OldRoute,NewRoute,PortDate,RowCount
1000000000270295,77055391919,mMTS,mKarTel,mKarTel,,D77,2016-10-30T11:32:21+06:00,8
1000000000270296,77012123810,mKarTel,mKcell,mKcell,,D01,2016-10-30T11:39:55+06:00,
1000000000270297,77762063737,mAltel,mKarTel,mKarTel,,D07,2016-10-30T11:43:12+06:00,
1000000000270298,77079087410,mKcell,mKarTel,mMTS,D01,D02,2016-10-30T11:44:59+06:00,
1000000000270300,77014980611,mMTS,mKcell,mKcell,,D77,2016-10-30T11:45:10+06:00,
1000000000270301,77071201284,mAltel,mMTS,mMTS,,D07,2016-10-30T11:46:23+06:00,
1000000000270303,77477770060,mAltel,mMTS,mMTS,,D07,2016-10-30T11:51:43+06:00,
1000000000270304,77051006595,mAltel,mKarTel,mKarTel,,D07,2016-10-30T11:52:07+06:00,
