NPId,Number,RecipientId,DonorId,RangeHolderId,OldRoute,NewRoute,PortDate,RowCount
1000000000232534,77019223044,mAltel,mKcell,mKcell,,D07,2016-09-01T15:35:19+06:00,36
1000000000238301,77767157070,mMTS,mKarTel,mKarTel,,D77,2016-09-01T15:30:17+06:00,
1000000000238304,77017310610,mKarTel,mKcell,mKcell,,D01,2016-09-01T15:31:12+06:00,
1000000000238304,77017310619,mKarTel,mKcell,mKcell,,D01,2016-09-01T15:31:12+06:00,
1000000000238304,77017310623,mKarTel,mKcell,mKcell,,D01,2016-09-01T15:31:12+06:00,
1000000000238305,77017052408,mKarTel,mKcell,mKcell,,D01,2016-09-01T15:33:09+06:00,
1000000000238306,77017524672,mMTS,mKcell,mKcell,,D77,2016-09-01T15:33:32+06:00,
1000000000238307,77018084433,mKarTel,mKcell,mKcell,,D01,2016-09-01T15:35:10+06:00,
1000000000238308,77072083990,mKarTel,mMTS,mMTS,,D01,2016-09-01T15:37:10+06:00,
1000000000238309,77711567182,mMTS,mKarTel,mKarTel,,D77,2016-09-01T15:40:32+06:00,
1000000000238310,77024435751,mKarTel,mKcell,mKcell,,D01,2016-09-01T15:40:29+06:00,
1000000000238311,77777777050,mKarTel,mKcell,mKarTel,D02,D01,2016-09-01T15:40:30+06:00,
1000000000238312,77771346700,mMTS,mKarTel,mKarTel,,D77,2016-09-01T15:42:25+06:00,
1000000000238313,77014346221,mKcell,mKarTel,mKcell,D01,D02,2016-09-01T15:42:43+06:00,
1000000000238315,77057004333,mMTS,mKarTel,mKarTel,,D77,2016-09-01T15:42:25+06:00,
1000000000238316,77012365052,mKarTel,mKcell,mKcell,,D01,2016-09-01T15:44:34+06:00,
1000000000238321,77019882118,mMTS,mKcell,mKcell,,D77,2016-09-01T15:49:36+06:00,
1000000000238323,77018502707,mKcell,mMTS,mKcell,D77,D02,2016-09-01T15:51:57+06:00,
1000000000238324,77015503811,mKarTel,mKcell,mKcell,,D01,2016-09-01T15:52:38+06:00,
1000000000238325,77010990595,mMTS,mKcell,mKcell,,D77,2016-09-01T15:52:21+06:00,
1000000000238327,77027020963,mMTS,mKcell,mKcell,,D77,2016-09-01T15:52:21+06:00,
1000000000238328,77716650593,mMTS,mKarTel,mKarTel,,D77,2016-09-01T15:55:01+06:00,
1000000000238329,77001022552,mKcell,mAltel,mAltel,,D02,2016-09-01T15:53:43+06:00,
1000000000238330,77054257777,mKarTel,mMTS,mKarTel,D77,D01,2016-09-01T15:54:11+06:00,
1000000000238331,77776947262,mMTS,mKarTel,mKarTel,,D77,2016-09-01T15:55:51+06:00,
1000000000238334,77752988832,mKarTel,mKcell,mKcell,,D01,2016-09-01T15:55:50+06:00,
1000000000238335,77776788787,mAltel,mMTS,mKarTel,D77,D07,2016-09-01T15:55:17+06:00,
1000000000238336,77054833323,mKcell,mKarTel,mKarTel,,D02,2016-09-01T15:57:52+06:00,
1000000000238337,77086327354,mAltel,mKcell,mAltel,D02,D07,2016-09-01T15:55:55+06:00,
1000000000238338,77019484876,mKarTel,mKcell,mKcell,,D01,2016-09-01T15:56:47+06:00,
1000000000238339,77774208870,mKarTel,mMTS,mKarTel,D77,D01,2016-09-01T15:56:47+06:00,
1000000000238342,77750289198,mAltel,mKcell,mKcell,,D07,2016-09-01T15:56:47+06:00,
1000000000238343,77014862351,mMTS,mKcell,mKcell,,D77,2016-09-01T15:59:11+06:00,
1000000000238344,77784593232,mAltel,mKcell,mKcell,,D07,2016-09-01T15:59:10+06:00,
1000000000238346,77051457245,mMTS,mKarTel,mKarTel,,D77,2016-09-01T15:59:04+06:00,
1000000000238347,77017645464,mAltel,mKcell,mKcell,,D07,2016-09-01T15:58:48+06:00,
