NPId,Number,RecipientId,DonorId,RangeHolderId,OldRoute,NewRoute,PortDate,RowCount
1000000000233864,77022560448,mKarTel,mKcell,mKcell,,D01,2016-08-25T12:00:36+06:00,22
1000000000233866,77017118183,mKarTel,mKcell,mKcell,,D01,2016-08-25T12:02:09+06:00,
1000000000233867,77053135511,mKarTel,mMTS,mKarTel,D77,D01,2016-08-25T12:02:40+06:00,
1000000000233868,77071031904,mKcell,mMTS,mMTS,,D02,2016-08-25T12:03:24+06:00,
1000000000233870,77082818686,mMTS,mAltel,mAltel,,D77,2016-08-25T12:03:53+06:00,
1000000000233871,77772609696,mKcell,mKarTel,mKarTel,,D02,2016-08-25T12:07:04+06:00,
1000000000233872,77761770807,mKcell,mKarTel,mKarTel,,D02,2016-08-25T12:08:41+06:00,
1000000000233873,77017710743,mKarTel,mKcell,mKcell,,D01,2016-08-25T12:12:32+06:00,
1000000000233874,77779591919,mMTS,mAltel,mKarTel,D07,D77,2016-08-25T12:11:59+06:00,
1000000000233876,77014140333,mMTS,mAltel,mKcell,D07,D77,2016-08-25T12:12:59+06:00,
1000000000233877,77011116888,mKarTel,mKcell,mKcell,,D01,2016-08-25T12:14:20+06:00,
1000000000233878,77015368601,mKarTel,mKcell,mKcell,,D01,2016-08-25T12:17:10+06:00,
1000000000233879,77089102602,mMTS,mAltel,mAltel,,D77,2016-08-25T12:17:19+06:00,
1000000000233880,77754119745,mKcell,mMTS,mKcell,D77,D02,2016-08-25T12:18:05+06:00,
1000000000233881,77776545749,mKcell,mKarTel,mKarTel,,D02,2016-08-25T12:19:35+06:00,
1000000000233882,77027023016,mKarTel,mKcell,mKcell,,D01,2016-08-25T12:20:37+06:00,
1000000000233883,77758444144,mMTS,mKcell,mKcell,,D77,2016-08-25T12:20:23+06:00,
1000000000233884,77022950001,mAltel,mMTS,mKcell,D77,D07,2016-08-25T12:24:10+06:00,
1000000000233886,77024051006,mKarTel,mKcell,mKcell,,D01,2016-08-25T12:26:45+06:00,
1000000000233887,77474548844,mKcell,mMTS,mMTS,,D02,2016-08-25T12:29:05+06:00,
1000000000233888,77774711115,mMTS,mKarTel,mKarTel,,D77,2016-08-25T12:28:03+06:00,
1000000000233891,77024051106,mKarTel,mMTS,mKcell,D77,D01,2016-08-25T12:29:45+06:00,
