NPId,Number,RecipientId,DonorId,RangeHolderId,OldRoute,NewRoute,PortDate,RowCount
1000000000260542,77479008009,mKarTel,mMTS,mMTS,,D01,2016-10-11T14:30:42+06:00,44
1000000000260543,77079008009,mKarTel,mMTS,mMTS,,D01,2016-10-11T14:30:42+06:00,
1000000000260546,77000899089,mKcell,mAltel,mAltel,,D02,2016-10-11T14:30:12+06:00,
1000000000260547,77026405501,mMTS,mKcell,mKcell,,D77,2016-10-11T14:30:15+06:00,
1000000000260548,77714002641,mAltel,mKarTel,mKarTel,,D07,2016-10-11T14:36:10+06:00,
1000000000260549,77055000350,mKarTel,mMTS,mKarTel,D77,D01,2016-10-11T14:32:28+06:00,
1000000000260551,77002704450,mKarTel,mAltel,mAltel,,D01,2016-10-11T14:34:20+06:00,
1000000000260552,77013754473,mKarTel,mKcell,mKcell,,D01,2016-10-11T14:34:20+06:00,
1000000000260553,77009991314,mKarTel,mAltel,mAltel,,D01,2016-10-11T14:34:19+06:00,
1000000000260554,77000717133,mAltel,mMTS,mAltel,D77,D07,2016-10-11T14:34:16+06:00,
1000000000260555,77714002642,mAltel,mKarTel,mKarTel,,D07,2016-10-11T14:39:43+06:00,
1000000000260556,77054005993,mKcell,mKarTel,mKarTel,,D02,2016-10-11T14:39:53+06:00,
1000000000260559,77015552970,mAltel,mKcell,mKcell,,D07,2016-10-11T14:36:10+06:00,
1000000000260560,77003704450,mKarTel,mAltel,mAltel,,D01,2016-10-11T14:37:54+06:00,
1000000000260561,77754233031,mAltel,mKcell,mKcell,,D07,2016-10-11T14:37:11+06:00,
1000000000260562,77000955095,mKcell,mAltel,mAltel,,D02,2016-10-11T14:39:31+06:00,
1000000000260564,77002922292,mKarTel,mKcell,mAltel,D02,D01,2016-10-11T14:41:30+06:00,
1000000000260565,77077753817,mKcell,mMTS,mMTS,,D02,2016-10-11T14:39:59+06:00,
1000000000260566,77026906593,mMTS,mKcell,mKcell,,D77,2016-10-11T14:40:57+06:00,
1000000000260568,77718883474,mKcell,mKarTel,mKarTel,,D02,2016-10-11T14:46:57+06:00,
1000000000260569,77000938393,mKcell,mAltel,mAltel,,D02,2016-10-11T14:41:52+06:00,
1000000000260570,77002220005,mMTS,mAltel,mAltel,,D77,2016-10-11T14:42:30+06:00,
1000000000260571,77756003043,mMTS,mKcell,mKcell,,D77,2016-10-11T14:43:00+06:00,
1000000000260572,77783514484,mKarTel,mMTS,mKcell,D77,D01,2016-10-11T14:45:02+06:00,
1000000000260573,77006000621,mKcell,mAltel,mAltel,,D02,2016-10-11T14:43:50+06:00,
1000000000260574,77029346650,mMTS,mKcell,mKcell,,D77,2016-10-11T14:44:23+06:00,
1000000000260575,77000978797,mKcell,mAltel,mAltel,,D02,2016-10-11T14:44:59+06:00,
1000000000260576,77058827585,mMTS,mKarTel,mKarTel,,D77,2016-10-11T14:48:44+06:00,
1000000000260577,77025077797,mKcell,mKarTel,mKcell,D01,D02,2016-10-11T14:49:02+06:00,
1000000000260578,77076988188,mAltel,mMTS,mMTS,,D07,2016-10-11T14:46:15+06:00,
1000000000260580,77071979059,mAltel,mMTS,mMTS,,D07,2016-10-11T14:47:03+06:00,
1000000000260581,77773824717,mMTS,mKarTel,mKarTel,,D77,2016-10-11T14:52:27+06:00,
1000000000260582,77000976797,mKcell,mAltel,mAltel,,D02,2016-10-11T14:47:46+06:00,
1000000000260583,77770366501,mMTS,mKarTel,mKarTel,,D77,2016-10-11T14:52:31+06:00,
1000000000260585,77081043204,mKcell,mAltel,mAltel,,D02,2016-10-11T14:50:18+06:00,
1000000000260587,77056389937,mKarTel,mKcell,mKarTel,D02,D01,2016-10-11T14:52:29+06:00,
1000000000260588,77777414243,mAltel,mKarTel,mKarTel,,D07,2016-10-11T14:56:09+06:00,
1000000000260589,77710320017,mMTS,mKarTel,mKarTel,,D77,2016-10-11T14:56:09+06:00,
1000000000260590,77072099299,mKarTel,mMTS,mMTS,,D01,2016-10-11T14:54:21+06:00,
1000000000260592,77056342120,mMTS,mKarTel,mKarTel,,D77,2016-10-11T14:57:58+06:00,
1000000000260593,77753343922,mMTS,mKcell,mKcell,,D77,2016-10-11T14:53:21+06:00,
1000000000260595,77758208497,mMTS,mKcell,mKcell,,D77,2016-10-11T14:54:37+06:00,
1000000000260596,77777562616,mAltel,mKarTel,mKarTel,,D07,2016-10-11T14:59:48+06:00,
1000000000260598,77000868696,mKcell,mAltel,mAltel,,D02,2016-10-11T14:59:54+06:00,
