NPId,Number,RecipientId,DonorId,RangeHolderId,OldRoute,NewRoute,PortDate,RowCount
1000000000374913,77788730655,mMTS,mKcell,mKcell,,D77,2017-04-30T09:38:01+06:00,8
1000000000374914,77717569999,mKarTel,mMTS,mKarTel,D77,D01,2017-04-30T09:43:52+06:00,
1000000000374914,77717795654,mKarTel,mMTS,mKarTel,D77,D01,2017-04-30T09:43:52+06:00,
1000000000374914,77717795655,mKarTel,mMTS,mKarTel,D77,D01,2017-04-30T09:43:52+06:00,
1000000000374914,77717795670,mKarTel,mMTS,mKarTel,D77,D01,2017-04-30T09:43:52+06:00,
1000000000374914,77718009093,mKarTel,mMTS,mKarTel,D77,D01,2017-04-30T09:43:52+06:00,
1000000000374915,77471858785,mKarTel,mMTS,mMTS,,D01,2017-04-30T09:54:39+06:00,
1000000000374916,77719930848,mKarTel,mMTS,mKarTel,D77,D01,2017-04-30T09:58:39+06:00,
