NPId,Number,RecipientId,DonorId,RangeHolderId,OldRoute,NewRoute,PortDate,RowCount
1000000000254680,77075150551,mKcell,mMTS,mMTS,,D02,2016-10-01T13:00:29+06:00,35
1000000000254683,77019142676,mKarTel,mKcell,mKcell,,D01,2016-10-01T13:00:31+06:00,
1000000000254684,77079508887,mMTS,mKarTel,mMTS,D01,D77,2016-10-01T13:01:22+06:00,
1000000000254685,77017389990,mAltel,mKcell,mKcell,,D07,2016-10-01T13:01:59+06:00,
1000000000254686,77029994576,mMTS,mKcell,mKcell,,D77,2016-10-01T13:02:03+06:00,
1000000000254687,77760048812,mKcell,mKarTel,mKarTel,,D02,2016-10-01T13:05:34+06:00,
1000000000254688,77754360346,mMTS,mKcell,mKcell,,D77,2016-10-01T13:02:40+06:00,
1000000000254689,77018001155,mKcell,mAltel,mKcell,D07,D02,2016-10-01T13:05:55+06:00,
1000000000254690,77772686931,mMTS,mKarTel,mKarTel,,D77,2016-10-01T13:05:56+06:00,
1000000000254691,77071103508,mMTS,mKcell,mMTS,D02,D77,2016-10-01T13:05:43+06:00,
1000000000254692,77015336259,mKarTel,mKcell,mKcell,,D01,2016-10-01T13:07:00+06:00,
1000000000254693,77477600600,mKarTel,mMTS,mMTS,,D01,2016-10-01T13:07:36+06:00,
1000000000254694,77754743747,mKcell,mMTS,mKcell,D77,D02,2016-10-01T13:07:35+06:00,
1000000000254695,77003445796,mMTS,mAltel,mAltel,,D77,2016-10-01T13:07:40+06:00,
1000000000254696,77771475533,mMTS,mKarTel,mKarTel,,D77,2016-10-01T13:08:33+06:00,
1000000000254697,77777011554,mKcell,mKarTel,mKarTel,,D02,2016-10-01T13:08:58+06:00,
1000000000254699,77769559959,mMTS,mKarTel,mKarTel,,D77,2016-10-01T13:09:15+06:00,
1000000000254700,77074040900,mKarTel,mMTS,mMTS,,D01,2016-10-01T13:09:01+06:00,
1000000000254701,77760058812,mKcell,mKarTel,mKarTel,,D02,2016-10-01T13:10:04+06:00,
1000000000254702,77027778390,mKarTel,mKcell,mKcell,,D01,2016-10-01T13:10:19+06:00,
1000000000254704,77773012299,mMTS,mKarTel,mKarTel,,D77,2016-10-01T13:13:16+06:00,
1000000000254705,77017639056,mMTS,mKcell,mKcell,,D77,2016-10-01T13:12:44+06:00,
1000000000254709,77023154759,mMTS,mKarTel,mKcell,D01,D77,2016-10-01T13:15:09+06:00,
1000000000254710,77003574020,mMTS,mAltel,mAltel,,D77,2016-10-01T13:14:51+06:00,
1000000000254711,77770080011,mMTS,mKarTel,mKarTel,,D77,2016-10-01T13:15:47+06:00,
1000000000254712,77089501637,mMTS,mKarTel,mAltel,D01,D77,2016-10-01T13:19:00+06:00,
1000000000254713,77752201716,mKarTel,mKcell,mKcell,,D01,2016-10-01T13:18:45+06:00,
1000000000254715,77478441067,mKarTel,mMTS,mMTS,,D01,2016-10-01T13:19:35+06:00,
1000000000254716,77779999424,mAltel,mKarTel,mKarTel,,D07,2016-10-01T13:21:19+06:00,
1000000000254719,77714191444,mKcell,mKarTel,mKarTel,,D02,2016-10-01T13:22:08+06:00,
1000000000254720,77017307027,mKarTel,mKcell,mKcell,,D01,2016-10-01T13:21:56+06:00,
1000000000254721,77010157770,mKarTel,mKcell,mKcell,,D01,2016-10-01T13:23:24+06:00,
1000000000254723,77056232732,mMTS,mKarTel,mKarTel,,D77,2016-10-01T13:25:18+06:00,
1000000000254725,77472295687,mMTS,mKarTel,mMTS,D01,D77,2016-10-01T13:26:20+06:00,
1000000000254728,77762117117,mMTS,mKarTel,mKarTel,,D77,2016-10-01T13:29:48+06:00,
