NPId,Number,RecipientId,DonorId,RangeHolderId,OldRoute,NewRoute,PortDate,RowCount
1000000000198927,77474925568,mKcell,mMTS,mMTS,,D02,2016-06-25T09:29:55+06:00,2
1000000000199485,77761142600,mKcell,mKarTel,mKarTel,,D02,2016-06-25T09:25:08+06:00,
