NPId,Number,RecipientId,DonorId,RangeHolderId,OldRoute,NewRoute,PortDate,RowCount
1000000000448318,77056788888,mKcell,mKarTel,mKarTel,D01,D02,2017-08-29T20:03:58+06:00,5
1000000000448319,77077557054,mKarTel,mMTS,mMTS,,D01,2017-08-29T20:11:24+06:00,
1000000000448320,77017615539,mKcell,mAltel,mKcell,D07,D02,2017-08-29T20:17:55+06:00,
1000000000448322,77075559920,mMTS,mKcell,mMTS,D02,D77,2017-08-29T20:23:58+06:00,
1000000000448323,77015368156,mKarTel,mKcell,mKcell,,D01,2017-08-29T20:25:52+06:00,
