NPId,Number,RecipientId,DonorId,RangeHolderId,OldRoute,NewRoute,PortDate,RowCount
1000000000183446,77019223895,mKarTel,mKcell,mKcell,,D01,2016-05-30T11:21:01+06:00,27
1000000000183460,77051140886,mMTS,mKarTel,mKarTel,,D77,2016-05-30T11:00:22+06:00,
1000000000183462,77012120076,mMTS,mAltel,mKcell,D07,D77,2016-05-30T11:01:08+06:00,
1000000000183463,77774740002,mAltel,mKarTel,mKarTel,,D07,2016-05-30T11:02:21+06:00,
1000000000183464,77015113938,mKarTel,mKcell,mKcell,,D01,2016-05-30T11:05:01+06:00,
1000000000183465,77786080858,mKarTel,mKcell,mKcell,,D01,2016-05-30T11:03:26+06:00,
1000000000183466,77083313332,mMTS,mAltel,mAltel,,D77,2016-05-30T11:07:09+06:00,
1000000000183467,77753734988,mMTS,mKarTel,mKcell,D01,D77,2016-05-30T11:10:06+06:00,
1000000000183468,77075357007,mKarTel,mAltel,mMTS,D07,D01,2016-05-30T11:10:06+06:00,
1000000000183469,77017999499,mKarTel,mKcell,mKcell,,D01,2016-05-30T11:16:39+06:00,
1000000000183470,77089116641,mMTS,mAltel,mAltel,,D77,2016-05-30T11:13:10+06:00,
1000000000183471,77774292233,mMTS,mKcell,mKarTel,D02,D77,2016-05-30T11:16:21+06:00,
1000000000183472,77017523487,mKcell,mMTS,mKcell,D77,D02,2016-05-30T11:16:58+06:00,
1000000000183473,77017193118,mKarTel,mKcell,mKcell,,D01,2016-05-30T11:17:29+06:00,
1000000000183474,77471234500,mAltel,mMTS,mMTS,,D07,2016-05-30T11:17:10+06:00,
1000000000183475,77711144808,mKcell,mKarTel,mKarTel,,D02,2016-05-30T11:17:55+06:00,
1000000000183476,77473490929,mKarTel,mMTS,mMTS,,D01,2016-05-30T11:17:53+06:00,
1000000000183477,77070402153,mKarTel,mMTS,mMTS,,D01,2016-05-30T11:20:18+06:00,
1000000000183477,77077402152,mKarTel,mMTS,mMTS,,D01,2016-05-30T11:20:18+06:00,
1000000000183478,77080403175,mMTS,mAltel,mAltel,,D77,2016-05-30T11:21:42+06:00,
1000000000183479,77715748610,mMTS,mKarTel,mKarTel,,D77,2016-05-30T11:22:27+06:00,
1000000000183481,77088580200,mMTS,mAltel,mAltel,,D77,2016-05-30T11:22:09+06:00,
1000000000183482,77774464643,mMTS,mKarTel,mKarTel,,D77,2016-05-30T11:22:57+06:00,
1000000000183483,77085221399,mMTS,mAltel,mAltel,,D77,2016-05-30T11:24:56+06:00,
1000000000183484,77019121038,mKcell,mAltel,mKcell,D07,D02,2016-05-30T11:28:12+06:00,
1000000000183485,77019527586,mMTS,mKcell,mKcell,,D77,2016-05-30T11:28:58+06:00,
1000000000183488,77058351291,mMTS,mKarTel,mKarTel,,D77,2016-05-30T11:29:41+06:00,
