NPId,Number,RecipientId,DonorId,RangeHolderId,OldRoute,NewRoute,PortDate,RowCount
1000000000124014,77714017310,mAltel,mKarTel,mKarTel,,D07,2016-03-13T15:30:00+06:00,21
1000000000124015,77053083827,mMTS,mKarTel,mKarTel,,D77,2016-03-13T15:30:24+06:00,
1000000000124016,77775636373,mKarTel,mMTS,mKarTel,D77,D01,2016-03-13T15:31:36+06:00,
1000000000124018,77071116907,mKcell,mMTS,mMTS,,D02,2016-03-13T15:33:51+06:00,
1000000000124020,77772645624,mMTS,mKarTel,mKarTel,,D77,2016-03-13T15:35:03+06:00,
1000000000124021,77014737632,mAltel,mMTS,mKcell,D77,D07,2016-03-13T15:35:26+06:00,
1000000000124025,77055812674,mMTS,mKarTel,mKarTel,,D77,2016-03-13T15:38:21+06:00,
1000000000124026,77055020240,mMTS,mKarTel,mKarTel,,D77,2016-03-13T15:40:59+06:00,
1000000000124027,77755815059,mMTS,mKcell,mKcell,,D77,2016-03-13T15:41:12+06:00,
1000000000124028,77767763646,mKarTel,mKcell,mKarTel,D02,D01,2016-03-13T15:42:13+06:00,
1000000000124029,77016880017,mMTS,mKcell,mKcell,,D77,2016-03-13T15:42:10+06:00,
1000000000124032,77016140554,mMTS,mKcell,mKcell,,D77,2016-03-13T15:47:02+06:00,
1000000000124034,77712759540,mAltel,mKarTel,mKarTel,,D07,2016-03-13T15:48:43+06:00,
1000000000124035,77782220202,mMTS,mKcell,mKcell,,D77,2016-03-13T15:49:49+06:00,
1000000000124036,77759785757,mKarTel,mKcell,mKcell,,D01,2016-03-13T15:51:03+06:00,
1000000000124038,77081341661,mMTS,mAltel,mAltel,,D77,2016-03-13T15:51:09+06:00,
1000000000124039,77758141945,mMTS,mKcell,mKcell,,D77,2016-03-13T15:53:02+06:00,
1000000000124041,77054742666,mAltel,mKarTel,mKarTel,,D07,2016-03-13T15:56:28+06:00,
1000000000124043,77079792888,mMTS,mKcell,mMTS,D02,D77,2016-03-13T15:56:18+06:00,
1000000000124045,77017227559,mMTS,mKcell,mKcell,,D77,2016-03-13T15:57:03+06:00,
1000000000124046,77023580841,mMTS,mKcell,mKcell,,D77,2016-03-13T15:58:02+06:00,
