NPId,Number,RecipientId,DonorId,RangeHolderId,OldRoute,NewRoute,PortDate,RowCount
1000000000190253,77011630006,mMTS,mKcell,mKcell,,D77,2016-06-08T19:03:52+06:00,9
1000000000190254,77081818989,mMTS,mAltel,mAltel,,D77,2016-06-08T19:04:20+06:00,
1000000000190255,77078843354,mKcell,mMTS,mMTS,,D02,2016-06-08T19:08:24+06:00,
1000000000190256,77004433669,mKarTel,mMTS,mAltel,D77,D01,2016-06-08T19:10:22+06:00,
1000000000190257,77003668743,mMTS,mAltel,mAltel,,D77,2016-06-08T19:10:41+06:00,
1000000000190258,77089495908,mMTS,mAltel,mAltel,,D77,2016-06-08T19:14:21+06:00,
1000000000190259,77077444425,mKarTel,mMTS,mMTS,,D01,2016-06-08T19:18:09+06:00,
1000000000190260,77025493191,mMTS,mKcell,mKcell,,D77,2016-06-08T19:18:41+06:00,
1000000000190262,77475550013,mKcell,mMTS,mMTS,,D02,2016-06-08T19:23:32+06:00,
