NPId,Number,RecipientId,DonorId,RangeHolderId,OldRoute,NewRoute,PortDate,RowCount
1000000000425126,77777791477,mKarTel,mKcell,mKarTel,D02,D01,2017-07-20T14:19:38+06:00,19
1000000000425219,77029998660,mKcell,mKarTel,mKcell,D01,D02,2017-07-20T14:00:23+06:00,
1000000000425220,77018880011,mKcell,mAltel,mKcell,D07,D02,2017-07-20T14:00:48+06:00,
1000000000425221,77019996701,mKcell,mAltel,mKcell,D07,D02,2017-07-20T14:02:33+06:00,
1000000000425222,77011315400,mKcell,mKarTel,mKcell,D01,D02,2017-07-20T14:04:30+06:00,
1000000000425223,77019996702,mKcell,mAltel,mKcell,D07,D02,2017-07-20T14:04:30+06:00,
1000000000425224,77052575999,mKarTel,mKcell,mKarTel,D02,D01,2017-07-20T14:04:48+06:00,
1000000000425227,77019172022,mAltel,mKcell,mKcell,,D07,2017-07-20T14:05:11+06:00,
1000000000425229,77077557774,mKarTel,mMTS,mMTS,,D01,2017-07-20T14:08:57+06:00,
1000000000425231,77784736669,mAltel,mKcell,mKcell,,D07,2017-07-20T14:11:02+06:00,
1000000000425233,77719935575,mKcell,mMTS,mKarTel,D77,D02,2017-07-20T14:13:56+06:00,
1000000000425234,77078919554,mKcell,mMTS,mMTS,,D02,2017-07-20T14:15:56+06:00,
1000000000425235,77026030005,mKcell,mAltel,mKcell,D07,D02,2017-07-20T14:17:56+06:00,
1000000000425236,77077454748,mKcell,mMTS,mMTS,,D02,2017-07-20T14:20:14+06:00,
1000000000425237,77767588857,mKarTel,mMTS,mKarTel,D77,D01,2017-07-20T14:22:27+06:00,
1000000000425238,77715111551,mKarTel,mMTS,mKarTel,D77,D01,2017-07-20T14:22:33+06:00,
1000000000425239,77071058666,mKcell,mMTS,mMTS,,D02,2017-07-20T14:24:43+06:00,
1000000000425242,77780000451,mKarTel,mKcell,mKcell,,D01,2017-07-20T14:27:22+06:00,
1000000000425243,77021818102,mKarTel,mKcell,mKcell,,D01,2017-07-20T14:28:58+06:00,
