NPId,Number,RecipientId,DonorId,RangeHolderId,OldRoute,NewRoute,PortDate,RowCount
1000000000430971,77011082233,mKcell,mKarTel,mKcell,D01,D02,2017-07-31T12:43:54+06:00,31
1000000000431095,77766757777,mMTS,mAltel,mKarTel,D07,D77,2017-07-31T12:31:33+06:00,
1000000000431096,77754973656,mMTS,mKcell,mKcell,,D77,2017-07-31T12:32:19+06:00,
1000000000431097,77017174147,mKarTel,mKcell,mKcell,,D01,2017-07-31T12:33:17+06:00,
1000000000431099,77001334165,mKarTel,mAltel,mAltel,,D01,2017-07-31T12:33:59+06:00,
1000000000431100,77014519196,mAltel,mKcell,mKcell,,D07,2017-07-31T12:34:58+06:00,
1000000000431101,77015217035,mKarTel,mKcell,mKcell,,D01,2017-07-31T12:35:40+06:00,
1000000000431102,77072904818,mKarTel,mMTS,mMTS,,D01,2017-07-31T12:36:30+06:00,
1000000000431103,77073338354,mMTS,mKcell,mMTS,D02,D77,2017-07-31T12:37:13+06:00,
1000000000431104,77019995821,mAltel,mKcell,mKcell,,D07,2017-07-31T12:37:16+06:00,
1000000000431105,77756602852,mMTS,mKcell,mKcell,,D77,2017-07-31T12:37:18+06:00,
1000000000431107,77073066050,mAltel,mMTS,mMTS,,D07,2017-07-31T12:37:52+06:00,
1000000000431108,77017493425,mKarTel,mKcell,mKcell,,D01,2017-07-31T12:38:47+06:00,
1000000000431109,77475139101,mMTS,mAltel,mMTS,D07,D77,2017-07-31T12:40:19+06:00,
1000000000431110,77005570651,mAltel,mKcell,mAltel,D02,D07,2017-07-31T12:40:36+06:00,
1000000000431112,77019995820,mAltel,mKcell,mKcell,,D07,2017-07-31T12:40:48+06:00,
1000000000431114,77771026982,mMTS,mKarTel,mKarTel,,D77,2017-07-31T12:43:08+06:00,
1000000000431115,77071685490,mAltel,mMTS,mMTS,,D07,2017-07-31T12:43:42+06:00,
1000000000431118,77479491688,mAltel,mMTS,mMTS,,D07,2017-07-31T12:45:30+06:00,
1000000000431120,77772424602,mMTS,mKarTel,mKarTel,,D77,2017-07-31T12:46:18+06:00,
1000000000431122,77711082845,mMTS,mKarTel,mKarTel,,D77,2017-07-31T12:47:03+06:00,
1000000000431123,77017761974,mKarTel,mMTS,mKcell,D77,D01,2017-07-31T12:47:30+06:00,
1000000000431128,77770500000,mKarTel,mKcell,mKarTel,D02,D01,2017-07-31T12:49:47+06:00,
1000000000431130,77086617090,mMTS,mAltel,mAltel,,D77,2017-07-31T12:50:39+06:00,
1000000000431132,77024952446,mKarTel,mKcell,mKcell,,D01,2017-07-31T12:52:55+06:00,
1000000000431133,77471320422,mKarTel,mMTS,mMTS,,D01,2017-07-31T12:54:37+06:00,
1000000000431135,77757815504,mKarTel,mKcell,mKcell,,D01,2017-07-31T12:56:32+06:00,
1000000000431136,77762244886,mMTS,mKarTel,mKarTel,,D77,2017-07-31T12:57:26+06:00,
1000000000431137,77001881070,mKarTel,mAltel,mAltel,,D01,2017-07-31T12:57:29+06:00,
1000000000431138,77770500050,mKarTel,mKcell,mKarTel,D02,D01,2017-07-31T12:59:27+06:00,
1000000000431140,77017397353,mKcell,mAltel,mKcell,D07,D02,2017-07-31T12:59:31+06:00,
