NPId,Number,RecipientId,DonorId,RangeHolderId,OldRoute,NewRoute,PortDate,RowCount
1000000000311680,77071111140,mKcell,mMTS,mMTS,,D02,2017-01-16T19:30:14+06:00,29
1000000000311681,77052021306,mKarTel,mMTS,mKarTel,D77,D01,2017-01-16T19:31:50+06:00,
1000000000311683,77078830323,mAltel,mMTS,mMTS,,D07,2017-01-16T19:33:46+06:00,
1000000000311684,77761116991,mKcell,mKarTel,mKarTel,,D02,2017-01-16T19:34:53+06:00,
1000000000311685,77760965353,mKcell,mKarTel,mKarTel,,D02,2017-01-16T19:36:27+06:00,
1000000000311686,77019186904,mKarTel,mKcell,mKcell,,D01,2017-01-16T19:39:22+06:00,
1000000000311687,77052021311,mKarTel,mMTS,mKarTel,D77,D01,2017-01-16T19:37:32+06:00,
1000000000311688,77052021329,mKarTel,mMTS,mKarTel,D77,D01,2017-01-16T19:39:42+06:00,
1000000000311689,77719033333,mKcell,mKarTel,mKarTel,,D02,2017-01-16T19:41:03+06:00,
1000000000311690,77027953955,mMTS,mKarTel,mKcell,D01,D77,2017-01-16T19:41:08+06:00,
1000000000311691,77027662992,mAltel,mKcell,mKcell,,D07,2017-01-16T19:42:37+06:00,
1000000000311692,77052021314,mKarTel,mMTS,mKarTel,D77,D01,2017-01-16T19:43:10+06:00,
1000000000311693,77076501089,mKarTel,mMTS,mMTS,,D01,2017-01-16T19:44:11+06:00,
1000000000311694,77771599599,mMTS,mKarTel,mKarTel,,D77,2017-01-16T19:45:18+06:00,
1000000000311695,77760965454,mKcell,mKarTel,mKarTel,,D02,2017-01-16T19:45:28+06:00,
1000000000311696,77014112791,mAltel,mKcell,mKcell,,D07,2017-01-16T19:47:30+06:00,
1000000000311697,77001000538,mKcell,mAltel,mAltel,,D02,2017-01-16T19:48:02+06:00,
1000000000311698,77014049545,mMTS,mKcell,mKcell,,D77,2017-01-16T19:49:52+06:00,
1000000000311700,77001000267,mKcell,mAltel,mAltel,,D02,2017-01-16T19:51:56+06:00,
1000000000311701,77001000529,mKcell,mAltel,mAltel,,D02,2017-01-16T19:53:09+06:00,
1000000000311703,77001000957,mKcell,mAltel,mAltel,,D02,2017-01-16T19:53:10+06:00,
1000000000311704,77001000346,mKcell,mAltel,mAltel,,D02,2017-01-16T19:53:10+06:00,
1000000000311705,77001000675,mKcell,mAltel,mAltel,,D02,2017-01-16T19:53:56+06:00,
1000000000311706,77001000537,mKcell,mAltel,mAltel,,D02,2017-01-16T19:54:14+06:00,
1000000000311707,77001000867,mKcell,mAltel,mAltel,,D02,2017-01-16T19:56:16+06:00,
1000000000311708,77021430377,mKarTel,mMTS,mKcell,D77,D01,2017-01-16T19:58:05+06:00,
1000000000311709,77001000827,mKcell,mAltel,mAltel,,D02,2017-01-16T19:58:42+06:00,
1000000000311710,77001000958,mKcell,mAltel,mAltel,,D02,2017-01-16T19:59:41+06:00,
1000000000311711,77001000467,mKcell,mAltel,mAltel,,D02,2017-01-16T19:59:41+06:00,
