NPId,Number,RecipientId,DonorId,RangeHolderId,OldRoute,NewRoute,PortDate,RowCount
1000000000365009,77000990906,mAltel,mKcell,mAltel,D02,D07,2017-04-12T18:31:21+06:00,18
1000000000365010,77781137918,mKarTel,mAltel,mKcell,D07,D01,2017-04-12T18:34:04+06:00,
1000000000365011,77018684017,mMTS,mKcell,mKcell,,D77,2017-04-12T18:37:55+06:00,
1000000000365013,77754464445,mKarTel,mKcell,mKcell,,D01,2017-04-12T18:40:50+06:00,
1000000000365014,77752720500,mMTS,mKcell,mKcell,,D77,2017-04-12T18:41:14+06:00,
1000000000365015,77003003639,mKcell,mAltel,mAltel,,D02,2017-04-12T18:44:02+06:00,
1000000000365018,77005005659,mKcell,mAltel,mAltel,,D02,2017-04-12T18:45:55+06:00,
1000000000365020,77016775522,mMTS,mKcell,mKcell,,D77,2017-04-12T18:47:54+06:00,
1000000000365022,77479006000,mAltel,mMTS,mMTS,,D07,2017-04-12T18:48:51+06:00,
1000000000365024,77077444671,mKcell,mMTS,mMTS,,D02,2017-04-12T18:49:10+06:00,
1000000000365025,77012506446,mMTS,mKcell,mKcell,,D77,2017-04-12T18:49:42+06:00,
1000000000365028,77002002725,mKcell,mAltel,mAltel,,D02,2017-04-12T18:53:20+06:00,
1000000000365029,77011688300,mKcell,mAltel,mKcell,D07,D02,2017-04-12T18:55:11+06:00,
1000000000365031,77769949449,mAltel,mKarTel,mKarTel,,D07,2017-04-12T18:56:15+06:00,
1000000000365032,77763993339,mAltel,mKarTel,mKarTel,,D07,2017-04-12T18:57:15+06:00,
1000000000365033,77077730355,mAltel,mMTS,mMTS,,D07,2017-04-12T18:57:31+06:00,
1000000000365034,77773366363,mAltel,mKarTel,mKarTel,,D07,2017-04-12T18:58:07+06:00,
1000000000365035,77003003734,mKcell,mAltel,mAltel,,D02,2017-04-12T18:59:23+06:00,
