NPId,Number,RecipientId,DonorId,RangeHolderId,OldRoute,NewRoute,PortDate,RowCount
1000000000189004,77760666999,mKarTel,mAltel,mKarTel,D07,D01,2016-06-06T19:30:34+06:00,12
1000000000189005,77074101035,mKcell,mMTS,mMTS,,D02,2016-06-06T19:32:32+06:00,
1000000000189006,77015441267,mMTS,mKcell,mKcell,,D77,2016-06-06T19:32:48+06:00,
1000000000189007,77083297147,mKcell,mAltel,mAltel,,D02,2016-06-06T19:36:51+06:00,
1000000000189008,77078108787,mKcell,mMTS,mMTS,,D02,2016-06-06T19:37:23+06:00,
1000000000189009,77087590147,mMTS,mAltel,mAltel,,D77,2016-06-06T19:37:46+06:00,
1000000000189011,77025247175,mMTS,mKcell,mKcell,,D77,2016-06-06T19:47:39+06:00,
1000000000189012,77021053075,mKarTel,mAltel,mKcell,D07,D01,2016-06-06T19:49:49+06:00,
1000000000189013,77082356035,mMTS,mAltel,mAltel,,D77,2016-06-06T19:52:07+06:00,
1000000000189015,77019410185,mKcell,mKarTel,mKcell,D01,D02,2016-06-06T19:57:21+06:00,
1000000000189016,77016844345,mMTS,mKcell,mKcell,,D77,2016-06-06T19:57:33+06:00,
1000000000189017,77011220220,mKcell,mMTS,mKcell,D77,D02,2016-06-06T19:58:10+06:00,
