NPId,Number,RecipientId,DonorId,RangeHolderId,OldRoute,NewRoute,PortDate,RowCount
1000000000275187,77012184309,mKarTel,mKcell,mKcell,,D01,2016-11-07T12:38:19+06:00,48
1000000000275187,77015038038,mKarTel,mKcell,mKcell,,D01,2016-11-07T12:38:19+06:00,
1000000000275187,77015245905,mKarTel,mKcell,mKcell,,D01,2016-11-07T12:38:19+06:00,
1000000000275187,77015245943,mKarTel,mKcell,mKcell,,D01,2016-11-07T12:38:19+06:00,
1000000000275187,77017294903,mKarTel,mKcell,mKcell,,D01,2016-11-07T12:38:19+06:00,
1000000000275187,77017326926,mKarTel,mKcell,mKcell,,D01,2016-11-07T12:38:19+06:00,
1000000000275187,77017941714,mKarTel,mKcell,mKcell,,D01,2016-11-07T12:38:19+06:00,
1000000000275187,77018869710,mKarTel,mKcell,mKcell,,D01,2016-11-07T12:38:19+06:00,
1000000000275187,77019810617,mKarTel,mKcell,mKcell,,D01,2016-11-07T12:38:19+06:00,
1000000000275187,77022120215,mKarTel,mKcell,mKcell,,D01,2016-11-07T12:38:19+06:00,
1000000000275283,77057842031,mKcell,mKarTel,mKarTel,,D02,2016-11-07T12:39:26+06:00,
1000000000275283,77057844312,mKcell,mKarTel,mKarTel,,D02,2016-11-07T12:39:26+06:00,
1000000000275283,77057882197,mKcell,mKarTel,mKarTel,,D02,2016-11-07T12:39:26+06:00,
1000000000275283,77717060811,mKcell,mKarTel,mKarTel,,D02,2016-11-07T12:39:26+06:00,
1000000000275283,77717062342,mKcell,mKarTel,mKarTel,,D02,2016-11-07T12:39:26+06:00,
1000000000275283,77718412230,mKcell,mKarTel,mKarTel,,D02,2016-11-07T12:39:26+06:00,
1000000000275283,77770570048,mKcell,mKarTel,mKarTel,,D02,2016-11-07T12:39:26+06:00,
1000000000275283,77770570614,mKcell,mKarTel,mKarTel,,D02,2016-11-07T12:39:26+06:00,
1000000000275283,77770577213,mKcell,mKarTel,mKarTel,,D02,2016-11-07T12:39:26+06:00,
1000000000275283,77770577214,mKcell,mKarTel,mKarTel,,D02,2016-11-07T12:39:26+06:00,
1000000000275283,77770577215,mKcell,mKarTel,mKarTel,,D02,2016-11-07T12:39:26+06:00,
1000000000275283,77770579093,mKcell,mKarTel,mKarTel,,D02,2016-11-07T12:39:26+06:00,
1000000000275283,77770579658,mKcell,mKarTel,mKarTel,,D02,2016-11-07T12:39:26+06:00,
1000000000275283,77770579660,mKcell,mKarTel,mKarTel,,D02,2016-11-07T12:39:26+06:00,
1000000000275283,77773110938,mKcell,mKarTel,mKarTel,,D02,2016-11-07T12:39:26+06:00,
1000000000275283,77775505105,mKcell,mKarTel,mKarTel,,D02,2016-11-07T12:39:26+06:00,
1000000000275283,77775993402,mKcell,mKarTel,mKarTel,,D02,2016-11-07T12:39:26+06:00,
1000000000275283,77775993403,mKcell,mKarTel,mKarTel,,D02,2016-11-07T12:39:26+06:00,
1000000000275283,77775993991,mKcell,mKarTel,mKarTel,,D02,2016-11-07T12:39:26+06:00,
1000000000275283,77775994066,mKcell,mKarTel,mKarTel,,D02,2016-11-07T12:39:26+06:00,
1000000000275283,77775994067,mKcell,mKarTel,mKarTel,,D02,2016-11-07T12:39:26+06:00,
1000000000275283,77775994438,mKcell,mKarTel,mKarTel,,D02,2016-11-07T12:39:26+06:00,
1000000000275285,77012220716,mKarTel,mKcell,mKcell,D02,D01,2016-11-07T12:33:30+06:00,
1000000000275287,77017350777,mKarTel,mKcell,mKcell,,D01,2016-11-07T12:34:15+06:00,
1000000000275288,77015129660,mKarTel,mKcell,mKcell,,D01,2016-11-07T12:37:24+06:00,
1000000000275290,77023682330,mKarTel,mKcell,mKcell,,D01,2016-11-07T12:36:50+06:00,
1000000000275291,77012210517,mMTS,mKcell,mKcell,,D77,2016-11-07T12:37:37+06:00,
1000000000275293,77016855633,mKarTel,mKcell,mKcell,,D01,2016-11-07T12:40:23+06:00,
1000000000275294,77012202409,mKcell,mKarTel,mKcell,D01,D02,2016-11-07T12:46:45+06:00,
1000000000275295,77785306474,mMTS,mKcell,mKcell,,D77,2016-11-07T12:45:33+06:00,
1000000000275296,77009444469,mKcell,mMTS,mAltel,D77,D02,2016-11-07T12:45:59+06:00,
1000000000275298,77772548892,mMTS,mKarTel,mKarTel,,D77,2016-11-07T12:47:36+06:00,
1000000000275299,77479142004,mKarTel,mMTS,mMTS,,D01,2016-11-07T12:48:14+06:00,
1000000000275300,77072960665,mMTS,mKarTel,mMTS,D01,D77,2016-11-07T12:49:14+06:00,
1000000000275301,77079193959,mKcell,mMTS,mMTS,,D02,2016-11-07T12:50:26+06:00,
1000000000275302,77013404086,mMTS,mKcell,mKcell,,D77,2016-11-07T12:50:33+06:00,
1000000000275303,77079685335,mKcell,mMTS,mMTS,,D02,2016-11-07T12:52:30+06:00,
1000000000275306,77054257777,mMTS,mKarTel,mKarTel,D01,D77,2016-11-07T12:58:36+06:00,
