NPId,Number,RecipientId,DonorId,RangeHolderId,OldRoute,NewRoute,PortDate,RowCount
1000000000407181,77003336043,mKcell,mAltel,mAltel,,D02,2017-06-21T20:42:52+06:00,5
1000000000407182,77003337023,mKcell,mAltel,mAltel,,D02,2017-06-21T20:43:02+06:00,
1000000000407183,77004446014,mKcell,mAltel,mAltel,,D02,2017-06-21T20:48:19+06:00,
1000000000407184,77003336083,mKcell,mAltel,mAltel,,D02,2017-06-21T20:51:39+06:00,
1000000000407185,77001119061,mKcell,mAltel,mAltel,,D02,2017-06-21T20:54:02+06:00,
