NPId,Number,RecipientId,DonorId,RangeHolderId,OldRoute,NewRoute,PortDate,RowCount
1000000000172367,77003689584,mMTS,mAltel,mAltel,,D77,2016-05-12T10:32:03+06:00,14
1000000000172368,77075669998,mKcell,mMTS,mMTS,,D02,2016-05-12T10:33:38+06:00,
1000000000172370,77003657097,mMTS,mAltel,mAltel,,D77,2016-05-12T10:33:42+06:00,
1000000000172371,77785469333,mKarTel,mKcell,mKcell,,D01,2016-05-12T10:34:48+06:00,
1000000000172373,77015207882,mMTS,mKcell,mKcell,,D77,2016-05-12T10:39:12+06:00,
1000000000172374,77009864427,mKarTel,mAltel,mAltel,,D01,2016-05-12T10:39:50+06:00,
1000000000172376,77007669138,mKarTel,mAltel,mAltel,,D01,2016-05-12T10:48:18+06:00,
1000000000172377,77013582125,mKcell,mAltel,mKcell,D07,D02,2016-05-12T10:48:34+06:00,
1000000000172381,77082236400,mMTS,mAltel,mAltel,,D77,2016-05-12T10:52:04+06:00,
1000000000172382,77776523938,mKarTel,mMTS,mKarTel,D77,D01,2016-05-12T10:54:42+06:00,
1000000000172384,77779074777,mKcell,mKarTel,mKarTel,,D02,2016-05-12T10:56:14+06:00,
1000000000172385,77012030211,mMTS,mKcell,mKcell,,D77,2016-05-12T10:56:50+06:00,
1000000000172386,77019375388,mMTS,mKcell,mKcell,,D77,2016-05-12T10:57:26+06:00,
1000000000172387,77755794281,mKcell,mMTS,mKcell,D77,D02,2016-05-12T10:58:19+06:00,
