NPId,Number,RecipientId,DonorId,RangeHolderId,OldRoute,NewRoute,PortDate,RowCount
1000000000285112,77751550456,mMTS,mKcell,mKcell,,D77,2016-11-27T18:01:41+06:00,8
1000000000285113,77016393467,mAltel,mKcell,mKcell,,D07,2016-11-27T18:03:37+06:00,
1000000000285115,77053676347,mMTS,mKarTel,mKarTel,,D77,2016-11-27T18:07:54+06:00,
1000000000285116,77717535032,mKcell,mKarTel,mKarTel,,D02,2016-11-27T18:09:19+06:00,
1000000000285118,77055454111,mMTS,mKarTel,mKarTel,,D77,2016-11-27T18:13:00+06:00,
1000000000285121,77053678125,mMTS,mKarTel,mKarTel,,D77,2016-11-27T18:22:57+06:00,
1000000000285122,77752906432,mMTS,mKcell,mKcell,,D77,2016-11-27T18:22:40+06:00,
1000000000285124,77029020929,mAltel,mKcell,mKcell,,D07,2016-11-27T18:27:30+06:00,
