NPId,Number,RecipientId,DonorId,RangeHolderId,OldRoute,NewRoute,PortDate,RowCount
1000000000194113,77001100010,mKcell,mAltel,mAltel,,D02,2016-06-15T16:30:41+06:00,25
1000000000194114,77052783100,mMTS,mKarTel,mKarTel,,D77,2016-06-15T16:31:37+06:00,
1000000000194115,77774647064,mKcell,mKarTel,mKarTel,,D02,2016-06-15T16:38:11+06:00,
1000000000194116,77001497005,mMTS,mAltel,mAltel,,D77,2016-06-15T16:37:03+06:00,
1000000000194117,77013340610,mKcell,mMTS,mKcell,D77,D02,2016-06-15T16:38:54+06:00,
1000000000194118,77027927495,mMTS,mKcell,mKcell,,D77,2016-06-15T16:39:31+06:00,
1000000000194120,77026156700,mKarTel,mKcell,mKcell,,D01,2016-06-15T16:43:19+06:00,
1000000000194121,77054101004,mMTS,mKarTel,mKarTel,,D77,2016-06-15T16:45:39+06:00,
1000000000194122,77085828323,mMTS,mAltel,mAltel,,D77,2016-06-15T16:46:22+06:00,
1000000000194123,77074424335,mKcell,mMTS,mMTS,,D02,2016-06-15T16:46:57+06:00,
1000000000194126,77051505717,mMTS,mKarTel,mKarTel,,D77,2016-06-15T16:49:42+06:00,
1000000000194127,77077777170,mKarTel,mMTS,mMTS,,D01,2016-06-15T16:51:15+06:00,
1000000000194129,77055648525,mMTS,mKarTel,mKarTel,,D77,2016-06-15T16:52:30+06:00,
1000000000194130,77051460634,mMTS,mKarTel,mKarTel,,D77,2016-06-15T16:53:03+06:00,
1000000000194131,77009166223,mMTS,mAltel,mAltel,,D77,2016-06-15T16:53:09+06:00,
1000000000194132,77058097161,mMTS,mKarTel,mKarTel,,D77,2016-06-15T16:54:07+06:00,
1000000000194134,77752152423,mKcell,mMTS,mKcell,D77,D02,2016-06-15T16:55:19+06:00,
1000000000194135,77473990999,mAltel,mMTS,mMTS,,D07,2016-06-15T16:55:28+06:00,
1000000000194136,77085532695,mMTS,mAltel,mAltel,,D77,2016-06-15T16:55:48+06:00,
1000000000194138,77053105407,mMTS,mKarTel,mKarTel,,D77,2016-06-15T16:58:03+06:00,
1000000000194139,77015573981,mKcell,mKarTel,mKcell,D01,D02,2016-06-15T16:58:53+06:00,
1000000000194140,77771977421,mMTS,mKarTel,mKarTel,,D77,2016-06-15T16:58:33+06:00,
1000000000194141,77026643424,mMTS,mKcell,mKcell,,D77,2016-06-15T16:59:04+06:00,
1000000000194142,77755044688,mMTS,mKcell,mKcell,,D77,2016-06-15T16:59:38+06:00,
1000000000194143,77757474767,mMTS,mKcell,mKcell,,D77,2016-06-15T16:59:38+06:00,
