NPId,Number,RecipientId,DonorId,RangeHolderId,OldRoute,NewRoute,PortDate,RowCount
1000000000227933,77059050707,mMTS,mKarTel,mKarTel,,D77,2016-08-12T12:32:46+06:00,21
1000000000227934,77085168640,mMTS,mAltel,mAltel,,D77,2016-08-12T12:32:42+06:00,
1000000000227935,77009169422,mMTS,mAltel,mAltel,,D77,2016-08-12T12:33:49+06:00,
1000000000227937,77073476566,mAltel,mMTS,mMTS,,D07,2016-08-12T12:35:26+06:00,
1000000000227938,77072200049,mKarTel,mMTS,mMTS,,D01,2016-08-12T12:35:41+06:00,
1000000000227939,77002220189,mMTS,mAltel,mAltel,,D77,2016-08-12T12:36:26+06:00,
1000000000227940,77786663405,mMTS,mKcell,mKcell,,D77,2016-08-12T12:39:15+06:00,
1000000000227941,77787977707,mKcell,mMTS,mKcell,D77,D02,2016-08-12T12:39:42+06:00,
1000000000227942,77787977770,mKcell,mMTS,mKcell,D77,D02,2016-08-12T12:40:54+06:00,
1000000000227944,77056160808,mKarTel,mMTS,mKarTel,D77,D01,2016-08-12T12:42:42+06:00,
1000000000227945,77081707628,mMTS,mAltel,mAltel,,D77,2016-08-12T12:43:39+06:00,
1000000000227946,77479785588,mKarTel,mMTS,mMTS,,D01,2016-08-12T12:45:37+06:00,
1000000000227947,77077777713,mKcell,mMTS,mMTS,,D02,2016-08-12T12:48:15+06:00,
1000000000227948,77026972728,mKarTel,mKcell,mKcell,D02,D01,2016-08-12T12:47:02+06:00,
1000000000227950,77787909000,mKarTel,mKcell,mKcell,,D01,2016-08-12T12:48:52+06:00,
1000000000227951,77086297297,mKcell,mAltel,mAltel,,D02,2016-08-12T12:51:14+06:00,
1000000000227953,77022727227,mKarTel,mMTS,mKcell,D77,D01,2016-08-12T12:51:14+06:00,
1000000000227954,77017776064,mKcell,mAltel,mKcell,D07,D02,2016-08-12T12:52:47+06:00,
1000000000227955,77081046673,mMTS,mAltel,mAltel,,D77,2016-08-12T12:53:45+06:00,
1000000000227959,77023713035,mMTS,mKcell,mKcell,,D77,2016-08-12T12:57:37+06:00,
1000000000227960,77021365410,mMTS,mKcell,mKcell,,D77,2016-08-12T12:57:41+06:00,
