NPId,Number,RecipientId,DonorId,RangeHolderId,OldRoute,NewRoute,PortDate,RowCount
1000000000233950,77774214772,mKcell,mKarTel,mKarTel,,D02,2016-08-25T13:30:32+06:00,18
1000000000233951,77051366186,mKarTel,mMTS,mKarTel,D77,D01,2016-08-25T13:32:24+06:00,
1000000000233952,77028570570,mMTS,mKarTel,mKcell,D01,D77,2016-08-25T13:34:28+06:00,
1000000000233953,77475556654,mKcell,mMTS,mMTS,,D02,2016-08-25T13:36:45+06:00,
1000000000233955,77026168817,mKarTel,mKcell,mKcell,,D01,2016-08-25T13:39:31+06:00,
1000000000233957,77752611186,mKcell,mAltel,mKcell,D07,D02,2016-08-25T13:44:17+06:00,
1000000000233958,77015449846,mKarTel,mKcell,mKcell,,D01,2016-08-25T13:45:15+06:00,
1000000000233960,77027210102,mMTS,mKcell,mKcell,,D77,2016-08-25T13:47:25+06:00,
1000000000233961,77474906215,mKarTel,mMTS,mMTS,,D01,2016-08-25T13:48:18+06:00,
1000000000233962,77052797777,mKarTel,mAltel,mKarTel,D07,D01,2016-08-25T13:49:13+06:00,
1000000000233963,77784004037,mAltel,mKcell,mKcell,,D07,2016-08-25T13:49:59+06:00,
1000000000233964,77000909009,mMTS,mAltel,mAltel,,D77,2016-08-25T13:50:25+06:00,
1000000000233967,77027788088,mKcell,mMTS,mKcell,D77,D02,2016-08-25T13:52:55+06:00,
1000000000233968,77026679625,mKarTel,mKcell,mKcell,,D01,2016-08-25T13:54:29+06:00,
1000000000233969,77029264378,mMTS,mKcell,mKcell,,D77,2016-08-25T13:53:44+06:00,
1000000000233972,77751035848,mKcell,mMTS,mKcell,D77,D02,2016-08-25T13:58:24+06:00,
1000000000233973,77756984187,mMTS,mKcell,mKcell,,D77,2016-08-25T13:58:42+06:00,
1000000000233974,77082249909,mKcell,mAltel,mAltel,,D02,2016-08-25T13:59:46+06:00,
