NPId,Number,RecipientId,DonorId,RangeHolderId,OldRoute,NewRoute,PortDate,RowCount
1000000000401582,77051042122,mMTS,mKarTel,mKarTel,,D77,2017-06-12T11:00:59+06:00,24
1000000000401583,77771044445,mKarTel,mAltel,mKarTel,D07,D01,2017-06-12T11:03:49+06:00,
1000000000401584,77051275539,mMTS,mKarTel,mKarTel,,D77,2017-06-12T11:03:59+06:00,
1000000000401585,77755701111,mKcell,mKarTel,mKcell,D01,D02,2017-06-12T11:04:31+06:00,
1000000000401587,77015999518,mKcell,mKarTel,mKcell,D01,D02,2017-06-12T11:06:36+06:00,
1000000000401590,77079300909,mAltel,mMTS,mMTS,,D07,2017-06-12T11:09:05+06:00,
1000000000401591,77774877775,mKcell,mMTS,mKarTel,D77,D02,2017-06-12T11:10:06+06:00,
1000000000401592,77777777762,mKcell,mKarTel,mKarTel,,D02,2017-06-12T11:10:43+06:00,
1000000000401597,77779968282,mMTS,mKarTel,mKarTel,,D77,2017-06-12T11:15:16+06:00,
1000000000401598,77780001050,mKarTel,mKcell,mKcell,,D01,2017-06-12T11:15:42+06:00,
1000000000401600,77024118483,mAltel,mKcell,mKcell,,D07,2017-06-12T11:16:36+06:00,
1000000000401601,77771096688,mMTS,mKarTel,mKarTel,,D77,2017-06-12T11:17:00+06:00,
1000000000401603,77014446010,mKcell,mKarTel,mKcell,D01,D02,2017-06-12T11:19:38+06:00,
1000000000401604,77478626892,mAltel,mMTS,mMTS,,D07,2017-06-12T11:20:42+06:00,
1000000000401605,77773701060,mKarTel,mMTS,mKarTel,D77,D01,2017-06-12T11:21:35+06:00,
1000000000401606,77772076263,mMTS,mKarTel,mKarTel,,D77,2017-06-12T11:22:35+06:00,
1000000000401607,77071398721,mAltel,mMTS,mMTS,,D07,2017-06-12T11:23:35+06:00,
1000000000401608,77474554539,mAltel,mMTS,mMTS,,D07,2017-06-12T11:23:37+06:00,
1000000000401609,77021554488,mAltel,mKcell,mKcell,,D07,2017-06-12T11:25:06+06:00,
1000000000401610,77079014223,mAltel,mMTS,mMTS,,D07,2017-06-12T11:25:33+06:00,
1000000000401611,77022221030,mKarTel,mKcell,mKcell,,D01,2017-06-12T11:26:36+06:00,
1000000000401612,77789358526,mMTS,mKcell,mKcell,,D77,2017-06-12T11:26:39+06:00,
1000000000401613,77005443321,mKcell,mAltel,mAltel,,D02,2017-06-12T11:26:54+06:00,
1000000000401614,77004877273,mMTS,mKcell,mAltel,D02,D77,2017-06-12T11:27:46+06:00,
