NPId,Number,RecipientId,DonorId,RangeHolderId,OldRoute,NewRoute,PortDate,RowCount
1000000000242092,77012081307,mKarTel,mKcell,mKcell,,D01,2016-09-08T12:23:12+06:00,31
1000000000242092,77012081308,mKarTel,mKcell,mKcell,,D01,2016-09-08T12:23:12+06:00,
1000000000242092,77012081309,mKarTel,mKcell,mKcell,,D01,2016-09-08T12:23:12+06:00,
1000000000242092,77012081310,mKarTel,mKcell,mKcell,,D01,2016-09-08T12:23:12+06:00,
1000000000242092,77012454445,mKarTel,mKcell,mKcell,,D01,2016-09-08T12:23:12+06:00,
1000000000242092,77019917745,mKarTel,mKcell,mKcell,,D01,2016-09-08T12:23:12+06:00,
1000000000242358,77715076393,mKcell,mKarTel,mKarTel,,D02,2016-09-08T12:01:04+06:00,
1000000000242386,77787868795,mMTS,mKcell,mKcell,,D77,2016-09-08T12:00:26+06:00,
1000000000242389,77783716188,mMTS,mKcell,mKcell,,D77,2016-09-08T12:01:24+06:00,
1000000000242390,77075843560,mKcell,mMTS,mMTS,,D02,2016-09-08T12:02:11+06:00,
1000000000242392,77756685241,mKcell,mMTS,mKcell,D77,D02,2016-09-08T12:04:37+06:00,
1000000000242394,77015231970,mKarTel,mKcell,mKcell,,D01,2016-09-08T12:07:06+06:00,
1000000000242395,77053207939,mMTS,mKarTel,mKarTel,,D77,2016-09-08T12:07:32+06:00,
1000000000242396,77012552828,mKcell,mMTS,mKcell,D77,D02,2016-09-08T12:07:32+06:00,
1000000000242397,77057145347,mMTS,mKarTel,mKarTel,,D77,2016-09-08T12:11:13+06:00,
1000000000242398,77082503025,mMTS,mAltel,mAltel,,D77,2016-09-08T12:11:07+06:00,
1000000000242400,77072002972,mMTS,mKarTel,mMTS,D01,D77,2016-09-08T12:12:52+06:00,
1000000000242401,77771504069,mMTS,mAltel,mKarTel,D07,D77,2016-09-08T12:13:06+06:00,
1000000000242402,77073247917,mKarTel,mMTS,mMTS,,D01,2016-09-08T12:14:04+06:00,
1000000000242403,77012556688,mKarTel,mKcell,mKcell,,D01,2016-09-08T12:14:21+06:00,
1000000000242408,77776410519,mMTS,mKarTel,mKarTel,,D77,2016-09-08T12:16:34+06:00,
1000000000242409,77012130771,mKarTel,mKcell,mKcell,,D01,2016-09-08T12:17:28+06:00,
1000000000242410,77715223785,mMTS,mKarTel,mKarTel,,D77,2016-09-08T12:17:40+06:00,
1000000000242411,77715438792,mKarTel,mMTS,mKarTel,D77,D01,2016-09-08T12:17:29+06:00,
1000000000242412,77082187677,mMTS,mAltel,mAltel,,D77,2016-09-08T12:17:27+06:00,
1000000000242415,77075515964,mKcell,mMTS,mMTS,,D02,2016-09-08T12:26:02+06:00,
1000000000242417,77757437967,mAltel,mKcell,mKcell,,D07,2016-09-08T12:27:29+06:00,
1000000000242418,77074324400,mKcell,mMTS,mMTS,,D02,2016-09-08T12:27:52+06:00,
1000000000242419,77017882442,mAltel,mKcell,mKcell,,D07,2016-09-08T12:27:50+06:00,
1000000000242420,77479119117,mKcell,mKarTel,mMTS,D01,D02,2016-09-08T12:29:01+06:00,
1000000000242421,77752488575,mMTS,mKcell,mKcell,,D77,2016-09-08T12:29:51+06:00,
