NPId,Number,RecipientId,DonorId,RangeHolderId,OldRoute,NewRoute,PortDate,RowCount
1000000000281150,77017996727,mKarTel,mKcell,mKcell,,D01,2016-11-18T19:35:26+06:00,5
1000000000281151,77011118380,mMTS,mKcell,mKcell,,D77,2016-11-18T19:38:09+06:00,
1000000000281152,77071110190,mKcell,mAltel,mMTS,D07,D02,2016-11-18T19:56:56+06:00,
1000000000281153,77058495136,mMTS,mKarTel,mKarTel,,D77,2016-11-18T19:57:55+06:00,
1000000000281154,77015122012,mKarTel,mKcell,mKcell,,D01,2016-11-18T19:59:13+06:00,
