NPId,Number,RecipientId,DonorId,RangeHolderId,OldRoute,NewRoute,PortDate,RowCount
1000000000244944,77085176116,mMTS,mAltel,mAltel,,D77,2016-09-13T18:01:02+06:00,20
1000000000244945,77753004845,mMTS,mKcell,mKcell,,D77,2016-09-13T18:01:33+06:00,
1000000000244947,77072325679,mKcell,mMTS,mMTS,,D02,2016-09-13T18:04:23+06:00,
1000000000244948,77007451707,mMTS,mAltel,mAltel,,D77,2016-09-13T18:04:06+06:00,
1000000000244949,77027500005,mKcell,mMTS,mKcell,D77,D02,2016-09-13T18:04:16+06:00,
1000000000244951,77025291581,mKarTel,mKcell,mKcell,,D01,2016-09-13T18:06:44+06:00,
1000000000244952,77477781991,mKcell,mMTS,mMTS,,D02,2016-09-13T18:06:36+06:00,
1000000000244953,77751155101,mMTS,mKcell,mKcell,,D77,2016-09-13T18:07:24+06:00,
1000000000244955,77053054111,mMTS,mKarTel,mKarTel,,D77,2016-09-13T18:10:45+06:00,
1000000000244957,77015747742,mMTS,mKcell,mKcell,,D77,2016-09-13T18:11:12+06:00,
1000000000244958,77028020215,mMTS,mKcell,mKcell,,D77,2016-09-13T18:11:18+06:00,
1000000000244960,77075545131,mAltel,mMTS,mMTS,,D07,2016-09-13T18:15:20+06:00,
1000000000244962,77473727582,mKcell,mMTS,mMTS,,D02,2016-09-13T18:19:07+06:00,
1000000000244963,77772600111,mKcell,mKarTel,mKarTel,,D02,2016-09-13T18:21:54+06:00,
1000000000244964,77777606969,mKarTel,mMTS,mKarTel,D77,D01,2016-09-13T18:22:09+06:00,
1000000000244965,77007257583,mKarTel,mAltel,mAltel,,D01,2016-09-13T18:22:46+06:00,
1000000000244966,77059018699,mAltel,mKarTel,mKarTel,,D07,2016-09-13T18:24:05+06:00,
1000000000244968,77077315174,mMTS,mAltel,mMTS,D07,D77,2016-09-13T18:22:49+06:00,
1000000000244969,77058000423,mKarTel,mAltel,mKarTel,D07,D01,2016-09-13T18:27:12+06:00,
1000000000244970,77753535339,mKcell,mMTS,mKcell,D77,D02,2016-09-13T18:27:06+06:00,
