NPId,Number,RecipientId,DonorId,RangeHolderId,OldRoute,NewRoute,PortDate,RowCount
1000000000228640,77010000153,mMTS,mKcell,mKcell,,D77,2016-08-13T17:33:15+06:00,17
1000000000228641,77751606479,mKarTel,mKcell,mKcell,,D01,2016-08-13T17:34:15+06:00,
1000000000228642,77011761000,mAltel,mMTS,mKcell,D77,D07,2016-08-13T17:34:01+06:00,
1000000000228646,77755738594,mKcell,mAltel,mKcell,D07,D02,2016-08-13T17:36:59+06:00,
1000000000228647,77079063760,mMTS,mKcell,mMTS,D02,D77,2016-08-13T17:37:24+06:00,
1000000000228649,77073149509,mKarTel,mMTS,mMTS,,D01,2016-08-13T17:38:33+06:00,
1000000000228651,77773042518,mMTS,mKarTel,mKarTel,,D77,2016-08-13T17:40:15+06:00,
1000000000228654,77017678342,mMTS,mKcell,mKcell,,D77,2016-08-13T17:41:01+06:00,
1000000000228657,77783990077,mKcell,mKarTel,mKcell,D01,D02,2016-08-13T17:42:57+06:00,
1000000000228658,77023026365,mMTS,mKcell,mKcell,,D77,2016-08-13T17:44:39+06:00,
1000000000228659,77016878730,mKarTel,mKcell,mKcell,,D01,2016-08-13T17:45:31+06:00,
1000000000228660,77028035566,mKarTel,mKcell,mKcell,,D01,2016-08-13T17:47:58+06:00,
1000000000228661,77789282830,mKcell,mMTS,mKcell,D77,D02,2016-08-13T17:48:18+06:00,
1000000000228662,77029061215,mAltel,mKcell,mKcell,,D07,2016-08-13T17:48:49+06:00,
1000000000228666,77021532871,mMTS,mKcell,mKcell,,D77,2016-08-13T17:52:21+06:00,
1000000000228667,77018279474,mKcell,mAltel,mKcell,D07,D02,2016-08-13T17:58:58+06:00,
1000000000228668,77077777955,mKcell,mMTS,mMTS,,D02,2016-08-13T17:57:58+06:00,
