NPId,Number,RecipientId,DonorId,RangeHolderId,OldRoute,NewRoute,PortDate,RowCount
1000000000444121,77777255554,mKcell,mKarTel,mKarTel,,D02,2017-08-23T09:33:51+06:00,9
1000000000444122,77475554302,mKcell,mMTS,mMTS,,D02,2017-08-23T09:34:00+06:00,
1000000000444123,77079496370,mKcell,mMTS,mMTS,,D02,2017-08-23T09:36:48+06:00,
1000000000444124,77028997766,mAltel,mKarTel,mKcell,D01,D07,2017-08-23T09:41:09+06:00,
1000000000444125,77017347737,mKarTel,mKcell,mKcell,,D01,2017-08-23T09:45:24+06:00,
1000000000444126,77718921010,mAltel,mKarTel,mKarTel,,D07,2017-08-23T09:50:06+06:00,
1000000000444128,77014131313,mKcell,mAltel,mKcell,D07,D02,2017-08-23T09:57:20+06:00,
1000000000444129,77771777755,mMTS,mKcell,mKarTel,D02,D77,2017-08-23T09:57:31+06:00,
1000000000444130,77075881912,mKcell,mMTS,mMTS,,D02,2017-08-23T09:58:41+06:00,
