NPId,Number,RecipientId,DonorId,RangeHolderId,OldRoute,NewRoute,PortDate,RowCount
1000000000417703,77005461993,mMTS,mAltel,mAltel,,D77,2017-07-06T17:31:53+06:00,15
1000000000417704,77014097008,mKarTel,mKcell,mKcell,,D01,2017-07-06T17:32:47+06:00,
1000000000417705,77080668080,mKcell,mAltel,mAltel,,D02,2017-07-06T17:33:23+06:00,
1000000000417707,77017700017,mKarTel,mKcell,mKcell,,D01,2017-07-06T17:41:10+06:00,
1000000000417708,77013788220,mMTS,mKcell,mKcell,,D77,2017-07-06T17:41:50+06:00,
1000000000417709,77776217920,mMTS,mKarTel,mKarTel,,D77,2017-07-06T17:42:13+06:00,
1000000000417710,77072424243,mKarTel,mMTS,mMTS,,D01,2017-07-06T17:43:17+06:00,
1000000000417711,77027990650,mMTS,mKcell,mKcell,,D77,2017-07-06T17:43:40+06:00,
1000000000417712,77051843040,mMTS,mKarTel,mKarTel,,D77,2017-07-06T17:47:16+06:00,
1000000000417713,77017923046,mMTS,mKcell,mKcell,,D77,2017-07-06T17:49:36+06:00,
1000000000417715,77010558805,mKarTel,mKcell,mKcell,,D01,2017-07-06T17:50:15+06:00,
1000000000417717,77758880713,mMTS,mKcell,mKcell,,D77,2017-07-06T17:52:51+06:00,
1000000000417718,77015340397,mKarTel,mKcell,mKcell,,D01,2017-07-06T17:55:29+06:00,
1000000000417719,77022609925,mMTS,mKcell,mKcell,,D77,2017-07-06T17:56:47+06:00,
1000000000417720,77017250555,mKarTel,mKcell,mKcell,,D01,2017-07-06T17:59:21+06:00,
