NPId,Number,RecipientId,DonorId,RangeHolderId,OldRoute,NewRoute,PortDate,RowCount
1000000000375649,77789250838,mKcell,mAltel,mKcell,D07,D02,2017-05-04T17:22:12+06:00,23
1000000000377931,77010541086,mKarTel,mKcell,mKcell,,D01,2017-05-04T17:25:14+06:00,
1000000000377931,77010541087,mKarTel,mKcell,mKcell,,D01,2017-05-04T17:25:14+06:00,
1000000000377931,77717583875,mKarTel,mKcell,mKarTel,D02,D01,2017-05-04T17:25:14+06:00,
1000000000377931,77717583885,mKarTel,mKcell,mKarTel,D02,D01,2017-05-04T17:25:14+06:00,
1000000000377969,77017476210,mKarTel,mKcell,mKcell,,D01,2017-05-04T17:09:59+06:00,
1000000000378163,77479193668,mKarTel,mMTS,mMTS,,D01,2017-05-04T17:00:32+06:00,
1000000000378164,77007240360,mKarTel,mAltel,mAltel,,D01,2017-05-04T17:02:03+06:00,
1000000000378165,77754105607,mKarTel,mKcell,mKcell,,D01,2017-05-04T17:05:17+06:00,
1000000000378166,77072727171,mKarTel,mMTS,mMTS,,D01,2017-05-04T17:07:03+06:00,
1000000000378171,77027632976,mKarTel,mKcell,mKcell,,D01,2017-05-04T17:09:18+06:00,
1000000000378173,77013311099,mMTS,mKcell,mKcell,,D77,2017-05-04T17:15:54+06:00,
1000000000378174,77714588277,mMTS,mKarTel,mKarTel,,D77,2017-05-04T17:17:28+06:00,
1000000000378176,77757890001,mMTS,mKcell,mKcell,,D77,2017-05-04T17:18:37+06:00,
1000000000378177,77053432002,mMTS,mKarTel,mKarTel,,D77,2017-05-04T17:19:33+06:00,
1000000000378179,77781132975,mMTS,mKcell,mKcell,,D77,2017-05-04T17:20:59+06:00,
1000000000378180,77022994914,mMTS,mKcell,mKcell,,D77,2017-05-04T17:21:30+06:00,
1000000000378181,77029939300,mAltel,mKcell,mKcell,,D07,2017-05-04T17:22:51+06:00,
1000000000378182,77054212172,mKcell,mKarTel,mKarTel,,D02,2017-05-04T17:23:53+06:00,
1000000000378183,77027624903,mKarTel,mMTS,mKcell,D77,D01,2017-05-04T17:26:11+06:00,
1000000000378184,77077779277,mMTS,mKcell,mMTS,D02,D77,2017-05-04T17:24:49+06:00,
1000000000378185,77757228481,mKarTel,mKcell,mKcell,,D01,2017-05-04T17:28:49+06:00,
1000000000378186,77000997000,mAltel,mMTS,mAltel,D77,D07,2017-05-04T17:29:18+06:00,
