NPId,Number,RecipientId,DonorId,RangeHolderId,OldRoute,NewRoute,PortDate,RowCount
1000000000109446,77772991241,mMTS,mKarTel,mKarTel,,D77,2016-03-07T18:01:06+06:00,17
1000000000109449,77025124727,mKarTel,mKcell,mKcell,,D01,2016-03-07T18:02:22+06:00,
1000000000109450,77013798828,mMTS,mKcell,mKcell,,D77,2016-03-07T18:02:00+06:00,
1000000000109453,77011116222,mAltel,mKcell,mKcell,,D07,2016-03-07T18:03:01+06:00,
1000000000109454,77474523906,mAltel,mMTS,mMTS,,D07,2016-03-07T18:03:59+06:00,
1000000000109456,77077905383,mAltel,mMTS,mMTS,,D07,2016-03-07T18:11:31+06:00,
1000000000109457,77011786788,mMTS,mKcell,mKcell,,D77,2016-03-07T18:12:00+06:00,
1000000000109458,77052225335,mKcell,mKarTel,mKarTel,,D02,2016-03-07T18:16:25+06:00,
1000000000109459,77075282011,mKarTel,mMTS,mMTS,,D01,2016-03-07T18:17:14+06:00,
1000000000109460,77026513512,mAltel,mKcell,mKcell,,D07,2016-03-07T18:17:19+06:00,
1000000000109461,77784485061,mMTS,mKcell,mKcell,,D77,2016-03-07T18:17:19+06:00,
1000000000109462,77014454515,mAltel,mKcell,mKcell,,D07,2016-03-07T18:17:22+06:00,
1000000000109463,77052065030,mAltel,mKarTel,mKarTel,,D07,2016-03-07T18:21:03+06:00,
1000000000109464,77770091001,mKcell,mKarTel,mKarTel,,D02,2016-03-07T18:23:56+06:00,
1000000000109465,77022187782,mMTS,mKcell,mKcell,,D77,2016-03-07T18:24:10+06:00,
1000000000109467,77057333393,mMTS,mKarTel,mKarTel,,D77,2016-03-07T18:27:22+06:00,
1000000000109468,77074443555,mKarTel,mMTS,mMTS,,D01,2016-03-07T18:29:04+06:00,
