NPId,Number,RecipientId,DonorId,RangeHolderId,OldRoute,NewRoute,PortDate,RowCount
1000000000314743,77001106060,mKcell,mAltel,mAltel,,D02,2017-01-22T18:31:31+06:00,3
1000000000314745,77005554592,mKcell,mAltel,mAltel,,D02,2017-01-22T18:42:38+06:00,
1000000000314748,77005554593,mKcell,mAltel,mAltel,,D02,2017-01-22T18:51:23+06:00,
