NPId,Number,RecipientId,DonorId,RangeHolderId,OldRoute,NewRoute,PortDate,RowCount
1000000000293412,77751474810,mAltel,mKcell,mKcell,,D07,2016-12-11T10:22:23+06:00,3
1000000000293413,77017664399,mAltel,mKcell,mKcell,,D07,2016-12-11T10:24:20+06:00,
1000000000293414,77028673536,mKarTel,mKcell,mKcell,,D01,2016-12-11T10:29:14+06:00,
