NPId,Number,RecipientId,DonorId,RangeHolderId,OldRoute,NewRoute,PortDate,RowCount
1000000000174515,77026416124,mKcell,mKarTel,mKcell,D01,D02,2016-05-15T13:03:35+06:00,13
1000000000174516,77775069320,mMTS,mKarTel,mKarTel,,D77,2016-05-15T13:03:28+06:00,
1000000000174518,77003247532,mMTS,mAltel,mAltel,,D77,2016-05-15T13:07:31+06:00,
1000000000174519,77773196156,mMTS,mKarTel,mKarTel,,D77,2016-05-15T13:08:25+06:00,
1000000000174520,77079660444,mMTS,mAltel,mMTS,D07,D77,2016-05-15T13:08:47+06:00,
1000000000174521,77089132825,mMTS,mAltel,mAltel,,D77,2016-05-15T13:11:48+06:00,
1000000000174522,77051681452,mMTS,mKarTel,mKarTel,,D77,2016-05-15T13:12:20+06:00,
1000000000174523,77787079257,mKarTel,mKcell,mKcell,,D01,2016-05-15T13:17:24+06:00,
1000000000174524,77019294470,mKarTel,mKcell,mKcell,,D01,2016-05-15T13:19:07+06:00,
1000000000174525,77759211193,mMTS,mKcell,mKcell,,D77,2016-05-15T13:19:28+06:00,
1000000000174526,77752170414,mMTS,mKcell,mKcell,,D77,2016-05-15T13:25:15+06:00,
1000000000174528,77081781244,mMTS,mAltel,mAltel,,D77,2016-05-15T13:28:32+06:00,
1000000000174529,77773653067,mMTS,mKarTel,mKarTel,,D77,2016-05-15T13:29:31+06:00,
