NPId,Number,RecipientId,DonorId,RangeHolderId,OldRoute,NewRoute,PortDate,RowCount
1000000000101748,77712448872,mMTS,mKarTel,mKarTel,,D77,2016-02-28T17:00:57+06:00,26
1000000000101749,77027707749,mMTS,mKcell,mKcell,,D77,2016-02-28T17:00:57+06:00,
1000000000101750,77011358856,mMTS,mKcell,mKcell,,D77,2016-02-28T17:00:57+06:00,
1000000000101752,77770743322,mAltel,mKarTel,mKarTel,,D07,2016-02-28T17:02:04+06:00,
1000000000101753,77028575637,mMTS,mKcell,mKcell,,D77,2016-02-28T17:01:53+06:00,
1000000000101755,77058023002,mMTS,mKarTel,mKarTel,,D77,2016-02-28T17:03:16+06:00,
1000000000101756,77056660060,mAltel,mKarTel,mKarTel,,D07,2016-02-28T17:04:07+06:00,
1000000000101757,77012035141,mKarTel,mKcell,mKcell,,D01,2016-02-28T17:04:25+06:00,
1000000000101758,77059000041,mAltel,mKarTel,mKarTel,,D07,2016-02-28T17:04:33+06:00,
1000000000101762,77019129027,mAltel,mKcell,mKcell,,D07,2016-02-28T17:09:52+06:00,
1000000000101763,77027312121,mMTS,mKcell,mKcell,,D77,2016-02-28T17:11:28+06:00,
1000000000101764,77019905552,mKarTel,mKcell,mKcell,,D01,2016-02-28T17:12:07+06:00,
1000000000101765,77058211184,mMTS,mKarTel,mKarTel,,D77,2016-02-28T17:13:03+06:00,
1000000000101767,77772682929,mAltel,mKarTel,mKarTel,,D07,2016-02-28T17:15:27+06:00,
1000000000101768,77755287703,mAltel,mKcell,mKcell,,D07,2016-02-28T17:15:57+06:00,
1000000000101771,77025951551,mAltel,mKcell,mKcell,,D07,2016-02-28T17:17:32+06:00,
1000000000101772,77077775162,mKarTel,mMTS,mMTS,,D01,2016-02-28T17:17:57+06:00,
1000000000101773,77017235849,mAltel,mKcell,mKcell,,D07,2016-02-28T17:18:40+06:00,
1000000000101776,77719060667,mAltel,mKarTel,mKarTel,,D07,2016-02-28T17:21:43+06:00,
1000000000101777,77015036188,mMTS,mKcell,mKcell,,D77,2016-02-28T17:22:07+06:00,
1000000000101778,77771391999,mMTS,mKarTel,mKarTel,,D77,2016-02-28T17:23:26+06:00,
1000000000101779,77018611119,mMTS,mKcell,mKcell,,D77,2016-02-28T17:23:26+06:00,
1000000000101781,77778270101,mAltel,mKarTel,mKarTel,,D07,2016-02-28T17:26:11+06:00,
1000000000101782,77771991189,mAltel,mKarTel,mKarTel,,D07,2016-02-28T17:27:16+06:00,
1000000000101783,77052510311,mAltel,mKarTel,mKarTel,,D07,2016-02-28T17:29:23+06:00,
1000000000101784,77718597417,mMTS,mKarTel,mKarTel,,D77,2016-02-28T17:29:23+06:00,
