NPId,Number,RecipientId,DonorId,RangeHolderId,OldRoute,NewRoute,PortDate,RowCount
1000000000418392,77776909557,mKcell,mKarTel,mKarTel,,D02,2017-07-08T16:00:16+06:00,16
1000000000418393,77059169298,mMTS,mKarTel,mKarTel,,D77,2017-07-08T16:00:15+06:00,
1000000000418395,77021080807,mKarTel,mMTS,mKcell,D77,D01,2017-07-08T16:01:38+06:00,
1000000000418397,77009890707,mMTS,mAltel,mAltel,,D77,2017-07-08T16:06:16+06:00,
1000000000418399,77077080576,mKcell,mMTS,mMTS,,D02,2017-07-08T16:09:27+06:00,
1000000000418400,77712050515,mMTS,mKarTel,mKarTel,,D77,2017-07-08T16:10:33+06:00,
1000000000418401,77011780002,mKarTel,mKcell,mKcell,,D01,2017-07-08T16:12:11+06:00,
1000000000418402,77021489568,mKarTel,mKcell,mKcell,,D01,2017-07-08T16:13:16+06:00,
1000000000418404,77753943016,mMTS,mKcell,mKcell,,D77,2017-07-08T16:13:12+06:00,
1000000000418405,77016877568,mKarTel,mKcell,mKcell,,D01,2017-07-08T16:13:35+06:00,
1000000000418406,77019775020,mAltel,mKcell,mKcell,,D07,2017-07-08T16:14:45+06:00,
1000000000418408,77023019929,mKarTel,mKcell,mKcell,,D01,2017-07-08T16:18:16+06:00,
1000000000418409,77783118101,mMTS,mKcell,mKcell,,D77,2017-07-08T16:19:14+06:00,
1000000000418411,77762002202,mKarTel,mMTS,mKarTel,D77,D01,2017-07-08T16:23:49+06:00,
1000000000418414,77719753557,mMTS,mKarTel,mKarTel,,D77,2017-07-08T16:27:09+06:00,
1000000000418416,77019155501,mAltel,mKarTel,mKcell,D01,D07,2017-07-08T16:29:57+06:00,
