NPId,Number,RecipientId,DonorId,RangeHolderId,OldRoute,NewRoute,PortDate,RowCount
1000000000225210,77774650022,mKcell,mKarTel,mKarTel,,D02,2016-08-08T13:09:23+06:00,33
1000000000225289,77759203131,mKcell,mAltel,mKcell,D07,D02,2016-08-08T13:09:29+06:00,
1000000000225358,77022578500,mKcell,mMTS,mKcell,D77,D02,2016-08-08T13:01:22+06:00,
1000000000225360,77759305536,mKarTel,mAltel,mKcell,D07,D01,2016-08-08T13:02:17+06:00,
1000000000225362,77055711464,mMTS,mKarTel,mKarTel,,D77,2016-08-08T13:03:52+06:00,
1000000000225364,77753827777,mKcell,mMTS,mKcell,D77,D02,2016-08-08T13:04:15+06:00,
1000000000225365,77023380828,mKcell,mAltel,mKcell,D07,D02,2016-08-08T13:04:15+06:00,
1000000000225368,77016163743,mKcell,mMTS,mKcell,D77,D02,2016-08-08T13:07:00+06:00,
1000000000225369,77771207702,mMTS,mKarTel,mKarTel,,D77,2016-08-08T13:09:49+06:00,
1000000000225371,77025862058,mKcell,mKarTel,mKcell,D01,D02,2016-08-08T13:14:58+06:00,
1000000000225373,77018973555,mMTS,mKcell,mKcell,,D77,2016-08-08T13:11:03+06:00,
1000000000225374,77471288889,mAltel,mMTS,mMTS,,D07,2016-08-08T13:11:16+06:00,
1000000000225375,77755993330,mKarTel,mKcell,mKcell,,D01,2016-08-08T13:12:15+06:00,
1000000000225376,77018973111,mMTS,mKcell,mKcell,,D77,2016-08-08T13:12:04+06:00,
1000000000225378,77057404444,mKarTel,mAltel,mKarTel,D07,D01,2016-08-08T13:12:57+06:00,
1000000000225380,77773591173,mMTS,mKarTel,mKarTel,,D77,2016-08-08T13:16:22+06:00,
1000000000225381,77781787101,mMTS,mKcell,mKcell,,D77,2016-08-08T13:15:21+06:00,
1000000000225384,77775466606,mMTS,mKarTel,mKarTel,,D77,2016-08-08T13:18:29+06:00,
1000000000225385,77760231278,mMTS,mKarTel,mKarTel,,D77,2016-08-08T13:19:05+06:00,
1000000000225388,77077080366,mKcell,mMTS,mMTS,,D02,2016-08-08T13:19:09+06:00,
1000000000225392,77016775060,mMTS,mKcell,mKcell,,D77,2016-08-08T13:22:21+06:00,
1000000000225393,77023458747,mMTS,mKcell,mKcell,,D77,2016-08-08T13:22:20+06:00,
1000000000225394,77017948894,mMTS,mKcell,mKcell,,D77,2016-08-08T13:23:33+06:00,
1000000000225396,77053842525,mMTS,mKarTel,mKarTel,,D77,2016-08-08T13:25:28+06:00,
1000000000225397,77019652005,mKcell,mKarTel,mKcell,D01,D02,2016-08-08T13:26:30+06:00,
1000000000225398,77089087271,mKarTel,mKcell,mAltel,D02,D01,2016-08-08T13:24:48+06:00,
1000000000225401,77714063576,mMTS,mKarTel,mKarTel,,D77,2016-08-08T13:26:47+06:00,
1000000000225402,77004402267,mMTS,mAltel,mAltel,,D77,2016-08-08T13:24:51+06:00,
1000000000225404,77754500208,mKarTel,mKcell,mKcell,,D01,2016-08-08T13:26:08+06:00,
1000000000225406,77056605895,mAltel,mKarTel,mKarTel,,D07,2016-08-08T13:28:04+06:00,
1000000000225408,77754331707,mMTS,mKcell,mKcell,,D77,2016-08-08T13:27:23+06:00,
1000000000225409,77005429979,mKarTel,mAltel,mAltel,,D01,2016-08-08T13:28:48+06:00,
1000000000225410,77717953454,mMTS,mKarTel,mKarTel,,D77,2016-08-08T13:29:52+06:00,
