NPId,Number,RecipientId,DonorId,RangeHolderId,OldRoute,NewRoute,PortDate,RowCount
1000000000363690,77077197097,mKcell,mMTS,mMTS,,D02,2017-04-10T20:01:46+06:00,5
1000000000363691,77773560354,mMTS,mKarTel,mKarTel,,D77,2017-04-10T20:02:05+06:00,
1000000000363692,77051655522,mKcell,mAltel,mKarTel,D07,D02,2017-04-10T20:06:14+06:00,
1000000000363693,77019908326,mMTS,mAltel,mKcell,D07,D77,2017-04-10T20:07:44+06:00,
1000000000363700,77013901742,mKcell,mMTS,mKcell,D77,D02,2017-04-10T20:20:29+06:00,
