NPId,Number,RecipientId,DonorId,RangeHolderId,OldRoute,NewRoute,PortDate,RowCount
1000000000214566,77754749482,mMTS,mKcell,mKcell,,D77,2016-07-21T10:02:41+06:00,13
1000000000214567,77018090089,mKarTel,mKcell,mKcell,,D01,2016-07-21T10:04:45+06:00,
1000000000214569,77716218803,mMTS,mKarTel,mKarTel,,D77,2016-07-21T10:09:23+06:00,
1000000000214571,77017301106,mAltel,mKcell,mKcell,,D07,2016-07-21T10:11:58+06:00,
1000000000214573,77017592259,mKcell,mMTS,mKcell,D77,D02,2016-07-21T10:14:42+06:00,
1000000000214579,77025382868,mMTS,mKcell,mKcell,,D77,2016-07-21T10:16:20+06:00,
1000000000214580,77781311852,mKcell,mMTS,mKcell,D77,D02,2016-07-21T10:18:58+06:00,
1000000000214583,77710440202,mKcell,mKarTel,mKarTel,,D02,2016-07-21T10:21:30+06:00,
1000000000214584,77019240027,mMTS,mKcell,mKcell,,D77,2016-07-21T10:20:23+06:00,
1000000000214585,77012228204,mMTS,mKcell,mKcell,,D77,2016-07-21T10:21:39+06:00,
1000000000214587,77777777340,mKcell,mKarTel,mKarTel,,D02,2016-07-21T10:24:41+06:00,
1000000000214589,77778289900,mKarTel,mMTS,mKarTel,D77,D01,2016-07-21T10:24:53+06:00,
1000000000214590,77014393970,mKarTel,mKcell,mKcell,,D01,2016-07-21T10:28:20+06:00,
