NPId,Number,RecipientId,DonorId,RangeHolderId,OldRoute,NewRoute,PortDate,RowCount
1000000000374823,77071937544,mKarTel,mMTS,mMTS,,D01,2017-04-29T17:30:33+06:00,22
1000000000374824,77017266232,mKarTel,mKcell,mKcell,,D01,2017-04-29T17:31:41+06:00,
1000000000374825,77059664411,mMTS,mKarTel,mKarTel,,D77,2017-04-29T17:34:15+06:00,
1000000000374826,77077050808,mKarTel,mMTS,mMTS,,D01,2017-04-29T17:37:51+06:00,
1000000000374827,77057781778,mMTS,mKarTel,mKarTel,,D77,2017-04-29T17:38:05+06:00,
1000000000374828,77470544061,mKcell,mMTS,mMTS,,D02,2017-04-29T17:38:55+06:00,
1000000000374829,77019185353,mAltel,mKcell,mKcell,,D07,2017-04-29T17:38:58+06:00,
1000000000374832,77059111096,mMTS,mKarTel,mKarTel,,D77,2017-04-29T17:41:09+06:00,
1000000000374833,77714044360,mKcell,mMTS,mKarTel,D77,D02,2017-04-29T17:41:45+06:00,
1000000000374834,77007977079,mMTS,mAltel,mAltel,,D77,2017-04-29T17:42:12+06:00,
1000000000374835,77782662575,mMTS,mKcell,mKcell,,D77,2017-04-29T17:42:52+06:00,
1000000000374836,77023154594,mKcell,mMTS,mKcell,D77,D02,2017-04-29T17:43:16+06:00,
1000000000374837,77474153039,mKcell,mMTS,mMTS,,D02,2017-04-29T17:44:05+06:00,
1000000000374838,77055322291,mKcell,mKarTel,mKarTel,,D02,2017-04-29T17:46:00+06:00,
1000000000374839,77011881818,mKcell,mAltel,mKcell,D07,D02,2017-04-29T17:47:18+06:00,
1000000000374840,77774619528,mMTS,mKarTel,mKarTel,,D77,2017-04-29T17:48:06+06:00,
1000000000374841,77751753453,mMTS,mKcell,mKcell,,D77,2017-04-29T17:47:54+06:00,
1000000000374843,77752364546,mMTS,mKcell,mKcell,D02,D77,2017-04-29T17:49:09+06:00,
1000000000374846,77012551919,mMTS,mKcell,mKcell,,D77,2017-04-29T17:53:07+06:00,
1000000000374847,77017770015,mMTS,mKcell,mKcell,,D77,2017-04-29T17:53:31+06:00,
1000000000374849,77471440592,mKcell,mMTS,mMTS,,D02,2017-04-29T17:55:12+06:00,
1000000000374850,77028959868,mMTS,mKcell,mKcell,,D77,2017-04-29T17:57:57+06:00,
