NPId,Number,RecipientId,DonorId,RangeHolderId,OldRoute,NewRoute,PortDate,RowCount
1000000000280152,77016880555,mAltel,mKcell,mKcell,,D07,2016-11-16T18:00:33+06:00,17
1000000000280153,77756533644,mMTS,mKcell,mKcell,,D77,2016-11-16T18:01:37+06:00,
1000000000280154,77072149510,mKarTel,mMTS,mMTS,,D01,2016-11-16T18:01:53+06:00,
1000000000280155,77789950864,mMTS,mKcell,mKcell,,D77,2016-11-16T18:05:42+06:00,
1000000000280156,77014003390,mMTS,mKcell,mKcell,,D77,2016-11-16T18:07:43+06:00,
1000000000280158,77771568855,mKcell,mKarTel,mKarTel,,D02,2016-11-16T18:12:27+06:00,
1000000000280159,77477378880,mKcell,mMTS,mMTS,,D02,2016-11-16T18:12:26+06:00,
1000000000280160,77756533643,mMTS,mKcell,mKcell,,D77,2016-11-16T18:12:38+06:00,
1000000000280161,77752619661,mMTS,mKcell,mKcell,,D77,2016-11-16T18:12:49+06:00,
1000000000280162,77758476782,mMTS,mKcell,mKcell,,D77,2016-11-16T18:13:00+06:00,
1000000000280163,77758479206,mMTS,mKcell,mKcell,,D77,2016-11-16T18:17:18+06:00,
1000000000280164,77057194444,mMTS,mKarTel,mKarTel,,D77,2016-11-16T18:18:15+06:00,
1000000000280165,77760100717,mKcell,mKarTel,mKarTel,,D02,2016-11-16T18:19:53+06:00,
1000000000280166,77756662425,mAltel,mKcell,mKcell,,D07,2016-11-16T18:20:07+06:00,
1000000000280167,77016140244,mMTS,mKcell,mKcell,,D77,2016-11-16T18:21:00+06:00,
1000000000280168,77004444317,mKcell,mAltel,mAltel,,D02,2016-11-16T18:23:01+06:00,
1000000000280169,77758471064,mMTS,mKcell,mKcell,,D77,2016-11-16T18:25:07+06:00,
