NPId,Number,RecipientId,DonorId,RangeHolderId,OldRoute,NewRoute,PortDate,RowCount
1000000000396551,77472580362,mKcell,mMTS,mMTS,,D02,2017-06-03T12:00:28+06:00,31
1000000000396552,77076058580,mAltel,mMTS,mMTS,,D07,2017-06-03T12:00:29+06:00,
1000000000396553,77052634624,mKarTel,mKcell,mKarTel,D02,D01,2017-06-03T12:01:14+06:00,
1000000000396554,77478464911,mMTS,mKarTel,mMTS,D01,D77,2017-06-03T12:02:13+06:00,
1000000000396555,77007138313,mKcell,mAltel,mAltel,,D02,2017-06-03T12:02:13+06:00,
1000000000396556,77052634622,mKarTel,mKcell,mKarTel,D02,D01,2017-06-03T12:03:11+06:00,
1000000000396557,77015918107,mAltel,mKcell,mKcell,,D07,2017-06-03T12:03:06+06:00,
1000000000396558,77051018011,mMTS,mKarTel,mKarTel,,D77,2017-06-03T12:04:08+06:00,
1000000000396559,77052634617,mKarTel,mKcell,mKarTel,D02,D01,2017-06-03T12:04:19+06:00,
1000000000396560,77015195142,mAltel,mKcell,mKcell,,D07,2017-06-03T12:04:27+06:00,
1000000000396561,77052629094,mKarTel,mKcell,mKarTel,D02,D01,2017-06-03T12:05:38+06:00,
1000000000396562,77052324719,mKarTel,mKcell,mKarTel,D02,D01,2017-06-03T12:07:08+06:00,
1000000000396563,77754385678,mMTS,mKcell,mKcell,,D77,2017-06-03T12:07:00+06:00,
1000000000396564,77023454940,mKcell,mAltel,mKcell,D07,D02,2017-06-03T12:07:16+06:00,
1000000000396565,77073622346,mKarTel,mKcell,mMTS,D02,D01,2017-06-03T12:08:05+06:00,
1000000000396566,77018703733,mMTS,mKcell,mKcell,,D77,2017-06-03T12:08:19+06:00,
1000000000396567,77017400927,mKarTel,mKcell,mKcell,,D01,2017-06-03T12:09:02+06:00,
1000000000396568,77077221090,mAltel,mMTS,mMTS,,D07,2017-06-03T12:09:27+06:00,
1000000000396570,77003499000,mKcell,mAltel,mAltel,,D02,2017-06-03T12:11:01+06:00,
1000000000396571,77055707572,mMTS,mKarTel,mKarTel,,D77,2017-06-03T12:11:17+06:00,
1000000000396572,77018703750,mMTS,mKcell,mKcell,,D77,2017-06-03T12:11:20+06:00,
1000000000396573,77077056275,mKcell,mMTS,mMTS,,D02,2017-06-03T12:13:03+06:00,
1000000000396574,77053162136,mMTS,mKarTel,mKarTel,,D77,2017-06-03T12:13:15+06:00,
1000000000396575,77018703830,mMTS,mKcell,mKcell,,D77,2017-06-03T12:13:23+06:00,
1000000000396579,77018830111,mKarTel,mKcell,mKcell,,D01,2017-06-03T12:23:12+06:00,
1000000000396580,77025020987,mKcell,mMTS,mKcell,D77,D02,2017-06-03T12:24:09+06:00,
1000000000396581,77762228720,mKcell,mKarTel,mKarTel,,D02,2017-06-03T12:27:04+06:00,
1000000000396582,77074799497,mKarTel,mMTS,mMTS,,D01,2017-06-03T12:26:49+06:00,
1000000000396583,77028133484,mAltel,mKcell,mKcell,,D07,2017-06-03T12:27:46+06:00,
1000000000396584,77471771889,mKcell,mMTS,mMTS,,D02,2017-06-03T12:28:12+06:00,
1000000000396587,77024192994,mAltel,mKcell,mKcell,,D07,2017-06-03T12:29:04+06:00,
