NPId,Number,RecipientId,DonorId,RangeHolderId,OldRoute,NewRoute,PortDate,RowCount
1000000000124079,77009368093,mMTS,mAltel,mAltel,,D77,2016-03-13T16:31:23+06:00,22
1000000000124080,77010388388,mMTS,mKcell,mKcell,,D77,2016-03-13T16:31:43+06:00,
1000000000124081,77019037177,mMTS,mKcell,mKcell,,D77,2016-03-13T16:32:11+06:00,
1000000000124082,77054063815,mAltel,mKarTel,mKarTel,,D07,2016-03-13T16:34:14+06:00,
1000000000124083,77476104761,mAltel,mMTS,mMTS,,D07,2016-03-13T16:35:24+06:00,
1000000000124084,77058267546,mMTS,mKarTel,mKarTel,,D77,2016-03-13T16:36:24+06:00,
1000000000124085,77027278718,mMTS,mKcell,mKcell,,D77,2016-03-13T16:36:26+06:00,
1000000000124088,77014707121,mMTS,mKcell,mKcell,,D77,2016-03-13T16:39:31+06:00,
1000000000124089,77781005595,mMTS,mKcell,mKcell,,D77,2016-03-13T16:40:41+06:00,
1000000000124090,77074399999,mKcell,mMTS,mMTS,,D02,2016-03-13T16:42:17+06:00,
1000000000124091,77754852069,mMTS,mKcell,mKcell,,D77,2016-03-13T16:42:47+06:00,
1000000000124092,77013365056,mAltel,mKcell,mKcell,,D07,2016-03-13T16:43:36+06:00,
1000000000124093,77778650592,mAltel,mKarTel,mKarTel,,D07,2016-03-13T16:44:00+06:00,
1000000000124096,77051598030,mAltel,mKarTel,mKarTel,,D07,2016-03-13T16:45:04+06:00,
1000000000124098,77777795917,mAltel,mKarTel,mKarTel,,D07,2016-03-13T16:46:53+06:00,
1000000000124099,77056686767,mMTS,mKarTel,mKarTel,,D77,2016-03-13T16:47:22+06:00,
1000000000124101,77781005545,mMTS,mKcell,mKcell,,D77,2016-03-13T16:49:05+06:00,
1000000000124102,77755544419,mMTS,mKcell,mKcell,,D77,2016-03-13T16:50:00+06:00,
1000000000124105,77762181775,mMTS,mKarTel,mKarTel,,D77,2016-03-13T16:54:27+06:00,
1000000000124106,77477779774,mAltel,mMTS,mMTS,,D07,2016-03-13T16:57:58+06:00,
1000000000124109,77075185055,mAltel,mMTS,mMTS,,D07,2016-03-13T16:59:19+06:00,
1000000000124110,77751278452,mMTS,mKcell,mKcell,,D77,2016-03-13T16:59:49+06:00,
