NPId,Number,RecipientId,DonorId,RangeHolderId,OldRoute,NewRoute,PortDate,RowCount
1000000000248578,77012229037,mMTS,mKcell,mKcell,,D77,2016-09-21T14:42:23+06:00,24
1000000000249038,77714900096,mAltel,mKarTel,mKarTel,,D07,2016-09-21T14:33:25+06:00,
1000000000249039,77017168941,mKarTel,mKcell,mKcell,,D01,2016-09-21T14:31:31+06:00,
1000000000249040,77057633976,mKcell,mKarTel,mKarTel,,D02,2016-09-21T14:35:31+06:00,
1000000000249041,77072582934,mKcell,mMTS,mMTS,,D02,2016-09-21T14:34:20+06:00,
1000000000249042,77089094868,mKarTel,mKcell,mAltel,D02,D01,2016-09-21T14:35:20+06:00,
1000000000249043,77017672020,mMTS,mKcell,mKcell,,D77,2016-09-21T14:38:06+06:00,
1000000000249044,77015973553,mKcell,mKarTel,mKcell,D01,D02,2016-09-21T14:44:48+06:00,
1000000000249045,77754503179,mKarTel,mKcell,mKcell,,D01,2016-09-21T14:42:35+06:00,
1000000000249047,77768992999,mKarTel,mKcell,mKarTel,D02,D01,2016-09-21T14:46:11+06:00,
1000000000249048,77718610183,mAltel,mKarTel,mKarTel,,D07,2016-09-21T14:49:49+06:00,
1000000000249049,77758184880,mMTS,mKcell,mKcell,,D77,2016-09-21T14:47:10+06:00,
1000000000249050,77019072957,mMTS,mKcell,mKcell,,D77,2016-09-21T14:48:07+06:00,
1000000000249051,77785002686,mMTS,mKcell,mKcell,,D77,2016-09-21T14:48:10+06:00,
1000000000249052,77479809273,mKcell,mMTS,mMTS,,D02,2016-09-21T14:48:26+06:00,
1000000000249053,77024370277,mAltel,mKcell,mKcell,,D07,2016-09-21T14:49:36+06:00,
1000000000249054,77479090609,mKarTel,mMTS,mMTS,,D01,2016-09-21T14:51:32+06:00,
1000000000249056,77474098980,mKcell,mMTS,mMTS,,D02,2016-09-21T14:53:09+06:00,
1000000000249057,77015521727,mMTS,mKcell,mKcell,,D77,2016-09-21T14:54:40+06:00,
1000000000249058,77025404501,mKcell,mAltel,mKcell,D07,D02,2016-09-21T14:54:55+06:00,
1000000000249060,77476067095,mKcell,mMTS,mMTS,,D02,2016-09-21T14:56:00+06:00,
1000000000249061,77077775458,mKarTel,mMTS,mMTS,,D01,2016-09-21T14:56:59+06:00,
1000000000249064,77770996632,mKarTel,mAltel,mKarTel,D07,D01,2016-09-21T14:58:48+06:00,
1000000000249067,77074132408,mKcell,mMTS,mMTS,,D02,2016-09-21T14:59:23+06:00,
