NPId,Number,RecipientId,DonorId,RangeHolderId,OldRoute,NewRoute,PortDate,RowCount
1000000000407147,77013115511,mKarTel,mKcell,mKcell,,D01,2017-06-21T19:00:26+06:00,16
1000000000407148,77471304513,mKcell,mMTS,mMTS,,D02,2017-06-21T19:00:44+06:00,
1000000000407149,77714686588,mKcell,mKarTel,mKarTel,,D02,2017-06-21T19:01:56+06:00,
1000000000407150,77478862245,mKarTel,mMTS,mMTS,,D01,2017-06-21T19:03:59+06:00,
1000000000407151,77756030939,mKarTel,mKcell,mKcell,,D01,2017-06-21T19:05:41+06:00,
1000000000407152,77789700392,mAltel,mKcell,mKcell,,D07,2017-06-21T19:08:05+06:00,
1000000000407154,77016863936,mKcell,mMTS,mKcell,D77,D02,2017-06-21T19:13:28+06:00,
1000000000407155,77770991011,mKcell,mKarTel,mKarTel,,D02,2017-06-21T19:16:22+06:00,
1000000000407156,77072033400,mKcell,mMTS,mMTS,,D02,2017-06-21T19:16:17+06:00,
1000000000407157,77078368663,mKcell,mMTS,mMTS,,D02,2017-06-21T19:19:37+06:00,
1000000000407158,77052297177,mAltel,mKarTel,mKarTel,,D07,2017-06-21T19:22:20+06:00,
1000000000407159,77025500505,mKcell,mKarTel,mKcell,D01,D02,2017-06-21T19:22:54+06:00,
1000000000407160,77718178101,mKcell,mKarTel,mKarTel,,D02,2017-06-21T19:23:49+06:00,
1000000000407164,77072921158,mAltel,mMTS,mMTS,,D07,2017-06-21T19:25:19+06:00,
1000000000407165,77011473029,mKarTel,mKcell,mKcell,,D01,2017-06-21T19:25:46+06:00,
1000000000407166,77474928910,mKcell,mMTS,mMTS,,D02,2017-06-21T19:28:42+06:00,
