NPId,Number,RecipientId,DonorId,RangeHolderId,OldRoute,NewRoute,PortDate,RowCount
1000000000433703,77010354548,mKcell,mKarTel,mKcell,D01,D02,2017-08-03T10:50:37+06:00,29
1000000000433704,77052630707,mKcell,mKarTel,mKarTel,,D02,2017-08-03T10:50:46+06:00,
1000000000433923,77016117500,mMTS,mKcell,mKcell,,D77,2017-08-03T10:30:02+06:00,
1000000000433924,77028883527,mMTS,mKcell,mKcell,,D77,2017-08-03T10:30:08+06:00,
1000000000433926,77017111289,mAltel,mKcell,mKcell,,D07,2017-08-03T10:31:45+06:00,
1000000000433929,77012221902,mKcell,mKarTel,mKcell,D01,D02,2017-08-03T10:34:17+06:00,
1000000000433930,77089578287,mKarTel,mAltel,mAltel,D07,D01,2017-08-03T10:35:14+06:00,
1000000000433931,77007949594,mKcell,mAltel,mAltel,,D02,2017-08-03T10:36:35+06:00,
1000000000433932,77753427426,mAltel,mKcell,mKcell,,D07,2017-08-03T10:36:51+06:00,
1000000000433933,77017630163,mKcell,mKarTel,mKcell,D01,D02,2017-08-03T10:39:40+06:00,
1000000000433934,77015189382,mKarTel,mKcell,mKcell,,D01,2017-08-03T10:40:42+06:00,
1000000000433935,77015701968,mKcell,mMTS,mKcell,D77,D02,2017-08-03T10:42:23+06:00,
1000000000433936,77070409201,mKarTel,mMTS,mMTS,,D01,2017-08-03T10:42:41+06:00,
1000000000433936,77070409203,mKarTel,mMTS,mMTS,,D01,2017-08-03T10:42:41+06:00,
1000000000433936,77070409205,mKarTel,mMTS,mMTS,,D01,2017-08-03T10:42:41+06:00,
1000000000433936,77070409206,mKarTel,mMTS,mMTS,,D01,2017-08-03T10:42:41+06:00,
1000000000433936,77070409207,mKarTel,mMTS,mMTS,,D01,2017-08-03T10:42:41+06:00,
1000000000433936,77076706016,mKarTel,mMTS,mMTS,,D01,2017-08-03T10:42:41+06:00,
1000000000433940,77055705753,mKarTel,mMTS,mKarTel,D77,D01,2017-08-03T10:45:50+06:00,
1000000000433942,77012232496,mKarTel,mKcell,mKcell,,D01,2017-08-03T10:46:26+06:00,
1000000000433943,77012226362,mMTS,mKcell,mKcell,,D77,2017-08-03T10:46:45+06:00,
1000000000433945,77029377772,mAltel,mKcell,mKcell,,D07,2017-08-03T10:49:22+06:00,
1000000000433946,77072343532,mMTS,mAltel,mMTS,D07,D77,2017-08-03T10:50:21+06:00,
1000000000433947,77751659999,mAltel,mKcell,mKcell,,D07,2017-08-03T10:51:10+06:00,
1000000000433948,77789290335,mKarTel,mAltel,mKcell,D07,D01,2017-08-03T10:51:20+06:00,
1000000000433950,77788734342,mKcell,mAltel,mKcell,D07,D02,2017-08-03T10:52:25+06:00,
1000000000433951,77774918166,mMTS,mKarTel,mKarTel,,D77,2017-08-03T10:52:34+06:00,
1000000000433954,77074785559,mKcell,mMTS,mMTS,,D02,2017-08-03T10:57:41+06:00,
1000000000433955,77773988773,mMTS,mKarTel,mKarTel,,D77,2017-08-03T10:58:01+06:00,
