NPId,Number,RecipientId,DonorId,RangeHolderId,OldRoute,NewRoute,PortDate,RowCount
1000000000295488,77779999908,mKcell,mKarTel,mKarTel,D01,D02,2016-12-15T18:32:36+06:00,18
1000000000295873,77752845555,mMTS,mKcell,mKcell,,D77,2016-12-15T18:33:15+06:00,
1000000000295874,77771311182,mKcell,mKarTel,mKarTel,,D02,2016-12-15T18:35:18+06:00,
1000000000295875,77767555002,mKcell,mKarTel,mKarTel,,D02,2016-12-15T18:35:14+06:00,
1000000000295877,77073789848,mAltel,mMTS,mMTS,,D07,2016-12-15T18:37:19+06:00,
1000000000295878,77770233310,mKcell,mKarTel,mKarTel,,D02,2016-12-15T18:38:22+06:00,
1000000000295879,77025010444,mKcell,mKarTel,mKcell,D01,D02,2016-12-15T18:38:32+06:00,
1000000000295881,77756878877,mKarTel,mKcell,mKcell,,D01,2016-12-15T18:42:54+06:00,
1000000000295883,77477413814,mKarTel,mMTS,mMTS,,D01,2016-12-15T18:45:10+06:00,
1000000000295884,77027964251,mKarTel,mKcell,mKcell,,D01,2016-12-15T18:45:27+06:00,
1000000000295885,77772161991,mMTS,mKarTel,mKarTel,,D77,2016-12-15T18:45:40+06:00,
1000000000295886,77760660404,mKcell,mKarTel,mKarTel,,D02,2016-12-15T18:45:59+06:00,
1000000000295887,77755329199,mMTS,mKcell,mKcell,,D77,2016-12-15T18:45:27+06:00,
1000000000295888,77471620642,mKcell,mMTS,mMTS,,D02,2016-12-15T18:45:39+06:00,
1000000000295889,77771672555,mKarTel,mKcell,mKarTel,D02,D01,2016-12-15T18:45:41+06:00,
1000000000295890,77075171798,mAltel,mMTS,mMTS,,D07,2016-12-15T18:46:35+06:00,
1000000000295899,77712220707,mKcell,mKarTel,mKarTel,,D02,2016-12-15T18:56:35+06:00,
1000000000295900,77089704822,mMTS,mAltel,mAltel,,D77,2016-12-15T18:56:54+06:00,
