NPId,Number,RecipientId,DonorId,RangeHolderId,OldRoute,NewRoute,PortDate,RowCount
1000000000333462,77478587313,mKcell,mMTS,mMTS,,D02,2017-02-23T13:01:14+06:00,24
1000000000333464,77077666288,mKarTel,mMTS,mMTS,,D01,2017-02-23T13:02:29+06:00,
1000000000333465,77077851585,mKcell,mMTS,mMTS,,D02,2017-02-23T13:02:44+06:00,
1000000000333466,77756957470,mMTS,mKcell,mKcell,,D77,2017-02-23T13:05:40+06:00,
1000000000333467,77026943094,mKarTel,mKcell,mKcell,,D01,2017-02-23T13:07:52+06:00,
1000000000333468,77784864626,mMTS,mKcell,mKcell,,D77,2017-02-23T13:07:53+06:00,
1000000000333469,77073066639,mKarTel,mMTS,mMTS,,D01,2017-02-23T13:08:27+06:00,
1000000000333470,77082606699,mKcell,mKarTel,mAltel,D01,D02,2017-02-23T13:08:45+06:00,
1000000000333472,77776525363,mMTS,mKarTel,mKarTel,,D77,2017-02-23T13:08:53+06:00,
1000000000333473,77018320817,mMTS,mAltel,mKcell,D07,D77,2017-02-23T13:08:57+06:00,
1000000000333475,77085565605,mKcell,mKarTel,mAltel,D01,D02,2017-02-23T13:12:08+06:00,
1000000000333476,77087580148,mMTS,mAltel,mAltel,,D77,2017-02-23T13:12:18+06:00,
1000000000333477,77773288617,mMTS,mKarTel,mKarTel,,D77,2017-02-23T13:13:01+06:00,
1000000000333478,77764444818,mMTS,mKarTel,mKarTel,,D77,2017-02-23T13:16:24+06:00,
1000000000333479,77026111121,mKarTel,mKcell,mKcell,,D01,2017-02-23T13:20:38+06:00,
1000000000333480,77019892501,mMTS,mKcell,mKcell,,D77,2017-02-23T13:20:28+06:00,
1000000000333481,77017140073,mKarTel,mKcell,mKcell,,D01,2017-02-23T13:21:00+06:00,
1000000000333485,77028978040,mKcell,mMTS,mKcell,D77,D02,2017-02-23T13:25:24+06:00,
1000000000333487,77053643764,mMTS,mKarTel,mKarTel,,D77,2017-02-23T13:25:36+06:00,
1000000000333488,77001001803,mKcell,mAltel,mAltel,,D02,2017-02-23T13:26:11+06:00,
1000000000333489,77712171011,mMTS,mKarTel,mKarTel,,D77,2017-02-23T13:26:44+06:00,
1000000000333492,77752420660,mKcell,mMTS,mKcell,D77,D02,2017-02-23T13:28:42+06:00,
1000000000333493,77770655562,mKarTel,mMTS,mKarTel,D77,D01,2017-02-23T13:29:05+06:00,
1000000000333494,77007100704,mKarTel,mAltel,mAltel,,D01,2017-02-23T13:29:28+06:00,
