NPId,Number,RecipientId,DonorId,RangeHolderId,OldRoute,NewRoute,PortDate,RowCount
1000000000181168,77017125740,mKarTel,mKcell,mKcell,,D01,2016-05-26T11:23:14+06:00,23
1000000000181172,77759125026,mKcell,mMTS,mKcell,D77,D02,2016-05-26T11:01:35+06:00,
1000000000181173,77055033149,mMTS,mKarTel,mKarTel,,D77,2016-05-26T11:02:11+06:00,
1000000000181175,77018097922,mAltel,mKcell,mKcell,,D07,2016-05-26T11:03:21+06:00,
1000000000181176,77056665757,mMTS,mKarTel,mKarTel,,D77,2016-05-26T11:05:51+06:00,
1000000000181177,77023622836,mMTS,mKcell,mKcell,,D77,2016-05-26T11:06:40+06:00,
1000000000181178,77028746363,mMTS,mKcell,mKcell,,D77,2016-05-26T11:06:40+06:00,
1000000000181179,77014318881,mMTS,mKcell,mKcell,,D77,2016-05-26T11:07:40+06:00,
1000000000181180,77773374299,mMTS,mKarTel,mKarTel,,D77,2016-05-26T11:07:46+06:00,
1000000000181181,77051214487,mKarTel,mMTS,mKarTel,D77,D01,2016-05-26T11:08:33+06:00,
1000000000181183,77056421491,mMTS,mKarTel,mKarTel,,D77,2016-05-26T11:10:12+06:00,
1000000000181185,77017457050,mKcell,mMTS,mKcell,D77,D02,2016-05-26T11:16:43+06:00,
1000000000181186,77751445511,mMTS,mKcell,mKcell,,D77,2016-05-26T11:16:26+06:00,
1000000000181188,77015199238,mKcell,mAltel,mKcell,D07,D02,2016-05-26T11:18:41+06:00,
1000000000181191,77002333391,mKcell,mAltel,mAltel,,D02,2016-05-26T11:20:05+06:00,
1000000000181192,77779314646,mKcell,mKarTel,mKarTel,,D02,2016-05-26T11:20:45+06:00,
1000000000181193,77757345677,mMTS,mKcell,mKcell,,D77,2016-05-26T11:21:04+06:00,
1000000000181194,77055047810,mMTS,mKarTel,mKarTel,,D77,2016-05-26T11:23:12+06:00,
1000000000181195,77716768181,mKcell,mKarTel,mKarTel,,D02,2016-05-26T11:24:37+06:00,
1000000000181196,77016117530,mKcell,mKarTel,mKcell,D01,D02,2016-05-26T11:24:36+06:00,
1000000000181197,77012880161,mKarTel,mKcell,mKcell,,D01,2016-05-26T11:25:27+06:00,
1000000000181198,77052794478,mMTS,mKarTel,mKarTel,,D77,2016-05-26T11:26:07+06:00,
1000000000181199,77759838626,mMTS,mKcell,mKcell,,D77,2016-05-26T11:27:37+06:00,
