NPId,Number,RecipientId,DonorId,RangeHolderId,OldRoute,NewRoute,PortDate,RowCount
1000000000187159,77052342770,mKcell,mKarTel,mKarTel,,D02,2016-06-03T14:01:10+06:00,18
1000000000187160,77789191417,mAltel,mKcell,mKcell,,D07,2016-06-03T14:01:10+06:00,
1000000000187162,77014895062,mMTS,mKcell,mKcell,,D77,2016-06-03T14:02:34+06:00,
1000000000187163,77059118884,mKarTel,mAltel,mKarTel,D07,D01,2016-06-03T14:02:53+06:00,
1000000000187164,77003286128,mKcell,mAltel,mAltel,,D02,2016-06-03T14:04:05+06:00,
1000000000187165,77077773560,mKcell,mMTS,mMTS,,D02,2016-06-03T14:04:05+06:00,
1000000000187166,77055267000,mKarTel,mMTS,mKarTel,D77,D01,2016-06-03T14:05:26+06:00,
1000000000187167,77083577824,mKcell,mAltel,mAltel,,D02,2016-06-03T14:08:17+06:00,
1000000000187168,77076616166,mKcell,mMTS,mMTS,,D02,2016-06-03T14:08:19+06:00,
1000000000187169,77763747330,mMTS,mKarTel,mKarTel,,D77,2016-06-03T14:08:53+06:00,
1000000000187174,77788948666,mMTS,mKcell,mKcell,,D77,2016-06-03T14:15:20+06:00,
1000000000187175,77772955048,mMTS,mKarTel,mKarTel,,D77,2016-06-03T14:26:09+06:00,
1000000000187176,77054781554,mMTS,mKarTel,mKarTel,,D77,2016-06-03T14:26:11+06:00,
1000000000187178,77012080108,mMTS,mKcell,mKcell,,D77,2016-06-03T14:19:49+06:00,
1000000000187179,77021931868,mMTS,mAltel,mKcell,D07,D77,2016-06-03T14:22:47+06:00,
1000000000187180,77075663060,mMTS,mAltel,mMTS,D07,D77,2016-06-03T14:23:35+06:00,
1000000000187187,77021429968,mMTS,mKcell,mKcell,,D77,2016-06-03T14:27:41+06:00,
1000000000187188,77021233388,mKcell,mAltel,mKcell,D07,D02,2016-06-03T14:28:27+06:00,
