NPId,Number,RecipientId,DonorId,RangeHolderId,OldRoute,NewRoute,PortDate,RowCount
1000000000099207,77772802697,mKcell,mKarTel,mKarTel,,D02,2016-02-25T15:30:24+06:00,50
1000000000099210,77711803244,mKcell,mKarTel,mKarTel,,D02,2016-02-25T15:32:19+06:00,
1000000000099212,77759166395,mAltel,mKcell,mKcell,,D07,2016-02-25T15:32:27+06:00,
1000000000099213,77012777253,mMTS,mKcell,mKcell,,D77,2016-02-25T15:32:47+06:00,
1000000000099214,77079961837,mKarTel,mMTS,mMTS,,D01,2016-02-25T15:32:29+06:00,
1000000000099215,77076613383,mKcell,mMTS,mMTS,,D02,2016-02-25T15:32:58+06:00,
1000000000099216,77786170510,mMTS,mKcell,mKcell,,D77,2016-02-25T15:33:17+06:00,
1000000000099218,77753217177,mMTS,mKcell,mKcell,,D77,2016-02-25T15:33:44+06:00,
1000000000099220,77751110000,mAltel,mKcell,mKcell,,D07,2016-02-25T15:34:18+06:00,
1000000000099221,77071654767,mKcell,mMTS,mMTS,,D02,2016-02-25T15:34:26+06:00,
1000000000099223,77027650201,mAltel,mKcell,mKcell,,D07,2016-02-25T15:34:30+06:00,
1000000000099224,77776239004,mMTS,mKarTel,mKarTel,,D77,2016-02-25T15:35:00+06:00,
1000000000099225,77012663171,mMTS,mKcell,mKcell,,D77,2016-02-25T15:35:51+06:00,
1000000000099227,77028541498,mMTS,mKcell,mKcell,,D77,2016-02-25T15:37:31+06:00,
1000000000099228,77017133844,mAltel,mKcell,mKcell,,D07,2016-02-25T15:39:35+06:00,
1000000000099229,77076694121,mKarTel,mMTS,mMTS,,D01,2016-02-25T15:39:45+06:00,
1000000000099230,77003368748,mKarTel,mAltel,mAltel,,D01,2016-02-25T15:40:22+06:00,
1000000000099232,77072384169,mKcell,mMTS,mMTS,,D02,2016-02-25T15:40:53+06:00,
1000000000099234,77076694128,mKarTel,mMTS,mMTS,,D01,2016-02-25T15:41:16+06:00,
1000000000099236,77777771898,mKcell,mKarTel,mKarTel,,D02,2016-02-25T15:42:39+06:00,
1000000000099239,77076694127,mKarTel,mMTS,mMTS,,D01,2016-02-25T15:43:34+06:00,
1000000000099240,77022933332,mAltel,mKcell,mKcell,,D07,2016-02-25T15:43:47+06:00,
1000000000099241,77028050643,mKarTel,mKcell,mKcell,,D01,2016-02-25T15:45:09+06:00,
1000000000099243,77755708271,mKarTel,mKcell,mKcell,,D01,2016-02-25T15:45:58+06:00,
1000000000099244,77076613393,mKcell,mMTS,mMTS,,D02,2016-02-25T15:46:33+06:00,
1000000000099245,77787779013,mKarTel,mKcell,mKcell,,D01,2016-02-25T15:47:12+06:00,
1000000000099246,77019532563,mKarTel,mKcell,mKcell,,D01,2016-02-25T15:47:18+06:00,
1000000000099247,77013215501,mMTS,mKcell,mKcell,,D77,2016-02-25T15:47:06+06:00,
1000000000099249,77089430995,mMTS,mAltel,mAltel,,D77,2016-02-25T15:47:37+06:00,
1000000000099250,77755657367,mKarTel,mKcell,mKcell,,D01,2016-02-25T15:48:19+06:00,
1000000000099251,77013766037,mMTS,mKcell,mKcell,,D77,2016-02-25T15:48:53+06:00,
1000000000099252,77027118484,mMTS,mKcell,mKcell,,D77,2016-02-25T15:49:36+06:00,
1000000000099253,77772553377,mKcell,mKarTel,mKarTel,,D02,2016-02-25T15:50:18+06:00,
1000000000099254,77076613454,mKcell,mMTS,mMTS,,D02,2016-02-25T15:49:55+06:00,
1000000000099255,77755652366,mKarTel,mKcell,mKcell,,D01,2016-02-25T15:50:20+06:00,
1000000000099256,77019999219,mMTS,mKcell,mKcell,,D77,2016-02-25T15:51:43+06:00,
1000000000099257,77052784323,mKcell,mKarTel,mKarTel,,D02,2016-02-25T15:52:10+06:00,
1000000000099258,77012224133,mAltel,mKcell,mKcell,,D07,2016-02-25T15:51:50+06:00,
1000000000099259,77755716817,mKarTel,mKcell,mKcell,,D01,2016-02-25T15:52:29+06:00,
1000000000099261,77057780207,mMTS,mKarTel,mKarTel,,D77,2016-02-25T15:53:32+06:00,
1000000000099262,77076613411,mKcell,mMTS,mMTS,,D02,2016-02-25T15:53:36+06:00,
1000000000099263,77077230810,mAltel,mMTS,mMTS,,D07,2016-02-25T15:53:58+06:00,
1000000000099264,77755653772,mKarTel,mKcell,mKcell,,D01,2016-02-25T15:54:24+06:00,
1000000000099265,77081861937,mKcell,mAltel,mAltel,,D02,2016-02-25T15:55:04+06:00,
1000000000099266,77779111197,mMTS,mKarTel,mKarTel,,D77,2016-02-25T15:55:32+06:00,
1000000000099267,77074442284,mKcell,mMTS,mMTS,,D02,2016-02-25T15:56:52+06:00,
1000000000099270,77018098738,mMTS,mKcell,mKcell,,D77,2016-02-25T15:57:25+06:00,
1000000000099271,77019994824,mAltel,mKcell,mKcell,,D07,2016-02-25T15:58:34+06:00,
1000000000099272,77759208171,mKarTel,mKcell,mKcell,,D01,2016-02-25T15:58:43+06:00,
1000000000099273,77086945753,mKarTel,mAltel,mAltel,,D01,2016-02-25T15:59:14+06:00,
