NPId,Number,RecipientId,DonorId,RangeHolderId,OldRoute,NewRoute,PortDate,RowCount
1000000000107027,77056607203,mAltel,mKarTel,mKarTel,,D07,2016-03-04T15:31:59+06:00,41
1000000000107028,77014395384,mKarTel,mKcell,mKcell,,D01,2016-03-04T15:32:06+06:00,
1000000000107029,77756679422,mMTS,mKcell,mKcell,,D77,2016-03-04T15:32:11+06:00,
1000000000107030,77056607207,mAltel,mKarTel,mKarTel,,D07,2016-03-04T15:32:45+06:00,
1000000000107031,77019103583,mMTS,mKcell,mKcell,,D77,2016-03-04T15:33:42+06:00,
1000000000107032,77055815917,mMTS,mKarTel,mKarTel,,D77,2016-03-04T15:35:13+06:00,
1000000000107033,77017624967,mKarTel,mKcell,mKcell,,D01,2016-03-04T15:36:50+06:00,
1000000000107034,77776062023,mKcell,mKarTel,mKarTel,,D02,2016-03-04T15:37:18+06:00,
1000000000107035,77019995118,mMTS,mKcell,mKcell,,D77,2016-03-04T15:36:43+06:00,
1000000000107036,77765251992,mMTS,mKarTel,mKarTel,,D77,2016-03-04T15:37:20+06:00,
1000000000107037,77012603580,mAltel,mKcell,mKcell,,D07,2016-03-04T15:37:26+06:00,
1000000000107038,77055517753,mAltel,mKarTel,mKarTel,,D07,2016-03-04T15:37:38+06:00,
1000000000107041,77017213977,mAltel,mKcell,mKcell,,D07,2016-03-04T15:38:27+06:00,
1000000000107045,77773950735,mKcell,mKarTel,mKarTel,,D02,2016-03-04T15:40:28+06:00,
1000000000107046,77013458977,mAltel,mKcell,mKcell,,D07,2016-03-04T15:40:28+06:00,
1000000000107047,77013239202,mMTS,mKcell,mKcell,,D77,2016-03-04T15:41:26+06:00,
1000000000107049,77054788759,mKcell,mKarTel,mKarTel,,D02,2016-03-04T15:43:39+06:00,
1000000000107051,77021116550,mMTS,mKcell,mKcell,,D77,2016-03-04T15:43:05+06:00,
1000000000107052,77759262662,mKarTel,mKcell,mKcell,,D01,2016-03-04T15:43:21+06:00,
1000000000107053,77017825952,mAltel,mKcell,mKcell,,D07,2016-03-04T15:43:47+06:00,
1000000000107054,77017550656,mAltel,mKcell,mKcell,,D07,2016-03-04T15:44:14+06:00,
1000000000107055,77713663366,mAltel,mKarTel,mKarTel,,D07,2016-03-04T15:44:26+06:00,
1000000000107057,77056753146,mAltel,mKarTel,mKarTel,,D07,2016-03-04T15:45:04+06:00,
1000000000107059,77059691989,mMTS,mKarTel,mKarTel,,D77,2016-03-04T15:47:21+06:00,
1000000000107060,77782194949,mMTS,mKcell,mKcell,,D77,2016-03-04T15:47:27+06:00,
1000000000107061,77773183064,mMTS,mKarTel,mKarTel,,D77,2016-03-04T15:47:51+06:00,
1000000000107063,77785746221,mAltel,mKcell,mKcell,,D07,2016-03-04T15:48:22+06:00,
1000000000107064,77772004777,mMTS,mKarTel,mKarTel,,D77,2016-03-04T15:48:57+06:00,
1000000000107065,77713548877,mMTS,mKarTel,mKarTel,,D77,2016-03-04T15:49:34+06:00,
1000000000107066,77011229233,mAltel,mKcell,mKcell,,D07,2016-03-04T15:50:41+06:00,
1000000000107068,77775806048,mAltel,mKarTel,mKarTel,,D07,2016-03-04T15:51:25+06:00,
1000000000107071,77080787878,mKcell,mAltel,mAltel,,D02,2016-03-04T15:52:40+06:00,
1000000000107073,77765318440,mMTS,mKarTel,mKarTel,,D77,2016-03-04T15:52:48+06:00,
1000000000107074,77018887565,mMTS,mKcell,mKcell,,D77,2016-03-04T15:54:14+06:00,
1000000000107075,77021080877,mMTS,mKcell,mKcell,,D77,2016-03-04T15:54:14+06:00,
1000000000107076,77014566447,mAltel,mKcell,mKcell,,D07,2016-03-04T15:55:37+06:00,
1000000000107080,77021888881,mAltel,mKcell,mKcell,,D07,2016-03-04T15:58:09+06:00,
1000000000107081,77010919199,mAltel,mKcell,mKcell,,D07,2016-03-04T15:58:17+06:00,
1000000000107082,77758207002,mAltel,mKcell,mKcell,,D07,2016-03-04T15:58:57+06:00,
1000000000107083,77782404495,mMTS,mKcell,mKcell,,D77,2016-03-04T15:59:57+06:00,
1000000000107084,77028700500,mMTS,mKcell,mKcell,,D77,2016-03-04T15:59:53+06:00,
