NPId,Number,RecipientId,DonorId,RangeHolderId,OldRoute,NewRoute,PortDate,RowCount
1000000000244021,77777715777,mMTS,mKarTel,mKarTel,D01,D77,2016-09-11T12:02:35+06:00,9
1000000000244022,77764114112,mMTS,mKarTel,mKarTel,,D77,2016-09-11T12:03:15+06:00,
1000000000244024,77026443516,mMTS,mKcell,mKcell,,D77,2016-09-11T12:09:40+06:00,
1000000000244025,77013355758,mKarTel,mKcell,mKcell,,D01,2016-09-11T12:11:19+06:00,
1000000000244026,77789294387,mMTS,mKcell,mKcell,,D77,2016-09-11T12:14:20+06:00,
1000000000244027,77756677050,mMTS,mKcell,mKcell,,D77,2016-09-11T12:15:31+06:00,
1000000000244032,77077226008,mKarTel,mMTS,mMTS,,D01,2016-09-11T12:23:53+06:00,
1000000000244033,77015586752,mMTS,mKcell,mKcell,,D77,2016-09-11T12:27:32+06:00,
1000000000244034,77087619385,mMTS,mAltel,mAltel,,D77,2016-09-11T12:29:09+06:00,
