NPId,Number,RecipientId,DonorId,RangeHolderId,OldRoute,NewRoute,PortDate,RowCount
1000000000144921,77710005586,mMTS,mAltel,mKarTel,D07,D77,2016-04-06T21:40:44+06:00,2
1000000000144922,77473432403,mKcell,mMTS,mMTS,,D02,2016-04-06T21:59:17+06:00,
