NPId,Number,RecipientId,DonorId,RangeHolderId,OldRoute,NewRoute,PortDate,RowCount
1000000000444395,77751909007,mKarTel,mKcell,mKcell,,D01,2017-08-23T14:32:21+06:00,18
1000000000444397,77074644446,mKcell,mMTS,mMTS,,D02,2017-08-23T14:33:17+06:00,
1000000000444398,77052954444,mKarTel,mAltel,mKarTel,D07,D01,2017-08-23T14:33:32+06:00,
1000000000444399,77771182373,mMTS,mAltel,mKarTel,D07,D77,2017-08-23T14:38:47+06:00,
1000000000444400,77054000797,mMTS,mKarTel,mKarTel,D01,D77,2017-08-23T14:40:22+06:00,
1000000000444401,77759593828,mKarTel,mKcell,mKcell,,D01,2017-08-23T14:41:54+06:00,
1000000000444402,77013545412,mKcell,mKarTel,mKcell,D01,D02,2017-08-23T14:42:41+06:00,
1000000000444404,77754109491,mMTS,mKcell,mKcell,,D77,2017-08-23T14:46:26+06:00,
1000000000444406,77762555571,mMTS,mKarTel,mKarTel,,D77,2017-08-23T14:48:03+06:00,
1000000000444409,77004673255,mKarTel,mAltel,mAltel,,D01,2017-08-23T14:50:06+06:00,
1000000000444410,77012720293,mAltel,mKcell,mKcell,,D07,2017-08-23T14:50:45+06:00,
1000000000444411,77023890605,mKarTel,mKcell,mKcell,,D01,2017-08-23T14:51:08+06:00,
1000000000444412,77082085208,mKcell,mAltel,mAltel,,D02,2017-08-23T14:51:53+06:00,
1000000000444413,77473659817,mMTS,mKcell,mMTS,D02,D77,2017-08-23T14:52:07+06:00,
1000000000444414,77079801123,mAltel,mMTS,mMTS,,D07,2017-08-23T14:52:24+06:00,
1000000000444415,77785612781,mMTS,mKcell,mKcell,,D77,2017-08-23T14:52:40+06:00,
1000000000444416,77017480282,mMTS,mKcell,mKcell,,D77,2017-08-23T14:53:18+06:00,
1000000000444419,77079820720,mAltel,mMTS,mMTS,,D07,2017-08-23T14:55:53+06:00,
