NPId,Number,RecipientId,DonorId,RangeHolderId,OldRoute,NewRoute,PortDate,RowCount
1000000000385512,77019309900,mKcell,mKarTel,mKcell,D01,D02,2017-05-19T10:00:09+06:00,5
1000000000385514,77710003700,mKarTel,mKcell,mKarTel,D02,D01,2017-05-19T10:12:27+06:00,
1000000000385516,77011281628,mMTS,mKcell,mKcell,,D77,2017-05-19T10:18:02+06:00,
1000000000385518,77079008711,mKarTel,mMTS,mMTS,,D01,2017-05-19T10:21:27+06:00,
1000000000385520,77777694507,mMTS,mKarTel,mKarTel,,D77,2017-05-19T10:28:26+06:00,
