NPId,Number,RecipientId,DonorId,RangeHolderId,OldRoute,NewRoute,PortDate,RowCount
1000000000436291,77072280482,mKarTel,mMTS,mMTS,,D01,2017-08-08T11:32:16+06:00,27
1000000000436571,77053144428,mMTS,mKarTel,mKarTel,,D77,2017-08-08T11:30:46+06:00,
1000000000436572,77021053633,mKarTel,mKcell,mKcell,,D01,2017-08-08T11:31:41+06:00,
1000000000436573,77769555111,mKcell,mKarTel,mKarTel,,D02,2017-08-08T11:32:50+06:00,
1000000000436576,77757248485,mMTS,mKcell,mKcell,,D77,2017-08-08T11:33:18+06:00,
1000000000436578,77052036206,mMTS,mKarTel,mKarTel,,D77,2017-08-08T11:34:31+06:00,
1000000000436579,77010850000,mAltel,mKcell,mKcell,,D07,2017-08-08T11:34:37+06:00,
1000000000436580,77055742408,mKarTel,mAltel,mKarTel,D07,D01,2017-08-08T11:36:01+06:00,
1000000000436581,77765550066,mMTS,mKarTel,mKarTel,,D77,2017-08-08T11:37:34+06:00,
1000000000436582,77779231503,mMTS,mKarTel,mKarTel,,D77,2017-08-08T11:37:49+06:00,
1000000000436584,77772305541,mKarTel,mAltel,mKarTel,D07,D01,2017-08-08T11:39:29+06:00,
1000000000436585,77712580175,mKcell,mKarTel,mKarTel,,D02,2017-08-08T11:40:45+06:00,
1000000000436586,77017151196,mMTS,mKcell,mKcell,,D77,2017-08-08T11:41:21+06:00,
1000000000436587,77712084476,mKarTel,mMTS,mKarTel,D77,D01,2017-08-08T11:42:37+06:00,
1000000000436588,77763151513,mKcell,mKarTel,mKarTel,,D02,2017-08-08T11:42:55+06:00,
1000000000436589,77474676585,mAltel,mMTS,mMTS,,D07,2017-08-08T11:42:52+06:00,
1000000000436591,77078101070,mKcell,mAltel,mMTS,D07,D02,2017-08-08T11:45:36+06:00,
1000000000436592,77082085417,mKarTel,mAltel,mAltel,,D01,2017-08-08T11:46:25+06:00,
1000000000436593,77761669015,mMTS,mKarTel,mKarTel,,D77,2017-08-08T11:46:36+06:00,
1000000000436594,77772625421,mMTS,mKarTel,mKarTel,,D77,2017-08-08T11:47:29+06:00,
1000000000436595,77012062510,mMTS,mKcell,mKcell,,D77,2017-08-08T11:47:26+06:00,
1000000000436597,77774010151,mKcell,mKarTel,mKarTel,,D02,2017-08-08T11:54:34+06:00,
1000000000436598,77021540300,mAltel,mKcell,mKcell,,D07,2017-08-08T11:54:51+06:00,
1000000000436599,77078312901,mKcell,mMTS,mMTS,,D02,2017-08-08T11:55:13+06:00,
1000000000436600,77059600044,mKarTel,mMTS,mKarTel,D77,D01,2017-08-08T11:55:30+06:00,
1000000000436601,77012696483,mMTS,mKcell,mKcell,,D77,2017-08-08T11:56:10+06:00,
1000000000436602,77785850491,mKarTel,mKcell,mKcell,,D01,2017-08-08T11:58:42+06:00,
