NPId,Number,RecipientId,DonorId,RangeHolderId,OldRoute,NewRoute,PortDate,RowCount
1000000000381550,77087056133,mKcell,mAltel,mAltel,,D02,2017-05-11T17:31:23+06:00,31
1000000000381552,77006006697,mKcell,mAltel,mAltel,,D02,2017-05-11T17:32:24+06:00,
1000000000381557,77029347123,mKarTel,mKcell,mKcell,,D01,2017-05-11T17:34:33+06:00,
1000000000381558,77753994686,mKarTel,mKcell,mKcell,,D01,2017-05-11T17:34:50+06:00,
1000000000381560,77072342325,mKarTel,mMTS,mMTS,,D01,2017-05-11T17:36:00+06:00,
1000000000381561,77477971877,mKcell,mMTS,mMTS,,D02,2017-05-11T17:36:00+06:00,
1000000000381565,77054605555,mKcell,mKarTel,mKarTel,,D02,2017-05-11T17:38:56+06:00,
1000000000381566,77017277002,mMTS,mKcell,mKcell,,D77,2017-05-11T17:39:15+06:00,
1000000000381567,77029211080,mAltel,mKcell,mKcell,,D07,2017-05-11T17:39:24+06:00,
1000000000381568,77002342325,mKarTel,mMTS,mAltel,D77,D01,2017-05-11T17:39:43+06:00,
1000000000381569,77472301512,mKarTel,mMTS,mMTS,,D01,2017-05-11T17:44:37+06:00,
1000000000381571,77756196488,mMTS,mKcell,mKcell,,D77,2017-05-11T17:47:11+06:00,
1000000000381572,77014313358,mMTS,mKcell,mKcell,D02,D77,2017-05-11T17:47:55+06:00,
1000000000381573,77071063025,mKarTel,mMTS,mMTS,,D01,2017-05-11T17:48:44+06:00,
1000000000381575,77013600525,mMTS,mKcell,mKcell,,D77,2017-05-11T17:48:52+06:00,
1000000000381576,77025659222,mKcell,mMTS,mKcell,D77,D02,2017-05-11T17:49:24+06:00,
1000000000381577,77751080998,mKcell,mAltel,mKcell,D07,D02,2017-05-11T17:49:43+06:00,
1000000000381578,77016149984,mKcell,mMTS,mKcell,D77,D02,2017-05-11T17:49:40+06:00,
1000000000381579,77017150387,mKcell,mAltel,mKcell,D07,D02,2017-05-11T17:50:08+06:00,
1000000000381581,77027812887,mKarTel,mKcell,mKcell,,D01,2017-05-11T17:50:43+06:00,
1000000000381582,77479018210,mKarTel,mMTS,mMTS,,D01,2017-05-11T17:50:43+06:00,
1000000000381583,77754448171,mMTS,mKarTel,mKcell,D01,D77,2017-05-11T17:50:49+06:00,
1000000000381584,77086243559,mKarTel,mAltel,mAltel,,D01,2017-05-11T17:50:58+06:00,
1000000000381587,77016288672,mMTS,mKcell,mKcell,,D77,2017-05-11T17:53:16+06:00,
1000000000381589,77760560110,mMTS,mKarTel,mKarTel,D01,D77,2017-05-11T17:54:43+06:00,
1000000000381591,77025135050,mMTS,mKcell,mKcell,,D77,2017-05-11T17:55:14+06:00,
1000000000381592,77004588847,mKcell,mAltel,mAltel,,D02,2017-05-11T17:56:10+06:00,
1000000000381593,77011215268,mKarTel,mKcell,mKcell,,D01,2017-05-11T17:56:25+06:00,
1000000000381594,77475755587,mAltel,mMTS,mMTS,,D07,2017-05-11T17:56:31+06:00,
1000000000381595,77016138215,mMTS,mKcell,mKcell,,D77,2017-05-11T17:58:02+06:00,
1000000000381596,77013377388,mKarTel,mKcell,mKcell,,D01,2017-05-11T17:58:13+06:00,
