NPId,Number,RecipientId,DonorId,RangeHolderId,OldRoute,NewRoute,PortDate,RowCount
1000000000223749,77080402940,mAltel,mKarTel,mAltel,D01,D07,2016-08-04T20:31:45+06:00,4
1000000000223751,77022171125,mKcell,mMTS,mKcell,D77,D02,2016-08-04T20:32:50+06:00,
1000000000223753,77784677937,mMTS,mKcell,mKcell,,D77,2016-08-04T20:37:23+06:00,
1000000000223754,77056580841,mMTS,mKarTel,mKarTel,,D77,2016-08-04T20:57:24+06:00,
