NPId,Number,RecipientId,DonorId,RangeHolderId,OldRoute,NewRoute,PortDate,RowCount
1000000000301864,77773344810,mMTS,mKarTel,mKarTel,,D77,2016-12-27T20:01:56+06:00,5
1000000000301865,77078385151,mMTS,mAltel,mMTS,D07,D77,2016-12-27T20:04:28+06:00,
1000000000301866,77017054080,mKarTel,mKcell,mKcell,,D01,2016-12-27T20:05:45+06:00,
1000000000301868,77023060031,mKarTel,mMTS,mKcell,D77,D01,2016-12-27T20:14:32+06:00,
1000000000301869,77007023743,mKcell,mMTS,mAltel,D77,D02,2016-12-27T20:18:08+06:00,
