NPId,Number,RecipientId,DonorId,RangeHolderId,OldRoute,NewRoute,PortDate,RowCount
1000000000308489,77057799401,mKarTel,mMTS,mKarTel,D77,D01,2017-01-10T15:01:32+06:00,23
1000000000308490,77019106121,mMTS,mKcell,mKcell,,D77,2017-01-10T15:02:02+06:00,
1000000000308491,77714944449,mKcell,mKarTel,mKarTel,,D02,2017-01-10T15:09:00+06:00,
1000000000308492,77012775247,mAltel,mKcell,mKcell,,D07,2017-01-10T15:04:03+06:00,
1000000000308493,77023948340,mMTS,mKcell,mKcell,,D77,2017-01-10T15:06:06+06:00,
1000000000308495,77017879677,mKarTel,mKcell,mKcell,,D01,2017-01-10T15:09:15+06:00,
1000000000308498,77767700778,mKcell,mKarTel,mKarTel,,D02,2017-01-10T15:09:30+06:00,
1000000000308500,77774355111,mKcell,mKarTel,mKarTel,,D02,2017-01-10T15:10:12+06:00,
1000000000308501,77011126010,mMTS,mKcell,mKcell,,D77,2017-01-10T15:11:10+06:00,
1000000000308502,77761113107,mMTS,mKarTel,mKarTel,,D77,2017-01-10T15:12:16+06:00,
1000000000308503,77013354727,mMTS,mKcell,mKcell,,D77,2017-01-10T15:12:37+06:00,
1000000000308504,77055555424,mKcell,mKarTel,mKarTel,,D02,2017-01-10T15:13:29+06:00,
1000000000308505,77085535500,mKcell,mMTS,mAltel,D77,D02,2017-01-10T15:14:06+06:00,
1000000000308506,77002264180,mMTS,mAltel,mAltel,,D77,2017-01-10T15:14:44+06:00,
1000000000308509,77007471969,mKarTel,mAltel,mAltel,,D01,2017-01-10T15:20:47+06:00,
1000000000308512,77713311433,mMTS,mKarTel,mKarTel,,D77,2017-01-10T15:23:04+06:00,
1000000000308513,77004898999,mKcell,mAltel,mAltel,,D02,2017-01-10T15:24:56+06:00,
1000000000308515,77773223173,mMTS,mKarTel,mKarTel,,D77,2017-01-10T15:26:15+06:00,
1000000000308517,77773662863,mKcell,mKarTel,mKarTel,,D02,2017-01-10T15:28:04+06:00,
1000000000308518,77059019191,mKcell,mKarTel,mKarTel,,D02,2017-01-10T15:28:10+06:00,
1000000000308520,77003231541,mMTS,mAltel,mAltel,,D77,2017-01-10T15:27:54+06:00,
1000000000308521,77054428947,mMTS,mKarTel,mKarTel,,D77,2017-01-10T15:28:28+06:00,
1000000000308523,77019186169,mAltel,mKarTel,mKcell,D01,D07,2017-01-10T15:29:15+06:00,
