NPId,Number,RecipientId,DonorId,RangeHolderId,OldRoute,NewRoute,PortDate,RowCount
1000000000162090,77757511259,mKarTel,mKcell,mKcell,,D01,2016-04-27T20:36:58+06:00,4
1000000000162091,77771122000,mKcell,mKarTel,mKarTel,,D02,2016-04-27T20:46:59+06:00,
1000000000162092,77013441893,mMTS,mKcell,mKcell,,D77,2016-04-27T20:52:22+06:00,
1000000000162093,77026320006,mKcell,mAltel,mKcell,D07,D02,2016-04-27T20:55:20+06:00,
