NPId,Number,RecipientId,DonorId,RangeHolderId,OldRoute,NewRoute,PortDate,RowCount
1000000000308715,77755315144,mAltel,mKcell,mKcell,,D07,2017-01-10T18:31:00+06:00,24
1000000000308716,77752163610,mMTS,mKcell,mKcell,,D77,2017-01-10T18:36:32+06:00,
1000000000308717,77056666673,mMTS,mKarTel,mKarTel,,D77,2017-01-10T18:38:29+06:00,
1000000000308718,77022089580,mMTS,mKcell,mKcell,,D77,2017-01-10T18:38:23+06:00,
1000000000308719,77017503008,mKarTel,mKcell,mKcell,,D01,2017-01-10T18:39:07+06:00,
1000000000308720,77012777075,mKarTel,mKcell,mKcell,,D01,2017-01-10T18:41:45+06:00,
1000000000308722,77028626554,mKarTel,mKcell,mKcell,,D01,2017-01-10T18:46:16+06:00,
1000000000308723,77016912888,mMTS,mKcell,mKcell,,D77,2017-01-10T18:46:24+06:00,
1000000000308724,77072881758,mAltel,mMTS,mMTS,,D07,2017-01-10T18:44:32+06:00,
1000000000308725,77077770603,mKcell,mMTS,mMTS,,D02,2017-01-10T18:45:47+06:00,
1000000000308726,77011967791,mAltel,mKcell,mKcell,,D07,2017-01-10T18:47:19+06:00,
1000000000308727,77024023447,mKcell,mAltel,mKcell,D07,D02,2017-01-10T18:48:09+06:00,
1000000000308728,77005556968,mMTS,mAltel,mAltel,,D77,2017-01-10T18:48:10+06:00,
1000000000308729,77079119919,mKarTel,mKcell,mMTS,D02,D01,2017-01-10T18:50:15+06:00,
1000000000308730,77014720000,mMTS,mKcell,mKcell,,D77,2017-01-10T18:50:21+06:00,
1000000000308731,77055514777,mMTS,mKarTel,mKarTel,,D77,2017-01-10T18:51:22+06:00,
1000000000308732,77016215496,mKarTel,mMTS,mKcell,D77,D01,2017-01-10T18:51:57+06:00,
1000000000308733,77001711715,mKcell,mAltel,mAltel,,D02,2017-01-10T18:53:15+06:00,
1000000000308734,77078544485,mKcell,mMTS,mMTS,,D02,2017-01-10T18:53:34+06:00,
1000000000308735,77073880727,mAltel,mMTS,mMTS,,D07,2017-01-10T18:55:42+06:00,
1000000000308736,77027273344,mMTS,mKcell,mKcell,,D77,2017-01-10T18:56:26+06:00,
1000000000308737,77023686068,mMTS,mKcell,mKcell,,D77,2017-01-10T18:58:32+06:00,
1000000000308738,77024370424,mKarTel,mMTS,mKcell,D77,D01,2017-01-10T18:58:51+06:00,
1000000000308739,77072425554,mAltel,mMTS,mMTS,,D07,2017-01-10T18:59:48+06:00,
