NPId,Number,RecipientId,DonorId,RangeHolderId,OldRoute,NewRoute,PortDate,RowCount
1000000000259364,77012042096,mKarTel,mKcell,mKcell,,D01,2016-10-09T11:33:13+06:00,3
1000000000259366,77015553954,mAltel,mKcell,mKcell,,D07,2016-10-09T11:33:23+06:00,
1000000000259369,77017725304,mMTS,mKcell,mKcell,,D77,2016-10-09T11:52:37+06:00,
