NPId,Number,RecipientId,DonorId,RangeHolderId,OldRoute,NewRoute,PortDate,RowCount
1000000000285821,77009992259,mKcell,mAltel,mAltel,,D02,2016-11-28T20:01:22+06:00,3
1000000000285822,77011206555,mKcell,mMTS,mKcell,D77,D02,2016-11-28T20:05:04+06:00,
1000000000285823,77013883734,mMTS,mKcell,mKcell,,D77,2016-11-28T20:12:39+06:00,
