NPId,Number,RecipientId,DonorId,RangeHolderId,OldRoute,NewRoute,PortDate,RowCount
1000000000404087,77007777156,mKcell,mAltel,mAltel,,D02,2017-06-15T21:00:40+06:00,2
1000000000404088,77015220405,mMTS,mKcell,mKcell,,D77,2017-06-15T21:15:31+06:00,
