NPId,Number,RecipientId,DonorId,RangeHolderId,OldRoute,NewRoute,PortDate,RowCount
1000000000296312,77003417413,mKarTel,mAltel,mAltel,,D01,2016-12-17T12:30:23+06:00,13
1000000000296313,77006550078,mMTS,mAltel,mAltel,,D77,2016-12-17T12:31:23+06:00,
1000000000296316,77074811313,mAltel,mMTS,mMTS,,D07,2016-12-17T12:36:20+06:00,
1000000000296317,77075557979,mKarTel,mMTS,mMTS,,D01,2016-12-17T12:38:50+06:00,
1000000000296318,77017801078,mKarTel,mKcell,mKcell,D02,D01,2016-12-17T12:40:01+06:00,
1000000000296320,77074811414,mAltel,mMTS,mMTS,,D07,2016-12-17T12:42:07+06:00,
1000000000296323,77011841404,mMTS,mKcell,mKcell,,D77,2016-12-17T12:46:05+06:00,
1000000000296324,77078249551,mMTS,mKarTel,mMTS,D01,D77,2016-12-17T12:47:59+06:00,
1000000000296325,77079097718,mKcell,mMTS,mMTS,,D02,2016-12-17T12:48:16+06:00,
1000000000296326,77076037233,mKarTel,mMTS,mMTS,,D01,2016-12-17T12:51:25+06:00,
1000000000296327,77016359712,mAltel,mKcell,mKcell,,D07,2016-12-17T12:55:13+06:00,
1000000000296329,77054344302,mKcell,mKarTel,mKarTel,D01,D02,2016-12-17T12:58:37+06:00,
1000000000296330,77077170517,mKarTel,mMTS,mMTS,,D01,2016-12-17T12:59:01+06:00,
