NPId,Number,RecipientId,DonorId,RangeHolderId,OldRoute,NewRoute,PortDate,RowCount
1000000000233149,77773633345,mMTS,mKarTel,mKarTel,,D77,2016-08-23T17:33:52+06:00,26
1000000000233150,77011220900,mMTS,mKcell,mKcell,,D77,2016-08-23T17:32:26+06:00,
1000000000233151,77055955565,mMTS,mKarTel,mKarTel,,D77,2016-08-23T17:35:35+06:00,
1000000000233152,77751888046,mKarTel,mKcell,mKcell,,D01,2016-08-23T17:35:03+06:00,
1000000000233153,77751383333,mKcell,mAltel,mKcell,D07,D02,2016-08-23T17:36:26+06:00,
1000000000233154,77013438491,mMTS,mKcell,mKcell,,D77,2016-08-23T17:37:28+06:00,
1000000000233155,77771807878,mAltel,mKarTel,mKarTel,,D07,2016-08-23T17:40:37+06:00,
1000000000233156,77016778384,mKarTel,mMTS,mKcell,D77,D01,2016-08-23T17:42:51+06:00,
1000000000233158,77027838082,mMTS,mKcell,mKcell,,D77,2016-08-23T17:44:23+06:00,
1000000000233160,77773481668,mMTS,mKarTel,mKarTel,,D77,2016-08-23T17:47:51+06:00,
1000000000233161,77089770911,mMTS,mAltel,mAltel,,D77,2016-08-23T17:46:35+06:00,
1000000000233162,77084873991,mMTS,mAltel,mAltel,,D77,2016-08-23T17:47:22+06:00,
1000000000233164,77753460666,mKcell,mMTS,mKcell,D77,D02,2016-08-23T17:51:26+06:00,
1000000000233165,77773642109,mMTS,mKarTel,mKarTel,,D77,2016-08-23T17:52:54+06:00,
1000000000233166,77081268708,mMTS,mAltel,mAltel,,D77,2016-08-23T17:51:39+06:00,
1000000000233167,77782039595,mMTS,mKcell,mKcell,,D77,2016-08-23T17:52:35+06:00,
1000000000233168,77770191763,mMTS,mKarTel,mKarTel,,D77,2016-08-23T17:54:12+06:00,
1000000000233169,77017167474,mMTS,mKcell,mKcell,,D77,2016-08-23T17:52:42+06:00,
1000000000233170,77055475039,mMTS,mKarTel,mKarTel,,D77,2016-08-23T17:55:23+06:00,
1000000000233171,77477771405,mKcell,mMTS,mMTS,,D02,2016-08-23T17:55:42+06:00,
1000000000233173,77026540054,mMTS,mKcell,mKcell,,D77,2016-08-23T17:55:45+06:00,
1000000000233174,77013716053,mMTS,mKcell,mKcell,,D77,2016-08-23T17:55:48+06:00,
1000000000233175,77014138523,mMTS,mKcell,mKcell,,D77,2016-08-23T17:55:48+06:00,
1000000000233176,77028547750,mKcell,mMTS,mKcell,D77,D02,2016-08-23T17:56:52+06:00,
1000000000233177,77024118628,mMTS,mKcell,mKcell,,D77,2016-08-23T17:57:14+06:00,
1000000000233179,77009312599,mMTS,mAltel,mAltel,,D77,2016-08-23T17:59:45+06:00,
