NPId,Number,RecipientId,DonorId,RangeHolderId,OldRoute,NewRoute,PortDate,RowCount
1000000000417166,77774400002,mKcell,mKarTel,mKarTel,D01,D02,2017-07-05T19:29:49+06:00,13
1000000000417350,77016268626,mKcell,mAltel,mKcell,D07,D02,2017-07-05T19:01:38+06:00,
1000000000417351,77017598808,mKcell,mMTS,mKcell,D77,D02,2017-07-05T19:02:37+06:00,
1000000000417353,77002222485,mKcell,mAltel,mAltel,D07,D02,2017-07-05T19:03:20+06:00,
1000000000417354,77077300902,mMTS,mKcell,mMTS,D02,D77,2017-07-05T19:04:15+06:00,
1000000000417355,77017598801,mKcell,mMTS,mKcell,D77,D02,2017-07-05T19:04:46+06:00,
1000000000417356,77078544302,mAltel,mMTS,mMTS,,D07,2017-07-05T19:09:04+06:00,
1000000000417359,77010342018,mKcell,mKarTel,mKcell,D01,D02,2017-07-05T19:13:12+06:00,
1000000000417360,77017598809,mKcell,mMTS,mKcell,D77,D02,2017-07-05T19:15:15+06:00,
1000000000417362,77077281346,mMTS,mKarTel,mMTS,D01,D77,2017-07-05T19:22:12+06:00,
1000000000417363,77027770061,mKarTel,mAltel,mKcell,D07,D01,2017-07-05T19:25:27+06:00,
1000000000417364,77017598806,mKcell,mMTS,mKcell,D77,D02,2017-07-05T19:25:50+06:00,
1000000000417365,77472069074,mAltel,mMTS,mMTS,,D07,2017-07-05T19:28:03+06:00,
