NPId,Number,RecipientId,DonorId,RangeHolderId,OldRoute,NewRoute,PortDate,RowCount
1000000000190335,77754779130,mMTS,mKcell,mKcell,,D77,2016-06-09T10:30:59+06:00,15
1000000000190337,77754776977,mKcell,mMTS,mKcell,D77,D02,2016-06-09T10:33:26+06:00,
1000000000190338,77015303173,mKarTel,mKcell,mKcell,,D01,2016-06-09T10:34:22+06:00,
1000000000190339,77072555055,mKcell,mMTS,mMTS,,D02,2016-06-09T10:38:03+06:00,
1000000000190340,77715125454,mMTS,mAltel,mKarTel,D07,D77,2016-06-09T10:37:40+06:00,
1000000000190341,77057333302,mKcell,mKarTel,mKarTel,,D02,2016-06-09T10:40:05+06:00,
1000000000190345,77018008761,mKarTel,mKcell,mKcell,,D01,2016-06-09T10:40:40+06:00,
1000000000190346,77774666618,mKcell,mKarTel,mKarTel,,D02,2016-06-09T10:43:44+06:00,
1000000000190347,77015877917,mMTS,mKcell,mKcell,,D77,2016-06-09T10:44:53+06:00,
1000000000190348,77012253912,mKarTel,mKcell,mKcell,,D01,2016-06-09T10:45:49+06:00,
1000000000190349,77015666444,mMTS,mKcell,mKcell,,D77,2016-06-09T10:47:03+06:00,
1000000000190351,77089867901,mKarTel,mAltel,mAltel,,D01,2016-06-09T10:48:45+06:00,
1000000000190352,77713594771,mMTS,mKarTel,mKarTel,,D77,2016-06-09T10:48:55+06:00,
1000000000190353,77015001070,mMTS,mKcell,mKcell,,D77,2016-06-09T10:57:00+06:00,
1000000000190358,77775979047,mMTS,mKarTel,mKarTel,,D77,2016-06-09T10:58:37+06:00,
