NPId,Number,RecipientId,DonorId,RangeHolderId,OldRoute,NewRoute,PortDate,RowCount
1000000000244273,77017202046,mKcell,mAltel,mKcell,D07,D02,2016-10-10T11:12:39+06:00,24
1000000000257168,77789990181,mKcell,mMTS,mKcell,D77,D02,2016-10-10T11:07:02+06:00,
1000000000259644,77751596957,mMTS,mKcell,mKcell,,D77,2016-10-10T11:00:14+06:00,
1000000000259645,77021960577,mKarTel,mKcell,mKcell,,D01,2016-10-10T11:00:51+06:00,
1000000000259646,77772113553,mKcell,mKarTel,mKarTel,,D02,2016-10-10T11:01:34+06:00,
1000000000259647,77021007476,mKcell,mKarTel,mKcell,D01,D02,2016-10-10T11:02:17+06:00,
1000000000259649,77005390778,mMTS,mAltel,mAltel,,D77,2016-10-10T11:04:24+06:00,
1000000000259650,77015428036,mKarTel,mKcell,mKcell,,D01,2016-10-10T11:04:51+06:00,
1000000000259651,77785266060,mKcell,mMTS,mKcell,D77,D02,2016-10-10T11:07:41+06:00,
1000000000259652,77475758400,mMTS,mKarTel,mMTS,D01,D77,2016-10-10T11:08:19+06:00,
1000000000259654,77077631816,mKcell,mMTS,mMTS,,D02,2016-10-10T11:11:19+06:00,
1000000000259655,77029776609,mKcell,mMTS,mKcell,D77,D02,2016-10-10T11:11:15+06:00,
1000000000259657,77771655599,mKcell,mKarTel,mKarTel,,D02,2016-10-10T11:14:30+06:00,
1000000000259659,77021728808,mKcell,mMTS,mKcell,D77,D02,2016-10-10T11:17:03+06:00,
1000000000259660,77014418619,mKcell,mAltel,mKcell,D07,D02,2016-10-10T11:17:46+06:00,
1000000000259661,77016833073,mKarTel,mKcell,mKcell,,D01,2016-10-10T11:18:16+06:00,
1000000000259662,77073338389,mKarTel,mMTS,mMTS,,D01,2016-10-10T11:18:31+06:00,
1000000000259663,77783668533,mAltel,mKcell,mKcell,,D07,2016-10-10T11:21:06+06:00,
1000000000259666,77010157771,mKcell,mKarTel,mKcell,D01,D02,2016-10-10T11:24:12+06:00,
1000000000259667,77077679770,mKcell,mMTS,mMTS,,D02,2016-10-10T11:23:18+06:00,
1000000000259668,77013990353,mAltel,mKcell,mKcell,,D07,2016-10-10T11:25:52+06:00,
1000000000259669,77014744623,mKarTel,mKcell,mKcell,,D01,2016-10-10T11:28:41+06:00,
1000000000259670,77756818894,mKarTel,mKcell,mKcell,,D01,2016-10-10T11:29:24+06:00,
1000000000259671,77079861006,mAltel,mMTS,mMTS,,D07,2016-10-10T11:29:52+06:00,
