NPId,Number,RecipientId,DonorId,RangeHolderId,OldRoute,NewRoute,PortDate,RowCount
1000000000208506,77074200222,mKarTel,mMTS,mMTS,,D01,2016-07-09T15:30:05+06:00,24
1000000000208508,77078095079,mKcell,mMTS,mMTS,,D02,2016-07-09T15:31:13+06:00,
1000000000208509,77075197670,mKarTel,mMTS,mMTS,,D01,2016-07-09T15:31:12+06:00,
1000000000208510,77012411156,mAltel,mKcell,mKcell,,D07,2016-07-09T15:32:01+06:00,
1000000000208511,77057000202,mKcell,mKarTel,mKarTel,,D02,2016-07-09T15:34:09+06:00,
1000000000208512,77052225768,mMTS,mKarTel,mKarTel,,D77,2016-07-09T15:33:48+06:00,
1000000000208513,77716747363,mMTS,mKarTel,mKarTel,,D77,2016-07-09T15:36:54+06:00,
1000000000208514,77002263999,mKcell,mAltel,mAltel,,D02,2016-07-09T15:37:23+06:00,
1000000000208515,77776671667,mKarTel,mMTS,mKarTel,D77,D01,2016-07-09T15:39:39+06:00,
1000000000208517,77018882740,mMTS,mKcell,mKcell,,D77,2016-07-09T15:40:27+06:00,
1000000000208518,77013614888,mAltel,mKcell,mKcell,,D07,2016-07-09T15:40:49+06:00,
1000000000208520,77023561997,mMTS,mKcell,mKcell,,D77,2016-07-09T15:41:44+06:00,
1000000000208523,77753332379,mKcell,mMTS,mKcell,D77,D02,2016-07-09T15:44:59+06:00,
1000000000208524,77753005252,mKarTel,mKcell,mKcell,,D01,2016-07-09T15:45:54+06:00,
1000000000208526,77088259737,mMTS,mAltel,mAltel,,D77,2016-07-09T15:47:14+06:00,
1000000000208527,77081114039,mKcell,mAltel,mAltel,,D02,2016-07-09T15:48:58+06:00,
1000000000208529,77477101093,mKcell,mMTS,mMTS,,D02,2016-07-09T15:50:05+06:00,
1000000000208530,77787882890,mAltel,mKcell,mKcell,,D07,2016-07-09T15:50:23+06:00,
1000000000208532,77024909100,mMTS,mKcell,mKcell,,D77,2016-07-09T15:51:39+06:00,
1000000000208533,77013767307,mMTS,mKcell,mKcell,,D77,2016-07-09T15:51:55+06:00,
1000000000208534,77774476747,mMTS,mKarTel,mKarTel,,D77,2016-07-09T15:52:42+06:00,
1000000000208536,77775666303,mMTS,mKarTel,mKarTel,,D77,2016-07-09T15:56:14+06:00,
1000000000208538,77024452588,mMTS,mKcell,mKcell,,D77,2016-07-09T15:57:09+06:00,
1000000000208539,77088259747,mMTS,mAltel,mAltel,,D77,2016-07-09T15:57:11+06:00,
