NPId,Number,RecipientId,DonorId,RangeHolderId,OldRoute,NewRoute,PortDate,RowCount
1000000000358257,77079195939,mKarTel,mMTS,mMTS,,D01,2017-04-02T21:06:53+06:00,2
1000000000358258,77059504222,mMTS,mKarTel,mKarTel,,D77,2017-04-02T21:21:31+06:00,
