NPId,Number,RecipientId,DonorId,RangeHolderId,OldRoute,NewRoute,PortDate,RowCount
1000000000127247,77010525892,mKarTel,mKcell,mKcell,,D01,2016-03-17T09:36:16+06:00,15
1000000000127247,77010525893,mKarTel,mKcell,mKcell,,D01,2016-03-17T09:36:16+06:00,
1000000000127247,77010525894,mKarTel,mKcell,mKcell,,D01,2016-03-17T09:36:16+06:00,
1000000000127247,77019129328,mKarTel,mKcell,mKcell,,D01,2016-03-17T09:36:16+06:00,
1000000000127247,77022069683,mKarTel,mKcell,mKcell,,D01,2016-03-17T09:36:16+06:00,
1000000000127255,77077000753,mMTS,mAltel,mMTS,D07,D77,2016-03-17T09:39:06+06:00,
1000000000127256,77014651172,mAltel,mKcell,mKcell,,D07,2016-03-17T09:39:53+06:00,
1000000000127258,77756867777,mMTS,mKcell,mKcell,,D77,2016-03-17T09:42:38+06:00,
1000000000127259,77017127436,mKarTel,mKcell,mKcell,,D01,2016-03-17T09:58:27+06:00,
1000000000127259,77017269972,mKarTel,mKcell,mKcell,,D01,2016-03-17T09:58:27+06:00,
1000000000127260,77782650169,mKarTel,mKcell,mKcell,,D01,2016-03-17T09:44:42+06:00,
1000000000127261,77079955666,mKcell,mAltel,mMTS,D07,D02,2016-03-17T09:45:20+06:00,
1000000000127262,77711009016,mKcell,mKarTel,mKarTel,,D02,2016-03-17T09:51:01+06:00,
1000000000127263,77777222225,mKcell,mKarTel,mKarTel,,D02,2016-03-17T09:51:33+06:00,
1000000000127264,77075962400,mAltel,mMTS,mMTS,,D07,2016-03-17T09:53:00+06:00,
