NPId,Number,RecipientId,DonorId,RangeHolderId,OldRoute,NewRoute,PortDate,RowCount
1000000000424307,77771401111,mKarTel,mMTS,mKarTel,D77,D01,2017-07-19T09:07:16+06:00,7
1000000000424311,77013689888,mMTS,mKcell,mKcell,D02,D77,2017-07-19T09:20:47+06:00,
1000000000424312,77077048524,mMTS,mAltel,mMTS,D07,D77,2017-07-19T09:20:45+06:00,
1000000000424313,77769999002,mKarTel,mAltel,mKarTel,D07,D01,2017-07-19T09:23:59+06:00,
1000000000424314,77089444008,mKarTel,mAltel,mAltel,,D01,2017-07-19T09:25:19+06:00,
1000000000424315,77769999004,mKarTel,mAltel,mKarTel,D07,D01,2017-07-19T09:26:21+06:00,
1000000000424316,77780201313,mKarTel,mKcell,mKcell,,D01,2017-07-19T09:29:32+06:00,
