NPId,Number,RecipientId,DonorId,RangeHolderId,OldRoute,NewRoute,PortDate,RowCount
1000000000384536,77012034483,mKcell,mAltel,mKcell,D07,D02,2017-05-17T14:30:20+06:00,28
1000000000384539,77474429072,mAltel,mMTS,mMTS,,D07,2017-05-17T14:30:35+06:00,
1000000000384542,77071944841,mKarTel,mMTS,mMTS,,D01,2017-05-17T14:35:20+06:00,
1000000000384543,77006270009,mMTS,mAltel,mAltel,,D77,2017-05-17T14:36:02+06:00,
1000000000384544,77025287838,mKarTel,mKcell,mKcell,,D01,2017-05-17T14:36:23+06:00,
1000000000384545,77477171510,mKcell,mMTS,mMTS,,D02,2017-05-17T14:36:47+06:00,
1000000000384546,77006270008,mMTS,mAltel,mAltel,,D77,2017-05-17T14:36:57+06:00,
1000000000384547,77006270003,mMTS,mAltel,mAltel,,D77,2017-05-17T14:37:35+06:00,
1000000000384549,77714100144,mAltel,mKarTel,mKarTel,,D07,2017-05-17T14:39:08+06:00,
1000000000384550,77757788722,mKarTel,mKcell,mKcell,,D01,2017-05-17T14:41:17+06:00,
1000000000384551,77058565393,mMTS,mKarTel,mKarTel,,D77,2017-05-17T14:41:16+06:00,
1000000000384552,77015770918,mAltel,mKcell,mKcell,,D07,2017-05-17T14:42:17+06:00,
1000000000384553,77007775333,mMTS,mAltel,mAltel,,D77,2017-05-17T14:42:45+06:00,
1000000000384554,77081607777,mKarTel,mAltel,mAltel,,D01,2017-05-17T14:43:11+06:00,
1000000000384557,77786386918,mAltel,mKcell,mKcell,,D07,2017-05-17T14:45:13+06:00,
1000000000384558,77015293208,mKarTel,mKcell,mKcell,D02,D01,2017-05-17T14:45:55+06:00,
1000000000384559,77007775666,mMTS,mAltel,mAltel,,D77,2017-05-17T14:47:46+06:00,
1000000000384560,77072752751,mAltel,mKcell,mMTS,D02,D07,2017-05-17T14:49:11+06:00,
1000000000384562,77057106057,mKarTel,mMTS,mKarTel,D77,D01,2017-05-17T14:51:48+06:00,
1000000000384563,77015126681,mKcell,mKarTel,mKcell,D01,D02,2017-05-17T14:52:30+06:00,
1000000000384564,77015139620,mKarTel,mKcell,mKcell,,D01,2017-05-17T14:52:36+06:00,
1000000000384565,77017895045,mMTS,mKcell,mKcell,,D77,2017-05-17T14:53:38+06:00,
1000000000384566,77056466000,mKcell,mKarTel,mKarTel,,D02,2017-05-17T14:54:26+06:00,
1000000000384568,77000005352,mMTS,mAltel,mAltel,,D77,2017-05-17T14:54:17+06:00,
1000000000384569,77773088865,mKarTel,mMTS,mKarTel,D77,D01,2017-05-17T14:57:38+06:00,
1000000000384570,77019445644,mAltel,mKcell,mKcell,,D07,2017-05-17T14:58:26+06:00,
1000000000384571,77077738881,mKarTel,mMTS,mMTS,,D01,2017-05-17T14:59:47+06:00,
1000000000384572,77080475555,mKarTel,mAltel,mAltel,,D01,2017-05-17T14:59:37+06:00,
