NPId,Number,RecipientId,DonorId,RangeHolderId,OldRoute,NewRoute,PortDate,RowCount
1000000000371530,77010594736,mKarTel,mKcell,mKcell,,D01,2017-04-25T16:01:38+06:00,59
1000000000371530,77010594737,mKarTel,mKcell,mKcell,,D01,2017-04-25T16:01:38+06:00,
1000000000371530,77010594738,mKarTel,mKcell,mKcell,,D01,2017-04-25T16:01:38+06:00,
1000000000371530,77010594739,mKarTel,mKcell,mKcell,,D01,2017-04-25T16:01:38+06:00,
1000000000371530,77010594740,mKarTel,mKcell,mKcell,,D01,2017-04-25T16:01:38+06:00,
1000000000371530,77010594745,mKarTel,mKcell,mKcell,,D01,2017-04-25T16:01:38+06:00,
1000000000371530,77010594746,mKarTel,mKcell,mKcell,,D01,2017-04-25T16:01:38+06:00,
1000000000371530,77010594748,mKarTel,mKcell,mKcell,,D01,2017-04-25T16:01:38+06:00,
1000000000371530,77010594750,mKarTel,mKcell,mKcell,,D01,2017-04-25T16:01:38+06:00,
1000000000371530,77010594755,mKarTel,mKcell,mKcell,,D01,2017-04-25T16:01:38+06:00,
1000000000371530,77012204656,mKarTel,mKcell,mKcell,,D01,2017-04-25T16:01:38+06:00,
1000000000371530,77017127401,mKarTel,mKcell,mKcell,,D01,2017-04-25T16:01:38+06:00,
1000000000371530,77017140138,mKarTel,mKcell,mKcell,,D01,2017-04-25T16:01:38+06:00,
1000000000371530,77017207189,mKarTel,mKcell,mKcell,,D01,2017-04-25T16:01:38+06:00,
1000000000371530,77017249376,mKarTel,mKcell,mKcell,,D01,2017-04-25T16:01:38+06:00,
1000000000371530,77017249379,mKarTel,mKcell,mKcell,,D01,2017-04-25T16:01:38+06:00,
1000000000371530,77017378466,mKarTel,mKcell,mKcell,,D01,2017-04-25T16:01:38+06:00,
1000000000371530,77017478597,mKarTel,mKcell,mKcell,,D01,2017-04-25T16:01:38+06:00,
1000000000371530,77017520443,mKarTel,mKcell,mKcell,,D01,2017-04-25T16:01:38+06:00,
1000000000371530,77017520453,mKarTel,mKcell,mKcell,,D01,2017-04-25T16:01:38+06:00,
1000000000371530,77017520566,mKarTel,mKcell,mKcell,,D01,2017-04-25T16:01:38+06:00,
1000000000371530,77017520567,mKarTel,mKcell,mKcell,,D01,2017-04-25T16:01:38+06:00,
1000000000371530,77017520813,mKarTel,mKcell,mKcell,,D01,2017-04-25T16:01:38+06:00,
1000000000371530,77017520817,mKarTel,mKcell,mKcell,,D01,2017-04-25T16:01:38+06:00,
1000000000371530,77017530227,mKarTel,mKcell,mKcell,,D01,2017-04-25T16:01:38+06:00,
1000000000371530,77017530228,mKarTel,mKcell,mKcell,,D01,2017-04-25T16:01:38+06:00,
1000000000371530,77017530230,mKarTel,mKcell,mKcell,,D01,2017-04-25T16:01:38+06:00,
1000000000371530,77017530231,mKarTel,mKcell,mKcell,,D01,2017-04-25T16:01:38+06:00,
1000000000371530,77017578416,mKarTel,mKcell,mKcell,,D01,2017-04-25T16:01:38+06:00,
1000000000371530,77017578419,mKarTel,mKcell,mKcell,,D01,2017-04-25T16:01:38+06:00,
1000000000371530,77017584186,mKarTel,mKcell,mKcell,,D01,2017-04-25T16:01:38+06:00,
1000000000371530,77019140132,mKarTel,mKcell,mKcell,,D01,2017-04-25T16:01:38+06:00,
1000000000371530,77019289867,mKarTel,mKcell,mKcell,,D01,2017-04-25T16:01:38+06:00,
1000000000371530,77019526952,mKarTel,mKcell,mKcell,,D01,2017-04-25T16:01:38+06:00,
1000000000371530,77019539603,mKarTel,mKcell,mKcell,,D01,2017-04-25T16:01:38+06:00,
1000000000371530,77019539659,mKarTel,mKcell,mKcell,,D01,2017-04-25T16:01:38+06:00,
1000000000371530,77019626350,mKarTel,mKcell,mKcell,,D01,2017-04-25T16:01:38+06:00,
1000000000371530,77019816048,mKarTel,mKcell,mKcell,,D01,2017-04-25T16:01:38+06:00,
1000000000371530,77019960652,mKarTel,mKcell,mKcell,,D01,2017-04-25T16:01:38+06:00,
1000000000371530,77019960985,mKarTel,mKcell,mKcell,,D01,2017-04-25T16:01:38+06:00,
1000000000371645,77017481640,mKarTel,mKcell,mKcell,,D01,2017-04-25T16:00:20+06:00,
1000000000371647,77072301961,mKcell,mMTS,mMTS,,D02,2017-04-25T16:01:35+06:00,
1000000000371648,77080249886,mMTS,mAltel,mAltel,,D77,2017-04-25T16:01:50+06:00,
1000000000371649,77012121611,mAltel,mKarTel,mKcell,D01,D07,2017-04-25T16:02:15+06:00,
1000000000371651,77075249285,mKarTel,mMTS,mMTS,,D01,2017-04-25T16:03:20+06:00,
1000000000371653,77053792939,mMTS,mKarTel,mKarTel,,D77,2017-04-25T16:04:57+06:00,
1000000000371654,77012221916,mMTS,mKcell,mKcell,,D77,2017-04-25T16:07:23+06:00,
1000000000371655,77000926292,mMTS,mAltel,mAltel,,D77,2017-04-25T16:09:10+06:00,
1000000000371657,77779442234,mKarTel,mMTS,mKarTel,D77,D01,2017-04-25T16:11:48+06:00,
1000000000371658,77753636136,mMTS,mKcell,mKcell,,D77,2017-04-25T16:12:50+06:00,
1000000000371659,77776589366,mMTS,mKarTel,mKarTel,,D77,2017-04-25T16:13:09+06:00,
1000000000371662,77056768136,mMTS,mKarTel,mKarTel,,D77,2017-04-25T16:16:28+06:00,
1000000000371663,77059112900,mKcell,mKarTel,mKarTel,,D02,2017-04-25T16:19:23+06:00,
1000000000371664,77012154340,mKarTel,mKcell,mKcell,,D01,2017-04-25T16:22:39+06:00,
1000000000371666,77088080032,mMTS,mAltel,mAltel,,D77,2017-04-25T16:22:55+06:00,
1000000000371667,77022910096,mKarTel,mKcell,mKcell,,D01,2017-04-25T16:25:07+06:00,
1000000000371668,77756065576,mAltel,mMTS,mKcell,D77,D07,2017-04-25T16:25:11+06:00,
1000000000371669,77000701929,mMTS,mAltel,mAltel,,D77,2017-04-25T16:25:26+06:00,
1000000000371672,77779551972,mKcell,mKarTel,mKarTel,,D02,2017-04-25T16:28:32+06:00,
