NPId,Number,RecipientId,DonorId,RangeHolderId,OldRoute,NewRoute,PortDate,RowCount
1000000000189720,77779611789,mMTS,mKarTel,mKarTel,,D77,2016-06-08T14:00:13+06:00,19
1000000000189725,77711101666,mKcell,mKarTel,mKarTel,,D02,2016-06-08T14:13:02+06:00,
1000000000189730,77778098465,mMTS,mKarTel,mKarTel,,D77,2016-06-08T14:22:01+06:00,
1000000000189889,77012464200,mMTS,mKcell,mKcell,,D77,2016-06-08T14:00:24+06:00,
1000000000189890,77755787632,mKcell,mMTS,mKcell,D77,D02,2016-06-08T14:05:31+06:00,
1000000000189893,77007730450,mMTS,mAltel,mAltel,,D77,2016-06-08T14:03:52+06:00,
1000000000189894,77018384155,mMTS,mKcell,mKcell,,D77,2016-06-08T14:07:23+06:00,
1000000000189895,77024048512,mMTS,mKcell,mKcell,,D77,2016-06-08T14:09:52+06:00,
1000000000189896,77757160070,mKcell,mAltel,mKcell,D07,D02,2016-06-08T14:14:53+06:00,
1000000000189897,77022772787,mMTS,mKcell,mKcell,,D77,2016-06-08T14:14:37+06:00,
1000000000189898,77787779528,mMTS,mKcell,mKcell,,D77,2016-06-08T14:15:03+06:00,
1000000000189899,77753997595,mMTS,mKcell,mKcell,,D77,2016-06-08T14:15:44+06:00,
1000000000189900,77087055030,mMTS,mAltel,mAltel,,D77,2016-06-08T14:15:56+06:00,
1000000000189901,77073863656,mAltel,mMTS,mMTS,,D07,2016-06-08T14:17:29+06:00,
1000000000189902,77075005159,mKcell,mMTS,mMTS,,D02,2016-06-08T14:20:15+06:00,
1000000000189905,77007164484,mKcell,mAltel,mAltel,,D02,2016-06-08T14:20:59+06:00,
1000000000189907,77089580070,mMTS,mAltel,mAltel,,D77,2016-06-08T14:23:49+06:00,
1000000000189911,77756838887,mMTS,mKcell,mKcell,,D77,2016-06-08T14:28:43+06:00,
1000000000189913,77001234571,mMTS,mAltel,mAltel,,D77,2016-06-08T14:29:59+06:00,
