NPId,Number,RecipientId,DonorId,RangeHolderId,OldRoute,NewRoute,PortDate,RowCount
1000000000253684,77713345994,mKarTel,mAltel,mKarTel,D07,D01,2016-09-30T09:38:48+06:00,6
1000000000253685,77015225743,mKarTel,mKcell,mKcell,,D01,2016-09-30T09:40:19+06:00,
1000000000253685,77017550701,mKarTel,mKcell,mKcell,,D01,2016-09-30T09:40:19+06:00,
1000000000253687,77013842867,mMTS,mKcell,mKcell,,D77,2016-09-30T09:40:20+06:00,
1000000000253688,77775295315,mKarTel,mAltel,mKarTel,D07,D01,2016-09-30T09:40:42+06:00,
1000000000253689,77007271616,mMTS,mKcell,mAltel,D02,D77,2016-09-30T09:41:30+06:00,
