NPId,Number,RecipientId,DonorId,RangeHolderId,OldRoute,NewRoute,PortDate,RowCount
1000000000444335,77058060001,mKarTel,mMTS,mKarTel,D77,D01,2017-08-23T13:33:16+06:00,18
1000000000444336,77771232323,mKcell,mKarTel,mKarTel,,D02,2017-08-23T13:34:30+06:00,
1000000000444337,77072858585,mKcell,mMTS,mMTS,,D02,2017-08-23T13:34:31+06:00,
1000000000444338,77779119126,mKarTel,mMTS,mKarTel,D77,D01,2017-08-23T13:35:12+06:00,
1000000000444339,77017767722,mKcell,mMTS,mKcell,D77,D02,2017-08-23T13:35:28+06:00,
1000000000444341,77475813695,mKarTel,mMTS,mMTS,,D01,2017-08-23T13:37:40+06:00,
1000000000444343,77080445791,mKarTel,mAltel,mAltel,,D01,2017-08-23T13:39:48+06:00,
1000000000444344,77473336767,mKarTel,mMTS,mMTS,,D01,2017-08-23T13:40:50+06:00,
1000000000444345,77011117827,mKarTel,mKcell,mKcell,,D01,2017-08-23T13:41:44+06:00,
1000000000444348,77717711991,mKarTel,mKcell,mKarTel,D02,D01,2017-08-23T13:42:51+06:00,
1000000000444349,77003688912,mAltel,mMTS,mAltel,D77,D07,2017-08-23T13:46:31+06:00,
1000000000444350,77005522200,mKcell,mAltel,mAltel,D07,D02,2017-08-23T13:48:22+06:00,
1000000000444351,77055350035,mKcell,mKarTel,mKarTel,,D02,2017-08-23T13:48:38+06:00,
1000000000444353,77479747276,mKarTel,mMTS,mMTS,,D01,2017-08-23T13:50:29+06:00,
1000000000444356,77473535660,mKarTel,mMTS,mMTS,,D01,2017-08-23T13:53:42+06:00,
1000000000444357,77787452223,mAltel,mKcell,mKcell,,D07,2017-08-23T13:53:51+06:00,
1000000000444358,77019695151,mMTS,mKcell,mKcell,,D77,2017-08-23T13:54:24+06:00,
1000000000444359,77766632223,mMTS,mKarTel,mKarTel,,D77,2017-08-23T13:57:36+06:00,
