NPId,Number,RecipientId,DonorId,RangeHolderId,OldRoute,NewRoute,PortDate,RowCount
1000000000285597,77021111578,mKarTel,mMTS,mKcell,D77,D01,2016-11-28T16:30:47+06:00,35
1000000000285598,77771717666,mKcell,mKarTel,mKarTel,,D02,2016-11-28T16:31:23+06:00,
1000000000285599,77075107161,mKarTel,mMTS,mMTS,,D01,2016-11-28T16:32:31+06:00,
1000000000285600,77750000355,mAltel,mKcell,mKcell,,D07,2016-11-28T16:33:45+06:00,
1000000000285602,77785021027,mMTS,mKcell,mKcell,,D77,2016-11-28T16:35:04+06:00,
1000000000285603,77017933366,mAltel,mKcell,mKcell,,D07,2016-11-28T16:35:06+06:00,
1000000000285604,77010800051,mKcell,mMTS,mKcell,D77,D02,2016-11-28T16:35:26+06:00,
1000000000285605,77017933388,mAltel,mKcell,mKcell,,D07,2016-11-28T16:36:55+06:00,
1000000000285606,77774619629,mMTS,mKarTel,mKarTel,,D77,2016-11-28T16:37:47+06:00,
1000000000285608,77781260901,mKarTel,mKcell,mKcell,,D01,2016-11-28T16:39:25+06:00,
1000000000285609,77768133666,mMTS,mKarTel,mKarTel,,D77,2016-11-28T16:40:03+06:00,
1000000000285610,77479611999,mKarTel,mMTS,mMTS,,D01,2016-11-28T16:40:12+06:00,
1000000000285611,77752575557,mKarTel,mKcell,mKcell,,D01,2016-11-28T16:41:25+06:00,
1000000000285612,77087433663,mMTS,mAltel,mAltel,,D77,2016-11-28T16:41:11+06:00,
1000000000285613,77018874820,mKcell,mKarTel,mKcell,D01,D02,2016-11-28T16:42:47+06:00,
1000000000285614,77071118834,mKcell,mMTS,mMTS,,D02,2016-11-28T16:42:54+06:00,
1000000000285615,77079644436,mKarTel,mMTS,mMTS,,D01,2016-11-28T16:44:59+06:00,
1000000000285616,77775322217,mKcell,mKarTel,mKarTel,,D02,2016-11-28T16:45:40+06:00,
1000000000285618,77472936124,mKcell,mMTS,mMTS,,D02,2016-11-28T16:46:50+06:00,
1000000000285619,77018211971,mKcell,mMTS,mKcell,D77,D02,2016-11-28T16:48:03+06:00,
1000000000285622,77089051093,mMTS,mAltel,mAltel,D07,D77,2016-11-28T16:49:49+06:00,
1000000000285623,77004853347,mKcell,mAltel,mAltel,,D02,2016-11-28T16:50:37+06:00,
1000000000285624,77056412552,mMTS,mKarTel,mKarTel,,D77,2016-11-28T16:50:54+06:00,
1000000000285625,77012183900,mMTS,mAltel,mKcell,D07,D77,2016-11-28T16:51:35+06:00,
1000000000285626,77714402386,mMTS,mKarTel,mKarTel,,D77,2016-11-28T16:52:02+06:00,
1000000000285629,77759385333,mAltel,mKcell,mKcell,,D07,2016-11-28T16:53:17+06:00,
1000000000285631,77052139302,mKcell,mKarTel,mKarTel,,D02,2016-11-28T16:54:54+06:00,
1000000000285632,77011712281,mKarTel,mKcell,mKcell,,D01,2016-11-28T16:54:54+06:00,
1000000000285634,77779595555,mKcell,mKarTel,mKarTel,,D02,2016-11-28T16:56:34+06:00,
1000000000285635,77012393737,mKcell,mMTS,mKcell,D77,D02,2016-11-28T16:58:05+06:00,
1000000000285636,77714241333,mMTS,mKarTel,mKarTel,,D77,2016-11-28T16:58:04+06:00,
1000000000285637,77085327842,mAltel,mMTS,mAltel,D77,D07,2016-11-28T16:58:14+06:00,
1000000000285638,77755694035,mMTS,mKcell,mKcell,,D77,2016-11-28T16:58:16+06:00,
1000000000285639,77475794277,mKcell,mMTS,mMTS,,D02,2016-11-28T16:59:15+06:00,
1000000000285640,77074935160,mAltel,mMTS,mMTS,,D07,2016-11-28T16:59:33+06:00,
