NPId,Number,RecipientId,DonorId,RangeHolderId,OldRoute,NewRoute,PortDate,RowCount
1000000000138811,77013060600,mAltel,mKcell,mKcell,,D07,2016-03-31T19:30:39+06:00,16
1000000000138812,77771011952,mMTS,mKarTel,mKarTel,,D77,2016-03-31T19:31:51+06:00,
1000000000138813,77052526903,mMTS,mKarTel,mKarTel,,D77,2016-03-31T19:33:11+06:00,
1000000000138814,77071190294,mKarTel,mMTS,mMTS,,D01,2016-03-31T19:33:38+06:00,
1000000000138815,77022131603,mAltel,mKcell,mKcell,,D07,2016-03-31T19:33:58+06:00,
1000000000138816,77714623967,mKcell,mKarTel,mKarTel,,D02,2016-03-31T19:36:13+06:00,
1000000000138817,77017410430,mKcell,mAltel,mKcell,D07,D02,2016-03-31T19:35:51+06:00,
1000000000138818,77007877787,mKcell,mAltel,mAltel,,D02,2016-03-31T19:36:29+06:00,
1000000000138819,77026571877,mKcell,mKarTel,mKcell,D01,D02,2016-03-31T19:37:26+06:00,
1000000000138820,77714330409,mAltel,mKarTel,mKarTel,,D07,2016-03-31T19:39:26+06:00,
1000000000138821,77026510041,mKarTel,mKcell,mKcell,,D01,2016-03-31T19:40:16+06:00,
1000000000138822,77083720684,mKcell,mAltel,mAltel,,D02,2016-03-31T19:41:18+06:00,
1000000000138823,77016948123,mAltel,mKcell,mKcell,,D07,2016-03-31T19:41:21+06:00,
1000000000138825,77012181816,mKarTel,mKcell,mKcell,,D01,2016-03-31T19:48:28+06:00,
1000000000138826,77789047000,mAltel,mKcell,mKcell,,D07,2016-03-31T19:53:55+06:00,
1000000000138827,77776667752,mKarTel,mAltel,mKarTel,D07,D01,2016-03-31T19:56:09+06:00,
