NPId,Number,RecipientId,DonorId,RangeHolderId,OldRoute,NewRoute,PortDate,RowCount
1000000000353200,77710670505,mAltel,mKarTel,mKarTel,,D07,2017-03-27T15:00:31+06:00,45
1000000000353201,77087293408,mMTS,mAltel,mAltel,,D77,2017-03-27T15:00:43+06:00,
1000000000353202,77762966996,mKcell,mKarTel,mKarTel,,D02,2017-03-27T15:01:55+06:00,
1000000000353203,77014941129,mKcell,mMTS,mKcell,D77,D02,2017-03-27T15:02:01+06:00,
1000000000353204,77471570258,mKcell,mMTS,mMTS,,D02,2017-03-27T15:03:00+06:00,
1000000000353205,77075222830,mAltel,mMTS,mMTS,,D07,2017-03-27T15:03:10+06:00,
1000000000353206,77710670404,mAltel,mKarTel,mKarTel,,D07,2017-03-27T15:06:22+06:00,
1000000000353208,77760626264,mKcell,mKarTel,mKarTel,,D02,2017-03-27T15:06:46+06:00,
1000000000353209,77471570295,mKcell,mMTS,mMTS,,D02,2017-03-27T15:05:29+06:00,
1000000000353210,77471570068,mKcell,mMTS,mMTS,,D02,2017-03-27T15:06:12+06:00,
1000000000353211,77077989998,mKarTel,mMTS,mMTS,,D01,2017-03-27T15:06:36+06:00,
1000000000353212,77475590729,mKcell,mMTS,mMTS,,D02,2017-03-27T15:07:44+06:00,
1000000000353213,77479809796,mKcell,mMTS,mMTS,,D02,2017-03-27T15:09:16+06:00,
1000000000353215,77783577464,mAltel,mKcell,mKcell,,D07,2017-03-27T15:10:16+06:00,
1000000000353216,77476129700,mKarTel,mMTS,mMTS,,D01,2017-03-27T15:10:28+06:00,
1000000000353217,77076001220,mKcell,mMTS,mMTS,,D02,2017-03-27T15:11:45+06:00,
1000000000353218,77010000115,mKarTel,mKcell,mKcell,,D01,2017-03-27T15:12:02+06:00,
1000000000353219,77479809788,mKcell,mMTS,mMTS,,D02,2017-03-27T15:12:04+06:00,
1000000000353220,77477891477,mKarTel,mMTS,mMTS,,D01,2017-03-27T15:12:17+06:00,
1000000000353222,77473319055,mKcell,mMTS,mMTS,,D02,2017-03-27T15:14:13+06:00,
1000000000353223,77059843428,mMTS,mKarTel,mKarTel,,D77,2017-03-27T15:14:34+06:00,
1000000000353224,77473983243,mKcell,mMTS,mMTS,,D02,2017-03-27T15:14:31+06:00,
1000000000353225,77017833111,mKcell,mMTS,mKcell,D77,D02,2017-03-27T15:15:08+06:00,
1000000000353226,77761661666,mAltel,mKarTel,mKarTel,,D07,2017-03-27T15:15:44+06:00,
1000000000353227,77471570293,mKcell,mMTS,mMTS,,D02,2017-03-27T15:16:46+06:00,
1000000000353228,77012314111,mMTS,mKcell,mKcell,,D77,2017-03-27T15:17:51+06:00,
1000000000353229,77751218685,mMTS,mKcell,mKcell,,D77,2017-03-27T15:18:08+06:00,
1000000000353230,77476129707,mKarTel,mMTS,mMTS,,D01,2017-03-27T15:18:37+06:00,
1000000000353231,77759767007,mMTS,mKcell,mKcell,,D77,2017-03-27T15:18:54+06:00,
1000000000353233,77471570215,mKcell,mMTS,mMTS,,D02,2017-03-27T15:19:41+06:00,
1000000000353234,77071307089,mKarTel,mMTS,mMTS,,D01,2017-03-27T15:20:40+06:00,
1000000000353235,77079919922,mAltel,mMTS,mMTS,,D07,2017-03-27T15:20:44+06:00,
1000000000353236,77772291284,mMTS,mKarTel,mKarTel,,D77,2017-03-27T15:21:13+06:00,
1000000000353237,77014096010,mMTS,mAltel,mKcell,D07,D77,2017-03-27T15:20:52+06:00,
1000000000353238,77714049000,mKcell,mKarTel,mKarTel,,D02,2017-03-27T15:22:53+06:00,
1000000000353239,77471570162,mKcell,mMTS,mMTS,,D02,2017-03-27T15:23:33+06:00,
1000000000353240,77017873003,mKarTel,mKcell,mKcell,,D01,2017-03-27T15:25:11+06:00,
1000000000353241,77771308614,mKarTel,mKcell,mKarTel,D02,D01,2017-03-27T15:25:11+06:00,
1000000000353242,77011365137,mKcell,mKarTel,mKcell,D01,D02,2017-03-27T15:25:50+06:00,
1000000000353243,77751440007,mMTS,mKcell,mKcell,,D77,2017-03-27T15:26:46+06:00,
1000000000353244,77473983248,mKcell,mMTS,mMTS,,D02,2017-03-27T15:27:25+06:00,
1000000000353245,77712966605,mKcell,mKarTel,mKarTel,,D02,2017-03-27T15:27:56+06:00,
1000000000353246,77752665151,mKarTel,mMTS,mKcell,D77,D01,2017-03-27T15:27:43+06:00,
1000000000353247,77025009777,mMTS,mKcell,mKcell,,D77,2017-03-27T15:28:31+06:00,
1000000000353249,77753992914,mMTS,mKcell,mKcell,,D77,2017-03-27T15:29:16+06:00,
