NPId,Number,RecipientId,DonorId,RangeHolderId,OldRoute,NewRoute,PortDate,RowCount
1000000000390418,77052777788,mKcell,mKarTel,mKarTel,,D02,2017-05-26T17:00:22+06:00,31
1000000000390420,77079698118,mKarTel,mMTS,mMTS,,D01,2017-05-26T17:01:14+06:00,
1000000000390421,77026342636,mMTS,mKcell,mKcell,,D77,2017-05-26T17:02:53+06:00,
1000000000390423,77751135291,mAltel,mKcell,mKcell,,D07,2017-05-26T17:04:17+06:00,
1000000000390424,77028908170,mAltel,mKcell,mKcell,,D07,2017-05-26T17:04:37+06:00,
1000000000390425,77001231321,mMTS,mAltel,mAltel,,D77,2017-05-26T17:04:45+06:00,
1000000000390426,77005556062,mMTS,mAltel,mAltel,,D77,2017-05-26T17:05:03+06:00,
1000000000390427,77007007714,mKcell,mAltel,mAltel,,D02,2017-05-26T17:05:32+06:00,
1000000000390429,77787773907,mAltel,mKcell,mKcell,,D07,2017-05-26T17:05:59+06:00,
1000000000390430,77007007713,mKcell,mAltel,mAltel,,D02,2017-05-26T17:06:09+06:00,
1000000000390431,77072535040,mKarTel,mMTS,mMTS,,D01,2017-05-26T17:09:36+06:00,
1000000000390432,77475026657,mAltel,mMTS,mMTS,,D07,2017-05-26T17:10:24+06:00,
1000000000390433,77015442089,mKarTel,mKcell,mKcell,,D01,2017-05-26T17:11:19+06:00,
1000000000390435,77007007715,mKcell,mAltel,mAltel,,D02,2017-05-26T17:12:26+06:00,
1000000000390436,77784445544,mAltel,mKcell,mKcell,,D07,2017-05-26T17:12:35+06:00,
1000000000390437,77012264048,mKarTel,mKcell,mKcell,,D01,2017-05-26T17:13:19+06:00,
1000000000390438,77759099087,mKcell,mMTS,mKcell,D77,D02,2017-05-26T17:14:01+06:00,
1000000000390439,77074047066,mKcell,mMTS,mMTS,,D02,2017-05-26T17:14:22+06:00,
1000000000390440,77776063284,mMTS,mKarTel,mKarTel,,D77,2017-05-26T17:15:40+06:00,
1000000000390441,77783358705,mKarTel,mKcell,mKcell,,D01,2017-05-26T17:15:45+06:00,
1000000000390442,77081686868,mKcell,mAltel,mAltel,D07,D02,2017-05-26T17:17:52+06:00,
1000000000390443,77004600047,mMTS,mAltel,mAltel,,D77,2017-05-26T17:18:04+06:00,
1000000000390444,77053310021,mKarTel,mMTS,mKarTel,D77,D01,2017-05-26T17:18:26+06:00,
1000000000390445,77002221520,mKarTel,mAltel,mAltel,,D01,2017-05-26T17:19:03+06:00,
1000000000390446,77082221503,mKarTel,mAltel,mAltel,,D01,2017-05-26T17:19:29+06:00,
1000000000390449,77758880333,mKarTel,mKcell,mKcell,,D01,2017-05-26T17:23:07+06:00,
1000000000390450,77007007723,mKcell,mAltel,mAltel,,D02,2017-05-26T17:24:03+06:00,
1000000000390451,77021986217,mMTS,mKcell,mKcell,,D77,2017-05-26T17:24:12+06:00,
1000000000390452,77009695901,mMTS,mKarTel,mAltel,D01,D77,2017-05-26T17:24:29+06:00,
1000000000390454,77773690278,mKarTel,mMTS,mKarTel,D77,D01,2017-05-26T17:26:09+06:00,
1000000000390456,77773187031,mAltel,mKarTel,mKarTel,,D07,2017-05-26T17:29:02+06:00,
