NPId,Number,RecipientId,DonorId,RangeHolderId,OldRoute,NewRoute,PortDate,RowCount
1000000000121814,77022157161,mMTS,mKcell,mKcell,,D77,2016-03-11T09:29:03+06:00,11
1000000000121991,77021096833,mKcell,mAltel,mKcell,D07,D02,2016-03-11T09:14:54+06:00,
1000000000122000,77014977948,mKarTel,mKcell,mKcell,,D01,2016-03-11T09:02:03+06:00,
1000000000122001,77016153990,mKarTel,mAltel,mKcell,D07,D01,2016-03-11T09:02:03+06:00,
1000000000122003,77773969136,mMTS,mKarTel,mKarTel,,D77,2016-03-11T09:02:25+06:00,
1000000000122005,77022053431,mMTS,mKcell,mKcell,,D77,2016-03-11T09:14:11+06:00,
1000000000122007,77015731872,mMTS,mKcell,mKcell,,D77,2016-03-11T09:21:26+06:00,
1000000000122008,77022157561,mMTS,mKcell,mKcell,,D77,2016-03-11T09:24:14+06:00,
1000000000122009,77027491801,mMTS,mKcell,mKcell,,D77,2016-03-11T09:25:58+06:00,
1000000000122010,77018203097,mMTS,mKcell,mKcell,,D77,2016-03-11T09:26:44+06:00,
1000000000122011,77759274603,mMTS,mKcell,mKcell,,D77,2016-03-11T09:29:27+06:00,
