NPId,Number,RecipientId,DonorId,RangeHolderId,OldRoute,NewRoute,PortDate,RowCount
1000000000212320,77057000234,mKarTel,mMTS,mKarTel,D77,D01,2016-07-16T14:37:25+06:00,10
1000000000212323,77778693190,mKarTel,mAltel,mKarTel,D07,D01,2016-07-16T14:42:24+06:00,
1000000000212324,77071115420,mKarTel,mMTS,mMTS,,D01,2016-07-16T14:46:02+06:00,
1000000000212325,77079589292,mMTS,mAltel,mMTS,D07,D77,2016-07-16T14:46:48+06:00,
1000000000212326,77775244010,mMTS,mKarTel,mKarTel,,D77,2016-07-16T14:48:26+06:00,
1000000000212329,77004605469,mKarTel,mAltel,mAltel,,D01,2016-07-16T14:50:33+06:00,
1000000000212330,77714258818,mMTS,mKarTel,mKarTel,,D77,2016-07-16T14:51:14+06:00,
1000000000212333,77770840000,mKarTel,mMTS,mKarTel,D77,D01,2016-07-16T14:52:59+06:00,
1000000000212335,77005550202,mKarTel,mAltel,mAltel,,D01,2016-07-16T14:55:44+06:00,
1000000000212336,77002323232,mKarTel,mAltel,mAltel,,D01,2016-07-16T14:56:27+06:00,
