NPId,Number,RecipientId,DonorId,RangeHolderId,OldRoute,NewRoute,PortDate,RowCount
1000000000441751,77779913939,mKcell,mKarTel,mKarTel,,D02,2017-08-17T20:40:03+06:00,3
1000000000441752,77713172879,mMTS,mKarTel,mKarTel,,D77,2017-08-17T20:42:59+06:00,
1000000000441753,77786406214,mKarTel,mKcell,mKcell,,D01,2017-08-17T20:45:38+06:00,
