NPId,Number,RecipientId,DonorId,RangeHolderId,OldRoute,NewRoute,PortDate,RowCount
1000000000430622,77771116066,mKarTel,mKcell,mKarTel,D02,D01,2017-07-29T19:30:22+06:00,11
1000000000430623,77789984987,mMTS,mKcell,mKcell,,D77,2017-07-29T19:32:21+06:00,
1000000000430624,77000808846,mKcell,mAltel,mAltel,,D02,2017-07-29T19:32:41+06:00,
1000000000430625,77759937368,mKcell,mKarTel,mKcell,D01,D02,2017-07-29T19:37:19+06:00,
1000000000430626,77787380158,mMTS,mKcell,mKcell,,D77,2017-07-29T19:37:21+06:00,
1000000000430627,77000808872,mKcell,mAltel,mAltel,,D02,2017-07-29T19:38:39+06:00,
1000000000430630,77000808873,mKcell,mAltel,mAltel,,D02,2017-07-29T19:45:31+06:00,
1000000000430631,77789415957,mMTS,mKcell,mKcell,,D77,2017-07-29T19:47:19+06:00,
1000000000430632,77789985746,mMTS,mKcell,mKcell,,D77,2017-07-29T19:52:17+06:00,
1000000000430633,77785502396,mMTS,mKcell,mKcell,,D77,2017-07-29T19:52:17+06:00,
1000000000430635,77789984972,mMTS,mKcell,mKcell,,D77,2017-07-29T19:57:19+06:00,
