NPId,Number,RecipientId,DonorId,RangeHolderId,OldRoute,NewRoute,PortDate,RowCount
1000000000294262,77774155111,mKcell,mKarTel,mKarTel,,D02,2016-12-12T19:14:39+06:00,10
1000000000294263,77075600706,mKcell,mMTS,mMTS,,D02,2016-12-12T19:14:26+06:00,
1000000000294264,77071222173,mKarTel,mMTS,mMTS,,D01,2016-12-12T19:14:46+06:00,
1000000000294265,77751321210,mKarTel,mKcell,mKcell,,D01,2016-12-12T19:16:12+06:00,
1000000000294266,77072003212,mAltel,mMTS,mMTS,,D07,2016-12-12T19:16:00+06:00,
1000000000294268,77024181506,mMTS,mKcell,mKcell,,D77,2016-12-12T19:17:36+06:00,
1000000000294269,77768800101,mMTS,mKarTel,mKarTel,,D77,2016-12-12T19:17:51+06:00,
1000000000294270,77755063737,mMTS,mKcell,mKcell,,D77,2016-12-12T19:22:44+06:00,
1000000000294271,77475011830,mKarTel,mMTS,mMTS,,D01,2016-12-12T19:22:45+06:00,
1000000000294272,77776300776,mMTS,mKarTel,mKarTel,,D77,2016-12-12T19:24:59+06:00,
