NPId,Number,RecipientId,DonorId,RangeHolderId,OldRoute,NewRoute,PortDate,RowCount
1000000000151300,77776577784,mMTS,mKarTel,mKarTel,,D77,2016-04-13T18:30:38+06:00,28
1000000000151301,77762181723,mMTS,mKarTel,mKarTel,,D77,2016-04-13T18:30:38+06:00,
1000000000151303,77767249861,mMTS,mKarTel,mKarTel,,D77,2016-04-13T18:33:10+06:00,
1000000000151304,77473047459,mKcell,mMTS,mMTS,,D02,2016-04-13T18:32:32+06:00,
1000000000151305,77015542292,mMTS,mKcell,mKcell,,D77,2016-04-13T18:32:34+06:00,
1000000000151307,77087364038,mMTS,mAltel,mAltel,,D77,2016-04-13T18:33:59+06:00,
1000000000151308,77089056690,mMTS,mAltel,mAltel,,D77,2016-04-13T18:35:55+06:00,
1000000000151310,77073033666,mMTS,mAltel,mMTS,D07,D77,2016-04-13T18:36:17+06:00,
1000000000151316,77083090023,mMTS,mAltel,mAltel,,D77,2016-04-13T18:38:21+06:00,
1000000000151318,77764444423,mMTS,mAltel,mKarTel,D07,D77,2016-04-13T18:38:52+06:00,
1000000000151319,77019609098,mMTS,mKcell,mKcell,,D77,2016-04-13T18:40:09+06:00,
1000000000151320,77002669477,mMTS,mAltel,mAltel,,D77,2016-04-13T18:40:36+06:00,
1000000000151322,77774327352,mKarTel,mAltel,mKarTel,D07,D01,2016-04-13T18:41:15+06:00,
1000000000151323,77473047435,mKcell,mMTS,mMTS,,D02,2016-04-13T18:42:19+06:00,
1000000000151324,77758229404,mMTS,mKcell,mKcell,,D77,2016-04-13T18:43:39+06:00,
1000000000151325,77021157406,mMTS,mKcell,mKcell,,D77,2016-04-13T18:44:16+06:00,
1000000000151326,77024515599,mMTS,mKcell,mKcell,,D77,2016-04-13T18:44:28+06:00,
1000000000151327,77717603311,mMTS,mKarTel,mKarTel,,D77,2016-04-13T18:47:00+06:00,
1000000000151328,77085174724,mMTS,mAltel,mAltel,,D77,2016-04-13T18:46:36+06:00,
1000000000151330,77759041736,mMTS,mKcell,mKcell,,D77,2016-04-13T18:48:12+06:00,
1000000000151331,77476523130,mKcell,mMTS,mMTS,,D02,2016-04-13T18:48:39+06:00,
1000000000151332,77713518799,mMTS,mKarTel,mKarTel,,D77,2016-04-13T18:50:13+06:00,
1000000000151333,77011323236,mMTS,mKcell,mKcell,,D77,2016-04-13T18:49:14+06:00,
1000000000151336,77473047723,mKcell,mMTS,mMTS,,D02,2016-04-13T18:53:50+06:00,
1000000000151337,77083039131,mMTS,mAltel,mAltel,,D77,2016-04-13T18:54:58+06:00,
1000000000151339,77007761976,mKcell,mAltel,mAltel,,D02,2016-04-13T18:58:33+06:00,
1000000000151340,77072507125,mKcell,mMTS,mMTS,,D02,2016-04-13T18:59:21+06:00,
1000000000151341,77072981585,mMTS,mAltel,mMTS,D07,D77,2016-04-13T18:58:56+06:00,
