NPId,Number,RecipientId,DonorId,RangeHolderId,OldRoute,NewRoute,PortDate,RowCount
1000000000444115,77070405245,mKarTel,mMTS,mMTS,,D01,2017-08-23T09:15:44+06:00,71
1000000000444115,77070405266,mKarTel,mMTS,mMTS,,D01,2017-08-23T09:15:44+06:00,
1000000000444115,77070405267,mKarTel,mMTS,mMTS,,D01,2017-08-23T09:15:44+06:00,
1000000000444115,77070405268,mKarTel,mMTS,mMTS,,D01,2017-08-23T09:15:44+06:00,
1000000000444115,77070405269,mKarTel,mMTS,mMTS,,D01,2017-08-23T09:15:44+06:00,
1000000000444115,77070405270,mKarTel,mMTS,mMTS,,D01,2017-08-23T09:15:44+06:00,
1000000000444115,77070405271,mKarTel,mMTS,mMTS,,D01,2017-08-23T09:15:44+06:00,
1000000000444115,77070405272,mKarTel,mMTS,mMTS,,D01,2017-08-23T09:15:44+06:00,
1000000000444115,77070405273,mKarTel,mMTS,mMTS,,D01,2017-08-23T09:15:44+06:00,
1000000000444115,77070405274,mKarTel,mMTS,mMTS,,D01,2017-08-23T09:15:44+06:00,
1000000000444115,77070405275,mKarTel,mMTS,mMTS,,D01,2017-08-23T09:15:44+06:00,
1000000000444115,77070405276,mKarTel,mMTS,mMTS,,D01,2017-08-23T09:15:44+06:00,
1000000000444115,77070405277,mKarTel,mMTS,mMTS,,D01,2017-08-23T09:15:44+06:00,
1000000000444115,77070405278,mKarTel,mMTS,mMTS,,D01,2017-08-23T09:15:44+06:00,
1000000000444115,77070405279,mKarTel,mMTS,mMTS,,D01,2017-08-23T09:15:44+06:00,
1000000000444115,77070405280,mKarTel,mMTS,mMTS,,D01,2017-08-23T09:15:44+06:00,
1000000000444115,77070405281,mKarTel,mMTS,mMTS,,D01,2017-08-23T09:15:44+06:00,
1000000000444115,77070405282,mKarTel,mMTS,mMTS,,D01,2017-08-23T09:15:44+06:00,
1000000000444115,77070405283,mKarTel,mMTS,mMTS,,D01,2017-08-23T09:15:44+06:00,
1000000000444115,77070405284,mKarTel,mMTS,mMTS,,D01,2017-08-23T09:15:44+06:00,
1000000000444115,77070405285,mKarTel,mMTS,mMTS,,D01,2017-08-23T09:15:44+06:00,
1000000000444115,77070405286,mKarTel,mMTS,mMTS,,D01,2017-08-23T09:15:44+06:00,
1000000000444115,77070405287,mKarTel,mMTS,mMTS,,D01,2017-08-23T09:15:44+06:00,
1000000000444115,77070405288,mKarTel,mMTS,mMTS,,D01,2017-08-23T09:15:44+06:00,
1000000000444115,77070405289,mKarTel,mMTS,mMTS,,D01,2017-08-23T09:15:44+06:00,
1000000000444115,77070405290,mKarTel,mMTS,mMTS,,D01,2017-08-23T09:15:44+06:00,
1000000000444115,77070405291,mKarTel,mMTS,mMTS,,D01,2017-08-23T09:15:44+06:00,
1000000000444115,77070405292,mKarTel,mMTS,mMTS,,D01,2017-08-23T09:15:44+06:00,
1000000000444115,77070405293,mKarTel,mMTS,mMTS,,D01,2017-08-23T09:15:44+06:00,
1000000000444115,77070405294,mKarTel,mMTS,mMTS,,D01,2017-08-23T09:15:44+06:00,
1000000000444115,77070405295,mKarTel,mMTS,mMTS,,D01,2017-08-23T09:15:44+06:00,
1000000000444115,77070405296,mKarTel,mMTS,mMTS,,D01,2017-08-23T09:15:44+06:00,
1000000000444115,77070405297,mKarTel,mMTS,mMTS,,D01,2017-08-23T09:15:44+06:00,
1000000000444115,77070405299,mKarTel,mMTS,mMTS,,D01,2017-08-23T09:15:44+06:00,
1000000000444115,77070405300,mKarTel,mMTS,mMTS,,D01,2017-08-23T09:15:44+06:00,
1000000000444115,77070405301,mKarTel,mMTS,mMTS,,D01,2017-08-23T09:15:44+06:00,
1000000000444115,77070405302,mKarTel,mMTS,mMTS,,D01,2017-08-23T09:15:44+06:00,
1000000000444115,77070405303,mKarTel,mMTS,mMTS,,D01,2017-08-23T09:15:44+06:00,
1000000000444115,77078463800,mKarTel,mMTS,mMTS,,D01,2017-08-23T09:15:44+06:00,
1000000000444115,77078464055,mKarTel,mMTS,mMTS,,D01,2017-08-23T09:15:44+06:00,
1000000000444115,77078464120,mKarTel,mMTS,mMTS,,D01,2017-08-23T09:15:44+06:00,
1000000000444115,77078464140,mKarTel,mMTS,mMTS,,D01,2017-08-23T09:15:44+06:00,
1000000000444115,77078464142,mKarTel,mMTS,mMTS,,D01,2017-08-23T09:15:44+06:00,
1000000000444115,77078472067,mKarTel,mMTS,mMTS,,D01,2017-08-23T09:15:44+06:00,
1000000000444115,77078472487,mKarTel,mMTS,mMTS,,D01,2017-08-23T09:15:44+06:00,
1000000000444115,77078473587,mKarTel,mMTS,mMTS,,D01,2017-08-23T09:15:44+06:00,
1000000000444115,77078477845,mKarTel,mMTS,mMTS,,D01,2017-08-23T09:15:44+06:00,
1000000000444115,77078478128,mKarTel,mMTS,mMTS,,D01,2017-08-23T09:15:44+06:00,
1000000000444115,77474314267,mKarTel,mMTS,mMTS,,D01,2017-08-23T09:15:44+06:00,
1000000000444115,77474314268,mKarTel,mMTS,mMTS,,D01,2017-08-23T09:15:44+06:00,
1000000000444115,77474314269,mKarTel,mMTS,mMTS,,D01,2017-08-23T09:15:44+06:00,
1000000000444115,77474420331,mKarTel,mMTS,mMTS,,D01,2017-08-23T09:15:44+06:00,
1000000000444115,77474420345,mKarTel,mMTS,mMTS,,D01,2017-08-23T09:15:44+06:00,
1000000000444115,77479493881,mKarTel,mMTS,mMTS,,D01,2017-08-23T09:15:44+06:00,
1000000000444115,77479493882,mKarTel,mMTS,mMTS,,D01,2017-08-23T09:15:44+06:00,
1000000000444115,77479493884,mKarTel,mMTS,mMTS,,D01,2017-08-23T09:15:44+06:00,
1000000000444115,77479494726,mKarTel,mMTS,mMTS,,D01,2017-08-23T09:15:44+06:00,
1000000000444115,77479494728,mKarTel,mMTS,mMTS,,D01,2017-08-23T09:15:44+06:00,
1000000000444115,77479494729,mKarTel,mMTS,mMTS,,D01,2017-08-23T09:15:44+06:00,
1000000000444115,77479494730,mKarTel,mMTS,mMTS,,D01,2017-08-23T09:15:44+06:00,
1000000000444115,77479494731,mKarTel,mMTS,mMTS,,D01,2017-08-23T09:15:44+06:00,
1000000000444115,77479771536,mKarTel,mMTS,mMTS,,D01,2017-08-23T09:15:44+06:00,
1000000000444115,77479771537,mKarTel,mMTS,mMTS,,D01,2017-08-23T09:15:44+06:00,
1000000000444115,77479771762,mKarTel,mMTS,mMTS,,D01,2017-08-23T09:15:44+06:00,
1000000000444115,77479808765,mKarTel,mMTS,mMTS,,D01,2017-08-23T09:15:44+06:00,
1000000000444115,77479808766,mKarTel,mMTS,mMTS,,D01,2017-08-23T09:15:44+06:00,
1000000000444115,77479808815,mKarTel,mMTS,mMTS,,D01,2017-08-23T09:15:44+06:00,
1000000000444115,77479808816,mKarTel,mMTS,mMTS,,D01,2017-08-23T09:15:44+06:00,
1000000000444116,77760890505,mKcell,mAltel,mKarTel,D07,D02,2017-08-23T09:13:16+06:00,
1000000000444118,77476670343,mAltel,mMTS,mMTS,,D07,2017-08-23T09:22:46+06:00,
1000000000444120,77004096272,mMTS,mAltel,mAltel,,D77,2017-08-23T09:29:01+06:00,
