NPId,Number,RecipientId,DonorId,RangeHolderId,OldRoute,NewRoute,PortDate,RowCount
1000000000184247,77017104637,mMTS,mKcell,mKcell,,D77,2016-05-31T10:00:41+06:00,24
1000000000184248,77086872461,mKarTel,mAltel,mAltel,,D01,2016-05-31T10:00:52+06:00,
1000000000184250,77014252451,mMTS,mKcell,mKcell,,D77,2016-05-31T10:02:12+06:00,
1000000000184253,77014612959,mMTS,mKcell,mKcell,,D77,2016-05-31T10:02:19+06:00,
1000000000184254,77776170333,mMTS,mKarTel,mKarTel,,D77,2016-05-31T10:02:32+06:00,
1000000000184255,77083399193,mMTS,mKcell,mAltel,D02,D77,2016-05-31T10:02:20+06:00,
1000000000184256,77752047592,mMTS,mKcell,mKcell,,D77,2016-05-31T10:06:32+06:00,
1000000000184257,77077616221,mAltel,mMTS,mMTS,,D07,2016-05-31T10:06:44+06:00,
1000000000184260,77755689413,mMTS,mKcell,mKcell,,D77,2016-05-31T10:09:16+06:00,
1000000000184262,77077300995,mMTS,mKarTel,mMTS,D01,D77,2016-05-31T10:12:31+06:00,
1000000000184263,77029141151,mMTS,mKarTel,mKcell,D01,D77,2016-05-31T10:12:49+06:00,
1000000000184264,77789332262,mKarTel,mKcell,mKcell,,D01,2016-05-31T10:13:54+06:00,
1000000000184268,77781488870,mMTS,mKcell,mKcell,,D77,2016-05-31T10:17:28+06:00,
1000000000184269,77054249786,mMTS,mKarTel,mKarTel,,D77,2016-05-31T10:17:38+06:00,
1000000000184270,77024656333,mMTS,mKcell,mKcell,,D77,2016-05-31T10:17:39+06:00,
1000000000184271,77075740609,mMTS,mAltel,mMTS,D07,D77,2016-05-31T10:18:50+06:00,
1000000000184272,77015347369,mKcell,mAltel,mKcell,D07,D02,2016-05-31T10:20:28+06:00,
1000000000184274,77770101787,mMTS,mKarTel,mKarTel,,D77,2016-05-31T10:22:04+06:00,
1000000000184276,77017660669,mKarTel,mKcell,mKcell,,D01,2016-05-31T10:24:33+06:00,
1000000000184277,77772773799,mKarTel,mMTS,mKarTel,D77,D01,2016-05-31T10:24:51+06:00,
1000000000184278,77754070722,mKarTel,mKcell,mKcell,,D01,2016-05-31T10:25:34+06:00,
1000000000184279,77003001911,mMTS,mAltel,mAltel,,D77,2016-05-31T10:25:13+06:00,
1000000000184281,77017503635,mKarTel,mKcell,mKcell,,D01,2016-05-31T10:27:41+06:00,
1000000000184283,77083217861,mKcell,mAltel,mAltel,,D02,2016-05-31T10:29:49+06:00,
