NPId,Number,RecipientId,DonorId,RangeHolderId,OldRoute,NewRoute,PortDate,RowCount
1000000000335817,77018796964,mKarTel,mKcell,mKcell,,D01,2017-02-27T17:28:16+06:00,48
1000000000335817,77018796968,mKarTel,mKcell,mKcell,,D01,2017-02-27T17:28:16+06:00,
1000000000335817,77018796969,mKarTel,mKcell,mKcell,,D01,2017-02-27T17:28:16+06:00,
1000000000335817,77018796970,mKarTel,mKcell,mKcell,,D01,2017-02-27T17:28:16+06:00,
1000000000335817,77018796996,mKarTel,mKcell,mKcell,,D01,2017-02-27T17:28:16+06:00,
1000000000335998,77010590873,mKarTel,mKcell,mKcell,,D01,2017-02-27T17:24:19+06:00,
1000000000335998,77019539309,mKarTel,mKcell,mKcell,,D01,2017-02-27T17:24:19+06:00,
1000000000336308,77006004797,mKcell,mAltel,mAltel,,D02,2017-02-27T17:00:13+06:00,
1000000000336310,77476758155,mKcell,mMTS,mMTS,,D02,2017-02-27T17:01:19+06:00,
1000000000336311,77054212316,mAltel,mKarTel,mKarTel,,D07,2017-02-27T17:01:15+06:00,
1000000000336312,77771828720,mMTS,mKarTel,mKarTel,,D77,2017-02-27T17:01:38+06:00,
1000000000336315,77003000874,mKcell,mAltel,mAltel,,D02,2017-02-27T17:03:15+06:00,
1000000000336316,77006008494,mKcell,mAltel,mAltel,,D02,2017-02-27T17:03:27+06:00,
1000000000336317,77006008797,mKcell,mAltel,mAltel,,D02,2017-02-27T17:03:39+06:00,
1000000000336318,77006003696,mKcell,mAltel,mAltel,,D02,2017-02-27T17:04:25+06:00,
1000000000336319,77476758156,mKcell,mMTS,mMTS,,D02,2017-02-27T17:05:01+06:00,
1000000000336320,77072087779,mAltel,mMTS,mMTS,,D07,2017-02-27T17:04:46+06:00,
1000000000336321,77006004191,mKcell,mAltel,mAltel,,D02,2017-02-27T17:05:47+06:00,
1000000000336322,77006004393,mKcell,mAltel,mAltel,,D02,2017-02-27T17:07:16+06:00,
1000000000336323,77476758174,mKcell,mMTS,mMTS,,D02,2017-02-27T17:07:49+06:00,
1000000000336324,77756975680,mKcell,mAltel,mKcell,D07,D02,2017-02-27T17:07:22+06:00,
1000000000336326,77781095701,mMTS,mKcell,mKcell,,D77,2017-02-27T17:07:52+06:00,
1000000000336327,77006007696,mKcell,mAltel,mAltel,,D02,2017-02-27T17:08:08+06:00,
1000000000336330,77021616759,mKcell,mKarTel,mKcell,D01,D02,2017-02-27T17:09:36+06:00,
1000000000336334,77006002696,mKcell,mAltel,mAltel,,D02,2017-02-27T17:12:23+06:00,
1000000000336335,77028694972,mKarTel,mKcell,mKcell,,D01,2017-02-27T17:12:56+06:00,
1000000000336336,77029470888,mMTS,mKcell,mKcell,,D77,2017-02-27T17:12:51+06:00,
1000000000336337,77777557255,mKarTel,mMTS,mKarTel,D77,D01,2017-02-27T17:13:12+06:00,
1000000000336338,77771172610,mAltel,mKarTel,mKarTel,D01,D07,2017-02-27T17:15:24+06:00,
1000000000336339,77476255877,mAltel,mMTS,mMTS,,D07,2017-02-27T17:16:03+06:00,
1000000000336340,77010702505,mMTS,mKcell,mKcell,,D77,2017-02-27T17:16:31+06:00,
1000000000336341,77765233553,mKcell,mKarTel,mKarTel,,D02,2017-02-27T17:18:03+06:00,
1000000000336343,77085906407,mMTS,mAltel,mAltel,,D77,2017-02-27T17:17:48+06:00,
1000000000336344,77026200032,mMTS,mKcell,mKcell,,D77,2017-02-27T17:18:35+06:00,
1000000000336345,77785588887,mKcell,mMTS,mKcell,D77,D02,2017-02-27T17:19:19+06:00,
1000000000336346,77028694973,mKarTel,mKcell,mKcell,,D01,2017-02-27T17:20:04+06:00,
1000000000336347,77774180082,mMTS,mKarTel,mKarTel,,D77,2017-02-27T17:20:45+06:00,
1000000000336348,77772477976,mAltel,mKarTel,mKarTel,,D07,2017-02-27T17:21:05+06:00,
1000000000336349,77789063825,mMTS,mKcell,mKcell,,D77,2017-02-27T17:21:47+06:00,
1000000000336350,77058158585,mMTS,mKcell,mKarTel,D02,D77,2017-02-27T17:21:55+06:00,
1000000000336351,77017860978,mKcell,mKarTel,mKcell,D01,D02,2017-02-27T17:22:35+06:00,
1000000000336352,77089531028,mAltel,mKarTel,mAltel,D01,D07,2017-02-27T17:22:57+06:00,
1000000000336353,77011779644,mMTS,mKcell,mKcell,,D77,2017-02-27T17:23:34+06:00,
1000000000336354,77025312868,mMTS,mKcell,mKcell,,D77,2017-02-27T17:23:46+06:00,
1000000000336355,77782223468,mAltel,mKcell,mKcell,,D07,2017-02-27T17:24:19+06:00,
1000000000336356,77017540212,mKcell,mKarTel,mKcell,D01,D02,2017-02-27T17:25:31+06:00,
1000000000336357,77755177800,mAltel,mKcell,mKcell,,D07,2017-02-27T17:26:24+06:00,
1000000000336359,77476759983,mKcell,mMTS,mMTS,,D02,2017-02-27T17:27:59+06:00,
