NPId,Number,RecipientId,DonorId,RangeHolderId,OldRoute,NewRoute,PortDate,RowCount
1000000000409673,77010916905,mAltel,mKcell,mKcell,,D07,2017-06-28T15:59:32+06:00,32
1000000000411385,77017250762,mKcell,mKarTel,mKcell,D01,D02,2017-06-28T15:51:34+06:00,
1000000000411447,77071065911,mAltel,mMTS,mMTS,,D07,2017-06-28T15:31:24+06:00,
1000000000411449,77026668876,mKcell,mAltel,mKcell,D07,D02,2017-06-28T15:32:41+06:00,
1000000000411450,77002086272,mKarTel,mAltel,mAltel,,D01,2017-06-28T15:32:40+06:00,
1000000000411451,77012450505,mAltel,mKcell,mKcell,,D07,2017-06-28T15:32:39+06:00,
1000000000411453,77077276525,mKarTel,mMTS,mMTS,,D01,2017-06-28T15:33:53+06:00,
1000000000411454,77777771720,mKarTel,mKcell,mKarTel,D02,D01,2017-06-28T15:34:49+06:00,
1000000000411455,77075879312,mMTS,mAltel,mMTS,D07,D77,2017-06-28T15:35:13+06:00,
1000000000411456,77006006625,mKarTel,mAltel,mAltel,,D01,2017-06-28T15:36:00+06:00,
1000000000411457,77787800008,mMTS,mKcell,mKcell,,D77,2017-06-28T15:37:05+06:00,
1000000000411460,77015551252,mKarTel,mKcell,mKcell,,D01,2017-06-28T15:37:44+06:00,
1000000000411461,77012999748,mMTS,mKcell,mKcell,,D77,2017-06-28T15:38:07+06:00,
1000000000411463,77779777792,mAltel,mKarTel,mKarTel,,D07,2017-06-28T15:39:17+06:00,
1000000000411464,77074045575,mKarTel,mMTS,mMTS,,D01,2017-06-28T15:39:36+06:00,
1000000000411467,77053002244,mMTS,mKarTel,mKarTel,,D77,2017-06-28T15:42:04+06:00,
1000000000411469,77076052515,mAltel,mMTS,mMTS,,D07,2017-06-28T15:43:13+06:00,
1000000000411470,77021748125,mKcell,mMTS,mKcell,D77,D02,2017-06-28T15:44:14+06:00,
1000000000411471,77078967509,mKcell,mMTS,mMTS,,D02,2017-06-28T15:43:59+06:00,
1000000000411474,77083011992,mKarTel,mAltel,mAltel,,D01,2017-06-28T15:45:10+06:00,
1000000000411477,77781090404,mKcell,mAltel,mKcell,D07,D02,2017-06-28T15:47:35+06:00,
1000000000411481,77771951919,mMTS,mKarTel,mKarTel,,D77,2017-06-28T15:49:07+06:00,
1000000000411482,77711606166,mKarTel,mMTS,mKarTel,D77,D01,2017-06-28T15:49:11+06:00,
1000000000411484,77004404078,mKcell,mAltel,mAltel,,D02,2017-06-28T15:50:45+06:00,
1000000000411486,77017124503,mKarTel,mKcell,mKcell,,D01,2017-06-28T15:51:48+06:00,
1000000000411489,77083577153,mAltel,mMTS,mAltel,D77,D07,2017-06-28T15:52:57+06:00,
1000000000411493,77076289474,mAltel,mMTS,mMTS,,D07,2017-06-28T15:54:38+06:00,
1000000000411494,77012777736,mKarTel,mKcell,mKcell,,D01,2017-06-28T15:55:02+06:00,
1000000000411496,77003130380,mKcell,mAltel,mAltel,,D02,2017-06-28T15:55:44+06:00,
1000000000411497,77473002480,mKarTel,mMTS,mMTS,,D01,2017-06-28T15:56:06+06:00,
1000000000411498,77003303089,mKcell,mAltel,mAltel,,D02,2017-06-28T15:57:58+06:00,
1000000000411499,77017471106,mMTS,mKcell,mKcell,,D77,2017-06-28T15:58:35+06:00,
