NPId,Number,RecipientId,DonorId,RangeHolderId,OldRoute,NewRoute,PortDate,RowCount
1000000000411784,77051702197,mMTS,mKarTel,mKarTel,,D77,2017-06-28T20:12:05+06:00,6
1000000000411785,77003334230,mKcell,mAltel,mAltel,,D02,2017-06-28T20:14:24+06:00,
1000000000411786,77766111111,mKcell,mKarTel,mKarTel,,D02,2017-06-28T20:17:36+06:00,
1000000000411788,77477720723,mKcell,mMTS,mMTS,,D02,2017-06-28T20:20:54+06:00,
1000000000411789,77055498337,mMTS,mKarTel,mKarTel,,D77,2017-06-28T20:22:07+06:00,
1000000000411790,77082934678,mKcell,mAltel,mAltel,,D02,2017-06-28T20:24:12+06:00,
