NPId,Number,RecipientId,DonorId,RangeHolderId,OldRoute,NewRoute,PortDate,RowCount
1000000000094892,77017174704,mKarTel,mKcell,mKcell,,D01,2016-02-21T13:00:12+06:00,26
1000000000094894,77019418521,mAltel,mKcell,mKcell,,D07,2016-02-21T13:00:42+06:00,
1000000000094895,77000900055,mMTS,mAltel,mAltel,,D77,2016-02-21T13:00:47+06:00,
1000000000094896,77017862607,mAltel,mKcell,mKcell,,D07,2016-02-21T13:01:13+06:00,
1000000000094898,77025888026,mMTS,mKcell,mKcell,,D77,2016-02-21T13:01:36+06:00,
1000000000094900,77757512501,mMTS,mKcell,mKcell,,D77,2016-02-21T13:04:06+06:00,
1000000000094901,77011278810,mKarTel,mKcell,mKcell,,D01,2016-02-21T13:06:02+06:00,
1000000000094902,77772221987,mAltel,mKarTel,mKarTel,,D07,2016-02-21T13:06:31+06:00,
1000000000094903,77058895053,mMTS,mKarTel,mKarTel,,D77,2016-02-21T13:07:08+06:00,
1000000000094908,77772368020,mMTS,mKarTel,mKarTel,,D77,2016-02-21T13:10:10+06:00,
1000000000094909,77773432945,mAltel,mKarTel,mKarTel,,D07,2016-02-21T13:10:50+06:00,
1000000000094910,77751468503,mMTS,mKcell,mKcell,,D77,2016-02-21T13:12:59+06:00,
1000000000094911,77759050175,mAltel,mKcell,mKcell,,D07,2016-02-21T13:13:50+06:00,
1000000000094913,77783430550,mMTS,mKcell,mKcell,,D77,2016-02-21T13:14:54+06:00,
1000000000094915,77775709590,mMTS,mKarTel,mKarTel,,D77,2016-02-21T13:16:19+06:00,
1000000000094917,77773737353,mMTS,mKarTel,mKarTel,,D77,2016-02-21T13:17:58+06:00,
1000000000094918,77073655443,mKarTel,mMTS,mMTS,,D01,2016-02-21T13:18:12+06:00,
1000000000094919,77073622381,mKarTel,mMTS,mMTS,,D01,2016-02-21T13:18:36+06:00,
1000000000094920,77759870707,mMTS,mKcell,mKcell,,D77,2016-02-21T13:19:02+06:00,
1000000000094923,77073624085,mKarTel,mMTS,mMTS,,D01,2016-02-21T13:20:48+06:00,
1000000000094924,77025552999,mAltel,mKcell,mKcell,,D07,2016-02-21T13:22:52+06:00,
1000000000094925,77071151569,mAltel,mMTS,mMTS,,D07,2016-02-21T13:24:35+06:00,
1000000000094926,77477779800,mAltel,mMTS,mMTS,,D07,2016-02-21T13:25:12+06:00,
1000000000094927,77474319930,mAltel,mMTS,mMTS,,D07,2016-02-21T13:26:18+06:00,
1000000000094928,77029377444,mMTS,mKcell,mKcell,,D77,2016-02-21T13:26:48+06:00,
1000000000094930,77784260111,mAltel,mKcell,mKcell,,D07,2016-02-21T13:29:28+06:00,
