NPId,Number,RecipientId,DonorId,RangeHolderId,OldRoute,NewRoute,PortDate,RowCount
1000000000264055,77005550696,mKcell,mAltel,mAltel,,D02,2016-10-17T19:01:18+06:00,13
1000000000264056,77778254488,mMTS,mKarTel,mKarTel,,D77,2016-10-17T19:04:44+06:00,
1000000000264058,77005550979,mKcell,mAltel,mAltel,,D02,2016-10-17T19:05:03+06:00,
1000000000264059,77005550868,mKcell,mAltel,mAltel,,D02,2016-10-17T19:06:25+06:00,
1000000000264060,77022704464,mKcell,mMTS,mKcell,D77,D02,2016-10-17T19:07:14+06:00,
1000000000264064,77766164141,mAltel,mKarTel,mKarTel,,D07,2016-10-17T19:17:27+06:00,
1000000000264067,77013375061,mKarTel,mKcell,mKcell,,D01,2016-10-17T19:19:28+06:00,
1000000000264068,77762227413,mKcell,mKarTel,mKarTel,,D02,2016-10-17T19:20:31+06:00,
1000000000264069,77075099599,mAltel,mMTS,mMTS,,D07,2016-10-17T19:20:06+06:00,
1000000000264070,77082280858,mKcell,mAltel,mAltel,,D02,2016-10-17T19:20:25+06:00,
1000000000264071,77017202633,mAltel,mKcell,mKcell,,D07,2016-10-17T19:20:28+06:00,
1000000000264073,77077085294,mAltel,mMTS,mMTS,,D07,2016-10-17T19:25:08+06:00,
1000000000264074,77052227413,mKcell,mKarTel,mKarTel,,D02,2016-10-17T19:27:00+06:00,
