NPId,Number,RecipientId,DonorId,RangeHolderId,OldRoute,NewRoute,PortDate,RowCount
1000000000269193,77085601707,mMTS,mAltel,mAltel,,D77,2016-10-28T10:02:31+06:00,10
1000000000269194,77715333200,mMTS,mKarTel,mKarTel,,D77,2016-10-28T10:02:58+06:00,
1000000000269195,77017761228,mAltel,mKcell,mKcell,,D07,2016-10-28T10:06:58+06:00,
1000000000269197,77029329801,mMTS,mKcell,mKcell,,D77,2016-10-28T10:11:09+06:00,
1000000000269199,77479712542,mAltel,mMTS,mMTS,,D07,2016-10-28T10:14:16+06:00,
1000000000269202,77003392393,mAltel,mKarTel,mAltel,D01,D07,2016-10-28T10:18:14+06:00,
1000000000269203,77714444241,mKarTel,mKcell,mKarTel,D02,D01,2016-10-28T10:21:00+06:00,
1000000000269205,77077707000,mKarTel,mMTS,mMTS,,D01,2016-10-28T10:24:02+06:00,
1000000000269208,77000231183,mKarTel,mAltel,mAltel,,D01,2016-10-28T10:26:04+06:00,
1000000000269209,77017937073,mKcell,mKarTel,mKcell,D01,D02,2016-10-28T10:27:00+06:00,
