NPId,Number,RecipientId,DonorId,RangeHolderId,OldRoute,NewRoute,PortDate,RowCount
1000000000201575,77772324191,mMTS,mKarTel,mKarTel,,D77,2016-06-28T15:35:47+06:00,32
1000000000201587,77077676202,mKcell,mMTS,mMTS,,D02,2016-06-28T15:30:42+06:00,
1000000000201589,77786198555,mMTS,mKcell,mKcell,,D77,2016-06-28T15:31:57+06:00,
1000000000201591,77770059933,mMTS,mKarTel,mKarTel,,D77,2016-06-28T15:48:17+06:00,
1000000000201593,77713706041,mKarTel,mMTS,mKarTel,D77,D01,2016-06-28T15:33:40+06:00,
1000000000201595,77015496826,mKcell,mKarTel,mKcell,D01,D02,2016-06-28T15:34:56+06:00,
1000000000201597,77475775765,mKarTel,mMTS,mMTS,,D01,2016-06-28T15:35:46+06:00,
1000000000201599,77770059755,mMTS,mKarTel,mKarTel,,D77,2016-06-28T15:51:35+06:00,
1000000000201601,77015134412,mKarTel,mKcell,mKcell,,D01,2016-06-28T15:37:35+06:00,
1000000000201603,77777349886,mMTS,mKarTel,mKarTel,,D77,2016-06-28T15:37:29+06:00,
1000000000201604,77086782129,mMTS,mKarTel,mAltel,D01,D77,2016-06-28T15:38:12+06:00,
1000000000201605,77022873390,mKcell,mAltel,mKcell,D07,D02,2016-06-28T15:39:43+06:00,
1000000000201607,77059841678,mMTS,mKarTel,mKarTel,,D77,2016-06-28T15:40:01+06:00,
1000000000201609,77028569205,mKcell,mAltel,mKcell,D07,D02,2016-06-28T15:40:48+06:00,
1000000000201612,77027103415,mKcell,mMTS,mKcell,D77,D02,2016-06-28T15:42:27+06:00,
1000000000201616,77055264715,mMTS,mKarTel,mKarTel,,D77,2016-06-28T15:43:02+06:00,
1000000000201619,77014177290,mKarTel,mKcell,mKcell,,D01,2016-06-28T15:43:34+06:00,
1000000000201621,77779892564,mMTS,mKarTel,mKarTel,,D77,2016-06-28T15:43:55+06:00,
1000000000201622,77002000022,mMTS,mAltel,mAltel,,D77,2016-06-28T15:43:55+06:00,
1000000000201624,77056138916,mMTS,mKarTel,mKarTel,,D77,2016-06-28T15:44:55+06:00,
1000000000201626,77086229434,mKcell,mAltel,mAltel,,D02,2016-06-28T15:45:11+06:00,
1000000000201629,77005574457,mMTS,mAltel,mAltel,,D77,2016-06-28T15:45:56+06:00,
1000000000201633,77051188575,mKcell,mKarTel,mKarTel,,D02,2016-06-28T15:50:01+06:00,
1000000000201634,77083329891,mMTS,mAltel,mAltel,,D77,2016-06-28T15:48:33+06:00,
1000000000201639,77789392415,mMTS,mKcell,mKcell,,D77,2016-06-28T15:51:30+06:00,
1000000000201640,77017282858,mMTS,mKcell,mKcell,,D77,2016-06-28T15:52:47+06:00,
1000000000201641,77055552502,mMTS,mKarTel,mKarTel,,D77,2016-06-28T15:52:35+06:00,
1000000000201647,77077880700,mKarTel,mMTS,mMTS,,D01,2016-06-28T15:56:10+06:00,
1000000000201650,77010181408,mAltel,mKcell,mKcell,,D07,2016-06-28T15:58:34+06:00,
1000000000201652,77053300009,mMTS,mKcell,mKarTel,D02,D77,2016-06-28T15:59:02+06:00,
1000000000201654,77479972542,mKarTel,mMTS,mMTS,,D01,2016-06-28T15:58:44+06:00,
1000000000201655,77028540354,mKcell,mMTS,mKcell,D77,D02,2016-06-28T15:59:09+06:00,
