NPId,Number,RecipientId,DonorId,RangeHolderId,OldRoute,NewRoute,PortDate,RowCount
1000000000434166,77782333355,mKcell,mAltel,mKcell,D07,D02,2017-08-03T14:00:01+06:00,36
1000000000434169,77773161670,mAltel,mKarTel,mKarTel,,D07,2017-08-03T14:01:29+06:00,
1000000000434172,77003336858,mKcell,mAltel,mAltel,,D02,2017-08-03T14:02:19+06:00,
1000000000434175,77018833773,mKarTel,mKcell,mKcell,,D01,2017-08-03T14:05:18+06:00,
1000000000434178,77006270001,mKarTel,mMTS,mAltel,D77,D01,2017-08-03T14:07:09+06:00,
1000000000434179,77019900134,mKarTel,mKcell,mKcell,,D01,2017-08-03T14:07:19+06:00,
1000000000434180,77028701666,mMTS,mKcell,mKcell,,D77,2017-08-03T14:07:24+06:00,
1000000000434181,77756786130,mMTS,mKcell,mKcell,,D77,2017-08-03T14:07:31+06:00,
1000000000434182,77016661938,mMTS,mKcell,mKcell,,D77,2017-08-03T14:07:30+06:00,
1000000000434183,77071089592,mMTS,mKarTel,mMTS,D01,D77,2017-08-03T14:08:04+06:00,
1000000000434184,77058158585,mKarTel,mMTS,mKarTel,D77,D01,2017-08-03T14:09:51+06:00,
1000000000434185,77015555570,mMTS,mKcell,mKcell,,D77,2017-08-03T14:09:54+06:00,
1000000000434186,77773059966,mKcell,mKarTel,mKarTel,,D02,2017-08-03T14:12:00+06:00,
1000000000434187,77782752917,mKarTel,mKcell,mKcell,,D01,2017-08-03T14:12:56+06:00,
1000000000434188,77019253240,mKarTel,mKcell,mKcell,,D01,2017-08-03T14:13:26+06:00,
1000000000434189,77016793157,mKarTel,mMTS,mKcell,D77,D01,2017-08-03T14:13:46+06:00,
1000000000434190,77074444407,mKarTel,mKcell,mMTS,D02,D01,2017-08-03T14:14:06+06:00,
1000000000434191,77758888487,mAltel,mKcell,mKcell,,D07,2017-08-03T14:14:38+06:00,
1000000000434192,77006270005,mKarTel,mMTS,mAltel,D77,D01,2017-08-03T14:14:52+06:00,
1000000000434193,77474204420,mKcell,mMTS,mMTS,D77,D02,2017-08-03T14:16:23+06:00,
1000000000434194,77782401664,mKarTel,mMTS,mKcell,D77,D01,2017-08-03T14:17:39+06:00,
1000000000434196,77055000510,mKarTel,mAltel,mKarTel,D07,D01,2017-08-03T14:19:58+06:00,
1000000000434197,77014734198,mKarTel,mMTS,mKcell,D77,D01,2017-08-03T14:20:39+06:00,
1000000000434198,77054177245,mKarTel,mMTS,mKarTel,D77,D01,2017-08-03T14:21:24+06:00,
1000000000434199,77759649282,mAltel,mKcell,mKcell,D02,D07,2017-08-03T14:21:53+06:00,
1000000000434201,77475628256,mKarTel,mMTS,mMTS,,D01,2017-08-03T14:23:07+06:00,
1000000000434202,77051219494,mMTS,mKarTel,mKarTel,,D77,2017-08-03T14:24:01+06:00,
1000000000434203,77019329305,mKarTel,mKcell,mKcell,,D01,2017-08-03T14:24:50+06:00,
1000000000434204,77764422881,mMTS,mKarTel,mKarTel,,D77,2017-08-03T14:25:04+06:00,
1000000000434206,77774730253,mKcell,mKarTel,mKarTel,,D02,2017-08-03T14:26:02+06:00,
1000000000434207,77473477670,mKarTel,mMTS,mMTS,,D01,2017-08-03T14:27:52+06:00,
1000000000434208,77758880179,mKcell,mMTS,mKcell,D77,D02,2017-08-03T14:28:05+06:00,
1000000000434210,77083332580,mKarTel,mAltel,mAltel,,D01,2017-08-03T14:28:24+06:00,
1000000000434213,77472298414,mAltel,mMTS,mMTS,,D07,2017-08-03T14:28:44+06:00,
1000000000434214,77019995577,mKarTel,mKcell,mKcell,,D01,2017-08-03T14:29:11+06:00,
1000000000434215,77022900771,mKarTel,mKcell,mKcell,,D01,2017-08-03T14:29:48+06:00,
