NPId,Number,RecipientId,DonorId,RangeHolderId,OldRoute,NewRoute,PortDate,RowCount
1000000000286042,77057904948,mMTS,mKarTel,mKarTel,,D77,2016-11-29T13:41:32+06:00,28
1000000000286046,77017080758,mKcell,mKarTel,mKcell,D01,D02,2016-11-29T13:31:42+06:00,
1000000000286047,77052332148,mKarTel,mMTS,mKarTel,D77,D01,2016-11-29T13:33:20+06:00,
1000000000286048,77010933330,mKarTel,mAltel,mKcell,D07,D01,2016-11-29T13:33:29+06:00,
1000000000286050,77021804377,mMTS,mKcell,mKcell,,D77,2016-11-29T13:37:07+06:00,
1000000000286051,77014466968,mMTS,mKcell,mKcell,,D77,2016-11-29T13:37:37+06:00,
1000000000286052,77019777076,mAltel,mMTS,mKcell,D77,D07,2016-11-29T13:37:38+06:00,
1000000000286054,77019490177,mAltel,mKcell,mKcell,,D07,2016-11-29T13:41:14+06:00,
1000000000286056,77053279959,mMTS,mKarTel,mKarTel,,D77,2016-11-29T13:42:55+06:00,
1000000000286057,77022622227,mMTS,mKcell,mKcell,,D77,2016-11-29T13:42:40+06:00,
1000000000286059,77014491980,mMTS,mKcell,mKcell,,D77,2016-11-29T13:42:54+06:00,
1000000000286060,77023824680,mAltel,mKcell,mKcell,,D07,2016-11-29T13:43:17+06:00,
1000000000286061,77780000780,mAltel,mKcell,mKcell,,D07,2016-11-29T13:43:35+06:00,
1000000000286063,77778202000,mKcell,mKarTel,mKarTel,,D02,2016-11-29T13:44:49+06:00,
1000000000286064,77473466977,mKarTel,mMTS,mMTS,,D01,2016-11-29T13:47:10+06:00,
1000000000286065,77767700555,mKcell,mAltel,mKarTel,D07,D02,2016-11-29T13:47:11+06:00,
1000000000286067,77074108066,mKarTel,mMTS,mMTS,,D01,2016-11-29T13:48:37+06:00,
1000000000286068,77074108077,mKarTel,mMTS,mMTS,,D01,2016-11-29T13:49:50+06:00,
1000000000286069,77071200110,mKcell,mKarTel,mMTS,D01,D02,2016-11-29T13:53:34+06:00,
1000000000286070,77029868118,mAltel,mKcell,mKcell,,D07,2016-11-29T13:52:08+06:00,
1000000000286072,77074173032,mKcell,mMTS,mMTS,,D02,2016-11-29T13:54:43+06:00,
1000000000286073,77017865823,mAltel,mKcell,mKcell,,D07,2016-11-29T13:54:59+06:00,
1000000000286074,77754997752,mKcell,mKarTel,mKcell,D01,D02,2016-11-29T13:56:02+06:00,
1000000000286075,77018339741,mAltel,mKarTel,mKcell,D01,D07,2016-11-29T13:56:00+06:00,
1000000000286076,77026031011,mMTS,mKcell,mKcell,,D77,2016-11-29T13:57:38+06:00,
1000000000286077,77028458551,mMTS,mKcell,mKcell,,D77,2016-11-29T13:57:41+06:00,
1000000000286078,77762223305,mKarTel,mMTS,mKarTel,D77,D01,2016-11-29T13:57:53+06:00,
1000000000286079,77758850655,mKcell,mMTS,mKcell,D77,D02,2016-11-29T13:58:41+06:00,
