NPId,Number,RecipientId,DonorId,RangeHolderId,OldRoute,NewRoute,PortDate,RowCount
1000000000168037,77021053482,mMTS,mKcell,mKcell,,D77,2016-05-05T13:01:19+06:00,42
1000000000168039,77714095900,mMTS,mKarTel,mKarTel,,D77,2016-05-05T13:02:11+06:00,
1000000000168040,77022938202,mKcell,mAltel,mKcell,D07,D02,2016-05-05T13:03:21+06:00,
1000000000168043,77760515544,mKcell,mKarTel,mKarTel,,D02,2016-05-05T13:07:20+06:00,
1000000000168045,77029265956,mMTS,mKcell,mKcell,,D77,2016-05-05T13:07:20+06:00,
1000000000168046,77775033193,mMTS,mKarTel,mKarTel,,D77,2016-05-05T13:07:32+06:00,
1000000000168047,77013054838,mKcell,mAltel,mKcell,D07,D02,2016-05-05T13:08:03+06:00,
1000000000168048,77074346914,mKcell,mMTS,mMTS,,D02,2016-05-05T13:09:26+06:00,
1000000000168049,77052650795,mMTS,mKarTel,mKarTel,,D77,2016-05-05T13:10:36+06:00,
1000000000168050,77778565670,mAltel,mKarTel,mKarTel,,D07,2016-05-05T13:11:06+06:00,
1000000000168051,77718256495,mKcell,mKarTel,mKarTel,,D02,2016-05-05T13:12:04+06:00,
1000000000168052,77053054501,mAltel,mKarTel,mKarTel,,D07,2016-05-05T13:12:13+06:00,
1000000000168053,77777410375,mMTS,mKarTel,mKarTel,,D77,2016-05-05T13:12:16+06:00,
1000000000168054,77051947542,mMTS,mKarTel,mKarTel,,D77,2016-05-05T13:12:37+06:00,
1000000000168055,77070430659,mMTS,mKcell,mMTS,D02,D77,2016-05-05T13:13:47+06:00,
1000000000168056,77022654848,mKarTel,mKcell,mKcell,,D01,2016-05-05T13:14:23+06:00,
1000000000168057,77087529528,mMTS,mAltel,mAltel,,D77,2016-05-05T13:14:56+06:00,
1000000000168058,77085327955,mMTS,mAltel,mAltel,,D77,2016-05-05T13:15:10+06:00,
1000000000168060,77775424402,mKcell,mKarTel,mKarTel,,D02,2016-05-05T13:17:14+06:00,
1000000000168062,77016142040,mMTS,mAltel,mKcell,D07,D77,2016-05-05T13:16:47+06:00,
1000000000168063,77084936898,mMTS,mAltel,mAltel,,D77,2016-05-05T13:17:05+06:00,
1000000000168064,77078148505,mAltel,mMTS,mMTS,,D07,2016-05-05T13:17:23+06:00,
1000000000168065,77756627621,mMTS,mKcell,mKcell,,D77,2016-05-05T13:18:16+06:00,
1000000000168066,77774160368,mMTS,mKarTel,mKarTel,,D77,2016-05-05T13:18:05+06:00,
1000000000168068,77015565831,mMTS,mKcell,mKcell,,D77,2016-05-05T13:18:16+06:00,
1000000000168069,77026298019,mMTS,mKcell,mKcell,,D77,2016-05-05T13:18:58+06:00,
1000000000168070,77784875628,mMTS,mKcell,mKcell,,D77,2016-05-05T13:20:45+06:00,
1000000000168071,77014149134,mMTS,mKcell,mKcell,,D77,2016-05-05T13:20:45+06:00,
1000000000168072,77015547390,mKarTel,mKcell,mKcell,,D01,2016-05-05T13:21:27+06:00,
1000000000168074,77009998008,mKcell,mAltel,mAltel,,D02,2016-05-05T13:23:05+06:00,
1000000000168076,77013605063,mMTS,mAltel,mKcell,D07,D77,2016-05-05T13:23:16+06:00,
1000000000168077,77712592951,mAltel,mKarTel,mKarTel,,D07,2016-05-05T13:23:46+06:00,
1000000000168081,77014713858,mMTS,mKcell,mKcell,,D77,2016-05-05T13:24:41+06:00,
1000000000168083,77089449085,mMTS,mAltel,mAltel,,D77,2016-05-05T13:25:47+06:00,
1000000000168084,77072966613,mKcell,mMTS,mMTS,,D02,2016-05-05T13:26:23+06:00,
1000000000168085,77005592774,mMTS,mAltel,mAltel,,D77,2016-05-05T13:26:38+06:00,
1000000000168086,77753487462,mMTS,mKcell,mKcell,,D77,2016-05-05T13:27:12+06:00,
1000000000168087,77013521548,mMTS,mKcell,mKcell,,D77,2016-05-05T13:28:14+06:00,
1000000000168088,77772277443,mMTS,mKarTel,mKarTel,,D77,2016-05-05T13:28:14+06:00,
1000000000168089,77004340420,mMTS,mAltel,mAltel,,D77,2016-05-05T13:28:18+06:00,
1000000000168090,77776052245,mMTS,mKarTel,mKarTel,,D77,2016-05-05T13:28:43+06:00,
1000000000168091,77772007238,mMTS,mKarTel,mKarTel,,D77,2016-05-05T13:29:01+06:00,
