NPId,Number,RecipientId,DonorId,RangeHolderId,OldRoute,NewRoute,PortDate,RowCount
1000000000144160,77014948913,mMTS,mKcell,mKcell,,D77,2016-04-06T13:31:11+06:00,44
1000000000144161,77026560200,mMTS,mKcell,mKcell,,D77,2016-04-06T13:31:26+06:00,
1000000000144162,77475198198,mMTS,mAltel,mMTS,D07,D77,2016-04-06T13:31:05+06:00,
1000000000144163,77055663237,mMTS,mKarTel,mKarTel,,D77,2016-04-06T13:33:09+06:00,
1000000000144164,77783999778,mMTS,mAltel,mKcell,D07,D77,2016-04-06T13:33:20+06:00,
1000000000144165,77075551642,mKcell,mMTS,mMTS,,D02,2016-04-06T13:33:53+06:00,
1000000000144166,77086890886,mMTS,mAltel,mAltel,,D77,2016-04-06T13:33:39+06:00,
1000000000144168,77089360215,mMTS,mAltel,mAltel,,D77,2016-04-06T13:34:23+06:00,
1000000000144169,77770220440,mMTS,mKarTel,mKarTel,,D77,2016-04-06T13:36:03+06:00,
1000000000144170,77012590053,mMTS,mKcell,mKcell,,D77,2016-04-06T13:35:27+06:00,
1000000000144171,77779298444,mAltel,mKarTel,mKarTel,,D07,2016-04-06T13:36:38+06:00,
1000000000144176,77019188115,mKcell,mAltel,mKcell,D07,D02,2016-04-06T13:37:06+06:00,
1000000000144177,77011876134,mMTS,mKcell,mKcell,,D77,2016-04-06T13:37:00+06:00,
1000000000144178,77021210575,mMTS,mAltel,mKcell,D07,D77,2016-04-06T13:37:14+06:00,
1000000000144180,77072751993,mKcell,mAltel,mMTS,D07,D02,2016-04-06T13:38:34+06:00,
1000000000144182,77018882378,mMTS,mKcell,mKcell,,D77,2016-04-06T13:40:30+06:00,
1000000000144183,77082000705,mMTS,mAltel,mAltel,,D77,2016-04-06T13:40:27+06:00,
1000000000144184,77002141122,mMTS,mAltel,mAltel,,D77,2016-04-06T13:40:56+06:00,
1000000000144185,77771010405,mKcell,mKarTel,mKarTel,,D02,2016-04-06T13:44:21+06:00,
1000000000144186,77007171006,mMTS,mAltel,mAltel,,D77,2016-04-06T13:41:56+06:00,
1000000000144188,77026507750,mMTS,mKarTel,mKcell,D01,D77,2016-04-06T13:43:27+06:00,
1000000000144189,77018188585,mMTS,mKcell,mKcell,,D77,2016-04-06T13:43:03+06:00,
1000000000144190,77754444539,mMTS,mKcell,mKcell,,D77,2016-04-06T13:43:34+06:00,
1000000000144191,77757465383,mAltel,mKcell,mKcell,,D07,2016-04-06T13:43:34+06:00,
1000000000144193,77014223366,mMTS,mKcell,mKcell,,D77,2016-04-06T13:46:04+06:00,
1000000000144195,77779848435,mMTS,mKarTel,mKarTel,,D77,2016-04-06T13:47:16+06:00,
1000000000144196,77784789898,mKcell,mAltel,mKcell,D07,D02,2016-04-06T13:46:48+06:00,
1000000000144199,77028188585,mMTS,mKcell,mKcell,,D77,2016-04-06T13:48:07+06:00,
1000000000144200,77472725712,mMTS,mAltel,mMTS,D07,D77,2016-04-06T13:47:59+06:00,
1000000000144201,77007778060,mKarTel,mAltel,mAltel,,D01,2016-04-06T13:48:31+06:00,
1000000000144203,77087577925,mMTS,mAltel,mAltel,,D77,2016-04-06T13:48:24+06:00,
1000000000144205,77081074500,mMTS,mAltel,mAltel,,D77,2016-04-06T13:49:55+06:00,
1000000000144207,77022013467,mKarTel,mKcell,mKcell,,D01,2016-04-06T13:51:54+06:00,
1000000000144208,77004488440,mMTS,mAltel,mAltel,,D77,2016-04-06T13:51:12+06:00,
1000000000144209,77016608131,mKcell,mAltel,mKcell,D07,D02,2016-04-06T13:51:55+06:00,
1000000000144212,77768002524,mMTS,mKarTel,mKarTel,,D77,2016-04-06T13:55:00+06:00,
1000000000144214,77714089645,mMTS,mKarTel,mKarTel,,D77,2016-04-06T13:55:35+06:00,
1000000000144216,77717771983,mKcell,mKarTel,mKarTel,,D02,2016-04-06T13:57:17+06:00,
1000000000144218,77017297909,mAltel,mKcell,mKcell,,D07,2016-04-06T13:56:45+06:00,
1000000000144219,77087171649,mKarTel,mAltel,mAltel,,D01,2016-04-06T13:57:20+06:00,
1000000000144221,77078099129,mMTS,mAltel,mMTS,D07,D77,2016-04-06T13:57:04+06:00,
1000000000144223,77086537100,mMTS,mAltel,mAltel,,D77,2016-04-06T13:57:51+06:00,
1000000000144225,77001131303,mMTS,mAltel,mAltel,,D77,2016-04-06T13:58:40+06:00,
1000000000144227,77015123976,mAltel,mKcell,mKcell,,D07,2016-04-06T13:59:40+06:00,
