NPId,Number,RecipientId,DonorId,RangeHolderId,OldRoute,NewRoute,PortDate,RowCount
1000000000189262,77023569999,mMTS,mKcell,mKcell,,D77,2016-06-07T13:34:40+06:00,34
1000000000189263,77019178232,mMTS,mKcell,mKcell,,D77,2016-06-07T13:34:40+06:00,
1000000000189264,77028300529,mAltel,mKcell,mKcell,,D07,2016-06-07T13:34:41+06:00,
1000000000189265,77059860006,mMTS,mKarTel,mKarTel,,D77,2016-06-07T13:34:39+06:00,
1000000000189266,77073365700,mKcell,mMTS,mMTS,,D02,2016-06-07T13:35:52+06:00,
1000000000189267,77077351141,mAltel,mMTS,mMTS,,D07,2016-06-07T13:35:21+06:00,
1000000000189270,77774491122,mMTS,mKarTel,mKarTel,,D77,2016-06-07T13:37:29+06:00,
1000000000189271,77003161750,mMTS,mAltel,mAltel,,D77,2016-06-07T13:37:22+06:00,
1000000000189272,77010717197,mMTS,mKcell,mKcell,,D77,2016-06-07T13:39:47+06:00,
1000000000189273,77022991324,mKcell,mAltel,mKcell,D07,D02,2016-06-07T13:40:47+06:00,
1000000000189274,77753000775,mMTS,mKcell,mKcell,,D77,2016-06-07T13:43:45+06:00,
1000000000189275,77757825173,mKarTel,mKcell,mKcell,,D01,2016-06-07T13:41:31+06:00,
1000000000189276,77075545546,mKarTel,mMTS,mMTS,,D01,2016-06-07T13:41:45+06:00,
1000000000189277,77755111711,mMTS,mKcell,mKcell,,D77,2016-06-07T13:42:27+06:00,
1000000000189278,77083304433,mMTS,mAltel,mAltel,,D77,2016-06-07T13:43:03+06:00,
1000000000189279,77011541223,mMTS,mKcell,mKcell,,D77,2016-06-07T13:44:38+06:00,
1000000000189280,77000006721,mKcell,mAltel,mAltel,,D02,2016-06-07T13:44:56+06:00,
1000000000189281,77082052450,mMTS,mAltel,mAltel,,D77,2016-06-07T13:46:23+06:00,
1000000000189282,77017846833,mMTS,mKcell,mKcell,,D77,2016-06-07T13:47:27+06:00,
1000000000189283,77477888018,mKcell,mMTS,mMTS,,D02,2016-06-07T13:47:38+06:00,
1000000000189284,77071477793,mKarTel,mMTS,mMTS,,D01,2016-06-07T13:47:44+06:00,
1000000000189285,77012100043,mKarTel,mMTS,mKcell,D77,D01,2016-06-07T13:49:01+06:00,
1000000000189286,77019953290,mKarTel,mKcell,mKcell,,D01,2016-06-07T13:50:22+06:00,
1000000000189287,77011618185,mKcell,mKarTel,mKcell,D01,D02,2016-06-07T13:51:36+06:00,
1000000000189288,77051522043,mMTS,mKarTel,mKarTel,,D77,2016-06-07T13:52:27+06:00,
1000000000189290,77773407997,mMTS,mAltel,mKarTel,D07,D77,2016-06-07T13:52:29+06:00,
1000000000189291,77012419307,mMTS,mKcell,mKcell,,D77,2016-06-07T13:52:53+06:00,
1000000000189293,77024486353,mAltel,mKcell,mKcell,,D07,2016-06-07T13:55:05+06:00,
1000000000189294,77055525505,mMTS,mKarTel,mKarTel,,D77,2016-06-07T13:55:04+06:00,
1000000000189295,77017597301,mMTS,mKcell,mKcell,,D77,2016-06-07T13:59:32+06:00,
1000000000189296,77014489271,mKcell,mMTS,mKcell,D77,D02,2016-06-07T13:59:58+06:00,
1000000000189297,77053188808,mKcell,mKarTel,mKarTel,,D02,2016-06-07T13:58:48+06:00,
1000000000189299,77714746141,mMTS,mKarTel,mKarTel,,D77,2016-06-07T13:59:06+06:00,
1000000000189300,77077733960,mKcell,mMTS,mMTS,,D02,2016-06-07T13:59:58+06:00,
