NPId,Number,RecipientId,DonorId,RangeHolderId,OldRoute,NewRoute,PortDate,RowCount
1000000000258124,77058372078,mMTS,mKarTel,mKarTel,,D77,2016-10-06T18:03:00+06:00,28
1000000000258126,77017058275,mKcell,mMTS,mKcell,D77,D02,2016-10-06T18:00:17+06:00,
1000000000258127,77012175539,mKarTel,mKcell,mKcell,,D01,2016-10-06T18:02:58+06:00,
1000000000258129,77013530309,mMTS,mKcell,mKcell,,D77,2016-10-06T18:02:41+06:00,
1000000000258130,77773555377,mMTS,mKarTel,mKarTel,,D77,2016-10-06T18:06:10+06:00,
1000000000258131,77089999061,mKcell,mAltel,mAltel,,D02,2016-10-06T18:02:57+06:00,
1000000000258132,77785803126,mKcell,mAltel,mKcell,D07,D02,2016-10-06T18:05:13+06:00,
1000000000258133,77777856441,mMTS,mKarTel,mKarTel,D01,D77,2016-10-06T18:09:19+06:00,
1000000000258134,77789009031,mMTS,mKcell,mKcell,,D77,2016-10-06T18:06:30+06:00,
1000000000258135,77017500604,mKarTel,mKcell,mKcell,,D01,2016-10-06T18:09:18+06:00,
1000000000258136,77017275797,mKarTel,mKcell,mKcell,,D01,2016-10-06T18:10:53+06:00,
1000000000258137,77713837327,mMTS,mKarTel,mKarTel,,D77,2016-10-06T18:15:43+06:00,
1000000000258138,77016550063,mMTS,mKcell,mKcell,,D77,2016-10-06T18:14:11+06:00,
1000000000258139,77014679555,mMTS,mKarTel,mKcell,D01,D77,2016-10-06T18:15:42+06:00,
1000000000258141,77082888283,mMTS,mAltel,mAltel,,D77,2016-10-06T18:12:31+06:00,
1000000000258142,77783576266,mMTS,mKcell,mKcell,,D77,2016-10-06T18:13:16+06:00,
1000000000258144,77015556783,mKarTel,mKcell,mKcell,,D01,2016-10-06T18:17:19+06:00,
1000000000258146,77077277017,mKcell,mMTS,mMTS,,D02,2016-10-06T18:16:22+06:00,
1000000000258147,77078362666,mKarTel,mMTS,mMTS,,D01,2016-10-06T18:18:52+06:00,
1000000000258148,77000909200,mKcell,mAltel,mAltel,,D02,2016-10-06T18:18:47+06:00,
1000000000258149,77023073577,mMTS,mKcell,mKcell,,D77,2016-10-06T18:19:34+06:00,
1000000000258150,77015885622,mMTS,mKcell,mKcell,,D77,2016-10-06T18:19:56+06:00,
1000000000258151,77026878882,mKcell,mMTS,mKcell,D77,D02,2016-10-06T18:21:19+06:00,
1000000000258153,77025903790,mKarTel,mKcell,mKcell,,D01,2016-10-06T18:23:55+06:00,
1000000000258155,77765001200,mAltel,mKarTel,mKarTel,,D07,2016-10-06T18:25:44+06:00,
1000000000258156,77072920702,mKarTel,mMTS,mMTS,,D01,2016-10-06T18:25:42+06:00,
1000000000258157,77074471772,mMTS,mAltel,mMTS,D07,D77,2016-10-06T18:24:32+06:00,
1000000000258158,77077277006,mKcell,mMTS,mMTS,,D02,2016-10-06T18:25:45+06:00,
