NPId,Number,RecipientId,DonorId,RangeHolderId,OldRoute,NewRoute,PortDate,RowCount
1000000000047584,77017441020,mKarTel,mKcell,mKcell,,D01,2016-02-14T18:30:55+06:00,31
1000000000047586,77015240924,mKarTel,mKcell,mKcell,,D01,2016-02-14T18:31:54+06:00,
1000000000047597,77016778734,mKarTel,mKcell,mKcell,,D01,2016-02-14T18:30:45+06:00,
1000000000047644,77027149424,mKarTel,mKcell,mKcell,,D01,2016-02-14T18:30:46+06:00,
1000000000047645,77017396615,mKarTel,mKcell,mKcell,,D01,2016-02-14T18:31:34+06:00,
1000000000047662,77017298638,mKarTel,mKcell,mKcell,,D01,2016-02-14T18:31:28+06:00,
1000000000047668,77027655574,mKarTel,mKcell,mKcell,,D01,2016-02-14T18:31:05+06:00,
1000000000047701,77015195140,mKarTel,mKcell,mKcell,,D01,2016-02-14T18:31:04+06:00,
1000000000047752,77010171995,mKarTel,mKcell,mKcell,,D01,2016-02-14T18:30:53+06:00,
1000000000047851,77019736690,mKarTel,mKcell,mKcell,,D01,2016-02-14T18:31:50+06:00,
1000000000047870,77073622634,mKarTel,mMTS,mMTS,,D01,2016-02-14T18:30:42+06:00,
1000000000047888,77012550747,mKarTel,mKcell,mKcell,,D01,2016-02-14T18:32:07+06:00,
1000000000047892,77013930068,mKarTel,mKcell,mKcell,,D01,2016-02-14T18:31:22+06:00,
1000000000047905,77074014001,mKarTel,mMTS,mMTS,,D01,2016-02-14T18:32:11+06:00,
1000000000047906,77017091053,mKarTel,mKcell,mKcell,,D01,2016-02-14T18:32:12+06:00,
1000000000047916,77015529266,mKarTel,mKcell,mKcell,,D01,2016-02-14T18:31:51+06:00,
1000000000047923,77089897635,mKarTel,mAltel,mAltel,,D01,2016-02-14T18:31:06+06:00,
1000000000047939,77786283952,mKarTel,mKcell,mKcell,,D01,2016-02-14T18:31:06+06:00,
1000000000047940,77021860307,mKarTel,mKcell,mKcell,,D01,2016-02-14T18:30:53+06:00,
1000000000047941,77026876055,mKarTel,mKcell,mKcell,,D01,2016-02-14T18:31:48+06:00,
1000000000047957,77015224650,mKarTel,mKcell,mKcell,,D01,2016-02-14T18:31:53+06:00,
1000000000047974,77089897620,mKarTel,mAltel,mAltel,,D01,2016-02-14T18:31:16+06:00,
1000000000047980,77789955511,mKarTel,mKcell,mKcell,,D01,2016-02-14T18:31:38+06:00,
1000000000048037,77014210757,mKarTel,mKcell,mKcell,,D01,2016-02-14T18:31:50+06:00,
1000000000048064,77076000306,mKarTel,mMTS,mMTS,,D01,2016-02-14T18:32:06+06:00,
1000000000048079,77475746611,mKarTel,mMTS,mMTS,,D01,2016-02-14T18:31:56+06:00,
1000000000048091,77015252525,mKarTel,mKcell,mKcell,,D01,2016-02-14T18:32:26+06:00,
1000000000048131,77002222489,mKarTel,mAltel,mAltel,,D01,2016-02-14T18:31:10+06:00,
1000000000048133,77071772677,mKarTel,mMTS,mMTS,,D01,2016-02-14T18:31:57+06:00,
1000000000048137,77073996669,mAltel,mMTS,mMTS,,D07,2016-02-14T18:31:58+06:00,
1000000000048138,77052166593,mAltel,mKarTel,mKarTel,,D07,2016-02-14T18:47:44+06:00,
