NPId,Number,RecipientId,DonorId,RangeHolderId,OldRoute,NewRoute,PortDate,RowCount
1000000000420823,77019581746,mKcell,mKarTel,mKcell,D01,D02,2017-07-13T11:34:22+06:00,32
1000000000420874,77027013036,mMTS,mKcell,mKcell,,D77,2017-07-13T11:30:15+06:00,
1000000000420875,77781313814,mKcell,mMTS,mKcell,D77,D02,2017-07-13T11:30:36+06:00,
1000000000420876,77756828400,mKarTel,mKcell,mKcell,,D01,2017-07-13T11:33:03+06:00,
1000000000420877,77013388452,mKarTel,mKcell,mKcell,,D01,2017-07-13T11:33:28+06:00,
1000000000420878,77026320974,mMTS,mKcell,mKcell,,D77,2017-07-13T11:34:04+06:00,
1000000000420879,77717464356,mKarTel,mMTS,mKarTel,D77,D01,2017-07-13T11:35:11+06:00,
1000000000420880,77017153255,mMTS,mKcell,mKcell,,D77,2017-07-13T11:38:15+06:00,
1000000000420881,77754748887,mAltel,mKcell,mKcell,,D07,2017-07-13T11:38:23+06:00,
1000000000420882,77055555368,mKarTel,mKcell,mKarTel,D02,D01,2017-07-13T11:39:03+06:00,
1000000000420884,77014751133,mAltel,mKcell,mKcell,,D07,2017-07-13T11:42:30+06:00,
1000000000420885,77757991700,mKcell,mAltel,mKcell,D07,D02,2017-07-13T11:43:39+06:00,
1000000000420886,77471135183,mMTS,mKarTel,mMTS,D01,D77,2017-07-13T11:44:27+06:00,
1000000000420887,77003141573,mKarTel,mAltel,mAltel,,D01,2017-07-13T11:45:18+06:00,
1000000000420888,77000930606,mKcell,mAltel,mAltel,,D02,2017-07-13T11:45:51+06:00,
1000000000420890,77770496655,mKcell,mKarTel,mKarTel,,D02,2017-07-13T11:47:34+06:00,
1000000000420891,77001580277,mKarTel,mMTS,mAltel,D77,D01,2017-07-13T11:47:12+06:00,
1000000000420893,77014884000,mKarTel,mMTS,mKcell,D77,D01,2017-07-13T11:48:08+06:00,
1000000000420894,77752597794,mMTS,mKcell,mKcell,,D77,2017-07-13T11:49:55+06:00,
1000000000420895,77071809899,mKarTel,mMTS,mMTS,,D01,2017-07-13T11:50:07+06:00,
1000000000420896,77775591999,mKarTel,mAltel,mKarTel,D07,D01,2017-07-13T11:50:17+06:00,
1000000000420897,77012669683,mKarTel,mKcell,mKcell,,D01,2017-07-13T11:50:32+06:00,
1000000000420898,77079603255,mAltel,mMTS,mMTS,,D07,2017-07-13T11:50:15+06:00,
1000000000420899,77766166640,mAltel,mKarTel,mKarTel,,D07,2017-07-13T11:50:33+06:00,
1000000000420900,77003338481,mKarTel,mAltel,mAltel,,D01,2017-07-13T11:50:37+06:00,
1000000000420901,77028078338,mKarTel,mKcell,mKcell,,D01,2017-07-13T11:52:08+06:00,
1000000000420903,77770382218,mKarTel,mKcell,mKarTel,D02,D01,2017-07-13T11:53:55+06:00,
1000000000420905,77077555560,mKcell,mMTS,mMTS,,D02,2017-07-13T11:55:43+06:00,
1000000000420907,77029533000,mMTS,mKcell,mKcell,,D77,2017-07-13T11:56:02+06:00,
1000000000420909,77476662679,mMTS,mKarTel,mMTS,D01,D77,2017-07-13T11:57:16+06:00,
1000000000420910,77014533814,mKarTel,mKcell,mKcell,,D01,2017-07-13T11:57:21+06:00,
1000000000420912,77757770419,mAltel,mKcell,mKcell,,D07,2017-07-13T11:57:54+06:00,
