NPId,Number,RecipientId,DonorId,RangeHolderId,OldRoute,NewRoute,PortDate,RowCount
1000000000352886,77089085779,mKcell,mKarTel,mAltel,D01,D02,2017-03-28T17:00:00+06:00,31
1000000000353848,77779938192,mKarTel,mKcell,mKarTel,D02,D01,2017-03-28T17:03:08+06:00,
1000000000354224,77073549737,mKcell,mMTS,mMTS,D77,D02,2017-03-28T17:00:18+06:00,
1000000000354227,77007771922,mKcell,mAltel,mAltel,,D02,2017-03-28T17:02:35+06:00,
1000000000354229,77075057828,mKcell,mMTS,mMTS,,D02,2017-03-28T17:03:48+06:00,
1000000000354231,77006191810,mKcell,mAltel,mAltel,,D02,2017-03-28T17:04:58+06:00,
1000000000354234,77714227728,mMTS,mKarTel,mKarTel,,D77,2017-03-28T17:06:58+06:00,
1000000000354235,77786266606,mAltel,mMTS,mKcell,D77,D07,2017-03-28T17:07:09+06:00,
1000000000354236,77088080870,mKcell,mAltel,mAltel,,D02,2017-03-28T17:07:30+06:00,
1000000000354237,77019021087,mMTS,mKcell,mKcell,,D77,2017-03-28T17:08:41+06:00,
1000000000354238,77072255191,mAltel,mMTS,mMTS,,D07,2017-03-28T17:08:53+06:00,
1000000000354239,77077200077,mMTS,mKarTel,mMTS,D01,D77,2017-03-28T17:09:43+06:00,
1000000000354240,77018010280,mAltel,mKcell,mKcell,,D07,2017-03-28T17:10:44+06:00,
1000000000354241,77477799092,mMTS,mKarTel,mMTS,D01,D77,2017-03-28T17:11:38+06:00,
1000000000354242,77089331977,mKarTel,mKcell,mAltel,D02,D01,2017-03-28T17:11:44+06:00,
1000000000354243,77012530709,mAltel,mKcell,mKcell,,D07,2017-03-28T17:12:58+06:00,
1000000000354244,77004619234,mKarTel,mMTS,mAltel,D77,D01,2017-03-28T17:15:20+06:00,
1000000000354245,77001012005,mKcell,mAltel,mAltel,,D02,2017-03-28T17:15:38+06:00,
1000000000354246,77775557365,mKarTel,mMTS,mKarTel,D77,D01,2017-03-28T17:17:51+06:00,
1000000000354247,77751905183,mMTS,mKcell,mKcell,,D77,2017-03-28T17:17:51+06:00,
1000000000354248,77019208844,mKcell,mKarTel,mKcell,D01,D02,2017-03-28T17:20:12+06:00,
1000000000354249,77025302960,mAltel,mKcell,mKcell,,D07,2017-03-28T17:19:57+06:00,
1000000000354250,77785027172,mKarTel,mKcell,mKcell,,D01,2017-03-28T17:20:28+06:00,
1000000000354251,77019137516,mKarTel,mKcell,mKcell,,D01,2017-03-28T17:21:49+06:00,
1000000000354252,77018850003,mKarTel,mKcell,mKcell,,D01,2017-03-28T17:23:50+06:00,
1000000000354253,77005055757,mKcell,mAltel,mAltel,,D02,2017-03-28T17:25:38+06:00,
1000000000354254,77074474466,mMTS,mKcell,mMTS,D02,D77,2017-03-28T17:26:29+06:00,
1000000000354255,77021484288,mMTS,mKcell,mKcell,,D77,2017-03-28T17:27:17+06:00,
1000000000354256,77470684997,mKarTel,mMTS,mMTS,,D01,2017-03-28T17:27:54+06:00,
1000000000354257,77023599998,mMTS,mKcell,mKcell,,D77,2017-03-28T17:27:53+06:00,
1000000000354258,77077471145,mMTS,mKcell,mMTS,D02,D77,2017-03-28T17:29:01+06:00,
