NPId,Number,RecipientId,DonorId,RangeHolderId,OldRoute,NewRoute,PortDate,RowCount
1000000000248787,77786581250,mMTS,mKcell,mKcell,,D77,2016-09-21T10:02:32+06:00,10
1000000000248788,77777721255,mMTS,mKarTel,mKarTel,,D77,2016-09-21T10:04:38+06:00,
1000000000248789,77777721266,mMTS,mKarTel,mKarTel,,D77,2016-09-21T10:04:38+06:00,
1000000000248790,77083332119,mMTS,mAltel,mAltel,,D77,2016-09-21T10:09:01+06:00,
1000000000248791,77024131131,mKcell,mMTS,mKcell,D77,D02,2016-09-21T10:12:09+06:00,
1000000000248792,77715854000,mKcell,mMTS,mKarTel,D77,D02,2016-09-21T10:13:30+06:00,
1000000000248794,77017761922,mKarTel,mKcell,mKcell,,D01,2016-09-21T10:19:48+06:00,
1000000000248795,77077473344,mKcell,mMTS,mMTS,,D02,2016-09-21T10:21:06+06:00,
1000000000248800,77053815037,mMTS,mKarTel,mKarTel,,D77,2016-09-21T10:29:42+06:00,
1000000000248803,77013687853,mKarTel,mKcell,mKcell,,D01,2016-09-21T10:29:40+06:00,
