NPId,Number,RecipientId,DonorId,RangeHolderId,OldRoute,NewRoute,PortDate,RowCount
1000000000228761,77475055050,mAltel,mMTS,mMTS,,D07,2016-08-14T12:30:16+06:00,7
1000000000228762,77024750104,mAltel,mMTS,mKcell,D77,D07,2016-08-14T12:33:21+06:00,
1000000000228763,77756739357,mAltel,mKcell,mKcell,,D07,2016-08-14T12:33:46+06:00,
1000000000228765,77003115090,mMTS,mAltel,mAltel,,D77,2016-08-14T12:39:54+06:00,
1000000000228766,77474100108,mAltel,mMTS,mMTS,,D07,2016-08-14T12:43:33+06:00,
1000000000228770,77018885751,mKcell,mAltel,mKcell,D07,D02,2016-08-14T12:56:22+06:00,
1000000000228771,77015775443,mAltel,mKcell,mKcell,,D07,2016-08-14T12:59:26+06:00,
