NPId,Number,RecipientId,DonorId,RangeHolderId,OldRoute,NewRoute,PortDate,RowCount
1000000000401191,77478101049,mKarTel,mMTS,mMTS,,D01,2017-06-10T17:00:32+06:00,18
1000000000401192,77785578562,mMTS,mKcell,mKcell,,D77,2017-06-10T17:00:35+06:00,
1000000000401193,77082263828,mKcell,mKarTel,mAltel,D01,D02,2017-06-10T17:01:19+06:00,
1000000000401194,77029991392,mKarTel,mKcell,mKcell,,D01,2017-06-10T17:02:40+06:00,
1000000000401197,77071115458,mKarTel,mMTS,mMTS,,D01,2017-06-10T17:05:33+06:00,
1000000000401198,77718889959,mKcell,mKarTel,mKarTel,,D02,2017-06-10T17:06:20+06:00,
1000000000401200,77089070577,mMTS,mAltel,mAltel,,D77,2017-06-10T17:08:17+06:00,
1000000000401201,77004008040,mMTS,mAltel,mAltel,,D77,2017-06-10T17:11:27+06:00,
1000000000401202,77001444750,mKcell,mAltel,mAltel,,D02,2017-06-10T17:11:51+06:00,
1000000000401203,77780018001,mAltel,mKcell,mKcell,,D07,2017-06-10T17:14:21+06:00,
1000000000401204,77784445509,mAltel,mKcell,mKcell,,D07,2017-06-10T17:15:33+06:00,
1000000000401205,77085997975,mMTS,mAltel,mAltel,,D77,2017-06-10T17:15:28+06:00,
1000000000401206,77772227737,mAltel,mKarTel,mKarTel,,D07,2017-06-10T17:17:07+06:00,
1000000000401207,77023444426,mMTS,mKcell,mKcell,,D77,2017-06-10T17:18:18+06:00,
1000000000401208,77763218123,mKcell,mKarTel,mKarTel,,D02,2017-06-10T17:20:13+06:00,
1000000000401209,77027993459,mKcell,mAltel,mKcell,D07,D02,2017-06-10T17:21:14+06:00,
1000000000401211,77025921727,mKcell,mMTS,mKcell,D77,D02,2017-06-10T17:25:32+06:00,
1000000000401212,77078831278,mMTS,mAltel,mMTS,D07,D77,2017-06-10T17:27:46+06:00,
