NPId,Number,RecipientId,DonorId,RangeHolderId,OldRoute,NewRoute,PortDate,RowCount
1000000000254265,77477863260,mKcell,mMTS,mMTS,,D02,2016-09-30T17:30:19+06:00,40
1000000000254266,77719135313,mKarTel,mMTS,mKarTel,D77,D01,2016-09-30T17:30:49+06:00,
1000000000254267,77055985687,mMTS,mKarTel,mKarTel,,D77,2016-09-30T17:33:02+06:00,
1000000000254268,77056530395,mAltel,mKarTel,mKarTel,,D07,2016-09-30T17:34:51+06:00,
1000000000254269,77772728744,mKarTel,mMTS,mKarTel,D77,D01,2016-09-30T17:35:01+06:00,
1000000000254270,77758895291,mKcell,mMTS,mKcell,D77,D02,2016-09-30T17:35:19+06:00,
1000000000254271,77051059555,mAltel,mMTS,mKarTel,D77,D07,2016-09-30T17:35:20+06:00,
1000000000254272,77785088340,mMTS,mKcell,mKcell,,D77,2016-09-30T17:37:28+06:00,
1000000000254275,77471845427,mKarTel,mMTS,mMTS,,D01,2016-09-30T17:38:34+06:00,
1000000000254276,77767881010,mAltel,mKarTel,mKarTel,,D07,2016-09-30T17:39:18+06:00,
1000000000254277,77056533000,mAltel,mKarTel,mKarTel,,D07,2016-09-30T17:39:17+06:00,
1000000000254278,77027707369,mMTS,mKcell,mKcell,,D77,2016-09-30T17:40:29+06:00,
1000000000254279,77714444424,mMTS,mKarTel,mKarTel,,D77,2016-09-30T17:42:22+06:00,
1000000000254280,77055973514,mMTS,mKarTel,mKarTel,,D77,2016-09-30T17:42:59+06:00,
1000000000254281,77087651288,mMTS,mAltel,mAltel,,D77,2016-09-30T17:42:45+06:00,
1000000000254282,77774346676,mKcell,mKarTel,mKarTel,,D02,2016-09-30T17:43:59+06:00,
1000000000254284,77057883232,mMTS,mKarTel,mKarTel,,D77,2016-09-30T17:45:03+06:00,
1000000000254285,77769004444,mAltel,mKarTel,mKarTel,,D07,2016-09-30T17:45:14+06:00,
1000000000254286,77085471464,mAltel,mMTS,mAltel,D77,D07,2016-09-30T17:44:42+06:00,
1000000000254287,77715956590,mMTS,mKarTel,mKarTel,,D77,2016-09-30T17:45:29+06:00,
1000000000254288,77776062564,mAltel,mKarTel,mKarTel,,D07,2016-09-30T17:46:05+06:00,
1000000000254289,77777572257,mKarTel,mMTS,mKarTel,D77,D01,2016-09-30T17:46:29+06:00,
1000000000254290,77478353712,mKcell,mMTS,mMTS,,D02,2016-09-30T17:46:31+06:00,
1000000000254291,77775456535,mKcell,mKarTel,mKarTel,,D02,2016-09-30T17:50:01+06:00,
1000000000254292,77086316371,mMTS,mAltel,mAltel,,D77,2016-09-30T17:47:15+06:00,
1000000000254293,77777790547,mMTS,mKarTel,mKarTel,,D77,2016-09-30T17:48:04+06:00,
1000000000254295,77762745800,mAltel,mKarTel,mKarTel,,D07,2016-09-30T17:48:42+06:00,
1000000000254298,77073481818,mAltel,mMTS,mMTS,,D07,2016-09-30T17:49:41+06:00,
1000000000254300,77023326616,mKarTel,mKcell,mKcell,,D01,2016-09-30T17:50:09+06:00,
1000000000254302,77782326464,mAltel,mKcell,mKcell,,D07,2016-09-30T17:50:47+06:00,
1000000000254303,77711044040,mKarTel,mMTS,mKarTel,D77,D01,2016-09-30T17:51:44+06:00,
1000000000254304,77011350441,mAltel,mKcell,mKcell,,D07,2016-09-30T17:52:49+06:00,
1000000000254305,77072457077,mKcell,mMTS,mMTS,,D02,2016-09-30T17:53:15+06:00,
1000000000254308,77479118121,mKcell,mMTS,mMTS,,D02,2016-09-30T17:55:29+06:00,
1000000000254309,77711854646,mAltel,mKarTel,mKarTel,,D07,2016-09-30T17:56:22+06:00,
1000000000254310,77711027678,mKcell,mKarTel,mKarTel,,D02,2016-09-30T17:59:13+06:00,
1000000000254311,77054359000,mMTS,mKarTel,mKarTel,,D77,2016-09-30T17:59:19+06:00,
1000000000254312,77015036674,mKarTel,mKcell,mKcell,,D01,2016-09-30T17:59:04+06:00,
1000000000254312,77015395020,mKarTel,mKcell,mKcell,,D01,2016-09-30T17:59:04+06:00,
1000000000254313,77754195834,mMTS,mKcell,mKcell,,D77,2016-09-30T17:58:57+06:00,
