NPId,Number,RecipientId,DonorId,RangeHolderId,OldRoute,NewRoute,PortDate,RowCount
1000000000339254,77019770091,mMTS,mKcell,mKcell,,D77,2017-03-02T13:00:02+06:00,36
1000000000339257,77011109696,mAltel,mKcell,mKcell,,D07,2017-03-02T13:01:08+06:00,
1000000000339258,77783978181,mKcell,mMTS,mKcell,D77,D02,2017-03-02T13:01:08+06:00,
1000000000339260,77025487000,mMTS,mKcell,mKcell,,D77,2017-03-02T13:01:29+06:00,
1000000000339261,77018483918,mKarTel,mAltel,mKcell,D07,D01,2017-03-02T13:02:09+06:00,
1000000000339262,77017889555,mKarTel,mKcell,mKcell,,D01,2017-03-02T13:02:31+06:00,
1000000000339263,77773275333,mKcell,mKarTel,mKarTel,D01,D02,2017-03-02T13:03:12+06:00,
1000000000339264,77025121860,mKcell,mKarTel,mKcell,D01,D02,2017-03-02T13:03:46+06:00,
1000000000339265,77013978911,mMTS,mKcell,mKcell,,D77,2017-03-02T13:04:50+06:00,
1000000000339269,77773271333,mKcell,mKarTel,mKarTel,D01,D02,2017-03-02T13:06:40+06:00,
1000000000339270,77775831777,mKarTel,mAltel,mKarTel,D07,D01,2017-03-02T13:08:22+06:00,
1000000000339271,77772788363,mMTS,mKarTel,mKarTel,,D77,2017-03-02T13:08:59+06:00,
1000000000339272,77015337065,mAltel,mMTS,mKcell,D77,D07,2017-03-02T13:08:50+06:00,
1000000000339273,77775750570,mMTS,mKarTel,mKarTel,D01,D77,2017-03-02T13:09:43+06:00,
1000000000339274,77073130494,mKcell,mMTS,mMTS,,D02,2017-03-02T13:10:00+06:00,
1000000000339275,77777413672,mKcell,mKarTel,mKarTel,,D02,2017-03-02T13:10:49+06:00,
1000000000339276,77012133778,mKarTel,mKcell,mKcell,,D01,2017-03-02T13:11:01+06:00,
1000000000339277,77015133481,mKarTel,mKcell,mKcell,,D01,2017-03-02T13:11:35+06:00,
1000000000339279,77779935352,mKcell,mKarTel,mKarTel,,D02,2017-03-02T13:16:02+06:00,
1000000000339280,77017417238,mMTS,mKcell,mKcell,,D77,2017-03-02T13:15:46+06:00,
1000000000339281,77026462266,mMTS,mKcell,mKcell,,D77,2017-03-02T13:16:20+06:00,
1000000000339282,77017413968,mMTS,mKcell,mKcell,,D77,2017-03-02T13:16:51+06:00,
1000000000339283,77005737300,mMTS,mAltel,mAltel,,D77,2017-03-02T13:16:55+06:00,
1000000000339285,77003314370,mMTS,mAltel,mAltel,,D77,2017-03-02T13:17:48+06:00,
1000000000339286,77775288822,mMTS,mKarTel,mKarTel,,D77,2017-03-02T13:18:16+06:00,
1000000000339287,77017994108,mAltel,mKcell,mKcell,,D07,2017-03-02T13:18:30+06:00,
1000000000339290,77004106010,mKcell,mAltel,mAltel,,D02,2017-03-02T13:19:23+06:00,
1000000000339291,77001902090,mKcell,mAltel,mAltel,,D02,2017-03-02T13:20:48+06:00,
1000000000339292,77004905090,mKcell,mAltel,mAltel,,D02,2017-03-02T13:22:07+06:00,
1000000000339294,77056704612,mMTS,mKarTel,mKarTel,,D77,2017-03-02T13:23:39+06:00,
1000000000339295,77003607060,mKcell,mAltel,mAltel,,D02,2017-03-02T13:23:45+06:00,
1000000000339296,77079971234,mKcell,mMTS,mMTS,,D02,2017-03-02T13:25:11+06:00,
1000000000339297,77084874343,mKarTel,mMTS,mAltel,D77,D01,2017-03-02T13:26:40+06:00,
1000000000339298,77018302050,mAltel,mKcell,mKcell,,D07,2017-03-02T13:27:05+06:00,
1000000000339299,77712302030,mMTS,mKarTel,mKarTel,,D77,2017-03-02T13:27:31+06:00,
1000000000339301,77479191797,mAltel,mMTS,mMTS,,D07,2017-03-02T13:29:31+06:00,
