NPId,Number,RecipientId,DonorId,RangeHolderId,OldRoute,NewRoute,PortDate,RowCount
1000000000327849,77083330881,mKarTel,mAltel,mAltel,,D01,2017-02-12T16:30:25+06:00,17
1000000000327850,77001210707,mMTS,mAltel,mAltel,,D77,2017-02-12T16:30:46+06:00,
1000000000327851,77711210031,mMTS,mKarTel,mKarTel,,D77,2017-02-12T16:31:47+06:00,
1000000000327852,77000222742,mKcell,mAltel,mAltel,,D02,2017-02-12T16:34:05+06:00,
1000000000327853,77000222845,mKcell,mAltel,mAltel,,D02,2017-02-12T16:37:25+06:00,
1000000000327854,77761370700,mMTS,mKarTel,mKarTel,,D77,2017-02-12T16:37:56+06:00,
1000000000327855,77000222965,mKcell,mAltel,mAltel,,D02,2017-02-12T16:39:06+06:00,
1000000000327856,77000222935,mKcell,mAltel,mAltel,,D02,2017-02-12T16:40:31+06:00,
1000000000327857,77011212088,mMTS,mKcell,mKcell,,D77,2017-02-12T16:42:48+06:00,
1000000000327859,77000222475,mKcell,mAltel,mAltel,,D02,2017-02-12T16:44:22+06:00,
1000000000327861,77087002930,mMTS,mAltel,mAltel,,D77,2017-02-12T16:46:33+06:00,
1000000000327862,77071791259,mAltel,mMTS,mMTS,,D07,2017-02-12T16:47:52+06:00,
1000000000327863,77014598222,mMTS,mKcell,mKcell,,D77,2017-02-12T16:48:06+06:00,
1000000000327864,77054579132,mMTS,mKarTel,mKarTel,,D77,2017-02-12T16:48:26+06:00,
1000000000327865,77024170055,mMTS,mKcell,mKcell,,D77,2017-02-12T16:50:50+06:00,
1000000000327866,77083219192,mMTS,mAltel,mAltel,,D77,2017-02-12T16:55:01+06:00,
1000000000327867,77476264267,mKarTel,mMTS,mMTS,,D01,2017-02-12T16:57:23+06:00,
