NPId,Number,RecipientId,DonorId,RangeHolderId,OldRoute,NewRoute,PortDate,RowCount
1000000000431343,77012045781,mKarTel,mKcell,mKcell,,D01,2017-07-31T17:48:16+06:00,81
1000000000431343,77012045782,mKarTel,mKcell,mKcell,,D01,2017-07-31T17:48:16+06:00,
1000000000431343,77012045783,mKarTel,mKcell,mKcell,,D01,2017-07-31T17:48:16+06:00,
1000000000431343,77012045784,mKarTel,mKcell,mKcell,,D01,2017-07-31T17:48:16+06:00,
1000000000431343,77012045785,mKarTel,mKcell,mKcell,,D01,2017-07-31T17:48:16+06:00,
1000000000431343,77012045786,mKarTel,mKcell,mKcell,,D01,2017-07-31T17:48:16+06:00,
1000000000431343,77012045789,mKarTel,mKcell,mKcell,,D01,2017-07-31T17:48:16+06:00,
1000000000431343,77012133283,mKarTel,mKcell,mKcell,,D01,2017-07-31T17:48:16+06:00,
1000000000431343,77012133284,mKarTel,mKcell,mKcell,,D01,2017-07-31T17:48:16+06:00,
1000000000431343,77012204887,mKarTel,mKcell,mKcell,,D01,2017-07-31T17:48:16+06:00,
1000000000431343,77012204889,mKarTel,mKcell,mKcell,,D01,2017-07-31T17:48:16+06:00,
1000000000431343,77012204890,mKarTel,mKcell,mKcell,,D01,2017-07-31T17:48:16+06:00,
1000000000431343,77012219082,mKarTel,mKcell,mKcell,,D01,2017-07-31T17:48:16+06:00,
1000000000431343,77012219083,mKarTel,mKcell,mKcell,,D01,2017-07-31T17:48:16+06:00,
1000000000431343,77012242509,mKarTel,mKcell,mKcell,,D01,2017-07-31T17:48:16+06:00,
1000000000431343,77012666902,mKarTel,mKcell,mKcell,,D01,2017-07-31T17:48:16+06:00,
1000000000431343,77012666903,mKarTel,mKcell,mKcell,,D01,2017-07-31T17:48:16+06:00,
1000000000431343,77012666904,mKarTel,mKcell,mKcell,,D01,2017-07-31T17:48:16+06:00,
1000000000431343,77012666905,mKarTel,mKcell,mKcell,,D01,2017-07-31T17:48:16+06:00,
1000000000431343,77012666907,mKarTel,mKcell,mKcell,,D01,2017-07-31T17:48:16+06:00,
1000000000431343,77015243954,mKarTel,mKcell,mKcell,,D01,2017-07-31T17:48:16+06:00,
1000000000431343,77015243955,mKarTel,mKcell,mKcell,,D01,2017-07-31T17:48:16+06:00,
1000000000431343,77015248190,mKarTel,mKcell,mKcell,,D01,2017-07-31T17:48:16+06:00,
1000000000431343,77017873302,mKarTel,mKcell,mKcell,,D01,2017-07-31T17:48:16+06:00,
1000000000431343,77019217107,mKarTel,mKcell,mKcell,,D01,2017-07-31T17:48:16+06:00,
1000000000431343,77019816055,mKarTel,mKcell,mKcell,,D01,2017-07-31T17:48:16+06:00,
1000000000431343,77757551155,mKarTel,mKcell,mKcell,,D01,2017-07-31T17:48:16+06:00,
1000000000431526,77019392067,mKcell,mKarTel,mKcell,D01,D02,2017-07-31T17:33:44+06:00,
1000000000431529,77019526637,mKcell,mKarTel,mKcell,D01,D02,2017-07-31T17:36:05+06:00,
1000000000431536,77019821415,mKcell,mKarTel,mKcell,D01,D02,2017-07-31T17:38:53+06:00,
1000000000431540,77019954384,mKcell,mKarTel,mKcell,D01,D02,2017-07-31T17:41:21+06:00,
1000000000431548,77010543329,mKcell,mKarTel,mKcell,D01,D02,2017-07-31T17:44:30+06:00,
1000000000431558,77022192276,mKcell,mKarTel,mKcell,D01,D02,2017-07-31T17:47:59+06:00,
1000000000431657,77071110078,mMTS,mKarTel,mMTS,D01,D77,2017-07-31T17:30:20+06:00,
1000000000431658,77077307108,mKarTel,mMTS,mMTS,,D01,2017-07-31T17:30:40+06:00,
1000000000431659,77015581669,mMTS,mKcell,mKcell,,D77,2017-07-31T17:31:09+06:00,
1000000000431660,77056210675,mMTS,mKarTel,mKarTel,,D77,2017-07-31T17:32:10+06:00,
1000000000431662,77072209527,mAltel,mMTS,mMTS,,D07,2017-07-31T17:33:30+06:00,
1000000000431663,77756358866,mKarTel,mKcell,mKcell,,D01,2017-07-31T17:34:57+06:00,
1000000000431665,77051472803,mAltel,mKarTel,mKarTel,,D07,2017-07-31T17:36:01+06:00,
1000000000431666,77000007117,mKarTel,mAltel,mAltel,,D01,2017-07-31T17:36:48+06:00,
1000000000431667,77713611370,mMTS,mKarTel,mKarTel,,D77,2017-07-31T17:37:32+06:00,
1000000000431668,77711339955,mMTS,mKarTel,mKarTel,,D77,2017-07-31T17:37:32+06:00,
1000000000431669,77056005113,mKarTel,mMTS,mKarTel,D77,D01,2017-07-31T17:38:23+06:00,
1000000000431672,77058887305,mAltel,mKcell,mKarTel,D02,D07,2017-07-31T17:42:08+06:00,
1000000000431673,77017457283,mMTS,mKcell,mKcell,,D77,2017-07-31T17:42:29+06:00,
1000000000431674,77019822467,mKarTel,mKcell,mKcell,,D01,2017-07-31T17:42:41+06:00,
1000000000431675,77087451513,mMTS,mAltel,mAltel,,D77,2017-07-31T17:42:34+06:00,
1000000000431678,77011879008,mKarTel,mKcell,mKcell,,D01,2017-07-31T17:44:42+06:00,
1000000000431680,77016222904,mMTS,mKcell,mKcell,,D77,2017-07-31T17:45:39+06:00,
1000000000431681,77015273932,mKarTel,mKcell,mKcell,,D01,2017-07-31T17:46:07+06:00,
1000000000431682,77756762015,mMTS,mKcell,mKcell,,D77,2017-07-31T17:45:56+06:00,
1000000000431683,77017674307,mKcell,mKarTel,mKcell,D01,D02,2017-07-31T17:46:24+06:00,
1000000000431684,77019992887,mKarTel,mKcell,mKcell,,D01,2017-07-31T17:47:17+06:00,
1000000000431685,77087742117,mAltel,mMTS,mAltel,D77,D07,2017-07-31T17:47:04+06:00,
1000000000431687,77015127408,mMTS,mKcell,mKcell,,D77,2017-07-31T17:47:43+06:00,
1000000000431688,77012262885,mMTS,mKcell,mKcell,,D77,2017-07-31T17:48:01+06:00,
1000000000431689,77071065832,mKarTel,mMTS,mMTS,,D01,2017-07-31T17:48:43+06:00,
1000000000431691,77715200908,mKarTel,mMTS,mKarTel,D77,D01,2017-07-31T17:49:59+06:00,
1000000000431693,77017674303,mKcell,mKarTel,mKcell,D01,D02,2017-07-31T17:51:40+06:00,
1000000000431695,77088078800,mKcell,mAltel,mAltel,D07,D02,2017-07-31T17:52:32+06:00,
1000000000431697,77079286882,mKcell,mMTS,mMTS,,D02,2017-07-31T17:53:08+06:00,
1000000000431698,77758782888,mKcell,mMTS,mKcell,D77,D02,2017-07-31T17:53:11+06:00,
1000000000431701,77077202772,mKcell,mMTS,mMTS,,D02,2017-07-31T17:52:42+06:00,
1000000000431702,77016327796,mKcell,mMTS,mKcell,D77,D02,2017-07-31T17:52:42+06:00,
1000000000431703,77089491490,mKcell,mAltel,mAltel,,D02,2017-07-31T17:52:49+06:00,
1000000000431704,77764708080,mKarTel,mKcell,mKarTel,D02,D01,2017-07-31T17:53:06+06:00,
1000000000431706,77018531152,mKcell,mMTS,mKcell,D77,D02,2017-07-31T17:53:36+06:00,
1000000000431707,77018531153,mKcell,mMTS,mKcell,D77,D02,2017-07-31T17:53:43+06:00,
1000000000431708,77001230011,mKcell,mAltel,mAltel,,D02,2017-07-31T17:53:58+06:00,
1000000000431710,77079792208,mKcell,mMTS,mMTS,,D02,2017-07-31T17:54:17+06:00,
1000000000431713,77019880165,mKarTel,mKcell,mKcell,,D01,2017-07-31T17:54:44+06:00,
1000000000431714,77071462525,mKarTel,mKcell,mMTS,D02,D01,2017-07-31T17:55:03+06:00,
1000000000431715,77470812482,mAltel,mMTS,mMTS,,D07,2017-07-31T17:54:55+06:00,
1000000000431716,77018005988,mKcell,mMTS,mKcell,D77,D02,2017-07-31T17:55:40+06:00,
1000000000431717,77017770667,mKcell,mMTS,mKcell,D77,D02,2017-07-31T17:55:15+06:00,
1000000000431718,77017792820,mMTS,mKcell,mKcell,,D77,2017-07-31T17:55:24+06:00,
1000000000431719,77017285212,mKarTel,mKcell,mKcell,,D01,2017-07-31T17:55:39+06:00,
1000000000431720,77059914411,mKarTel,mMTS,mKarTel,D77,D01,2017-07-31T17:56:09+06:00,
1000000000431721,77019929404,mKarTel,mKcell,mKcell,,D01,2017-07-31T17:57:06+06:00,
1000000000431722,77057222020,mKarTel,mMTS,mKarTel,D77,D01,2017-07-31T17:59:48+06:00,
