NPId,Number,RecipientId,DonorId,RangeHolderId,OldRoute,NewRoute,PortDate,RowCount
1000000000107146,77779846261,mKcell,mKarTel,mKarTel,,D02,2016-03-05T14:52:53+06:00,37
1000000000107906,77781581808,mMTS,mKcell,mKcell,,D77,2016-03-05T14:31:53+06:00,
1000000000107909,77788881948,mMTS,mKcell,mKcell,,D77,2016-03-05T14:34:04+06:00,
1000000000107910,77779990479,mAltel,mKcell,mKarTel,D02,D07,2016-03-05T14:34:35+06:00,
1000000000107911,77023898886,mAltel,mKcell,mKcell,,D07,2016-03-05T14:34:58+06:00,
1000000000107912,77773199000,mMTS,mKarTel,mKarTel,,D77,2016-03-05T14:36:47+06:00,
1000000000107913,77773848448,mAltel,mKarTel,mKarTel,,D07,2016-03-05T14:36:56+06:00,
1000000000107915,77058090990,mMTS,mKarTel,mKarTel,,D77,2016-03-05T14:37:17+06:00,
1000000000107917,77054944846,mAltel,mKarTel,mKarTel,,D07,2016-03-05T14:38:24+06:00,
1000000000107918,77018480068,mMTS,mKcell,mKcell,,D77,2016-03-05T14:38:56+06:00,
1000000000107920,77774066700,mMTS,mKarTel,mKarTel,,D77,2016-03-05T14:40:12+06:00,
1000000000107921,77012085923,mAltel,mKcell,mKcell,,D07,2016-03-05T14:40:31+06:00,
1000000000107922,77752705892,mMTS,mKcell,mKcell,,D77,2016-03-05T14:40:31+06:00,
1000000000107924,77019470820,mMTS,mKcell,mKcell,,D77,2016-03-05T14:42:21+06:00,
1000000000107925,77716680001,mMTS,mKarTel,mKarTel,,D77,2016-03-05T14:42:26+06:00,
1000000000107928,77078589915,mKcell,mMTS,mMTS,,D02,2016-03-05T14:43:38+06:00,
1000000000107929,77015892255,mAltel,mKcell,mKcell,,D07,2016-03-05T14:43:45+06:00,
1000000000107930,77751580565,mAltel,mKcell,mKcell,,D07,2016-03-05T14:44:07+06:00,
1000000000107932,77052571985,mAltel,mKarTel,mKarTel,,D07,2016-03-05T14:44:19+06:00,
1000000000107936,77022157275,mKarTel,mKcell,mKcell,,D01,2016-03-05T14:47:14+06:00,
1000000000107937,77027510491,mKarTel,mKcell,mKcell,,D01,2016-03-05T14:47:14+06:00,
1000000000107938,77772225599,mMTS,mKarTel,mKarTel,,D77,2016-03-05T14:47:44+06:00,
1000000000107939,77057373788,mMTS,mKarTel,mKarTel,,D77,2016-03-05T14:48:10+06:00,
1000000000107941,77029122424,mAltel,mKcell,mKcell,,D07,2016-03-05T14:48:39+06:00,
1000000000107943,77024793305,mKarTel,mKcell,mKcell,,D01,2016-03-05T14:50:02+06:00,
1000000000107947,77786152293,mAltel,mKcell,mKcell,,D07,2016-03-05T14:51:24+06:00,
1000000000107949,77056171987,mMTS,mKarTel,mKarTel,,D77,2016-03-05T14:52:25+06:00,
1000000000107950,77052414566,mMTS,mKarTel,mKarTel,,D77,2016-03-05T14:52:24+06:00,
1000000000107954,77781045123,mKarTel,mKcell,mKcell,,D01,2016-03-05T14:53:11+06:00,
1000000000107955,77712377570,mMTS,mKarTel,mKarTel,,D77,2016-03-05T14:54:25+06:00,
1000000000107960,77762631981,mMTS,mKarTel,mKarTel,,D77,2016-03-05T14:57:24+06:00,
1000000000107961,77767779493,mMTS,mKarTel,mKarTel,,D77,2016-03-05T14:57:24+06:00,
1000000000107962,77018833393,mAltel,mKcell,mKcell,,D07,2016-03-05T14:57:16+06:00,
1000000000107963,77015802677,mMTS,mKcell,mKcell,,D77,2016-03-05T14:57:06+06:00,
1000000000107964,77714687749,mMTS,mKarTel,mKarTel,,D77,2016-03-05T14:58:13+06:00,
1000000000107966,77012066600,mMTS,mKcell,mKcell,,D77,2016-03-05T14:59:18+06:00,
1000000000107967,77055556333,mAltel,mKarTel,mKarTel,,D07,2016-03-05T14:59:54+06:00,
