NPId,Number,RecipientId,DonorId,RangeHolderId,OldRoute,NewRoute,PortDate,RowCount
1000000000355013,77012889888,mAltel,mKcell,mKcell,,D07,2017-03-29T16:31:22+06:00,28
1000000000355015,77015209457,mMTS,mKcell,mKcell,,D77,2017-03-29T16:32:48+06:00,
1000000000355017,77777690006,mAltel,mKarTel,mKarTel,,D07,2017-03-29T16:34:38+06:00,
1000000000355018,77474422269,mKarTel,mMTS,mMTS,,D01,2017-03-29T16:36:55+06:00,
1000000000355019,77781095050,mMTS,mKcell,mKcell,,D77,2017-03-29T16:37:54+06:00,
1000000000355020,77082841613,mMTS,mAltel,mAltel,,D77,2017-03-29T16:37:48+06:00,
1000000000355021,77768888595,mAltel,mKarTel,mKarTel,,D07,2017-03-29T16:40:40+06:00,
1000000000355022,77018183121,mKarTel,mKcell,mKcell,,D01,2017-03-29T16:42:16+06:00,
1000000000355024,77082841622,mMTS,mAltel,mAltel,,D77,2017-03-29T16:42:45+06:00,
1000000000355025,77027873304,mMTS,mKcell,mKcell,,D77,2017-03-29T16:43:01+06:00,
1000000000355026,77015342072,mKarTel,mKcell,mKcell,,D01,2017-03-29T16:44:34+06:00,
1000000000355027,77028437773,mAltel,mKcell,mKcell,,D07,2017-03-29T16:45:03+06:00,
1000000000355028,77001100194,mMTS,mAltel,mAltel,,D77,2017-03-29T16:45:09+06:00,
1000000000355029,77077047275,mAltel,mMTS,mMTS,,D07,2017-03-29T16:46:42+06:00,
1000000000355032,77055777750,mKarTel,mMTS,mKarTel,D77,D01,2017-03-29T16:47:40+06:00,
1000000000355034,77021665121,mMTS,mKcell,mKcell,,D77,2017-03-29T16:48:19+06:00,
1000000000355035,77057938787,mAltel,mKarTel,mKarTel,,D07,2017-03-29T16:48:44+06:00,
1000000000355038,77766777757,mKcell,mKarTel,mKarTel,,D02,2017-03-29T16:50:25+06:00,
1000000000355039,77715701010,mMTS,mKarTel,mKarTel,D01,D77,2017-03-29T16:50:24+06:00,
1000000000355040,77022333055,mAltel,mKcell,mKcell,,D07,2017-03-29T16:52:26+06:00,
1000000000355041,77007992979,mKcell,mMTS,mAltel,D77,D02,2017-03-29T16:52:47+06:00,
1000000000355042,77013888760,mKarTel,mKcell,mKcell,,D01,2017-03-29T16:53:52+06:00,
1000000000355044,77772513406,mMTS,mKarTel,mKarTel,,D77,2017-03-29T16:54:48+06:00,
1000000000355045,77012920150,mMTS,mKcell,mKcell,,D77,2017-03-29T16:54:45+06:00,
1000000000355046,77759023714,mMTS,mKcell,mKcell,,D77,2017-03-29T16:55:05+06:00,
1000000000355047,77016893913,mAltel,mKcell,mKcell,,D07,2017-03-29T16:56:02+06:00,
1000000000355048,77770746692,mKcell,mKarTel,mKarTel,,D02,2017-03-29T16:56:43+06:00,
1000000000355052,77785899799,mKcell,mAltel,mKcell,D07,D02,2017-03-29T16:58:50+06:00,
