NPId,Number,RecipientId,DonorId,RangeHolderId,OldRoute,NewRoute,PortDate,RowCount
1000000000126394,77710666656,mKcell,mKarTel,mKarTel,,D02,2016-03-16T09:01:42+06:00,11
1000000000126395,77772777900,mKarTel,mMTS,mKarTel,D77,D01,2016-03-16T09:02:02+06:00,
1000000000126396,77071033333,mKarTel,mMTS,mMTS,,D01,2016-03-16T09:02:01+06:00,
1000000000126397,77071112161,mKarTel,mMTS,mMTS,,D01,2016-03-16T09:02:01+06:00,
1000000000126400,77778787874,mMTS,mKarTel,mKarTel,,D77,2016-03-16T09:14:33+06:00,
1000000000126401,77074443111,mAltel,mMTS,mMTS,,D07,2016-03-16T09:16:53+06:00,
1000000000126403,77074440111,mAltel,mMTS,mMTS,,D07,2016-03-16T09:17:35+06:00,
1000000000126405,77072809888,mKarTel,mMTS,mMTS,,D01,2016-03-16T09:20:48+06:00,
1000000000126406,77074000477,mKarTel,mMTS,mMTS,,D01,2016-03-16T09:22:37+06:00,
1000000000126407,77022285060,mKarTel,mKcell,mKcell,,D01,2016-03-16T09:23:01+06:00,
1000000000126408,77073598462,mMTS,mAltel,mMTS,D07,D77,2016-03-16T09:24:39+06:00,
