NPId,Number,RecipientId,DonorId,RangeHolderId,OldRoute,NewRoute,PortDate,RowCount
1000000000442336,77023246535,mAltel,mKcell,mKcell,,D07,2017-08-19T12:30:05+06:00,23
1000000000442338,77777809078,mKcell,mKarTel,mKarTel,,D02,2017-08-19T12:38:25+06:00,
1000000000442339,77077575894,mKarTel,mMTS,mMTS,,D01,2017-08-19T12:38:45+06:00,
1000000000442340,77772140515,mKcell,mKarTel,mKarTel,,D02,2017-08-19T12:39:51+06:00,
1000000000442341,77776425629,mMTS,mKarTel,mKarTel,,D77,2017-08-19T12:39:39+06:00,
1000000000442342,77779178310,mKarTel,mAltel,mKarTel,D07,D01,2017-08-19T12:39:37+06:00,
1000000000442343,77013002514,mMTS,mKcell,mKcell,,D77,2017-08-19T12:40:52+06:00,
1000000000442344,77762222784,mKarTel,mKcell,mKarTel,D02,D01,2017-08-19T12:41:31+06:00,
1000000000442345,77028426689,mMTS,mKcell,mKcell,,D77,2017-08-19T12:42:42+06:00,
1000000000442346,77762010415,mMTS,mKarTel,mKarTel,,D77,2017-08-19T12:43:52+06:00,
1000000000442347,77011022286,mAltel,mKcell,mKcell,,D07,2017-08-19T12:44:57+06:00,
1000000000442348,77025070575,mKarTel,mKcell,mKcell,,D01,2017-08-19T12:47:23+06:00,
1000000000442349,77755350300,mMTS,mKcell,mKcell,,D77,2017-08-19T12:47:40+06:00,
1000000000442350,77019533318,mMTS,mKarTel,mKcell,D01,D77,2017-08-19T12:48:02+06:00,
1000000000442351,77711958317,mKarTel,mMTS,mKarTel,D77,D01,2017-08-19T12:48:26+06:00,
1000000000442352,77756661326,mKarTel,mKcell,mKcell,,D01,2017-08-19T12:48:43+06:00,
1000000000442353,77022048520,mAltel,mKcell,mKcell,,D07,2017-08-19T12:49:31+06:00,
1000000000442354,77023503311,mAltel,mKarTel,mKcell,D01,D07,2017-08-19T12:50:03+06:00,
1000000000442355,77478488554,mAltel,mMTS,mMTS,,D07,2017-08-19T12:51:59+06:00,
1000000000442356,77714752829,mMTS,mKarTel,mKarTel,,D77,2017-08-19T12:54:37+06:00,
1000000000442357,77083535306,mMTS,mAltel,mAltel,,D77,2017-08-19T12:56:00+06:00,
1000000000442358,77476467033,mKarTel,mMTS,mMTS,,D01,2017-08-19T12:58:05+06:00,
1000000000442359,77076936399,mKcell,mMTS,mMTS,,D02,2017-08-19T12:58:49+06:00,
