NPId,Number,RecipientId,DonorId,RangeHolderId,OldRoute,NewRoute,PortDate,RowCount
1000000000386595,77762000418,mMTS,mKarTel,mKarTel,,D77,2017-05-21T13:02:22+06:00,11
1000000000386596,77059718822,mAltel,mKarTel,mKarTel,,D07,2017-05-21T13:02:34+06:00,
1000000000386597,77764828899,mAltel,mKarTel,mKarTel,,D07,2017-05-21T13:05:32+06:00,
1000000000386598,77010228842,mMTS,mKcell,mKcell,,D77,2017-05-21T13:07:33+06:00,
1000000000386599,77017601818,mMTS,mKcell,mKcell,,D77,2017-05-21T13:07:51+06:00,
1000000000386600,77017410505,mMTS,mKcell,mKcell,,D77,2017-05-21T13:12:32+06:00,
1000000000386603,77017669044,mKcell,mKarTel,mKcell,D01,D02,2017-05-21T13:21:45+06:00,
1000000000386604,77001561988,mMTS,mKcell,mAltel,D02,D77,2017-05-21T13:22:34+06:00,
1000000000386605,77772980423,mMTS,mKarTel,mKarTel,,D77,2017-05-21T13:23:06+06:00,
1000000000386606,77764055050,mKarTel,mKcell,mKarTel,D02,D01,2017-05-21T13:23:27+06:00,
1000000000386607,77056521862,mAltel,mKarTel,mKarTel,,D07,2017-05-21T13:24:27+06:00,
