NPId,Number,RecipientId,DonorId,RangeHolderId,OldRoute,NewRoute,PortDate,RowCount
1000000000218268,77051144097,mMTS,mAltel,mKarTel,D07,D77,2016-07-27T18:01:05+06:00,34
1000000000218269,77015550491,mKarTel,mKcell,mKcell,,D01,2016-07-27T18:01:56+06:00,
1000000000218270,77025578104,mAltel,mKcell,mKcell,,D07,2016-07-27T18:01:18+06:00,
1000000000218271,77779282194,mMTS,mKarTel,mKarTel,,D77,2016-07-27T18:02:42+06:00,
1000000000218272,77029492330,mAltel,mKcell,mKcell,,D07,2016-07-27T18:04:15+06:00,
1000000000218275,77001373604,mKarTel,mAltel,mAltel,,D01,2016-07-27T18:06:11+06:00,
1000000000218276,77001373694,mKarTel,mAltel,mAltel,,D01,2016-07-27T18:07:01+06:00,
1000000000218278,77053949322,mKarTel,mMTS,mKarTel,D77,D01,2016-07-27T18:08:09+06:00,
1000000000218279,77772540404,mKcell,mKarTel,mKarTel,,D02,2016-07-27T18:10:08+06:00,
1000000000218280,77007422986,mKarTel,mAltel,mAltel,,D01,2016-07-27T18:10:47+06:00,
1000000000218281,77712263865,mMTS,mKarTel,mKarTel,,D77,2016-07-27T18:11:36+06:00,
1000000000218283,77052200149,mKarTel,mAltel,mKarTel,D07,D01,2016-07-27T18:12:02+06:00,
1000000000218284,77022027080,mKcell,mAltel,mKcell,D07,D02,2016-07-27T18:15:11+06:00,
1000000000218285,77715220776,mMTS,mKarTel,mKarTel,,D77,2016-07-27T18:18:30+06:00,
1000000000218286,77772723434,mMTS,mKarTel,mKarTel,,D77,2016-07-27T18:18:30+06:00,
1000000000218287,77017130235,mKcell,mKarTel,mKcell,D01,D02,2016-07-27T18:19:36+06:00,
1000000000218288,77771404091,mMTS,mKarTel,mKarTel,,D77,2016-07-27T18:20:49+06:00,
1000000000218289,77780946932,mKarTel,mKcell,mKcell,,D01,2016-07-27T18:22:22+06:00,
1000000000218290,77072337666,mKcell,mMTS,mMTS,,D02,2016-07-27T18:22:06+06:00,
1000000000218291,77025483395,mMTS,mKcell,mKcell,,D77,2016-07-27T18:22:10+06:00,
1000000000218292,77053410488,mMTS,mKarTel,mKarTel,,D77,2016-07-27T18:23:43+06:00,
1000000000218293,77780946934,mKarTel,mKcell,mKcell,,D01,2016-07-27T18:23:42+06:00,
1000000000218294,77780946935,mKarTel,mKcell,mKcell,,D01,2016-07-27T18:24:37+06:00,
1000000000218295,77776666778,mKcell,mMTS,mKarTel,D77,D02,2016-07-27T18:24:31+06:00,
1000000000218296,77780947167,mKarTel,mKcell,mKcell,,D01,2016-07-27T18:25:29+06:00,
1000000000218297,77007222342,mKcell,mAltel,mAltel,,D02,2016-07-27T18:25:17+06:00,
1000000000218298,77780947268,mKarTel,mKcell,mKcell,,D01,2016-07-27T18:26:22+06:00,
1000000000218299,77780947468,mKarTel,mKcell,mKcell,,D01,2016-07-27T18:26:51+06:00,
1000000000218302,77780947465,mKarTel,mKcell,mKcell,,D01,2016-07-27T18:27:37+06:00,
1000000000218303,77780947464,mKarTel,mKcell,mKcell,,D01,2016-07-27T18:28:26+06:00,
1000000000218304,77718341030,mMTS,mKarTel,mKarTel,,D77,2016-07-27T18:29:15+06:00,
1000000000218305,77780947461,mKarTel,mKcell,mKcell,,D01,2016-07-27T18:28:51+06:00,
1000000000218306,77780947460,mKarTel,mKcell,mKcell,,D01,2016-07-27T18:29:43+06:00,
1000000000218307,77071319777,mKcell,mMTS,mMTS,,D02,2016-07-27T18:29:28+06:00,
