NPId,Number,RecipientId,DonorId,RangeHolderId,OldRoute,NewRoute,PortDate,RowCount
1000000000279344,77785006386,mAltel,mKcell,mKcell,,D07,2016-11-15T11:00:55+06:00,13
1000000000279345,77714688955,mMTS,mKarTel,mKarTel,,D77,2016-11-15T11:02:49+06:00,
1000000000279346,77010777001,mAltel,mKcell,mKcell,,D07,2016-11-15T11:05:18+06:00,
1000000000279347,77027382222,mKcell,mAltel,mKcell,D07,D02,2016-11-15T11:09:25+06:00,
1000000000279348,77017705544,mMTS,mKcell,mKcell,,D77,2016-11-15T11:08:27+06:00,
1000000000279349,77773283388,mMTS,mKarTel,mKarTel,,D77,2016-11-15T11:08:50+06:00,
1000000000279350,77772299006,mKcell,mKarTel,mKarTel,,D02,2016-11-15T11:10:32+06:00,
1000000000279351,77758899087,mKarTel,mMTS,mKcell,D77,D01,2016-11-15T11:10:33+06:00,
1000000000279353,77785053559,mAltel,mKcell,mKcell,,D07,2016-11-15T11:17:26+06:00,
1000000000279354,77715299999,mMTS,mKarTel,mKarTel,,D77,2016-11-15T11:17:11+06:00,
1000000000279355,77016377637,mAltel,mKcell,mKcell,,D07,2016-11-15T11:19:32+06:00,
1000000000279358,77071516153,mKcell,mMTS,mMTS,,D02,2016-11-15T11:27:07+06:00,
1000000000279359,77015114202,mMTS,mKcell,mKcell,,D77,2016-11-15T11:27:29+06:00,
