NPId,Number,RecipientId,DonorId,RangeHolderId,OldRoute,NewRoute,PortDate,RowCount
1000000000258944,77012217843,mKcell,mKarTel,mKcell,D01,D02,2016-10-08T12:02:11+06:00,21
1000000000258945,77078804777,mKarTel,mMTS,mMTS,,D01,2016-10-08T12:00:12+06:00,
1000000000258946,77081762004,mKcell,mAltel,mAltel,,D02,2016-10-08T12:01:59+06:00,
1000000000258947,77021464541,mMTS,mKcell,mKcell,,D77,2016-10-08T12:02:00+06:00,
1000000000258948,77058761111,mAltel,mKarTel,mKarTel,,D07,2016-10-08T12:07:24+06:00,
1000000000258949,77766768490,mKarTel,mAltel,mKarTel,D07,D01,2016-10-08T12:05:31+06:00,
1000000000258950,77015298420,mKcell,mAltel,mKcell,D07,D02,2016-10-08T12:05:42+06:00,
1000000000258951,77019859686,mAltel,mKcell,mKcell,,D07,2016-10-08T12:05:32+06:00,
1000000000258952,77055700075,mKarTel,mMTS,mKarTel,D77,D01,2016-10-08T12:07:21+06:00,
1000000000258953,77017131727,mAltel,mKcell,mKcell,,D07,2016-10-08T12:07:07+06:00,
1000000000258954,77770266470,mMTS,mKarTel,mKarTel,,D77,2016-10-08T12:12:46+06:00,
1000000000258955,77082414112,mKcell,mAltel,mAltel,,D02,2016-10-08T12:09:18+06:00,
1000000000258957,77760070045,mMTS,mKarTel,mKarTel,,D77,2016-10-08T12:14:31+06:00,
1000000000258958,77087443640,mKarTel,mAltel,mAltel,,D01,2016-10-08T12:12:43+06:00,
1000000000258959,77013114197,mMTS,mKcell,mKcell,,D77,2016-10-08T12:14:29+06:00,
1000000000258960,77766010100,mMTS,mKarTel,mKarTel,,D77,2016-10-08T12:22:06+06:00,
1000000000258961,77058670608,mMTS,mKarTel,mKarTel,,D77,2016-10-08T12:22:06+06:00,
1000000000258962,77087555330,mKcell,mAltel,mAltel,,D02,2016-10-08T12:18:25+06:00,
1000000000258963,77785009865,mMTS,mKarTel,mKcell,D01,D77,2016-10-08T12:23:58+06:00,
1000000000258964,77012859815,mKarTel,mKcell,mKcell,,D01,2016-10-08T12:25:38+06:00,
1000000000258966,77010160505,mMTS,mKcell,mKcell,,D77,2016-10-08T12:29:56+06:00,
