NPId,Number,RecipientId,DonorId,RangeHolderId,OldRoute,NewRoute,PortDate,RowCount
1000000000441801,77015772110,mAltel,mKcell,mKcell,,D07,2017-08-18T11:02:41+06:00,20
1000000000441802,77774888863,mAltel,mKarTel,mKarTel,,D07,2017-08-18T11:05:04+06:00,
1000000000441803,77758323258,mMTS,mKcell,mKcell,,D77,2017-08-18T11:05:00+06:00,
1000000000441805,77023080141,mKarTel,mKcell,mKcell,,D01,2017-08-18T11:07:08+06:00,
1000000000441806,77786882126,mAltel,mKcell,mKcell,,D07,2017-08-18T11:08:10+06:00,
1000000000441807,77076250481,mAltel,mMTS,mMTS,,D07,2017-08-18T11:08:30+06:00,
1000000000441808,77017874835,mKcell,mMTS,mKcell,D77,D02,2017-08-18T11:08:49+06:00,
1000000000441809,77014347228,mKcell,mMTS,mKcell,D77,D02,2017-08-18T11:09:11+06:00,
1000000000441810,77012226023,mKarTel,mKcell,mKcell,,D01,2017-08-18T11:15:31+06:00,
1000000000441812,77782346895,mMTS,mKcell,mKcell,,D77,2017-08-18T11:17:36+06:00,
1000000000441813,77010351211,mMTS,mKcell,mKcell,,D77,2017-08-18T11:19:01+06:00,
1000000000441814,77071091755,mAltel,mKcell,mMTS,D02,D07,2017-08-18T11:20:07+06:00,
1000000000441815,77026448757,mKarTel,mMTS,mKcell,D77,D01,2017-08-18T11:21:06+06:00,
1000000000441816,77017507615,mKarTel,mKcell,mKcell,,D01,2017-08-18T11:21:50+06:00,
1000000000441817,77051997248,mMTS,mKarTel,mKarTel,,D77,2017-08-18T11:24:07+06:00,
1000000000441818,77779989493,mKcell,mKarTel,mKarTel,,D02,2017-08-18T11:25:07+06:00,
1000000000441819,77471710215,mKcell,mMTS,mMTS,,D02,2017-08-18T11:24:58+06:00,
1000000000441820,77016504352,mKcell,mMTS,mKcell,D77,D02,2017-08-18T11:27:37+06:00,
1000000000441821,77782341903,mMTS,mKcell,mKcell,,D77,2017-08-18T11:27:32+06:00,
1000000000441823,77754910873,mMTS,mKcell,mKcell,,D77,2017-08-18T11:29:58+06:00,
