NPId,Number,RecipientId,DonorId,RangeHolderId,OldRoute,NewRoute,PortDate,RowCount
1000000000241281,77019769238,mKarTel,mKcell,mKcell,,D01,2016-09-07T11:46:08+06:00,27
1000000000241576,77715535096,mKcell,mKarTel,mKarTel,,D02,2016-09-07T11:32:57+06:00,
1000000000241578,77717013711,mKcell,mKarTel,mKarTel,,D02,2016-09-07T11:35:28+06:00,
1000000000241589,77717021264,mKcell,mKarTel,mKarTel,,D02,2016-09-07T11:43:56+06:00,
1000000000241593,77473629708,mAltel,mMTS,mMTS,,D07,2016-09-07T11:30:27+06:00,
1000000000241594,77770753075,mKarTel,mMTS,mKarTel,D77,D01,2016-09-07T11:31:39+06:00,
1000000000241595,77016395257,mMTS,mKcell,mKcell,,D77,2016-09-07T11:32:50+06:00,
1000000000241596,77776965848,mMTS,mKarTel,mKarTel,,D77,2016-09-07T11:34:22+06:00,
1000000000241597,77717799773,mKcell,mKarTel,mKarTel,,D02,2016-09-07T11:49:47+06:00,
1000000000241598,77751668111,mMTS,mKcell,mKcell,,D77,2016-09-07T11:34:58+06:00,
1000000000241599,77717758537,mKcell,mKarTel,mKarTel,,D02,2016-09-07T11:50:48+06:00,
1000000000241600,77717908193,mKcell,mKarTel,mKarTel,,D02,2016-09-07T11:53:07+06:00,
1000000000241601,77017853519,mKarTel,mKcell,mKcell,,D01,2016-09-07T11:38:32+06:00,
1000000000241602,77782174416,mMTS,mKcell,mKcell,,D77,2016-09-07T11:38:30+06:00,
1000000000241603,77016777092,mMTS,mKcell,mKcell,,D77,2016-09-07T11:38:44+06:00,
1000000000241604,77716906666,mMTS,mKcell,mKarTel,D02,D77,2016-09-07T11:39:00+06:00,
1000000000241605,77719903417,mKcell,mKarTel,mKarTel,,D02,2016-09-07T11:56:04+06:00,
1000000000241606,77071316444,mKcell,mMTS,mMTS,,D02,2016-09-07T11:41:18+06:00,
1000000000241608,77716906644,mMTS,mKcell,mKarTel,D02,D77,2016-09-07T11:41:54+06:00,
1000000000241614,77075592107,mKcell,mMTS,mMTS,,D02,2016-09-07T11:47:43+06:00,
1000000000241616,77771454502,mKcell,mMTS,mKarTel,D77,D02,2016-09-07T11:50:08+06:00,
1000000000241617,77781011551,mKcell,mMTS,mKcell,D77,D02,2016-09-07T11:51:40+06:00,
1000000000241618,77475222062,mKarTel,mMTS,mMTS,,D01,2016-09-07T11:51:46+06:00,
1000000000241619,77017552898,mKarTel,mKcell,mKcell,,D01,2016-09-07T11:52:13+06:00,
1000000000241620,77773799960,mMTS,mKarTel,mKarTel,,D77,2016-09-07T11:53:11+06:00,
1000000000241624,77053208707,mMTS,mKarTel,mKarTel,,D77,2016-09-07T11:57:01+06:00,
1000000000241628,77019994804,mKcell,mAltel,mKcell,D07,D02,2016-09-07T11:59:11+06:00,
