NPId,Number,RecipientId,DonorId,RangeHolderId,OldRoute,NewRoute,PortDate,RowCount
1000000000201215,77770059932,mMTS,mKarTel,mKarTel,,D77,2016-06-28T12:01:47+06:00,41
1000000000201216,77770059837,mMTS,mKarTel,mKarTel,,D77,2016-06-28T12:02:35+06:00,
1000000000201217,77770059906,mMTS,mKarTel,mKarTel,,D77,2016-06-28T12:03:18+06:00,
1000000000201219,77770059823,mMTS,mKarTel,mKarTel,,D77,2016-06-28T12:04:00+06:00,
1000000000201221,77770059720,mMTS,mKarTel,mKarTel,,D77,2016-06-28T12:04:41+06:00,
1000000000201225,77717751768,mMTS,mKarTel,mKarTel,,D77,2016-06-28T12:05:31+06:00,
1000000000201231,77718009014,mMTS,mKarTel,mKarTel,,D77,2016-06-28T12:06:54+06:00,
1000000000201241,77054005005,mKarTel,mKcell,mKarTel,D02,D01,2016-06-28T12:00:04+06:00,
1000000000201243,77479972587,mKarTel,mMTS,mMTS,,D01,2016-06-28T12:00:40+06:00,
1000000000201244,77479972588,mKarTel,mMTS,mMTS,,D01,2016-06-28T12:01:10+06:00,
1000000000201245,77771836668,mKarTel,mMTS,mKarTel,D77,D01,2016-06-28T12:03:21+06:00,
1000000000201246,77771713838,mAltel,mKarTel,mKarTel,,D07,2016-06-28T12:04:13+06:00,
1000000000201247,77082301800,mMTS,mAltel,mAltel,,D77,2016-06-28T12:03:48+06:00,
1000000000201248,77477758782,mKarTel,mMTS,mMTS,,D01,2016-06-28T12:04:19+06:00,
1000000000201249,77472347156,mKcell,mMTS,mMTS,,D02,2016-06-28T12:06:00+06:00,
1000000000201250,77056288866,mMTS,mKarTel,mKarTel,,D77,2016-06-28T12:05:25+06:00,
1000000000201251,77085555500,mKarTel,mAltel,mAltel,,D01,2016-06-28T12:05:57+06:00,
1000000000201252,77717049600,mKcell,mKarTel,mKarTel,,D02,2016-06-28T12:06:53+06:00,
1000000000201253,77073444154,mMTS,mAltel,mMTS,D07,D77,2016-06-28T12:06:05+06:00,
1000000000201254,77077029006,mKarTel,mMTS,mMTS,,D01,2016-06-28T12:06:22+06:00,
1000000000201255,77479972589,mKarTel,mMTS,mMTS,,D01,2016-06-28T12:06:47+06:00,
1000000000201258,77086549747,mMTS,mAltel,mAltel,,D77,2016-06-28T12:10:38+06:00,
1000000000201260,77751718922,mMTS,mKcell,mKcell,,D77,2016-06-28T12:12:19+06:00,
1000000000201262,77752374700,mMTS,mKcell,mKcell,,D77,2016-06-28T12:13:43+06:00,
1000000000201263,77089689093,mMTS,mAltel,mAltel,,D77,2016-06-28T12:12:27+06:00,
1000000000201264,77017796549,mKarTel,mKcell,mKcell,,D01,2016-06-28T12:15:12+06:00,
1000000000201265,77089527512,mMTS,mAltel,mAltel,,D77,2016-06-28T12:13:21+06:00,
1000000000201266,77016383800,mKarTel,mKcell,mKcell,,D01,2016-06-28T12:15:11+06:00,
1000000000201267,77058151924,mKcell,mKarTel,mKarTel,,D02,2016-06-28T12:16:33+06:00,
1000000000201273,77471025216,mKarTel,mMTS,mMTS,,D01,2016-06-28T12:19:43+06:00,
1000000000201274,77004765050,mMTS,mAltel,mAltel,,D77,2016-06-28T12:19:42+06:00,
1000000000201275,77776049604,mMTS,mKarTel,mKarTel,,D77,2016-06-28T12:21:10+06:00,
1000000000201277,77770966868,mMTS,mKarTel,mKarTel,,D77,2016-06-28T12:21:29+06:00,
1000000000201282,77716776655,mKarTel,mMTS,mKarTel,D77,D01,2016-06-28T12:24:52+06:00,
1000000000201283,77754444465,mKcell,mKarTel,mKcell,D01,D02,2016-06-28T12:26:22+06:00,
1000000000201284,77776259376,mMTS,mKarTel,mKarTel,,D77,2016-06-28T12:25:19+06:00,
1000000000201285,77013161080,mMTS,mKcell,mKcell,,D77,2016-06-28T12:26:19+06:00,
1000000000201286,77770090901,mMTS,mKarTel,mKarTel,,D77,2016-06-28T12:25:43+06:00,
1000000000201289,77019388426,mMTS,mKcell,mKcell,,D77,2016-06-28T12:28:26+06:00,
1000000000201290,77026222606,mMTS,mKcell,mKcell,,D77,2016-06-28T12:28:26+06:00,
1000000000201291,77479972591,mKarTel,mMTS,mMTS,,D01,2016-06-28T12:29:18+06:00,
