NPId,Number,RecipientId,DonorId,RangeHolderId,OldRoute,NewRoute,PortDate,RowCount
1000000000411745,77715600000,mMTS,mKarTel,mKarTel,,D77,2017-06-28T19:00:22+06:00,24
1000000000411746,77773458453,mMTS,mKarTel,mKarTel,,D77,2017-06-28T19:01:05+06:00,
1000000000411747,77004004838,mKcell,mAltel,mAltel,,D02,2017-06-28T19:01:23+06:00,
1000000000411749,77005505524,mMTS,mAltel,mAltel,,D77,2017-06-28T19:01:50+06:00,
1000000000411750,77079591979,mKarTel,mMTS,mMTS,,D01,2017-06-28T19:02:13+06:00,
1000000000411751,77005505523,mMTS,mAltel,mAltel,,D77,2017-06-28T19:03:16+06:00,
1000000000411752,77006006828,mKcell,mAltel,mAltel,,D02,2017-06-28T19:04:08+06:00,
1000000000411753,77082000950,mKcell,mAltel,mAltel,,D02,2017-06-28T19:04:39+06:00,
1000000000411754,77773458414,mMTS,mKarTel,mKarTel,,D77,2017-06-28T19:07:02+06:00,
1000000000411755,77021810147,mKarTel,mKcell,mKcell,,D01,2017-06-28T19:09:10+06:00,
1000000000411756,77002002313,mKcell,mAltel,mAltel,,D02,2017-06-28T19:09:08+06:00,
1000000000411757,77023085981,mKcell,mMTS,mKcell,D77,D02,2017-06-28T19:10:40+06:00,
1000000000411759,77075550250,mKcell,mMTS,mMTS,,D02,2017-06-28T19:12:18+06:00,
1000000000411760,77016835530,mAltel,mKcell,mKcell,,D07,2017-06-28T19:12:21+06:00,
1000000000411761,77716696616,mKcell,mKarTel,mKarTel,,D02,2017-06-28T19:13:47+06:00,
1000000000411762,77024449678,mKarTel,mKcell,mKcell,,D01,2017-06-28T19:13:36+06:00,
1000000000411763,77004004969,mKcell,mAltel,mAltel,,D02,2017-06-28T19:14:00+06:00,
1000000000411764,77771433807,mKarTel,mMTS,mKarTel,D77,D01,2017-06-28T19:17:23+06:00,
1000000000411765,77003003929,mKcell,mAltel,mAltel,,D02,2017-06-28T19:18:27+06:00,
1000000000411766,77025577273,mMTS,mKcell,mKcell,,D77,2017-06-28T19:18:53+06:00,
1000000000411768,77057099711,mAltel,mKarTel,mKarTel,,D07,2017-06-28T19:25:04+06:00,
1000000000411769,77005005292,mKcell,mAltel,mAltel,,D02,2017-06-28T19:25:54+06:00,
1000000000411771,77002002919,mKcell,mAltel,mAltel,,D02,2017-06-28T19:27:56+06:00,
1000000000411772,77774473575,mKcell,mKarTel,mKarTel,,D02,2017-06-28T19:28:12+06:00,
