NPId,Number,RecipientId,DonorId,RangeHolderId,OldRoute,NewRoute,PortDate,RowCount
1000000000448873,77475849916,mAltel,mMTS,mMTS,,D07,2017-08-30T19:00:18+06:00,6
1000000000448875,77750736457,mMTS,mKcell,mKcell,,D77,2017-08-30T19:01:53+06:00,
1000000000448877,77005005939,mKcell,mAltel,mAltel,,D02,2017-08-30T19:19:34+06:00,
1000000000448878,77001112942,mKcell,mAltel,mAltel,,D02,2017-08-30T19:20:03+06:00,
1000000000448879,77005005949,mKcell,mAltel,mAltel,,D02,2017-08-30T19:20:15+06:00,
1000000000448881,77015227606,mMTS,mKcell,mKcell,,D77,2017-08-30T19:22:48+06:00,
