NPId,Number,RecipientId,DonorId,RangeHolderId,OldRoute,NewRoute,PortDate,RowCount
1000000000104379,77073692587,mKarTel,mMTS,mMTS,,D01,2016-03-02T09:30:12+06:00,23
1000000000104379,77078023933,mKarTel,mMTS,mMTS,,D01,2016-03-02T09:30:12+06:00,
1000000000104379,77078030994,mKarTel,mMTS,mMTS,,D01,2016-03-02T09:30:12+06:00,
1000000000104379,77078031092,mKarTel,mMTS,mMTS,,D01,2016-03-02T09:30:12+06:00,
1000000000104379,77078031108,mKarTel,mMTS,mMTS,,D01,2016-03-02T09:30:12+06:00,
1000000000104379,77078530878,mKarTel,mMTS,mMTS,,D01,2016-03-02T09:30:12+06:00,
1000000000104379,77471550512,mKarTel,mMTS,mMTS,,D01,2016-03-02T09:30:12+06:00,
1000000000104379,77471570565,mKarTel,mMTS,mMTS,,D01,2016-03-02T09:30:12+06:00,
1000000000104379,77471570566,mKarTel,mMTS,mMTS,,D01,2016-03-02T09:30:12+06:00,
1000000000104379,77471570567,mKarTel,mMTS,mMTS,,D01,2016-03-02T09:30:12+06:00,
1000000000104379,77476584369,mKarTel,mMTS,mMTS,,D01,2016-03-02T09:30:12+06:00,
1000000000104379,77478047847,mKarTel,mMTS,mMTS,,D01,2016-03-02T09:30:12+06:00,
1000000000104379,77478503767,mKarTel,mMTS,mMTS,,D01,2016-03-02T09:30:12+06:00,
1000000000104379,77479399674,mKarTel,mMTS,mMTS,,D01,2016-03-02T09:30:12+06:00,
1000000000104380,77071286768,mAltel,mMTS,mMTS,,D07,2016-03-02T09:31:40+06:00,
1000000000104383,77714173159,mMTS,mKarTel,mKarTel,,D77,2016-03-02T09:40:41+06:00,
1000000000104384,77017108921,mMTS,mKcell,mKcell,,D77,2016-03-02T09:40:28+06:00,
1000000000104385,77473414425,mAltel,mMTS,mMTS,,D07,2016-03-02T09:40:32+06:00,
1000000000104390,77053331260,mAltel,mKarTel,mKarTel,,D07,2016-03-02T09:49:15+06:00,
1000000000104395,77076011201,mKarTel,mMTS,mMTS,,D01,2016-03-02T09:52:24+06:00,
1000000000104396,77078352164,mAltel,mMTS,mMTS,,D07,2016-03-02T09:52:16+06:00,
1000000000104397,77778671916,mKcell,mKarTel,mKarTel,,D02,2016-03-02T09:55:15+06:00,
1000000000104399,77004500625,mMTS,mAltel,mAltel,,D77,2016-03-02T09:59:52+06:00,
