NPId,Number,RecipientId,DonorId,RangeHolderId,OldRoute,NewRoute,PortDate,RowCount
1000000000229578,77074631122,mMTS,mKcell,mMTS,D02,D77,2016-08-16T12:00:10+06:00,23
1000000000229580,77772394747,mKcell,mAltel,mKarTel,D07,D02,2016-08-16T12:03:10+06:00,
1000000000229581,77759042424,mMTS,mKcell,mKcell,,D77,2016-08-16T12:02:49+06:00,
1000000000229582,77009683660,mMTS,mAltel,mAltel,,D77,2016-08-16T12:02:31+06:00,
1000000000229583,77089500723,mMTS,mAltel,mAltel,,D77,2016-08-16T12:02:59+06:00,
1000000000229585,77758796297,mMTS,mKcell,mKcell,,D77,2016-08-16T12:09:38+06:00,
1000000000229586,77752793257,mKarTel,mKcell,mKcell,,D01,2016-08-16T12:10:58+06:00,
1000000000229587,77025602160,mKcell,mMTS,mKcell,D77,D02,2016-08-16T12:13:25+06:00,
1000000000229588,77021447659,mKcell,mMTS,mKcell,D77,D02,2016-08-16T12:12:21+06:00,
1000000000229589,77759068090,mKcell,mAltel,mKcell,D07,D02,2016-08-16T12:12:34+06:00,
1000000000229590,77788729772,mKcell,mAltel,mKcell,D07,D02,2016-08-16T12:13:33+06:00,
1000000000229592,77015222355,mMTS,mKcell,mKcell,,D77,2016-08-16T12:13:51+06:00,
1000000000229593,77013082298,mMTS,mKcell,mKcell,,D77,2016-08-16T12:14:54+06:00,
1000000000229594,77773595342,mMTS,mKarTel,mKarTel,,D77,2016-08-16T12:18:18+06:00,
1000000000229595,77017144087,mKarTel,mKcell,mKcell,,D01,2016-08-16T12:18:54+06:00,
1000000000229596,77785872608,mMTS,mKcell,mKcell,,D77,2016-08-16T12:22:02+06:00,
1000000000229598,77075006565,mKcell,mMTS,mMTS,,D02,2016-08-16T12:22:30+06:00,
1000000000229599,77772570635,mMTS,mKarTel,mKarTel,,D77,2016-08-16T12:23:56+06:00,
1000000000229600,77005503377,mKarTel,mAltel,mAltel,,D01,2016-08-16T12:23:22+06:00,
1000000000229602,77772336267,mMTS,mKarTel,mKarTel,,D77,2016-08-16T12:25:05+06:00,
1000000000229604,77083000843,mKarTel,mAltel,mAltel,,D01,2016-08-16T12:26:46+06:00,
1000000000229605,77773279293,mKarTel,mAltel,mKarTel,D07,D01,2016-08-16T12:27:52+06:00,
1000000000229607,77053029557,mKarTel,mKcell,mKarTel,D02,D01,2016-08-16T12:28:29+06:00,
