NPId,Number,RecipientId,DonorId,RangeHolderId,OldRoute,NewRoute,PortDate,RowCount
1000000000379785,77078583611,mKarTel,mMTS,mMTS,,D01,2017-05-07T20:02:20+06:00,2
1000000000379786,77715717979,mKarTel,mAltel,mKarTel,D07,D01,2017-05-07T20:02:21+06:00,
