NPId,Number,RecipientId,DonorId,RangeHolderId,OldRoute,NewRoute,PortDate,RowCount
1000000000208970,77017149928,mKarTel,mKcell,mKcell,,D01,2016-07-12T09:14:34+06:00,96
1000000000208970,77017149968,mKarTel,mKcell,mKcell,,D01,2016-07-12T09:14:34+06:00,
1000000000208970,77017223543,mKarTel,mKcell,mKcell,,D01,2016-07-12T09:14:34+06:00,
1000000000208970,77019550031,mKarTel,mKcell,mKcell,,D01,2016-07-12T09:14:34+06:00,
1000000000208970,77019550073,mKarTel,mKcell,mKcell,,D01,2016-07-12T09:14:34+06:00,
1000000000208970,77019550121,mKarTel,mKcell,mKcell,,D01,2016-07-12T09:14:34+06:00,
1000000000208970,77019550123,mKarTel,mKcell,mKcell,,D01,2016-07-12T09:14:34+06:00,
1000000000208970,77019550141,mKarTel,mKcell,mKcell,,D01,2016-07-12T09:14:34+06:00,
1000000000208970,77019550155,mKarTel,mKcell,mKcell,,D01,2016-07-12T09:14:34+06:00,
1000000000208970,77019550175,mKarTel,mKcell,mKcell,,D01,2016-07-12T09:14:34+06:00,
1000000000208970,77019550178,mKarTel,mKcell,mKcell,,D01,2016-07-12T09:14:34+06:00,
1000000000208970,77019550180,mKarTel,mKcell,mKcell,,D01,2016-07-12T09:14:34+06:00,
1000000000208970,77019550183,mKarTel,mKcell,mKcell,,D01,2016-07-12T09:14:34+06:00,
1000000000208970,77019550193,mKarTel,mKcell,mKcell,,D01,2016-07-12T09:14:34+06:00,
1000000000208970,77019550195,mKarTel,mKcell,mKcell,,D01,2016-07-12T09:14:34+06:00,
1000000000208970,77019550197,mKarTel,mKcell,mKcell,,D01,2016-07-12T09:14:34+06:00,
1000000000208970,77019550220,mKarTel,mKcell,mKcell,,D01,2016-07-12T09:14:34+06:00,
1000000000208970,77019550228,mKarTel,mKcell,mKcell,,D01,2016-07-12T09:14:34+06:00,
1000000000208970,77019550240,mKarTel,mKcell,mKcell,,D01,2016-07-12T09:14:34+06:00,
1000000000208970,77019550260,mKarTel,mKcell,mKcell,,D01,2016-07-12T09:14:34+06:00,
1000000000208970,77019550264,mKarTel,mKcell,mKcell,,D01,2016-07-12T09:14:34+06:00,
1000000000208970,77019550267,mKarTel,mKcell,mKcell,,D01,2016-07-12T09:14:34+06:00,
1000000000208970,77019550268,mKarTel,mKcell,mKcell,,D01,2016-07-12T09:14:34+06:00,
1000000000208970,77019550271,mKarTel,mKcell,mKcell,,D01,2016-07-12T09:14:34+06:00,
1000000000208970,77019550273,mKarTel,mKcell,mKcell,,D01,2016-07-12T09:14:34+06:00,
1000000000208970,77019550280,mKarTel,mKcell,mKcell,,D01,2016-07-12T09:14:34+06:00,
1000000000208970,77019550287,mKarTel,mKcell,mKcell,,D01,2016-07-12T09:14:34+06:00,
1000000000208970,77019550288,mKarTel,mKcell,mKcell,,D01,2016-07-12T09:14:34+06:00,
1000000000208970,77019550289,mKarTel,mKcell,mKcell,,D01,2016-07-12T09:14:34+06:00,
1000000000208970,77019550299,mKarTel,mKcell,mKcell,,D01,2016-07-12T09:14:34+06:00,
1000000000208970,77019550528,mKarTel,mKcell,mKcell,,D01,2016-07-12T09:14:34+06:00,
1000000000208970,77019550735,mKarTel,mKcell,mKcell,,D01,2016-07-12T09:14:34+06:00,
1000000000208970,77019550925,mKarTel,mKcell,mKcell,,D01,2016-07-12T09:14:34+06:00,
1000000000208970,77019551050,mKarTel,mKcell,mKcell,,D01,2016-07-12T09:14:34+06:00,
1000000000208970,77019551239,mKarTel,mKcell,mKcell,,D01,2016-07-12T09:14:34+06:00,
1000000000208970,77019551290,mKarTel,mKcell,mKcell,,D01,2016-07-12T09:14:34+06:00,
1000000000208970,77019551383,mKarTel,mKcell,mKcell,,D01,2016-07-12T09:14:34+06:00,
1000000000208970,77019552044,mKarTel,mKcell,mKcell,,D01,2016-07-12T09:14:34+06:00,
1000000000208970,77019552125,mKarTel,mKcell,mKcell,,D01,2016-07-12T09:14:34+06:00,
1000000000208970,77019553180,mKarTel,mKcell,mKcell,,D01,2016-07-12T09:14:34+06:00,
1000000000208970,77019553201,mKarTel,mKcell,mKcell,,D01,2016-07-12T09:14:34+06:00,
1000000000208970,77019553208,mKarTel,mKcell,mKcell,,D01,2016-07-12T09:14:34+06:00,
1000000000208970,77019553484,mKarTel,mKcell,mKcell,,D01,2016-07-12T09:14:34+06:00,
1000000000208970,77019553492,mKarTel,mKcell,mKcell,,D01,2016-07-12T09:14:34+06:00,
1000000000208970,77019553511,mKarTel,mKcell,mKcell,,D01,2016-07-12T09:14:34+06:00,
1000000000208970,77019553700,mKarTel,mKcell,mKcell,,D01,2016-07-12T09:14:34+06:00,
1000000000208970,77019554696,mKarTel,mKcell,mKcell,,D01,2016-07-12T09:14:34+06:00,
1000000000208970,77019554757,mKarTel,mKcell,mKcell,,D01,2016-07-12T09:14:34+06:00,
1000000000208970,77019554780,mKarTel,mKcell,mKcell,,D01,2016-07-12T09:14:34+06:00,
1000000000208970,77019554990,mKarTel,mKcell,mKcell,,D01,2016-07-12T09:14:34+06:00,
1000000000208970,77019555016,mKarTel,mKcell,mKcell,,D01,2016-07-12T09:14:34+06:00,
1000000000208970,77019555038,mKarTel,mKcell,mKcell,,D01,2016-07-12T09:14:34+06:00,
1000000000208970,77019555051,mKarTel,mKcell,mKcell,,D01,2016-07-12T09:14:34+06:00,
1000000000208970,77019555054,mKarTel,mKcell,mKcell,,D01,2016-07-12T09:14:34+06:00,
1000000000208970,77019555065,mKarTel,mKcell,mKcell,,D01,2016-07-12T09:14:34+06:00,
1000000000208970,77019555088,mKarTel,mKcell,mKcell,,D01,2016-07-12T09:14:34+06:00,
1000000000208970,77019555091,mKarTel,mKcell,mKcell,,D01,2016-07-12T09:14:34+06:00,
1000000000208970,77019555152,mKarTel,mKcell,mKcell,,D01,2016-07-12T09:14:34+06:00,
1000000000208970,77019555301,mKarTel,mKcell,mKcell,,D01,2016-07-12T09:14:34+06:00,
1000000000208970,77019555513,mKarTel,mKcell,mKcell,,D01,2016-07-12T09:14:34+06:00,
1000000000208970,77019555528,mKarTel,mKcell,mKcell,,D01,2016-07-12T09:14:34+06:00,
1000000000208970,77019555539,mKarTel,mKcell,mKcell,,D01,2016-07-12T09:14:34+06:00,
1000000000208970,77019555543,mKarTel,mKcell,mKcell,,D01,2016-07-12T09:14:34+06:00,
1000000000208970,77019555544,mKarTel,mKcell,mKcell,,D01,2016-07-12T09:14:34+06:00,
1000000000208970,77019555563,mKarTel,mKcell,mKcell,,D01,2016-07-12T09:14:34+06:00,
1000000000208970,77019555565,mKarTel,mKcell,mKcell,,D01,2016-07-12T09:14:34+06:00,
1000000000208970,77019555566,mKarTel,mKcell,mKcell,,D01,2016-07-12T09:14:34+06:00,
1000000000208970,77019555583,mKarTel,mKcell,mKcell,,D01,2016-07-12T09:14:34+06:00,
1000000000208970,77019555584,mKarTel,mKcell,mKcell,,D01,2016-07-12T09:14:34+06:00,
1000000000208970,77019555706,mKarTel,mKcell,mKcell,,D01,2016-07-12T09:14:34+06:00,
1000000000208970,77019555989,mKarTel,mKcell,mKcell,,D01,2016-07-12T09:14:34+06:00,
1000000000208970,77019556004,mKarTel,mKcell,mKcell,,D01,2016-07-12T09:14:34+06:00,
1000000000208970,77019557199,mKarTel,mKcell,mKcell,,D01,2016-07-12T09:14:34+06:00,
1000000000208970,77019557220,mKarTel,mKcell,mKcell,,D01,2016-07-12T09:14:34+06:00,
1000000000208970,77019557230,mKarTel,mKcell,mKcell,,D01,2016-07-12T09:14:34+06:00,
1000000000208970,77019557232,mKarTel,mKcell,mKcell,,D01,2016-07-12T09:14:34+06:00,
1000000000208970,77019559030,mKarTel,mKcell,mKcell,,D01,2016-07-12T09:14:34+06:00,
1000000000208970,77019559690,mKarTel,mKcell,mKcell,,D01,2016-07-12T09:14:34+06:00,
1000000000208970,77019595362,mKarTel,mKcell,mKcell,,D01,2016-07-12T09:14:34+06:00,
1000000000208970,77019599343,mKarTel,mKcell,mKcell,,D01,2016-07-12T09:14:34+06:00,
1000000000208970,77019599348,mKarTel,mKcell,mKcell,,D01,2016-07-12T09:14:34+06:00,
1000000000208970,77019714228,mKarTel,mKcell,mKcell,,D01,2016-07-12T09:14:34+06:00,
1000000000208970,77019714234,mKarTel,mKcell,mKcell,,D01,2016-07-12T09:14:34+06:00,
1000000000208970,77019714249,mKarTel,mKcell,mKcell,,D01,2016-07-12T09:14:34+06:00,
1000000000208970,77019714250,mKarTel,mKcell,mKcell,,D01,2016-07-12T09:14:34+06:00,
1000000000208970,77019716631,mKarTel,mKcell,mKcell,,D01,2016-07-12T09:14:34+06:00,
1000000000208970,77019919093,mKarTel,mKcell,mKcell,,D01,2016-07-12T09:14:34+06:00,
1000000000208970,77019919954,mKarTel,mKcell,mKcell,,D01,2016-07-12T09:14:34+06:00,
1000000000208970,77019919957,mKarTel,mKcell,mKcell,,D01,2016-07-12T09:14:34+06:00,
1000000000208970,77019919965,mKarTel,mKcell,mKcell,,D01,2016-07-12T09:14:34+06:00,
1000000000209693,77710137271,mMTS,mAltel,mKarTel,D07,D77,2016-07-12T09:16:44+06:00,
1000000000209694,77010268616,mKarTel,mKcell,mKcell,,D01,2016-07-12T09:21:14+06:00,
1000000000209694,77010325725,mKarTel,mKcell,mKcell,,D01,2016-07-12T09:21:14+06:00,
1000000000209695,77773747429,mAltel,mKarTel,mKarTel,,D07,2016-07-12T09:26:43+06:00,
1000000000209696,77004029909,mMTS,mAltel,mAltel,,D77,2016-07-12T09:28:02+06:00,
1000000000209697,77777081234,mKarTel,mMTS,mKarTel,D77,D01,2016-07-12T09:29:10+06:00,
