NPId,Number,RecipientId,DonorId,RangeHolderId,OldRoute,NewRoute,PortDate,RowCount
1000000000090824,77018884671,mKarTel,mKcell,mKcell,,D01,2016-02-17T14:23:15+06:00,61
1000000000090824,77018884683,mKarTel,mKcell,mKcell,,D01,2016-02-17T14:23:15+06:00,
1000000000090824,77018884687,mKarTel,mKcell,mKcell,,D01,2016-02-17T14:23:15+06:00,
1000000000090824,77018884689,mKarTel,mKcell,mKcell,,D01,2016-02-17T14:23:15+06:00,
1000000000090824,77018884697,mKarTel,mKcell,mKcell,,D01,2016-02-17T14:23:15+06:00,
1000000000090824,77018884791,mKarTel,mKcell,mKcell,,D01,2016-02-17T14:23:15+06:00,
1000000000090824,77018884792,mKarTel,mKcell,mKcell,,D01,2016-02-17T14:23:15+06:00,
1000000000090824,77018884793,mKarTel,mKcell,mKcell,,D01,2016-02-17T14:23:15+06:00,
1000000000090824,77018884796,mKarTel,mKcell,mKcell,,D01,2016-02-17T14:23:15+06:00,
1000000000090824,77018884839,mKarTel,mKcell,mKcell,,D01,2016-02-17T14:23:15+06:00,
1000000000090824,77019122597,mKarTel,mKcell,mKcell,,D01,2016-02-17T14:23:15+06:00,
1000000000090824,77019506145,mKarTel,mKcell,mKcell,,D01,2016-02-17T14:23:15+06:00,
1000000000090824,77019506146,mKarTel,mKcell,mKcell,,D01,2016-02-17T14:23:15+06:00,
1000000000090824,77019828316,mKarTel,mKcell,mKcell,,D01,2016-02-17T14:23:15+06:00,
1000000000090824,77019893002,mKarTel,mKcell,mKcell,,D01,2016-02-17T14:23:15+06:00,
1000000000090824,77022189165,mKarTel,mKcell,mKcell,,D01,2016-02-17T14:23:15+06:00,
1000000000090824,77022189175,mKarTel,mKcell,mKcell,,D01,2016-02-17T14:23:15+06:00,
1000000000090824,77022189176,mKarTel,mKcell,mKcell,,D01,2016-02-17T14:23:15+06:00,
1000000000091051,77752770707,mMTS,mKcell,mKcell,,D77,2016-02-17T14:00:59+06:00,
1000000000091055,77053111999,mKcell,mKarTel,mKarTel,,D02,2016-02-17T14:02:11+06:00,
1000000000091056,77773859830,mAltel,mKarTel,mKarTel,,D07,2016-02-17T14:02:10+06:00,
1000000000091057,77784776887,mKarTel,mKcell,mKcell,,D01,2016-02-17T14:02:30+06:00,
1000000000091058,77017711543,mMTS,mKcell,mKcell,,D77,2016-02-17T14:02:18+06:00,
1000000000091060,77029871709,mMTS,mKcell,mKcell,,D77,2016-02-17T14:02:29+06:00,
1000000000091062,77024051472,mAltel,mKcell,mKcell,,D07,2016-02-17T14:03:43+06:00,
1000000000091063,77710958669,mMTS,mKarTel,mKarTel,,D77,2016-02-17T14:05:06+06:00,
1000000000091064,77017417977,mAltel,mKcell,mKcell,,D07,2016-02-17T14:04:25+06:00,
1000000000091065,77752716514,mKarTel,mKcell,mKcell,,D01,2016-02-17T14:04:56+06:00,
1000000000091066,77026403509,mAltel,mKcell,mKcell,,D07,2016-02-17T14:05:24+06:00,
1000000000091068,77016119366,mAltel,mKcell,mKcell,,D07,2016-02-17T14:06:13+06:00,
1000000000091069,77716666679,mKcell,mKarTel,mKarTel,,D02,2016-02-17T14:07:49+06:00,
1000000000091070,77055648000,mMTS,mKarTel,mKarTel,,D77,2016-02-17T14:08:22+06:00,
1000000000091072,77758257929,mKarTel,mKcell,mKcell,,D01,2016-02-17T14:10:01+06:00,
1000000000091073,77715320724,mMTS,mKarTel,mKarTel,,D77,2016-02-17T14:09:59+06:00,
1000000000091074,77752716529,mKarTel,mKcell,mKcell,,D01,2016-02-17T14:10:19+06:00,
1000000000091076,77713057113,mMTS,mKarTel,mKarTel,,D77,2016-02-17T14:12:09+06:00,
1000000000091077,77782224282,mMTS,mKcell,mKcell,,D77,2016-02-17T14:11:05+06:00,
1000000000091079,77714198695,mKcell,mKarTel,mKarTel,,D02,2016-02-17T14:12:10+06:00,
1000000000091081,77757848220,mMTS,mKcell,mKcell,,D77,2016-02-17T14:12:14+06:00,
1000000000091082,77079507272,mKarTel,mMTS,mMTS,,D01,2016-02-17T14:12:51+06:00,
1000000000091083,77079920712,mAltel,mMTS,mMTS,,D07,2016-02-17T14:12:44+06:00,
1000000000091084,77056123835,mMTS,mKarTel,mKarTel,,D77,2016-02-17T14:13:20+06:00,
1000000000091085,77077101236,mKarTel,mMTS,mMTS,,D01,2016-02-17T14:13:18+06:00,
1000000000091087,77713057115,mMTS,mKarTel,mKarTel,,D77,2016-02-17T14:15:09+06:00,
1000000000091089,77015257637,mAltel,mKcell,mKcell,,D07,2016-02-17T14:15:16+06:00,
1000000000091092,77028766640,mMTS,mKcell,mKcell,,D77,2016-02-17T14:16:52+06:00,
1000000000091093,77713057116,mMTS,mKarTel,mKarTel,,D77,2016-02-17T14:18:23+06:00,
1000000000091095,77774039293,mMTS,mKarTel,mKarTel,,D77,2016-02-17T14:17:37+06:00,
1000000000091096,77055414161,mMTS,mKarTel,mKarTel,,D77,2016-02-17T14:18:37+06:00,
1000000000091099,77021119627,mAltel,mKcell,mKcell,,D07,2016-02-17T14:21:45+06:00,
1000000000091100,77028193379,mMTS,mKcell,mKcell,,D77,2016-02-17T14:21:51+06:00,
1000000000091101,77018557153,mKarTel,mKcell,mKcell,,D01,2016-02-17T14:23:21+06:00,
1000000000091102,77713057124,mMTS,mKarTel,mKarTel,,D77,2016-02-17T14:23:33+06:00,
1000000000091103,77714195760,mKcell,mKarTel,mKarTel,,D02,2016-02-17T14:23:24+06:00,
1000000000091105,77785280299,mAltel,mKcell,mKcell,,D07,2016-02-17T14:24:40+06:00,
1000000000091109,77019679745,mKarTel,mKcell,mKcell,,D01,2016-02-17T14:28:09+06:00,
1000000000091110,77782778070,mMTS,mKcell,mKcell,,D77,2016-02-17T14:26:20+06:00,
1000000000091111,77011144458,mAltel,mKcell,mKcell,,D07,2016-02-17T14:26:50+06:00,
1000000000091113,77789006090,mAltel,mKcell,mKcell,,D07,2016-02-17T14:27:40+06:00,
1000000000091114,77710958653,mMTS,mKarTel,mKarTel,,D77,2016-02-17T14:29:22+06:00,
1000000000091116,77017860000,mKarTel,mKcell,mKcell,,D01,2016-02-17T14:29:16+06:00,
