NPId,Number,RecipientId,DonorId,RangeHolderId,OldRoute,NewRoute,PortDate,RowCount
1000000000270385,77073750100,mKarTel,mMTS,mMTS,,D01,2016-10-30T14:01:51+06:00,16
1000000000270386,77024722722,mAltel,mKcell,mKcell,,D07,2016-10-30T14:04:21+06:00,
1000000000270387,77766116600,mAltel,mKarTel,mKarTel,,D07,2016-10-30T14:06:19+06:00,
1000000000270388,77028338649,mMTS,mKcell,mKcell,,D77,2016-10-30T14:07:42+06:00,
1000000000270389,77715115533,mAltel,mKarTel,mKarTel,,D07,2016-10-30T14:10:13+06:00,
1000000000270390,77758442400,mMTS,mKcell,mKcell,,D77,2016-10-30T14:10:16+06:00,
1000000000270394,77778581474,mMTS,mKarTel,mKarTel,,D77,2016-10-30T14:18:10+06:00,
1000000000270395,77753838373,mKarTel,mKcell,mKcell,,D01,2016-10-30T14:18:19+06:00,
1000000000270396,77055579998,mAltel,mKarTel,mKarTel,,D07,2016-10-30T14:19:23+06:00,
1000000000270397,77001181888,mMTS,mAltel,mAltel,,D77,2016-10-30T14:20:21+06:00,
1000000000270399,77757749796,mMTS,mKcell,mKcell,,D77,2016-10-30T14:23:46+06:00,
1000000000270400,77005505555,mKarTel,mAltel,mAltel,,D01,2016-10-30T14:25:31+06:00,
1000000000270401,77054217760,mAltel,mKarTel,mKarTel,,D07,2016-10-30T14:26:04+06:00,
1000000000270402,77013338908,mAltel,mKcell,mKcell,,D07,2016-10-30T14:27:54+06:00,
1000000000270403,77789075982,mMTS,mKcell,mKcell,,D77,2016-10-30T14:28:37+06:00,
1000000000270404,77759081112,mAltel,mKcell,mKcell,,D07,2016-10-30T14:28:55+06:00,
