NPId,Number,RecipientId,DonorId,RangeHolderId,OldRoute,NewRoute,PortDate,RowCount
1000000000362583,77765792626,mMTS,mKarTel,mKarTel,,D77,2017-04-08T17:31:18+06:00,23
1000000000362586,77089995515,mKcell,mAltel,mAltel,,D02,2017-04-08T17:32:26+06:00,
1000000000362587,77474310298,mKarTel,mMTS,mMTS,,D01,2017-04-08T17:32:25+06:00,
1000000000362589,77767080018,mAltel,mKarTel,mKarTel,,D07,2017-04-08T17:34:09+06:00,
1000000000362590,77751388314,mMTS,mKcell,mKcell,,D77,2017-04-08T17:33:56+06:00,
1000000000362591,77768558887,mMTS,mKarTel,mKarTel,,D77,2017-04-08T17:34:28+06:00,
1000000000362592,77089999811,mKcell,mAltel,mAltel,,D02,2017-04-08T17:36:20+06:00,
1000000000362593,77013521877,mAltel,mKcell,mKcell,,D07,2017-04-08T17:39:52+06:00,
1000000000362595,77012276484,mMTS,mKcell,mKcell,,D77,2017-04-08T17:41:40+06:00,
1000000000362597,77078332412,mMTS,mKarTel,mMTS,D01,D77,2017-04-08T17:44:33+06:00,
1000000000362598,77074466861,mKcell,mMTS,mMTS,D77,D02,2017-04-08T17:44:58+06:00,
1000000000362599,77073532102,mAltel,mMTS,mMTS,,D07,2017-04-08T17:44:46+06:00,
1000000000362600,77083311227,mMTS,mAltel,mAltel,,D77,2017-04-08T17:44:55+06:00,
1000000000362601,77014217676,mMTS,mKcell,mKcell,,D77,2017-04-08T17:45:04+06:00,
1000000000362603,77777457794,mKarTel,mKcell,mKarTel,D02,D01,2017-04-08T17:47:29+06:00,
1000000000362604,77756060821,mKarTel,mKcell,mKcell,,D01,2017-04-08T17:47:45+06:00,
1000000000362605,77478087317,mKcell,mMTS,mMTS,,D02,2017-04-08T17:48:31+06:00,
1000000000362606,77019634323,mAltel,mKcell,mKcell,D02,D07,2017-04-08T17:49:48+06:00,
1000000000362607,77075066277,mMTS,mAltel,mMTS,D07,D77,2017-04-08T17:49:58+06:00,
1000000000362608,77055131252,mMTS,mKarTel,mKarTel,,D77,2017-04-08T17:50:28+06:00,
1000000000362609,77019210191,mMTS,mKcell,mKcell,,D77,2017-04-08T17:51:57+06:00,
1000000000362611,77026655455,mKarTel,mKcell,mKcell,,D01,2017-04-08T17:53:58+06:00,
1000000000362612,77051997171,mKcell,mKarTel,mKarTel,,D02,2017-04-08T17:54:40+06:00,
