NPId,Number,RecipientId,DonorId,RangeHolderId,OldRoute,NewRoute,PortDate,RowCount
1000000000293437,77787303981,mMTS,mKcell,mKcell,,D77,2016-12-11T11:36:15+06:00,7
1000000000293439,77758983893,mMTS,mKcell,mKcell,,D77,2016-12-11T11:50:14+06:00,
1000000000293440,77759376633,mMTS,mKcell,mKcell,,D77,2016-12-11T11:50:59+06:00,
1000000000293441,77028431333,mKcell,mMTS,mKcell,D77,D02,2016-12-11T11:53:43+06:00,
1000000000293442,77015298420,mKarTel,mKcell,mKcell,D02,D01,2016-12-11T11:55:27+06:00,
1000000000293443,77082952002,mMTS,mAltel,mAltel,,D77,2016-12-11T11:57:33+06:00,
1000000000293444,77024589545,mAltel,mKcell,mKcell,,D07,2016-12-11T11:59:57+06:00,
