NPId,Number,RecipientId,DonorId,RangeHolderId,OldRoute,NewRoute,PortDate,RowCount
1000000000417284,77072727451,mKarTel,mMTS,mMTS,,D01,2017-07-05T18:00:25+06:00,19
1000000000417285,77058602926,mMTS,mKarTel,mKarTel,D01,D77,2017-07-05T18:00:44+06:00,
1000000000417287,77082080499,mMTS,mAltel,mAltel,,D77,2017-07-05T18:04:45+06:00,
1000000000417289,77051909090,mKarTel,mMTS,mKarTel,D77,D01,2017-07-05T18:11:07+06:00,
1000000000417290,77005360095,mMTS,mAltel,mAltel,,D77,2017-07-05T18:11:02+06:00,
1000000000417291,77077895368,mKarTel,mMTS,mMTS,,D01,2017-07-05T18:11:27+06:00,
1000000000417293,77471081339,mKarTel,mMTS,mMTS,,D01,2017-07-05T18:12:03+06:00,
1000000000417294,77015258361,mAltel,mKcell,mKcell,,D07,2017-07-05T18:15:02+06:00,
1000000000417296,77478065046,mAltel,mMTS,mMTS,,D07,2017-07-05T18:15:50+06:00,
1000000000417297,77754357727,mMTS,mAltel,mKcell,D07,D77,2017-07-05T18:18:26+06:00,
1000000000417298,77077448181,mMTS,mAltel,mMTS,D07,D77,2017-07-05T18:20:35+06:00,
1000000000417299,77012323035,mAltel,mKarTel,mKcell,D01,D07,2017-07-05T18:21:41+06:00,
1000000000417300,77055037074,mKarTel,mKcell,mKarTel,D02,D01,2017-07-05T18:22:28+06:00,
1000000000417301,77778000736,mMTS,mKarTel,mKarTel,,D77,2017-07-05T18:23:27+06:00,
1000000000417303,77019794131,mMTS,mKcell,mKcell,,D77,2017-07-05T18:24:12+06:00,
1000000000417304,77475441414,mMTS,mAltel,mMTS,D07,D77,2017-07-05T18:24:45+06:00,
1000000000417306,77051147788,mAltel,mMTS,mKarTel,D77,D07,2017-07-05T18:26:13+06:00,
1000000000417307,77013226362,mKarTel,mKcell,mKcell,,D01,2017-07-05T18:26:47+06:00,
1000000000417308,77088187748,mMTS,mAltel,mAltel,,D77,2017-07-05T18:26:50+06:00,
