NPId,Number,RecipientId,DonorId,RangeHolderId,OldRoute,NewRoute,PortDate,RowCount
1000000000198127,77072997661,mKcell,mMTS,mMTS,,D02,2016-06-22T19:30:44+06:00,10
1000000000198128,77021195777,mKcell,mMTS,mKcell,D77,D02,2016-06-22T19:31:27+06:00,
1000000000198129,77026455213,mMTS,mKcell,mKcell,,D77,2016-06-22T19:33:33+06:00,
1000000000198130,77472062414,mKcell,mMTS,mMTS,,D02,2016-06-22T19:34:20+06:00,
1000000000198131,77077044213,mKcell,mMTS,mMTS,,D02,2016-06-22T19:36:17+06:00,
1000000000198133,77012183911,mKarTel,mKcell,mKcell,,D01,2016-06-22T19:39:06+06:00,
1000000000198135,77001391785,mMTS,mAltel,mAltel,,D77,2016-06-22T19:42:09+06:00,
1000000000198137,77025204532,mMTS,mKcell,mKcell,,D77,2016-06-22T19:46:52+06:00,
1000000000198138,77003631610,mMTS,mAltel,mAltel,,D77,2016-06-22T19:52:10+06:00,
1000000000198140,77073500002,mKcell,mMTS,mMTS,,D02,2016-06-22T19:54:59+06:00,
