NPId,Number,RecipientId,DonorId,RangeHolderId,OldRoute,NewRoute,PortDate,RowCount
1000000000299812,77017723951,mKarTel,mKcell,mKcell,,D01,2016-12-24T10:39:07+06:00,11
1000000000299813,77776335159,mAltel,mKarTel,mKarTel,,D07,2016-12-24T10:39:40+06:00,
1000000000299814,77017882780,mAltel,mKcell,mKcell,,D07,2016-12-24T10:43:01+06:00,
1000000000299815,77012105881,mAltel,mKcell,mKcell,,D07,2016-12-24T10:45:50+06:00,
1000000000299816,77085227286,mKcell,mMTS,mAltel,D77,D02,2016-12-24T10:47:56+06:00,
1000000000299817,77017441092,mMTS,mKcell,mKcell,,D77,2016-12-24T10:49:29+06:00,
1000000000299818,77074546601,mAltel,mMTS,mMTS,,D07,2016-12-24T10:52:50+06:00,
1000000000299819,77051119115,mKcell,mKarTel,mKarTel,,D02,2016-12-24T10:55:10+06:00,
1000000000299820,77773398945,mKarTel,mAltel,mKarTel,D07,D01,2016-12-24T10:55:28+06:00,
1000000000299822,77079556633,mAltel,mMTS,mMTS,,D07,2016-12-24T10:58:26+06:00,
1000000000299823,77764660000,mMTS,mKarTel,mKarTel,,D77,2016-12-24T10:59:40+06:00,
