NPId,Number,RecipientId,DonorId,RangeHolderId,OldRoute,NewRoute,PortDate,RowCount
1000000000302850,77017598593,mMTS,mKcell,mKcell,,D77,2016-12-29T16:54:20+06:00,39
1000000000302853,77017598352,mMTS,mKcell,mKcell,,D77,2016-12-29T16:53:45+06:00,
1000000000302856,77017598463,mMTS,mKcell,mKcell,,D77,2016-12-29T16:53:03+06:00,
1000000000302858,77017598693,mMTS,mKcell,mKcell,,D77,2016-12-29T16:52:07+06:00,
1000000000302860,77017598697,mMTS,mKcell,mKcell,,D77,2016-12-29T16:51:32+06:00,
1000000000302861,77017598298,mMTS,mKcell,mKcell,,D77,2016-12-29T16:50:37+06:00,
1000000000302865,77017598657,mMTS,mKcell,mKcell,,D77,2016-12-29T16:48:57+06:00,
1000000000302917,77011112288,mKarTel,mKcell,mKcell,,D01,2016-12-29T16:38:10+06:00,
1000000000302987,77015227634,mKcell,mKarTel,mKcell,D01,D02,2016-12-29T16:31:45+06:00,
1000000000303000,77054762280,mKcell,mKarTel,mKarTel,,D02,2016-12-29T16:31:20+06:00,
1000000000303001,77028568095,mAltel,mKcell,mKcell,,D07,2016-12-29T16:31:21+06:00,
1000000000303003,77010805005,mMTS,mKcell,mKcell,,D77,2016-12-29T16:32:43+06:00,
1000000000303004,77763277774,mMTS,mKarTel,mKarTel,,D77,2016-12-29T16:33:00+06:00,
1000000000303006,77072180907,mKarTel,mMTS,mMTS,,D01,2016-12-29T16:35:28+06:00,
1000000000303007,77479099909,mKcell,mMTS,mMTS,,D02,2016-12-29T16:37:43+06:00,
1000000000303008,77777655561,mMTS,mKarTel,mKarTel,,D77,2016-12-29T16:37:54+06:00,
1000000000303009,77052234273,mKarTel,mKcell,mKarTel,D02,D01,2016-12-29T16:37:59+06:00,
1000000000303010,77713750845,mMTS,mKarTel,mKarTel,,D77,2016-12-29T16:39:08+06:00,
1000000000303011,77052234271,mKarTel,mKcell,mKarTel,D02,D01,2016-12-29T16:39:15+06:00,
1000000000303012,77781709894,mMTS,mKcell,mKcell,,D77,2016-12-29T16:39:32+06:00,
1000000000303014,77052234264,mKarTel,mKcell,mKarTel,D02,D01,2016-12-29T16:42:18+06:00,
1000000000303015,77025600669,mMTS,mKcell,mKcell,,D77,2016-12-29T16:42:03+06:00,
1000000000303018,77052234257,mKarTel,mKcell,mKarTel,D02,D01,2016-12-29T16:43:48+06:00,
1000000000303020,77007990020,mKcell,mAltel,mAltel,D07,D02,2016-12-29T16:48:26+06:00,
1000000000303023,77059940831,mKcell,mKarTel,mKarTel,,D02,2016-12-29T16:50:35+06:00,
1000000000303024,77025274080,mMTS,mKcell,mKcell,,D77,2016-12-29T16:50:33+06:00,
1000000000303026,77783987434,mKcell,mAltel,mKcell,D07,D02,2016-12-29T16:49:12+06:00,
1000000000303027,77012061006,mMTS,mKcell,mKcell,,D77,2016-12-29T16:49:17+06:00,
1000000000303029,77007990030,mKcell,mAltel,mAltel,D07,D02,2016-12-29T16:54:03+06:00,
1000000000303030,77055502020,mMTS,mKarTel,mKarTel,,D77,2016-12-29T16:55:03+06:00,
1000000000303031,77714124274,mMTS,mKarTel,mKarTel,,D77,2016-12-29T16:55:09+06:00,
1000000000303033,77751218337,mMTS,mKcell,mKcell,,D77,2016-12-29T16:55:46+06:00,
1000000000303034,77711916686,mAltel,mKarTel,mKarTel,,D07,2016-12-29T16:56:17+06:00,
1000000000303036,77005554708,mKcell,mAltel,mAltel,,D02,2016-12-29T16:58:30+06:00,
1000000000303037,77781463354,mMTS,mKcell,mKcell,,D77,2016-12-29T16:58:40+06:00,
1000000000303038,77016116008,mKarTel,mKcell,mKcell,,D01,2016-12-29T16:59:05+06:00,
1000000000303039,77087613442,mAltel,mMTS,mAltel,D77,D07,2016-12-29T16:58:56+06:00,
1000000000303040,77713777709,mMTS,mKarTel,mKarTel,,D77,2016-12-29T16:59:31+06:00,
1000000000303041,77017689572,mMTS,mKcell,mKcell,,D77,2016-12-29T16:59:17+06:00,
