NPId,Number,RecipientId,DonorId,RangeHolderId,OldRoute,NewRoute,PortDate,RowCount
1000000000199064,77015579178,mMTS,mKcell,mKcell,,D77,2016-06-24T13:30:15+06:00,26
1000000000199065,77770651460,mKarTel,mMTS,mKarTel,D77,D01,2016-06-24T13:30:39+06:00,
1000000000199066,77059797953,mMTS,mKarTel,mKarTel,,D77,2016-06-24T13:32:28+06:00,
1000000000199068,77000004241,mKcell,mAltel,mAltel,,D02,2016-06-24T13:33:55+06:00,
1000000000199069,77016262675,mKcell,mMTS,mKcell,D77,D02,2016-06-24T13:34:46+06:00,
1000000000199070,77027771207,mKarTel,mKcell,mKcell,,D01,2016-06-24T13:34:24+06:00,
1000000000199071,77751461010,mMTS,mKcell,mKcell,,D77,2016-06-24T13:34:59+06:00,
1000000000199072,77029709973,mKarTel,mKcell,mKcell,,D01,2016-06-24T13:37:24+06:00,
1000000000199075,77776660706,mKcell,mKarTel,mKarTel,,D02,2016-06-24T13:39:31+06:00,
1000000000199077,77789622960,mKcell,mMTS,mKcell,D77,D02,2016-06-24T13:39:32+06:00,
1000000000199079,77014812754,mMTS,mKcell,mKcell,,D77,2016-06-24T13:40:08+06:00,
1000000000199081,77005552240,mMTS,mAltel,mAltel,,D77,2016-06-24T13:40:57+06:00,
1000000000199082,77474923721,mKcell,mMTS,mMTS,,D02,2016-06-24T13:44:10+06:00,
1000000000199084,77474924094,mKcell,mMTS,mMTS,,D02,2016-06-24T13:45:31+06:00,
1000000000199085,77474925613,mKcell,mMTS,mMTS,,D02,2016-06-24T13:46:40+06:00,
1000000000199086,77003630441,mKcell,mAltel,mAltel,,D02,2016-06-24T13:47:07+06:00,
1000000000199087,77051873164,mMTS,mKarTel,mKarTel,,D77,2016-06-24T13:46:55+06:00,
1000000000199088,77010528585,mMTS,mAltel,mKcell,D07,D77,2016-06-24T13:46:43+06:00,
1000000000199089,77477168827,mMTS,mAltel,mMTS,D07,D77,2016-06-24T13:47:05+06:00,
1000000000199090,77016052737,mKcell,mAltel,mKcell,D07,D02,2016-06-24T13:48:41+06:00,
1000000000199091,77029375377,mMTS,mKcell,mKcell,,D77,2016-06-24T13:51:44+06:00,
1000000000199092,77077168827,mMTS,mAltel,mMTS,D07,D77,2016-06-24T13:49:09+06:00,
1000000000199095,77017514284,mKarTel,mKcell,mKcell,,D01,2016-06-24T13:53:16+06:00,
1000000000199096,77719999314,mKcell,mMTS,mKarTel,D77,D02,2016-06-24T13:53:54+06:00,
1000000000199097,77473301103,mKcell,mMTS,mMTS,,D02,2016-06-24T13:55:28+06:00,
1000000000199099,77088289929,mMTS,mAltel,mAltel,,D77,2016-06-24T13:59:21+06:00,
