NPId,Number,RecipientId,DonorId,RangeHolderId,OldRoute,NewRoute,PortDate,RowCount
1000000000214551,77081066568,mKarTel,mMTS,mAltel,D77,D01,2016-07-21T09:02:28+06:00,3
1000000000214552,77058450003,mMTS,mKarTel,mKarTel,,D77,2016-07-21T09:24:43+06:00,
1000000000214553,77051766012,mMTS,mKarTel,mKarTel,,D77,2016-07-21T09:29:56+06:00,
