NPId,Number,RecipientId,DonorId,RangeHolderId,OldRoute,NewRoute,PortDate,RowCount
1000000000358555,77013357337,mKcell,mAltel,mKcell,D07,D02,2017-04-03T13:30:54+06:00,47
1000000000358556,77021077774,mKcell,mAltel,mKcell,D07,D02,2017-04-03T13:31:16+06:00,
1000000000358557,77017107788,mKcell,mMTS,mKcell,D77,D02,2017-04-03T13:31:28+06:00,
1000000000358559,77018882281,mMTS,mKcell,mKcell,,D77,2017-04-03T13:32:05+06:00,
1000000000358560,77057491502,mKcell,mKarTel,mKarTel,,D02,2017-04-03T13:33:09+06:00,
1000000000358561,77028588818,mMTS,mKcell,mKcell,,D77,2017-04-03T13:33:11+06:00,
1000000000358562,77013040304,mKcell,mAltel,mKcell,D07,D02,2017-04-03T13:33:27+06:00,
1000000000358563,77076109415,mKarTel,mMTS,mMTS,,D01,2017-04-03T13:33:30+06:00,
1000000000358564,77018833616,mAltel,mKcell,mKcell,,D07,2017-04-03T13:34:26+06:00,
1000000000358565,77015222922,mMTS,mKcell,mKcell,,D77,2017-04-03T13:34:31+06:00,
1000000000358566,77012339939,mKcell,mMTS,mKcell,D77,D02,2017-04-03T13:35:54+06:00,
1000000000358567,77086737324,mKarTel,mAltel,mAltel,,D01,2017-04-03T13:36:19+06:00,
1000000000358568,77015311219,mMTS,mKcell,mKcell,,D77,2017-04-03T13:36:30+06:00,
1000000000358569,77072296190,mAltel,mKcell,mMTS,D02,D07,2017-04-03T13:37:01+06:00,
1000000000358570,77022512000,mKarTel,mKcell,mKcell,,D01,2017-04-03T13:39:07+06:00,
1000000000358571,77772306999,mKarTel,mMTS,mKarTel,D77,D01,2017-04-03T13:39:24+06:00,
1000000000358572,77775371173,mMTS,mKarTel,mKarTel,,D77,2017-04-03T13:39:59+06:00,
1000000000358573,77017107805,mAltel,mKcell,mKcell,,D07,2017-04-03T13:40:04+06:00,
1000000000358575,77771171811,mMTS,mKarTel,mKarTel,,D77,2017-04-03T13:40:41+06:00,
1000000000358577,77771593006,mAltel,mKarTel,mKarTel,,D07,2017-04-03T13:45:49+06:00,
1000000000358578,77019442429,mKcell,mMTS,mKcell,D77,D02,2017-04-03T13:46:03+06:00,
1000000000358579,77711930855,mKarTel,mMTS,mKarTel,D77,D01,2017-04-03T13:46:16+06:00,
1000000000358580,77477888889,mKarTel,mMTS,mMTS,,D01,2017-04-03T13:46:40+06:00,
1000000000358581,77076283855,mKarTel,mMTS,mMTS,,D01,2017-04-03T13:47:16+06:00,
1000000000358582,77717790971,mKarTel,mMTS,mKarTel,D77,D01,2017-04-03T13:47:41+06:00,
1000000000358583,77017855030,mKarTel,mKcell,mKcell,,D01,2017-04-03T13:47:52+06:00,
1000000000358584,77019610151,mKarTel,mKcell,mKcell,,D01,2017-04-03T13:47:54+06:00,
1000000000358585,77019977311,mMTS,mKcell,mKcell,,D77,2017-04-03T13:47:49+06:00,
1000000000358586,77479261157,mAltel,mMTS,mMTS,,D07,2017-04-03T13:48:37+06:00,
1000000000358587,77772370088,mKcell,mKarTel,mKarTel,,D02,2017-04-03T13:50:08+06:00,
1000000000358588,77089869932,mKarTel,mAltel,mAltel,,D01,2017-04-03T13:50:01+06:00,
1000000000358589,77028778882,mMTS,mKcell,mKcell,,D77,2017-04-03T13:50:58+06:00,
1000000000358590,77078408084,mKcell,mAltel,mMTS,D07,D02,2017-04-03T13:51:21+06:00,
1000000000358591,77012429201,mMTS,mKcell,mKcell,,D77,2017-04-03T13:51:29+06:00,
1000000000358592,77755357323,mKcell,mAltel,mKcell,D07,D02,2017-04-03T13:51:47+06:00,
1000000000358593,77755307176,mKcell,mMTS,mKcell,D77,D02,2017-04-03T13:51:50+06:00,
1000000000358594,77019996040,mAltel,mKcell,mKcell,,D07,2017-04-03T13:51:46+06:00,
1000000000358595,77778892323,mKarTel,mMTS,mKarTel,D77,D01,2017-04-03T13:52:19+06:00,
1000000000358596,77085298744,mKarTel,mKcell,mAltel,D02,D01,2017-04-03T13:54:00+06:00,
1000000000358597,77055840511,mAltel,mKarTel,mKarTel,,D07,2017-04-03T13:54:16+06:00,
1000000000358598,77757577727,mKcell,mMTS,mKcell,D77,D02,2017-04-03T13:54:25+06:00,
1000000000358599,77075526299,mKarTel,mMTS,mMTS,,D01,2017-04-03T13:55:16+06:00,
1000000000358600,77775610548,mKcell,mKarTel,mKarTel,,D02,2017-04-03T13:56:26+06:00,
1000000000358602,77017239995,mMTS,mKarTel,mKcell,D01,D77,2017-04-03T13:58:11+06:00,
1000000000358603,77023688040,mKcell,mAltel,mKcell,D07,D02,2017-04-03T13:58:14+06:00,
1000000000358604,77004209290,mMTS,mAltel,mAltel,,D77,2017-04-03T13:58:27+06:00,
1000000000358605,77017270404,mKarTel,mKcell,mKcell,,D01,2017-04-03T13:59:24+06:00,
