NPId,Number,RecipientId,DonorId,RangeHolderId,OldRoute,NewRoute,PortDate,RowCount
1000000000310931,77056620183,mMTS,mKarTel,mKarTel,,D77,2017-01-15T14:06:06+06:00,6
1000000000310932,77000995000,mKarTel,mAltel,mAltel,,D01,2017-01-15T14:10:17+06:00,
1000000000310933,77016209423,mMTS,mKcell,mKcell,,D77,2017-01-15T14:10:23+06:00,
1000000000310935,77018480400,mMTS,mKcell,mKcell,,D77,2017-01-15T14:15:39+06:00,
1000000000310936,77477050165,mAltel,mKarTel,mMTS,D01,D07,2017-01-15T14:18:00+06:00,
1000000000310937,77077210683,mKcell,mMTS,mMTS,,D02,2017-01-15T14:25:05+06:00,
