NPId,Number,RecipientId,DonorId,RangeHolderId,OldRoute,NewRoute,PortDate,RowCount
1000000000218818,77052121630,mKcell,mKarTel,mKarTel,,D02,2016-07-29T16:43:45+06:00,29
1000000000219437,77777471914,mKcell,mKarTel,mKarTel,,D02,2016-07-29T16:59:36+06:00,
1000000000219472,77052706000,mKarTel,mMTS,mKarTel,D77,D01,2016-07-29T16:30:33+06:00,
1000000000219473,77002729425,mAltel,mMTS,mAltel,D77,D07,2016-07-29T16:30:18+06:00,
1000000000219474,77764028886,mKcell,mKarTel,mKarTel,,D02,2016-07-29T16:34:09+06:00,
1000000000219476,77011726969,mKcell,mMTS,mKcell,D77,D02,2016-07-29T16:34:46+06:00,
1000000000219477,77784167008,mMTS,mKcell,mKcell,,D77,2016-07-29T16:34:45+06:00,
1000000000219479,77072109198,mKarTel,mMTS,mMTS,,D01,2016-07-29T16:36:51+06:00,
1000000000219481,77751755370,mMTS,mKcell,mKcell,,D77,2016-07-29T16:36:56+06:00,
1000000000219482,77023038584,mMTS,mKcell,mKcell,,D77,2016-07-29T16:36:58+06:00,
1000000000219485,77715485226,mMTS,mKarTel,mKarTel,,D77,2016-07-29T16:43:33+06:00,
1000000000219486,77785220330,mKcell,mAltel,mKcell,D07,D02,2016-07-29T16:43:54+06:00,
1000000000219487,77015712051,mKarTel,mKcell,mKcell,,D01,2016-07-29T16:44:43+06:00,
1000000000219488,77756030078,mKarTel,mKcell,mKcell,,D01,2016-07-29T16:46:19+06:00,
1000000000219490,77011978118,mKarTel,mKcell,mKcell,,D01,2016-07-29T16:48:42+06:00,
1000000000219491,77013913789,mMTS,mKcell,mKcell,,D77,2016-07-29T16:48:13+06:00,
1000000000219492,77772148607,mMTS,mKarTel,mKarTel,,D77,2016-07-29T16:50:40+06:00,
1000000000219493,77752515590,mMTS,mKcell,mKcell,,D77,2016-07-29T16:49:38+06:00,
1000000000219494,77017403983,mKarTel,mKcell,mKcell,,D01,2016-07-29T16:51:01+06:00,
1000000000219496,77018488824,mKarTel,mKcell,mKcell,,D01,2016-07-29T16:52:46+06:00,
1000000000219497,77774788098,mMTS,mKarTel,mKarTel,,D77,2016-07-29T16:53:35+06:00,
1000000000219499,77075147545,mKarTel,mMTS,mMTS,,D01,2016-07-29T16:54:20+06:00,
1000000000219500,77786900770,mMTS,mKcell,mKcell,,D77,2016-07-29T16:53:45+06:00,
1000000000219501,77017394541,mAltel,mKcell,mKcell,,D07,2016-07-29T16:54:20+06:00,
1000000000219504,77011411611,mMTS,mKcell,mKcell,,D77,2016-07-29T16:56:37+06:00,
1000000000219505,77057251487,mMTS,mKarTel,mKarTel,,D77,2016-07-29T16:58:56+06:00,
1000000000219506,77710449191,mMTS,mKarTel,mKarTel,,D77,2016-07-29T16:59:22+06:00,
1000000000219508,77751651621,mMTS,mKcell,mKcell,,D77,2016-07-29T16:59:41+06:00,
1000000000219509,77782444224,mMTS,mAltel,mKcell,D07,D77,2016-07-29T16:59:46+06:00,
