NPId,Number,RecipientId,DonorId,RangeHolderId,OldRoute,NewRoute,PortDate,RowCount
1000000000213295,77022121982,mKcell,mMTS,mKcell,D77,D02,2016-07-18T20:34:52+06:00,8
1000000000213296,77009901177,mKcell,mAltel,mAltel,,D02,2016-07-18T20:37:23+06:00,
1000000000213298,77011107011,mKcell,mMTS,mKcell,D77,D02,2016-07-18T20:37:24+06:00,
1000000000213299,77003940039,mKcell,mAltel,mAltel,,D02,2016-07-18T20:37:25+06:00,
1000000000213300,77011641389,mKcell,mMTS,mKcell,D77,D02,2016-07-18T20:37:25+06:00,
1000000000213301,77009174914,mKcell,mAltel,mAltel,,D02,2016-07-18T20:37:25+06:00,
1000000000213302,77715597489,mKcell,mMTS,mKarTel,D77,D02,2016-07-18T20:38:55+06:00,
1000000000213305,77771847719,mKarTel,mAltel,mKarTel,D07,D01,2016-07-18T20:59:59+06:00,
