NPId,Number,RecipientId,DonorId,RangeHolderId,OldRoute,NewRoute,PortDate,RowCount
1000000000129383,77016189000,mAltel,mKcell,mKcell,,D07,2016-03-19T16:00:32+06:00,35
1000000000129384,77024459919,mMTS,mKcell,mKcell,,D77,2016-03-19T16:00:31+06:00,
1000000000129385,77017700857,mKarTel,mKcell,mKcell,,D01,2016-03-19T16:01:36+06:00,
1000000000129386,77770171725,mKcell,mKarTel,mKarTel,,D02,2016-03-19T16:02:46+06:00,
1000000000129387,77082004114,mMTS,mAltel,mAltel,,D77,2016-03-19T16:01:26+06:00,
1000000000129388,77055188787,mKcell,mKarTel,mKarTel,,D02,2016-03-19T16:03:39+06:00,
1000000000129389,77015017202,mKcell,mAltel,mKcell,D07,D02,2016-03-19T16:02:57+06:00,
1000000000129390,77024111648,mMTS,mKcell,mKcell,,D77,2016-03-19T16:05:33+06:00,
1000000000129391,77089152934,mMTS,mAltel,mAltel,,D77,2016-03-19T16:06:46+06:00,
1000000000129392,77077000299,mKcell,mMTS,mMTS,,D02,2016-03-19T16:08:34+06:00,
1000000000129393,77058911345,mMTS,mKarTel,mKarTel,,D77,2016-03-19T16:10:15+06:00,
1000000000129394,77025513661,mMTS,mKcell,mKcell,,D77,2016-03-19T16:09:15+06:00,
1000000000129396,77016841701,mMTS,mKcell,mKcell,,D77,2016-03-19T16:12:04+06:00,
1000000000129397,77012148070,mMTS,mKcell,mKcell,,D77,2016-03-19T16:12:12+06:00,
1000000000129400,77775567773,mMTS,mKarTel,mKarTel,,D77,2016-03-19T16:15:37+06:00,
1000000000129402,77715757902,mKcell,mKarTel,mKarTel,,D02,2016-03-19T16:16:51+06:00,
1000000000129404,77017709865,mKarTel,mKcell,mKcell,,D01,2016-03-19T16:17:07+06:00,
1000000000129406,77770316576,mKcell,mKarTel,mKarTel,,D02,2016-03-19T16:18:24+06:00,
1000000000129407,77056576147,mKcell,mAltel,mKarTel,D07,D02,2016-03-19T16:17:26+06:00,
1000000000129410,77058187474,mKcell,mKarTel,mKarTel,,D02,2016-03-19T16:19:56+06:00,
1000000000129411,77752548993,mMTS,mKcell,mKcell,,D77,2016-03-19T16:20:03+06:00,
1000000000129412,77082231645,mKarTel,mAltel,mAltel,,D01,2016-03-19T16:20:22+06:00,
1000000000129414,77778586752,mMTS,mKarTel,mKarTel,,D77,2016-03-19T16:21:31+06:00,
1000000000129415,77778379995,mMTS,mKarTel,mKarTel,,D77,2016-03-19T16:21:55+06:00,
1000000000129417,77770316568,mKcell,mKarTel,mKarTel,,D02,2016-03-19T16:23:31+06:00,
1000000000129418,77072013111,mAltel,mMTS,mMTS,,D07,2016-03-19T16:22:20+06:00,
1000000000129419,77082231643,mKarTel,mAltel,mAltel,,D01,2016-03-19T16:23:07+06:00,
1000000000129420,77011292872,mMTS,mKcell,mKcell,,D77,2016-03-19T16:23:28+06:00,
1000000000129421,77770316567,mKcell,mKarTel,mKarTel,,D02,2016-03-19T16:25:04+06:00,
1000000000129423,77082231644,mKarTel,mAltel,mAltel,,D01,2016-03-19T16:24:21+06:00,
1000000000129424,77071118110,mKcell,mMTS,mMTS,,D02,2016-03-19T16:25:05+06:00,
1000000000129426,77770316557,mKcell,mKarTel,mKarTel,,D02,2016-03-19T16:27:19+06:00,
1000000000129429,77015265850,mKarTel,mKcell,mKcell,,D01,2016-03-19T16:26:22+06:00,
1000000000129430,77776919778,mMTS,mKarTel,mKarTel,,D77,2016-03-19T16:27:11+06:00,
1000000000129434,77472224072,mAltel,mMTS,mMTS,,D07,2016-03-19T16:28:00+06:00,
