NPId,Number,RecipientId,DonorId,RangeHolderId,OldRoute,NewRoute,PortDate,RowCount
1000000000236428,77785556216,mKarTel,mKcell,mKcell,,D01,2016-08-30T12:00:55+06:00,27
1000000000236429,77077871297,mMTS,mKcell,mMTS,D02,D77,2016-08-30T12:01:26+06:00,
1000000000236430,77013288005,mAltel,mKcell,mKcell,,D07,2016-08-30T12:03:51+06:00,
1000000000236431,77471151716,mMTS,mKarTel,mMTS,D01,D77,2016-08-30T12:04:43+06:00,
1000000000236432,77772357077,mKcell,mKarTel,mKarTel,,D02,2016-08-30T12:05:43+06:00,
1000000000236435,77764288787,mAltel,mKarTel,mKarTel,,D07,2016-08-30T12:10:35+06:00,
1000000000236436,77029378638,mMTS,mKcell,mKcell,,D77,2016-08-30T12:10:24+06:00,
1000000000236437,77026954139,mKarTel,mKcell,mKcell,,D01,2016-08-30T12:10:59+06:00,
1000000000236438,77082600818,mMTS,mAltel,mAltel,,D77,2016-08-30T12:10:57+06:00,
1000000000236439,77027307076,mMTS,mAltel,mKcell,D07,D77,2016-08-30T12:11:08+06:00,
1000000000236440,77071028616,mAltel,mMTS,mMTS,,D07,2016-08-30T12:12:02+06:00,
1000000000236442,77011010133,mKarTel,mKcell,mKcell,,D01,2016-08-30T12:13:52+06:00,
1000000000236443,77779999621,mKcell,mKarTel,mKarTel,,D02,2016-08-30T12:15:44+06:00,
1000000000236446,77057106159,mMTS,mKarTel,mKarTel,,D77,2016-08-30T12:17:52+06:00,
1000000000236447,77755288426,mMTS,mKcell,mKcell,,D77,2016-08-30T12:17:29+06:00,
1000000000236448,77776297406,mMTS,mKarTel,mKarTel,,D77,2016-08-30T12:18:43+06:00,
1000000000236449,77082376002,mMTS,mAltel,mAltel,,D77,2016-08-30T12:19:41+06:00,
1000000000236450,77051798548,mMTS,mKarTel,mKarTel,,D77,2016-08-30T12:21:41+06:00,
1000000000236451,77051490949,mMTS,mKcell,mKarTel,D02,D77,2016-08-30T12:22:30+06:00,
1000000000236453,77081012313,mMTS,mAltel,mAltel,,D77,2016-08-30T12:22:59+06:00,
1000000000236454,77026224322,mMTS,mKcell,mKcell,,D77,2016-08-30T12:25:16+06:00,
1000000000236456,77017104344,mAltel,mKcell,mKcell,,D07,2016-08-30T12:26:36+06:00,
1000000000236457,77079778908,mKcell,mMTS,mMTS,,D02,2016-08-30T12:27:15+06:00,
1000000000236458,77778230497,mKarTel,mMTS,mKarTel,D77,D01,2016-08-30T12:28:02+06:00,
1000000000236459,77017144400,mAltel,mKcell,mKcell,,D07,2016-08-30T12:28:54+06:00,
1000000000236460,77762994813,mAltel,mKarTel,mKarTel,,D07,2016-08-30T12:29:23+06:00,
1000000000236462,77012550664,mMTS,mKcell,mKcell,,D77,2016-08-30T12:29:55+06:00,
