NPId,Number,RecipientId,DonorId,RangeHolderId,OldRoute,NewRoute,PortDate,RowCount
1000000000166097,77710406260,mKcell,mKarTel,mKarTel,,D02,2016-05-03T17:27:34+06:00,54
1000000000166097,77710406261,mKcell,mKarTel,mKarTel,,D02,2016-05-03T17:27:34+06:00,
1000000000166097,77710406264,mKcell,mKarTel,mKarTel,,D02,2016-05-03T17:27:34+06:00,
1000000000166097,77710406265,mKcell,mKarTel,mKarTel,,D02,2016-05-03T17:27:34+06:00,
1000000000166097,77710406268,mKcell,mKarTel,mKarTel,,D02,2016-05-03T17:27:34+06:00,
1000000000166097,77710406269,mKcell,mKarTel,mKarTel,,D02,2016-05-03T17:27:34+06:00,
1000000000166097,77710406270,mKcell,mKarTel,mKarTel,,D02,2016-05-03T17:27:34+06:00,
1000000000166549,77022189139,mMTS,mKcell,mKcell,,D77,2016-05-03T17:00:56+06:00,
1000000000166550,77711921192,mKarTel,mAltel,mKarTel,D07,D01,2016-05-03T17:01:35+06:00,
1000000000166551,77078022802,mMTS,mAltel,mMTS,D07,D77,2016-05-03T17:01:23+06:00,
1000000000166552,77476188887,mKcell,mMTS,mMTS,,D02,2016-05-03T17:02:17+06:00,
1000000000166553,77715053002,mKarTel,mAltel,mKarTel,D07,D01,2016-05-03T17:02:09+06:00,
1000000000166554,77077367811,mMTS,mAltel,mMTS,D07,D77,2016-05-03T17:02:15+06:00,
1000000000166555,77757745566,mMTS,mKcell,mKcell,,D77,2016-05-03T17:03:27+06:00,
1000000000166556,77010140472,mMTS,mKcell,mKcell,,D77,2016-05-03T17:03:30+06:00,
1000000000166557,77476341462,mKcell,mMTS,mMTS,,D02,2016-05-03T17:04:59+06:00,
1000000000166558,77012335807,mKarTel,mKcell,mKcell,,D01,2016-05-03T17:05:28+06:00,
1000000000166559,77022222555,mMTS,mKcell,mKcell,,D77,2016-05-03T17:05:16+06:00,
1000000000166561,77023272102,mMTS,mKcell,mKcell,,D77,2016-05-03T17:05:18+06:00,
1000000000166562,77028814460,mMTS,mKcell,mKcell,,D77,2016-05-03T17:05:18+06:00,
1000000000166564,77017721703,mKarTel,mKcell,mKcell,,D01,2016-05-03T17:06:12+06:00,
1000000000166565,77778558880,mKcell,mKarTel,mKarTel,,D02,2016-05-03T17:06:06+06:00,
1000000000166568,77021163300,mMTS,mKcell,mKcell,,D77,2016-05-03T17:07:08+06:00,
1000000000166570,77755016350,mKcell,mKarTel,mKcell,D01,D02,2016-05-03T17:08:38+06:00,
1000000000166571,77711451467,mMTS,mKarTel,mKarTel,,D77,2016-05-03T17:07:42+06:00,
1000000000166572,77771153137,mKarTel,mAltel,mKarTel,D07,D01,2016-05-03T17:08:40+06:00,
1000000000166573,77010146037,mMTS,mKcell,mKcell,,D77,2016-05-03T17:09:26+06:00,
1000000000166575,77017396877,mAltel,mKcell,mKcell,,D07,2016-05-03T17:10:08+06:00,
1000000000166576,77751664070,mMTS,mKcell,mKcell,,D77,2016-05-03T17:10:45+06:00,
1000000000166577,77776774436,mKarTel,mMTS,mKarTel,D77,D01,2016-05-03T17:11:03+06:00,
1000000000166578,77018718041,mMTS,mKcell,mKcell,,D77,2016-05-03T17:11:19+06:00,
1000000000166580,77005777490,mMTS,mAltel,mAltel,,D77,2016-05-03T17:11:51+06:00,
1000000000166581,77027132243,mMTS,mKcell,mKcell,,D77,2016-05-03T17:12:34+06:00,
1000000000166582,77774582032,mAltel,mKarTel,mKarTel,,D07,2016-05-03T17:12:51+06:00,
1000000000166583,77021249292,mKcell,mMTS,mKcell,D77,D02,2016-05-03T17:13:01+06:00,
1000000000166584,77086095678,mMTS,mAltel,mAltel,,D77,2016-05-03T17:12:45+06:00,
1000000000166585,77015131785,mKcell,mMTS,mKcell,D77,D02,2016-05-03T17:13:50+06:00,
1000000000166586,77075222018,mKarTel,mMTS,mMTS,,D01,2016-05-03T17:13:23+06:00,
1000000000166587,77015372880,mKarTel,mKcell,mKcell,,D01,2016-05-03T17:15:48+06:00,
1000000000166589,77003338373,mKcell,mAltel,mAltel,,D02,2016-05-03T17:16:53+06:00,
1000000000166591,77762488811,mMTS,mKarTel,mKarTel,,D77,2016-05-03T17:17:01+06:00,
1000000000166592,77756648811,mMTS,mAltel,mKcell,D07,D77,2016-05-03T17:16:42+06:00,
1000000000166593,77773025117,mKcell,mKarTel,mKarTel,,D02,2016-05-03T17:17:40+06:00,
1000000000166594,77785149982,mKarTel,mKcell,mKcell,,D01,2016-05-03T17:17:35+06:00,
1000000000166595,77019408984,mKarTel,mKcell,mKcell,,D01,2016-05-03T17:17:58+06:00,
1000000000166597,77770222777,mMTS,mKarTel,mKarTel,,D77,2016-05-03T17:20:30+06:00,
1000000000166598,77770999001,mMTS,mKarTel,mKarTel,,D77,2016-05-03T17:21:54+06:00,
1000000000166599,77778268182,mMTS,mKarTel,mKarTel,,D77,2016-05-03T17:22:22+06:00,
1000000000166600,77053320605,mMTS,mKarTel,mKarTel,,D77,2016-05-03T17:22:24+06:00,
1000000000166602,77771419774,mMTS,mKarTel,mKarTel,,D77,2016-05-03T17:25:19+06:00,
1000000000166603,77029228806,mAltel,mKcell,mKcell,,D07,2016-05-03T17:25:56+06:00,
1000000000166605,77018880993,mKcell,mAltel,mKcell,D07,D02,2016-05-03T17:27:35+06:00,
1000000000166606,77081148146,mKcell,mAltel,mAltel,,D02,2016-05-03T17:28:23+06:00,
1000000000166607,77472551111,mKcell,mMTS,mMTS,,D02,2016-05-03T17:28:24+06:00,
