NPId,Number,RecipientId,DonorId,RangeHolderId,OldRoute,NewRoute,PortDate,RowCount
1000000000436495,77087593387,mAltel,mMTS,mAltel,D77,D07,2017-08-08T09:30:43+06:00,11
1000000000436496,77025000085,mMTS,mAltel,mKcell,D07,D77,2017-08-08T09:31:02+06:00,
1000000000436499,77004014051,mKarTel,mAltel,mAltel,,D01,2017-08-08T09:43:04+06:00,
1000000000436500,77789307813,mMTS,mKcell,mKcell,,D77,2017-08-08T09:43:17+06:00,
1000000000436502,77073888694,mKarTel,mMTS,mMTS,,D01,2017-08-08T09:44:54+06:00,
1000000000436503,77015121077,mMTS,mKcell,mKcell,,D77,2017-08-08T09:44:53+06:00,
1000000000436505,77056648314,mKarTel,mAltel,mKarTel,D07,D01,2017-08-08T09:53:32+06:00,
1000000000436506,77019210856,mKcell,mKarTel,mKcell,D01,D02,2017-08-08T09:55:17+06:00,
1000000000436508,77786374916,mMTS,mKcell,mKcell,,D77,2017-08-08T09:57:52+06:00,
1000000000436509,77028728114,mMTS,mKcell,mKcell,,D77,2017-08-08T09:58:16+06:00,
1000000000436510,77018008106,mKarTel,mKcell,mKcell,,D01,2017-08-08T09:58:45+06:00,
