NPId,Number,RecipientId,DonorId,RangeHolderId,OldRoute,NewRoute,PortDate,RowCount
1000000000274459,77015353894,mMTS,mKcell,mKcell,,D77,2016-11-05T12:30:23+06:00,22
1000000000274460,77019733877,mMTS,mKcell,mKcell,,D77,2016-11-05T12:30:54+06:00,
1000000000274461,77079359359,mMTS,mKarTel,mMTS,D01,D77,2016-11-05T12:33:51+06:00,
1000000000274462,77075606688,mKcell,mMTS,mMTS,,D02,2016-11-05T12:34:46+06:00,
1000000000274463,77051631451,mMTS,mKarTel,mKarTel,,D77,2016-11-05T12:36:13+06:00,
1000000000274464,77719073232,mMTS,mKarTel,mKarTel,,D77,2016-11-05T12:37:27+06:00,
1000000000274465,77011120146,mKarTel,mKcell,mKcell,,D01,2016-11-05T12:37:43+06:00,
1000000000274466,77015131115,mMTS,mKcell,mKcell,,D77,2016-11-05T12:39:00+06:00,
1000000000274468,77028883543,mAltel,mKcell,mKcell,,D07,2016-11-05T12:42:26+06:00,
1000000000274469,77016499061,mAltel,mKcell,mKcell,,D07,2016-11-05T12:43:47+06:00,
1000000000274470,77013141123,mMTS,mKcell,mKcell,,D77,2016-11-05T12:44:11+06:00,
1000000000274471,77052560357,mKcell,mKarTel,mKarTel,,D02,2016-11-05T12:46:49+06:00,
1000000000274472,77025588990,mMTS,mKcell,mKcell,,D77,2016-11-05T12:47:41+06:00,
1000000000274474,77472499572,mKcell,mMTS,mMTS,,D02,2016-11-05T12:48:44+06:00,
1000000000274475,77022937070,mKcell,mMTS,mKcell,D77,D02,2016-11-05T12:49:33+06:00,
1000000000274477,77011221322,mMTS,mKcell,mKcell,,D77,2016-11-05T12:49:46+06:00,
1000000000274478,77023385982,mAltel,mKcell,mKcell,,D07,2016-11-05T12:54:44+06:00,
1000000000274479,77051403531,mMTS,mKarTel,mKarTel,,D77,2016-11-05T12:52:49+06:00,
1000000000274483,77017220852,mKcell,mKarTel,mKcell,D01,D02,2016-11-05T12:58:09+06:00,
1000000000274485,77773694667,mMTS,mKarTel,mKarTel,,D77,2016-11-05T12:57:50+06:00,
1000000000274486,77477770101,mMTS,mKcell,mMTS,D02,D77,2016-11-05T12:58:27+06:00,
1000000000274487,77024333535,mKcell,mMTS,mKcell,D77,D02,2016-11-05T12:58:30+06:00,
