NPId,Number,RecipientId,DonorId,RangeHolderId,OldRoute,NewRoute,PortDate,RowCount
1000000000258188,77776760940,mMTS,mKarTel,mKarTel,,D77,2016-10-06T19:00:30+06:00,25
1000000000258192,77074505053,mKcell,mMTS,mMTS,,D02,2016-10-06T19:02:39+06:00,
1000000000258193,77079092007,mAltel,mMTS,mMTS,,D07,2016-10-06T19:03:26+06:00,
1000000000258194,77772866613,mKarTel,mMTS,mKarTel,D77,D01,2016-10-06T19:05:28+06:00,
1000000000258195,77005552510,mKcell,mAltel,mAltel,,D02,2016-10-06T19:04:23+06:00,
1000000000258197,77005554510,mKcell,mAltel,mAltel,,D02,2016-10-06T19:06:07+06:00,
1000000000258198,77005557510,mKcell,mAltel,mAltel,,D02,2016-10-06T19:07:01+06:00,
1000000000258200,77021151375,mMTS,mKcell,mKcell,,D77,2016-10-06T19:07:37+06:00,
1000000000258201,77081000370,mMTS,mAltel,mAltel,,D77,2016-10-06T19:07:29+06:00,
1000000000258204,77025899201,mKarTel,mKcell,mKcell,,D01,2016-10-06T19:11:46+06:00,
1000000000258205,77052277555,mKarTel,mMTS,mKarTel,D77,D01,2016-10-06T19:11:46+06:00,
1000000000258207,77005553510,mKcell,mAltel,mAltel,,D02,2016-10-06T19:11:41+06:00,
1000000000258208,77023224482,mMTS,mKcell,mKcell,,D77,2016-10-06T19:12:21+06:00,
1000000000258209,77053114726,mKcell,mKarTel,mKarTel,,D02,2016-10-06T19:18:47+06:00,
1000000000258212,77015913481,mMTS,mKcell,mKcell,,D77,2016-10-06T19:14:17+06:00,
1000000000258213,77005553580,mKcell,mAltel,mAltel,,D02,2016-10-06T19:15:14+06:00,
1000000000258216,77774606434,mMTS,mKarTel,mKarTel,,D77,2016-10-06T19:27:20+06:00,
1000000000258217,77007779740,mKcell,mAltel,mAltel,,D02,2016-10-06T19:23:30+06:00,
1000000000258218,77007779730,mKcell,mAltel,mAltel,,D02,2016-10-06T19:25:03+06:00,
1000000000258219,77007779720,mKcell,mAltel,mAltel,,D02,2016-10-06T19:25:34+06:00,
1000000000258221,77089076790,mMTS,mAltel,mAltel,,D77,2016-10-06T19:27:30+06:00,
1000000000258222,77074900049,mMTS,mKcell,mMTS,D02,D77,2016-10-06T19:27:34+06:00,
1000000000258223,77007776790,mKcell,mAltel,mAltel,,D02,2016-10-06T19:27:41+06:00,
1000000000258224,77007775720,mKcell,mAltel,mAltel,,D02,2016-10-06T19:28:09+06:00,
1000000000258225,77007779780,mKcell,mAltel,mAltel,,D02,2016-10-06T19:29:34+06:00,
