NPId,Number,RecipientId,DonorId,RangeHolderId,OldRoute,NewRoute,PortDate,RowCount
1000000000385464,77000270000,mKcell,mAltel,mAltel,,D02,2017-05-18T19:32:38+06:00,5
1000000000385465,77000280000,mKcell,mAltel,mAltel,,D02,2017-05-18T19:36:42+06:00,
1000000000385468,77015934783,mAltel,mKcell,mKcell,,D07,2017-05-18T19:44:51+06:00,
1000000000385473,77756933551,mKcell,mKarTel,mKcell,D01,D02,2017-05-18T19:55:32+06:00,
1000000000385474,77022576023,mKarTel,mKcell,mKcell,,D01,2017-05-18T19:55:57+06:00,
