NPId,Number,RecipientId,DonorId,RangeHolderId,OldRoute,NewRoute,PortDate,RowCount
1000000000096804,77072701174,mAltel,mMTS,mMTS,,D07,2016-02-23T12:01:34+06:00,29
1000000000096806,77072227979,mKcell,mMTS,mMTS,,D02,2016-02-23T12:02:40+06:00,
1000000000096810,77019928885,mKarTel,mKcell,mKcell,,D01,2016-02-23T12:06:57+06:00,
1000000000096811,77022323888,mMTS,mKcell,mKcell,,D77,2016-02-23T12:10:39+06:00,
1000000000096812,77019161616,mMTS,mKcell,mKcell,,D77,2016-02-23T12:11:36+06:00,
1000000000096813,77071707111,mKarTel,mMTS,mMTS,,D01,2016-02-23T12:12:33+06:00,
1000000000096815,77000000131,mMTS,mAltel,mAltel,,D77,2016-02-23T12:14:41+06:00,
1000000000096818,77477811877,mKcell,mMTS,mMTS,,D02,2016-02-23T12:16:58+06:00,
1000000000096819,77071901234,mAltel,mMTS,mMTS,,D07,2016-02-23T12:16:55+06:00,
1000000000096821,77019226287,mKarTel,mKcell,mKcell,,D01,2016-02-23T12:17:53+06:00,
1000000000096822,77011893801,mMTS,mKcell,mKcell,,D77,2016-02-23T12:18:01+06:00,
1000000000096823,77477037277,mAltel,mMTS,mMTS,,D07,2016-02-23T12:18:15+06:00,
1000000000096825,77757614436,mMTS,mKcell,mKcell,,D77,2016-02-23T12:19:10+06:00,
1000000000096827,77082626001,mMTS,mAltel,mAltel,,D77,2016-02-23T12:19:40+06:00,
1000000000096828,77012282547,mAltel,mKcell,mKcell,,D07,2016-02-23T12:19:47+06:00,
1000000000096829,77771210071,mMTS,mKarTel,mKarTel,,D77,2016-02-23T12:20:07+06:00,
1000000000096831,77017898960,mMTS,mKcell,mKcell,,D77,2016-02-23T12:20:41+06:00,
1000000000096832,77055767759,mAltel,mKarTel,mKarTel,,D07,2016-02-23T12:21:26+06:00,
1000000000096833,77751002627,mMTS,mKcell,mKcell,,D77,2016-02-23T12:21:13+06:00,
1000000000096834,77019936703,mAltel,mKcell,mKcell,,D07,2016-02-23T12:21:20+06:00,
1000000000096835,77085553555,mKcell,mAltel,mAltel,,D02,2016-02-23T12:21:49+06:00,
1000000000096836,77024764835,mMTS,mKcell,mKcell,,D77,2016-02-23T12:22:37+06:00,
1000000000096837,77058317798,mAltel,mKarTel,mKarTel,,D07,2016-02-23T12:22:56+06:00,
1000000000096838,77471906142,mAltel,mMTS,mMTS,,D07,2016-02-23T12:23:07+06:00,
1000000000096839,77051144669,mMTS,mKarTel,mKarTel,,D77,2016-02-23T12:23:33+06:00,
1000000000096841,77013670348,mMTS,mKcell,mKcell,,D77,2016-02-23T12:25:25+06:00,
1000000000096845,77059677816,mKcell,mKarTel,mKarTel,,D02,2016-02-23T12:27:30+06:00,
1000000000096847,77784348797,mMTS,mKcell,mKcell,,D77,2016-02-23T12:28:48+06:00,
1000000000096848,77019839659,mMTS,mKcell,mKcell,,D77,2016-02-23T12:29:15+06:00,
