NPId,Number,RecipientId,DonorId,RangeHolderId,OldRoute,NewRoute,PortDate,RowCount
1000000000315097,77015191111,mKarTel,mKcell,mKcell,,D01,2017-01-23T14:00:03+06:00,34
1000000000315099,77477877701,mKcell,mMTS,mMTS,,D02,2017-01-23T14:02:10+06:00,
1000000000315100,77712870101,mKarTel,mMTS,mKarTel,D77,D01,2017-01-23T14:02:16+06:00,
1000000000315101,77015388885,mAltel,mKcell,mKcell,,D07,2017-01-23T14:02:34+06:00,
1000000000315102,77015887199,mMTS,mKarTel,mKcell,D01,D77,2017-01-23T14:02:43+06:00,
1000000000315103,77017850770,mMTS,mKcell,mKcell,,D77,2017-01-23T14:05:24+06:00,
1000000000315104,77788887101,mKarTel,mKcell,mKcell,,D01,2017-01-23T14:04:36+06:00,
1000000000315106,77023369336,mAltel,mMTS,mKcell,D77,D07,2017-01-23T14:04:55+06:00,
1000000000315107,77007702016,mKcell,mAltel,mAltel,,D02,2017-01-23T14:08:36+06:00,
1000000000315108,77783363703,mMTS,mKcell,mKcell,,D77,2017-01-23T14:08:25+06:00,
1000000000315109,77000939312,mKcell,mAltel,mAltel,,D02,2017-01-23T14:09:05+06:00,
1000000000315113,77007702015,mKcell,mAltel,mAltel,,D02,2017-01-23T14:11:19+06:00,
1000000000315114,77087591554,mMTS,mAltel,mAltel,,D77,2017-01-23T14:11:18+06:00,
1000000000315115,77750274444,mKcell,mMTS,mKcell,D77,D02,2017-01-23T14:12:14+06:00,
1000000000315116,77007702018,mKcell,mAltel,mAltel,,D02,2017-01-23T14:12:36+06:00,
1000000000315118,77081698869,mMTS,mAltel,mAltel,,D77,2017-01-23T14:13:43+06:00,
1000000000315119,77017758608,mKarTel,mKcell,mKcell,,D01,2017-01-23T14:14:35+06:00,
1000000000315120,77052238942,mMTS,mKarTel,mKarTel,,D77,2017-01-23T14:14:57+06:00,
1000000000315121,77055108268,mMTS,mKarTel,mKarTel,,D77,2017-01-23T14:15:36+06:00,
1000000000315122,77756832028,mKarTel,mKcell,mKcell,,D01,2017-01-23T14:15:44+06:00,
1000000000315124,77077090000,mAltel,mMTS,mMTS,,D07,2017-01-23T14:16:52+06:00,
1000000000315125,77013034243,mMTS,mKcell,mKcell,,D77,2017-01-23T14:17:29+06:00,
1000000000315126,77025337723,mKarTel,mKcell,mKcell,,D01,2017-01-23T14:18:30+06:00,
1000000000315127,77052356820,mMTS,mKarTel,mKarTel,,D77,2017-01-23T14:18:37+06:00,
1000000000315128,77005771982,mKcell,mAltel,mAltel,,D02,2017-01-23T14:18:44+06:00,
1000000000315129,77024440011,mKarTel,mKcell,mKcell,,D01,2017-01-23T14:19:06+06:00,
1000000000315130,77053141943,mMTS,mKarTel,mKarTel,,D77,2017-01-23T14:19:41+06:00,
1000000000315132,77018407774,mMTS,mKcell,mKcell,,D77,2017-01-23T14:21:30+06:00,
1000000000315133,77009914158,mMTS,mAltel,mAltel,,D77,2017-01-23T14:22:40+06:00,
1000000000315134,77029788897,mKarTel,mAltel,mKcell,D07,D01,2017-01-23T14:23:17+06:00,
1000000000315135,77753082966,mKcell,mMTS,mKcell,D77,D02,2017-01-23T14:23:40+06:00,
1000000000315136,77777512546,mMTS,mKarTel,mKarTel,,D77,2017-01-23T14:24:41+06:00,
1000000000315137,77773880032,mMTS,mKarTel,mKarTel,,D77,2017-01-23T14:25:11+06:00,
1000000000315138,77759678766,mMTS,mKcell,mKcell,,D77,2017-01-23T14:26:41+06:00,
