NPId,Number,RecipientId,DonorId,RangeHolderId,OldRoute,NewRoute,PortDate,RowCount
1000000000212820,77016556008,mAltel,mKcell,mKcell,,D07,2016-07-18T09:37:26+06:00,11
1000000000212821,77003242530,mAltel,mKarTel,mAltel,D01,D07,2016-07-18T09:33:55+06:00,
1000000000212823,77018842155,mKarTel,mKcell,mKcell,,D01,2016-07-18T09:38:57+06:00,
1000000000212824,77016665560,mKcell,mAltel,mKcell,D07,D02,2016-07-18T09:42:03+06:00,
1000000000212825,77770922046,mMTS,mKarTel,mKarTel,,D77,2016-07-18T09:40:52+06:00,
1000000000212826,77055820210,mAltel,mKarTel,mKarTel,,D07,2016-07-18T09:42:28+06:00,
1000000000212827,77057272802,mAltel,mKarTel,mKarTel,,D07,2016-07-18T09:43:18+06:00,
1000000000212829,77089109330,mMTS,mAltel,mAltel,,D77,2016-07-18T09:47:27+06:00,
1000000000212830,77759115335,mKarTel,mKcell,mKcell,,D01,2016-07-18T09:55:42+06:00,
1000000000212834,77777550733,mAltel,mKarTel,mKarTel,,D07,2016-07-18T09:56:30+06:00,
1000000000212835,77023851385,mKarTel,mKcell,mKcell,,D01,2016-07-18T09:58:37+06:00,
