NPId,Number,RecipientId,DonorId,RangeHolderId,OldRoute,NewRoute,PortDate,RowCount
1000000000411105,77789748324,mMTS,mKcell,mKcell,,D77,2017-06-28T14:31:11+06:00,34
1000000000411106,77015343628,mMTS,mKcell,mKcell,,D77,2017-06-28T14:32:22+06:00,
1000000000411361,77753275727,mKarTel,mKcell,mKcell,,D01,2017-06-28T14:31:07+06:00,
1000000000411364,77000950900,mKcell,mAltel,mAltel,,D02,2017-06-28T14:33:04+06:00,
1000000000411365,77004045525,mMTS,mKcell,mAltel,D02,D77,2017-06-28T14:35:41+06:00,
1000000000411366,77023194472,mMTS,mKcell,mKcell,,D77,2017-06-28T14:36:53+06:00,
1000000000411367,77077490766,mKcell,mAltel,mMTS,D07,D02,2017-06-28T14:37:42+06:00,
1000000000411368,77073053535,mMTS,mKcell,mMTS,D02,D77,2017-06-28T14:37:34+06:00,
1000000000411369,77771914177,mMTS,mKarTel,mKarTel,,D77,2017-06-28T14:38:34+06:00,
1000000000411370,77082727072,mMTS,mAltel,mAltel,,D77,2017-06-28T14:38:59+06:00,
1000000000411371,77075554928,mKarTel,mMTS,mMTS,,D01,2017-06-28T14:40:02+06:00,
1000000000411372,77012247030,mMTS,mKcell,mKcell,,D77,2017-06-28T14:40:23+06:00,
1000000000411373,77010770005,mKarTel,mKcell,mKcell,,D01,2017-06-28T14:40:59+06:00,
1000000000411375,77471930707,mMTS,mAltel,mMTS,D07,D77,2017-06-28T14:41:38+06:00,
1000000000411377,77012207383,mKarTel,mMTS,mKcell,D77,D01,2017-06-28T14:42:37+06:00,
1000000000411377,77017183839,mKarTel,mMTS,mKcell,D77,D01,2017-06-28T14:42:37+06:00,
1000000000411378,77057086060,mMTS,mKarTel,mKarTel,,D77,2017-06-28T14:43:26+06:00,
1000000000411379,77059892444,mKarTel,mAltel,mKarTel,D07,D01,2017-06-28T14:43:54+06:00,
1000000000411380,77083395979,mKarTel,mAltel,mAltel,D07,D01,2017-06-28T14:45:01+06:00,
1000000000411380,77085521997,mKarTel,mAltel,mAltel,D07,D01,2017-06-28T14:45:01+06:00,
1000000000411380,77087651936,mKarTel,mAltel,mAltel,D07,D01,2017-06-28T14:45:01+06:00,
1000000000411381,77057984202,mMTS,mKarTel,mKarTel,,D77,2017-06-28T14:45:14+06:00,
1000000000411382,77087564098,mKarTel,mMTS,mAltel,D77,D01,2017-06-28T14:47:16+06:00,
1000000000411382,77089055778,mKarTel,mMTS,mAltel,D77,D01,2017-06-28T14:47:16+06:00,
1000000000411382,77089055779,mKarTel,mMTS,mAltel,D77,D01,2017-06-28T14:47:16+06:00,
1000000000411384,77758187878,mKarTel,mKcell,mKcell,,D01,2017-06-28T14:50:30+06:00,
1000000000411387,77018393981,mMTS,mKcell,mKcell,,D77,2017-06-28T14:52:02+06:00,
1000000000411388,77029474466,mKarTel,mKcell,mKcell,,D01,2017-06-28T14:52:56+06:00,
1000000000411389,77003651005,mMTS,mAltel,mAltel,,D77,2017-06-28T14:53:59+06:00,
1000000000411390,77017386344,mMTS,mKcell,mKcell,,D77,2017-06-28T14:55:43+06:00,
1000000000411391,77776877705,mMTS,mKarTel,mKarTel,,D77,2017-06-28T14:56:35+06:00,
1000000000411393,77471321044,mMTS,mKcell,mMTS,D02,D77,2017-06-28T14:58:31+06:00,
1000000000411394,77760003733,mMTS,mKarTel,mKarTel,D01,D77,2017-06-28T14:59:20+06:00,
1000000000411397,77018325853,mMTS,mKcell,mKcell,D02,D77,2017-06-28T14:59:37+06:00,
