NPId,Number,RecipientId,DonorId,RangeHolderId,OldRoute,NewRoute,PortDate,RowCount
1000000000158480,77474936586,mMTS,mAltel,mMTS,D07,D77,2016-04-23T10:30:26+06:00,17
1000000000158481,77017957550,mMTS,mAltel,mKcell,D07,D77,2016-04-23T10:31:28+06:00,
1000000000158482,77023493614,mMTS,mKcell,mKcell,,D77,2016-04-23T10:32:33+06:00,
1000000000158483,77021422555,mKcell,mAltel,mKcell,D07,D02,2016-04-23T10:34:53+06:00,
1000000000158484,77010551500,mMTS,mKcell,mKcell,,D77,2016-04-23T10:36:24+06:00,
1000000000158485,77774622086,mMTS,mKarTel,mKarTel,,D77,2016-04-23T10:38:43+06:00,
1000000000158487,77013503422,mMTS,mKcell,mKcell,,D77,2016-04-23T10:42:03+06:00,
1000000000158488,77083620354,mMTS,mAltel,mAltel,,D77,2016-04-23T10:43:33+06:00,
1000000000158490,77089819922,mKarTel,mAltel,mAltel,,D01,2016-04-23T10:45:42+06:00,
1000000000158491,77774004411,mKcell,mKarTel,mKarTel,,D02,2016-04-23T10:47:12+06:00,
1000000000158494,77773731840,mMTS,mKarTel,mKarTel,,D77,2016-04-23T10:49:26+06:00,
1000000000158496,77083625345,mMTS,mAltel,mAltel,,D77,2016-04-23T10:49:54+06:00,
1000000000158497,77781825888,mMTS,mKcell,mKcell,,D77,2016-04-23T10:51:33+06:00,
1000000000158498,77017345007,mAltel,mKcell,mKcell,,D07,2016-04-23T10:53:38+06:00,
1000000000158499,77022145068,mKcell,mAltel,mKcell,D07,D02,2016-04-23T10:59:10+06:00,
1000000000158500,77018806005,mAltel,mKcell,mKcell,,D07,2016-04-23T10:59:19+06:00,
1000000000158501,77003812970,mMTS,mAltel,mAltel,,D77,2016-04-23T10:59:49+06:00,
