NPId,Number,RecipientId,DonorId,RangeHolderId,OldRoute,NewRoute,PortDate,RowCount
1000000000365080,77075774777,mMTS,mAltel,mMTS,D07,D77,2017-04-13T09:14:30+06:00,3
1000000000365081,77051048809,mMTS,mKarTel,mKarTel,,D77,2017-04-13T09:15:39+06:00,
1000000000365082,77059765005,mKcell,mKarTel,mKarTel,,D02,2017-04-13T09:22:09+06:00,
