NPId,Number,RecipientId,DonorId,RangeHolderId,OldRoute,NewRoute,PortDate,RowCount
1000000000281176,77474287717,mKcell,mMTS,mMTS,,D02,2016-11-19T10:04:59+06:00,5
1000000000281180,77085352287,mKcell,mAltel,mAltel,,D02,2016-11-19T10:12:18+06:00,
1000000000281181,77759038406,mMTS,mKcell,mKcell,,D77,2016-11-19T10:16:02+06:00,
1000000000281182,77001911959,mKcell,mAltel,mAltel,,D02,2016-11-19T10:22:17+06:00,
1000000000281183,77786252847,mMTS,mKcell,mKcell,,D77,2016-11-19T10:24:42+06:00,
