NPId,Number,RecipientId,DonorId,RangeHolderId,OldRoute,NewRoute,PortDate,RowCount
1000000000336583,77052011103,mMTS,mKarTel,mKarTel,,D77,2017-02-27T21:38:01+06:00,3
1000000000336584,77772165155,mMTS,mKarTel,mKarTel,,D77,2017-02-27T21:48:03+06:00,
1000000000336585,77051973304,mMTS,mKarTel,mKarTel,,D77,2017-02-27T21:58:04+06:00,
