NPId,Number,RecipientId,DonorId,RangeHolderId,OldRoute,NewRoute,PortDate,RowCount
1000000000417125,77010352599,mKcell,mKarTel,mKcell,D01,D02,2017-07-05T17:02:28+06:00,29
1000000000417203,77770059752,mKcell,mMTS,mKarTel,D77,D02,2017-07-05T17:02:24+06:00,
1000000000417204,77778288849,mKarTel,mAltel,mKarTel,D07,D01,2017-07-05T17:02:54+06:00,
1000000000417205,77777957654,mAltel,mKarTel,mKarTel,,D07,2017-07-05T17:04:23+06:00,
1000000000417206,77770059763,mKcell,mMTS,mKarTel,D77,D02,2017-07-05T17:04:49+06:00,
1000000000417208,77015338007,mMTS,mKcell,mKcell,,D77,2017-07-05T17:05:48+06:00,
1000000000417209,77770059922,mKcell,mMTS,mKarTel,D77,D02,2017-07-05T17:06:43+06:00,
1000000000417210,77784190283,mKarTel,mKcell,mKcell,,D01,2017-07-05T17:07:39+06:00,
1000000000417211,77783178080,mMTS,mKcell,mKcell,,D77,2017-07-05T17:07:44+06:00,
1000000000417213,77759090490,mMTS,mKcell,mKcell,,D77,2017-07-05T17:08:34+06:00,
1000000000417214,77017777851,mAltel,mKcell,mKcell,,D07,2017-07-05T17:09:33+06:00,
1000000000417215,77017282896,mAltel,mKcell,mKcell,,D07,2017-07-05T17:09:57+06:00,
1000000000417216,77074124686,mKcell,mMTS,mMTS,,D02,2017-07-05T17:10:22+06:00,
1000000000417217,77025412057,mMTS,mKcell,mKcell,,D77,2017-07-05T17:10:11+06:00,
1000000000417218,77476730559,mKarTel,mMTS,mMTS,,D01,2017-07-05T17:10:42+06:00,
1000000000417219,77770059762,mKcell,mMTS,mKarTel,D77,D02,2017-07-05T17:10:56+06:00,
1000000000417220,77012420754,mMTS,mKcell,mKcell,,D77,2017-07-05T17:11:36+06:00,
1000000000417221,77012282200,mMTS,mKcell,mKcell,,D77,2017-07-05T17:12:00+06:00,
1000000000417222,77770059924,mKcell,mMTS,mKarTel,D77,D02,2017-07-05T17:12:53+06:00,
1000000000417223,77027770657,mAltel,mKcell,mKcell,,D07,2017-07-05T17:13:09+06:00,
1000000000417224,77074291244,mKarTel,mMTS,mMTS,,D01,2017-07-05T17:13:33+06:00,
1000000000417225,77017512970,mMTS,mKarTel,mKcell,D01,D77,2017-07-05T17:14:28+06:00,
1000000000417226,77007474407,mMTS,mAltel,mAltel,,D77,2017-07-05T17:14:22+06:00,
1000000000417227,77084898230,mKarTel,mKcell,mAltel,D02,D01,2017-07-05T17:14:51+06:00,
1000000000417228,77027777573,mAltel,mKcell,mKcell,,D07,2017-07-05T17:15:17+06:00,
1000000000417230,77056205116,mAltel,mKarTel,mKarTel,,D07,2017-07-05T17:21:30+06:00,
1000000000417231,77001222333,mKarTel,mAltel,mAltel,,D01,2017-07-05T17:21:28+06:00,
1000000000417232,77024210222,mMTS,mKcell,mKcell,,D77,2017-07-05T17:22:02+06:00,
1000000000417236,77021111373,mAltel,mKcell,mKcell,,D07,2017-07-05T17:28:54+06:00,
