NPId,Number,RecipientId,DonorId,RangeHolderId,OldRoute,NewRoute,PortDate,RowCount
1000000000281537,77021787884,mAltel,mKcell,mKcell,,D07,2016-11-20T11:34:42+06:00,7
1000000000281539,77086905350,mKarTel,mAltel,mAltel,,D01,2016-11-20T11:39:35+06:00,
1000000000281540,77081743744,mMTS,mAltel,mAltel,,D77,2016-11-20T11:39:40+06:00,
1000000000281541,77781110850,mKarTel,mKcell,mKcell,,D01,2016-11-20T11:42:48+06:00,
1000000000281543,77075389242,mAltel,mMTS,mMTS,,D07,2016-11-20T11:55:28+06:00,
1000000000281544,77471049012,mMTS,mKcell,mMTS,D02,D77,2016-11-20T11:56:06+06:00,
1000000000281545,77082329922,mMTS,mAltel,mAltel,,D77,2016-11-20T11:57:51+06:00,
