NPId,Number,RecipientId,DonorId,RangeHolderId,OldRoute,NewRoute,PortDate,RowCount
1000000000316175,77017775307,mKcell,mKarTel,mKcell,D01,D02,2017-01-25T12:13:02+06:00,25
1000000000316181,77051414858,mMTS,mKarTel,mKarTel,,D77,2017-01-25T12:00:15+06:00,
1000000000316183,77017214266,mMTS,mKarTel,mKcell,D01,D77,2017-01-25T12:03:08+06:00,
1000000000316184,77001534444,mKcell,mAltel,mAltel,,D02,2017-01-25T12:04:06+06:00,
1000000000316185,77753746288,mMTS,mKcell,mKcell,,D77,2017-01-25T12:04:32+06:00,
1000000000316186,77753869853,mMTS,mKcell,mKcell,,D77,2017-01-25T12:04:44+06:00,
1000000000316187,77053349812,mKarTel,mMTS,mKarTel,D77,D01,2017-01-25T12:07:13+06:00,
1000000000316188,77753479001,mMTS,mKcell,mKcell,,D77,2017-01-25T12:07:59+06:00,
1000000000316189,77785618023,mKarTel,mKcell,mKcell,,D01,2017-01-25T12:09:27+06:00,
1000000000316190,77086916350,mKarTel,mAltel,mAltel,D07,D01,2017-01-25T12:09:39+06:00,
1000000000316193,77774633165,mMTS,mKarTel,mKarTel,,D77,2017-01-25T12:12:52+06:00,
1000000000316194,77018418715,mMTS,mKcell,mKcell,,D77,2017-01-25T12:12:52+06:00,
1000000000316196,77077800193,mAltel,mMTS,mMTS,,D07,2017-01-25T12:13:54+06:00,
1000000000316199,77024865247,mKarTel,mKcell,mKcell,,D01,2017-01-25T12:17:46+06:00,
1000000000316200,77788731889,mMTS,mKcell,mKcell,,D77,2017-01-25T12:17:46+06:00,
1000000000316201,77776617461,mMTS,mKarTel,mKarTel,,D77,2017-01-25T12:18:07+06:00,
1000000000316202,77019833399,mKcell,mAltel,mKcell,D07,D02,2017-01-25T12:18:08+06:00,
1000000000316203,77087549575,mMTS,mAltel,mAltel,,D77,2017-01-25T12:19:09+06:00,
1000000000316204,77016885215,mMTS,mKcell,mKcell,,D77,2017-01-25T12:19:31+06:00,
1000000000316205,77783810057,mMTS,mKcell,mKcell,,D77,2017-01-25T12:22:50+06:00,
1000000000316206,77029796089,mMTS,mKcell,mKcell,,D77,2017-01-25T12:23:53+06:00,
1000000000316207,77779776004,mMTS,mKarTel,mKarTel,D01,D77,2017-01-25T12:24:09+06:00,
1000000000316208,77715125454,mAltel,mKarTel,mKarTel,D01,D07,2017-01-25T12:24:16+06:00,
1000000000316209,77774032525,mKcell,mKarTel,mKarTel,,D02,2017-01-25T12:27:43+06:00,
1000000000316211,77019326362,mAltel,mMTS,mKcell,D77,D07,2017-01-25T12:28:10+06:00,
