NPId,Number,RecipientId,DonorId,RangeHolderId,OldRoute,NewRoute,PortDate,RowCount
1000000000349894,77785690606,mMTS,mKcell,mKcell,,D77,2017-03-20T11:30:14+06:00,15
1000000000349895,77770060606,mKcell,mKarTel,mKarTel,,D02,2017-03-20T11:31:23+06:00,
1000000000349897,77076009311,mAltel,mMTS,mMTS,,D07,2017-03-20T11:32:35+06:00,
1000000000349899,77770654602,mMTS,mAltel,mKarTel,D07,D77,2017-03-20T11:35:03+06:00,
1000000000349901,77055004522,mMTS,mKarTel,mKarTel,,D77,2017-03-20T11:37:04+06:00,
1000000000349902,77072001454,mMTS,mKarTel,mMTS,D01,D77,2017-03-20T11:43:59+06:00,
1000000000349903,77028420042,mMTS,mKcell,mKcell,,D77,2017-03-20T11:44:51+06:00,
1000000000349904,77054236426,mMTS,mKarTel,mKarTel,,D77,2017-03-20T11:46:36+06:00,
1000000000349906,77789066771,mMTS,mKcell,mKcell,,D77,2017-03-20T11:47:54+06:00,
1000000000349907,77012333424,mKarTel,mKcell,mKcell,,D01,2017-03-20T11:50:19+06:00,
1000000000349908,77007480848,mMTS,mAltel,mAltel,,D77,2017-03-20T11:50:40+06:00,
1000000000349909,77777000064,mKcell,mKarTel,mKarTel,,D02,2017-03-20T11:52:44+06:00,
1000000000349910,77777000056,mKcell,mKarTel,mKarTel,,D02,2017-03-20T11:55:11+06:00,
1000000000349911,77752877575,mMTS,mKcell,mKcell,,D77,2017-03-20T11:56:33+06:00,
1000000000349913,77473259485,mKcell,mMTS,mMTS,,D02,2017-03-20T11:58:23+06:00,
