NPId,Number,RecipientId,DonorId,RangeHolderId,OldRoute,NewRoute,PortDate,RowCount
1000000000193705,77779242360,mMTS,mKarTel,mKarTel,,D77,2016-06-15T09:37:26+06:00,5
1000000000193706,77086166404,mMTS,mAltel,mAltel,,D77,2016-06-15T09:43:59+06:00,
1000000000193708,77004266229,mKcell,mAltel,mAltel,,D02,2016-06-15T09:50:02+06:00,
1000000000193710,77073570082,mKarTel,mMTS,mMTS,,D01,2016-06-15T09:55:35+06:00,
1000000000193711,77011117990,mKarTel,mKcell,mKcell,,D01,2016-06-15T09:56:55+06:00,
