NPId,Number,RecipientId,DonorId,RangeHolderId,OldRoute,NewRoute,PortDate,RowCount
1000000000204461,77082702515,mMTS,mAltel,mAltel,,D77,2016-07-03T14:37:16+06:00,8
1000000000204462,77025786888,mAltel,mKcell,mKcell,,D07,2016-07-03T14:38:50+06:00,
1000000000204463,77768204888,mMTS,mKarTel,mKarTel,,D77,2016-07-03T14:39:33+06:00,
1000000000204466,77024701308,mKarTel,mKcell,mKcell,,D01,2016-07-03T14:49:23+06:00,
1000000000204467,77077772433,mAltel,mMTS,mMTS,,D07,2016-07-03T14:49:40+06:00,
1000000000204468,77082904972,mKarTel,mAltel,mAltel,,D01,2016-07-03T14:55:58+06:00,
1000000000204469,77770168484,mMTS,mKarTel,mKarTel,,D77,2016-07-03T14:58:31+06:00,
1000000000204470,77003141766,mKarTel,mAltel,mAltel,,D01,2016-07-03T14:59:50+06:00,
