NPId,Number,RecipientId,DonorId,RangeHolderId,OldRoute,NewRoute,PortDate,RowCount
1000000000377364,77017179999,mKarTel,mKcell,mKcell,,D01,2017-05-04T10:56:42+06:00,18
1000000000377412,77010228808,mKarTel,mKcell,mKcell,,D01,2017-05-04T10:36:20+06:00,
1000000000377738,77024040741,mKarTel,mKcell,mKcell,,D01,2017-05-04T10:32:53+06:00,
1000000000377741,77714940707,mKcell,mKarTel,mKarTel,,D02,2017-05-04T10:35:33+06:00,
1000000000377743,77474753522,mAltel,mMTS,mMTS,,D07,2017-05-04T10:36:34+06:00,
1000000000377744,77754104994,mMTS,mKcell,mKcell,,D77,2017-05-04T10:37:44+06:00,
1000000000377746,77773311177,mAltel,mKarTel,mKarTel,D01,D07,2017-05-04T10:42:16+06:00,
1000000000377747,77015431113,mMTS,mKcell,mKcell,,D77,2017-05-04T10:43:15+06:00,
1000000000377748,77089899583,mKarTel,mAltel,mAltel,,D01,2017-05-04T10:47:40+06:00,
1000000000377749,77004512686,mMTS,mAltel,mAltel,,D77,2017-05-04T10:50:15+06:00,
1000000000377750,77012123782,mKcell,mMTS,mKcell,D77,D02,2017-05-04T10:51:11+06:00,
1000000000377751,77015175070,mAltel,mKcell,mKcell,,D07,2017-05-04T10:51:18+06:00,
1000000000377752,77059984564,mMTS,mKarTel,mKarTel,,D77,2017-05-04T10:54:23+06:00,
1000000000377753,77710220307,mAltel,mMTS,mKarTel,D77,D07,2017-05-04T10:54:40+06:00,
1000000000377754,77019894932,mKarTel,mKcell,mKcell,,D01,2017-05-04T10:55:15+06:00,
1000000000377755,77075377759,mKcell,mMTS,mMTS,,D02,2017-05-04T10:57:46+06:00,
1000000000377756,77018881404,mMTS,mKcell,mKcell,,D77,2017-05-04T10:58:06+06:00,
1000000000377757,77019581717,mKarTel,mKcell,mKcell,,D01,2017-05-04T10:59:11+06:00,
