NPId,Number,RecipientId,DonorId,RangeHolderId,OldRoute,NewRoute,PortDate,RowCount
1000000000218411,77009972630,mMTS,mAltel,mAltel,,D77,2016-07-28T10:01:16+06:00,14
1000000000218412,77773773144,mMTS,mKarTel,mKarTel,,D77,2016-07-28T10:02:43+06:00,
1000000000218413,77017745842,mMTS,mKcell,mKcell,,D77,2016-07-28T10:02:55+06:00,
1000000000218414,77769996060,mAltel,mKcell,mKarTel,D02,D07,2016-07-28T10:03:50+06:00,
1000000000218419,77079999901,mKarTel,mKcell,mMTS,D02,D01,2016-07-28T10:13:12+06:00,
1000000000218421,77077122023,mKarTel,mMTS,mMTS,,D01,2016-07-28T10:15:04+06:00,
1000000000218422,77764444419,mKarTel,mMTS,mKarTel,D77,D01,2016-07-28T10:15:16+06:00,
1000000000218423,77771480707,mMTS,mKarTel,mKarTel,,D77,2016-07-28T10:15:55+06:00,
1000000000218424,77018889638,mAltel,mKcell,mKcell,,D07,2016-07-28T10:17:35+06:00,
1000000000218425,77071708820,mKarTel,mMTS,mMTS,,D01,2016-07-28T10:19:44+06:00,
1000000000218426,77053410856,mMTS,mKarTel,mKarTel,,D77,2016-07-28T10:22:37+06:00,
1000000000218428,77071792180,mKarTel,mMTS,mMTS,,D01,2016-07-28T10:25:55+06:00,
1000000000218429,77019903372,mKcell,mMTS,mKcell,D77,D02,2016-07-28T10:26:59+06:00,
1000000000218430,77751049001,mKcell,mMTS,mKcell,D77,D02,2016-07-28T10:29:32+06:00,
