NPId,Number,RecipientId,DonorId,RangeHolderId,OldRoute,NewRoute,PortDate,RowCount
1000000000409350,77009663303,mMTS,mAltel,mAltel,,D77,2017-06-25T15:00:43+06:00,11
1000000000409352,77081051122,mMTS,mKarTel,mAltel,D01,D77,2017-06-25T15:02:29+06:00,
1000000000409354,77023128038,mKcell,mMTS,mKcell,D77,D02,2017-06-25T15:06:12+06:00,
1000000000409356,77010181187,mKarTel,mKcell,mKcell,,D01,2017-06-25T15:09:33+06:00,
1000000000409357,77773711660,mKarTel,mMTS,mKarTel,D77,D01,2017-06-25T15:09:49+06:00,
1000000000409358,77763312333,mMTS,mKarTel,mKarTel,,D77,2017-06-25T15:12:02+06:00,
1000000000409359,77012419307,mKcell,mMTS,mKcell,D77,D02,2017-06-25T15:12:00+06:00,
1000000000409360,77085261016,mKarTel,mAltel,mAltel,,D01,2017-06-25T15:17:12+06:00,
1000000000409362,77071747336,mMTS,mKcell,mMTS,D02,D77,2017-06-25T15:24:33+06:00,
1000000000409363,77017840475,mMTS,mKcell,mKcell,,D77,2017-06-25T15:27:27+06:00,
1000000000409364,77012165526,mKcell,mMTS,mKcell,D77,D02,2017-06-25T15:28:53+06:00,
