NPId,Number,RecipientId,DonorId,RangeHolderId,OldRoute,NewRoute,PortDate,RowCount
1000000000272568,77779777748,mMTS,mAltel,mKarTel,D07,D77,2016-11-09T15:04:11+06:00,20
1000000000273005,77009695901,mMTS,mAltel,mAltel,,D77,2016-11-09T15:09:47+06:00,
1000000000275015,77003893347,mMTS,mAltel,mAltel,,D77,2016-11-09T15:17:40+06:00,
1000000000276705,77072190277,mKcell,mMTS,mMTS,,D02,2016-11-09T15:03:28+06:00,
1000000000276706,77471515521,mKarTel,mMTS,mMTS,,D01,2016-11-09T15:06:45+06:00,
1000000000276708,77011741144,mMTS,mKcell,mKcell,,D77,2016-11-09T15:08:50+06:00,
1000000000276709,77772456594,mAltel,mKarTel,mKarTel,,D07,2016-11-09T15:10:10+06:00,
1000000000276714,77781090366,mMTS,mKcell,mKcell,,D77,2016-11-09T15:13:03+06:00,
1000000000276716,77773183580,mMTS,mKarTel,mKarTel,,D77,2016-11-09T15:16:13+06:00,
1000000000276717,77779997422,mMTS,mKarTel,mKarTel,,D77,2016-11-09T15:16:35+06:00,
1000000000276719,77025444398,mAltel,mKcell,mKcell,,D07,2016-11-09T15:17:56+06:00,
1000000000276720,77087567413,mKarTel,mMTS,mAltel,D77,D01,2016-11-09T15:18:05+06:00,
1000000000276724,77075488888,mKcell,mMTS,mMTS,,D02,2016-11-09T15:20:15+06:00,
1000000000276725,77786205580,mMTS,mKcell,mKcell,,D77,2016-11-09T15:20:46+06:00,
1000000000276726,77778168000,mAltel,mKarTel,mKarTel,,D07,2016-11-09T15:21:08+06:00,
1000000000276727,77024736300,mAltel,mKcell,mKcell,,D07,2016-11-09T15:22:03+06:00,
1000000000276728,77071997067,mMTS,mKarTel,mMTS,D01,D77,2016-11-09T15:23:07+06:00,
1000000000276733,77756756997,mMTS,mKcell,mKcell,,D77,2016-11-09T15:26:50+06:00,
1000000000276734,77021401494,mMTS,mKcell,mKcell,,D77,2016-11-09T15:27:38+06:00,
1000000000276735,77052218556,mKarTel,mKcell,mKarTel,D02,D01,2016-11-09T15:28:28+06:00,
