NPId,Number,RecipientId,DonorId,RangeHolderId,OldRoute,NewRoute,PortDate,RowCount
1000000000424801,77078083581,mKcell,mMTS,mMTS,,D02,2017-07-19T17:01:23+06:00,23
1000000000424802,77011334485,mMTS,mKcell,mKcell,,D77,2017-07-19T17:01:35+06:00,
1000000000424803,77017746009,mKarTel,mKcell,mKcell,,D01,2017-07-19T17:02:37+06:00,
1000000000424808,77019225003,mKarTel,mKcell,mKcell,,D01,2017-07-19T17:06:43+06:00,
1000000000424809,77479111001,mKarTel,mMTS,mMTS,,D01,2017-07-19T17:07:29+06:00,
1000000000424810,77089107424,mKcell,mKarTel,mAltel,D01,D02,2017-07-19T17:08:21+06:00,
1000000000424811,77017210769,mKcell,mMTS,mKcell,D77,D02,2017-07-19T17:08:49+06:00,
1000000000424812,77088496989,mMTS,mAltel,mAltel,,D77,2017-07-19T17:09:06+06:00,
1000000000424813,77479889990,mKarTel,mMTS,mMTS,D77,D01,2017-07-19T17:11:18+06:00,
1000000000424815,77770333305,mMTS,mKarTel,mKarTel,,D77,2017-07-19T17:12:25+06:00,
1000000000424816,77753367773,mAltel,mKcell,mKcell,,D07,2017-07-19T17:12:55+06:00,
1000000000424817,77477637851,mKcell,mMTS,mMTS,,D02,2017-07-19T17:13:49+06:00,
1000000000424818,77071406660,mKarTel,mMTS,mMTS,,D01,2017-07-19T17:14:18+06:00,
1000000000424821,77072607775,mKarTel,mMTS,mMTS,,D01,2017-07-19T17:15:46+06:00,
1000000000424822,77057834429,mKarTel,mMTS,mKarTel,D77,D01,2017-07-19T17:15:51+06:00,
1000000000424824,77013402363,mMTS,mKcell,mKcell,,D77,2017-07-19T17:17:10+06:00,
1000000000424825,77015418001,mMTS,mKcell,mKcell,,D77,2017-07-19T17:17:12+06:00,
1000000000424826,77474494649,mAltel,mMTS,mMTS,,D07,2017-07-19T17:18:45+06:00,
1000000000424827,77085435458,mMTS,mAltel,mAltel,,D77,2017-07-19T17:19:35+06:00,
1000000000424828,77053809898,mKarTel,mMTS,mKarTel,D77,D01,2017-07-19T17:20:15+06:00,
1000000000424829,77019742404,mKcell,mAltel,mKcell,D07,D02,2017-07-19T17:23:18+06:00,
1000000000424830,77751754377,mMTS,mKcell,mKcell,,D77,2017-07-19T17:24:09+06:00,
1000000000424834,77776888881,mKarTel,mAltel,mKarTel,D07,D01,2017-07-19T17:29:16+06:00,
