NPId,Number,RecipientId,DonorId,RangeHolderId,OldRoute,NewRoute,PortDate,RowCount
1000000000132630,77024944694,mAltel,mKcell,mKcell,,D07,2016-03-24T20:30:42+06:00,3
1000000000132631,77013128252,mMTS,mKcell,mKcell,,D77,2016-03-24T20:36:07+06:00,
1000000000132633,77079060999,mKcell,mMTS,mMTS,,D02,2016-03-24T20:48:42+06:00,
