NPId,Number,RecipientId,DonorId,RangeHolderId,OldRoute,NewRoute,PortDate,RowCount
1000000000171354,77756212884,mKarTel,mKcell,mKcell,,D01,2016-05-11T10:37:25+06:00,31
1000000000171356,77016305060,mKarTel,mKcell,mKcell,,D01,2016-05-11T10:37:25+06:00,
1000000000171360,77772543242,mKarTel,mMTS,mKarTel,D77,D01,2016-05-11T10:37:25+06:00,
1000000000171412,77766001176,mKarTel,mAltel,mKarTel,D07,D01,2016-05-11T10:37:25+06:00,
1000000000171426,77077514949,mKcell,mMTS,mMTS,,D02,2016-05-11T10:30:46+06:00,
1000000000171427,77081512840,mMTS,mAltel,mAltel,,D77,2016-05-11T10:30:47+06:00,
1000000000171430,77754519443,mMTS,mKcell,mKcell,,D77,2016-05-11T10:32:30+06:00,
1000000000171431,77086835865,mMTS,mAltel,mAltel,,D77,2016-05-11T10:32:54+06:00,
1000000000171432,77082909860,mMTS,mAltel,mAltel,,D77,2016-05-11T10:33:42+06:00,
1000000000171433,77021074941,mMTS,mKcell,mKcell,,D77,2016-05-11T10:36:16+06:00,
1000000000171434,77009452094,mMTS,mAltel,mAltel,,D77,2016-05-11T10:37:04+06:00,
1000000000171436,77028527575,mKcell,mMTS,mKcell,D77,D02,2016-05-11T10:39:19+06:00,
1000000000171437,77787884668,mMTS,mKcell,mKcell,,D77,2016-05-11T10:39:17+06:00,
1000000000171438,77752275723,mMTS,mKcell,mKcell,,D77,2016-05-11T10:42:07+06:00,
1000000000171439,77777683131,mKcell,mKarTel,mKarTel,,D02,2016-05-11T10:45:03+06:00,
1000000000171441,77026285153,mAltel,mKcell,mKcell,,D07,2016-05-11T10:44:29+06:00,
1000000000171443,77025400704,mAltel,mKcell,mKcell,,D07,2016-05-11T10:45:42+06:00,
1000000000171444,77757081435,mMTS,mKcell,mKcell,,D77,2016-05-11T10:46:16+06:00,
1000000000171449,77011292888,mKcell,mMTS,mKcell,D77,D02,2016-05-11T10:47:33+06:00,
1000000000171450,77012555568,mKarTel,mKcell,mKcell,,D01,2016-05-11T10:48:13+06:00,
1000000000171452,77074343311,mAltel,mMTS,mMTS,,D07,2016-05-11T10:48:19+06:00,
1000000000171453,77083935085,mMTS,mAltel,mAltel,,D77,2016-05-11T10:48:49+06:00,
1000000000171454,77021323408,mMTS,mAltel,mKcell,D07,D77,2016-05-11T10:49:41+06:00,
1000000000171455,77082000980,mMTS,mAltel,mAltel,,D77,2016-05-11T10:50:18+06:00,
1000000000171457,77027043888,mKarTel,mKcell,mKcell,,D01,2016-05-11T10:51:09+06:00,
1000000000171458,77053200051,mMTS,mKarTel,mKarTel,,D77,2016-05-11T10:51:38+06:00,
1000000000171459,77781528038,mMTS,mKcell,mKcell,,D77,2016-05-11T10:51:29+06:00,
1000000000171461,77473046404,mKcell,mMTS,mMTS,,D02,2016-05-11T10:53:58+06:00,
1000000000171463,77753134446,mKarTel,mKcell,mKcell,,D01,2016-05-11T10:54:43+06:00,
1000000000171464,77089132230,mMTS,mAltel,mAltel,,D77,2016-05-11T10:54:36+06:00,
1000000000171465,77017585975,mMTS,mKcell,mKcell,,D77,2016-05-11T10:55:14+06:00,
