NPId,Number,RecipientId,DonorId,RangeHolderId,OldRoute,NewRoute,PortDate,RowCount
1000000000138408,77019141915,mKarTel,mKcell,mKcell,,D01,2016-03-31T16:05:20+06:00,55
1000000000138408,77019523677,mKarTel,mKcell,mKcell,,D01,2016-03-31T16:05:20+06:00,
1000000000138408,77019861954,mKarTel,mKcell,mKcell,,D01,2016-03-31T16:05:20+06:00,
1000000000138408,77019861957,mKarTel,mKcell,mKcell,,D01,2016-03-31T16:05:20+06:00,
1000000000138408,77019861958,mKarTel,mKcell,mKcell,,D01,2016-03-31T16:05:20+06:00,
1000000000138463,77776124739,mAltel,mKarTel,mKarTel,,D07,2016-03-31T16:00:02+06:00,
1000000000138464,77051570101,mAltel,mKarTel,mKarTel,,D07,2016-03-31T16:00:06+06:00,
1000000000138469,77715245175,mMTS,mKarTel,mKarTel,,D77,2016-03-31T16:02:37+06:00,
1000000000138470,77758270119,mAltel,mKcell,mKcell,,D07,2016-03-31T16:01:19+06:00,
1000000000138471,77017189511,mMTS,mKcell,mKcell,,D77,2016-03-31T16:02:15+06:00,
1000000000138473,77759304433,mMTS,mKcell,mKcell,,D77,2016-03-31T16:02:33+06:00,
1000000000138474,77072244933,mKarTel,mMTS,mMTS,,D01,2016-03-31T16:03:14+06:00,
1000000000138477,77004945005,mMTS,mAltel,mAltel,,D77,2016-03-31T16:03:50+06:00,
1000000000138478,77759336972,mAltel,mKcell,mKcell,,D07,2016-03-31T16:04:44+06:00,
1000000000138479,77081025810,mMTS,mAltel,mAltel,,D77,2016-03-31T16:04:46+06:00,
1000000000138482,77015297907,mMTS,mKcell,mKcell,,D77,2016-03-31T16:06:33+06:00,
1000000000138483,77005550107,mMTS,mAltel,mAltel,,D77,2016-03-31T16:06:10+06:00,
1000000000138484,77758458005,mKcell,mMTS,mKcell,D77,D02,2016-03-31T16:06:53+06:00,
1000000000138485,77773557345,mKcell,mKarTel,mKarTel,,D02,2016-03-31T16:09:03+06:00,
1000000000138486,77014655057,mKcell,mAltel,mKcell,D07,D02,2016-03-31T16:08:28+06:00,
1000000000138487,77019107473,mMTS,mKcell,mKcell,,D77,2016-03-31T16:08:45+06:00,
1000000000138488,77779338016,mKcell,mKarTel,mKarTel,,D02,2016-03-31T16:10:34+06:00,
1000000000138491,77719999377,mKcell,mKarTel,mKarTel,,D02,2016-03-31T16:12:25+06:00,
1000000000138492,77057657333,mMTS,mKarTel,mKarTel,,D77,2016-03-31T16:12:41+06:00,
1000000000138493,77751343970,mAltel,mKcell,mKcell,,D07,2016-03-31T16:12:11+06:00,
1000000000138494,77078969656,mKarTel,mMTS,mMTS,,D01,2016-03-31T16:13:08+06:00,
1000000000138495,77052100343,mAltel,mKarTel,mKarTel,,D07,2016-03-31T16:15:06+06:00,
1000000000138496,77083121812,mMTS,mAltel,mAltel,,D77,2016-03-31T16:14:35+06:00,
1000000000138498,77026333733,mAltel,mKcell,mKcell,,D07,2016-03-31T16:14:49+06:00,
1000000000138500,77772473662,mMTS,mKarTel,mKarTel,,D77,2016-03-31T16:16:57+06:00,
1000000000138501,77017290279,mMTS,mKcell,mKcell,,D77,2016-03-31T16:15:57+06:00,
1000000000138502,77054422288,mMTS,mKarTel,mKarTel,,D77,2016-03-31T16:17:27+06:00,
1000000000138503,77015220931,mMTS,mKcell,mKcell,,D77,2016-03-31T16:16:06+06:00,
1000000000138505,77760830000,mMTS,mKarTel,mKarTel,,D77,2016-03-31T16:18:55+06:00,
1000000000138506,77055212985,mMTS,mKarTel,mKarTel,,D77,2016-03-31T16:18:55+06:00,
1000000000138507,77013567668,mKarTel,mKcell,mKcell,,D01,2016-03-31T16:17:56+06:00,
1000000000138509,77775557222,mKcell,mKarTel,mKarTel,,D02,2016-03-31T16:19:35+06:00,
1000000000138510,77089581686,mKarTel,mAltel,mAltel,,D01,2016-03-31T16:18:53+06:00,
1000000000138511,77772801166,mMTS,mKarTel,mKarTel,,D77,2016-03-31T16:21:14+06:00,
1000000000138513,77017710033,mMTS,mKcell,mKcell,,D77,2016-03-31T16:20:46+06:00,
1000000000138514,77015019030,mMTS,mKcell,mKcell,,D77,2016-03-31T16:20:56+06:00,
1000000000138515,77772700285,mMTS,mKarTel,mKarTel,,D77,2016-03-31T16:22:15+06:00,
1000000000138517,77015282938,mMTS,mKcell,mKcell,,D77,2016-03-31T16:21:59+06:00,
1000000000138518,77026632992,mKcell,mKarTel,mKcell,D01,D02,2016-03-31T16:24:18+06:00,
1000000000138519,77073223182,mKarTel,mMTS,mMTS,,D01,2016-03-31T16:23:38+06:00,
1000000000138520,77017466747,mMTS,mKcell,mKcell,,D77,2016-03-31T16:24:28+06:00,
1000000000138521,77015305670,mKarTel,mKcell,mKcell,,D01,2016-03-31T16:25:07+06:00,
1000000000138522,77769035909,mMTS,mKarTel,mKarTel,,D77,2016-03-31T16:26:36+06:00,
1000000000138523,77013796199,mMTS,mKcell,mKcell,,D77,2016-03-31T16:25:58+06:00,
1000000000138524,77071511843,mAltel,mMTS,mMTS,,D07,2016-03-31T16:25:46+06:00,
1000000000138525,77009860571,mMTS,mAltel,mAltel,,D77,2016-03-31T16:26:04+06:00,
1000000000138528,77011222240,mMTS,mKcell,mKcell,,D77,2016-03-31T16:27:00+06:00,
1000000000138529,77059011723,mMTS,mKarTel,mKarTel,,D77,2016-03-31T16:28:29+06:00,
1000000000138532,77020001692,mAltel,mKcell,mKcell,,D07,2016-03-31T16:28:44+06:00,
1000000000138534,77017167259,mAltel,mKcell,mKcell,,D07,2016-03-31T16:29:20+06:00,
