NPId,Number,RecipientId,DonorId,RangeHolderId,OldRoute,NewRoute,PortDate,RowCount
1000000000401394,77053340445,mMTS,mKarTel,mKarTel,,D77,2017-06-11T15:10:35+06:00,6
1000000000401396,77757319666,mKcell,mMTS,mKcell,D77,D02,2017-06-11T15:14:22+06:00,
1000000000401397,77017226966,mMTS,mKcell,mKcell,,D77,2017-06-11T15:15:41+06:00,
1000000000401398,77784366200,mMTS,mKcell,mKcell,,D77,2017-06-11T15:16:35+06:00,
1000000000401400,77081995204,mMTS,mAltel,mAltel,,D77,2017-06-11T15:20:16+06:00,
1000000000401403,77027652110,mKcell,mMTS,mKcell,D77,D02,2017-06-11T15:27:18+06:00,
