NPId,Number,RecipientId,DonorId,RangeHolderId,OldRoute,NewRoute,PortDate,RowCount
1000000000200226,77028915555,mMTS,mKcell,mKcell,,D77,2016-06-26T16:00:57+06:00,20
1000000000200227,77754144384,mMTS,mKcell,mKcell,,D77,2016-06-26T16:01:27+06:00,
1000000000200228,77770091202,mMTS,mKarTel,mKarTel,,D77,2016-06-26T16:03:29+06:00,
1000000000200229,77027433887,mMTS,mKarTel,mKcell,D01,D77,2016-06-26T16:04:27+06:00,
1000000000200230,77059898908,mMTS,mKarTel,mKarTel,D01,D77,2016-06-26T16:05:48+06:00,
1000000000200231,77754466694,mAltel,mKcell,mKcell,,D07,2016-06-26T16:05:58+06:00,
1000000000200235,77087553883,mMTS,mAltel,mAltel,,D77,2016-06-26T16:07:09+06:00,
1000000000200238,77052928127,mKcell,mKarTel,mKarTel,,D02,2016-06-26T16:10:17+06:00,
1000000000200239,77015088185,mMTS,mKcell,mKcell,,D77,2016-06-26T16:12:34+06:00,
1000000000200240,77084937393,mMTS,mKcell,mAltel,D02,D77,2016-06-26T16:13:36+06:00,
1000000000200241,77057157439,mKcell,mKarTel,mKarTel,,D02,2016-06-26T16:15:50+06:00,
1000000000200242,77053659009,mMTS,mKarTel,mKarTel,,D77,2016-06-26T16:15:43+06:00,
1000000000200243,77017887547,mMTS,mKcell,mKcell,,D77,2016-06-26T16:16:23+06:00,
1000000000200245,77773783437,mMTS,mKarTel,mKarTel,,D77,2016-06-26T16:20:51+06:00,
1000000000200246,77027261828,mMTS,mKcell,mKcell,,D77,2016-06-26T16:22:14+06:00,
1000000000200247,77054287760,mMTS,mKarTel,mKarTel,,D77,2016-06-26T16:24:21+06:00,
1000000000200250,77016831713,mAltel,mKcell,mKcell,,D07,2016-06-26T16:26:34+06:00,
1000000000200251,77764053535,mMTS,mKarTel,mKarTel,,D77,2016-06-26T16:26:48+06:00,
1000000000200252,77011885756,mMTS,mKcell,mKcell,,D77,2016-06-26T16:27:37+06:00,
1000000000200253,77012107020,mKarTel,mKcell,mKcell,,D01,2016-06-26T16:28:54+06:00,
