NPId,Number,RecipientId,DonorId,RangeHolderId,OldRoute,NewRoute,PortDate,RowCount
1000000000348621,77717654126,mMTS,mKarTel,mKarTel,,D77,2017-03-17T15:33:09+06:00,41
1000000000348622,77775525984,mMTS,mKarTel,mKarTel,,D77,2017-03-17T15:33:41+06:00,
1000000000348623,77717654119,mMTS,mKarTel,mKarTel,,D77,2017-03-17T15:34:20+06:00,
1000000000348624,77775525985,mMTS,mKarTel,mKarTel,,D77,2017-03-17T15:34:48+06:00,
1000000000348625,77775525980,mMTS,mKarTel,mKarTel,,D77,2017-03-17T15:36:09+06:00,
1000000000348626,77775525982,mMTS,mKarTel,mKarTel,,D77,2017-03-17T15:36:39+06:00,
1000000000348629,77775525983,mMTS,mKarTel,mKarTel,,D77,2017-03-17T15:37:07+06:00,
1000000000348631,77717755091,mMTS,mKarTel,mKarTel,,D77,2017-03-17T15:37:24+06:00,
1000000000348633,77717755094,mMTS,mKarTel,mKarTel,,D77,2017-03-17T15:38:06+06:00,
1000000000348684,77015315642,mKcell,mKarTel,mKcell,D01,D02,2017-03-17T15:31:22+06:00,
1000000000348686,77086638821,mKcell,mAltel,mAltel,,D02,2017-03-17T15:31:47+06:00,
1000000000348687,77773680186,mKcell,mKarTel,mKarTel,,D02,2017-03-17T15:32:11+06:00,
1000000000348688,77478423390,mKcell,mMTS,mMTS,,D02,2017-03-17T15:32:18+06:00,
1000000000348689,77083077083,mMTS,mKarTel,mAltel,D01,D77,2017-03-17T15:32:39+06:00,
1000000000348694,77782201029,mMTS,mKcell,mKcell,,D77,2017-03-17T15:35:01+06:00,
1000000000348695,77013116292,mKarTel,mKcell,mKcell,,D01,2017-03-17T15:36:27+06:00,
1000000000348696,77774793003,mKcell,mKarTel,mKarTel,,D02,2017-03-17T15:37:10+06:00,
1000000000348697,77477377086,mKarTel,mMTS,mMTS,,D01,2017-03-17T15:36:50+06:00,
1000000000348698,77086918939,mKarTel,mAltel,mAltel,,D01,2017-03-17T15:36:50+06:00,
1000000000348699,77029417822,mMTS,mKcell,mKcell,,D77,2017-03-17T15:37:26+06:00,
1000000000348701,77473252403,mKcell,mMTS,mMTS,,D02,2017-03-17T15:39:30+06:00,
1000000000348702,77004913009,mMTS,mAltel,mAltel,,D77,2017-03-17T15:40:16+06:00,
1000000000348703,77752695893,mMTS,mKcell,mKcell,,D77,2017-03-17T15:40:54+06:00,
1000000000348705,77789542812,mMTS,mKcell,mKcell,,D77,2017-03-17T15:42:51+06:00,
1000000000348708,77075552557,mAltel,mMTS,mMTS,,D07,2017-03-17T15:44:13+06:00,
1000000000348709,77072752751,mKcell,mMTS,mMTS,,D02,2017-03-17T15:44:33+06:00,
1000000000348711,77478047464,mKcell,mMTS,mMTS,,D02,2017-03-17T15:47:41+06:00,
1000000000348712,77027770814,mKcell,mKarTel,mKcell,D01,D02,2017-03-17T15:48:27+06:00,
1000000000348713,77076681750,mKarTel,mMTS,mMTS,,D01,2017-03-17T15:49:12+06:00,
1000000000348714,77478046960,mKcell,mMTS,mMTS,,D02,2017-03-17T15:51:20+06:00,
1000000000348715,77771028877,mMTS,mKarTel,mKarTel,,D77,2017-03-17T15:51:54+06:00,
1000000000348717,77779448877,mMTS,mKarTel,mKarTel,,D77,2017-03-17T15:52:24+06:00,
1000000000348718,77007773570,mKcell,mAltel,mAltel,,D02,2017-03-17T15:52:51+06:00,
1000000000348719,77007774670,mKcell,mAltel,mAltel,,D02,2017-03-17T15:53:16+06:00,
1000000000348721,77478046965,mKcell,mMTS,mMTS,,D02,2017-03-17T15:54:11+06:00,
1000000000348722,77007772170,mKcell,mAltel,mAltel,,D02,2017-03-17T15:55:05+06:00,
1000000000348723,77017863998,mKcell,mKarTel,mKcell,D01,D02,2017-03-17T15:56:25+06:00,
1000000000348724,77086308714,mKarTel,mAltel,mAltel,,D01,2017-03-17T15:56:30+06:00,
1000000000348725,77781001007,mAltel,mKcell,mKcell,,D07,2017-03-17T15:56:39+06:00,
1000000000348726,77007774870,mKcell,mAltel,mAltel,,D02,2017-03-17T15:57:16+06:00,
1000000000348728,77019401832,mMTS,mKcell,mKcell,D02,D77,2017-03-17T15:59:31+06:00,
