NPId,Number,RecipientId,DonorId,RangeHolderId,OldRoute,NewRoute,PortDate,RowCount
1000000000131318,77779258927,mAltel,mKarTel,mKarTel,,D07,2016-03-23T15:01:09+06:00,32
1000000000131319,77774873759,mMTS,mKarTel,mKarTel,,D77,2016-03-23T15:01:55+06:00,
1000000000131320,77777907519,mMTS,mKarTel,mKarTel,,D77,2016-03-23T15:06:35+06:00,
1000000000131321,77757099996,mMTS,mKcell,mKcell,,D77,2016-03-23T15:03:56+06:00,
1000000000131322,77077747587,mAltel,mMTS,mMTS,,D07,2016-03-23T15:04:45+06:00,
1000000000131323,77772304235,mMTS,mKarTel,mKarTel,,D77,2016-03-23T15:07:23+06:00,
1000000000131326,77014422922,mMTS,mKcell,mKcell,,D77,2016-03-23T15:07:15+06:00,
1000000000131327,77079090490,mKarTel,mMTS,mMTS,,D01,2016-03-23T15:08:31+06:00,
1000000000131328,77025322397,mAltel,mKcell,mKcell,,D07,2016-03-23T15:09:53+06:00,
1000000000131329,77071411118,mKarTel,mMTS,mMTS,,D01,2016-03-23T15:10:04+06:00,
1000000000131330,77024000172,mMTS,mKcell,mKcell,,D77,2016-03-23T15:11:30+06:00,
1000000000131332,77012030449,mKcell,mAltel,mKcell,D07,D02,2016-03-23T15:12:21+06:00,
1000000000131333,77019819961,mAltel,mKcell,mKcell,,D07,2016-03-23T15:12:24+06:00,
1000000000131335,77076364600,mKarTel,mMTS,mMTS,,D01,2016-03-23T15:14:23+06:00,
1000000000131336,77754158030,mMTS,mKcell,mKcell,,D77,2016-03-23T15:14:45+06:00,
1000000000131337,77074841994,mMTS,mAltel,mMTS,D07,D77,2016-03-23T15:16:04+06:00,
1000000000131339,77776777099,mMTS,mKarTel,mKarTel,,D77,2016-03-23T15:17:57+06:00,
1000000000131340,77774129273,mMTS,mKarTel,mKarTel,,D77,2016-03-23T15:17:56+06:00,
1000000000131342,77785551212,mMTS,mKcell,mKcell,,D77,2016-03-23T15:17:12+06:00,
1000000000131343,77012420908,mMTS,mAltel,mKcell,D07,D77,2016-03-23T15:17:00+06:00,
1000000000131344,77022865797,mMTS,mKcell,mKcell,,D77,2016-03-23T15:17:12+06:00,
1000000000131346,77753890314,mAltel,mKcell,mKcell,,D07,2016-03-23T15:17:56+06:00,
1000000000131347,77085230325,mMTS,mAltel,mAltel,,D77,2016-03-23T15:18:13+06:00,
1000000000131348,77001006060,mMTS,mAltel,mAltel,,D77,2016-03-23T15:19:47+06:00,
1000000000131349,77000700666,mKcell,mAltel,mAltel,,D02,2016-03-23T15:20:31+06:00,
1000000000131350,77000930404,mKarTel,mAltel,mAltel,,D01,2016-03-23T15:20:42+06:00,
1000000000131351,77767077600,mKcell,mKarTel,mKarTel,,D02,2016-03-23T15:23:03+06:00,
1000000000131352,77777000747,mKcell,mKarTel,mKarTel,,D02,2016-03-23T15:23:04+06:00,
1000000000131355,77078890090,mKcell,mMTS,mMTS,,D02,2016-03-23T15:24:21+06:00,
1000000000131357,77083401998,mMTS,mAltel,mAltel,,D77,2016-03-23T15:25:44+06:00,
1000000000131358,77017112026,mKarTel,mKcell,mKcell,,D01,2016-03-23T15:27:42+06:00,
1000000000131360,77017055600,mMTS,mKcell,mKcell,,D77,2016-03-23T15:29:21+06:00,
