NPId,Number,RecipientId,DonorId,RangeHolderId,OldRoute,NewRoute,PortDate,RowCount
1000000000242812,77022987628,mMTS,mKcell,mKcell,,D77,2016-09-08T18:03:33+06:00,21
1000000000242814,77079089888,mKarTel,mMTS,mMTS,,D01,2016-09-08T18:06:01+06:00,
1000000000242815,77781079035,mKcell,mMTS,mKcell,D77,D02,2016-09-08T18:06:17+06:00,
1000000000242817,77021648102,mAltel,mKcell,mKcell,,D07,2016-09-08T18:08:05+06:00,
1000000000242819,77771902222,mKarTel,mMTS,mKarTel,D77,D01,2016-09-08T18:11:07+06:00,
1000000000242820,77002368941,mMTS,mAltel,mAltel,,D77,2016-09-08T18:11:38+06:00,
1000000000242822,77762291960,mMTS,mKarTel,mKarTel,,D77,2016-09-08T18:12:50+06:00,
1000000000242824,77019050205,mKarTel,mKcell,mKcell,,D01,2016-09-08T18:15:17+06:00,
1000000000242825,77003167305,mAltel,mMTS,mAltel,D77,D07,2016-09-08T18:16:46+06:00,
1000000000242827,77015773251,mMTS,mKcell,mKcell,,D77,2016-09-08T18:20:03+06:00,
1000000000242829,77052322227,mMTS,mAltel,mKarTel,D07,D77,2016-09-08T18:22:39+06:00,
1000000000242830,77773698272,mMTS,mKarTel,mKarTel,,D77,2016-09-08T18:23:16+06:00,
1000000000242831,77783198891,mMTS,mKcell,mKcell,,D77,2016-09-08T18:23:27+06:00,
1000000000242832,77056268686,mAltel,mKarTel,mKarTel,,D07,2016-09-08T18:24:07+06:00,
1000000000242833,77013017117,mAltel,mKcell,mKcell,,D07,2016-09-08T18:24:50+06:00,
1000000000242834,77075444634,mKcell,mMTS,mMTS,,D02,2016-09-08T18:26:29+06:00,
1000000000242835,77018540888,mKarTel,mKcell,mKcell,,D01,2016-09-08T18:27:25+06:00,
1000000000242836,77762291950,mMTS,mKarTel,mKarTel,,D77,2016-09-08T18:27:51+06:00,
1000000000242837,77028747999,mKcell,mAltel,mKcell,D07,D02,2016-09-08T18:27:48+06:00,
1000000000242838,77789025595,mMTS,mKcell,mKcell,,D77,2016-09-08T18:27:39+06:00,
1000000000242839,77017499005,mAltel,mKcell,mKcell,,D07,2016-09-08T18:29:43+06:00,
