NPId,Number,RecipientId,DonorId,RangeHolderId,OldRoute,NewRoute,PortDate,RowCount
1000000000195401,77023304030,mKarTel,mKcell,mKcell,,D01,2016-06-17T18:00:14+06:00,30
1000000000195403,77022663737,mKcell,mMTS,mKcell,D77,D02,2016-06-17T18:00:41+06:00,
1000000000195404,77001333883,mMTS,mAltel,mAltel,,D77,2016-06-17T18:01:30+06:00,
1000000000195406,77772411332,mAltel,mKarTel,mKarTel,,D07,2016-06-17T18:02:32+06:00,
1000000000195407,77752554447,mKarTel,mKcell,mKcell,,D01,2016-06-17T18:08:52+06:00,
1000000000195408,77017352895,mKcell,mMTS,mKcell,D77,D02,2016-06-17T18:08:42+06:00,
1000000000195409,77056269797,mMTS,mKarTel,mKarTel,,D77,2016-06-17T18:06:12+06:00,
1000000000195411,77052072767,mMTS,mKarTel,mKarTel,,D77,2016-06-17T18:07:02+06:00,
1000000000195412,77782471112,mMTS,mKcell,mKcell,,D77,2016-06-17T18:07:50+06:00,
1000000000195413,77785555515,mAltel,mKcell,mKcell,,D07,2016-06-17T18:09:14+06:00,
1000000000195414,77025556804,mKcell,mMTS,mKcell,D77,D02,2016-06-17T18:09:43+06:00,
1000000000195416,77075306127,mKarTel,mMTS,mMTS,,D01,2016-06-17T18:11:15+06:00,
1000000000195418,77025989630,mMTS,mKcell,mKcell,,D77,2016-06-17T18:14:41+06:00,
1000000000195420,77025555358,mKarTel,mKcell,mKcell,,D01,2016-06-17T18:15:21+06:00,
1000000000195421,77015324353,mKcell,mMTS,mKcell,D77,D02,2016-06-17T18:15:11+06:00,
1000000000195422,77788888910,mKcell,mMTS,mKcell,D77,D02,2016-06-17T18:15:11+06:00,
1000000000195423,77022092566,mMTS,mKcell,mKcell,,D77,2016-06-17T18:16:31+06:00,
1000000000195425,77052963630,mMTS,mKarTel,mKarTel,,D77,2016-06-17T18:17:29+06:00,
1000000000195426,77024892541,mMTS,mKcell,mKcell,,D77,2016-06-17T18:17:33+06:00,
1000000000195427,77017702896,mMTS,mKcell,mKcell,,D77,2016-06-17T18:17:47+06:00,
1000000000195428,77015992503,mMTS,mKcell,mKcell,,D77,2016-06-17T18:18:17+06:00,
1000000000195430,77087080706,mMTS,mAltel,mAltel,,D77,2016-06-17T18:22:12+06:00,
1000000000195431,77473391609,mAltel,mMTS,mMTS,,D07,2016-06-17T18:23:30+06:00,
1000000000195432,77018001155,mAltel,mKcell,mKcell,,D07,2016-06-17T18:26:50+06:00,
1000000000195433,77007979766,mMTS,mAltel,mAltel,,D77,2016-06-17T18:26:43+06:00,
1000000000195434,77081079566,mMTS,mAltel,mAltel,,D77,2016-06-17T18:27:09+06:00,
1000000000195436,77054890445,mMTS,mKarTel,mKarTel,,D77,2016-06-17T18:28:10+06:00,
1000000000195437,77752807724,mMTS,mKcell,mKcell,,D77,2016-06-17T18:28:26+06:00,
1000000000195438,77077600049,mKcell,mMTS,mMTS,,D02,2016-06-17T18:29:19+06:00,
1000000000195439,77055799609,mMTS,mKarTel,mKarTel,,D77,2016-06-17T18:29:29+06:00,
