NPId,Number,RecipientId,DonorId,RangeHolderId,OldRoute,NewRoute,PortDate,RowCount
1000000000430238,77081332102,mMTS,mAltel,mAltel,,D77,2017-07-29T11:01:10+06:00,17
1000000000430239,77774203903,mMTS,mKarTel,mKarTel,,D77,2017-07-29T11:04:18+06:00,
1000000000430240,77015340944,mKcell,mMTS,mKcell,D77,D02,2017-07-29T11:05:35+06:00,
1000000000430243,77076747682,mAltel,mMTS,mMTS,,D07,2017-07-29T11:07:27+06:00,
1000000000430244,77776202317,mAltel,mKarTel,mKarTel,,D07,2017-07-29T11:08:43+06:00,
1000000000430245,77754945760,mMTS,mKcell,mKcell,,D77,2017-07-29T11:12:15+06:00,
1000000000430246,77021216967,mMTS,mKcell,mKcell,,D77,2017-07-29T11:12:21+06:00,
1000000000430249,77475381137,mMTS,mKarTel,mMTS,D01,D77,2017-07-29T11:15:06+06:00,
1000000000430250,77076013020,mKcell,mMTS,mMTS,,D02,2017-07-29T11:19:22+06:00,
1000000000430251,77019708788,mKarTel,mKcell,mKcell,,D01,2017-07-29T11:21:02+06:00,
1000000000430252,77475353612,mMTS,mKarTel,mMTS,D01,D77,2017-07-29T11:21:06+06:00,
1000000000430253,77754945190,mMTS,mKcell,mKcell,,D77,2017-07-29T11:22:19+06:00,
1000000000430254,77017174371,mAltel,mKcell,mKcell,,D07,2017-07-29T11:23:44+06:00,
1000000000430255,77004605469,mMTS,mKarTel,mAltel,D01,D77,2017-07-29T11:24:02+06:00,
1000000000430256,77011119570,mKarTel,mKcell,mKcell,,D01,2017-07-29T11:26:42+06:00,
1000000000430257,77025274250,mKcell,mKarTel,mKcell,D01,D02,2017-07-29T11:27:43+06:00,
1000000000430258,77014577667,mKcell,mAltel,mKcell,D07,D02,2017-07-29T11:28:08+06:00,
