NPId,Number,RecipientId,DonorId,RangeHolderId,OldRoute,NewRoute,PortDate,RowCount
1000000000122776,77755339880,mAltel,mKcell,mKcell,,D07,2016-03-11T17:31:00+06:00,45
1000000000122780,77051333186,mMTS,mKarTel,mKarTel,,D77,2016-03-11T17:32:22+06:00,
1000000000122781,77076495458,mKcell,mMTS,mMTS,,D02,2016-03-11T17:32:19+06:00,
1000000000122782,77012180639,mKarTel,mKcell,mKcell,,D01,2016-03-11T17:33:29+06:00,
1000000000122784,77018889351,mAltel,mKcell,mKcell,,D07,2016-03-11T17:35:52+06:00,
1000000000122785,77019396390,mKarTel,mKcell,mKcell,,D01,2016-03-11T17:36:09+06:00,
1000000000122786,77021861666,mKarTel,mKcell,mKcell,,D01,2016-03-11T17:36:21+06:00,
1000000000122787,77017792440,mKarTel,mKcell,mKcell,,D01,2016-03-11T17:36:20+06:00,
1000000000122788,77021204693,mAltel,mKcell,mKcell,,D07,2016-03-11T17:37:16+06:00,
1000000000122790,77017526148,mMTS,mKcell,mKcell,,D77,2016-03-11T17:38:20+06:00,
1000000000122791,77009651752,mMTS,mAltel,mAltel,,D77,2016-03-11T17:38:34+06:00,
1000000000122792,77056068591,mMTS,mKarTel,mKarTel,,D77,2016-03-11T17:39:36+06:00,
1000000000122794,77015351341,mMTS,mKcell,mKcell,,D77,2016-03-11T17:41:21+06:00,
1000000000122795,77016128498,mMTS,mAltel,mKcell,D07,D77,2016-03-11T17:41:19+06:00,
1000000000122797,77018133085,mMTS,mKcell,mKcell,,D77,2016-03-11T17:43:01+06:00,
1000000000122798,77017187886,mMTS,mKcell,mKcell,,D77,2016-03-11T17:43:01+06:00,
1000000000122800,77774000491,mMTS,mKarTel,mKarTel,,D77,2016-03-11T17:45:14+06:00,
1000000000122801,77758490934,mMTS,mKcell,mKcell,,D77,2016-03-11T17:45:10+06:00,
1000000000122802,77759067440,mMTS,mKcell,mKcell,,D77,2016-03-11T17:45:26+06:00,
1000000000122806,77757493127,mKarTel,mKcell,mKcell,,D01,2016-03-11T17:47:10+06:00,
1000000000122807,77074234144,mKarTel,mMTS,mMTS,,D01,2016-03-11T17:47:08+06:00,
1000000000122808,77016848553,mKcell,mMTS,mKcell,D77,D02,2016-03-11T17:47:37+06:00,
1000000000122809,77783029111,mMTS,mKcell,mKcell,,D77,2016-03-11T17:47:57+06:00,
1000000000122810,77771484135,mMTS,mKarTel,mKarTel,,D77,2016-03-11T17:47:51+06:00,
1000000000122811,77019501688,mKcell,mAltel,mKcell,D07,D02,2016-03-11T17:48:53+06:00,
1000000000122813,77053930393,mAltel,mKarTel,mKarTel,,D07,2016-03-11T17:49:15+06:00,
1000000000122814,77772729295,mMTS,mKarTel,mKarTel,,D77,2016-03-11T17:50:18+06:00,
1000000000122815,77783989899,mMTS,mKcell,mKcell,,D77,2016-03-11T17:50:02+06:00,
1000000000122816,77009031111,mMTS,mAltel,mAltel,,D77,2016-03-11T17:49:55+06:00,
1000000000122817,77013666661,mMTS,mKcell,mKcell,,D77,2016-03-11T17:51:43+06:00,
1000000000122818,77010554405,mMTS,mKcell,mKcell,,D77,2016-03-11T17:52:05+06:00,
1000000000122819,77015281680,mMTS,mKcell,mKcell,,D77,2016-03-11T17:52:17+06:00,
1000000000122820,77018030333,mKarTel,mKcell,mKcell,,D01,2016-03-11T17:52:45+06:00,
1000000000122821,77076105844,mKarTel,mMTS,mMTS,,D01,2016-03-11T17:53:07+06:00,
1000000000122822,77027142753,mMTS,mKcell,mKcell,,D77,2016-03-11T17:54:42+06:00,
1000000000122823,77018414321,mKcell,mAltel,mKcell,D07,D02,2016-03-11T17:55:16+06:00,
1000000000122824,77473992711,mAltel,mMTS,mMTS,,D07,2016-03-11T17:54:48+06:00,
1000000000122825,77012800449,mKarTel,mKcell,mKcell,,D01,2016-03-11T17:55:43+06:00,
1000000000122826,77001048888,mMTS,mAltel,mAltel,,D77,2016-03-11T17:56:00+06:00,
1000000000122828,77009153100,mMTS,mAltel,mAltel,,D77,2016-03-11T17:56:33+06:00,
1000000000122829,77014551208,mMTS,mKcell,mKcell,,D77,2016-03-11T17:57:03+06:00,
1000000000122830,77773536970,mAltel,mKarTel,mKarTel,,D07,2016-03-11T17:57:13+06:00,
1000000000122832,77021420077,mMTS,mKcell,mKcell,,D77,2016-03-11T17:57:15+06:00,
1000000000122836,77019404905,mKarTel,mKcell,mKcell,,D01,2016-03-11T17:59:00+06:00,
1000000000122837,77019870001,mMTS,mKcell,mKcell,,D77,2016-03-11T17:59:12+06:00,
