NPId,Number,RecipientId,DonorId,RangeHolderId,OldRoute,NewRoute,PortDate,RowCount
1000000000000808,77013117247,mKarTel,mKcell,mKcell,,D01,2016-01-05T09:30:32+06:00,7
1000000000000809,77075212102,mKcell,mMTS,mMTS,,D02,2016-01-05T09:33:25+06:00,
1000000000000810,77011521905,mKarTel,mKcell,mKcell,,D01,2016-01-05T09:33:38+06:00,
1000000000000813,77713777768,mKcell,mKarTel,mKarTel,,D02,2016-01-05T09:43:28+06:00,
1000000000000815,77019338801,mKarTel,mKcell,mKcell,,D01,2016-01-05T09:53:40+06:00,
1000000000000816,77764745555,mKcell,mKarTel,mKarTel,,D02,2016-01-05T09:54:30+06:00,
1000000000000819,77755505511,mKarTel,mKcell,mKcell,,D01,2016-01-05T09:59:20+06:00,
