NPId,Number,RecipientId,DonorId,RangeHolderId,OldRoute,NewRoute,PortDate,RowCount
1000000000331319,77751555757,mKcell,mAltel,mKcell,D07,D02,2017-02-19T16:00:23+06:00,6
1000000000331320,77028605555,mMTS,mKcell,mKcell,,D77,2017-02-19T16:09:04+06:00,
1000000000331322,77015039822,mMTS,mKcell,mKcell,,D77,2017-02-19T16:12:55+06:00,
1000000000331325,77775836554,mMTS,mKarTel,mKarTel,,D77,2017-02-19T16:18:05+06:00,
1000000000331326,77772587549,mMTS,mKarTel,mKarTel,,D77,2017-02-19T16:18:48+06:00,
1000000000331330,77019940891,mMTS,mKarTel,mKcell,D01,D77,2017-02-19T16:23:51+06:00,
