NPId,Number,RecipientId,DonorId,RangeHolderId,OldRoute,NewRoute,PortDate,RowCount
1000000000232539,77775289840,mKcell,mKarTel,mKarTel,,D02,2016-08-22T16:00:22+06:00,25
1000000000232543,77768002135,mMTS,mKarTel,mKarTel,,D77,2016-08-22T16:06:48+06:00,
1000000000232544,77001246533,mMTS,mAltel,mAltel,,D77,2016-08-22T16:05:54+06:00,
1000000000232545,77755671818,mKcell,mAltel,mKcell,D07,D02,2016-08-22T16:07:23+06:00,
1000000000232546,77017105667,mKarTel,mKcell,mKcell,,D01,2016-08-22T16:07:28+06:00,
1000000000232547,77017203876,mMTS,mKcell,mKcell,,D77,2016-08-22T16:07:27+06:00,
1000000000232548,77012779991,mKcell,mMTS,mKcell,D77,D02,2016-08-22T16:07:57+06:00,
1000000000232550,77757770007,mAltel,mKcell,mKcell,,D07,2016-08-22T16:12:33+06:00,
1000000000232551,77010835551,mAltel,mKcell,mKcell,,D07,2016-08-22T16:11:02+06:00,
1000000000232552,77010122206,mMTS,mKcell,mKcell,,D77,2016-08-22T16:11:26+06:00,
1000000000232553,77023606603,mMTS,mKarTel,mKcell,D01,D77,2016-08-22T16:12:09+06:00,
1000000000232554,77751005511,mMTS,mKcell,mKcell,,D77,2016-08-22T16:12:37+06:00,
1000000000232555,77016681919,mMTS,mKcell,mKcell,,D77,2016-08-22T16:13:05+06:00,
1000000000232557,77073750139,mAltel,mMTS,mMTS,,D07,2016-08-22T16:14:14+06:00,
1000000000232558,77758375899,mMTS,mKcell,mKcell,,D77,2016-08-22T16:15:13+06:00,
1000000000232559,77773001419,mMTS,mKarTel,mKarTel,,D77,2016-08-22T16:16:36+06:00,
1000000000232560,77071304000,mKarTel,mMTS,mMTS,,D01,2016-08-22T16:16:41+06:00,
1000000000232562,77770656611,mKarTel,mMTS,mKarTel,D77,D01,2016-08-22T16:18:07+06:00,
1000000000232563,77059114466,mKcell,mKarTel,mKarTel,,D02,2016-08-22T16:18:34+06:00,
1000000000232564,77786194553,mKarTel,mKcell,mKcell,,D01,2016-08-22T16:20:11+06:00,
1000000000232565,77018874764,mKarTel,mKcell,mKcell,,D01,2016-08-22T16:22:14+06:00,
1000000000232567,77055099386,mMTS,mKarTel,mKarTel,,D77,2016-08-22T16:22:48+06:00,
1000000000232568,77019001220,mAltel,mKcell,mKcell,,D07,2016-08-22T16:23:07+06:00,
1000000000232570,77073607134,mKarTel,mKcell,mMTS,D02,D01,2016-08-22T16:28:50+06:00,
1000000000232572,77058111662,mKcell,mMTS,mKarTel,D77,D02,2016-08-22T16:29:41+06:00,
