NPId,Number,RecipientId,DonorId,RangeHolderId,OldRoute,NewRoute,PortDate,RowCount
1000000000293312,77029666346,mKcell,mMTS,mKcell,D77,D02,2016-12-10T17:00:23+06:00,18
1000000000293313,77752024890,mKcell,mMTS,mKcell,D77,D02,2016-12-10T17:02:43+06:00,
1000000000293314,77774260701,mMTS,mKarTel,mKarTel,,D77,2016-12-10T17:03:37+06:00,
1000000000293316,77017258587,mMTS,mKcell,mKcell,,D77,2016-12-10T17:04:04+06:00,
1000000000293318,77018028324,mMTS,mKcell,mKcell,,D77,2016-12-10T17:04:48+06:00,
1000000000293319,77074154997,mAltel,mMTS,mMTS,,D07,2016-12-10T17:04:37+06:00,
1000000000293320,77771115899,mMTS,mKarTel,mKarTel,,D77,2016-12-10T17:06:28+06:00,
1000000000293321,77012065856,mKarTel,mKcell,mKcell,,D01,2016-12-10T17:07:36+06:00,
1000000000293322,77779990077,mAltel,mKarTel,mKarTel,,D07,2016-12-10T17:09:24+06:00,
1000000000293323,77473009070,mKarTel,mMTS,mMTS,,D01,2016-12-10T17:09:41+06:00,
1000000000293325,77769114114,mMTS,mKarTel,mKarTel,,D77,2016-12-10T17:11:20+06:00,
1000000000293326,77019427170,mKarTel,mKcell,mKcell,,D01,2016-12-10T17:13:38+06:00,
1000000000293328,77772221217,mMTS,mKarTel,mKarTel,,D77,2016-12-10T17:14:49+06:00,
1000000000293329,77017202430,mKarTel,mKcell,mKcell,,D01,2016-12-10T17:16:17+06:00,
1000000000293332,77075373455,mKcell,mMTS,mMTS,,D02,2016-12-10T17:20:36+06:00,
1000000000293333,77001501997,mKcell,mAltel,mAltel,,D02,2016-12-10T17:21:07+06:00,
1000000000293334,77753733939,mAltel,mKcell,mKcell,,D07,2016-12-10T17:21:58+06:00,
1000000000293335,77003728433,mKcell,mAltel,mAltel,,D02,2016-12-10T17:28:01+06:00,
