NPId,Number,RecipientId,DonorId,RangeHolderId,OldRoute,NewRoute,PortDate,RowCount
1000000000135502,77010351049,mKarTel,mKcell,mKcell,,D01,2016-03-29T09:15:46+06:00,26
1000000000135502,77017100868,mKarTel,mKcell,mKcell,,D01,2016-03-29T09:15:46+06:00,
1000000000135502,77017181744,mKarTel,mKcell,mKcell,,D01,2016-03-29T09:15:46+06:00,
1000000000135502,77017318010,mKarTel,mKcell,mKcell,,D01,2016-03-29T09:15:46+06:00,
1000000000135502,77017556185,mKarTel,mKcell,mKcell,,D01,2016-03-29T09:15:46+06:00,
1000000000135502,77017660538,mKarTel,mKcell,mKcell,,D01,2016-03-29T09:15:46+06:00,
1000000000135502,77017668670,mKarTel,mKcell,mKcell,,D01,2016-03-29T09:15:46+06:00,
1000000000135502,77019531291,mKarTel,mKcell,mKcell,,D01,2016-03-29T09:15:46+06:00,
1000000000135502,77019531560,mKarTel,mKcell,mKcell,,D01,2016-03-29T09:15:46+06:00,
1000000000135502,77019534754,mKarTel,mKcell,mKcell,,D01,2016-03-29T09:15:46+06:00,
1000000000135502,77019534755,mKarTel,mKcell,mKcell,,D01,2016-03-29T09:15:46+06:00,
1000000000135502,77019534756,mKarTel,mKcell,mKcell,,D01,2016-03-29T09:15:46+06:00,
1000000000135502,77019628920,mKarTel,mKcell,mKcell,,D01,2016-03-29T09:15:46+06:00,
1000000000135735,77773500550,mKarTel,mMTS,mKarTel,D77,D01,2016-03-29T09:13:58+06:00,
1000000000135955,77017286078,mKarTel,mKcell,mKcell,,D01,2016-03-29T09:02:49+06:00,
1000000000135956,77086501686,mKarTel,mAltel,mAltel,,D01,2016-03-29T09:02:22+06:00,
1000000000135957,77056240009,mKarTel,mKcell,mKarTel,D02,D01,2016-03-29T09:02:49+06:00,
1000000000135958,77777988899,mMTS,mKarTel,mKarTel,,D77,2016-03-29T09:03:17+06:00,
1000000000135959,77754438295,mKcell,mKarTel,mKcell,D01,D02,2016-03-29T09:03:48+06:00,
1000000000135960,77776665212,mKarTel,mAltel,mKarTel,D07,D01,2016-03-29T09:09:02+06:00,
1000000000135961,77019928200,mMTS,mKcell,mKcell,,D77,2016-03-29T09:22:32+06:00,
1000000000135962,77471320856,mKcell,mMTS,mMTS,,D02,2016-03-29T09:22:41+06:00,
1000000000135963,77025546622,mAltel,mKcell,mKcell,,D07,2016-03-29T09:23:40+06:00,
1000000000135964,77019801088,mMTS,mKcell,mKcell,,D77,2016-03-29T09:27:35+06:00,
1000000000135965,77761241173,mMTS,mKarTel,mKarTel,,D77,2016-03-29T09:29:10+06:00,
1000000000135966,77752400041,mKcell,mAltel,mKcell,D07,D02,2016-03-29T09:29:36+06:00,
