NPId,Number,RecipientId,DonorId,RangeHolderId,OldRoute,NewRoute,PortDate,RowCount
1000000000139016,77711939152,mKcell,mKarTel,mKarTel,,D02,2016-04-01T11:00:01+06:00,39
1000000000139017,77024137957,mKcell,mKarTel,mKcell,D01,D02,2016-04-01T11:00:10+06:00,
1000000000139018,77770367245,mMTS,mKarTel,mKarTel,,D77,2016-04-01T11:00:09+06:00,
1000000000139019,77770405610,mMTS,mKarTel,mKarTel,,D77,2016-04-01T11:01:34+06:00,
1000000000139020,77780000317,mMTS,mKcell,mKcell,,D77,2016-04-01T11:01:30+06:00,
1000000000139021,77774004000,mMTS,mKarTel,mKarTel,,D77,2016-04-01T11:02:06+06:00,
1000000000139022,77017397293,mAltel,mKcell,mKcell,,D07,2016-04-01T11:02:05+06:00,
1000000000139024,77477091103,mMTS,mAltel,mMTS,D07,D77,2016-04-01T11:03:55+06:00,
1000000000139025,77780000318,mMTS,mKcell,mKcell,,D77,2016-04-01T11:04:31+06:00,
1000000000139026,77014118999,mMTS,mKcell,mKcell,,D77,2016-04-01T11:04:43+06:00,
1000000000139029,77012427177,mMTS,mKcell,mKcell,,D77,2016-04-01T11:07:14+06:00,
1000000000139030,77714018397,mMTS,mKarTel,mKarTel,,D77,2016-04-01T11:08:13+06:00,
1000000000139032,77081708001,mMTS,mAltel,mAltel,,D77,2016-04-01T11:07:50+06:00,
1000000000139033,77779018425,mMTS,mKarTel,mKarTel,,D77,2016-04-01T11:10:38+06:00,
1000000000139034,77055548885,mKcell,mKarTel,mKarTel,,D02,2016-04-01T11:11:05+06:00,
1000000000139035,77015246771,mMTS,mKcell,mKcell,,D77,2016-04-01T11:09:49+06:00,
1000000000139038,77776465401,mMTS,mKarTel,mKarTel,,D77,2016-04-01T11:11:40+06:00,
1000000000139040,77013804444,mKcell,mKarTel,mKcell,D01,D02,2016-04-01T11:13:17+06:00,
1000000000139041,77021000073,mMTS,mKcell,mKcell,,D77,2016-04-01T11:12:57+06:00,
1000000000139042,77768077877,mMTS,mKarTel,mKarTel,,D77,2016-04-01T11:14:03+06:00,
1000000000139043,77073006585,mMTS,mAltel,mMTS,D07,D77,2016-04-01T11:13:39+06:00,
1000000000139044,77776739607,mMTS,mKarTel,mKarTel,,D77,2016-04-01T11:14:59+06:00,
1000000000139045,77053988286,mMTS,mKarTel,mKarTel,,D77,2016-04-01T11:14:59+06:00,
1000000000139046,77077240266,mKcell,mMTS,mMTS,,D02,2016-04-01T11:14:55+06:00,
1000000000139049,77757917175,mMTS,mKcell,mKcell,,D77,2016-04-01T11:15:52+06:00,
1000000000139051,77014093113,mAltel,mKcell,mKcell,,D07,2016-04-01T11:18:05+06:00,
1000000000139053,77019570463,mMTS,mKcell,mKcell,,D77,2016-04-01T11:18:12+06:00,
1000000000139054,77018268885,mKcell,mKarTel,mKcell,D01,D02,2016-04-01T11:20:13+06:00,
1000000000139055,77052513304,mKarTel,mMTS,mKarTel,D77,D01,2016-04-01T11:19:37+06:00,
1000000000139056,77005551777,mMTS,mAltel,mAltel,,D77,2016-04-01T11:20:05+06:00,
1000000000139057,77774542033,mKarTel,mAltel,mKarTel,D07,D01,2016-04-01T11:21:01+06:00,
1000000000139059,77015385115,mMTS,mKcell,mKcell,,D77,2016-04-01T11:22:36+06:00,
1000000000139060,77779990203,mKarTel,mKcell,mKarTel,D02,D01,2016-04-01T11:23:25+06:00,
1000000000139061,77012456477,mKcell,mMTS,mKcell,D77,D02,2016-04-01T11:23:36+06:00,
1000000000139062,77774113363,mAltel,mKarTel,mKarTel,,D07,2016-04-01T11:24:25+06:00,
1000000000139064,77017669190,mKarTel,mKcell,mKcell,,D01,2016-04-01T11:24:23+06:00,
1000000000139067,77005585555,mKarTel,mAltel,mAltel,,D01,2016-04-01T11:25:48+06:00,
1000000000139068,77012666635,mAltel,mKcell,mKcell,,D07,2016-04-01T11:26:16+06:00,
1000000000139069,77016475271,mKarTel,mKcell,mKcell,,D01,2016-04-01T11:26:45+06:00,
