NPId,Number,RecipientId,DonorId,RangeHolderId,OldRoute,NewRoute,PortDate,RowCount
1000000000106733,77017999706,mAltel,mKcell,mKcell,,D07,2016-03-04T12:32:01+06:00,33
1000000000106734,77026816307,mAltel,mKcell,mKcell,,D07,2016-03-04T12:32:25+06:00,
1000000000106735,77057301051,mMTS,mKarTel,mKarTel,,D77,2016-03-04T12:32:33+06:00,
1000000000106736,77771920323,mAltel,mKarTel,mKarTel,,D07,2016-03-04T12:33:21+06:00,
1000000000106737,77770222888,mAltel,mKarTel,mKarTel,,D07,2016-03-04T12:33:32+06:00,
1000000000106738,77059009931,mAltel,mKarTel,mKarTel,,D07,2016-03-04T12:34:08+06:00,
1000000000106739,77087581848,mMTS,mAltel,mAltel,,D77,2016-03-04T12:33:33+06:00,
1000000000106740,77078383456,mAltel,mMTS,mMTS,,D07,2016-03-04T12:33:57+06:00,
1000000000106741,77472181881,mKarTel,mMTS,mMTS,,D01,2016-03-04T12:34:33+06:00,
1000000000106743,77011396909,mKarTel,mKcell,mKcell,,D01,2016-03-04T12:35:53+06:00,
1000000000106745,77051749579,mKcell,mKarTel,mKarTel,,D02,2016-03-04T12:37:32+06:00,
1000000000106747,77075609949,mKarTel,mMTS,mMTS,,D01,2016-03-04T12:37:41+06:00,
1000000000106748,77785935000,mAltel,mKcell,mKcell,,D07,2016-03-04T12:37:59+06:00,
1000000000106750,77021979092,mAltel,mKcell,mKcell,,D07,2016-03-04T12:38:15+06:00,
1000000000106753,77019024945,mMTS,mKcell,mKcell,,D77,2016-03-04T12:38:53+06:00,
1000000000106754,77019509148,mAltel,mKcell,mKcell,,D07,2016-03-04T12:40:37+06:00,
1000000000106755,77778188080,mAltel,mKarTel,mKarTel,,D07,2016-03-04T12:41:31+06:00,
1000000000106756,77056151995,mMTS,mKarTel,mKarTel,,D77,2016-03-04T12:42:24+06:00,
1000000000106757,77770980832,mAltel,mKarTel,mKarTel,,D07,2016-03-04T12:42:26+06:00,
1000000000106758,77021229059,mMTS,mKcell,mKcell,,D77,2016-03-04T12:42:08+06:00,
1000000000106760,77029205666,mMTS,mKcell,mKcell,,D77,2016-03-04T12:42:57+06:00,
1000000000106761,77015131785,mMTS,mKcell,mKcell,,D77,2016-03-04T12:43:27+06:00,
1000000000106762,77018824988,mMTS,mKcell,mKcell,,D77,2016-03-04T12:44:39+06:00,
1000000000106763,77072008080,mKcell,mMTS,mMTS,,D02,2016-03-04T12:46:57+06:00,
1000000000106764,77000000230,mKarTel,mAltel,mAltel,,D01,2016-03-04T12:46:52+06:00,
1000000000106765,77761721993,mMTS,mKarTel,mKarTel,,D77,2016-03-04T12:47:20+06:00,
1000000000106768,77752282555,mMTS,mKcell,mKcell,,D77,2016-03-04T12:50:06+06:00,
1000000000106772,77018527209,mMTS,mKcell,mKcell,,D77,2016-03-04T12:54:12+06:00,
1000000000106774,77076484014,mKarTel,mMTS,mMTS,,D01,2016-03-04T12:56:29+06:00,
1000000000106775,77056621992,mMTS,mKarTel,mKarTel,,D77,2016-03-04T12:57:25+06:00,
1000000000106777,77027023958,mMTS,mKcell,mKcell,,D77,2016-03-04T12:57:27+06:00,
1000000000106778,77077361995,mAltel,mMTS,mMTS,,D07,2016-03-04T12:57:32+06:00,
1000000000106779,77051927377,mAltel,mKarTel,mKarTel,,D07,2016-03-04T12:58:45+06:00,
