NPId,Number,RecipientId,DonorId,RangeHolderId,OldRoute,NewRoute,PortDate,RowCount
1000000000219173,77777471906,mKcell,mKarTel,mKarTel,,D02,2016-07-29T15:21:31+06:00,29
1000000000219308,77019102090,mKcell,mKarTel,mKcell,D01,D02,2016-07-29T15:00:54+06:00,
1000000000219330,77023531067,mMTS,mKcell,mKcell,,D77,2016-07-29T15:00:01+06:00,
1000000000219331,77085166065,mAltel,mMTS,mAltel,D77,D07,2016-07-29T15:00:36+06:00,
1000000000219332,77778397722,mMTS,mKarTel,mKarTel,,D77,2016-07-29T15:02:09+06:00,
1000000000219333,77054045525,mKcell,mKarTel,mKarTel,,D02,2016-07-29T15:06:02+06:00,
1000000000219334,77754560478,mMTS,mKcell,mKcell,,D77,2016-07-29T15:01:20+06:00,
1000000000219335,77003885217,mMTS,mAltel,mAltel,,D77,2016-07-29T15:01:14+06:00,
1000000000219336,77774590853,mMTS,mKarTel,mKarTel,,D77,2016-07-29T15:05:52+06:00,
1000000000219337,77714264971,mMTS,mKarTel,mKarTel,,D77,2016-07-29T15:06:47+06:00,
1000000000219338,77017188404,mKcell,mAltel,mKcell,D07,D02,2016-07-29T15:04:49+06:00,
1000000000219339,77028529007,mMTS,mKcell,mKcell,,D77,2016-07-29T15:07:17+06:00,
1000000000219342,77010143692,mMTS,mKcell,mKcell,,D77,2016-07-29T15:10:49+06:00,
1000000000219344,77771700237,mMTS,mKarTel,mKarTel,,D77,2016-07-29T15:16:51+06:00,
1000000000219345,77018889207,mKarTel,mKcell,mKcell,,D01,2016-07-29T15:16:48+06:00,
1000000000219347,77779992558,mKcell,mKarTel,mKarTel,,D02,2016-07-29T15:18:24+06:00,
1000000000219349,77051280444,mKarTel,mAltel,mKarTel,D07,D01,2016-07-29T15:17:20+06:00,
1000000000219350,77753192193,mMTS,mKcell,mKcell,,D77,2016-07-29T15:17:03+06:00,
1000000000219351,77713574909,mMTS,mKarTel,mKarTel,,D77,2016-07-29T15:18:40+06:00,
1000000000219353,77771127374,mKarTel,mKcell,mKarTel,D02,D01,2016-07-29T15:18:16+06:00,
1000000000219355,77787828118,mKcell,mMTS,mKcell,D77,D02,2016-07-29T15:18:21+06:00,
1000000000219356,77052620112,mMTS,mKarTel,mKarTel,,D77,2016-07-29T15:19:44+06:00,
1000000000219357,77077647696,mAltel,mMTS,mMTS,,D07,2016-07-29T15:18:22+06:00,
1000000000219359,77775659834,mMTS,mKarTel,mKarTel,,D77,2016-07-29T15:22:48+06:00,
1000000000219361,77019017890,mMTS,mKcell,mKcell,,D77,2016-07-29T15:22:18+06:00,
1000000000219362,77773130011,mKarTel,mMTS,mKarTel,D77,D01,2016-07-29T15:23:12+06:00,
1000000000219367,77013100340,mKarTel,mKcell,mKcell,,D01,2016-07-29T15:25:55+06:00,
1000000000219369,77771127366,mKarTel,mKcell,mKarTel,D02,D01,2016-07-29T15:27:08+06:00,
1000000000219372,77754560547,mMTS,mKcell,mKcell,,D77,2016-07-29T15:27:24+06:00,
