NPId,Number,RecipientId,DonorId,RangeHolderId,OldRoute,NewRoute,PortDate,RowCount
1000000000409195,77074902543,mMTS,mAltel,mMTS,D07,D77,2017-06-24T20:06:40+06:00,3
1000000000409196,77752181990,mKarTel,mKcell,mKcell,,D01,2017-06-24T20:18:43+06:00,
1000000000409197,77018008799,mKarTel,mKcell,mKcell,D02,D01,2017-06-24T20:19:34+06:00,
