NPId,Number,RecipientId,DonorId,RangeHolderId,OldRoute,NewRoute,PortDate,RowCount
1000000000157325,77017956027,mKcell,mKarTel,mKcell,D01,D02,2016-04-21T16:07:26+06:00,36
1000000000157421,77013215731,mKarTel,mKcell,mKcell,,D01,2016-04-21T16:00:30+06:00,
1000000000157423,77716046400,mMTS,mKarTel,mKarTel,,D77,2016-04-21T16:01:40+06:00,
1000000000157424,77081197799,mMTS,mAltel,mAltel,,D77,2016-04-21T16:01:26+06:00,
1000000000157425,77472388880,mKarTel,mMTS,mMTS,,D01,2016-04-21T16:01:56+06:00,
1000000000157427,77078344260,mAltel,mMTS,mMTS,,D07,2016-04-21T16:01:52+06:00,
1000000000157429,77025514009,mMTS,mKcell,mKcell,,D77,2016-04-21T16:02:59+06:00,
1000000000157431,77073677778,mMTS,mKcell,mMTS,D02,D77,2016-04-21T16:02:59+06:00,
1000000000157432,77772282103,mKcell,mKarTel,mKarTel,,D02,2016-04-21T16:03:54+06:00,
1000000000157434,77773518002,mKcell,mKarTel,mKarTel,,D02,2016-04-21T16:04:45+06:00,
1000000000157435,77756121616,mMTS,mKcell,mKcell,,D77,2016-04-21T16:04:26+06:00,
1000000000157436,77783299000,mMTS,mKcell,mKcell,,D77,2016-04-21T16:04:44+06:00,
1000000000157438,77018536711,mMTS,mKcell,mKcell,,D77,2016-04-21T16:04:53+06:00,
1000000000157439,77783298999,mMTS,mKcell,mKcell,,D77,2016-04-21T16:06:09+06:00,
1000000000157440,77053473757,mMTS,mKarTel,mKarTel,,D77,2016-04-21T16:06:53+06:00,
1000000000157441,77017252002,mMTS,mKcell,mKcell,,D77,2016-04-21T16:06:59+06:00,
1000000000157442,77081994054,mMTS,mAltel,mAltel,,D77,2016-04-21T16:07:23+06:00,
1000000000157443,77074533837,mKcell,mMTS,mMTS,,D02,2016-04-21T16:08:38+06:00,
1000000000157444,77476665332,mMTS,mKcell,mMTS,D02,D77,2016-04-21T16:09:54+06:00,
1000000000157445,77718569292,mMTS,mKarTel,mKarTel,,D77,2016-04-21T16:11:10+06:00,
1000000000157446,77078109249,mKarTel,mMTS,mMTS,,D01,2016-04-21T16:11:41+06:00,
1000000000157447,77019025173,mMTS,mKcell,mKcell,,D77,2016-04-21T16:12:31+06:00,
1000000000157448,77078109257,mKarTel,mMTS,mMTS,,D01,2016-04-21T16:12:57+06:00,
1000000000157449,77085203140,mMTS,mAltel,mAltel,,D77,2016-04-21T16:13:20+06:00,
1000000000157450,77756839110,mMTS,mKcell,mKcell,,D77,2016-04-21T16:14:12+06:00,
1000000000157451,77015436345,mMTS,mKcell,mKcell,,D77,2016-04-21T16:14:30+06:00,
1000000000157452,77715943984,mMTS,mKarTel,mKarTel,,D77,2016-04-21T16:15:43+06:00,
1000000000157453,77083039977,mKcell,mAltel,mAltel,,D02,2016-04-21T16:17:26+06:00,
1000000000157454,77000100010,mKcell,mAltel,mAltel,,D02,2016-04-21T16:17:48+06:00,
1000000000157455,77071905252,mMTS,mAltel,mMTS,D07,D77,2016-04-21T16:17:22+06:00,
1000000000157456,77081789798,mMTS,mAltel,mAltel,,D77,2016-04-21T16:18:47+06:00,
1000000000157457,77017367685,mKarTel,mKcell,mKcell,,D01,2016-04-21T16:19:39+06:00,
1000000000157458,77074549797,mMTS,mKcell,mMTS,D02,D77,2016-04-21T16:24:42+06:00,
1000000000157459,77015594999,mMTS,mKcell,mKcell,,D77,2016-04-21T16:25:02+06:00,
1000000000157461,77753559909,mMTS,mKcell,mKcell,,D77,2016-04-21T16:27:11+06:00,
1000000000157464,77019160677,mMTS,mKcell,mKcell,,D77,2016-04-21T16:28:17+06:00,
