NPId,Number,RecipientId,DonorId,RangeHolderId,OldRoute,NewRoute,PortDate,RowCount
1000000000139467,77788000100,mMTS,mKcell,mKcell,,D77,2016-04-01T14:30:25+06:00,39
1000000000139470,77022544858,mAltel,mKcell,mKcell,,D07,2016-04-01T14:32:24+06:00,
1000000000139473,77027453219,mKarTel,mKcell,mKcell,,D01,2016-04-01T14:34:12+06:00,
1000000000139474,77028649724,mMTS,mKcell,mKcell,,D77,2016-04-01T14:34:43+06:00,
1000000000139476,77082929029,mKcell,mAltel,mAltel,,D02,2016-04-01T14:36:37+06:00,
1000000000139479,77015085140,mKarTel,mKcell,mKcell,,D01,2016-04-01T14:38:02+06:00,
1000000000139480,77059786907,mAltel,mKarTel,mKarTel,,D07,2016-04-01T14:39:05+06:00,
1000000000139481,77015379511,mMTS,mKcell,mKcell,,D77,2016-04-01T14:38:16+06:00,
1000000000139482,77783332313,mMTS,mAltel,mKcell,D07,D77,2016-04-01T14:38:04+06:00,
1000000000139483,77779070855,mMTS,mKarTel,mKarTel,,D77,2016-04-01T14:39:35+06:00,
1000000000139484,77014173320,mAltel,mKcell,mKcell,,D07,2016-04-01T14:38:41+06:00,
1000000000139486,77772343436,mAltel,mKarTel,mKarTel,,D07,2016-04-01T14:40:05+06:00,
1000000000139487,77015031288,mMTS,mKcell,mKcell,,D77,2016-04-01T14:39:40+06:00,
1000000000139489,77012591331,mMTS,mKcell,mKcell,,D77,2016-04-01T14:42:05+06:00,
1000000000139490,77012332727,mKarTel,mKcell,mKcell,,D01,2016-04-01T14:44:15+06:00,
1000000000139491,77073559362,mKcell,mMTS,mMTS,,D02,2016-04-01T14:44:31+06:00,
1000000000139492,77715286006,mAltel,mKarTel,mKarTel,,D07,2016-04-01T14:45:47+06:00,
1000000000139494,77084002062,mKarTel,mAltel,mAltel,,D01,2016-04-01T14:45:43+06:00,
1000000000139495,77083204939,mMTS,mAltel,mAltel,,D77,2016-04-01T14:45:32+06:00,
1000000000139497,77053133060,mMTS,mKarTel,mKarTel,,D77,2016-04-01T14:47:13+06:00,
1000000000139498,77076041986,mAltel,mMTS,mMTS,,D07,2016-04-01T14:46:05+06:00,
1000000000139501,77025159933,mMTS,mKcell,mKcell,,D77,2016-04-01T14:50:45+06:00,
1000000000139504,77785842999,mMTS,mKcell,mKcell,,D77,2016-04-01T14:51:31+06:00,
1000000000139509,77077575787,mMTS,mKarTel,mMTS,D01,D77,2016-04-01T14:52:27+06:00,
1000000000139510,77053331424,mMTS,mKarTel,mKarTel,,D77,2016-04-01T14:52:57+06:00,
1000000000139512,77754172222,mMTS,mKcell,mKcell,,D77,2016-04-01T14:51:51+06:00,
1000000000139515,77784545744,mKarTel,mKcell,mKcell,,D01,2016-04-01T14:52:55+06:00,
1000000000139519,77087777080,mKcell,mAltel,mAltel,,D02,2016-04-01T14:53:40+06:00,
1000000000139520,77016253577,mKarTel,mKcell,mKcell,,D01,2016-04-01T14:54:49+06:00,
1000000000139523,77022325803,mMTS,mKcell,mKcell,,D77,2016-04-01T14:54:50+06:00,
1000000000139524,77051951634,mMTS,mKarTel,mKarTel,,D77,2016-04-01T14:56:17+06:00,
1000000000139525,77719073031,mMTS,mKarTel,mKarTel,,D77,2016-04-01T14:56:47+06:00,
1000000000139527,77013966120,mKcell,mAltel,mKcell,D07,D02,2016-04-01T14:56:37+06:00,
1000000000139528,77027738999,mMTS,mKcell,mKcell,,D77,2016-04-01T14:56:39+06:00,
1000000000139529,77771388843,mMTS,mKarTel,mKarTel,,D77,2016-04-01T14:58:18+06:00,
1000000000139530,77083270985,mMTS,mAltel,mAltel,,D77,2016-04-01T14:57:09+06:00,
1000000000139531,77013716568,mAltel,mKcell,mKcell,,D07,2016-04-01T14:57:35+06:00,
1000000000139533,77058620909,mMTS,mKarTel,mKarTel,,D77,2016-04-01T14:58:48+06:00,
1000000000139534,77017940974,mKarTel,mKcell,mKcell,,D01,2016-04-01T14:59:16+06:00,
