NPId,Number,RecipientId,DonorId,RangeHolderId,OldRoute,NewRoute,PortDate,RowCount
1000000000400732,77778444466,mKcell,mKarTel,mKarTel,,D02,2017-06-09T18:30:39+06:00,19
1000000000400734,77751776732,mKcell,mMTS,mKcell,D77,D02,2017-06-09T18:31:13+06:00,
1000000000400735,77753613645,mMTS,mKcell,mKcell,,D77,2017-06-09T18:31:06+06:00,
1000000000400736,77082202069,mKarTel,mAltel,mAltel,,D01,2017-06-09T18:32:20+06:00,
1000000000400738,77085214009,mKarTel,mAltel,mAltel,,D01,2017-06-09T18:34:08+06:00,
1000000000400739,77082320770,mMTS,mAltel,mAltel,,D77,2017-06-09T18:34:36+06:00,
1000000000400740,77013831888,mMTS,mKcell,mKcell,,D77,2017-06-09T18:34:44+06:00,
1000000000400744,77052444412,mAltel,mKarTel,mKarTel,,D07,2017-06-09T18:42:07+06:00,
1000000000400745,77769995504,mKcell,mKarTel,mKarTel,,D02,2017-06-09T18:42:42+06:00,
1000000000400746,77025331235,mKcell,mMTS,mKcell,D77,D02,2017-06-09T18:42:43+06:00,
1000000000400747,77018004972,mKarTel,mKcell,mKcell,,D01,2017-06-09T18:43:47+06:00,
1000000000400748,77056611333,mKcell,mMTS,mKarTel,D77,D02,2017-06-09T18:48:56+06:00,
1000000000400752,77781390191,mMTS,mKcell,mKcell,,D77,2017-06-09T18:52:53+06:00,
1000000000400753,77024455652,mKcell,mAltel,mKcell,D07,D02,2017-06-09T18:54:48+06:00,
1000000000400754,77017408068,mKarTel,mKcell,mKcell,,D01,2017-06-09T18:55:21+06:00,
1000000000400755,77007155251,mKcell,mAltel,mAltel,,D02,2017-06-09T18:55:22+06:00,
1000000000400756,77760060045,mKcell,mKarTel,mKarTel,,D02,2017-06-09T18:56:23+06:00,
1000000000400757,77014421982,mKarTel,mKcell,mKcell,,D01,2017-06-09T18:57:22+06:00,
1000000000400758,77077666288,mMTS,mKarTel,mMTS,D01,D77,2017-06-09T18:58:16+06:00,
