NPId,Number,RecipientId,DonorId,RangeHolderId,OldRoute,NewRoute,PortDate,RowCount
1000000000303654,77027351045,mKcell,mKarTel,mKcell,D01,D02,2016-12-30T17:34:59+06:00,24
1000000000303658,77027351065,mKcell,mKarTel,mKcell,D01,D02,2016-12-30T17:36:22+06:00,
1000000000303659,77027351095,mKcell,mKarTel,mKcell,D01,D02,2016-12-30T17:36:35+06:00,
1000000000303677,77475450474,mKcell,mMTS,mMTS,,D02,2016-12-30T17:31:46+06:00,
1000000000303678,77766668077,mAltel,mKarTel,mKarTel,,D07,2016-12-30T17:32:50+06:00,
1000000000303681,77001717099,mMTS,mAltel,mAltel,,D77,2016-12-30T17:34:07+06:00,
1000000000303682,77771207707,mKcell,mKarTel,mKarTel,,D02,2016-12-30T17:35:27+06:00,
1000000000303683,77776740313,mKarTel,mMTS,mKarTel,D77,D01,2016-12-30T17:39:25+06:00,
1000000000303684,77018115045,mMTS,mKcell,mKcell,,D77,2016-12-30T17:43:52+06:00,
1000000000303685,77782055009,mKcell,mMTS,mKcell,D77,D02,2016-12-30T17:42:40+06:00,
1000000000303686,77715868707,mKcell,mKarTel,mKarTel,,D02,2016-12-30T17:46:59+06:00,
1000000000303687,77017950193,mMTS,mKcell,mKcell,,D77,2016-12-30T17:47:03+06:00,
1000000000303688,77026666870,mMTS,mKcell,mKcell,,D77,2016-12-30T17:47:32+06:00,
1000000000303689,77083421393,mKcell,mAltel,mAltel,,D02,2016-12-30T17:47:49+06:00,
1000000000303690,77051134774,mKarTel,mAltel,mKarTel,D07,D01,2016-12-30T17:49:31+06:00,
1000000000303691,77052549374,mMTS,mKarTel,mKarTel,,D77,2016-12-30T17:50:00+06:00,
1000000000303693,77775556046,mMTS,mKarTel,mKarTel,,D77,2016-12-30T17:52:59+06:00,
1000000000303694,77023788060,mKarTel,mKcell,mKcell,,D01,2016-12-30T17:54:19+06:00,
1000000000303695,77027771262,mMTS,mKcell,mKcell,,D77,2016-12-30T17:54:27+06:00,
1000000000303696,77757131376,mKcell,mAltel,mKcell,D07,D02,2016-12-30T17:56:44+06:00,
1000000000303697,77019102362,mAltel,mKcell,mKcell,,D07,2016-12-30T17:54:55+06:00,
1000000000303698,77016737437,mKarTel,mKcell,mKcell,,D01,2016-12-30T17:55:26+06:00,
1000000000303699,77767771262,mMTS,mKarTel,mKarTel,,D77,2016-12-30T17:57:05+06:00,
1000000000303701,77054004111,mMTS,mKarTel,mKarTel,,D77,2016-12-30T17:59:22+06:00,
