NPId,Number,RecipientId,DonorId,RangeHolderId,OldRoute,NewRoute,PortDate,RowCount
1000000000423102,77010982423,mKarTel,mKcell,mKcell,,D01,2017-07-17T15:13:31+06:00,26
1000000000423102,77017664281,mKarTel,mKcell,mKcell,,D01,2017-07-17T15:13:31+06:00,
1000000000423250,77751008877,mKarTel,mMTS,mKcell,D77,D01,2017-07-17T15:02:06+06:00,
1000000000423251,77478008080,mKcell,mMTS,mMTS,,D02,2017-07-17T15:03:30+06:00,
1000000000423252,77071230707,mAltel,mKcell,mMTS,D02,D07,2017-07-17T15:03:40+06:00,
1000000000423253,77019677788,mAltel,mKcell,mKcell,,D07,2017-07-17T15:05:07+06:00,
1000000000423254,77075056659,mKarTel,mMTS,mMTS,,D01,2017-07-17T15:07:03+06:00,
1000000000423255,77013015604,mMTS,mKcell,mKcell,,D77,2017-07-17T15:07:13+06:00,
1000000000423256,77083140453,mMTS,mAltel,mAltel,,D77,2017-07-17T15:07:01+06:00,
1000000000423258,77019781822,mKcell,mMTS,mKcell,D77,D02,2017-07-17T15:08:40+06:00,
1000000000423260,77072309488,mKarTel,mMTS,mMTS,,D01,2017-07-17T15:13:36+06:00,
1000000000423261,77019781824,mKcell,mMTS,mKcell,D77,D02,2017-07-17T15:14:34+06:00,
1000000000423262,77017585018,mMTS,mKcell,mKcell,,D77,2017-07-17T15:19:32+06:00,
1000000000423263,77759755579,mMTS,mKcell,mKcell,,D77,2017-07-17T15:19:44+06:00,
1000000000423265,77017103737,mMTS,mKcell,mKcell,,D77,2017-07-17T15:20:31+06:00,
1000000000423266,77471104410,mAltel,mMTS,mMTS,,D07,2017-07-17T15:21:01+06:00,
1000000000423267,77773730099,mMTS,mKarTel,mKarTel,,D77,2017-07-17T15:21:21+06:00,
1000000000423268,77072400242,mKarTel,mMTS,mMTS,,D01,2017-07-17T15:21:21+06:00,
1000000000423269,77779391977,mKarTel,mMTS,mKarTel,D77,D01,2017-07-17T15:21:52+06:00,
1000000000423272,77710720009,mKcell,mKarTel,mKarTel,,D02,2017-07-17T15:23:29+06:00,
1000000000423273,77766666261,mKarTel,mKcell,mKarTel,D02,D01,2017-07-17T15:23:09+06:00,
1000000000423274,77076844446,mAltel,mKcell,mMTS,D02,D07,2017-07-17T15:24:25+06:00,
1000000000423276,77717695050,mKarTel,mMTS,mKarTel,D77,D01,2017-07-17T15:24:50+06:00,
1000000000423278,77757724146,mKarTel,mKcell,mKcell,,D01,2017-07-17T15:28:33+06:00,
1000000000423279,77051996317,mMTS,mKarTel,mKarTel,,D77,2017-07-17T15:28:45+06:00,
1000000000423280,77085447076,mKcell,mAltel,mAltel,,D02,2017-07-17T15:28:55+06:00,
