NPId,Number,RecipientId,DonorId,RangeHolderId,OldRoute,NewRoute,PortDate,RowCount
1000000000260858,77010914661,mMTS,mKarTel,mKcell,D01,D77,2016-10-11T19:01:30+06:00,26
1000000000260862,77027013836,mKcell,mAltel,mKcell,D07,D02,2016-10-11T19:00:17+06:00,
1000000000260864,77077578626,mAltel,mKcell,mMTS,D02,D07,2016-10-11T19:00:26+06:00,
1000000000260866,77017955110,mKarTel,mMTS,mKcell,D77,D01,2016-10-11T19:06:45+06:00,
1000000000260867,77000933093,mKcell,mAltel,mAltel,,D02,2016-10-11T19:09:33+06:00,
1000000000260868,77085300725,mMTS,mAltel,mAltel,,D77,2016-10-11T19:10:01+06:00,
1000000000260869,77006006808,mKcell,mAltel,mAltel,,D02,2016-10-11T19:12:17+06:00,
1000000000260870,77027954384,mKarTel,mKcell,mKcell,,D01,2016-10-11T19:13:57+06:00,
1000000000260871,77751955888,mKcell,mMTS,mKcell,D77,D02,2016-10-11T19:12:57+06:00,
1000000000260872,77000212191,mKcell,mAltel,mAltel,,D02,2016-10-11T19:14:01+06:00,
1000000000260873,77000272797,mKcell,mAltel,mAltel,,D02,2016-10-11T19:14:56+06:00,
1000000000260875,77018733716,mKarTel,mMTS,mKcell,D77,D01,2016-10-11T19:17:34+06:00,
1000000000260876,77000838393,mKcell,mAltel,mAltel,,D02,2016-10-11T19:16:18+06:00,
1000000000260877,77058379404,mMTS,mKarTel,mKarTel,,D77,2016-10-11T19:21:11+06:00,
1000000000260878,77000878797,mKcell,mAltel,mAltel,,D02,2016-10-11T19:18:26+06:00,
1000000000260879,77000252595,mKcell,mAltel,mAltel,,D02,2016-10-11T19:20:13+06:00,
1000000000260880,77015446012,mMTS,mKcell,mKcell,,D77,2016-10-11T19:22:22+06:00,
1000000000260881,77000828292,mKcell,mAltel,mAltel,,D02,2016-10-11T19:22:54+06:00,
1000000000260882,77000262696,mKcell,mAltel,mAltel,,D02,2016-10-11T19:23:30+06:00,
1000000000260883,77018733714,mKarTel,mMTS,mKcell,D77,D01,2016-10-11T19:26:22+06:00,
1000000000260885,77000282898,mKcell,mAltel,mAltel,,D02,2016-10-11T19:25:53+06:00,
1000000000260886,77089144987,mAltel,mMTS,mAltel,D77,D07,2016-10-11T19:25:56+06:00,
1000000000260887,77077029900,mKarTel,mMTS,mMTS,,D01,2016-10-11T19:28:02+06:00,
1000000000260888,77000242494,mKcell,mAltel,mAltel,,D02,2016-10-11T19:27:05+06:00,
1000000000260889,77476210068,mAltel,mMTS,mMTS,,D07,2016-10-11T19:28:29+06:00,
1000000000260890,77085261963,mAltel,mMTS,mAltel,D77,D07,2016-10-11T19:29:11+06:00,
