NPId,Number,RecipientId,DonorId,RangeHolderId,OldRoute,NewRoute,PortDate,RowCount
1000000000341349,77082002101,mKcell,mAltel,mAltel,,D02,2017-03-05T20:17:50+06:00,2
1000000000341350,77077979679,mKcell,mMTS,mMTS,,D02,2017-03-05T20:29:48+06:00,
