NPId,Number,RecipientId,DonorId,RangeHolderId,OldRoute,NewRoute,PortDate,RowCount
1000000000105346,77005555564,mKcell,mAltel,mAltel,,D02,2016-03-02T19:01:16+06:00,19
1000000000105347,77057487707,mAltel,mKarTel,mKarTel,,D07,2016-03-02T19:01:30+06:00,
1000000000105348,77770063533,mKcell,mKarTel,mKarTel,,D02,2016-03-02T19:03:31+06:00,
1000000000105349,77025350305,mMTS,mKcell,mKcell,,D77,2016-03-02T19:05:46+06:00,
1000000000105350,77750000184,mKarTel,mKcell,mKcell,,D01,2016-03-02T19:06:25+06:00,
1000000000105351,77027001987,mMTS,mKcell,mKcell,,D77,2016-03-02T19:07:00+06:00,
1000000000105352,77025854224,mMTS,mKcell,mKcell,,D77,2016-03-02T19:07:41+06:00,
1000000000105353,77053300009,mKcell,mKarTel,mKarTel,,D02,2016-03-02T19:08:35+06:00,
1000000000105355,77714621289,mMTS,mKarTel,mKarTel,,D77,2016-03-02T19:12:13+06:00,
1000000000105356,77026361832,mMTS,mKcell,mKcell,,D77,2016-03-02T19:11:56+06:00,
1000000000105357,77077367811,mAltel,mMTS,mMTS,,D07,2016-03-02T19:12:07+06:00,
1000000000105359,77766922222,mMTS,mKarTel,mKarTel,,D77,2016-03-02T19:15:53+06:00,
1000000000105361,77016838386,mKarTel,mKcell,mKcell,,D01,2016-03-02T19:17:33+06:00,
1000000000105362,77018530066,mAltel,mKcell,mKcell,,D07,2016-03-02T19:19:14+06:00,
1000000000105363,77029920005,mAltel,mKcell,mKcell,,D07,2016-03-02T19:22:16+06:00,
1000000000105364,77784714646,mAltel,mKcell,mKcell,,D07,2016-03-02T19:22:47+06:00,
1000000000105365,77004030180,mKcell,mAltel,mAltel,,D02,2016-03-02T19:23:25+06:00,
1000000000105368,77017603264,mMTS,mKcell,mKcell,,D77,2016-03-02T19:27:23+06:00,
1000000000105369,77777704697,mMTS,mKarTel,mKarTel,,D77,2016-03-02T19:28:32+06:00,
