NPId,Number,RecipientId,DonorId,RangeHolderId,OldRoute,NewRoute,PortDate,RowCount
1000000000386579,77012261468,mMTS,mKcell,mKcell,,D77,2017-05-21T12:30:35+06:00,12
1000000000386580,77017403713,mMTS,mKcell,mKcell,,D77,2017-05-21T12:32:55+06:00,
1000000000386581,77072343532,mAltel,mMTS,mMTS,D77,D07,2017-05-21T12:33:37+06:00,
1000000000386582,77473718400,mKcell,mAltel,mMTS,D07,D02,2017-05-21T12:34:09+06:00,
1000000000386583,77005575953,mKarTel,mAltel,mAltel,,D01,2017-05-21T12:39:57+06:00,
1000000000386586,77083630005,mAltel,mMTS,mAltel,D77,D07,2017-05-21T12:43:09+06:00,
1000000000386587,77753703939,mKarTel,mKcell,mKcell,,D01,2017-05-21T12:43:48+06:00,
1000000000386589,77074648535,mMTS,mKarTel,mMTS,D01,D77,2017-05-21T12:50:07+06:00,
1000000000386590,77052952918,mKarTel,mMTS,mKarTel,D77,D01,2017-05-21T12:52:27+06:00,
1000000000386591,77051201000,mMTS,mKarTel,mKarTel,,D77,2017-05-21T12:53:14+06:00,
1000000000386592,77076111911,mMTS,mKcell,mMTS,D02,D77,2017-05-21T12:53:04+06:00,
1000000000386593,77078896843,mAltel,mMTS,mMTS,,D07,2017-05-21T12:53:09+06:00,
