NPId,Number,RecipientId,DonorId,RangeHolderId,OldRoute,NewRoute,PortDate,RowCount
1000000000417788,77020000352,mKcell,mAltel,mKcell,D07,D02,2017-07-07T09:39:20+06:00,2
1000000000417789,77080425932,mAltel,mKcell,mAltel,D02,D07,2017-07-07T09:57:55+06:00,
