NPId,Number,RecipientId,DonorId,RangeHolderId,OldRoute,NewRoute,PortDate,RowCount
1000000000309548,77783363637,mAltel,mKcell,mKcell,,D07,2017-01-12T14:00:01+06:00,22
1000000000309550,77017405510,mMTS,mKcell,mKcell,,D77,2017-01-12T14:00:34+06:00,
1000000000309551,77755609130,mKarTel,mKcell,mKcell,,D01,2017-01-12T14:01:17+06:00,
1000000000309553,77011801096,mAltel,mKcell,mKcell,,D07,2017-01-12T14:03:41+06:00,
1000000000309554,77027531595,mAltel,mKcell,mKcell,,D07,2017-01-12T14:05:18+06:00,
1000000000309555,77075573308,mKarTel,mMTS,mMTS,,D01,2017-01-12T14:08:00+06:00,
1000000000309556,77774986402,mAltel,mKarTel,mKarTel,,D07,2017-01-12T14:08:44+06:00,
1000000000309557,77755121200,mMTS,mKcell,mKcell,,D77,2017-01-12T14:08:25+06:00,
1000000000309558,77752607777,mMTS,mKcell,mKcell,,D77,2017-01-12T14:09:06+06:00,
1000000000309562,77017480702,mKarTel,mKcell,mKcell,,D01,2017-01-12T14:13:20+06:00,
1000000000309563,77086226166,mKcell,mAltel,mAltel,,D02,2017-01-12T14:13:22+06:00,
1000000000309564,77021865053,mMTS,mKcell,mKcell,,D77,2017-01-12T14:14:07+06:00,
1000000000309565,77717968998,mKarTel,mMTS,mKarTel,D77,D01,2017-01-12T14:14:18+06:00,
1000000000309566,77083004430,mMTS,mAltel,mAltel,,D77,2017-01-12T14:16:31+06:00,
1000000000309567,77087777718,mKcell,mAltel,mAltel,,D02,2017-01-12T14:20:36+06:00,
1000000000309569,77772106666,mMTS,mKarTel,mKarTel,D01,D77,2017-01-12T14:22:26+06:00,
1000000000309570,77002000981,mKcell,mAltel,mAltel,,D02,2017-01-12T14:22:52+06:00,
1000000000309571,77051111308,mKcell,mKarTel,mKarTel,,D02,2017-01-12T14:25:46+06:00,
1000000000309572,77014525999,mKcell,mMTS,mKcell,D77,D02,2017-01-12T14:24:12+06:00,
1000000000309574,77772042594,mMTS,mKarTel,mKarTel,,D77,2017-01-12T14:26:18+06:00,
1000000000309575,77052222823,mKcell,mKarTel,mKarTel,,D02,2017-01-12T14:29:18+06:00,
1000000000309576,77002000591,mKcell,mAltel,mAltel,,D02,2017-01-12T14:29:21+06:00,
