NPId,Number,RecipientId,DonorId,RangeHolderId,OldRoute,NewRoute,PortDate,RowCount
1000000000277979,77052218520,mKarTel,mKcell,mKarTel,D02,D01,2016-11-11T17:31:01+06:00,16
1000000000277980,77059174449,mMTS,mKarTel,mKarTel,,D77,2016-11-11T17:31:03+06:00,
1000000000277981,77016032600,mKarTel,mKcell,mKcell,,D01,2016-11-11T17:33:12+06:00,
1000000000277982,77785988239,mMTS,mKcell,mKcell,,D77,2016-11-11T17:33:35+06:00,
1000000000277984,77001000809,mKcell,mAltel,mAltel,,D02,2016-11-11T17:36:44+06:00,
1000000000277986,77477877767,mKcell,mMTS,mMTS,,D02,2016-11-11T17:38:07+06:00,
1000000000277987,77052218530,mKarTel,mKcell,mKarTel,D02,D01,2016-11-11T17:41:26+06:00,
1000000000277988,77770618586,mMTS,mKarTel,mKarTel,,D77,2016-11-11T17:42:01+06:00,
1000000000277989,77051484969,mMTS,mKarTel,mKarTel,,D77,2016-11-11T17:42:56+06:00,
1000000000277990,77479872216,mKcell,mMTS,mMTS,,D02,2016-11-11T17:45:15+06:00,
1000000000277993,77774089269,mMTS,mKarTel,mKarTel,,D77,2016-11-11T17:50:47+06:00,
1000000000277994,77779982857,mMTS,mKarTel,mKarTel,,D77,2016-11-11T17:52:59+06:00,
1000000000277996,77014021308,mAltel,mKcell,mKcell,,D07,2016-11-11T17:54:43+06:00,
1000000000277997,77017182727,mMTS,mKcell,mKcell,,D77,2016-11-11T17:54:49+06:00,
1000000000277998,77017113418,mKarTel,mKcell,mKcell,,D01,2016-11-11T17:55:54+06:00,
1000000000278000,77012818818,mKcell,mMTS,mKcell,D77,D02,2016-11-11T17:59:40+06:00,
