NPId,Number,RecipientId,DonorId,RangeHolderId,OldRoute,NewRoute,PortDate,RowCount
1000000000447513,77076200008,mAltel,mMTS,mMTS,,D07,2017-08-28T20:30:48+06:00,7
1000000000447514,77087142958,mKcell,mAltel,mAltel,,D02,2017-08-28T20:31:14+06:00,
1000000000447515,77752352088,mKcell,mMTS,mKcell,D77,D02,2017-08-28T20:32:21+06:00,
1000000000447516,77076173555,mAltel,mMTS,mMTS,,D07,2017-08-28T20:35:42+06:00,
1000000000447517,77783930324,mKcell,mMTS,mKcell,D77,D02,2017-08-28T20:49:33+06:00,
1000000000447518,77015713038,mKarTel,mAltel,mKcell,D07,D01,2017-08-28T20:51:12+06:00,
1000000000447519,77075659933,mKarTel,mMTS,mMTS,,D01,2017-08-28T20:53:10+06:00,
