NPId,Number,RecipientId,DonorId,RangeHolderId,OldRoute,NewRoute,PortDate,RowCount
1000000000365229,77027024941,mKarTel,mKcell,mKcell,,D01,2017-04-13T13:31:02+06:00,24
1000000000365230,77074499913,mKcell,mMTS,mMTS,,D02,2017-04-13T13:31:34+06:00,
1000000000365231,77089145261,mMTS,mAltel,mAltel,,D77,2017-04-13T13:31:28+06:00,
1000000000365232,77054157467,mKarTel,mMTS,mKarTel,D77,D01,2017-04-13T13:31:51+06:00,
1000000000365233,77017254849,mKcell,mKarTel,mKcell,D01,D02,2017-04-13T13:33:05+06:00,
1000000000365234,77078462882,mKcell,mMTS,mMTS,,D02,2017-04-13T13:33:12+06:00,
1000000000365235,77071763056,mKarTel,mMTS,mMTS,,D01,2017-04-13T13:37:37+06:00,
1000000000365237,77011402646,mAltel,mKcell,mKcell,,D07,2017-04-13T13:37:45+06:00,
1000000000365238,77016523443,mAltel,mKcell,mKcell,,D07,2017-04-13T13:37:44+06:00,
1000000000365241,77005371505,mAltel,mMTS,mAltel,D77,D07,2017-04-13T13:40:28+06:00,
1000000000365242,77017449590,mKarTel,mKcell,mKcell,,D01,2017-04-13T13:42:40+06:00,
1000000000365243,77081680739,mMTS,mAltel,mAltel,,D77,2017-04-13T13:42:44+06:00,
1000000000365244,77012702260,mMTS,mKcell,mKcell,,D77,2017-04-13T13:46:26+06:00,
1000000000365245,77078866471,mAltel,mMTS,mMTS,,D07,2017-04-13T13:47:12+06:00,
1000000000365246,77055000150,mMTS,mKarTel,mKarTel,,D77,2017-04-13T13:48:07+06:00,
1000000000365248,77753031408,mMTS,mKcell,mKcell,,D77,2017-04-13T13:49:34+06:00,
1000000000365250,77029618479,mMTS,mKcell,mKcell,,D77,2017-04-13T13:50:15+06:00,
1000000000365251,77052527980,mMTS,mKarTel,mKarTel,,D77,2017-04-13T13:51:08+06:00,
1000000000365252,77016414401,mKarTel,mKcell,mKcell,,D01,2017-04-13T13:51:37+06:00,
1000000000365253,77772038301,mAltel,mKarTel,mKarTel,,D07,2017-04-13T13:51:44+06:00,
1000000000365256,77087535323,mAltel,mMTS,mAltel,D77,D07,2017-04-13T13:54:57+06:00,
1000000000365257,77078294249,mKarTel,mMTS,mMTS,,D01,2017-04-13T13:56:14+06:00,
1000000000365258,77775677007,mKcell,mKarTel,mKarTel,,D02,2017-04-13T13:57:17+06:00,
1000000000365259,77006411597,mMTS,mAltel,mAltel,,D77,2017-04-13T13:57:41+06:00,
