NPId,Number,RecipientId,DonorId,RangeHolderId,OldRoute,NewRoute,PortDate,RowCount
1000000000274237,77751434567,mMTS,mAltel,mKcell,D07,D77,2016-12-07T17:07:38+06:00,36
1000000000291664,77714046275,mMTS,mKarTel,mKarTel,,D77,2016-12-07T17:02:11+06:00,
1000000000291665,77057504967,mMTS,mKarTel,mKarTel,,D77,2016-12-07T17:03:01+06:00,
1000000000291666,77772542251,mKcell,mKarTel,mKarTel,,D02,2016-12-07T17:03:14+06:00,
1000000000291669,77762121997,mMTS,mKarTel,mKarTel,,D77,2016-12-07T17:03:42+06:00,
1000000000291670,77001570227,mKcell,mAltel,mAltel,,D02,2016-12-07T17:04:28+06:00,
1000000000291671,77757369661,mKarTel,mKcell,mKcell,,D01,2016-12-07T17:05:17+06:00,
1000000000291672,77017777878,mKarTel,mKcell,mKcell,,D01,2016-12-07T17:05:17+06:00,
1000000000291673,77019442245,mKarTel,mKcell,mKcell,,D01,2016-12-07T17:06:34+06:00,
1000000000291675,77077394433,mKcell,mMTS,mMTS,,D02,2016-12-07T17:08:17+06:00,
1000000000291676,77777987043,mKarTel,mKcell,mKarTel,D02,D01,2016-12-07T17:09:01+06:00,
1000000000291677,77053821684,mKarTel,mMTS,mKarTel,D77,D01,2016-12-07T17:09:38+06:00,
1000000000291678,77071790209,mAltel,mMTS,mMTS,,D07,2016-12-07T17:09:45+06:00,
1000000000291679,77081462429,mMTS,mAltel,mAltel,,D77,2016-12-07T17:10:07+06:00,
1000000000291680,77083875527,mMTS,mAltel,mAltel,,D77,2016-12-07T17:10:56+06:00,
1000000000291681,77057644714,mKarTel,mMTS,mKarTel,D77,D01,2016-12-07T17:11:13+06:00,
1000000000291682,77081269115,mAltel,mKarTel,mAltel,D01,D07,2016-12-07T17:12:03+06:00,
1000000000291683,77012047980,mKarTel,mKcell,mKcell,,D01,2016-12-07T17:12:00+06:00,
1000000000291684,77770910363,mKcell,mKarTel,mKarTel,,D02,2016-12-07T17:13:23+06:00,
1000000000291686,77072578222,mKarTel,mMTS,mMTS,,D01,2016-12-07T17:14:27+06:00,
1000000000291687,77760507891,mMTS,mKcell,mKarTel,D02,D77,2016-12-07T17:14:30+06:00,
1000000000291688,77023778797,mMTS,mKcell,mKcell,,D77,2016-12-07T17:15:19+06:00,
1000000000291691,77775864949,mMTS,mKarTel,mKarTel,,D77,2016-12-07T17:18:53+06:00,
1000000000291692,77774789900,mMTS,mKarTel,mKarTel,,D77,2016-12-07T17:19:19+06:00,
1000000000291693,77754888096,mMTS,mKcell,mKcell,,D77,2016-12-07T17:19:19+06:00,
1000000000291694,77013218961,mMTS,mKcell,mKcell,,D77,2016-12-07T17:19:55+06:00,
1000000000291695,77757844783,mMTS,mKcell,mKcell,,D77,2016-12-07T17:21:01+06:00,
1000000000291696,77773485924,mMTS,mKarTel,mKarTel,,D77,2016-12-07T17:22:46+06:00,
1000000000291697,77001351762,mKarTel,mMTS,mAltel,D77,D01,2016-12-07T17:22:34+06:00,
1000000000291698,77003893308,mKarTel,mMTS,mAltel,D77,D01,2016-12-07T17:22:41+06:00,
1000000000291699,77019253035,mAltel,mKcell,mKcell,,D07,2016-12-07T17:24:45+06:00,
1000000000291701,77089451914,mMTS,mAltel,mAltel,,D77,2016-12-07T17:26:56+06:00,
1000000000291703,77080010101,mAltel,mKcell,mAltel,D02,D07,2016-12-07T17:27:38+06:00,
1000000000291704,77787325000,mMTS,mKcell,mKcell,,D77,2016-12-07T17:27:54+06:00,
1000000000291706,77773163355,mKarTel,mMTS,mKarTel,D77,D01,2016-12-07T17:29:12+06:00,
1000000000291707,77015444585,mKarTel,mKcell,mKcell,,D01,2016-12-07T17:29:38+06:00,
