NPId,Number,RecipientId,DonorId,RangeHolderId,OldRoute,NewRoute,PortDate,RowCount
1000000000227820,77758881087,mMTS,mKcell,mKcell,,D77,2016-08-11T20:39:14+06:00,2
1000000000227821,77755275451,mMTS,mKcell,mKcell,,D77,2016-08-11T20:42:44+06:00,
