NPId,Number,RecipientId,DonorId,RangeHolderId,OldRoute,NewRoute,PortDate,RowCount
1000000000380106,77765008880,mMTS,mKarTel,mKarTel,,D77,2017-05-08T18:00:15+06:00,12
1000000000380107,77085203140,mAltel,mMTS,mAltel,D77,D07,2017-05-08T18:00:18+06:00,
1000000000380108,77071386161,mAltel,mMTS,mMTS,,D07,2017-05-08T18:02:44+06:00,
1000000000380109,77054006003,mKarTel,mMTS,mKarTel,D77,D01,2017-05-08T18:04:44+06:00,
1000000000380110,77781111555,mKcell,mAltel,mKcell,D07,D02,2017-05-08T18:08:21+06:00,
1000000000380111,77003101998,mKcell,mAltel,mAltel,,D02,2017-05-08T18:08:58+06:00,
1000000000380113,77005302001,mKcell,mAltel,mAltel,,D02,2017-05-08T18:15:50+06:00,
1000000000380114,77004841997,mKcell,mAltel,mAltel,,D02,2017-05-08T18:20:31+06:00,
1000000000380115,77784053061,mKarTel,mKcell,mKcell,,D01,2017-05-08T18:22:51+06:00,
1000000000380116,77001999053,mKcell,mAltel,mAltel,,D02,2017-05-08T18:24:05+06:00,
1000000000380119,77756569736,mAltel,mMTS,mKcell,D77,D07,2017-05-08T18:26:05+06:00,
1000000000380121,77005200207,mKcell,mAltel,mAltel,,D02,2017-05-08T18:28:16+06:00,
