NPId,Number,RecipientId,DonorId,RangeHolderId,OldRoute,NewRoute,PortDate,RowCount
1000000000162811,77076667071,mKarTel,mMTS,mMTS,,D01,2016-04-28T18:02:03+06:00,30
1000000000162812,77011392255,mMTS,mKcell,mKcell,,D77,2016-04-28T18:01:55+06:00,
1000000000162813,77784444509,mMTS,mKcell,mKcell,,D77,2016-04-28T18:01:57+06:00,
1000000000162814,77477777407,mKarTel,mMTS,mMTS,,D01,2016-04-28T18:04:19+06:00,
1000000000162815,77779004097,mMTS,mKarTel,mKarTel,,D77,2016-04-28T18:04:45+06:00,
1000000000162817,77071466614,mMTS,mAltel,mMTS,D07,D77,2016-04-28T18:06:07+06:00,
1000000000162819,77765111183,mMTS,mAltel,mKarTel,D07,D77,2016-04-28T18:07:08+06:00,
1000000000162820,77002200800,mKcell,mAltel,mAltel,,D02,2016-04-28T18:08:09+06:00,
1000000000162823,77778358585,mAltel,mKcell,mKarTel,D02,D07,2016-04-28T18:09:53+06:00,
1000000000162824,77714051162,mMTS,mKarTel,mKarTel,,D77,2016-04-28T18:10:34+06:00,
1000000000162825,77007151160,mKarTel,mAltel,mAltel,,D01,2016-04-28T18:11:52+06:00,
1000000000162826,77757760782,mKcell,mAltel,mKcell,D07,D02,2016-04-28T18:14:34+06:00,
1000000000162827,77779346773,mMTS,mKarTel,mKarTel,,D77,2016-04-28T18:14:51+06:00,
1000000000162828,77082300047,mKcell,mAltel,mAltel,,D02,2016-04-28T18:15:04+06:00,
1000000000162829,77083370733,mKcell,mAltel,mAltel,,D02,2016-04-28T18:16:25+06:00,
1000000000162830,77756331061,mKarTel,mKcell,mKcell,,D01,2016-04-28T18:18:12+06:00,
1000000000162831,77474448630,mKcell,mMTS,mMTS,,D02,2016-04-28T18:19:00+06:00,
1000000000162832,77774449542,mMTS,mKarTel,mKarTel,,D77,2016-04-28T18:19:04+06:00,
1000000000162833,77777333448,mMTS,mKarTel,mKarTel,,D77,2016-04-28T18:23:40+06:00,
1000000000162834,77028695075,mKcell,mAltel,mKcell,D07,D02,2016-04-28T18:25:40+06:00,
1000000000162836,77081855185,mMTS,mAltel,mAltel,,D77,2016-04-28T18:25:35+06:00,
1000000000162837,77073056495,mKcell,mMTS,mMTS,,D02,2016-04-28T18:26:43+06:00,
1000000000162838,77088484855,mKcell,mAltel,mAltel,,D02,2016-04-28T18:26:58+06:00,
1000000000162839,77083038303,mKcell,mAltel,mAltel,,D02,2016-04-28T18:27:54+06:00,
1000000000162841,77089893003,mMTS,mAltel,mAltel,,D77,2016-04-28T18:27:47+06:00,
1000000000162842,77477222018,mKcell,mMTS,mMTS,,D02,2016-04-28T18:29:04+06:00,
1000000000162843,77029998770,mMTS,mKcell,mKcell,,D77,2016-04-28T18:28:52+06:00,
1000000000162844,77087621014,mMTS,mAltel,mAltel,,D77,2016-04-28T18:28:25+06:00,
1000000000162845,77017881515,mMTS,mAltel,mKcell,D07,D77,2016-04-28T18:28:26+06:00,
1000000000162846,77476783740,mMTS,mAltel,mMTS,D07,D77,2016-04-28T18:29:26+06:00,
