NPId,Number,RecipientId,DonorId,RangeHolderId,OldRoute,NewRoute,PortDate,RowCount
1000000000148639,77776368500,mMTS,mKarTel,mKarTel,,D77,2016-04-11T15:00:02+06:00,52
1000000000148640,77777650596,mKarTel,mAltel,mKarTel,D07,D01,2016-04-11T15:00:00+06:00,
1000000000148641,77014514344,mKcell,mAltel,mKcell,D07,D02,2016-04-11T15:00:24+06:00,
1000000000148642,77027065554,mMTS,mKcell,mKcell,,D77,2016-04-11T15:00:02+06:00,
1000000000148644,77005552308,mMTS,mAltel,mAltel,,D77,2016-04-11T15:00:59+06:00,
1000000000148646,77019726910,mKcell,mAltel,mKcell,D07,D02,2016-04-11T15:04:10+06:00,
1000000000148647,77777770392,mKcell,mKarTel,mKarTel,,D02,2016-04-11T15:06:58+06:00,
1000000000148648,77752909356,mMTS,mKcell,mKcell,,D77,2016-04-11T15:03:32+06:00,
1000000000148649,77059727230,mAltel,mKarTel,mKarTel,,D07,2016-04-11T15:05:56+06:00,
1000000000148650,77014328502,mMTS,mKcell,mKcell,,D77,2016-04-11T15:03:56+06:00,
1000000000148651,77714278581,mMTS,mKarTel,mKarTel,,D77,2016-04-11T15:05:56+06:00,
1000000000148653,77002223507,mKcell,mAltel,mAltel,,D02,2016-04-11T15:04:41+06:00,
1000000000148655,77053605555,mKcell,mKarTel,mKarTel,,D02,2016-04-11T15:06:58+06:00,
1000000000148656,77016127095,mMTS,mKcell,mKcell,,D77,2016-04-11T15:05:48+06:00,
1000000000148657,77075879125,mKarTel,mMTS,mMTS,,D01,2016-04-11T15:06:33+06:00,
1000000000148658,77017867284,mMTS,mKcell,mKcell,,D77,2016-04-11T15:06:02+06:00,
1000000000148659,77479040006,mAltel,mMTS,mMTS,,D07,2016-04-11T15:06:00+06:00,
1000000000148660,77086916805,mMTS,mAltel,mAltel,,D77,2016-04-11T15:06:36+06:00,
1000000000148661,77087940402,mMTS,mAltel,mAltel,,D77,2016-04-11T15:08:20+06:00,
1000000000148662,77770017121,mKcell,mKarTel,mKarTel,,D02,2016-04-11T15:11:01+06:00,
1000000000148663,77082224203,mKcell,mAltel,mAltel,,D02,2016-04-11T15:09:01+06:00,
1000000000148664,77712848165,mKcell,mKarTel,mKarTel,,D02,2016-04-11T15:11:25+06:00,
1000000000148665,77783265231,mMTS,mKcell,mKcell,,D77,2016-04-11T15:10:21+06:00,
1000000000148666,77018404063,mKarTel,mKcell,mKcell,,D01,2016-04-11T15:11:35+06:00,
1000000000148671,77083334203,mKcell,mAltel,mAltel,,D02,2016-04-11T15:13:01+06:00,
1000000000148672,77087714850,mMTS,mAltel,mAltel,,D77,2016-04-11T15:12:51+06:00,
1000000000148673,77026666591,mMTS,mAltel,mKcell,D07,D77,2016-04-11T15:12:58+06:00,
1000000000148674,77083118057,mMTS,mAltel,mAltel,,D77,2016-04-11T15:13:32+06:00,
1000000000148675,77057085382,mKcell,mKarTel,mKarTel,,D02,2016-04-11T15:15:12+06:00,
1000000000148677,77015561823,mKarTel,mKcell,mKcell,,D01,2016-04-11T15:15:21+06:00,
1000000000148678,77714515669,mMTS,mAltel,mKarTel,D07,D77,2016-04-11T15:15:16+06:00,
1000000000148681,77089016233,mKarTel,mAltel,mAltel,,D01,2016-04-11T15:16:40+06:00,
1000000000148683,77012887889,mKcell,mAltel,mKcell,D07,D02,2016-04-11T15:17:25+06:00,
1000000000148685,77087602479,mMTS,mAltel,mAltel,,D77,2016-04-11T15:17:35+06:00,
1000000000148688,77783213796,mMTS,mKcell,mKcell,,D77,2016-04-11T15:19:15+06:00,
1000000000148689,77761370204,mKarTel,mAltel,mKarTel,D07,D01,2016-04-11T15:19:48+06:00,
1000000000148690,77002266221,mMTS,mAltel,mAltel,,D77,2016-04-11T15:20:13+06:00,
1000000000148692,77754698817,mMTS,mKcell,mKcell,,D77,2016-04-11T15:21:24+06:00,
1000000000148693,77017133498,mMTS,mKcell,mKcell,,D77,2016-04-11T15:22:15+06:00,
1000000000148694,77028589953,mMTS,mKcell,mKcell,,D77,2016-04-11T15:23:03+06:00,
1000000000148695,77057085383,mKcell,mKarTel,mKarTel,,D02,2016-04-11T15:25:54+06:00,
1000000000148696,77077952250,mMTS,mAltel,mMTS,D07,D77,2016-04-11T15:24:37+06:00,
1000000000148697,77474457030,mMTS,mAltel,mMTS,D07,D77,2016-04-11T15:24:37+06:00,
1000000000148698,77771966633,mAltel,mKarTel,mKarTel,,D07,2016-04-11T15:26:38+06:00,
1000000000148699,77766252206,mMTS,mKarTel,mKarTel,,D77,2016-04-11T15:27:19+06:00,
1000000000148700,77079966069,mKarTel,mMTS,mMTS,,D01,2016-04-11T15:26:39+06:00,
1000000000148701,77087602481,mMTS,mAltel,mAltel,,D77,2016-04-11T15:26:01+06:00,
1000000000148702,77014849186,mMTS,mKcell,mKcell,,D77,2016-04-11T15:27:15+06:00,
1000000000148703,77715677770,mKcell,mKarTel,mKarTel,,D02,2016-04-11T15:28:55+06:00,
1000000000148704,77022888858,mMTS,mKcell,mKcell,,D77,2016-04-11T15:27:47+06:00,
1000000000148705,77751232595,mKcell,mMTS,mKcell,D77,D02,2016-04-11T15:28:25+06:00,
1000000000148706,77783213681,mMTS,mKcell,mKcell,,D77,2016-04-11T15:28:31+06:00,
