NPId,Number,RecipientId,DonorId,RangeHolderId,OldRoute,NewRoute,PortDate,RowCount
1000000000366748,77017899226,mMTS,mKcell,mKcell,,D77,2017-04-16T20:38:02+06:00,2
1000000000366749,77752688119,mMTS,mKcell,mKcell,,D77,2017-04-16T20:47:53+06:00,
