NPId,Number,RecipientId,DonorId,RangeHolderId,OldRoute,NewRoute,PortDate,RowCount
1000000000191760,77778881710,mKcell,mKarTel,mKarTel,,D02,2016-06-11T13:44:22+06:00,24
1000000000191763,77003339606,mKarTel,mAltel,mAltel,,D01,2016-06-11T13:30:17+06:00,
1000000000191764,77017550329,mKarTel,mKcell,mKcell,,D01,2016-06-11T13:32:33+06:00,
1000000000191765,77086653365,mMTS,mAltel,mAltel,,D77,2016-06-11T13:31:56+06:00,
1000000000191766,77718479601,mKcell,mKarTel,mKarTel,,D02,2016-06-11T13:33:59+06:00,
1000000000191767,77051257406,mMTS,mKarTel,mKarTel,,D77,2016-06-11T13:34:15+06:00,
1000000000191768,77474923746,mKcell,mMTS,mMTS,,D02,2016-06-11T13:34:55+06:00,
1000000000191769,77474923774,mKcell,mMTS,mMTS,,D02,2016-06-11T13:35:54+06:00,
1000000000191771,77023272378,mKcell,mAltel,mKcell,D07,D02,2016-06-11T13:37:32+06:00,
1000000000191773,77022518943,mKarTel,mKcell,mKcell,,D01,2016-06-11T13:44:49+06:00,
1000000000191774,77085333194,mKcell,mMTS,mAltel,D77,D02,2016-06-11T13:44:53+06:00,
1000000000191775,77770333030,mKarTel,mAltel,mKarTel,D07,D01,2016-06-11T13:45:07+06:00,
1000000000191776,77775160115,mAltel,mKarTel,mKarTel,,D07,2016-06-11T13:45:10+06:00,
1000000000191777,77002226463,mMTS,mAltel,mAltel,,D77,2016-06-11T13:45:07+06:00,
1000000000191778,77786185555,mMTS,mKcell,mKcell,,D77,2016-06-11T13:47:06+06:00,
1000000000191779,77054821775,mKcell,mKarTel,mKarTel,,D02,2016-06-11T13:48:36+06:00,
1000000000191780,77783155108,mKcell,mMTS,mKcell,D77,D02,2016-06-11T13:49:39+06:00,
1000000000191781,77771977767,mKcell,mKarTel,mKarTel,,D02,2016-06-11T13:50:45+06:00,
1000000000191782,77017324017,mKarTel,mKcell,mKcell,,D01,2016-06-11T13:51:06+06:00,
1000000000191783,77083339730,mMTS,mAltel,mAltel,,D77,2016-06-11T13:52:09+06:00,
1000000000191784,77082707740,mMTS,mAltel,mAltel,,D77,2016-06-11T13:52:13+06:00,
1000000000191785,77781505000,mMTS,mKcell,mKcell,,D77,2016-06-11T13:55:41+06:00,
1000000000191786,77004491247,mKcell,mAltel,mAltel,,D02,2016-06-11T13:56:42+06:00,
1000000000191787,77083053353,mKarTel,mAltel,mAltel,,D01,2016-06-11T13:56:48+06:00,
