NPId,Number,RecipientId,DonorId,RangeHolderId,OldRoute,NewRoute,PortDate,RowCount
1000000000351218,77014942004,mMTS,mKcell,mKcell,,D77,2017-03-23T17:31:33+06:00,22
1000000000351219,77012229289,mAltel,mKcell,mKcell,,D07,2017-03-23T17:32:32+06:00,
1000000000351220,77779498292,mMTS,mKarTel,mKarTel,,D77,2017-03-23T17:33:08+06:00,
1000000000351222,77015501728,mKarTel,mKcell,mKcell,,D01,2017-03-23T17:35:48+06:00,
1000000000351224,77071370051,mKarTel,mMTS,mMTS,,D01,2017-03-23T17:39:17+06:00,
1000000000351226,77089694657,mAltel,mMTS,mAltel,D77,D07,2017-03-23T17:40:31+06:00,
1000000000351227,77011304342,mMTS,mKcell,mKcell,,D77,2017-03-23T17:41:03+06:00,
1000000000351228,77774690003,mKarTel,mKcell,mKarTel,D02,D01,2017-03-23T17:41:20+06:00,
1000000000351229,77012553373,mKcell,mMTS,mKcell,D77,D02,2017-03-23T17:41:24+06:00,
1000000000351230,77017801648,mKcell,mMTS,mKcell,D77,D02,2017-03-23T17:45:36+06:00,
1000000000351231,77474270164,mMTS,mKarTel,mMTS,D01,D77,2017-03-23T17:46:48+06:00,
1000000000351232,77767911313,mAltel,mKarTel,mKarTel,,D07,2017-03-23T17:46:50+06:00,
1000000000351234,77009270092,mKcell,mAltel,mAltel,,D02,2017-03-23T17:51:13+06:00,
1000000000351235,77714615559,mAltel,mKarTel,mKarTel,,D07,2017-03-23T17:52:01+06:00,
1000000000351236,77011010411,mKcell,mAltel,mKcell,D07,D02,2017-03-23T17:52:57+06:00,
1000000000351238,77017083826,mMTS,mKcell,mKcell,,D77,2017-03-23T17:55:18+06:00,
1000000000351239,77017847564,mKarTel,mKcell,mKcell,,D01,2017-03-23T17:56:42+06:00,
1000000000351240,77074248836,mAltel,mMTS,mMTS,,D07,2017-03-23T17:56:33+06:00,
1000000000351241,77056352329,mKarTel,mMTS,mKarTel,D77,D01,2017-03-23T17:57:10+06:00,
1000000000351242,77017348871,mMTS,mKcell,mKcell,,D77,2017-03-23T17:57:08+06:00,
1000000000351243,77021681640,mMTS,mKcell,mKcell,,D77,2017-03-23T17:57:56+06:00,
1000000000351244,77001115160,mKcell,mAltel,mAltel,,D02,2017-03-23T17:59:38+06:00,
