NPId,Number,RecipientId,DonorId,RangeHolderId,OldRoute,NewRoute,PortDate,RowCount
1000000000047425,77787375799,mAltel,mKcell,mKcell,,D07,2016-02-13T17:31:37+06:00,22
1000000000047427,77474796353,mKcell,mMTS,mMTS,,D02,2016-02-13T17:32:41+06:00,
1000000000047429,77072124626,mAltel,mMTS,mMTS,,D07,2016-02-13T17:33:38+06:00,
1000000000047430,77021041222,mMTS,mKcell,mKcell,,D77,2016-02-13T17:37:27+06:00,
1000000000047433,77011528862,mAltel,mKcell,mKcell,,D07,2016-02-13T17:39:04+06:00,
1000000000047434,77017730126,mAltel,mKcell,mKcell,,D07,2016-02-13T17:41:23+06:00,
1000000000047435,77018878726,mMTS,mKcell,mKcell,,D77,2016-02-13T17:42:11+06:00,
1000000000047436,77478496913,mKcell,mMTS,mMTS,,D02,2016-02-13T17:43:22+06:00,
1000000000047439,77784294949,mAltel,mKcell,mKcell,,D07,2016-02-13T17:44:30+06:00,
1000000000047442,77077891111,mAltel,mMTS,mMTS,,D07,2016-02-13T17:45:49+06:00,
1000000000047444,77005550952,mKcell,mAltel,mAltel,,D02,2016-02-13T17:47:17+06:00,
1000000000047446,77787887682,mAltel,mKcell,mKcell,,D07,2016-02-13T17:47:32+06:00,
1000000000047447,77015208501,mAltel,mKcell,mKcell,,D07,2016-02-13T17:47:34+06:00,
1000000000047448,77476682415,mAltel,mMTS,mMTS,,D07,2016-02-13T17:47:19+06:00,
1000000000047453,77018460333,mMTS,mKcell,mKcell,,D77,2016-02-13T17:49:41+06:00,
1000000000047457,77019206700,mAltel,mKcell,mKcell,,D07,2016-02-13T17:50:53+06:00,
1000000000047459,77025466086,mAltel,mKcell,mKcell,,D07,2016-02-13T17:51:29+06:00,
1000000000047462,77010222258,mAltel,mKcell,mKcell,,D07,2016-02-13T17:52:31+06:00,
1000000000047463,77015504109,mAltel,mKcell,mKcell,,D07,2016-02-13T17:53:05+06:00,
1000000000047465,77075257050,mAltel,mMTS,mMTS,,D07,2016-02-13T17:54:10+06:00,
1000000000047468,77077311128,mAltel,mMTS,mMTS,,D07,2016-02-13T17:56:38+06:00,
1000000000047474,77027684636,mAltel,mKcell,mKcell,,D07,2016-02-13T17:59:42+06:00,
