NPId,Number,RecipientId,DonorId,RangeHolderId,OldRoute,NewRoute,PortDate,RowCount
1000000000422800,77785029290,mAltel,mKcell,mKcell,,D07,2017-07-16T17:34:18+06:00,7
1000000000422802,77017167601,mKarTel,mKcell,mKcell,,D01,2017-07-16T17:38:48+06:00,
1000000000422805,77771209966,mMTS,mKarTel,mKarTel,,D77,2017-07-16T17:43:10+06:00,
1000000000422806,77017749371,mMTS,mKcell,mKcell,,D77,2017-07-16T17:45:17+06:00,
1000000000422807,77077175787,mKcell,mMTS,mMTS,,D02,2017-07-16T17:46:21+06:00,
1000000000422811,77016216982,mMTS,mKcell,mKcell,,D77,2017-07-16T17:58:24+06:00,
1000000000422812,77015522662,mKarTel,mKcell,mKcell,,D01,2017-07-16T17:59:13+06:00,
