NPId,Number,RecipientId,DonorId,RangeHolderId,OldRoute,NewRoute,PortDate,RowCount
1000000000096309,77084001575,mKarTel,mAltel,mAltel,,D01,2016-02-22T17:00:21+06:00,52
1000000000096310,77771755551,mMTS,mKarTel,mKarTel,,D77,2016-02-22T17:01:10+06:00,
1000000000096313,77084001574,mKarTel,mAltel,mAltel,,D01,2016-02-22T17:02:25+06:00,
1000000000096315,77015233231,mAltel,mKcell,mKcell,,D07,2016-02-22T17:04:26+06:00,
1000000000096317,77084001571,mKarTel,mAltel,mAltel,,D01,2016-02-22T17:04:48+06:00,
1000000000096318,77018695435,mAltel,mKcell,mKcell,,D07,2016-02-22T17:04:50+06:00,
1000000000096319,77011812622,mKarTel,mKcell,mKcell,,D01,2016-02-22T17:06:42+06:00,
1000000000096320,77084001569,mKarTel,mAltel,mAltel,,D01,2016-02-22T17:06:58+06:00,
1000000000096322,77786013759,mMTS,mKcell,mKcell,,D77,2016-02-22T17:07:00+06:00,
1000000000096323,77023718894,mAltel,mKcell,mKcell,,D07,2016-02-22T17:07:02+06:00,
1000000000096325,77026675367,mAltel,mKcell,mKcell,,D07,2016-02-22T17:07:38+06:00,
1000000000096326,77086770336,mKcell,mAltel,mAltel,,D02,2016-02-22T17:07:59+06:00,
1000000000096327,77015173250,mKarTel,mKcell,mKcell,,D01,2016-02-22T17:08:08+06:00,
1000000000096329,77786669708,mAltel,mKcell,mKcell,,D07,2016-02-22T17:08:06+06:00,
1000000000096331,77084001595,mKarTel,mAltel,mAltel,,D01,2016-02-22T17:08:55+06:00,
1000000000096332,77012315478,mAltel,mKcell,mKcell,,D07,2016-02-22T17:08:50+06:00,
1000000000096334,77014974144,mAltel,mKcell,mKcell,,D07,2016-02-22T17:10:02+06:00,
1000000000096335,77084001594,mKarTel,mAltel,mAltel,,D01,2016-02-22T17:10:08+06:00,
1000000000096336,77013610107,mKarTel,mKcell,mKcell,,D01,2016-02-22T17:10:37+06:00,
1000000000096337,77014041849,mAltel,mKcell,mKcell,,D07,2016-02-22T17:12:22+06:00,
1000000000096338,77084001593,mKarTel,mAltel,mAltel,,D01,2016-02-22T17:12:12+06:00,
1000000000096339,77761001955,mKcell,mKarTel,mKarTel,,D02,2016-02-22T17:13:00+06:00,
1000000000096342,77024047485,mAltel,mKcell,mKcell,,D07,2016-02-22T17:13:09+06:00,
1000000000096343,77084001589,mKarTel,mAltel,mAltel,,D01,2016-02-22T17:13:49+06:00,
1000000000096344,77010000301,mAltel,mKcell,mKcell,,D07,2016-02-22T17:14:16+06:00,
1000000000096347,77084001588,mKarTel,mAltel,mAltel,,D01,2016-02-22T17:14:52+06:00,
1000000000096349,77022740025,mMTS,mKcell,mKcell,,D77,2016-02-22T17:16:23+06:00,
1000000000096350,77084001631,mKarTel,mAltel,mAltel,,D01,2016-02-22T17:16:45+06:00,
1000000000096351,77010709911,mAltel,mKcell,mKcell,,D07,2016-02-22T17:16:47+06:00,
1000000000096352,77084001629,mKarTel,mAltel,mAltel,,D01,2016-02-22T17:16:46+06:00,
1000000000096353,77016311188,mMTS,mKcell,mKcell,,D77,2016-02-22T17:17:57+06:00,
1000000000096354,77789710000,mAltel,mKcell,mKcell,,D07,2016-02-22T17:18:22+06:00,
1000000000096355,77084001625,mKarTel,mAltel,mAltel,,D01,2016-02-22T17:18:39+06:00,
1000000000096357,77017373723,mKarTel,mKcell,mKcell,,D01,2016-02-22T17:20:37+06:00,
1000000000096358,77084001624,mKarTel,mAltel,mAltel,,D01,2016-02-22T17:20:30+06:00,
1000000000096360,77015276014,mKarTel,mKcell,mKcell,,D01,2016-02-22T17:21:23+06:00,
1000000000096361,77017781902,mKarTel,mKcell,mKcell,,D01,2016-02-22T17:21:45+06:00,
1000000000096362,77787422222,mKarTel,mKcell,mKcell,,D01,2016-02-22T17:21:57+06:00,
1000000000096363,77022351632,mMTS,mKcell,mKcell,,D77,2016-02-22T17:21:53+06:00,
1000000000096364,77754783929,mMTS,mKcell,mKcell,,D77,2016-02-22T17:21:59+06:00,
1000000000096365,77001445537,mKarTel,mAltel,mAltel,,D01,2016-02-22T17:22:39+06:00,
1000000000096366,77084001620,mKarTel,mAltel,mAltel,,D01,2016-02-22T17:22:38+06:00,
1000000000096368,77054494999,mMTS,mKarTel,mKarTel,,D77,2016-02-22T17:24:07+06:00,
1000000000096370,77023765000,mMTS,mKcell,mKcell,,D77,2016-02-22T17:25:04+06:00,
1000000000096371,77024411479,mMTS,mKcell,mKcell,,D77,2016-02-22T17:25:12+06:00,
1000000000096372,77755338383,mAltel,mKcell,mKcell,,D07,2016-02-22T17:25:32+06:00,
1000000000096373,77719077778,mMTS,mKarTel,mKarTel,,D77,2016-02-22T17:26:56+06:00,
1000000000096374,77773427777,mKcell,mKarTel,mKarTel,,D02,2016-02-22T17:27:29+06:00,
1000000000096375,77013472329,mMTS,mKcell,mKcell,,D77,2016-02-22T17:27:43+06:00,
1000000000096376,77012045268,mKarTel,mKcell,mKcell,,D01,2016-02-22T17:28:36+06:00,
1000000000096379,77017173352,mMTS,mKcell,mKcell,,D77,2016-02-22T17:29:57+06:00,
1000000000096382,77018229944,mMTS,mKcell,mKcell,,D77,2016-02-22T17:29:57+06:00,
