NPId,Number,RecipientId,DonorId,RangeHolderId,OldRoute,NewRoute,PortDate,RowCount
1000000000417742,77770779191,mKcell,mKarTel,mKarTel,,D02,2017-07-06T19:04:44+06:00,4
1000000000417743,77019798119,mAltel,mKcell,mKcell,,D07,2017-07-06T19:10:22+06:00,
1000000000417744,77081035920,mAltel,mMTS,mAltel,D77,D07,2017-07-06T19:14:07+06:00,
1000000000417745,77073217777,mKcell,mMTS,mMTS,,D02,2017-07-06T19:25:16+06:00,
