NPId,Number,RecipientId,DonorId,RangeHolderId,OldRoute,NewRoute,PortDate,RowCount
1000000000375715,77007777499,mKcell,mAltel,mAltel,,D02,2017-05-10T09:28:50+06:00,3
1000000000380410,77011694729,mMTS,mKcell,mKcell,,D77,2017-05-10T09:15:28+06:00,
1000000000380411,77071102777,mMTS,mKcell,mMTS,D02,D77,2017-05-10T09:23:10+06:00,
