NPId,Number,RecipientId,DonorId,RangeHolderId,OldRoute,NewRoute,PortDate,RowCount
1000000000227264,77073222555,mKcell,mAltel,mMTS,D07,D02,2016-08-11T11:31:26+06:00,17
1000000000227265,77009758320,mMTS,mAltel,mAltel,,D77,2016-08-11T11:32:17+06:00,
1000000000227266,77086688969,mMTS,mAltel,mAltel,,D77,2016-08-11T11:32:21+06:00,
1000000000227267,77082572010,mMTS,mAltel,mAltel,,D77,2016-08-11T11:32:21+06:00,
1000000000227268,77017776895,mMTS,mKcell,mKcell,,D77,2016-08-11T11:32:41+06:00,
1000000000227270,77053751406,mAltel,mKarTel,mKarTel,,D07,2016-08-11T11:34:24+06:00,
1000000000227276,77087316142,mMTS,mAltel,mAltel,,D77,2016-08-11T11:36:53+06:00,
1000000000227278,77014028225,mKarTel,mKcell,mKcell,,D01,2016-08-11T11:39:58+06:00,
1000000000227280,77758590977,mMTS,mKcell,mKcell,,D77,2016-08-11T11:40:02+06:00,
1000000000227283,77750001191,mKcell,mMTS,mKcell,D77,D02,2016-08-11T11:42:46+06:00,
1000000000227284,77758653737,mMTS,mKcell,mKcell,,D77,2016-08-11T11:42:33+06:00,
1000000000227285,77021143354,mKcell,mMTS,mKcell,D77,D02,2016-08-11T11:42:45+06:00,
1000000000227286,77027304035,mMTS,mKcell,mKcell,,D77,2016-08-11T11:45:15+06:00,
1000000000227289,77715645454,mKcell,mKarTel,mKarTel,,D02,2016-08-11T11:51:05+06:00,
1000000000227290,77075552293,mKcell,mMTS,mMTS,,D02,2016-08-11T11:53:20+06:00,
1000000000227293,77759836682,mMTS,mKcell,mKcell,,D77,2016-08-11T11:57:00+06:00,
1000000000227294,77007710727,mKcell,mAltel,mAltel,,D02,2016-08-11T11:58:35+06:00,
