NPId,Number,RecipientId,DonorId,RangeHolderId,OldRoute,NewRoute,PortDate,RowCount
1000000000442811,77075504050,mMTS,mAltel,mMTS,D07,D77,2017-08-20T17:12:17+06:00,9
1000000000442812,77789415858,mAltel,mKcell,mKcell,,D07,2017-08-20T17:14:01+06:00,
1000000000442813,77013333880,mKarTel,mMTS,mKcell,D77,D01,2017-08-20T17:15:12+06:00,
1000000000442814,77076002014,mKcell,mMTS,mMTS,,D02,2017-08-20T17:16:42+06:00,
1000000000442816,77059795050,mAltel,mKarTel,mKarTel,,D07,2017-08-20T17:18:57+06:00,
1000000000442817,77753157464,mKarTel,mKcell,mKcell,,D01,2017-08-20T17:22:11+06:00,
1000000000442818,77017757085,mMTS,mKcell,mKcell,,D77,2017-08-20T17:27:01+06:00,
1000000000442819,77786076191,mKarTel,mKcell,mKcell,,D01,2017-08-20T17:27:30+06:00,
1000000000442821,77073700888,mAltel,mMTS,mMTS,D77,D07,2017-08-20T17:28:57+06:00,
