NPId,Number,RecipientId,DonorId,RangeHolderId,OldRoute,NewRoute,PortDate,RowCount
1000000000366150,77000939400,mKcell,mAltel,mAltel,,D02,2017-04-14T20:35:01+06:00,6
1000000000366151,77752500200,mMTS,mKcell,mKcell,D02,D77,2017-04-14T20:37:53+06:00,
1000000000366152,77015501322,mKcell,mAltel,mKcell,D07,D02,2017-04-14T20:38:27+06:00,
1000000000366153,77028666666,mKcell,mKarTel,mKcell,D01,D02,2017-04-14T20:39:47+06:00,
1000000000366154,77000919500,mKcell,mAltel,mAltel,,D02,2017-04-14T20:43:14+06:00,
1000000000366155,77000919400,mKcell,mAltel,mAltel,,D02,2017-04-14T20:45:58+06:00,
