NPId,Number,RecipientId,DonorId,RangeHolderId,OldRoute,NewRoute,PortDate,RowCount
1000000000267083,77015557142,mKcell,mAltel,mKcell,D07,D02,2016-10-24T11:35:56+06:00,14
1000000000267086,77055222262,mAltel,mKcell,mKarTel,D02,D07,2016-10-24T11:40:39+06:00,
1000000000267087,77017777968,mKarTel,mKcell,mKcell,,D01,2016-10-24T11:41:31+06:00,
1000000000267088,77786339901,mKcell,mMTS,mKcell,D77,D02,2016-10-24T11:41:55+06:00,
1000000000267089,77024801133,mAltel,mKcell,mKcell,,D07,2016-10-24T11:43:15+06:00,
1000000000267090,77771038778,mMTS,mKarTel,mKarTel,,D77,2016-10-24T11:43:58+06:00,
1000000000267092,77776710173,mAltel,mKcell,mKarTel,D02,D07,2016-10-24T11:48:12+06:00,
1000000000267093,77787085444,mKarTel,mKcell,mKcell,,D01,2016-10-24T11:50:31+06:00,
1000000000267094,77772036697,mAltel,mKarTel,mKarTel,,D07,2016-10-24T11:53:58+06:00,
1000000000267095,77075508691,mAltel,mMTS,mMTS,,D07,2016-10-24T11:53:50+06:00,
1000000000267096,77077044689,mKarTel,mMTS,mMTS,,D01,2016-10-24T11:54:22+06:00,
1000000000267097,77781470718,mKarTel,mKcell,mKcell,,D01,2016-10-24T11:55:22+06:00,
1000000000267098,77088280523,mKarTel,mAltel,mAltel,,D01,2016-10-24T11:57:11+06:00,
1000000000267099,77028591407,mMTS,mKcell,mKcell,,D77,2016-10-24T11:57:48+06:00,
