NPId,Number,RecipientId,DonorId,RangeHolderId,OldRoute,NewRoute,PortDate,RowCount
1000000000188307,77083117584,mMTS,mAltel,mAltel,,D77,2016-06-05T18:42:09+06:00,5
1000000000188309,77071109190,mMTS,mAltel,mMTS,D07,D77,2016-06-05T18:46:08+06:00,
1000000000188311,77021964760,mMTS,mKcell,mKcell,,D77,2016-06-05T18:52:13+06:00,
1000000000188313,77773373945,mKarTel,mKcell,mKarTel,D02,D01,2016-06-05T18:56:34+06:00,
1000000000188315,77023004090,mAltel,mKcell,mKcell,,D07,2016-06-05T18:58:40+06:00,
