NPId,Number,RecipientId,DonorId,RangeHolderId,OldRoute,NewRoute,PortDate,RowCount
1000000000094233,77770207084,mMTS,mKarTel,mKarTel,,D77,2016-02-20T14:00:33+06:00,38
1000000000094234,77029943622,mAltel,mKcell,mKcell,,D07,2016-02-20T14:00:43+06:00,
1000000000094235,77014521222,mAltel,mKcell,mKcell,,D07,2016-02-20T14:01:32+06:00,
1000000000094236,77788306484,mMTS,mKcell,mKcell,,D77,2016-02-20T14:01:57+06:00,
1000000000094237,77018578329,mMTS,mKcell,mKcell,,D77,2016-02-20T14:01:57+06:00,
1000000000094238,77084941201,mMTS,mAltel,mAltel,,D77,2016-02-20T14:02:16+06:00,
1000000000094239,77017401679,mAltel,mKcell,mKcell,,D07,2016-02-20T14:02:50+06:00,
1000000000094240,77023483442,mAltel,mKcell,mKcell,,D07,2016-02-20T14:03:44+06:00,
1000000000094241,77055607220,mAltel,mKarTel,mKarTel,,D07,2016-02-20T14:04:03+06:00,
1000000000094243,77473334598,mAltel,mMTS,mMTS,,D07,2016-02-20T14:05:21+06:00,
1000000000094244,77772861849,mMTS,mKarTel,mKarTel,,D77,2016-02-20T14:05:57+06:00,
1000000000094245,77012186222,mMTS,mKcell,mKcell,,D77,2016-02-20T14:05:57+06:00,
1000000000094246,77011598910,mMTS,mKcell,mKcell,,D77,2016-02-20T14:06:47+06:00,
1000000000094247,77029997886,mAltel,mKcell,mKcell,,D07,2016-02-20T14:06:48+06:00,
1000000000094248,77753034364,mMTS,mKcell,mKcell,,D77,2016-02-20T14:06:47+06:00,
1000000000094250,77772092003,mMTS,mKarTel,mKarTel,,D77,2016-02-20T14:08:40+06:00,
1000000000094252,77079970214,mAltel,mMTS,mMTS,,D07,2016-02-20T14:10:31+06:00,
1000000000094253,77085835824,mKarTel,mAltel,mAltel,,D01,2016-02-20T14:11:12+06:00,
1000000000094255,77758773181,mAltel,mKcell,mKcell,,D07,2016-02-20T14:12:25+06:00,
1000000000094256,77017328922,mMTS,mKcell,mKcell,,D77,2016-02-20T14:13:19+06:00,
1000000000094257,77777944777,mAltel,mKarTel,mKarTel,,D07,2016-02-20T14:14:28+06:00,
1000000000094259,77010250600,mMTS,mKcell,mKcell,,D77,2016-02-20T14:14:49+06:00,
1000000000094261,77085835854,mKarTel,mAltel,mAltel,,D01,2016-02-20T14:15:50+06:00,
1000000000094263,77017077730,mAltel,mKcell,mKcell,,D07,2016-02-20T14:18:05+06:00,
1000000000094264,77012166722,mKarTel,mKcell,mKcell,,D01,2016-02-20T14:20:01+06:00,
1000000000094265,77085835849,mKarTel,mAltel,mAltel,,D01,2016-02-20T14:20:29+06:00,
1000000000094267,77787771163,mAltel,mKcell,mKcell,,D07,2016-02-20T14:21:13+06:00,
1000000000094270,77024845658,mAltel,mKcell,mKcell,,D07,2016-02-20T14:22:32+06:00,
1000000000094271,77085835840,mKarTel,mAltel,mAltel,,D01,2016-02-20T14:22:43+06:00,
1000000000094272,77013081770,mMTS,mKcell,mKcell,,D77,2016-02-20T14:22:54+06:00,
1000000000094274,77088010441,mMTS,mAltel,mAltel,,D77,2016-02-20T14:23:32+06:00,
1000000000094275,77014595913,mAltel,mKcell,mKcell,,D07,2016-02-20T14:24:55+06:00,
1000000000094276,77024260025,mMTS,mKcell,mKcell,,D77,2016-02-20T14:25:55+06:00,
1000000000094277,77085835834,mKarTel,mAltel,mAltel,,D01,2016-02-20T14:25:55+06:00,
1000000000094279,77058748489,mAltel,mKarTel,mKarTel,,D07,2016-02-20T14:27:16+06:00,
1000000000094280,77789300403,mMTS,mKcell,mKcell,,D77,2016-02-20T14:27:20+06:00,
1000000000094282,77714448333,mAltel,mKarTel,mKarTel,,D07,2016-02-20T14:28:34+06:00,
1000000000094283,77017883017,mAltel,mKcell,mKcell,,D07,2016-02-20T14:29:23+06:00,
