NPId,Number,RecipientId,DonorId,RangeHolderId,OldRoute,NewRoute,PortDate,RowCount
1000000000349787,77773660554,mKarTel,mMTS,mKarTel,D77,D01,2017-03-19T17:32:21+06:00,9
1000000000349788,77081665528,mKarTel,mAltel,mAltel,,D01,2017-03-19T17:32:50+06:00,
1000000000349789,77021782913,mAltel,mKcell,mKcell,,D07,2017-03-19T17:37:06+06:00,
1000000000349790,77767000751,mKcell,mKarTel,mKarTel,,D02,2017-03-19T17:40:52+06:00,
1000000000349791,77013807559,mKarTel,mMTS,mKcell,D77,D01,2017-03-19T17:42:36+06:00,
1000000000349792,77769979595,mKcell,mKarTel,mKarTel,,D02,2017-03-19T17:44:26+06:00,
1000000000349793,77007773782,mKcell,mAltel,mAltel,,D02,2017-03-19T17:52:48+06:00,
1000000000349794,77477010495,mMTS,mKcell,mMTS,D02,D77,2017-03-19T17:54:23+06:00,
1000000000349795,77051111197,mKcell,mKarTel,mKarTel,,D02,2017-03-19T17:56:12+06:00,
