NPId,Number,RecipientId,DonorId,RangeHolderId,OldRoute,NewRoute,PortDate,RowCount
1000000000422150,77074582962,mKarTel,mMTS,mMTS,,D01,2017-07-14T20:35:18+06:00,4
1000000000422151,77775202733,mMTS,mKarTel,mKarTel,,D77,2017-07-14T20:47:17+06:00,
1000000000422153,77016787764,mMTS,mKcell,mKcell,,D77,2017-07-14T20:52:01+06:00,
1000000000422154,77005005530,mMTS,mAltel,mAltel,,D77,2017-07-14T20:56:56+06:00,
