NPId,Number,RecipientId,DonorId,RangeHolderId,OldRoute,NewRoute,PortDate,RowCount
1000000000446758,77029600002,mKcell,mMTS,mKcell,D77,D02,2017-08-27T17:00:11+06:00,8
1000000000446761,77013453554,mKarTel,mKcell,mKcell,,D01,2017-08-27T17:04:31+06:00,
1000000000446762,77478213800,mAltel,mMTS,mMTS,,D07,2017-08-27T17:05:12+06:00,
1000000000446763,77024111122,mMTS,mKcell,mKcell,,D77,2017-08-27T17:07:30+06:00,
1000000000446764,77017002240,mKarTel,mKcell,mKcell,,D01,2017-08-27T17:10:33+06:00,
1000000000446766,77005005531,mKcell,mAltel,mAltel,,D02,2017-08-27T17:20:30+06:00,
1000000000446767,77025567076,mMTS,mKcell,mKcell,D02,D77,2017-08-27T17:28:00+06:00,
1000000000446768,77758299445,mAltel,mKcell,mKcell,,D07,2017-08-27T17:27:59+06:00,
