NPId,Number,RecipientId,DonorId,RangeHolderId,OldRoute,NewRoute,PortDate,RowCount
1000000000156244,77757143812,mKcell,mAltel,mKcell,D07,D02,2016-04-20T11:32:02+06:00,28
1000000000156245,77000006218,mKcell,mAltel,mAltel,,D02,2016-04-20T11:32:01+06:00,
1000000000156246,77089338403,mKcell,mAltel,mAltel,,D02,2016-04-20T11:32:30+06:00,
1000000000156248,77074099191,mAltel,mMTS,mMTS,,D07,2016-04-20T11:32:02+06:00,
1000000000156250,77025763662,mMTS,mKcell,mKcell,,D77,2016-04-20T11:33:09+06:00,
1000000000156253,77088439796,mMTS,mAltel,mAltel,,D77,2016-04-20T11:34:31+06:00,
1000000000156254,77076509027,mAltel,mMTS,mMTS,,D07,2016-04-20T11:36:14+06:00,
1000000000156258,77089272888,mKarTel,mAltel,mAltel,,D01,2016-04-20T11:38:02+06:00,
1000000000156259,77783036893,mMTS,mKcell,mKcell,,D77,2016-04-20T11:43:20+06:00,
1000000000156260,77015164090,mMTS,mKcell,mKcell,,D77,2016-04-20T11:42:53+06:00,
1000000000156262,77718000083,mMTS,mKarTel,mKarTel,,D77,2016-04-20T11:39:48+06:00,
1000000000156264,77776683535,mMTS,mKarTel,mKarTel,,D77,2016-04-20T11:41:17+06:00,
1000000000156265,77013150757,mKcell,mAltel,mKcell,D07,D02,2016-04-20T11:43:52+06:00,
1000000000156268,77759696096,mKcell,mAltel,mKcell,D07,D02,2016-04-20T11:46:02+06:00,
1000000000156269,77054400415,mAltel,mKarTel,mKarTel,,D07,2016-04-20T11:46:15+06:00,
1000000000156271,77071725770,mKcell,mMTS,mMTS,,D02,2016-04-20T11:46:52+06:00,
1000000000156272,77024973467,mMTS,mKcell,mKcell,,D77,2016-04-20T11:47:27+06:00,
1000000000156273,77014726040,mMTS,mKcell,mKcell,,D77,2016-04-20T11:47:52+06:00,
1000000000156274,77018063544,mKarTel,mAltel,mKcell,D07,D01,2016-04-20T11:47:52+06:00,
1000000000156275,77786161655,mMTS,mKcell,mKcell,,D77,2016-04-20T11:52:11+06:00,
1000000000156276,77057307808,mMTS,mKarTel,mKarTel,,D77,2016-04-20T11:53:16+06:00,
1000000000156277,77081749949,mMTS,mAltel,mAltel,,D77,2016-04-20T11:53:42+06:00,
1000000000156278,77714301954,mMTS,mKarTel,mKarTel,,D77,2016-04-20T11:55:04+06:00,
1000000000156279,77779524064,mKcell,mKarTel,mKarTel,,D02,2016-04-20T11:57:47+06:00,
1000000000156280,77007753656,mMTS,mAltel,mAltel,,D77,2016-04-20T11:57:00+06:00,
1000000000156281,77023930723,mMTS,mKcell,mKcell,,D77,2016-04-20T11:57:53+06:00,
1000000000156284,77003580754,mMTS,mAltel,mAltel,,D77,2016-04-20T11:58:26+06:00,
1000000000156285,77772779613,mMTS,mKarTel,mKarTel,,D77,2016-04-20T11:59:49+06:00,
