NPId,Number,RecipientId,DonorId,RangeHolderId,OldRoute,NewRoute,PortDate,RowCount
1000000000239898,77752266116,mMTS,mKcell,mKcell,,D77,2016-09-03T18:30:09+06:00,10
1000000000239901,77015554413,mKarTel,mMTS,mKcell,D77,D01,2016-09-03T18:35:37+06:00,
1000000000239902,77027660411,mKcell,mKarTel,mKcell,D01,D02,2016-09-03T18:37:23+06:00,
1000000000239903,77029991319,mAltel,mKcell,mKcell,,D07,2016-09-03T18:36:29+06:00,
1000000000239905,77059005841,mKcell,mKarTel,mKarTel,,D02,2016-09-03T18:38:36+06:00,
1000000000239906,77785757164,mKarTel,mKcell,mKcell,,D01,2016-09-03T18:41:14+06:00,
1000000000239908,77022703813,mKarTel,mKcell,mKcell,,D01,2016-09-03T18:46:35+06:00,
1000000000239909,77016069926,mKarTel,mMTS,mKcell,D77,D01,2016-09-03T18:47:58+06:00,
1000000000239910,77019018989,mKarTel,mMTS,mKcell,D77,D01,2016-09-03T18:51:58+06:00,
1000000000239912,77023438181,mMTS,mKcell,mKcell,,D77,2016-09-03T18:52:51+06:00,
