NPId,Number,RecipientId,DonorId,RangeHolderId,OldRoute,NewRoute,PortDate,RowCount
1000000000403540,77017118978,mKarTel,mKcell,mKcell,,D01,2017-06-15T16:31:30+06:00,25
1000000000403882,77759426352,mKarTel,mKcell,mKcell,,D01,2017-06-15T16:30:02+06:00,
1000000000403883,77759472279,mMTS,mKcell,mKcell,D02,D77,2017-06-15T16:31:11+06:00,
1000000000403884,77059929144,mMTS,mKarTel,mKarTel,,D77,2017-06-15T16:32:01+06:00,
1000000000403885,77774544449,mKarTel,mAltel,mKarTel,D07,D01,2017-06-15T16:36:38+06:00,
1000000000403886,77766625563,mKcell,mKarTel,mKarTel,,D02,2017-06-15T16:37:19+06:00,
1000000000403887,77023506229,mAltel,mKcell,mKcell,,D07,2017-06-15T16:36:54+06:00,
1000000000403888,77027938777,mKcell,mAltel,mKcell,D07,D02,2017-06-15T16:38:45+06:00,
1000000000403889,77754114758,mKcell,mMTS,mKcell,D77,D02,2017-06-15T16:41:27+06:00,
1000000000403890,77007695204,mKarTel,mAltel,mAltel,,D01,2017-06-15T16:41:16+06:00,
1000000000403891,77029129112,mKcell,mMTS,mKcell,D77,D02,2017-06-15T16:41:42+06:00,
1000000000403892,77777624081,mKarTel,mMTS,mKarTel,D77,D01,2017-06-15T16:44:27+06:00,
1000000000403893,77077642161,mMTS,mAltel,mMTS,D07,D77,2017-06-15T16:46:33+06:00,
1000000000403895,77769399994,mAltel,mKarTel,mKarTel,,D07,2017-06-15T16:48:18+06:00,
1000000000403896,77072151520,mMTS,mAltel,mMTS,D07,D77,2017-06-15T16:48:15+06:00,
1000000000403898,77759904239,mKarTel,mKcell,mKcell,,D01,2017-06-15T16:49:48+06:00,
1000000000403899,77028430311,mMTS,mKcell,mKcell,,D77,2017-06-15T16:49:52+06:00,
1000000000403900,77753857003,mMTS,mKcell,mKcell,,D77,2017-06-15T16:51:05+06:00,
1000000000403901,77086305703,mKcell,mAltel,mAltel,,D02,2017-06-15T16:51:49+06:00,
1000000000403903,77012999957,mKcell,mMTS,mKcell,D77,D02,2017-06-15T16:53:12+06:00,
1000000000403904,77058900008,mKcell,mKarTel,mKarTel,,D02,2017-06-15T16:56:10+06:00,
1000000000403905,77074273417,mKcell,mMTS,mMTS,,D02,2017-06-15T16:56:53+06:00,
1000000000403906,77082281161,mKcell,mAltel,mAltel,,D02,2017-06-15T16:56:44+06:00,
1000000000403907,77015183300,mKcell,mKarTel,mKcell,D01,D02,2017-06-15T16:59:26+06:00,
1000000000403908,77087526871,mKcell,mAltel,mAltel,,D02,2017-06-15T16:59:27+06:00,
