NPId,Number,RecipientId,DonorId,RangeHolderId,OldRoute,NewRoute,PortDate,RowCount
1000000000284902,77023823238,mMTS,mKcell,mKcell,,D77,2016-11-27T11:30:32+06:00,9
1000000000284903,77012618575,mMTS,mKcell,mKcell,,D77,2016-11-27T11:36:13+06:00,
1000000000284904,77755498008,mMTS,mKcell,mKcell,,D77,2016-11-27T11:45:56+06:00,
1000000000284905,77053324445,mKcell,mKarTel,mKarTel,,D02,2016-11-27T11:46:44+06:00,
1000000000284906,77017626783,mKarTel,mKcell,mKcell,,D01,2016-11-27T11:48:04+06:00,
1000000000284908,77055014448,mMTS,mKarTel,mKarTel,D01,D77,2016-11-27T11:50:21+06:00,
1000000000284909,77017793332,mMTS,mKcell,mKcell,,D77,2016-11-27T11:51:19+06:00,
1000000000284910,77055555429,mKarTel,mAltel,mKarTel,D07,D01,2016-11-27T11:52:07+06:00,
1000000000284911,77017843920,mMTS,mKcell,mKcell,,D77,2016-11-27T11:54:23+06:00,
