NPId,Number,RecipientId,DonorId,RangeHolderId,OldRoute,NewRoute,PortDate,RowCount
1000000000354855,77752504040,mAltel,mKcell,mKcell,,D07,2017-03-29T14:31:54+06:00,27
1000000000354856,77755642951,mMTS,mKcell,mKcell,,D77,2017-03-29T14:32:52+06:00,
1000000000354857,77077085263,mAltel,mMTS,mMTS,,D07,2017-03-29T14:34:31+06:00,
1000000000354858,77087519633,mKarTel,mAltel,mAltel,,D01,2017-03-29T14:34:58+06:00,
1000000000354859,77001592269,mMTS,mAltel,mAltel,,D77,2017-03-29T14:36:01+06:00,
1000000000354860,77007771746,mKcell,mAltel,mAltel,,D02,2017-03-29T14:38:16+06:00,
1000000000354861,77059547202,mMTS,mKarTel,mKarTel,,D77,2017-03-29T14:38:43+06:00,
1000000000354862,77079932555,mKarTel,mMTS,mMTS,,D01,2017-03-29T14:39:15+06:00,
1000000000354863,77057500010,mMTS,mKcell,mKarTel,D02,D77,2017-03-29T14:41:46+06:00,
1000000000354864,77757134888,mMTS,mKcell,mKcell,,D77,2017-03-29T14:43:54+06:00,
1000000000354865,77476678893,mKarTel,mMTS,mMTS,,D01,2017-03-29T14:43:56+06:00,
1000000000354867,77779990394,mKcell,mKarTel,mKarTel,,D02,2017-03-29T14:45:56+06:00,
1000000000354869,77026031222,mMTS,mKcell,mKcell,,D77,2017-03-29T14:46:59+06:00,
1000000000354870,77022777047,mMTS,mKcell,mKcell,,D77,2017-03-29T14:47:31+06:00,
1000000000354871,77017777313,mMTS,mKcell,mKcell,,D77,2017-03-29T14:47:33+06:00,
1000000000354872,77755642958,mMTS,mKcell,mKcell,,D77,2017-03-29T14:47:56+06:00,
1000000000354873,77007771748,mKcell,mAltel,mAltel,,D02,2017-03-29T14:48:10+06:00,
1000000000354874,77007771726,mKcell,mAltel,mAltel,,D02,2017-03-29T14:48:10+06:00,
1000000000354875,77025178509,mKcell,mAltel,mKcell,D07,D02,2017-03-29T14:51:27+06:00,
1000000000354876,77057136598,mMTS,mKcell,mKarTel,D02,D77,2017-03-29T14:52:50+06:00,
1000000000354877,77477160707,mKcell,mMTS,mMTS,,D02,2017-03-29T14:53:13+06:00,
1000000000354878,77752108007,mMTS,mKcell,mKcell,,D77,2017-03-29T14:53:48+06:00,
1000000000354879,77077770876,mKcell,mMTS,mMTS,,D02,2017-03-29T14:54:04+06:00,
1000000000354880,77010440403,mMTS,mKarTel,mKcell,D01,D77,2017-03-29T14:55:37+06:00,
1000000000354881,77026969964,mMTS,mKcell,mKcell,,D77,2017-03-29T14:55:44+06:00,
1000000000354882,77018968655,mMTS,mKcell,mKcell,D02,D77,2017-03-29T14:56:24+06:00,
1000000000354883,77781529929,mKcell,mAltel,mKcell,D07,D02,2017-03-29T14:57:55+06:00,
