NPId,Number,RecipientId,DonorId,RangeHolderId,OldRoute,NewRoute,PortDate,RowCount
1000000000194483,77025416668,mKarTel,mKcell,mKcell,,D01,2016-06-16T13:31:49+06:00,17
1000000000194484,77058629849,mMTS,mKarTel,mKarTel,,D77,2016-06-16T13:31:56+06:00,
1000000000194486,77015019584,mMTS,mKcell,mKcell,,D77,2016-06-16T13:32:22+06:00,
1000000000194491,77076163535,mKcell,mMTS,mMTS,,D02,2016-06-16T13:36:57+06:00,
1000000000194492,77072246632,mMTS,mAltel,mMTS,D07,D77,2016-06-16T13:37:29+06:00,
1000000000194493,77752235474,mMTS,mAltel,mKcell,D07,D77,2016-06-16T13:37:47+06:00,
1000000000194495,77764508855,mMTS,mKarTel,mKarTel,,D77,2016-06-16T13:41:03+06:00,
1000000000194497,77766666566,mMTS,mKarTel,mKarTel,,D77,2016-06-16T13:42:50+06:00,
1000000000194498,77021042919,mMTS,mKcell,mKcell,,D77,2016-06-16T13:43:28+06:00,
1000000000194500,77072424900,mKarTel,mMTS,mMTS,,D01,2016-06-16T13:45:43+06:00,
1000000000194501,77073232302,mKarTel,mMTS,mMTS,,D01,2016-06-16T13:46:00+06:00,
1000000000194505,77771051188,mAltel,mKarTel,mKarTel,,D07,2016-06-16T13:48:23+06:00,
1000000000194506,77078225649,mMTS,mAltel,mMTS,D07,D77,2016-06-16T13:48:31+06:00,
1000000000194509,77078225648,mMTS,mAltel,mMTS,D07,D77,2016-06-16T13:51:43+06:00,
1000000000194513,77001062000,mMTS,mAltel,mAltel,,D77,2016-06-16T13:52:48+06:00,
1000000000194514,77017293031,mKarTel,mKcell,mKcell,,D01,2016-06-16T13:55:29+06:00,
1000000000194516,77774866022,mMTS,mKarTel,mKarTel,,D77,2016-06-16T13:56:10+06:00,
