NPId,Number,RecipientId,DonorId,RangeHolderId,OldRoute,NewRoute,PortDate,RowCount
1000000000295413,77782935473,mMTS,mKcell,mKcell,,D77,2016-12-14T20:32:42+06:00,4
1000000000295414,77772172816,mMTS,mKarTel,mKarTel,,D77,2016-12-14T20:37:59+06:00,
1000000000295416,77019282886,mKcell,mKarTel,mKcell,D01,D02,2016-12-14T20:41:31+06:00,
1000000000295417,77051297705,mMTS,mKarTel,mKarTel,,D77,2016-12-14T20:47:57+06:00,
