NPId,Number,RecipientId,DonorId,RangeHolderId,OldRoute,NewRoute,PortDate,RowCount
1000000000189873,77052012221,mKcell,mKarTel,mKarTel,,D02,2016-06-08T16:03:29+06:00,31
1000000000189891,77772234607,mKcell,mKarTel,mKarTel,,D02,2016-06-08T16:21:09+06:00,
1000000000189892,77772168080,mAltel,mKarTel,mKarTel,,D07,2016-06-08T16:20:31+06:00,
1000000000189903,77778150606,mMTS,mKarTel,mKarTel,,D77,2016-06-08T16:20:41+06:00,
1000000000190030,77057211116,mKcell,mKarTel,mKarTel,,D02,2016-06-08T16:01:04+06:00,
1000000000190033,77072450646,mKcell,mMTS,mMTS,,D02,2016-06-08T16:00:06+06:00,
1000000000190034,77000005100,mKcell,mAltel,mAltel,,D02,2016-06-08T16:01:05+06:00,
1000000000190035,77078787797,mKcell,mMTS,mMTS,,D02,2016-06-08T16:03:08+06:00,
1000000000190036,77777671777,mKcell,mKarTel,mKarTel,,D02,2016-06-08T16:01:56+06:00,
1000000000190038,77071269060,mMTS,mAltel,mMTS,D07,D77,2016-06-08T16:01:08+06:00,
1000000000190039,77777777161,mMTS,mKarTel,mKarTel,,D77,2016-06-08T16:01:47+06:00,
1000000000190040,77022803848,mMTS,mKcell,mKcell,,D77,2016-06-08T16:02:35+06:00,
1000000000190041,77078965286,mKarTel,mMTS,mMTS,,D01,2016-06-08T16:04:29+06:00,
1000000000190043,77774098778,mMTS,mKarTel,mKarTel,,D77,2016-06-08T16:05:13+06:00,
1000000000190045,77089770930,mMTS,mAltel,mAltel,,D77,2016-06-08T16:07:07+06:00,
1000000000190047,77018884554,mKcell,mAltel,mKcell,D07,D02,2016-06-08T16:12:00+06:00,
1000000000190048,77082422006,mMTS,mAltel,mAltel,,D77,2016-06-08T16:11:26+06:00,
1000000000190051,77071227555,mAltel,mMTS,mMTS,,D07,2016-06-08T16:12:45+06:00,
1000000000190054,77778000346,mAltel,mKarTel,mKarTel,,D07,2016-06-08T16:16:34+06:00,
1000000000190055,77771389675,mMTS,mKarTel,mKarTel,,D77,2016-06-08T16:16:47+06:00,
1000000000190056,77759317833,mAltel,mKcell,mKcell,,D07,2016-06-08T16:17:00+06:00,
1000000000190057,77081074967,mKarTel,mAltel,mAltel,,D01,2016-06-08T16:17:43+06:00,
1000000000190058,77082652727,mMTS,mAltel,mAltel,,D77,2016-06-08T16:18:46+06:00,
1000000000190059,77075225554,mKcell,mMTS,mMTS,,D02,2016-06-08T16:20:37+06:00,
1000000000190060,77025475461,mAltel,mKcell,mKcell,,D07,2016-06-08T16:20:56+06:00,
1000000000190061,77714031235,mMTS,mKarTel,mKarTel,,D77,2016-06-08T16:22:51+06:00,
1000000000190062,77027585544,mMTS,mKcell,mKcell,,D77,2016-06-08T16:23:38+06:00,
1000000000190063,77025000596,mMTS,mKcell,mKcell,,D77,2016-06-08T16:23:39+06:00,
1000000000190066,77003306668,mAltel,mMTS,mAltel,D77,D07,2016-06-08T16:25:22+06:00,
1000000000190068,77025496292,mMTS,mKcell,mKcell,,D77,2016-06-08T16:26:22+06:00,
1000000000190069,77712621221,mKcell,mMTS,mKarTel,D77,D02,2016-06-08T16:27:40+06:00,
