NPId,Number,RecipientId,DonorId,RangeHolderId,OldRoute,NewRoute,PortDate,RowCount
1000000000314750,77025715210,mMTS,mAltel,mKcell,D07,D77,2017-01-22T19:03:38+06:00,3
1000000000314751,77757342362,mKcell,mMTS,mKcell,D77,D02,2017-01-22T19:06:00+06:00,
1000000000314754,77788133910,mMTS,mKcell,mKcell,,D77,2017-01-22T19:27:51+06:00,
