NPId,Number,RecipientId,DonorId,RangeHolderId,OldRoute,NewRoute,PortDate,RowCount
1000000000271521,77010278457,mKarTel,mKcell,mKcell,,D01,2016-11-01T14:37:13+06:00,90
1000000000271521,77010290672,mKarTel,mKcell,mKcell,,D01,2016-11-01T14:37:13+06:00,
1000000000271521,77010290673,mKarTel,mKcell,mKcell,,D01,2016-11-01T14:37:13+06:00,
1000000000271521,77010290675,mKarTel,mKcell,mKcell,,D01,2016-11-01T14:37:13+06:00,
1000000000271521,77010290676,mKarTel,mKcell,mKcell,,D01,2016-11-01T14:37:13+06:00,
1000000000271521,77010527539,mKarTel,mKcell,mKcell,,D01,2016-11-01T14:37:13+06:00,
1000000000271521,77010527540,mKarTel,mKcell,mKcell,,D01,2016-11-01T14:37:13+06:00,
1000000000271521,77010527541,mKarTel,mKcell,mKcell,,D01,2016-11-01T14:37:13+06:00,
1000000000271521,77010527544,mKarTel,mKcell,mKcell,,D01,2016-11-01T14:37:13+06:00,
1000000000271521,77010527546,mKarTel,mKcell,mKcell,,D01,2016-11-01T14:37:13+06:00,
1000000000271521,77010527548,mKarTel,mKcell,mKcell,,D01,2016-11-01T14:37:13+06:00,
1000000000271521,77010527549,mKarTel,mKcell,mKcell,,D01,2016-11-01T14:37:13+06:00,
1000000000271521,77010527550,mKarTel,mKcell,mKcell,,D01,2016-11-01T14:37:13+06:00,
1000000000271521,77010527551,mKarTel,mKcell,mKcell,,D01,2016-11-01T14:37:13+06:00,
1000000000271521,77010527553,mKarTel,mKcell,mKcell,,D01,2016-11-01T14:37:13+06:00,
1000000000271521,77010527554,mKarTel,mKcell,mKcell,,D01,2016-11-01T14:37:13+06:00,
1000000000271521,77010527556,mKarTel,mKcell,mKcell,,D01,2016-11-01T14:37:13+06:00,
1000000000271521,77010527559,mKarTel,mKcell,mKcell,,D01,2016-11-01T14:37:13+06:00,
1000000000271521,77010527560,mKarTel,mKcell,mKcell,,D01,2016-11-01T14:37:13+06:00,
1000000000271521,77010527561,mKarTel,mKcell,mKcell,,D01,2016-11-01T14:37:13+06:00,
1000000000271521,77010527562,mKarTel,mKcell,mKcell,,D01,2016-11-01T14:37:13+06:00,
1000000000271521,77010527563,mKarTel,mKcell,mKcell,,D01,2016-11-01T14:37:13+06:00,
1000000000271521,77010527564,mKarTel,mKcell,mKcell,,D01,2016-11-01T14:37:13+06:00,
1000000000271521,77010528238,mKarTel,mKcell,mKcell,,D01,2016-11-01T14:37:13+06:00,
1000000000271521,77010528239,mKarTel,mKcell,mKcell,,D01,2016-11-01T14:37:13+06:00,
1000000000271521,77010528240,mKarTel,mKcell,mKcell,,D01,2016-11-01T14:37:13+06:00,
1000000000271521,77010541572,mKarTel,mKcell,mKcell,,D01,2016-11-01T14:37:13+06:00,
1000000000271521,77012163158,mKarTel,mKcell,mKcell,,D01,2016-11-01T14:37:13+06:00,
1000000000271521,77012163159,mKarTel,mKcell,mKcell,,D01,2016-11-01T14:37:13+06:00,
1000000000271521,77012168758,mKarTel,mKcell,mKcell,,D01,2016-11-01T14:37:13+06:00,
1000000000271521,77012168836,mKarTel,mKcell,mKcell,,D01,2016-11-01T14:37:13+06:00,
1000000000271521,77015323896,mKarTel,mKcell,mKcell,,D01,2016-11-01T14:37:13+06:00,
1000000000271521,77015345003,mKarTel,mKcell,mKcell,,D01,2016-11-01T14:37:13+06:00,
1000000000271521,77015345007,mKarTel,mKcell,mKcell,,D01,2016-11-01T14:37:13+06:00,
1000000000271521,77015345013,mKarTel,mKcell,mKcell,,D01,2016-11-01T14:37:13+06:00,
1000000000271521,77017801069,mKarTel,mKcell,mKcell,,D01,2016-11-01T14:37:13+06:00,
1000000000271521,77017801071,mKarTel,mKcell,mKcell,,D01,2016-11-01T14:37:13+06:00,
1000000000271521,77017801072,mKarTel,mKcell,mKcell,,D01,2016-11-01T14:37:13+06:00,
1000000000271521,77017801084,mKarTel,mKcell,mKcell,,D01,2016-11-01T14:37:13+06:00,
1000000000271521,77017801085,mKarTel,mKcell,mKcell,,D01,2016-11-01T14:37:13+06:00,
1000000000271521,77017801086,mKarTel,mKcell,mKcell,,D01,2016-11-01T14:37:13+06:00,
1000000000271521,77017816672,mKarTel,mKcell,mKcell,,D01,2016-11-01T14:37:13+06:00,
1000000000271521,77017816674,mKarTel,mKcell,mKcell,,D01,2016-11-01T14:37:13+06:00,
1000000000271521,77017816675,mKarTel,mKcell,mKcell,,D01,2016-11-01T14:37:13+06:00,
1000000000271521,77017816678,mKarTel,mKcell,mKcell,,D01,2016-11-01T14:37:13+06:00,
1000000000271521,77017816679,mKarTel,mKcell,mKcell,,D01,2016-11-01T14:37:13+06:00,
1000000000271521,77017816692,mKarTel,mKcell,mKcell,,D01,2016-11-01T14:37:13+06:00,
1000000000271521,77017826860,mKarTel,mKcell,mKcell,,D01,2016-11-01T14:37:13+06:00,
1000000000271521,77017826861,mKarTel,mKcell,mKcell,,D01,2016-11-01T14:37:13+06:00,
1000000000271521,77017828401,mKarTel,mKcell,mKcell,,D01,2016-11-01T14:37:13+06:00,
1000000000271521,77017829097,mKarTel,mKcell,mKcell,,D01,2016-11-01T14:37:13+06:00,
1000000000271521,77017829098,mKarTel,mKcell,mKcell,,D01,2016-11-01T14:37:13+06:00,
1000000000271521,77017863788,mKarTel,mKcell,mKcell,,D01,2016-11-01T14:37:13+06:00,
1000000000271521,77017863789,mKarTel,mKcell,mKcell,,D01,2016-11-01T14:37:13+06:00,
1000000000271521,77017863794,mKarTel,mKcell,mKcell,,D01,2016-11-01T14:37:13+06:00,
1000000000271521,77017985899,mKarTel,mKcell,mKcell,,D01,2016-11-01T14:37:13+06:00,
1000000000271521,77017986802,mKarTel,mKcell,mKcell,,D01,2016-11-01T14:37:13+06:00,
1000000000271521,77017986804,mKarTel,mKcell,mKcell,,D01,2016-11-01T14:37:13+06:00,
1000000000271521,77019512932,mKarTel,mKcell,mKcell,,D01,2016-11-01T14:37:13+06:00,
1000000000271521,77019517504,mKarTel,mKcell,mKcell,,D01,2016-11-01T14:37:13+06:00,
1000000000271521,77019517564,mKarTel,mKcell,mKcell,,D01,2016-11-01T14:37:13+06:00,
1000000000271521,77019823375,mKarTel,mKcell,mKcell,,D01,2016-11-01T14:37:13+06:00,
1000000000271521,77019823376,mKarTel,mKcell,mKcell,,D01,2016-11-01T14:37:13+06:00,
1000000000271521,77019823378,mKarTel,mKcell,mKcell,,D01,2016-11-01T14:37:13+06:00,
1000000000271521,77019823379,mKarTel,mKcell,mKcell,,D01,2016-11-01T14:37:13+06:00,
1000000000271521,77787120602,mKarTel,mKcell,mKcell,,D01,2016-11-01T14:37:13+06:00,
1000000000271913,77071155592,mKarTel,mMTS,mMTS,,D01,2016-11-01T14:33:45+06:00,
1000000000271914,77071717321,mKcell,mMTS,mMTS,,D02,2016-11-01T14:33:57+06:00,
1000000000271916,77017591112,mKarTel,mKcell,mKcell,,D01,2016-11-01T14:30:05+06:00,
1000000000271917,77781450014,mKcell,mKarTel,mKcell,D01,D02,2016-11-01T14:31:10+06:00,
1000000000271918,77777664984,mKarTel,mAltel,mKarTel,D07,D01,2016-11-01T14:31:29+06:00,
1000000000271919,77771587000,mKarTel,mMTS,mKarTel,D77,D01,2016-11-01T14:40:50+06:00,
1000000000271920,77479672557,mKarTel,mMTS,mMTS,,D01,2016-11-01T14:40:55+06:00,
1000000000271921,77073364077,mKcell,mMTS,mMTS,,D02,2016-11-01T14:40:59+06:00,
1000000000271922,77021465757,mKcell,mMTS,mKcell,D77,D02,2016-11-01T14:41:08+06:00,
1000000000271923,77027045616,mKarTel,mKcell,mKcell,,D01,2016-11-01T14:34:31+06:00,
1000000000271924,77086105000,mKcell,mAltel,mAltel,,D02,2016-11-01T14:34:28+06:00,
1000000000271928,77014221341,mKarTel,mKcell,mKcell,,D01,2016-11-01T14:41:00+06:00,
1000000000271929,77760012295,mKcell,mKarTel,mKarTel,,D02,2016-11-01T14:43:31+06:00,
1000000000271930,77017048459,mKarTel,mKcell,mKcell,,D01,2016-11-01T14:45:57+06:00,
1000000000271931,77078500808,mKarTel,mMTS,mMTS,,D01,2016-11-01T14:52:25+06:00,
1000000000271932,77077140879,mKarTel,mMTS,mMTS,,D01,2016-11-01T14:52:25+06:00,
1000000000271933,77078485522,mKcell,mMTS,mMTS,,D02,2016-11-01T14:52:32+06:00,
1000000000271934,77024515153,mKarTel,mKcell,mKcell,,D01,2016-11-01T14:49:21+06:00,
1000000000271935,77054237954,mKarTel,mMTS,mKarTel,D77,D01,2016-11-01T14:57:39+06:00,
1000000000271936,77011070107,mKarTel,mKcell,mKcell,,D01,2016-11-01T14:51:37+06:00,
1000000000271937,77475418586,mKarTel,mMTS,mMTS,,D01,2016-11-01T14:59:29+06:00,
1000000000271938,77001777455,mKarTel,mAltel,mAltel,,D01,2016-11-01T14:52:46+06:00,
1000000000271939,77014940397,mKcell,mMTS,mKcell,D77,D02,2016-11-01T14:59:43+06:00,
1000000000271940,77015038686,mKcell,mKarTel,mKcell,D01,D02,2016-11-01T14:55:41+06:00,
