NPId,Number,RecipientId,DonorId,RangeHolderId,OldRoute,NewRoute,PortDate,RowCount
1000000000005105,77054584888,mAltel,mKarTel,mKarTel,,D07,2016-01-08T17:30:06+06:00,57
1000000000005106,77079991809,mAltel,mMTS,mMTS,,D07,2016-01-08T17:30:16+06:00,
1000000000005108,77011115227,mAltel,mKcell,mKcell,,D07,2016-01-08T17:30:39+06:00,
1000000000005109,77758333333,mAltel,mKcell,mKcell,,D07,2016-01-08T17:30:46+06:00,
1000000000005110,77773333332,mAltel,mKarTel,mKarTel,,D07,2016-01-08T17:31:04+06:00,
1000000000005111,77010559909,mMTS,mKcell,mKcell,,D77,2016-01-08T17:31:28+06:00,
1000000000005112,77025555591,mMTS,mKcell,mKcell,,D77,2016-01-08T17:31:32+06:00,
1000000000005113,77015161450,mAltel,mKcell,mKcell,,D07,2016-01-08T17:31:48+06:00,
1000000000005114,77773190266,mAltel,mKarTel,mKarTel,,D07,2016-01-08T17:32:59+06:00,
1000000000005115,77058043432,mMTS,mKarTel,mKarTel,,D77,2016-01-08T17:33:05+06:00,
1000000000005116,77077052008,mAltel,mMTS,mMTS,,D07,2016-01-08T17:33:11+06:00,
1000000000005117,77051002761,mAltel,mKarTel,mKarTel,,D07,2016-01-08T17:33:35+06:00,
1000000000005120,77051305017,mMTS,mKarTel,mKarTel,,D77,2016-01-08T17:35:18+06:00,
1000000000005121,77017601484,mMTS,mKcell,mKcell,,D77,2016-01-08T17:35:36+06:00,
1000000000005122,77056015115,mMTS,mKarTel,mKarTel,,D77,2016-01-08T17:36:42+06:00,
1000000000005123,77028544193,mMTS,mKcell,mKcell,,D77,2016-01-08T17:36:49+06:00,
1000000000005125,77055889656,mMTS,mKarTel,mKarTel,,D77,2016-01-08T17:37:23+06:00,
1000000000005126,77017055425,mAltel,mKcell,mKcell,,D07,2016-01-08T17:37:39+06:00,
1000000000005129,77015220251,mAltel,mKcell,mKcell,,D07,2016-01-08T17:38:33+06:00,
1000000000005130,77028548683,mMTS,mKcell,mKcell,,D77,2016-01-08T17:38:53+06:00,
1000000000005131,77002404142,mMTS,mAltel,mAltel,,D77,2016-01-08T17:39:00+06:00,
1000000000005133,77772487475,mMTS,mKarTel,mKarTel,,D77,2016-01-08T17:39:42+06:00,
1000000000005134,77073246688,mKcell,mMTS,mMTS,,D02,2016-01-08T17:39:50+06:00,
1000000000005137,77059010191,mKcell,mKarTel,mKarTel,,D02,2016-01-08T17:40:32+06:00,
1000000000005138,77051727884,mMTS,mKarTel,mKarTel,,D77,2016-01-08T17:41:07+06:00,
1000000000005139,77012520506,mAltel,mKcell,mKcell,,D07,2016-01-08T17:40:52+06:00,
1000000000005140,77762761956,mKcell,mKarTel,mKarTel,,D02,2016-01-08T17:41:16+06:00,
1000000000005142,77082039093,mKarTel,mAltel,mAltel,,D01,2016-01-08T17:42:01+06:00,
1000000000005144,77019640985,mAltel,mKcell,mKcell,,D07,2016-01-08T17:43:11+06:00,
1000000000005145,77057064446,mKcell,mKarTel,mKarTel,,D02,2016-01-08T17:44:08+06:00,
1000000000005148,77785830101,mKarTel,mKcell,mKcell,,D01,2016-01-08T17:44:35+06:00,
1000000000005149,77014454422,mMTS,mKcell,mKcell,,D77,2016-01-08T17:44:56+06:00,
1000000000005150,77477111995,mAltel,mMTS,mMTS,,D07,2016-01-08T17:45:18+06:00,
1000000000005151,77776294400,mAltel,mKarTel,mKarTel,,D07,2016-01-08T17:46:23+06:00,
1000000000005152,77000270381,mKcell,mAltel,mAltel,,D02,2016-01-08T17:46:06+06:00,
1000000000005153,77012268723,mMTS,mKcell,mKcell,,D77,2016-01-08T17:47:21+06:00,
1000000000005154,77778555308,mMTS,mKarTel,mKarTel,,D77,2016-01-08T17:47:35+06:00,
1000000000005155,77075678910,mKcell,mMTS,mMTS,,D02,2016-01-08T17:48:20+06:00,
1000000000005156,77073535335,mAltel,mMTS,mMTS,,D07,2016-01-08T17:48:55+06:00,
1000000000005157,77772978788,mMTS,mKarTel,mKarTel,,D77,2016-01-08T17:49:16+06:00,
1000000000005158,77057064448,mKcell,mKarTel,mKarTel,,D02,2016-01-08T17:51:54+06:00,
1000000000005159,77766466644,mMTS,mKarTel,mKarTel,,D77,2016-01-08T17:49:56+06:00,
1000000000005161,77015154028,mAltel,mKcell,mKcell,,D07,2016-01-08T17:50:08+06:00,
1000000000005162,77777653535,mMTS,mKarTel,mKarTel,,D77,2016-01-08T17:50:27+06:00,
1000000000005163,77007705522,mKarTel,mAltel,mAltel,,D01,2016-01-08T17:50:42+06:00,
1000000000005164,77071744484,mAltel,mMTS,mMTS,,D07,2016-01-08T17:50:36+06:00,
1000000000005167,77014321250,mAltel,mKcell,mKcell,,D07,2016-01-08T17:51:25+06:00,
1000000000005168,77057707702,mKcell,mKarTel,mKarTel,,D02,2016-01-08T17:53:16+06:00,
1000000000005169,77025400660,mKarTel,mKcell,mKcell,,D01,2016-01-08T17:53:27+06:00,
1000000000005170,77015231023,mKarTel,mKcell,mKcell,,D01,2016-01-08T17:53:50+06:00,
1000000000005171,77077600760,mAltel,mMTS,mMTS,,D07,2016-01-08T17:53:34+06:00,
1000000000005172,77772387019,mAltel,mKarTel,mKarTel,,D07,2016-01-08T17:53:57+06:00,
1000000000005173,77765808580,mMTS,mKarTel,mKarTel,,D77,2016-01-08T17:54:58+06:00,
1000000000005177,77789671644,mAltel,mKcell,mKcell,,D07,2016-01-08T17:57:13+06:00,
1000000000005178,77753995656,mAltel,mKcell,mKcell,,D07,2016-01-08T17:57:25+06:00,
1000000000005180,77014699472,mKarTel,mKcell,mKcell,,D01,2016-01-08T17:57:52+06:00,
1000000000005181,77076704333,mKarTel,mMTS,mMTS,,D01,2016-01-08T17:59:08+06:00,
