NPId,Number,RecipientId,DonorId,RangeHolderId,OldRoute,NewRoute,PortDate,RowCount
1000000000366223,77761162222,mMTS,mKarTel,mKarTel,,D77,2017-04-15T11:30:05+06:00,14
1000000000366226,77022222842,mKcell,mAltel,mKcell,D07,D02,2017-04-15T11:30:39+06:00,
1000000000366229,77058373674,mMTS,mKarTel,mKarTel,,D77,2017-04-15T11:43:12+06:00,
1000000000366230,77016302090,mKcell,mAltel,mKcell,D07,D02,2017-04-15T11:43:13+06:00,
1000000000366231,77075377756,mKcell,mMTS,mMTS,,D02,2017-04-15T11:43:26+06:00,
1000000000366232,77787000723,mKcell,mAltel,mKcell,D07,D02,2017-04-15T11:45:52+06:00,
1000000000366233,77017136692,mKcell,mAltel,mKcell,D07,D02,2017-04-15T11:48:42+06:00,
1000000000366234,77055556646,mMTS,mKarTel,mKarTel,,D77,2017-04-15T11:50:15+06:00,
1000000000366235,77015326968,mMTS,mKcell,mKcell,,D77,2017-04-15T11:50:02+06:00,
1000000000366236,77770358834,mMTS,mKarTel,mKarTel,,D77,2017-04-15T11:52:01+06:00,
1000000000366237,77772976205,mAltel,mKarTel,mKarTel,,D07,2017-04-15T11:53:21+06:00,
1000000000366238,77751556684,mKcell,mKarTel,mKcell,D01,D02,2017-04-15T11:55:06+06:00,
1000000000366239,77778140407,mKcell,mMTS,mKarTel,D77,D02,2017-04-15T11:57:29+06:00,
1000000000366240,77771776633,mKarTel,mMTS,mKarTel,D77,D01,2017-04-15T11:59:01+06:00,
