NPId,Number,RecipientId,DonorId,RangeHolderId,OldRoute,NewRoute,PortDate,RowCount
1000000000157290,77771579217,mKcell,mKarTel,mKarTel,,D02,2016-04-21T14:30:38+06:00,51
1000000000157290,77771579222,mKcell,mKarTel,mKarTel,,D02,2016-04-21T14:30:38+06:00,
1000000000157290,77771579424,mKcell,mKarTel,mKarTel,,D02,2016-04-21T14:30:38+06:00,
1000000000157290,77771579473,mKcell,mKarTel,mKarTel,,D02,2016-04-21T14:30:38+06:00,
1000000000157290,77771579524,mKcell,mKarTel,mKarTel,,D02,2016-04-21T14:30:38+06:00,
1000000000157290,77771579537,mKcell,mKarTel,mKarTel,,D02,2016-04-21T14:30:38+06:00,
1000000000157290,77771579540,mKcell,mKarTel,mKarTel,,D02,2016-04-21T14:30:38+06:00,
1000000000157290,77771579616,mKcell,mKarTel,mKarTel,,D02,2016-04-21T14:30:38+06:00,
1000000000157290,77771579627,mKcell,mKarTel,mKarTel,,D02,2016-04-21T14:30:38+06:00,
1000000000157290,77771579714,mKcell,mKarTel,mKarTel,,D02,2016-04-21T14:30:38+06:00,
1000000000157290,77771579769,mKcell,mKarTel,mKarTel,,D02,2016-04-21T14:30:38+06:00,
1000000000157290,77771579784,mKcell,mKarTel,mKarTel,,D02,2016-04-21T14:30:38+06:00,
1000000000157290,77771579823,mKcell,mKarTel,mKarTel,,D02,2016-04-21T14:30:38+06:00,
1000000000157290,77771580809,mKcell,mKarTel,mKarTel,,D02,2016-04-21T14:30:38+06:00,
1000000000157290,77771581154,mKcell,mKarTel,mKarTel,,D02,2016-04-21T14:30:38+06:00,
1000000000157292,77052219018,mKcell,mKarTel,mKarTel,,D02,2016-04-21T14:30:39+06:00,
1000000000157293,77082080304,mKcell,mAltel,mAltel,,D02,2016-04-21T14:31:32+06:00,
1000000000157294,77017606066,mMTS,mKcell,mKcell,,D77,2016-04-21T14:31:39+06:00,
1000000000157296,77074040546,mMTS,mKcell,mMTS,D02,D77,2016-04-21T14:31:59+06:00,
1000000000157297,77713501339,mMTS,mKarTel,mKarTel,,D77,2016-04-21T14:32:20+06:00,
1000000000157298,77024626327,mMTS,mKcell,mKcell,,D77,2016-04-21T14:32:42+06:00,
1000000000157299,77052218688,mKcell,mKarTel,mKarTel,,D02,2016-04-21T14:34:50+06:00,
1000000000157300,77052218614,mKcell,mKarTel,mKarTel,,D02,2016-04-21T14:36:10+06:00,
1000000000157304,77052219087,mKcell,mKarTel,mKarTel,,D02,2016-04-21T14:38:19+06:00,
1000000000157306,77778289900,mMTS,mKarTel,mKarTel,,D77,2016-04-21T14:53:46+06:00,
1000000000157308,77052218766,mKcell,mKarTel,mKarTel,,D02,2016-04-21T14:41:19+06:00,
1000000000157309,77766859898,mKcell,mKarTel,mKarTel,,D02,2016-04-21T14:41:21+06:00,
1000000000157311,77086608899,mMTS,mAltel,mAltel,,D77,2016-04-21T14:42:00+06:00,
1000000000157312,77052218748,mKcell,mKarTel,mKarTel,,D02,2016-04-21T14:42:57+06:00,
1000000000157313,77076112168,mKcell,mMTS,mMTS,,D02,2016-04-21T14:43:28+06:00,
1000000000157314,77052219057,mKcell,mKarTel,mKarTel,,D02,2016-04-21T14:44:48+06:00,
1000000000157315,77077747439,mKcell,mMTS,mMTS,,D02,2016-04-21T14:44:47+06:00,
1000000000157316,77011414201,mAltel,mKcell,mKcell,,D07,2016-04-21T14:47:42+06:00,
1000000000157317,77001117870,mKcell,mAltel,mAltel,,D02,2016-04-21T14:48:18+06:00,
1000000000157318,77052219066,mKcell,mKarTel,mKarTel,,D02,2016-04-21T14:48:19+06:00,
1000000000157319,77021850772,mKarTel,mKcell,mKcell,,D01,2016-04-21T14:48:21+06:00,
1000000000157320,77085488002,mMTS,mAltel,mAltel,,D77,2016-04-21T14:47:17+06:00,
1000000000157321,77052218773,mKcell,mKarTel,mKarTel,,D02,2016-04-21T14:49:34+06:00,
1000000000157322,77087033556,mMTS,mAltel,mAltel,,D77,2016-04-21T14:48:26+06:00,
1000000000157323,77785505285,mKcell,mAltel,mKcell,D07,D02,2016-04-21T14:49:33+06:00,
1000000000157324,77785000392,mMTS,mKcell,mKcell,,D77,2016-04-21T14:50:21+06:00,
1000000000157326,77015703682,mKarTel,mKcell,mKcell,,D01,2016-04-21T14:51:33+06:00,
1000000000157327,77478894020,mKarTel,mMTS,mMTS,,D01,2016-04-21T14:52:53+06:00,
1000000000157330,77056606006,mMTS,mKarTel,mKarTel,,D77,2016-04-21T14:55:08+06:00,
1000000000157331,77071024389,mMTS,mAltel,mMTS,D07,D77,2016-04-21T14:54:47+06:00,
1000000000157332,77002222485,mKcell,mAltel,mAltel,,D02,2016-04-21T14:55:37+06:00,
1000000000157333,77088010088,mMTS,mAltel,mAltel,,D77,2016-04-21T14:56:18+06:00,
1000000000157334,77082514851,mAltel,mKarTel,mAltel,D01,D07,2016-04-21T14:56:44+06:00,
1000000000157335,77001129960,mMTS,mAltel,mAltel,,D77,2016-04-21T14:57:01+06:00,
1000000000157336,77015187374,mKcell,mKarTel,mKcell,D01,D02,2016-04-21T14:58:03+06:00,
1000000000157337,77776445730,mMTS,mKarTel,mKarTel,,D77,2016-04-21T14:58:08+06:00,
