NPId,Number,RecipientId,DonorId,RangeHolderId,OldRoute,NewRoute,PortDate,RowCount
1000000000277453,77773309900,mMTS,mKarTel,mKarTel,D01,D77,2016-11-10T18:32:53+06:00,18
1000000000277454,77017778427,mKcell,mMTS,mKcell,D77,D02,2016-11-10T18:33:25+06:00,
1000000000277455,77016361621,mKarTel,mKcell,mKcell,,D01,2016-11-10T18:34:00+06:00,
1000000000277456,77018327224,mMTS,mKcell,mKcell,,D77,2016-11-10T18:35:18+06:00,
1000000000277457,77025055307,mMTS,mKcell,mKcell,,D77,2016-11-10T18:35:50+06:00,
1000000000277458,77028066889,mKarTel,mKcell,mKcell,,D01,2016-11-10T18:36:37+06:00,
1000000000277459,77010185888,mKcell,mKarTel,mKcell,D01,D02,2016-11-10T18:37:09+06:00,
1000000000277463,77023049207,mKcell,mMTS,mKcell,D77,D02,2016-11-10T18:40:50+06:00,
1000000000277465,77022049935,mMTS,mKcell,mKcell,,D77,2016-11-10T18:40:59+06:00,
1000000000277466,77010383888,mKcell,mKarTel,mKcell,D01,D02,2016-11-10T18:43:57+06:00,
1000000000277471,77013761851,mMTS,mKcell,mKcell,,D77,2016-11-10T18:49:36+06:00,
1000000000277472,77785084684,mAltel,mKcell,mKcell,,D07,2016-11-10T18:51:26+06:00,
1000000000277474,77015951871,mMTS,mKcell,mKcell,,D77,2016-11-10T18:52:32+06:00,
1000000000277475,77013333144,mKcell,mMTS,mKcell,D77,D02,2016-11-10T18:52:53+06:00,
1000000000277478,77011003414,mMTS,mKcell,mKcell,,D77,2016-11-10T18:55:59+06:00,
1000000000277479,77785863911,mMTS,mKcell,mKcell,,D77,2016-11-10T18:57:40+06:00,
1000000000277480,77779999037,mKcell,mKarTel,mKarTel,,D02,2016-11-10T18:58:26+06:00,
1000000000277481,77784581858,mKcell,mMTS,mKcell,D77,D02,2016-11-10T18:59:39+06:00,
