NPId,Number,RecipientId,DonorId,RangeHolderId,OldRoute,NewRoute,PortDate,RowCount
1000000000169857,77007778030,mKcell,mAltel,mAltel,,D02,2016-05-07T16:00:17+06:00,24
1000000000169858,77786559997,mKcell,mKarTel,mKcell,D01,D02,2016-05-07T16:00:55+06:00,
1000000000169863,77782337713,mMTS,mKcell,mKcell,,D77,2016-05-07T16:04:48+06:00,
1000000000169864,77082565636,mMTS,mAltel,mAltel,,D77,2016-05-07T16:04:41+06:00,
1000000000169867,77753658027,mMTS,mAltel,mKcell,D07,D77,2016-05-07T16:07:07+06:00,
1000000000169868,77753980707,mMTS,mKcell,mKcell,,D77,2016-05-07T16:09:40+06:00,
1000000000169869,77753676991,mMTS,mKcell,mKcell,,D77,2016-05-07T16:11:10+06:00,
1000000000169870,77089151384,mMTS,mAltel,mAltel,,D77,2016-05-07T16:12:01+06:00,
1000000000169872,77071433273,mKcell,mMTS,mMTS,,D02,2016-05-07T16:13:50+06:00,
1000000000169873,77767349908,mMTS,mKarTel,mKarTel,,D77,2016-05-07T16:13:38+06:00,
1000000000169874,77088648797,mKcell,mAltel,mAltel,,D02,2016-05-07T16:16:54+06:00,
1000000000169877,77022781881,mMTS,mKcell,mKcell,,D77,2016-05-07T16:17:14+06:00,
1000000000169878,77760155557,mKcell,mKarTel,mKarTel,,D02,2016-05-07T16:18:49+06:00,
1000000000169879,77027179501,mMTS,mKcell,mKcell,,D77,2016-05-07T16:18:41+06:00,
1000000000169880,77771567755,mMTS,mKarTel,mKarTel,,D77,2016-05-07T16:19:17+06:00,
1000000000169882,77475753231,mMTS,mAltel,mMTS,D07,D77,2016-05-07T16:20:35+06:00,
1000000000169883,77005452141,mKcell,mAltel,mAltel,,D02,2016-05-07T16:21:30+06:00,
1000000000169884,77777349908,mMTS,mKarTel,mKarTel,,D77,2016-05-07T16:21:34+06:00,
1000000000169886,77026697667,mKarTel,mKcell,mKcell,,D01,2016-05-07T16:22:09+06:00,
1000000000169887,77016024702,mMTS,mKcell,mKcell,,D77,2016-05-07T16:22:22+06:00,
1000000000169889,77057854848,mMTS,mKarTel,mKarTel,,D77,2016-05-07T16:24:47+06:00,
1000000000169890,77023283093,mMTS,mKcell,mKcell,,D77,2016-05-07T16:27:29+06:00,
1000000000169891,77017435024,mMTS,mKcell,mKcell,,D77,2016-05-07T16:27:27+06:00,
1000000000169893,77017198929,mMTS,mKcell,mKcell,,D77,2016-05-07T16:29:41+06:00,
