NPId,Number,RecipientId,DonorId,RangeHolderId,OldRoute,NewRoute,PortDate,RowCount
1000000000343451,77013177501,mKarTel,mKcell,mKcell,,D01,2017-03-08T16:00:19+06:00,10
1000000000343452,77014757691,mKarTel,mKcell,mKcell,,D01,2017-03-08T16:00:25+06:00,
1000000000343453,77789811173,mAltel,mKcell,mKcell,,D07,2017-03-08T16:04:27+06:00,
1000000000343454,77718465552,mMTS,mKarTel,mKarTel,,D77,2017-03-08T16:13:22+06:00,
1000000000343455,77756000135,mKcell,mMTS,mKcell,D77,D02,2017-03-08T16:14:53+06:00,
1000000000343456,77000000064,mKcell,mAltel,mAltel,,D02,2017-03-08T16:16:09+06:00,
1000000000343458,77000000032,mKcell,mAltel,mAltel,,D02,2017-03-08T16:21:05+06:00,
1000000000343459,77018916664,mMTS,mKcell,mKcell,,D77,2017-03-08T16:23:29+06:00,
1000000000343460,77787381975,mKcell,mMTS,mKcell,D77,D02,2017-03-08T16:23:59+06:00,
1000000000343461,77058881337,mAltel,mKarTel,mKarTel,,D07,2017-03-08T16:24:08+06:00,
