NPId,Number,RecipientId,DonorId,RangeHolderId,OldRoute,NewRoute,PortDate,RowCount
1000000000391170,77019406665,mAltel,mKcell,mKcell,,D07,2017-05-28T11:00:45+06:00,8
1000000000391171,77762542711,mMTS,mKarTel,mKarTel,,D77,2017-05-28T11:03:02+06:00,
1000000000391174,77017257165,mMTS,mKcell,mKcell,,D77,2017-05-28T11:10:42+06:00,
1000000000391179,77051153230,mMTS,mKarTel,mKarTel,,D77,2017-05-28T11:12:55+06:00,
1000000000391180,77002032906,mMTS,mAltel,mAltel,,D77,2017-05-28T11:15:45+06:00,
1000000000391181,77769248582,mKarTel,mKcell,mKarTel,D02,D01,2017-05-28T11:16:46+06:00,
1000000000391182,77770500000,mKcell,mKarTel,mKarTel,D01,D02,2017-05-28T11:20:28+06:00,
1000000000391184,77789178691,mMTS,mKcell,mKcell,,D77,2017-05-28T11:27:53+06:00,
