NPId,Number,RecipientId,DonorId,RangeHolderId,OldRoute,NewRoute,PortDate,RowCount
1000000000101345,77077175599,mKcell,mMTS,mMTS,,D02,2016-02-28T10:32:55+06:00,6
1000000000101346,77051710847,mAltel,mKarTel,mKarTel,,D07,2016-02-28T10:36:19+06:00,
1000000000101348,77084884418,mMTS,mAltel,mAltel,,D77,2016-02-28T10:51:47+06:00,
1000000000101350,77017717987,mAltel,mKcell,mKcell,,D07,2016-02-28T10:52:42+06:00,
1000000000101352,77789996990,mAltel,mKcell,mKcell,,D07,2016-02-28T10:55:07+06:00,
1000000000101353,77752170812,mMTS,mKcell,mKcell,,D77,2016-02-28T10:55:35+06:00,
