NPId,Number,RecipientId,DonorId,RangeHolderId,OldRoute,NewRoute,PortDate,RowCount
1000000000132373,77052587955,mMTS,mKarTel,mKarTel,,D77,2016-03-24T17:00:29+06:00,40
1000000000132374,77768400084,mMTS,mKarTel,mKarTel,,D77,2016-03-24T17:01:42+06:00,
1000000000132375,77772203017,mAltel,mKarTel,mKarTel,,D07,2016-03-24T17:01:42+06:00,
1000000000132378,77057771101,mAltel,mKarTel,mKarTel,,D07,2016-03-24T17:02:35+06:00,
1000000000132379,77775157000,mMTS,mKarTel,mKarTel,,D77,2016-03-24T17:03:01+06:00,
1000000000132380,77083582925,mMTS,mAltel,mAltel,,D77,2016-03-24T17:02:12+06:00,
1000000000132381,77077150809,mAltel,mMTS,mMTS,,D07,2016-03-24T17:02:13+06:00,
1000000000132382,77471224842,mAltel,mMTS,mMTS,,D07,2016-03-24T17:03:41+06:00,
1000000000132383,77773640389,mMTS,mKarTel,mKarTel,,D77,2016-03-24T17:05:24+06:00,
1000000000132384,77072926001,mKcell,mMTS,mMTS,,D02,2016-03-24T17:05:06+06:00,
1000000000132385,77077722230,mKarTel,mMTS,mMTS,,D01,2016-03-24T17:05:21+06:00,
1000000000132386,77781500061,mAltel,mKcell,mKcell,,D07,2016-03-24T17:06:24+06:00,
1000000000132387,77088557788,mMTS,mAltel,mAltel,,D77,2016-03-24T17:06:26+06:00,
1000000000132389,77774124412,mMTS,mKarTel,mKarTel,,D77,2016-03-24T17:09:22+06:00,
1000000000132390,77019472878,mAltel,mKcell,mKcell,,D07,2016-03-24T17:08:55+06:00,
1000000000132391,77071115883,mKarTel,mMTS,mMTS,,D01,2016-03-24T17:08:55+06:00,
1000000000132392,77773640390,mMTS,mKarTel,mKarTel,,D77,2016-03-24T17:10:34+06:00,
1000000000132394,77755270304,mMTS,mKcell,mKcell,,D77,2016-03-24T17:10:26+06:00,
1000000000132398,77016497537,mMTS,mKcell,mKcell,,D77,2016-03-24T17:12:26+06:00,
1000000000132399,77778928899,mMTS,mKarTel,mKarTel,,D77,2016-03-24T17:12:59+06:00,
1000000000132400,77785280911,mMTS,mKcell,mKcell,,D77,2016-03-24T17:13:21+06:00,
1000000000132404,77024703237,mMTS,mKcell,mKcell,,D77,2016-03-24T17:14:23+06:00,
1000000000132409,77000009500,mKcell,mAltel,mAltel,,D02,2016-03-24T17:16:56+06:00,
1000000000132412,77079914796,mAltel,mMTS,mMTS,,D07,2016-03-24T17:18:11+06:00,
1000000000132413,77017777834,mKarTel,mAltel,mKcell,D07,D01,2016-03-24T17:19:13+06:00,
1000000000132414,77056699909,mMTS,mKarTel,mKarTel,,D77,2016-03-24T17:20:28+06:00,
1000000000132416,77777771291,mMTS,mKarTel,mKarTel,,D77,2016-03-24T17:21:18+06:00,
1000000000132417,77026733780,mMTS,mKcell,mKcell,,D77,2016-03-24T17:21:36+06:00,
1000000000132418,77011801131,mMTS,mKcell,mKcell,,D77,2016-03-24T17:22:14+06:00,
1000000000132419,77012212793,mAltel,mKcell,mKcell,,D07,2016-03-24T17:22:49+06:00,
1000000000132420,77016632572,mMTS,mKcell,mKcell,,D77,2016-03-24T17:22:49+06:00,
1000000000132421,77012212796,mAltel,mKcell,mKcell,,D07,2016-03-24T17:23:21+06:00,
1000000000132422,77017020885,mMTS,mKcell,mKcell,,D77,2016-03-24T17:24:03+06:00,
1000000000132423,77017887048,mKarTel,mKcell,mKcell,,D01,2016-03-24T17:25:12+06:00,
1000000000132424,77774686868,mKarTel,mKcell,mKarTel,D02,D01,2016-03-24T17:25:59+06:00,
1000000000132425,77760670007,mKcell,mKarTel,mKarTel,,D02,2016-03-24T17:27:45+06:00,
1000000000132426,77016003292,mMTS,mKcell,mKcell,,D77,2016-03-24T17:26:34+06:00,
1000000000132428,77075081286,mKcell,mMTS,mMTS,,D02,2016-03-24T17:27:28+06:00,
1000000000132431,77052945876,mMTS,mKarTel,mKarTel,,D77,2016-03-24T17:29:10+06:00,
1000000000132432,77711728877,mMTS,mKarTel,mKarTel,,D77,2016-03-24T17:29:59+06:00,
