NPId,Number,RecipientId,DonorId,RangeHolderId,OldRoute,NewRoute,PortDate,RowCount
1000000000436843,77014529591,mAltel,mKcell,mKcell,,D07,2017-08-08T16:30:57+06:00,18
1000000000436844,77071631313,mKarTel,mMTS,mMTS,,D01,2017-08-08T16:32:05+06:00,
1000000000436846,77078392249,mAltel,mMTS,mMTS,,D07,2017-08-08T16:33:45+06:00,
1000000000436847,77777690754,mKcell,mKarTel,mKarTel,,D02,2017-08-08T16:34:21+06:00,
1000000000436849,77089680717,mKarTel,mAltel,mAltel,,D01,2017-08-08T16:36:54+06:00,
1000000000436850,77074943949,mAltel,mMTS,mMTS,,D07,2017-08-08T16:40:37+06:00,
1000000000436851,77783241865,mAltel,mKcell,mKcell,,D07,2017-08-08T16:41:17+06:00,
1000000000436852,77014009004,mKarTel,mKcell,mKcell,,D01,2017-08-08T16:42:12+06:00,
1000000000436853,77477439249,mAltel,mMTS,mMTS,,D07,2017-08-08T16:42:30+06:00,
1000000000436854,77015140400,mKcell,mKarTel,mKcell,D01,D02,2017-08-08T16:44:39+06:00,
1000000000436856,77077251086,mAltel,mMTS,mMTS,,D07,2017-08-08T16:44:37+06:00,
1000000000436857,77776591517,mMTS,mKarTel,mKarTel,,D77,2017-08-08T16:45:18+06:00,
1000000000436858,77773781450,mMTS,mKarTel,mKarTel,,D77,2017-08-08T16:45:24+06:00,
1000000000436862,77078397236,mAltel,mMTS,mMTS,,D07,2017-08-08T16:51:33+06:00,
1000000000436863,77771385522,mKcell,mKarTel,mKarTel,,D02,2017-08-08T16:53:42+06:00,
1000000000436864,77015190551,mMTS,mKcell,mKcell,,D77,2017-08-08T16:53:16+06:00,
1000000000436865,77078309688,mMTS,mAltel,mMTS,D07,D77,2017-08-08T16:53:16+06:00,
1000000000436868,77014446065,mKarTel,mKcell,mKcell,,D01,2017-08-08T16:59:07+06:00,
