NPId,Number,RecipientId,DonorId,RangeHolderId,OldRoute,NewRoute,PortDate,RowCount
1000000000219654,77781660882,mAltel,mKcell,mKcell,D02,D07,2016-10-05T15:14:43+06:00,32
1000000000257333,77079351401,mAltel,mMTS,mMTS,,D07,2016-10-05T15:01:35+06:00,
1000000000257334,77021116567,mAltel,mKcell,mKcell,,D07,2016-10-05T15:01:42+06:00,
1000000000257335,77013194268,mMTS,mKcell,mKcell,,D77,2016-10-05T15:04:01+06:00,
1000000000257336,77776077770,mMTS,mKarTel,mKarTel,,D77,2016-10-05T15:06:38+06:00,
1000000000257339,77478390169,mAltel,mMTS,mMTS,D77,D07,2016-10-05T15:05:46+06:00,
1000000000257341,77776618039,mKcell,mKarTel,mKarTel,,D02,2016-10-05T15:07:19+06:00,
1000000000257342,77755518384,mKarTel,mKcell,mKcell,,D01,2016-10-05T15:06:53+06:00,
1000000000257344,77007193954,mKarTel,mMTS,mAltel,D77,D01,2016-10-05T15:06:53+06:00,
1000000000257345,77077088848,mKarTel,mMTS,mMTS,,D01,2016-10-05T15:06:51+06:00,
1000000000257346,77010337722,mKarTel,mKcell,mKcell,,D01,2016-10-05T15:07:07+06:00,
1000000000257348,77012031300,mKarTel,mKcell,mKcell,,D01,2016-10-05T15:08:01+06:00,
1000000000257349,77015599111,mAltel,mKcell,mKcell,,D07,2016-10-05T15:08:04+06:00,
1000000000257350,77754009198,mKarTel,mKcell,mKcell,,D01,2016-10-05T15:09:35+06:00,
1000000000257351,77071844804,mKcell,mMTS,mMTS,,D02,2016-10-05T15:10:21+06:00,
1000000000257352,77088650500,mMTS,mAltel,mAltel,,D77,2016-10-05T15:10:32+06:00,
1000000000257354,77029833389,mMTS,mKcell,mKcell,,D77,2016-10-05T15:11:04+06:00,
1000000000257355,77010773107,mKarTel,mKcell,mKcell,,D01,2016-10-05T15:11:38+06:00,
1000000000257356,77088198885,mKarTel,mAltel,mAltel,,D01,2016-10-05T15:12:35+06:00,
1000000000257358,77015285034,mKarTel,mKcell,mKcell,,D01,2016-10-05T15:13:43+06:00,
1000000000257359,77769070787,mMTS,mKarTel,mKarTel,,D77,2016-10-05T15:14:25+06:00,
1000000000257363,77017398341,mKarTel,mKcell,mKcell,,D01,2016-10-05T15:19:14+06:00,
1000000000257365,77026826377,mAltel,mKcell,mKcell,,D07,2016-10-05T15:21:34+06:00,
1000000000257366,77089070055,mAltel,mMTS,mAltel,D77,D07,2016-10-05T15:21:51+06:00,
1000000000257368,77016369525,mKarTel,mKcell,mKcell,,D01,2016-10-05T15:24:30+06:00,
1000000000257369,77017481025,mKcell,mKarTel,mKcell,D01,D02,2016-10-05T15:25:48+06:00,
1000000000257370,77054444133,mKarTel,mMTS,mKarTel,D77,D01,2016-10-05T15:25:36+06:00,
1000000000257371,77002911113,mMTS,mAltel,mAltel,,D77,2016-10-05T15:25:51+06:00,
1000000000257372,77021402901,mMTS,mKcell,mKcell,,D77,2016-10-05T15:26:27+06:00,
1000000000257373,77003623932,mMTS,mAltel,mAltel,,D77,2016-10-05T15:27:32+06:00,
1000000000257374,77014585158,mKcell,mAltel,mKcell,D07,D02,2016-10-05T15:27:52+06:00,
1000000000257376,77760090397,mMTS,mKarTel,mKarTel,,D77,2016-10-05T15:29:09+06:00,
