NPId,Number,RecipientId,DonorId,RangeHolderId,OldRoute,NewRoute,PortDate,RowCount
1000000000306389,77056427600,mMTS,mKarTel,mKarTel,,D77,2017-01-06T13:01:46+06:00,20
1000000000306390,77017889485,mKcell,mMTS,mKcell,D77,D02,2017-01-06T13:05:55+06:00,
1000000000306391,77052515649,mMTS,mKarTel,mKarTel,,D77,2017-01-06T13:04:50+06:00,
1000000000306393,77471990902,mKarTel,mKcell,mMTS,D02,D01,2017-01-06T13:05:11+06:00,
1000000000306394,77763217676,mKarTel,mMTS,mKarTel,D77,D01,2017-01-06T13:05:27+06:00,
1000000000306396,77003252083,mMTS,mAltel,mAltel,,D77,2017-01-06T13:08:19+06:00,
1000000000306397,77003252082,mMTS,mAltel,mAltel,,D77,2017-01-06T13:10:19+06:00,
1000000000306398,77783879228,mKarTel,mAltel,mKcell,D07,D01,2017-01-06T13:10:46+06:00,
1000000000306399,77716888800,mMTS,mKarTel,mKarTel,,D77,2017-01-06T13:15:04+06:00,
1000000000306401,77767010103,mMTS,mKarTel,mKarTel,,D77,2017-01-06T13:16:52+06:00,
1000000000306403,77013777708,mAltel,mKcell,mKcell,,D07,2017-01-06T13:21:12+06:00,
1000000000306405,77476173629,mKarTel,mMTS,mMTS,,D01,2017-01-06T13:19:51+06:00,
1000000000306409,77072017005,mMTS,mKcell,mMTS,D02,D77,2017-01-06T13:22:45+06:00,
1000000000306411,77788973011,mMTS,mKcell,mKcell,,D77,2017-01-06T13:24:24+06:00,
1000000000306412,77007661998,mKcell,mAltel,mAltel,,D02,2017-01-06T13:26:31+06:00,
1000000000306413,77015342586,mMTS,mKcell,mKcell,,D77,2017-01-06T13:26:30+06:00,
1000000000306414,77007770505,mKcell,mAltel,mAltel,,D02,2017-01-06T13:27:04+06:00,
1000000000306415,77017278678,mKcell,mMTS,mKcell,D77,D02,2017-01-06T13:27:23+06:00,
1000000000306418,77001661996,mKcell,mAltel,mAltel,,D02,2017-01-06T13:27:59+06:00,
1000000000306419,77017455594,mMTS,mKcell,mKcell,,D77,2017-01-06T13:29:40+06:00,
