NPId,Number,RecipientId,DonorId,RangeHolderId,OldRoute,NewRoute,PortDate,RowCount
1000000000438611,77026466680,mKcell,mKarTel,mKcell,D01,D02,2017-08-11T18:01:46+06:00,23
1000000000438612,77780080807,mMTS,mKcell,mKcell,,D77,2017-08-11T18:01:16+06:00,
1000000000438613,77785983828,mAltel,mKcell,mKcell,,D07,2017-08-11T18:04:53+06:00,
1000000000438614,77017174778,mKarTel,mKcell,mKcell,,D01,2017-08-11T18:05:27+06:00,
1000000000438615,77474574886,mKcell,mMTS,mMTS,,D02,2017-08-11T18:07:24+06:00,
1000000000438616,77018899600,mKarTel,mKcell,mKcell,,D01,2017-08-11T18:09:54+06:00,
1000000000438618,77059188879,mKarTel,mMTS,mKarTel,D77,D01,2017-08-11T18:11:39+06:00,
1000000000438619,77077933344,mAltel,mMTS,mMTS,,D07,2017-08-11T18:12:46+06:00,
1000000000438620,77078108310,mAltel,mMTS,mMTS,,D07,2017-08-11T18:13:57+06:00,
1000000000438622,77071050025,mAltel,mMTS,mMTS,,D07,2017-08-11T18:16:22+06:00,
1000000000438623,77024523355,mMTS,mKcell,mKcell,,D77,2017-08-11T18:16:43+06:00,
1000000000438624,77786789601,mAltel,mKcell,mKcell,,D07,2017-08-11T18:17:12+06:00,
1000000000438625,77051607696,mKcell,mKarTel,mKarTel,,D02,2017-08-11T18:18:16+06:00,
1000000000438627,77076300560,mKcell,mMTS,mMTS,,D02,2017-08-11T18:19:29+06:00,
1000000000438628,77029617083,mKarTel,mKcell,mKcell,,D01,2017-08-11T18:22:41+06:00,
1000000000438630,77015317911,mKcell,mAltel,mKcell,D07,D02,2017-08-11T18:26:39+06:00,
1000000000438631,77012209270,mMTS,mKcell,mKcell,,D77,2017-08-11T18:27:30+06:00,
1000000000438632,77713175632,mMTS,mKarTel,mKarTel,,D77,2017-08-11T18:27:48+06:00,
1000000000438633,77789996070,mMTS,mKcell,mKcell,,D77,2017-08-11T18:27:29+06:00,
1000000000438634,77087910873,mMTS,mAltel,mAltel,,D77,2017-08-11T18:27:28+06:00,
1000000000438635,77786899953,mKarTel,mKcell,mKcell,,D01,2017-08-11T18:28:48+06:00,
1000000000438636,77011800604,mKarTel,mMTS,mKcell,D77,D01,2017-08-11T18:28:53+06:00,
1000000000438637,77024405930,mKarTel,mKcell,mKcell,,D01,2017-08-11T18:29:44+06:00,
