NPId,Number,RecipientId,DonorId,RangeHolderId,OldRoute,NewRoute,PortDate,RowCount
1000000000304778,77752966665,mKarTel,mKcell,mKcell,,D01,2017-01-03T17:03:56+06:00,24
1000000000304780,77015753120,mKcell,mMTS,mKcell,D77,D02,2017-01-03T17:05:00+06:00,
1000000000304782,77765051993,mMTS,mKarTel,mKarTel,,D77,2017-01-03T17:05:15+06:00,
1000000000304784,77760660776,mKcell,mKarTel,mKarTel,,D02,2017-01-03T17:07:24+06:00,
1000000000304786,77014635225,mMTS,mKcell,mKcell,,D77,2017-01-03T17:07:49+06:00,
1000000000304787,77015537161,mKarTel,mMTS,mKcell,D77,D01,2017-01-03T17:07:52+06:00,
1000000000304788,77004442101,mKcell,mAltel,mAltel,,D02,2017-01-03T17:08:02+06:00,
1000000000304789,77013387944,mAltel,mKcell,mKcell,,D07,2017-01-03T17:08:34+06:00,
1000000000304790,77004443909,mKcell,mAltel,mAltel,,D02,2017-01-03T17:08:42+06:00,
1000000000304791,77076454694,mAltel,mMTS,mMTS,,D07,2017-01-03T17:09:42+06:00,
1000000000304792,77752267222,mMTS,mKcell,mKcell,,D77,2017-01-03T17:10:39+06:00,
1000000000304793,77017696090,mKcell,mMTS,mKcell,D77,D02,2017-01-03T17:10:57+06:00,
1000000000304795,77004447202,mKcell,mAltel,mAltel,,D02,2017-01-03T17:12:08+06:00,
1000000000304796,77776949076,mMTS,mKarTel,mKarTel,,D77,2017-01-03T17:13:04+06:00,
1000000000304797,77004446808,mKcell,mAltel,mAltel,,D02,2017-01-03T17:13:31+06:00,
1000000000304798,77057702004,mKcell,mKarTel,mKarTel,,D02,2017-01-03T17:17:27+06:00,
1000000000304800,77019481730,mMTS,mKcell,mKcell,,D77,2017-01-03T17:17:50+06:00,
1000000000304801,77023047777,mAltel,mKcell,mKcell,,D07,2017-01-03T17:18:54+06:00,
1000000000304803,77760667666,mKcell,mKarTel,mKarTel,,D02,2017-01-03T17:22:52+06:00,
1000000000304805,77075284658,mAltel,mMTS,mMTS,,D07,2017-01-03T17:22:54+06:00,
1000000000304806,77079470097,mAltel,mMTS,mMTS,,D07,2017-01-03T17:25:56+06:00,
1000000000304807,77011825534,mKcell,mKarTel,mKcell,D01,D02,2017-01-03T17:27:50+06:00,
1000000000304808,77017333592,mKarTel,mKcell,mKcell,,D01,2017-01-03T17:28:31+06:00,
1000000000304809,77003621110,mMTS,mAltel,mAltel,,D77,2017-01-03T17:28:37+06:00,
