NPId,Number,RecipientId,DonorId,RangeHolderId,OldRoute,NewRoute,PortDate,RowCount
1000000000338937,77762123701,mMTS,mKarTel,mKarTel,D01,D77,2017-03-01T19:37:38+06:00,13
1000000000338938,77015567024,mKarTel,mKcell,mKcell,,D01,2017-03-01T19:37:50+06:00,
1000000000338939,77029712891,mAltel,mKcell,mKcell,,D07,2017-03-01T19:38:01+06:00,
1000000000338940,77017609914,mKcell,mMTS,mKcell,D77,D02,2017-03-01T19:40:20+06:00,
1000000000338941,77029724141,mAltel,mKarTel,mKcell,D01,D07,2017-03-01T19:40:36+06:00,
1000000000338943,77472031000,mKarTel,mMTS,mMTS,,D01,2017-03-01T19:41:21+06:00,
1000000000338944,77073284035,mKarTel,mMTS,mMTS,,D01,2017-03-01T19:43:35+06:00,
1000000000338947,77022154906,mMTS,mKcell,mKcell,,D77,2017-03-01T19:51:04+06:00,
1000000000338948,77012889927,mMTS,mKcell,mKcell,,D77,2017-03-01T19:53:22+06:00,
1000000000338949,77775555544,mKcell,mKarTel,mKarTel,,D02,2017-03-01T19:54:36+06:00,
1000000000338950,77017741805,mKarTel,mKcell,mKcell,,D01,2017-03-01T19:54:31+06:00,
1000000000338951,77017669316,mKarTel,mKcell,mKcell,,D01,2017-03-01T19:57:09+06:00,
1000000000338952,77007007292,mMTS,mAltel,mAltel,,D77,2017-03-01T19:56:54+06:00,
