NPId,Number,RecipientId,DonorId,RangeHolderId,OldRoute,NewRoute,PortDate,RowCount
1000000000314013,77026976969,mKarTel,mKcell,mKcell,,D01,2017-01-23T10:32:38+06:00,18
1000000000314716,77022144625,mMTS,mKcell,mKcell,,D77,2017-01-23T10:32:43+06:00,
1000000000314828,77007382858,mMTS,mAltel,mAltel,,D77,2017-01-23T10:31:13+06:00,
1000000000314832,77479807715,mMTS,mKarTel,mMTS,D01,D77,2017-01-23T10:50:03+06:00,
1000000000314833,77479807712,mMTS,mKarTel,mMTS,D01,D77,2017-01-23T10:50:32+06:00,
1000000000314834,77015777777,mMTS,mKcell,mKcell,,D77,2017-01-23T10:35:44+06:00,
1000000000314836,77787979597,mKarTel,mAltel,mKcell,D07,D01,2017-01-23T10:35:55+06:00,
1000000000314837,77479809840,mMTS,mKarTel,mMTS,D01,D77,2017-01-23T10:51:41+06:00,
1000000000314839,77757855557,mKcell,mMTS,mKcell,D77,D02,2017-01-23T10:38:46+06:00,
1000000000314840,77479807694,mMTS,mKarTel,mMTS,D01,D77,2017-01-23T10:54:26+06:00,
1000000000314842,77078450694,mMTS,mKarTel,mMTS,D01,D77,2017-01-23T10:56:00+06:00,
1000000000314843,77017478537,mMTS,mAltel,mKcell,D07,D77,2017-01-23T10:41:10+06:00,
1000000000314845,77024830381,mAltel,mKcell,mKcell,,D07,2017-01-23T10:48:46+06:00,
1000000000314855,77006060695,mMTS,mAltel,mAltel,,D77,2017-01-23T10:52:39+06:00,
1000000000314856,77776770292,mMTS,mKarTel,mKarTel,,D77,2017-01-23T10:53:18+06:00,
1000000000314858,77081046630,mAltel,mKarTel,mAltel,D01,D07,2017-01-23T10:54:55+06:00,
1000000000314859,77076600560,mKarTel,mMTS,mMTS,,D01,2017-01-23T10:55:26+06:00,
1000000000314861,77017407474,mKcell,mKarTel,mKcell,D01,D02,2017-01-23T10:56:40+06:00,
