NPId,Number,RecipientId,DonorId,RangeHolderId,OldRoute,NewRoute,PortDate,RowCount
1000000000149526,77017566324,mKarTel,mKcell,mKcell,,D01,2016-04-12T15:08:03+06:00,47
1000000000149526,77018044410,mKarTel,mKcell,mKcell,,D01,2016-04-12T15:08:03+06:00,
1000000000149526,77018044431,mKarTel,mKcell,mKcell,,D01,2016-04-12T15:08:03+06:00,
1000000000149526,77018044468,mKarTel,mKcell,mKcell,,D01,2016-04-12T15:08:03+06:00,
1000000000149526,77022151908,mKarTel,mKcell,mKcell,,D01,2016-04-12T15:08:03+06:00,
1000000000149903,77017777700,mKarTel,mKcell,mKcell,,D01,2016-04-12T15:01:41+06:00,
1000000000149904,77017826271,mMTS,mKcell,mKcell,,D77,2016-04-12T15:01:19+06:00,
1000000000149906,77082330985,mMTS,mAltel,mAltel,,D77,2016-04-12T15:01:25+06:00,
1000000000149907,77778993799,mMTS,mKarTel,mKarTel,,D77,2016-04-12T15:05:49+06:00,
1000000000149908,77472798372,mKcell,mMTS,mMTS,,D02,2016-04-12T15:03:00+06:00,
1000000000149910,77029314351,mMTS,mKcell,mKcell,,D77,2016-04-12T15:02:59+06:00,
1000000000149911,77015999001,mAltel,mKcell,mKcell,,D07,2016-04-12T15:02:59+06:00,
1000000000149912,77779063217,mAltel,mKarTel,mKarTel,,D07,2016-04-12T15:06:32+06:00,
1000000000149913,77017206260,mMTS,mKcell,mKcell,,D77,2016-04-12T15:04:05+06:00,
1000000000149914,77777394488,mKcell,mKarTel,mKarTel,,D02,2016-04-12T15:06:55+06:00,
1000000000149915,77088532883,mMTS,mAltel,mAltel,,D77,2016-04-12T15:05:31+06:00,
1000000000149916,77051718989,mKarTel,mAltel,mKarTel,D07,D01,2016-04-12T15:06:29+06:00,
1000000000149918,77059021383,mKarTel,mAltel,mKarTel,D07,D01,2016-04-12T15:07:16+06:00,
1000000000149919,77025318948,mMTS,mKcell,mKcell,,D77,2016-04-12T15:07:07+06:00,
1000000000149921,77078766666,mKarTel,mMTS,mMTS,,D01,2016-04-12T15:08:09+06:00,
1000000000149922,77022149439,mKarTel,mKcell,mKcell,,D01,2016-04-12T15:08:09+06:00,
1000000000149924,77082583800,mMTS,mAltel,mAltel,,D77,2016-04-12T15:07:54+06:00,
1000000000149925,77008882888,mKarTel,mAltel,mAltel,,D01,2016-04-12T15:08:49+06:00,
1000000000149926,77011116405,mMTS,mKcell,mKcell,,D77,2016-04-12T15:09:48+06:00,
1000000000149928,77752816991,mKarTel,mKcell,mKcell,,D01,2016-04-12T15:11:23+06:00,
1000000000149929,77072720808,mKarTel,mAltel,mMTS,D07,D01,2016-04-12T15:11:25+06:00,
1000000000149930,77772845850,mMTS,mKarTel,mKarTel,,D77,2016-04-12T15:12:47+06:00,
1000000000149931,77054152767,mMTS,mKarTel,mKarTel,,D77,2016-04-12T15:12:52+06:00,
1000000000149933,77055718777,mKarTel,mAltel,mKarTel,D07,D01,2016-04-12T15:12:49+06:00,
1000000000149934,77789874511,mMTS,mKcell,mKcell,,D77,2016-04-12T15:12:41+06:00,
1000000000149936,77016267966,mMTS,mKcell,mKcell,,D77,2016-04-12T15:13:01+06:00,
1000000000149942,77089134227,mMTS,mAltel,mAltel,,D77,2016-04-12T15:16:48+06:00,
1000000000149943,77751264831,mAltel,mKcell,mKcell,,D07,2016-04-12T15:17:24+06:00,
1000000000149944,77075205797,mMTS,mKcell,mMTS,D02,D77,2016-04-12T15:18:18+06:00,
1000000000149945,77003711991,mMTS,mAltel,mAltel,,D77,2016-04-12T15:17:48+06:00,
1000000000149946,77752741492,mMTS,mKcell,mKcell,,D77,2016-04-12T15:18:38+06:00,
1000000000149947,77025008008,mMTS,mKcell,mKcell,,D77,2016-04-12T15:18:35+06:00,
1000000000149949,77477009677,mKcell,mAltel,mMTS,D07,D02,2016-04-12T15:19:24+06:00,
1000000000149950,77000882002,mKcell,mAltel,mAltel,,D02,2016-04-12T15:24:20+06:00,
1000000000149951,77024302984,mMTS,mKcell,mKcell,,D77,2016-04-12T15:24:24+06:00,
1000000000149952,77773155558,mKarTel,mMTS,mKarTel,D77,D01,2016-04-12T15:25:20+06:00,
1000000000149953,77009609378,mKarTel,mAltel,mAltel,,D01,2016-04-12T15:25:23+06:00,
1000000000149954,77071997069,mKarTel,mMTS,mMTS,,D01,2016-04-12T15:25:23+06:00,
1000000000149955,77052065517,mMTS,mKarTel,mKarTel,,D77,2016-04-12T15:28:41+06:00,
1000000000149957,77086828484,mKarTel,mAltel,mAltel,,D01,2016-04-12T15:29:21+06:00,
1000000000149958,77025360437,mMTS,mKcell,mKcell,,D77,2016-04-12T15:29:08+06:00,
1000000000149959,77017244465,mKcell,mMTS,mKcell,D77,D02,2016-04-12T15:29:34+06:00,
