NPId,Number,RecipientId,DonorId,RangeHolderId,OldRoute,NewRoute,PortDate,RowCount
1000000000335739,77717621293,mMTS,mKarTel,mKarTel,,D77,2017-02-27T10:47:10+06:00,14
1000000000335779,77015333386,mMTS,mKcell,mKcell,,D77,2017-02-27T10:33:47+06:00,
1000000000335780,77051843332,mMTS,mKarTel,mKarTel,,D77,2017-02-27T10:34:38+06:00,
1000000000335781,77762225360,mMTS,mKarTel,mKarTel,,D77,2017-02-27T10:36:22+06:00,
1000000000335782,77762225350,mMTS,mKarTel,mKarTel,,D77,2017-02-27T10:38:02+06:00,
1000000000335785,77761017887,mKcell,mKarTel,mKarTel,,D02,2017-02-27T10:39:32+06:00,
1000000000335786,77015338405,mKarTel,mKcell,mKcell,,D01,2017-02-27T10:39:44+06:00,
1000000000335787,77779999939,mMTS,mKarTel,mKarTel,,D77,2017-02-27T10:39:35+06:00,
1000000000335788,77086799793,mMTS,mAltel,mAltel,,D77,2017-02-27T10:39:58+06:00,
1000000000335790,77772592988,mMTS,mKarTel,mKarTel,,D77,2017-02-27T10:43:04+06:00,
1000000000335791,77770883737,mKcell,mKarTel,mKarTel,,D02,2017-02-27T10:47:29+06:00,
1000000000335792,77071913532,mAltel,mMTS,mMTS,,D07,2017-02-27T10:51:45+06:00,
1000000000335793,77083131979,mAltel,mMTS,mAltel,D77,D07,2017-02-27T10:54:13+06:00,
1000000000335796,77767747777,mMTS,mKarTel,mKarTel,,D77,2017-02-27T10:58:04+06:00,
