NPId,Number,RecipientId,DonorId,RangeHolderId,OldRoute,NewRoute,PortDate,RowCount
1000000000273464,77019932634,mKcell,mKarTel,mKcell,D01,D02,2016-11-03T16:31:20+06:00,35
1000000000273467,77017206203,mKcell,mKarTel,mKcell,D01,D02,2016-11-03T16:34:38+06:00,
1000000000273471,77015191647,mKcell,mKarTel,mKcell,D01,D02,2016-11-03T16:37:43+06:00,
1000000000273472,77017490843,mKcell,mKarTel,mKcell,D01,D02,2016-11-03T16:43:24+06:00,
1000000000273475,77017241108,mKcell,mKarTel,mKcell,D01,D02,2016-11-03T16:39:12+06:00,
1000000000273478,77012357375,mKcell,mKarTel,mKcell,D01,D02,2016-11-03T16:42:26+06:00,
1000000000273484,77058202002,mKcell,mKarTel,mKarTel,,D02,2016-11-03T16:30:31+06:00,
1000000000273485,77783796133,mMTS,mKcell,mKcell,,D77,2016-11-03T16:31:38+06:00,
1000000000273486,77717771111,mKcell,mKarTel,mKarTel,,D02,2016-11-03T16:32:48+06:00,
1000000000273487,77017371936,mKcell,mKarTel,mKcell,D01,D02,2016-11-03T16:33:04+06:00,
1000000000273489,77024806069,mMTS,mKcell,mKcell,,D77,2016-11-03T16:34:37+06:00,
1000000000273490,77025380287,mMTS,mKcell,mKcell,,D77,2016-11-03T16:34:37+06:00,
1000000000273492,77762271653,mAltel,mKarTel,mKarTel,,D07,2016-11-03T16:35:24+06:00,
1000000000273494,77786471777,mMTS,mKcell,mKcell,,D77,2016-11-03T16:36:35+06:00,
1000000000273495,77015170612,mKarTel,mKcell,mKcell,,D01,2016-11-03T16:37:17+06:00,
1000000000273496,77016888807,mKarTel,mKcell,mKcell,D02,D01,2016-11-03T16:38:15+06:00,
1000000000273497,77027800939,mMTS,mKcell,mKcell,,D77,2016-11-03T16:37:43+06:00,
1000000000273498,77010188555,mKcell,mKarTel,mKcell,D01,D02,2016-11-03T16:39:09+06:00,
1000000000273499,77772228628,mAltel,mKarTel,mKarTel,,D07,2016-11-03T16:40:15+06:00,
1000000000273500,77479178085,mKarTel,mMTS,mMTS,,D01,2016-11-03T16:41:52+06:00,
1000000000273501,77029600080,mMTS,mKcell,mKcell,,D77,2016-11-03T16:42:23+06:00,
1000000000273502,77018977874,mKarTel,mKcell,mKcell,,D01,2016-11-03T16:42:55+06:00,
1000000000273503,77017233233,mKarTel,mKcell,mKcell,,D01,2016-11-03T16:43:05+06:00,
1000000000273504,77018000269,mAltel,mKcell,mKcell,,D07,2016-11-03T16:43:02+06:00,
1000000000273505,77751996484,mKarTel,mKcell,mKcell,,D01,2016-11-03T16:43:56+06:00,
1000000000273506,77011031999,mKcell,mMTS,mKcell,D77,D02,2016-11-03T16:43:43+06:00,
1000000000273508,77011005678,mMTS,mKcell,mKcell,,D77,2016-11-03T16:45:34+06:00,
1000000000273509,77473783161,mKarTel,mMTS,mMTS,,D01,2016-11-03T16:47:04+06:00,
1000000000273510,77017271662,mKarTel,mKcell,mKcell,,D01,2016-11-03T16:48:21+06:00,
1000000000273512,77025471393,mMTS,mKcell,mKcell,,D77,2016-11-03T16:49:12+06:00,
1000000000273516,77003371332,mMTS,mKcell,mAltel,D02,D77,2016-11-03T16:51:40+06:00,
1000000000273517,77055358655,mKarTel,mMTS,mKarTel,D77,D01,2016-11-03T16:54:07+06:00,
1000000000273518,77083217773,mKarTel,mAltel,mAltel,,D01,2016-11-03T16:54:08+06:00,
1000000000273519,77759025262,mAltel,mKcell,mKcell,,D07,2016-11-03T16:54:21+06:00,
1000000000273520,77026727130,mMTS,mKcell,mKcell,,D77,2016-11-03T16:55:47+06:00,
