NPId,Number,RecipientId,DonorId,RangeHolderId,OldRoute,NewRoute,PortDate,RowCount
1000000000195561,77011116457,mKcell,mKarTel,mKcell,D01,D02,2016-06-18T12:00:21+06:00,13
1000000000195564,77005550302,mKcell,mAltel,mAltel,,D02,2016-06-18T12:04:40+06:00,
1000000000195566,77773303040,mKcell,mKarTel,mKarTel,,D02,2016-06-18T12:05:05+06:00,
1000000000195568,77022828397,mAltel,mKcell,mKcell,,D07,2016-06-18T12:07:18+06:00,
1000000000195569,77778778077,mKcell,mAltel,mKarTel,D07,D02,2016-06-18T12:10:17+06:00,
1000000000195570,77476597929,mKcell,mMTS,mMTS,,D02,2016-06-18T12:13:59+06:00,
1000000000195572,77772692368,mMTS,mAltel,mKarTel,D07,D77,2016-06-18T12:12:45+06:00,
1000000000195573,77089595601,mAltel,mMTS,mAltel,D77,D07,2016-06-18T12:13:48+06:00,
1000000000195574,77013104310,mMTS,mKcell,mKcell,,D77,2016-06-18T12:14:42+06:00,
1000000000195576,77052964843,mMTS,mKarTel,mKarTel,,D77,2016-06-18T12:17:29+06:00,
1000000000195577,77715597573,mMTS,mKarTel,mKarTel,,D77,2016-06-18T12:18:00+06:00,
1000000000195578,77076779260,mAltel,mMTS,mMTS,,D07,2016-06-18T12:20:31+06:00,
1000000000195581,77771319994,mAltel,mKarTel,mKarTel,,D07,2016-06-18T12:26:38+06:00,
