NPId,Number,RecipientId,DonorId,RangeHolderId,OldRoute,NewRoute,PortDate,RowCount
1000000000313017,77054149359,mKcell,mMTS,mKarTel,D77,D02,2017-01-19T12:30:08+06:00,25
1000000000313019,77076603299,mMTS,mKarTel,mMTS,D01,D77,2017-01-19T12:30:33+06:00,
1000000000313022,77053767770,mMTS,mKarTel,mKarTel,,D77,2017-01-19T12:33:56+06:00,
1000000000313026,77072303802,mKcell,mMTS,mMTS,,D02,2017-01-19T12:38:17+06:00,
1000000000313027,77003688166,mMTS,mAltel,mAltel,,D77,2017-01-19T12:38:32+06:00,
1000000000313028,77078833317,mKarTel,mMTS,mMTS,,D01,2017-01-19T12:39:14+06:00,
1000000000313029,77007779356,mKarTel,mAltel,mAltel,,D01,2017-01-19T12:40:08+06:00,
1000000000313031,77013264176,mKarTel,mKcell,mKcell,,D01,2017-01-19T12:42:55+06:00,
1000000000313032,77012244407,mAltel,mKcell,mKcell,,D07,2017-01-19T12:43:07+06:00,
1000000000313033,77074610446,mMTS,mKcell,mMTS,D02,D77,2017-01-19T12:43:06+06:00,
1000000000313034,77017377575,mAltel,mKcell,mKcell,,D07,2017-01-19T12:44:32+06:00,
1000000000313035,77751955985,mMTS,mKcell,mKcell,,D77,2017-01-19T12:44:52+06:00,
1000000000313036,77786648595,mKarTel,mKcell,mKcell,,D01,2017-01-19T12:48:30+06:00,
1000000000313037,77024235843,mAltel,mKcell,mKcell,,D07,2017-01-19T12:49:01+06:00,
1000000000313038,77025909565,mMTS,mKcell,mKcell,,D77,2017-01-19T12:49:43+06:00,
1000000000313039,77089586818,mAltel,mMTS,mAltel,D77,D07,2017-01-19T12:50:07+06:00,
1000000000313040,77014466698,mMTS,mKcell,mKcell,,D77,2017-01-19T12:52:54+06:00,
1000000000313041,77012774047,mKarTel,mKcell,mKcell,,D01,2017-01-19T12:54:42+06:00,
1000000000313042,77473302549,mKarTel,mMTS,mMTS,,D01,2017-01-19T12:57:36+06:00,
1000000000313043,77475455580,mAltel,mMTS,mMTS,,D07,2017-01-19T12:57:38+06:00,
1000000000313044,77771573293,mMTS,mKarTel,mKarTel,,D77,2017-01-19T12:57:59+06:00,
1000000000313045,77478566199,mKcell,mMTS,mMTS,,D02,2017-01-19T12:58:13+06:00,
1000000000313046,77017724367,mMTS,mKcell,mKcell,,D77,2017-01-19T12:59:07+06:00,
1000000000313047,77021023330,mMTS,mKcell,mKcell,,D77,2017-01-19T12:59:24+06:00,
1000000000313048,77026206038,mKcell,mMTS,mKcell,D77,D02,2017-01-19T12:59:56+06:00,
