NPId,Number,RecipientId,DonorId,RangeHolderId,OldRoute,NewRoute,PortDate,RowCount
1000000000107612,77077884400,mAltel,mMTS,mMTS,,D07,2016-03-05T11:30:50+06:00,26
1000000000107613,77052900011,mMTS,mKarTel,mKarTel,,D77,2016-03-05T11:31:26+06:00,
1000000000107614,77788979391,mMTS,mKcell,mKcell,,D77,2016-03-05T11:32:04+06:00,
1000000000107615,77757879663,mMTS,mKcell,mKcell,,D77,2016-03-05T11:33:21+06:00,
1000000000107616,77077456259,mAltel,mMTS,mMTS,,D07,2016-03-05T11:33:21+06:00,
1000000000107617,77771482938,mMTS,mKarTel,mKarTel,,D77,2016-03-05T11:34:45+06:00,
1000000000107620,77017994764,mMTS,mKcell,mKcell,,D77,2016-03-05T11:37:41+06:00,
1000000000107621,77759056662,mMTS,mKcell,mKcell,,D77,2016-03-05T11:38:37+06:00,
1000000000107622,77057941915,mAltel,mKarTel,mKarTel,,D07,2016-03-05T11:39:45+06:00,
1000000000107626,77051778646,mMTS,mKarTel,mKarTel,,D77,2016-03-05T11:43:13+06:00,
1000000000107629,77011931111,mMTS,mKcell,mKcell,,D77,2016-03-05T11:46:31+06:00,
1000000000107631,77003517561,mMTS,mAltel,mAltel,,D77,2016-03-05T11:47:19+06:00,
1000000000107632,77056136217,mAltel,mKarTel,mKarTel,,D07,2016-03-05T11:49:41+06:00,
1000000000107633,77076660105,mAltel,mMTS,mMTS,,D07,2016-03-05T11:49:28+06:00,
1000000000107636,77057370737,mMTS,mKarTel,mKarTel,,D77,2016-03-05T11:51:33+06:00,
1000000000107637,77779999866,mKcell,mKarTel,mKarTel,,D02,2016-03-05T11:51:57+06:00,
1000000000107638,77015928768,mKarTel,mKcell,mKcell,,D01,2016-03-05T11:51:50+06:00,
1000000000107640,77754424232,mMTS,mKcell,mKcell,,D77,2016-03-05T11:52:42+06:00,
1000000000107641,77712172014,mMTS,mKarTel,mKarTel,,D77,2016-03-05T11:53:16+06:00,
1000000000107642,77022767895,mMTS,mKcell,mKcell,,D77,2016-03-05T11:53:35+06:00,
1000000000107643,77013870738,mAltel,mKcell,mKcell,,D07,2016-03-05T11:54:29+06:00,
1000000000107644,77476999104,mKarTel,mMTS,mMTS,,D01,2016-03-05T11:55:25+06:00,
1000000000107647,77013582125,mAltel,mKcell,mKcell,,D07,2016-03-05T11:57:45+06:00,
1000000000107648,77016798576,mMTS,mKcell,mKcell,,D77,2016-03-05T11:58:13+06:00,
1000000000107650,77014090501,mAltel,mKcell,mKcell,,D07,2016-03-05T11:58:55+06:00,
1000000000107652,77019827338,mAltel,mKcell,mKcell,,D07,2016-03-05T11:59:56+06:00,
