NPId,Number,RecipientId,DonorId,RangeHolderId,OldRoute,NewRoute,PortDate,RowCount
1000000000046672,77023147383,mAltel,mKcell,mKcell,,D07,2016-02-12T19:02:04+06:00,8
1000000000046673,77787774147,mAltel,mKcell,mKcell,,D07,2016-02-12T19:04:09+06:00,
1000000000046675,77007563644,mKcell,mAltel,mAltel,,D02,2016-02-12T19:10:25+06:00,
1000000000046679,77002451992,mKcell,mAltel,mAltel,,D02,2016-02-12T19:18:39+06:00,
1000000000046680,77786962707,mAltel,mKcell,mKcell,,D07,2016-02-12T19:18:58+06:00,
1000000000046681,77777767897,mAltel,mKarTel,mKarTel,,D07,2016-02-12T19:20:45+06:00,
1000000000046682,77719869260,mAltel,mKarTel,mKarTel,,D07,2016-02-12T19:21:10+06:00,
1000000000046683,77085228056,mKcell,mAltel,mAltel,,D02,2016-02-12T19:21:24+06:00,
