NPId,Number,RecipientId,DonorId,RangeHolderId,OldRoute,NewRoute,PortDate,RowCount
1000000000212274,77014957706,mAltel,mKcell,mKcell,,D07,2016-07-16T14:17:37+06:00,14
1000000000212275,77781005599,mMTS,mKcell,mKcell,,D77,2016-07-16T14:17:32+06:00,
1000000000212280,77019227254,mMTS,mKcell,mKcell,,D77,2016-07-16T14:17:37+06:00,
1000000000212281,77712171162,mMTS,mKarTel,mKarTel,,D77,2016-07-16T14:03:01+06:00,
1000000000212282,77056262226,mKarTel,mAltel,mKarTel,D07,D01,2016-07-16T14:03:32+06:00,
1000000000212283,77082109575,mKarTel,mAltel,mAltel,,D01,2016-07-16T14:05:41+06:00,
1000000000212284,77056262266,mKarTel,mAltel,mKarTel,D07,D01,2016-07-16T14:05:42+06:00,
1000000000212285,77077305401,mAltel,mMTS,mMTS,,D07,2016-07-16T14:05:04+06:00,
1000000000212287,77770602002,mKarTel,mAltel,mKarTel,D07,D01,2016-07-16T14:07:24+06:00,
1000000000212289,77782410888,mMTS,mKcell,mKcell,,D77,2016-07-16T14:17:37+06:00,
1000000000212290,77011118217,mMTS,mKcell,mKcell,,D77,2016-07-16T14:17:33+06:00,
1000000000212312,77004850468,mMTS,mAltel,mAltel,,D77,2016-07-16T14:25:43+06:00,
1000000000212313,77719886151,mAltel,mKarTel,mKarTel,,D07,2016-07-16T14:27:50+06:00,
1000000000212314,77714380353,mAltel,mKarTel,mKarTel,,D07,2016-07-16T14:28:56+06:00,
