NPId,Number,RecipientId,DonorId,RangeHolderId,OldRoute,NewRoute,PortDate,RowCount
1000000000108875,77017275945,mAltel,mKcell,mKcell,,D07,2016-03-06T18:31:54+06:00,14
1000000000108876,77017185053,mAltel,mKcell,mKcell,,D07,2016-03-06T18:33:37+06:00,
1000000000108877,77754257771,mMTS,mKcell,mKcell,,D77,2016-03-06T18:35:50+06:00,
1000000000108878,77471626007,mKarTel,mMTS,mMTS,,D01,2016-03-06T18:37:09+06:00,
1000000000108879,77021379592,mAltel,mKcell,mKcell,,D07,2016-03-06T18:38:42+06:00,
1000000000108881,77472229363,mAltel,mMTS,mMTS,,D07,2016-03-06T18:41:47+06:00,
1000000000108882,77011001093,mAltel,mKcell,mKcell,,D07,2016-03-06T18:42:42+06:00,
1000000000108883,77071118487,mKarTel,mMTS,mMTS,,D01,2016-03-06T18:44:52+06:00,
1000000000108884,77019479754,mKarTel,mKcell,mKcell,,D01,2016-03-06T18:47:40+06:00,
1000000000108885,77076044666,mAltel,mMTS,mMTS,,D07,2016-03-06T18:50:14+06:00,
1000000000108886,77087594226,mKarTel,mAltel,mAltel,,D01,2016-03-06T18:51:25+06:00,
1000000000108887,77021204935,mAltel,mKcell,mKcell,,D07,2016-03-06T18:51:51+06:00,
1000000000108889,77029361984,mAltel,mKcell,mKcell,,D07,2016-03-06T18:53:09+06:00,
1000000000108890,77015977680,mAltel,mKcell,mKcell,,D07,2016-03-06T18:56:29+06:00,
