NPId,Number,RecipientId,DonorId,RangeHolderId,OldRoute,NewRoute,PortDate,RowCount
1000000000273139,77087591218,mMTS,mKarTel,mAltel,D01,D77,2016-11-03T12:01:09+06:00,23
1000000000273142,77479309910,mKcell,mAltel,mMTS,D07,D02,2016-11-03T12:02:34+06:00,
1000000000273145,77000900022,mKcell,mAltel,mAltel,,D02,2016-11-03T12:03:05+06:00,
1000000000273146,77075094597,mMTS,mKcell,mMTS,D02,D77,2016-11-03T12:03:23+06:00,
1000000000273147,77021102121,mMTS,mKcell,mKcell,,D77,2016-11-03T12:04:49+06:00,
1000000000273154,77080610993,mKcell,mMTS,mAltel,D77,D02,2016-11-03T12:10:13+06:00,
1000000000273155,77753601976,mMTS,mKcell,mKcell,,D77,2016-11-03T12:11:22+06:00,
1000000000273156,77059030277,mMTS,mKarTel,mKarTel,,D77,2016-11-03T12:15:51+06:00,
1000000000273158,77077479479,mKarTel,mMTS,mMTS,,D01,2016-11-03T12:16:55+06:00,
1000000000273159,77753916155,mKarTel,mKcell,mKcell,,D01,2016-11-03T12:19:23+06:00,
1000000000273160,77012562114,mMTS,mKcell,mKcell,,D77,2016-11-03T12:18:42+06:00,
1000000000273161,77012338704,mMTS,mKcell,mKcell,,D77,2016-11-03T12:19:52+06:00,
1000000000273162,77786748782,mKarTel,mKcell,mKcell,,D01,2016-11-03T12:21:28+06:00,
1000000000273163,77015279554,mAltel,mKcell,mKcell,,D07,2016-11-03T12:21:19+06:00,
1000000000273165,77051114241,mKcell,mKarTel,mKarTel,,D02,2016-11-03T12:23:11+06:00,
1000000000273167,77015425740,mKarTel,mKcell,mKcell,,D01,2016-11-03T12:26:14+06:00,
1000000000273168,77755104184,mMTS,mKcell,mKcell,,D77,2016-11-03T12:25:57+06:00,
1000000000273171,77788208000,mKarTel,mKcell,mKcell,,D01,2016-11-03T12:24:44+06:00,
1000000000273173,77714543944,mKcell,mKarTel,mKarTel,D01,D02,2016-11-03T12:26:56+06:00,
1000000000273175,77712933125,mMTS,mKarTel,mKarTel,,D77,2016-11-03T12:28:10+06:00,
1000000000273176,77765442640,mKcell,mKarTel,mKarTel,,D02,2016-11-03T12:28:36+06:00,
1000000000273177,77013271116,mKarTel,mAltel,mKcell,D07,D01,2016-11-03T12:28:19+06:00,
1000000000273178,77014441536,mMTS,mKcell,mKcell,,D77,2016-11-03T12:29:08+06:00,
