NPId,Number,RecipientId,DonorId,RangeHolderId,OldRoute,NewRoute,PortDate,RowCount
1000000000209642,77017665070,mMTS,mKcell,mKcell,,D77,2016-07-11T19:03:37+06:00,17
1000000000209643,77000500055,mKcell,mAltel,mAltel,,D02,2016-07-11T19:06:59+06:00,
1000000000209646,77029968868,mKarTel,mKcell,mKcell,,D01,2016-07-11T19:08:30+06:00,
1000000000209648,77761117107,mKcell,mKarTel,mKarTel,,D02,2016-07-11T19:11:17+06:00,
1000000000209651,77766561330,mKarTel,mMTS,mKarTel,D77,D01,2016-07-11T19:12:48+06:00,
1000000000209652,77028383700,mMTS,mKcell,mKcell,,D77,2016-07-11T19:14:14+06:00,
1000000000209653,77017773301,mKcell,mMTS,mKcell,D77,D02,2016-07-11T19:15:00+06:00,
1000000000209654,77056510004,mMTS,mKarTel,mKarTel,,D77,2016-07-11T19:15:07+06:00,
1000000000209655,77765616330,mKarTel,mMTS,mKarTel,D77,D01,2016-07-11T19:19:06+06:00,
1000000000209656,77017396029,mKarTel,mMTS,mKcell,D77,D01,2016-07-11T19:20:01+06:00,
1000000000209657,77013271296,mMTS,mKcell,mKcell,,D77,2016-07-11T19:20:47+06:00,
1000000000209658,77784433111,mMTS,mKcell,mKcell,,D77,2016-07-11T19:22:34+06:00,
1000000000209659,77000000091,mMTS,mAltel,mAltel,,D77,2016-07-11T19:23:10+06:00,
1000000000209660,77022482870,mMTS,mKcell,mKcell,,D77,2016-07-11T19:26:06+06:00,
1000000000209661,77013646362,mKarTel,mKcell,mKcell,,D01,2016-07-11T19:29:24+06:00,
1000000000209662,77019187735,mMTS,mKcell,mKcell,,D77,2016-07-11T19:27:53+06:00,
1000000000209663,77057089877,mKcell,mKarTel,mKarTel,,D02,2016-07-11T19:29:57+06:00,
