NPId,Number,RecipientId,DonorId,RangeHolderId,OldRoute,NewRoute,PortDate,RowCount
1000000000059457,77078508626,mKarTel,mMTS,mMTS,,D01,2016-02-15T21:04:35+06:00,2
1000000000059458,77755369542,mAltel,mKcell,mKcell,,D07,2016-02-15T21:05:19+06:00,
