NPId,Number,RecipientId,DonorId,RangeHolderId,OldRoute,NewRoute,PortDate,RowCount
1000000000143743,77713965140,mMTS,mAltel,mKarTel,D07,D77,2016-04-05T19:01:46+06:00,24
1000000000143745,77088628452,mKarTel,mAltel,mAltel,,D01,2016-04-05T19:02:57+06:00,
1000000000143746,77076421803,mAltel,mMTS,mMTS,,D07,2016-04-05T19:02:45+06:00,
1000000000143748,77028067799,mAltel,mKcell,mKcell,,D07,2016-04-05T19:03:48+06:00,
1000000000143750,77004603829,mKcell,mAltel,mAltel,,D02,2016-04-05T19:04:19+06:00,
1000000000143752,77003418951,mMTS,mAltel,mAltel,,D77,2016-04-05T19:06:57+06:00,
1000000000143753,77017379478,mKarTel,mKcell,mKcell,,D01,2016-04-05T19:10:49+06:00,
1000000000143755,77764019966,mMTS,mKarTel,mKarTel,,D77,2016-04-05T19:09:44+06:00,
1000000000143757,77057072411,mKcell,mKarTel,mKarTel,,D02,2016-04-05T19:11:45+06:00,
1000000000143758,77072223502,mKcell,mMTS,mMTS,,D02,2016-04-05T19:11:18+06:00,
1000000000143759,77011008817,mKcell,mMTS,mKcell,D77,D02,2016-04-05T19:11:18+06:00,
1000000000143760,77025001089,mMTS,mKcell,mKcell,,D77,2016-04-05T19:12:11+06:00,
1000000000143761,77026653040,mMTS,mKcell,mKcell,,D77,2016-04-05T19:13:14+06:00,
1000000000143763,77007771778,mKarTel,mKcell,mAltel,D02,D01,2016-04-05T19:15:10+06:00,
1000000000143765,77070347557,mKcell,mMTS,mMTS,,D02,2016-04-05T19:16:12+06:00,
1000000000143766,77711310001,mMTS,mKarTel,mKarTel,,D77,2016-04-05T19:17:50+06:00,
1000000000143767,77022704322,mKarTel,mKcell,mKcell,,D01,2016-04-05T19:18:22+06:00,
1000000000143768,77029030383,mAltel,mKcell,mKcell,,D07,2016-04-05T19:21:21+06:00,
1000000000143770,77756800084,mMTS,mKcell,mKcell,,D77,2016-04-05T19:22:56+06:00,
1000000000143772,77086601102,mKcell,mAltel,mAltel,,D02,2016-04-05T19:24:00+06:00,
1000000000143773,77773878809,mAltel,mKarTel,mKarTel,,D07,2016-04-05T19:28:08+06:00,
1000000000143774,77083424243,mMTS,mAltel,mAltel,,D77,2016-04-05T19:26:59+06:00,
1000000000143775,77010800050,mMTS,mKcell,mKcell,,D77,2016-04-05T19:27:11+06:00,
1000000000143776,77474252447,mMTS,mAltel,mMTS,D07,D77,2016-04-05T19:27:00+06:00,
