NPId,Number,RecipientId,DonorId,RangeHolderId,OldRoute,NewRoute,PortDate,RowCount
1000000000268864,77024939337,mMTS,mKcell,mKcell,,D77,2016-10-27T14:30:04+06:00,17
1000000000268867,77025416464,mMTS,mKcell,mKcell,,D77,2016-10-27T14:30:21+06:00,
1000000000268871,77770446666,mMTS,mKarTel,mKarTel,,D77,2016-10-27T14:32:53+06:00,
1000000000268872,77714964466,mAltel,mKarTel,mKarTel,,D07,2016-10-27T14:35:47+06:00,
1000000000268873,77714478462,mMTS,mKarTel,mKarTel,,D77,2016-10-27T14:37:59+06:00,
1000000000268875,77028411695,mKarTel,mKcell,mKcell,,D01,2016-10-27T14:41:28+06:00,
1000000000268876,77089449057,mAltel,mMTS,mAltel,D77,D07,2016-10-27T14:46:28+06:00,
1000000000268877,77774509800,mMTS,mKarTel,mKarTel,,D77,2016-10-27T14:47:56+06:00,
1000000000268880,77051999652,mMTS,mKcell,mKarTel,D02,D77,2016-10-27T14:52:14+06:00,
1000000000268881,77051845407,mMTS,mKarTel,mKarTel,,D77,2016-10-27T14:52:59+06:00,
1000000000268882,77785294104,mMTS,mKcell,mKcell,,D77,2016-10-27T14:52:41+06:00,
1000000000268883,77017324527,mKarTel,mKcell,mKcell,,D01,2016-10-27T14:53:23+06:00,
1000000000268884,77788972004,mKarTel,mKcell,mKcell,,D01,2016-10-27T14:55:08+06:00,
1000000000268886,77019990588,mMTS,mKcell,mKcell,,D77,2016-10-27T14:55:34+06:00,
1000000000268887,77775839388,mMTS,mKarTel,mKarTel,,D77,2016-10-27T14:57:10+06:00,
1000000000268888,77017814647,mKarTel,mKcell,mKcell,,D01,2016-10-27T14:57:57+06:00,
1000000000268889,77719116262,mMTS,mKarTel,mKarTel,,D77,2016-10-27T14:59:02+06:00,
