NPId,Number,RecipientId,DonorId,RangeHolderId,OldRoute,NewRoute,PortDate,RowCount
1000000000139190,77710068869,mKcell,mKarTel,mKarTel,,D02,2016-04-04T11:30:09+06:00,58
1000000000139190,77710156700,mKcell,mKarTel,mKarTel,,D02,2016-04-04T11:30:09+06:00,
1000000000139190,77710156701,mKcell,mKarTel,mKarTel,,D02,2016-04-04T11:30:09+06:00,
1000000000139190,77710156704,mKcell,mKarTel,mKarTel,,D02,2016-04-04T11:30:09+06:00,
1000000000139190,77710156705,mKcell,mKarTel,mKarTel,,D02,2016-04-04T11:30:09+06:00,
1000000000139190,77710156706,mKcell,mKarTel,mKarTel,,D02,2016-04-04T11:30:09+06:00,
1000000000139190,77710156707,mKcell,mKarTel,mKarTel,,D02,2016-04-04T11:30:09+06:00,
1000000000139190,77710156708,mKcell,mKarTel,mKarTel,,D02,2016-04-04T11:30:09+06:00,
1000000000139190,77710156709,mKcell,mKarTel,mKarTel,,D02,2016-04-04T11:30:09+06:00,
1000000000139190,77710156710,mKcell,mKarTel,mKarTel,,D02,2016-04-04T11:30:09+06:00,
1000000000139190,77710156711,mKcell,mKarTel,mKarTel,,D02,2016-04-04T11:30:09+06:00,
1000000000139190,77710156714,mKcell,mKarTel,mKarTel,,D02,2016-04-04T11:30:09+06:00,
1000000000139190,77710156715,mKcell,mKarTel,mKarTel,,D02,2016-04-04T11:30:09+06:00,
1000000000139190,77710156716,mKcell,mKarTel,mKarTel,,D02,2016-04-04T11:30:09+06:00,
1000000000139190,77710156717,mKcell,mKarTel,mKarTel,,D02,2016-04-04T11:30:09+06:00,
1000000000139190,77710156718,mKcell,mKarTel,mKarTel,,D02,2016-04-04T11:30:09+06:00,
1000000000139190,77710156719,mKcell,mKarTel,mKarTel,,D02,2016-04-04T11:30:09+06:00,
1000000000139190,77710156720,mKcell,mKarTel,mKarTel,,D02,2016-04-04T11:30:09+06:00,
1000000000139190,77710156721,mKcell,mKarTel,mKarTel,,D02,2016-04-04T11:30:09+06:00,
1000000000139190,77710156722,mKcell,mKarTel,mKarTel,,D02,2016-04-04T11:30:09+06:00,
1000000000139190,77710156723,mKcell,mKarTel,mKarTel,,D02,2016-04-04T11:30:09+06:00,
1000000000139190,77710156724,mKcell,mKarTel,mKarTel,,D02,2016-04-04T11:30:09+06:00,
1000000000139190,77710156725,mKcell,mKarTel,mKarTel,,D02,2016-04-04T11:30:09+06:00,
1000000000141637,77019417889,mAltel,mKcell,mKcell,,D07,2016-04-04T11:34:08+06:00,
1000000000141639,77027142974,mAltel,mKcell,mKcell,,D07,2016-04-04T11:36:26+06:00,
1000000000141643,77017428934,mAltel,mKcell,mKcell,,D07,2016-04-04T11:30:14+06:00,
1000000000141644,77017428871,mAltel,mKcell,mKcell,,D07,2016-04-04T11:36:57+06:00,
1000000000141646,77018876671,mAltel,mKcell,mKcell,,D07,2016-04-04T11:32:45+06:00,
1000000000141648,77012666754,mAltel,mKcell,mKcell,,D07,2016-04-04T11:31:23+06:00,
1000000000141764,77087596438,mKarTel,mAltel,mAltel,,D01,2016-04-04T11:31:36+06:00,
1000000000141766,77056701002,mKarTel,mMTS,mKarTel,D77,D01,2016-04-04T11:32:37+06:00,
1000000000141768,77018877702,mAltel,mKcell,mKcell,,D07,2016-04-04T11:34:08+06:00,
1000000000141769,77005344555,mMTS,mAltel,mAltel,,D77,2016-04-04T11:33:27+06:00,
1000000000141770,77057793037,mKarTel,mMTS,mKarTel,D77,D01,2016-04-04T11:34:43+06:00,
1000000000141771,77003509304,mMTS,mAltel,mAltel,,D77,2016-04-04T11:34:33+06:00,
1000000000141776,77085309677,mMTS,mAltel,mAltel,,D77,2016-04-04T11:37:58+06:00,
1000000000141778,77017374494,mKarTel,mKcell,mKcell,,D01,2016-04-04T11:40:58+06:00,
1000000000141779,77022150499,mKarTel,mKcell,mKcell,,D01,2016-04-04T11:41:31+06:00,
1000000000141781,77071262667,mAltel,mMTS,mMTS,,D07,2016-04-04T11:41:33+06:00,
1000000000141782,77789913008,mMTS,mKcell,mKcell,,D77,2016-04-04T11:42:29+06:00,
1000000000141783,77012887319,mMTS,mKcell,mKcell,,D77,2016-04-04T11:42:29+06:00,
1000000000141784,77782133383,mMTS,mKcell,mKcell,,D77,2016-04-04T11:43:41+06:00,
1000000000141785,77051465010,mAltel,mKarTel,mKarTel,,D07,2016-04-04T11:44:09+06:00,
1000000000141786,77772252133,mKcell,mKarTel,mKarTel,,D02,2016-04-04T11:45:25+06:00,
1000000000141787,77052225964,mKcell,mKarTel,mKarTel,,D02,2016-04-04T11:45:33+06:00,
1000000000141788,77081700330,mKarTel,mAltel,mAltel,,D01,2016-04-04T11:46:15+06:00,
1000000000141789,77025568526,mKarTel,mKcell,mKcell,,D01,2016-04-04T11:46:45+06:00,
1000000000141791,77055587079,mMTS,mKarTel,mKarTel,,D77,2016-04-04T11:48:17+06:00,
1000000000141792,77015746598,mMTS,mKcell,mKcell,,D77,2016-04-04T11:47:06+06:00,
1000000000141796,77785270775,mMTS,mKcell,mKcell,,D77,2016-04-04T11:51:49+06:00,
1000000000141797,77756692836,mAltel,mKcell,mKcell,,D07,2016-04-04T11:51:49+06:00,
1000000000141798,77713684545,mMTS,mKarTel,mKarTel,,D77,2016-04-04T11:50:55+06:00,
1000000000141800,77016134242,mMTS,mKarTel,mKcell,D01,D77,2016-04-04T11:51:26+06:00,
1000000000141802,77028748280,mMTS,mKcell,mKcell,,D77,2016-04-04T11:52:19+06:00,
1000000000141804,77713684646,mMTS,mKarTel,mKarTel,,D77,2016-04-04T11:57:07+06:00,
1000000000141805,77001470088,mMTS,mAltel,mAltel,,D77,2016-04-04T11:55:34+06:00,
1000000000141808,77058962712,mMTS,mKarTel,mKarTel,,D77,2016-04-04T11:58:11+06:00,
1000000000141811,77051859998,mMTS,mKarTel,mKarTel,,D77,2016-04-04T11:59:48+06:00,
