NPId,Number,RecipientId,DonorId,RangeHolderId,OldRoute,NewRoute,PortDate,RowCount
1000000000000659,77025439879,mAltel,mKcell,mKcell,,D07,2016-01-04T15:04:07+06:00,2
1000000000000660,77758304855,mAltel,mKcell,mKcell,,D07,2016-01-04T15:06:38+06:00,
