NPId,Number,RecipientId,DonorId,RangeHolderId,OldRoute,NewRoute,PortDate,RowCount
1000000000429145,77713112267,mKcell,mKarTel,mKarTel,,D02,2017-07-27T13:03:21+06:00,26
1000000000429148,77713119416,mKcell,mKarTel,mKarTel,,D02,2017-07-27T13:06:27+06:00,
1000000000429203,77011005001,mKcell,mKarTel,mKcell,D01,D02,2017-07-27T13:03:36+06:00,
1000000000429205,77001828201,mKcell,mAltel,mAltel,,D02,2017-07-27T13:03:24+06:00,
1000000000429207,77779996182,mKarTel,mAltel,mKarTel,D07,D01,2017-07-27T13:04:28+06:00,
1000000000429208,77014761100,mKcell,mMTS,mKcell,D77,D02,2017-07-27T13:06:40+06:00,
1000000000429209,77770162147,mMTS,mKarTel,mKarTel,,D77,2017-07-27T13:07:35+06:00,
1000000000429211,77012032789,mKcell,mKarTel,mKcell,D01,D02,2017-07-27T13:08:37+06:00,
1000000000429212,77011029882,mAltel,mKcell,mKcell,,D07,2017-07-27T13:10:55+06:00,
1000000000429213,77772687405,mMTS,mKarTel,mKarTel,,D77,2017-07-27T13:11:55+06:00,
1000000000429215,77001858501,mKcell,mAltel,mAltel,,D02,2017-07-27T13:12:17+06:00,
1000000000429216,77711609000,mKcell,mMTS,mKarTel,D77,D02,2017-07-27T13:13:35+06:00,
1000000000429217,77073470198,mKcell,mMTS,mMTS,,D02,2017-07-27T13:16:44+06:00,
1000000000429219,77472031522,mKarTel,mMTS,mMTS,,D01,2017-07-27T13:18:16+06:00,
1000000000429220,77027478790,mAltel,mMTS,mKcell,D77,D07,2017-07-27T13:18:23+06:00,
1000000000429222,77783470008,mAltel,mKcell,mKcell,,D07,2017-07-27T13:21:40+06:00,
1000000000429224,77078544499,mKcell,mMTS,mMTS,,D02,2017-07-27T13:22:47+06:00,
1000000000429225,77089113554,mMTS,mKarTel,mAltel,D01,D77,2017-07-27T13:24:01+06:00,
1000000000429226,77078883697,mKarTel,mMTS,mMTS,,D01,2017-07-27T13:24:03+06:00,
1000000000429228,77754670803,mAltel,mKcell,mKcell,,D07,2017-07-27T13:24:26+06:00,
1000000000429229,77001999740,mKcell,mAltel,mAltel,,D02,2017-07-27T13:24:46+06:00,
1000000000429230,77014031982,mKcell,mMTS,mKcell,D77,D02,2017-07-27T13:25:30+06:00,
1000000000429231,77028132996,mAltel,mKcell,mKcell,,D07,2017-07-27T13:25:35+06:00,
1000000000429233,77016574214,mMTS,mKcell,mKcell,,D77,2017-07-27T13:27:21+06:00,
1000000000429234,77771609808,mKarTel,mKcell,mKarTel,D02,D01,2017-07-27T13:28:28+06:00,
1000000000429235,77756418596,mMTS,mKcell,mKcell,,D77,2017-07-27T13:28:32+06:00,
