NPId,Number,RecipientId,DonorId,RangeHolderId,OldRoute,NewRoute,PortDate,RowCount
1000000000391844,77773931553,mKcell,mKarTel,mKarTel,,D02,2017-05-29T14:00:56+06:00,31
1000000000391845,77021955278,mKarTel,mKcell,mKcell,,D01,2017-05-29T14:01:38+06:00,
1000000000391846,77770273967,mAltel,mKarTel,mKarTel,,D07,2017-05-29T14:02:07+06:00,
1000000000391848,77758618518,mKarTel,mKcell,mKcell,,D01,2017-05-29T14:02:29+06:00,
1000000000391850,77017117739,mKarTel,mKcell,mKcell,,D01,2017-05-29T14:03:06+06:00,
1000000000391852,77751895957,mKcell,mMTS,mKcell,D77,D02,2017-05-29T14:04:01+06:00,
1000000000391853,77718101919,mMTS,mKarTel,mKarTel,,D77,2017-05-29T14:04:33+06:00,
1000000000391854,77053356219,mMTS,mKarTel,mKarTel,,D77,2017-05-29T14:05:46+06:00,
1000000000391855,77076785580,mKarTel,mMTS,mMTS,,D01,2017-05-29T14:06:07+06:00,
1000000000391856,77712024921,mMTS,mAltel,mKarTel,D07,D77,2017-05-29T14:06:11+06:00,
1000000000391857,77075130580,mMTS,mKcell,mMTS,D02,D77,2017-05-29T14:09:40+06:00,
1000000000391859,77772506204,mKarTel,mKcell,mKarTel,D02,D01,2017-05-29T14:10:53+06:00,
1000000000391861,77000959293,mMTS,mAltel,mAltel,,D77,2017-05-29T14:14:51+06:00,
1000000000391862,77751219009,mKarTel,mKcell,mKcell,,D01,2017-05-29T14:15:10+06:00,
1000000000391863,77077989804,mAltel,mMTS,mMTS,,D07,2017-05-29T14:15:13+06:00,
1000000000391864,77477302008,mMTS,mKcell,mMTS,D02,D77,2017-05-29T14:16:07+06:00,
1000000000391866,77017277811,mAltel,mMTS,mKcell,D77,D07,2017-05-29T14:16:54+06:00,
1000000000391867,77071868833,mKcell,mMTS,mMTS,,D02,2017-05-29T14:17:34+06:00,
1000000000391869,77009122424,mKarTel,mAltel,mAltel,,D01,2017-05-29T14:18:56+06:00,
1000000000391871,77018531153,mMTS,mKcell,mKcell,,D77,2017-05-29T14:19:31+06:00,
1000000000391873,77475354575,mKcell,mMTS,mMTS,,D02,2017-05-29T14:20:59+06:00,
1000000000391874,77019814694,mKarTel,mKcell,mKcell,,D01,2017-05-29T14:22:03+06:00,
1000000000391875,77053058282,mMTS,mKarTel,mKarTel,,D77,2017-05-29T14:22:16+06:00,
1000000000391878,77059009626,mMTS,mKarTel,mKarTel,,D77,2017-05-29T14:23:12+06:00,
1000000000391879,77772739176,mKcell,mKarTel,mKarTel,,D02,2017-05-29T14:23:44+06:00,
1000000000391880,77762204140,mMTS,mKarTel,mKarTel,,D77,2017-05-29T14:23:42+06:00,
1000000000391881,77018204953,mKcell,mMTS,mKcell,D77,D02,2017-05-29T14:23:37+06:00,
1000000000391882,77776549292,mKcell,mKarTel,mKarTel,D01,D02,2017-05-29T14:25:30+06:00,
1000000000391883,77087155148,mMTS,mAltel,mAltel,,D77,2017-05-29T14:25:55+06:00,
1000000000391885,77085377967,mKarTel,mAltel,mAltel,,D01,2017-05-29T14:27:38+06:00,
1000000000391886,77001491991,mKcell,mAltel,mAltel,,D02,2017-05-29T14:29:36+06:00,
