NPId,Number,RecipientId,DonorId,RangeHolderId,OldRoute,NewRoute,PortDate,RowCount
1000000000191708,77758277049,mKcell,mAltel,mKcell,D07,D02,2016-06-11T12:30:27+06:00,19
1000000000191710,77787399233,mKcell,mMTS,mKcell,D77,D02,2016-06-11T12:35:28+06:00,
1000000000191711,77026619811,mKcell,mAltel,mKcell,D07,D02,2016-06-11T12:35:27+06:00,
1000000000191712,77776009595,mMTS,mKarTel,mKarTel,,D77,2016-06-11T12:35:52+06:00,
1000000000191713,77779386397,mMTS,mKarTel,mKarTel,,D77,2016-06-11T12:36:46+06:00,
1000000000191714,77012134092,mMTS,mKcell,mKcell,,D77,2016-06-11T12:37:31+06:00,
1000000000191715,77770654232,mMTS,mKarTel,mKarTel,,D77,2016-06-11T12:37:29+06:00,
1000000000191717,77017322065,mMTS,mKcell,mKcell,,D77,2016-06-11T12:47:44+06:00,
1000000000191718,77477404253,mKcell,mMTS,mMTS,,D02,2016-06-11T12:48:09+06:00,
1000000000191719,77779922823,mMTS,mKarTel,mKarTel,,D77,2016-06-11T12:48:01+06:00,
1000000000191721,77766071986,mMTS,mKarTel,mKarTel,,D77,2016-06-11T12:49:21+06:00,
1000000000191722,77017603799,mKarTel,mKcell,mKcell,,D01,2016-06-11T12:50:12+06:00,
1000000000191724,77072900812,mKcell,mMTS,mMTS,,D02,2016-06-11T12:52:29+06:00,
1000000000191725,77054290849,mMTS,mKarTel,mKarTel,,D77,2016-06-11T12:52:50+06:00,
1000000000191726,77076662617,mMTS,mAltel,mMTS,D07,D77,2016-06-11T12:54:51+06:00,
1000000000191727,77476665757,mMTS,mAltel,mMTS,D07,D77,2016-06-11T12:56:02+06:00,
1000000000191728,77052563916,mKarTel,mKcell,mKarTel,D02,D01,2016-06-11T12:57:07+06:00,
1000000000191730,77019600060,mKcell,mAltel,mKcell,D07,D02,2016-06-11T12:57:59+06:00,
1000000000191731,77021022077,mKcell,mAltel,mKcell,D07,D02,2016-06-11T12:57:59+06:00,
