NPId,Number,RecipientId,DonorId,RangeHolderId,OldRoute,NewRoute,PortDate,RowCount
1000000000444364,77077108097,mKcell,mMTS,mMTS,,D02,2017-08-23T14:01:41+06:00,19
1000000000444365,77762731170,mMTS,mKarTel,mKarTel,,D77,2017-08-23T14:01:57+06:00,
1000000000444368,77775816825,mKcell,mKarTel,mKarTel,,D02,2017-08-23T14:04:58+06:00,
1000000000444369,77075108097,mKcell,mMTS,mMTS,,D02,2017-08-23T14:05:37+06:00,
1000000000444371,77076184848,mKcell,mMTS,mMTS,,D02,2017-08-23T14:10:07+06:00,
1000000000444372,77003793933,mKarTel,mAltel,mAltel,,D01,2017-08-23T14:11:29+06:00,
1000000000444373,77077112123,mKarTel,mMTS,mMTS,,D01,2017-08-23T14:12:31+06:00,
1000000000444376,77475271882,mKarTel,mMTS,mMTS,,D01,2017-08-23T14:14:36+06:00,
1000000000444377,77775552226,mKcell,mKarTel,mKarTel,,D02,2017-08-23T14:16:25+06:00,
1000000000444379,77773636356,mAltel,mKarTel,mKarTel,,D07,2017-08-23T14:16:54+06:00,
1000000000444380,77077107334,mAltel,mMTS,mMTS,,D07,2017-08-23T14:17:04+06:00,
1000000000444382,77471293510,mAltel,mMTS,mMTS,,D07,2017-08-23T14:17:40+06:00,
1000000000444384,77785919448,mMTS,mKarTel,mKcell,D01,D77,2017-08-23T14:20:48+06:00,
1000000000444385,77003620123,mMTS,mKcell,mAltel,D02,D77,2017-08-23T14:22:31+06:00,
1000000000444386,77014744440,mKcell,mAltel,mKcell,D07,D02,2017-08-23T14:23:02+06:00,
1000000000444388,77002452051,mMTS,mAltel,mAltel,,D77,2017-08-23T14:24:32+06:00,
1000000000444389,77077060136,mKarTel,mMTS,mMTS,,D01,2017-08-23T14:25:36+06:00,
1000000000444391,77088879875,mMTS,mAltel,mAltel,,D77,2017-08-23T14:27:47+06:00,
1000000000444392,77017862344,mAltel,mKcell,mKcell,,D07,2017-08-23T14:28:47+06:00,
