NPId,Number,RecipientId,DonorId,RangeHolderId,OldRoute,NewRoute,PortDate,RowCount
1000000000048120,77779660996,mMTS,mKarTel,mKarTel,,D77,2016-02-14T18:02:05+06:00,9
1000000000048121,77013377470,mAltel,mKcell,mKcell,,D07,2016-02-14T18:03:35+06:00,
1000000000048123,77074000777,mAltel,mMTS,mMTS,,D07,2016-02-14T18:08:19+06:00,
1000000000048125,77073468229,mAltel,mMTS,mMTS,,D07,2016-02-14T18:11:48+06:00,
1000000000048126,77053798405,mMTS,mKarTel,mKarTel,,D77,2016-02-14T18:16:41+06:00,
1000000000048127,77077151497,mAltel,mMTS,mMTS,,D07,2016-02-14T18:17:39+06:00,
1000000000048128,77019500779,mMTS,mKcell,mKcell,,D77,2016-02-14T18:17:51+06:00,
1000000000048129,77711802260,mAltel,mKarTel,mKarTel,,D07,2016-02-14T18:19:12+06:00,
1000000000048134,77052727732,mAltel,mKarTel,mKarTel,,D07,2016-02-14T18:28:33+06:00,
