NPId,Number,RecipientId,DonorId,RangeHolderId,OldRoute,NewRoute,PortDate,RowCount
1000000000378579,77022355558,mKcell,mMTS,mKcell,D77,D02,2017-05-05T13:01:27+06:00,25
1000000000378580,77017840427,mMTS,mKcell,mKcell,,D77,2017-05-05T13:02:03+06:00,
1000000000378581,77072290662,mKcell,mMTS,mMTS,,D02,2017-05-05T13:02:21+06:00,
1000000000378582,77013537755,mKarTel,mKcell,mKcell,,D01,2017-05-05T13:02:43+06:00,
1000000000378583,77718847878,mMTS,mKarTel,mKarTel,,D77,2017-05-05T13:02:37+06:00,
1000000000378584,77071175547,mKcell,mMTS,mMTS,,D02,2017-05-05T13:02:40+06:00,
1000000000378585,77077373231,mKarTel,mMTS,mMTS,,D01,2017-05-05T13:02:59+06:00,
1000000000378587,77075365841,mAltel,mMTS,mMTS,,D07,2017-05-05T13:06:14+06:00,
1000000000378588,77755396053,mKarTel,mKcell,mKcell,,D01,2017-05-05T13:08:08+06:00,
1000000000378590,77783290109,mAltel,mKcell,mKcell,,D07,2017-05-05T13:08:54+06:00,
1000000000378591,77074922713,mAltel,mMTS,mMTS,,D07,2017-05-05T13:09:11+06:00,
1000000000378592,77761335022,mMTS,mKarTel,mKarTel,,D77,2017-05-05T13:10:19+06:00,
1000000000378593,77012229170,mKarTel,mKcell,mKcell,,D01,2017-05-05T13:16:29+06:00,
1000000000378594,77089089664,mAltel,mKarTel,mAltel,D01,D07,2017-05-05T13:14:21+06:00,
1000000000378596,77056488811,mKarTel,mMTS,mKarTel,D77,D01,2017-05-05T13:15:48+06:00,
1000000000378597,77714255475,mKcell,mMTS,mKarTel,D77,D02,2017-05-05T13:15:58+06:00,
1000000000378598,77779699947,mAltel,mKarTel,mKarTel,,D07,2017-05-05T13:17:45+06:00,
1000000000378600,77084898230,mKcell,mAltel,mAltel,,D02,2017-05-05T13:19:20+06:00,
1000000000378602,77074241540,mAltel,mMTS,mMTS,,D07,2017-05-05T13:20:10+06:00,
1000000000378603,77017409651,mMTS,mKcell,mKcell,,D77,2017-05-05T13:21:01+06:00,
1000000000378604,77055937654,mMTS,mKarTel,mKarTel,,D77,2017-05-05T13:21:19+06:00,
1000000000378606,77787888864,mKarTel,mAltel,mKcell,D07,D01,2017-05-05T13:22:23+06:00,
1000000000378607,77014934026,mMTS,mKcell,mKcell,,D77,2017-05-05T13:22:51+06:00,
1000000000378608,77003213736,mMTS,mAltel,mAltel,,D77,2017-05-05T13:23:02+06:00,
1000000000378611,77477172517,mAltel,mMTS,mMTS,,D07,2017-05-05T13:24:18+06:00,
