NPId,Number,RecipientId,DonorId,RangeHolderId,OldRoute,NewRoute,PortDate,RowCount
1000000000433830,77752489078,mKarTel,mKcell,mKcell,,D01,2017-08-02T19:07:30+06:00,13
1000000000433833,77071776633,mKcell,mMTS,mMTS,,D02,2017-08-02T19:10:27+06:00,
1000000000433834,77079717107,mKcell,mMTS,mMTS,,D02,2017-08-02T19:10:51+06:00,
1000000000433835,77015991551,mMTS,mKcell,mKcell,,D77,2017-08-02T19:13:05+06:00,
1000000000433836,77026242646,mKcell,mMTS,mKcell,D77,D02,2017-08-02T19:15:49+06:00,
1000000000433837,77474050530,mKcell,mMTS,mMTS,,D02,2017-08-02T19:16:42+06:00,
1000000000433839,77017521532,mKarTel,mKcell,mKcell,,D01,2017-08-02T19:18:24+06:00,
1000000000433840,77774742835,mMTS,mKarTel,mKarTel,,D77,2017-08-02T19:18:51+06:00,
1000000000433841,77057754203,mKarTel,mKcell,mKarTel,D02,D01,2017-08-02T19:18:49+06:00,
1000000000433842,77783420544,mKarTel,mMTS,mKcell,D77,D01,2017-08-02T19:21:42+06:00,
1000000000433843,77019040607,mMTS,mKcell,mKcell,,D77,2017-08-02T19:22:05+06:00,
1000000000433844,77473444495,mKcell,mAltel,mMTS,D07,D02,2017-08-02T19:22:32+06:00,
1000000000433846,77079717108,mKcell,mMTS,mMTS,,D02,2017-08-02T19:24:22+06:00,
