NPId,Number,RecipientId,DonorId,RangeHolderId,OldRoute,NewRoute,PortDate,RowCount
1000000000108911,77759138612,mMTS,mKcell,mKcell,,D77,2016-03-07T04:37:06+06:00,2
1000000000108912,77051890477,mMTS,mKarTel,mKarTel,,D77,2016-03-07T04:52:16+06:00,
