NPId,Number,RecipientId,DonorId,RangeHolderId,OldRoute,NewRoute,PortDate,RowCount
1000000000091781,77010297908,mKarTel,mKcell,mKcell,,D01,2016-02-18T14:54:09+06:00,72
1000000000091781,77010297910,mKarTel,mKcell,mKcell,,D01,2016-02-18T14:54:09+06:00,
1000000000091781,77017375757,mKarTel,mKcell,mKcell,,D01,2016-02-18T14:54:09+06:00,
1000000000091781,77017830888,mKarTel,mKcell,mKcell,,D01,2016-02-18T14:54:09+06:00,
1000000000091781,77018014999,mKarTel,mKcell,mKcell,,D01,2016-02-18T14:54:09+06:00,
1000000000091781,77018015999,mKarTel,mKcell,mKcell,,D01,2016-02-18T14:54:09+06:00,
1000000000091781,77018017999,mKarTel,mKcell,mKcell,,D01,2016-02-18T14:54:09+06:00,
1000000000091781,77018703999,mKarTel,mKcell,mKcell,,D01,2016-02-18T14:54:09+06:00,
1000000000091781,77018705999,mKarTel,mKcell,mKcell,,D01,2016-02-18T14:54:09+06:00,
1000000000091781,77018730888,mKarTel,mKcell,mKcell,,D01,2016-02-18T14:54:09+06:00,
1000000000091781,77019530888,mKarTel,mKcell,mKcell,,D01,2016-02-18T14:54:09+06:00,
1000000000091781,77022246753,mKarTel,mKcell,mKcell,,D01,2016-02-18T14:54:09+06:00,
1000000000091781,77022246754,mKarTel,mKcell,mKcell,,D01,2016-02-18T14:54:09+06:00,
1000000000091781,77022246755,mKarTel,mKcell,mKcell,,D01,2016-02-18T14:54:09+06:00,
1000000000091781,77022246768,mKarTel,mKcell,mKcell,,D01,2016-02-18T14:54:09+06:00,
1000000000091781,77022246781,mKarTel,mKcell,mKcell,,D01,2016-02-18T14:54:09+06:00,
1000000000091781,77022246784,mKarTel,mKcell,mKcell,,D01,2016-02-18T14:54:09+06:00,
1000000000091781,77022246785,mKarTel,mKcell,mKcell,,D01,2016-02-18T14:54:09+06:00,
1000000000091781,77022246795,mKarTel,mKcell,mKcell,,D01,2016-02-18T14:54:09+06:00,
1000000000091781,77022246798,mKarTel,mKcell,mKcell,,D01,2016-02-18T14:54:09+06:00,
1000000000091781,77022246824,mKarTel,mKcell,mKcell,,D01,2016-02-18T14:54:09+06:00,
1000000000091781,77022247823,mKarTel,mKcell,mKcell,,D01,2016-02-18T14:54:09+06:00,
1000000000091781,77022247825,mKarTel,mKcell,mKcell,,D01,2016-02-18T14:54:09+06:00,
1000000000091781,77022247853,mKarTel,mKcell,mKcell,,D01,2016-02-18T14:54:09+06:00,
1000000000091781,77022247856,mKarTel,mKcell,mKcell,,D01,2016-02-18T14:54:09+06:00,
1000000000091978,77012277403,mAltel,mKcell,mKcell,,D07,2016-02-18T14:46:55+06:00,
1000000000091985,77012556609,mAltel,mKcell,mKcell,,D07,2016-02-18T14:45:57+06:00,
1000000000091990,77022182224,mAltel,mKcell,mKcell,,D07,2016-02-18T14:43:27+06:00,
1000000000091997,77017953580,mAltel,mKcell,mKcell,,D07,2016-02-18T14:44:44+06:00,
1000000000092198,77776666459,mAltel,mKarTel,mKarTel,,D07,2016-02-18T14:30:01+06:00,
1000000000092199,77714199434,mKcell,mKarTel,mKarTel,,D02,2016-02-18T14:31:53+06:00,
1000000000092200,77019825030,mAltel,mKcell,mKcell,,D07,2016-02-18T14:32:29+06:00,
1000000000092201,77024360333,mMTS,mKcell,mKcell,,D77,2016-02-18T14:32:37+06:00,
1000000000092202,77027684930,mMTS,mKcell,mKcell,,D77,2016-02-18T14:33:15+06:00,
1000000000092203,77074004444,mKcell,mMTS,mMTS,,D02,2016-02-18T14:34:06+06:00,
1000000000092204,77763000023,mAltel,mKarTel,mKarTel,,D07,2016-02-18T14:34:10+06:00,
1000000000092205,77776888680,mMTS,mKarTel,mKarTel,,D77,2016-02-18T14:34:45+06:00,
1000000000092207,77474521370,mAltel,mMTS,mMTS,,D07,2016-02-18T14:35:15+06:00,
1000000000092210,77751459052,mAltel,mKcell,mKcell,,D07,2016-02-18T14:37:53+06:00,
1000000000092211,77014349136,mKarTel,mKcell,mKcell,,D01,2016-02-18T14:38:27+06:00,
1000000000092212,77017558899,mKarTel,mKcell,mKcell,,D01,2016-02-18T14:39:12+06:00,
1000000000092213,77784700607,mKarTel,mKcell,mKcell,,D01,2016-02-18T14:39:54+06:00,
1000000000092214,77071679924,mAltel,mMTS,mMTS,,D07,2016-02-18T14:39:29+06:00,
1000000000092215,77012517870,mAltel,mKcell,mKcell,,D07,2016-02-18T14:40:32+06:00,
1000000000092217,77715925005,mMTS,mKarTel,mKarTel,,D77,2016-02-18T14:42:00+06:00,
1000000000092219,77016637767,mMTS,mKcell,mKcell,,D77,2016-02-18T14:42:26+06:00,
1000000000092220,77077774862,mKarTel,mMTS,mMTS,,D01,2016-02-18T14:42:53+06:00,
1000000000092221,77077474718,mKcell,mMTS,mMTS,,D02,2016-02-18T14:44:06+06:00,
1000000000092223,77089040404,mMTS,mAltel,mAltel,,D77,2016-02-18T14:44:15+06:00,
1000000000092224,77018848960,mMTS,mKcell,mKcell,,D77,2016-02-18T14:44:37+06:00,
1000000000092227,77751771830,mMTS,mKcell,mKcell,,D77,2016-02-18T14:45:58+06:00,
1000000000092228,77019889226,mKarTel,mKcell,mKcell,,D01,2016-02-18T14:47:28+06:00,
1000000000092229,77012550897,mMTS,mKcell,mKcell,,D77,2016-02-18T14:47:08+06:00,
1000000000092233,77013263202,mAltel,mKcell,mKcell,,D07,2016-02-18T14:50:06+06:00,
1000000000092234,77022189546,mAltel,mKcell,mKcell,,D07,2016-02-18T14:56:20+06:00,
1000000000092235,77022182238,mAltel,mKcell,mKcell,,D07,2016-02-18T14:59:26+06:00,
1000000000092236,77018834450,mKarTel,mKcell,mKcell,,D01,2016-02-18T14:51:01+06:00,
1000000000092237,77089897812,mKarTel,mAltel,mAltel,,D01,2016-02-18T14:52:39+06:00,
1000000000092238,77086812934,mMTS,mAltel,mAltel,,D77,2016-02-18T14:51:48+06:00,
1000000000092240,77071337337,mAltel,mMTS,mMTS,,D07,2016-02-18T14:52:02+06:00,
1000000000092242,77052163515,mAltel,mKarTel,mKarTel,,D07,2016-02-18T14:53:24+06:00,
1000000000092243,77017251811,mKarTel,mKcell,mKcell,,D01,2016-02-18T14:55:24+06:00,
1000000000092244,77002777202,mMTS,mAltel,mAltel,,D77,2016-02-18T14:54:57+06:00,
1000000000092245,77780006616,mAltel,mKcell,mKcell,,D07,2016-02-18T14:55:32+06:00,
1000000000092246,77079111929,mKarTel,mMTS,mMTS,,D01,2016-02-18T14:55:51+06:00,
1000000000092247,77085676248,mKarTel,mAltel,mAltel,,D01,2016-02-18T14:56:19+06:00,
1000000000092248,77770924526,mMTS,mKarTel,mKarTel,,D77,2016-02-18T14:57:09+06:00,
1000000000092249,77018880928,mMTS,mKcell,mKcell,,D77,2016-02-18T14:57:22+06:00,
1000000000092250,77029070100,mMTS,mKcell,mKcell,,D77,2016-02-18T14:57:22+06:00,
1000000000092251,77024527158,mAltel,mKcell,mKcell,,D07,2016-02-18T14:58:13+06:00,
1000000000092252,77077119385,mKcell,mMTS,mMTS,,D02,2016-02-18T14:59:13+06:00,
1000000000092253,77085676247,mKarTel,mAltel,mAltel,,D01,2016-02-18T14:59:26+06:00,
