NPId,Number,RecipientId,DonorId,RangeHolderId,OldRoute,NewRoute,PortDate,RowCount
1000000000271972,77004411180,mKcell,mAltel,mAltel,,D02,2016-11-01T15:31:32+06:00,9
1000000000271973,77075800880,mKcell,mMTS,mMTS,,D02,2016-11-01T15:37:57+06:00,
1000000000271974,77011203813,mMTS,mKcell,mKcell,,D77,2016-11-01T15:39:05+06:00,
1000000000271976,77028881587,mKarTel,mAltel,mKcell,D07,D01,2016-11-01T15:41:02+06:00,
1000000000271978,77754035023,mKarTel,mKcell,mKcell,,D01,2016-11-01T15:43:14+06:00,
1000000000271979,77013216878,mKcell,mKarTel,mKcell,D01,D02,2016-11-01T15:45:04+06:00,
1000000000271980,77051457245,mKcell,mMTS,mKarTel,D77,D02,2016-11-01T15:45:56+06:00,
1000000000271981,77477716165,mKcell,mMTS,mMTS,D77,D02,2016-11-01T15:46:35+06:00,
1000000000271985,77059992884,mKcell,mKarTel,mKarTel,,D02,2016-11-01T15:51:20+06:00,
