NPId,Number,RecipientId,DonorId,RangeHolderId,OldRoute,NewRoute,PortDate,RowCount
1000000000200870,77012258952,mKarTel,mKcell,mKcell,,D01,2016-06-28T10:21:55+06:00,27
1000000000201070,77770059799,mMTS,mKarTel,mKarTel,,D77,2016-06-28T10:07:29+06:00,
1000000000201072,77770059895,mMTS,mKarTel,mKarTel,,D77,2016-06-28T10:12:43+06:00,
1000000000201076,77075375771,mKarTel,mMTS,mMTS,,D01,2016-06-28T10:00:35+06:00,
1000000000201078,77711044040,mMTS,mKarTel,mKarTel,,D77,2016-06-28T10:02:35+06:00,
1000000000201079,77014734652,mMTS,mKcell,mKcell,,D77,2016-06-28T10:07:31+06:00,
1000000000201080,77786633444,mKarTel,mKcell,mKcell,,D01,2016-06-28T10:07:45+06:00,
1000000000201081,77071448524,mAltel,mMTS,mMTS,,D07,2016-06-28T10:03:33+06:00,
1000000000201082,77075556513,mAltel,mKcell,mMTS,D02,D07,2016-06-28T10:07:33+06:00,
1000000000201083,77054104777,mMTS,mKarTel,mKarTel,,D77,2016-06-28T10:04:27+06:00,
1000000000201084,77025053696,mMTS,mKcell,mKcell,,D77,2016-06-28T10:08:35+06:00,
1000000000201086,77775000123,mKcell,mKarTel,mKarTel,,D02,2016-06-28T10:10:29+06:00,
1000000000201090,77775239174,mMTS,mKarTel,mKarTel,,D77,2016-06-28T10:12:37+06:00,
1000000000201092,77027550366,mMTS,mKcell,mKcell,,D77,2016-06-28T10:13:31+06:00,
1000000000201093,77000800960,mMTS,mAltel,mAltel,,D77,2016-06-28T10:13:33+06:00,
1000000000201094,77019959695,mKarTel,mAltel,mKcell,D07,D01,2016-06-28T10:14:30+06:00,
1000000000201095,77774102809,mKarTel,mMTS,mKarTel,D77,D01,2016-06-28T10:14:49+06:00,
1000000000201096,77017606944,mKarTel,mKcell,mKcell,,D01,2016-06-28T10:15:58+06:00,
1000000000201097,77013184321,mKcell,mMTS,mKcell,D77,D02,2016-06-28T10:17:22+06:00,
1000000000201098,77759131223,mAltel,mKcell,mKcell,,D07,2016-06-28T10:18:22+06:00,
1000000000201099,77071201993,mMTS,mAltel,mMTS,D07,D77,2016-06-28T10:16:45+06:00,
1000000000201100,77000800840,mMTS,mAltel,mAltel,,D77,2016-06-28T10:17:36+06:00,
1000000000201103,77081079990,mMTS,mAltel,mAltel,,D77,2016-06-28T10:19:47+06:00,
1000000000201104,77771781111,mMTS,mKarTel,mKarTel,,D77,2016-06-28T10:20:45+06:00,
1000000000201109,77059647763,mKarTel,mMTS,mKarTel,D77,D01,2016-06-28T10:23:38+06:00,
1000000000201111,77775758517,mKarTel,mMTS,mKarTel,D77,D01,2016-06-28T10:25:25+06:00,
1000000000201115,77771001059,mMTS,mAltel,mKarTel,D07,D77,2016-06-28T10:28:06+06:00,
