NPId,Number,RecipientId,DonorId,RangeHolderId,OldRoute,NewRoute,PortDate,RowCount
1000000000374228,77012187290,mKarTel,mKcell,mKcell,,D01,2017-05-01T15:47:19+06:00,120
1000000000374228,77012187298,mKarTel,mKcell,mKcell,,D01,2017-05-01T15:47:19+06:00,
1000000000374228,77012187300,mKarTel,mKcell,mKcell,,D01,2017-05-01T15:47:19+06:00,
1000000000374228,77012187303,mKarTel,mKcell,mKcell,,D01,2017-05-01T15:47:19+06:00,
1000000000374228,77012187305,mKarTel,mKcell,mKcell,,D01,2017-05-01T15:47:19+06:00,
1000000000374228,77012187306,mKarTel,mKcell,mKcell,,D01,2017-05-01T15:47:19+06:00,
1000000000374228,77012187310,mKarTel,mKcell,mKcell,,D01,2017-05-01T15:47:19+06:00,
1000000000374228,77012187315,mKarTel,mKcell,mKcell,,D01,2017-05-01T15:47:19+06:00,
1000000000374228,77012187319,mKarTel,mKcell,mKcell,,D01,2017-05-01T15:47:19+06:00,
1000000000374228,77017180255,mKarTel,mKcell,mKcell,,D01,2017-05-01T15:47:19+06:00,
1000000000374228,77017180266,mKarTel,mKcell,mKcell,,D01,2017-05-01T15:47:19+06:00,
1000000000374228,77017220217,mKarTel,mKcell,mKcell,,D01,2017-05-01T15:47:19+06:00,
1000000000374228,77017220218,mKarTel,mKcell,mKcell,,D01,2017-05-01T15:47:19+06:00,
1000000000374228,77017220252,mKarTel,mKcell,mKcell,,D01,2017-05-01T15:47:19+06:00,
1000000000374228,77017312768,mKarTel,mKcell,mKcell,,D01,2017-05-01T15:47:19+06:00,
1000000000374228,77017519770,mKarTel,mKcell,mKcell,,D01,2017-05-01T15:47:19+06:00,
1000000000374228,77017519785,mKarTel,mKcell,mKcell,,D01,2017-05-01T15:47:19+06:00,
1000000000374228,77017519788,mKarTel,mKcell,mKcell,,D01,2017-05-01T15:47:19+06:00,
1000000000374228,77017519796,mKarTel,mKcell,mKcell,,D01,2017-05-01T15:47:19+06:00,
1000000000374228,77017519807,mKarTel,mKcell,mKcell,,D01,2017-05-01T15:47:19+06:00,
1000000000374228,77017519822,mKarTel,mKcell,mKcell,,D01,2017-05-01T15:47:19+06:00,
1000000000374228,77017633795,mKarTel,mKcell,mKcell,,D01,2017-05-01T15:47:19+06:00,
1000000000374228,77017633797,mKarTel,mKcell,mKcell,,D01,2017-05-01T15:47:19+06:00,
1000000000374228,77017633853,mKarTel,mKcell,mKcell,,D01,2017-05-01T15:47:19+06:00,
1000000000374228,77019240275,mKarTel,mKcell,mKcell,,D01,2017-05-01T15:47:19+06:00,
1000000000374228,77019510371,mKarTel,mKcell,mKcell,,D01,2017-05-01T15:47:19+06:00,
1000000000374228,77019510376,mKarTel,mKcell,mKcell,,D01,2017-05-01T15:47:19+06:00,
1000000000374228,77019510381,mKarTel,mKcell,mKcell,,D01,2017-05-01T15:47:19+06:00,
1000000000374228,77019510382,mKarTel,mKcell,mKcell,,D01,2017-05-01T15:47:19+06:00,
1000000000374228,77019510389,mKarTel,mKcell,mKcell,,D01,2017-05-01T15:47:19+06:00,
1000000000374228,77019510390,mKarTel,mKcell,mKcell,,D01,2017-05-01T15:47:19+06:00,
1000000000374228,77019510391,mKarTel,mKcell,mKcell,,D01,2017-05-01T15:47:19+06:00,
1000000000374228,77019510392,mKarTel,mKcell,mKcell,,D01,2017-05-01T15:47:19+06:00,
1000000000374228,77019510398,mKarTel,mKcell,mKcell,,D01,2017-05-01T15:47:19+06:00,
1000000000374228,77019510502,mKarTel,mKcell,mKcell,,D01,2017-05-01T15:47:19+06:00,
1000000000374228,77019510506,mKarTel,mKcell,mKcell,,D01,2017-05-01T15:47:19+06:00,
1000000000374228,77019510507,mKarTel,mKcell,mKcell,,D01,2017-05-01T15:47:19+06:00,
1000000000374228,77019510521,mKarTel,mKcell,mKcell,,D01,2017-05-01T15:47:19+06:00,
1000000000374228,77019625249,mKarTel,mKcell,mKcell,,D01,2017-05-01T15:47:19+06:00,
1000000000374228,77019629245,mKarTel,mKcell,mKcell,,D01,2017-05-01T15:47:19+06:00,
1000000000374228,77019938736,mKarTel,mKcell,mKcell,,D01,2017-05-01T15:47:19+06:00,
1000000000374228,77019938751,mKarTel,mKcell,mKcell,,D01,2017-05-01T15:47:19+06:00,
1000000000374228,77019938759,mKarTel,mKcell,mKcell,,D01,2017-05-01T15:47:19+06:00,
1000000000374228,77019938762,mKarTel,mKcell,mKcell,,D01,2017-05-01T15:47:19+06:00,
1000000000374228,77019938792,mKarTel,mKcell,mKcell,,D01,2017-05-01T15:47:19+06:00,
1000000000374228,77019938832,mKarTel,mKcell,mKcell,,D01,2017-05-01T15:47:19+06:00,
1000000000374228,77019939058,mKarTel,mKcell,mKcell,,D01,2017-05-01T15:47:19+06:00,
1000000000374228,77019939526,mKarTel,mKcell,mKcell,,D01,2017-05-01T15:47:19+06:00,
1000000000374228,77022208817,mKarTel,mKcell,mKcell,,D01,2017-05-01T15:47:19+06:00,
1000000000374236,77012187296,mKarTel,mKcell,mKcell,,D01,2017-05-01T15:48:08+06:00,
1000000000374236,77017180250,mKarTel,mKcell,mKcell,,D01,2017-05-01T15:48:08+06:00,
1000000000374236,77017180257,mKarTel,mKcell,mKcell,,D01,2017-05-01T15:48:08+06:00,
1000000000374236,77017180258,mKarTel,mKcell,mKcell,,D01,2017-05-01T15:48:08+06:00,
1000000000374236,77017180259,mKarTel,mKcell,mKcell,,D01,2017-05-01T15:48:08+06:00,
1000000000374236,77017180263,mKarTel,mKcell,mKcell,,D01,2017-05-01T15:48:08+06:00,
1000000000374236,77017220225,mKarTel,mKcell,mKcell,,D01,2017-05-01T15:48:08+06:00,
1000000000374236,77017220228,mKarTel,mKcell,mKcell,,D01,2017-05-01T15:48:08+06:00,
1000000000374236,77017220238,mKarTel,mKcell,mKcell,,D01,2017-05-01T15:48:08+06:00,
1000000000374236,77017220255,mKarTel,mKcell,mKcell,,D01,2017-05-01T15:48:08+06:00,
1000000000374236,77017220270,mKarTel,mKcell,mKcell,,D01,2017-05-01T15:48:08+06:00,
1000000000374236,77017312764,mKarTel,mKcell,mKcell,,D01,2017-05-01T15:48:08+06:00,
1000000000374236,77017312766,mKarTel,mKcell,mKcell,,D01,2017-05-01T15:48:08+06:00,
1000000000374236,77017373214,mKarTel,mKcell,mKcell,,D01,2017-05-01T15:48:08+06:00,
1000000000374236,77017519750,mKarTel,mKcell,mKcell,,D01,2017-05-01T15:48:08+06:00,
1000000000374236,77017519752,mKarTel,mKcell,mKcell,,D01,2017-05-01T15:48:08+06:00,
1000000000374236,77017519753,mKarTel,mKcell,mKcell,,D01,2017-05-01T15:48:08+06:00,
1000000000374236,77017519759,mKarTel,mKcell,mKcell,,D01,2017-05-01T15:48:08+06:00,
1000000000374236,77017519763,mKarTel,mKcell,mKcell,,D01,2017-05-01T15:48:08+06:00,
1000000000374236,77017519769,mKarTel,mKcell,mKcell,,D01,2017-05-01T15:48:08+06:00,
1000000000374236,77017519773,mKarTel,mKcell,mKcell,,D01,2017-05-01T15:48:08+06:00,
1000000000374236,77017519780,mKarTel,mKcell,mKcell,,D01,2017-05-01T15:48:08+06:00,
1000000000374236,77017519782,mKarTel,mKcell,mKcell,,D01,2017-05-01T15:48:08+06:00,
1000000000374236,77017519783,mKarTel,mKcell,mKcell,,D01,2017-05-01T15:48:08+06:00,
1000000000374236,77017519802,mKarTel,mKcell,mKcell,,D01,2017-05-01T15:48:08+06:00,
1000000000374236,77017519825,mKarTel,mKcell,mKcell,,D01,2017-05-01T15:48:08+06:00,
1000000000374236,77017633850,mKarTel,mKcell,mKcell,,D01,2017-05-01T15:48:08+06:00,
1000000000374236,77019240237,mKarTel,mKcell,mKcell,,D01,2017-05-01T15:48:08+06:00,
1000000000374236,77019510369,mKarTel,mKcell,mKcell,,D01,2017-05-01T15:48:08+06:00,
1000000000374236,77019510370,mKarTel,mKcell,mKcell,,D01,2017-05-01T15:48:08+06:00,
1000000000374236,77019510378,mKarTel,mKcell,mKcell,,D01,2017-05-01T15:48:08+06:00,
1000000000374236,77019510379,mKarTel,mKcell,mKcell,,D01,2017-05-01T15:48:08+06:00,
1000000000374236,77019510386,mKarTel,mKcell,mKcell,,D01,2017-05-01T15:48:08+06:00,
1000000000374236,77019510395,mKarTel,mKcell,mKcell,,D01,2017-05-01T15:48:08+06:00,
1000000000374236,77019510397,mKarTel,mKcell,mKcell,,D01,2017-05-01T15:48:08+06:00,
1000000000374236,77019510509,mKarTel,mKcell,mKcell,,D01,2017-05-01T15:48:08+06:00,
1000000000374236,77019625079,mKarTel,mKcell,mKcell,,D01,2017-05-01T15:48:08+06:00,
1000000000374236,77019625080,mKarTel,mKcell,mKcell,,D01,2017-05-01T15:48:08+06:00,
1000000000374236,77019625089,mKarTel,mKcell,mKcell,,D01,2017-05-01T15:48:08+06:00,
1000000000374236,77019625236,mKarTel,mKcell,mKcell,,D01,2017-05-01T15:48:08+06:00,
1000000000374236,77019938672,mKarTel,mKcell,mKcell,,D01,2017-05-01T15:48:08+06:00,
1000000000374236,77019938726,mKarTel,mKcell,mKcell,,D01,2017-05-01T15:48:08+06:00,
1000000000374236,77019938739,mKarTel,mKcell,mKcell,,D01,2017-05-01T15:48:08+06:00,
1000000000374236,77019938753,mKarTel,mKcell,mKcell,,D01,2017-05-01T15:48:08+06:00,
1000000000374236,77019938769,mKarTel,mKcell,mKcell,,D01,2017-05-01T15:48:08+06:00,
1000000000374236,77019938796,mKarTel,mKcell,mKcell,,D01,2017-05-01T15:48:08+06:00,
1000000000374236,77019939508,mKarTel,mKcell,mKcell,,D01,2017-05-01T15:48:08+06:00,
1000000000374236,77019939528,mKarTel,mKcell,mKcell,,D01,2017-05-01T15:48:08+06:00,
1000000000374236,77019939529,mKarTel,mKcell,mKcell,,D01,2017-05-01T15:48:08+06:00,
1000000000374288,77019938791,mKarTel,mKcell,mKcell,,D01,2017-05-01T15:47:01+06:00,
1000000000375709,77015216380,mAltel,mKcell,mKcell,,D07,2017-05-01T15:32:14+06:00,
1000000000375718,77753417824,mKarTel,mKcell,mKcell,,D01,2017-05-01T15:43:57+06:00,
1000000000375720,77027144769,mMTS,mKcell,mKcell,,D77,2017-05-01T15:45:43+06:00,
1000000000375721,77717761367,mAltel,mKarTel,mKarTel,,D07,2017-05-01T15:37:56+06:00,
1000000000375722,77011111051,mKarTel,mKcell,mKcell,D02,D01,2017-05-01T15:42:40+06:00,
1000000000375723,77012106455,mKarTel,mKcell,mKcell,,D01,2017-05-01T15:42:47+06:00,
1000000000375724,77757198019,mMTS,mKcell,mKcell,,D77,2017-05-01T15:46:10+06:00,
1000000000375725,77776267124,mKarTel,mMTS,mKarTel,D77,D01,2017-05-01T15:43:11+06:00,
1000000000375726,77019998508,mKcell,mAltel,mKcell,D07,D02,2017-05-01T15:46:23+06:00,
1000000000375727,77776290044,mMTS,mKarTel,mKarTel,,D77,2017-05-01T15:46:40+06:00,
1000000000375729,77017878717,mAltel,mKcell,mKcell,,D07,2017-05-01T15:53:48+06:00,
1000000000375730,77779502222,mMTS,mKarTel,mKarTel,,D77,2017-05-01T15:50:40+06:00,
1000000000375731,77017344285,mKarTel,mKcell,mKcell,,D01,2017-05-01T15:53:58+06:00,
1000000000375734,77073317395,mKarTel,mMTS,mMTS,,D01,2017-05-01T15:54:02+06:00,
1000000000375735,77773557676,mMTS,mKarTel,mKarTel,,D77,2017-05-01T15:54:42+06:00,
1000000000375736,77051139027,mMTS,mKarTel,mKarTel,,D77,2017-05-01T15:56:02+06:00,
1000000000375738,77079108656,mAltel,mMTS,mMTS,,D07,2017-05-01T15:56:26+06:00,
1000000000375739,77766979797,mMTS,mKarTel,mKarTel,,D77,2017-05-01T15:57:02+06:00,
1000000000375740,77474659416,mAltel,mMTS,mMTS,,D07,2017-05-01T15:57:06+06:00,
1000000000375741,77778220386,mMTS,mKarTel,mKarTel,,D77,2017-05-01T15:57:58+06:00,
1000000000375742,77076026395,mKarTel,mMTS,mMTS,,D01,2017-05-01T15:58:15+06:00,
