NPId,Number,RecipientId,DonorId,RangeHolderId,OldRoute,NewRoute,PortDate,RowCount
1000000000316276,77089290670,mKcell,mAltel,mAltel,,D02,2017-01-25T13:36:12+06:00,23
1000000000316277,77010222888,mMTS,mKcell,mKcell,,D77,2017-01-25T13:36:57+06:00,
1000000000316278,77011517875,mKcell,mMTS,mKcell,D77,D02,2017-01-25T13:37:35+06:00,
1000000000316279,77015555779,mKcell,mAltel,mKcell,D07,D02,2017-01-25T13:37:56+06:00,
1000000000316281,77012229144,mMTS,mKcell,mKcell,,D77,2017-01-25T13:39:09+06:00,
1000000000316282,77018003839,mMTS,mKarTel,mKcell,D01,D77,2017-01-25T13:40:57+06:00,
1000000000316285,77055322899,mMTS,mKarTel,mKarTel,,D77,2017-01-25T13:42:58+06:00,
1000000000316287,77055363677,mMTS,mKarTel,mKarTel,,D77,2017-01-25T13:43:57+06:00,
1000000000316291,77474692066,mKarTel,mMTS,mMTS,,D01,2017-01-25T13:45:48+06:00,
1000000000316292,77766894888,mAltel,mKarTel,mKarTel,,D07,2017-01-25T13:46:07+06:00,
1000000000316295,77751373555,mMTS,mKcell,mKcell,,D77,2017-01-25T13:48:15+06:00,
1000000000316296,77770810505,mMTS,mKarTel,mKarTel,,D77,2017-01-25T13:47:59+06:00,
1000000000316297,77003300848,mKarTel,mMTS,mAltel,D77,D01,2017-01-25T13:48:01+06:00,
1000000000316299,77017845400,mKcell,mAltel,mKcell,D07,D02,2017-01-25T13:48:34+06:00,
1000000000316300,77015362971,mMTS,mKcell,mKcell,,D77,2017-01-25T13:49:26+06:00,
1000000000316302,77751025431,mKcell,mMTS,mKcell,D77,D02,2017-01-25T13:50:08+06:00,
1000000000316303,77021451502,mKarTel,mKcell,mKcell,,D01,2017-01-25T13:50:38+06:00,
1000000000316304,77053320022,mKcell,mKarTel,mKarTel,D01,D02,2017-01-25T13:51:33+06:00,
1000000000316305,77754941177,mMTS,mKcell,mKcell,,D77,2017-01-25T13:52:06+06:00,
1000000000316307,77078800849,mAltel,mMTS,mMTS,,D07,2017-01-25T13:52:39+06:00,
1000000000316309,77772360974,mKarTel,mMTS,mKarTel,D77,D01,2017-01-25T13:53:35+06:00,
1000000000316310,77714227766,mAltel,mKarTel,mKarTel,,D07,2017-01-25T13:55:43+06:00,
1000000000316312,77055304444,mMTS,mKarTel,mKarTel,,D77,2017-01-25T13:56:46+06:00,
