NPId,Number,RecipientId,DonorId,RangeHolderId,OldRoute,NewRoute,PortDate,RowCount
1000000000401404,77017280480,mAltel,mKcell,mKcell,,D07,2017-06-11T15:33:33+06:00,6
1000000000401405,77770542056,mMTS,mKarTel,mKarTel,,D77,2017-06-11T15:36:52+06:00,
1000000000401409,77071179002,mAltel,mMTS,mMTS,,D07,2017-06-11T15:43:37+06:00,
1000000000401411,77013677652,mMTS,mKcell,mKcell,,D77,2017-06-11T15:45:57+06:00,
1000000000401414,77777160434,mMTS,mKarTel,mKarTel,,D77,2017-06-11T15:50:36+06:00,
1000000000401415,77059883801,mMTS,mKarTel,mKarTel,,D77,2017-06-11T15:53:40+06:00,
