NPId,Number,RecipientId,DonorId,RangeHolderId,OldRoute,NewRoute,PortDate,RowCount
1000000000144369,77011103315,mKarTel,mKcell,mKcell,,D01,2016-04-06T16:48:05+06:00,71
1000000000144369,77011109961,mKarTel,mKcell,mKcell,,D01,2016-04-06T16:48:05+06:00,
1000000000144369,77011109971,mKarTel,mKcell,mKcell,,D01,2016-04-06T16:48:05+06:00,
1000000000144369,77012100944,mKarTel,mKcell,mKcell,,D01,2016-04-06T16:48:05+06:00,
1000000000144369,77012104470,mKarTel,mKcell,mKcell,,D01,2016-04-06T16:48:05+06:00,
1000000000144369,77012106968,mKarTel,mKcell,mKcell,,D01,2016-04-06T16:48:05+06:00,
1000000000144369,77012108805,mKarTel,mKcell,mKcell,,D01,2016-04-06T16:48:05+06:00,
1000000000144369,77012109905,mKarTel,mKcell,mKcell,,D01,2016-04-06T16:48:05+06:00,
1000000000144369,77017075981,mKarTel,mKcell,mKcell,,D01,2016-04-06T16:48:05+06:00,
1000000000144369,77017075984,mKarTel,mKcell,mKcell,,D01,2016-04-06T16:48:05+06:00,
1000000000144369,77017076049,mKarTel,mKcell,mKcell,,D01,2016-04-06T16:48:05+06:00,
1000000000144369,77017077543,mKarTel,mKcell,mKcell,,D01,2016-04-06T16:48:05+06:00,
1000000000144369,77019589113,mKarTel,mKcell,mKcell,,D01,2016-04-06T16:48:05+06:00,
1000000000144369,77019813221,mKarTel,mKcell,mKcell,,D01,2016-04-06T16:48:05+06:00,
1000000000144369,77019818363,mKarTel,mKcell,mKcell,,D01,2016-04-06T16:48:05+06:00,
1000000000144369,77019826443,mKarTel,mKcell,mKcell,,D01,2016-04-06T16:48:05+06:00,
1000000000144369,77019829566,mKarTel,mKcell,mKcell,,D01,2016-04-06T16:48:05+06:00,
1000000000144369,77019995506,mKarTel,mKcell,mKcell,,D01,2016-04-06T16:48:05+06:00,
1000000000144369,77019995507,mKarTel,mKcell,mKcell,,D01,2016-04-06T16:48:05+06:00,
1000000000144369,77019999524,mKarTel,mKcell,mKcell,,D01,2016-04-06T16:48:05+06:00,
1000000000144369,77019999526,mKarTel,mKcell,mKcell,,D01,2016-04-06T16:48:05+06:00,
1000000000144489,77717807009,mMTS,mKarTel,mKarTel,,D77,2016-04-06T16:30:15+06:00,
1000000000144494,77717016866,mMTS,mKarTel,mKarTel,,D77,2016-04-06T16:31:21+06:00,
1000000000144517,77717017209,mMTS,mKarTel,mKarTel,,D77,2016-04-06T16:38:53+06:00,
1000000000144529,77013067146,mMTS,mKcell,mKcell,,D77,2016-04-06T16:30:29+06:00,
1000000000144532,77007997447,mMTS,mAltel,mAltel,,D77,2016-04-06T16:30:29+06:00,
1000000000144534,77077032215,mKcell,mMTS,mMTS,,D02,2016-04-06T16:31:34+06:00,
1000000000144535,77019100643,mMTS,mKcell,mKcell,,D77,2016-04-06T16:31:47+06:00,
1000000000144536,77055000350,mMTS,mKarTel,mKarTel,,D77,2016-04-06T16:33:44+06:00,
1000000000144537,77717807010,mMTS,mKarTel,mKarTel,,D77,2016-04-06T16:49:23+06:00,
1000000000144538,77025520993,mMTS,mKcell,mKcell,,D77,2016-04-06T16:32:27+06:00,
1000000000144539,77754052278,mMTS,mKcell,mKcell,,D77,2016-04-06T16:33:51+06:00,
1000000000144541,77089845076,mKcell,mAltel,mAltel,,D02,2016-04-06T16:35:18+06:00,
1000000000144542,77024155561,mKcell,mAltel,mKcell,D07,D02,2016-04-06T16:35:26+06:00,
1000000000144543,77089001909,mMTS,mAltel,mAltel,,D77,2016-04-06T16:37:07+06:00,
1000000000144544,77717807011,mMTS,mKarTel,mKarTel,,D77,2016-04-06T16:54:20+06:00,
1000000000144546,77023671120,mMTS,mKcell,mKcell,,D77,2016-04-06T16:38:33+06:00,
1000000000144547,77717807013,mMTS,mKarTel,mKarTel,,D77,2016-04-06T16:55:05+06:00,
1000000000144549,77717807017,mMTS,mKarTel,mKarTel,,D77,2016-04-06T16:55:43+06:00,
1000000000144550,77778665669,mMTS,mKarTel,mKarTel,,D77,2016-04-06T16:41:47+06:00,
1000000000144551,77712888675,mMTS,mKarTel,mKarTel,,D77,2016-04-06T16:42:58+06:00,
1000000000144552,77717807018,mMTS,mKarTel,mKarTel,,D77,2016-04-06T16:58:09+06:00,
1000000000144553,77089119871,mMTS,mAltel,mAltel,,D77,2016-04-06T16:42:03+06:00,
1000000000144554,77079899505,mKarTel,mMTS,mMTS,,D01,2016-04-06T16:42:57+06:00,
1000000000144557,77083155537,mMTS,mAltel,mAltel,,D77,2016-04-06T16:43:24+06:00,
1000000000144558,77015264732,mKcell,mKarTel,mKcell,D01,D02,2016-04-06T16:46:01+06:00,
1000000000144560,77071800939,mKarTel,mMTS,mMTS,,D01,2016-04-06T16:45:18+06:00,
1000000000144562,77089253662,mMTS,mAltel,mAltel,,D77,2016-04-06T16:47:06+06:00,
1000000000144563,77025086132,mKarTel,mKcell,mKcell,,D01,2016-04-06T16:48:06+06:00,
1000000000144564,77015239939,mMTS,mKcell,mKcell,,D77,2016-04-06T16:48:02+06:00,
1000000000144565,77751447063,mMTS,mKcell,mKcell,,D77,2016-04-06T16:48:02+06:00,
1000000000144566,77001522780,mMTS,mAltel,mAltel,,D77,2016-04-06T16:47:49+06:00,
1000000000144567,77075800939,mKarTel,mMTS,mMTS,,D01,2016-04-06T16:48:45+06:00,
1000000000144568,77783667105,mAltel,mKcell,mKcell,,D07,2016-04-06T16:49:11+06:00,
1000000000144569,77751171017,mMTS,mKcell,mKcell,,D77,2016-04-06T16:49:11+06:00,
1000000000144571,77078993820,mKcell,mMTS,mMTS,,D02,2016-04-06T16:51:19+06:00,
1000000000144572,77018231000,mMTS,mKcell,mKcell,,D77,2016-04-06T16:51:21+06:00,
1000000000144573,77000900007,mKarTel,mAltel,mAltel,,D01,2016-04-06T16:51:45+06:00,
1000000000144575,77774139043,mMTS,mKarTel,mKarTel,,D77,2016-04-06T16:53:41+06:00,
1000000000144579,77089665389,mMTS,mAltel,mAltel,,D77,2016-04-06T16:53:37+06:00,
1000000000144580,77019999847,mMTS,mKcell,mKcell,,D77,2016-04-06T16:54:20+06:00,
1000000000144581,77783366647,mMTS,mKcell,mKcell,,D77,2016-04-06T16:54:34+06:00,
1000000000144582,77087694737,mMTS,mAltel,mAltel,,D77,2016-04-06T16:54:12+06:00,
1000000000144584,77014599799,mMTS,mKcell,mKcell,,D77,2016-04-06T16:55:14+06:00,
1000000000144589,77007777388,mKarTel,mAltel,mAltel,,D01,2016-04-06T16:56:18+06:00,
1000000000144592,77023284460,mMTS,mKcell,mKcell,,D77,2016-04-06T16:56:10+06:00,
1000000000144594,77775889907,mAltel,mKarTel,mKarTel,,D07,2016-04-06T16:57:39+06:00,
1000000000144596,77007777399,mKarTel,mAltel,mAltel,,D01,2016-04-06T16:57:34+06:00,
1000000000144600,77011811772,mKarTel,mKcell,mKcell,,D01,2016-04-06T16:58:47+06:00,
1000000000144602,77004888898,mMTS,mAltel,mAltel,,D77,2016-04-06T16:58:50+06:00,
1000000000144603,77072328321,mMTS,mAltel,mMTS,D07,D77,2016-04-06T16:59:19+06:00,
