NPId,Number,RecipientId,DonorId,RangeHolderId,OldRoute,NewRoute,PortDate,RowCount
1000000000190403,77774149601,mKcell,mKarTel,mKarTel,,D02,2016-06-09T12:02:29+06:00,31
1000000000190410,77014253202,mMTS,mKcell,mKcell,,D77,2016-06-09T12:04:17+06:00,
1000000000190411,77058222566,mMTS,mKarTel,mKarTel,,D77,2016-06-09T12:00:02+06:00,
1000000000190412,77082501215,mMTS,mAltel,mAltel,,D77,2016-06-09T12:01:08+06:00,
1000000000190415,77755123438,mMTS,mKcell,mKcell,,D77,2016-06-09T12:04:15+06:00,
1000000000190416,77768990095,mKcell,mKarTel,mKarTel,,D02,2016-06-09T12:05:29+06:00,
1000000000190417,77025990005,mAltel,mKcell,mKcell,,D07,2016-06-09T12:05:24+06:00,
1000000000190418,77026888232,mMTS,mAltel,mKcell,D07,D77,2016-06-09T12:03:57+06:00,
1000000000190419,77073522333,mMTS,mKarTel,mMTS,D01,D77,2016-06-09T12:04:54+06:00,
1000000000190421,77078255242,mKcell,mMTS,mMTS,,D02,2016-06-09T12:05:31+06:00,
1000000000190422,77010708484,mMTS,mKcell,mKcell,,D77,2016-06-09T12:05:22+06:00,
1000000000190424,77073773777,mKarTel,mMTS,mMTS,,D01,2016-06-09T12:07:20+06:00,
1000000000190425,77004446050,mMTS,mAltel,mAltel,,D77,2016-06-09T12:07:07+06:00,
1000000000190426,77009393593,mMTS,mAltel,mAltel,,D77,2016-06-09T12:07:07+06:00,
1000000000190428,77029183061,mMTS,mKcell,mKcell,,D77,2016-06-09T12:10:45+06:00,
1000000000190429,77773634799,mMTS,mKarTel,mKarTel,,D77,2016-06-09T12:10:55+06:00,
1000000000190430,77004446070,mMTS,mAltel,mAltel,,D77,2016-06-09T12:12:07+06:00,
1000000000190431,77013009696,mKarTel,mKcell,mKcell,,D01,2016-06-09T12:14:18+06:00,
1000000000190432,77055000048,mMTS,mKarTel,mKarTel,,D77,2016-06-09T12:16:05+06:00,
1000000000190433,77019770181,mKcell,mMTS,mKcell,D77,D02,2016-06-09T12:16:19+06:00,
1000000000190434,77015346950,mMTS,mKcell,mKcell,,D77,2016-06-09T12:17:23+06:00,
1000000000190435,77012372373,mKcell,mKarTel,mKcell,D01,D02,2016-06-09T12:18:58+06:00,
1000000000190438,77077271888,mKcell,mMTS,mMTS,,D02,2016-06-09T12:19:14+06:00,
1000000000190439,77019862011,mKarTel,mKcell,mKcell,,D01,2016-06-09T12:19:50+06:00,
1000000000190441,77017888008,mKarTel,mKcell,mKcell,,D01,2016-06-09T12:21:52+06:00,
1000000000190442,77002223888,mKarTel,mAltel,mAltel,,D01,2016-06-09T12:22:19+06:00,
1000000000190443,77004994810,mKcell,mAltel,mAltel,,D02,2016-06-09T12:25:50+06:00,
1000000000190444,77789576078,mKcell,mAltel,mKcell,D07,D02,2016-06-09T12:26:52+06:00,
1000000000190445,77087513585,mMTS,mAltel,mAltel,,D77,2016-06-09T12:27:35+06:00,
1000000000190446,77766060292,mKcell,mKarTel,mKarTel,,D02,2016-06-09T12:29:05+06:00,
1000000000190447,77012271519,mMTS,mKcell,mKcell,,D77,2016-06-09T12:29:15+06:00,
