NPId,Number,RecipientId,DonorId,RangeHolderId,OldRoute,NewRoute,PortDate,RowCount
1000000000202792,77081510881,mKcell,mAltel,mAltel,,D02,2016-06-29T19:31:05+06:00,10
1000000000202799,77055263295,mKcell,mKarTel,mKarTel,,D02,2016-06-29T19:45:02+06:00,
1000000000202804,77059939390,mMTS,mKarTel,mKarTel,,D77,2016-06-29T19:32:34+06:00,
1000000000202806,77016774021,mKcell,mAltel,mKcell,D07,D02,2016-06-29T19:58:20+06:00,
1000000000202807,77026800048,mKcell,mAltel,mKcell,D07,D02,2016-06-29T19:58:20+06:00,
1000000000202808,77474533415,mKarTel,mMTS,mMTS,,D01,2016-06-29T19:33:06+06:00,
1000000000202810,77051004750,mKarTel,mMTS,mKarTel,D77,D01,2016-06-29T19:38:11+06:00,
1000000000202812,77752998960,mMTS,mKcell,mKcell,,D77,2016-06-29T19:58:46+06:00,
1000000000202813,77783049069,mMTS,mKcell,mKcell,,D77,2016-06-29T19:58:45+06:00,
1000000000202816,77718575707,mMTS,mKarTel,mKarTel,,D77,2016-06-29T19:52:32+06:00,
