NPId,Number,RecipientId,DonorId,RangeHolderId,OldRoute,NewRoute,PortDate,RowCount
1000000000352777,77084048588,mMTS,mAltel,mAltel,,D77,2017-03-26T19:37:48+06:00,5
1000000000352780,77005604060,mKcell,mAltel,mAltel,,D02,2017-03-26T19:42:22+06:00,
1000000000352782,77003408040,mKcell,mAltel,mAltel,,D02,2017-03-26T19:43:54+06:00,
1000000000352783,77005209020,mKcell,mAltel,mAltel,,D02,2017-03-26T19:47:03+06:00,
1000000000352785,77058194729,mMTS,mKarTel,mKarTel,,D77,2017-03-26T19:58:06+06:00,
