NPId,Number,RecipientId,DonorId,RangeHolderId,OldRoute,NewRoute,PortDate,RowCount
1000000000349015,77007774340,mKcell,mAltel,mAltel,,D02,2017-03-17T20:30:35+06:00,15
1000000000349016,77007773601,mKcell,mAltel,mAltel,,D02,2017-03-17T20:31:05+06:00,
1000000000349017,77771132582,mMTS,mKarTel,mKarTel,,D77,2017-03-17T20:33:07+06:00,
1000000000349018,77007771801,mKcell,mAltel,mAltel,,D02,2017-03-17T20:34:16+06:00,
1000000000349019,77007773401,mKcell,mAltel,mAltel,,D02,2017-03-17T20:34:17+06:00,
1000000000349020,77007774240,mKcell,mAltel,mAltel,,D02,2017-03-17T20:37:49+06:00,
1000000000349021,77007773901,mKcell,mAltel,mAltel,,D02,2017-03-17T20:39:26+06:00,
1000000000349022,77007773130,mKcell,mAltel,mAltel,,D02,2017-03-17T20:44:14+06:00,
1000000000349023,77007774701,mKcell,mAltel,mAltel,,D02,2017-03-17T20:46:13+06:00,
1000000000349024,77007772801,mKcell,mAltel,mAltel,,D02,2017-03-17T20:47:11+06:00,
1000000000349026,77027770423,mMTS,mKcell,mKcell,,D77,2017-03-17T20:47:51+06:00,
1000000000349027,77772796747,mMTS,mKarTel,mKarTel,,D77,2017-03-17T20:48:08+06:00,
1000000000349028,77077478787,mAltel,mKarTel,mMTS,D01,D07,2017-03-17T20:53:28+06:00,
1000000000349029,77007773801,mKcell,mAltel,mAltel,,D02,2017-03-17T20:54:12+06:00,
1000000000349030,77771215602,mMTS,mKarTel,mKarTel,,D77,2017-03-17T20:58:11+06:00,
