NPId,Number,RecipientId,DonorId,RangeHolderId,OldRoute,NewRoute,PortDate,RowCount
1000000000046640,77082711975,mKcell,mAltel,mAltel,,D02,2016-02-12T18:30:06+06:00,26
1000000000046641,77025776877,mMTS,mKcell,mKcell,,D77,2016-02-12T18:31:14+06:00,
1000000000046642,77025311975,mAltel,mKcell,mKcell,,D07,2016-02-12T18:32:12+06:00,
1000000000046643,77015775262,mAltel,mKcell,mKcell,,D07,2016-02-12T18:32:49+06:00,
1000000000046644,77078881979,mKcell,mMTS,mMTS,,D02,2016-02-12T18:33:05+06:00,
1000000000046645,77774193075,mAltel,mKarTel,mKarTel,,D07,2016-02-12T18:33:49+06:00,
1000000000046646,77023416652,mKarTel,mKcell,mKcell,,D01,2016-02-12T18:35:26+06:00,
1000000000046647,77771833968,mAltel,mKarTel,mKarTel,,D07,2016-02-12T18:35:13+06:00,
1000000000046648,77085298744,mKcell,mAltel,mAltel,,D02,2016-02-12T18:35:40+06:00,
1000000000046649,77714198643,mKcell,mKarTel,mKarTel,,D02,2016-02-12T18:37:00+06:00,
1000000000046651,77021305157,mMTS,mKcell,mKcell,,D77,2016-02-12T18:37:02+06:00,
1000000000046653,77054192647,mMTS,mKarTel,mKarTel,,D77,2016-02-12T18:38:02+06:00,
1000000000046654,77752236005,mKarTel,mKcell,mKcell,,D01,2016-02-12T18:39:34+06:00,
1000000000046655,77015565544,mAltel,mKcell,mKcell,,D07,2016-02-12T18:39:53+06:00,
1000000000046656,77055413099,mMTS,mKarTel,mKarTel,,D77,2016-02-12T18:41:12+06:00,
1000000000046657,77073392904,mAltel,mMTS,mMTS,,D07,2016-02-12T18:44:59+06:00,
1000000000046658,77017593227,mAltel,mKcell,mKcell,,D07,2016-02-12T18:45:25+06:00,
1000000000046659,77057751557,mAltel,mKarTel,mKarTel,,D07,2016-02-12T18:48:18+06:00,
1000000000046661,77078105247,mAltel,mMTS,mMTS,,D07,2016-02-12T18:49:57+06:00,
1000000000046662,77015624452,mMTS,mKcell,mKcell,,D77,2016-02-12T18:50:31+06:00,
1000000000046664,77017775531,mMTS,mKcell,mKcell,,D77,2016-02-12T18:51:45+06:00,
1000000000046667,77772743335,mMTS,mKarTel,mKarTel,,D77,2016-02-12T18:53:12+06:00,
1000000000046668,77019828592,mAltel,mKcell,mKcell,,D07,2016-02-12T18:53:58+06:00,
1000000000046669,77017403791,mKarTel,mKcell,mKcell,,D01,2016-02-12T18:54:29+06:00,
1000000000046670,77024399606,mMTS,mKcell,mKcell,,D77,2016-02-12T18:56:31+06:00,
1000000000046671,77022500924,mKcell,mAltel,mKcell,D07,D02,2016-02-12T18:56:50+06:00,
