NPId,Number,RecipientId,DonorId,RangeHolderId,OldRoute,NewRoute,PortDate,RowCount
1000000000445130,77010346286,mKarTel,mKcell,mKcell,,D01,2017-08-24T17:21:37+06:00,123
1000000000445130,77015522885,mKarTel,mKcell,mKcell,,D01,2017-08-24T17:21:37+06:00,
1000000000445130,77017315052,mKarTel,mKcell,mKcell,,D01,2017-08-24T17:21:37+06:00,
1000000000445130,77017315058,mKarTel,mKcell,mKcell,,D01,2017-08-24T17:21:37+06:00,
1000000000445130,77019209968,mKarTel,mKcell,mKcell,,D01,2017-08-24T17:21:37+06:00,
1000000000445130,77019209969,mKarTel,mKcell,mKcell,,D01,2017-08-24T17:21:37+06:00,
1000000000445130,77019209971,mKarTel,mKcell,mKcell,,D01,2017-08-24T17:21:37+06:00,
1000000000445130,77019209974,mKarTel,mKcell,mKcell,,D01,2017-08-24T17:21:37+06:00,
1000000000445130,77019209975,mKarTel,mKcell,mKcell,,D01,2017-08-24T17:21:37+06:00,
1000000000445130,77019209979,mKarTel,mKcell,mKcell,,D01,2017-08-24T17:21:37+06:00,
1000000000445130,77019209986,mKarTel,mKcell,mKcell,,D01,2017-08-24T17:21:37+06:00,
1000000000445130,77019370211,mKarTel,mKcell,mKcell,,D01,2017-08-24T17:21:37+06:00,
1000000000445130,77019505630,mKarTel,mKcell,mKcell,,D01,2017-08-24T17:21:37+06:00,
1000000000445130,77019505645,mKarTel,mKcell,mKcell,,D01,2017-08-24T17:21:37+06:00,
1000000000445130,77019505793,mKarTel,mKcell,mKcell,,D01,2017-08-24T17:21:37+06:00,
1000000000445130,77019505794,mKarTel,mKcell,mKcell,,D01,2017-08-24T17:21:37+06:00,
1000000000445130,77019505796,mKarTel,mKcell,mKcell,,D01,2017-08-24T17:21:37+06:00,
1000000000445130,77019505798,mKarTel,mKcell,mKcell,,D01,2017-08-24T17:21:37+06:00,
1000000000445130,77019505911,mKarTel,mKcell,mKcell,,D01,2017-08-24T17:21:37+06:00,
1000000000445130,77019509941,mKarTel,mKcell,mKcell,,D01,2017-08-24T17:21:37+06:00,
1000000000445130,77019509942,mKarTel,mKcell,mKcell,,D01,2017-08-24T17:21:37+06:00,
1000000000445130,77019509943,mKarTel,mKcell,mKcell,,D01,2017-08-24T17:21:37+06:00,
1000000000445130,77019509946,mKarTel,mKcell,mKcell,,D01,2017-08-24T17:21:37+06:00,
1000000000445130,77019509947,mKarTel,mKcell,mKcell,,D01,2017-08-24T17:21:37+06:00,
1000000000445130,77019509949,mKarTel,mKcell,mKcell,,D01,2017-08-24T17:21:37+06:00,
1000000000445130,77019509958,mKarTel,mKcell,mKcell,,D01,2017-08-24T17:21:37+06:00,
1000000000445130,77019509959,mKarTel,mKcell,mKcell,,D01,2017-08-24T17:21:37+06:00,
1000000000445130,77019509961,mKarTel,mKcell,mKcell,,D01,2017-08-24T17:21:37+06:00,
1000000000445130,77019509962,mKarTel,mKcell,mKcell,,D01,2017-08-24T17:21:37+06:00,
1000000000445130,77019509963,mKarTel,mKcell,mKcell,,D01,2017-08-24T17:21:37+06:00,
1000000000445130,77019509965,mKarTel,mKcell,mKcell,,D01,2017-08-24T17:21:37+06:00,
1000000000445130,77019509967,mKarTel,mKcell,mKcell,,D01,2017-08-24T17:21:37+06:00,
1000000000445130,77019575034,mKarTel,mKcell,mKcell,,D01,2017-08-24T17:21:37+06:00,
1000000000445130,77019575035,mKarTel,mKcell,mKcell,,D01,2017-08-24T17:21:37+06:00,
1000000000445130,77019575041,mKarTel,mKcell,mKcell,,D01,2017-08-24T17:21:37+06:00,
1000000000445130,77019575432,mKarTel,mKcell,mKcell,,D01,2017-08-24T17:21:37+06:00,
1000000000445130,77019575436,mKarTel,mKcell,mKcell,,D01,2017-08-24T17:21:37+06:00,
1000000000445130,77019575437,mKarTel,mKcell,mKcell,,D01,2017-08-24T17:21:37+06:00,
1000000000445130,77019575438,mKarTel,mKcell,mKcell,,D01,2017-08-24T17:21:37+06:00,
1000000000445130,77019575439,mKarTel,mKcell,mKcell,,D01,2017-08-24T17:21:37+06:00,
1000000000445130,77019575443,mKarTel,mKcell,mKcell,,D01,2017-08-24T17:21:37+06:00,
1000000000445130,77019575446,mKarTel,mKcell,mKcell,,D01,2017-08-24T17:21:37+06:00,
1000000000445130,77019651927,mKarTel,mKcell,mKcell,,D01,2017-08-24T17:21:37+06:00,
1000000000445130,77019651928,mKarTel,mKcell,mKcell,,D01,2017-08-24T17:21:37+06:00,
1000000000445130,77019651933,mKarTel,mKcell,mKcell,,D01,2017-08-24T17:21:37+06:00,
1000000000445130,77019920179,mKarTel,mKcell,mKcell,,D01,2017-08-24T17:21:37+06:00,
1000000000445130,77019920181,mKarTel,mKcell,mKcell,,D01,2017-08-24T17:21:37+06:00,
1000000000445130,77019920185,mKarTel,mKcell,mKcell,,D01,2017-08-24T17:21:37+06:00,
1000000000445130,77019920186,mKarTel,mKcell,mKcell,,D01,2017-08-24T17:21:37+06:00,
1000000000445130,77019920187,mKarTel,mKcell,mKcell,,D01,2017-08-24T17:21:37+06:00,
1000000000445138,77010346287,mKarTel,mKcell,mKcell,,D01,2017-08-24T17:21:46+06:00,
1000000000445138,77010346289,mKarTel,mKcell,mKcell,,D01,2017-08-24T17:21:46+06:00,
1000000000445138,77015038549,mKarTel,mKcell,mKcell,,D01,2017-08-24T17:21:46+06:00,
1000000000445138,77017314992,mKarTel,mKcell,mKcell,,D01,2017-08-24T17:21:46+06:00,
1000000000445138,77017314996,mKarTel,mKcell,mKcell,,D01,2017-08-24T17:21:46+06:00,
1000000000445138,77017315003,mKarTel,mKcell,mKcell,,D01,2017-08-24T17:21:46+06:00,
1000000000445138,77019209051,mKarTel,mKcell,mKcell,,D01,2017-08-24T17:21:46+06:00,
1000000000445138,77019209053,mKarTel,mKcell,mKcell,,D01,2017-08-24T17:21:46+06:00,
1000000000445138,77019209054,mKarTel,mKcell,mKcell,,D01,2017-08-24T17:21:46+06:00,
1000000000445138,77019209741,mKarTel,mKcell,mKcell,,D01,2017-08-24T17:21:46+06:00,
1000000000445138,77019209742,mKarTel,mKcell,mKcell,,D01,2017-08-24T17:21:46+06:00,
1000000000445138,77019209970,mKarTel,mKcell,mKcell,,D01,2017-08-24T17:21:46+06:00,
1000000000445138,77019209972,mKarTel,mKcell,mKcell,,D01,2017-08-24T17:21:46+06:00,
1000000000445138,77019209973,mKarTel,mKcell,mKcell,,D01,2017-08-24T17:21:46+06:00,
1000000000445138,77019209976,mKarTel,mKcell,mKcell,,D01,2017-08-24T17:21:46+06:00,
1000000000445138,77019209980,mKarTel,mKcell,mKcell,,D01,2017-08-24T17:21:46+06:00,
1000000000445138,77019209982,mKarTel,mKcell,mKcell,,D01,2017-08-24T17:21:46+06:00,
1000000000445138,77019209983,mKarTel,mKcell,mKcell,,D01,2017-08-24T17:21:46+06:00,
1000000000445138,77019209984,mKarTel,mKcell,mKcell,,D01,2017-08-24T17:21:46+06:00,
1000000000445138,77019209985,mKarTel,mKcell,mKcell,,D01,2017-08-24T17:21:46+06:00,
1000000000445138,77019209987,mKarTel,mKcell,mKcell,,D01,2017-08-24T17:21:46+06:00,
1000000000445138,77019370226,mKarTel,mKcell,mKcell,,D01,2017-08-24T17:21:46+06:00,
1000000000445138,77019370227,mKarTel,mKcell,mKcell,,D01,2017-08-24T17:21:46+06:00,
1000000000445138,77019505658,mKarTel,mKcell,mKcell,,D01,2017-08-24T17:21:46+06:00,
1000000000445138,77019509951,mKarTel,mKcell,mKcell,,D01,2017-08-24T17:21:46+06:00,
1000000000445138,77019509952,mKarTel,mKcell,mKcell,,D01,2017-08-24T17:21:46+06:00,
1000000000445138,77019509953,mKarTel,mKcell,mKcell,,D01,2017-08-24T17:21:46+06:00,
1000000000445138,77019509954,mKarTel,mKcell,mKcell,,D01,2017-08-24T17:21:46+06:00,
1000000000445138,77019509956,mKarTel,mKcell,mKcell,,D01,2017-08-24T17:21:46+06:00,
1000000000445138,77019509957,mKarTel,mKcell,mKcell,,D01,2017-08-24T17:21:46+06:00,
1000000000445138,77019509960,mKarTel,mKcell,mKcell,,D01,2017-08-24T17:21:46+06:00,
1000000000445138,77019509964,mKarTel,mKcell,mKcell,,D01,2017-08-24T17:21:46+06:00,
1000000000445138,77019575032,mKarTel,mKcell,mKcell,,D01,2017-08-24T17:21:46+06:00,
1000000000445138,77019575189,mKarTel,mKcell,mKcell,,D01,2017-08-24T17:21:46+06:00,
1000000000445138,77019575810,mKarTel,mKcell,mKcell,,D01,2017-08-24T17:21:46+06:00,
1000000000445138,77019651926,mKarTel,mKcell,mKcell,,D01,2017-08-24T17:21:46+06:00,
1000000000445138,77019651929,mKarTel,mKcell,mKcell,,D01,2017-08-24T17:21:46+06:00,
1000000000445138,77019651930,mKarTel,mKcell,mKcell,,D01,2017-08-24T17:21:46+06:00,
1000000000445138,77019651931,mKarTel,mKcell,mKcell,,D01,2017-08-24T17:21:46+06:00,
1000000000445138,77019651932,mKarTel,mKcell,mKcell,,D01,2017-08-24T17:21:46+06:00,
1000000000445138,77019651934,mKarTel,mKcell,mKcell,,D01,2017-08-24T17:21:46+06:00,
1000000000445138,77019651935,mKarTel,mKcell,mKcell,,D01,2017-08-24T17:21:46+06:00,
1000000000445138,77019920182,mKarTel,mKcell,mKcell,,D01,2017-08-24T17:21:46+06:00,
1000000000445138,77019920183,mKarTel,mKcell,mKcell,,D01,2017-08-24T17:21:46+06:00,
1000000000445138,77019920188,mKarTel,mKcell,mKcell,,D01,2017-08-24T17:21:46+06:00,
1000000000445138,77019920189,mKarTel,mKcell,mKcell,,D01,2017-08-24T17:21:46+06:00,
1000000000445152,77019416757,mMTS,mKcell,mKcell,,D77,2017-08-24T17:00:35+06:00,
1000000000445153,77477007337,mAltel,mMTS,mMTS,,D07,2017-08-24T17:05:30+06:00,
1000000000445155,77051202121,mKcell,mKarTel,mKarTel,,D02,2017-08-24T17:07:55+06:00,
1000000000445156,77773301477,mKcell,mKarTel,mKarTel,,D02,2017-08-24T17:08:26+06:00,
1000000000445159,77029999837,mKarTel,mKcell,mKcell,,D01,2017-08-24T17:08:33+06:00,
1000000000445160,77014698961,mKcell,mKarTel,mKcell,D01,D02,2017-08-24T17:08:54+06:00,
1000000000445162,77472063287,mKcell,mMTS,mMTS,,D02,2017-08-24T17:09:15+06:00,
1000000000445163,77774033981,mKarTel,mAltel,mKarTel,D07,D01,2017-08-24T17:09:25+06:00,
1000000000445164,77472225130,mAltel,mMTS,mMTS,,D07,2017-08-24T17:09:28+06:00,
1000000000445166,77766006061,mMTS,mKarTel,mKarTel,,D77,2017-08-24T17:11:21+06:00,
1000000000445167,77710110707,mMTS,mKarTel,mKarTel,,D77,2017-08-24T17:12:08+06:00,
1000000000445168,77756896423,mKarTel,mKcell,mKcell,,D01,2017-08-24T17:12:57+06:00,
1000000000445169,77012336105,mAltel,mKcell,mKcell,,D07,2017-08-24T17:13:05+06:00,
1000000000445172,77753735407,mKcell,mMTS,mKcell,D77,D02,2017-08-24T17:16:52+06:00,
1000000000445173,77783202428,mMTS,mKcell,mKcell,,D77,2017-08-24T17:16:43+06:00,
1000000000445174,77029999201,mKarTel,mKcell,mKcell,,D01,2017-08-24T17:17:25+06:00,
1000000000445176,77019087559,mAltel,mKcell,mKcell,,D07,2017-08-24T17:18:20+06:00,
1000000000445177,77772372931,mMTS,mKarTel,mKarTel,,D77,2017-08-24T17:19:34+06:00,
1000000000445179,77025851555,mKarTel,mKcell,mKcell,,D01,2017-08-24T17:20:35+06:00,
1000000000445180,77072005321,mKarTel,mMTS,mMTS,,D01,2017-08-24T17:21:46+06:00,
1000000000445181,77029000984,mAltel,mMTS,mKcell,D77,D07,2017-08-24T17:22:46+06:00,
1000000000445182,77029999832,mKarTel,mKcell,mKcell,,D01,2017-08-24T17:23:19+06:00,
1000000000445183,77760517979,mKcell,mKarTel,mKarTel,,D02,2017-08-24T17:24:24+06:00,
1000000000445185,77712776627,mKcell,mKarTel,mKarTel,,D02,2017-08-24T17:25:56+06:00,
1000000000445186,77018714491,mMTS,mKcell,mKcell,,D77,2017-08-24T17:26:10+06:00,
1000000000445188,77014611318,mAltel,mMTS,mKcell,D77,D07,2017-08-24T17:29:04+06:00,
1000000000445189,77028735566,mAltel,mKcell,mKcell,,D07,2017-08-24T17:29:16+06:00,
