NPId,Number,RecipientId,DonorId,RangeHolderId,OldRoute,NewRoute,PortDate,RowCount
1000000000399706,77072395880,mKarTel,mMTS,mMTS,D77,D01,2017-06-08T12:30:20+06:00,20
1000000000399707,77012213885,mAltel,mKcell,mKcell,,D07,2017-06-08T12:30:30+06:00,
1000000000399708,77075149525,mKcell,mMTS,mMTS,,D02,2017-06-08T12:31:29+06:00,
1000000000399709,77009764344,mMTS,mKarTel,mAltel,D01,D77,2017-06-08T12:32:26+06:00,
1000000000399710,77766044448,mMTS,mKarTel,mKarTel,,D77,2017-06-08T12:33:09+06:00,
1000000000399713,77054552613,mMTS,mKarTel,mKarTel,,D77,2017-06-08T12:37:15+06:00,
1000000000399714,77055039565,mKarTel,mMTS,mKarTel,D77,D01,2017-06-08T12:39:43+06:00,
1000000000399715,77773372059,mKcell,mKarTel,mKarTel,,D02,2017-06-08T12:41:11+06:00,
1000000000399716,77054017738,mKarTel,mMTS,mKarTel,D77,D01,2017-06-08T12:42:50+06:00,
1000000000399717,77015320472,mMTS,mKcell,mKcell,,D77,2017-06-08T12:43:56+06:00,
1000000000399718,77751818818,mKarTel,mMTS,mKcell,D77,D01,2017-06-08T12:44:26+06:00,
1000000000399719,77017377077,mAltel,mKcell,mKcell,,D07,2017-06-08T12:45:13+06:00,
1000000000399720,77070777888,mAltel,mMTS,mMTS,,D07,2017-06-08T12:48:14+06:00,
1000000000399722,77028751000,mMTS,mKcell,mKcell,,D77,2017-06-08T12:48:40+06:00,
1000000000399723,77025456758,mAltel,mKcell,mKcell,,D07,2017-06-08T12:51:12+06:00,
1000000000399724,77774777407,mKarTel,mKcell,mKarTel,D02,D01,2017-06-08T12:53:26+06:00,
1000000000399725,77028352862,mKcell,mKarTel,mKcell,D01,D02,2017-06-08T12:53:55+06:00,
1000000000399726,77054449906,mMTS,mAltel,mKarTel,D07,D77,2017-06-08T12:55:08+06:00,
1000000000399727,77018008660,mAltel,mKcell,mKcell,,D07,2017-06-08T12:55:30+06:00,
1000000000399728,77472201577,mKarTel,mMTS,mMTS,,D01,2017-06-08T12:56:25+06:00,
