NPId,Number,RecipientId,DonorId,RangeHolderId,OldRoute,NewRoute,PortDate,RowCount
1000000000200029,77022366662,mAltel,mKcell,mKcell,,D07,2016-06-26T10:33:05+06:00,6
1000000000200031,77015251909,mMTS,mKcell,mKcell,,D77,2016-06-26T10:36:45+06:00,
1000000000200032,77089254336,mMTS,mAltel,mAltel,,D77,2016-06-26T10:38:59+06:00,
1000000000200033,77773731840,mKarTel,mMTS,mKarTel,D77,D01,2016-06-26T10:49:16+06:00,
1000000000200035,77026492297,mMTS,mKcell,mKcell,,D77,2016-06-26T10:55:48+06:00,
1000000000200036,77057055552,mKcell,mMTS,mKarTel,D77,D02,2016-06-26T10:56:53+06:00,
