NPId,Number,RecipientId,DonorId,RangeHolderId,OldRoute,NewRoute,PortDate,RowCount
1000000000286574,77774606867,mMTS,mKarTel,mKarTel,,D77,2016-11-30T09:32:57+06:00,7
1000000000286577,77021531971,mKarTel,mKcell,mKcell,,D01,2016-11-30T09:44:23+06:00,
1000000000286578,77770182046,mAltel,mKarTel,mKarTel,,D07,2016-11-30T09:50:58+06:00,
1000000000286580,77752484057,mMTS,mKcell,mKcell,,D77,2016-11-30T09:52:44+06:00,
1000000000286581,77774619596,mMTS,mKarTel,mKarTel,,D77,2016-11-30T09:52:54+06:00,
1000000000286583,77017727575,mMTS,mKcell,mKcell,,D77,2016-11-30T09:56:59+06:00,
1000000000286584,77752484058,mMTS,mKcell,mKcell,,D77,2016-11-30T09:57:39+06:00,
