NPId,Number,RecipientId,DonorId,RangeHolderId,OldRoute,NewRoute,PortDate,RowCount
1000000000430792,77051002050,mMTS,mKarTel,mKarTel,D01,D77,2017-07-30T15:06:50+06:00,9
1000000000430793,77010527111,mKarTel,mKcell,mKcell,,D01,2017-07-30T15:07:19+06:00,
1000000000430794,77015033863,mKarTel,mKcell,mKcell,,D01,2017-07-30T15:08:21+06:00,
1000000000430795,77019240234,mKarTel,mKcell,mKcell,,D01,2017-07-30T15:09:06+06:00,
1000000000430796,77021562625,mMTS,mKcell,mKcell,,D77,2017-07-30T15:16:18+06:00,
1000000000430797,77018779779,mMTS,mKcell,mKcell,,D77,2017-07-30T15:17:41+06:00,
1000000000430798,77017703952,mKarTel,mKcell,mKcell,,D01,2017-07-30T15:20:19+06:00,
1000000000430800,77052805808,mKarTel,mMTS,mKarTel,D77,D01,2017-07-30T15:24:22+06:00,
1000000000430802,77754474897,mMTS,mKcell,mKcell,,D77,2017-07-30T15:26:36+06:00,
