NPId,Number,RecipientId,DonorId,RangeHolderId,OldRoute,NewRoute,PortDate,RowCount
1000000000200627,77713008947,mKcell,mKarTel,mKarTel,,D02,2016-06-27T14:32:45+06:00,35
1000000000200627,77713008948,mKcell,mKarTel,mKarTel,,D02,2016-06-27T14:32:45+06:00,
1000000000200627,77715018764,mKcell,mKarTel,mKarTel,,D02,2016-06-27T14:32:45+06:00,
1000000000200627,77715067496,mKcell,mKarTel,mKarTel,,D02,2016-06-27T14:32:45+06:00,
1000000000200627,77715067497,mKcell,mKarTel,mKarTel,,D02,2016-06-27T14:32:45+06:00,
1000000000200627,77770179322,mKcell,mKarTel,mKarTel,,D02,2016-06-27T14:32:45+06:00,
1000000000200627,77774700067,mKcell,mKarTel,mKarTel,,D02,2016-06-27T14:32:45+06:00,
1000000000200627,77777225851,mKcell,mKarTel,mKarTel,,D02,2016-06-27T14:32:45+06:00,
1000000000200627,77778364999,mKcell,mKarTel,mKarTel,,D02,2016-06-27T14:32:45+06:00,
1000000000200656,77077009000,mKcell,mMTS,mMTS,,D02,2016-06-27T14:32:14+06:00,
1000000000200657,77787770969,mKcell,mMTS,mKcell,D77,D02,2016-06-27T14:32:13+06:00,
1000000000200660,77077229197,mKcell,mMTS,mMTS,,D02,2016-06-27T14:32:14+06:00,
1000000000200662,77015322016,mMTS,mKcell,mKcell,,D77,2016-06-27T14:33:07+06:00,
1000000000200663,77075222228,mKarTel,mMTS,mMTS,,D01,2016-06-27T14:32:59+06:00,
1000000000200665,77767020022,mMTS,mKarTel,mKarTel,,D77,2016-06-27T14:34:43+06:00,
1000000000200666,77470242321,mKcell,mMTS,mMTS,,D02,2016-06-27T14:37:16+06:00,
1000000000200667,77003250832,mMTS,mAltel,mAltel,,D77,2016-06-27T14:37:12+06:00,
1000000000200668,77004594200,mMTS,mAltel,mAltel,,D77,2016-06-27T14:37:12+06:00,
1000000000200669,77767373733,mKcell,mKarTel,mKarTel,,D02,2016-06-27T14:38:18+06:00,
1000000000200670,77089553522,mMTS,mAltel,mAltel,,D77,2016-06-27T14:38:13+06:00,
1000000000200672,77021552000,mKcell,mMTS,mKcell,D77,D02,2016-06-27T14:44:07+06:00,
1000000000200673,77054000531,mAltel,mKarTel,mKarTel,,D07,2016-06-27T14:42:47+06:00,
1000000000200674,77773245474,mKcell,mKarTel,mKarTel,,D02,2016-06-27T14:46:14+06:00,
1000000000200675,77013283024,mMTS,mKcell,mKcell,,D77,2016-06-27T14:48:36+06:00,
1000000000200676,77789292419,mKarTel,mKcell,mKcell,,D01,2016-06-27T14:52:33+06:00,
1000000000200678,77029172601,mKcell,mMTS,mKcell,D77,D02,2016-06-27T14:52:13+06:00,
1000000000200679,77057085600,mMTS,mKarTel,mKarTel,,D77,2016-06-27T14:52:28+06:00,
1000000000200680,77017054680,mKarTel,mKcell,mKcell,,D01,2016-06-27T14:54:06+06:00,
1000000000200682,77019931212,mMTS,mKcell,mKcell,,D77,2016-06-27T14:54:07+06:00,
1000000000200683,77024706323,mKcell,mAltel,mKcell,D07,D02,2016-06-27T14:54:42+06:00,
1000000000200685,77029172602,mKcell,mMTS,mKcell,D77,D02,2016-06-27T14:55:25+06:00,
1000000000200688,77783575252,mMTS,mKcell,mKcell,,D77,2016-06-27T14:57:07+06:00,
1000000000200690,77009662608,mMTS,mAltel,mAltel,,D77,2016-06-27T14:57:11+06:00,
1000000000200691,77772554777,mKcell,mKarTel,mKarTel,,D02,2016-06-27T14:58:41+06:00,
1000000000200692,77772404659,mKarTel,mAltel,mKarTel,D07,D01,2016-06-27T14:58:33+06:00,
