NPId,Number,RecipientId,DonorId,RangeHolderId,OldRoute,NewRoute,PortDate,RowCount
1000000000224381,77475023384,mKcell,mMTS,mMTS,,D02,2016-08-12T13:45:51+06:00,26
1000000000224543,77014118692,mKcell,mMTS,mKcell,D77,D02,2016-08-12T13:45:06+06:00,
1000000000227996,77054387777,mMTS,mKarTel,mKarTel,,D77,2016-08-12T13:33:05+06:00,
1000000000227997,77013297793,mMTS,mKcell,mKcell,,D77,2016-08-12T13:32:58+06:00,
1000000000227998,77057198394,mMTS,mKarTel,mKarTel,,D77,2016-08-12T13:33:31+06:00,
1000000000227999,77009992266,mAltel,mKcell,mAltel,D02,D07,2016-08-12T13:33:36+06:00,
1000000000228000,77025921727,mMTS,mKcell,mKcell,,D77,2016-08-12T13:35:19+06:00,
1000000000228002,77025800790,mKarTel,mKcell,mKcell,,D01,2016-08-12T13:38:30+06:00,
1000000000228003,77759194444,mKarTel,mKcell,mKcell,,D01,2016-08-12T13:38:32+06:00,
1000000000228004,77479289509,mKarTel,mMTS,mMTS,,D01,2016-08-12T13:42:00+06:00,
1000000000228005,77022826705,mMTS,mKcell,mKcell,,D77,2016-08-12T13:42:11+06:00,
1000000000228006,77024638438,mKcell,mMTS,mKcell,D77,D02,2016-08-12T13:43:30+06:00,
1000000000228007,77760010601,mMTS,mKarTel,mKarTel,,D77,2016-08-12T13:45:26+06:00,
1000000000228008,77754666637,mMTS,mKcell,mKcell,,D77,2016-08-12T13:45:51+06:00,
1000000000228009,77788163666,mMTS,mKcell,mKcell,,D77,2016-08-12T13:46:21+06:00,
1000000000228011,77009608505,mMTS,mAltel,mAltel,,D77,2016-08-12T13:47:19+06:00,
1000000000228012,77017472030,mMTS,mKcell,mKcell,,D77,2016-08-12T13:49:30+06:00,
1000000000228013,77770448877,mMTS,mKarTel,mKarTel,,D77,2016-08-12T13:51:19+06:00,
1000000000228014,77018690963,mKarTel,mKcell,mKcell,,D01,2016-08-12T13:54:11+06:00,
1000000000228015,77718523531,mMTS,mKarTel,mKarTel,,D77,2016-08-12T13:52:44+06:00,
1000000000228016,77787333001,mMTS,mAltel,mKcell,D07,D77,2016-08-12T13:52:19+06:00,
1000000000228017,77760099998,mMTS,mKarTel,mKarTel,,D77,2016-08-12T13:53:18+06:00,
1000000000228018,77017215298,mKarTel,mMTS,mKcell,D77,D01,2016-08-12T13:53:22+06:00,
1000000000228019,77017225532,mMTS,mAltel,mKcell,D07,D77,2016-08-12T13:55:13+06:00,
1000000000228021,77007110305,mMTS,mAltel,mAltel,,D77,2016-08-12T13:55:57+06:00,
1000000000228022,77711919103,mMTS,mKarTel,mKarTel,,D77,2016-08-12T13:56:32+06:00,
