NPId,Number,RecipientId,DonorId,RangeHolderId,OldRoute,NewRoute,PortDate,RowCount
1000000000305072,77055982112,mAltel,mKarTel,mKarTel,,D07,2017-01-04T12:30:18+06:00,29
1000000000305073,77079000321,mKcell,mMTS,mMTS,,D02,2017-01-04T12:30:06+06:00,
1000000000305074,77015237545,mKarTel,mKcell,mKcell,,D01,2017-01-04T12:30:44+06:00,
1000000000305075,77077310034,mKcell,mMTS,mMTS,,D02,2017-01-04T12:31:02+06:00,
1000000000305076,77015181586,mMTS,mKcell,mKcell,,D77,2017-01-04T12:30:59+06:00,
1000000000305078,77001011200,mKcell,mAltel,mAltel,,D02,2017-01-04T12:34:45+06:00,
1000000000305079,77774197250,mKarTel,mKcell,mKarTel,D02,D01,2017-01-04T12:37:04+06:00,
1000000000305080,77018977874,mKcell,mKarTel,mKcell,D01,D02,2017-01-04T12:38:05+06:00,
1000000000305082,77024793007,mAltel,mKcell,mKcell,,D07,2017-01-04T12:38:53+06:00,
1000000000305083,77056515552,mMTS,mKarTel,mKarTel,,D77,2017-01-04T12:39:35+06:00,
1000000000305084,77024793008,mAltel,mKcell,mKcell,,D07,2017-01-04T12:40:52+06:00,
1000000000305085,77015133133,mKarTel,mKcell,mKcell,,D01,2017-01-04T12:42:04+06:00,
1000000000305086,77054743979,mMTS,mKarTel,mKarTel,,D77,2017-01-04T12:43:11+06:00,
1000000000305088,77026999225,mMTS,mKcell,mKcell,,D77,2017-01-04T12:47:45+06:00,
1000000000305089,77074442900,mKcell,mKarTel,mMTS,D01,D02,2017-01-04T12:45:57+06:00,
1000000000305090,77777773530,mKarTel,mAltel,mKarTel,D07,D01,2017-01-04T12:45:41+06:00,
1000000000305091,77028883571,mKarTel,mKcell,mKcell,,D01,2017-01-04T12:45:56+06:00,
1000000000305093,77753448699,mAltel,mKcell,mKcell,,D07,2017-01-04T12:48:19+06:00,
1000000000305094,77000809191,mKarTel,mAltel,mAltel,,D01,2017-01-04T12:49:07+06:00,
1000000000305095,77012921508,mKarTel,mKcell,mKcell,,D01,2017-01-04T12:49:38+06:00,
1000000000305098,77005607007,mAltel,mKcell,mAltel,D02,D07,2017-01-04T12:52:00+06:00,
1000000000305099,77052430088,mKcell,mKarTel,mKarTel,,D02,2017-01-04T12:54:52+06:00,
1000000000305100,77073313462,mKcell,mMTS,mMTS,,D02,2017-01-04T12:54:51+06:00,
1000000000305101,77018939962,mMTS,mKcell,mKcell,,D77,2017-01-04T12:55:56+06:00,
1000000000305102,77754009198,mKcell,mKarTel,mKcell,D01,D02,2017-01-04T12:56:34+06:00,
1000000000305103,77015717209,mAltel,mKcell,mKcell,,D07,2017-01-04T12:56:49+06:00,
1000000000305104,77479921106,mKarTel,mMTS,mMTS,,D01,2017-01-04T12:57:39+06:00,
1000000000305105,77762522202,mMTS,mKarTel,mKarTel,,D77,2017-01-04T12:58:11+06:00,
1000000000305106,77075050147,mKarTel,mMTS,mMTS,D77,D01,2017-01-04T12:58:09+06:00,
