NPId,Number,RecipientId,DonorId,RangeHolderId,OldRoute,NewRoute,PortDate,RowCount
1000000000215561,77015555272,mKcell,mAltel,mKcell,D07,D02,2016-07-26T13:08:24+06:00,19
1000000000217332,77015167446,mKcell,mKarTel,mKcell,D01,D02,2016-07-26T13:03:31+06:00,
1000000000217337,77015240227,mKcell,mKarTel,mKcell,D01,D02,2016-07-26T13:00:05+06:00,
1000000000217341,77015240325,mKcell,mKarTel,mKcell,D01,D02,2016-07-26T13:02:07+06:00,
1000000000217354,77776855222,mKcell,mKarTel,mKarTel,,D02,2016-07-26T13:02:54+06:00,
1000000000217360,77029126282,mMTS,mKcell,mKcell,,D77,2016-07-26T13:05:01+06:00,
1000000000217363,77786360571,mKarTel,mKcell,mKcell,,D01,2016-07-26T13:07:40+06:00,
1000000000217365,77076541162,mKarTel,mMTS,mMTS,,D01,2016-07-26T13:08:45+06:00,
1000000000217366,77017844666,mAltel,mKcell,mKcell,,D07,2016-07-26T13:17:07+06:00,
1000000000217367,77005559911,mKcell,mAltel,mAltel,,D02,2016-07-26T13:14:51+06:00,
1000000000217368,77786817171,mMTS,mKcell,mKcell,,D77,2016-07-26T13:16:48+06:00,
1000000000217369,77017773740,mKcell,mKarTel,mKcell,D01,D02,2016-07-26T13:22:15+06:00,
1000000000217370,77027666728,mKcell,mMTS,mKcell,D77,D02,2016-07-26T13:23:26+06:00,
1000000000217372,77089158597,mMTS,mAltel,mAltel,,D77,2016-07-26T13:16:50+06:00,
1000000000217375,77080494379,mKarTel,mAltel,mAltel,,D01,2016-07-26T13:19:18+06:00,
1000000000217377,77056464444,mMTS,mKcell,mKarTel,D02,D77,2016-07-26T13:20:26+06:00,
1000000000217378,77751711433,mMTS,mKcell,mKcell,,D77,2016-07-26T13:22:28+06:00,
1000000000217380,77477958601,mKarTel,mMTS,mMTS,,D01,2016-07-26T13:23:32+06:00,
1000000000217381,77071517679,mAltel,mMTS,mMTS,,D07,2016-07-26T13:23:21+06:00,
