NPId,Number,RecipientId,DonorId,RangeHolderId,OldRoute,NewRoute,PortDate,RowCount
1000000000178751,77786255335,mMTS,mKcell,mKcell,,D77,2016-05-21T19:37:27+06:00,4
1000000000178752,77086346060,mMTS,mAltel,mAltel,,D77,2016-05-21T19:37:05+06:00,
1000000000178753,77051950974,mAltel,mKarTel,mKarTel,,D07,2016-05-21T19:39:01+06:00,
1000000000178754,77772483855,mAltel,mKarTel,mKarTel,,D07,2016-05-21T19:41:05+06:00,
