NPId,Number,RecipientId,DonorId,RangeHolderId,OldRoute,NewRoute,PortDate,RowCount
1000000000387494,77018421440,mAltel,mKcell,mKcell,,D07,2017-05-23T12:01:38+06:00,15
1000000000387496,77029323753,mKarTel,mKcell,mKcell,,D01,2017-05-23T12:02:48+06:00,
1000000000387497,77752705483,mMTS,mKcell,mKcell,,D77,2017-05-23T12:04:58+06:00,
1000000000387498,77754119423,mMTS,mKcell,mKcell,,D77,2017-05-23T12:06:36+06:00,
1000000000387499,77773491665,mKcell,mKarTel,mKarTel,,D02,2017-05-23T12:07:05+06:00,
1000000000387503,77016462621,mAltel,mKcell,mKcell,,D07,2017-05-23T12:11:51+06:00,
1000000000387504,77752542374,mKarTel,mMTS,mKcell,D77,D01,2017-05-23T12:14:50+06:00,
1000000000387505,77014411529,mKcell,mAltel,mKcell,D07,D02,2017-05-23T12:18:02+06:00,
1000000000387506,77714487787,mAltel,mMTS,mKarTel,D77,D07,2017-05-23T12:18:21+06:00,
1000000000387507,77786782891,mKarTel,mKcell,mKcell,,D01,2017-05-23T12:18:54+06:00,
1000000000387509,77052060660,mAltel,mKarTel,mKarTel,,D07,2017-05-23T12:22:41+06:00,
1000000000387510,77079000045,mKcell,mMTS,mMTS,,D02,2017-05-23T12:22:34+06:00,
1000000000387511,77024969140,mKcell,mMTS,mKcell,D77,D02,2017-05-23T12:24:04+06:00,
1000000000387514,77474105688,mKcell,mMTS,mMTS,,D02,2017-05-23T12:25:20+06:00,
1000000000387515,77019988446,mAltel,mKcell,mKcell,,D07,2017-05-23T12:25:24+06:00,
