NPId,Number,RecipientId,DonorId,RangeHolderId,OldRoute,NewRoute,PortDate,RowCount
1000000000434761,77762069977,mMTS,mKarTel,mKarTel,D01,D77,2017-08-04T13:31:58+06:00,14
1000000000434764,77786047754,mMTS,mKcell,mKcell,,D77,2017-08-04T13:43:50+06:00,
1000000000434765,77751666696,mMTS,mKcell,mKcell,D02,D77,2017-08-04T13:45:54+06:00,
1000000000434766,77075907051,mKarTel,mMTS,mMTS,,D01,2017-08-04T13:46:32+06:00,
1000000000434767,77074636428,mKarTel,mMTS,mMTS,,D01,2017-08-04T13:46:31+06:00,
1000000000434768,77015669997,mKcell,mKarTel,mKcell,D01,D02,2017-08-04T13:47:09+06:00,
1000000000434769,77026342636,mKcell,mMTS,mKcell,D77,D02,2017-08-04T13:46:53+06:00,
1000000000434770,77053356219,mKarTel,mMTS,mKarTel,D77,D01,2017-08-04T13:51:15+06:00,
1000000000434772,77011213668,mMTS,mKcell,mKcell,,D77,2017-08-04T13:53:38+06:00,
1000000000434773,77014976901,mKcell,mMTS,mKcell,D77,D02,2017-08-04T13:54:05+06:00,
1000000000434774,77783187454,mMTS,mKcell,mKcell,,D77,2017-08-04T13:54:15+06:00,
1000000000434775,77751460557,mKarTel,mMTS,mKcell,D77,D01,2017-08-04T13:55:11+06:00,
1000000000434776,77788863388,mKarTel,mKcell,mKcell,,D01,2017-08-04T13:55:31+06:00,
1000000000434777,77766960901,mMTS,mKarTel,mKarTel,,D77,2017-08-04T13:59:33+06:00,
