NPId,Number,RecipientId,DonorId,RangeHolderId,OldRoute,NewRoute,PortDate,RowCount
1000000000349204,77051607510,mKcell,mKarTel,mKarTel,,D02,2017-03-31T15:10:18+06:00,48
1000000000356535,77477018585,mKcell,mMTS,mMTS,,D02,2017-03-31T15:00:43+06:00,
1000000000356536,77788688866,mKcell,mMTS,mKcell,D77,D02,2017-03-31T15:01:01+06:00,
1000000000356537,77019151005,mAltel,mKcell,mKcell,,D07,2017-03-31T15:01:24+06:00,
1000000000356540,77758437115,mAltel,mKcell,mKcell,,D07,2017-03-31T15:01:57+06:00,
1000000000356541,77027210088,mKcell,mAltel,mKcell,D07,D02,2017-03-31T15:02:42+06:00,
1000000000356542,77784660480,mMTS,mKcell,mKcell,,D77,2017-03-31T15:02:52+06:00,
1000000000356543,77016790272,mAltel,mKcell,mKcell,,D07,2017-03-31T15:03:12+06:00,
1000000000356544,77072272270,mMTS,mAltel,mMTS,D07,D77,2017-03-31T15:03:43+06:00,
1000000000356545,77078264175,mKarTel,mMTS,mMTS,,D01,2017-03-31T15:04:27+06:00,
1000000000356546,77073360847,mMTS,mAltel,mMTS,D07,D77,2017-03-31T15:04:39+06:00,
1000000000356547,77759994224,mKarTel,mKcell,mKcell,,D01,2017-03-31T15:05:08+06:00,
1000000000356548,77029219487,mMTS,mKcell,mKcell,,D77,2017-03-31T15:05:06+06:00,
1000000000356549,77773240950,mMTS,mKarTel,mKarTel,,D77,2017-03-31T15:05:26+06:00,
1000000000356550,77774899305,mMTS,mKarTel,mKarTel,,D77,2017-03-31T15:07:02+06:00,
1000000000356551,77072153855,mKarTel,mMTS,mMTS,D77,D01,2017-03-31T15:07:13+06:00,
1000000000356553,77717924250,mMTS,mKarTel,mKarTel,,D77,2017-03-31T15:08:44+06:00,
1000000000356554,77019890113,mKarTel,mKcell,mKcell,,D01,2017-03-31T15:09:19+06:00,
1000000000356556,77051309422,mMTS,mKarTel,mKarTel,,D77,2017-03-31T15:09:40+06:00,
1000000000356557,77054284845,mKarTel,mMTS,mKarTel,D77,D01,2017-03-31T15:09:45+06:00,
1000000000356558,77027210028,mKcell,mAltel,mKcell,D07,D02,2017-03-31T15:10:07+06:00,
1000000000356560,77015186967,mKarTel,mKcell,mKcell,,D01,2017-03-31T15:11:38+06:00,
1000000000356561,77786272719,mMTS,mKcell,mKcell,,D77,2017-03-31T15:12:16+06:00,
1000000000356563,77781349127,mMTS,mKcell,mKcell,,D77,2017-03-31T15:12:53+06:00,
1000000000356564,77774548683,mMTS,mKarTel,mKarTel,,D77,2017-03-31T15:13:34+06:00,
1000000000356565,77075301259,mKarTel,mMTS,mMTS,,D01,2017-03-31T15:13:34+06:00,
1000000000356566,77780000801,mAltel,mKcell,mKcell,,D07,2017-03-31T15:13:47+06:00,
1000000000356567,77071426687,mKarTel,mMTS,mMTS,,D01,2017-03-31T15:14:23+06:00,
1000000000356568,77015121217,mKarTel,mMTS,mKcell,D77,D01,2017-03-31T15:14:33+06:00,
1000000000356569,77776787766,mKarTel,mMTS,mKarTel,D77,D01,2017-03-31T15:15:33+06:00,
1000000000356574,77762156352,mAltel,mKarTel,mKarTel,,D07,2017-03-31T15:16:25+06:00,
1000000000356575,77014614430,mAltel,mKcell,mKcell,,D07,2017-03-31T15:17:03+06:00,
1000000000356580,77016565845,mKarTel,mAltel,mKcell,D07,D01,2017-03-31T15:20:16+06:00,
1000000000356581,77758888633,mKcell,mKarTel,mKcell,D01,D02,2017-03-31T15:20:45+06:00,
1000000000356584,77758126952,mKarTel,mKcell,mKcell,,D01,2017-03-31T15:21:26+06:00,
1000000000356586,77781852385,mMTS,mKcell,mKcell,,D77,2017-03-31T15:21:39+06:00,
1000000000356587,77077997280,mKarTel,mMTS,mMTS,,D01,2017-03-31T15:22:11+06:00,
1000000000356588,77789157777,mKarTel,mMTS,mKcell,D77,D01,2017-03-31T15:22:16+06:00,
1000000000356590,77479095353,mKarTel,mMTS,mMTS,,D01,2017-03-31T15:23:14+06:00,
1000000000356591,77005450022,mKarTel,mAltel,mAltel,,D01,2017-03-31T15:23:18+06:00,
1000000000356592,77017755002,mMTS,mKcell,mKcell,,D77,2017-03-31T15:23:16+06:00,
1000000000356593,77004442923,mKcell,mAltel,mAltel,,D02,2017-03-31T15:23:42+06:00,
1000000000356594,77011100797,mAltel,mKcell,mKcell,,D07,2017-03-31T15:24:23+06:00,
1000000000356595,77004442629,mKcell,mAltel,mAltel,,D02,2017-03-31T15:25:19+06:00,
1000000000356597,77017434656,mKarTel,mKcell,mKcell,,D01,2017-03-31T15:26:03+06:00,
1000000000356600,77781349043,mMTS,mKcell,mKcell,,D77,2017-03-31T15:27:53+06:00,
1000000000356602,77753691107,mKarTel,mKcell,mKcell,,D01,2017-03-31T15:28:44+06:00,
1000000000356603,77013800005,mKcell,mKarTel,mKcell,D01,D02,2017-03-31T15:29:32+06:00,
