NPId,Number,RecipientId,DonorId,RangeHolderId,OldRoute,NewRoute,PortDate,RowCount
1000000000364769,77752922332,mAltel,mKcell,mKcell,,D07,2017-04-12T15:31:36+06:00,23
1000000000364770,77075551008,mKarTel,mKcell,mMTS,D02,D01,2017-04-12T15:31:53+06:00,
1000000000364772,77022597820,mAltel,mKcell,mKcell,,D07,2017-04-12T15:33:07+06:00,
1000000000364774,77007774686,mKcell,mAltel,mAltel,,D02,2017-04-12T15:34:12+06:00,
1000000000364775,77011119681,mMTS,mKcell,mKcell,,D77,2017-04-12T15:34:20+06:00,
1000000000364776,77763330089,mKcell,mKarTel,mKarTel,,D02,2017-04-12T15:35:34+06:00,
1000000000364777,77078830144,mMTS,mKcell,mMTS,D02,D77,2017-04-12T15:35:04+06:00,
1000000000364778,77007774161,mKcell,mAltel,mAltel,,D02,2017-04-12T15:36:32+06:00,
1000000000364779,77007878718,mMTS,mAltel,mAltel,,D77,2017-04-12T15:36:36+06:00,
1000000000364780,77024889147,mMTS,mKcell,mKcell,,D77,2017-04-12T15:37:55+06:00,
1000000000364781,77000969630,mKcell,mAltel,mAltel,,D02,2017-04-12T15:38:21+06:00,
1000000000364782,77017112277,mKarTel,mAltel,mKcell,D07,D01,2017-04-12T15:38:22+06:00,
1000000000364784,77476155372,mAltel,mMTS,mMTS,,D07,2017-04-12T15:44:43+06:00,
1000000000364785,77088091993,mKarTel,mKcell,mAltel,D02,D01,2017-04-12T15:46:47+06:00,
1000000000364787,77011778899,mMTS,mKcell,mKcell,,D77,2017-04-12T15:49:16+06:00,
1000000000364790,77026666310,mKarTel,mKcell,mKcell,,D01,2017-04-12T15:51:54+06:00,
1000000000364793,77018880583,mMTS,mKcell,mKcell,,D77,2017-04-12T15:52:20+06:00,
1000000000364795,77082613182,mMTS,mAltel,mAltel,,D77,2017-04-12T15:52:46+06:00,
1000000000364796,77782925920,mMTS,mKcell,mKcell,,D77,2017-04-12T15:54:18+06:00,
1000000000364798,77012202862,mKarTel,mKcell,mKcell,,D01,2017-04-12T15:54:36+06:00,
1000000000364799,77005283105,mMTS,mAltel,mAltel,,D77,2017-04-12T15:54:31+06:00,
1000000000364802,77083838321,mKarTel,mAltel,mAltel,,D01,2017-04-12T15:57:03+06:00,
1000000000364803,77019159565,mMTS,mKcell,mKcell,,D77,2017-04-12T15:57:32+06:00,
