NPId,Number,RecipientId,DonorId,RangeHolderId,OldRoute,NewRoute,PortDate,RowCount
1000000000151760,77777035705,mMTS,mKarTel,mKarTel,,D77,2016-04-14T14:01:14+06:00,26
1000000000151762,77001389996,mMTS,mAltel,mAltel,,D77,2016-04-14T14:00:25+06:00,
1000000000151763,77028145555,mMTS,mKcell,mKcell,,D77,2016-04-14T14:03:28+06:00,
1000000000151764,77074219999,mKarTel,mMTS,mMTS,,D01,2016-04-14T14:02:35+06:00,
1000000000151765,77072018855,mMTS,mAltel,mMTS,D07,D77,2016-04-14T14:03:28+06:00,
1000000000151766,77017579357,mMTS,mKcell,mKcell,,D77,2016-04-14T14:05:13+06:00,
1000000000151767,77784307080,mMTS,mKcell,mKcell,,D77,2016-04-14T14:05:29+06:00,
1000000000151768,77087758375,mMTS,mAltel,mAltel,,D77,2016-04-14T14:05:25+06:00,
1000000000151769,77077605050,mKcell,mMTS,mMTS,,D02,2016-04-14T14:07:31+06:00,
1000000000151770,77025590020,mKarTel,mKcell,mKcell,,D01,2016-04-14T14:08:13+06:00,
1000000000151771,77015598895,mMTS,mAltel,mKcell,D07,D77,2016-04-14T14:06:59+06:00,
1000000000151772,77014548784,mMTS,mKcell,mKcell,,D77,2016-04-14T14:07:58+06:00,
1000000000151774,77019959000,mKarTel,mMTS,mKcell,D77,D01,2016-04-14T14:10:23+06:00,
1000000000151777,77072339375,mKarTel,mMTS,mMTS,,D01,2016-04-14T14:16:38+06:00,
1000000000151779,77001600581,mKarTel,mAltel,mAltel,,D01,2016-04-14T14:17:58+06:00,
1000000000151780,77077107886,mMTS,mAltel,mMTS,D07,D77,2016-04-14T14:17:28+06:00,
1000000000151782,77022622704,mKarTel,mKcell,mKcell,,D01,2016-04-14T14:20:03+06:00,
1000000000151784,77025525020,mMTS,mKcell,mKcell,,D77,2016-04-14T14:24:09+06:00,
1000000000151785,77758133792,mAltel,mKcell,mKcell,,D07,2016-04-14T14:24:34+06:00,
1000000000151786,77015339579,mMTS,mKcell,mKcell,,D77,2016-04-14T14:24:46+06:00,
1000000000151787,77026737033,mMTS,mKcell,mKcell,,D77,2016-04-14T14:25:14+06:00,
1000000000151789,77073362194,mAltel,mMTS,mMTS,,D07,2016-04-14T14:25:44+06:00,
1000000000151790,77087370222,mMTS,mAltel,mAltel,,D77,2016-04-14T14:25:48+06:00,
1000000000151791,77019001491,mMTS,mKcell,mKcell,,D77,2016-04-14T14:27:39+06:00,
1000000000151796,77015744674,mKarTel,mKcell,mKcell,,D01,2016-04-14T14:29:44+06:00,
1000000000151797,77081747709,mMTS,mAltel,mAltel,,D77,2016-04-14T14:29:36+06:00,
