NPId,Number,RecipientId,DonorId,RangeHolderId,OldRoute,NewRoute,PortDate,RowCount
1000000000327282,77019994789,mMTS,mKarTel,mKcell,D01,D77,2017-02-11T13:00:03+06:00,17
1000000000327283,77783614488,mMTS,mKcell,mKcell,,D77,2017-02-11T13:00:32+06:00,
1000000000327284,77075159094,mKcell,mMTS,mMTS,,D02,2017-02-11T13:01:34+06:00,
1000000000327288,77759924860,mAltel,mKarTel,mKcell,D01,D07,2017-02-11T13:06:01+06:00,
1000000000327290,77071119050,mKarTel,mMTS,mMTS,,D01,2017-02-11T13:06:51+06:00,
1000000000327291,77075978605,mKcell,mMTS,mMTS,,D02,2017-02-11T13:07:23+06:00,
1000000000327294,77756406253,mMTS,mKcell,mKcell,,D77,2017-02-11T13:11:37+06:00,
1000000000327295,77021972233,mMTS,mKcell,mKcell,,D77,2017-02-11T13:14:01+06:00,
1000000000327296,77019994788,mMTS,mKarTel,mKcell,D01,D77,2017-02-11T13:15:06+06:00,
1000000000327297,77019103560,mKarTel,mKcell,mKcell,,D01,2017-02-11T13:18:34+06:00,
1000000000327298,77076101221,mMTS,mKarTel,mMTS,D01,D77,2017-02-11T13:23:31+06:00,
1000000000327299,77782226471,mKcell,mMTS,mKcell,D77,D02,2017-02-11T13:23:37+06:00,
1000000000327301,77024124239,mMTS,mKcell,mKcell,,D77,2017-02-11T13:23:33+06:00,
1000000000327302,77025009650,mMTS,mKcell,mKcell,,D77,2017-02-11T13:26:13+06:00,
1000000000327304,77769255490,mMTS,mKarTel,mKarTel,,D77,2017-02-11T13:27:58+06:00,
1000000000327305,77752271220,mKcell,mMTS,mKcell,D77,D02,2017-02-11T13:28:10+06:00,
1000000000327307,77012721432,mKarTel,mKcell,mKcell,,D01,2017-02-11T13:29:28+06:00,
