NPId,Number,RecipientId,DonorId,RangeHolderId,OldRoute,NewRoute,PortDate,RowCount
1000000000226918,77754888999,mMTS,mKcell,mKcell,,D77,2016-08-10T15:30:36+06:00,32
1000000000226919,77026327679,mKcell,mMTS,mKcell,D77,D02,2016-08-10T15:31:19+06:00,
1000000000226920,77772728254,mKcell,mKarTel,mKarTel,,D02,2016-08-10T15:32:05+06:00,
1000000000226921,77017130757,mMTS,mKcell,mKcell,,D77,2016-08-10T15:32:13+06:00,
1000000000226922,77052239151,mKcell,mKarTel,mKarTel,,D02,2016-08-10T15:33:16+06:00,
1000000000226924,77019977739,mMTS,mKcell,mKcell,,D77,2016-08-10T15:35:10+06:00,
1000000000226927,77712090482,mKcell,mKarTel,mKarTel,,D02,2016-08-10T15:37:48+06:00,
1000000000226928,77752970898,mMTS,mKcell,mKcell,,D77,2016-08-10T15:37:50+06:00,
1000000000226929,77000704440,mMTS,mAltel,mAltel,,D77,2016-08-10T15:37:18+06:00,
1000000000226931,77773471158,mMTS,mKarTel,mKarTel,,D77,2016-08-10T15:38:20+06:00,
1000000000226932,77788076802,mMTS,mKcell,mKcell,,D77,2016-08-10T15:38:51+06:00,
1000000000226934,77718139450,mMTS,mKarTel,mKarTel,,D77,2016-08-10T15:39:55+06:00,
1000000000226937,77017366646,mKarTel,mKcell,mKcell,,D01,2016-08-10T15:43:00+06:00,
1000000000226938,77077403572,mKcell,mMTS,mMTS,,D02,2016-08-10T15:43:38+06:00,
1000000000226939,77788758822,mKarTel,mKcell,mKcell,,D01,2016-08-10T15:44:27+06:00,
1000000000226941,77051301509,mAltel,mKarTel,mKarTel,,D07,2016-08-10T15:45:54+06:00,
1000000000226942,77015391670,mMTS,mKcell,mKcell,,D77,2016-08-10T15:49:09+06:00,
1000000000226943,77017891919,mKcell,mMTS,mKcell,D77,D02,2016-08-10T15:49:34+06:00,
1000000000226944,77759234373,mMTS,mKcell,mKcell,,D77,2016-08-10T15:49:50+06:00,
1000000000226945,77054543924,mAltel,mKarTel,mKarTel,,D07,2016-08-10T15:50:26+06:00,
1000000000226946,77784339322,mMTS,mKcell,mKcell,,D77,2016-08-10T15:51:45+06:00,
1000000000226947,77013074053,mKcell,mMTS,mKcell,D77,D02,2016-08-10T15:52:56+06:00,
1000000000226948,77780000794,mKarTel,mKcell,mKcell,,D01,2016-08-10T15:54:06+06:00,
1000000000226949,77015205097,mMTS,mKcell,mKcell,,D77,2016-08-10T15:54:14+06:00,
1000000000226951,77007777069,mKcell,mAltel,mAltel,D07,D02,2016-08-10T15:55:00+06:00,
1000000000226953,77053342935,mKcell,mKarTel,mKarTel,,D02,2016-08-10T15:57:47+06:00,
1000000000226955,77011121001,mMTS,mAltel,mKcell,D07,D77,2016-08-10T15:57:45+06:00,
1000000000226956,77784960870,mKarTel,mAltel,mKcell,D07,D01,2016-08-10T15:58:19+06:00,
1000000000226957,77782695458,mKcell,mMTS,mKcell,D77,D02,2016-08-10T15:58:09+06:00,
1000000000226958,77778661528,mKcell,mKarTel,mKarTel,,D02,2016-08-10T15:59:00+06:00,
1000000000226959,77781588898,mMTS,mKcell,mKcell,,D77,2016-08-10T15:58:58+06:00,
1000000000226960,77001589270,mKcell,mAltel,mAltel,,D02,2016-08-10T15:59:46+06:00,
