NPId,Number,RecipientId,DonorId,RangeHolderId,OldRoute,NewRoute,PortDate,RowCount
1000000000428536,77757568296,mMTS,mKcell,mKcell,,D77,2017-07-26T14:01:14+06:00,18
1000000000428538,77478083004,mKarTel,mMTS,mMTS,,D01,2017-07-26T14:02:31+06:00,
1000000000428539,77075130029,mKcell,mKarTel,mMTS,D01,D02,2017-07-26T14:03:19+06:00,
1000000000428540,77015552480,mKarTel,mKcell,mKcell,,D01,2017-07-26T14:04:07+06:00,
1000000000428542,77086636145,mMTS,mAltel,mAltel,,D77,2017-07-26T14:05:24+06:00,
1000000000428543,77086636149,mMTS,mAltel,mAltel,,D77,2017-07-26T14:06:42+06:00,
1000000000428545,77753908929,mKarTel,mKcell,mKcell,,D01,2017-07-26T14:07:52+06:00,
1000000000428546,77086636153,mMTS,mAltel,mAltel,,D77,2017-07-26T14:07:47+06:00,
1000000000428547,77086636158,mMTS,mAltel,mAltel,,D77,2017-07-26T14:09:02+06:00,
1000000000428548,77023630700,mMTS,mKcell,mKcell,,D77,2017-07-26T14:09:42+06:00,
1000000000428549,77019726847,mMTS,mKcell,mKcell,,D77,2017-07-26T14:11:48+06:00,
1000000000428550,77076667101,mMTS,mKarTel,mMTS,D01,D77,2017-07-26T14:16:35+06:00,
1000000000428551,77754702616,mMTS,mKcell,mKcell,,D77,2017-07-26T14:17:20+06:00,
1000000000428555,77774012895,mMTS,mKarTel,mKarTel,,D77,2017-07-26T14:26:22+06:00,
1000000000428556,77077474248,mKcell,mMTS,mMTS,,D02,2017-07-26T14:27:08+06:00,
1000000000428557,77087618373,mAltel,mMTS,mAltel,D77,D07,2017-07-26T14:26:59+06:00,
1000000000428559,77017171705,mKcell,mAltel,mKcell,D07,D02,2017-07-26T14:28:10+06:00,
1000000000428560,77052504953,mMTS,mKarTel,mKarTel,,D77,2017-07-26T14:28:30+06:00,
