NPId,Number,RecipientId,DonorId,RangeHolderId,OldRoute,NewRoute,PortDate,RowCount
1000000000335175,77015277402,mKarTel,mAltel,mKcell,D07,D01,2017-02-25T19:35:18+06:00,2
1000000000335180,77077300279,mKarTel,mMTS,mMTS,,D01,2017-02-25T19:53:16+06:00,
