NPId,Number,RecipientId,DonorId,RangeHolderId,OldRoute,NewRoute,PortDate,RowCount
1000000000263074,77755759010,mKarTel,mKcell,mKcell,,D01,2016-10-15T17:32:23+06:00,19
1000000000263077,77010000749,mAltel,mKcell,mKcell,,D07,2016-10-15T17:39:39+06:00,
1000000000263079,77077122138,mAltel,mMTS,mMTS,,D07,2016-10-15T17:40:36+06:00,
1000000000263081,77770316487,mKarTel,mKcell,mKarTel,D02,D01,2016-10-15T17:42:39+06:00,
1000000000263082,77004012435,mMTS,mAltel,mAltel,,D77,2016-10-15T17:42:30+06:00,
1000000000263083,77770316481,mKarTel,mKcell,mKarTel,D02,D01,2016-10-15T17:44:39+06:00,
1000000000263085,77075163990,mAltel,mMTS,mMTS,D77,D07,2016-10-15T17:45:23+06:00,
1000000000263086,77770316493,mKarTel,mKcell,mKarTel,D02,D01,2016-10-15T17:45:58+06:00,
1000000000263087,77017770432,mKcell,mMTS,mKcell,D77,D02,2016-10-15T17:46:35+06:00,
1000000000263088,77776495143,mMTS,mKarTel,mKarTel,,D77,2016-10-15T17:49:15+06:00,
1000000000263089,77005552808,mKcell,mAltel,mAltel,,D02,2016-10-15T17:51:20+06:00,
1000000000263090,77025049893,mMTS,mKcell,mKcell,,D77,2016-10-15T17:52:36+06:00,
1000000000263093,77005553808,mKcell,mAltel,mAltel,,D02,2016-10-15T17:54:17+06:00,
1000000000263094,77075501520,mKcell,mMTS,mMTS,,D02,2016-10-15T17:54:51+06:00,
1000000000263095,77005559202,mKcell,mAltel,mAltel,,D02,2016-10-15T17:54:51+06:00,
1000000000263096,77023747797,mKcell,mMTS,mKcell,D77,D02,2016-10-15T17:55:13+06:00,
1000000000263097,77781695552,mKarTel,mKcell,mKcell,,D01,2016-10-15T17:55:23+06:00,
1000000000263098,77021370933,mKcell,mMTS,mKcell,D77,D02,2016-10-15T17:55:12+06:00,
1000000000263099,77479799175,mKcell,mMTS,mMTS,,D02,2016-10-15T17:56:29+06:00,
