NPId,Number,RecipientId,DonorId,RangeHolderId,OldRoute,NewRoute,PortDate,RowCount
1000000000292372,77077538365,mKarTel,mMTS,mMTS,,D01,2016-12-08T20:30:53+06:00,3
1000000000292373,77711918191,mMTS,mKcell,mKarTel,D02,D77,2016-12-08T20:37:42+06:00,
1000000000292374,77773739090,mKarTel,mMTS,mKarTel,D77,D01,2016-12-08T20:42:13+06:00,
