NPId,Number,RecipientId,DonorId,RangeHolderId,OldRoute,NewRoute,PortDate,RowCount
1000000000412960,77763297910,mMTS,mKarTel,mKarTel,,D77,2017-06-30T13:00:48+06:00,33
1000000000412962,77071958411,mKcell,mMTS,mMTS,,D02,2017-06-30T13:01:30+06:00,
1000000000412963,77027097071,mMTS,mKcell,mKcell,,D77,2017-06-30T13:01:42+06:00,
1000000000412964,77017801440,mKcell,mKarTel,mKcell,D01,D02,2017-06-30T13:02:03+06:00,
1000000000412967,77015245302,mAltel,mKcell,mKcell,,D07,2017-06-30T13:03:19+06:00,
1000000000412968,77071274934,mAltel,mMTS,mMTS,,D07,2017-06-30T13:05:50+06:00,
1000000000412970,77019166830,mAltel,mKcell,mKcell,,D07,2017-06-30T13:07:43+06:00,
1000000000412971,77058367417,mAltel,mKarTel,mKarTel,,D07,2017-06-30T13:08:52+06:00,
1000000000412972,77017827747,mMTS,mKcell,mKcell,,D77,2017-06-30T13:09:53+06:00,
1000000000412973,77015660284,mKcell,mMTS,mKcell,D77,D02,2017-06-30T13:10:12+06:00,
1000000000412975,77789465224,mMTS,mKcell,mKcell,,D77,2017-06-30T13:11:56+06:00,
1000000000412976,77007797930,mMTS,mAltel,mAltel,,D77,2017-06-30T13:11:46+06:00,
1000000000412977,77789465207,mMTS,mKcell,mKcell,,D77,2017-06-30T13:11:56+06:00,
1000000000412978,77001848438,mKarTel,mAltel,mAltel,,D01,2017-06-30T13:12:19+06:00,
1000000000412979,77001381993,mMTS,mAltel,mAltel,,D77,2017-06-30T13:12:19+06:00,
1000000000412980,77077771270,mKarTel,mMTS,mMTS,,D01,2017-06-30T13:12:39+06:00,
1000000000412981,77026840272,mKcell,mAltel,mKcell,D07,D02,2017-06-30T13:12:42+06:00,
1000000000412982,77789276553,mKcell,mAltel,mKcell,D07,D02,2017-06-30T13:14:07+06:00,
1000000000412983,77073041377,mKcell,mMTS,mMTS,,D02,2017-06-30T13:14:51+06:00,
1000000000412984,77789465245,mMTS,mKcell,mKcell,,D77,2017-06-30T13:16:54+06:00,
1000000000412985,77717796644,mMTS,mKarTel,mKarTel,,D77,2017-06-30T13:19:51+06:00,
1000000000412988,77017231709,mKcell,mMTS,mKcell,D77,D02,2017-06-30T13:21:19+06:00,
1000000000412989,77015550025,mKarTel,mKcell,mKcell,,D01,2017-06-30T13:21:49+06:00,
1000000000412990,77075757555,mMTS,mKcell,mMTS,D02,D77,2017-06-30T13:21:52+06:00,
1000000000412991,77789465232,mMTS,mKcell,mKcell,,D77,2017-06-30T13:21:53+06:00,
1000000000412992,77075255600,mMTS,mKcell,mMTS,D02,D77,2017-06-30T13:21:57+06:00,
1000000000412994,77757040625,mMTS,mKcell,mKcell,,D77,2017-06-30T13:25:34+06:00,
1000000000412995,77770654961,mMTS,mKarTel,mKarTel,,D77,2017-06-30T13:26:53+06:00,
1000000000412996,77789465233,mMTS,mKcell,mKcell,,D77,2017-06-30T13:26:48+06:00,
1000000000412997,77771501266,mMTS,mKarTel,mKarTel,,D77,2017-06-30T13:27:11+06:00,
1000000000412998,77010772771,mMTS,mKcell,mKcell,,D77,2017-06-30T13:27:40+06:00,
1000000000413000,77054109557,mMTS,mKarTel,mKarTel,,D77,2017-06-30T13:29:23+06:00,
1000000000413001,77783202559,mMTS,mKcell,mKcell,,D77,2017-06-30T13:29:42+06:00,
