NPId,Number,RecipientId,DonorId,RangeHolderId,OldRoute,NewRoute,PortDate,RowCount
1000000000172690,77017534502,mKarTel,mKcell,mKcell,,D01,2016-05-13T10:51:49+06:00,90
1000000000172690,77017534536,mKarTel,mKcell,mKcell,,D01,2016-05-13T10:51:49+06:00,
1000000000172690,77017534537,mKarTel,mKcell,mKcell,,D01,2016-05-13T10:51:49+06:00,
1000000000172690,77017534546,mKarTel,mKcell,mKcell,,D01,2016-05-13T10:51:49+06:00,
1000000000172690,77017534549,mKarTel,mKcell,mKcell,,D01,2016-05-13T10:51:49+06:00,
1000000000172690,77017534551,mKarTel,mKcell,mKcell,,D01,2016-05-13T10:51:49+06:00,
1000000000172690,77017534556,mKarTel,mKcell,mKcell,,D01,2016-05-13T10:51:49+06:00,
1000000000172690,77017534558,mKarTel,mKcell,mKcell,,D01,2016-05-13T10:51:49+06:00,
1000000000172690,77017534559,mKarTel,mKcell,mKcell,,D01,2016-05-13T10:51:49+06:00,
1000000000172690,77017534563,mKarTel,mKcell,mKcell,,D01,2016-05-13T10:51:49+06:00,
1000000000172690,77017534601,mKarTel,mKcell,mKcell,,D01,2016-05-13T10:51:49+06:00,
1000000000172690,77017534604,mKarTel,mKcell,mKcell,,D01,2016-05-13T10:51:49+06:00,
1000000000172690,77017534605,mKarTel,mKcell,mKcell,,D01,2016-05-13T10:51:49+06:00,
1000000000172690,77017534608,mKarTel,mKcell,mKcell,,D01,2016-05-13T10:51:49+06:00,
1000000000172690,77017534616,mKarTel,mKcell,mKcell,,D01,2016-05-13T10:51:49+06:00,
1000000000172690,77017534623,mKarTel,mKcell,mKcell,,D01,2016-05-13T10:51:49+06:00,
1000000000172690,77017534624,mKarTel,mKcell,mKcell,,D01,2016-05-13T10:51:49+06:00,
1000000000172690,77017534637,mKarTel,mKcell,mKcell,,D01,2016-05-13T10:51:49+06:00,
1000000000172690,77017534654,mKarTel,mKcell,mKcell,,D01,2016-05-13T10:51:49+06:00,
1000000000172690,77017534660,mKarTel,mKcell,mKcell,,D01,2016-05-13T10:51:49+06:00,
1000000000172690,77017534672,mKarTel,mKcell,mKcell,,D01,2016-05-13T10:51:49+06:00,
1000000000172690,77017534673,mKarTel,mKcell,mKcell,,D01,2016-05-13T10:51:49+06:00,
1000000000172690,77017534679,mKarTel,mKcell,mKcell,,D01,2016-05-13T10:51:49+06:00,
1000000000172690,77017534685,mKarTel,mKcell,mKcell,,D01,2016-05-13T10:51:49+06:00,
1000000000172864,77012033532,mKarTel,mKcell,mKcell,,D01,2016-05-13T10:46:47+06:00,
1000000000172864,77012184173,mKarTel,mKcell,mKcell,,D01,2016-05-13T10:46:47+06:00,
1000000000172864,77012184174,mKarTel,mKcell,mKcell,,D01,2016-05-13T10:46:47+06:00,
1000000000172864,77015314205,mKarTel,mKcell,mKcell,,D01,2016-05-13T10:46:47+06:00,
1000000000172864,77015314218,mKarTel,mKcell,mKcell,,D01,2016-05-13T10:46:47+06:00,
1000000000172864,77017130270,mKarTel,mKcell,mKcell,,D01,2016-05-13T10:46:47+06:00,
1000000000172864,77017130281,mKarTel,mKcell,mKcell,,D01,2016-05-13T10:46:47+06:00,
1000000000172864,77017130285,mKarTel,mKcell,mKcell,,D01,2016-05-13T10:46:47+06:00,
1000000000172864,77017130320,mKarTel,mKcell,mKcell,,D01,2016-05-13T10:46:47+06:00,
1000000000172864,77017133039,mKarTel,mKcell,mKcell,,D01,2016-05-13T10:46:47+06:00,
1000000000172864,77017133047,mKarTel,mKcell,mKcell,,D01,2016-05-13T10:46:47+06:00,
1000000000172864,77017133075,mKarTel,mKcell,mKcell,,D01,2016-05-13T10:46:47+06:00,
1000000000172864,77017157643,mKarTel,mKcell,mKcell,,D01,2016-05-13T10:46:47+06:00,
1000000000172864,77017450104,mKarTel,mKcell,mKcell,,D01,2016-05-13T10:46:47+06:00,
1000000000172864,77017469929,mKarTel,mKcell,mKcell,,D01,2016-05-13T10:46:47+06:00,
1000000000172864,77017648743,mKarTel,mKcell,mKcell,,D01,2016-05-13T10:46:47+06:00,
1000000000172864,77017873460,mKarTel,mKcell,mKcell,,D01,2016-05-13T10:46:47+06:00,
1000000000172864,77019532847,mKarTel,mKcell,mKcell,,D01,2016-05-13T10:46:47+06:00,
1000000000172864,77019532890,mKarTel,mKcell,mKcell,,D01,2016-05-13T10:46:47+06:00,
1000000000172864,77019533260,mKarTel,mKcell,mKcell,,D01,2016-05-13T10:46:47+06:00,
1000000000172864,77019857162,mKarTel,mKcell,mKcell,,D01,2016-05-13T10:46:47+06:00,
1000000000172864,77019857169,mKarTel,mKcell,mKcell,,D01,2016-05-13T10:46:47+06:00,
1000000000172864,77019859332,mKarTel,mKcell,mKcell,,D01,2016-05-13T10:46:47+06:00,
1000000000172878,77787292020,mKarTel,mKcell,mKcell,,D01,2016-05-13T10:50:35+06:00,
1000000000172881,77018887218,mKarTel,mKcell,mKcell,,D01,2016-05-13T10:50:49+06:00,
1000000000172883,77477761996,mKarTel,mMTS,mMTS,,D01,2016-05-13T10:50:11+06:00,
1000000000172889,77027433460,mKarTel,mKcell,mKcell,,D01,2016-05-13T10:50:20+06:00,
1000000000172900,77074599347,mKarTel,mMTS,mMTS,,D01,2016-05-13T10:50:39+06:00,
1000000000172929,77753826636,mKarTel,mKcell,mKcell,,D01,2016-05-13T10:50:09+06:00,
1000000000172968,77075884731,mKarTel,mMTS,mMTS,,D01,2016-05-13T10:51:21+06:00,
1000000000172975,77073225095,mKarTel,mMTS,mMTS,,D01,2016-05-13T10:50:52+06:00,
1000000000172977,77754743040,mKarTel,mKcell,mKcell,,D01,2016-05-13T10:50:15+06:00,
1000000000172983,77711538888,mKarTel,mKcell,mKarTel,D02,D01,2016-05-13T10:50:49+06:00,
1000000000172989,77022783589,mKarTel,mKcell,mKcell,,D01,2016-05-13T10:50:53+06:00,
1000000000172990,77076752516,mKarTel,mMTS,mMTS,,D01,2016-05-13T10:50:09+06:00,
1000000000173006,77012409208,mKarTel,mKcell,mKcell,,D01,2016-05-13T10:51:09+06:00,
1000000000173007,77053333224,mKarTel,mAltel,mKarTel,D07,D01,2016-05-13T10:51:48+06:00,
1000000000173020,77022205656,mKarTel,mKcell,mKcell,,D01,2016-05-13T10:51:11+06:00,
1000000000173035,77014455548,mKarTel,mKcell,mKcell,,D01,2016-05-13T10:50:40+06:00,
1000000000173037,77772433712,mKarTel,mMTS,mKarTel,D77,D01,2016-05-13T10:50:42+06:00,
1000000000173050,77757001032,mKarTel,mKcell,mKcell,,D01,2016-05-13T10:50:37+06:00,
1000000000173062,77715059997,mKarTel,mKcell,mKarTel,D02,D01,2016-05-13T10:51:44+06:00,
1000000000173070,77771288881,mKarTel,mAltel,mKarTel,D07,D01,2016-05-13T10:51:42+06:00,
1000000000173072,77772877776,mKarTel,mMTS,mKarTel,D77,D01,2016-05-13T10:51:14+06:00,
1000000000173074,77015586510,mKarTel,mKcell,mKcell,,D01,2016-05-13T10:50:41+06:00,
1000000000173089,77012123432,mKarTel,mKcell,mKcell,,D01,2016-05-13T10:46:45+06:00,
1000000000173112,77078334486,mKarTel,mMTS,mMTS,,D01,2016-05-13T10:46:40+06:00,
1000000000173117,77001059903,mKarTel,mAltel,mAltel,,D01,2016-05-13T10:46:23+06:00,
1000000000173118,77017632229,mMTS,mKcell,mKcell,,D77,2016-05-13T10:30:02+06:00,
1000000000173119,77024400733,mMTS,mKcell,mKcell,,D77,2016-05-13T10:31:07+06:00,
1000000000173123,77014991877,mMTS,mKcell,mKcell,,D77,2016-05-13T10:34:02+06:00,
1000000000173124,77059840312,mKarTel,mAltel,mKarTel,D07,D01,2016-05-13T10:46:44+06:00,
1000000000173125,77021660200,mMTS,mKcell,mKcell,,D77,2016-05-13T10:35:21+06:00,
1000000000173126,77473061965,mKcell,mMTS,mMTS,,D02,2016-05-13T10:39:37+06:00,
1000000000173127,77764447555,mKarTel,mAltel,mKarTel,D07,D01,2016-05-13T10:46:37+06:00,
1000000000173132,77013169101,mMTS,mKcell,mKcell,,D77,2016-05-13T10:43:27+06:00,
1000000000173133,77752106104,mMTS,mKcell,mKcell,,D77,2016-05-13T10:45:09+06:00,
1000000000173135,77071117461,mAltel,mMTS,mMTS,,D07,2016-05-13T10:48:17+06:00,
1000000000173137,77089875334,mMTS,mAltel,mAltel,,D77,2016-05-13T10:50:34+06:00,
1000000000173138,77054344500,mMTS,mKarTel,mKarTel,,D77,2016-05-13T10:53:11+06:00,
1000000000173139,77085340341,mKcell,mAltel,mAltel,,D02,2016-05-13T10:54:09+06:00,
1000000000173140,77001000109,mMTS,mAltel,mAltel,,D77,2016-05-13T10:53:59+06:00,
1000000000173141,77784678644,mAltel,mKcell,mKcell,,D07,2016-05-13T10:56:55+06:00,
1000000000173142,77003927080,mMTS,mAltel,mAltel,,D77,2016-05-13T10:57:03+06:00,
1000000000173143,77775422905,mMTS,mKarTel,mKarTel,,D77,2016-05-13T10:57:25+06:00,
1000000000173144,77086300317,mMTS,mAltel,mAltel,,D77,2016-05-13T10:58:10+06:00,
