NPId,Number,RecipientId,DonorId,RangeHolderId,OldRoute,NewRoute,PortDate,RowCount
1000000000103671,77010120896,mKarTel,mKcell,mKcell,,D01,2016-03-01T15:16:14+06:00,86
1000000000103671,77010269015,mKarTel,mKcell,mKcell,,D01,2016-03-01T15:16:14+06:00,
1000000000103671,77015240927,mKarTel,mKcell,mKcell,,D01,2016-03-01T15:16:14+06:00,
1000000000103671,77015373245,mKarTel,mKcell,mKcell,,D01,2016-03-01T15:16:14+06:00,
1000000000103671,77018710054,mKarTel,mKcell,mKcell,,D01,2016-03-01T15:16:14+06:00,
1000000000103671,77018710056,mKarTel,mKcell,mKcell,,D01,2016-03-01T15:16:14+06:00,
1000000000103671,77018710058,mKarTel,mKcell,mKcell,,D01,2016-03-01T15:16:14+06:00,
1000000000103671,77019654463,mKarTel,mKcell,mKcell,,D01,2016-03-01T15:16:14+06:00,
1000000000103671,77019654465,mKarTel,mKcell,mKcell,,D01,2016-03-01T15:16:14+06:00,
1000000000103671,77019654467,mKarTel,mKcell,mKcell,,D01,2016-03-01T15:16:14+06:00,
1000000000103671,77019654468,mKarTel,mKcell,mKcell,,D01,2016-03-01T15:16:14+06:00,
1000000000103671,77019654469,mKarTel,mKcell,mKcell,,D01,2016-03-01T15:16:14+06:00,
1000000000103671,77019654470,mKarTel,mKcell,mKcell,,D01,2016-03-01T15:16:14+06:00,
1000000000103671,77019654472,mKarTel,mKcell,mKcell,,D01,2016-03-01T15:16:14+06:00,
1000000000103671,77019654478,mKarTel,mKcell,mKcell,,D01,2016-03-01T15:16:14+06:00,
1000000000103671,77019654480,mKarTel,mKcell,mKcell,,D01,2016-03-01T15:16:14+06:00,
1000000000103671,77019654481,mKarTel,mKcell,mKcell,,D01,2016-03-01T15:16:14+06:00,
1000000000103671,77019654482,mKarTel,mKcell,mKcell,,D01,2016-03-01T15:16:14+06:00,
1000000000103671,77019654483,mKarTel,mKcell,mKcell,,D01,2016-03-01T15:16:14+06:00,
1000000000103671,77019654486,mKarTel,mKcell,mKcell,,D01,2016-03-01T15:16:14+06:00,
1000000000103671,77019654487,mKarTel,mKcell,mKcell,,D01,2016-03-01T15:16:14+06:00,
1000000000103671,77019654489,mKarTel,mKcell,mKcell,,D01,2016-03-01T15:16:14+06:00,
1000000000103671,77019654490,mKarTel,mKcell,mKcell,,D01,2016-03-01T15:16:14+06:00,
1000000000103671,77019654492,mKarTel,mKcell,mKcell,,D01,2016-03-01T15:16:14+06:00,
1000000000103671,77019654493,mKarTel,mKcell,mKcell,,D01,2016-03-01T15:16:14+06:00,
1000000000103671,77019654496,mKarTel,mKcell,mKcell,,D01,2016-03-01T15:16:14+06:00,
1000000000103671,77019729580,mKarTel,mKcell,mKcell,,D01,2016-03-01T15:16:14+06:00,
1000000000103671,77022240057,mKarTel,mKcell,mKcell,,D01,2016-03-01T15:16:14+06:00,
1000000000103671,77022240059,mKarTel,mKcell,mKcell,,D01,2016-03-01T15:16:14+06:00,
1000000000103671,77022240062,mKarTel,mKcell,mKcell,,D01,2016-03-01T15:16:14+06:00,
1000000000103724,77017679940,mKarTel,mKcell,mKcell,,D01,2016-03-01T15:11:03+06:00,
1000000000103830,77019602917,mMTS,mKcell,mKcell,,D77,2016-03-01T15:00:11+06:00,
1000000000103831,77015210426,mMTS,mKcell,mKcell,,D77,2016-03-01T15:00:11+06:00,
1000000000103833,77011461885,mMTS,mKcell,mKcell,,D77,2016-03-01T15:01:05+06:00,
1000000000103834,77475063644,mAltel,mMTS,mMTS,,D07,2016-03-01T15:00:55+06:00,
1000000000103835,77787005232,mAltel,mKcell,mKcell,,D07,2016-03-01T15:01:18+06:00,
1000000000103837,77713386688,mAltel,mKarTel,mKarTel,,D07,2016-03-01T15:01:24+06:00,
1000000000103839,77770786767,mMTS,mKarTel,mKarTel,,D77,2016-03-01T15:05:28+06:00,
1000000000103840,77072043171,mAltel,mMTS,mMTS,,D07,2016-03-01T15:03:01+06:00,
1000000000103841,77714461732,mMTS,mKarTel,mKarTel,,D77,2016-03-01T15:05:28+06:00,
1000000000103842,77019787999,mAltel,mKcell,mKcell,,D07,2016-03-01T15:04:13+06:00,
1000000000103843,77021204636,mAltel,mKcell,mKcell,,D07,2016-03-01T15:06:17+06:00,
1000000000103845,77017116351,mKarTel,mKcell,mKcell,,D01,2016-03-01T15:07:33+06:00,
1000000000103846,77015200485,mAltel,mKcell,mKcell,,D07,2016-03-01T15:07:20+06:00,
1000000000103847,77073549737,mKcell,mMTS,mMTS,,D02,2016-03-01T15:07:35+06:00,
1000000000103848,77017556760,mMTS,mKcell,mKcell,,D77,2016-03-01T15:07:43+06:00,
1000000000103849,77772337778,mAltel,mKarTel,mKarTel,,D07,2016-03-01T15:07:56+06:00,
1000000000103851,77073419119,mKarTel,mMTS,mMTS,,D01,2016-03-01T15:08:57+06:00,
1000000000103851,77075419119,mKarTel,mMTS,mMTS,,D01,2016-03-01T15:08:57+06:00,
1000000000103851,77075499119,mKarTel,mMTS,mMTS,,D01,2016-03-01T15:08:57+06:00,
1000000000103851,77077419119,mKarTel,mMTS,mMTS,,D01,2016-03-01T15:08:57+06:00,
1000000000103851,77077499119,mKarTel,mMTS,mMTS,,D01,2016-03-01T15:08:57+06:00,
1000000000103852,77753733779,mKarTel,mKcell,mKcell,,D01,2016-03-01T15:09:35+06:00,
1000000000103853,77013157866,mMTS,mKcell,mKcell,,D77,2016-03-01T15:09:37+06:00,
1000000000103856,77778444004,mMTS,mKarTel,mKarTel,,D77,2016-03-01T15:11:43+06:00,
1000000000103858,77052550917,mAltel,mKarTel,mKarTel,,D07,2016-03-01T15:12:16+06:00,
1000000000103859,77471982883,mAltel,mMTS,mMTS,,D07,2016-03-01T15:12:24+06:00,
1000000000103861,77712903383,mKcell,mKarTel,mKarTel,,D02,2016-03-01T15:14:07+06:00,
1000000000103863,77026891049,mAltel,mKcell,mKcell,,D07,2016-03-01T15:14:39+06:00,
1000000000103864,77027174431,mMTS,mKcell,mKcell,,D77,2016-03-01T15:15:11+06:00,
1000000000103865,77077287070,mAltel,mMTS,mMTS,,D07,2016-03-01T15:15:17+06:00,
1000000000103866,77767796666,mKcell,mKarTel,mKarTel,,D02,2016-03-01T15:18:33+06:00,
1000000000103867,77051919909,mMTS,mKarTel,mKarTel,,D77,2016-03-01T15:16:29+06:00,
1000000000103868,77056109640,mMTS,mKarTel,mKarTel,,D77,2016-03-01T15:16:29+06:00,
1000000000103869,77785552947,mMTS,mKcell,mKcell,,D77,2016-03-01T15:18:37+06:00,
1000000000103871,77765940915,mMTS,mKarTel,mKarTel,,D77,2016-03-01T15:20:14+06:00,
1000000000103872,77776605656,mAltel,mKarTel,mKarTel,,D07,2016-03-01T15:20:24+06:00,
1000000000103873,77777958877,mKcell,mKarTel,mKarTel,,D02,2016-03-01T15:22:13+06:00,
1000000000103874,77071210171,mKcell,mMTS,mMTS,,D02,2016-03-01T15:22:14+06:00,
1000000000103875,77016077881,mMTS,mKcell,mKcell,,D77,2016-03-01T15:21:54+06:00,
1000000000103877,77017773586,mAltel,mKcell,mKcell,,D07,2016-03-01T15:23:31+06:00,
1000000000103878,77718883024,mKcell,mKarTel,mKarTel,,D02,2016-03-01T15:23:16+06:00,
1000000000103879,77012339315,mMTS,mKcell,mKcell,,D77,2016-03-01T15:23:31+06:00,
1000000000103880,77478475023,mAltel,mMTS,mMTS,,D07,2016-03-01T15:22:55+06:00,
1000000000103882,77027317578,mMTS,mKcell,mKcell,,D77,2016-03-01T15:23:53+06:00,
1000000000103883,77774236066,mMTS,mKarTel,mKarTel,,D77,2016-03-01T15:24:06+06:00,
1000000000103885,77786777004,mKarTel,mKcell,mKcell,,D01,2016-03-01T15:25:38+06:00,
1000000000103886,77017510363,mKarTel,mKcell,mKcell,,D01,2016-03-01T15:26:23+06:00,
1000000000103888,77056690777,mMTS,mKarTel,mKarTel,,D77,2016-03-01T15:27:09+06:00,
1000000000103889,77766364242,mMTS,mKarTel,mKarTel,,D77,2016-03-01T15:27:14+06:00,
1000000000103890,77752763401,mMTS,mKcell,mKcell,,D77,2016-03-01T15:27:07+06:00,
1000000000103891,77016327796,mMTS,mKcell,mKcell,,D77,2016-03-01T15:27:07+06:00,
1000000000103892,77022545461,mAltel,mKcell,mKcell,,D07,2016-03-01T15:27:15+06:00,
1000000000103894,77015121333,mMTS,mKcell,mKcell,,D77,2016-03-01T15:28:28+06:00,
1000000000103895,77777709311,mKcell,mKarTel,mKarTel,,D02,2016-03-01T15:28:59+06:00,
1000000000103896,77021204640,mAltel,mKcell,mKcell,,D07,2016-03-01T15:29:34+06:00,
