NPId,Number,RecipientId,DonorId,RangeHolderId,OldRoute,NewRoute,PortDate,RowCount
1000000000090969,77774414333,mMTS,mKarTel,mKarTel,,D77,2016-02-17T13:31:24+06:00,54
1000000000090970,77773336098,mKcell,mKarTel,mKarTel,,D02,2016-02-17T13:32:11+06:00,
1000000000090971,77714195791,mKcell,mKarTel,mKarTel,,D02,2016-02-17T13:32:18+06:00,
1000000000090972,77017409696,mAltel,mKcell,mKcell,,D07,2016-02-17T13:32:36+06:00,
1000000000090973,77759811212,mKarTel,mKcell,mKcell,,D01,2016-02-17T13:33:18+06:00,
1000000000090974,77773336097,mKcell,mKarTel,mKarTel,,D02,2016-02-17T13:33:50+06:00,
1000000000090975,77075101717,mAltel,mMTS,mMTS,,D07,2016-02-17T13:33:20+06:00,
1000000000090976,77017500425,mAltel,mKcell,mKcell,,D07,2016-02-17T13:33:50+06:00,
1000000000090977,77072744554,mAltel,mMTS,mMTS,,D07,2016-02-17T13:33:32+06:00,
1000000000090978,77713029744,mMTS,mKarTel,mKarTel,,D77,2016-02-17T13:35:08+06:00,
1000000000090980,77753695239,mAltel,mKcell,mKcell,,D07,2016-02-17T13:35:09+06:00,
1000000000090982,77781121295,mMTS,mKcell,mKcell,,D77,2016-02-17T13:36:09+06:00,
1000000000090983,77710958990,mMTS,mKarTel,mKarTel,,D77,2016-02-17T13:38:07+06:00,
1000000000090984,77021924612,mMTS,mKcell,mKcell,,D77,2016-02-17T13:36:47+06:00,
1000000000090985,77013035253,mAltel,mKcell,mKcell,,D07,2016-02-17T13:36:56+06:00,
1000000000090988,77783908888,mMTS,mKcell,mKcell,,D77,2016-02-17T13:37:12+06:00,
1000000000090989,77018879482,mMTS,mKcell,mKcell,,D77,2016-02-17T13:37:36+06:00,
1000000000090991,77075077070,mAltel,mMTS,mMTS,,D07,2016-02-17T13:38:27+06:00,
1000000000090993,77025001082,mMTS,mKcell,mKcell,,D77,2016-02-17T13:39:13+06:00,
1000000000090994,77710958562,mMTS,mKarTel,mKarTel,,D77,2016-02-17T13:40:39+06:00,
1000000000090995,77058200020,mKcell,mKarTel,mKarTel,,D02,2016-02-17T13:40:04+06:00,
1000000000091000,77054161416,mAltel,mKarTel,mKarTel,,D07,2016-02-17T13:41:15+06:00,
1000000000091001,77710958654,mMTS,mKarTel,mKarTel,,D77,2016-02-17T13:43:14+06:00,
1000000000091003,77071700312,mAltel,mMTS,mMTS,,D07,2016-02-17T13:42:07+06:00,
1000000000091004,77752722618,mKarTel,mKcell,mKcell,,D01,2016-02-17T13:42:30+06:00,
1000000000091005,77714195891,mKcell,mKarTel,mKarTel,,D02,2016-02-17T13:42:45+06:00,
1000000000091007,77784961515,mMTS,mKcell,mKcell,,D77,2016-02-17T13:42:52+06:00,
1000000000091008,77017010110,mAltel,mKcell,mKcell,,D07,2016-02-17T13:43:26+06:00,
1000000000091009,77077772691,mKcell,mMTS,mMTS,,D02,2016-02-17T13:43:59+06:00,
1000000000091012,77077200903,mAltel,mMTS,mMTS,,D07,2016-02-17T13:44:47+06:00,
1000000000091013,77014331823,mMTS,mKcell,mKcell,,D77,2016-02-17T13:45:04+06:00,
1000000000091014,77752623954,mKarTel,mKcell,mKcell,,D01,2016-02-17T13:45:23+06:00,
1000000000091015,77760000656,mMTS,mKarTel,mKarTel,,D77,2016-02-17T13:46:04+06:00,
1000000000091017,77012039667,mAltel,mKcell,mKcell,,D07,2016-02-17T13:46:48+06:00,
1000000000091018,77752623964,mKarTel,mKcell,mKcell,,D01,2016-02-17T13:47:21+06:00,
1000000000091020,77019551695,mAltel,mKcell,mKcell,,D07,2016-02-17T13:49:05+06:00,
1000000000091021,77015113221,mKarTel,mKcell,mKcell,,D01,2016-02-17T13:50:17+06:00,
1000000000091023,77015191110,mKarTel,mKcell,mKcell,,D01,2016-02-17T13:52:00+06:00,
1000000000091025,77079222193,mKcell,mMTS,mMTS,,D02,2016-02-17T13:51:33+06:00,
1000000000091026,77027022033,mAltel,mKcell,mKcell,,D07,2016-02-17T13:51:33+06:00,
1000000000091027,77774937174,mMTS,mKarTel,mKarTel,,D77,2016-02-17T13:52:00+06:00,
1000000000091028,77003199217,mMTS,mAltel,mAltel,,D77,2016-02-17T13:51:45+06:00,
1000000000091030,77079640204,mKarTel,mMTS,mMTS,,D01,2016-02-17T13:52:27+06:00,
1000000000091032,77750277715,mAltel,mKcell,mKcell,,D07,2016-02-17T13:53:17+06:00,
1000000000091033,77755334008,mKarTel,mKcell,mKcell,,D01,2016-02-17T13:53:33+06:00,
1000000000091035,77012929013,mMTS,mKcell,mKcell,,D77,2016-02-17T13:53:55+06:00,
1000000000091036,77015239144,mKarTel,mKcell,mKcell,,D01,2016-02-17T13:54:11+06:00,
1000000000091039,77474055921,mKarTel,mMTS,mMTS,,D01,2016-02-17T13:56:28+06:00,
1000000000091041,77027957715,mMTS,mKcell,mKcell,,D77,2016-02-17T13:56:57+06:00,
1000000000091042,77475458965,mKcell,mMTS,mMTS,,D02,2016-02-17T13:57:21+06:00,
1000000000091043,77052035959,mMTS,mKarTel,mKarTel,,D77,2016-02-17T13:57:51+06:00,
1000000000091044,77056471777,mAltel,mKarTel,mKarTel,,D07,2016-02-17T13:58:20+06:00,
1000000000091046,77757491000,mKarTel,mKcell,mKcell,,D01,2016-02-17T13:59:10+06:00,
1000000000091047,77014772208,mKarTel,mKcell,mKcell,,D01,2016-02-17T13:59:21+06:00,
