NPId,Number,RecipientId,DonorId,RangeHolderId,OldRoute,NewRoute,PortDate,RowCount
1000000000108436,77755074444,mMTS,mAltel,mKcell,D07,D77,2016-03-06T06:41:50+06:00,3
1000000000108437,77029027782,mMTS,mKcell,mKcell,,D77,2016-03-06T06:42:05+06:00,
1000000000108438,77755084444,mMTS,mAltel,mKcell,D07,D77,2016-03-06T06:51:51+06:00,
