NPId,Number,RecipientId,DonorId,RangeHolderId,OldRoute,NewRoute,PortDate,RowCount
1000000000161206,77017727721,mMTS,mKcell,mKcell,,D77,2016-04-26T20:04:42+06:00,5
1000000000161207,77081512844,mKcell,mAltel,mAltel,,D02,2016-04-26T20:07:48+06:00,
1000000000161210,77773548456,mAltel,mKarTel,mKarTel,,D07,2016-04-26T20:24:05+06:00,
1000000000161211,77786799978,mKcell,mAltel,mKcell,D07,D02,2016-04-26T20:27:44+06:00,
1000000000161212,77052389555,mMTS,mKarTel,mKarTel,,D77,2016-04-26T20:28:04+06:00,
