NPId,Number,RecipientId,DonorId,RangeHolderId,OldRoute,NewRoute,PortDate,RowCount
1000000000286587,77772325919,mAltel,mKarTel,mKarTel,,D07,2016-11-30T10:02:58+06:00,13
1000000000286588,77051615026,mMTS,mKarTel,mKarTel,,D77,2016-11-30T10:02:58+06:00,
1000000000286589,77713580650,mMTS,mKarTel,mKarTel,,D77,2016-11-30T10:02:57+06:00,
1000000000286590,77753588388,mMTS,mKcell,mKcell,,D77,2016-11-30T10:02:37+06:00,
1000000000286591,77029085167,mMTS,mKcell,mKcell,,D77,2016-11-30T10:02:38+06:00,
1000000000286592,77001041975,mMTS,mAltel,mAltel,,D77,2016-11-30T10:06:01+06:00,
1000000000286593,77756756587,mAltel,mMTS,mKcell,D77,D07,2016-11-30T10:09:36+06:00,
1000000000286594,77477877717,mAltel,mMTS,mMTS,,D07,2016-11-30T10:09:51+06:00,
1000000000286596,77006041997,mMTS,mAltel,mAltel,,D77,2016-11-30T10:13:12+06:00,
1000000000286599,77772815317,mMTS,mKarTel,mKarTel,,D77,2016-11-30T10:17:22+06:00,
1000000000286600,77711070701,mMTS,mKarTel,mKarTel,,D77,2016-11-30T10:19:14+06:00,
1000000000286601,77071229900,mAltel,mKarTel,mMTS,D01,D07,2016-11-30T10:21:05+06:00,
1000000000286603,77755365252,mMTS,mKcell,mKcell,,D77,2016-11-30T10:26:03+06:00,
