NPId,Number,RecipientId,DonorId,RangeHolderId,OldRoute,NewRoute,PortDate,RowCount
1000000000150605,77752337233,mMTS,mKcell,mKcell,,D77,2016-04-13T12:01:00+06:00,15
1000000000150607,77714059010,mMTS,mKarTel,mKarTel,,D77,2016-04-13T12:07:27+06:00,
1000000000150608,77714059009,mMTS,mKarTel,mKarTel,,D77,2016-04-13T12:08:38+06:00,
1000000000150609,77772877075,mMTS,mKarTel,mKarTel,,D77,2016-04-13T12:08:38+06:00,
1000000000150611,77714059008,mMTS,mKarTel,mKarTel,,D77,2016-04-13T12:10:30+06:00,
1000000000150612,77714059007,mMTS,mKarTel,mKarTel,,D77,2016-04-13T12:10:30+06:00,
1000000000150613,77078517775,mKcell,mMTS,mMTS,,D02,2016-04-13T12:12:01+06:00,
1000000000150615,77002288880,mKcell,mAltel,mAltel,,D02,2016-04-13T12:14:42+06:00,
1000000000150618,77081023253,mKcell,mAltel,mAltel,,D02,2016-04-13T12:19:04+06:00,
1000000000150619,77015125280,mMTS,mKcell,mKcell,,D77,2016-04-13T12:20:22+06:00,
1000000000150620,77000933303,mKcell,mAltel,mAltel,,D02,2016-04-13T12:20:30+06:00,
1000000000150621,77713696559,mMTS,mKarTel,mKarTel,,D77,2016-04-13T12:22:05+06:00,
1000000000150622,77017607995,mKarTel,mKcell,mKcell,,D01,2016-04-13T12:21:26+06:00,
1000000000150623,77004112932,mMTS,mAltel,mAltel,,D77,2016-04-13T12:22:00+06:00,
1000000000150626,77085331340,mMTS,mAltel,mAltel,,D77,2016-04-13T12:27:48+06:00,
