NPId,Number,RecipientId,DonorId,RangeHolderId,OldRoute,NewRoute,PortDate,RowCount
1000000000414111,77760006105,mKcell,mKarTel,mKarTel,,D02,2017-07-01T14:30:06+06:00,38
1000000000414113,77057667949,mAltel,mKarTel,mKarTel,,D07,2017-07-01T14:30:15+06:00,
1000000000414116,77774795241,mMTS,mKarTel,mKarTel,,D77,2017-07-01T14:31:47+06:00,
1000000000414117,77087617690,mKarTel,mMTS,mAltel,D77,D01,2017-07-01T14:31:50+06:00,
1000000000414118,77012205516,mMTS,mKcell,mKcell,,D77,2017-07-01T14:31:54+06:00,
1000000000414120,77019533378,mKarTel,mKcell,mKcell,,D01,2017-07-01T14:32:25+06:00,
1000000000414123,77013331111,mMTS,mKarTel,mKcell,D01,D77,2017-07-01T14:33:35+06:00,
1000000000414124,77076571990,mAltel,mMTS,mMTS,,D07,2017-07-01T14:33:17+06:00,
1000000000414125,77014422233,mKcell,mKarTel,mKcell,D01,D02,2017-07-01T14:34:35+06:00,
1000000000414126,77012221002,mMTS,mKarTel,mKcell,D01,D77,2017-07-01T14:34:59+06:00,
1000000000414128,77077934621,mAltel,mMTS,mMTS,,D07,2017-07-01T14:34:45+06:00,
1000000000414130,77010343430,mKarTel,mKcell,mKcell,,D01,2017-07-01T14:36:02+06:00,
1000000000414132,77771920101,mMTS,mKarTel,mKarTel,,D77,2017-07-01T14:37:04+06:00,
1000000000414133,77051000515,mKcell,mMTS,mKarTel,D77,D02,2017-07-01T14:37:15+06:00,
1000000000414134,77753335771,mKcell,mMTS,mKcell,D77,D02,2017-07-01T14:37:49+06:00,
1000000000414135,77751340707,mKcell,mKarTel,mKcell,D01,D02,2017-07-01T14:40:19+06:00,
1000000000414137,77023669265,mMTS,mKcell,mKcell,,D77,2017-07-01T14:40:14+06:00,
1000000000414139,77017553710,mKarTel,mKcell,mKcell,,D01,2017-07-01T14:41:59+06:00,
1000000000414140,77079841125,mAltel,mMTS,mMTS,,D07,2017-07-01T14:41:49+06:00,
1000000000414142,77007117002,mMTS,mAltel,mAltel,,D77,2017-07-01T14:42:48+06:00,
1000000000414143,77770177761,mKcell,mKarTel,mKarTel,,D02,2017-07-01T14:43:26+06:00,
1000000000414144,77009951041,mKcell,mMTS,mAltel,D77,D02,2017-07-01T14:43:20+06:00,
1000000000414145,77020000082,mMTS,mKcell,mKcell,,D77,2017-07-01T14:43:27+06:00,
1000000000414147,77015181797,mMTS,mKcell,mKcell,,D77,2017-07-01T14:43:50+06:00,
1000000000414150,77012142070,mMTS,mAltel,mKcell,D07,D77,2017-07-01T14:46:01+06:00,
1000000000414152,77013553515,mKarTel,mKcell,mKcell,,D01,2017-07-01T14:48:24+06:00,
1000000000414153,77012223078,mKcell,mKarTel,mKcell,D01,D02,2017-07-01T14:49:24+06:00,
1000000000414159,77074441873,mAltel,mKarTel,mMTS,D01,D07,2017-07-01T14:52:00+06:00,
1000000000414160,77712120001,mMTS,mKarTel,mKarTel,,D77,2017-07-01T14:52:25+06:00,
1000000000414162,77003072078,mMTS,mAltel,mAltel,,D77,2017-07-01T14:52:47+06:00,
1000000000414163,77009951042,mKcell,mKarTel,mAltel,D01,D02,2017-07-01T14:53:41+06:00,
1000000000414164,77081828202,mKcell,mAltel,mAltel,,D02,2017-07-01T14:53:42+06:00,
1000000000414166,77011119438,mAltel,mKcell,mKcell,,D07,2017-07-01T14:55:53+06:00,
1000000000414167,77011012480,mMTS,mKcell,mKcell,,D77,2017-07-01T14:56:36+06:00,
1000000000414168,77017181575,mKcell,mKarTel,mKcell,D01,D02,2017-07-01T14:57:19+06:00,
1000000000414169,77017668017,mMTS,mKcell,mKcell,,D77,2017-07-01T14:57:00+06:00,
1000000000414170,77006230655,mMTS,mAltel,mAltel,,D77,2017-07-01T14:57:27+06:00,
1000000000414172,77073050000,mKarTel,mKcell,mMTS,D02,D01,2017-07-01T14:59:57+06:00,
