NPId,Number,RecipientId,DonorId,RangeHolderId,OldRoute,NewRoute,PortDate,RowCount
1000000000186544,77775332991,mKcell,mKarTel,mKarTel,,D02,2016-06-02T16:19:22+06:00,33
1000000000186544,77777701666,mKcell,mKarTel,mKarTel,,D02,2016-06-02T16:19:22+06:00,
1000000000186544,77777771706,mKcell,mKarTel,mKarTel,,D02,2016-06-02T16:19:22+06:00,
1000000000186602,77012210022,mMTS,mKcell,mKcell,,D77,2016-06-02T16:08:38+06:00,
1000000000186607,77011463000,mMTS,mKcell,mKcell,,D77,2016-06-02T16:02:04+06:00,
1000000000186609,77019008779,mKcell,mAltel,mKcell,D07,D02,2016-06-02T16:01:39+06:00,
1000000000186610,77770339863,mMTS,mKarTel,mKarTel,,D77,2016-06-02T16:01:15+06:00,
1000000000186612,77025535253,mMTS,mKcell,mKcell,,D77,2016-06-02T16:02:04+06:00,
1000000000186613,77071462424,mMTS,mKcell,mMTS,D02,D77,2016-06-02T16:03:07+06:00,
1000000000186615,77071174715,mKcell,mAltel,mMTS,D07,D02,2016-06-02T16:04:15+06:00,
1000000000186617,77071462525,mMTS,mKcell,mMTS,D02,D77,2016-06-02T16:06:24+06:00,
1000000000186618,77013782007,mKarTel,mKcell,mKcell,,D01,2016-06-02T16:06:41+06:00,
1000000000186620,77000003300,mMTS,mAltel,mAltel,,D77,2016-06-02T16:06:26+06:00,
1000000000186621,77775605594,mKcell,mKarTel,mKarTel,,D02,2016-06-02T16:08:00+06:00,
1000000000186623,77785748418,mAltel,mKcell,mKcell,,D07,2016-06-02T16:09:32+06:00,
1000000000186626,77015873000,mAltel,mKcell,mKcell,,D07,2016-06-02T16:10:28+06:00,
1000000000186627,77775060888,mKcell,mKarTel,mKarTel,,D02,2016-06-02T16:15:10+06:00,
1000000000186629,77055383158,mAltel,mKarTel,mKarTel,,D07,2016-06-02T16:15:31+06:00,
1000000000186631,77027246666,mMTS,mKcell,mKcell,,D77,2016-06-02T16:17:59+06:00,
1000000000186632,77086282020,mKcell,mAltel,mAltel,,D02,2016-06-02T16:19:23+06:00,
1000000000186633,77774988888,mKcell,mKarTel,mKarTel,,D02,2016-06-02T16:19:23+06:00,
1000000000186634,77716652222,mKcell,mKarTel,mKarTel,,D02,2016-06-02T16:19:24+06:00,
1000000000186635,77019534876,mMTS,mKcell,mKcell,,D77,2016-06-02T16:18:19+06:00,
1000000000186636,77015564983,mAltel,mKcell,mKcell,D02,D07,2016-06-02T16:18:19+06:00,
1000000000186637,77779132606,mMTS,mAltel,mKarTel,D07,D77,2016-06-02T16:19:06+06:00,
1000000000186638,77783097105,mAltel,mKcell,mKcell,,D07,2016-06-02T16:21:19+06:00,
1000000000186640,77761641988,mKcell,mKarTel,mKarTel,,D02,2016-06-02T16:22:12+06:00,
1000000000186642,77759422700,mMTS,mKcell,mKcell,,D77,2016-06-02T16:22:25+06:00,
1000000000186643,77078890090,mMTS,mKcell,mMTS,D02,D77,2016-06-02T16:22:44+06:00,
1000000000186645,77074855155,mKcell,mMTS,mMTS,,D02,2016-06-02T16:23:52+06:00,
1000000000186646,77778508555,mAltel,mKarTel,mKarTel,,D07,2016-06-02T16:24:42+06:00,
1000000000186647,77764777742,mKcell,mKarTel,mKarTel,,D02,2016-06-02T16:26:00+06:00,
1000000000186651,77767477747,mKarTel,mKcell,mKarTel,D02,D01,2016-06-02T16:28:20+06:00,
