NPId,Number,RecipientId,DonorId,RangeHolderId,OldRoute,NewRoute,PortDate,RowCount
1000000000162552,77010347016,mKarTel,mKcell,mKcell,,D01,2016-04-28T15:09:38+06:00,35
1000000000162552,77012166242,mKarTel,mKcell,mKcell,,D01,2016-04-28T15:09:38+06:00,
1000000000162552,77022189462,mKarTel,mKcell,mKcell,,D01,2016-04-28T15:09:38+06:00,
1000000000162571,77057121520,mMTS,mKarTel,mKarTel,,D77,2016-04-28T15:00:00+06:00,
1000000000162574,77010848485,mMTS,mKcell,mKcell,,D77,2016-04-28T15:01:22+06:00,
1000000000162575,77089493586,mMTS,mAltel,mAltel,,D77,2016-04-28T15:00:52+06:00,
1000000000162576,77024611734,mMTS,mKcell,mKcell,,D77,2016-04-28T15:01:46+06:00,
1000000000162577,77072633303,mKarTel,mMTS,mMTS,,D01,2016-04-28T15:05:38+06:00,
1000000000162578,77007160503,mKcell,mAltel,mAltel,,D02,2016-04-28T15:02:53+06:00,
1000000000162579,77075654825,mKcell,mMTS,mMTS,,D02,2016-04-28T15:02:54+06:00,
1000000000162580,77012505151,mMTS,mKcell,mKcell,,D77,2016-04-28T15:04:46+06:00,
1000000000162581,77089139210,mMTS,mAltel,mAltel,,D77,2016-04-28T15:04:33+06:00,
1000000000162586,77083395775,mMTS,mAltel,mAltel,,D77,2016-04-28T15:08:09+06:00,
1000000000162587,77755254444,mMTS,mKcell,mKcell,,D77,2016-04-28T15:09:18+06:00,
1000000000162588,77785920000,mKarTel,mKcell,mKcell,,D01,2016-04-28T15:09:49+06:00,
1000000000162589,77073043317,mKcell,mMTS,mMTS,,D02,2016-04-28T15:09:17+06:00,
1000000000162590,77081063063,mMTS,mAltel,mAltel,,D77,2016-04-28T15:09:48+06:00,
1000000000162591,77713594880,mMTS,mKarTel,mKarTel,,D77,2016-04-28T15:11:32+06:00,
1000000000162592,77001490476,mMTS,mAltel,mAltel,,D77,2016-04-28T15:12:00+06:00,
1000000000162594,77051610750,mMTS,mKarTel,mKarTel,,D77,2016-04-28T15:13:43+06:00,
1000000000162596,77085575707,mMTS,mAltel,mAltel,,D77,2016-04-28T15:14:48+06:00,
1000000000162598,77077440870,mKcell,mMTS,mMTS,,D02,2016-04-28T15:16:32+06:00,
1000000000162600,77083572865,mMTS,mAltel,mAltel,,D77,2016-04-28T15:17:58+06:00,
1000000000162601,77754545444,mMTS,mKcell,mKcell,,D77,2016-04-28T15:20:00+06:00,
1000000000162602,77001981788,mKarTel,mAltel,mAltel,,D01,2016-04-28T15:20:19+06:00,
1000000000162603,77056160808,mMTS,mKarTel,mKarTel,,D77,2016-04-28T15:20:40+06:00,
1000000000162604,77073555474,mKcell,mMTS,mMTS,,D02,2016-04-28T15:21:29+06:00,
1000000000162605,77785111661,mMTS,mKcell,mKcell,,D77,2016-04-28T15:21:11+06:00,
1000000000162606,77781450606,mKcell,mAltel,mKcell,D07,D02,2016-04-28T15:21:42+06:00,
1000000000162607,77014684093,mMTS,mKcell,mKcell,,D77,2016-04-28T15:21:55+06:00,
1000000000162608,77779957626,mMTS,mKarTel,mKarTel,,D77,2016-04-28T15:22:23+06:00,
1000000000162610,77788742226,mAltel,mKcell,mKcell,,D07,2016-04-28T15:24:37+06:00,
1000000000162612,77015246358,mMTS,mKarTel,mKcell,D01,D77,2016-04-28T15:25:30+06:00,
1000000000162614,77012254989,mMTS,mKarTel,mKcell,D01,D77,2016-04-28T15:26:48+06:00,
1000000000162615,77025229837,mMTS,mKcell,mKcell,,D77,2016-04-28T15:28:13+06:00,
