NPId,Number,RecipientId,DonorId,RangeHolderId,OldRoute,NewRoute,PortDate,RowCount
1000000000297332,77014553344,mKcell,mMTS,mKcell,D77,D02,2016-12-19T19:31:19+06:00,3
1000000000297333,77754453909,mKcell,mMTS,mKcell,D77,D02,2016-12-19T19:32:14+06:00,
1000000000297335,77071127117,mKcell,mMTS,mMTS,,D02,2016-12-19T19:52:06+06:00,
