NPId,Number,RecipientId,DonorId,RangeHolderId,OldRoute,NewRoute,PortDate,RowCount
1000000000430259,77071170042,mKarTel,mMTS,mMTS,,D01,2017-07-29T11:30:39+06:00,24
1000000000430260,77076013425,mAltel,mMTS,mMTS,,D07,2017-07-29T11:32:00+06:00,
1000000000430261,77775769611,mKarTel,mAltel,mKarTel,D07,D01,2017-07-29T11:33:26+06:00,
1000000000430264,77013265804,mAltel,mMTS,mKcell,D77,D07,2017-07-29T11:35:27+06:00,
1000000000430265,77017208020,mMTS,mKcell,mKcell,,D77,2017-07-29T11:36:39+06:00,
1000000000430266,77017817133,mAltel,mKcell,mKcell,,D07,2017-07-29T11:37:58+06:00,
1000000000430267,77073888633,mMTS,mKarTel,mMTS,D01,D77,2017-07-29T11:38:39+06:00,
1000000000430268,77763133388,mAltel,mKarTel,mKarTel,,D07,2017-07-29T11:38:50+06:00,
1000000000430269,77071666445,mMTS,mKarTel,mMTS,D01,D77,2017-07-29T11:40:51+06:00,
1000000000430270,77081047388,mKcell,mAltel,mAltel,,D02,2017-07-29T11:41:43+06:00,
1000000000430274,77015719595,mKarTel,mMTS,mKcell,D77,D01,2017-07-29T11:47:57+06:00,
1000000000430277,77771351642,mAltel,mKarTel,mKarTel,,D07,2017-07-29T11:50:44+06:00,
1000000000430278,77016640033,mKcell,mMTS,mKcell,D77,D02,2017-07-29T11:50:45+06:00,
1000000000430279,77785902217,mMTS,mKcell,mKcell,,D77,2017-07-29T11:51:47+06:00,
1000000000430280,77777010757,mMTS,mKarTel,mKarTel,,D77,2017-07-29T11:51:58+06:00,
1000000000430281,77024502111,mAltel,mKcell,mKcell,,D07,2017-07-29T11:51:51+06:00,
1000000000430282,77777010747,mMTS,mKarTel,mKarTel,,D77,2017-07-29T11:52:46+06:00,
1000000000430283,77087580148,mKcell,mAltel,mAltel,D07,D02,2017-07-29T11:56:09+06:00,
1000000000430284,77752087993,mMTS,mKcell,mKcell,,D77,2017-07-29T11:55:33+06:00,
1000000000430289,77014453901,mKarTel,mKcell,mKcell,,D01,2017-07-29T11:57:29+06:00,
1000000000430290,77023077755,mMTS,mKcell,mKcell,,D77,2017-07-29T11:57:39+06:00,
1000000000430291,77075898898,mKarTel,mMTS,mMTS,,D01,2017-07-29T11:57:59+06:00,
1000000000430292,77015237175,mKarTel,mKcell,mKcell,,D01,2017-07-29T11:59:05+06:00,
1000000000430293,77787048217,mMTS,mKcell,mKcell,,D77,2017-07-29T11:59:41+06:00,
