NPId,Number,RecipientId,DonorId,RangeHolderId,OldRoute,NewRoute,PortDate,RowCount
1000000000311461,77057844312,mKarTel,mKcell,mKarTel,D02,D01,2017-01-17T10:11:02+06:00,35
1000000000311461,77057882197,mKarTel,mKcell,mKarTel,D02,D01,2017-01-17T10:11:02+06:00,
1000000000311461,77717060811,mKarTel,mKcell,mKarTel,D02,D01,2017-01-17T10:11:02+06:00,
1000000000311461,77717062342,mKarTel,mKcell,mKarTel,D02,D01,2017-01-17T10:11:02+06:00,
1000000000311461,77718412230,mKarTel,mKcell,mKarTel,D02,D01,2017-01-17T10:11:02+06:00,
1000000000311461,77770570048,mKarTel,mKcell,mKarTel,D02,D01,2017-01-17T10:11:02+06:00,
1000000000311461,77770570614,mKarTel,mKcell,mKarTel,D02,D01,2017-01-17T10:11:02+06:00,
1000000000311461,77770577213,mKarTel,mKcell,mKarTel,D02,D01,2017-01-17T10:11:02+06:00,
1000000000311461,77770577214,mKarTel,mKcell,mKarTel,D02,D01,2017-01-17T10:11:02+06:00,
1000000000311461,77770577215,mKarTel,mKcell,mKarTel,D02,D01,2017-01-17T10:11:02+06:00,
1000000000311461,77770579093,mKarTel,mKcell,mKarTel,D02,D01,2017-01-17T10:11:02+06:00,
1000000000311461,77770579658,mKarTel,mKcell,mKarTel,D02,D01,2017-01-17T10:11:02+06:00,
1000000000311461,77770579660,mKarTel,mKcell,mKarTel,D02,D01,2017-01-17T10:11:02+06:00,
1000000000311461,77773110938,mKarTel,mKcell,mKarTel,D02,D01,2017-01-17T10:11:02+06:00,
1000000000311461,77775505105,mKarTel,mKcell,mKarTel,D02,D01,2017-01-17T10:11:02+06:00,
1000000000311461,77775993402,mKarTel,mKcell,mKarTel,D02,D01,2017-01-17T10:11:02+06:00,
1000000000311461,77775993403,mKarTel,mKcell,mKarTel,D02,D01,2017-01-17T10:11:02+06:00,
1000000000311461,77775993991,mKarTel,mKcell,mKarTel,D02,D01,2017-01-17T10:11:02+06:00,
1000000000311461,77775994066,mKarTel,mKcell,mKarTel,D02,D01,2017-01-17T10:11:02+06:00,
1000000000311461,77775994067,mKarTel,mKcell,mKarTel,D02,D01,2017-01-17T10:11:02+06:00,
1000000000311461,77775994438,mKarTel,mKcell,mKarTel,D02,D01,2017-01-17T10:11:02+06:00,
1000000000311744,77777887921,mKarTel,mAltel,mKarTel,D07,D01,2017-01-17T10:06:25+06:00,
1000000000311746,77029116767,mKcell,mMTS,mKcell,D77,D02,2017-01-17T10:09:58+06:00,
1000000000311747,77001454220,mMTS,mAltel,mAltel,,D77,2017-01-17T10:12:41+06:00,
1000000000311748,77770900979,mAltel,mKarTel,mKarTel,,D07,2017-01-17T10:15:10+06:00,
1000000000311749,77018714011,mMTS,mKarTel,mKcell,D01,D77,2017-01-17T10:16:37+06:00,
1000000000311751,77071305858,mKcell,mMTS,mMTS,,D02,2017-01-17T10:17:32+06:00,
1000000000311752,77770000094,mKcell,mKarTel,mKarTel,,D02,2017-01-17T10:18:00+06:00,
1000000000311753,77789510640,mMTS,mKcell,mKcell,,D77,2017-01-17T10:18:12+06:00,
1000000000311754,77012774240,mMTS,mKcell,mKcell,,D77,2017-01-17T10:21:49+06:00,
1000000000311756,77007780474,mKarTel,mAltel,mAltel,,D01,2017-01-17T10:23:39+06:00,
1000000000311757,77029153948,mMTS,mKcell,mKcell,,D77,2017-01-17T10:24:15+06:00,
1000000000311758,77714504833,mKcell,mKarTel,mKarTel,,D02,2017-01-17T10:25:07+06:00,
1000000000311759,77479078249,mKarTel,mMTS,mMTS,,D01,2017-01-17T10:26:17+06:00,
1000000000311761,77074090813,mKcell,mMTS,mMTS,,D02,2017-01-17T10:28:27+06:00,
