NPId,Number,RecipientId,DonorId,RangeHolderId,OldRoute,NewRoute,PortDate,RowCount
1000000000426099,77777776500,mKarTel,mKcell,mKarTel,D02,D01,2017-07-21T20:00:39+06:00,7
1000000000426100,77017755433,mKcell,mMTS,mKcell,D77,D02,2017-07-21T20:00:44+06:00,
1000000000426101,77018125980,mKcell,mAltel,mKcell,D07,D02,2017-07-21T20:02:06+06:00,
1000000000426102,77001812006,mKcell,mAltel,mAltel,,D02,2017-07-21T20:02:22+06:00,
1000000000426103,77007775900,mKarTel,mAltel,mAltel,,D01,2017-07-21T20:04:16+06:00,
1000000000426105,77006022002,mKcell,mAltel,mAltel,,D02,2017-07-21T20:07:00+06:00,
1000000000426106,77054259700,mKcell,mMTS,mKarTel,D77,D02,2017-07-21T20:10:05+06:00,
