NPId,Number,RecipientId,DonorId,RangeHolderId,OldRoute,NewRoute,PortDate,RowCount
1000000000254099,77017159340,mKarTel,mKcell,mKcell,,D01,2016-10-03T12:01:05+06:00,36
1000000000254726,77019892461,mKarTel,mKcell,mKcell,,D01,2016-10-03T12:06:45+06:00,
1000000000254797,77710566065,mKarTel,mKcell,mKarTel,D02,D01,2016-10-03T12:08:10+06:00,
1000000000255683,77715076352,mKcell,mKarTel,mKarTel,,D02,2016-10-03T12:01:17+06:00,
1000000000255686,77715535079,mKcell,mKarTel,mKarTel,,D02,2016-10-03T12:03:50+06:00,
1000000000255694,77715539261,mKcell,mKarTel,mKarTel,,D02,2016-10-03T12:08:19+06:00,
1000000000255699,77715586979,mKcell,mKarTel,mKarTel,,D02,2016-10-03T12:10:50+06:00,
1000000000255716,77054446911,mMTS,mAltel,mKarTel,D07,D77,2016-10-03T12:06:16+06:00,
1000000000255717,77754294582,mAltel,mKcell,mKcell,,D07,2016-10-03T12:06:45+06:00,
1000000000255718,77028005558,mKarTel,mKcell,mKcell,,D01,2016-10-03T12:08:08+06:00,
1000000000255719,77756288811,mKarTel,mKcell,mKcell,,D01,2016-10-03T12:08:07+06:00,
1000000000255720,77073192065,mKarTel,mMTS,mMTS,,D01,2016-10-03T12:08:10+06:00,
1000000000255723,77777979175,mKarTel,mMTS,mKarTel,D77,D01,2016-10-03T12:09:26+06:00,
1000000000255724,77014008881,mKarTel,mKcell,mKcell,,D01,2016-10-03T12:09:26+06:00,
1000000000255725,77004000489,mKcell,mAltel,mAltel,,D02,2016-10-03T12:08:25+06:00,
1000000000255728,77072318865,mKarTel,mMTS,mMTS,,D01,2016-10-03T12:12:04+06:00,
1000000000255729,77077613019,mKcell,mMTS,mMTS,,D02,2016-10-03T12:11:09+06:00,
1000000000255730,77478095710,mKcell,mMTS,mMTS,,D02,2016-10-03T12:11:13+06:00,
1000000000255732,77757488813,mMTS,mKcell,mKcell,,D77,2016-10-03T12:12:19+06:00,
1000000000255733,77003623075,mMTS,mAltel,mAltel,,D77,2016-10-03T12:12:26+06:00,
1000000000255735,77478875420,mKcell,mMTS,mMTS,,D02,2016-10-03T12:16:28+06:00,
1000000000255737,77772781323,mMTS,mKarTel,mKarTel,,D77,2016-10-03T12:20:14+06:00,
1000000000255738,77776383514,mMTS,mKarTel,mKarTel,,D77,2016-10-03T12:21:32+06:00,
1000000000255739,77006000689,mKcell,mAltel,mAltel,,D02,2016-10-03T12:17:58+06:00,
1000000000255740,77788285298,mAltel,mKcell,mKcell,,D07,2016-10-03T12:17:47+06:00,
1000000000255741,77072602792,mKcell,mMTS,mMTS,,D02,2016-10-03T12:17:59+06:00,
1000000000255742,77018726940,mKarTel,mKcell,mKcell,,D01,2016-10-03T12:20:08+06:00,
1000000000255743,77011113035,mMTS,mKcell,mKcell,,D77,2016-10-03T12:20:01+06:00,
1000000000255744,77022262707,mMTS,mKcell,mKcell,,D77,2016-10-03T12:21:32+06:00,
1000000000255747,77474642336,mKcell,mMTS,mMTS,,D02,2016-10-03T12:22:37+06:00,
1000000000255748,77752660296,mMTS,mKcell,mKcell,,D77,2016-10-03T12:23:06+06:00,
1000000000255749,77759942510,mKcell,mKarTel,mKcell,D01,D02,2016-10-03T12:27:30+06:00,
1000000000255750,77784028819,mAltel,mKcell,mKcell,,D07,2016-10-03T12:27:59+06:00,
1000000000255754,77083310304,mAltel,mMTS,mAltel,D77,D07,2016-10-03T12:26:47+06:00,
1000000000255755,77015231231,mMTS,mKcell,mKcell,,D77,2016-10-03T12:27:01+06:00,
1000000000255756,77019530933,mAltel,mKcell,mKcell,,D07,2016-10-03T12:27:33+06:00,
