NPId,Number,RecipientId,DonorId,RangeHolderId,OldRoute,NewRoute,PortDate,RowCount
1000000000394252,77012141297,mKarTel,mKcell,mKcell,,D01,2017-05-31T19:00:30+06:00,30
1000000000394255,77762808181,mKcell,mKarTel,mKarTel,,D02,2017-05-31T19:01:18+06:00,
1000000000394257,77017543677,mKarTel,mKcell,mKcell,,D01,2017-05-31T19:01:40+06:00,
1000000000394258,77714887278,mAltel,mKarTel,mKarTel,,D07,2017-05-31T19:01:48+06:00,
1000000000394259,77781319327,mMTS,mKcell,mKcell,,D77,2017-05-31T19:01:54+06:00,
1000000000394260,77471976650,mMTS,mKarTel,mMTS,D01,D77,2017-05-31T19:02:05+06:00,
1000000000394261,77087541031,mAltel,mMTS,mAltel,D77,D07,2017-05-31T19:02:10+06:00,
1000000000394262,77018879004,mKarTel,mKcell,mKcell,,D01,2017-05-31T19:03:11+06:00,
1000000000394264,77782203191,mKcell,mMTS,mKcell,D77,D02,2017-05-31T19:05:55+06:00,
1000000000394265,77054729913,mMTS,mKarTel,mKarTel,,D77,2017-05-31T19:06:17+06:00,
1000000000394266,77074349212,mKarTel,mMTS,mMTS,,D01,2017-05-31T19:07:10+06:00,
1000000000394268,77752811385,mMTS,mKcell,mKcell,,D77,2017-05-31T19:07:55+06:00,
1000000000394270,77017148355,mMTS,mKcell,mKcell,,D77,2017-05-31T19:09:58+06:00,
1000000000394271,77016300098,mKarTel,mKcell,mKcell,,D01,2017-05-31T19:10:43+06:00,
1000000000394272,77021336557,mKarTel,mKcell,mKcell,,D01,2017-05-31T19:11:08+06:00,
1000000000394273,77019188700,mAltel,mKarTel,mKcell,D01,D07,2017-05-31T19:11:23+06:00,
1000000000394274,77021519911,mKarTel,mKcell,mKcell,,D01,2017-05-31T19:11:45+06:00,
1000000000394275,77072877707,mAltel,mMTS,mMTS,,D07,2017-05-31T19:11:44+06:00,
1000000000394276,77787369946,mMTS,mKcell,mKcell,,D77,2017-05-31T19:12:54+06:00,
1000000000394277,77070519517,mKcell,mMTS,mMTS,,D02,2017-05-31T19:14:43+06:00,
1000000000394278,77017134706,mKarTel,mMTS,mKcell,D77,D01,2017-05-31T19:15:49+06:00,
1000000000394279,77073230808,mMTS,mKcell,mMTS,D02,D77,2017-05-31T19:17:53+06:00,
1000000000394280,77759974462,mMTS,mKcell,mKcell,,D77,2017-05-31T19:17:55+06:00,
1000000000394281,77019899889,mMTS,mKcell,mKcell,,D77,2017-05-31T19:19:06+06:00,
1000000000394282,77076233511,mKarTel,mMTS,mMTS,,D01,2017-05-31T19:19:26+06:00,
1000000000394283,77019334449,mAltel,mKcell,mKcell,,D07,2017-05-31T19:19:50+06:00,
1000000000394286,77784456805,mMTS,mKcell,mKcell,,D77,2017-05-31T19:24:46+06:00,
1000000000394287,77756155690,mKarTel,mKcell,mKcell,,D01,2017-05-31T19:25:06+06:00,
1000000000394288,77760920200,mKcell,mKarTel,mKarTel,,D02,2017-05-31T19:29:03+06:00,
1000000000394289,77775760011,mKcell,mKarTel,mKarTel,,D02,2017-05-31T19:29:34+06:00,
