NPId,Number,RecipientId,DonorId,RangeHolderId,OldRoute,NewRoute,PortDate,RowCount
1000000000265670,77777776611,mKarTel,mKcell,mKarTel,D02,D01,2016-10-20T16:59:49+06:00,34
1000000000265681,77775058458,mKcell,mKarTel,mKarTel,,D02,2016-10-20T16:30:18+06:00,
1000000000265683,77016645657,mAltel,mKcell,mKcell,,D07,2016-10-20T16:30:00+06:00,
1000000000265684,77007990030,mAltel,mKarTel,mAltel,D01,D07,2016-10-20T16:30:19+06:00,
1000000000265685,77089583627,mKcell,mAltel,mAltel,,D02,2016-10-20T16:30:22+06:00,
1000000000265686,77775774949,mKarTel,mMTS,mKarTel,D77,D01,2016-10-20T16:31:06+06:00,
1000000000265687,77771918603,mMTS,mKarTel,mKarTel,,D77,2016-10-20T16:31:31+06:00,
1000000000265690,77007990040,mAltel,mKarTel,mAltel,D01,D07,2016-10-20T16:32:01+06:00,
1000000000265691,77084012022,mMTS,mAltel,mAltel,,D77,2016-10-20T16:32:33+06:00,
1000000000265692,77084012021,mMTS,mAltel,mAltel,,D77,2016-10-20T16:32:33+06:00,
1000000000265693,77007990060,mAltel,mKarTel,mAltel,D01,D07,2016-10-20T16:33:02+06:00,
1000000000265694,77019400425,mKarTel,mKcell,mKcell,,D01,2016-10-20T16:33:19+06:00,
1000000000265695,77789997088,mMTS,mKcell,mKcell,,D77,2016-10-20T16:33:39+06:00,
1000000000265696,77016661414,mAltel,mKcell,mKcell,,D07,2016-10-20T16:33:59+06:00,
1000000000265697,77012318000,mMTS,mKcell,mKcell,,D77,2016-10-20T16:34:11+06:00,
1000000000265698,77007990070,mAltel,mKarTel,mAltel,D01,D07,2016-10-20T16:34:49+06:00,
1000000000265699,77006001992,mKcell,mAltel,mAltel,,D02,2016-10-20T16:34:58+06:00,
1000000000265700,77777809192,mMTS,mKarTel,mKarTel,,D77,2016-10-20T16:35:11+06:00,
1000000000265701,77007990080,mAltel,mKarTel,mAltel,D01,D07,2016-10-20T16:36:01+06:00,
1000000000265703,77755078316,mMTS,mKcell,mKcell,,D77,2016-10-20T16:36:13+06:00,
1000000000265707,77015702156,mKarTel,mKcell,mKcell,,D01,2016-10-20T16:37:05+06:00,
1000000000265708,77754656479,mKcell,mKarTel,mKcell,D01,D02,2016-10-20T16:39:26+06:00,
1000000000265709,77001011998,mKcell,mAltel,mAltel,,D02,2016-10-20T16:37:54+06:00,
1000000000265711,77007707083,mKcell,mAltel,mAltel,,D02,2016-10-20T16:38:55+06:00,
1000000000265713,77073105139,mAltel,mMTS,mMTS,,D07,2016-10-20T16:40:35+06:00,
1000000000265715,77007151160,mAltel,mKarTel,mAltel,D01,D07,2016-10-20T16:42:36+06:00,
1000000000265719,77029994503,mMTS,mKcell,mKcell,,D77,2016-10-20T16:45:41+06:00,
1000000000265720,77786424137,mKarTel,mKcell,mKcell,,D01,2016-10-20T16:45:58+06:00,
1000000000265721,77752646027,mKarTel,mAltel,mKcell,D07,D01,2016-10-20T16:48:31+06:00,
1000000000265722,77077550009,mKcell,mMTS,mMTS,,D02,2016-10-20T16:50:48+06:00,
1000000000265723,77004028046,mKcell,mAltel,mAltel,,D02,2016-10-20T16:50:55+06:00,
1000000000265724,77019699966,mAltel,mKcell,mKcell,,D07,2016-10-20T16:50:58+06:00,
1000000000265725,77783032300,mKcell,mAltel,mKcell,D07,D02,2016-10-20T16:52:54+06:00,
1000000000265726,77018244411,mKcell,mMTS,mKcell,D77,D02,2016-10-20T16:54:37+06:00,
