NPId,Number,RecipientId,DonorId,RangeHolderId,OldRoute,NewRoute,PortDate,RowCount
1000000000353108,77769999185,mKcell,mKarTel,mKarTel,,D02,2017-03-27T14:00:28+06:00,29
1000000000353109,77767059900,mKarTel,mAltel,mKarTel,D07,D01,2017-03-27T14:02:58+06:00,
1000000000353111,77475677786,mAltel,mMTS,mMTS,,D07,2017-03-27T14:03:11+06:00,
1000000000353112,77015160744,mMTS,mKcell,mKcell,,D77,2017-03-27T14:03:29+06:00,
1000000000353113,77471570156,mKcell,mMTS,mMTS,,D02,2017-03-27T14:03:47+06:00,
1000000000353115,77759861004,mMTS,mKcell,mKcell,,D77,2017-03-27T14:06:16+06:00,
1000000000353116,77473758967,mKcell,mMTS,mMTS,,D02,2017-03-27T14:07:18+06:00,
1000000000353119,77781961066,mKcell,mMTS,mKcell,D77,D02,2017-03-27T14:09:59+06:00,
1000000000353121,77715842244,mMTS,mKarTel,mKarTel,D01,D77,2017-03-27T14:11:10+06:00,
1000000000353122,77025166668,mKarTel,mKcell,mKcell,,D01,2017-03-27T14:11:44+06:00,
1000000000353123,77471570109,mKcell,mMTS,mMTS,,D02,2017-03-27T14:13:12+06:00,
1000000000353124,77712896699,mAltel,mKarTel,mKarTel,,D07,2017-03-27T14:14:55+06:00,
1000000000353125,77082092958,mKcell,mAltel,mAltel,,D02,2017-03-27T14:14:52+06:00,
1000000000353126,77056971000,mAltel,mKarTel,mKarTel,,D07,2017-03-27T14:15:56+06:00,
1000000000353127,77773002269,mMTS,mKcell,mKarTel,D02,D77,2017-03-27T14:16:10+06:00,
1000000000353129,77776415559,mKcell,mKarTel,mKarTel,,D02,2017-03-27T14:17:29+06:00,
1000000000353130,77027600454,mMTS,mKcell,mKcell,,D77,2017-03-27T14:17:38+06:00,
1000000000353131,77019889870,mAltel,mKcell,mKcell,,D07,2017-03-27T14:19:12+06:00,
1000000000353132,77772873519,mMTS,mKarTel,mKarTel,,D77,2017-03-27T14:23:12+06:00,
1000000000353133,77002220744,mMTS,mAltel,mAltel,,D77,2017-03-27T14:22:51+06:00,
1000000000353134,77071455747,mKcell,mMTS,mMTS,,D02,2017-03-27T14:23:38+06:00,
1000000000353135,77005750410,mKcell,mAltel,mAltel,,D02,2017-03-27T14:24:34+06:00,
1000000000353136,77011234130,mKcell,mMTS,mKcell,D77,D02,2017-03-27T14:25:45+06:00,
1000000000353137,77000007888,mKarTel,mAltel,mAltel,,D01,2017-03-27T14:26:00+06:00,
1000000000353138,77471570030,mKcell,mMTS,mMTS,,D02,2017-03-27T14:25:58+06:00,
1000000000353139,77774750000,mMTS,mKcell,mKarTel,D02,D77,2017-03-27T14:26:21+06:00,
1000000000353140,77075912220,mKarTel,mMTS,mMTS,,D01,2017-03-27T14:26:37+06:00,
1000000000353141,77757337050,mMTS,mKcell,mKcell,,D77,2017-03-27T14:28:10+06:00,
1000000000353142,77023041830,mAltel,mKcell,mKcell,,D07,2017-03-27T14:28:25+06:00,
