NPId,Number,RecipientId,DonorId,RangeHolderId,OldRoute,NewRoute,PortDate,RowCount
1000000000256355,77775976746,mKcell,mMTS,mKarTel,D77,D02,2016-10-03T20:37:52+06:00,5
1000000000256356,77070378747,mKcell,mMTS,mMTS,,D02,2016-10-03T20:36:27+06:00,
1000000000256359,77788888899,mKarTel,mMTS,mKcell,D77,D01,2016-10-03T20:44:54+06:00,
1000000000256360,77079130395,mKcell,mMTS,mMTS,,D02,2016-10-03T20:45:44+06:00,
1000000000256363,77027023948,mMTS,mKcell,mKcell,,D77,2016-10-03T20:59:11+06:00,
