NPId,Number,RecipientId,DonorId,RangeHolderId,OldRoute,NewRoute,PortDate,RowCount
1000000000159011,77054555955,mMTS,mKarTel,mKarTel,,D77,2016-04-23T18:44:36+06:00,4
1000000000159012,77024646646,mMTS,mKcell,mKcell,,D77,2016-04-23T18:45:22+06:00,
1000000000159016,77013722594,mMTS,mKcell,mKcell,,D77,2016-04-23T18:51:49+06:00,
1000000000159019,77015171455,mKcell,mAltel,mKcell,D07,D02,2016-04-23T18:58:04+06:00,
