NPId,Number,RecipientId,DonorId,RangeHolderId,OldRoute,NewRoute,PortDate,RowCount
1000000000248948,77055414307,mKcell,mKarTel,mKarTel,,D02,2016-09-21T13:00:55+06:00,22
1000000000248950,77052781418,mMTS,mKarTel,mKarTel,,D77,2016-09-21T13:04:26+06:00,
1000000000248951,77758309643,mKcell,mKarTel,mKcell,D01,D02,2016-09-21T13:05:37+06:00,
1000000000248953,77471427796,mKcell,mMTS,mMTS,,D02,2016-09-21T13:06:23+06:00,
1000000000248954,77018718316,mKcell,mKarTel,mKcell,D01,D02,2016-09-21T13:09:19+06:00,
1000000000248955,77075553730,mKarTel,mMTS,mMTS,,D01,2016-09-21T13:12:45+06:00,
1000000000248956,77022740025,mKcell,mMTS,mKcell,D77,D02,2016-09-21T13:07:35+06:00,
1000000000248957,77014747111,mMTS,mKcell,mKcell,,D77,2016-09-21T13:07:55+06:00,
1000000000248958,77715297905,mKcell,mKarTel,mKarTel,,D02,2016-09-21T13:11:02+06:00,
1000000000248960,77001340054,mKcell,mAltel,mAltel,,D02,2016-09-21T13:12:46+06:00,
1000000000248961,77005959555,mMTS,mAltel,mAltel,,D77,2016-09-21T13:13:40+06:00,
1000000000248963,77777370087,mKarTel,mMTS,mKarTel,D77,D01,2016-09-21T13:15:28+06:00,
1000000000248964,77077662999,mKarTel,mMTS,mMTS,,D01,2016-09-21T13:15:28+06:00,
1000000000248966,77019323903,mMTS,mKcell,mKcell,,D77,2016-09-21T13:21:24+06:00,
1000000000248967,77760041004,mKcell,mKarTel,mKarTel,,D02,2016-09-21T13:21:51+06:00,
1000000000248968,77011110839,mMTS,mKcell,mKcell,,D77,2016-09-21T13:19:52+06:00,
1000000000248969,77761448211,mKcell,mMTS,mKarTel,D77,D02,2016-09-21T13:23:01+06:00,
1000000000248970,77015253361,mKcell,mMTS,mKcell,D77,D02,2016-09-21T13:25:12+06:00,
1000000000248972,77012284669,mKarTel,mKcell,mKcell,,D01,2016-09-21T13:27:50+06:00,
1000000000248973,77058102974,mAltel,mKarTel,mKarTel,,D07,2016-09-21T13:29:43+06:00,
1000000000248975,77077272757,mAltel,mMTS,mMTS,,D07,2016-09-21T13:29:00+06:00,
1000000000248976,77019526094,mMTS,mKcell,mKcell,,D77,2016-09-21T13:29:55+06:00,
