NPId,Number,RecipientId,DonorId,RangeHolderId,OldRoute,NewRoute,PortDate,RowCount
1000000000332562,77018875287,mKarTel,mKcell,mKcell,,D01,2017-02-21T18:01:42+06:00,18
1000000000332563,77000270072,mMTS,mAltel,mAltel,,D77,2017-02-21T18:01:26+06:00,
1000000000332564,77052402720,mKcell,mKarTel,mKarTel,,D02,2017-02-21T18:03:41+06:00,
1000000000332565,77074227001,mKcell,mMTS,mMTS,,D02,2017-02-21T18:03:31+06:00,
1000000000332570,77000281965,mKcell,mAltel,mAltel,,D02,2017-02-21T18:06:19+06:00,
1000000000332571,77017571142,mKarTel,mKcell,mKcell,,D01,2017-02-21T18:06:47+06:00,
1000000000332572,77014154943,mKcell,mMTS,mKcell,D77,D02,2017-02-21T18:06:47+06:00,
1000000000332574,77057679777,mAltel,mKarTel,mKarTel,,D07,2017-02-21T18:08:58+06:00,
1000000000332575,77474264644,mAltel,mMTS,mMTS,,D07,2017-02-21T18:09:03+06:00,
1000000000332576,77017392928,mMTS,mKcell,mKcell,,D77,2017-02-21T18:11:20+06:00,
1000000000332577,77766444434,mMTS,mKarTel,mKarTel,,D77,2017-02-21T18:10:22+06:00,
1000000000332578,77078045075,mKcell,mMTS,mMTS,,D02,2017-02-21T18:11:22+06:00,
1000000000332579,77077370069,mKcell,mMTS,mMTS,,D02,2017-02-21T18:15:47+06:00,
1000000000332581,77056666165,mKcell,mKarTel,mKarTel,,D02,2017-02-21T18:19:03+06:00,
1000000000332582,77073162114,mAltel,mMTS,mMTS,,D07,2017-02-21T18:18:54+06:00,
1000000000332583,77019936258,mKcell,mMTS,mKcell,D77,D02,2017-02-21T18:20:01+06:00,
1000000000332584,77019411009,mKarTel,mKcell,mKcell,,D01,2017-02-21T18:23:47+06:00,
1000000000332587,77783807090,mMTS,mKcell,mKcell,,D77,2017-02-21T18:26:24+06:00,
