NPId,Number,RecipientId,DonorId,RangeHolderId,OldRoute,NewRoute,PortDate,RowCount
1000000000094030,77759027348,mMTS,mKcell,mKcell,,D77,2016-02-20T11:30:14+06:00,30
1000000000094031,77752991899,mAltel,mKcell,mKcell,,D07,2016-02-20T11:31:58+06:00,
1000000000094032,77019287983,mMTS,mKcell,mKcell,,D77,2016-02-20T11:31:58+06:00,
1000000000094037,77011019808,mAltel,mKcell,mKcell,,D07,2016-02-20T11:35:50+06:00,
1000000000094038,77015888097,mMTS,mKcell,mKcell,,D77,2016-02-20T11:38:13+06:00,
1000000000094039,77079503000,mAltel,mMTS,mMTS,,D07,2016-02-20T11:38:07+06:00,
1000000000094040,77785852549,mAltel,mKcell,mKcell,,D07,2016-02-20T11:38:44+06:00,
1000000000094041,77017149811,mMTS,mKcell,mKcell,,D77,2016-02-20T11:39:44+06:00,
1000000000094042,77071019000,mAltel,mMTS,mMTS,,D07,2016-02-20T11:40:16+06:00,
1000000000094043,77769004003,mAltel,mKarTel,mKarTel,,D07,2016-02-20T11:41:59+06:00,
1000000000094045,77011001728,mAltel,mKcell,mKcell,,D07,2016-02-20T11:42:57+06:00,
1000000000094046,77013358866,mAltel,mKcell,mKcell,,D07,2016-02-20T11:43:18+06:00,
1000000000094048,77011001729,mAltel,mKcell,mKcell,,D07,2016-02-20T11:44:22+06:00,
1000000000094049,77078370027,mKarTel,mMTS,mMTS,,D01,2016-02-20T11:44:14+06:00,
1000000000094050,77772555097,mMTS,mKarTel,mKarTel,,D77,2016-02-20T11:44:34+06:00,
1000000000094051,77023442992,mMTS,mKcell,mKcell,,D77,2016-02-20T11:46:11+06:00,
1000000000094052,77018232373,mKarTel,mKcell,mKcell,,D01,2016-02-20T11:46:55+06:00,
1000000000094053,77022206000,mAltel,mKcell,mKcell,,D07,2016-02-20T11:46:54+06:00,
1000000000094054,77757438030,mMTS,mKcell,mKcell,,D77,2016-02-20T11:46:49+06:00,
1000000000094057,77018595555,mAltel,mKcell,mKcell,,D07,2016-02-20T11:49:48+06:00,
1000000000094058,77085835641,mKarTel,mAltel,mAltel,,D01,2016-02-20T11:50:20+06:00,
1000000000094059,77019816337,mMTS,mKcell,mKcell,,D77,2016-02-20T11:51:27+06:00,
1000000000094060,77759664334,mMTS,mKcell,mKcell,,D77,2016-02-20T11:51:58+06:00,
1000000000094061,77075777810,mAltel,mMTS,mMTS,,D07,2016-02-20T11:51:50+06:00,
1000000000094062,77713797134,mAltel,mKarTel,mKarTel,,D07,2016-02-20T11:52:42+06:00,
1000000000094063,77756890038,mAltel,mKcell,mKcell,,D07,2016-02-20T11:53:14+06:00,
1000000000094066,77014508989,mMTS,mKcell,mKcell,,D77,2016-02-20T11:58:23+06:00,
1000000000094067,77028889557,mMTS,mKcell,mKcell,,D77,2016-02-20T11:58:41+06:00,
1000000000094068,77770205555,mMTS,mKarTel,mKarTel,,D77,2016-02-20T11:59:17+06:00,
1000000000094069,77022763446,mAltel,mKcell,mKcell,,D07,2016-02-20T11:59:36+06:00,
