NPId,Number,RecipientId,DonorId,RangeHolderId,OldRoute,NewRoute,PortDate,RowCount
1000000000141087,77025404404,mAltel,mKcell,mKcell,,D07,2016-04-02T19:04:30+06:00,9
1000000000141088,77054446663,mAltel,mKarTel,mKarTel,,D07,2016-04-02T19:06:27+06:00,
1000000000141089,77772290029,mAltel,mKarTel,mKarTel,,D07,2016-04-02T19:06:59+06:00,
1000000000141090,77770183351,mMTS,mKarTel,mKarTel,,D77,2016-04-02T19:08:31+06:00,
1000000000141091,77770290029,mAltel,mKarTel,mKarTel,,D07,2016-04-02T19:10:38+06:00,
1000000000141097,77017179579,mMTS,mKcell,mKcell,,D77,2016-04-02T19:16:52+06:00,
1000000000141099,77785822224,mAltel,mKcell,mKcell,,D07,2016-04-02T19:19:51+06:00,
1000000000141100,77053558687,mMTS,mKarTel,mKarTel,,D77,2016-04-02T19:25:13+06:00,
1000000000141101,77052790990,mAltel,mKarTel,mKarTel,,D07,2016-04-02T19:28:44+06:00,
