NPId,Number,RecipientId,DonorId,RangeHolderId,OldRoute,NewRoute,PortDate,RowCount
1000000000377715,77027708900,mKcell,mMTS,mKcell,D77,D02,2017-05-04T10:03:03+06:00,9
1000000000377716,77772136784,mKarTel,mMTS,mKarTel,D77,D01,2017-05-04T10:04:29+06:00,
1000000000377719,77751122111,mKarTel,mKcell,mKcell,,D01,2017-05-04T10:08:40+06:00,
1000000000377720,77779996604,mMTS,mKarTel,mKarTel,,D77,2017-05-04T10:09:06+06:00,
1000000000377721,77756450502,mKcell,mAltel,mKcell,D07,D02,2017-05-04T10:10:12+06:00,
1000000000377722,77076779271,mMTS,mKarTel,mMTS,D01,D77,2017-05-04T10:13:03+06:00,
1000000000377725,77015355599,mKarTel,mKcell,mKcell,,D01,2017-05-04T10:21:44+06:00,
1000000000377734,77057081982,mKcell,mKarTel,mKarTel,,D02,2017-05-04T10:28:05+06:00,
1000000000377735,77086865202,mMTS,mAltel,mAltel,,D77,2017-05-04T10:27:28+06:00,
