NPId,Number,RecipientId,DonorId,RangeHolderId,OldRoute,NewRoute,PortDate,RowCount
1000000000399448,77002020808,mKcell,mAltel,mAltel,,D02,2017-06-07T18:30:38+06:00,26
1000000000399450,77073363611,mKcell,mMTS,mMTS,,D02,2017-06-07T18:31:48+06:00,
1000000000399451,77026682414,mMTS,mKcell,mKcell,,D77,2017-06-07T18:32:49+06:00,
1000000000399452,77072543080,mMTS,mAltel,mMTS,D07,D77,2017-06-07T18:33:32+06:00,
1000000000399455,77789960303,mAltel,mKcell,mKcell,,D07,2017-06-07T18:36:34+06:00,
1000000000399456,77025252302,mKarTel,mKcell,mKcell,,D01,2017-06-07T18:37:32+06:00,
1000000000399457,77077128077,mAltel,mKarTel,mMTS,D01,D07,2017-06-07T18:37:35+06:00,
1000000000399458,77025402365,mMTS,mKcell,mKcell,,D77,2017-06-07T18:37:30+06:00,
1000000000399460,77758371532,mKarTel,mKcell,mKcell,,D01,2017-06-07T18:39:21+06:00,
1000000000399461,77018919186,mKcell,mMTS,mKcell,D77,D02,2017-06-07T18:40:25+06:00,
1000000000399462,77081939295,mMTS,mAltel,mAltel,,D77,2017-06-07T18:40:20+06:00,
1000000000399464,77753000147,mKcell,mAltel,mKcell,D07,D02,2017-06-07T18:41:26+06:00,
1000000000399465,77756544352,mMTS,mKcell,mKcell,,D77,2017-06-07T18:43:47+06:00,
1000000000399466,77018889151,mAltel,mKcell,mKcell,,D07,2017-06-07T18:45:29+06:00,
1000000000399467,77027173579,mKarTel,mKcell,mKcell,,D01,2017-06-07T18:46:27+06:00,
1000000000399471,77026968456,mMTS,mKcell,mKcell,,D77,2017-06-07T18:51:08+06:00,
1000000000399473,77759926692,mMTS,mKcell,mKcell,,D77,2017-06-07T18:53:46+06:00,
1000000000399474,77751085546,mKarTel,mKcell,mKcell,,D01,2017-06-07T18:54:12+06:00,
1000000000399475,77017607770,mMTS,mKcell,mKcell,D02,D77,2017-06-07T18:54:37+06:00,
1000000000399476,77085530286,mKarTel,mAltel,mAltel,,D01,2017-06-07T18:55:01+06:00,
1000000000399477,77007140392,mKarTel,mAltel,mAltel,,D01,2017-06-07T18:55:01+06:00,
1000000000399479,77012110355,mMTS,mKcell,mKcell,,D77,2017-06-07T18:55:48+06:00,
1000000000399480,77056666813,mMTS,mKcell,mKarTel,D02,D77,2017-06-07T18:56:11+06:00,
1000000000399482,77004831291,mKarTel,mAltel,mAltel,,D01,2017-06-07T18:58:24+06:00,
1000000000399483,77003862739,mAltel,mMTS,mAltel,D77,D07,2017-06-07T18:59:25+06:00,
1000000000399484,77018907776,mKcell,mMTS,mKcell,D77,D02,2017-06-07T18:59:40+06:00,
