NPId,Number,RecipientId,DonorId,RangeHolderId,OldRoute,NewRoute,PortDate,RowCount
1000000000417454,77022139868,mKcell,mAltel,mKcell,D07,D02,2017-07-06T11:30:15+06:00,11
1000000000417455,77017053275,mKarTel,mKcell,mKcell,,D01,2017-07-06T11:31:16+06:00,
1000000000417457,77010121888,mKcell,mAltel,mKcell,D07,D02,2017-07-06T11:34:05+06:00,
1000000000417458,77016527718,mAltel,mKcell,mKcell,,D07,2017-07-06T11:34:17+06:00,
1000000000417459,77013297190,mKarTel,mKcell,mKcell,,D01,2017-07-06T11:35:22+06:00,
1000000000417461,77012355832,mKarTel,mKcell,mKcell,,D01,2017-07-06T11:39:43+06:00,
1000000000417463,77027023297,mMTS,mKarTel,mKcell,D01,D77,2017-07-06T11:49:43+06:00,
1000000000417464,77015608767,mMTS,mKcell,mKcell,,D77,2017-07-06T11:51:56+06:00,
1000000000417465,77755397171,mMTS,mKcell,mKcell,,D77,2017-07-06T11:52:33+06:00,
1000000000417466,77779976085,mMTS,mKarTel,mKarTel,,D77,2017-07-06T11:56:04+06:00,
1000000000417467,77012040645,mKarTel,mKcell,mKcell,,D01,2017-07-06T11:59:07+06:00,
