NPId,Number,RecipientId,DonorId,RangeHolderId,OldRoute,NewRoute,PortDate,RowCount
1000000000293967,77784852964,mMTS,mKcell,mKcell,,D77,2016-12-12T15:00:40+06:00,12
1000000000293970,77026888191,mMTS,mKcell,mKcell,,D77,2016-12-12T15:00:27+06:00,
1000000000293971,77023465683,mMTS,mKcell,mKcell,,D77,2016-12-12T15:01:26+06:00,
1000000000293973,77756056918,mMTS,mKcell,mKcell,,D77,2016-12-12T15:04:28+06:00,
1000000000293974,77017723880,mAltel,mKcell,mKcell,,D07,2016-12-12T15:05:33+06:00,
1000000000293975,77016724289,mMTS,mKcell,mKcell,,D77,2016-12-12T15:05:55+06:00,
1000000000293976,77017808118,mMTS,mKcell,mKcell,,D77,2016-12-12T15:06:43+06:00,
1000000000293977,77005553676,mKcell,mAltel,mAltel,,D02,2016-12-12T15:09:17+06:00,
1000000000293985,77016811319,mMTS,mKcell,mKcell,,D77,2016-12-12T15:18:49+06:00,
1000000000293988,77082507227,mAltel,mMTS,mAltel,D77,D07,2016-12-12T15:25:09+06:00,
1000000000293989,77005554232,mKcell,mAltel,mAltel,,D02,2016-12-12T15:27:03+06:00,
1000000000293990,77004777070,mMTS,mAltel,mAltel,,D77,2016-12-12T15:28:38+06:00,
