NPId,Number,RecipientId,DonorId,RangeHolderId,OldRoute,NewRoute,PortDate,RowCount
1000000000186257,77007778757,mKcell,mAltel,mAltel,,D02,2016-06-02T13:12:15+06:00,38
1000000000186329,77754240391,mMTS,mKcell,mKcell,,D77,2016-06-02T13:00:44+06:00,
1000000000186330,77051855533,mAltel,mKarTel,mKarTel,,D07,2016-06-02T13:01:20+06:00,
1000000000186331,77021117837,mMTS,mKcell,mKcell,,D77,2016-06-02T13:04:27+06:00,
1000000000186334,77777910144,mKarTel,mMTS,mKarTel,D77,D01,2016-06-02T13:05:03+06:00,
1000000000186335,77760002379,mMTS,mKarTel,mKarTel,,D77,2016-06-02T13:06:26+06:00,
1000000000186336,77089876506,mMTS,mAltel,mAltel,,D77,2016-06-02T13:06:02+06:00,
1000000000186338,77017614819,mMTS,mKcell,mKcell,,D77,2016-06-02T13:06:53+06:00,
1000000000186339,77053336949,mMTS,mKarTel,mKarTel,,D77,2016-06-02T13:07:30+06:00,
1000000000186340,77015327524,mKcell,mMTS,mKcell,D77,D02,2016-06-02T13:08:18+06:00,
1000000000186341,77015327523,mKcell,mMTS,mKcell,D77,D02,2016-06-02T13:08:17+06:00,
1000000000186342,77761055006,mKarTel,mAltel,mKarTel,D07,D01,2016-06-02T13:08:48+06:00,
1000000000186343,77054445436,mKarTel,mMTS,mKarTel,D77,D01,2016-06-02T13:09:02+06:00,
1000000000186344,77775783969,mMTS,mKarTel,mKarTel,,D77,2016-06-02T13:10:56+06:00,
1000000000186345,77019529124,mKcell,mMTS,mKcell,D77,D02,2016-06-02T13:11:19+06:00,
1000000000186346,77760002380,mMTS,mKarTel,mKarTel,,D77,2016-06-02T13:11:02+06:00,
1000000000186347,77753474070,mMTS,mKcell,mKcell,,D77,2016-06-02T13:11:38+06:00,
1000000000186348,77764777759,mKcell,mKarTel,mKarTel,,D02,2016-06-02T13:12:16+06:00,
1000000000186349,77771596377,mAltel,mKarTel,mKarTel,,D07,2016-06-02T13:12:15+06:00,
1000000000186352,77715314071,mMTS,mKarTel,mKarTel,,D77,2016-06-02T13:12:48+06:00,
1000000000186353,77754119745,mMTS,mKcell,mKcell,,D77,2016-06-02T13:15:20+06:00,
1000000000186354,77753296388,mKarTel,mMTS,mKcell,D77,D01,2016-06-02T13:13:19+06:00,
1000000000186355,77015545175,mKarTel,mKcell,mKcell,,D01,2016-06-02T13:17:00+06:00,
1000000000186356,77077722926,mKarTel,mMTS,mMTS,,D01,2016-06-02T13:15:24+06:00,
1000000000186357,77770182666,mMTS,mAltel,mKarTel,D07,D77,2016-06-02T13:15:08+06:00,
1000000000186359,77072169533,mKcell,mMTS,mMTS,,D02,2016-06-02T13:19:06+06:00,
1000000000186360,77710811588,mMTS,mKarTel,mKarTel,,D77,2016-06-02T13:19:36+06:00,
1000000000186364,77059117828,mAltel,mKarTel,mKarTel,,D07,2016-06-02T13:22:38+06:00,
1000000000186365,77054044500,mMTS,mKarTel,mKarTel,,D77,2016-06-02T13:23:06+06:00,
1000000000186367,77055455185,mMTS,mKarTel,mKarTel,,D77,2016-06-02T13:23:50+06:00,
1000000000186368,77475656092,mKarTel,mMTS,mMTS,,D01,2016-06-02T13:24:20+06:00,
1000000000186370,77072228410,mMTS,mAltel,mMTS,D07,D77,2016-06-02T13:25:01+06:00,
1000000000186371,77004500717,mMTS,mAltel,mAltel,,D77,2016-06-02T13:25:53+06:00,
1000000000186372,77016743262,mMTS,mKcell,mKcell,,D77,2016-06-02T13:27:12+06:00,
1000000000186375,77767737777,mKcell,mMTS,mKarTel,D77,D02,2016-06-02T13:28:16+06:00,
1000000000186376,77015555846,mMTS,mKcell,mKcell,,D77,2016-06-02T13:28:54+06:00,
1000000000186377,77472151406,mKcell,mMTS,mMTS,,D02,2016-06-02T13:29:08+06:00,
1000000000186378,77770008999,mKcell,mKarTel,mKarTel,,D02,2016-06-02T13:29:28+06:00,
