NPId,Number,RecipientId,DonorId,RangeHolderId,OldRoute,NewRoute,PortDate,RowCount
1000000000208844,77083530406,mKarTel,mAltel,mAltel,,D01,2016-07-10T15:31:13+06:00,12
1000000000208845,77083000860,mKcell,mAltel,mAltel,,D02,2016-07-10T15:36:21+06:00,
1000000000208846,77774609978,mKarTel,mMTS,mKarTel,D77,D01,2016-07-10T15:31:59+06:00,
1000000000208847,77756660034,mMTS,mKcell,mKcell,,D77,2016-07-10T15:33:27+06:00,
1000000000208848,77714644532,mMTS,mKarTel,mKarTel,,D77,2016-07-10T15:35:38+06:00,
1000000000208851,77714036200,mMTS,mKarTel,mKarTel,,D77,2016-07-10T15:37:26+06:00,
1000000000208852,77015261963,mKarTel,mKcell,mKcell,,D01,2016-07-10T15:40:59+06:00,
1000000000208853,77087310298,mMTS,mAltel,mAltel,,D77,2016-07-10T15:40:44+06:00,
1000000000208854,77787290070,mMTS,mKcell,mKcell,,D77,2016-07-10T15:42:31+06:00,
1000000000208855,77051092939,mMTS,mKarTel,mKarTel,,D77,2016-07-10T15:47:39+06:00,
1000000000208856,77789879292,mMTS,mKcell,mKcell,,D77,2016-07-10T15:52:35+06:00,
1000000000208857,77021388444,mMTS,mKcell,mKcell,,D77,2016-07-10T15:57:27+06:00,
