NPId,Number,RecipientId,DonorId,RangeHolderId,OldRoute,NewRoute,PortDate,RowCount
1000000000261719,77713001257,mKcell,mKarTel,mKarTel,,D02,2016-10-13T14:09:47+06:00,27
1000000000261721,77713001290,mKcell,mKarTel,mKarTel,,D02,2016-10-13T14:12:04+06:00,
1000000000261725,77761119796,mMTS,mKarTel,mKarTel,,D77,2016-10-13T14:01:50+06:00,
1000000000261727,77072208666,mKarTel,mMTS,mMTS,,D01,2016-10-13T14:03:07+06:00,
1000000000261730,77077313664,mAltel,mMTS,mMTS,,D07,2016-10-13T14:06:12+06:00,
1000000000261731,77769379211,mKcell,mKarTel,mKarTel,,D02,2016-10-13T14:07:54+06:00,
1000000000261734,77773155975,mMTS,mKarTel,mKarTel,,D77,2016-10-13T14:09:04+06:00,
1000000000261736,77051813972,mMTS,mKarTel,mKarTel,,D77,2016-10-13T14:09:39+06:00,
1000000000261738,77013965610,mMTS,mKcell,mKcell,,D77,2016-10-13T14:10:36+06:00,
1000000000261739,77017569963,mKarTel,mKcell,mKcell,,D01,2016-10-13T14:11:17+06:00,
1000000000261740,77058880668,mAltel,mKarTel,mKarTel,,D07,2016-10-13T14:11:54+06:00,
1000000000261741,77011306038,mMTS,mKcell,mKcell,,D77,2016-10-13T14:11:26+06:00,
1000000000261742,77021667968,mMTS,mKcell,mKcell,,D77,2016-10-13T14:12:16+06:00,
1000000000261743,77753611223,mKarTel,mKcell,mKcell,,D01,2016-10-13T14:13:46+06:00,
1000000000261744,77012128000,mAltel,mKcell,mKcell,,D07,2016-10-13T14:15:39+06:00,
1000000000261745,77767626000,mKcell,mKarTel,mKarTel,,D02,2016-10-13T14:17:16+06:00,
1000000000261746,77017474276,mMTS,mKcell,mKcell,,D77,2016-10-13T14:17:42+06:00,
1000000000261747,77777937888,mMTS,mKarTel,mKarTel,,D77,2016-10-13T14:19:03+06:00,
1000000000261748,77774314006,mAltel,mKarTel,mKarTel,,D07,2016-10-13T14:21:25+06:00,
1000000000261750,77017779706,mMTS,mKcell,mKcell,,D77,2016-10-13T14:20:55+06:00,
1000000000261752,77778918819,mAltel,mKarTel,mKarTel,,D07,2016-10-13T14:22:32+06:00,
1000000000261753,77475079042,mKarTel,mMTS,mMTS,,D01,2016-10-13T14:22:30+06:00,
1000000000261754,77756501501,mKarTel,mKcell,mKcell,,D01,2016-10-13T14:22:31+06:00,
1000000000261755,77057227713,mMTS,mKarTel,mKarTel,,D77,2016-10-13T14:23:41+06:00,
1000000000261757,77054729532,mAltel,mKcell,mKarTel,D02,D07,2016-10-13T14:23:24+06:00,
1000000000261758,77017176627,mAltel,mKcell,mKcell,,D07,2016-10-13T14:27:11+06:00,
1000000000261759,77026318263,mKcell,mAltel,mKcell,D07,D02,2016-10-13T14:28:13+06:00,
