NPId,Number,RecipientId,DonorId,RangeHolderId,OldRoute,NewRoute,PortDate,RowCount
1000000000373683,77017432119,mMTS,mKcell,mKcell,,D77,2017-04-28T13:33:52+06:00,58
1000000000373687,77783997124,mAltel,mKcell,mKcell,,D07,2017-04-28T13:35:20+06:00,
1000000000373688,77771999444,mAltel,mKarTel,mKarTel,,D07,2017-04-28T13:36:14+06:00,
1000000000373689,77007778898,mKcell,mAltel,mAltel,,D02,2017-04-28T13:36:31+06:00,
1000000000373690,77713832233,mMTS,mKarTel,mKarTel,,D77,2017-04-28T13:37:01+06:00,
1000000000373691,77471551984,mMTS,mAltel,mMTS,D07,D77,2017-04-28T13:36:47+06:00,
1000000000373692,77772406786,mAltel,mKarTel,mKarTel,,D07,2017-04-28T13:38:27+06:00,
1000000000373693,77754001700,mAltel,mKcell,mKcell,,D07,2017-04-28T13:38:29+06:00,
1000000000373694,77016852997,mMTS,mKcell,mKcell,,D77,2017-04-28T13:39:23+06:00,
1000000000373695,77779711484,mMTS,mKarTel,mKarTel,,D77,2017-04-28T13:39:58+06:00,
1000000000373696,77779435461,mMTS,mKarTel,mKarTel,,D77,2017-04-28T13:40:50+06:00,
1000000000373699,77777731918,mKcell,mMTS,mKarTel,D77,D02,2017-04-28T13:44:29+06:00,
1000000000373700,77020975717,mMTS,mKcell,mKcell,,D77,2017-04-28T13:45:11+06:00,
1000000000373701,77789329332,mKcell,mMTS,mKcell,D77,D02,2017-04-28T13:45:54+06:00,
1000000000373703,77017483865,mKcell,mKarTel,mKcell,D01,D02,2017-04-28T13:48:21+06:00,
1000000000373706,77014005078,mKcell,mKarTel,mKcell,D01,D02,2017-04-28T13:48:58+06:00,
1000000000373707,77009638756,mMTS,mAltel,mAltel,,D77,2017-04-28T13:48:27+06:00,
1000000000373710,77017483866,mKcell,mKarTel,mKcell,D01,D02,2017-04-28T13:49:47+06:00,
1000000000373711,77001418017,mMTS,mAltel,mAltel,,D77,2017-04-28T13:49:22+06:00,
1000000000373712,77020975718,mMTS,mKcell,mKcell,,D77,2017-04-28T13:49:51+06:00,
1000000000373713,77082121212,mMTS,mAltel,mAltel,,D77,2017-04-28T13:50:40+06:00,
1000000000373714,77076301864,mKarTel,mMTS,mMTS,,D01,2017-04-28T13:51:06+06:00,
1000000000373715,77020975719,mMTS,mKcell,mKcell,,D77,2017-04-28T13:52:03+06:00,
1000000000373717,77011093374,mKcell,mMTS,mKcell,D77,D02,2017-04-28T13:53:02+06:00,
1000000000373718,77075031501,mKcell,mMTS,mMTS,,D02,2017-04-28T13:53:42+06:00,
1000000000373719,77001455946,mMTS,mAltel,mAltel,,D77,2017-04-28T13:53:37+06:00,
1000000000373720,77020975275,mMTS,mKcell,mKcell,,D77,2017-04-28T13:54:00+06:00,
1000000000373721,77771055855,mKcell,mKarTel,mKarTel,,D02,2017-04-28T13:55:11+06:00,
1000000000373722,77017050430,mKarTel,mKcell,mKcell,,D01,2017-04-28T13:55:08+06:00,
1000000000373723,77005883617,mKcell,mAltel,mAltel,,D02,2017-04-28T13:55:45+06:00,
1000000000373724,77020975276,mMTS,mKcell,mKcell,,D77,2017-04-28T13:55:35+06:00,
1000000000373725,77077274081,mKarTel,mMTS,mMTS,,D01,2017-04-28T13:56:40+06:00,
1000000000373727,77020976855,mMTS,mKcell,mKcell,,D77,2017-04-28T13:57:02+06:00,
1000000000373728,77017020189,mKcell,mKarTel,mKcell,D01,D02,2017-04-28T13:57:59+06:00,
1000000000373729,77074733868,mKarTel,mMTS,mMTS,,D01,2017-04-28T13:59:07+06:00,
1000000000373729,77078104630,mKarTel,mMTS,mMTS,,D01,2017-04-28T13:59:07+06:00,
1000000000373729,77475034730,mKarTel,mMTS,mMTS,,D01,2017-04-28T13:59:07+06:00,
1000000000373729,77475034731,mKarTel,mMTS,mMTS,,D01,2017-04-28T13:59:07+06:00,
1000000000373729,77015287664,mKarTel,mMTS,mKcell,D77,D01,2017-04-28T13:59:07+06:00,
1000000000373729,77017713021,mKarTel,mMTS,mKcell,D77,D01,2017-04-28T13:59:07+06:00,
1000000000373729,77017713095,mKarTel,mMTS,mKcell,D77,D01,2017-04-28T13:59:07+06:00,
1000000000373729,77017714003,mKarTel,mMTS,mKcell,D77,D01,2017-04-28T13:59:07+06:00,
1000000000373729,77017714049,mKarTel,mMTS,mKcell,D77,D01,2017-04-28T13:59:07+06:00,
1000000000373729,77017714051,mKarTel,mMTS,mKcell,D77,D01,2017-04-28T13:59:07+06:00,
1000000000373729,77017714056,mKarTel,mMTS,mKcell,D77,D01,2017-04-28T13:59:07+06:00,
1000000000373729,77017714064,mKarTel,mMTS,mKcell,D77,D01,2017-04-28T13:59:07+06:00,
1000000000373729,77017714068,mKarTel,mMTS,mKcell,D77,D01,2017-04-28T13:59:07+06:00,
1000000000373729,77017716004,mKarTel,mMTS,mKcell,D77,D01,2017-04-28T13:59:07+06:00,
1000000000373729,77017716008,mKarTel,mMTS,mKcell,D77,D01,2017-04-28T13:59:07+06:00,
1000000000373729,77017716032,mKarTel,mMTS,mKcell,D77,D01,2017-04-28T13:59:07+06:00,
1000000000373729,77017716055,mKarTel,mMTS,mKcell,D77,D01,2017-04-28T13:59:07+06:00,
1000000000373729,77017716076,mKarTel,mMTS,mKcell,D77,D01,2017-04-28T13:59:07+06:00,
1000000000373729,77017716078,mKarTel,mMTS,mKcell,D77,D01,2017-04-28T13:59:07+06:00,
1000000000373729,77017716095,mKarTel,mMTS,mKcell,D77,D01,2017-04-28T13:59:07+06:00,
1000000000373729,77017716096,mKarTel,mMTS,mKcell,D77,D01,2017-04-28T13:59:07+06:00,
1000000000373730,77771433807,mMTS,mKarTel,mKarTel,,D77,2017-04-28T13:58:00+06:00,
1000000000373732,77020976778,mMTS,mKcell,mKcell,,D77,2017-04-28T13:58:49+06:00,
1000000000373734,77077799221,mKcell,mMTS,mMTS,,D02,2017-04-28T13:58:57+06:00,
