NPId,Number,RecipientId,DonorId,RangeHolderId,OldRoute,NewRoute,PortDate,RowCount
1000000000163850,77479770503,mKcell,mMTS,mMTS,,D02,2016-04-30T10:01:47+06:00,22
1000000000163851,77054017015,mMTS,mKarTel,mKarTel,,D77,2016-04-30T10:02:21+06:00,
1000000000163852,77016241153,mMTS,mKcell,mKcell,,D77,2016-04-30T10:02:17+06:00,
1000000000163853,77014447724,mMTS,mKcell,mKcell,,D77,2016-04-30T10:02:17+06:00,
1000000000163854,77719990842,mMTS,mKarTel,mKarTel,,D77,2016-04-30T10:02:21+06:00,
1000000000163855,77715125460,mKcell,mKarTel,mKarTel,,D02,2016-04-30T10:08:12+06:00,
1000000000163857,77017714451,mKarTel,mKcell,mKcell,,D01,2016-04-30T10:09:27+06:00,
1000000000163858,77774996999,mMTS,mKarTel,mKarTel,,D77,2016-04-30T10:09:38+06:00,
1000000000163860,77783208558,mKcell,mKarTel,mKcell,D01,D02,2016-04-30T10:11:18+06:00,
1000000000163861,77052257740,mMTS,mKarTel,mKarTel,,D77,2016-04-30T10:10:43+06:00,
1000000000163862,77710050555,mMTS,mKarTel,mKarTel,,D77,2016-04-30T10:16:09+06:00,
1000000000163866,77019582933,mMTS,mKcell,mKcell,,D77,2016-04-30T10:19:06+06:00,
1000000000163867,77012778437,mKcell,mKarTel,mKcell,D01,D02,2016-04-30T10:20:06+06:00,
1000000000163870,77054840073,mMTS,mKarTel,mKarTel,,D77,2016-04-30T10:21:35+06:00,
1000000000163871,77052962424,mMTS,mKarTel,mKarTel,,D77,2016-04-30T10:24:17+06:00,
1000000000163872,77057826992,mKcell,mKarTel,mKarTel,,D02,2016-04-30T10:25:11+06:00,
1000000000163874,77087692591,mMTS,mAltel,mAltel,,D77,2016-04-30T10:25:07+06:00,
1000000000163876,77053490000,mMTS,mKarTel,mKarTel,,D77,2016-04-30T10:26:42+06:00,
1000000000163877,77714236665,mKarTel,mKcell,mKarTel,D02,D01,2016-04-30T10:27:36+06:00,
1000000000163879,77054842001,mMTS,mKarTel,mKarTel,,D77,2016-04-30T10:27:28+06:00,
1000000000163880,77775011114,mMTS,mKarTel,mKarTel,,D77,2016-04-30T10:27:55+06:00,
1000000000163881,77052962525,mMTS,mKarTel,mKarTel,,D77,2016-04-30T10:27:59+06:00,
