NPId,Number,RecipientId,DonorId,RangeHolderId,OldRoute,NewRoute,PortDate,RowCount
1000000000380038,77783830222,mKcell,mAltel,mKcell,D07,D02,2017-05-08T16:31:09+06:00,27
1000000000380040,77020005852,mMTS,mAltel,mKcell,D07,D77,2017-05-08T16:31:07+06:00,
1000000000380041,77778825948,mMTS,mKarTel,mKarTel,,D77,2017-05-08T16:31:45+06:00,
1000000000380042,77003953207,mKarTel,mAltel,mAltel,,D01,2017-05-08T16:34:22+06:00,
1000000000380043,77000001874,mKarTel,mAltel,mAltel,,D01,2017-05-08T16:35:15+06:00,
1000000000380044,77789506050,mMTS,mKcell,mKcell,,D77,2017-05-08T16:35:21+06:00,
1000000000380046,77760109600,mKcell,mKarTel,mKarTel,,D02,2017-05-08T16:36:58+06:00,
1000000000380049,77785856163,mKarTel,mKcell,mKcell,,D01,2017-05-08T16:41:26+06:00,
1000000000380050,77760090292,mKcell,mKarTel,mKarTel,,D02,2017-05-08T16:41:49+06:00,
1000000000380051,77012506821,mMTS,mKcell,mKcell,,D77,2017-05-08T16:42:49+06:00,
1000000000380052,77760000507,mMTS,mKcell,mKarTel,D02,D77,2017-05-08T16:43:55+06:00,
1000000000380053,77760109200,mKcell,mKarTel,mKarTel,,D02,2017-05-08T16:45:03+06:00,
1000000000380054,77007778789,mKcell,mAltel,mAltel,,D02,2017-05-08T16:45:10+06:00,
1000000000380055,77007778979,mKcell,mAltel,mAltel,,D02,2017-05-08T16:45:32+06:00,
1000000000380056,77071896948,mKcell,mMTS,mMTS,,D02,2017-05-08T16:46:00+06:00,
1000000000380057,77007779171,mKcell,mAltel,mAltel,,D02,2017-05-08T16:46:09+06:00,
1000000000380058,77769800008,mKcell,mKarTel,mKarTel,,D02,2017-05-08T16:46:42+06:00,
1000000000380059,77007779272,mKcell,mAltel,mAltel,,D02,2017-05-08T16:47:19+06:00,
1000000000380060,77014000473,mMTS,mKcell,mKcell,,D77,2017-05-08T16:47:56+06:00,
1000000000380061,77007779373,mKcell,mAltel,mAltel,,D02,2017-05-08T16:47:58+06:00,
1000000000380062,77011777420,mAltel,mKcell,mKcell,,D07,2017-05-08T16:50:56+06:00,
1000000000380063,77018500499,mKcell,mMTS,mKcell,D77,D02,2017-05-08T16:52:35+06:00,
1000000000380065,77760121243,mKcell,mKarTel,mKarTel,,D02,2017-05-08T16:55:07+06:00,
1000000000380067,77710840400,mAltel,mKarTel,mKarTel,,D07,2017-05-08T16:56:22+06:00,
1000000000380068,77017282294,mKcell,mMTS,mKcell,D77,D02,2017-05-08T16:56:50+06:00,
1000000000380069,77000970019,mMTS,mAltel,mAltel,,D77,2017-05-08T16:56:54+06:00,
1000000000380070,77003997191,mMTS,mAltel,mAltel,,D77,2017-05-08T16:59:06+06:00,
