NPId,Number,RecipientId,DonorId,RangeHolderId,OldRoute,NewRoute,PortDate,RowCount
1000000000331432,77719590388,mKarTel,mMTS,mKarTel,D77,D01,2017-02-20T09:02:49+06:00,4
1000000000331433,77015126681,mKarTel,mKcell,mKcell,,D01,2017-02-20T09:11:35+06:00,
1000000000331434,77079551246,mKarTel,mMTS,mMTS,,D01,2017-02-20T09:18:24+06:00,
1000000000331436,77077571982,mAltel,mMTS,mMTS,,D07,2017-02-20T09:29:58+06:00,
