NPId,Number,RecipientId,DonorId,RangeHolderId,OldRoute,NewRoute,PortDate,RowCount
1000000000193904,77017125898,mMTS,mKcell,mKcell,,D77,2016-06-15T13:33:35+06:00,30
1000000000193905,77011119990,mKarTel,mAltel,mKcell,D07,D01,2016-06-15T13:34:19+06:00,
1000000000193906,77751011747,mMTS,mKcell,mKcell,,D77,2016-06-15T13:36:46+06:00,
1000000000193907,77019996662,mKcell,mMTS,mKcell,D77,D02,2016-06-15T13:39:53+06:00,
1000000000193908,77019998001,mKcell,mMTS,mKcell,D77,D02,2016-06-15T13:39:32+06:00,
1000000000193909,77016467675,mKarTel,mKcell,mKcell,,D01,2016-06-15T13:39:57+06:00,
1000000000193910,77057575807,mKcell,mKarTel,mKarTel,,D02,2016-06-15T13:41:47+06:00,
1000000000193911,77777010550,mMTS,mKarTel,mKarTel,,D77,2016-06-15T13:42:27+06:00,
1000000000193912,77771735666,mMTS,mKarTel,mKarTel,,D77,2016-06-15T13:43:54+06:00,
1000000000193913,77012777600,mAltel,mKarTel,mKcell,D01,D07,2016-06-15T13:44:00+06:00,
1000000000193914,77023166146,mMTS,mKcell,mKcell,,D77,2016-06-15T13:52:52+06:00,
1000000000193915,77028975787,mMTS,mKcell,mKcell,,D77,2016-06-15T13:45:43+06:00,
1000000000193916,77055833304,mMTS,mKarTel,mKarTel,,D77,2016-06-15T13:46:25+06:00,
1000000000193918,77777727727,mAltel,mKarTel,mKarTel,D01,D07,2016-06-15T13:46:47+06:00,
1000000000193919,77079409366,mMTS,mAltel,mMTS,D07,D77,2016-06-15T13:48:44+06:00,
1000000000193920,77077844458,mKarTel,mMTS,mMTS,,D01,2016-06-15T13:50:44+06:00,
1000000000193921,77017894248,mAltel,mKcell,mKcell,,D07,2016-06-15T13:54:09+06:00,
1000000000193922,77754447177,mKarTel,mKcell,mKcell,,D01,2016-06-15T13:54:23+06:00,
1000000000193924,77012989392,mMTS,mKcell,mKcell,,D77,2016-06-15T13:54:15+06:00,
1000000000193925,77471262523,mKcell,mKarTel,mMTS,D01,D02,2016-06-15T13:54:25+06:00,
1000000000193926,77007557070,mKcell,mAltel,mAltel,,D02,2016-06-15T13:54:14+06:00,
1000000000193929,77473268195,mAltel,mMTS,mMTS,,D07,2016-06-15T13:54:57+06:00,
1000000000193930,77021262228,mKarTel,mKcell,mKcell,,D01,2016-06-15T13:55:51+06:00,
1000000000193931,77057010661,mMTS,mKarTel,mKarTel,,D77,2016-06-15T13:56:03+06:00,
1000000000193932,77022663300,mAltel,mKcell,mKcell,,D07,2016-06-15T13:56:46+06:00,
1000000000193933,77712264134,mKcell,mKarTel,mKarTel,,D02,2016-06-15T13:58:44+06:00,
1000000000193934,77756725344,mKcell,mMTS,mKcell,D77,D02,2016-06-15T13:59:15+06:00,
1000000000193935,77028899754,mMTS,mKcell,mKcell,,D77,2016-06-15T13:59:15+06:00,
1000000000193936,77074534145,mKcell,mMTS,mMTS,,D02,2016-06-15T13:59:46+06:00,
1000000000193937,77077782016,mMTS,mAltel,mMTS,D07,D77,2016-06-15T13:59:21+06:00,
