NPId,Number,RecipientId,DonorId,RangeHolderId,OldRoute,NewRoute,PortDate,RowCount
1000000000215838,77017055507,mMTS,mKcell,mKcell,,D77,2016-07-23T10:02:25+06:00,14
1000000000215839,77023228061,mMTS,mKcell,mKcell,,D77,2016-07-23T10:02:25+06:00,
1000000000215841,77078088853,mKcell,mMTS,mMTS,,D02,2016-07-23T10:04:46+06:00,
1000000000215842,77017660635,mKcell,mKarTel,mKcell,D01,D02,2016-07-23T10:25:46+06:00,
1000000000215843,77476171002,mKcell,mMTS,mMTS,,D02,2016-07-23T10:06:40+06:00,
1000000000215844,77078743047,mKcell,mMTS,mMTS,,D02,2016-07-23T10:09:27+06:00,
1000000000215845,77756056163,mAltel,mKcell,mKcell,,D07,2016-07-23T10:10:13+06:00,
1000000000215846,77019625733,mKarTel,mKcell,mKcell,,D01,2016-07-23T10:10:58+06:00,
1000000000215848,77781381666,mMTS,mKcell,mKcell,,D77,2016-07-23T10:17:20+06:00,
1000000000215849,77028887172,mMTS,mKcell,mKcell,,D77,2016-07-23T10:17:53+06:00,
1000000000215850,77772995522,mMTS,mKarTel,mKarTel,,D77,2016-07-23T10:20:43+06:00,
1000000000215853,77783105491,mMTS,mKcell,mKcell,,D77,2016-07-23T10:22:19+06:00,
1000000000215854,77015509645,mKarTel,mKcell,mKcell,,D01,2016-07-23T10:26:27+06:00,
1000000000215855,77751007777,mKarTel,mKcell,mKcell,,D01,2016-07-23T10:27:15+06:00,
