NPId,Number,RecipientId,DonorId,RangeHolderId,OldRoute,NewRoute,PortDate,RowCount
1000000000305903,77711805672,mKcell,mKarTel,mKarTel,,D02,2017-01-05T14:38:04+06:00,25
1000000000305909,77025614321,mAltel,mKcell,mKcell,,D07,2017-01-05T14:32:47+06:00,
1000000000305912,77071099999,mKcell,mMTS,mMTS,,D02,2017-01-05T14:34:11+06:00,
1000000000305913,77017947713,mKarTel,mKcell,mKcell,,D01,2017-01-05T14:34:24+06:00,
1000000000305914,77711805669,mKcell,mKarTel,mKarTel,,D02,2017-01-05T14:51:25+06:00,
1000000000305916,77028463999,mKcell,mMTS,mKcell,D77,D02,2017-01-05T14:37:25+06:00,
1000000000305917,77011008610,mMTS,mKcell,mKcell,,D77,2017-01-05T14:38:13+06:00,
1000000000305919,77059601399,mKcell,mKarTel,mKarTel,,D02,2017-01-05T14:39:35+06:00,
1000000000305920,77024577742,mMTS,mKcell,mKcell,,D77,2017-01-05T14:39:14+06:00,
1000000000305922,77022891444,mAltel,mKcell,mKcell,,D07,2017-01-05T14:40:11+06:00,
1000000000305923,77015887461,mKarTel,mKcell,mKcell,,D01,2017-01-05T14:41:29+06:00,
1000000000305926,77711805671,mKcell,mKarTel,mKarTel,,D02,2017-01-05T14:57:31+06:00,
1000000000305927,77754181623,mKarTel,mKcell,mKcell,,D01,2017-01-05T14:43:30+06:00,
1000000000305929,77017840419,mMTS,mKcell,mKcell,,D77,2017-01-05T14:45:37+06:00,
1000000000305931,77475553352,mKcell,mMTS,mMTS,,D02,2017-01-05T14:47:23+06:00,
1000000000305933,77054862311,mAltel,mKarTel,mKarTel,,D07,2017-01-05T14:49:45+06:00,
1000000000305934,77776918433,mMTS,mKarTel,mKarTel,,D77,2017-01-05T14:51:09+06:00,
1000000000305935,77012080746,mMTS,mKcell,mKcell,,D77,2017-01-05T14:52:48+06:00,
1000000000305936,77078770009,mMTS,mKarTel,mMTS,D01,D77,2017-01-05T14:53:14+06:00,
1000000000305937,77779721447,mMTS,mKarTel,mKarTel,,D77,2017-01-05T14:53:59+06:00,
1000000000305938,77052265623,mKarTel,mMTS,mKarTel,D77,D01,2017-01-05T14:56:59+06:00,
1000000000305939,77018884876,mAltel,mKcell,mKcell,,D07,2017-01-05T14:57:26+06:00,
1000000000305940,77773375577,mAltel,mKarTel,mKarTel,,D07,2017-01-05T14:58:43+06:00,
1000000000305941,77054256809,mKcell,mKarTel,mKarTel,,D02,2017-01-05T14:59:39+06:00,
1000000000305942,77088885800,mKarTel,mKcell,mAltel,D02,D01,2017-01-05T14:59:44+06:00,
