NPId,Number,RecipientId,DonorId,RangeHolderId,OldRoute,NewRoute,PortDate,RowCount
1000000000411773,77005005494,mKcell,mAltel,mAltel,,D02,2017-06-28T19:31:30+06:00,9
1000000000411774,77018885238,mKcell,mKarTel,mKcell,D01,D02,2017-06-28T19:32:34+06:00,
1000000000411775,77004004676,mKcell,mAltel,mAltel,,D02,2017-06-28T19:35:00+06:00,
1000000000411776,77024536484,mAltel,mKcell,mKcell,,D07,2017-06-28T19:34:56+06:00,
1000000000411777,77002002434,mKcell,mAltel,mAltel,,D02,2017-06-28T19:38:03+06:00,
1000000000411778,77027775400,mKcell,mMTS,mKcell,D77,D02,2017-06-28T19:40:35+06:00,
1000000000411780,77784590976,mKarTel,mKcell,mKcell,,D01,2017-06-28T19:48:01+06:00,
1000000000411781,77028461869,mKarTel,mMTS,mKcell,D77,D01,2017-06-28T19:50:47+06:00,
1000000000411782,77019454767,mKarTel,mKcell,mKcell,,D01,2017-06-28T19:55:30+06:00,
