NPId,Number,RecipientId,DonorId,RangeHolderId,OldRoute,NewRoute,PortDate,RowCount
1000000000208858,77013004640,mKarTel,mKcell,mKcell,,D01,2016-07-10T16:03:23+06:00,17
1000000000208859,77778506404,mMTS,mKarTel,mKarTel,,D77,2016-07-10T16:03:13+06:00,
1000000000208861,77075127558,mKarTel,mMTS,mMTS,,D01,2016-07-10T16:06:19+06:00,
1000000000208862,77471201134,mMTS,mAltel,mMTS,D07,D77,2016-07-10T16:07:04+06:00,
1000000000208863,77007599930,mKcell,mAltel,mAltel,,D02,2016-07-10T16:07:53+06:00,
1000000000208864,77015000815,mAltel,mKcell,mKcell,,D07,2016-07-10T16:10:33+06:00,
1000000000208866,77766966664,mKarTel,mAltel,mKarTel,D07,D01,2016-07-10T16:16:55+06:00,
1000000000208867,77786606049,mMTS,mKcell,mKcell,,D77,2016-07-10T16:18:17+06:00,
1000000000208868,77772508350,mMTS,mKarTel,mKarTel,,D77,2016-07-10T16:22:36+06:00,
1000000000208869,77759897323,mKarTel,mAltel,mKcell,D07,D01,2016-07-10T16:22:28+06:00,
1000000000208870,77017943194,mMTS,mKcell,mKcell,,D77,2016-07-10T16:23:58+06:00,
1000000000208871,77072017005,mKcell,mMTS,mMTS,,D02,2016-07-10T16:26:39+06:00,
1000000000208872,77055555127,mAltel,mKarTel,mKarTel,,D07,2016-07-10T16:26:42+06:00,
1000000000208873,77080253314,mMTS,mAltel,mAltel,,D77,2016-07-10T16:27:13+06:00,
1000000000208874,77779777500,mMTS,mKarTel,mKarTel,,D77,2016-07-10T16:27:45+06:00,
1000000000208875,77001570005,mKcell,mAltel,mAltel,,D02,2016-07-10T16:28:22+06:00,
1000000000208876,77077009103,mKarTel,mMTS,mMTS,,D01,2016-07-10T16:29:12+06:00,
