NPId,Number,RecipientId,DonorId,RangeHolderId,OldRoute,NewRoute,PortDate,RowCount
1000000000258635,77015345849,mKarTel,mKcell,mKcell,,D01,2016-10-10T15:24:42+06:00,32
1000000000258635,77018842644,mKarTel,mKcell,mKcell,,D01,2016-10-10T15:24:42+06:00,
1000000000258635,77019381929,mKarTel,mKcell,mKcell,,D01,2016-10-10T15:24:42+06:00,
1000000000258635,77019381994,mKarTel,mKcell,mKcell,,D01,2016-10-10T15:24:42+06:00,
1000000000258635,77019745639,mKarTel,mKcell,mKcell,,D01,2016-10-10T15:24:42+06:00,
1000000000259609,77015313666,mKarTel,mKcell,mKcell,,D01,2016-10-10T15:24:58+06:00,
1000000000259882,77075846714,mAltel,mMTS,mMTS,,D07,2016-10-10T15:00:38+06:00,
1000000000259883,77076594056,mMTS,mKcell,mMTS,D02,D77,2016-10-10T15:03:13+06:00,
1000000000259884,77011895546,mAltel,mMTS,mKcell,D77,D07,2016-10-10T15:00:58+06:00,
1000000000259886,77000957007,mKcell,mAltel,mAltel,,D02,2016-10-10T15:01:09+06:00,
1000000000259889,77474689980,mAltel,mMTS,mMTS,,D07,2016-10-10T15:04:18+06:00,
1000000000259891,77071477713,mKcell,mMTS,mMTS,,D02,2016-10-10T15:05:26+06:00,
1000000000259892,77751165555,mAltel,mKcell,mKcell,,D07,2016-10-10T15:05:50+06:00,
1000000000259893,77010128080,mKcell,mMTS,mKcell,D77,D02,2016-10-10T15:06:42+06:00,
1000000000259894,77054561805,mKarTel,mMTS,mKarTel,D77,D01,2016-10-10T15:07:15+06:00,
1000000000259895,77082202277,mKarTel,mAltel,mAltel,,D01,2016-10-10T15:07:30+06:00,
1000000000259900,77057950909,mMTS,mKarTel,mKarTel,,D77,2016-10-10T15:11:17+06:00,
1000000000259901,77017865931,mKcell,mMTS,mKcell,D77,D02,2016-10-10T15:11:47+06:00,
1000000000259903,77053388522,mAltel,mKarTel,mKarTel,,D07,2016-10-10T15:13:19+06:00,
1000000000259904,77015309337,mKcell,mKarTel,mKcell,D01,D02,2016-10-10T15:15:43+06:00,
1000000000259906,77752092444,mMTS,mKcell,mKcell,,D77,2016-10-10T15:16:22+06:00,
1000000000259908,77072007106,mAltel,mMTS,mMTS,,D07,2016-10-10T15:15:37+06:00,
1000000000259909,77001120889,mKcell,mAltel,mAltel,,D02,2016-10-10T15:16:11+06:00,
1000000000259912,77056233646,mMTS,mKarTel,mKarTel,,D77,2016-10-10T15:18:53+06:00,
1000000000259917,77017404411,mKcell,mMTS,mKcell,D77,D02,2016-10-10T15:22:20+06:00,
1000000000259919,77474097723,mKarTel,mMTS,mMTS,,D01,2016-10-10T15:23:23+06:00,
1000000000259920,77774464616,mAltel,mKarTel,mKarTel,,D07,2016-10-10T15:23:40+06:00,
1000000000259921,77015381213,mMTS,mKcell,mKcell,,D77,2016-10-10T15:24:06+06:00,
1000000000259922,77756028780,mMTS,mKcell,mKcell,,D77,2016-10-10T15:24:22+06:00,
1000000000259923,77078876003,mKcell,mKarTel,mMTS,D01,D02,2016-10-10T15:26:14+06:00,
1000000000259924,77755997889,mKarTel,mKcell,mKcell,,D01,2016-10-10T15:26:16+06:00,
1000000000259926,77019000510,mMTS,mKarTel,mKcell,D01,D77,2016-10-10T15:29:03+06:00,
