NPId,Number,RecipientId,DonorId,RangeHolderId,OldRoute,NewRoute,PortDate,RowCount
1000000000327653,77757843595,mKarTel,mAltel,mKcell,D07,D01,2017-02-12T09:02:50+06:00,4
1000000000327654,77771390529,mKarTel,mAltel,mKarTel,D07,D01,2017-02-12T09:02:50+06:00,
1000000000327655,77778322295,mKarTel,mMTS,mKarTel,D77,D01,2017-02-12T09:02:50+06:00,
1000000000327656,77757843594,mKarTel,mKcell,mKcell,,D01,2017-02-12T09:02:54+06:00,
