NPId,Number,RecipientId,DonorId,RangeHolderId,OldRoute,NewRoute,PortDate,RowCount
1000000000190662,77786330816,mKarTel,mKcell,mKcell,,D01,2016-06-09T15:30:23+06:00,42
1000000000190663,77786672528,mKarTel,mKcell,mKcell,,D01,2016-06-09T15:30:22+06:00,
1000000000190664,77056024193,mAltel,mKarTel,mKarTel,,D07,2016-06-09T15:30:51+06:00,
1000000000190665,77754138717,mMTS,mKcell,mKcell,,D77,2016-06-09T15:31:19+06:00,
1000000000190666,77057041999,mMTS,mKarTel,mKarTel,,D77,2016-06-09T15:31:49+06:00,
1000000000190667,77783086830,mMTS,mKcell,mKcell,,D77,2016-06-09T15:32:09+06:00,
1000000000190668,77777979893,mMTS,mKarTel,mKarTel,,D77,2016-06-09T15:33:08+06:00,
1000000000190669,77776717777,mKcell,mKarTel,mKarTel,,D02,2016-06-09T15:35:34+06:00,
1000000000190670,77019950492,mMTS,mKcell,mKcell,,D77,2016-06-09T15:33:56+06:00,
1000000000190671,77027275985,mKcell,mAltel,mKcell,D07,D02,2016-06-09T15:35:33+06:00,
1000000000190672,77053200007,mKcell,mKarTel,mKarTel,,D02,2016-06-09T15:36:18+06:00,
1000000000190673,77776707777,mKcell,mKarTel,mKarTel,,D02,2016-06-09T15:36:16+06:00,
1000000000190674,77074000104,mAltel,mMTS,mMTS,,D07,2016-06-09T15:34:23+06:00,
1000000000190675,77057240007,mKcell,mKarTel,mKarTel,,D02,2016-06-09T15:36:42+06:00,
1000000000190676,77472888399,mAltel,mMTS,mMTS,,D07,2016-06-09T15:35:51+06:00,
1000000000190678,77753587490,mKarTel,mKcell,mKcell,,D01,2016-06-09T15:38:42+06:00,
1000000000190679,77055555835,mKcell,mKarTel,mKarTel,,D02,2016-06-09T15:38:01+06:00,
1000000000190681,77057028285,mMTS,mKarTel,mKarTel,,D77,2016-06-09T15:37:30+06:00,
1000000000190682,77776660900,mKcell,mKarTel,mKarTel,,D02,2016-06-09T15:38:43+06:00,
1000000000190683,77771190007,mKcell,mKarTel,mKarTel,,D02,2016-06-09T15:38:44+06:00,
1000000000190684,77786330787,mKarTel,mKcell,mKcell,,D01,2016-06-09T15:38:20+06:00,
1000000000190685,77016439096,mKcell,mKarTel,mKcell,D01,D02,2016-06-09T15:39:53+06:00,
1000000000190686,77777270007,mKcell,mKarTel,mKarTel,,D02,2016-06-09T15:40:08+06:00,
1000000000190687,77055555740,mKcell,mKarTel,mKarTel,,D02,2016-06-09T15:40:09+06:00,
1000000000190688,77071696768,mAltel,mMTS,mMTS,,D07,2016-06-09T15:39:41+06:00,
1000000000190689,77786330670,mKarTel,mKcell,mKcell,,D01,2016-06-09T15:40:46+06:00,
1000000000190690,77002950202,mMTS,mAltel,mAltel,,D77,2016-06-09T15:41:14+06:00,
1000000000190691,77053825077,mMTS,mKarTel,mKarTel,,D77,2016-06-09T15:41:54+06:00,
1000000000190692,77004448910,mMTS,mAltel,mAltel,,D77,2016-06-09T15:43:00+06:00,
1000000000190693,77772993569,mKarTel,mMTS,mKarTel,D77,D01,2016-06-09T15:43:44+06:00,
1000000000190695,77786330631,mKarTel,mKcell,mKcell,,D01,2016-06-09T15:46:16+06:00,
1000000000190697,77014023939,mMTS,mKcell,mKcell,,D77,2016-06-09T15:46:14+06:00,
1000000000190698,77002940202,mMTS,mAltel,mAltel,,D77,2016-06-09T15:46:44+06:00,
1000000000190700,77013977702,mKcell,mMTS,mKcell,D77,D02,2016-06-09T15:49:57+06:00,
1000000000190703,77758188083,mMTS,mKcell,mKcell,,D77,2016-06-09T15:50:28+06:00,
1000000000190705,77028810121,mKcell,mMTS,mKcell,D77,D02,2016-06-09T15:51:37+06:00,
1000000000190706,77028177888,mKcell,mMTS,mKcell,D77,D02,2016-06-09T15:51:37+06:00,
1000000000190707,77714074764,mMTS,mKarTel,mKarTel,,D77,2016-06-09T15:52:11+06:00,
1000000000190708,77751771061,mMTS,mKcell,mKcell,,D77,2016-06-09T15:55:01+06:00,
1000000000190709,77072226868,mMTS,mAltel,mMTS,D07,D77,2016-06-09T15:54:54+06:00,
1000000000190713,77089015463,mMTS,mAltel,mAltel,,D77,2016-06-09T15:56:57+06:00,
1000000000190718,77774734635,mMTS,mKarTel,mKarTel,,D77,2016-06-09T15:59:51+06:00,
