NPId,Number,RecipientId,DonorId,RangeHolderId,OldRoute,NewRoute,PortDate,RowCount
1000000000283383,77015583360,mMTS,mKcell,mKcell,,D77,2016-11-24T11:31:39+06:00,23
1000000000283384,77089094858,mKcell,mKarTel,mAltel,D01,D02,2016-11-24T11:34:28+06:00,
1000000000283385,77714929994,mKcell,mKarTel,mKarTel,,D02,2016-11-24T11:35:38+06:00,
1000000000283386,77757627128,mKcell,mMTS,mKcell,D77,D02,2016-11-24T11:35:51+06:00,
1000000000283388,77052166469,mAltel,mKarTel,mKarTel,,D07,2016-11-24T11:36:27+06:00,
1000000000283389,77018881880,mKarTel,mKcell,mKcell,,D01,2016-11-24T11:36:47+06:00,
1000000000283390,77001331992,mKcell,mAltel,mAltel,,D02,2016-11-24T11:38:29+06:00,
1000000000283392,77017536444,mKarTel,mKcell,mKcell,,D01,2016-11-24T11:39:55+06:00,
1000000000283393,77014845683,mKarTel,mKcell,mKcell,,D01,2016-11-24T11:40:16+06:00,
1000000000283395,77472225455,mKcell,mMTS,mMTS,,D02,2016-11-24T11:41:25+06:00,
1000000000283396,77089094868,mKcell,mKarTel,mAltel,D01,D02,2016-11-24T11:42:59+06:00,
1000000000283397,77015525105,mMTS,mKcell,mKcell,,D77,2016-11-24T11:43:09+06:00,
1000000000283398,77089022020,mKarTel,mAltel,mAltel,,D01,2016-11-24T11:44:18+06:00,
1000000000283399,77007701989,mKcell,mAltel,mAltel,,D02,2016-11-24T11:46:29+06:00,
1000000000283400,77009434832,mKcell,mAltel,mAltel,,D02,2016-11-24T11:46:57+06:00,
1000000000283401,77011475243,mMTS,mKcell,mKcell,,D77,2016-11-24T11:48:07+06:00,
1000000000283403,77015124125,mKcell,mAltel,mKcell,D07,D02,2016-11-24T11:50:50+06:00,
1000000000283404,77018090666,mKarTel,mKcell,mKcell,,D01,2016-11-24T11:51:56+06:00,
1000000000283405,77057466525,mMTS,mKarTel,mKarTel,,D77,2016-11-24T11:52:24+06:00,
1000000000283406,77782067971,mAltel,mKcell,mKcell,,D07,2016-11-24T11:53:39+06:00,
1000000000283407,77074040185,mKcell,mMTS,mMTS,,D02,2016-11-24T11:54:22+06:00,
1000000000283411,77019590660,mKarTel,mKcell,mKcell,,D01,2016-11-24T11:57:31+06:00,
1000000000283412,77018305303,mKcell,mAltel,mKcell,D07,D02,2016-11-24T11:58:24+06:00,
