NPId,Number,RecipientId,DonorId,RangeHolderId,OldRoute,NewRoute,PortDate,RowCount
1000000000257000,77028403992,mAltel,mKcell,mKcell,,D07,2016-10-04T19:01:44+06:00,16
1000000000257001,77071434103,mKarTel,mMTS,mMTS,,D01,2016-10-04T19:02:18+06:00,
1000000000257003,77078255772,mKcell,mMTS,mMTS,,D02,2016-10-04T19:06:11+06:00,
1000000000257004,77762033337,mAltel,mKarTel,mKarTel,,D07,2016-10-04T19:08:50+06:00,
1000000000257005,77073291414,mKcell,mMTS,mMTS,,D02,2016-10-04T19:09:59+06:00,
1000000000257006,77015661424,mKarTel,mKcell,mKcell,,D01,2016-10-04T19:10:18+06:00,
1000000000257007,77784080835,mKcell,mAltel,mKcell,D07,D02,2016-10-04T19:11:36+06:00,
1000000000257008,77019414249,mKcell,mMTS,mKcell,D77,D02,2016-10-04T19:12:00+06:00,
1000000000257009,77713130569,mKcell,mMTS,mKarTel,D77,D02,2016-10-04T19:13:44+06:00,
1000000000257010,77751771032,mMTS,mKcell,mKcell,,D77,2016-10-04T19:13:45+06:00,
1000000000257011,77015720134,mMTS,mKcell,mKcell,,D77,2016-10-04T19:15:03+06:00,
1000000000257013,77775066004,mMTS,mKarTel,mKarTel,,D77,2016-10-04T19:21:01+06:00,
1000000000257015,77774793232,mMTS,mKarTel,mKarTel,,D77,2016-10-04T19:23:13+06:00,
1000000000257016,77750006515,mMTS,mKcell,mKcell,,D77,2016-10-04T19:24:37+06:00,
1000000000257017,77028258254,mKcell,mAltel,mKcell,D07,D02,2016-10-04T19:25:44+06:00,
1000000000257018,77775555078,mKarTel,mKcell,mKarTel,D02,D01,2016-10-04T19:28:09+06:00,
