NPId,Number,RecipientId,DonorId,RangeHolderId,OldRoute,NewRoute,PortDate,RowCount
1000000000198933,77762222249,mKcell,mKarTel,mKarTel,,D02,2016-06-24T11:33:17+06:00,16
1000000000198938,77051111385,mKcell,mKarTel,mKarTel,,D02,2016-06-24T11:35:46+06:00,
1000000000198943,77052323333,mKarTel,mMTS,mKarTel,D77,D01,2016-06-24T11:34:50+06:00,
1000000000198945,77007172000,mKarTel,mMTS,mAltel,D77,D01,2016-06-24T11:35:24+06:00,
1000000000198950,77052774774,mMTS,mKarTel,mKarTel,,D77,2016-06-24T11:37:15+06:00,
1000000000198957,77776999709,mMTS,mKarTel,mKarTel,,D77,2016-06-24T11:42:37+06:00,
1000000000198959,77714555577,mMTS,mKarTel,mKarTel,,D77,2016-06-24T11:43:17+06:00,
1000000000198962,77019102166,mKarTel,mKcell,mKcell,,D01,2016-06-24T11:45:47+06:00,
1000000000198963,77787380111,mMTS,mKcell,mKcell,,D77,2016-06-24T11:46:15+06:00,
1000000000198965,77026919191,mMTS,mKcell,mKcell,,D77,2016-06-24T11:50:27+06:00,
1000000000198967,77714555511,mMTS,mKarTel,mKarTel,,D77,2016-06-24T11:51:26+06:00,
1000000000198968,77056444488,mKarTel,mMTS,mKarTel,D77,D01,2016-06-24T11:51:34+06:00,
1000000000198972,77714555599,mMTS,mKarTel,mKarTel,,D77,2016-06-24T11:56:00+06:00,
1000000000198974,77072100444,mMTS,mAltel,mMTS,D07,D77,2016-06-24T11:56:06+06:00,
1000000000198976,77017356796,mMTS,mKarTel,mKcell,D01,D77,2016-06-24T11:56:44+06:00,
1000000000198977,77056762700,mMTS,mKarTel,mKarTel,,D77,2016-06-24T11:58:15+06:00,
