NPId,Number,RecipientId,DonorId,RangeHolderId,OldRoute,NewRoute,PortDate,RowCount
1000000000360020,77057093341,mKcell,mKarTel,mKarTel,,D02,2017-04-05T12:37:37+06:00,20
1000000000360027,77057494234,mKcell,mKarTel,mKarTel,,D02,2017-04-05T12:43:43+06:00,
1000000000360030,77057494243,mKcell,mKarTel,mKarTel,,D02,2017-04-05T12:46:22+06:00,
1000000000360073,77019954975,mMTS,mKcell,mKcell,,D77,2017-04-05T12:32:34+06:00,
1000000000360074,77071174715,mMTS,mKcell,mMTS,D02,D77,2017-04-05T12:32:56+06:00,
1000000000360076,77056720762,mKcell,mKarTel,mKarTel,,D02,2017-04-05T12:36:20+06:00,
1000000000360077,77051566261,mKcell,mKarTel,mKarTel,,D02,2017-04-05T12:36:26+06:00,
1000000000360078,77010252777,mKcell,mMTS,mKcell,D77,D02,2017-04-05T12:36:48+06:00,
1000000000360079,77005303056,mMTS,mAltel,mAltel,,D77,2017-04-05T12:37:39+06:00,
1000000000360081,77773123772,mAltel,mKarTel,mKarTel,,D07,2017-04-05T12:40:48+06:00,
1000000000360082,77022255000,mKarTel,mKcell,mKcell,,D01,2017-04-05T12:47:21+06:00,
1000000000360083,77010359777,mKarTel,mKcell,mKcell,,D01,2017-04-05T12:48:08+06:00,
1000000000360084,77025804059,mMTS,mKcell,mKcell,,D77,2017-04-05T12:48:50+06:00,
1000000000360085,77057278444,mKcell,mKarTel,mKarTel,,D02,2017-04-05T12:49:22+06:00,
1000000000360089,77019935775,mKarTel,mKcell,mKcell,,D01,2017-04-05T12:52:26+06:00,
1000000000360091,77087287777,mKarTel,mMTS,mAltel,D77,D01,2017-04-05T12:53:16+06:00,
1000000000360092,77712593723,mMTS,mKarTel,mKarTel,,D77,2017-04-05T12:53:35+06:00,
1000000000360094,77007772123,mKcell,mAltel,mAltel,,D02,2017-04-05T12:56:13+06:00,
1000000000360095,77016406862,mMTS,mKcell,mKcell,,D77,2017-04-05T12:57:35+06:00,
1000000000360096,77773590265,mMTS,mKarTel,mKarTel,,D77,2017-04-05T12:58:09+06:00,
