NPId,Number,RecipientId,DonorId,RangeHolderId,OldRoute,NewRoute,PortDate,RowCount
1000000000313827,77019176488,mKarTel,mKcell,mKcell,,D01,2017-01-20T16:31:32+06:00,23
1000000000313829,77017484645,mKarTel,mKcell,mKcell,,D01,2017-01-20T16:32:12+06:00,
1000000000313831,77025450283,mMTS,mKcell,mKcell,,D77,2017-01-20T16:36:10+06:00,
1000000000313832,77007274444,mKcell,mAltel,mAltel,,D02,2017-01-20T16:34:56+06:00,
1000000000313833,77711771740,mKcell,mKarTel,mKarTel,,D02,2017-01-20T16:35:23+06:00,
1000000000313834,77758207327,mKarTel,mKcell,mKcell,,D01,2017-01-20T16:35:42+06:00,
1000000000313835,77782395277,mKarTel,mKcell,mKcell,,D01,2017-01-20T16:36:07+06:00,
1000000000313836,77073457186,mKcell,mMTS,mMTS,,D02,2017-01-20T16:36:12+06:00,
1000000000313837,77072340677,mKarTel,mMTS,mMTS,,D01,2017-01-20T16:36:19+06:00,
1000000000313839,77017941946,mKarTel,mKcell,mKcell,,D01,2017-01-20T16:38:49+06:00,
1000000000313840,77017703330,mKarTel,mAltel,mKcell,D07,D01,2017-01-20T16:39:00+06:00,
1000000000313841,77760151511,mAltel,mKarTel,mKarTel,,D07,2017-01-20T16:41:54+06:00,
1000000000313842,77755319102,mMTS,mKcell,mKcell,,D77,2017-01-20T16:42:21+06:00,
1000000000313843,77021222734,mAltel,mKcell,mKcell,,D07,2017-01-20T16:42:50+06:00,
1000000000313844,77018384224,mMTS,mKcell,mKcell,,D77,2017-01-20T16:44:31+06:00,
1000000000313845,77776260077,mKarTel,mKcell,mKarTel,D02,D01,2017-01-20T16:46:09+06:00,
1000000000313846,77014643768,mMTS,mKcell,mKcell,,D77,2017-01-20T16:46:48+06:00,
1000000000313847,77000930282,mKcell,mAltel,mAltel,,D02,2017-01-20T16:48:54+06:00,
1000000000313848,77758600006,mKcell,mKarTel,mKcell,D01,D02,2017-01-20T16:49:47+06:00,
1000000000313850,77022748059,mMTS,mKcell,mKcell,,D77,2017-01-20T16:52:11+06:00,
1000000000313851,77058985444,mMTS,mKarTel,mKarTel,,D77,2017-01-20T16:53:12+06:00,
1000000000313854,77073701766,mKarTel,mMTS,mMTS,,D01,2017-01-20T16:54:46+06:00,
1000000000313856,77024002546,mAltel,mKcell,mKcell,,D07,2017-01-20T16:58:39+06:00,
