NPId,Number,RecipientId,DonorId,RangeHolderId,OldRoute,NewRoute,PortDate,RowCount
1000000000284775,77013240843,mMTS,mKcell,mKcell,,D77,2016-11-26T17:31:52+06:00,20
1000000000284776,77051144777,mMTS,mKarTel,mKarTel,,D77,2016-11-26T17:32:53+06:00,
1000000000284777,77009399193,mMTS,mAltel,mAltel,,D77,2016-11-26T17:32:36+06:00,
1000000000284778,77018438330,mKcell,mAltel,mKcell,D07,D02,2016-11-26T17:33:15+06:00,
1000000000284779,77081910304,mMTS,mAltel,mAltel,,D77,2016-11-26T17:36:38+06:00,
1000000000284781,77072227978,mKcell,mMTS,mMTS,,D02,2016-11-26T17:39:13+06:00,
1000000000284782,77026787666,mKcell,mAltel,mKcell,D07,D02,2016-11-26T17:40:26+06:00,
1000000000284784,77079099019,mMTS,mAltel,mMTS,D07,D77,2016-11-26T17:42:32+06:00,
1000000000284785,77076661419,mKcell,mMTS,mMTS,,D02,2016-11-26T17:43:11+06:00,
1000000000284786,77771462266,mKarTel,mKcell,mKarTel,D02,D01,2016-11-26T17:44:35+06:00,
1000000000284787,77017025517,mKcell,mMTS,mKcell,D77,D02,2016-11-26T17:46:46+06:00,
1000000000284789,77016660640,mAltel,mKcell,mKcell,,D07,2016-11-26T17:48:04+06:00,
1000000000284790,77076663830,mKcell,mMTS,mMTS,,D02,2016-11-26T17:48:40+06:00,
1000000000284792,77075292099,mMTS,mKcell,mMTS,D02,D77,2016-11-26T17:49:02+06:00,
1000000000284795,77007755060,mMTS,mAltel,mAltel,,D77,2016-11-26T17:51:29+06:00,
1000000000284796,77077021005,mKcell,mMTS,mMTS,,D02,2016-11-26T17:54:22+06:00,
1000000000284798,77076664842,mKcell,mMTS,mMTS,,D02,2016-11-26T17:55:29+06:00,
1000000000284799,77007755040,mMTS,mAltel,mAltel,,D77,2016-11-26T17:56:00+06:00,
1000000000284800,77775155554,mKcell,mKarTel,mKarTel,,D02,2016-11-26T17:57:43+06:00,
1000000000284801,77073798664,mKcell,mMTS,mMTS,,D02,2016-11-26T17:57:48+06:00,
