NPId,Number,RecipientId,DonorId,RangeHolderId,OldRoute,NewRoute,PortDate,RowCount
1000000000341438,77017883026,mKarTel,mKcell,mKcell,,D01,2017-03-06T11:01:09+06:00,18
1000000000341439,77073366777,mMTS,mKcell,mMTS,D02,D77,2017-03-06T11:01:57+06:00,
1000000000341440,77016879406,mKcell,mMTS,mKcell,D77,D02,2017-03-06T11:02:17+06:00,
1000000000341441,77021781474,mMTS,mKcell,mKcell,,D77,2017-03-06T11:04:34+06:00,
1000000000341442,77011263765,mMTS,mKcell,mKcell,,D77,2017-03-06T11:05:34+06:00,
1000000000341443,77774153384,mKarTel,mMTS,mKarTel,D77,D01,2017-03-06T11:06:09+06:00,
1000000000341445,77776407960,mMTS,mKarTel,mKarTel,,D77,2017-03-06T11:07:53+06:00,
1000000000341446,77013257694,mKarTel,mKcell,mKcell,,D01,2017-03-06T11:08:03+06:00,
1000000000341447,77474790172,mKcell,mMTS,mMTS,,D02,2017-03-06T11:07:49+06:00,
1000000000341449,77082286573,mKarTel,mAltel,mAltel,,D01,2017-03-06T11:08:37+06:00,
1000000000341451,77071589191,mKcell,mMTS,mMTS,,D02,2017-03-06T11:10:52+06:00,
1000000000341452,77017220260,mMTS,mKcell,mKcell,,D77,2017-03-06T11:12:52+06:00,
1000000000341453,77026685902,mKcell,mMTS,mKcell,D77,D02,2017-03-06T11:14:35+06:00,
1000000000341454,77080007088,mKarTel,mAltel,mAltel,,D01,2017-03-06T11:17:24+06:00,
1000000000341455,77071761760,mAltel,mMTS,mMTS,,D07,2017-03-06T11:19:05+06:00,
1000000000341458,77089879666,mMTS,mAltel,mAltel,,D77,2017-03-06T11:25:56+06:00,
1000000000341459,77028350950,mKcell,mAltel,mKcell,D07,D02,2017-03-06T11:26:19+06:00,
1000000000341460,77003236610,mAltel,mMTS,mAltel,D77,D07,2017-03-06T11:27:28+06:00,
