NPId,Number,RecipientId,DonorId,RangeHolderId,OldRoute,NewRoute,PortDate,RowCount
1000000000169894,77025553388,mKarTel,mKcell,mKcell,,D01,2016-05-07T16:31:05+06:00,27
1000000000169895,77775711177,mAltel,mKarTel,mKarTel,,D07,2016-05-07T16:30:34+06:00,
1000000000169896,77000006260,mKcell,mAltel,mAltel,,D02,2016-05-07T16:31:38+06:00,
1000000000169897,77083425055,mMTS,mAltel,mAltel,,D77,2016-05-07T16:31:03+06:00,
1000000000169898,77017361745,mKcell,mAltel,mKcell,D07,D02,2016-05-07T16:31:55+06:00,
1000000000169899,77003001905,mKarTel,mAltel,mAltel,,D01,2016-05-07T16:32:42+06:00,
1000000000169900,77082281691,mMTS,mAltel,mAltel,,D77,2016-05-07T16:32:35+06:00,
1000000000169901,77711081155,mKarTel,mMTS,mKarTel,D77,D01,2016-05-07T16:33:13+06:00,
1000000000169903,77000006261,mKcell,mAltel,mAltel,,D02,2016-05-07T16:37:23+06:00,
1000000000169904,77753331550,mMTS,mKcell,mKcell,,D77,2016-05-07T16:37:33+06:00,
1000000000169905,77719991098,mKcell,mKarTel,mKarTel,,D02,2016-05-07T16:38:53+06:00,
1000000000169906,77077755065,mMTS,mAltel,mMTS,D07,D77,2016-05-07T16:39:54+06:00,
1000000000169907,77777858555,mMTS,mKarTel,mKarTel,,D77,2016-05-07T16:42:46+06:00,
1000000000169908,77087567641,mMTS,mAltel,mAltel,,D77,2016-05-07T16:42:41+06:00,
1000000000169909,77085391646,mMTS,mAltel,mAltel,,D77,2016-05-07T16:44:12+06:00,
1000000000169911,77007947705,mKarTel,mAltel,mAltel,,D01,2016-05-07T16:47:55+06:00,
1000000000169912,77079110012,mMTS,mAltel,mMTS,D07,D77,2016-05-07T16:49:50+06:00,
1000000000169913,77087727273,mMTS,mAltel,mAltel,,D77,2016-05-07T16:51:45+06:00,
1000000000169914,77028564910,mMTS,mKcell,mKcell,,D77,2016-05-07T16:53:12+06:00,
1000000000169915,77082807087,mMTS,mAltel,mAltel,,D77,2016-05-07T16:52:03+06:00,
1000000000169916,77070491771,mMTS,mAltel,mMTS,D07,D77,2016-05-07T16:53:55+06:00,
1000000000169917,77754125753,mMTS,mAltel,mKcell,D07,D77,2016-05-07T16:54:37+06:00,
1000000000169919,77758398448,mMTS,mKcell,mKcell,,D77,2016-05-07T16:57:29+06:00,
1000000000169920,77477889393,mKcell,mMTS,mMTS,,D02,2016-05-07T16:58:44+06:00,
1000000000169921,77021117916,mKarTel,mKcell,mKcell,,D01,2016-05-07T16:58:46+06:00,
1000000000169922,77085522294,mMTS,mAltel,mAltel,,D77,2016-05-07T16:59:09+06:00,
1000000000169923,77007160676,mKarTel,mAltel,mAltel,,D01,2016-05-07T16:59:39+06:00,
