NPId,Number,RecipientId,DonorId,RangeHolderId,OldRoute,NewRoute,PortDate,RowCount
1000000000151518,77017376745,mKcell,mMTS,mKcell,D77,D02,2016-04-14T11:01:13+06:00,30
1000000000151520,77059005923,mMTS,mKarTel,mKarTel,,D77,2016-04-14T11:02:51+06:00,
1000000000151523,77087556209,mKcell,mAltel,mAltel,,D02,2016-04-14T11:03:06+06:00,
1000000000151525,77077774498,mKcell,mMTS,mMTS,,D02,2016-04-14T11:03:28+06:00,
1000000000151528,77024646460,mKcell,mAltel,mKcell,D07,D02,2016-04-14T11:04:10+06:00,
1000000000151529,77013860911,mAltel,mKcell,mKcell,,D07,2016-04-14T11:04:27+06:00,
1000000000151532,77714770202,mMTS,mKarTel,mKarTel,,D77,2016-04-14T11:08:28+06:00,
1000000000151535,77016707617,mMTS,mKcell,mKcell,,D77,2016-04-14T11:08:15+06:00,
1000000000151536,77004071176,mKcell,mAltel,mAltel,,D02,2016-04-14T11:08:42+06:00,
1000000000151537,77026021226,mMTS,mKcell,mKcell,,D77,2016-04-14T11:09:58+06:00,
1000000000151538,77752450070,mMTS,mKcell,mKcell,,D77,2016-04-14T11:10:18+06:00,
1000000000151540,77772314488,mMTS,mKarTel,mKarTel,,D77,2016-04-14T11:12:39+06:00,
1000000000151541,77002141177,mKcell,mAltel,mAltel,,D02,2016-04-14T11:12:08+06:00,
1000000000151542,77080477157,mMTS,mAltel,mAltel,,D77,2016-04-14T11:11:57+06:00,
1000000000151544,77017213360,mKarTel,mKcell,mKcell,,D01,2016-04-14T11:14:43+06:00,
1000000000151545,77000900711,mKcell,mAltel,mAltel,,D02,2016-04-14T11:14:40+06:00,
1000000000151547,77057752889,mMTS,mKarTel,mKarTel,,D77,2016-04-14T11:17:31+06:00,
1000000000151548,77019938680,mKarTel,mKcell,mKcell,,D01,2016-04-14T11:17:29+06:00,
1000000000151549,77017229146,mKarTel,mKcell,mKcell,,D01,2016-04-14T11:18:13+06:00,
1000000000151550,77002220393,mKcell,mAltel,mAltel,,D02,2016-04-14T11:18:18+06:00,
1000000000151551,77772166444,mKarTel,mAltel,mKarTel,D07,D01,2016-04-14T11:18:55+06:00,
1000000000151553,77015957565,mMTS,mKcell,mKcell,,D77,2016-04-14T11:18:41+06:00,
1000000000151554,77051801744,mKarTel,mAltel,mKarTel,D07,D01,2016-04-14T11:19:38+06:00,
1000000000151556,77025673967,mMTS,mKcell,mKcell,,D77,2016-04-14T11:20:28+06:00,
1000000000151557,77017334693,mKarTel,mKcell,mKcell,,D01,2016-04-14T11:21:03+06:00,
1000000000151558,77053584000,mKcell,mKarTel,mKarTel,,D02,2016-04-14T11:23:01+06:00,
1000000000151560,77772305739,mMTS,mKarTel,mKarTel,,D77,2016-04-14T11:23:56+06:00,
1000000000151561,77774975959,mMTS,mAltel,mKarTel,D07,D77,2016-04-14T11:23:07+06:00,
1000000000151564,77015815797,mMTS,mKcell,mKcell,,D77,2016-04-14T11:26:35+06:00,
1000000000151565,77015361764,mMTS,mKcell,mKcell,,D77,2016-04-14T11:27:11+06:00,
