NPId,Number,RecipientId,DonorId,RangeHolderId,OldRoute,NewRoute,PortDate,RowCount
1000000000322826,77014733877,mMTS,mKcell,mKcell,,D77,2017-02-03T12:33:25+06:00,32
1000000000322827,77753647082,mAltel,mKcell,mKcell,,D07,2017-02-03T12:34:07+06:00,
1000000000322828,77015325303,mKarTel,mKcell,mKcell,,D01,2017-02-03T12:36:55+06:00,
1000000000322829,77017198610,mMTS,mKcell,mKcell,,D77,2017-02-03T12:36:53+06:00,
1000000000322831,77776271207,mKcell,mKarTel,mKarTel,,D02,2017-02-03T12:40:10+06:00,
1000000000322832,77024090661,mKarTel,mKcell,mKcell,,D01,2017-02-03T12:39:55+06:00,
1000000000322833,77017366286,mAltel,mKcell,mKcell,,D07,2017-02-03T12:40:20+06:00,
1000000000322834,77015349932,mKarTel,mAltel,mKcell,D07,D01,2017-02-03T12:41:56+06:00,
1000000000322835,77014370744,mAltel,mKcell,mKcell,,D07,2017-02-03T12:42:40+06:00,
1000000000322836,77779308916,mMTS,mKarTel,mKarTel,,D77,2017-02-03T12:43:27+06:00,
1000000000322837,77765572020,mMTS,mKarTel,mKarTel,,D77,2017-02-03T12:44:01+06:00,
1000000000322838,77077714030,mAltel,mMTS,mMTS,,D07,2017-02-03T12:43:54+06:00,
1000000000322839,77057463320,mMTS,mKarTel,mKarTel,,D77,2017-02-03T12:45:37+06:00,
1000000000322840,77052413742,mMTS,mKarTel,mKarTel,,D77,2017-02-03T12:46:00+06:00,
1000000000322841,77029996110,mKarTel,mKcell,mKcell,,D01,2017-02-03T12:46:41+06:00,
1000000000322842,77001000004,mKcell,mAltel,mAltel,,D02,2017-02-03T12:47:37+06:00,
1000000000322844,77769833336,mKcell,mKarTel,mKarTel,,D02,2017-02-03T12:49:17+06:00,
1000000000322845,77477812003,mKarTel,mMTS,mMTS,,D01,2017-02-03T12:49:56+06:00,
1000000000322846,77024344894,mAltel,mKcell,mKcell,,D07,2017-02-03T12:50:25+06:00,
1000000000322847,77752566665,mKarTel,mKcell,mKcell,,D01,2017-02-03T12:51:03+06:00,
1000000000322849,77017563053,mKarTel,mKcell,mKcell,,D01,2017-02-03T12:52:13+06:00,
1000000000322850,77025557959,mAltel,mMTS,mKcell,D77,D07,2017-02-03T12:52:23+06:00,
1000000000322851,77001910007,mMTS,mAltel,mAltel,,D77,2017-02-03T12:52:25+06:00,
1000000000322852,77052413743,mMTS,mKarTel,mKarTel,,D77,2017-02-03T12:53:06+06:00,
1000000000322853,77053381989,mMTS,mKarTel,mKarTel,,D77,2017-02-03T12:53:06+06:00,
1000000000322854,77770495344,mMTS,mKarTel,mKarTel,,D77,2017-02-03T12:54:59+06:00,
1000000000322855,77012411336,mAltel,mKcell,mKcell,,D07,2017-02-03T12:55:13+06:00,
1000000000322856,77083404401,mKcell,mKarTel,mAltel,D01,D02,2017-02-03T12:55:43+06:00,
1000000000322857,77781116778,mKcell,mMTS,mKcell,D77,D02,2017-02-03T12:57:09+06:00,
1000000000322858,77751111175,mKarTel,mKcell,mKcell,,D01,2017-02-03T12:57:25+06:00,
1000000000322859,77014746020,mKcell,mMTS,mKcell,D77,D02,2017-02-03T12:59:23+06:00,
1000000000322860,77084932203,mMTS,mAltel,mAltel,,D77,2017-02-03T12:59:32+06:00,
