NPId,Number,RecipientId,DonorId,RangeHolderId,OldRoute,NewRoute,PortDate,RowCount
1000000000405151,77089990916,mKcell,mAltel,mAltel,,D02,2017-06-18T14:32:25+06:00,17
1000000000405152,77017934424,mMTS,mKcell,mKcell,,D77,2017-06-18T14:33:03+06:00,
1000000000405153,77753439203,mKcell,mMTS,mKcell,D77,D02,2017-06-18T14:33:51+06:00,
1000000000405154,77772844390,mMTS,mKarTel,mKarTel,,D77,2017-06-18T14:37:00+06:00,
1000000000405155,77007707106,mMTS,mAltel,mAltel,,D77,2017-06-18T14:37:23+06:00,
1000000000405156,77015002121,mKarTel,mKcell,mKcell,,D01,2017-06-18T14:43:12+06:00,
1000000000405158,77028663188,mAltel,mKcell,mKcell,,D07,2017-06-18T14:46:24+06:00,
1000000000405159,77011455110,mKarTel,mKcell,mKcell,,D01,2017-06-18T14:47:10+06:00,
1000000000405161,77072901045,mKcell,mMTS,mMTS,,D02,2017-06-18T14:48:46+06:00,
1000000000405162,77012256263,mMTS,mKcell,mKcell,,D77,2017-06-18T14:50:23+06:00,
1000000000405163,77052229595,mMTS,mKarTel,mKarTel,,D77,2017-06-18T14:50:56+06:00,
1000000000405164,77051022977,mMTS,mKarTel,mKarTel,,D77,2017-06-18T14:51:18+06:00,
1000000000405165,77782539095,mAltel,mKarTel,mKcell,D01,D07,2017-06-18T14:51:19+06:00,
1000000000405166,77781042232,mKcell,mAltel,mKcell,D07,D02,2017-06-18T14:53:09+06:00,
1000000000405167,77784066608,mKcell,mMTS,mKcell,D77,D02,2017-06-18T14:57:50+06:00,
1000000000405168,77089990943,mKcell,mAltel,mAltel,,D02,2017-06-18T14:57:59+06:00,
1000000000405169,77089990947,mKcell,mAltel,mAltel,,D02,2017-06-18T14:58:55+06:00,
