NPId,Number,RecipientId,DonorId,RangeHolderId,OldRoute,NewRoute,PortDate,RowCount
1000000000352460,77073785852,mAltel,mMTS,mMTS,,D07,2017-03-25T19:00:10+06:00,10
1000000000352461,77075993555,mKarTel,mMTS,mMTS,,D01,2017-03-25T19:01:15+06:00,
1000000000352462,77004028735,mMTS,mAltel,mAltel,,D77,2017-03-25T19:01:15+06:00,
1000000000352463,77788731197,mMTS,mKcell,mKcell,,D77,2017-03-25T19:01:53+06:00,
1000000000352465,77016121267,mMTS,mKcell,mKcell,D02,D77,2017-03-25T19:03:28+06:00,
1000000000352466,77776313531,mKcell,mKarTel,mKarTel,,D02,2017-03-25T19:03:56+06:00,
1000000000352471,77053322777,mKcell,mAltel,mKarTel,D07,D02,2017-03-25T19:11:32+06:00,
1000000000352472,77017192896,mMTS,mKcell,mKcell,,D77,2017-03-25T19:12:52+06:00,
1000000000352473,77788731206,mMTS,mKcell,mKcell,,D77,2017-03-25T19:17:53+06:00,
1000000000352474,77012101421,mKcell,mKarTel,mKcell,D01,D02,2017-03-25T19:28:36+06:00,
