NPId,Number,RecipientId,DonorId,RangeHolderId,OldRoute,NewRoute,PortDate,RowCount
1000000000159550,77776542900,mMTS,mKarTel,mKarTel,,D77,2016-04-25T11:00:36+06:00,26
1000000000159551,77015213895,mMTS,mKarTel,mKcell,D01,D77,2016-04-25T11:01:58+06:00,
1000000000159552,77771856660,mMTS,mKarTel,mKarTel,,D77,2016-04-25T11:03:48+06:00,
1000000000159553,77023679739,mKarTel,mKcell,mKcell,,D01,2016-04-25T11:04:37+06:00,
1000000000159554,77756666677,mMTS,mKcell,mKcell,,D77,2016-04-25T11:04:24+06:00,
1000000000159556,77718317081,mAltel,mKarTel,mKarTel,,D07,2016-04-25T11:06:43+06:00,
1000000000159557,77057051616,mKarTel,mAltel,mKarTel,D07,D01,2016-04-25T11:07:05+06:00,
1000000000159558,77028540354,mMTS,mKcell,mKcell,,D77,2016-04-25T11:08:01+06:00,
1000000000159559,77071112411,mKarTel,mAltel,mMTS,D07,D01,2016-04-25T11:09:02+06:00,
1000000000159560,77002427722,mKarTel,mAltel,mAltel,,D01,2016-04-25T11:09:31+06:00,
1000000000159561,77059938101,mMTS,mKarTel,mKarTel,,D77,2016-04-25T11:10:00+06:00,
1000000000159562,77011000535,mKarTel,mKcell,mKcell,,D01,2016-04-25T11:11:42+06:00,
1000000000159563,77018707850,mMTS,mKcell,mKcell,,D77,2016-04-25T11:11:39+06:00,
1000000000159564,77753698851,mKcell,mMTS,mKcell,D77,D02,2016-04-25T11:11:50+06:00,
1000000000159566,77010772710,mMTS,mKcell,mKcell,,D77,2016-04-25T11:12:15+06:00,
1000000000159568,77018676231,mAltel,mKcell,mKcell,,D07,2016-04-25T11:14:51+06:00,
1000000000159569,77019593530,mMTS,mAltel,mKcell,D07,D77,2016-04-25T11:15:27+06:00,
1000000000159571,77089083848,mMTS,mAltel,mAltel,,D77,2016-04-25T11:17:01+06:00,
1000000000159572,77089614130,mMTS,mAltel,mAltel,,D77,2016-04-25T11:18:35+06:00,
1000000000159575,77019372531,mKarTel,mKcell,mKcell,,D01,2016-04-25T11:22:27+06:00,
1000000000159577,77017970779,mKcell,mAltel,mKcell,D07,D02,2016-04-25T11:24:27+06:00,
1000000000159578,77773575679,mKarTel,mAltel,mKarTel,D07,D01,2016-04-25T11:24:49+06:00,
1000000000159580,77714880004,mAltel,mMTS,mKarTel,D77,D07,2016-04-25T11:26:40+06:00,
1000000000159581,77772231930,mKcell,mKarTel,mKarTel,,D02,2016-04-25T11:27:59+06:00,
1000000000159582,77054407010,mKarTel,mMTS,mKarTel,D77,D01,2016-04-25T11:28:42+06:00,
1000000000159585,77088882010,mKarTel,mAltel,mAltel,,D01,2016-04-25T11:29:44+06:00,
