NPId,Number,RecipientId,DonorId,RangeHolderId,OldRoute,NewRoute,PortDate,RowCount
1000000000317189,77778900923,mMTS,mKarTel,mKarTel,,D77,2017-01-26T17:30:54+06:00,22
1000000000317190,77751061686,mAltel,mKcell,mKcell,,D07,2017-01-26T17:32:06+06:00,
1000000000317192,77716598484,mKarTel,mKcell,mKarTel,D02,D01,2017-01-26T17:33:29+06:00,
1000000000317193,77089417807,mMTS,mAltel,mAltel,,D77,2017-01-26T17:34:10+06:00,
1000000000317194,77752025144,mAltel,mKcell,mKcell,,D07,2017-01-26T17:36:36+06:00,
1000000000317195,77072611960,mKarTel,mMTS,mMTS,,D01,2017-01-26T17:36:41+06:00,
1000000000317196,77054995405,mKarTel,mMTS,mKarTel,D77,D01,2017-01-26T17:37:13+06:00,
1000000000317197,77089265009,mKarTel,mKcell,mAltel,D02,D01,2017-01-26T17:37:35+06:00,
1000000000317199,77056042658,mKarTel,mMTS,mKarTel,D77,D01,2017-01-26T17:38:05+06:00,
1000000000317200,77058209908,mMTS,mKarTel,mKarTel,,D77,2017-01-26T17:39:02+06:00,
1000000000317201,77777376767,mKarTel,mMTS,mKarTel,D77,D01,2017-01-26T17:39:29+06:00,
1000000000317202,77011118559,mKarTel,mKcell,mKcell,,D01,2017-01-26T17:43:39+06:00,
1000000000317206,77778452637,mMTS,mKarTel,mKarTel,,D77,2017-01-26T17:47:25+06:00,
1000000000317207,77782619999,mKarTel,mKcell,mKcell,,D01,2017-01-26T17:47:49+06:00,
1000000000317208,77018008875,mKarTel,mKcell,mKcell,,D01,2017-01-26T17:48:20+06:00,
1000000000317209,77026941292,mMTS,mKcell,mKcell,,D77,2017-01-26T17:49:24+06:00,
1000000000317210,77771729998,mMTS,mKarTel,mKarTel,,D77,2017-01-26T17:50:36+06:00,
1000000000317211,77779513637,mAltel,mKarTel,mKarTel,,D07,2017-01-26T17:52:17+06:00,
1000000000317212,77022148217,mKarTel,mKcell,mKcell,,D01,2017-01-26T17:52:54+06:00,
1000000000317214,77776905445,mKcell,mKarTel,mKarTel,,D02,2017-01-26T17:55:32+06:00,
1000000000317215,77772466763,mMTS,mKarTel,mKarTel,,D77,2017-01-26T17:56:11+06:00,
1000000000317218,77759895633,mAltel,mKcell,mKcell,,D07,2017-01-26T17:57:49+06:00,
