NPId,Number,RecipientId,DonorId,RangeHolderId,OldRoute,NewRoute,PortDate,RowCount
1000000000331255,77071227598,mAltel,mMTS,mMTS,,D07,2017-02-19T14:00:01+06:00,13
1000000000331256,77788523277,mMTS,mKcell,mKcell,,D77,2017-02-19T14:01:54+06:00,
1000000000331257,77079320953,mAltel,mMTS,mMTS,,D07,2017-02-19T14:02:18+06:00,
1000000000331258,77019998706,mAltel,mKcell,mKcell,,D07,2017-02-19T14:03:55+06:00,
1000000000331260,77478120512,mKarTel,mMTS,mMTS,,D01,2017-02-19T14:05:57+06:00,
1000000000331262,77027779717,mAltel,mKcell,mKcell,,D07,2017-02-19T14:10:26+06:00,
1000000000331263,77029955444,mMTS,mKcell,mKcell,,D77,2017-02-19T14:11:28+06:00,
1000000000331267,77777733387,mAltel,mKarTel,mKarTel,,D07,2017-02-19T14:17:03+06:00,
1000000000331268,77777068641,mMTS,mKarTel,mKarTel,,D77,2017-02-19T14:18:11+06:00,
1000000000331269,77478738687,mKcell,mMTS,mMTS,,D02,2017-02-19T14:18:04+06:00,
1000000000331270,77013352585,mMTS,mKcell,mKcell,,D77,2017-02-19T14:18:25+06:00,
1000000000331272,77478738690,mKcell,mMTS,mMTS,,D02,2017-02-19T14:21:26+06:00,
1000000000331273,77473792685,mKarTel,mMTS,mMTS,,D01,2017-02-19T14:22:46+06:00,
