NPId,Number,RecipientId,DonorId,RangeHolderId,OldRoute,NewRoute,PortDate,RowCount
1000000000268177,77075040034,mKarTel,mMTS,mMTS,,D01,2016-10-25T20:34:54+06:00,4
1000000000268178,77477771791,mKcell,mMTS,mMTS,,D02,2016-10-25T20:37:12+06:00,
1000000000268179,77787355544,mMTS,mKcell,mKcell,,D77,2016-10-25T20:39:31+06:00,
1000000000268180,77011113385,mMTS,mKcell,mKcell,,D77,2016-10-25T20:42:32+06:00,
