NPId,Number,RecipientId,DonorId,RangeHolderId,OldRoute,NewRoute,PortDate,RowCount
1000000000131019,77078695325,mKarTel,mMTS,mMTS,,D01,2016-03-22T17:31:24+06:00,11
1000000000131020,77773751657,mMTS,mKarTel,mKarTel,,D77,2016-03-22T17:32:58+06:00,
1000000000131022,77005558700,mMTS,mAltel,mAltel,,D77,2016-03-22T17:35:25+06:00,
1000000000131023,77754342424,mAltel,mKcell,mKcell,,D07,2016-03-22T17:37:20+06:00,
1000000000131024,77012322584,mMTS,mKcell,mKcell,,D77,2016-03-22T17:37:46+06:00,
1000000000131025,77012124895,mKcell,mKarTel,mKcell,D01,D02,2016-03-22T17:46:32+06:00,
1000000000131026,77017458501,mKcell,mAltel,mKcell,D07,D02,2016-03-22T17:48:35+06:00,
1000000000131028,77014815213,mAltel,mKcell,mKcell,,D07,2016-03-22T17:49:51+06:00,
1000000000131030,77017447713,mKarTel,mKcell,mKcell,,D01,2016-03-22T17:56:27+06:00,
1000000000131031,77716869913,mMTS,mKarTel,mKarTel,,D77,2016-03-22T17:57:41+06:00,
1000000000131032,77014446060,mMTS,mAltel,mKcell,D07,D77,2016-03-22T17:57:10+06:00,
