NPId,Number,RecipientId,DonorId,RangeHolderId,OldRoute,NewRoute,PortDate,RowCount
1000000000304161,77076660688,mMTS,mAltel,mMTS,D07,D77,2017-01-01T14:32:31+06:00,3
1000000000304162,77029763263,mAltel,mKcell,mKcell,,D07,2017-01-01T14:33:49+06:00,
1000000000304163,77010830101,mMTS,mKcell,mKcell,,D77,2017-01-01T14:43:28+06:00,
