NPId,Number,RecipientId,DonorId,RangeHolderId,OldRoute,NewRoute,PortDate,RowCount
1000000000319950,77028110007,mMTS,mKcell,mKcell,,D77,2017-01-31T13:00:43+06:00,43
1000000000319951,77017774113,mKcell,mKarTel,mKcell,D01,D02,2017-01-31T13:01:11+06:00,
1000000000319952,77057708017,mKarTel,mAltel,mKarTel,D07,D01,2017-01-31T13:01:09+06:00,
1000000000319953,77071119955,mMTS,mAltel,mMTS,D07,D77,2017-01-31T13:01:40+06:00,
1000000000319954,77773873576,mAltel,mKarTel,mKarTel,,D07,2017-01-31T13:02:16+06:00,
1000000000319957,77776655171,mKcell,mKarTel,mKarTel,,D02,2017-01-31T13:04:56+06:00,
1000000000319958,77472277716,mMTS,mKcell,mMTS,D02,D77,2017-01-31T13:04:51+06:00,
1000000000319959,77757849300,mKarTel,mKcell,mKcell,,D01,2017-01-31T13:05:40+06:00,
1000000000319960,77056242588,mMTS,mKarTel,mKarTel,,D77,2017-01-31T13:06:04+06:00,
1000000000319961,77029770077,mKcell,mMTS,mKcell,D77,D02,2017-01-31T13:06:42+06:00,
1000000000319963,77751764393,mKarTel,mKcell,mKcell,,D01,2017-01-31T13:07:36+06:00,
1000000000319964,77787436717,mMTS,mKcell,mKcell,,D77,2017-01-31T13:07:52+06:00,
1000000000319965,77783859354,mMTS,mKcell,mKcell,,D77,2017-01-31T13:07:52+06:00,
1000000000319966,77058033338,mMTS,mKarTel,mKarTel,,D77,2017-01-31T13:08:46+06:00,
1000000000319967,77001012788,mMTS,mAltel,mAltel,,D77,2017-01-31T13:08:50+06:00,
1000000000319969,77017292696,mKarTel,mKcell,mKcell,,D01,2017-01-31T13:09:53+06:00,
1000000000319970,77085055057,mKcell,mAltel,mAltel,,D02,2017-01-31T13:10:09+06:00,
1000000000319971,77082323390,mMTS,mAltel,mAltel,,D77,2017-01-31T13:10:51+06:00,
1000000000319972,77024444037,mAltel,mKcell,mKcell,,D07,2017-01-31T13:11:12+06:00,
1000000000319973,77011895546,mKarTel,mAltel,mKcell,D07,D01,2017-01-31T13:11:46+06:00,
1000000000319974,77752500545,mAltel,mKcell,mKcell,,D07,2017-01-31T13:11:42+06:00,
1000000000319975,77787436617,mMTS,mKcell,mKcell,,D77,2017-01-31T13:12:49+06:00,
1000000000319978,77016660003,mKarTel,mKcell,mKcell,,D01,2017-01-31T13:16:38+06:00,
1000000000319979,77477427994,mMTS,mKarTel,mMTS,D01,D77,2017-01-31T13:17:03+06:00,
1000000000319980,77781110058,mAltel,mKcell,mKcell,,D07,2017-01-31T13:17:03+06:00,
1000000000319982,77757720279,mKcell,mAltel,mKcell,D07,D02,2017-01-31T13:19:37+06:00,
1000000000319983,77714156674,mAltel,mKarTel,mKarTel,,D07,2017-01-31T13:20:32+06:00,
1000000000319984,77085155158,mKcell,mAltel,mAltel,,D02,2017-01-31T13:21:15+06:00,
1000000000319985,77776445777,mMTS,mKarTel,mKarTel,,D77,2017-01-31T13:22:20+06:00,
1000000000319986,77002222847,mKcell,mAltel,mAltel,,D02,2017-01-31T13:22:31+06:00,
1000000000319987,77019936740,mAltel,mMTS,mKcell,D77,D07,2017-01-31T13:22:24+06:00,
1000000000319988,77015515369,mKarTel,mKcell,mKcell,,D01,2017-01-31T13:23:06+06:00,
1000000000319989,77753546503,mKarTel,mKcell,mKcell,,D01,2017-01-31T13:23:22+06:00,
1000000000319990,77017531708,mKarTel,mKcell,mKcell,,D01,2017-01-31T13:23:27+06:00,
1000000000319991,77781989898,mMTS,mKcell,mKcell,,D77,2017-01-31T13:24:03+06:00,
1000000000319992,77077900999,mMTS,mKcell,mMTS,D02,D77,2017-01-31T13:24:43+06:00,
1000000000319994,77029099093,mMTS,mKcell,mKcell,,D77,2017-01-31T13:25:34+06:00,
1000000000319995,77072121088,mKcell,mMTS,mMTS,,D02,2017-01-31T13:25:43+06:00,
1000000000319996,77765139999,mMTS,mKarTel,mKarTel,,D77,2017-01-31T13:28:03+06:00,
1000000000319997,77027590808,mKarTel,mKcell,mKcell,,D01,2017-01-31T13:28:10+06:00,
1000000000319998,77017000783,mKarTel,mKcell,mKcell,,D01,2017-01-31T13:28:27+06:00,
1000000000319999,77083363636,mKarTel,mAltel,mAltel,,D01,2017-01-31T13:28:31+06:00,
1000000000320001,77471377703,mAltel,mMTS,mMTS,,D07,2017-01-31T13:28:19+06:00,
