NPId,Number,RecipientId,DonorId,RangeHolderId,OldRoute,NewRoute,PortDate,RowCount
1000000000316629,77017163402,mKcell,mMTS,mKcell,D77,D02,2017-01-26T12:03:22+06:00,19
1000000000316829,77017351079,mKarTel,mKcell,mKcell,,D01,2017-01-26T12:01:14+06:00,
1000000000316830,77017296741,mKcell,mMTS,mKcell,D77,D02,2017-01-26T12:02:36+06:00,
1000000000316832,77479005050,mKcell,mMTS,mMTS,D77,D02,2017-01-26T12:02:49+06:00,
1000000000316834,77051508434,mAltel,mKarTel,mKarTel,,D07,2017-01-26T12:05:02+06:00,
1000000000316835,77081798697,mMTS,mAltel,mAltel,,D77,2017-01-26T12:07:40+06:00,
1000000000316836,77054988889,mMTS,mKarTel,mKarTel,,D77,2017-01-26T12:08:02+06:00,
1000000000316837,77007754577,mKarTel,mAltel,mAltel,,D01,2017-01-26T12:11:32+06:00,
1000000000316841,77775910055,mAltel,mKarTel,mKarTel,,D07,2017-01-26T12:17:55+06:00,
1000000000316843,77017253015,mAltel,mMTS,mKcell,D77,D07,2017-01-26T12:19:24+06:00,
1000000000316844,77014151182,mMTS,mKcell,mKcell,,D77,2017-01-26T12:19:36+06:00,
1000000000316845,77017135383,mKarTel,mKcell,mKcell,,D01,2017-01-26T12:21:04+06:00,
1000000000316846,77054152828,mMTS,mKarTel,mKarTel,,D77,2017-01-26T12:21:02+06:00,
1000000000316847,77025559707,mKcell,mAltel,mKcell,D07,D02,2017-01-26T12:22:34+06:00,
1000000000316848,77059787561,mMTS,mKarTel,mKarTel,,D77,2017-01-26T12:23:02+06:00,
1000000000316850,77786394802,mMTS,mKcell,mKcell,,D77,2017-01-26T12:23:26+06:00,
1000000000316851,77079477737,mKcell,mMTS,mMTS,,D02,2017-01-26T12:23:47+06:00,
1000000000316852,77019414599,mAltel,mKcell,mKcell,,D07,2017-01-26T12:24:59+06:00,
1000000000316854,77056085690,mMTS,mKarTel,mKarTel,,D77,2017-01-26T12:26:22+06:00,
