NPId,Number,RecipientId,DonorId,RangeHolderId,OldRoute,NewRoute,PortDate,RowCount
1000000000432765,77010596103,mKcell,mKarTel,mKcell,D01,D02,2017-08-01T17:58:42+06:00,36
1000000000432836,77715597467,mMTS,mKarTel,mKarTel,,D77,2017-08-01T17:31:54+06:00,
1000000000432840,77012222651,mKcell,mKarTel,mKcell,D01,D02,2017-08-01T17:33:39+06:00,
1000000000432841,77022352090,mKcell,mKarTel,mKcell,D01,D02,2017-08-01T17:33:51+06:00,
1000000000432845,77052214056,mAltel,mKarTel,mKarTel,,D07,2017-08-01T17:36:22+06:00,
1000000000432848,77017842803,mKarTel,mKcell,mKcell,,D01,2017-08-01T17:32:40+06:00,
1000000000432849,77079680267,mKarTel,mAltel,mMTS,D07,D01,2017-08-01T17:33:32+06:00,
1000000000432850,77027674748,mKarTel,mKcell,mKcell,,D01,2017-08-01T17:33:32+06:00,
1000000000432851,77784700077,mAltel,mKcell,mKcell,,D07,2017-08-01T17:31:14+06:00,
1000000000432854,77017316025,mKarTel,mKcell,mKcell,,D01,2017-08-01T17:35:13+06:00,
1000000000432856,77051554086,mMTS,mKarTel,mKarTel,,D77,2017-08-01T17:42:21+06:00,
1000000000432857,77000999114,mKcell,mMTS,mAltel,D77,D02,2017-08-01T17:33:39+06:00,
1000000000432858,77006779192,mMTS,mAltel,mAltel,,D77,2017-08-01T17:33:26+06:00,
1000000000432860,77716002679,mKcell,mAltel,mKarTel,D07,D02,2017-08-01T17:33:58+06:00,
1000000000432861,77021555389,mAltel,mKcell,mKcell,,D07,2017-08-01T17:34:07+06:00,
1000000000432866,77714397777,mKcell,mKarTel,mKarTel,,D02,2017-08-01T17:47:38+06:00,
1000000000432868,77781620193,mKcell,mAltel,mKcell,D07,D02,2017-08-01T17:39:47+06:00,
1000000000432869,77017792502,mKarTel,mKcell,mKcell,,D01,2017-08-01T17:42:53+06:00,
1000000000432876,77057669331,mKcell,mKarTel,mKarTel,,D02,2017-08-01T17:53:48+06:00,
1000000000432877,77083875570,mKarTel,mAltel,mAltel,,D01,2017-08-01T17:47:51+06:00,
1000000000432878,77077009999,mKarTel,mMTS,mMTS,,D01,2017-08-01T17:47:56+06:00,
1000000000432879,77000860000,mKcell,mAltel,mAltel,,D02,2017-08-01T17:46:32+06:00,
1000000000432881,77479538115,mKarTel,mAltel,mMTS,D07,D01,2017-08-01T17:50:37+06:00,
1000000000432885,77015208280,mMTS,mKcell,mKcell,,D77,2017-08-01T17:48:22+06:00,
1000000000432886,77019963449,mMTS,mKcell,mKcell,,D77,2017-08-01T17:49:06+06:00,
1000000000432889,77015160444,mKarTel,mKcell,mKcell,,D01,2017-08-01T17:55:03+06:00,
1000000000432890,77086916550,mKarTel,mAltel,mAltel,,D01,2017-08-01T17:54:36+06:00,
1000000000432891,77088259276,mKcell,mAltel,mAltel,,D02,2017-08-01T17:52:00+06:00,
1000000000432892,77783226138,mKcell,mAltel,mKcell,D07,D02,2017-08-01T17:52:04+06:00,
1000000000432893,77088980003,mMTS,mAltel,mAltel,,D77,2017-08-01T17:52:11+06:00,
1000000000432897,77019979867,mKarTel,mKcell,mKcell,,D01,2017-08-01T17:58:30+06:00,
1000000000432899,77022222752,mKarTel,mKcell,mKcell,,D01,2017-08-01T17:58:53+06:00,
1000000000432901,77787348376,mAltel,mKcell,mKcell,,D07,2017-08-01T17:55:54+06:00,
1000000000432903,77023260383,mKcell,mAltel,mKcell,D07,D02,2017-08-01T17:57:19+06:00,
1000000000432904,77077358480,mAltel,mMTS,mMTS,,D07,2017-08-01T17:57:06+06:00,
1000000000432906,77072408016,mAltel,mMTS,mMTS,,D07,2017-08-01T17:59:48+06:00,
