NPId,Number,RecipientId,DonorId,RangeHolderId,OldRoute,NewRoute,PortDate,RowCount
1000000000396026,77052513331,mKcell,mKarTel,mKarTel,,D02,2017-06-02T15:30:14+06:00,43
1000000000396027,77783889988,mKcell,mMTS,mKcell,D77,D02,2017-06-02T15:30:18+06:00,
1000000000396029,77756331013,mMTS,mKcell,mKcell,,D77,2017-06-02T15:31:46+06:00,
1000000000396032,77757009009,mKarTel,mKcell,mKcell,D02,D01,2017-06-02T15:33:53+06:00,
1000000000396033,77776498822,mMTS,mKarTel,mKarTel,,D77,2017-06-02T15:33:51+06:00,
1000000000396037,77077157830,mAltel,mMTS,mMTS,,D07,2017-06-02T15:35:28+06:00,
1000000000396039,77024400331,mMTS,mKcell,mKcell,,D77,2017-06-02T15:36:47+06:00,
1000000000396040,77003651939,mKcell,mAltel,mAltel,,D02,2017-06-02T15:37:34+06:00,
1000000000396043,77776475635,mKarTel,mAltel,mKarTel,D07,D01,2017-06-02T15:39:59+06:00,
1000000000396044,77019036003,mKcell,mAltel,mKcell,D07,D02,2017-06-02T15:40:03+06:00,
1000000000396045,77021555959,mKarTel,mKcell,mKcell,,D01,2017-06-02T15:40:36+06:00,
1000000000396046,77083031070,mKarTel,mAltel,mAltel,,D01,2017-06-02T15:40:56+06:00,
1000000000396048,77789302930,mKarTel,mAltel,mKcell,D07,D01,2017-06-02T15:41:57+06:00,
1000000000396049,77002173748,mMTS,mAltel,mAltel,,D77,2017-06-02T15:41:48+06:00,
1000000000396050,77471563659,mKcell,mMTS,mMTS,,D02,2017-06-02T15:43:13+06:00,
1000000000396051,77005269070,mMTS,mAltel,mAltel,,D77,2017-06-02T15:43:09+06:00,
1000000000396052,77026956035,mMTS,mKcell,mKcell,,D77,2017-06-02T15:43:38+06:00,
1000000000396055,77085409793,mMTS,mAltel,mAltel,D07,D77,2017-06-02T15:44:31+06:00,
1000000000396056,77015223633,mKarTel,mKcell,mKcell,,D01,2017-06-02T15:45:00+06:00,
1000000000396058,77023194281,mMTS,mKcell,mKcell,,D77,2017-06-02T15:45:28+06:00,
1000000000396059,77057612450,mKarTel,mMTS,mKarTel,D77,D01,2017-06-02T15:45:36+06:00,
1000000000396060,77475306880,mAltel,mMTS,mMTS,,D07,2017-06-02T15:45:45+06:00,
1000000000396061,77783060201,mKcell,mAltel,mKcell,D07,D02,2017-06-02T15:46:05+06:00,
1000000000396062,77021955519,mMTS,mKcell,mKcell,,D77,2017-06-02T15:45:57+06:00,
1000000000396064,77766933333,mKarTel,mAltel,mKarTel,D07,D01,2017-06-02T15:46:07+06:00,
1000000000396065,77017178078,mMTS,mKcell,mKcell,,D77,2017-06-02T15:46:09+06:00,
1000000000396067,77051729221,mKarTel,mMTS,mKarTel,D77,D01,2017-06-02T15:46:27+06:00,
1000000000396069,77478500086,mAltel,mMTS,mMTS,,D07,2017-06-02T15:47:49+06:00,
1000000000396070,77071950410,mKarTel,mMTS,mMTS,,D01,2017-06-02T15:48:25+06:00,
1000000000396071,77764002004,mAltel,mKarTel,mKarTel,,D07,2017-06-02T15:49:50+06:00,
1000000000396074,77027770821,mAltel,mKcell,mKcell,,D07,2017-06-02T15:50:35+06:00,
1000000000396075,77018269851,mKarTel,mKcell,mKcell,,D01,2017-06-02T15:52:15+06:00,
1000000000396077,77086936014,mMTS,mAltel,mAltel,,D77,2017-06-02T15:52:13+06:00,
1000000000396078,77752659555,mKarTel,mKcell,mKcell,,D01,2017-06-02T15:52:51+06:00,
1000000000396079,77015300522,mKcell,mMTS,mKcell,D77,D02,2017-06-02T15:52:56+06:00,
1000000000396080,77013254721,mAltel,mKcell,mKcell,,D07,2017-06-02T15:53:11+06:00,
1000000000396081,77017767222,mMTS,mKcell,mKcell,,D77,2017-06-02T15:54:18+06:00,
1000000000396082,77059819796,mAltel,mKcell,mKarTel,D02,D07,2017-06-02T15:55:16+06:00,
1000000000396083,77074843660,mAltel,mMTS,mMTS,,D07,2017-06-02T15:55:16+06:00,
1000000000396084,77012928192,mMTS,mKcell,mKcell,,D77,2017-06-02T15:55:23+06:00,
1000000000396090,77054044900,mMTS,mKarTel,mKarTel,,D77,2017-06-02T15:56:56+06:00,
1000000000396091,77071658331,mKcell,mMTS,mMTS,,D02,2017-06-02T15:58:01+06:00,
1000000000396093,77756569696,mAltel,mKcell,mKcell,,D07,2017-06-02T15:58:47+06:00,
