NPId,Number,RecipientId,DonorId,RangeHolderId,OldRoute,NewRoute,PortDate,RowCount
1000000000296084,77072449191,mMTS,mAltel,mMTS,D07,D77,2016-12-16T14:30:18+06:00,19
1000000000296085,77058058844,mKcell,mKarTel,mKarTel,,D02,2016-12-16T14:31:20+06:00,
1000000000296088,77077070094,mKcell,mMTS,mMTS,,D02,2016-12-16T14:34:48+06:00,
1000000000296091,77003049101,mMTS,mAltel,mAltel,,D77,2016-12-16T14:37:36+06:00,
1000000000296092,77077070092,mKcell,mMTS,mMTS,,D02,2016-12-16T14:39:24+06:00,
1000000000296093,77776665548,mKcell,mKarTel,mKarTel,,D02,2016-12-16T14:40:44+06:00,
1000000000296095,77077017733,mMTS,mAltel,mMTS,D07,D77,2016-12-16T14:42:13+06:00,
1000000000296097,77057772356,mMTS,mKarTel,mKarTel,,D77,2016-12-16T14:45:09+06:00,
1000000000296098,77077771099,mKcell,mMTS,mMTS,,D02,2016-12-16T14:46:00+06:00,
1000000000296100,77784114408,mMTS,mKcell,mKcell,,D77,2016-12-16T14:48:39+06:00,
1000000000296101,77028444448,mKcell,mMTS,mKcell,D77,D02,2016-12-16T14:49:12+06:00,
1000000000296102,77760966969,mAltel,mKarTel,mKarTel,,D07,2016-12-16T14:51:54+06:00,
1000000000296103,77778682828,mMTS,mKarTel,mKarTel,,D77,2016-12-16T14:52:58+06:00,
1000000000296104,77024994703,mMTS,mKcell,mKcell,,D77,2016-12-16T14:53:24+06:00,
1000000000296105,77012705479,mKarTel,mKcell,mKcell,,D01,2016-12-16T14:54:59+06:00,
1000000000296106,77002263333,mMTS,mAltel,mAltel,,D77,2016-12-16T14:54:37+06:00,
1000000000296107,77078710826,mKarTel,mMTS,mMTS,,D01,2016-12-16T14:56:30+06:00,
1000000000296108,77715848434,mMTS,mKarTel,mKarTel,,D77,2016-12-16T14:57:55+06:00,
1000000000296109,77011005144,mMTS,mKcell,mKcell,,D77,2016-12-16T14:59:05+06:00,
