NPId,Number,RecipientId,DonorId,RangeHolderId,OldRoute,NewRoute,PortDate,RowCount
1000000000420255,77022222161,mKarTel,mKcell,mKcell,,D01,2017-07-12T12:31:44+06:00,18
1000000000420256,77780078818,mMTS,mKcell,mKcell,,D77,2017-07-12T12:33:01+06:00,
1000000000420259,77088607581,mMTS,mAltel,mAltel,,D77,2017-07-12T12:35:40+06:00,
1000000000420260,77018111162,mAltel,mKcell,mKcell,,D07,2017-07-12T12:37:52+06:00,
1000000000420261,77028373800,mMTS,mKcell,mKcell,,D77,2017-07-12T12:39:50+06:00,
1000000000420264,77083337182,mKarTel,mAltel,mAltel,,D01,2017-07-12T12:41:40+06:00,
1000000000420265,77077190148,mKcell,mMTS,mMTS,,D02,2017-07-12T12:41:48+06:00,
1000000000420266,77019919197,mKarTel,mMTS,mKcell,D77,D01,2017-07-12T12:42:10+06:00,
1000000000420268,77074210255,mAltel,mMTS,mMTS,,D07,2017-07-12T12:47:26+06:00,
1000000000420269,77475224956,mAltel,mMTS,mMTS,,D07,2017-07-12T12:50:03+06:00,
1000000000420270,77013670121,mMTS,mKcell,mKcell,,D77,2017-07-12T12:51:55+06:00,
1000000000420271,77785888318,mKarTel,mMTS,mKcell,D77,D01,2017-07-12T12:52:47+06:00,
1000000000420272,77752085459,mKarTel,mKcell,mKcell,,D01,2017-07-12T12:53:23+06:00,
1000000000420273,77789872222,mKcell,mMTS,mKcell,D77,D02,2017-07-12T12:53:39+06:00,
1000000000420274,77079339303,mKarTel,mMTS,mMTS,,D01,2017-07-12T12:54:24+06:00,
1000000000420276,77018881825,mKarTel,mKcell,mKcell,,D01,2017-07-12T12:56:56+06:00,
1000000000420278,77089366617,mKarTel,mAltel,mAltel,,D01,2017-07-12T12:57:17+06:00,
1000000000420279,77075251182,mKcell,mMTS,mMTS,,D02,2017-07-12T12:59:57+06:00,
