NPId,Number,RecipientId,DonorId,RangeHolderId,OldRoute,NewRoute,PortDate,RowCount
1000000000334607,77015269921,mMTS,mKcell,mKcell,,D77,2017-02-24T19:30:47+06:00,17
1000000000334608,77760000032,mKcell,mKarTel,mKarTel,,D02,2017-02-24T19:31:21+06:00,
1000000000334609,77006008727,mKcell,mAltel,mAltel,,D02,2017-02-24T19:31:17+06:00,
1000000000334610,77020000710,mKarTel,mKcell,mKcell,,D01,2017-02-24T19:32:50+06:00,
1000000000334611,77771112912,mMTS,mKarTel,mKarTel,,D77,2017-02-24T19:33:04+06:00,
1000000000334612,77006001545,mKcell,mAltel,mAltel,,D02,2017-02-24T19:33:07+06:00,
1000000000334613,77006009464,mKcell,mAltel,mAltel,,D02,2017-02-24T19:36:15+06:00,
1000000000334614,77006061010,mKcell,mAltel,mAltel,,D02,2017-02-24T19:38:59+06:00,
1000000000334615,77006062333,mKcell,mAltel,mAltel,,D02,2017-02-24T19:41:03+06:00,
1000000000334616,77004091993,mKcell,mAltel,mAltel,,D02,2017-02-24T19:43:38+06:00,
1000000000334617,77014852683,mKcell,mMTS,mKcell,D77,D02,2017-02-24T19:46:28+06:00,
1000000000334619,77755064409,mAltel,mKcell,mKcell,,D07,2017-02-24T19:47:39+06:00,
1000000000334620,77762727000,mMTS,mKarTel,mKarTel,D01,D77,2017-02-24T19:48:04+06:00,
1000000000334621,77019531233,mKcell,mAltel,mKcell,D07,D02,2017-02-24T19:49:29+06:00,
1000000000334622,77006660210,mKcell,mAltel,mAltel,,D02,2017-02-24T19:51:34+06:00,
1000000000334623,77768100040,mKcell,mKarTel,mKarTel,,D02,2017-02-24T19:55:13+06:00,
1000000000334624,77778000086,mAltel,mKarTel,mKarTel,,D07,2017-02-24T19:55:32+06:00,
