NPId,Number,RecipientId,DonorId,RangeHolderId,OldRoute,NewRoute,PortDate,RowCount
1000000000404606,77019414040,mMTS,mKcell,mKcell,,D77,2017-06-16T19:33:32+06:00,5
1000000000404607,77053338868,mMTS,mKarTel,mKarTel,,D77,2017-06-16T19:36:55+06:00,
1000000000404608,77013747093,mKarTel,mMTS,mKcell,D77,D01,2017-06-16T19:41:02+06:00,
1000000000404609,77026818168,mKarTel,mKcell,mKcell,D02,D01,2017-06-16T19:44:40+06:00,
1000000000404612,77017998844,mKarTel,mKcell,mKcell,,D01,2017-06-16T19:56:47+06:00,
