NPId,Number,RecipientId,DonorId,RangeHolderId,OldRoute,NewRoute,PortDate,RowCount
1000000000367390,77766050996,mKcell,mKarTel,mKarTel,,D02,2017-04-17T21:31:15+06:00,4
1000000000367391,77055256274,mMTS,mKarTel,mKarTel,,D77,2017-04-17T21:33:02+06:00,
1000000000367392,77052642114,mMTS,mKarTel,mKarTel,,D77,2017-04-17T21:53:04+06:00,
1000000000367393,77017406087,mKarTel,mKcell,mKcell,,D01,2017-04-17T21:58:08+06:00,
