NPId,Number,RecipientId,DonorId,RangeHolderId,OldRoute,NewRoute,PortDate,RowCount
1000000000047839,77021166846,mMTS,mKcell,mKcell,,D77,2016-02-14T14:33:36+06:00,22
1000000000047842,77017000089,mAltel,mKcell,mKcell,,D07,2016-02-14T14:34:43+06:00,
1000000000047843,77779648855,mAltel,mKarTel,mKarTel,,D07,2016-02-14T14:35:37+06:00,
1000000000047844,77018070341,mMTS,mKcell,mKcell,,D77,2016-02-14T14:35:35+06:00,
1000000000047845,77775704577,mAltel,mKarTel,mKarTel,,D07,2016-02-14T14:35:53+06:00,
1000000000047846,77019606388,mAltel,mKcell,mKcell,,D07,2016-02-14T14:36:55+06:00,
1000000000047849,77072908001,mAltel,mMTS,mMTS,,D07,2016-02-14T14:38:48+06:00,
1000000000047850,77052202802,mAltel,mKarTel,mKarTel,,D07,2016-02-14T14:40:31+06:00,
1000000000047852,77472020101,mAltel,mMTS,mMTS,,D07,2016-02-14T14:41:43+06:00,
1000000000047853,77017817835,mMTS,mKcell,mKcell,,D77,2016-02-14T14:41:55+06:00,
1000000000047857,77757852163,mAltel,mKcell,mKcell,,D07,2016-02-14T14:43:50+06:00,
1000000000047858,77010480007,mAltel,mKcell,mKcell,,D07,2016-02-14T14:44:14+06:00,
1000000000047859,77712544452,mKcell,mKarTel,mKarTel,,D02,2016-02-14T14:45:27+06:00,
1000000000047862,77021396363,mMTS,mKcell,mKcell,,D77,2016-02-14T14:47:32+06:00,
1000000000047864,77052800770,mAltel,mKarTel,mKarTel,,D07,2016-02-14T14:48:45+06:00,
1000000000047866,77075113366,mAltel,mMTS,mMTS,,D07,2016-02-14T14:51:30+06:00,
1000000000047873,77025642100,mMTS,mKcell,mKcell,,D77,2016-02-14T14:53:44+06:00,
1000000000047874,77011785540,mMTS,mKcell,mKcell,,D77,2016-02-14T14:55:01+06:00,
1000000000047877,77019885088,mAltel,mKcell,mKcell,,D07,2016-02-14T14:56:56+06:00,
1000000000047878,77016361717,mMTS,mKcell,mKcell,,D77,2016-02-14T14:57:13+06:00,
1000000000047880,77025010720,mMTS,mKcell,mKcell,,D77,2016-02-14T14:58:03+06:00,
1000000000047882,77719777771,mMTS,mKarTel,mKarTel,,D77,2016-02-14T14:59:16+06:00,
