NPId,Number,RecipientId,DonorId,RangeHolderId,OldRoute,NewRoute,PortDate,RowCount
1000000000345415,77077847744,mKcell,mMTS,mMTS,,D02,2017-03-12T21:36:54+06:00,2
1000000000345416,77019251066,mMTS,mKcell,mKcell,,D77,2017-03-12T21:52:50+06:00,
