NPId,Number,RecipientId,DonorId,RangeHolderId,OldRoute,NewRoute,PortDate,RowCount
1000000000196066,77019461467,mKarTel,mKcell,mKcell,,D01,2016-06-19T13:44:46+06:00,8
1000000000196067,77778312626,mAltel,mKarTel,mKarTel,,D07,2016-06-19T13:46:01+06:00,
1000000000196068,77757666565,mKcell,mAltel,mKcell,D07,D02,2016-06-19T13:46:03+06:00,
1000000000196069,77756236073,mMTS,mKcell,mKcell,,D77,2016-06-19T13:46:09+06:00,
1000000000196070,77029845828,mKarTel,mMTS,mKcell,D77,D01,2016-06-19T13:46:45+06:00,
1000000000196071,77474089026,mAltel,mMTS,mMTS,,D07,2016-06-19T13:57:39+06:00,
1000000000196072,77017070544,mKarTel,mKcell,mKcell,,D01,2016-06-19T13:59:12+06:00,
1000000000196073,77001393039,mAltel,mMTS,mAltel,D77,D07,2016-06-19T13:59:48+06:00,
