NPId,Number,RecipientId,DonorId,RangeHolderId,OldRoute,NewRoute,PortDate,RowCount
1000000000371260,77077220145,mAltel,mMTS,mMTS,,D07,2017-04-25T10:04:03+06:00,16
1000000000371262,77018180505,mAltel,mKcell,mKcell,D02,D07,2017-04-25T10:08:22+06:00,
1000000000371265,77781687177,mKcell,mMTS,mKcell,D77,D02,2017-04-25T10:13:15+06:00,
1000000000371266,77013757204,mKarTel,mKcell,mKcell,,D01,2017-04-25T10:14:46+06:00,
1000000000371267,77768119888,mAltel,mKarTel,mKarTel,,D07,2017-04-25T10:15:09+06:00,
1000000000371268,77076299785,mAltel,mMTS,mMTS,,D07,2017-04-25T10:16:01+06:00,
1000000000371269,77713736443,mKarTel,mMTS,mKarTel,D77,D01,2017-04-25T10:16:50+06:00,
1000000000371270,77775001588,mKcell,mMTS,mKarTel,D77,D02,2017-04-25T10:18:20+06:00,
1000000000371272,77071515466,mKcell,mMTS,mMTS,,D02,2017-04-25T10:21:16+06:00,
1000000000371273,77019823251,mMTS,mAltel,mKcell,D07,D77,2017-04-25T10:21:19+06:00,
1000000000371275,77472747304,mAltel,mMTS,mMTS,,D07,2017-04-25T10:22:03+06:00,
1000000000371276,77759993566,mKcell,mAltel,mKcell,D07,D02,2017-04-25T10:22:40+06:00,
1000000000371277,77079146614,mKcell,mMTS,mMTS,,D02,2017-04-25T10:24:23+06:00,
1000000000371278,77075146614,mKcell,mMTS,mMTS,,D02,2017-04-25T10:27:13+06:00,
1000000000371279,77775001599,mKcell,mMTS,mKarTel,D77,D02,2017-04-25T10:29:44+06:00,
1000000000371280,77755253999,mMTS,mKcell,mKcell,,D77,2017-04-25T10:29:46+06:00,
