NPId,Number,RecipientId,DonorId,RangeHolderId,OldRoute,NewRoute,PortDate,RowCount
1000000000210240,77019171706,mAltel,mKcell,mKcell,,D07,2016-07-12T18:33:30+06:00,13
1000000000210242,77757300150,mMTS,mKcell,mKcell,,D77,2016-07-12T18:37:41+06:00,
1000000000210243,77753007807,mMTS,mKcell,mKcell,,D77,2016-07-12T18:41:50+06:00,
1000000000210244,77014469171,mKarTel,mKcell,mKcell,,D01,2016-07-12T18:42:02+06:00,
1000000000210245,77003077730,mKcell,mAltel,mAltel,,D02,2016-07-12T18:41:45+06:00,
1000000000210247,77754122771,mMTS,mKcell,mKcell,,D77,2016-07-12T18:42:20+06:00,
1000000000210248,77027482597,mKarTel,mKcell,mKcell,,D01,2016-07-12T18:43:45+06:00,
1000000000210249,77054188879,mKarTel,mMTS,mKarTel,D77,D01,2016-07-12T18:44:21+06:00,
1000000000210251,77083280020,mMTS,mAltel,mAltel,,D77,2016-07-12T18:44:25+06:00,
1000000000210252,77073935295,mKarTel,mMTS,mMTS,,D01,2016-07-12T18:45:33+06:00,
1000000000210253,77080005010,mKcell,mAltel,mAltel,,D02,2016-07-12T18:46:32+06:00,
1000000000210254,77765005010,mKcell,mKarTel,mKarTel,,D02,2016-07-12T18:54:29+06:00,
1000000000210255,77752288006,mKarTel,mKcell,mKcell,,D01,2016-07-12T18:57:45+06:00,
