NPId,Number,RecipientId,DonorId,RangeHolderId,OldRoute,NewRoute,PortDate,RowCount
1000000000255508,77078279655,mMTS,mKarTel,mMTS,D01,D77,2016-10-02T19:05:30+06:00,3
1000000000255510,77014003363,mAltel,mKcell,mKcell,,D07,2016-10-02T19:15:38+06:00,
1000000000255511,77052057320,mKcell,mAltel,mKarTel,D07,D02,2016-10-02T19:20:58+06:00,
