NPId,Number,RecipientId,DonorId,RangeHolderId,OldRoute,NewRoute,PortDate,RowCount
1000000000256353,77019142663,mKarTel,mKcell,mKcell,,D01,2016-10-04T17:00:29+06:00,31
1000000000256864,77758251464,mMTS,mKcell,mKcell,,D77,2016-10-04T17:00:08+06:00,
1000000000256868,77057618373,mKcell,mMTS,mKarTel,D77,D02,2016-10-04T17:03:58+06:00,
1000000000256870,77776182739,mMTS,mKarTel,mKarTel,,D77,2016-10-04T17:05:48+06:00,
1000000000256872,77054442324,mKarTel,mAltel,mKarTel,D07,D01,2016-10-04T17:05:33+06:00,
1000000000256873,77021296259,mKcell,mMTS,mKcell,D77,D02,2016-10-04T17:07:41+06:00,
1000000000256875,77023375783,mKarTel,mKcell,mKcell,,D01,2016-10-04T17:07:59+06:00,
1000000000256876,77758251465,mMTS,mKcell,mKcell,,D77,2016-10-04T17:08:22+06:00,
1000000000256878,77714614248,mKcell,mKarTel,mKarTel,,D02,2016-10-04T17:10:25+06:00,
1000000000256879,77055859099,mMTS,mKarTel,mKarTel,,D77,2016-10-04T17:10:45+06:00,
1000000000256880,77073000933,mKcell,mMTS,mMTS,D77,D02,2016-10-04T17:10:21+06:00,
1000000000256881,77770876655,mMTS,mKarTel,mKarTel,,D77,2016-10-04T17:11:21+06:00,
1000000000256882,77088992414,mKarTel,mMTS,mAltel,D77,D01,2016-10-04T17:13:19+06:00,
1000000000256883,77057917272,mKcell,mKarTel,mKarTel,,D02,2016-10-04T17:14:11+06:00,
1000000000256884,77086898324,mMTS,mAltel,mAltel,,D77,2016-10-04T17:14:14+06:00,
1000000000256885,77021621532,mAltel,mKcell,mKcell,D02,D07,2016-10-04T17:14:52+06:00,
1000000000256886,77071231155,mKcell,mMTS,mMTS,,D02,2016-10-04T17:15:58+06:00,
1000000000256887,77771035550,mKcell,mKarTel,mKarTel,,D02,2016-10-04T17:17:32+06:00,
1000000000256888,77788828808,mMTS,mKcell,mKcell,,D77,2016-10-04T17:17:26+06:00,
1000000000256889,77013096323,mMTS,mKcell,mKcell,,D77,2016-10-04T17:17:36+06:00,
1000000000256890,77773485400,mMTS,mKarTel,mKarTel,,D77,2016-10-04T17:18:44+06:00,
1000000000256892,77015510105,mKarTel,mMTS,mKcell,D77,D01,2016-10-04T17:19:33+06:00,
1000000000256893,77086898323,mMTS,mAltel,mAltel,,D77,2016-10-04T17:19:47+06:00,
1000000000256895,77776116070,mMTS,mKarTel,mKarTel,,D77,2016-10-04T17:23:05+06:00,
1000000000256897,77058893272,mMTS,mKarTel,mKarTel,,D77,2016-10-04T17:24:57+06:00,
1000000000256899,77076958838,mAltel,mMTS,mMTS,,D07,2016-10-04T17:24:29+06:00,
1000000000256900,77713777125,mAltel,mKarTel,mKarTel,,D07,2016-10-04T17:25:10+06:00,
1000000000256902,77009990030,mKarTel,mAltel,mAltel,,D01,2016-10-04T17:27:07+06:00,
1000000000256903,77077766554,mKarTel,mMTS,mMTS,,D01,2016-10-04T17:27:58+06:00,
1000000000256904,77007979797,mKcell,mAltel,mAltel,,D02,2016-10-04T17:28:08+06:00,
1000000000256905,77077766555,mKarTel,mMTS,mMTS,,D01,2016-10-04T17:29:04+06:00,
