NPId,Number,RecipientId,DonorId,RangeHolderId,OldRoute,NewRoute,PortDate,RowCount
1000000000191620,77776587092,mMTS,mKarTel,mKarTel,,D77,2016-06-11T11:05:12+06:00,20
1000000000191621,77015510029,mKarTel,mKcell,mKcell,,D01,2016-06-11T11:06:20+06:00,
1000000000191622,77001219450,mMTS,mAltel,mAltel,,D77,2016-06-11T11:06:53+06:00,
1000000000191624,77756242862,mMTS,mKcell,mKcell,,D77,2016-06-11T11:07:59+06:00,
1000000000191625,77001977777,mKcell,mAltel,mAltel,,D02,2016-06-11T11:08:27+06:00,
1000000000191626,77019461660,mKcell,mAltel,mKcell,D07,D02,2016-06-11T11:08:28+06:00,
1000000000191627,77087605343,mMTS,mAltel,mAltel,,D77,2016-06-11T11:07:41+06:00,
1000000000191628,77074300009,mAltel,mMTS,mMTS,,D07,2016-06-11T11:07:45+06:00,
1000000000191629,77016563896,mKcell,mMTS,mKcell,D77,D02,2016-06-11T11:08:45+06:00,
1000000000191632,77761169407,mMTS,mKarTel,mKarTel,,D77,2016-06-11T11:12:25+06:00,
1000000000191633,77071702678,mKcell,mMTS,mMTS,,D02,2016-06-11T11:13:13+06:00,
1000000000191635,77752306160,mMTS,mKcell,mKcell,,D77,2016-06-11T11:16:39+06:00,
1000000000191636,77011205388,mMTS,mKcell,mKcell,,D77,2016-06-11T11:20:27+06:00,
1000000000191638,77751328917,mMTS,mKcell,mKcell,,D77,2016-06-11T11:21:46+06:00,
1000000000191641,77021399926,mMTS,mKcell,mKcell,,D77,2016-06-11T11:24:47+06:00,
1000000000191644,77017641162,mMTS,mKcell,mKcell,,D77,2016-06-11T11:27:26+06:00,
1000000000191645,77071215181,mKcell,mMTS,mMTS,,D02,2016-06-11T11:27:49+06:00,
1000000000191646,77760987878,mKcell,mKarTel,mKarTel,,D02,2016-06-11T11:28:52+06:00,
1000000000191647,77013922268,mMTS,mKcell,mKcell,,D77,2016-06-11T11:28:57+06:00,
1000000000191648,77011625501,mMTS,mKcell,mKcell,,D77,2016-06-11T11:29:25+06:00,
