NPId,Number,RecipientId,DonorId,RangeHolderId,OldRoute,NewRoute,PortDate,RowCount
1000000000263161,77472050363,mAltel,mMTS,mMTS,,D07,2016-10-16T11:08:29+06:00,3
1000000000263162,77089143942,mMTS,mAltel,mAltel,,D77,2016-10-16T11:17:30+06:00,
1000000000263163,77786418422,mKcell,mKarTel,mKcell,D01,D02,2016-10-16T11:26:22+06:00,
