NPId,Number,RecipientId,DonorId,RangeHolderId,OldRoute,NewRoute,PortDate,RowCount
1000000000310386,77766391313,mMTS,mKarTel,mKarTel,,D77,2017-01-13T21:38:10+06:00,3
1000000000310387,77024228944,mKcell,mAltel,mKcell,D07,D02,2017-01-13T21:49:22+06:00,
1000000000310388,77762700004,mMTS,mKarTel,mKarTel,,D77,2017-01-13T21:58:04+06:00,
