NPId,Number,RecipientId,DonorId,RangeHolderId,OldRoute,NewRoute,PortDate,RowCount
1000000000137693,77774215040,mKcell,mKarTel,mKarTel,,D02,2016-03-30T18:31:39+06:00,15
1000000000137694,77755555166,mKarTel,mKcell,mKcell,,D01,2016-03-30T18:32:07+06:00,
1000000000137696,77057077025,mMTS,mKarTel,mKarTel,,D77,2016-03-30T18:35:37+06:00,
1000000000137697,77785120101,mAltel,mKcell,mKcell,,D07,2016-03-30T18:35:33+06:00,
1000000000137698,77052522946,mKarTel,mAltel,mKarTel,D07,D01,2016-03-30T18:37:50+06:00,
1000000000137701,77017474584,mKcell,mAltel,mKcell,D07,D02,2016-03-30T18:39:19+06:00,
1000000000137702,77779811401,mMTS,mKarTel,mKarTel,,D77,2016-03-30T18:41:52+06:00,
1000000000137703,77059174805,mMTS,mKarTel,mKarTel,,D77,2016-03-30T18:42:46+06:00,
1000000000137706,77752580397,mMTS,mKcell,mKcell,,D77,2016-03-30T18:44:12+06:00,
1000000000137707,77017844096,mAltel,mKcell,mKcell,,D07,2016-03-30T18:44:35+06:00,
1000000000137708,77089050707,mKcell,mAltel,mAltel,,D02,2016-03-30T18:47:35+06:00,
1000000000137710,77019480248,mAltel,mKcell,mKcell,,D07,2016-03-30T18:50:13+06:00,
1000000000137711,77019889058,mMTS,mKcell,mKcell,,D77,2016-03-30T18:50:49+06:00,
1000000000137714,77759119994,mAltel,mKcell,mKcell,,D07,2016-03-30T18:55:05+06:00,
1000000000137715,77012081515,mKarTel,mKcell,mKcell,,D01,2016-03-30T18:59:19+06:00,
