NPId,Number,RecipientId,DonorId,RangeHolderId,OldRoute,NewRoute,PortDate,RowCount
1000000000226661,77070444612,mKarTel,mMTS,mMTS,,D01,2016-08-10T12:03:11+06:00,31
1000000000226661,77070444617,mKarTel,mMTS,mMTS,,D01,2016-08-10T12:03:11+06:00,
1000000000226661,77070444621,mKarTel,mMTS,mMTS,,D01,2016-08-10T12:03:11+06:00,
1000000000226661,77070444623,mKarTel,mMTS,mMTS,,D01,2016-08-10T12:03:11+06:00,
1000000000226661,77070444625,mKarTel,mMTS,mMTS,,D01,2016-08-10T12:03:11+06:00,
1000000000226661,77070444626,mKarTel,mMTS,mMTS,,D01,2016-08-10T12:03:11+06:00,
1000000000226661,77070601005,mKarTel,mMTS,mMTS,,D01,2016-08-10T12:03:11+06:00,
1000000000226661,77070601006,mKarTel,mMTS,mMTS,,D01,2016-08-10T12:03:11+06:00,
1000000000226661,77070601009,mKarTel,mMTS,mMTS,,D01,2016-08-10T12:03:11+06:00,
1000000000226661,77070601014,mKarTel,mMTS,mMTS,,D01,2016-08-10T12:03:11+06:00,
1000000000226661,77070601016,mKarTel,mMTS,mMTS,,D01,2016-08-10T12:03:11+06:00,
1000000000226661,77070601020,mKarTel,mMTS,mMTS,,D01,2016-08-10T12:03:11+06:00,
1000000000226661,77478029809,mKarTel,mMTS,mMTS,,D01,2016-08-10T12:03:11+06:00,
1000000000226661,77015126993,mKarTel,mMTS,mKcell,D77,D01,2016-08-10T12:03:11+06:00,
1000000000226664,77003000999,mKarTel,mAltel,mAltel,,D01,2016-08-10T12:03:50+06:00,
1000000000226666,77079510195,mKcell,mMTS,mMTS,,D02,2016-08-10T12:06:28+06:00,
1000000000226667,77472022210,mKarTel,mMTS,mMTS,,D01,2016-08-10T12:06:30+06:00,
1000000000226670,77751390951,mKcell,mMTS,mKcell,D77,D02,2016-08-10T12:07:56+06:00,
1000000000226672,77029974446,mKcell,mMTS,mKcell,D77,D02,2016-08-10T12:09:18+06:00,
1000000000226673,77027200068,mKcell,mAltel,mKcell,D07,D02,2016-08-10T12:11:09+06:00,
1000000000226674,77717004441,mMTS,mKarTel,mKarTel,,D77,2016-08-10T12:12:33+06:00,
1000000000226675,77013516272,mKcell,mAltel,mKcell,D07,D02,2016-08-10T12:14:00+06:00,
1000000000226676,77017307596,mKarTel,mKcell,mKcell,,D01,2016-08-10T12:14:49+06:00,
1000000000226677,77017365569,mMTS,mKcell,mKcell,,D77,2016-08-10T12:15:03+06:00,
1000000000226679,77056699909,mKarTel,mMTS,mKarTel,D77,D01,2016-08-10T12:17:18+06:00,
1000000000226680,77711680101,mKcell,mKarTel,mKarTel,,D02,2016-08-10T12:18:00+06:00,
1000000000226681,77766662003,mKcell,mKarTel,mKarTel,,D02,2016-08-10T12:19:25+06:00,
1000000000226683,77027156141,mKcell,mMTS,mKcell,D77,D02,2016-08-10T12:19:26+06:00,
1000000000226684,77017207724,mMTS,mKcell,mKcell,,D77,2016-08-10T12:20:08+06:00,
1000000000226686,77017533719,mMTS,mKcell,mKcell,,D77,2016-08-10T12:22:10+06:00,
1000000000226692,77001510001,mMTS,mAltel,mAltel,,D77,2016-08-10T12:29:37+06:00,
