NPId,Number,RecipientId,DonorId,RangeHolderId,OldRoute,NewRoute,PortDate,RowCount
1000000000299229,77088862888,mKarTel,mAltel,mAltel,D07,D01,2016-12-23T10:32:08+06:00,16
1000000000299230,77015825512,mAltel,mKcell,mKcell,,D07,2016-12-23T10:32:19+06:00,
1000000000299231,77014726938,mMTS,mKcell,mKcell,,D77,2016-12-23T10:37:40+06:00,
1000000000299232,77015228648,mMTS,mKcell,mKcell,,D77,2016-12-23T10:39:42+06:00,
1000000000299233,77071079218,mKarTel,mMTS,mMTS,,D01,2016-12-23T10:41:19+06:00,
1000000000299234,77053675543,mMTS,mKarTel,mKarTel,,D77,2016-12-23T10:42:53+06:00,
1000000000299235,77022339943,mAltel,mKcell,mKcell,D02,D07,2016-12-23T10:43:28+06:00,
1000000000299236,77077135000,mAltel,mMTS,mMTS,,D07,2016-12-23T10:46:55+06:00,
1000000000299238,77079655833,mAltel,mMTS,mMTS,,D07,2016-12-23T10:52:01+06:00,
1000000000299239,77056190808,mMTS,mKarTel,mKarTel,,D77,2016-12-23T10:53:00+06:00,
1000000000299240,77022266543,mMTS,mKcell,mKcell,,D77,2016-12-23T10:52:59+06:00,
1000000000299241,77089112191,mAltel,mKcell,mAltel,D02,D07,2016-12-23T10:53:00+06:00,
1000000000299244,77073300406,mAltel,mMTS,mMTS,,D07,2016-12-23T10:55:48+06:00,
1000000000299245,77026060300,mAltel,mMTS,mKcell,D77,D07,2016-12-23T10:56:27+06:00,
1000000000299246,77783009999,mMTS,mKarTel,mKcell,D01,D77,2016-12-23T10:57:07+06:00,
1000000000299247,77012498215,mAltel,mKcell,mKcell,,D07,2016-12-23T10:57:48+06:00,
