NPId,Number,RecipientId,DonorId,RangeHolderId,OldRoute,NewRoute,PortDate,RowCount
1000000000178448,77017122717,mMTS,mKcell,mKcell,,D77,2016-05-21T13:30:25+06:00,23
1000000000178449,77024093393,mKarTel,mKcell,mKcell,,D01,2016-05-21T13:30:38+06:00,
1000000000178451,77478088044,mMTS,mAltel,mMTS,D07,D77,2016-05-21T13:32:56+06:00,
1000000000178452,77011206555,mMTS,mKcell,mKcell,,D77,2016-05-21T13:33:53+06:00,
1000000000178453,77026859010,mMTS,mKcell,mKcell,,D77,2016-05-21T13:34:09+06:00,
1000000000178454,77019107861,mAltel,mKcell,mKcell,,D07,2016-05-21T13:34:45+06:00,
1000000000178455,77012522180,mMTS,mKcell,mKcell,,D77,2016-05-21T13:35:05+06:00,
1000000000178456,77022147526,mKcell,mMTS,mKcell,D77,D02,2016-05-21T13:37:01+06:00,
1000000000178458,77014290287,mMTS,mKcell,mKcell,,D77,2016-05-21T13:38:35+06:00,
1000000000178459,77789230997,mKcell,mMTS,mKcell,D77,D02,2016-05-21T13:40:19+06:00,
1000000000178460,77026152500,mMTS,mKcell,mKcell,,D77,2016-05-21T13:41:08+06:00,
1000000000178461,77013710970,mKcell,mKarTel,mKcell,D01,D02,2016-05-21T13:42:35+06:00,
1000000000178462,77086565945,mMTS,mAltel,mAltel,,D77,2016-05-21T13:42:18+06:00,
1000000000178463,77019304714,mMTS,mKcell,mKcell,,D77,2016-05-21T13:47:35+06:00,
1000000000178464,77083646338,mMTS,mAltel,mAltel,,D77,2016-05-21T13:47:59+06:00,
1000000000178466,77080007001,mMTS,mAltel,mAltel,,D77,2016-05-21T13:51:37+06:00,
1000000000178467,77055228542,mMTS,mKarTel,mKarTel,,D77,2016-05-21T13:51:59+06:00,
1000000000178469,77760009928,mMTS,mKarTel,mKarTel,,D77,2016-05-21T13:53:54+06:00,
1000000000178471,77013018447,mMTS,mKcell,mKcell,,D77,2016-05-21T13:54:11+06:00,
1000000000178472,77773417177,mKcell,mKarTel,mKarTel,,D02,2016-05-21T13:56:17+06:00,
1000000000178473,77473904737,mKcell,mMTS,mMTS,,D02,2016-05-21T13:57:09+06:00,
1000000000178474,77787600000,mKarTel,mKcell,mKcell,,D01,2016-05-21T13:57:38+06:00,
1000000000178475,77078686800,mKcell,mMTS,mMTS,,D02,2016-05-21T13:59:49+06:00,
