NPId,Number,RecipientId,DonorId,RangeHolderId,OldRoute,NewRoute,PortDate,RowCount
1000000000285130,77766971206,mMTS,mKarTel,mKarTel,,D77,2016-11-27T19:37:53+06:00,4
1000000000285131,77766970121,mMTS,mKarTel,mKarTel,,D77,2016-11-27T19:42:56+06:00,
1000000000285132,77021357707,mMTS,mKcell,mKcell,,D77,2016-11-27T19:53:00+06:00,
1000000000285133,77766970768,mMTS,mKarTel,mKarTel,,D77,2016-11-27T19:52:53+06:00,
