NPId,Number,RecipientId,DonorId,RangeHolderId,OldRoute,NewRoute,PortDate,RowCount
1000000000004156,77056531533,mMTS,mKarTel,mKarTel,,D77,2016-01-08T14:05:28+06:00,63
1000000000004656,77759375585,mMTS,mKcell,mKcell,,D77,2016-01-08T14:00:02+06:00,
1000000000004660,77475634034,mAltel,mMTS,mMTS,,D07,2016-01-08T14:01:10+06:00,
1000000000004661,77086186518,mKarTel,mAltel,mAltel,,D01,2016-01-08T14:01:33+06:00,
1000000000004662,77079101007,mKarTel,mMTS,mMTS,,D01,2016-01-08T14:01:34+06:00,
1000000000004664,77016063663,mMTS,mKcell,mKcell,,D77,2016-01-08T14:01:38+06:00,
1000000000004665,77012777743,mMTS,mKcell,mKcell,,D77,2016-01-08T14:03:17+06:00,
1000000000004666,77023663399,mMTS,mKcell,mKcell,,D77,2016-01-08T14:04:46+06:00,
1000000000004667,77019822977,mAltel,mKcell,mKcell,,D07,2016-01-08T14:05:08+06:00,
1000000000004668,77477042315,mKarTel,mMTS,mMTS,,D01,2016-01-08T14:05:23+06:00,
1000000000004669,77785005716,mAltel,mKcell,mKcell,,D07,2016-01-08T14:06:02+06:00,
1000000000004670,77015593887,mKarTel,mKcell,mKcell,,D01,2016-01-08T14:07:32+06:00,
1000000000004671,77051401101,mMTS,mKarTel,mKarTel,,D77,2016-01-08T14:07:47+06:00,
1000000000004672,77012223011,mMTS,mKcell,mKcell,,D77,2016-01-08T14:07:31+06:00,
1000000000004673,77026152653,mAltel,mKcell,mKcell,,D07,2016-01-08T14:08:55+06:00,
1000000000004674,77010143275,mAltel,mKcell,mKcell,,D07,2016-01-08T14:09:19+06:00,
1000000000004675,77017281624,mAltel,mKcell,mKcell,,D07,2016-01-08T14:10:08+06:00,
1000000000004676,77017334298,mAltel,mKcell,mKcell,,D07,2016-01-08T14:10:10+06:00,
1000000000004677,77769479966,mMTS,mKarTel,mKarTel,,D77,2016-01-08T14:10:36+06:00,
1000000000004678,77021931868,mAltel,mKcell,mKcell,,D07,2016-01-08T14:11:08+06:00,
1000000000004679,77766666919,mMTS,mKarTel,mKarTel,,D77,2016-01-08T14:11:32+06:00,
1000000000004680,77005031199,mKarTel,mAltel,mAltel,,D01,2016-01-08T14:11:30+06:00,
1000000000004683,77017884709,mAltel,mKcell,mKcell,,D07,2016-01-08T14:11:47+06:00,
1000000000004684,77078223325,mAltel,mMTS,mMTS,,D07,2016-01-08T14:11:50+06:00,
1000000000004685,77078800262,mAltel,mMTS,mMTS,,D07,2016-01-08T14:11:56+06:00,
1000000000004686,77017643204,mMTS,mKcell,mKcell,,D77,2016-01-08T14:12:03+06:00,
1000000000004687,77015182351,mAltel,mKcell,mKcell,,D07,2016-01-08T14:12:11+06:00,
1000000000004689,77475202266,mAltel,mMTS,mMTS,,D07,2016-01-08T14:12:59+06:00,
1000000000004690,77756058998,mKarTel,mKcell,mKcell,,D01,2016-01-08T14:14:20+06:00,
1000000000004691,77012302383,mMTS,mKcell,mKcell,,D77,2016-01-08T14:14:16+06:00,
1000000000004692,77010663300,mMTS,mKcell,mKcell,,D77,2016-01-08T14:14:16+06:00,
1000000000004693,77779998717,mAltel,mKarTel,mKarTel,,D07,2016-01-08T14:14:36+06:00,
1000000000004694,77011037766,mAltel,mKcell,mKcell,,D07,2016-01-08T14:14:54+06:00,
1000000000004696,77013832418,mKarTel,mKcell,mKcell,,D01,2016-01-08T14:15:29+06:00,
1000000000004697,77778006681,mMTS,mKarTel,mKarTel,,D77,2016-01-08T14:15:58+06:00,
1000000000004698,77015257107,mAltel,mKcell,mKcell,,D07,2016-01-08T14:16:06+06:00,
1000000000004700,77712681371,mMTS,mKarTel,mKarTel,,D77,2016-01-08T14:16:45+06:00,
1000000000004702,77029990266,mMTS,mKcell,mKcell,,D77,2016-01-08T14:16:53+06:00,
1000000000004703,77015443478,mMTS,mKcell,mKcell,,D77,2016-01-08T14:16:57+06:00,
1000000000004704,77029919197,mMTS,mKcell,mKcell,,D77,2016-01-08T14:17:03+06:00,
1000000000004705,77015664477,mAltel,mKcell,mKcell,,D07,2016-01-08T14:17:19+06:00,
1000000000004706,77058604146,mKcell,mKarTel,mKarTel,,D02,2016-01-08T14:17:38+06:00,
1000000000004707,77017079749,mMTS,mKcell,mKcell,,D77,2016-01-08T14:18:23+06:00,
1000000000004708,77025544453,mKarTel,mKcell,mKcell,,D01,2016-01-08T14:18:32+06:00,
1000000000004709,77054432258,mMTS,mKarTel,mKarTel,,D77,2016-01-08T14:18:42+06:00,
1000000000004710,77714040380,mAltel,mKarTel,mKarTel,,D07,2016-01-08T14:20:00+06:00,
1000000000004711,77077707033,mKcell,mMTS,mMTS,,D02,2016-01-08T14:19:55+06:00,
1000000000004712,77772095050,mKcell,mKarTel,mKarTel,,D02,2016-01-08T14:20:17+06:00,
1000000000004713,77077699629,mAltel,mMTS,mMTS,,D07,2016-01-08T14:20:02+06:00,
1000000000004716,77025354443,mMTS,mKcell,mKcell,,D77,2016-01-08T14:20:53+06:00,
1000000000004717,77785586161,mKarTel,mKcell,mKcell,,D01,2016-01-08T14:21:20+06:00,
1000000000004718,77774443303,mKcell,mKarTel,mKarTel,,D02,2016-01-08T14:21:55+06:00,
1000000000004719,77018531085,mMTS,mKcell,mKcell,,D77,2016-01-08T14:21:54+06:00,
1000000000004720,77014040110,mMTS,mKcell,mKcell,,D77,2016-01-08T14:21:55+06:00,
1000000000004721,77015269390,mKarTel,mKcell,mKcell,,D01,2016-01-08T14:22:18+06:00,
1000000000004725,77475177772,mKcell,mMTS,mMTS,,D02,2016-01-08T14:24:30+06:00,
1000000000004726,77763866634,mMTS,mKarTel,mKarTel,,D77,2016-01-08T14:25:19+06:00,
1000000000004727,77775556661,mKcell,mKarTel,mKarTel,,D02,2016-01-08T14:29:54+06:00,
1000000000004728,77775426666,mMTS,mKarTel,mKarTel,,D77,2016-01-08T14:26:41+06:00,
1000000000004731,77051657040,mAltel,mKarTel,mKarTel,,D07,2016-01-08T14:28:01+06:00,
1000000000004734,77019978204,mMTS,mKcell,mKcell,,D77,2016-01-08T14:29:53+06:00,
1000000000004735,77771344718,mMTS,mKarTel,mKarTel,,D77,2016-01-08T14:28:52+06:00,
1000000000004736,77787376463,mMTS,mKcell,mKcell,,D77,2016-01-08T14:29:54+06:00,
