NPId,Number,RecipientId,DonorId,RangeHolderId,OldRoute,NewRoute,PortDate,RowCount
1000000000283539,77473944048,mKcell,mKarTel,mMTS,D01,D02,2016-11-24T14:34:33+06:00,21
1000000000283544,77717810279,mKcell,mKarTel,mKarTel,,D02,2016-11-24T14:37:16+06:00,
1000000000283553,77077255663,mKcell,mKarTel,mMTS,D01,D02,2016-11-24T14:44:50+06:00,
1000000000283554,77784330403,mKarTel,mKcell,mKcell,,D01,2016-11-24T14:31:54+06:00,
1000000000283555,77013777973,mKcell,mMTS,mKcell,D77,D02,2016-11-24T14:31:46+06:00,
1000000000283556,77028222855,mAltel,mKcell,mKcell,,D07,2016-11-24T14:31:45+06:00,
1000000000283557,77072797977,mKarTel,mMTS,mMTS,,D01,2016-11-24T14:32:35+06:00,
1000000000283558,77071797977,mKarTel,mMTS,mMTS,,D01,2016-11-24T14:33:02+06:00,
1000000000283559,77473943984,mKcell,mKarTel,mMTS,D01,D02,2016-11-24T14:49:33+06:00,
1000000000283561,77004005558,mMTS,mKcell,mAltel,D02,D77,2016-11-24T14:38:47+06:00,
1000000000283562,77473943997,mKcell,mKarTel,mMTS,D01,D02,2016-11-24T14:54:19+06:00,
1000000000283563,77002039076,mKarTel,mAltel,mAltel,,D01,2016-11-24T14:39:52+06:00,
1000000000283566,77017263034,mAltel,mKcell,mKcell,,D07,2016-11-24T14:45:05+06:00,
1000000000283569,77025380403,mAltel,mKcell,mKcell,,D07,2016-11-24T14:49:01+06:00,
1000000000283571,77016880522,mMTS,mKcell,mKcell,,D77,2016-11-24T14:49:57+06:00,
1000000000283572,77713888867,mKarTel,mKcell,mKarTel,D02,D01,2016-11-24T14:54:51+06:00,
1000000000283573,77757878783,mAltel,mKcell,mKcell,,D07,2016-11-24T14:50:29+06:00,
1000000000283577,77019590215,mKcell,mMTS,mKcell,D77,D02,2016-11-24T14:54:15+06:00,
1000000000283580,77081039621,mKcell,mMTS,mAltel,D77,D02,2016-11-24T14:56:14+06:00,
1000000000283582,77015872819,mKarTel,mKcell,mKcell,,D01,2016-11-24T14:58:46+06:00,
1000000000283583,77758389293,mMTS,mKcell,mKcell,,D77,2016-11-24T14:58:55+06:00,
