NPId,Number,RecipientId,DonorId,RangeHolderId,OldRoute,NewRoute,PortDate,RowCount
1000000000391185,77021474363,mMTS,mKcell,mKcell,,D77,2017-05-28T11:36:06+06:00,6
1000000000391187,77059843404,mMTS,mKarTel,mKarTel,,D77,2017-05-28T11:37:10+06:00,
1000000000391188,77055723025,mMTS,mKarTel,mKarTel,,D77,2017-05-28T11:43:07+06:00,
1000000000391189,77005800000,mKcell,mKarTel,mAltel,D01,D02,2017-05-28T11:44:38+06:00,
1000000000391191,77779999107,mAltel,mKcell,mKarTel,D02,D07,2017-05-28T11:53:02+06:00,
1000000000391195,77751010995,mKarTel,mKcell,mKcell,,D01,2017-05-28T11:56:20+06:00,
