NPId,Number,RecipientId,DonorId,RangeHolderId,OldRoute,NewRoute,PortDate,RowCount
1000000000271525,77026832093,mKarTel,mKcell,mKcell,,D01,2016-10-31T19:00:13+06:00,25
1000000000271526,77018705507,mKarTel,mMTS,mKcell,D77,D01,2016-10-31T19:00:08+06:00,
1000000000271527,77005550686,mKcell,mAltel,mAltel,,D02,2016-10-31T19:01:37+06:00,
1000000000271528,77785228496,mMTS,mKcell,mKcell,,D77,2016-10-31T19:01:35+06:00,
1000000000271529,77771715115,mKarTel,mMTS,mKarTel,D77,D01,2016-10-31T19:01:50+06:00,
1000000000271531,77055041336,mMTS,mKarTel,mKarTel,,D77,2016-10-31T19:03:25+06:00,
1000000000271532,77023309195,mKarTel,mKcell,mKcell,,D01,2016-10-31T19:03:52+06:00,
1000000000271533,77770059274,mKcell,mKarTel,mKarTel,,D02,2016-10-31T19:11:18+06:00,
1000000000271535,77005554616,mKcell,mAltel,mAltel,,D02,2016-10-31T19:06:20+06:00,
1000000000271538,77056207898,mKcell,mKarTel,mKarTel,,D02,2016-10-31T19:11:03+06:00,
1000000000271539,77781247190,mKarTel,mKcell,mKcell,,D01,2016-10-31T19:09:12+06:00,
1000000000271542,77005553646,mKcell,mAltel,mAltel,,D02,2016-10-31T19:11:33+06:00,
1000000000271544,77015129214,mKarTel,mKcell,mKcell,,D01,2016-10-31T19:13:10+06:00,
1000000000271545,77754450622,mKcell,mKarTel,mKcell,D01,D02,2016-10-31T19:14:15+06:00,
1000000000271546,77005552696,mKcell,mAltel,mAltel,,D02,2016-10-31T19:14:39+06:00,
1000000000271548,77473383155,mKarTel,mMTS,mMTS,,D01,2016-10-31T19:15:23+06:00,
1000000000271549,77001015050,mKarTel,mAltel,mAltel,,D01,2016-10-31T19:16:00+06:00,
1000000000271550,77087071307,mAltel,mMTS,mAltel,D77,D07,2016-10-31T19:17:38+06:00,
1000000000271552,77077086336,mKarTel,mMTS,mMTS,,D01,2016-10-31T19:22:05+06:00,
1000000000271553,77071311373,mKcell,mMTS,mMTS,,D02,2016-10-31T19:22:10+06:00,
1000000000271555,77772059508,mAltel,mKarTel,mKarTel,,D07,2016-10-31T19:24:48+06:00,
1000000000271556,77005559636,mKcell,mAltel,mAltel,,D02,2016-10-31T19:24:59+06:00,
1000000000271557,77004577717,mKarTel,mAltel,mAltel,,D01,2016-10-31T19:25:48+06:00,
1000000000271558,77776939495,mMTS,mKarTel,mKarTel,,D77,2016-10-31T19:29:17+06:00,
1000000000271559,77005550636,mKcell,mAltel,mAltel,,D02,2016-10-31T19:29:53+06:00,
