NPId,Number,RecipientId,DonorId,RangeHolderId,OldRoute,NewRoute,PortDate,RowCount
1000000000186930,77010266943,mKarTel,mKcell,mKcell,,D01,2016-06-03T10:46:40+06:00,85
1000000000186930,77010266944,mKarTel,mKcell,mKcell,,D01,2016-06-03T10:46:40+06:00,
1000000000186930,77010266945,mKarTel,mKcell,mKcell,,D01,2016-06-03T10:46:40+06:00,
1000000000186930,77010270903,mKarTel,mKcell,mKcell,,D01,2016-06-03T10:46:40+06:00,
1000000000186930,77010270904,mKarTel,mKcell,mKcell,,D01,2016-06-03T10:46:40+06:00,
1000000000186930,77010270905,mKarTel,mKcell,mKcell,,D01,2016-06-03T10:46:40+06:00,
1000000000186930,77010270906,mKarTel,mKcell,mKcell,,D01,2016-06-03T10:46:40+06:00,
1000000000186930,77010270907,mKarTel,mKcell,mKcell,,D01,2016-06-03T10:46:40+06:00,
1000000000186930,77010270908,mKarTel,mKcell,mKcell,,D01,2016-06-03T10:46:40+06:00,
1000000000186930,77010270910,mKarTel,mKcell,mKcell,,D01,2016-06-03T10:46:40+06:00,
1000000000186930,77010270911,mKarTel,mKcell,mKcell,,D01,2016-06-03T10:46:40+06:00,
1000000000186930,77010270912,mKarTel,mKcell,mKcell,,D01,2016-06-03T10:46:40+06:00,
1000000000186930,77010352659,mKarTel,mKcell,mKcell,,D01,2016-06-03T10:46:40+06:00,
1000000000186930,77010353064,mKarTel,mKcell,mKcell,,D01,2016-06-03T10:46:40+06:00,
1000000000186930,77010353065,mKarTel,mKcell,mKcell,,D01,2016-06-03T10:46:40+06:00,
1000000000186930,77012217110,mKarTel,mKcell,mKcell,,D01,2016-06-03T10:46:40+06:00,
1000000000186930,77012217248,mKarTel,mKcell,mKcell,,D01,2016-06-03T10:46:40+06:00,
1000000000186930,77012217325,mKarTel,mKcell,mKcell,,D01,2016-06-03T10:46:40+06:00,
1000000000186930,77015278691,mKarTel,mKcell,mKcell,,D01,2016-06-03T10:46:40+06:00,
1000000000186930,77018016389,mKarTel,mKcell,mKcell,,D01,2016-06-03T10:46:40+06:00,
1000000000186930,77019161942,mKarTel,mKcell,mKcell,,D01,2016-06-03T10:46:40+06:00,
1000000000186930,77019173207,mKarTel,mKcell,mKcell,,D01,2016-06-03T10:46:40+06:00,
1000000000186930,77019188552,mKarTel,mKcell,mKcell,,D01,2016-06-03T10:46:40+06:00,
1000000000186930,77019188554,mKarTel,mKcell,mKcell,,D01,2016-06-03T10:46:40+06:00,
1000000000186930,77019188557,mKarTel,mKcell,mKcell,,D01,2016-06-03T10:46:40+06:00,
1000000000186930,77019188559,mKarTel,mKcell,mKcell,,D01,2016-06-03T10:46:40+06:00,
1000000000186930,77019188565,mKarTel,mKcell,mKcell,,D01,2016-06-03T10:46:40+06:00,
1000000000186930,77019188566,mKarTel,mKcell,mKcell,,D01,2016-06-03T10:46:40+06:00,
1000000000186930,77019188567,mKarTel,mKcell,mKcell,,D01,2016-06-03T10:46:40+06:00,
1000000000186930,77019188568,mKarTel,mKcell,mKcell,,D01,2016-06-03T10:46:40+06:00,
1000000000186930,77019188569,mKarTel,mKcell,mKcell,,D01,2016-06-03T10:46:40+06:00,
1000000000186930,77019188571,mKarTel,mKcell,mKcell,,D01,2016-06-03T10:46:40+06:00,
1000000000186930,77019188572,mKarTel,mKcell,mKcell,,D01,2016-06-03T10:46:40+06:00,
1000000000186930,77019188573,mKarTel,mKcell,mKcell,,D01,2016-06-03T10:46:40+06:00,
1000000000186930,77019188574,mKarTel,mKcell,mKcell,,D01,2016-06-03T10:46:40+06:00,
1000000000186930,77019188576,mKarTel,mKcell,mKcell,,D01,2016-06-03T10:46:40+06:00,
1000000000186930,77019188577,mKarTel,mKcell,mKcell,,D01,2016-06-03T10:46:40+06:00,
1000000000186930,77019188578,mKarTel,mKcell,mKcell,,D01,2016-06-03T10:46:40+06:00,
1000000000186930,77019188581,mKarTel,mKcell,mKcell,,D01,2016-06-03T10:46:40+06:00,
1000000000186930,77019188584,mKarTel,mKcell,mKcell,,D01,2016-06-03T10:46:40+06:00,
1000000000186930,77019188588,mKarTel,mKcell,mKcell,,D01,2016-06-03T10:46:40+06:00,
1000000000186930,77019188589,mKarTel,mKcell,mKcell,,D01,2016-06-03T10:46:40+06:00,
1000000000186930,77019215627,mKarTel,mKcell,mKcell,,D01,2016-06-03T10:46:40+06:00,
1000000000186930,77019216110,mKarTel,mKcell,mKcell,,D01,2016-06-03T10:46:40+06:00,
1000000000186930,77019217800,mKarTel,mKcell,mKcell,,D01,2016-06-03T10:46:40+06:00,
1000000000186930,77019217801,mKarTel,mKcell,mKcell,,D01,2016-06-03T10:46:40+06:00,
1000000000186930,77019217802,mKarTel,mKcell,mKcell,,D01,2016-06-03T10:46:40+06:00,
1000000000186930,77019218363,mKarTel,mKcell,mKcell,,D01,2016-06-03T10:46:40+06:00,
1000000000186930,77019291322,mKarTel,mKcell,mKcell,,D01,2016-06-03T10:46:40+06:00,
1000000000186930,77019650182,mKarTel,mKcell,mKcell,,D01,2016-06-03T10:46:40+06:00,
1000000000186930,77019650412,mKarTel,mKcell,mKcell,,D01,2016-06-03T10:46:40+06:00,
1000000000186930,77019778955,mKarTel,mKcell,mKcell,,D01,2016-06-03T10:46:40+06:00,
1000000000186930,77019779431,mKarTel,mKcell,mKcell,,D01,2016-06-03T10:46:40+06:00,
1000000000186930,77019814653,mKarTel,mKcell,mKcell,,D01,2016-06-03T10:46:40+06:00,
1000000000186930,77019897237,mKarTel,mKcell,mKcell,,D01,2016-06-03T10:46:40+06:00,
1000000000186930,77022036302,mKarTel,mKcell,mKcell,,D01,2016-06-03T10:46:40+06:00,
1000000000186930,77022045181,mKarTel,mKcell,mKcell,,D01,2016-06-03T10:46:40+06:00,
1000000000186930,77022087459,mKarTel,mKcell,mKcell,,D01,2016-06-03T10:46:40+06:00,
1000000000186930,77022087713,mKarTel,mKcell,mKcell,,D01,2016-06-03T10:46:40+06:00,
1000000000186930,77022135069,mKarTel,mKcell,mKcell,,D01,2016-06-03T10:46:40+06:00,
1000000000186930,77022237877,mKarTel,mKcell,mKcell,,D01,2016-06-03T10:46:40+06:00,
1000000000186930,77022242631,mKarTel,mKcell,mKcell,,D01,2016-06-03T10:46:40+06:00,
1000000000186930,77022242641,mKarTel,mKcell,mKcell,,D01,2016-06-03T10:46:40+06:00,
1000000000186930,77022247053,mKarTel,mKcell,mKcell,,D01,2016-06-03T10:46:40+06:00,
1000000000186930,77027399384,mKarTel,mKcell,mKcell,,D01,2016-06-03T10:46:40+06:00,
1000000000186930,77027399385,mKarTel,mKcell,mKcell,,D01,2016-06-03T10:46:40+06:00,
1000000000186930,77027760133,mKarTel,mKcell,mKcell,,D01,2016-06-03T10:46:40+06:00,
1000000000186930,77027766926,mKarTel,mKcell,mKcell,,D01,2016-06-03T10:46:40+06:00,
1000000000186930,77027766927,mKarTel,mKcell,mKcell,,D01,2016-06-03T10:46:40+06:00,
1000000000186930,77028891839,mKarTel,mKcell,mKcell,,D01,2016-06-03T10:46:40+06:00,
1000000000186956,77014229729,mMTS,mKcell,mKcell,,D77,2016-06-03T10:33:35+06:00,
1000000000186957,77772160860,mMTS,mKarTel,mKarTel,,D77,2016-06-03T10:34:29+06:00,
1000000000186958,77000926060,mMTS,mAltel,mAltel,,D77,2016-06-03T10:35:00+06:00,
1000000000186959,77078550132,mKarTel,mMTS,mMTS,,D01,2016-06-03T10:39:04+06:00,
1000000000186960,77001541995,mMTS,mAltel,mAltel,,D77,2016-06-03T10:41:33+06:00,
1000000000186961,77781470702,mMTS,mKcell,mKcell,,D77,2016-06-03T10:42:35+06:00,
1000000000186962,77003722987,mMTS,mAltel,mAltel,,D77,2016-06-03T10:42:33+06:00,
1000000000186965,77077873475,mAltel,mMTS,mMTS,,D07,2016-06-03T10:45:47+06:00,
1000000000186967,77072888144,mAltel,mMTS,mMTS,,D07,2016-06-03T10:46:54+06:00,
1000000000186971,77022496739,mAltel,mKcell,mKcell,,D07,2016-06-03T10:54:33+06:00,
1000000000186973,77752033302,mMTS,mKcell,mKcell,,D77,2016-06-03T10:54:29+06:00,
1000000000186974,77754329376,mMTS,mKcell,mKcell,,D77,2016-06-03T10:54:33+06:00,
1000000000186975,77085315039,mMTS,mAltel,mAltel,,D77,2016-06-03T10:52:08+06:00,
1000000000186976,77023063403,mMTS,mKcell,mKcell,,D77,2016-06-03T10:55:48+06:00,
1000000000186978,77758582012,mMTS,mKcell,mKcell,,D77,2016-06-03T10:56:34+06:00,
