NPId,Number,RecipientId,DonorId,RangeHolderId,OldRoute,NewRoute,PortDate,RowCount
1000000000395496,77712370662,mMTS,mKarTel,mKarTel,,D77,2017-06-01T19:30:53+06:00,13
1000000000395497,77776101340,mKcell,mKarTel,mKarTel,,D02,2017-06-01T19:33:18+06:00,
1000000000395498,77024564219,mKcell,mAltel,mKcell,D07,D02,2017-06-01T19:32:52+06:00,
1000000000395499,77475646454,mKcell,mMTS,mMTS,,D02,2017-06-01T19:32:52+06:00,
1000000000395500,77015551179,mKarTel,mKcell,mKcell,,D01,2017-06-01T19:34:50+06:00,
1000000000395501,77077391262,mKcell,mMTS,mMTS,,D02,2017-06-01T19:36:47+06:00,
1000000000395502,77717004000,mKcell,mKarTel,mKarTel,,D02,2017-06-01T19:43:01+06:00,
1000000000395503,77017162328,mKcell,mMTS,mKcell,D77,D02,2017-06-01T19:42:37+06:00,
1000000000395504,77026900480,mKarTel,mKcell,mKcell,,D01,2017-06-01T19:45:22+06:00,
1000000000395505,77019530103,mKarTel,mKcell,mKcell,,D01,2017-06-01T19:46:39+06:00,
1000000000395508,77075441245,mKcell,mMTS,mMTS,D77,D02,2017-06-01T19:50:53+06:00,
1000000000395511,77778811212,mMTS,mKarTel,mKarTel,,D77,2017-06-01T19:57:51+06:00,
1000000000395512,77018824260,mKarTel,mMTS,mKcell,D77,D01,2017-06-01T19:57:56+06:00,
