NPId,Number,RecipientId,DonorId,RangeHolderId,OldRoute,NewRoute,PortDate,RowCount
1000000000413636,77784664980,mMTS,mKcell,mKcell,,D77,2017-06-30T20:31:49+06:00,7
1000000000413637,77783659680,mMTS,mKcell,mKcell,,D77,2017-06-30T20:36:56+06:00,
1000000000413638,77081116198,mMTS,mAltel,mAltel,,D77,2017-06-30T20:36:47+06:00,
1000000000413639,77772207714,mMTS,mKarTel,mKarTel,,D77,2017-06-30T20:37:02+06:00,
1000000000413640,77771730203,mKcell,mKarTel,mKarTel,,D02,2017-06-30T20:39:28+06:00,
1000000000413641,77078811289,mKcell,mMTS,mMTS,,D02,2017-06-30T20:40:05+06:00,
1000000000413642,77784666703,mMTS,mKcell,mKcell,,D77,2017-06-30T20:41:54+06:00,
