NPId,Number,RecipientId,DonorId,RangeHolderId,OldRoute,NewRoute,PortDate,RowCount
1000000000205145,77086894409,mMTS,mAltel,mAltel,,D77,2016-07-05T16:00:54+06:00,13
1000000000205146,77780000775,mMTS,mKarTel,mKcell,D01,D77,2016-07-05T16:02:19+06:00,
1000000000205148,77753239955,mKcell,mKarTel,mKcell,D01,D02,2016-07-05T16:06:25+06:00,
1000000000205149,77784404434,mKcell,mKarTel,mKcell,D01,D02,2016-07-05T16:06:37+06:00,
1000000000205150,77753809058,mMTS,mKcell,mKcell,,D77,2016-07-05T16:07:18+06:00,
1000000000205151,77087313846,mMTS,mAltel,mAltel,,D77,2016-07-05T16:07:18+06:00,
1000000000205152,77000003800,mMTS,mAltel,mAltel,,D77,2016-07-05T16:09:58+06:00,
1000000000205154,77475249498,mAltel,mMTS,mMTS,,D07,2016-07-05T16:11:55+06:00,
1000000000205156,77086306907,mMTS,mAltel,mAltel,,D77,2016-07-05T16:13:41+06:00,
1000000000205158,77781588878,mKcell,mMTS,mKcell,D77,D02,2016-07-05T16:15:16+06:00,
1000000000205159,77077155914,mKarTel,mMTS,mMTS,,D01,2016-07-05T16:15:21+06:00,
1000000000205164,77007472707,mMTS,mAltel,mAltel,,D77,2016-07-05T16:25:41+06:00,
1000000000205165,77029976776,mKcell,mMTS,mKcell,D77,D02,2016-07-05T16:28:33+06:00,
