NPId,Number,RecipientId,DonorId,RangeHolderId,OldRoute,NewRoute,PortDate,RowCount
1000000000286180,77754441555,mKcell,mAltel,mKcell,D07,D02,2016-11-29T15:30:49+06:00,31
1000000000286181,77772102530,mAltel,mKarTel,mKarTel,,D07,2016-11-29T15:44:27+06:00,
1000000000286185,77021730832,mMTS,mKcell,mKcell,,D77,2016-11-29T15:32:16+06:00,
1000000000286186,77052684546,mMTS,mKarTel,mKarTel,,D77,2016-11-29T15:32:52+06:00,
1000000000286188,77053216615,mKarTel,mMTS,mKarTel,D77,D01,2016-11-29T15:33:49+06:00,
1000000000286190,77757597548,mMTS,mKcell,mKcell,,D77,2016-11-29T15:34:13+06:00,
1000000000286191,77072277312,mAltel,mMTS,mMTS,,D07,2016-11-29T15:36:27+06:00,
1000000000286192,77770996633,mAltel,mKarTel,mKarTel,,D07,2016-11-29T15:37:45+06:00,
1000000000286193,77017494100,mKarTel,mMTS,mKcell,D77,D01,2016-11-29T15:38:23+06:00,
1000000000286195,77002322223,mMTS,mKcell,mAltel,D02,D77,2016-11-29T15:39:00+06:00,
1000000000286196,77052389555,mKarTel,mMTS,mKarTel,D77,D01,2016-11-29T15:40:38+06:00,
1000000000286198,77013988000,mMTS,mKarTel,mKcell,D01,D77,2016-11-29T15:42:57+06:00,
1000000000286199,77054233343,mAltel,mKarTel,mKarTel,,D07,2016-11-29T15:42:54+06:00,
1000000000286202,77472250978,mKarTel,mMTS,mMTS,,D01,2016-11-29T15:45:31+06:00,
1000000000286204,77014311275,mMTS,mKcell,mKcell,,D77,2016-11-29T15:45:53+06:00,
1000000000286205,77770737978,mMTS,mKarTel,mKarTel,,D77,2016-11-29T15:46:26+06:00,
1000000000286207,77764766665,mMTS,mKcell,mKarTel,D02,D77,2016-11-29T15:46:42+06:00,
1000000000286208,77051872047,mMTS,mKarTel,mKarTel,,D77,2016-11-29T15:47:02+06:00,
1000000000286209,77078783883,mKarTel,mMTS,mMTS,,D01,2016-11-29T15:47:08+06:00,
1000000000286211,77771405474,mMTS,mKarTel,mKarTel,,D77,2016-11-29T15:47:52+06:00,
1000000000286212,77019402969,mKcell,mMTS,mKcell,D77,D02,2016-11-29T15:48:10+06:00,
1000000000286213,77776666306,mKcell,mMTS,mKarTel,D77,D02,2016-11-29T15:48:36+06:00,
1000000000286214,77016691510,mAltel,mMTS,mKcell,D77,D07,2016-11-29T15:49:01+06:00,
1000000000286216,77012105646,mKarTel,mKcell,mKcell,,D01,2016-11-29T15:50:21+06:00,
1000000000286217,77779990229,mAltel,mKarTel,mKarTel,,D07,2016-11-29T15:50:15+06:00,
1000000000286218,77765010243,mKcell,mKarTel,mKarTel,,D02,2016-11-29T15:50:43+06:00,
1000000000286220,77020008385,mAltel,mKcell,mKcell,,D07,2016-11-29T15:52:35+06:00,
1000000000286221,77025263373,mMTS,mKcell,mKcell,D02,D77,2016-11-29T15:54:02+06:00,
1000000000286223,77781742969,mKarTel,mKcell,mKcell,,D01,2016-11-29T15:57:07+06:00,
1000000000286224,77052502505,mMTS,mKarTel,mKarTel,,D77,2016-11-29T15:57:14+06:00,
1000000000286225,77083395979,mMTS,mAltel,mAltel,,D77,2016-11-29T15:58:25+06:00,
