NPId,Number,RecipientId,DonorId,RangeHolderId,OldRoute,NewRoute,PortDate,RowCount
1000000000380157,77007701580,mKarTel,mAltel,mAltel,,D01,2017-05-09T10:30:24+06:00,6
1000000000380159,77785778000,mMTS,mKcell,mKcell,,D77,2017-05-09T10:33:48+06:00,
1000000000380164,77753798277,mMTS,mKcell,mKcell,,D77,2017-05-09T10:52:55+06:00,
1000000000380165,77028290526,mAltel,mKcell,mKcell,,D07,2017-05-09T10:56:44+06:00,
1000000000380166,77053215143,mMTS,mKarTel,mKarTel,,D77,2017-05-09T10:57:24+06:00,
1000000000380167,77058105533,mKarTel,mMTS,mKarTel,D77,D01,2017-05-09T10:58:45+06:00,
