NPId,Number,RecipientId,DonorId,RangeHolderId,OldRoute,NewRoute,PortDate,RowCount
1000000000285273,77059110091,mAltel,mKarTel,mKarTel,,D07,2016-11-28T12:00:22+06:00,18
1000000000285274,77024177276,mAltel,mKcell,mKcell,,D07,2016-11-28T12:01:25+06:00,
1000000000285275,77771856050,mKarTel,mKcell,mKarTel,D02,D01,2016-11-28T12:02:05+06:00,
1000000000285276,77015294136,mMTS,mAltel,mKcell,D07,D77,2016-11-28T12:02:32+06:00,
1000000000285277,77015015829,mKarTel,mKcell,mKcell,,D01,2016-11-28T12:03:22+06:00,
1000000000285278,77001606065,mKcell,mAltel,mAltel,,D02,2016-11-28T12:03:48+06:00,
1000000000285279,77077720722,mKarTel,mMTS,mMTS,,D01,2016-11-28T12:06:58+06:00,
1000000000285281,77004441945,mKcell,mAltel,mAltel,,D02,2016-11-28T12:10:40+06:00,
1000000000285282,77054940039,mKcell,mKarTel,mKarTel,,D02,2016-11-28T12:13:58+06:00,
1000000000285283,77773983545,mAltel,mKarTel,mKarTel,,D07,2016-11-28T12:14:33+06:00,
1000000000285285,77057276025,mMTS,mKarTel,mKarTel,,D77,2016-11-28T12:17:54+06:00,
1000000000285286,77472223305,mMTS,mKcell,mMTS,D02,D77,2016-11-28T12:20:24+06:00,
1000000000285288,77007551998,mKcell,mAltel,mAltel,,D02,2016-11-28T12:19:06+06:00,
1000000000285290,77784882103,mMTS,mAltel,mKcell,D07,D77,2016-11-28T12:23:42+06:00,
1000000000285292,77759191812,mKarTel,mKcell,mKcell,,D01,2016-11-28T12:26:27+06:00,
1000000000285293,77029622202,mMTS,mKcell,mKcell,,D77,2016-11-28T12:26:23+06:00,
1000000000285295,77012663315,mKarTel,mKcell,mKcell,,D01,2016-11-28T12:28:16+06:00,
1000000000285296,77011189613,mAltel,mMTS,mKcell,D77,D07,2016-11-28T12:28:35+06:00,
