NPId,Number,RecipientId,DonorId,RangeHolderId,OldRoute,NewRoute,PortDate,RowCount
1000000000440604,77009770070,mKarTel,mAltel,mAltel,,D01,2017-08-15T20:00:00+06:00,4
1000000000440605,77079912688,mKcell,mMTS,mMTS,,D02,2017-08-15T20:01:40+06:00,
1000000000440606,77012598898,mMTS,mKcell,mKcell,,D77,2017-08-15T20:01:38+06:00,
1000000000440608,77479576676,mKcell,mMTS,mMTS,,D02,2017-08-15T20:11:12+06:00,
