NPId,Number,RecipientId,DonorId,RangeHolderId,OldRoute,NewRoute,PortDate,RowCount
1000000000423613,77002020205,mKarTel,mAltel,mAltel,,D01,2017-07-18T10:34:05+06:00,17
1000000000423615,77076242616,mKarTel,mMTS,mMTS,,D01,2017-07-18T10:36:56+06:00,
1000000000423617,77758972888,mMTS,mKcell,mKcell,,D77,2017-07-18T10:39:32+06:00,
1000000000423619,77054002805,mMTS,mKarTel,mKarTel,,D77,2017-07-18T10:41:53+06:00,
1000000000423620,77759237966,mMTS,mKcell,mKcell,,D77,2017-07-18T10:42:47+06:00,
1000000000423621,77475895757,mAltel,mMTS,mMTS,,D07,2017-07-18T10:42:57+06:00,
1000000000423622,77773935556,mKarTel,mMTS,mKarTel,D77,D01,2017-07-18T10:45:21+06:00,
1000000000423623,77029083479,mKarTel,mKcell,mKcell,,D01,2017-07-18T10:46:11+06:00,
1000000000423625,77475159094,mKcell,mMTS,mMTS,,D02,2017-07-18T10:46:34+06:00,
1000000000423626,77772356135,mKarTel,mMTS,mKarTel,D77,D01,2017-07-18T10:46:31+06:00,
1000000000423627,77775034241,mKarTel,mMTS,mKarTel,D77,D01,2017-07-18T10:47:23+06:00,
1000000000423629,77023946003,mAltel,mKcell,mKcell,,D07,2017-07-18T10:48:23+06:00,
1000000000423630,77753735222,mKarTel,mKcell,mKcell,,D01,2017-07-18T10:49:19+06:00,
1000000000423631,77013873561,mMTS,mKcell,mKcell,,D77,2017-07-18T10:51:06+06:00,
1000000000423633,77075377373,mAltel,mMTS,mMTS,,D07,2017-07-18T10:53:01+06:00,
1000000000423635,77758611174,mMTS,mKcell,mKcell,,D77,2017-07-18T10:57:51+06:00,
1000000000423636,77715063699,mAltel,mKarTel,mKarTel,,D07,2017-07-18T10:59:42+06:00,
