NPId,Number,RecipientId,DonorId,RangeHolderId,OldRoute,NewRoute,PortDate,RowCount
1000000000410446,77718888890,mMTS,mKarTel,mKarTel,,D77,2017-06-27T13:02:09+06:00,38
1000000000410448,77074788888,mKarTel,mKcell,mMTS,D02,D01,2017-06-27T13:02:39+06:00,
1000000000410449,77057024194,mAltel,mKarTel,mKarTel,,D07,2017-06-27T13:03:57+06:00,
1000000000410450,77475348215,mKarTel,mMTS,mMTS,,D01,2017-06-27T13:04:08+06:00,
1000000000410451,77719095002,mMTS,mKarTel,mKarTel,,D77,2017-06-27T13:05:26+06:00,
1000000000410452,77003150592,mMTS,mAltel,mAltel,,D77,2017-06-27T13:06:40+06:00,
1000000000410453,77017511151,mKcell,mMTS,mKcell,D77,D02,2017-06-27T13:08:54+06:00,
1000000000410454,77784444282,mKcell,mMTS,mKcell,D77,D02,2017-06-27T13:09:38+06:00,
1000000000410455,77081907343,mKcell,mAltel,mAltel,,D02,2017-06-27T13:09:25+06:00,
1000000000410457,77017511113,mKcell,mAltel,mKcell,D07,D02,2017-06-27T13:10:30+06:00,
1000000000410458,77786781677,mMTS,mKcell,mKcell,,D77,2017-06-27T13:11:02+06:00,
1000000000410459,77072617993,mMTS,mAltel,mMTS,D07,D77,2017-06-27T13:11:41+06:00,
1000000000410460,77011115029,mAltel,mKcell,mKcell,,D07,2017-06-27T13:12:36+06:00,
1000000000410461,77718888208,mKcell,mKarTel,mKarTel,,D02,2017-06-27T13:14:21+06:00,
1000000000410462,77767761661,mKcell,mKarTel,mKarTel,,D02,2017-06-27T13:14:54+06:00,
1000000000410463,77072346911,mKarTel,mMTS,mMTS,,D01,2017-06-27T13:15:50+06:00,
1000000000410464,77006056005,mMTS,mAltel,mAltel,,D77,2017-06-27T13:16:18+06:00,
1000000000410465,77010531200,mKarTel,mKcell,mKcell,,D01,2017-06-27T13:17:02+06:00,
1000000000410466,77759761184,mMTS,mKcell,mKcell,,D77,2017-06-27T13:16:52+06:00,
1000000000410467,77767761881,mKcell,mKarTel,mKarTel,,D02,2017-06-27T13:18:00+06:00,
1000000000410469,77053216023,mMTS,mKarTel,mKarTel,,D77,2017-06-27T13:18:34+06:00,
1000000000410471,77017481803,mAltel,mKcell,mKcell,,D07,2017-06-27T13:18:49+06:00,
1000000000410472,77767766336,mKcell,mKarTel,mKarTel,,D02,2017-06-27T13:21:09+06:00,
1000000000410473,77051480869,mAltel,mKcell,mKarTel,D02,D07,2017-06-27T13:20:58+06:00,
1000000000410475,77088288434,mKarTel,mAltel,mAltel,,D01,2017-06-27T13:21:35+06:00,
1000000000410476,77778952288,mMTS,mKarTel,mKarTel,,D77,2017-06-27T13:21:57+06:00,
1000000000410477,77083410732,mKcell,mAltel,mAltel,,D02,2017-06-27T13:22:46+06:00,
1000000000410478,77011866612,mAltel,mKcell,mKcell,,D07,2017-06-27T13:23:11+06:00,
1000000000410479,77767763883,mKcell,mKarTel,mKarTel,,D02,2017-06-27T13:24:11+06:00,
1000000000410480,77763622277,mKcell,mKarTel,mKarTel,,D02,2017-06-27T13:24:48+06:00,
1000000000410482,77714096135,mAltel,mKarTel,mKarTel,,D07,2017-06-27T13:25:29+06:00,
1000000000410484,77751968214,mMTS,mKcell,mKcell,,D77,2017-06-27T13:26:53+06:00,
1000000000410486,77477747424,mKarTel,mKcell,mMTS,D02,D01,2017-06-27T13:27:27+06:00,
1000000000410487,77479625082,mKarTel,mMTS,mMTS,,D01,2017-06-27T13:27:28+06:00,
1000000000410488,77054044646,mMTS,mKarTel,mKarTel,,D77,2017-06-27T13:27:18+06:00,
1000000000410490,77081017867,mKarTel,mMTS,mAltel,D77,D01,2017-06-27T13:28:01+06:00,
1000000000410491,77071911046,mMTS,mKarTel,mMTS,D01,D77,2017-06-27T13:28:19+06:00,
1000000000410492,77077022332,mAltel,mMTS,mMTS,D77,D07,2017-06-27T13:29:26+06:00,
