NPId,Number,RecipientId,DonorId,RangeHolderId,OldRoute,NewRoute,PortDate,RowCount
1000000000394285,77019208894,mKarTel,mKcell,mKcell,,D01,2017-06-01T15:12:27+06:00,43
1000000000395063,77012165505,mMTS,mKcell,mKcell,,D77,2017-06-01T15:03:09+06:00,
1000000000395064,77001999231,mMTS,mAltel,mAltel,,D77,2017-06-01T15:03:34+06:00,
1000000000395065,77751306688,mMTS,mKcell,mKcell,,D77,2017-06-01T15:04:35+06:00,
1000000000395067,77017876121,mMTS,mKcell,mKcell,,D77,2017-06-01T15:04:40+06:00,
1000000000395068,77025553111,mKcell,mKarTel,mKcell,D01,D02,2017-06-01T15:07:03+06:00,
1000000000395069,77771202444,mMTS,mKarTel,mKarTel,,D77,2017-06-01T15:06:41+06:00,
1000000000395071,77019827099,mMTS,mKcell,mKcell,,D77,2017-06-01T15:06:24+06:00,
1000000000395074,77027890389,mKcell,mKarTel,mKcell,D01,D02,2017-06-01T15:08:35+06:00,
1000000000395075,77785541736,mMTS,mKcell,mKcell,,D77,2017-06-01T15:07:53+06:00,
1000000000395076,77012221918,mKarTel,mKcell,mKcell,,D01,2017-06-01T15:08:33+06:00,
1000000000395078,77477717169,mMTS,mKarTel,mMTS,D01,D77,2017-06-01T15:09:54+06:00,
1000000000395079,77058304709,mMTS,mKarTel,mKarTel,,D77,2017-06-01T15:10:13+06:00,
1000000000395080,77058191774,mMTS,mKarTel,mKarTel,,D77,2017-06-01T15:10:43+06:00,
1000000000395082,77070402864,mMTS,mKarTel,mMTS,D01,D77,2017-06-01T15:12:47+06:00,
1000000000395085,77475755088,mKcell,mMTS,mMTS,,D02,2017-06-01T15:13:57+06:00,
1000000000395086,77771278544,mAltel,mKarTel,mKarTel,,D07,2017-06-01T15:14:25+06:00,
1000000000395087,77765158020,mKarTel,mMTS,mKarTel,D77,D01,2017-06-01T15:15:31+06:00,
1000000000395088,77027260206,mAltel,mKcell,mKcell,,D07,2017-06-01T15:16:02+06:00,
1000000000395089,77714909995,mMTS,mKarTel,mKarTel,,D77,2017-06-01T15:16:39+06:00,
1000000000395090,77782546474,mAltel,mKcell,mKcell,,D07,2017-06-01T15:16:36+06:00,
1000000000395091,77470167969,mAltel,mMTS,mMTS,,D07,2017-06-01T15:16:30+06:00,
1000000000395092,77015919166,mAltel,mKcell,mKcell,,D07,2017-06-01T15:17:13+06:00,
1000000000395093,77772805034,mKarTel,mMTS,mKarTel,D77,D01,2017-06-01T15:17:26+06:00,
1000000000395094,77768924032,mKarTel,mMTS,mKarTel,D77,D01,2017-06-01T15:17:32+06:00,
1000000000395095,77071700071,mKarTel,mAltel,mMTS,D07,D01,2017-06-01T15:17:40+06:00,
1000000000395096,77017403131,mKarTel,mKcell,mKcell,,D01,2017-06-01T15:18:34+06:00,
1000000000395100,77015312224,mKarTel,mKcell,mKcell,,D01,2017-06-01T15:19:15+06:00,
1000000000395101,77012524902,mMTS,mKarTel,mKcell,D01,D77,2017-06-01T15:20:16+06:00,
1000000000395102,77763622220,mMTS,mKcell,mKarTel,D02,D77,2017-06-01T15:20:42+06:00,
1000000000395103,77012334535,mAltel,mKcell,mKcell,,D07,2017-06-01T15:21:16+06:00,
1000000000395104,77018548652,mKcell,mKarTel,mKcell,D01,D02,2017-06-01T15:22:00+06:00,
1000000000395107,77012331740,mMTS,mKcell,mKcell,,D77,2017-06-01T15:22:53+06:00,
1000000000395108,77005050292,mKcell,mAltel,mAltel,,D02,2017-06-01T15:23:45+06:00,
1000000000395109,77019078101,mKarTel,mKcell,mKcell,,D01,2017-06-01T15:24:40+06:00,
1000000000395111,77015229211,mAltel,mKcell,mKcell,,D07,2017-06-01T15:25:16+06:00,
1000000000395114,77788378220,mKcell,mKarTel,mKcell,D01,D02,2017-06-01T15:28:00+06:00,
1000000000395115,77017102822,mKcell,mMTS,mKcell,D77,D02,2017-06-01T15:28:04+06:00,
1000000000395117,77052222500,mAltel,mKarTel,mKarTel,,D07,2017-06-01T15:28:23+06:00,
1000000000395118,77000870508,mMTS,mAltel,mAltel,,D77,2017-06-01T15:28:19+06:00,
1000000000395119,77753536669,mKarTel,mKcell,mKcell,,D01,2017-06-01T15:29:01+06:00,
1000000000395121,77014387031,mKcell,mMTS,mKcell,D77,D02,2017-06-01T15:28:54+06:00,
1000000000395122,77017214184,mMTS,mKcell,mKcell,,D77,2017-06-01T15:28:55+06:00,
