NPId,Number,RecipientId,DonorId,RangeHolderId,OldRoute,NewRoute,PortDate,RowCount
1000000000230634,77755127888,mMTS,mKcell,mKcell,,D77,2016-08-18T11:00:27+06:00,15
1000000000230635,77771882237,mKarTel,mMTS,mKarTel,D77,D01,2016-08-18T11:03:40+06:00,
1000000000230636,77011309990,mMTS,mKcell,mKcell,,D77,2016-08-18T11:07:26+06:00,
1000000000230637,77762081978,mMTS,mKarTel,mKarTel,,D77,2016-08-18T11:10:53+06:00,
1000000000230638,77029148281,mKcell,mMTS,mKcell,D77,D02,2016-08-18T11:15:44+06:00,
1000000000230639,77009292929,mKarTel,mAltel,mAltel,,D01,2016-08-18T11:16:42+06:00,
1000000000230640,77770235696,mMTS,mKarTel,mKarTel,,D77,2016-08-18T11:17:46+06:00,
1000000000230642,77017512239,mKarTel,mKcell,mKcell,,D01,2016-08-18T11:19:09+06:00,
1000000000230644,77001332267,mMTS,mAltel,mAltel,,D77,2016-08-18T11:20:08+06:00,
1000000000230645,77013399442,mKcell,mMTS,mKcell,D77,D02,2016-08-18T11:21:38+06:00,
1000000000230646,77474186579,mAltel,mMTS,mMTS,,D07,2016-08-18T11:22:39+06:00,
1000000000230647,77773358888,mMTS,mKarTel,mKarTel,,D77,2016-08-18T11:23:40+06:00,
1000000000230648,77056666649,mMTS,mKarTel,mKarTel,,D77,2016-08-18T11:23:55+06:00,
1000000000230649,77777987043,mKcell,mKarTel,mKarTel,,D02,2016-08-18T11:27:56+06:00,
1000000000230651,77759375703,mMTS,mKcell,mKcell,,D77,2016-08-18T11:29:36+06:00,
