NPId,Number,RecipientId,DonorId,RangeHolderId,OldRoute,NewRoute,PortDate,RowCount
1000000000167722,77052768882,mMTS,mKarTel,mKarTel,,D77,2016-05-04T20:01:21+06:00,8
1000000000167723,77004309335,mKarTel,mAltel,mAltel,,D01,2016-05-04T20:04:36+06:00,
1000000000167724,77777602008,mKcell,mKarTel,mKarTel,,D02,2016-05-04T20:06:23+06:00,
1000000000167727,77776192000,mKarTel,mKcell,mKarTel,D02,D01,2016-05-04T20:06:31+06:00,
1000000000167729,77760515566,mKcell,mKarTel,mKarTel,,D02,2016-05-04T20:11:33+06:00,
1000000000167730,77019506454,mKarTel,mMTS,mKcell,D77,D01,2016-05-04T20:13:17+06:00,
1000000000167731,77017211333,mKarTel,mKcell,mKcell,,D01,2016-05-04T20:16:52+06:00,
1000000000167732,77011697788,mMTS,mKcell,mKcell,,D77,2016-05-04T20:17:24+06:00,
