NPId,Number,RecipientId,DonorId,RangeHolderId,OldRoute,NewRoute,PortDate,RowCount
1000000000174838,77025142913,mMTS,mKcell,mKcell,,D77,2016-05-16T11:03:26+06:00,18
1000000000174840,77012994558,mMTS,mKcell,mKcell,,D77,2016-05-16T11:06:19+06:00,
1000000000174843,77015169970,mKarTel,mKcell,mKcell,,D01,2016-05-16T11:09:03+06:00,
1000000000174844,77021545127,mMTS,mKcell,mKcell,,D77,2016-05-16T11:10:03+06:00,
1000000000174845,77052499889,mKcell,mAltel,mKarTel,D07,D02,2016-05-16T11:15:05+06:00,
1000000000174847,77017142168,mMTS,mKcell,mKcell,,D77,2016-05-16T11:14:53+06:00,
1000000000174848,77754565546,mMTS,mKcell,mKcell,,D77,2016-05-16T11:15:08+06:00,
1000000000174849,77013200534,mAltel,mKcell,mKcell,,D07,2016-05-16T11:15:08+06:00,
1000000000174850,77007990960,mMTS,mAltel,mAltel,,D77,2016-05-16T11:17:47+06:00,
1000000000174851,77010870101,mKarTel,mKcell,mKcell,,D01,2016-05-16T11:18:37+06:00,
1000000000174852,77021083872,mKarTel,mKcell,mKcell,,D01,2016-05-16T11:20:14+06:00,
1000000000174855,77074848898,mMTS,mAltel,mMTS,D07,D77,2016-05-16T11:24:10+06:00,
1000000000174856,77777958851,mMTS,mKarTel,mKarTel,,D77,2016-05-16T11:25:59+06:00,
1000000000174857,77017933516,mMTS,mKcell,mKcell,,D77,2016-05-16T11:27:12+06:00,
1000000000174858,77781413734,mMTS,mKcell,mKcell,,D77,2016-05-16T11:27:14+06:00,
1000000000174859,77012221654,mKarTel,mKcell,mKcell,,D01,2016-05-16T11:27:46+06:00,
1000000000174860,77016470999,mKarTel,mKcell,mKcell,,D01,2016-05-16T11:27:53+06:00,
1000000000174862,77078144271,mMTS,mAltel,mMTS,D07,D77,2016-05-16T11:29:17+06:00,
