NPId,Number,RecipientId,DonorId,RangeHolderId,OldRoute,NewRoute,PortDate,RowCount
1000000000245483,77013505608,mMTS,mKcell,mKcell,,D77,2016-09-14T16:30:53+06:00,31
1000000000245484,77011836673,mAltel,mKcell,mKcell,,D07,2016-09-14T16:30:30+06:00,
1000000000245485,77018652368,mMTS,mAltel,mKcell,D07,D77,2016-09-14T16:31:57+06:00,
1000000000245487,77003530812,mAltel,mMTS,mAltel,D77,D07,2016-09-14T16:34:17+06:00,
1000000000245488,77772917777,mKarTel,mAltel,mKarTel,D07,D01,2016-09-14T16:36:44+06:00,
1000000000245490,77782630928,mMTS,mKcell,mKcell,,D77,2016-09-14T16:40:10+06:00,
1000000000245492,77015341969,mMTS,mKcell,mKcell,,D77,2016-09-14T16:42:42+06:00,
1000000000245493,77787774147,mKcell,mAltel,mKcell,D07,D02,2016-09-14T16:44:20+06:00,
1000000000245494,77028202235,mKcell,mMTS,mKcell,D77,D02,2016-09-14T16:44:45+06:00,
1000000000245496,77012722557,mKarTel,mKcell,mKcell,,D01,2016-09-14T16:46:14+06:00,
1000000000245496,77017569032,mKarTel,mKcell,mKcell,,D01,2016-09-14T16:46:14+06:00,
1000000000245496,77017569037,mKarTel,mKcell,mKcell,,D01,2016-09-14T16:46:14+06:00,
1000000000245496,77028888832,mKarTel,mKcell,mKcell,,D01,2016-09-14T16:46:14+06:00,
1000000000245497,77026813682,mMTS,mKcell,mKcell,,D77,2016-09-14T16:45:43+06:00,
1000000000245499,77775527289,mMTS,mKarTel,mKarTel,,D77,2016-09-14T16:48:43+06:00,
1000000000245500,77051070022,mMTS,mKarTel,mKarTel,,D77,2016-09-14T16:49:35+06:00,
1000000000245501,77015528088,mKarTel,mKcell,mKcell,,D01,2016-09-14T16:49:34+06:00,
1000000000245502,77085748337,mKarTel,mAltel,mAltel,,D01,2016-09-14T16:50:18+06:00,
1000000000245504,77754794772,mMTS,mKcell,mKcell,,D77,2016-09-14T16:50:00+06:00,
1000000000245505,77784997333,mMTS,mKcell,mKcell,,D77,2016-09-14T16:52:35+06:00,
1000000000245506,77751409410,mKcell,mMTS,mKcell,D77,D02,2016-09-14T16:51:06+06:00,
1000000000245509,77770400607,mMTS,mKarTel,mKarTel,,D77,2016-09-14T16:54:28+06:00,
1000000000245510,77753339990,mMTS,mKcell,mKcell,,D77,2016-09-14T16:52:35+06:00,
1000000000245511,77012625087,mKcell,mMTS,mKcell,D77,D02,2016-09-14T16:52:59+06:00,
1000000000245513,77789334455,mMTS,mKcell,mKcell,,D77,2016-09-14T16:54:41+06:00,
1000000000245514,77718308555,mKcell,mKarTel,mKarTel,,D02,2016-09-14T16:59:00+06:00,
1000000000245515,77075552326,mMTS,mKarTel,mMTS,D01,D77,2016-09-14T16:58:48+06:00,
1000000000245516,77073622222,mKcell,mMTS,mMTS,,D02,2016-09-14T16:56:58+06:00,
1000000000245517,77714811622,mMTS,mKarTel,mKarTel,,D77,2016-09-14T16:59:41+06:00,
1000000000245519,77479632512,mAltel,mMTS,mMTS,,D07,2016-09-14T16:57:58+06:00,
1000000000245520,77074671519,mKarTel,mMTS,mMTS,,D01,2016-09-14T16:59:37+06:00,
