NPId,Number,RecipientId,DonorId,RangeHolderId,OldRoute,NewRoute,PortDate,RowCount
1000000000430580,77765016116,mMTS,mAltel,mKarTel,D07,D77,2017-07-29T18:05:33+06:00,20
1000000000430582,77781212581,mMTS,mKcell,mKcell,,D77,2017-07-29T18:07:25+06:00,
1000000000430583,77018889779,mKarTel,mAltel,mKcell,D07,D01,2017-07-29T18:10:28+06:00,
1000000000430584,77029667774,mKarTel,mKcell,mKcell,,D01,2017-07-29T18:13:20+06:00,
1000000000430585,77072214538,mKcell,mMTS,mMTS,,D02,2017-07-29T18:15:15+06:00,
1000000000430586,77711704658,mMTS,mKarTel,mKarTel,,D77,2017-07-29T18:17:35+06:00,
1000000000430587,77752665760,mMTS,mKcell,mKcell,,D77,2017-07-29T18:17:27+06:00,
1000000000430588,77017727058,mKarTel,mKcell,mKcell,,D01,2017-07-29T18:19:54+06:00,
1000000000430589,77007000401,mAltel,mKcell,mAltel,D02,D07,2017-07-29T18:19:57+06:00,
1000000000430590,77054249993,mKcell,mKarTel,mKarTel,,D02,2017-07-29T18:20:37+06:00,
1000000000430591,77007381412,mKcell,mAltel,mAltel,,D02,2017-07-29T18:20:56+06:00,
1000000000430592,77018071500,mKcell,mKarTel,mKcell,D01,D02,2017-07-29T18:21:05+06:00,
1000000000430593,77007000301,mAltel,mKcell,mAltel,D02,D07,2017-07-29T18:21:04+06:00,
1000000000430594,77085050095,mKcell,mMTS,mAltel,D77,D02,2017-07-29T18:22:25+06:00,
1000000000430596,77015314193,mKarTel,mMTS,mKcell,D77,D01,2017-07-29T18:25:55+06:00,
1000000000430597,77752666135,mMTS,mKcell,mKcell,,D77,2017-07-29T18:27:15+06:00,
1000000000430598,77015013577,mKcell,mAltel,mKcell,D07,D02,2017-07-29T18:27:49+06:00,
1000000000430599,77085050093,mKcell,mMTS,mAltel,D77,D02,2017-07-29T18:27:42+06:00,
1000000000430600,77055155755,mKarTel,mMTS,mKarTel,D77,D01,2017-07-29T18:28:31+06:00,
1000000000430601,77073628812,mMTS,mKarTel,mMTS,D01,D77,2017-07-29T18:28:49+06:00,
