NPId,Number,RecipientId,DonorId,RangeHolderId,OldRoute,NewRoute,PortDate,RowCount
1000000000219747,77029270027,mKcell,mMTS,mKcell,D77,D02,2016-07-30T11:02:18+06:00,21
1000000000219748,77013130398,mMTS,mKcell,mKcell,,D77,2016-07-30T11:05:03+06:00,
1000000000219749,77072964828,mKarTel,mMTS,mMTS,,D01,2016-07-30T11:07:20+06:00,
1000000000219752,77001086274,mMTS,mAltel,mAltel,,D77,2016-07-30T11:07:16+06:00,
1000000000219754,77771457858,mAltel,mKarTel,mKarTel,,D07,2016-07-30T11:09:47+06:00,
1000000000219755,77789297575,mMTS,mKcell,mKcell,,D77,2016-07-30T11:08:57+06:00,
1000000000219757,77053410759,mMTS,mKarTel,mKarTel,,D77,2016-07-30T11:13:39+06:00,
1000000000219758,77777715393,mMTS,mAltel,mKarTel,D07,D77,2016-07-30T11:12:15+06:00,
1000000000219760,77057358242,mMTS,mKarTel,mKarTel,,D77,2016-07-30T11:15:56+06:00,
1000000000219761,77086849565,mKarTel,mAltel,mAltel,,D01,2016-07-30T11:16:29+06:00,
1000000000219762,77015186771,mAltel,mKarTel,mKcell,D01,D07,2016-07-30T11:17:15+06:00,
1000000000219763,77056500975,mKarTel,mMTS,mKarTel,D77,D01,2016-07-30T11:17:37+06:00,
1000000000219764,77028644687,mMTS,mKcell,mKcell,,D77,2016-07-30T11:17:22+06:00,
1000000000219765,77754932375,mMTS,mKcell,mKcell,,D77,2016-07-30T11:17:23+06:00,
1000000000219770,77028644692,mMTS,mKcell,mKcell,,D77,2016-07-30T11:22:23+06:00,
1000000000219771,77477431863,mMTS,mAltel,mMTS,D07,D77,2016-07-30T11:22:35+06:00,
1000000000219772,77021905120,mMTS,mKcell,mKcell,,D77,2016-07-30T11:25:21+06:00,
1000000000219773,77015557784,mKcell,mKarTel,mKcell,D01,D02,2016-07-30T11:26:53+06:00,
1000000000219774,77026716705,mMTS,mKcell,mKcell,,D77,2016-07-30T11:26:13+06:00,
1000000000219775,77057358240,mMTS,mKarTel,mKarTel,,D77,2016-07-30T11:27:52+06:00,
1000000000219777,77753734988,mKarTel,mMTS,mKcell,D77,D01,2016-07-30T11:28:44+06:00,
