NPId,Number,RecipientId,DonorId,RangeHolderId,OldRoute,NewRoute,PortDate,RowCount
1000000000355459,77054505837,mKcell,mAltel,mKarTel,D07,D02,2017-03-30T11:49:17+06:00,16
1000000000355460,77773938686,mMTS,mKarTel,mKarTel,,D77,2017-03-30T11:31:17+06:00,
1000000000355461,77022010242,mMTS,mKcell,mKcell,,D77,2017-03-30T11:31:07+06:00,
1000000000355463,77712542161,mAltel,mKarTel,mKarTel,,D07,2017-03-30T11:32:11+06:00,
1000000000355464,77778281931,mMTS,mKarTel,mKarTel,,D77,2017-03-30T11:32:56+06:00,
1000000000355465,77051369198,mMTS,mKarTel,mKarTel,,D77,2017-03-30T11:33:03+06:00,
1000000000355470,77778033889,mKarTel,mMTS,mKarTel,D77,D01,2017-03-30T11:39:41+06:00,
1000000000355471,77784544777,mKarTel,mKcell,mKcell,,D01,2017-03-30T11:40:00+06:00,
1000000000355472,77027592877,mAltel,mKcell,mKcell,,D07,2017-03-30T11:40:54+06:00,
1000000000355477,77015536033,mAltel,mMTS,mKcell,D77,D07,2017-03-30T11:49:38+06:00,
1000000000355478,77051555305,mKarTel,mMTS,mKarTel,D77,D01,2017-03-30T11:50:30+06:00,
1000000000355480,77057667799,mMTS,mKarTel,mKarTel,,D77,2017-03-30T11:52:11+06:00,
1000000000355482,77764061000,mMTS,mKarTel,mKarTel,,D77,2017-03-30T11:52:42+06:00,
1000000000355483,77054175510,mMTS,mKarTel,mKarTel,,D77,2017-03-30T11:53:10+06:00,
1000000000355487,77474026890,mKarTel,mMTS,mMTS,,D01,2017-03-30T11:53:36+06:00,
1000000000355491,77017357595,mAltel,mKcell,mKcell,,D07,2017-03-30T11:57:21+06:00,
