NPId,Number,RecipientId,DonorId,RangeHolderId,OldRoute,NewRoute,PortDate,RowCount
1000000000369676,77076662006,mKcell,mMTS,mMTS,,D02,2017-04-21T17:04:31+06:00,12
1000000000369677,77017757014,mMTS,mKcell,mKcell,,D77,2017-04-21T17:05:26+06:00,
1000000000369679,77471888880,mMTS,mKcell,mMTS,D02,D77,2017-04-21T17:05:44+06:00,
1000000000369680,77078363029,mKarTel,mMTS,mMTS,,D01,2017-04-21T17:06:33+06:00,
1000000000369681,77475370501,mKarTel,mMTS,mMTS,,D01,2017-04-21T17:06:48+06:00,
1000000000369682,77075697777,mAltel,mMTS,mMTS,,D07,2017-04-21T17:08:26+06:00,
1000000000369683,77003826659,mMTS,mAltel,mAltel,,D77,2017-04-21T17:08:58+06:00,
1000000000369685,77002800200,mMTS,mAltel,mAltel,,D77,2017-04-21T17:10:57+06:00,
1000000000369686,77016669090,mMTS,mKcell,mKcell,,D77,2017-04-21T17:12:53+06:00,
1000000000369687,77021171905,mKarTel,mKcell,mKcell,,D01,2017-04-21T17:13:14+06:00,
1000000000369690,77028118881,mAltel,mKcell,mKcell,,D07,2017-04-21T17:21:01+06:00,
1000000000369692,77012946282,mMTS,mKcell,mKcell,,D77,2017-04-21T17:22:51+06:00,
