NPId,Number,RecipientId,DonorId,RangeHolderId,OldRoute,NewRoute,PortDate,RowCount
1000000000440612,77011107717,mKcell,mMTS,mKcell,D77,D02,2017-08-15T20:35:19+06:00,3
1000000000440613,77786120007,mMTS,mKcell,mKcell,,D77,2017-08-15T20:47:32+06:00,
1000000000440614,77018778890,mMTS,mKarTel,mKcell,D01,D77,2017-08-15T20:59:42+06:00,
