NPId,Number,RecipientId,DonorId,RangeHolderId,OldRoute,NewRoute,PortDate,RowCount
1000000000378245,77757383024,mMTS,mKcell,mKcell,,D77,2017-05-04T18:30:20+06:00,16
1000000000378246,77760110072,mKarTel,mKcell,mKarTel,D02,D01,2017-05-04T18:33:27+06:00,
1000000000378247,77014044797,mMTS,mKcell,mKcell,,D77,2017-05-04T18:34:31+06:00,
1000000000378248,77054541897,mMTS,mKarTel,mKarTel,,D77,2017-05-04T18:37:27+06:00,
1000000000378249,77055397480,mMTS,mKarTel,mKarTel,,D77,2017-05-04T18:38:15+06:00,
1000000000378250,77010222243,mKcell,mAltel,mKcell,D07,D02,2017-05-04T18:41:20+06:00,
1000000000378251,77766770011,mMTS,mKarTel,mKarTel,,D77,2017-05-04T18:43:52+06:00,
1000000000378254,77771824449,mMTS,mKarTel,mKarTel,,D77,2017-05-04T18:48:00+06:00,
1000000000378255,77717581913,mKarTel,mKcell,mKarTel,D02,D01,2017-05-04T18:49:13+06:00,
1000000000378256,77058348155,mAltel,mKarTel,mKarTel,D01,D07,2017-05-04T18:49:39+06:00,
1000000000378257,77024964707,mAltel,mKcell,mKcell,,D07,2017-05-04T18:50:16+06:00,
1000000000378258,77752271581,mKarTel,mKcell,mKcell,,D01,2017-05-04T18:51:24+06:00,
1000000000378259,77779888863,mAltel,mKarTel,mKarTel,,D07,2017-05-04T18:52:38+06:00,
1000000000378260,77018887881,mMTS,mKcell,mKcell,,D77,2017-05-04T18:52:52+06:00,
1000000000378262,77022402471,mAltel,mKcell,mKcell,,D07,2017-05-04T18:54:34+06:00,
1000000000378263,77000709600,mMTS,mAltel,mAltel,,D77,2017-05-04T18:58:58+06:00,
