NPId,Number,RecipientId,DonorId,RangeHolderId,OldRoute,NewRoute,PortDate,RowCount
1000000000406120,77772451724,mAltel,mKarTel,mKarTel,,D07,2017-06-20T12:30:18+06:00,29
1000000000406121,77089057895,mMTS,mAltel,mAltel,,D77,2017-06-20T12:30:39+06:00,
1000000000406122,77072261108,mKarTel,mMTS,mMTS,,D01,2017-06-20T12:31:15+06:00,
1000000000406123,77019605791,mAltel,mKarTel,mKcell,D01,D07,2017-06-20T12:31:27+06:00,
1000000000406124,77760770440,mMTS,mKcell,mKarTel,D02,D77,2017-06-20T12:31:40+06:00,
1000000000406125,77079390015,mAltel,mMTS,mMTS,,D07,2017-06-20T12:32:05+06:00,
1000000000406126,77054213737,mAltel,mKarTel,mKarTel,,D07,2017-06-20T12:32:49+06:00,
1000000000406127,77754444251,mKcell,mMTS,mKcell,D77,D02,2017-06-20T12:35:10+06:00,
1000000000406128,77017324020,mMTS,mKcell,mKcell,,D77,2017-06-20T12:35:07+06:00,
1000000000406129,77023080828,mKarTel,mKcell,mKcell,,D01,2017-06-20T12:36:02+06:00,
1000000000406130,77474749270,mMTS,mKarTel,mMTS,D01,D77,2017-06-20T12:36:19+06:00,
1000000000406131,77071750989,mAltel,mMTS,mMTS,,D07,2017-06-20T12:38:03+06:00,
1000000000406132,77007670766,mKcell,mAltel,mAltel,,D02,2017-06-20T12:38:17+06:00,
1000000000406133,77471905751,mMTS,mKcell,mMTS,D02,D77,2017-06-20T12:39:32+06:00,
1000000000406134,77017084450,mMTS,mKcell,mKcell,,D77,2017-06-20T12:44:16+06:00,
1000000000406135,77026728027,mMTS,mKcell,mKcell,,D77,2017-06-20T12:44:34+06:00,
1000000000406136,77019007120,mAltel,mKcell,mKcell,,D07,2017-06-20T12:44:52+06:00,
1000000000406137,77029009120,mKarTel,mKcell,mKcell,,D01,2017-06-20T12:45:39+06:00,
1000000000406138,77012140388,mKarTel,mKcell,mKcell,,D01,2017-06-20T12:45:55+06:00,
1000000000406139,77016373887,mMTS,mKcell,mKcell,D02,D77,2017-06-20T12:46:07+06:00,
1000000000406141,77004646321,mMTS,mAltel,mAltel,,D77,2017-06-20T12:48:12+06:00,
1000000000406142,77011001771,mKarTel,mKcell,mKcell,,D01,2017-06-20T12:48:33+06:00,
1000000000406143,77752202424,mKcell,mMTS,mKcell,D77,D02,2017-06-20T12:49:23+06:00,
1000000000406144,77776676766,mAltel,mKarTel,mKarTel,,D07,2017-06-20T12:52:21+06:00,
1000000000406146,77754444501,mKcell,mAltel,mKcell,D07,D02,2017-06-20T12:53:44+06:00,
1000000000406147,77471834686,mAltel,mMTS,mMTS,,D07,2017-06-20T12:54:58+06:00,
1000000000406148,77778938877,mKcell,mKarTel,mKarTel,,D02,2017-06-20T12:56:40+06:00,
1000000000406149,77077775507,mKcell,mMTS,mMTS,,D02,2017-06-20T12:56:31+06:00,
1000000000406150,77758762652,mMTS,mKcell,mKcell,,D77,2017-06-20T12:56:46+06:00,
