NPId,Number,RecipientId,DonorId,RangeHolderId,OldRoute,NewRoute,PortDate,RowCount
1000000000344195,77786908797,mKcell,mAltel,mKcell,D07,D02,2017-03-10T12:02:12+06:00,20
1000000000344196,77051330005,mMTS,mKcell,mKarTel,D02,D77,2017-03-10T12:02:56+06:00,
1000000000344197,77772994015,mMTS,mKarTel,mKarTel,,D77,2017-03-10T12:04:01+06:00,
1000000000344198,77773591887,mKarTel,mKcell,mKarTel,D02,D01,2017-03-10T12:04:10+06:00,
1000000000344199,77774228888,mKarTel,mAltel,mKarTel,D07,D01,2017-03-10T12:04:04+06:00,
1000000000344200,77473063008,mKarTel,mMTS,mMTS,,D01,2017-03-10T12:04:24+06:00,
1000000000344202,77019506396,mKarTel,mKcell,mKcell,,D01,2017-03-10T12:06:06+06:00,
1000000000344203,77015341347,mKarTel,mKcell,mKcell,,D01,2017-03-10T12:06:13+06:00,
1000000000344204,77079512732,mKcell,mMTS,mMTS,,D02,2017-03-10T12:11:01+06:00,
1000000000344208,77082261999,mMTS,mKarTel,mAltel,D01,D77,2017-03-10T12:16:02+06:00,
1000000000344209,77075000739,mKcell,mMTS,mMTS,,D02,2017-03-10T12:17:07+06:00,
1000000000344210,77781111188,mKarTel,mAltel,mKcell,D07,D01,2017-03-10T12:16:59+06:00,
1000000000344211,77012233334,mAltel,mKcell,mKcell,,D07,2017-03-10T12:20:31+06:00,
1000000000344212,77014444499,mKarTel,mAltel,mKcell,D07,D01,2017-03-10T12:21:03+06:00,
1000000000344213,77012661883,mKarTel,mMTS,mKcell,D77,D01,2017-03-10T12:21:23+06:00,
1000000000344215,77786282500,mMTS,mKcell,mKcell,,D77,2017-03-10T12:22:56+06:00,
1000000000344216,77075035003,mKcell,mMTS,mMTS,,D02,2017-03-10T12:24:03+06:00,
1000000000344218,77015738880,mMTS,mKcell,mKcell,,D77,2017-03-10T12:26:38+06:00,
1000000000344219,77755997111,mKcell,mMTS,mKcell,D77,D02,2017-03-10T12:27:19+06:00,
1000000000344221,77473297895,mKcell,mMTS,mMTS,,D02,2017-03-10T12:27:46+06:00,
