NPId,Number,RecipientId,DonorId,RangeHolderId,OldRoute,NewRoute,PortDate,RowCount
1000000000418201,77083010514,mKcell,mAltel,mAltel,D07,D02,2017-07-08T20:02:41+06:00,2
1000000000418492,77071282528,mKcell,mMTS,mMTS,,D02,2017-07-08T20:01:39+06:00,
