NPId,Number,RecipientId,DonorId,RangeHolderId,OldRoute,NewRoute,PortDate,RowCount
1000000000275801,77012240691,mMTS,mKcell,mKcell,,D77,2016-11-08T10:42:26+06:00,17
1000000000275802,77070401358,mKcell,mMTS,mMTS,,D02,2016-11-08T10:33:01+06:00,
1000000000275803,77754449640,mMTS,mKcell,mKcell,,D77,2016-11-08T10:35:26+06:00,
1000000000275805,77070401357,mKcell,mMTS,mMTS,,D02,2016-11-08T10:36:34+06:00,
1000000000275806,77022997478,mAltel,mKcell,mKcell,,D07,2016-11-08T10:37:21+06:00,
1000000000275807,77776722222,mMTS,mKarTel,mKarTel,,D77,2016-11-08T10:39:04+06:00,
1000000000275809,77012240692,mMTS,mKcell,mKcell,,D77,2016-11-08T10:57:03+06:00,
1000000000275810,77472129766,mKarTel,mMTS,mMTS,,D01,2016-11-08T10:41:55+06:00,
1000000000275811,77070401356,mKcell,mMTS,mMTS,,D02,2016-11-08T10:42:08+06:00,
1000000000275812,77012240694,mMTS,mKcell,mKcell,,D77,2016-11-08T10:45:47+06:00,
1000000000275813,77012240695,mMTS,mKcell,mKcell,,D77,2016-11-08T10:58:54+06:00,
1000000000275819,77774448040,mKarTel,mKcell,mKarTel,D02,D01,2016-11-08T10:51:07+06:00,
1000000000275820,77003555559,mKcell,mAltel,mAltel,D07,D02,2016-11-08T10:52:17+06:00,
1000000000275821,77755085513,mKarTel,mKcell,mKcell,,D01,2016-11-08T10:54:01+06:00,
1000000000275823,77770509181,mMTS,mKarTel,mKarTel,,D77,2016-11-08T10:53:58+06:00,
1000000000275824,77477025750,mKcell,mMTS,mMTS,,D02,2016-11-08T10:53:48+06:00,
1000000000275825,77023742607,mKcell,mMTS,mKcell,D77,D02,2016-11-08T10:56:46+06:00,
