NPId,Number,RecipientId,DonorId,RangeHolderId,OldRoute,NewRoute,PortDate,RowCount
1000000000315163,77058877799,mKcell,mKarTel,mKarTel,,D02,2017-01-23T15:06:08+06:00,17
1000000000315164,77011122371,mMTS,mKcell,mKcell,,D77,2017-01-23T15:02:21+06:00,
1000000000315167,77787770413,mAltel,mKcell,mKcell,,D07,2017-01-23T15:08:06+06:00,
1000000000315168,77018870037,mKarTel,mKcell,mKcell,,D01,2017-01-23T15:09:48+06:00,
1000000000315169,77088128989,mKcell,mAltel,mAltel,,D02,2017-01-23T15:11:29+06:00,
1000000000315170,77478878720,mKcell,mMTS,mMTS,,D02,2017-01-23T15:13:58+06:00,
1000000000315171,77787770513,mAltel,mKcell,mKcell,,D07,2017-01-23T15:14:09+06:00,
1000000000315172,77760034444,mAltel,mKarTel,mKarTel,,D07,2017-01-23T15:14:23+06:00,
1000000000315174,77012229351,mMTS,mKcell,mKcell,,D77,2017-01-23T15:17:46+06:00,
1000000000315175,77017868280,mKarTel,mMTS,mKcell,D77,D01,2017-01-23T15:18:31+06:00,
1000000000315176,77714233334,mMTS,mKarTel,mKarTel,,D77,2017-01-23T15:21:51+06:00,
1000000000315177,77000291964,mMTS,mAltel,mAltel,,D77,2017-01-23T15:22:29+06:00,
1000000000315180,77022451727,mKarTel,mKcell,mKcell,,D01,2017-01-23T15:23:34+06:00,
1000000000315181,77026850497,mMTS,mKcell,mKcell,D02,D77,2017-01-23T15:25:09+06:00,
1000000000315182,77012926579,mMTS,mKcell,mKcell,,D77,2017-01-23T15:25:46+06:00,
1000000000315183,77077048884,mKcell,mMTS,mMTS,,D02,2017-01-23T15:27:22+06:00,
1000000000315184,77779465070,mMTS,mKarTel,mKarTel,,D77,2017-01-23T15:28:53+06:00,
