NPId,Number,RecipientId,DonorId,RangeHolderId,OldRoute,NewRoute,PortDate,RowCount
1000000000288498,77754694777,mKarTel,mKcell,mKcell,,D01,2016-12-02T14:30:58+06:00,45
1000000000288499,77774658555,mMTS,mKarTel,mKarTel,,D77,2016-12-02T14:31:05+06:00,
1000000000288500,77017351035,mKarTel,mKcell,mKcell,,D01,2016-12-02T14:31:13+06:00,
1000000000288503,77776811569,mKcell,mKarTel,mKarTel,,D02,2016-12-02T14:33:41+06:00,
1000000000288504,77077399943,mKcell,mMTS,mMTS,,D02,2016-12-02T14:34:12+06:00,
1000000000288505,77777894777,mMTS,mKarTel,mKarTel,,D77,2016-12-02T14:34:12+06:00,
1000000000288506,77077855879,mKcell,mMTS,mMTS,,D02,2016-12-02T14:34:53+06:00,
1000000000288507,77710570877,mKarTel,mMTS,mKarTel,D77,D01,2016-12-02T14:36:23+06:00,
1000000000288508,77072201520,mKarTel,mMTS,mMTS,,D01,2016-12-02T14:36:28+06:00,
1000000000288509,77057505045,mKarTel,mAltel,mKarTel,D07,D01,2016-12-02T14:36:44+06:00,
1000000000288510,77016396119,mKcell,mMTS,mKcell,D77,D02,2016-12-02T14:37:46+06:00,
1000000000288512,77717929696,mKarTel,mAltel,mKarTel,D07,D01,2016-12-02T14:38:49+06:00,
1000000000288513,77015770920,mKarTel,mKcell,mKcell,,D01,2016-12-02T14:39:34+06:00,
1000000000288516,77758258481,mMTS,mKcell,mKcell,,D77,2016-12-02T14:41:23+06:00,
1000000000288517,77005351000,mKcell,mAltel,mAltel,,D02,2016-12-02T14:41:48+06:00,
1000000000288518,77055257520,mMTS,mKarTel,mKarTel,,D77,2016-12-02T14:42:43+06:00,
1000000000288519,77776363900,mMTS,mKarTel,mKarTel,,D77,2016-12-02T14:42:53+06:00,
1000000000288520,77017161312,mMTS,mKcell,mKcell,,D77,2016-12-02T14:43:04+06:00,
1000000000288521,77779252524,mMTS,mKarTel,mKarTel,,D77,2016-12-02T14:43:46+06:00,
1000000000288522,77758881705,mKarTel,mKcell,mKcell,,D01,2016-12-02T14:44:57+06:00,
1000000000288523,77059667766,mKarTel,mAltel,mKarTel,D07,D01,2016-12-02T14:44:58+06:00,
1000000000288524,77023894279,mMTS,mKcell,mKcell,,D77,2016-12-02T14:44:50+06:00,
1000000000288525,77055010702,mMTS,mKarTel,mKarTel,,D77,2016-12-02T14:45:38+06:00,
1000000000288526,77011010790,mAltel,mKcell,mKcell,,D07,2016-12-02T14:45:37+06:00,
1000000000288527,77472929294,mKcell,mMTS,mMTS,,D02,2016-12-02T14:45:48+06:00,
1000000000288528,77020006860,mMTS,mKcell,mKcell,,D77,2016-12-02T14:46:03+06:00,
1000000000288529,77022621739,mKcell,mAltel,mKcell,D07,D02,2016-12-02T14:46:07+06:00,
1000000000288530,77001102030,mKcell,mAltel,mAltel,,D02,2016-12-02T14:47:19+06:00,
1000000000288531,77070432734,mAltel,mMTS,mMTS,,D07,2016-12-02T14:47:17+06:00,
1000000000288534,77053792325,mAltel,mKarTel,mKarTel,,D07,2016-12-02T14:48:33+06:00,
1000000000288535,77075105010,mKcell,mMTS,mMTS,,D02,2016-12-02T14:50:12+06:00,
1000000000288536,77011712107,mAltel,mMTS,mKcell,D77,D07,2016-12-02T14:49:43+06:00,
1000000000288537,77012720339,mKarTel,mKcell,mKcell,,D01,2016-12-02T14:50:32+06:00,
1000000000288538,77474022839,mAltel,mMTS,mMTS,,D07,2016-12-02T14:50:28+06:00,
1000000000288540,77013737373,mMTS,mKcell,mKcell,,D77,2016-12-02T14:52:33+06:00,
1000000000288541,77017161311,mMTS,mKcell,mKcell,,D77,2016-12-02T14:52:40+06:00,
1000000000288543,77012335646,mKarTel,mKcell,mKcell,,D01,2016-12-02T14:54:29+06:00,
1000000000288544,77776964545,mAltel,mKarTel,mKarTel,,D07,2016-12-02T14:55:52+06:00,
1000000000288545,77754222205,mKarTel,mKcell,mKcell,,D01,2016-12-02T14:56:23+06:00,
1000000000288546,77013850824,mKarTel,mKcell,mKcell,,D01,2016-12-02T14:56:35+06:00,
1000000000288548,77018594242,mKarTel,mKcell,mKcell,,D01,2016-12-02T14:57:11+06:00,
1000000000288549,77757272528,mKcell,mMTS,mKcell,D77,D02,2016-12-02T14:58:02+06:00,
1000000000288550,77759688893,mAltel,mKcell,mKcell,,D07,2016-12-02T14:58:17+06:00,
1000000000288551,77052945605,mMTS,mKarTel,mKarTel,,D77,2016-12-02T14:58:39+06:00,
1000000000288553,77015378880,mKarTel,mKcell,mKcell,,D01,2016-12-02T14:59:57+06:00,
