NPId,Number,RecipientId,DonorId,RangeHolderId,OldRoute,NewRoute,PortDate,RowCount
1000000000285915,77021010243,mMTS,mKcell,mKcell,,D77,2016-11-29T11:30:36+06:00,27
1000000000285919,77079186662,mKarTel,mMTS,mMTS,,D01,2016-11-29T11:32:18+06:00,
1000000000285920,77022850325,mMTS,mKcell,mKcell,,D77,2016-11-29T11:35:47+06:00,
1000000000285921,77017065381,mMTS,mKcell,mKcell,,D77,2016-11-29T11:34:08+06:00,
1000000000285922,77772238934,mKcell,mKarTel,mKarTel,,D02,2016-11-29T11:34:40+06:00,
1000000000285923,77787880287,mKarTel,mMTS,mKcell,D77,D01,2016-11-29T11:34:27+06:00,
1000000000285924,77011107797,mAltel,mKcell,mKcell,,D07,2016-11-29T11:35:48+06:00,
1000000000285925,77774440439,mKcell,mKarTel,mKarTel,,D02,2016-11-29T11:36:32+06:00,
1000000000285926,77009658292,mMTS,mAltel,mAltel,,D77,2016-11-29T11:36:04+06:00,
1000000000285927,77776450430,mMTS,mKarTel,mKarTel,,D77,2016-11-29T11:37:42+06:00,
1000000000285929,77017459990,mAltel,mKcell,mKcell,,D07,2016-11-29T11:38:17+06:00,
1000000000285931,77018997839,mKcell,mKarTel,mKcell,D01,D02,2016-11-29T11:40:38+06:00,
1000000000285933,77759294000,mKcell,mMTS,mKcell,D77,D02,2016-11-29T11:44:28+06:00,
1000000000285934,77012211939,mKarTel,mKcell,mKcell,,D01,2016-11-29T11:42:44+06:00,
1000000000285935,77013730609,mAltel,mKcell,mKcell,,D07,2016-11-29T11:46:05+06:00,
1000000000285937,77774277724,mMTS,mKarTel,mKarTel,,D77,2016-11-29T11:47:30+06:00,
1000000000285938,77017766353,mAltel,mKcell,mKcell,,D07,2016-11-29T11:47:24+06:00,
1000000000285940,77057712952,mMTS,mKarTel,mKarTel,,D77,2016-11-29T11:47:54+06:00,
1000000000285941,77778820101,mKcell,mKarTel,mKarTel,,D02,2016-11-29T11:49:29+06:00,
1000000000285942,77075193487,mKarTel,mMTS,mMTS,,D01,2016-11-29T11:52:01+06:00,
1000000000285943,77753350333,mKcell,mKarTel,mKcell,D01,D02,2016-11-29T11:52:28+06:00,
1000000000285944,77057703679,mMTS,mKarTel,mKarTel,,D77,2016-11-29T11:52:54+06:00,
1000000000285945,77071100448,mKarTel,mMTS,mMTS,,D01,2016-11-29T11:53:49+06:00,
1000000000285946,77071879687,mKarTel,mMTS,mMTS,,D01,2016-11-29T11:54:00+06:00,
1000000000285947,77055116903,mMTS,mKarTel,mKarTel,,D77,2016-11-29T11:56:41+06:00,
1000000000285949,77086467598,mMTS,mAltel,mAltel,,D77,2016-11-29T11:57:34+06:00,
1000000000285950,77015333338,mKcell,mMTS,mKcell,D77,D02,2016-11-29T11:59:41+06:00,
