NPId,Number,RecipientId,DonorId,RangeHolderId,OldRoute,NewRoute,PortDate,RowCount
1000000000133509,77025979787,mAltel,mKcell,mKcell,,D07,2016-03-25T19:01:00+06:00,18
1000000000133510,77055554257,mKcell,mKarTel,mKarTel,,D02,2016-03-25T19:03:35+06:00,
1000000000133511,77786324581,mAltel,mKcell,mKcell,,D07,2016-03-25T19:02:43+06:00,
1000000000133513,77759942997,mAltel,mKcell,mKcell,,D07,2016-03-25T19:04:26+06:00,
1000000000133515,77087099686,mKcell,mAltel,mAltel,,D02,2016-03-25T19:05:19+06:00,
1000000000133516,77021790217,mAltel,mKcell,mKcell,,D07,2016-03-25T19:05:08+06:00,
1000000000133518,77770007772,mAltel,mKarTel,mKarTel,,D07,2016-03-25T19:09:22+06:00,
1000000000133519,77757335033,mKcell,mMTS,mKcell,D77,D02,2016-03-25T19:08:45+06:00,
1000000000133520,77776255907,mKcell,mKarTel,mKarTel,,D02,2016-03-25T19:12:52+06:00,
1000000000133521,77027712121,mMTS,mKcell,mKcell,,D77,2016-03-25T19:12:42+06:00,
1000000000133522,77019622457,mMTS,mKcell,mKcell,,D77,2016-03-25T19:13:16+06:00,
1000000000133525,77019241431,mMTS,mKcell,mKcell,,D77,2016-03-25T19:18:42+06:00,
1000000000133526,77011576928,mAltel,mKcell,mKcell,,D07,2016-03-25T19:21:22+06:00,
1000000000133529,77015393040,mMTS,mKcell,mKcell,,D77,2016-03-25T19:23:41+06:00,
1000000000133530,77077008686,mKarTel,mMTS,mMTS,,D01,2016-03-25T19:26:10+06:00,
1000000000133532,77010750750,mKarTel,mKcell,mKcell,,D01,2016-03-25T19:27:00+06:00,
1000000000133533,77007483697,mMTS,mAltel,mAltel,,D77,2016-03-25T19:27:30+06:00,
1000000000133534,77779359555,mKarTel,mKcell,mKarTel,D02,D01,2016-03-25T19:29:08+06:00,
