NPId,Number,RecipientId,DonorId,RangeHolderId,OldRoute,NewRoute,PortDate,RowCount
1000000000319403,77756691555,mMTS,mKcell,mKcell,,D77,2017-01-30T19:42:38+06:00,49
1000000000319414,77023256725,mAltel,mKcell,mKcell,,D07,2017-01-30T19:42:41+06:00,
1000000000319422,77021664899,mAltel,mKcell,mKcell,,D07,2017-01-30T19:42:45+06:00,
1000000000319436,77015443850,mAltel,mKcell,mKcell,,D07,2017-01-30T19:42:47+06:00,
1000000000319441,77772172222,mKcell,mKarTel,mKarTel,,D02,2017-01-30T19:42:25+06:00,
1000000000319442,77017241200,mKcell,mKarTel,mKcell,D01,D02,2017-01-30T19:43:07+06:00,
1000000000319443,77074700041,mKcell,mMTS,mMTS,,D02,2017-01-30T19:42:26+06:00,
1000000000319444,77473270838,mKcell,mMTS,mMTS,,D02,2017-01-30T19:42:25+06:00,
1000000000319446,77771529406,mKcell,mKarTel,mKarTel,,D02,2017-01-30T19:42:25+06:00,
1000000000319448,77772128548,mKcell,mKarTel,mKarTel,,D02,2017-01-30T19:42:33+06:00,
1000000000319449,77772228739,mKcell,mKarTel,mKarTel,,D02,2017-01-30T19:42:25+06:00,
1000000000319450,77772964386,mKcell,mKarTel,mKarTel,,D02,2017-01-30T19:42:26+06:00,
1000000000319451,77074700045,mKcell,mMTS,mMTS,,D02,2017-01-30T19:42:33+06:00,
1000000000319452,77022929988,mKcell,mKarTel,mKcell,D01,D02,2017-01-30T19:42:26+06:00,
1000000000319453,77054679539,mKcell,mKarTel,mKarTel,,D02,2017-01-30T19:42:26+06:00,
1000000000319454,77023572857,mKarTel,mKcell,mKcell,,D01,2017-01-30T19:43:33+06:00,
1000000000319455,77027495027,mKarTel,mKcell,mKcell,,D01,2017-01-30T19:43:15+06:00,
1000000000319457,77015030576,mMTS,mKcell,mKcell,,D77,2017-01-30T19:43:07+06:00,
1000000000319458,77018299972,mAltel,mKcell,mKcell,,D07,2017-01-30T19:42:47+06:00,
1000000000319462,77755845098,mAltel,mKcell,mKcell,,D07,2017-01-30T19:42:51+06:00,
1000000000319465,77012520565,mKarTel,mKcell,mKcell,,D01,2017-01-30T19:43:22+06:00,
1000000000319466,77017107755,mKarTel,mKcell,mKcell,,D01,2017-01-30T19:43:21+06:00,
1000000000319468,77024302228,mMTS,mKcell,mKcell,,D77,2017-01-30T19:42:51+06:00,
1000000000319470,77022080009,mMTS,mKcell,mKcell,,D77,2017-01-30T19:43:07+06:00,
1000000000319471,77026588518,mAltel,mKcell,mKcell,,D07,2017-01-30T19:42:51+06:00,
1000000000319472,77758550055,mAltel,mKcell,mKcell,,D07,2017-01-30T19:43:07+06:00,
1000000000319474,77018857778,mAltel,mKcell,mKcell,,D07,2017-01-30T19:42:53+06:00,
1000000000319481,77017897543,mMTS,mKcell,mKcell,,D77,2017-01-30T19:43:09+06:00,
1000000000319484,77753333066,mMTS,mKcell,mKcell,D02,D77,2017-01-30T19:43:07+06:00,
1000000000319492,77027610117,mKarTel,mKcell,mKcell,,D01,2017-01-30T19:43:08+06:00,
1000000000319495,77015338376,mKarTel,mKcell,mKcell,,D01,2017-01-30T19:43:23+06:00,
1000000000319497,77013137158,mMTS,mKcell,mKcell,,D77,2017-01-30T19:42:57+06:00,
1000000000319500,77029113322,mMTS,mKcell,mKcell,,D77,2017-01-30T19:43:07+06:00,
1000000000319502,77016107860,mKarTel,mKcell,mKcell,,D01,2017-01-30T19:43:08+06:00,
1000000000319506,77022323882,mKarTel,mKcell,mKcell,,D01,2017-01-30T19:43:28+06:00,
1000000000319508,77016107960,mKarTel,mKcell,mKcell,,D01,2017-01-30T19:43:08+06:00,
1000000000319513,77011308808,mMTS,mKcell,mKcell,,D77,2017-01-30T19:43:07+06:00,
1000000000319515,77017257947,mKarTel,mKcell,mKcell,,D01,2017-01-30T19:43:09+06:00,
1000000000319522,77017244033,mKarTel,mKcell,mKcell,,D01,2017-01-30T19:43:22+06:00,
1000000000319524,77022765314,mAltel,mKcell,mKcell,,D07,2017-01-30T19:42:59+06:00,
1000000000319528,77757715979,mKarTel,mKcell,mKcell,,D01,2017-01-30T19:43:34+06:00,
1000000000319537,77787419175,mMTS,mKcell,mKcell,,D77,2017-01-30T19:43:03+06:00,
1000000000319544,77759800888,mKarTel,mKcell,mKcell,,D01,2017-01-30T19:43:40+06:00,
1000000000319548,77079609141,mMTS,mKcell,mMTS,D02,D77,2017-01-30T19:43:26+06:00,
1000000000319557,77019646433,mKarTel,mKcell,mKcell,,D01,2017-01-30T19:43:16+06:00,
1000000000319558,77011812354,mKarTel,mKcell,mKcell,,D01,2017-01-30T19:43:29+06:00,
1000000000319617,77776958761,mMTS,mKarTel,mKarTel,,D77,2017-01-30T19:41:11+06:00,
1000000000319656,77768010101,mKarTel,mMTS,mKarTel,D77,D01,2017-01-30T19:53:04+06:00,
1000000000319660,77072152013,mKarTel,mMTS,mMTS,,D01,2017-01-30T19:58:31+06:00,
