NPId,Number,RecipientId,DonorId,RangeHolderId,OldRoute,NewRoute,PortDate,RowCount
1000000000402199,77762801575,mAltel,mKarTel,mKarTel,,D07,2017-06-13T09:24:46+06:00,2
1000000000402200,77471041376,mKarTel,mMTS,mMTS,,D01,2017-06-13T09:28:17+06:00,
