NPId,Number,RecipientId,DonorId,RangeHolderId,OldRoute,NewRoute,PortDate,RowCount
1000000000344719,77083127648,mMTS,mAltel,mAltel,,D77,2017-03-11T11:01:47+06:00,24
1000000000344720,77755371331,mAltel,mKarTel,mKcell,D01,D07,2017-03-11T11:02:20+06:00,
1000000000344722,77025905903,mMTS,mKcell,mKcell,,D77,2017-03-11T11:04:23+06:00,
1000000000344725,77016353434,mMTS,mKcell,mKcell,,D77,2017-03-11T11:06:52+06:00,
1000000000344726,77751982219,mMTS,mKcell,mKcell,,D77,2017-03-11T11:07:54+06:00,
1000000000344728,77772443978,mAltel,mKarTel,mKarTel,,D07,2017-03-11T11:10:02+06:00,
1000000000344729,77028995253,mMTS,mKcell,mKcell,,D77,2017-03-11T11:11:32+06:00,
1000000000344730,77017283737,mKcell,mMTS,mKcell,D77,D02,2017-03-11T11:12:17+06:00,
1000000000344731,77018791783,mMTS,mKcell,mKcell,,D77,2017-03-11T11:13:45+06:00,
1000000000344732,77755050403,mKarTel,mKcell,mKcell,,D01,2017-03-11T11:14:15+06:00,
1000000000344733,77074466477,mMTS,mKcell,mMTS,D02,D77,2017-03-11T11:14:25+06:00,
1000000000344734,77005360717,mMTS,mAltel,mAltel,,D77,2017-03-11T11:14:44+06:00,
1000000000344735,77025789333,mKcell,mAltel,mKcell,D07,D02,2017-03-11T11:16:49+06:00,
1000000000344736,77783229488,mMTS,mKcell,mKcell,,D77,2017-03-11T11:17:54+06:00,
1000000000344737,77789800503,mKarTel,mAltel,mKcell,D07,D01,2017-03-11T11:18:52+06:00,
1000000000344738,77019498838,mKcell,mMTS,mKcell,D77,D02,2017-03-11T11:19:59+06:00,
1000000000344739,77775713646,mMTS,mKarTel,mKarTel,,D77,2017-03-11T11:21:18+06:00,
1000000000344740,77081238356,mKarTel,mAltel,mAltel,,D01,2017-03-11T11:21:21+06:00,
1000000000344741,77028677768,mKcell,mMTS,mKcell,D77,D02,2017-03-11T11:21:38+06:00,
1000000000344742,77082502005,mKcell,mAltel,mAltel,,D02,2017-03-11T11:21:38+06:00,
1000000000344743,77051095019,mMTS,mKarTel,mKarTel,,D77,2017-03-11T11:23:19+06:00,
1000000000344744,77002515571,mMTS,mAltel,mAltel,,D77,2017-03-11T11:22:46+06:00,
1000000000344747,77773491115,mMTS,mKarTel,mKarTel,,D77,2017-03-11T11:28:01+06:00,
1000000000344748,77015384128,mAltel,mKcell,mKcell,,D07,2017-03-11T11:28:36+06:00,
