NPId,Number,RecipientId,DonorId,RangeHolderId,OldRoute,NewRoute,PortDate,RowCount
1000000000309912,77474944915,mKarTel,mMTS,mMTS,,D01,2017-01-13T10:01:26+06:00,17
1000000000309914,77077566887,mKarTel,mMTS,mMTS,,D01,2017-01-13T10:06:31+06:00,
1000000000309915,77071082828,mAltel,mMTS,mMTS,,D07,2017-01-13T10:07:32+06:00,
1000000000309916,77077566889,mKarTel,mMTS,mMTS,,D01,2017-01-13T10:11:36+06:00,
1000000000309917,77759909607,mKarTel,mKcell,mKcell,,D01,2017-01-13T10:15:39+06:00,
1000000000309918,77012729377,mMTS,mKcell,mKcell,,D77,2017-01-13T10:17:45+06:00,
1000000000309920,77016875641,mMTS,mKcell,mKcell,,D77,2017-01-13T10:19:22+06:00,
1000000000309921,77752231855,mAltel,mMTS,mKcell,D77,D07,2017-01-13T10:20:57+06:00,
1000000000309923,77783405707,mMTS,mKcell,mKcell,,D77,2017-01-13T10:22:44+06:00,
1000000000309924,77771122666,mAltel,mKarTel,mKarTel,,D07,2017-01-13T10:23:08+06:00,
1000000000309925,77025255263,mMTS,mKcell,mKcell,,D77,2017-01-13T10:23:58+06:00,
1000000000309926,77013936799,mKcell,mMTS,mKcell,D77,D02,2017-01-13T10:25:15+06:00,
1000000000309927,77715416871,mMTS,mKarTel,mKarTel,,D77,2017-01-13T10:26:56+06:00,
1000000000309928,77751298503,mMTS,mKcell,mKcell,,D77,2017-01-13T10:28:17+06:00,
1000000000309929,77774560466,mKcell,mKarTel,mKarTel,,D02,2017-01-13T10:29:05+06:00,
1000000000309930,77081979601,mAltel,mKcell,mAltel,D02,D07,2017-01-13T10:28:48+06:00,
1000000000309931,77770666003,mKcell,mMTS,mKarTel,D77,D02,2017-01-13T10:29:01+06:00,
