NPId,Number,RecipientId,DonorId,RangeHolderId,OldRoute,NewRoute,PortDate,RowCount
1000000000352914,77059875541,mKarTel,mKcell,mKarTel,D02,D01,2017-03-27T11:30:26+06:00,31
1000000000352915,77775055333,mKcell,mMTS,mKarTel,D77,D02,2017-03-27T11:31:39+06:00,
1000000000352916,77017264734,mKarTel,mKcell,mKcell,,D01,2017-03-27T11:32:02+06:00,
1000000000352917,77471570128,mKcell,mMTS,mMTS,,D02,2017-03-27T11:32:52+06:00,
1000000000352918,77751545694,mMTS,mKcell,mKcell,,D77,2017-03-27T11:32:53+06:00,
1000000000352919,77010808085,mMTS,mKcell,mKcell,,D77,2017-03-27T11:36:00+06:00,
1000000000352920,77001112005,mMTS,mAltel,mAltel,,D77,2017-03-27T11:38:30+06:00,
1000000000352922,77079000046,mKcell,mMTS,mMTS,,D02,2017-03-27T11:39:25+06:00,
1000000000352923,77471570290,mKcell,mMTS,mMTS,,D02,2017-03-27T11:39:49+06:00,
1000000000352924,77054782929,mMTS,mKarTel,mKarTel,,D77,2017-03-27T11:40:55+06:00,
1000000000352925,77770329526,mAltel,mKarTel,mKarTel,,D07,2017-03-27T11:40:54+06:00,
1000000000352926,77088460386,mKcell,mAltel,mAltel,,D02,2017-03-27T11:41:11+06:00,
1000000000352927,77471570054,mKcell,mMTS,mMTS,,D02,2017-03-27T11:42:43+06:00,
1000000000352928,77763121991,mMTS,mKarTel,mKarTel,,D77,2017-03-27T11:43:13+06:00,
1000000000352930,77471570271,mKcell,mMTS,mMTS,,D02,2017-03-27T11:44:27+06:00,
1000000000352931,77015551404,mAltel,mKcell,mKcell,,D07,2017-03-27T11:45:21+06:00,
1000000000352932,77770260570,mMTS,mKarTel,mKarTel,,D77,2017-03-27T11:46:14+06:00,
1000000000352933,77786066660,mKcell,mKarTel,mKcell,D01,D02,2017-03-27T11:52:36+06:00,
1000000000352934,77775717696,mMTS,mKarTel,mKarTel,,D77,2017-03-27T11:46:45+06:00,
1000000000352936,77473318915,mKcell,mMTS,mMTS,,D02,2017-03-27T11:48:49+06:00,
1000000000352937,77015508626,mKarTel,mKcell,mKcell,,D01,2017-03-27T11:47:39+06:00,
1000000000352938,77070007080,mKcell,mMTS,mMTS,D77,D02,2017-03-27T11:48:03+06:00,
1000000000352939,77019712197,mAltel,mKcell,mKcell,,D07,2017-03-27T11:47:56+06:00,
1000000000352940,77055232888,mKcell,mKarTel,mKarTel,,D02,2017-03-27T11:50:15+06:00,
1000000000352941,77471570273,mKcell,mMTS,mMTS,,D02,2017-03-27T11:51:04+06:00,
1000000000352943,77471570286,mKcell,mMTS,mMTS,,D02,2017-03-27T11:53:06+06:00,
1000000000352945,77075551015,mMTS,mAltel,mMTS,D07,D77,2017-03-27T11:54:14+06:00,
1000000000352946,77471570289,mKcell,mMTS,mMTS,,D02,2017-03-27T11:55:18+06:00,
1000000000352948,77021680204,mAltel,mKcell,mKcell,,D07,2017-03-27T11:56:57+06:00,
1000000000352949,77750001540,mKcell,mMTS,mKcell,D77,D02,2017-03-27T11:57:20+06:00,
1000000000352950,77015137941,mMTS,mKcell,mKcell,,D77,2017-03-27T11:59:27+06:00,
