NPId,Number,RecipientId,DonorId,RangeHolderId,OldRoute,NewRoute,PortDate,RowCount
1000000000437133,77010350860,mKcell,mKarTel,mKcell,D01,D02,2017-08-09T12:42:02+06:00,22
1000000000437170,77082987262,mKarTel,mAltel,mAltel,,D01,2017-08-09T12:31:05+06:00,
1000000000437171,77774287447,mMTS,mKarTel,mKarTel,D01,D77,2017-08-09T12:32:00+06:00,
1000000000437172,77071271064,mMTS,mKarTel,mMTS,D01,D77,2017-08-09T12:31:59+06:00,
1000000000437174,77007110408,mKcell,mAltel,mAltel,,D02,2017-08-09T12:32:48+06:00,
1000000000437176,77076600562,mKcell,mMTS,mMTS,,D02,2017-08-09T12:34:25+06:00,
1000000000437178,77075657780,mKcell,mMTS,mMTS,,D02,2017-08-09T12:36:11+06:00,
1000000000437179,77773950428,mMTS,mKarTel,mKarTel,,D77,2017-08-09T12:37:42+06:00,
1000000000437180,77075457780,mKcell,mMTS,mMTS,,D02,2017-08-09T12:40:07+06:00,
1000000000437181,77772328717,mAltel,mKarTel,mKarTel,,D07,2017-08-09T12:41:02+06:00,
1000000000437184,77751184180,mAltel,mKcell,mKcell,,D07,2017-08-09T12:48:58+06:00,
1000000000437185,77026920117,mMTS,mKcell,mKcell,,D77,2017-08-09T12:49:08+06:00,
1000000000437186,77082580848,mKarTel,mAltel,mAltel,,D01,2017-08-09T12:51:15+06:00,
1000000000437187,77026831735,mMTS,mKcell,mKcell,,D77,2017-08-09T12:52:07+06:00,
1000000000437188,77776865111,mMTS,mKarTel,mKarTel,,D77,2017-08-09T12:54:56+06:00,
1000000000437189,77076244477,mAltel,mMTS,mMTS,,D07,2017-08-09T12:55:01+06:00,
1000000000437190,77075558829,mKcell,mMTS,mMTS,,D02,2017-08-09T12:55:55+06:00,
1000000000437191,77081479397,mKarTel,mAltel,mAltel,,D01,2017-08-09T12:55:58+06:00,
1000000000437192,77775709735,mMTS,mKarTel,mKarTel,,D77,2017-08-09T12:57:17+06:00,
1000000000437194,77081502636,mKarTel,mMTS,mAltel,D77,D01,2017-08-09T12:58:31+06:00,
1000000000437195,77077510809,mAltel,mMTS,mMTS,,D07,2017-08-09T12:58:46+06:00,
1000000000437196,77787505516,mMTS,mKcell,mKcell,,D77,2017-08-09T12:59:27+06:00,
