NPId,Number,RecipientId,DonorId,RangeHolderId,OldRoute,NewRoute,PortDate,RowCount
1000000000250331,77017424492,mKarTel,mKcell,mKcell,,D01,2016-09-26T09:33:12+06:00,5
1000000000250331,77027777502,mKarTel,mKcell,mKcell,,D01,2016-09-26T09:33:12+06:00,
1000000000251002,77082301700,mMTS,mAltel,mAltel,,D77,2016-09-26T09:35:28+06:00,
1000000000251003,77756038144,mMTS,mKcell,mKcell,,D77,2016-09-26T09:37:05+06:00,
1000000000251004,77774904900,mKarTel,mKcell,mKarTel,D02,D01,2016-09-26T09:44:51+06:00,
