NPId,Number,RecipientId,DonorId,RangeHolderId,OldRoute,NewRoute,PortDate,RowCount
1000000000135303,77771122120,mKcell,mKarTel,mKarTel,,D02,2016-03-28T14:00:20+06:00,67
1000000000135304,77767009996,mKcell,mKarTel,mKarTel,,D02,2016-03-28T14:00:19+06:00,
1000000000135305,77768506464,mKcell,mKarTel,mKarTel,,D02,2016-03-28T14:00:41+06:00,
1000000000135307,77760100049,mKcell,mKarTel,mKarTel,,D02,2016-03-28T14:00:42+06:00,
1000000000135308,77760620001,mKcell,mKarTel,mKarTel,,D02,2016-03-28T14:01:31+06:00,
1000000000135309,77761051777,mKcell,mKarTel,mKarTel,,D02,2016-03-28T14:01:32+06:00,
1000000000135310,77767527000,mKcell,mKarTel,mKarTel,,D02,2016-03-28T14:01:30+06:00,
1000000000135311,77760630001,mKcell,mKarTel,mKarTel,,D02,2016-03-28T14:01:57+06:00,
1000000000135312,77760547000,mKcell,mKarTel,mKarTel,,D02,2016-03-28T14:01:56+06:00,
1000000000135313,77760573000,mKcell,mKarTel,mKarTel,,D02,2016-03-28T14:02:17+06:00,
1000000000135314,77785864647,mAltel,mKcell,mKcell,,D07,2016-03-28T14:01:15+06:00,
1000000000135315,77764054000,mKcell,mKarTel,mKarTel,,D02,2016-03-28T14:02:35+06:00,
1000000000135316,77760617000,mKcell,mKarTel,mKarTel,,D02,2016-03-28T14:02:35+06:00,
1000000000135317,77760587000,mKcell,mKarTel,mKarTel,,D02,2016-03-28T14:02:53+06:00,
1000000000135319,77760597000,mKcell,mKarTel,mKarTel,,D02,2016-03-28T14:03:49+06:00,
1000000000135320,77760627000,mKcell,mKarTel,mKarTel,,D02,2016-03-28T14:03:50+06:00,
1000000000135321,77771574935,mKarTel,mAltel,mKarTel,D07,D01,2016-03-28T14:02:05+06:00,
1000000000135322,77052561238,mMTS,mKarTel,mKarTel,,D77,2016-03-28T14:03:03+06:00,
1000000000135323,77760537000,mKcell,mKarTel,mKarTel,,D02,2016-03-28T14:03:50+06:00,
1000000000135324,77771122167,mKcell,mKarTel,mKarTel,,D02,2016-03-28T14:05:03+06:00,
1000000000135325,77083545402,mKcell,mAltel,mAltel,,D02,2016-03-28T14:05:18+06:00,
1000000000135326,77771122165,mKcell,mKarTel,mKarTel,,D02,2016-03-28T14:06:30+06:00,
1000000000135327,77055023074,mMTS,mKarTel,mKarTel,,D77,2016-03-28T14:06:34+06:00,
1000000000135328,77071666066,mKcell,mMTS,mMTS,,D02,2016-03-28T14:06:10+06:00,
1000000000135329,77021465757,mMTS,mKcell,mKcell,,D77,2016-03-28T14:06:28+06:00,
1000000000135330,77771122164,mKcell,mKarTel,mKarTel,,D02,2016-03-28T14:07:56+06:00,
1000000000135331,77027820838,mMTS,mKcell,mKcell,,D77,2016-03-28T14:07:28+06:00,
1000000000135332,77773302683,mMTS,mKarTel,mKarTel,,D77,2016-03-28T14:08:17+06:00,
1000000000135334,77771122158,mKcell,mKarTel,mKarTel,,D02,2016-03-28T14:09:50+06:00,
1000000000135336,77083545401,mKcell,mAltel,mAltel,,D02,2016-03-28T14:09:04+06:00,
1000000000135337,77763686000,mKcell,mKarTel,mKarTel,,D02,2016-03-28T14:10:17+06:00,
1000000000135338,77771122371,mKcell,mKarTel,mKarTel,,D02,2016-03-28T14:10:53+06:00,
1000000000135339,77772720880,mMTS,mKarTel,mKarTel,,D77,2016-03-28T14:26:54+06:00,
1000000000135341,77053793173,mMTS,mKarTel,mKarTel,,D77,2016-03-28T14:11:44+06:00,
1000000000135342,77022145321,mAltel,mKcell,mKcell,,D07,2016-03-28T14:11:12+06:00,
1000000000135343,77771122374,mKcell,mKarTel,mKarTel,,D02,2016-03-28T14:13:05+06:00,
1000000000135344,77718326666,mAltel,mKarTel,mKarTel,,D07,2016-03-28T14:12:39+06:00,
1000000000135345,77471605297,mAltel,mMTS,mMTS,,D07,2016-03-28T14:11:54+06:00,
1000000000135347,77771122375,mKcell,mKarTel,mKarTel,,D02,2016-03-28T14:14:10+06:00,
1000000000135349,77773342820,mMTS,mKarTel,mKarTel,,D77,2016-03-28T14:13:55+06:00,
1000000000135350,77015556840,mKcell,mMTS,mKcell,D77,D02,2016-03-28T14:14:11+06:00,
1000000000135351,77771122096,mKcell,mKarTel,mKarTel,,D02,2016-03-28T14:15:19+06:00,
1000000000135353,77760527000,mKcell,mKarTel,mKarTel,,D02,2016-03-28T14:16:38+06:00,
1000000000135354,77771122356,mKcell,mKarTel,mKarTel,,D02,2016-03-28T14:16:39+06:00,
1000000000135356,77028311183,mKcell,mKarTel,mKcell,D01,D02,2016-03-28T14:17:18+06:00,
1000000000135357,77771122359,mKcell,mKarTel,mKarTel,,D02,2016-03-28T14:18:00+06:00,
1000000000135358,77786690028,mKarTel,mKcell,mKcell,,D01,2016-03-28T14:19:53+06:00,
1000000000135360,77770480070,mAltel,mKarTel,mKarTel,,D07,2016-03-28T14:18:35+06:00,
1000000000135362,77017601515,mKarTel,mKcell,mKcell,,D01,2016-03-28T14:19:54+06:00,
1000000000135364,77776544499,mMTS,mKarTel,mKarTel,,D77,2016-03-28T14:19:29+06:00,
1000000000135365,77771122317,mKcell,mKarTel,mKarTel,,D02,2016-03-28T14:20:40+06:00,
1000000000135367,77771122378,mKcell,mKarTel,mKarTel,,D02,2016-03-28T14:21:47+06:00,
1000000000135368,77011599898,mKcell,mAltel,mKcell,D07,D02,2016-03-28T14:21:11+06:00,
1000000000135371,77770655599,mMTS,mKarTel,mKarTel,,D77,2016-03-28T14:22:36+06:00,
1000000000135372,77073886098,mAltel,mMTS,mMTS,,D07,2016-03-28T14:21:24+06:00,
1000000000135373,77771122310,mKcell,mKarTel,mKarTel,,D02,2016-03-28T14:23:28+06:00,
1000000000135374,77016660434,mKarTel,mKcell,mKcell,,D01,2016-03-28T14:23:01+06:00,
1000000000135375,77771122376,mKcell,mKarTel,mKarTel,,D02,2016-03-28T14:24:02+06:00,
1000000000135376,77021126326,mMTS,mKcell,mKcell,,D77,2016-03-28T14:22:58+06:00,
1000000000135377,77009394681,mKarTel,mAltel,mAltel,,D01,2016-03-28T14:23:30+06:00,
1000000000135379,77002301992,mKcell,mAltel,mAltel,,D02,2016-03-28T14:24:03+06:00,
1000000000135381,77015118111,mKarTel,mKcell,mKcell,,D01,2016-03-28T14:25:35+06:00,
1000000000135384,77789300586,mMTS,mKcell,mKcell,,D77,2016-03-28T14:25:43+06:00,
1000000000135385,77753694702,mMTS,mKcell,mKcell,,D77,2016-03-28T14:25:43+06:00,
1000000000135386,77085336822,mMTS,mAltel,mAltel,,D77,2016-03-28T14:25:50+06:00,
1000000000135388,77011300497,mMTS,mKcell,mKcell,,D77,2016-03-28T14:28:54+06:00,
1000000000135389,77024699793,mMTS,mKcell,mKcell,,D77,2016-03-28T14:29:57+06:00,
