NPId,Number,RecipientId,DonorId,RangeHolderId,OldRoute,NewRoute,PortDate,RowCount
1000000000332090,77017443105,mKarTel,mKcell,mKcell,,D01,2017-02-21T10:18:54+06:00,16
1000000000332090,77017881530,mKarTel,mKcell,mKcell,,D01,2017-02-21T10:18:54+06:00,
1000000000332103,77013939879,mMTS,mKcell,mKcell,,D77,2017-02-21T10:01:03+06:00,
1000000000332104,77021913056,mKcell,mMTS,mKcell,D77,D02,2017-02-21T10:01:47+06:00,
1000000000332105,77073250202,mAltel,mMTS,mMTS,,D07,2017-02-21T10:02:42+06:00,
1000000000332108,77089408955,mKcell,mKarTel,mAltel,D01,D02,2017-02-21T10:12:28+06:00,
1000000000332109,77057050920,mKcell,mKarTel,mKarTel,,D02,2017-02-21T10:12:31+06:00,
1000000000332111,77055567151,mAltel,mKarTel,mKarTel,,D07,2017-02-21T10:19:38+06:00,
1000000000332112,77077170077,mMTS,mKcell,mMTS,D02,D77,2017-02-21T10:19:44+06:00,
1000000000332113,77778820999,mAltel,mKarTel,mKarTel,,D07,2017-02-21T10:20:25+06:00,
1000000000332114,77081988723,mKcell,mAltel,mAltel,,D02,2017-02-21T10:21:33+06:00,
1000000000332115,77089531633,mAltel,mMTS,mAltel,D77,D07,2017-02-21T10:21:31+06:00,
1000000000332117,77764737331,mMTS,mKarTel,mKarTel,,D77,2017-02-21T10:22:43+06:00,
1000000000332118,77011010133,mKcell,mMTS,mKcell,D77,D02,2017-02-21T10:23:04+06:00,
1000000000332119,77052307703,mMTS,mKarTel,mKarTel,,D77,2017-02-21T10:26:24+06:00,
1000000000332120,77051564200,mMTS,mKarTel,mKarTel,,D77,2017-02-21T10:27:55+06:00,
