NPId,Number,RecipientId,DonorId,RangeHolderId,OldRoute,NewRoute,PortDate,RowCount
1000000000288149,77054442246,mKcell,mKarTel,mKarTel,D01,D02,2016-12-01T18:34:49+06:00,9
1000000000288150,77016315134,mMTS,mKcell,mKcell,,D77,2016-12-01T18:36:53+06:00,
1000000000288152,77023438181,mAltel,mMTS,mKcell,D77,D07,2016-12-01T18:42:02+06:00,
1000000000288154,77007774433,mMTS,mKarTel,mAltel,D01,D77,2016-12-01T18:44:31+06:00,
1000000000288155,77076146764,mAltel,mKcell,mMTS,D02,D07,2016-12-01T18:45:47+06:00,
1000000000288158,77759582112,mKarTel,mKcell,mKcell,,D01,2016-12-01T18:51:35+06:00,
1000000000288159,77019153710,mAltel,mKcell,mKcell,,D07,2016-12-01T18:56:36+06:00,
1000000000288160,77767675544,mMTS,mKarTel,mKarTel,,D77,2016-12-01T18:57:34+06:00,
1000000000288161,77017645894,mAltel,mKcell,mKcell,,D07,2016-12-01T18:57:27+06:00,
