NPId,Number,RecipientId,DonorId,RangeHolderId,OldRoute,NewRoute,PortDate,RowCount
1000000000403029,77023233048,mKarTel,mKcell,mKcell,,D01,2017-06-14T12:32:08+06:00,15
1000000000403032,77014527735,mKcell,mMTS,mKcell,D77,D02,2017-06-14T12:35:43+06:00,
1000000000403033,77088018001,mMTS,mAltel,mAltel,,D77,2017-06-14T12:36:08+06:00,
1000000000403034,77078660792,mKarTel,mMTS,mMTS,,D01,2017-06-14T12:36:37+06:00,
1000000000403036,77088058005,mMTS,mAltel,mAltel,,D77,2017-06-14T12:39:57+06:00,
1000000000403038,77770685221,mAltel,mKarTel,mKarTel,,D07,2017-06-14T12:44:11+06:00,
1000000000403040,77004015290,mKarTel,mAltel,mAltel,,D01,2017-06-14T12:45:02+06:00,
1000000000403042,77785430507,mKcell,mMTS,mKcell,D77,D02,2017-06-14T12:46:30+06:00,
1000000000403045,77077224151,mMTS,mAltel,mMTS,D07,D77,2017-06-14T12:47:54+06:00,
1000000000403047,77773222004,mAltel,mMTS,mKarTel,D77,D07,2017-06-14T12:48:39+06:00,
1000000000403048,77473645750,mKarTel,mMTS,mMTS,,D01,2017-06-14T12:49:40+06:00,
1000000000403049,77756665959,mKarTel,mKcell,mKcell,,D01,2017-06-14T12:49:51+06:00,
1000000000403050,77773138881,mAltel,mMTS,mKarTel,D77,D07,2017-06-14T12:49:44+06:00,
1000000000403053,77755342019,mMTS,mKcell,mKcell,,D77,2017-06-14T12:56:19+06:00,
1000000000403055,77009654501,mMTS,mAltel,mAltel,,D77,2017-06-14T12:57:57+06:00,
