NPId,Number,RecipientId,DonorId,RangeHolderId,OldRoute,NewRoute,PortDate,RowCount
1000000000414592,77028699987,mAltel,mKcell,mKcell,,D07,2017-07-01T19:00:04+06:00,19
1000000000414593,77015271623,mAltel,mKcell,mKcell,,D07,2017-07-01T19:00:33+06:00,
1000000000414595,77754137343,mMTS,mKcell,mKcell,,D77,2017-07-01T19:03:40+06:00,
1000000000414596,77026850336,mKarTel,mKcell,mKcell,,D01,2017-07-01T19:06:47+06:00,
1000000000414597,77014677877,mKcell,mMTS,mKcell,D77,D02,2017-07-01T19:07:46+06:00,
1000000000414598,77021372025,mKcell,mMTS,mKcell,D77,D02,2017-07-01T19:07:49+06:00,
1000000000414599,77015315034,mKarTel,mKcell,mKcell,,D01,2017-07-01T19:07:35+06:00,
1000000000414600,77072385885,mKcell,mMTS,mMTS,,D02,2017-07-01T19:09:45+06:00,
1000000000414602,77024489494,mKarTel,mKcell,mKcell,,D01,2017-07-01T19:11:09+06:00,
1000000000414603,77078968819,mAltel,mMTS,mMTS,,D07,2017-07-01T19:11:16+06:00,
1000000000414604,77012123445,mMTS,mKarTel,mKcell,D01,D77,2017-07-01T19:12:25+06:00,
1000000000414605,77022222893,mKarTel,mKcell,mKcell,,D01,2017-07-01T19:12:57+06:00,
1000000000414606,77710426772,mMTS,mKarTel,mKarTel,,D77,2017-07-01T19:17:25+06:00,
1000000000414607,77026743885,mKcell,mKarTel,mKcell,D01,D02,2017-07-01T19:19:47+06:00,
1000000000414608,77023547498,mMTS,mKcell,mKcell,,D77,2017-07-01T19:21:53+06:00,
1000000000414609,77012880280,mKcell,mAltel,mKcell,D07,D02,2017-07-01T19:24:20+06:00,
1000000000414610,77017666391,mKarTel,mKcell,mKcell,,D01,2017-07-01T19:25:24+06:00,
1000000000414611,77025231554,mKarTel,mKcell,mKcell,,D01,2017-07-01T19:26:29+06:00,
1000000000414612,77713783440,mKarTel,mMTS,mKarTel,D77,D01,2017-07-01T19:29:16+06:00,
