NPId,Number,RecipientId,DonorId,RangeHolderId,OldRoute,NewRoute,PortDate,RowCount
1000000000230264,77015139132,mMTS,mKcell,mKcell,,D77,2016-08-17T17:46:03+06:00,20
1000000000230430,77015437522,mMTS,mKcell,mKcell,,D77,2016-08-17T17:46:30+06:00,
1000000000230469,77071011747,mKcell,mMTS,mMTS,,D02,2016-08-17T17:30:12+06:00,
1000000000230471,77772783022,mKcell,mKarTel,mKarTel,,D02,2016-08-17T17:32:49+06:00,
1000000000230472,77018123332,mAltel,mKcell,mKcell,,D07,2016-08-17T17:32:41+06:00,
1000000000230473,77772460788,mKcell,mKarTel,mKarTel,,D02,2016-08-17T17:33:23+06:00,
1000000000230475,77070353055,mKcell,mMTS,mMTS,,D02,2016-08-17T17:36:23+06:00,
1000000000230476,77775888882,mMTS,mKarTel,mKarTel,,D77,2016-08-17T17:37:35+06:00,
1000000000230477,77717920996,mMTS,mKarTel,mKarTel,,D77,2016-08-17T17:38:54+06:00,
1000000000230478,77011287242,mKarTel,mKcell,mKcell,,D01,2016-08-17T17:40:32+06:00,
1000000000230479,77766666628,mMTS,mKarTel,mKarTel,,D77,2016-08-17T17:42:00+06:00,
1000000000230480,77718541546,mAltel,mKarTel,mKarTel,,D07,2016-08-17T17:42:07+06:00,
1000000000230482,77022158836,mMTS,mKcell,mKcell,,D77,2016-08-17T17:43:10+06:00,
1000000000230483,77021122445,mKcell,mAltel,mKcell,D07,D02,2016-08-17T17:44:04+06:00,
1000000000230484,77754666667,mKcell,mMTS,mKcell,D77,D02,2016-08-17T17:44:35+06:00,
1000000000230487,77087661108,mKcell,mAltel,mAltel,,D02,2016-08-17T17:51:08+06:00,
1000000000230488,77057529650,mMTS,mKarTel,mKarTel,,D77,2016-08-17T17:52:59+06:00,
1000000000230489,77003270700,mKcell,mAltel,mAltel,,D02,2016-08-17T17:56:10+06:00,
1000000000230490,77755406666,mKcell,mMTS,mKcell,D77,D02,2016-08-17T17:57:44+06:00,
1000000000230491,77021466089,mMTS,mKcell,mKcell,,D77,2016-08-17T17:58:08+06:00,
