NPId,Number,RecipientId,DonorId,RangeHolderId,OldRoute,NewRoute,PortDate,RowCount
1000000000392552,77752773696,mKcell,mAltel,mKcell,D07,D02,2017-05-30T12:30:15+06:00,31
1000000000392554,77719174219,mKcell,mKarTel,mKarTel,,D02,2017-05-30T12:34:06+06:00,
1000000000392556,77007707666,mMTS,mAltel,mAltel,,D77,2017-05-30T12:34:15+06:00,
1000000000392557,77022506736,mMTS,mKcell,mKcell,,D77,2017-05-30T12:34:34+06:00,
1000000000392558,77071599595,mKcell,mMTS,mMTS,,D02,2017-05-30T12:35:23+06:00,
1000000000392559,77770551188,mKcell,mKarTel,mKarTel,,D02,2017-05-30T12:36:52+06:00,
1000000000392560,77081191029,mMTS,mAltel,mAltel,,D77,2017-05-30T12:37:35+06:00,
1000000000392561,77021059925,mAltel,mKcell,mKcell,,D07,2017-05-30T12:39:05+06:00,
1000000000392562,77777058477,mMTS,mKarTel,mKarTel,,D77,2017-05-30T12:39:28+06:00,
1000000000392563,77017960000,mKarTel,mKcell,mKcell,,D01,2017-05-30T12:40:52+06:00,
1000000000392565,77016139333,mKarTel,mKcell,mKcell,,D01,2017-05-30T12:42:24+06:00,
1000000000392566,77779885808,mKarTel,mKcell,mKarTel,D02,D01,2017-05-30T12:42:54+06:00,
1000000000392567,77027778547,mMTS,mKcell,mKcell,,D77,2017-05-30T12:43:24+06:00,
1000000000392568,77024665696,mKcell,mAltel,mKcell,D07,D02,2017-05-30T12:47:09+06:00,
1000000000392570,77053297245,mMTS,mKarTel,mKarTel,,D77,2017-05-30T12:48:04+06:00,
1000000000392571,77054987644,mMTS,mKarTel,mKarTel,,D77,2017-05-30T12:48:08+06:00,
1000000000392572,77023864974,mMTS,mKcell,mKcell,,D77,2017-05-30T12:47:58+06:00,
1000000000392573,77012936813,mMTS,mKcell,mKcell,,D77,2017-05-30T12:48:02+06:00,
1000000000392574,77088180988,mMTS,mAltel,mAltel,,D77,2017-05-30T12:48:51+06:00,
1000000000392575,77776614446,mKcell,mAltel,mKarTel,D07,D02,2017-05-30T12:50:12+06:00,
1000000000392576,77017655815,mAltel,mKcell,mKcell,,D07,2017-05-30T12:50:07+06:00,
1000000000392578,77072224933,mKcell,mMTS,mMTS,,D02,2017-05-30T12:51:32+06:00,
1000000000392580,77056153141,mMTS,mKarTel,mKarTel,,D77,2017-05-30T12:51:45+06:00,
1000000000392583,77787288080,mAltel,mKcell,mKcell,,D07,2017-05-30T12:54:36+06:00,
1000000000392584,77771349933,mKcell,mKarTel,mKarTel,,D02,2017-05-30T12:55:48+06:00,
1000000000392585,77471713659,mKarTel,mMTS,mMTS,,D01,2017-05-30T12:56:01+06:00,
1000000000392586,77003528918,mKcell,mAltel,mAltel,,D02,2017-05-30T12:56:15+06:00,
1000000000392587,77017283560,mAltel,mKcell,mKcell,D02,D07,2017-05-30T12:56:54+06:00,
1000000000392588,77026645444,mMTS,mKcell,mKcell,,D77,2017-05-30T12:57:54+06:00,
1000000000392589,77017950786,mKarTel,mKcell,mKcell,,D01,2017-05-30T12:58:38+06:00,
1000000000392590,77011389900,mKarTel,mKcell,mKcell,,D01,2017-05-30T12:59:48+06:00,
