NPId,Number,RecipientId,DonorId,RangeHolderId,OldRoute,NewRoute,PortDate,RowCount
1000000000369075,77088080873,mKcell,mAltel,mAltel,,D02,2017-04-20T16:00:33+06:00,39
1000000000369078,77073009028,mKarTel,mMTS,mMTS,,D01,2017-04-20T16:01:32+06:00,
1000000000369080,77764440036,mMTS,mKarTel,mKarTel,,D77,2017-04-20T16:03:01+06:00,
1000000000369081,77718302830,mKcell,mKarTel,mKarTel,,D02,2017-04-20T16:03:23+06:00,
1000000000369082,77786873537,mAltel,mKcell,mKcell,,D07,2017-04-20T16:02:58+06:00,
1000000000369083,77088080879,mKcell,mAltel,mAltel,,D02,2017-04-20T16:04:03+06:00,
1000000000369084,77758258773,mKcell,mMTS,mKcell,D77,D02,2017-04-20T16:05:49+06:00,
1000000000369085,77077339747,mKarTel,mMTS,mMTS,,D01,2017-04-20T16:07:06+06:00,
1000000000369086,77088080874,mKcell,mAltel,mAltel,,D02,2017-04-20T16:07:06+06:00,
1000000000369088,77713588885,mMTS,mKarTel,mKarTel,,D77,2017-04-20T16:08:02+06:00,
1000000000369089,77772558320,mMTS,mKarTel,mKarTel,,D77,2017-04-20T16:08:07+06:00,
1000000000369090,77477339747,mKarTel,mMTS,mMTS,,D01,2017-04-20T16:08:54+06:00,
1000000000369091,77059139362,mKcell,mKarTel,mKarTel,,D02,2017-04-20T16:10:23+06:00,
1000000000369092,77078263243,mKarTel,mMTS,mMTS,,D01,2017-04-20T16:10:05+06:00,
1000000000369094,77071018183,mKarTel,mMTS,mMTS,,D01,2017-04-20T16:10:54+06:00,
1000000000369095,77753338180,mKcell,mMTS,mKcell,D77,D02,2017-04-20T16:11:43+06:00,
1000000000369097,77779115657,mMTS,mKarTel,mKarTel,,D77,2017-04-20T16:12:01+06:00,
1000000000369098,77752230822,mAltel,mKcell,mKcell,,D07,2017-04-20T16:12:08+06:00,
1000000000369101,77007772769,mKcell,mAltel,mAltel,,D02,2017-04-20T16:13:24+06:00,
1000000000369102,77007772685,mKcell,mAltel,mAltel,,D02,2017-04-20T16:13:36+06:00,
1000000000369103,77051859725,mMTS,mKarTel,mKarTel,,D77,2017-04-20T16:13:57+06:00,
1000000000369104,77473110100,mKarTel,mMTS,mMTS,,D01,2017-04-20T16:14:05+06:00,
1000000000369105,77088080871,mKcell,mAltel,mAltel,,D02,2017-04-20T16:17:33+06:00,
1000000000369106,77007772185,mKcell,mAltel,mAltel,,D02,2017-04-20T16:17:12+06:00,
1000000000369107,77014063728,mKarTel,mKcell,mKcell,,D01,2017-04-20T16:17:51+06:00,
1000000000369108,77028863888,mMTS,mKcell,mKcell,,D77,2017-04-20T16:18:56+06:00,
1000000000369109,77007772985,mKcell,mAltel,mAltel,,D02,2017-04-20T16:19:04+06:00,
1000000000369110,77079777733,mKcell,mMTS,mMTS,,D02,2017-04-20T16:19:53+06:00,
1000000000369112,77785338431,mKcell,mAltel,mKcell,D07,D02,2017-04-20T16:20:48+06:00,
1000000000369113,77019819995,mKarTel,mKcell,mKcell,,D01,2017-04-20T16:21:53+06:00,
1000000000369114,77055573399,mKcell,mKarTel,mKarTel,,D02,2017-04-20T16:23:07+06:00,
1000000000369115,77762938989,mAltel,mKarTel,mKarTel,,D07,2017-04-20T16:23:13+06:00,
1000000000369118,77752659708,mKcell,mMTS,mKcell,D77,D02,2017-04-20T16:25:09+06:00,
1000000000369120,77772575888,mKcell,mKarTel,mKarTel,,D02,2017-04-20T16:26:52+06:00,
1000000000369121,77784000058,mAltel,mKcell,mKcell,,D07,2017-04-20T16:27:16+06:00,
1000000000369122,77007772798,mKcell,mAltel,mAltel,,D02,2017-04-20T16:28:33+06:00,
1000000000369123,77007772796,mKcell,mAltel,mAltel,,D02,2017-04-20T16:28:42+06:00,
1000000000369124,77718465551,mMTS,mKarTel,mKarTel,,D77,2017-04-20T16:29:39+06:00,
1000000000369125,77007772763,mKcell,mAltel,mAltel,,D02,2017-04-20T16:29:58+06:00,
