NPId,Number,RecipientId,DonorId,RangeHolderId,OldRoute,NewRoute,PortDate,RowCount
1000000000357117,77007909070,mKcell,mAltel,mAltel,,D02,2017-04-01T09:37:19+06:00,6
1000000000357118,77015183406,mKarTel,mKcell,mKcell,,D01,2017-04-01T09:39:19+06:00,
1000000000357120,77017627222,mKarTel,mKcell,mKcell,,D01,2017-04-01T09:51:06+06:00,
1000000000357121,77007627222,mKarTel,mAltel,mAltel,,D01,2017-04-01T09:51:32+06:00,
1000000000357122,77775009495,mKarTel,mMTS,mKarTel,D77,D01,2017-04-01T09:53:55+06:00,
1000000000357123,77075676364,mMTS,mKarTel,mMTS,D01,D77,2017-04-01T09:55:52+06:00,
