NPId,Number,RecipientId,DonorId,RangeHolderId,OldRoute,NewRoute,PortDate,RowCount
1000000000198009,77018000850,mMTS,mKarTel,mKcell,D01,D77,2016-06-22T17:39:07+06:00,30
1000000000198018,77015551600,mMTS,mKcell,mKcell,,D77,2016-06-22T17:30:36+06:00,
1000000000198019,77021132903,mMTS,mKcell,mKcell,,D77,2016-06-22T17:30:36+06:00,
1000000000198020,77754447461,mKcell,mMTS,mKcell,D77,D02,2016-06-22T17:31:13+06:00,
1000000000198021,77003913895,mKcell,mAltel,mAltel,,D02,2016-06-22T17:31:40+06:00,
1000000000198023,77017708581,mMTS,mKcell,mKcell,,D77,2016-06-22T17:32:23+06:00,
1000000000198024,77778981865,mMTS,mKarTel,mKarTel,,D77,2016-06-22T17:32:35+06:00,
1000000000198025,77059861797,mMTS,mKarTel,mKarTel,,D77,2016-06-22T17:32:35+06:00,
1000000000198026,77778650205,mMTS,mKarTel,mKarTel,,D77,2016-06-22T17:32:31+06:00,
1000000000198027,77017538851,mKarTel,mKcell,mKcell,,D01,2016-06-22T17:35:45+06:00,
1000000000198029,77015661144,mKcell,mAltel,mKcell,D07,D02,2016-06-22T17:36:19+06:00,
1000000000198030,77753588880,mKcell,mKarTel,mKcell,D01,D02,2016-06-22T17:36:47+06:00,
1000000000198031,77071081725,mKcell,mMTS,mMTS,,D02,2016-06-22T17:38:22+06:00,
1000000000198032,77005760000,mKcell,mAltel,mAltel,,D02,2016-06-22T17:39:09+06:00,
1000000000198033,77772372323,mMTS,mKarTel,mKarTel,,D77,2016-06-22T17:40:50+06:00,
1000000000198035,77019221028,mMTS,mKcell,mKcell,,D77,2016-06-22T17:43:07+06:00,
1000000000198038,77772210282,mMTS,mKarTel,mKarTel,,D77,2016-06-22T17:58:25+06:00,
1000000000198039,77007000072,mKcell,mAltel,mAltel,,D02,2016-06-22T17:45:08+06:00,
1000000000198040,77053027999,mKcell,mKarTel,mKarTel,,D02,2016-06-22T17:46:34+06:00,
1000000000198041,77765555352,mKcell,mKarTel,mKarTel,,D02,2016-06-22T17:46:57+06:00,
1000000000198043,77053019777,mKcell,mKarTel,mKarTel,,D02,2016-06-22T17:48:53+06:00,
1000000000198044,77055000477,mKarTel,mAltel,mKarTel,D07,D01,2016-06-22T17:48:49+06:00,
1000000000198045,77021239434,mKarTel,mKcell,mKcell,,D01,2016-06-22T17:50:04+06:00,
1000000000198046,77012929069,mKarTel,mKcell,mKcell,,D01,2016-06-22T17:52:29+06:00,
1000000000198048,77010459393,mKcell,mMTS,mKcell,D77,D02,2016-06-22T17:53:48+06:00,
1000000000198049,77053345656,mKcell,mKarTel,mKarTel,,D02,2016-06-22T17:55:31+06:00,
1000000000198052,77086913621,mMTS,mAltel,mAltel,,D77,2016-06-22T17:57:55+06:00,
1000000000198054,77004442770,mMTS,mAltel,mAltel,,D77,2016-06-22T17:58:13+06:00,
1000000000198055,77770007798,mMTS,mKarTel,mKarTel,,D77,2016-06-22T17:58:53+06:00,
1000000000198056,77080777020,mMTS,mAltel,mAltel,,D77,2016-06-22T17:59:29+06:00,
