NPId,Number,RecipientId,DonorId,RangeHolderId,OldRoute,NewRoute,PortDate,RowCount
1000000000249284,77026606323,mKcell,mKarTel,mKcell,D01,D02,2016-09-22T16:36:41+06:00,17
1000000000249319,77013635139,mKcell,mMTS,mKcell,D77,D02,2016-09-22T16:40:46+06:00,
1000000000249458,77014138025,mKcell,mAltel,mKcell,D07,D02,2016-09-22T16:56:43+06:00,
1000000000249631,77775637777,mKcell,mKarTel,mKarTel,D01,D02,2016-09-22T16:34:12+06:00,
1000000000249635,77713777811,mMTS,mKarTel,mKarTel,,D77,2016-09-22T16:30:35+06:00,
1000000000249636,77786335004,mAltel,mKcell,mKcell,,D07,2016-09-22T16:33:39+06:00,
1000000000249639,77081686868,mAltel,mMTS,mAltel,D77,D07,2016-09-22T16:36:25+06:00,
1000000000249640,77772684485,mKarTel,mAltel,mKarTel,D07,D01,2016-09-22T16:37:41+06:00,
1000000000249641,77027889696,mKcell,mMTS,mKcell,D77,D02,2016-09-22T16:41:51+06:00,
1000000000249642,77003164414,mMTS,mAltel,mAltel,,D77,2016-09-22T16:44:36+06:00,
1000000000249643,77077668606,mKarTel,mMTS,mMTS,,D01,2016-09-22T16:46:01+06:00,
1000000000249645,77051827814,mMTS,mKarTel,mKarTel,,D77,2016-09-22T16:48:06+06:00,
1000000000249649,77005556507,mKcell,mAltel,mAltel,,D02,2016-09-22T16:49:59+06:00,
1000000000249651,77005559507,mKcell,mAltel,mAltel,,D02,2016-09-22T16:51:24+06:00,
1000000000249652,77005556501,mKcell,mAltel,mAltel,,D02,2016-09-22T16:56:56+06:00,
1000000000249653,77005557501,mKcell,mAltel,mAltel,,D02,2016-09-22T16:58:51+06:00,
1000000000249655,77005558501,mKcell,mAltel,mAltel,,D02,2016-09-22T16:59:55+06:00,
