NPId,Number,RecipientId,DonorId,RangeHolderId,OldRoute,NewRoute,PortDate,RowCount
1000000000254355,77750007004,mKcell,mKarTel,mKcell,D01,D02,2016-09-30T18:32:55+06:00,23
1000000000254356,77754932467,mMTS,mKcell,mKcell,,D77,2016-09-30T18:32:29+06:00,
1000000000254358,77082223252,mKarTel,mAltel,mAltel,,D01,2016-09-30T18:34:50+06:00,
1000000000254359,77478353863,mKcell,mMTS,mMTS,,D02,2016-09-30T18:38:00+06:00,
1000000000254360,77777011666,mKarTel,mAltel,mKarTel,D07,D01,2016-09-30T18:41:24+06:00,
1000000000254361,77017498750,mAltel,mKarTel,mKcell,D01,D07,2016-09-30T18:41:38+06:00,
1000000000254363,77004111169,mMTS,mAltel,mAltel,,D77,2016-09-30T18:42:02+06:00,
1000000000254364,77476484267,mKcell,mMTS,mMTS,,D02,2016-09-30T18:43:25+06:00,
1000000000254366,77472776667,mKcell,mMTS,mMTS,D77,D02,2016-09-30T18:45:02+06:00,
1000000000254367,77078040545,mKcell,mMTS,mMTS,,D02,2016-09-30T18:46:57+06:00,
1000000000254368,77476483723,mKcell,mMTS,mMTS,,D02,2016-09-30T18:47:22+06:00,
1000000000254369,77015250055,mAltel,mKcell,mKcell,,D07,2016-09-30T18:47:23+06:00,
1000000000254372,77772434040,mMTS,mKarTel,mKarTel,,D77,2016-09-30T18:48:50+06:00,
1000000000254374,77076154834,mKcell,mMTS,mMTS,,D02,2016-09-30T18:50:02+06:00,
1000000000254376,77028304001,mKcell,mMTS,mKcell,D77,D02,2016-09-30T18:53:50+06:00,
1000000000254377,77076154835,mKcell,mMTS,mMTS,,D02,2016-09-30T18:56:48+06:00,
1000000000254378,77771588158,mMTS,mKarTel,mKarTel,,D77,2016-09-30T18:56:58+06:00,
1000000000254379,77011119053,mKarTel,mAltel,mKcell,D07,D01,2016-09-30T18:57:09+06:00,
1000000000254380,77785088268,mMTS,mKcell,mKcell,,D77,2016-09-30T18:57:35+06:00,
1000000000254381,77754376791,mMTS,mKcell,mKcell,,D77,2016-09-30T18:57:36+06:00,
1000000000254382,77055712121,mMTS,mKarTel,mKarTel,,D77,2016-09-30T18:58:48+06:00,
1000000000254383,77001700808,mMTS,mAltel,mAltel,,D77,2016-09-30T18:58:24+06:00,
1000000000254384,77058386453,mMTS,mKarTel,mKarTel,,D77,2016-09-30T18:59:46+06:00,
