NPId,Number,RecipientId,DonorId,RangeHolderId,OldRoute,NewRoute,PortDate,RowCount
1000000000204232,77016542660,mKcell,mKarTel,mKcell,D01,D02,2016-07-02T11:30:29+06:00,8
1000000000204233,77788914888,mKcell,mMTS,mKcell,D77,D02,2016-07-02T11:32:31+06:00,
1000000000204234,77018720567,mKcell,mAltel,mKcell,D07,D02,2016-07-02T11:34:08+06:00,
1000000000204235,77021270440,mMTS,mKcell,mKcell,,D77,2016-07-02T11:47:44+06:00,
1000000000204236,77015276762,mKcell,mMTS,mKcell,D77,D02,2016-07-02T11:51:06+06:00,
1000000000204237,77077117702,mMTS,mAltel,mMTS,D07,D77,2016-07-02T11:51:37+06:00,
1000000000204238,77712091384,mMTS,mKarTel,mKarTel,,D77,2016-07-02T11:54:36+06:00,
1000000000204239,77759801818,mMTS,mKcell,mKcell,,D77,2016-07-02T11:55:01+06:00,
