NPId,Number,RecipientId,DonorId,RangeHolderId,OldRoute,NewRoute,PortDate,RowCount
1000000000448882,77072209923,mKcell,mMTS,mMTS,,D02,2017-08-30T19:39:54+06:00,8
1000000000448883,77001116175,mKcell,mAltel,mAltel,,D02,2017-08-30T19:46:37+06:00,
1000000000448884,77005005929,mKcell,mAltel,mAltel,,D02,2017-08-30T19:46:40+06:00,
1000000000448886,77001114136,mKcell,mAltel,mAltel,,D02,2017-08-30T19:48:06+06:00,
1000000000448887,77001114162,mKcell,mAltel,mAltel,,D02,2017-08-30T19:48:40+06:00,
1000000000448888,77024315000,mKcell,mMTS,mKcell,D77,D02,2017-08-30T19:49:26+06:00,
1000000000448889,77001005727,mKcell,mAltel,mAltel,,D02,2017-08-30T19:51:44+06:00,
1000000000448890,77001005717,mKcell,mAltel,mAltel,,D02,2017-08-30T19:52:06+06:00,
