NPId,Number,RecipientId,DonorId,RangeHolderId,OldRoute,NewRoute,PortDate,RowCount
1000000000441222,77771709745,mKarTel,mMTS,mKarTel,D77,D01,2017-08-17T15:27:02+06:00,22
1000000000441467,77715900999,mMTS,mKarTel,mKarTel,,D77,2017-08-17T15:00:52+06:00,
1000000000441468,77089888680,mKarTel,mAltel,mAltel,,D01,2017-08-17T15:02:19+06:00,
1000000000441469,77770199198,mMTS,mKarTel,mKarTel,,D77,2017-08-17T15:06:20+06:00,
1000000000441470,77072913298,mKcell,mMTS,mMTS,,D02,2017-08-17T15:08:30+06:00,
1000000000441471,77071577117,mKarTel,mMTS,mMTS,,D01,2017-08-17T15:09:14+06:00,
1000000000441472,77071435353,mKcell,mMTS,mMTS,,D02,2017-08-17T15:11:21+06:00,
1000000000441473,77472825598,mMTS,mAltel,mMTS,D07,D77,2017-08-17T15:10:44+06:00,
1000000000441476,77015442319,mKarTel,mKcell,mKcell,,D01,2017-08-17T15:15:13+06:00,
1000000000441477,77086504808,mMTS,mAltel,mAltel,,D77,2017-08-17T15:15:27+06:00,
1000000000441478,77756666282,mMTS,mKarTel,mKcell,D01,D77,2017-08-17T15:16:44+06:00,
1000000000441479,77074961525,mKarTel,mMTS,mMTS,,D01,2017-08-17T15:17:06+06:00,
1000000000441480,77089254124,mKcell,mAltel,mAltel,,D02,2017-08-17T15:17:37+06:00,
1000000000441481,77075513315,mKarTel,mMTS,mMTS,,D01,2017-08-17T15:18:41+06:00,
1000000000441484,77475161627,mKarTel,mMTS,mMTS,,D01,2017-08-17T15:21:08+06:00,
1000000000441485,77025555654,mKcell,mAltel,mKcell,D07,D02,2017-08-17T15:21:20+06:00,
1000000000441486,77472042804,mKarTel,mMTS,mMTS,,D01,2017-08-17T15:21:50+06:00,
1000000000441488,77012776996,mMTS,mKcell,mKcell,,D77,2017-08-17T15:22:39+06:00,
1000000000441489,77753206786,mAltel,mKcell,mKcell,,D07,2017-08-17T15:23:09+06:00,
1000000000441491,77750005004,mKarTel,mKcell,mKcell,,D01,2017-08-17T15:25:31+06:00,
1000000000441494,77755572169,mAltel,mMTS,mKcell,D77,D07,2017-08-17T15:27:41+06:00,
1000000000441495,77758215564,mKarTel,mKcell,mKcell,,D01,2017-08-17T15:29:44+06:00,
