NPId,Number,RecipientId,DonorId,RangeHolderId,OldRoute,NewRoute,PortDate,RowCount
1000000000406248,77007008090,mKcell,mAltel,mAltel,,D02,2017-06-20T14:31:21+06:00,33
1000000000406249,77003003804,mKcell,mAltel,mAltel,,D02,2017-06-20T14:31:15+06:00,
1000000000406250,77759578814,mMTS,mKcell,mKcell,,D77,2017-06-20T14:31:17+06:00,
1000000000406251,77027581817,mKarTel,mKcell,mKcell,,D01,2017-06-20T14:32:34+06:00,
1000000000406252,77017142221,mKarTel,mMTS,mKcell,D77,D01,2017-06-20T14:34:13+06:00,
1000000000406253,77081094259,mMTS,mAltel,mAltel,,D77,2017-06-20T14:34:11+06:00,
1000000000406254,77014957055,mKarTel,mKcell,mKcell,,D01,2017-06-20T14:36:36+06:00,
1000000000406255,77079852411,mKcell,mMTS,mMTS,,D02,2017-06-20T14:36:29+06:00,
1000000000406257,77760122281,mKcell,mKarTel,mKarTel,,D02,2017-06-20T14:37:55+06:00,
1000000000406259,77762000060,mMTS,mKcell,mKarTel,D02,D77,2017-06-20T14:37:43+06:00,
1000000000406260,77758217767,mKarTel,mMTS,mKcell,D77,D01,2017-06-20T14:38:19+06:00,
1000000000406261,77781101515,mMTS,mKcell,mKcell,,D77,2017-06-20T14:38:31+06:00,
1000000000406262,77015177774,mKcell,mKarTel,mKcell,D01,D02,2017-06-20T14:39:30+06:00,
1000000000406263,77762479937,mKcell,mKarTel,mKarTel,,D02,2017-06-20T14:41:07+06:00,
1000000000406264,77014469980,mKarTel,mMTS,mKcell,D77,D01,2017-06-20T14:40:51+06:00,
1000000000406265,77760122208,mKcell,mKarTel,mKarTel,,D02,2017-06-20T14:41:41+06:00,
1000000000406266,77077293777,mKarTel,mMTS,mMTS,,D01,2017-06-20T14:45:52+06:00,
1000000000406267,77771712288,mKarTel,mAltel,mKarTel,D07,D01,2017-06-20T14:46:42+06:00,
1000000000406268,77001010113,mMTS,mAltel,mAltel,,D77,2017-06-20T14:47:55+06:00,
1000000000406270,77007000630,mKcell,mAltel,mAltel,,D02,2017-06-20T14:49:47+06:00,
1000000000406272,77760122215,mKcell,mKarTel,mKarTel,,D02,2017-06-20T14:50:34+06:00,
1000000000406273,77072246458,mKarTel,mKcell,mMTS,D02,D01,2017-06-20T14:51:36+06:00,
1000000000406274,77021120220,mAltel,mKcell,mKcell,D02,D07,2017-06-20T14:51:27+06:00,
1000000000406276,77760120117,mKcell,mKarTel,mKarTel,,D02,2017-06-20T14:53:01+06:00,
1000000000406279,77780900001,mKarTel,mKcell,mKcell,,D01,2017-06-20T14:52:59+06:00,
1000000000406281,77078372429,mKarTel,mMTS,mMTS,,D01,2017-06-20T14:54:30+06:00,
1000000000406282,77760122218,mKcell,mKarTel,mKarTel,,D02,2017-06-20T14:55:42+06:00,
1000000000406284,77471111012,mKarTel,mMTS,mMTS,,D01,2017-06-20T14:56:44+06:00,
1000000000406285,77004257476,mMTS,mAltel,mAltel,,D77,2017-06-20T14:56:42+06:00,
1000000000406287,77007080089,mMTS,mAltel,mAltel,,D77,2017-06-20T14:57:36+06:00,
1000000000406288,77082001211,mAltel,mKarTel,mAltel,D01,D07,2017-06-20T14:59:24+06:00,
1000000000406289,77071212345,mKcell,mMTS,mMTS,,D02,2017-06-20T14:59:25+06:00,
1000000000406290,77001000809,mMTS,mKcell,mAltel,D02,D77,2017-06-20T14:59:43+06:00,
