NPId,Number,RecipientId,DonorId,RangeHolderId,OldRoute,NewRoute,PortDate,RowCount
1000000000421499,77010352598,mKcell,mKarTel,mKcell,D01,D02,2017-07-14T11:37:26+06:00,33
1000000000421563,77006636722,mMTS,mAltel,mAltel,,D77,2017-07-14T11:30:37+06:00,
1000000000421564,77006636450,mMTS,mAltel,mAltel,,D77,2017-07-14T11:31:45+06:00,
1000000000421565,77006636417,mMTS,mAltel,mAltel,,D77,2017-07-14T11:32:53+06:00,
1000000000421566,77004164510,mKcell,mAltel,mAltel,,D02,2017-07-14T11:34:20+06:00,
1000000000421567,77006636526,mMTS,mAltel,mAltel,,D77,2017-07-14T11:34:26+06:00,
1000000000421568,77089175958,mMTS,mAltel,mAltel,,D77,2017-07-14T11:35:15+06:00,
1000000000421570,77013934180,mKcell,mMTS,mKcell,D77,D02,2017-07-14T11:35:45+06:00,
1000000000421571,77006636383,mMTS,mAltel,mAltel,,D77,2017-07-14T11:35:40+06:00,
1000000000421573,77006636021,mMTS,mAltel,mAltel,,D77,2017-07-14T11:37:15+06:00,
1000000000421574,77017537319,mAltel,mKcell,mKcell,,D07,2017-07-14T11:38:21+06:00,
1000000000421575,77006636327,mMTS,mAltel,mAltel,,D77,2017-07-14T11:38:24+06:00,
1000000000421576,77078189988,mKcell,mKarTel,mMTS,D01,D02,2017-07-14T11:39:16+06:00,
1000000000421577,77074008491,mAltel,mMTS,mMTS,,D07,2017-07-14T11:39:21+06:00,
1000000000421578,77001112851,mMTS,mAltel,mAltel,,D77,2017-07-14T11:39:39+06:00,
1000000000421579,77006636604,mMTS,mAltel,mAltel,,D77,2017-07-14T11:39:53+06:00,
1000000000421580,77754747222,mAltel,mKcell,mKcell,,D07,2017-07-14T11:40:34+06:00,
1000000000421582,77015295372,mKarTel,mKcell,mKcell,,D01,2017-07-14T11:41:18+06:00,
1000000000421583,77006636404,mMTS,mAltel,mAltel,,D77,2017-07-14T11:41:17+06:00,
1000000000421584,77072101221,mAltel,mMTS,mMTS,,D07,2017-07-14T11:42:14+06:00,
1000000000421585,77006636434,mMTS,mAltel,mAltel,,D77,2017-07-14T11:42:36+06:00,
1000000000421586,77015956535,mAltel,mKcell,mKcell,,D07,2017-07-14T11:43:09+06:00,
1000000000421587,77787101510,mAltel,mKcell,mKcell,,D07,2017-07-14T11:43:45+06:00,
1000000000421588,77006636181,mMTS,mAltel,mAltel,,D77,2017-07-14T11:43:49+06:00,
1000000000421589,77055839730,mKarTel,mMTS,mKarTel,D77,D01,2017-07-14T11:44:40+06:00,
1000000000421594,77006636607,mMTS,mAltel,mAltel,,D77,2017-07-14T11:47:36+06:00,
1000000000421596,77775555075,mKarTel,mKcell,mKarTel,D02,D01,2017-07-14T11:50:33+06:00,
1000000000421597,77753975032,mAltel,mKcell,mKcell,,D07,2017-07-14T11:52:12+06:00,
1000000000421598,77003147950,mKarTel,mAltel,mAltel,,D01,2017-07-14T11:52:45+06:00,
1000000000421600,77006636602,mMTS,mAltel,mAltel,,D77,2017-07-14T11:55:14+06:00,
1000000000421601,77074008805,mKarTel,mMTS,mMTS,,D01,2017-07-14T11:56:02+06:00,
1000000000421602,77015131606,mKcell,mMTS,mKcell,D77,D02,2017-07-14T11:58:24+06:00,
1000000000421603,77751037211,mMTS,mKcell,mKcell,,D77,2017-07-14T11:58:40+06:00,
