NPId,Number,RecipientId,DonorId,RangeHolderId,OldRoute,NewRoute,PortDate,RowCount
1000000000132254,77771127122,mKcell,mKarTel,mKarTel,,D02,2016-03-24T16:00:32+06:00,31
1000000000132256,77054721961,mKcell,mKarTel,mKarTel,,D02,2016-03-24T16:00:59+06:00,
1000000000132258,77021333336,mMTS,mKcell,mKcell,,D77,2016-03-24T16:00:56+06:00,
1000000000132259,77019512282,mAltel,mKcell,mKcell,,D07,2016-03-24T16:02:42+06:00,
1000000000132261,77779782248,mAltel,mKarTel,mKarTel,,D07,2016-03-24T16:04:06+06:00,
1000000000132262,77029440404,mKcell,mAltel,mKcell,D07,D02,2016-03-24T16:03:55+06:00,
1000000000132266,77011424799,mMTS,mKcell,mKcell,,D77,2016-03-24T16:05:04+06:00,
1000000000132267,77087673000,mMTS,mAltel,mAltel,,D77,2016-03-24T16:06:41+06:00,
1000000000132270,77789085550,mMTS,mKcell,mKcell,,D77,2016-03-24T16:07:37+06:00,
1000000000132271,77022423032,mMTS,mKcell,mKcell,,D77,2016-03-24T16:08:05+06:00,
1000000000132273,77776235918,mMTS,mKarTel,mKarTel,,D77,2016-03-24T16:10:36+06:00,
1000000000132277,77013225030,mMTS,mKcell,mKcell,,D77,2016-03-24T16:12:09+06:00,
1000000000132278,77753847970,mMTS,mKcell,mKcell,,D77,2016-03-24T16:12:39+06:00,
1000000000132279,77770852222,mAltel,mKarTel,mKarTel,,D07,2016-03-24T16:14:10+06:00,
1000000000132280,77770217201,mMTS,mKarTel,mKarTel,,D77,2016-03-24T16:15:02+06:00,
1000000000132282,77788885095,mAltel,mKcell,mKcell,,D07,2016-03-24T16:15:46+06:00,
1000000000132285,77713531607,mMTS,mKarTel,mKarTel,,D77,2016-03-24T16:17:04+06:00,
1000000000132286,77013331723,mKcell,mAltel,mKcell,D07,D02,2016-03-24T16:16:41+06:00,
1000000000132296,77023002818,mMTS,mKcell,mKcell,,D77,2016-03-24T16:21:28+06:00,
1000000000132297,77004045833,mMTS,mAltel,mAltel,,D77,2016-03-24T16:21:55+06:00,
1000000000132299,77017597794,mKarTel,mKcell,mKcell,,D01,2016-03-24T16:22:44+06:00,
1000000000132300,77054110111,mMTS,mKarTel,mKarTel,,D77,2016-03-24T16:24:01+06:00,
1000000000132301,77471112419,mKarTel,mMTS,mMTS,,D01,2016-03-24T16:23:59+06:00,
1000000000132302,77015694445,mKcell,mMTS,mKcell,D77,D02,2016-03-24T16:24:36+06:00,
1000000000132303,77059991899,mKcell,mKarTel,mKarTel,,D02,2016-03-24T16:26:10+06:00,
1000000000132304,77011112861,mAltel,mKcell,mKcell,,D07,2016-03-24T16:25:54+06:00,
1000000000132305,77017686007,mMTS,mKcell,mKcell,,D77,2016-03-24T16:25:54+06:00,
1000000000132306,77471112417,mKarTel,mMTS,mMTS,,D01,2016-03-24T16:25:59+06:00,
1000000000132307,77028333313,mAltel,mKcell,mKcell,,D07,2016-03-24T16:26:44+06:00,
1000000000132309,77783874700,mAltel,mKcell,mKcell,,D07,2016-03-24T16:27:31+06:00,
1000000000132311,77019121070,mMTS,mKcell,mKcell,,D77,2016-03-24T16:29:37+06:00,
