NPId,Number,RecipientId,DonorId,RangeHolderId,OldRoute,NewRoute,PortDate,RowCount
1000000000294875,77077676866,mMTS,mKarTel,mMTS,D01,D77,2016-12-14T09:20:11+06:00,4
1000000000294876,77000906090,mKarTel,mAltel,mAltel,,D01,2016-12-14T09:22:12+06:00,
1000000000294877,77788404890,mMTS,mKcell,mKcell,,D77,2016-12-14T09:24:23+06:00,
1000000000294878,77029333369,mKarTel,mKcell,mKcell,,D01,2016-12-14T09:29:28+06:00,
