NPId,Number,RecipientId,DonorId,RangeHolderId,OldRoute,NewRoute,PortDate,RowCount
1000000000215913,77013827389,mKcell,mAltel,mKcell,D07,D02,2016-07-23T12:00:30+06:00,16
1000000000215914,77027832363,mKarTel,mKcell,mKcell,,D01,2016-07-23T12:01:13+06:00,
1000000000215916,77719139909,mAltel,mKarTel,mKarTel,,D07,2016-07-23T12:04:04+06:00,
1000000000215918,77023330046,mMTS,mKcell,mKcell,,D77,2016-07-23T12:05:50+06:00,
1000000000215920,77472002040,mKarTel,mMTS,mMTS,,D01,2016-07-23T12:11:04+06:00,
1000000000215921,77755408278,mKcell,mMTS,mKcell,D77,D02,2016-07-23T12:11:34+06:00,
1000000000215923,77711922222,mKcell,mKarTel,mKarTel,,D02,2016-07-23T12:15:44+06:00,
1000000000215925,77054403243,mMTS,mKarTel,mKarTel,,D77,2016-07-23T12:18:07+06:00,
1000000000215926,77072506099,mKarTel,mMTS,mMTS,,D01,2016-07-23T12:18:05+06:00,
1000000000215927,77776666651,mMTS,mKarTel,mKarTel,,D77,2016-07-23T12:19:35+06:00,
1000000000215928,77077718118,mAltel,mMTS,mMTS,,D07,2016-07-23T12:20:42+06:00,
1000000000215929,77058370271,mMTS,mKarTel,mKarTel,,D77,2016-07-23T12:22:18+06:00,
1000000000215930,77017374818,mKarTel,mKcell,mKcell,,D01,2016-07-23T12:23:04+06:00,
1000000000215931,77752299447,mMTS,mKcell,mKcell,,D77,2016-07-23T12:24:13+06:00,
1000000000215932,77079199525,mAltel,mMTS,mMTS,,D07,2016-07-23T12:24:19+06:00,
1000000000215933,77471141040,mKarTel,mMTS,mMTS,,D01,2016-07-23T12:29:08+06:00,
