NPId,Number,RecipientId,DonorId,RangeHolderId,OldRoute,NewRoute,PortDate,RowCount
1000000000324827,77757061992,mKarTel,mKcell,mKcell,,D01,2017-02-06T18:04:47+06:00,24
1000000000324828,77777107979,mKcell,mKarTel,mKarTel,,D02,2017-02-06T18:06:01+06:00,
1000000000324831,77774664433,mMTS,mKarTel,mKarTel,,D77,2017-02-06T18:07:52+06:00,
1000000000324832,77754034085,mMTS,mKcell,mKcell,,D77,2017-02-06T18:08:50+06:00,
1000000000324833,77025609134,mMTS,mKcell,mKcell,,D77,2017-02-06T18:09:32+06:00,
1000000000324834,77012708970,mAltel,mKcell,mKcell,,D07,2017-02-06T18:09:33+06:00,
1000000000324835,77015337435,mKarTel,mKcell,mKcell,,D01,2017-02-06T18:10:56+06:00,
1000000000324836,77017857505,mMTS,mKcell,mKcell,,D77,2017-02-06T18:10:57+06:00,
1000000000324837,77074235522,mAltel,mMTS,mMTS,,D07,2017-02-06T18:12:09+06:00,
1000000000324839,77757803520,mAltel,mKcell,mKcell,,D07,2017-02-06T18:12:46+06:00,
1000000000324840,77024892725,mKarTel,mKcell,mKcell,,D01,2017-02-06T18:13:43+06:00,
1000000000324841,77784473888,mMTS,mKcell,mKcell,,D77,2017-02-06T18:14:59+06:00,
1000000000324843,77775007402,mMTS,mKarTel,mKarTel,,D77,2017-02-06T18:19:15+06:00,
1000000000324844,77789987899,mKarTel,mKcell,mKcell,,D01,2017-02-06T18:19:47+06:00,
1000000000324845,77760040435,mKcell,mKarTel,mKarTel,,D02,2017-02-06T18:20:36+06:00,
1000000000324846,77759424537,mKarTel,mKcell,mKcell,,D01,2017-02-06T18:22:15+06:00,
1000000000324848,77000840229,mKcell,mAltel,mAltel,,D02,2017-02-06T18:22:44+06:00,
1000000000324849,77760040425,mKcell,mKarTel,mKarTel,,D02,2017-02-06T18:24:31+06:00,
1000000000324850,77000840725,mKcell,mAltel,mAltel,,D02,2017-02-06T18:24:19+06:00,
1000000000324851,77473588676,mAltel,mMTS,mMTS,,D07,2017-02-06T18:25:26+06:00,
1000000000324852,77711148725,mKcell,mKarTel,mKarTel,,D02,2017-02-06T18:26:15+06:00,
1000000000324856,77760040428,mKcell,mKarTel,mKarTel,,D02,2017-02-06T18:29:36+06:00,
1000000000324857,77015337480,mKarTel,mKcell,mKcell,,D01,2017-02-06T18:29:35+06:00,
1000000000324858,77757471302,mMTS,mKcell,mKcell,,D77,2017-02-06T18:29:49+06:00,
