NPId,Number,RecipientId,DonorId,RangeHolderId,OldRoute,NewRoute,PortDate,RowCount
1000000000325548,77715261288,mKcell,mMTS,mKarTel,D77,D02,2017-02-07T19:04:13+06:00,4
1000000000325550,77781376225,mKarTel,mKcell,mKcell,,D01,2017-02-07T19:08:43+06:00,
1000000000325551,77759091184,mKarTel,mKcell,mKcell,,D01,2017-02-07T19:10:14+06:00,
1000000000325552,77785491875,mKarTel,mKcell,mKcell,,D01,2017-02-07T19:11:27+06:00,
