NPId,Number,RecipientId,DonorId,RangeHolderId,OldRoute,NewRoute,PortDate,RowCount
1000000000435889,77017461974,mMTS,mKcell,mKcell,,D77,2017-08-07T11:00:43+06:00,21
1000000000435890,77786878080,mKcell,mMTS,mKcell,D77,D02,2017-08-07T11:01:53+06:00,
1000000000435892,77765300077,mAltel,mKarTel,mKarTel,,D07,2017-08-07T11:02:00+06:00,
1000000000435893,77071106050,mMTS,mKcell,mMTS,D02,D77,2017-08-07T11:04:08+06:00,
1000000000435894,77058172004,mKarTel,mMTS,mKarTel,D77,D01,2017-08-07T11:05:46+06:00,
1000000000435896,77776876305,mMTS,mKarTel,mKarTel,,D77,2017-08-07T11:07:43+06:00,
1000000000435898,77755919992,mKarTel,mAltel,mKcell,D07,D01,2017-08-07T11:10:59+06:00,
1000000000435901,77010545777,mKarTel,mMTS,mKcell,D77,D01,2017-08-07T11:15:28+06:00,
1000000000435903,77003314494,mKarTel,mAltel,mAltel,,D01,2017-08-07T11:16:01+06:00,
1000000000435904,77477630190,mMTS,mAltel,mMTS,D07,D77,2017-08-07T11:15:57+06:00,
1000000000435905,77780303333,mMTS,mKcell,mKcell,,D77,2017-08-07T11:17:10+06:00,
1000000000435906,77766676664,mMTS,mKarTel,mKarTel,,D77,2017-08-07T11:17:36+06:00,
1000000000435907,77052546280,mMTS,mKarTel,mKarTel,,D77,2017-08-07T11:17:57+06:00,
1000000000435908,77077743743,mKarTel,mMTS,mMTS,,D01,2017-08-07T11:17:43+06:00,
1000000000435910,77004570035,mKarTel,mAltel,mAltel,,D01,2017-08-07T11:19:01+06:00,
1000000000435911,77019441958,mKcell,mAltel,mKcell,D07,D02,2017-08-07T11:20:05+06:00,
1000000000435912,77760770757,mKcell,mKarTel,mKarTel,,D02,2017-08-07T11:22:25+06:00,
1000000000435916,77017591577,mKarTel,mKcell,mKcell,,D01,2017-08-07T11:26:56+06:00,
1000000000435917,77752783278,mMTS,mKcell,mKcell,,D77,2017-08-07T11:27:12+06:00,
1000000000435919,77023166177,mMTS,mKcell,mKcell,,D77,2017-08-07T11:27:40+06:00,
1000000000435920,77019383902,mMTS,mKcell,mKcell,D02,D77,2017-08-07T11:28:13+06:00,
