NPId,Number,RecipientId,DonorId,RangeHolderId,OldRoute,NewRoute,PortDate,RowCount
1000000000174172,77079907299,mKarTel,mMTS,mMTS,,D01,2016-05-14T15:30:20+06:00,25
1000000000174176,77027011585,mMTS,mKcell,mKcell,,D77,2016-05-14T15:33:39+06:00,
1000000000174177,77000906909,mMTS,mAltel,mAltel,,D77,2016-05-14T15:33:57+06:00,
1000000000174178,77013662012,mMTS,mKcell,mKcell,,D77,2016-05-14T15:35:12+06:00,
1000000000174179,77015855382,mMTS,mKcell,mKcell,,D77,2016-05-14T15:35:11+06:00,
1000000000174180,77029876540,mKarTel,mKcell,mKcell,,D01,2016-05-14T15:36:23+06:00,
1000000000174183,77055014432,mMTS,mKarTel,mKarTel,,D77,2016-05-14T15:38:02+06:00,
1000000000174184,77772258737,mKarTel,mAltel,mKarTel,D07,D01,2016-05-14T15:38:13+06:00,
1000000000174186,77776447037,mKarTel,mAltel,mKarTel,D07,D01,2016-05-14T15:40:21+06:00,
1000000000174188,77784744999,mMTS,mKcell,mKcell,,D77,2016-05-14T15:42:28+06:00,
1000000000174189,77772977037,mKarTel,mAltel,mKarTel,D07,D01,2016-05-14T15:42:53+06:00,
1000000000174190,77016020292,mKcell,mMTS,mKcell,D77,D02,2016-05-14T15:44:32+06:00,
1000000000174191,77770375113,mMTS,mKarTel,mKarTel,,D77,2016-05-14T15:45:17+06:00,
1000000000174193,77081481018,mMTS,mAltel,mAltel,,D77,2016-05-14T15:45:09+06:00,
1000000000174194,77013440030,mMTS,mKcell,mKcell,,D77,2016-05-14T15:45:39+06:00,
1000000000174195,77089197212,mKarTel,mAltel,mAltel,,D01,2016-05-14T15:46:55+06:00,
1000000000174197,77055372195,mMTS,mKarTel,mKarTel,,D77,2016-05-14T15:48:17+06:00,
1000000000174199,77051853888,mMTS,mAltel,mKarTel,D07,D77,2016-05-14T15:52:20+06:00,
1000000000174200,77073146444,mAltel,mMTS,mMTS,,D07,2016-05-14T15:52:27+06:00,
1000000000174202,77089383107,mMTS,mAltel,mAltel,,D77,2016-05-14T15:53:09+06:00,
1000000000174203,77017502154,mMTS,mKcell,mKcell,,D77,2016-05-14T15:53:51+06:00,
1000000000174204,77085247197,mKcell,mAltel,mAltel,,D02,2016-05-14T15:54:59+06:00,
1000000000174205,77052025164,mMTS,mKarTel,mKarTel,,D77,2016-05-14T15:55:54+06:00,
1000000000174209,77788406630,mKcell,mAltel,mKcell,D07,D02,2016-05-14T15:59:39+06:00,
1000000000174213,77472260747,mKarTel,mMTS,mMTS,,D01,2016-05-14T15:59:36+06:00,
