NPId,Number,RecipientId,DonorId,RangeHolderId,OldRoute,NewRoute,PortDate,RowCount
1000000000328863,77475700705,mAltel,mMTS,mMTS,,D07,2017-02-14T16:30:37+06:00,18
1000000000328864,77057037997,mAltel,mKarTel,mKarTel,,D07,2017-02-14T16:31:23+06:00,
1000000000328865,77029969909,mKarTel,mKcell,mKcell,,D01,2017-02-14T16:34:35+06:00,
1000000000328866,77016638666,mKcell,mMTS,mKcell,D77,D02,2017-02-14T16:34:46+06:00,
1000000000328868,77774686507,mMTS,mKcell,mKarTel,D02,D77,2017-02-14T16:35:56+06:00,
1000000000328869,77071975738,mKarTel,mMTS,mMTS,,D01,2017-02-14T16:37:19+06:00,
1000000000328871,77021407878,mMTS,mKcell,mKcell,,D77,2017-02-14T16:40:37+06:00,
1000000000328872,77024935688,mAltel,mKcell,mKcell,,D07,2017-02-14T16:41:40+06:00,
1000000000328874,77019678888,mAltel,mKcell,mKcell,,D07,2017-02-14T16:42:06+06:00,
1000000000328876,77079220960,mKcell,mMTS,mMTS,,D02,2017-02-14T16:43:19+06:00,
1000000000328877,77015502593,mKarTel,mAltel,mKcell,D07,D01,2017-02-14T16:44:12+06:00,
1000000000328879,77473801464,mAltel,mMTS,mMTS,,D07,2017-02-14T16:49:33+06:00,
1000000000328882,77052949112,mKarTel,mKcell,mKarTel,D02,D01,2017-02-14T16:51:22+06:00,
1000000000328883,77083303331,mMTS,mAltel,mAltel,,D77,2017-02-14T16:51:10+06:00,
1000000000328884,77078660108,mMTS,mKarTel,mMTS,D01,D77,2017-02-14T16:52:28+06:00,
1000000000328886,77053037511,mKcell,mKarTel,mKarTel,,D02,2017-02-14T16:53:12+06:00,
1000000000328887,77755111338,mKcell,mMTS,mKcell,D77,D02,2017-02-14T16:53:49+06:00,
1000000000328888,77777772771,mKcell,mKarTel,mKarTel,,D02,2017-02-14T16:56:45+06:00,
