NPId,Number,RecipientId,DonorId,RangeHolderId,OldRoute,NewRoute,PortDate,RowCount
1000000000351972,77715129337,mKarTel,mAltel,mKarTel,D07,D01,2017-03-25T09:02:54+06:00,3
1000000000351974,77752107909,mKcell,mMTS,mKcell,D77,D02,2017-03-25T09:11:38+06:00,
1000000000351975,77712874277,mKcell,mKarTel,mKarTel,,D02,2017-03-25T09:15:21+06:00,
