NPId,Number,RecipientId,DonorId,RangeHolderId,OldRoute,NewRoute,PortDate,RowCount
1000000000130184,77055859988,mMTS,mKarTel,mKarTel,,D77,2016-03-21T12:00:55+06:00,30
1000000000130185,77019992265,mMTS,mKcell,mKcell,,D77,2016-03-21T12:01:08+06:00,
1000000000130187,77071110205,mKcell,mMTS,mMTS,,D02,2016-03-21T12:02:04+06:00,
1000000000130188,77752302350,mMTS,mKcell,mKcell,,D77,2016-03-21T12:02:26+06:00,
1000000000130190,77779379993,mAltel,mKarTel,mKarTel,,D07,2016-03-21T12:03:20+06:00,
1000000000130194,77051114255,mKcell,mKarTel,mKarTel,,D02,2016-03-21T12:05:38+06:00,
1000000000130195,77018081973,mMTS,mKcell,mKcell,,D77,2016-03-21T12:06:29+06:00,
1000000000130196,77757177703,mAltel,mKcell,mKcell,,D07,2016-03-21T12:07:10+06:00,
1000000000130197,77051114201,mKcell,mKarTel,mKarTel,,D02,2016-03-21T12:09:07+06:00,
1000000000130198,77019994408,mMTS,mKcell,mKcell,,D77,2016-03-21T12:07:34+06:00,
1000000000130199,77024997532,mMTS,mKcell,mKcell,,D77,2016-03-21T12:08:12+06:00,
1000000000130200,77767679797,mMTS,mKarTel,mKarTel,,D77,2016-03-21T12:10:35+06:00,
1000000000130201,77017642816,mMTS,mKcell,mKcell,,D77,2016-03-21T12:10:06+06:00,
1000000000130202,77012114197,mAltel,mKcell,mKcell,,D07,2016-03-21T12:10:29+06:00,
1000000000130203,77021216627,mMTS,mKcell,mKcell,,D77,2016-03-21T12:11:05+06:00,
1000000000130204,77002656999,mMTS,mAltel,mAltel,,D77,2016-03-21T12:11:38+06:00,
1000000000130205,77716386795,mMTS,mKarTel,mKarTel,,D77,2016-03-21T12:13:01+06:00,
1000000000130206,77477531429,mKcell,mMTS,mMTS,,D02,2016-03-21T12:12:17+06:00,
1000000000130208,77011784241,mMTS,mKcell,mKcell,,D77,2016-03-21T12:13:18+06:00,
1000000000130209,77477000114,mMTS,mAltel,mMTS,D07,D77,2016-03-21T12:14:38+06:00,
1000000000130211,77056868420,mKcell,mKarTel,mKarTel,,D02,2016-03-21T12:17:19+06:00,
1000000000130212,77000990110,mAltel,mKarTel,mAltel,D01,D07,2016-03-21T12:18:39+06:00,
1000000000130214,77750002887,mKcell,mAltel,mKcell,D07,D02,2016-03-21T12:20:14+06:00,
1000000000130216,77473046272,mMTS,mAltel,mMTS,D07,D77,2016-03-21T12:20:44+06:00,
1000000000130219,77021244043,mMTS,mKcell,mKcell,,D77,2016-03-21T12:22:15+06:00,
1000000000130220,77013343737,mKcell,mAltel,mKcell,D07,D02,2016-03-21T12:23:15+06:00,
1000000000130223,77753722867,mAltel,mKcell,mKcell,,D07,2016-03-21T12:25:41+06:00,
1000000000130224,77027273223,mMTS,mKcell,mKcell,,D77,2016-03-21T12:26:24+06:00,
1000000000130225,77789333394,mMTS,mKcell,mKcell,,D77,2016-03-21T12:26:25+06:00,
1000000000130227,77016223437,mMTS,mKcell,mKcell,,D77,2016-03-21T12:27:17+06:00,
