NPId,Number,RecipientId,DonorId,RangeHolderId,OldRoute,NewRoute,PortDate,RowCount
1000000000158047,77052315252,mMTS,mKarTel,mKarTel,,D77,2016-04-22T14:30:31+06:00,26
1000000000158049,77087545336,mMTS,mAltel,mAltel,,D77,2016-04-22T14:30:18+06:00,
1000000000158050,77017658040,mMTS,mKcell,mKcell,,D77,2016-04-22T14:31:18+06:00,
1000000000158052,77754021138,mMTS,mKcell,mKcell,,D77,2016-04-22T14:33:29+06:00,
1000000000158053,77782332585,mMTS,mKcell,mKcell,,D77,2016-04-22T14:35:08+06:00,
1000000000158055,77029200062,mMTS,mKcell,mKcell,,D77,2016-04-22T14:37:00+06:00,
1000000000158056,77087595625,mMTS,mAltel,mAltel,,D77,2016-04-22T14:37:07+06:00,
1000000000158057,77003844050,mMTS,mAltel,mAltel,,D77,2016-04-22T14:37:49+06:00,
1000000000158059,77015121882,mKcell,mKarTel,mKcell,D01,D02,2016-04-22T14:57:37+06:00,
1000000000158059,77015222007,mKcell,mKarTel,mKcell,D01,D02,2016-04-22T14:57:37+06:00,
1000000000158059,77019651886,mKcell,mKarTel,mKcell,D01,D02,2016-04-22T14:57:37+06:00,
1000000000158059,77019651890,mKcell,mKarTel,mKcell,D01,D02,2016-04-22T14:57:37+06:00,
1000000000158061,77089036366,mKarTel,mAltel,mAltel,,D01,2016-04-22T14:41:53+06:00,
1000000000158062,77015121873,mKcell,mKarTel,mKcell,D01,D02,2016-04-22T14:58:51+06:00,
1000000000158064,77759313232,mMTS,mAltel,mKcell,D07,D77,2016-04-22T14:44:18+06:00,
1000000000158065,77011999093,mAltel,mKcell,mKcell,,D07,2016-04-22T14:46:01+06:00,
1000000000158066,77082830307,mMTS,mAltel,mAltel,,D77,2016-04-22T14:48:09+06:00,
1000000000158067,77001209890,mMTS,mAltel,mAltel,,D77,2016-04-22T14:48:21+06:00,
1000000000158068,77018497558,mMTS,mAltel,mKcell,D07,D77,2016-04-22T14:48:40+06:00,
1000000000158069,77010140039,mMTS,mKcell,mKcell,,D77,2016-04-22T14:51:03+06:00,
1000000000158071,77056480223,mMTS,mKarTel,mKarTel,,D77,2016-04-22T14:54:55+06:00,
1000000000158072,77012247515,mKarTel,mKcell,mKcell,,D01,2016-04-22T14:55:53+06:00,
1000000000158073,77011110618,mKarTel,mAltel,mKcell,D07,D01,2016-04-22T14:56:17+06:00,
1000000000158075,77753326464,mKcell,mAltel,mKcell,D07,D02,2016-04-22T14:59:22+06:00,
1000000000158076,77072888956,mKarTel,mMTS,mMTS,,D01,2016-04-22T14:59:00+06:00,
1000000000158077,77072513360,mMTS,mAltel,mMTS,D07,D77,2016-04-22T14:59:07+06:00,
