NPId,Number,RecipientId,DonorId,RangeHolderId,OldRoute,NewRoute,PortDate,RowCount
1000000000235830,77015646732,mKcell,mMTS,mKcell,D77,D02,2016-08-29T14:00:57+06:00,30
1000000000235833,77017132163,mMTS,mKcell,mKcell,,D77,2016-08-29T14:01:32+06:00,
1000000000235834,77786443643,mKcell,mMTS,mKcell,D77,D02,2016-08-29T14:02:16+06:00,
1000000000235835,77758391823,mMTS,mKcell,mKcell,,D77,2016-08-29T14:02:09+06:00,
1000000000235836,77078383093,mAltel,mMTS,mMTS,,D07,2016-08-29T14:03:21+06:00,
1000000000235837,77015575011,mKcell,mMTS,mKcell,D77,D02,2016-08-29T14:04:07+06:00,
1000000000235839,77054935461,mMTS,mKarTel,mKarTel,,D77,2016-08-29T14:06:28+06:00,
1000000000235840,77087647337,mMTS,mAltel,mAltel,,D77,2016-08-29T14:05:15+06:00,
1000000000235843,77017155193,mKcell,mKarTel,mKcell,D01,D02,2016-08-29T14:09:06+06:00,
1000000000235844,77009994455,mMTS,mKarTel,mAltel,D01,D77,2016-08-29T14:09:01+06:00,
1000000000235846,77769991155,mKarTel,mKcell,mKarTel,D02,D01,2016-08-29T14:08:59+06:00,
1000000000235847,77056010568,mAltel,mMTS,mKarTel,D77,D07,2016-08-29T14:11:54+06:00,
1000000000235848,77757140434,mMTS,mKcell,mKcell,,D77,2016-08-29T14:13:40+06:00,
1000000000235849,77015590955,mMTS,mKcell,mKcell,,D77,2016-08-29T14:14:32+06:00,
1000000000235850,77079017339,mKarTel,mMTS,mMTS,,D01,2016-08-29T14:16:49+06:00,
1000000000235852,77051077888,mMTS,mKarTel,mKarTel,,D77,2016-08-29T14:19:16+06:00,
1000000000235853,77051001004,mAltel,mKcell,mKarTel,D02,D07,2016-08-29T14:19:04+06:00,
1000000000235854,77017155194,mKcell,mKarTel,mKcell,D01,D02,2016-08-29T14:20:51+06:00,
1000000000235855,77776523216,mKarTel,mMTS,mKarTel,D77,D01,2016-08-29T14:21:12+06:00,
1000000000235858,77005303183,mKcell,mAltel,mAltel,,D02,2016-08-29T14:22:48+06:00,
1000000000235859,77751778322,mMTS,mKcell,mKcell,,D77,2016-08-29T14:22:53+06:00,
1000000000235861,77766661544,mKcell,mKarTel,mKarTel,,D02,2016-08-29T14:26:50+06:00,
1000000000235862,77779078161,mKcell,mAltel,mKarTel,D07,D02,2016-08-29T14:25:01+06:00,
1000000000235863,77017854761,mMTS,mKcell,mKcell,,D77,2016-08-29T14:25:09+06:00,
1000000000235864,77055889191,mKcell,mKarTel,mKarTel,,D02,2016-08-29T14:28:17+06:00,
1000000000235865,77017776054,mKarTel,mKcell,mKcell,,D01,2016-08-29T14:27:24+06:00,
1000000000235867,77015245459,mKarTel,mKcell,mKcell,,D01,2016-08-29T14:27:25+06:00,
1000000000235868,77765778994,mAltel,mKarTel,mKarTel,,D07,2016-08-29T14:28:51+06:00,
1000000000235869,77786254412,mMTS,mKcell,mKcell,,D77,2016-08-29T14:27:27+06:00,
1000000000235873,77089554123,mMTS,mAltel,mAltel,,D77,2016-08-29T14:29:56+06:00,
