NPId,Number,RecipientId,DonorId,RangeHolderId,OldRoute,NewRoute,PortDate,RowCount
1000000000418236,77017111011,mMTS,mKarTel,mKcell,D01,D77,2017-07-08T12:00:29+06:00,9
1000000000418237,77071214666,mMTS,mAltel,mMTS,D07,D77,2017-07-08T12:00:22+06:00,
1000000000418238,77785855643,mKarTel,mKcell,mKcell,,D01,2017-07-08T12:05:25+06:00,
1000000000418240,77471940712,mKarTel,mMTS,mMTS,,D01,2017-07-08T12:15:18+06:00,
1000000000418241,77019303253,mAltel,mKcell,mKcell,,D07,2017-07-08T12:15:13+06:00,
1000000000418242,77475480708,mKarTel,mMTS,mMTS,,D01,2017-07-08T12:17:20+06:00,
1000000000418244,77026334544,mMTS,mKcell,mKcell,,D77,2017-07-08T12:20:36+06:00,
1000000000418245,77776545608,mMTS,mKarTel,mKarTel,,D77,2017-07-08T12:25:09+06:00,
1000000000418249,77015779097,mAltel,mKcell,mKcell,,D07,2017-07-08T12:29:14+06:00,
