NPId,Number,RecipientId,DonorId,RangeHolderId,OldRoute,NewRoute,PortDate,RowCount
1000000000324384,77017669743,mMTS,mKcell,mKcell,,D77,2017-02-06T12:30:37+06:00,25
1000000000324385,77771484199,mMTS,mKarTel,mKarTel,,D77,2017-02-06T12:31:09+06:00,
1000000000324386,77017278794,mKarTel,mKcell,mKcell,,D01,2017-02-06T12:31:29+06:00,
1000000000324387,77056136816,mKcell,mKarTel,mKarTel,,D02,2017-02-06T12:36:08+06:00,
1000000000324388,77079152692,mMTS,mAltel,mMTS,D07,D77,2017-02-06T12:35:31+06:00,
1000000000324389,77077938080,mKarTel,mMTS,mMTS,,D01,2017-02-06T12:37:36+06:00,
1000000000324392,77017909442,mKcell,mAltel,mKcell,D07,D02,2017-02-06T12:41:27+06:00,
1000000000324394,77027039014,mKarTel,mKcell,mKcell,,D01,2017-02-06T12:41:38+06:00,
1000000000324395,77789009212,mMTS,mKcell,mKcell,,D77,2017-02-06T12:41:39+06:00,
1000000000324397,77784967121,mKcell,mAltel,mKcell,D07,D02,2017-02-06T12:43:23+06:00,
1000000000324399,77783822712,mKarTel,mKcell,mKcell,,D01,2017-02-06T12:44:25+06:00,
1000000000324400,77784071422,mKarTel,mKcell,mKcell,,D01,2017-02-06T12:52:12+06:00,
1000000000324401,77012224742,mKcell,mKarTel,mKcell,D01,D02,2017-02-06T12:46:50+06:00,
1000000000324402,77022503236,mKarTel,mKcell,mKcell,,D01,2017-02-06T12:50:46+06:00,
1000000000324403,77777999009,mKarTel,mKcell,mKarTel,D02,D01,2017-02-06T12:50:51+06:00,
1000000000324404,77759215828,mMTS,mKcell,mKcell,,D77,2017-02-06T12:51:44+06:00,
1000000000324405,77756538887,mKarTel,mKcell,mKcell,,D01,2017-02-06T12:51:56+06:00,
1000000000324406,77012140858,mAltel,mKcell,mKcell,,D07,2017-02-06T12:52:17+06:00,
1000000000324407,77005231182,mAltel,mMTS,mAltel,D77,D07,2017-02-06T12:53:29+06:00,
1000000000324408,77757597548,mKcell,mMTS,mKcell,D77,D02,2017-02-06T12:55:00+06:00,
1000000000324409,77017244374,mKcell,mKarTel,mKcell,D01,D02,2017-02-06T12:55:18+06:00,
1000000000324410,77082800848,mAltel,mKcell,mAltel,D02,D07,2017-02-06T12:55:04+06:00,
1000000000324411,77752273208,mMTS,mKarTel,mKcell,D01,D77,2017-02-06T12:55:29+06:00,
1000000000324412,77478401023,mKarTel,mMTS,mMTS,,D01,2017-02-06T12:55:26+06:00,
1000000000324417,77081582692,mMTS,mAltel,mAltel,,D77,2017-02-06T12:59:52+06:00,
