NPId,Number,RecipientId,DonorId,RangeHolderId,OldRoute,NewRoute,PortDate,RowCount
1000000000176954,77015341762,mKarTel,mKcell,mKcell,,D01,2016-05-19T14:31:00+06:00,35
1000000000176971,77017327707,mKarTel,mKcell,mKcell,,D01,2016-05-19T14:39:32+06:00,
1000000000177265,77023731113,mMTS,mKcell,mKcell,,D77,2016-05-19T14:31:26+06:00,
1000000000177266,77003630001,mMTS,mAltel,mAltel,,D77,2016-05-19T14:31:32+06:00,
1000000000177267,77026157777,mKcell,mAltel,mKcell,D07,D02,2016-05-19T14:32:23+06:00,
1000000000177270,77081083839,mMTS,mAltel,mAltel,,D77,2016-05-19T14:33:28+06:00,
1000000000177271,77019445590,mKcell,mAltel,mKcell,D07,D02,2016-05-19T14:34:34+06:00,
1000000000177272,77768921710,mMTS,mKarTel,mKarTel,,D77,2016-05-19T14:34:30+06:00,
1000000000177273,77017559700,mAltel,mKcell,mKcell,,D07,2016-05-19T14:35:31+06:00,
1000000000177275,77053108818,mKarTel,mAltel,mKarTel,D07,D01,2016-05-19T14:38:06+06:00,
1000000000177277,77087618144,mKarTel,mAltel,mAltel,,D01,2016-05-19T14:39:07+06:00,
1000000000177278,77019248585,mMTS,mAltel,mKcell,D07,D77,2016-05-19T14:39:27+06:00,
1000000000177279,77010178000,mKarTel,mKcell,mKcell,,D01,2016-05-19T14:41:18+06:00,
1000000000177280,77776239004,mKarTel,mMTS,mKarTel,D77,D01,2016-05-19T14:41:53+06:00,
1000000000177281,77013829040,mMTS,mKcell,mKcell,,D77,2016-05-19T14:42:26+06:00,
1000000000177282,77755766900,mMTS,mKcell,mKcell,,D77,2016-05-19T14:42:26+06:00,
1000000000177283,77772211092,mMTS,mKarTel,mKarTel,,D77,2016-05-19T14:42:27+06:00,
1000000000177284,77007470707,mKcell,mAltel,mAltel,,D02,2016-05-19T14:43:26+06:00,
1000000000177285,77009432803,mKarTel,mAltel,mAltel,,D01,2016-05-19T14:44:17+06:00,
1000000000177286,77018728200,mMTS,mAltel,mKcell,D07,D77,2016-05-19T14:45:43+06:00,
1000000000177287,77755428787,mKarTel,mKcell,mKcell,,D01,2016-05-19T14:46:33+06:00,
1000000000177288,77772268345,mMTS,mKarTel,mKarTel,,D77,2016-05-19T14:47:23+06:00,
1000000000177291,77007777712,mKcell,mAltel,mAltel,,D02,2016-05-19T14:49:29+06:00,
1000000000177293,77083901224,mMTS,mAltel,mAltel,,D77,2016-05-19T14:49:56+06:00,
1000000000177294,77057722883,mMTS,mKarTel,mKarTel,,D77,2016-05-19T14:50:42+06:00,
1000000000177295,77009182406,mMTS,mAltel,mAltel,,D77,2016-05-19T14:50:32+06:00,
1000000000177296,77010168168,mMTS,mKcell,mKcell,,D77,2016-05-19T14:50:57+06:00,
1000000000177298,77761001095,mMTS,mKarTel,mKarTel,,D77,2016-05-19T14:53:10+06:00,
1000000000177299,77012924692,mKcell,mKarTel,mKcell,D01,D02,2016-05-19T14:53:53+06:00,
1000000000177300,77083278544,mMTS,mAltel,mAltel,,D77,2016-05-19T14:52:51+06:00,
1000000000177302,77051355257,mKarTel,mKcell,mKarTel,D02,D01,2016-05-19T14:55:50+06:00,
1000000000177303,77081020103,mKarTel,mAltel,mAltel,,D01,2016-05-19T14:56:23+06:00,
1000000000177304,77023856589,mMTS,mKcell,mKcell,,D77,2016-05-19T14:57:16+06:00,
1000000000177306,77007727007,mMTS,mAltel,mAltel,,D77,2016-05-19T14:57:12+06:00,
1000000000177307,77028480536,mKcell,mMTS,mKcell,D77,D02,2016-05-19T14:58:44+06:00,
