NPId,Number,RecipientId,DonorId,RangeHolderId,OldRoute,NewRoute,PortDate,RowCount
1000000000371178,77083300903,mKcell,mAltel,mAltel,,D02,2017-04-24T20:01:03+06:00,8
1000000000371180,77007772794,mKcell,mAltel,mAltel,,D02,2017-04-24T20:02:59+06:00,
1000000000371181,77015935353,mAltel,mKcell,mKcell,,D07,2017-04-24T20:02:45+06:00,
1000000000371182,77789286038,mMTS,mKcell,mKcell,,D77,2017-04-24T20:02:51+06:00,
1000000000371184,77007772731,mKcell,mAltel,mAltel,,D02,2017-04-24T20:07:45+06:00,
1000000000371186,77007772761,mKcell,mAltel,mAltel,,D02,2017-04-24T20:15:23+06:00,
1000000000371189,77078274482,mKarTel,mMTS,mMTS,,D01,2017-04-24T20:19:28+06:00,
1000000000371193,77014935214,mKarTel,mKcell,mKcell,,D01,2017-04-24T20:27:48+06:00,
