NPId,Number,RecipientId,DonorId,RangeHolderId,OldRoute,NewRoute,PortDate,RowCount
1000000000282356,77712477763,mMTS,mKarTel,mKarTel,,D77,2016-11-22T13:00:21+06:00,12
1000000000282358,77779778188,mKcell,mKarTel,mKarTel,,D02,2016-11-22T13:04:23+06:00,
1000000000282363,77782120822,mKcell,mMTS,mKcell,D77,D02,2016-11-22T13:07:33+06:00,
1000000000282365,77082127797,mMTS,mKcell,mAltel,D02,D77,2016-11-22T13:11:01+06:00,
1000000000282367,77017578985,mKcell,mAltel,mKcell,D07,D02,2016-11-22T13:13:50+06:00,
1000000000282368,77078880292,mKcell,mMTS,mMTS,,D02,2016-11-22T13:14:03+06:00,
1000000000282369,77013972741,mAltel,mKcell,mKcell,,D07,2016-11-22T13:17:38+06:00,
1000000000282371,77079847373,mKcell,mMTS,mMTS,,D02,2016-11-22T13:18:23+06:00,
1000000000282373,77756879493,mMTS,mKcell,mKcell,,D77,2016-11-22T13:21:02+06:00,
1000000000282374,77029159199,mMTS,mKcell,mKcell,,D77,2016-11-22T13:23:08+06:00,
1000000000282377,77088940863,mKarTel,mAltel,mAltel,,D01,2016-11-22T13:27:27+06:00,
1000000000282378,77779754496,mKarTel,mMTS,mKarTel,D77,D01,2016-11-22T13:29:56+06:00,
