NPId,Number,RecipientId,DonorId,RangeHolderId,OldRoute,NewRoute,PortDate,RowCount
1000000000165091,77018011365,mAltel,mKcell,mKcell,,D07,2016-05-02T10:02:59+06:00,21
1000000000165092,77786360387,mMTS,mKcell,mKcell,,D77,2016-05-02T10:02:58+06:00,
1000000000165093,77018011356,mAltel,mKcell,mKcell,,D07,2016-05-02T10:02:59+06:00,
1000000000165094,77018011355,mAltel,mKcell,mKcell,,D07,2016-05-02T10:02:59+06:00,
1000000000165095,77088895909,mMTS,mAltel,mAltel,,D77,2016-05-02T10:02:02+06:00,
1000000000165096,77018011366,mAltel,mKcell,mKcell,,D07,2016-05-02T10:02:59+06:00,
1000000000165097,77012101352,mAltel,mKcell,mKcell,,D07,2016-05-02T10:03:00+06:00,
1000000000165098,77711309100,mMTS,mAltel,mKarTel,D07,D77,2016-05-02T10:02:02+06:00,
1000000000165099,77777899937,mMTS,mKarTel,mKarTel,,D77,2016-05-02T10:02:24+06:00,
1000000000165102,77767174789,mMTS,mKarTel,mKarTel,,D77,2016-05-02T10:02:24+06:00,
1000000000165103,77762877183,mMTS,mKarTel,mKarTel,,D77,2016-05-02T10:02:24+06:00,
1000000000165104,77053206616,mMTS,mKarTel,mKarTel,,D77,2016-05-02T10:14:19+06:00,
1000000000165106,77009738871,mMTS,mAltel,mAltel,,D77,2016-05-02T10:14:17+06:00,
1000000000165107,77772656555,mAltel,mKarTel,mKarTel,,D07,2016-05-02T10:15:24+06:00,
1000000000165108,77027017575,mMTS,mKcell,mKcell,,D77,2016-05-02T10:16:57+06:00,
1000000000165109,77770262221,mMTS,mKarTel,mKarTel,,D77,2016-05-02T10:17:35+06:00,
1000000000165111,77089230262,mKcell,mAltel,mAltel,,D02,2016-05-02T10:20:40+06:00,
1000000000165112,77081344256,mMTS,mAltel,mAltel,,D77,2016-05-02T10:19:38+06:00,
1000000000165113,77018009059,mMTS,mKcell,mKcell,,D77,2016-05-02T10:20:40+06:00,
1000000000165114,77024257793,mMTS,mKcell,mKcell,,D77,2016-05-02T10:20:58+06:00,
1000000000165115,77010143837,mKcell,mAltel,mKcell,D07,D02,2016-05-02T10:21:23+06:00,
