NPId,Number,RecipientId,DonorId,RangeHolderId,OldRoute,NewRoute,PortDate,RowCount
1000000000361213,77011860534,mMTS,mKcell,mKcell,,D77,2017-04-06T18:00:19+06:00,15
1000000000361215,77015554540,mKcell,mMTS,mKcell,D77,D02,2017-04-06T18:03:17+06:00,
1000000000361217,77007777310,mKarTel,mAltel,mAltel,,D01,2017-04-06T18:05:24+06:00,
1000000000361219,77015140175,mAltel,mKcell,mKcell,,D07,2017-04-06T18:08:14+06:00,
1000000000361221,77011118538,mAltel,mKcell,mKcell,,D07,2017-04-06T18:10:04+06:00,
1000000000361225,77089708556,mKarTel,mAltel,mAltel,,D01,2017-04-06T18:15:20+06:00,
1000000000361226,77025996599,mMTS,mKcell,mKcell,,D77,2017-04-06T18:15:28+06:00,
1000000000361227,77026296488,mAltel,mKcell,mKcell,,D07,2017-04-06T18:16:35+06:00,
1000000000361228,77004561857,mKarTel,mAltel,mAltel,,D01,2017-04-06T18:17:47+06:00,
1000000000361230,77024000198,mMTS,mAltel,mKcell,D07,D77,2017-04-06T18:18:44+06:00,
1000000000361231,77776405565,mAltel,mKarTel,mKarTel,,D07,2017-04-06T18:19:18+06:00,
1000000000361232,77027150011,mKarTel,mKcell,mKcell,D02,D01,2017-04-06T18:22:48+06:00,
1000000000361234,77076157111,mKarTel,mMTS,mMTS,,D01,2017-04-06T18:23:42+06:00,
1000000000361237,77052934856,mMTS,mKarTel,mKarTel,,D77,2017-04-06T18:28:27+06:00,
1000000000361238,77073007770,mKcell,mMTS,mMTS,,D02,2017-04-06T18:28:46+06:00,
