NPId,Number,RecipientId,DonorId,RangeHolderId,OldRoute,NewRoute,PortDate,RowCount
1000000000424278,77078822225,mKcell,mMTS,mMTS,,D02,2017-07-18T20:04:58+06:00,3
1000000000424279,77007667076,mKcell,mKarTel,mAltel,D01,D02,2017-07-18T20:09:27+06:00,
1000000000424280,77024611734,mKcell,mMTS,mKcell,D77,D02,2017-07-18T20:20:37+06:00,
