NPId,Number,RecipientId,DonorId,RangeHolderId,OldRoute,NewRoute,PortDate,RowCount
1000000000210008,77077111704,mAltel,mMTS,mMTS,,D07,2016-07-12T15:31:11+06:00,16
1000000000210009,77778787878,mAltel,mKarTel,mKarTel,,D07,2016-07-12T15:31:51+06:00,
1000000000210011,77077180638,mKarTel,mMTS,mMTS,,D01,2016-07-12T15:34:19+06:00,
1000000000210012,77018166835,mAltel,mKcell,mKcell,,D07,2016-07-12T15:38:19+06:00,
1000000000210015,77015246024,mKarTel,mKcell,mKcell,,D01,2016-07-12T15:44:14+06:00,
1000000000210016,77777777836,mKarTel,mAltel,mKarTel,D07,D01,2016-07-12T15:44:14+06:00,
1000000000210018,77012084126,mMTS,mKcell,mKcell,,D77,2016-07-12T15:47:26+06:00,
1000000000210019,77775244041,mMTS,mKarTel,mKarTel,,D77,2016-07-12T15:47:39+06:00,
1000000000210020,77052531122,mKcell,mKarTel,mKarTel,,D02,2016-07-12T15:49:29+06:00,
1000000000210021,77779330204,mAltel,mMTS,mKarTel,D77,D07,2016-07-12T15:48:24+06:00,
1000000000210022,77770100707,mKcell,mAltel,mKarTel,D07,D02,2016-07-12T15:49:47+06:00,
1000000000210024,77773089498,mKcell,mKarTel,mKarTel,,D02,2016-07-12T15:54:20+06:00,
1000000000210025,77017367901,mKarTel,mKcell,mKcell,,D01,2016-07-12T15:54:08+06:00,
1000000000210029,77017444799,mAltel,mKcell,mKcell,,D07,2016-07-12T15:57:31+06:00,
1000000000210030,77072010707,mKcell,mAltel,mMTS,D07,D02,2016-07-12T15:57:44+06:00,
1000000000210032,77055133700,mMTS,mKarTel,mKarTel,,D77,2016-07-12T15:59:00+06:00,
