NPId,Number,RecipientId,DonorId,RangeHolderId,OldRoute,NewRoute,PortDate,RowCount
1000000000123021,77051238456,mMTS,mKarTel,mKarTel,,D77,2016-03-12T11:01:28+06:00,24
1000000000123023,77016100009,mMTS,mKcell,mKcell,,D77,2016-03-12T11:03:40+06:00,
1000000000123024,77477747424,mKcell,mMTS,mMTS,,D02,2016-03-12T11:06:16+06:00,
1000000000123025,77011897242,mKcell,mMTS,mKcell,D77,D02,2016-03-12T11:06:17+06:00,
1000000000123026,77476599555,mAltel,mMTS,mMTS,,D07,2016-03-12T11:06:22+06:00,
1000000000123027,77054181877,mKarTel,mMTS,mKarTel,D77,D01,2016-03-12T11:06:56+06:00,
1000000000123029,77053196912,mMTS,mKarTel,mKarTel,,D77,2016-03-12T11:08:00+06:00,
1000000000123030,77073075415,mKarTel,mMTS,mMTS,,D01,2016-03-12T11:08:00+06:00,
1000000000123031,77076224723,mKarTel,mMTS,mMTS,,D01,2016-03-12T11:09:16+06:00,
1000000000123032,77016565544,mKcell,mKarTel,mKcell,D01,D02,2016-03-12T11:09:59+06:00,
1000000000123033,77024491111,mAltel,mKcell,mKcell,,D07,2016-03-12T11:09:23+06:00,
1000000000123034,77024133309,mMTS,mKcell,mKcell,,D77,2016-03-12T11:09:58+06:00,
1000000000123035,77773683048,mMTS,mKarTel,mKarTel,,D77,2016-03-12T11:10:35+06:00,
1000000000123036,77784780009,mAltel,mKcell,mKcell,,D07,2016-03-12T11:10:44+06:00,
1000000000123037,77017273765,mMTS,mKcell,mKcell,,D77,2016-03-12T11:11:37+06:00,
1000000000123039,77718484444,mMTS,mKarTel,mKarTel,,D77,2016-03-12T11:13:14+06:00,
1000000000123043,77711088880,mKcell,mKarTel,mKarTel,,D02,2016-03-12T11:17:21+06:00,
1000000000123044,77002277799,mMTS,mAltel,mAltel,,D77,2016-03-12T11:16:45+06:00,
1000000000123045,77088971727,mMTS,mAltel,mAltel,,D77,2016-03-12T11:19:04+06:00,
1000000000123046,77007077777,mAltel,mKcell,mAltel,D02,D07,2016-03-12T11:20:34+06:00,
1000000000123047,77015130859,mKarTel,mKcell,mKcell,,D01,2016-03-12T11:21:09+06:00,
1000000000123048,77009141197,mMTS,mAltel,mAltel,,D77,2016-03-12T11:21:20+06:00,
1000000000123049,77077220770,mKarTel,mMTS,mMTS,,D01,2016-03-12T11:21:53+06:00,
1000000000123054,77473627085,mKcell,mMTS,mMTS,,D02,2016-03-12T11:29:29+06:00,
