NPId,Number,RecipientId,DonorId,RangeHolderId,OldRoute,NewRoute,PortDate,RowCount
1000000000441118,77009997030,mMTS,mAltel,mAltel,,D77,2017-08-16T18:00:42+06:00,20
1000000000441119,77001215811,mMTS,mAltel,mAltel,,D77,2017-08-16T18:07:29+06:00,
1000000000441121,77017510401,mKarTel,mKcell,mKcell,,D01,2017-08-16T18:12:31+06:00,
1000000000441122,77783280002,mKarTel,mKcell,mKcell,,D01,2017-08-16T18:12:37+06:00,
1000000000441123,77752621402,mKarTel,mKcell,mKcell,,D01,2017-08-16T18:15:05+06:00,
1000000000441124,77058888015,mAltel,mKarTel,mKarTel,,D07,2017-08-16T18:17:20+06:00,
1000000000441125,77784507667,mMTS,mKcell,mKcell,,D77,2017-08-16T18:17:19+06:00,
1000000000441126,77007000913,mKcell,mAltel,mAltel,,D02,2017-08-16T18:17:41+06:00,
1000000000441127,77769502829,mMTS,mKarTel,mKarTel,D01,D77,2017-08-16T18:17:52+06:00,
1000000000441128,77012925836,mMTS,mKcell,mKcell,,D77,2017-08-16T18:17:41+06:00,
1000000000441131,77765101879,mKarTel,mAltel,mKarTel,D07,D01,2017-08-16T18:20:00+06:00,
1000000000441132,77781836566,mKarTel,mKcell,mKcell,,D01,2017-08-16T18:21:56+06:00,
1000000000441133,77714083958,mMTS,mAltel,mKarTel,D07,D77,2017-08-16T18:22:05+06:00,
1000000000441134,77074332012,mKarTel,mMTS,mMTS,D77,D01,2017-08-16T18:23:47+06:00,
1000000000441135,77013868646,mKarTel,mKcell,mKcell,,D01,2017-08-16T18:24:43+06:00,
1000000000441137,77711305909,mKcell,mKarTel,mKarTel,,D02,2017-08-16T18:26:23+06:00,
1000000000441138,77754668444,mKarTel,mKcell,mKcell,,D01,2017-08-16T18:26:23+06:00,
1000000000441139,77087521569,mKcell,mAltel,mAltel,,D02,2017-08-16T18:26:14+06:00,
1000000000441140,77712592838,mKarTel,mKcell,mKarTel,D02,D01,2017-08-16T18:26:33+06:00,
1000000000441141,77082922990,mAltel,mKarTel,mAltel,D01,D07,2017-08-16T18:26:40+06:00,
