NPId,Number,RecipientId,DonorId,RangeHolderId,OldRoute,NewRoute,PortDate,RowCount
1000000000352822,77016214302,mMTS,mKcell,mKcell,,D77,2017-03-27T10:02:16+06:00,21
1000000000352823,77084048814,mMTS,mAltel,mAltel,,D77,2017-03-27T10:02:48+06:00,
1000000000352824,77053436631,mMTS,mKarTel,mKarTel,,D77,2017-03-27T10:04:41+06:00,
1000000000352825,77766221919,mAltel,mKarTel,mKarTel,,D07,2017-03-27T10:04:45+06:00,
1000000000352827,77783244440,mAltel,mKcell,mKcell,,D07,2017-03-27T10:06:35+06:00,
1000000000352828,77754103333,mAltel,mKcell,mKcell,,D07,2017-03-27T10:11:35+06:00,
1000000000352829,77017615253,mKcell,mAltel,mKcell,D07,D02,2017-03-27T10:12:08+06:00,
1000000000352830,77015994121,mKarTel,mKcell,mKcell,,D01,2017-03-27T10:13:17+06:00,
1000000000352832,77017297661,mMTS,mKcell,mKcell,,D77,2017-03-27T10:16:21+06:00,
1000000000352833,77015102845,mKcell,mKarTel,mKcell,D01,D02,2017-03-27T10:17:49+06:00,
1000000000352834,77004690708,mMTS,mAltel,mAltel,,D77,2017-03-27T10:17:29+06:00,
1000000000352835,77085554515,mKcell,mAltel,mAltel,,D02,2017-03-27T10:18:24+06:00,
1000000000352836,77017085329,mMTS,mKcell,mKcell,,D77,2017-03-27T10:20:31+06:00,
1000000000352837,77072174040,mMTS,mKcell,mMTS,D02,D77,2017-03-27T10:21:12+06:00,
1000000000352841,77012455554,mMTS,mKcell,mKcell,D02,D77,2017-03-27T10:22:59+06:00,
1000000000352842,77775709590,mKarTel,mMTS,mKarTel,D77,D01,2017-03-27T10:24:14+06:00,
1000000000352843,77019922929,mKcell,mMTS,mKcell,D77,D02,2017-03-27T10:25:57+06:00,
1000000000352844,77471570265,mKcell,mMTS,mMTS,,D02,2017-03-27T10:26:03+06:00,
1000000000352845,77772830071,mAltel,mKarTel,mKarTel,,D07,2017-03-27T10:26:48+06:00,
1000000000352846,77759470509,mKarTel,mKcell,mKcell,,D01,2017-03-27T10:29:19+06:00,
1000000000352847,77471570247,mKcell,mMTS,mMTS,,D02,2017-03-27T10:29:28+06:00,
