NPId,Number,RecipientId,DonorId,RangeHolderId,OldRoute,NewRoute,PortDate,RowCount
1000000000385045,77777017273,mKcell,mKarTel,mKarTel,,D02,2017-05-18T12:30:37+06:00,21
1000000000385047,77079335535,mKcell,mMTS,mMTS,,D02,2017-05-18T12:32:48+06:00,
1000000000385048,77019050090,mMTS,mKcell,mKcell,,D77,2017-05-18T12:32:51+06:00,
1000000000385051,77088642065,mMTS,mAltel,mAltel,,D77,2017-05-18T12:33:59+06:00,
1000000000385053,77017556641,mMTS,mKcell,mKcell,,D77,2017-05-18T12:34:51+06:00,
1000000000385055,77073592795,mKcell,mMTS,mMTS,,D02,2017-05-18T12:35:52+06:00,
1000000000385056,77007770474,mKcell,mAltel,mAltel,,D02,2017-05-18T12:36:59+06:00,
1000000000385057,77772229658,mKcell,mKarTel,mKarTel,,D02,2017-05-18T12:37:42+06:00,
1000000000385058,77757652888,mMTS,mKcell,mKcell,,D77,2017-05-18T12:37:27+06:00,
1000000000385059,77073366333,mMTS,mAltel,mMTS,D07,D77,2017-05-18T12:37:48+06:00,
1000000000385060,77003302003,mMTS,mAltel,mAltel,,D77,2017-05-18T12:40:16+06:00,
1000000000385061,77025559996,mKcell,mMTS,mKcell,D77,D02,2017-05-18T12:41:10+06:00,
1000000000385062,77017826970,mMTS,mKcell,mKcell,,D77,2017-05-18T12:41:20+06:00,
1000000000385063,77023409500,mKarTel,mKcell,mKcell,,D01,2017-05-18T12:41:40+06:00,
1000000000385065,77776233858,mMTS,mKarTel,mKarTel,,D77,2017-05-18T12:44:26+06:00,
1000000000385066,77028000777,mKarTel,mKcell,mKcell,,D01,2017-05-18T12:46:51+06:00,
1000000000385067,77477434268,mKarTel,mMTS,mMTS,,D01,2017-05-18T12:49:39+06:00,
1000000000385068,77013333134,mMTS,mKarTel,mKcell,D01,D77,2017-05-18T12:49:56+06:00,
1000000000385073,77014442100,mKcell,mMTS,mKcell,D77,D02,2017-05-18T12:57:51+06:00,
1000000000385074,77012686735,mMTS,mKcell,mKcell,,D77,2017-05-18T12:57:53+06:00,
1000000000385075,77012667632,mKarTel,mKcell,mKcell,,D01,2017-05-18T12:59:51+06:00,
