NPId,Number,RecipientId,DonorId,RangeHolderId,OldRoute,NewRoute,PortDate,RowCount
1000000000436605,77017431027,mMTS,mKcell,mKcell,,D77,2017-08-08T12:02:32+06:00,18
1000000000436609,77750004486,mMTS,mKcell,mKcell,,D77,2017-08-08T12:07:30+06:00,
1000000000436610,77011648112,mAltel,mKcell,mKcell,,D07,2017-08-08T12:08:34+06:00,
1000000000436611,77026693324,mKcell,mKarTel,mKcell,D01,D02,2017-08-08T12:09:17+06:00,
1000000000436612,77476754087,mAltel,mMTS,mMTS,,D07,2017-08-08T12:09:59+06:00,
1000000000436613,77773130014,mKarTel,mMTS,mKarTel,D77,D01,2017-08-08T12:13:37+06:00,
1000000000436615,77779707193,mMTS,mKarTel,mKarTel,,D77,2017-08-08T12:15:57+06:00,
1000000000436617,77077371570,mAltel,mMTS,mMTS,,D07,2017-08-08T12:16:55+06:00,
1000000000436618,77786666802,mMTS,mKcell,mKcell,,D77,2017-08-08T12:17:14+06:00,
1000000000436620,77015660139,mKarTel,mKcell,mKcell,,D01,2017-08-08T12:18:53+06:00,
1000000000436622,77015294744,mKcell,mKarTel,mKcell,D01,D02,2017-08-08T12:19:44+06:00,
1000000000436623,77077052205,mKarTel,mMTS,mMTS,,D01,2017-08-08T12:19:19+06:00,
1000000000436624,77017869856,mAltel,mKcell,mKcell,,D07,2017-08-08T12:21:39+06:00,
1000000000436625,77716066524,mMTS,mKarTel,mKarTel,,D77,2017-08-08T12:22:09+06:00,
1000000000436626,77004175279,mKcell,mAltel,mAltel,,D02,2017-08-08T12:22:57+06:00,
1000000000436627,77000251700,mKcell,mAltel,mAltel,,D02,2017-08-08T12:24:16+06:00,
1000000000436629,77019889840,mAltel,mKcell,mKcell,,D07,2017-08-08T12:28:32+06:00,
1000000000436630,77478958768,mAltel,mMTS,mMTS,,D07,2017-08-08T12:29:38+06:00,
