NPId,Number,RecipientId,DonorId,RangeHolderId,OldRoute,NewRoute,PortDate,RowCount
1000000000437564,77029993733,mKcell,mKarTel,mKcell,D01,D02,2017-08-09T20:51:00+06:00,3
1000000000437573,77768777768,mKcell,mMTS,mKarTel,D77,D02,2017-08-09T20:44:17+06:00,
1000000000437574,77021241410,mKcell,mAltel,mKcell,D07,D02,2017-08-09T20:48:35+06:00,
