NPId,Number,RecipientId,DonorId,RangeHolderId,OldRoute,NewRoute,PortDate,RowCount
1000000000295847,77015544495,mMTS,mKcell,mKcell,,D77,2016-12-15T18:00:08+06:00,18
1000000000295848,77071366668,mMTS,mAltel,mMTS,D07,D77,2016-12-15T18:00:15+06:00,
1000000000295849,77788834897,mAltel,mKcell,mKcell,,D07,2016-12-15T18:01:34+06:00,
1000000000295850,77770555513,mMTS,mKarTel,mKarTel,,D77,2016-12-15T18:02:05+06:00,
1000000000295851,77004908628,mMTS,mAltel,mAltel,,D77,2016-12-15T18:01:38+06:00,
1000000000295852,77017567351,mKarTel,mKcell,mKcell,,D01,2016-12-15T18:04:16+06:00,
1000000000295854,77752199577,mMTS,mKcell,mKcell,,D77,2016-12-15T18:04:42+06:00,
1000000000295857,77479879787,mAltel,mMTS,mMTS,,D07,2016-12-15T18:09:29+06:00,
1000000000295858,77766666796,mAltel,mKarTel,mKarTel,,D07,2016-12-15T18:10:23+06:00,
1000000000295859,77775403546,mKarTel,mMTS,mKarTel,D77,D01,2016-12-15T18:11:49+06:00,
1000000000295860,77011424211,mMTS,mKcell,mKcell,,D77,2016-12-15T18:11:52+06:00,
1000000000295861,77770846444,mMTS,mKarTel,mKarTel,,D77,2016-12-15T18:13:34+06:00,
1000000000295862,77001496501,mKarTel,mAltel,mAltel,,D01,2016-12-15T18:14:32+06:00,
1000000000295866,77026000511,mKcell,mMTS,mKcell,D77,D02,2016-12-15T18:21:46+06:00,
1000000000295868,77479559900,mMTS,mKcell,mMTS,D02,D77,2016-12-15T18:22:07+06:00,
1000000000295869,77789114445,mMTS,mKcell,mKcell,,D77,2016-12-15T18:22:28+06:00,
1000000000295870,77011723672,mKarTel,mKcell,mKcell,,D01,2016-12-15T18:23:34+06:00,
1000000000295872,77053006300,mAltel,mKarTel,mKarTel,,D07,2016-12-15T18:25:39+06:00,
