NPId,Number,RecipientId,DonorId,RangeHolderId,OldRoute,NewRoute,PortDate,RowCount
1000000000370395,77772302950,mAltel,mKarTel,mKarTel,,D07,2017-04-23T16:00:29+06:00,8
1000000000370396,77026081502,mKarTel,mKcell,mKcell,,D01,2017-04-23T16:00:46+06:00,
1000000000370400,77013936868,mAltel,mKcell,mKcell,,D07,2017-04-23T16:06:55+06:00,
1000000000370401,77761276561,mAltel,mKarTel,mKarTel,,D07,2017-04-23T16:10:24+06:00,
1000000000370402,77758245707,mKarTel,mKcell,mKcell,,D01,2017-04-23T16:11:39+06:00,
1000000000370406,77783591551,mKarTel,mKcell,mKcell,,D01,2017-04-23T16:19:51+06:00,
1000000000370407,77022783238,mKarTel,mKcell,mKcell,,D01,2017-04-23T16:23:40+06:00,
1000000000370408,77027964646,mAltel,mKcell,mKcell,D02,D07,2017-04-23T16:24:10+06:00,
