NPId,Number,RecipientId,DonorId,RangeHolderId,OldRoute,NewRoute,PortDate,RowCount
1000000000346863,77717752052,mMTS,mKarTel,mKarTel,,D77,2017-03-15T10:37:36+06:00,44
1000000000346866,77777719976,mMTS,mKarTel,mKarTel,,D77,2017-03-15T10:38:38+06:00,
1000000000346867,77058625016,mMTS,mKarTel,mKarTel,,D77,2017-03-15T10:39:29+06:00,
1000000000346868,77717752068,mMTS,mKarTel,mKarTel,,D77,2017-03-15T10:40:20+06:00,
1000000000346869,77717752069,mMTS,mKarTel,mKarTel,,D77,2017-03-15T10:40:56+06:00,
1000000000346872,77717752084,mMTS,mKarTel,mKarTel,,D77,2017-03-15T10:42:19+06:00,
1000000000346873,77717752085,mMTS,mKarTel,mKarTel,,D77,2017-03-15T10:42:37+06:00,
1000000000346876,77717752086,mMTS,mKarTel,mKarTel,,D77,2017-03-15T10:48:16+06:00,
1000000000346877,77717752087,mMTS,mKarTel,mKarTel,,D77,2017-03-15T10:48:03+06:00,
1000000000346878,77717752098,mMTS,mKarTel,mKarTel,,D77,2017-03-15T10:48:14+06:00,
1000000000346879,77717752080,mMTS,mKarTel,mKarTel,,D77,2017-03-15T10:48:08+06:00,
1000000000346881,77717752073,mMTS,mKarTel,mKarTel,,D77,2017-03-15T10:48:16+06:00,
1000000000346883,77770056378,mMTS,mKarTel,mKarTel,,D77,2017-03-15T10:48:14+06:00,
1000000000346885,77717752077,mMTS,mKarTel,mKarTel,,D77,2017-03-15T10:48:11+06:00,
1000000000346887,77717752056,mMTS,mKarTel,mKarTel,,D77,2017-03-15T10:48:16+06:00,
1000000000346888,77717755099,mMTS,mKarTel,mKarTel,,D77,2017-03-15T10:48:16+06:00,
1000000000346912,77005488888,mMTS,mAltel,mAltel,,D77,2017-03-15T10:31:18+06:00,
1000000000346913,77471570238,mKcell,mMTS,mMTS,,D02,2017-03-15T10:33:20+06:00,
1000000000346914,77017766680,mAltel,mMTS,mKcell,D77,D07,2017-03-15T10:33:35+06:00,
1000000000346915,77007779383,mKcell,mAltel,mAltel,,D02,2017-03-15T10:34:49+06:00,
1000000000346916,77009187948,mKcell,mAltel,mAltel,,D02,2017-03-15T10:34:56+06:00,
1000000000346917,77471570226,mKcell,mMTS,mMTS,,D02,2017-03-15T10:35:26+06:00,
1000000000346918,77007779093,mKcell,mAltel,mAltel,,D02,2017-03-15T10:36:09+06:00,
1000000000346919,77773919063,mKarTel,mMTS,mKarTel,D77,D01,2017-03-15T10:37:13+06:00,
1000000000346920,77471570221,mKcell,mMTS,mMTS,,D02,2017-03-15T10:37:22+06:00,
1000000000346921,77789171790,mMTS,mKcell,mKcell,,D77,2017-03-15T10:37:21+06:00,
1000000000346922,77024326056,mMTS,mKcell,mKcell,,D77,2017-03-15T10:37:35+06:00,
1000000000346925,77768141444,mKarTel,mKcell,mKarTel,D02,D01,2017-03-15T10:42:17+06:00,
1000000000346927,77014057558,mMTS,mKcell,mKcell,,D77,2017-03-15T10:42:42+06:00,
1000000000346929,77053751406,mKarTel,mKcell,mKarTel,D02,D01,2017-03-15T10:43:33+06:00,
1000000000346931,77471570232,mKcell,mMTS,mMTS,,D02,2017-03-15T10:44:24+06:00,
1000000000346934,77015382713,mAltel,mKcell,mKcell,,D07,2017-03-15T10:46:20+06:00,
1000000000346936,77007778131,mKcell,mAltel,mAltel,,D02,2017-03-15T10:47:47+06:00,
1000000000346937,77007778121,mKcell,mAltel,mAltel,,D02,2017-03-15T10:47:50+06:00,
1000000000346940,77471570237,mKcell,mMTS,mMTS,,D02,2017-03-15T10:48:49+06:00,
1000000000346941,77004267165,mKcell,mAltel,mAltel,,D02,2017-03-15T10:48:45+06:00,
1000000000346942,77471570257,mKcell,mMTS,mMTS,,D02,2017-03-15T10:50:46+06:00,
1000000000346943,77017309432,mKcell,mMTS,mKcell,D77,D02,2017-03-15T10:50:56+06:00,
1000000000346944,77471570239,mKcell,mMTS,mMTS,,D02,2017-03-15T10:53:12+06:00,
1000000000346945,77714695173,mKcell,mMTS,mKarTel,D77,D02,2017-03-15T10:52:51+06:00,
1000000000346946,77014057551,mMTS,mKcell,mKcell,,D77,2017-03-15T10:53:27+06:00,
1000000000346947,77471570034,mKcell,mMTS,mMTS,,D02,2017-03-15T10:56:05+06:00,
1000000000346948,77074250190,mKcell,mMTS,mMTS,,D02,2017-03-15T10:57:36+06:00,
1000000000346950,77018888377,mKarTel,mKcell,mKcell,,D01,2017-03-15T10:59:46+06:00,
