NPId,Number,RecipientId,DonorId,RangeHolderId,OldRoute,NewRoute,PortDate,RowCount
1000000000123716,77776977779,mAltel,mKarTel,mKarTel,,D07,2016-03-12T19:03:06+06:00,4
1000000000123717,77777022202,mAltel,mKarTel,mKarTel,,D07,2016-03-12T19:03:18+06:00,
1000000000123719,77019853590,mKcell,mAltel,mKcell,D07,D02,2016-03-12T19:05:45+06:00,
1000000000123720,77015106613,mAltel,mKcell,mKcell,,D07,2016-03-12T19:23:55+06:00,
