NPId,Number,RecipientId,DonorId,RangeHolderId,OldRoute,NewRoute,PortDate,RowCount
1000000000251684,77017730776,mKcell,mKarTel,mKcell,D01,D02,2016-09-26T20:00:45+06:00,7
1000000000251685,77785880292,mKcell,mMTS,mKcell,D77,D02,2016-09-26T20:02:07+06:00,
1000000000251686,77783956259,mMTS,mKcell,mKcell,,D77,2016-09-26T20:07:32+06:00,
1000000000251687,77087171717,mKcell,mAltel,mAltel,,D02,2016-09-26T20:12:57+06:00,
1000000000251688,77089706607,mKcell,mMTS,mAltel,D77,D02,2016-09-26T20:13:06+06:00,
1000000000251689,77028666000,mKcell,mMTS,mKcell,D77,D02,2016-09-26T20:13:13+06:00,
1000000000251690,77078382479,mKcell,mMTS,mMTS,D77,D02,2016-09-26T20:13:20+06:00,
