NPId,Number,RecipientId,DonorId,RangeHolderId,OldRoute,NewRoute,PortDate,RowCount
1000000000446778,77027959798,mKarTel,mKcell,mKcell,,D01,2017-08-27T18:01:32+06:00,8
1000000000446780,77760166669,mKcell,mKarTel,mKarTel,,D02,2017-08-27T18:05:42+06:00,
1000000000446781,77789997897,mKcell,mKarTel,mKcell,D01,D02,2017-08-27T18:06:23+06:00,
1000000000446783,77024755560,mKarTel,mKcell,mKcell,,D01,2017-08-27T18:14:21+06:00,
1000000000446785,77767638699,mMTS,mKarTel,mKarTel,,D77,2017-08-27T18:18:04+06:00,
1000000000446786,77005005191,mKcell,mAltel,mAltel,,D02,2017-08-27T18:24:12+06:00,
1000000000446787,77772892154,mKarTel,mMTS,mKarTel,D77,D01,2017-08-27T18:25:37+06:00,
1000000000446789,77025484449,mAltel,mKcell,mKcell,,D07,2017-08-27T18:27:55+06:00,
