NPId,Number,RecipientId,DonorId,RangeHolderId,OldRoute,NewRoute,PortDate,RowCount
1000000000217815,77776510003,mKarTel,mKcell,mKarTel,D02,D01,2016-07-27T10:32:28+06:00,11
1000000000217816,77053554841,mMTS,mKarTel,mKarTel,,D77,2016-07-27T10:33:37+06:00,
1000000000217817,77082105747,mMTS,mAltel,mAltel,,D77,2016-07-27T10:33:13+06:00,
1000000000217818,77013367307,mKarTel,mKcell,mKcell,,D01,2016-07-27T10:35:11+06:00,
1000000000217820,77001182559,mMTS,mAltel,mAltel,,D77,2016-07-27T10:35:09+06:00,
1000000000217824,77778867941,mKarTel,mMTS,mKarTel,D77,D01,2016-07-27T10:39:33+06:00,
1000000000217826,77053342664,mMTS,mKarTel,mKarTel,,D77,2016-07-27T10:48:30+06:00,
1000000000217827,77764444177,mMTS,mKarTel,mKarTel,,D77,2016-07-27T10:51:01+06:00,
1000000000217829,77778000241,mKcell,mKarTel,mKarTel,,D02,2016-07-27T10:52:26+06:00,
1000000000217830,77088353151,mAltel,mKarTel,mAltel,D01,D07,2016-07-27T10:56:07+06:00,
1000000000217831,77773848448,mMTS,mAltel,mKarTel,D07,D77,2016-07-27T10:56:03+06:00,
