NPId,Number,RecipientId,DonorId,RangeHolderId,OldRoute,NewRoute,PortDate,RowCount
1000000000428632,77079959592,mMTS,mAltel,mMTS,D07,D77,2017-07-26T15:30:23+06:00,32
1000000000428633,77086636130,mMTS,mAltel,mAltel,,D77,2017-07-26T15:30:56+06:00,
1000000000428634,77472826110,mKarTel,mMTS,mMTS,,D01,2017-07-26T15:31:49+06:00,
1000000000428635,77017299365,mKcell,mKarTel,mKcell,D01,D02,2017-07-26T15:32:36+06:00,
1000000000428637,77079959593,mMTS,mAltel,mMTS,D07,D77,2017-07-26T15:32:39+06:00,
1000000000428638,77056822228,mAltel,mKarTel,mKarTel,,D07,2017-07-26T15:34:04+06:00,
1000000000428639,77478474011,mKarTel,mMTS,mMTS,,D01,2017-07-26T15:34:12+06:00,
1000000000428641,77017777186,mKcell,mKarTel,mKcell,D01,D02,2017-07-26T15:35:49+06:00,
1000000000428643,77716000002,mKarTel,mKcell,mKarTel,D02,D01,2017-07-26T15:36:50+06:00,
1000000000428644,77753365431,mMTS,mKcell,mKcell,,D77,2017-07-26T15:37:20+06:00,
1000000000428648,77076384934,mKarTel,mMTS,mMTS,,D01,2017-07-26T15:43:30+06:00,
1000000000428649,77006662104,mMTS,mAltel,mAltel,,D77,2017-07-26T15:44:38+06:00,
1000000000428650,77003550739,mKcell,mAltel,mAltel,,D02,2017-07-26T15:45:26+06:00,
1000000000428651,77715188183,mAltel,mKarTel,mKarTel,,D07,2017-07-26T15:46:02+06:00,
1000000000428652,77771899636,mKarTel,mAltel,mKarTel,D07,D01,2017-07-26T15:46:37+06:00,
1000000000428653,77074250488,mKarTel,mMTS,mMTS,,D01,2017-07-26T15:47:03+06:00,
1000000000428654,77751299292,mMTS,mKcell,mKcell,D02,D77,2017-07-26T15:48:18+06:00,
1000000000428656,77086636137,mMTS,mAltel,mAltel,,D77,2017-07-26T15:50:01+06:00,
1000000000428658,77079509495,mKcell,mMTS,mMTS,,D02,2017-07-26T15:51:30+06:00,
1000000000428661,77751757680,mKcell,mKarTel,mKcell,D01,D02,2017-07-26T15:58:25+06:00,
1000000000428662,77787782338,mMTS,mKcell,mKcell,,D77,2017-07-26T15:53:29+06:00,
1000000000428663,77753365298,mMTS,mKcell,mKcell,,D77,2017-07-26T15:52:37+06:00,
1000000000428664,77006662068,mMTS,mAltel,mAltel,,D77,2017-07-26T15:53:01+06:00,
1000000000428665,77086636028,mMTS,mAltel,mAltel,,D77,2017-07-26T15:54:19+06:00,
1000000000428666,77783088641,mKarTel,mKcell,mKcell,,D01,2017-07-26T15:55:27+06:00,
1000000000428667,77016653665,mAltel,mKcell,mKcell,,D07,2017-07-26T15:56:12+06:00,
1000000000428668,77022421849,mKcell,mAltel,mKcell,D07,D02,2017-07-26T15:57:10+06:00,
1000000000428669,77011270217,mKcell,mMTS,mKcell,D77,D02,2017-07-26T15:57:48+06:00,
1000000000428670,77782556187,mMTS,mKcell,mKcell,,D77,2017-07-26T15:57:37+06:00,
1000000000428671,77782068707,mKarTel,mKcell,mKcell,,D01,2017-07-26T15:59:12+06:00,
1000000000428672,77086636034,mMTS,mAltel,mAltel,,D77,2017-07-26T15:59:30+06:00,
1000000000428673,77016558107,mAltel,mKcell,mKcell,,D07,2017-07-26T15:59:53+06:00,
