NPId,Number,RecipientId,DonorId,RangeHolderId,OldRoute,NewRoute,PortDate,RowCount
1000000000310880,77004856596,mMTS,mAltel,mAltel,,D77,2017-01-15T11:30:58+06:00,7
1000000000310881,77777914930,mMTS,mKcell,mKarTel,D02,D77,2017-01-15T11:39:53+06:00,
1000000000310882,77474409512,mKarTel,mMTS,mMTS,,D01,2017-01-15T11:42:16+06:00,
1000000000310884,77022477742,mKarTel,mAltel,mKcell,D07,D01,2017-01-15T11:54:05+06:00,
1000000000310885,77081091159,mMTS,mAltel,mAltel,,D77,2017-01-15T11:53:58+06:00,
1000000000310886,77014027888,mMTS,mKcell,mKcell,,D77,2017-01-15T11:57:49+06:00,
1000000000310887,77017596975,mMTS,mKcell,mKcell,,D77,2017-01-15T11:58:57+06:00,
