NPId,Number,RecipientId,DonorId,RangeHolderId,OldRoute,NewRoute,PortDate,RowCount
1000000000183610,77785343333,mMTS,mKcell,mKcell,,D77,2016-05-30T13:00:49+06:00,40
1000000000183611,77757009060,mAltel,mKcell,mKcell,,D07,2016-05-30T13:01:22+06:00,
1000000000183612,77776436868,mKcell,mKarTel,mKarTel,,D02,2016-05-30T13:02:43+06:00,
1000000000183613,77055888666,mMTS,mKarTel,mKarTel,,D77,2016-05-30T13:02:34+06:00,
1000000000183614,77078070051,mKarTel,mMTS,mMTS,,D01,2016-05-30T13:02:57+06:00,
1000000000183615,77026117088,mMTS,mKcell,mKcell,,D77,2016-05-30T13:04:26+06:00,
1000000000183617,77783880060,mMTS,mKcell,mKcell,,D77,2016-05-30T13:04:26+06:00,
1000000000183618,77077886153,mAltel,mMTS,mMTS,,D07,2016-05-30T13:03:27+06:00,
1000000000183619,77087523677,mMTS,mAltel,mAltel,,D77,2016-05-30T13:03:56+06:00,
1000000000183620,77059844215,mKarTel,mMTS,mKarTel,D77,D01,2016-05-30T13:04:11+06:00,
1000000000183621,77758240389,mMTS,mKcell,mKcell,,D77,2016-05-30T13:05:21+06:00,
1000000000183625,77012139166,mAltel,mKcell,mKcell,,D07,2016-05-30T13:10:36+06:00,
1000000000183626,77712641611,mMTS,mKarTel,mKarTel,,D77,2016-05-30T13:09:25+06:00,
1000000000183627,77784943127,mMTS,mKcell,mKcell,,D77,2016-05-30T13:12:32+06:00,
1000000000183628,77014310030,mKarTel,mKcell,mKcell,,D01,2016-05-30T13:12:49+06:00,
1000000000183629,77019588671,mMTS,mKcell,mKcell,,D77,2016-05-30T13:21:22+06:00,
1000000000183630,77711637367,mMTS,mKarTel,mKarTel,,D77,2016-05-30T13:11:48+06:00,
1000000000183631,77028980177,mMTS,mKcell,mKcell,,D77,2016-05-30T13:21:22+06:00,
1000000000183632,77711051028,mMTS,mKarTel,mKarTel,,D77,2016-05-30T13:12:06+06:00,
1000000000183633,77772723803,mMTS,mKarTel,mKarTel,,D77,2016-05-30T13:12:30+06:00,
1000000000183634,77027660764,mMTS,mKcell,mKcell,,D77,2016-05-30T13:21:22+06:00,
1000000000183636,77073233707,mKarTel,mKcell,mMTS,D02,D01,2016-05-30T13:23:42+06:00,
1000000000183637,77087667583,mMTS,mAltel,mAltel,,D77,2016-05-30T13:13:08+06:00,
1000000000183639,77025207529,mMTS,mKcell,mKcell,,D77,2016-05-30T13:23:23+06:00,
1000000000183640,77012358982,mMTS,mKcell,mKcell,,D77,2016-05-30T13:23:23+06:00,
1000000000183643,77777524252,mMTS,mKarTel,mKarTel,,D77,2016-05-30T13:18:47+06:00,
1000000000183645,77714032554,mAltel,mKarTel,mKarTel,,D07,2016-05-30T13:19:30+06:00,
1000000000183648,77777090353,mKarTel,mMTS,mKarTel,D77,D01,2016-05-30T13:21:03+06:00,
1000000000183651,77010871115,mMTS,mKcell,mKcell,,D77,2016-05-30T13:23:25+06:00,
1000000000183652,77789457776,mMTS,mKcell,mKcell,,D77,2016-05-30T13:24:14+06:00,
1000000000183654,77022189085,mMTS,mKcell,mKcell,,D77,2016-05-30T13:24:12+06:00,
1000000000183656,77019996099,mKcell,mKarTel,mKcell,D01,D02,2016-05-30T13:25:44+06:00,
1000000000183658,77089579464,mKcell,mAltel,mAltel,,D02,2016-05-30T13:25:44+06:00,
1000000000183659,77012239838,mMTS,mKcell,mKcell,,D77,2016-05-30T13:25:36+06:00,
1000000000183661,77082147971,mMTS,mAltel,mAltel,,D77,2016-05-30T13:25:44+06:00,
1000000000183662,77772560197,mAltel,mKarTel,mKarTel,,D07,2016-05-30T13:26:07+06:00,
1000000000183663,77087696372,mMTS,mAltel,mAltel,,D77,2016-05-30T13:27:07+06:00,
1000000000183664,77017553667,mMTS,mKcell,mKcell,,D77,2016-05-30T13:29:14+06:00,
1000000000183666,77053388111,mMTS,mKarTel,mKarTel,,D77,2016-05-30T13:29:00+06:00,
1000000000183667,77475281607,mKarTel,mMTS,mMTS,,D01,2016-05-30T13:28:58+06:00,
