NPId,Number,RecipientId,DonorId,RangeHolderId,OldRoute,NewRoute,PortDate,RowCount
1000000000092895,77012060021,mAltel,mKcell,mKcell,,D07,2016-02-19T10:00:04+06:00,47
1000000000092896,77759499697,mMTS,mKcell,mKcell,,D77,2016-02-19T10:00:31+06:00,
1000000000092897,77087358383,mMTS,mAltel,mAltel,,D77,2016-02-19T10:01:46+06:00,
1000000000092898,77012663245,mAltel,mKcell,mKcell,,D07,2016-02-19T10:02:08+06:00,
1000000000092899,77022987255,mAltel,mKcell,mKcell,,D07,2016-02-19T10:02:08+06:00,
1000000000092900,77772342880,mMTS,mKarTel,mKarTel,,D77,2016-02-19T10:02:14+06:00,
1000000000092901,77029375555,mMTS,mKcell,mKcell,,D77,2016-02-19T10:02:08+06:00,
1000000000092902,77712414121,mMTS,mKarTel,mKarTel,,D77,2016-02-19T10:02:14+06:00,
1000000000092903,77052084332,mMTS,mKarTel,mKarTel,,D77,2016-02-19T10:02:14+06:00,
1000000000092905,77017492944,mMTS,mKcell,mKcell,,D77,2016-02-19T10:02:08+06:00,
1000000000092906,77771770075,mMTS,mKarTel,mKarTel,,D77,2016-02-19T10:02:16+06:00,
1000000000092907,77053867112,mMTS,mKarTel,mKarTel,,D77,2016-02-19T10:02:16+06:00,
1000000000092908,77759403337,mMTS,mKcell,mKcell,,D77,2016-02-19T10:02:08+06:00,
1000000000092909,77784117166,mMTS,mKcell,mKcell,,D77,2016-02-19T10:02:10+06:00,
1000000000092910,77772975757,mMTS,mKarTel,mKarTel,,D77,2016-02-19T10:02:16+06:00,
1000000000092911,77771171199,mMTS,mKarTel,mKarTel,,D77,2016-02-19T10:02:16+06:00,
1000000000092912,77772365756,mMTS,mKarTel,mKarTel,,D77,2016-02-19T10:02:16+06:00,
1000000000092914,77013447227,mMTS,mKcell,mKcell,,D77,2016-02-19T10:02:08+06:00,
1000000000092915,77016878731,mMTS,mKcell,mKcell,,D77,2016-02-19T10:02:10+06:00,
1000000000092916,77083344144,mMTS,mAltel,mAltel,,D77,2016-02-19T10:01:56+06:00,
1000000000092917,77059978940,mKcell,mKarTel,mKarTel,,D02,2016-02-19T10:03:58+06:00,
1000000000092918,77753003444,mKarTel,mKcell,mKcell,,D01,2016-02-19T10:03:50+06:00,
1000000000092919,77774072222,mAltel,mKarTel,mKarTel,,D07,2016-02-19T10:05:12+06:00,
1000000000092921,77011234444,mMTS,mKcell,mKcell,,D77,2016-02-19T10:06:48+06:00,
1000000000092922,77084001804,mKarTel,mAltel,mAltel,,D01,2016-02-19T10:07:50+06:00,
1000000000092923,77011916924,mMTS,mKcell,mKcell,,D77,2016-02-19T10:09:24+06:00,
1000000000092925,77059979374,mKcell,mKarTel,mKarTel,,D02,2016-02-19T10:10:34+06:00,
1000000000092927,77011916923,mMTS,mKcell,mKcell,,D77,2016-02-19T10:10:30+06:00,
1000000000092929,77084001797,mKarTel,mAltel,mAltel,,D01,2016-02-19T10:11:59+06:00,
1000000000092930,77752217811,mMTS,mKcell,mKcell,,D77,2016-02-19T10:12:21+06:00,
1000000000092931,77073576710,mKcell,mMTS,mMTS,,D02,2016-02-19T10:13:43+06:00,
1000000000092932,77084001792,mKarTel,mAltel,mAltel,,D01,2016-02-19T10:13:46+06:00,
1000000000092933,77073996752,mAltel,mMTS,mMTS,,D07,2016-02-19T10:15:03+06:00,
1000000000092935,77084001788,mKarTel,mAltel,mAltel,,D01,2016-02-19T10:15:40+06:00,
1000000000092936,77059978729,mKcell,mKarTel,mKarTel,,D02,2016-02-19T10:17:19+06:00,
1000000000092938,77072627214,mAltel,mMTS,mMTS,,D07,2016-02-19T10:18:31+06:00,
1000000000092939,77772212439,mAltel,mKarTel,mKarTel,,D07,2016-02-19T10:19:01+06:00,
1000000000092940,77027250620,mKarTel,mKcell,mKcell,,D01,2016-02-19T10:19:21+06:00,
1000000000092942,77771414573,mAltel,mKarTel,mKarTel,,D07,2016-02-19T10:20:38+06:00,
1000000000092943,77012639790,mKarTel,mKcell,mKcell,,D01,2016-02-19T10:21:15+06:00,
1000000000092944,77475349970,mAltel,mMTS,mMTS,,D07,2016-02-19T10:20:36+06:00,
1000000000092945,77075073663,mAltel,mMTS,mMTS,,D07,2016-02-19T10:21:18+06:00,
1000000000092946,77075674004,mAltel,mMTS,mMTS,,D07,2016-02-19T10:21:51+06:00,
1000000000092947,77077568889,mKarTel,mMTS,mMTS,,D01,2016-02-19T10:23:56+06:00,
1000000000092949,77059979543,mKcell,mKarTel,mKarTel,,D02,2016-02-19T10:24:46+06:00,
1000000000092951,77084001783,mKarTel,mAltel,mAltel,,D01,2016-02-19T10:26:38+06:00,
1000000000092960,77713222255,mMTS,mKarTel,mKarTel,,D77,2016-02-19T10:29:40+06:00,
