NPId,Number,RecipientId,DonorId,RangeHolderId,OldRoute,NewRoute,PortDate,RowCount
1000000000391405,77005558106,mKcell,mAltel,mAltel,,D02,2017-05-28T17:00:11+06:00,20
1000000000391406,77019299810,mAltel,mKcell,mKcell,,D07,2017-05-28T17:00:10+06:00,
1000000000391407,77075711657,mKarTel,mMTS,mMTS,,D01,2017-05-28T17:01:03+06:00,
1000000000391408,77028398093,mMTS,mKcell,mKcell,,D77,2017-05-28T17:02:24+06:00,
1000000000391409,77017738080,mMTS,mKcell,mKcell,,D77,2017-05-28T17:04:23+06:00,
1000000000391410,77001113068,mKcell,mAltel,mAltel,,D02,2017-05-28T17:04:39+06:00,
1000000000391411,77026727393,mKarTel,mKcell,mKcell,,D01,2017-05-28T17:05:53+06:00,
1000000000391412,77756510099,mKarTel,mMTS,mKcell,D77,D01,2017-05-28T17:05:38+06:00,
1000000000391417,77022234200,mMTS,mKcell,mKcell,,D77,2017-05-28T17:14:05+06:00,
1000000000391419,77007099897,mKcell,mAltel,mAltel,,D02,2017-05-28T17:17:39+06:00,
1000000000391421,77777382031,mAltel,mKarTel,mKarTel,,D07,2017-05-28T17:18:43+06:00,
1000000000391423,77072777828,mKarTel,mMTS,mMTS,,D01,2017-05-28T17:19:47+06:00,
1000000000391424,77015210558,mMTS,mKcell,mKcell,,D77,2017-05-28T17:20:55+06:00,
1000000000391427,77764441446,mMTS,mKarTel,mKarTel,,D77,2017-05-28T17:22:14+06:00,
1000000000391428,77017753530,mMTS,mKcell,mKcell,,D77,2017-05-28T17:22:52+06:00,
1000000000391429,77753381515,mKcell,mMTS,mKcell,D77,D02,2017-05-28T17:24:17+06:00,
1000000000391431,77052777377,mKarTel,mMTS,mKarTel,D77,D01,2017-05-28T17:25:47+06:00,
1000000000391432,77029007694,mKcell,mKarTel,mKcell,D01,D02,2017-05-28T17:28:02+06:00,
1000000000391433,77710010079,mMTS,mKarTel,mKarTel,,D77,2017-05-28T17:28:07+06:00,
1000000000391434,77783000093,mMTS,mKcell,mKcell,,D77,2017-05-28T17:28:19+06:00,
