NPId,Number,RecipientId,DonorId,RangeHolderId,OldRoute,NewRoute,PortDate,RowCount
1000000000276256,77077882720,mMTS,mKarTel,mMTS,D01,D77,2016-11-08T18:30:05+06:00,18
1000000000276257,77015068161,mKarTel,mKcell,mKcell,,D01,2016-11-08T18:30:11+06:00,
1000000000276258,77053028449,mMTS,mKarTel,mKarTel,,D77,2016-11-08T18:34:03+06:00,
1000000000276260,77760742121,mKcell,mKarTel,mKarTel,,D02,2016-11-08T18:39:15+06:00,
1000000000276261,77758444313,mKcell,mMTS,mKcell,D77,D02,2016-11-08T18:36:54+06:00,
1000000000276262,77089211184,mAltel,mKcell,mAltel,D02,D07,2016-11-08T18:37:10+06:00,
1000000000276263,77079755075,mKcell,mMTS,mMTS,,D02,2016-11-08T18:37:16+06:00,
1000000000276264,77768440000,mKcell,mKarTel,mKarTel,,D02,2016-11-08T18:37:31+06:00,
1000000000276266,77784599111,mMTS,mKcell,mKcell,,D77,2016-11-08T18:42:36+06:00,
1000000000276268,77028649698,mKarTel,mKcell,mKcell,,D01,2016-11-08T18:44:35+06:00,
1000000000276269,77776999294,mAltel,mKarTel,mKarTel,,D07,2016-11-08T18:45:03+06:00,
1000000000276270,77023113448,mAltel,mKcell,mKcell,,D07,2016-11-08T18:45:26+06:00,
1000000000276272,77017402895,mKcell,mKarTel,mKcell,D01,D02,2016-11-08T18:49:07+06:00,
1000000000276275,77782325020,mMTS,mKcell,mKcell,,D77,2016-11-08T18:51:34+06:00,
1000000000276276,77785054924,mMTS,mKcell,mKcell,,D77,2016-11-08T18:51:55+06:00,
1000000000276277,77768060000,mMTS,mKarTel,mKarTel,,D77,2016-11-08T18:54:34+06:00,
1000000000276278,77756680575,mKcell,mMTS,mKcell,D77,D02,2016-11-08T18:57:14+06:00,
1000000000276280,77779779787,mMTS,mKarTel,mKarTel,,D77,2016-11-08T18:59:10+06:00,
