NPId,Number,RecipientId,DonorId,RangeHolderId,OldRoute,NewRoute,PortDate,RowCount
1000000000418476,77011210602,mKarTel,mKcell,mKcell,,D01,2017-07-08T18:42:10+06:00,3
1000000000418477,77767777526,mMTS,mKarTel,mKarTel,,D77,2017-07-08T18:45:26+06:00,
1000000000418479,77711166868,mMTS,mKarTel,mKarTel,,D77,2017-07-08T18:49:54+06:00,
