NPId,Number,RecipientId,DonorId,RangeHolderId,OldRoute,NewRoute,PortDate,RowCount
1000000000095785,77023604084,mKarTel,mKcell,mKcell,,D01,2016-02-22T13:00:33+06:00,40
1000000000095787,77086588569,mKcell,mAltel,mAltel,,D02,2016-02-22T13:04:33+06:00,
1000000000095788,77017807882,mMTS,mKcell,mKcell,,D77,2016-02-22T13:06:43+06:00,
1000000000095789,77763900002,mMTS,mKarTel,mKarTel,,D77,2016-02-22T13:07:04+06:00,
1000000000095793,77017489827,mMTS,mKcell,mKcell,,D77,2016-02-22T13:08:03+06:00,
1000000000095794,77019967165,mMTS,mKcell,mKcell,,D77,2016-02-22T13:22:50+06:00,
1000000000095795,77780007895,mAltel,mKcell,mKcell,,D07,2016-02-22T13:08:11+06:00,
1000000000095798,77072229907,mAltel,mMTS,mMTS,,D07,2016-02-22T13:10:24+06:00,
1000000000095800,77019967158,mMTS,mKcell,mKcell,,D77,2016-02-22T13:22:57+06:00,
1000000000095801,77057059131,mMTS,mKarTel,mKarTel,,D77,2016-02-22T13:12:13+06:00,
1000000000095802,77053038777,mAltel,mKarTel,mKarTel,,D07,2016-02-22T13:12:13+06:00,
1000000000095804,77784446640,mMTS,mKcell,mKcell,,D77,2016-02-22T13:11:55+06:00,
1000000000095805,77076641100,mKarTel,mMTS,mMTS,,D01,2016-02-22T13:13:07+06:00,
1000000000095806,77084983316,mKcell,mAltel,mAltel,,D02,2016-02-22T13:13:23+06:00,
1000000000095807,77076762667,mKarTel,mMTS,mMTS,,D01,2016-02-22T13:13:42+06:00,
1000000000095809,77015306566,mAltel,mKcell,mKcell,,D07,2016-02-22T13:15:19+06:00,
1000000000095810,77077210011,mKarTel,mMTS,mMTS,,D01,2016-02-22T13:16:01+06:00,
1000000000095811,77714654353,mMTS,mKarTel,mKarTel,,D77,2016-02-22T13:16:13+06:00,
1000000000095815,77056633331,mMTS,mKarTel,mKarTel,,D77,2016-02-22T13:17:07+06:00,
1000000000095817,77001411424,mKcell,mAltel,mAltel,,D02,2016-02-22T13:19:06+06:00,
1000000000095818,77770300301,mAltel,mKarTel,mKarTel,,D07,2016-02-22T13:18:55+06:00,
1000000000095819,77016724105,mMTS,mKcell,mKcell,,D77,2016-02-22T13:19:08+06:00,
1000000000095820,77773074343,mKcell,mKarTel,mKarTel,,D02,2016-02-22T13:19:59+06:00,
1000000000095821,77077210111,mKcell,mMTS,mMTS,,D02,2016-02-22T13:19:46+06:00,
1000000000095824,77017255373,mMTS,mKcell,mKcell,,D77,2016-02-22T13:22:04+06:00,
1000000000095825,77072447336,mAltel,mMTS,mMTS,,D07,2016-02-22T13:24:50+06:00,
1000000000095826,77078819942,mKcell,mMTS,mMTS,,D02,2016-02-22T13:26:28+06:00,
1000000000095827,77018662734,mKarTel,mKcell,mKcell,,D01,2016-02-22T13:26:32+06:00,
1000000000095828,77075035303,mKcell,mMTS,mMTS,,D02,2016-02-22T13:27:05+06:00,
1000000000095829,77005339999,mKcell,mAltel,mAltel,,D02,2016-02-22T13:27:04+06:00,
1000000000095830,77025300033,mMTS,mKcell,mKcell,,D77,2016-02-22T13:27:00+06:00,
1000000000095831,77082080818,mMTS,mAltel,mAltel,,D77,2016-02-22T13:26:56+06:00,
1000000000095832,77028555522,mKarTel,mKcell,mKcell,,D01,2016-02-22T13:27:33+06:00,
1000000000095833,77073690001,mKcell,mMTS,mMTS,,D02,2016-02-22T13:27:45+06:00,
1000000000095834,77059048578,mAltel,mKarTel,mKarTel,,D07,2016-02-22T13:27:43+06:00,
1000000000095835,77479403474,mKcell,mMTS,mMTS,,D02,2016-02-22T13:27:56+06:00,
1000000000095836,77774750368,mKcell,mKarTel,mKarTel,,D02,2016-02-22T13:28:17+06:00,
1000000000095837,77011478557,mMTS,mKcell,mKcell,,D77,2016-02-22T13:28:16+06:00,
1000000000095838,77789507819,mAltel,mKcell,mKcell,,D07,2016-02-22T13:28:57+06:00,
1000000000095839,77012289859,mAltel,mKcell,mKcell,,D07,2016-02-22T13:29:29+06:00,
