NPId,Number,RecipientId,DonorId,RangeHolderId,OldRoute,NewRoute,PortDate,RowCount
1000000000429293,77770000170,mMTS,mKarTel,mKarTel,,D77,2017-07-27T15:39:30+06:00,22
1000000000429356,77017133457,mKarTel,mKcell,mKcell,,D01,2017-07-27T15:31:52+06:00,
1000000000429357,77784400008,mMTS,mKcell,mKcell,,D77,2017-07-27T15:32:17+06:00,
1000000000429358,77020592726,mMTS,mKcell,mKcell,,D77,2017-07-27T15:33:37+06:00,
1000000000429359,77756357721,mAltel,mKcell,mKcell,,D07,2017-07-27T15:33:55+06:00,
1000000000429360,77058004575,mKcell,mKarTel,mKarTel,,D02,2017-07-27T15:37:34+06:00,
1000000000429361,77072994888,mKcell,mMTS,mMTS,,D02,2017-07-27T15:37:57+06:00,
1000000000429362,77476604580,mAltel,mMTS,mMTS,,D07,2017-07-27T15:37:09+06:00,
1000000000429363,77771917177,mKcell,mKarTel,mKarTel,,D02,2017-07-27T15:38:04+06:00,
1000000000429365,77781002324,mKarTel,mKcell,mKcell,D02,D01,2017-07-27T15:41:16+06:00,
1000000000429367,77011009581,mMTS,mKcell,mKcell,,D77,2017-07-27T15:42:18+06:00,
1000000000429368,77023486927,mMTS,mKcell,mKcell,,D77,2017-07-27T15:42:24+06:00,
1000000000429371,77076575724,mKcell,mMTS,mMTS,,D02,2017-07-27T15:43:57+06:00,
1000000000429372,77016781707,mMTS,mKcell,mKcell,,D77,2017-07-27T15:44:38+06:00,
1000000000429373,77775180083,mKcell,mKarTel,mKarTel,,D02,2017-07-27T15:47:32+06:00,
1000000000429375,77052501005,mMTS,mKarTel,mKarTel,,D77,2017-07-27T15:48:47+06:00,
1000000000429376,77004925438,mMTS,mAltel,mAltel,,D77,2017-07-27T15:49:23+06:00,
1000000000429378,77787094484,mKcell,mKarTel,mKcell,D01,D02,2017-07-27T15:53:50+06:00,
1000000000429379,77001744284,mKcell,mAltel,mAltel,,D02,2017-07-27T15:53:44+06:00,
1000000000429380,77017256578,mKarTel,mKcell,mKcell,,D01,2017-07-27T15:55:16+06:00,
1000000000429383,77783332633,mAltel,mKcell,mKcell,,D07,2017-07-27T15:59:04+06:00,
1000000000429385,77769776779,mAltel,mMTS,mKarTel,D77,D07,2017-07-27T15:59:26+06:00,
