NPId,Number,RecipientId,DonorId,RangeHolderId,OldRoute,NewRoute,PortDate,RowCount
1000000000321673,77011001467,mMTS,mKcell,mKcell,,D77,2017-02-01T18:00:03+06:00,38
1000000000321674,77711918888,mMTS,mKarTel,mKarTel,,D77,2017-02-01T18:15:27+06:00,
1000000000321676,77028403445,mKcell,mKarTel,mKcell,D01,D02,2017-02-01T18:00:44+06:00,
1000000000321678,77757824822,mKarTel,mKcell,mKcell,,D01,2017-02-01T18:01:28+06:00,
1000000000321682,77772213398,mMTS,mKarTel,mKarTel,,D77,2017-02-01T18:03:02+06:00,
1000000000321683,77772585858,mMTS,mKarTel,mKarTel,,D77,2017-02-01T18:03:03+06:00,
1000000000321685,77056271523,mMTS,mKarTel,mKarTel,,D77,2017-02-01T18:03:01+06:00,
1000000000321687,77010688886,mMTS,mKcell,mKcell,,D77,2017-02-01T18:03:29+06:00,
1000000000321688,77015293132,mKarTel,mKcell,mKcell,,D01,2017-02-01T18:03:45+06:00,
1000000000321689,77777537828,mMTS,mKarTel,mKarTel,,D77,2017-02-01T18:04:03+06:00,
1000000000321690,77773893610,mMTS,mKarTel,mKarTel,,D77,2017-02-01T18:05:38+06:00,
1000000000321693,77086682622,mKarTel,mMTS,mAltel,D77,D01,2017-02-01T18:06:28+06:00,
1000000000321695,77775360003,mMTS,mKarTel,mKarTel,,D77,2017-02-01T18:22:41+06:00,
1000000000321696,77753188850,mMTS,mKcell,mKcell,,D77,2017-02-01T18:07:43+06:00,
1000000000321697,77759597101,mMTS,mKcell,mKcell,,D77,2017-02-01T18:08:46+06:00,
1000000000321698,77753909845,mKcell,mKarTel,mKcell,D01,D02,2017-02-01T18:09:31+06:00,
1000000000321701,77777477710,mAltel,mKarTel,mKarTel,,D07,2017-02-01T18:10:03+06:00,
1000000000321703,77017496204,mKcell,mMTS,mKcell,D77,D02,2017-02-01T18:10:44+06:00,
1000000000321704,77017447542,mKarTel,mKcell,mKcell,,D01,2017-02-01T18:11:35+06:00,
1000000000321705,77017015221,mKcell,mKarTel,mKcell,D01,D02,2017-02-01T18:12:12+06:00,
1000000000321707,77754579797,mKarTel,mKcell,mKcell,,D01,2017-02-01T18:12:44+06:00,
1000000000321709,77027775970,mKcell,mKarTel,mKcell,D01,D02,2017-02-01T18:14:08+06:00,
1000000000321710,77777571718,mKcell,mKarTel,mKarTel,,D02,2017-02-01T18:14:12+06:00,
1000000000321711,77017377317,mMTS,mKcell,mKcell,,D77,2017-02-01T18:13:54+06:00,
1000000000321712,77770072699,mKcell,mKarTel,mKarTel,,D02,2017-02-01T18:29:44+06:00,
1000000000321713,77056049274,mMTS,mKarTel,mKarTel,,D77,2017-02-01T18:15:00+06:00,
1000000000321715,77058173273,mMTS,mKarTel,mKarTel,,D77,2017-02-01T18:15:52+06:00,
1000000000321717,77471711719,mKcell,mMTS,mMTS,,D02,2017-02-01T18:16:23+06:00,
1000000000321719,77070258585,mKarTel,mMTS,mMTS,,D01,2017-02-01T18:17:34+06:00,
1000000000321722,77076776422,mKcell,mMTS,mMTS,,D02,2017-02-01T18:19:47+06:00,
1000000000321723,77003131207,mAltel,mMTS,mAltel,D77,D07,2017-02-01T18:20:08+06:00,
1000000000321724,77052063358,mMTS,mKarTel,mKarTel,,D77,2017-02-01T18:20:47+06:00,
1000000000321726,77075138414,mMTS,mKcell,mMTS,D02,D77,2017-02-01T18:21:51+06:00,
1000000000321727,77012224024,mMTS,mKcell,mKcell,,D77,2017-02-01T18:21:53+06:00,
1000000000321730,77076460001,mKarTel,mMTS,mMTS,,D01,2017-02-01T18:23:41+06:00,
1000000000321734,77072821123,mKarTel,mMTS,mMTS,,D01,2017-02-01T18:25:48+06:00,
1000000000321740,77765733339,mKarTel,mKcell,mKarTel,D02,D01,2017-02-01T18:27:00+06:00,
1000000000321741,77714146727,mAltel,mKarTel,mKarTel,,D07,2017-02-01T18:28:09+06:00,
