NPId,Number,RecipientId,DonorId,RangeHolderId,OldRoute,NewRoute,PortDate,RowCount
1000000000173796,77474088842,mKarTel,mMTS,mMTS,,D01,2016-05-14T09:02:09+06:00,3
1000000000173797,77029414996,mKarTel,mKcell,mKcell,,D01,2016-05-14T09:22:50+06:00,
1000000000173799,77003417654,mKarTel,mAltel,mAltel,,D01,2016-05-14T09:27:58+06:00,
