NPId,Number,RecipientId,DonorId,RangeHolderId,OldRoute,NewRoute,PortDate,RowCount
1000000000329780,77019160638,mKcell,mMTS,mKcell,D77,D02,2017-02-16T14:00:54+06:00,15
1000000000329783,77022456462,mMTS,mKcell,mKcell,,D77,2017-02-16T14:04:58+06:00,
1000000000329784,77007350077,mKcell,mMTS,mAltel,D77,D02,2017-02-16T14:07:11+06:00,
1000000000329787,77012772568,mKarTel,mKcell,mKcell,,D01,2017-02-16T14:10:10+06:00,
1000000000329788,77076277548,mAltel,mMTS,mMTS,,D07,2017-02-16T14:10:10+06:00,
1000000000329789,77083333777,mAltel,mKcell,mAltel,D02,D07,2017-02-16T14:10:36+06:00,
1000000000329790,77783607070,mKcell,mMTS,mKcell,D77,D02,2017-02-16T14:11:02+06:00,
1000000000329791,77754776623,mKarTel,mMTS,mKcell,D77,D01,2017-02-16T14:20:07+06:00,
1000000000329792,77072766686,mAltel,mMTS,mMTS,,D07,2017-02-16T14:20:45+06:00,
1000000000329793,77471411443,mKcell,mMTS,mMTS,,D02,2017-02-16T14:23:10+06:00,
1000000000329794,77014267779,mKarTel,mKcell,mKcell,,D01,2017-02-16T14:23:27+06:00,
1000000000329795,77051480869,mKcell,mKarTel,mKarTel,,D02,2017-02-16T14:25:13+06:00,
1000000000329796,77753325647,mMTS,mKcell,mKcell,,D77,2017-02-16T14:25:17+06:00,
1000000000329798,77022509735,mAltel,mKcell,mKcell,,D07,2017-02-16T14:26:59+06:00,
1000000000329799,77778761313,mKarTel,mMTS,mKarTel,D77,D01,2017-02-16T14:28:36+06:00,
