NPId,Number,RecipientId,DonorId,RangeHolderId,OldRoute,NewRoute,PortDate,RowCount
1000000000319913,77058894879,mKcell,mKarTel,mKarTel,,D02,2017-01-31T12:32:30+06:00,28
1000000000319914,77760140104,mMTS,mKarTel,mKarTel,,D77,2017-01-31T12:32:41+06:00,
1000000000319915,77787436718,mMTS,mKcell,mKcell,,D77,2017-01-31T12:32:50+06:00,
1000000000319916,77019716454,mKarTel,mAltel,mKcell,D07,D01,2017-01-31T12:33:40+06:00,
1000000000319917,77015266321,mAltel,mKcell,mKcell,,D07,2017-01-31T12:33:41+06:00,
1000000000319918,77019551702,mKarTel,mKcell,mKcell,,D01,2017-01-31T12:34:33+06:00,
1000000000319919,77052302759,mAltel,mKarTel,mKarTel,,D07,2017-01-31T12:34:48+06:00,
1000000000319920,77754301420,mMTS,mKcell,mKcell,,D77,2017-01-31T12:34:58+06:00,
1000000000319921,77029555875,mKcell,mKarTel,mKcell,D01,D02,2017-01-31T12:35:29+06:00,
1000000000319922,77017110915,mKarTel,mKcell,mKcell,,D01,2017-01-31T12:36:20+06:00,
1000000000319924,77017070130,mKarTel,mKcell,mKcell,,D01,2017-01-31T12:37:05+06:00,
1000000000319925,77055505057,mKarTel,mMTS,mKarTel,D77,D01,2017-01-31T12:38:03+06:00,
1000000000319928,77770400780,mMTS,mKarTel,mKarTel,,D77,2017-01-31T12:38:59+06:00,
1000000000319930,77017170915,mKarTel,mKcell,mKcell,,D01,2017-01-31T12:41:27+06:00,
1000000000319931,77774775353,mMTS,mKarTel,mKarTel,D01,D77,2017-01-31T12:41:42+06:00,
1000000000319932,77012282087,mMTS,mKcell,mKcell,,D77,2017-01-31T12:42:37+06:00,
1000000000319933,77000990909,mKcell,mAltel,mAltel,,D02,2017-01-31T12:43:16+06:00,
1000000000319935,77713419888,mKcell,mKarTel,mKarTel,,D02,2017-01-31T12:44:21+06:00,
1000000000319936,77471215979,mAltel,mMTS,mMTS,,D07,2017-01-31T12:43:58+06:00,
1000000000319937,77757227711,mAltel,mKcell,mKcell,,D07,2017-01-31T12:47:22+06:00,
1000000000319938,77028686222,mKarTel,mKcell,mKcell,,D01,2017-01-31T12:49:03+06:00,
1000000000319939,77476368109,mKarTel,mMTS,mMTS,,D01,2017-01-31T12:50:27+06:00,
1000000000319941,77073643054,mKcell,mMTS,mMTS,,D02,2017-01-31T12:50:31+06:00,
1000000000319942,77081344267,mMTS,mAltel,mAltel,,D77,2017-01-31T12:50:41+06:00,
1000000000319943,77715924799,mKcell,mKarTel,mKarTel,,D02,2017-01-31T12:54:12+06:00,
1000000000319946,77015141822,mAltel,mKcell,mKcell,,D07,2017-01-31T12:57:15+06:00,
1000000000319947,77027776703,mMTS,mKcell,mKcell,,D77,2017-01-31T12:57:49+06:00,
1000000000319948,77754767472,mMTS,mKcell,mKcell,,D77,2017-01-31T12:58:04+06:00,
