NPId,Number,RecipientId,DonorId,RangeHolderId,OldRoute,NewRoute,PortDate,RowCount
1000000000272237,77018800990,mKarTel,mKcell,mKcell,,D01,2016-11-02T15:41:07+06:00,20
1000000000272685,77072211175,mKarTel,mMTS,mMTS,,D01,2016-11-02T15:32:07+06:00,
1000000000272687,77005670362,mKcell,mAltel,mAltel,,D02,2016-11-02T15:34:23+06:00,
1000000000272688,77753011545,mKarTel,mMTS,mKcell,D77,D01,2016-11-02T15:35:08+06:00,
1000000000272691,77773705580,mMTS,mKarTel,mKarTel,,D77,2016-11-02T15:39:09+06:00,
1000000000272692,77024010004,mKarTel,mKcell,mKcell,,D01,2016-11-02T15:39:07+06:00,
1000000000272693,77000251225,mKcell,mAltel,mAltel,,D02,2016-11-02T15:40:48+06:00,
1000000000272695,77016138767,mKcell,mMTS,mKcell,D77,D02,2016-11-02T15:43:43+06:00,
1000000000272697,77753697707,mMTS,mKcell,mKcell,,D77,2016-11-02T15:41:57+06:00,
1000000000272704,77005261899,mKarTel,mAltel,mAltel,,D01,2016-11-02T15:46:14+06:00,
1000000000272705,77477771231,mKcell,mMTS,mMTS,,D02,2016-11-02T15:47:35+06:00,
1000000000272706,77716017777,mMTS,mKarTel,mKarTel,,D77,2016-11-02T15:49:49+06:00,
1000000000272708,77716333785,mMTS,mKarTel,mKarTel,,D77,2016-11-02T15:51:53+06:00,
1000000000272709,77022670342,mMTS,mKcell,mKcell,,D77,2016-11-02T15:51:57+06:00,
1000000000272710,77011802802,mKcell,mMTS,mKcell,D77,D02,2016-11-02T15:56:20+06:00,
1000000000272711,77074807574,mKcell,mMTS,mMTS,,D02,2016-11-02T15:54:50+06:00,
1000000000272712,77011303795,mMTS,mKcell,mKcell,,D77,2016-11-02T15:56:49+06:00,
1000000000272713,77015769724,mMTS,mKcell,mKcell,,D77,2016-11-02T15:56:49+06:00,
1000000000272714,77011800902,mKcell,mMTS,mKcell,D77,D02,2016-11-02T15:57:06+06:00,
1000000000272715,77054990107,mMTS,mKarTel,mKarTel,,D77,2016-11-02T15:58:17+06:00,
