NPId,Number,RecipientId,DonorId,RangeHolderId,OldRoute,NewRoute,PortDate,RowCount
1000000000336934,77017656087,mMTS,mKcell,mKcell,,D77,2017-02-28T16:42:53+06:00,48
1000000000336936,77012218840,mMTS,mKcell,mKcell,,D77,2017-02-28T16:41:22+06:00,
1000000000336939,77018732744,mMTS,mKcell,mKcell,,D77,2017-02-28T16:38:20+06:00,
1000000000337398,77776662001,mMTS,mKarTel,mKarTel,,D77,2017-02-28T16:31:14+06:00,
1000000000337400,77078984145,mKcell,mMTS,mMTS,,D02,2017-02-28T16:31:56+06:00,
1000000000337401,77472669144,mAltel,mMTS,mMTS,,D07,2017-02-28T16:32:22+06:00,
1000000000337402,77017133100,mMTS,mKcell,mKcell,,D77,2017-02-28T16:32:37+06:00,
1000000000337403,77766800462,mMTS,mKarTel,mKarTel,,D77,2017-02-28T16:33:00+06:00,
1000000000337405,77009900006,mAltel,mMTS,mAltel,D77,D07,2017-02-28T16:35:23+06:00,
1000000000337406,77071812503,mKarTel,mMTS,mMTS,,D01,2017-02-28T16:36:17+06:00,
1000000000337408,77753480309,mMTS,mKcell,mKcell,,D77,2017-02-28T16:37:47+06:00,
1000000000337410,77471899302,mAltel,mMTS,mMTS,,D07,2017-02-28T16:38:31+06:00,
1000000000337411,77763331230,mKcell,mKarTel,mKarTel,,D02,2017-02-28T16:39:13+06:00,
1000000000337413,77025646728,mKcell,mKarTel,mKcell,D01,D02,2017-02-28T16:40:26+06:00,
1000000000337415,77472669031,mAltel,mMTS,mMTS,,D07,2017-02-28T16:41:22+06:00,
1000000000337416,77078612460,mKcell,mMTS,mMTS,,D02,2017-02-28T16:41:55+06:00,
1000000000337417,77023421080,mAltel,mKcell,mKcell,,D07,2017-02-28T16:42:11+06:00,
1000000000337418,77755810999,mKarTel,mKcell,mKcell,,D01,2017-02-28T16:42:25+06:00,
1000000000337419,77771815505,mMTS,mKarTel,mKarTel,,D77,2017-02-28T16:43:01+06:00,
1000000000337420,77777688886,mMTS,mKarTel,mKarTel,,D77,2017-02-28T16:43:07+06:00,
1000000000337421,77013762106,mAltel,mMTS,mKcell,D77,D07,2017-02-28T16:42:43+06:00,
1000000000337424,77022312026,mMTS,mKcell,mKcell,,D77,2017-02-28T16:44:19+06:00,
1000000000337426,77089131003,mKarTel,mMTS,mAltel,D77,D01,2017-02-28T16:46:40+06:00,
1000000000337427,77071618501,mMTS,mKarTel,mMTS,D01,D77,2017-02-28T16:47:16+06:00,
1000000000337429,77075224692,mKarTel,mMTS,mMTS,,D01,2017-02-28T16:49:25+06:00,
1000000000337431,77012887889,mAltel,mKcell,mKcell,D02,D07,2017-02-28T16:49:57+06:00,
1000000000337432,77471115868,mKarTel,mMTS,mMTS,,D01,2017-02-28T16:50:34+06:00,
1000000000337434,77017293692,mKarTel,mKcell,mKcell,,D01,2017-02-28T16:51:45+06:00,
1000000000337435,77779891020,mMTS,mKarTel,mKarTel,,D77,2017-02-28T16:51:46+06:00,
1000000000337437,77011101105,mMTS,mKcell,mKcell,,D77,2017-02-28T16:52:16+06:00,
1000000000337438,77714153511,mMTS,mKarTel,mKarTel,,D77,2017-02-28T16:52:37+06:00,
1000000000337439,77015804910,mAltel,mKcell,mKcell,,D07,2017-02-28T16:52:29+06:00,
1000000000337440,77766800307,mMTS,mKarTel,mKarTel,,D77,2017-02-28T16:53:05+06:00,
1000000000337441,77023306431,mMTS,mKcell,mKcell,D02,D77,2017-02-28T16:53:07+06:00,
1000000000337442,77088482188,mMTS,mAltel,mAltel,,D77,2017-02-28T16:53:05+06:00,
1000000000337443,77014025020,mKcell,mAltel,mKcell,D07,D02,2017-02-28T16:53:25+06:00,
1000000000337444,77017949757,mKarTel,mKcell,mKcell,,D01,2017-02-28T16:53:29+06:00,
1000000000337446,77473518181,mAltel,mKarTel,mMTS,D01,D07,2017-02-28T16:54:03+06:00,
1000000000337448,77003519216,mMTS,mAltel,mAltel,,D77,2017-02-28T16:54:07+06:00,
1000000000337449,77006151595,mKcell,mAltel,mAltel,,D02,2017-02-28T16:54:46+06:00,
1000000000337453,77001656535,mKcell,mAltel,mAltel,,D02,2017-02-28T16:56:30+06:00,
1000000000337455,77015990022,mAltel,mKcell,mKcell,,D07,2017-02-28T16:57:50+06:00,
1000000000337456,77058377171,mMTS,mKarTel,mKarTel,,D77,2017-02-28T16:58:05+06:00,
1000000000337458,77011484818,mMTS,mKcell,mKcell,,D77,2017-02-28T16:58:32+06:00,
1000000000337459,77006151575,mKcell,mAltel,mAltel,,D02,2017-02-28T16:58:37+06:00,
1000000000337460,77021113020,mKcell,mMTS,mKcell,D77,D02,2017-02-28T16:59:08+06:00,
1000000000337461,77009979697,mMTS,mAltel,mAltel,,D77,2017-02-28T16:59:02+06:00,
1000000000337463,77003998808,mAltel,mMTS,mAltel,D77,D07,2017-02-28T16:59:26+06:00,
