NPId,Number,RecipientId,DonorId,RangeHolderId,OldRoute,NewRoute,PortDate,RowCount
1000000000247744,77019907038,mKarTel,mKcell,mKcell,,D01,2016-09-19T14:28:36+06:00,28
1000000000247768,77015554155,mKarTel,mKcell,mKcell,,D01,2016-09-19T14:08:13+06:00,
1000000000247769,77078044405,mMTS,mKcell,mMTS,D02,D77,2016-09-19T14:08:20+06:00,
1000000000247775,77017977767,mKarTel,mKcell,mKcell,,D01,2016-09-19T14:16:23+06:00,
1000000000247783,77758020792,mKarTel,mKcell,mKcell,,D01,2016-09-19T14:01:45+06:00,
1000000000247784,77021219216,mAltel,mKcell,mKcell,,D07,2016-09-19T14:01:11+06:00,
1000000000247788,77781956521,mKarTel,mKcell,mKcell,,D01,2016-09-19T14:07:25+06:00,
1000000000247789,77755508588,mKcell,mAltel,mKcell,D07,D02,2016-09-19T14:07:42+06:00,
1000000000247791,77001921992,mKcell,mAltel,mAltel,,D02,2016-09-19T14:09:31+06:00,
1000000000247792,77718566669,mMTS,mKarTel,mKarTel,,D77,2016-09-19T14:14:45+06:00,
1000000000247793,77783877717,mMTS,mKcell,mKcell,,D77,2016-09-19T14:12:22+06:00,
1000000000247794,77001011992,mKcell,mAltel,mAltel,,D02,2016-09-19T14:12:43+06:00,
1000000000247795,77007979447,mKarTel,mMTS,mAltel,D77,D01,2016-09-19T14:14:41+06:00,
1000000000247796,77758221100,mKcell,mMTS,mKcell,D77,D02,2016-09-19T14:14:32+06:00,
1000000000247797,77075210709,mKcell,mMTS,mMTS,,D02,2016-09-19T14:15:32+06:00,
1000000000247798,77001011989,mKcell,mAltel,mAltel,,D02,2016-09-19T14:15:48+06:00,
1000000000247799,77017532023,mKarTel,mKcell,mKcell,,D01,2016-09-19T14:16:23+06:00,
1000000000247800,77778465555,mKarTel,mMTS,mKarTel,D77,D01,2016-09-19T14:17:10+06:00,
1000000000247802,77777861047,mKarTel,mMTS,mKarTel,D77,D01,2016-09-19T14:17:59+06:00,
1000000000247805,77085258998,mKarTel,mAltel,mAltel,,D01,2016-09-19T14:21:14+06:00,
1000000000247806,77000001999,mKcell,mAltel,mAltel,,D02,2016-09-19T14:20:53+06:00,
1000000000247807,77076420543,mAltel,mMTS,mMTS,,D07,2016-09-19T14:21:30+06:00,
1000000000247809,77714109035,mMTS,mKarTel,mKarTel,,D77,2016-09-19T14:25:19+06:00,
1000000000247811,77076420549,mAltel,mMTS,mMTS,,D07,2016-09-19T14:25:07+06:00,
1000000000247812,77753180497,mMTS,mKcell,mKcell,,D77,2016-09-19T14:26:16+06:00,
1000000000247814,77085515536,mKarTel,mMTS,mAltel,D77,D01,2016-09-19T14:27:44+06:00,
1000000000247815,77711127907,mKcell,mKarTel,mKarTel,,D02,2016-09-19T14:29:33+06:00,
1000000000247818,77776610881,mKarTel,mMTS,mKarTel,D77,D01,2016-09-19T14:28:36+06:00,
