NPId,Number,RecipientId,DonorId,RangeHolderId,OldRoute,NewRoute,PortDate,RowCount
1000000000179856,77082736977,mMTS,mAltel,mAltel,,D77,2016-05-24T11:02:10+06:00,22
1000000000179858,77013210505,mMTS,mKcell,mKcell,,D77,2016-05-24T11:03:24+06:00,
1000000000179859,77026502252,mKcell,mMTS,mKcell,D77,D02,2016-05-24T11:06:11+06:00,
1000000000179860,77002661690,mMTS,mAltel,mAltel,,D77,2016-05-24T11:06:07+06:00,
1000000000179861,77077447478,mMTS,mAltel,mMTS,D07,D77,2016-05-24T11:06:37+06:00,
1000000000179862,77071189655,mKarTel,mMTS,mMTS,,D01,2016-05-24T11:06:55+06:00,
1000000000179863,77013171087,mMTS,mKcell,mKcell,,D77,2016-05-24T11:08:14+06:00,
1000000000179864,77017765143,mMTS,mKcell,mKcell,,D77,2016-05-24T11:09:15+06:00,
1000000000179865,77087464712,mMTS,mAltel,mAltel,,D77,2016-05-24T11:09:05+06:00,
1000000000179866,77773978262,mKcell,mKarTel,mKarTel,,D02,2016-05-24T11:09:54+06:00,
1000000000179867,77073890069,mMTS,mKcell,mMTS,D02,D77,2016-05-24T11:09:45+06:00,
1000000000179868,77014821295,mMTS,mKcell,mKcell,,D77,2016-05-24T11:13:35+06:00,
1000000000179869,77019148659,mKcell,mKarTel,mKcell,D01,D02,2016-05-24T11:29:53+06:00,
1000000000179870,77013974541,mMTS,mKcell,mKcell,,D77,2016-05-24T11:13:35+06:00,
1000000000179871,77076403311,mKarTel,mMTS,mMTS,,D01,2016-05-24T11:14:31+06:00,
1000000000179872,77015365309,mKcell,mMTS,mKcell,D77,D02,2016-05-24T11:18:54+06:00,
1000000000179873,77015305391,mKarTel,mKcell,mKcell,,D01,2016-05-24T11:21:17+06:00,
1000000000179874,77011550929,mKcell,mMTS,mKcell,D77,D02,2016-05-24T11:21:09+06:00,
1000000000179876,77085456389,mMTS,mAltel,mAltel,,D77,2016-05-24T11:25:17+06:00,
1000000000179877,77471715555,mKcell,mMTS,mMTS,,D02,2016-05-24T11:26:12+06:00,
1000000000179878,77777912812,mMTS,mKarTel,mKarTel,,D77,2016-05-24T11:27:24+06:00,
1000000000179880,77077700278,mMTS,mKarTel,mMTS,D01,D77,2016-05-24T11:29:42+06:00,
