NPId,Number,RecipientId,DonorId,RangeHolderId,OldRoute,NewRoute,PortDate,RowCount
1000000000199462,77051000090,mMTS,mKarTel,mKarTel,,D77,2016-06-24T19:32:35+06:00,9
1000000000199463,77003080707,mKcell,mAltel,mAltel,,D02,2016-06-24T19:34:50+06:00,
1000000000199464,77475966698,mKcell,mMTS,mMTS,,D02,2016-06-24T19:35:51+06:00,
1000000000199466,77079976717,mKcell,mMTS,mMTS,,D02,2016-06-24T19:38:28+06:00,
1000000000199467,77015389806,mKarTel,mKcell,mKcell,,D01,2016-06-24T19:43:31+06:00,
1000000000199469,77014971124,mKcell,mAltel,mKcell,D07,D02,2016-06-24T19:46:58+06:00,
1000000000199470,77012105054,mAltel,mKcell,mKcell,,D07,2016-06-24T19:47:29+06:00,
1000000000199471,77012555485,mMTS,mKcell,mKcell,,D77,2016-06-24T19:54:08+06:00,
1000000000199472,77784560399,mKcell,mAltel,mKcell,D07,D02,2016-06-24T19:56:55+06:00,
