NPId,Number,RecipientId,DonorId,RangeHolderId,OldRoute,NewRoute,PortDate,RowCount
1000000000278070,77779371154,mKarTel,mMTS,mKarTel,D77,D01,2016-11-12T10:34:55+06:00,7
1000000000278071,77056121461,mKarTel,mMTS,mKarTel,D77,D01,2016-11-12T10:35:32+06:00,
1000000000278072,77714365416,mMTS,mKarTel,mKarTel,,D77,2016-11-12T10:37:55+06:00,
1000000000278074,77051003137,mMTS,mKarTel,mKarTel,,D77,2016-11-12T10:47:47+06:00,
1000000000278076,77714365417,mMTS,mKarTel,mKarTel,,D77,2016-11-12T10:52:50+06:00,
1000000000278077,77015387510,mMTS,mKcell,mKcell,,D77,2016-11-12T10:54:10+06:00,
1000000000278079,77772985222,mMTS,mKarTel,mKarTel,,D77,2016-11-12T10:57:50+06:00,
