NPId,Number,RecipientId,DonorId,RangeHolderId,OldRoute,NewRoute,PortDate,RowCount
1000000000141641,77012666743,mAltel,mKcell,mKcell,,D07,2016-04-04T11:26:42+06:00,37
1000000000141713,77025405540,mMTS,mKcell,mKcell,,D77,2016-04-04T11:00:24+06:00,
1000000000141714,77051818787,mMTS,mKarTel,mKarTel,,D77,2016-04-04T11:01:40+06:00,
1000000000141715,77051095582,mMTS,mKarTel,mKarTel,,D77,2016-04-04T11:02:11+06:00,
1000000000141717,77751058451,mAltel,mMTS,mKcell,D77,D07,2016-04-04T11:02:03+06:00,
1000000000141719,77788190480,mKarTel,mKcell,mKcell,,D01,2016-04-04T11:03:18+06:00,
1000000000141720,77754410993,mKcell,mAltel,mKcell,D07,D02,2016-04-04T11:03:21+06:00,
1000000000141721,77750000658,mKarTel,mKcell,mKcell,,D01,2016-04-04T11:03:52+06:00,
1000000000141725,77013107795,mMTS,mKcell,mKcell,,D77,2016-04-04T11:08:02+06:00,
1000000000141726,77089087816,mMTS,mAltel,mAltel,,D77,2016-04-04T11:07:45+06:00,
1000000000141727,77713135000,mKcell,mKarTel,mKarTel,,D02,2016-04-04T11:11:07+06:00,
1000000000141729,77000006439,mMTS,mAltel,mAltel,,D77,2016-04-04T11:08:56+06:00,
1000000000141731,77019225012,mKarTel,mKcell,mKcell,,D01,2016-04-04T11:10:10+06:00,
1000000000141732,77017600507,mKarTel,mKcell,mKcell,,D01,2016-04-04T11:11:17+06:00,
1000000000141733,77021044401,mKarTel,mKcell,mKcell,,D01,2016-04-04T11:11:48+06:00,
1000000000141734,77007210112,mMTS,mAltel,mAltel,,D77,2016-04-04T11:11:00+06:00,
1000000000141735,77761555776,mMTS,mKarTel,mKarTel,,D77,2016-04-04T11:13:30+06:00,
1000000000141736,77011908007,mAltel,mMTS,mKcell,D77,D07,2016-04-04T11:11:58+06:00,
1000000000141737,77014058508,mMTS,mKcell,mKcell,,D77,2016-04-04T11:12:53+06:00,
1000000000141738,77023939298,mKcell,mAltel,mKcell,D07,D02,2016-04-04T11:13:29+06:00,
1000000000141739,77089383280,mMTS,mAltel,mAltel,,D77,2016-04-04T11:14:28+06:00,
1000000000141740,77054506070,mMTS,mKarTel,mKarTel,,D77,2016-04-04T11:16:15+06:00,
1000000000141741,77022220291,mKarTel,mKcell,mKcell,,D01,2016-04-04T11:16:12+06:00,
1000000000141742,77003642151,mKcell,mAltel,mAltel,,D02,2016-04-04T11:16:51+06:00,
1000000000141745,77770060010,mKcell,mKarTel,mKarTel,,D02,2016-04-04T11:18:48+06:00,
1000000000141746,77023228175,mKarTel,mKcell,mKcell,,D01,2016-04-04T11:19:56+06:00,
1000000000141747,77012128080,mMTS,mKcell,mKcell,,D77,2016-04-04T11:20:46+06:00,
1000000000141751,77017207460,mKcell,mKarTel,mKcell,D01,D02,2016-04-04T11:22:56+06:00,
1000000000141753,77003749949,mMTS,mAltel,mAltel,,D77,2016-04-04T11:21:58+06:00,
1000000000141754,77001246401,mMTS,mAltel,mAltel,,D77,2016-04-04T11:22:50+06:00,
1000000000141755,77021263131,mMTS,mKcell,mKcell,,D77,2016-04-04T11:24:46+06:00,
1000000000141756,77055649909,mMTS,mKarTel,mKarTel,,D77,2016-04-04T11:25:37+06:00,
1000000000141757,77015535497,mKcell,mMTS,mKcell,D77,D02,2016-04-04T11:26:18+06:00,
1000000000141758,77774588225,mMTS,mKarTel,mKarTel,,D77,2016-04-04T11:28:14+06:00,
1000000000141759,77775092916,mMTS,mKarTel,mKarTel,,D77,2016-04-04T11:28:14+06:00,
1000000000141760,77751082080,mMTS,mKcell,mKcell,,D77,2016-04-04T11:27:14+06:00,
1000000000141761,77089700780,mMTS,mAltel,mAltel,,D77,2016-04-04T11:29:38+06:00,
