NPId,Number,RecipientId,DonorId,RangeHolderId,OldRoute,NewRoute,PortDate,RowCount
1000000000335156,77083151594,mAltel,mMTS,mAltel,D77,D07,2017-02-25T18:42:26+06:00,6
1000000000335157,77001002696,mKcell,mAltel,mAltel,,D02,2017-02-25T18:42:58+06:00,
1000000000335158,77757047030,mAltel,mKcell,mKcell,,D07,2017-02-25T18:45:16+06:00,
1000000000335159,77017700257,mAltel,mKcell,mKcell,,D07,2017-02-25T18:48:19+06:00,
1000000000335160,77081281234,mMTS,mAltel,mAltel,,D77,2017-02-25T18:48:18+06:00,
1000000000335162,77083140665,mMTS,mAltel,mAltel,,D77,2017-02-25T18:52:42+06:00,
