NPId,Number,RecipientId,DonorId,RangeHolderId,OldRoute,NewRoute,PortDate,RowCount
1000000000095466,77770757676,mKcell,mKarTel,mKarTel,,D02,2016-02-22T10:30:19+06:00,53
1000000000095467,77013913087,mMTS,mKcell,mKcell,,D77,2016-02-22T10:31:19+06:00,
1000000000095470,77057331680,mAltel,mKarTel,mKarTel,,D07,2016-02-22T10:31:38+06:00,
1000000000095471,77013980235,mAltel,mKcell,mKcell,,D07,2016-02-22T10:31:50+06:00,
1000000000095472,77019178053,mMTS,mKcell,mKcell,,D77,2016-02-22T10:32:01+06:00,
1000000000095474,77014147912,mKarTel,mKcell,mKcell,,D01,2016-02-22T10:33:19+06:00,
1000000000095477,77014204149,mAltel,mKcell,mKcell,,D07,2016-02-22T10:33:55+06:00,
1000000000095478,77787288812,mAltel,mKcell,mKcell,,D07,2016-02-22T10:34:25+06:00,
1000000000095479,77714235555,mAltel,mKarTel,mKarTel,,D07,2016-02-22T10:35:02+06:00,
1000000000095481,77715535868,mMTS,mKarTel,mKarTel,,D77,2016-02-22T10:37:40+06:00,
1000000000095482,77019178054,mMTS,mKcell,mKcell,,D77,2016-02-22T10:36:56+06:00,
1000000000095483,77085676256,mKarTel,mAltel,mAltel,,D01,2016-02-22T10:37:19+06:00,
1000000000095484,77715535881,mMTS,mKarTel,mKarTel,,D77,2016-02-22T10:38:57+06:00,
1000000000095485,77077818182,mKarTel,mMTS,mMTS,,D01,2016-02-22T10:40:13+06:00,
1000000000095486,77015055145,mKarTel,mKcell,mKcell,,D01,2016-02-22T10:40:41+06:00,
1000000000095487,77085676250,mKarTel,mAltel,mAltel,,D01,2016-02-22T10:40:46+06:00,
1000000000095488,77715535857,mMTS,mKarTel,mKarTel,,D77,2016-02-22T10:42:12+06:00,
1000000000095490,77715535859,mMTS,mKarTel,mKarTel,,D77,2016-02-22T10:42:59+06:00,
1000000000095491,77715535864,mMTS,mKarTel,mKarTel,,D77,2016-02-22T10:44:11+06:00,
1000000000095494,77085835853,mKarTel,mAltel,mAltel,,D01,2016-02-22T10:44:16+06:00,
1000000000095496,77715535865,mMTS,mKarTel,mKarTel,,D77,2016-02-22T10:46:00+06:00,
1000000000095498,77023099084,mMTS,mKcell,mKcell,,D77,2016-02-22T10:45:24+06:00,
1000000000095499,77085835847,mKarTel,mAltel,mAltel,,D01,2016-02-22T10:46:04+06:00,
1000000000095500,77715535873,mMTS,mKarTel,mKarTel,,D77,2016-02-22T10:47:19+06:00,
1000000000095502,77715535876,mMTS,mKarTel,mKarTel,,D77,2016-02-22T10:48:15+06:00,
1000000000095503,77788925666,mMTS,mKcell,mKcell,,D77,2016-02-22T10:47:43+06:00,
1000000000095504,77715535887,mMTS,mKarTel,mKarTel,,D77,2016-02-22T10:49:34+06:00,
1000000000095505,77085835839,mKarTel,mAltel,mAltel,,D01,2016-02-22T10:48:48+06:00,
1000000000095506,77715535889,mMTS,mKarTel,mKarTel,,D77,2016-02-22T10:50:59+06:00,
1000000000095507,77715535898,mMTS,mKarTel,mKarTel,,D77,2016-02-22T10:51:51+06:00,
1000000000095508,77015291962,mMTS,mKcell,mKcell,,D77,2016-02-22T10:50:51+06:00,
1000000000095509,77017587676,mMTS,mKcell,mKcell,,D77,2016-02-22T10:51:34+06:00,
1000000000095510,77084983209,mKcell,mAltel,mAltel,,D02,2016-02-22T10:51:50+06:00,
1000000000095511,77779502398,mMTS,mKarTel,mKarTel,,D77,2016-02-22T10:53:09+06:00,
1000000000095513,77757994939,mMTS,mKcell,mKcell,,D77,2016-02-22T10:52:10+06:00,
1000000000095514,77085835832,mKarTel,mAltel,mAltel,,D01,2016-02-22T10:52:09+06:00,
1000000000095515,77714440003,mKcell,mKarTel,mKarTel,,D02,2016-02-22T10:52:53+06:00,
1000000000095516,77012209041,mMTS,mKcell,mKcell,,D77,2016-02-22T10:52:39+06:00,
1000000000095518,77026000511,mMTS,mKcell,mKcell,,D77,2016-02-22T10:53:27+06:00,
1000000000095520,77752691316,mKarTel,mKcell,mKcell,,D01,2016-02-22T10:54:05+06:00,
1000000000095521,77085835651,mKarTel,mAltel,mAltel,,D01,2016-02-22T10:53:54+06:00,
1000000000095522,77715535879,mMTS,mKarTel,mKarTel,,D77,2016-02-22T10:56:41+06:00,
1000000000095523,77782644444,mAltel,mKcell,mKcell,,D07,2016-02-22T10:55:35+06:00,
1000000000095524,77771760259,mMTS,mKarTel,mKarTel,,D77,2016-02-22T10:55:59+06:00,
1000000000095525,77471485224,mKarTel,mMTS,mMTS,,D01,2016-02-22T10:55:52+06:00,
1000000000095526,77475133199,mAltel,mMTS,mMTS,,D07,2016-02-22T10:55:53+06:00,
1000000000095527,77051151818,mKcell,mKarTel,mKarTel,,D02,2016-02-22T10:57:11+06:00,
1000000000095528,77715535883,mMTS,mKarTel,mKarTel,,D77,2016-02-22T10:58:12+06:00,
1000000000095529,77085835612,mKarTel,mAltel,mAltel,,D01,2016-02-22T10:57:02+06:00,
1000000000095531,77715535891,mMTS,mKarTel,mKarTel,,D77,2016-02-22T10:59:12+06:00,
1000000000095532,77015120112,mKarTel,mKcell,mKcell,,D01,2016-02-22T10:58:47+06:00,
1000000000095533,77077264626,mKarTel,mMTS,mMTS,,D01,2016-02-22T10:58:39+06:00,
1000000000095535,77085835608,mKarTel,mAltel,mAltel,,D01,2016-02-22T10:59:05+06:00,
