NPId,Number,RecipientId,DonorId,RangeHolderId,OldRoute,NewRoute,PortDate,RowCount
1000000000384403,77017757951,mKcell,mKarTel,mKcell,D01,D02,2017-05-17T12:01:21+06:00,15
1000000000384404,77055042748,mKarTel,mMTS,mKarTel,D77,D01,2017-05-17T12:00:59+06:00,
1000000000384405,77075380882,mAltel,mMTS,mMTS,,D07,2017-05-17T12:01:38+06:00,
1000000000384408,77072380882,mAltel,mMTS,mMTS,,D07,2017-05-17T12:06:04+06:00,
1000000000384409,77017552780,mMTS,mKcell,mKcell,,D77,2017-05-17T12:07:12+06:00,
1000000000384410,77751432681,mMTS,mKcell,mKcell,,D77,2017-05-17T12:07:50+06:00,
1000000000384412,77776153196,mAltel,mKarTel,mKarTel,,D07,2017-05-17T12:17:10+06:00,
1000000000384414,77029127249,mMTS,mKcell,mKcell,,D77,2017-05-17T12:18:39+06:00,
1000000000384415,77478035943,mKarTel,mAltel,mMTS,D07,D01,2017-05-17T12:20:04+06:00,
1000000000384416,77008881886,mKarTel,mAltel,mAltel,,D01,2017-05-17T12:23:01+06:00,
1000000000384417,77027490034,mMTS,mKcell,mKcell,,D77,2017-05-17T12:23:07+06:00,
1000000000384418,77762212888,mMTS,mKarTel,mKarTel,,D77,2017-05-17T12:23:53+06:00,
1000000000384419,77071141776,mKcell,mMTS,mMTS,,D02,2017-05-17T12:23:59+06:00,
1000000000384420,77018133085,mAltel,mMTS,mKcell,D77,D07,2017-05-17T12:24:40+06:00,
1000000000384421,77759935520,mMTS,mKcell,mKcell,,D77,2017-05-17T12:25:04+06:00,
