NPId,Number,RecipientId,DonorId,RangeHolderId,OldRoute,NewRoute,PortDate,RowCount
1000000000408519,77072450045,mKcell,mMTS,mMTS,,D02,2017-06-23T18:30:59+06:00,16
1000000000408520,77000847936,mMTS,mAltel,mAltel,,D77,2017-06-23T18:32:05+06:00,
1000000000408521,77071353372,mKarTel,mMTS,mMTS,,D01,2017-06-23T18:32:48+06:00,
1000000000408523,77089990353,mKcell,mAltel,mAltel,,D02,2017-06-23T18:35:10+06:00,
1000000000408524,77015550404,mAltel,mKcell,mKcell,,D07,2017-06-23T18:36:13+06:00,
1000000000408525,77089997870,mKcell,mAltel,mAltel,,D02,2017-06-23T18:36:42+06:00,
1000000000408526,77017400804,mKarTel,mKcell,mKcell,,D01,2017-06-23T18:39:08+06:00,
1000000000408527,77711673399,mKarTel,mMTS,mKarTel,D77,D01,2017-06-23T18:42:36+06:00,
1000000000408528,77006404640,mMTS,mAltel,mAltel,,D77,2017-06-23T18:46:10+06:00,
1000000000408529,77089997017,mKcell,mAltel,mAltel,,D02,2017-06-23T18:48:04+06:00,
1000000000408530,77788306902,mMTS,mKcell,mKcell,,D77,2017-06-23T18:50:05+06:00,
1000000000408531,77073359255,mMTS,mKarTel,mMTS,D01,D77,2017-06-23T18:51:01+06:00,
1000000000408532,77715345000,mMTS,mKarTel,mKarTel,,D77,2017-06-23T18:52:49+06:00,
1000000000408533,77783823074,mKarTel,mKcell,mKcell,,D01,2017-06-23T18:52:45+06:00,
1000000000408534,77012248527,mMTS,mKcell,mKcell,,D77,2017-06-23T18:56:44+06:00,
1000000000408535,77004004991,mMTS,mAltel,mAltel,,D77,2017-06-23T18:58:07+06:00,
