NPId,Number,RecipientId,DonorId,RangeHolderId,OldRoute,NewRoute,PortDate,RowCount
1000000000418533,77056003911,mMTS,mKarTel,mKarTel,,D77,2017-07-09T11:30:40+06:00,10
1000000000418534,77071990560,mKcell,mMTS,mMTS,,D02,2017-07-09T11:32:55+06:00,
1000000000418536,77021889386,mMTS,mKcell,mKcell,,D77,2017-07-09T11:38:00+06:00,
1000000000418537,77077949966,mAltel,mMTS,mMTS,,D07,2017-07-09T11:40:58+06:00,
1000000000418538,77755034270,mKarTel,mKcell,mKcell,,D01,2017-07-09T11:44:27+06:00,
1000000000418539,77009895611,mMTS,mAltel,mAltel,,D77,2017-07-09T11:47:33+06:00,
1000000000418540,77774785835,mMTS,mKarTel,mKarTel,,D77,2017-07-09T11:54:02+06:00,
1000000000418541,77053306900,mMTS,mAltel,mKarTel,D07,D77,2017-07-09T11:54:11+06:00,
1000000000418542,77780807878,mKarTel,mKcell,mKcell,,D01,2017-07-09T11:55:52+06:00,
1000000000418543,77774134454,mKarTel,mKcell,mKarTel,D02,D01,2017-07-09T11:56:38+06:00,
