NPId,Number,RecipientId,DonorId,RangeHolderId,OldRoute,NewRoute,PortDate,RowCount
1000000000326153,77774777710,mKcell,mKarTel,mKarTel,,D02,2017-02-08T20:17:15+06:00,2
1000000000326154,77761110692,mMTS,mKarTel,mKarTel,,D77,2017-02-08T20:27:49+06:00,
