NPId,Number,RecipientId,DonorId,RangeHolderId,OldRoute,NewRoute,PortDate,RowCount
1000000000312279,77000888329,mKcell,mAltel,mAltel,,D02,2017-01-18T09:06:35+06:00,8
1000000000312280,77772950327,mKcell,mKarTel,mKarTel,,D02,2017-01-18T09:22:23+06:00,
1000000000312281,77000888634,mKcell,mAltel,mAltel,,D02,2017-01-18T09:07:06+06:00,
1000000000312282,77000888624,mKcell,mAltel,mAltel,,D02,2017-01-18T09:07:12+06:00,
1000000000312283,77000888352,mKcell,mAltel,mAltel,,D02,2017-01-18T09:07:19+06:00,
1000000000312285,77058503976,mKarTel,mAltel,mKarTel,D07,D01,2017-01-18T09:17:08+06:00,
1000000000312287,77072685835,mAltel,mMTS,mMTS,,D07,2017-01-18T09:20:23+06:00,
1000000000312288,77475130835,mAltel,mMTS,mMTS,,D07,2017-01-18T09:28:40+06:00,
