NPId,Number,RecipientId,DonorId,RangeHolderId,OldRoute,NewRoute,PortDate,RowCount
1000000000431177,77754945118,mMTS,mKcell,mKcell,,D77,2017-07-31T13:32:23+06:00,31
1000000000431178,77756364665,mKcell,mKarTel,mKcell,D01,D02,2017-07-31T13:33:34+06:00,
1000000000431179,77756799033,mAltel,mKcell,mKcell,,D07,2017-07-31T13:32:31+06:00,
1000000000431180,77014941111,mKarTel,mMTS,mKcell,D77,D01,2017-07-31T13:32:52+06:00,
1000000000431181,77754400073,mKarTel,mKcell,mKcell,,D01,2017-07-31T13:33:44+06:00,
1000000000431182,77022379989,mKarTel,mKcell,mKcell,,D01,2017-07-31T13:33:58+06:00,
1000000000431183,77471748133,mKarTel,mMTS,mMTS,,D01,2017-07-31T13:35:14+06:00,
1000000000431184,77072810261,mAltel,mMTS,mMTS,,D07,2017-07-31T13:35:32+06:00,
1000000000431185,77025773457,mAltel,mKcell,mKcell,,D07,2017-07-31T13:36:10+06:00,
1000000000431187,77076007055,mAltel,mMTS,mMTS,,D07,2017-07-31T13:36:32+06:00,
1000000000431188,77017544227,mKarTel,mKcell,mKcell,,D01,2017-07-31T13:39:16+06:00,
1000000000431191,77788048080,mMTS,mKcell,mKcell,,D77,2017-07-31T13:41:31+06:00,
1000000000431192,77017375664,mKarTel,mMTS,mKcell,D77,D01,2017-07-31T13:43:38+06:00,
1000000000431193,77019940080,mKarTel,mKcell,mKcell,,D01,2017-07-31T13:45:10+06:00,
1000000000431195,77774166944,mMTS,mKarTel,mKarTel,,D77,2017-07-31T13:47:36+06:00,
1000000000431196,77078155249,mKarTel,mMTS,mMTS,,D01,2017-07-31T13:48:14+06:00,
1000000000431197,77009180742,mKarTel,mAltel,mAltel,,D01,2017-07-31T13:48:13+06:00,
1000000000431200,77012181953,mMTS,mKcell,mKcell,,D77,2017-07-31T13:49:10+06:00,
1000000000431202,77759633331,mKarTel,mMTS,mKcell,D77,D01,2017-07-31T13:51:57+06:00,
1000000000431203,77754971603,mMTS,mKcell,mKcell,,D77,2017-07-31T13:52:25+06:00,
1000000000431206,77011115458,mKarTel,mAltel,mKcell,D07,D01,2017-07-31T13:53:46+06:00,
1000000000431209,77076650022,mKarTel,mMTS,mMTS,D77,D01,2017-07-31T13:55:38+06:00,
1000000000431210,77013555399,mAltel,mKcell,mKcell,,D07,2017-07-31T13:55:59+06:00,
1000000000431211,77077201970,mMTS,mKcell,mMTS,D02,D77,2017-07-31T13:56:01+06:00,
1000000000431212,77021221070,mKarTel,mKcell,mKcell,,D01,2017-07-31T13:56:23+06:00,
1000000000431213,77073336563,mKarTel,mMTS,mMTS,,D01,2017-07-31T13:56:37+06:00,
1000000000431214,77778988777,mKarTel,mMTS,mKarTel,D77,D01,2017-07-31T13:57:36+06:00,
1000000000431215,77007770088,mKarTel,mAltel,mAltel,,D01,2017-07-31T13:57:56+06:00,
1000000000431216,77087270341,mAltel,mMTS,mAltel,D77,D07,2017-07-31T13:57:53+06:00,
1000000000431217,77785146499,mAltel,mKcell,mKcell,,D07,2017-07-31T13:57:55+06:00,
1000000000431218,77772433119,mKarTel,mMTS,mKarTel,D77,D01,2017-07-31T13:58:26+06:00,
