NPId,Number,RecipientId,DonorId,RangeHolderId,OldRoute,NewRoute,PortDate,RowCount
1000000000003127,77022996019,mKarTel,mKcell,mKcell,,D01,2016-01-07T15:05:27+06:00,22
1000000000003128,77052293399,mAltel,mKarTel,mKarTel,,D07,2016-01-07T15:07:22+06:00,
1000000000003130,77079891010,mAltel,mMTS,mMTS,,D07,2016-01-07T15:07:58+06:00,
1000000000003131,77019405888,mAltel,mKcell,mKcell,,D07,2016-01-07T15:08:24+06:00,
1000000000003132,77075405780,mKcell,mMTS,mMTS,,D02,2016-01-07T15:09:05+06:00,
1000000000003136,77073337557,mKcell,mMTS,mMTS,,D02,2016-01-07T15:10:56+06:00,
1000000000003138,77016727453,mAltel,mKcell,mKcell,,D07,2016-01-07T15:11:31+06:00,
1000000000003139,77012370151,mAltel,mKcell,mKcell,,D07,2016-01-07T15:12:18+06:00,
1000000000003143,77774139316,mAltel,mKarTel,mKarTel,,D07,2016-01-07T15:15:57+06:00,
1000000000003144,77013805286,mAltel,mKcell,mKcell,,D07,2016-01-07T15:16:37+06:00,
1000000000003145,77015120865,mAltel,mKcell,mKcell,,D07,2016-01-07T15:17:10+06:00,
1000000000003146,77051500700,mAltel,mKarTel,mKarTel,,D07,2016-01-07T15:18:14+06:00,
1000000000003148,77003129322,mKcell,mAltel,mAltel,,D02,2016-01-07T15:18:16+06:00,
1000000000003149,77763009295,mKcell,mKarTel,mKarTel,,D02,2016-01-07T15:20:30+06:00,
1000000000003151,77753178983,mAltel,mKcell,mKcell,,D07,2016-01-07T15:21:48+06:00,
1000000000003152,77015147777,mAltel,mKcell,mKcell,,D07,2016-01-07T15:22:50+06:00,
1000000000003153,77002500008,mKcell,mAltel,mAltel,,D02,2016-01-07T15:23:13+06:00,
1000000000003155,77013373205,mAltel,mKcell,mKcell,,D07,2016-01-07T15:25:55+06:00,
1000000000003156,77774149999,mKcell,mKarTel,mKarTel,,D02,2016-01-07T15:26:40+06:00,
1000000000003157,77073342260,mAltel,mMTS,mMTS,,D07,2016-01-07T15:26:38+06:00,
1000000000003159,77055322216,mAltel,mKarTel,mKarTel,,D07,2016-01-07T15:28:16+06:00,
1000000000003161,77713888818,mMTS,mKarTel,mKarTel,,D77,2016-01-07T15:29:15+06:00,
