NPId,Number,RecipientId,DonorId,RangeHolderId,OldRoute,NewRoute,PortDate,RowCount
1000000000280322,77718000866,mKcell,mKarTel,mKarTel,,D02,2016-11-17T12:34:18+06:00,26
1000000000280332,77019454794,mAltel,mKcell,mKcell,,D07,2016-11-17T12:31:23+06:00,
1000000000280333,77750002626,mKcell,mMTS,mKcell,D77,D02,2016-11-17T12:33:38+06:00,
1000000000280334,77015164095,mKcell,mMTS,mKcell,D77,D02,2016-11-17T12:34:06+06:00,
1000000000280336,77762764848,mAltel,mKarTel,mKarTel,,D07,2016-11-17T12:35:05+06:00,
1000000000280337,77012568989,mAltel,mKcell,mKcell,,D07,2016-11-17T12:36:06+06:00,
1000000000280338,77024661340,mMTS,mKcell,mKcell,,D77,2016-11-17T12:37:18+06:00,
1000000000280340,77759339234,mKcell,mMTS,mKcell,D77,D02,2016-11-17T12:39:20+06:00,
1000000000280342,77718000865,mKcell,mKarTel,mKarTel,,D02,2016-11-17T12:56:33+06:00,
1000000000280346,77785553157,mKarTel,mKcell,mKcell,,D01,2016-11-17T12:44:54+06:00,
1000000000280347,77051923716,mKarTel,mAltel,mKarTel,D07,D01,2016-11-17T12:46:26+06:00,
1000000000280349,77089799114,mKarTel,mMTS,mAltel,D77,D01,2016-11-17T12:48:25+06:00,
1000000000280351,77753416782,mMTS,mKcell,mKcell,,D77,2016-11-17T12:50:54+06:00,
1000000000280353,77015308807,mMTS,mKcell,mKcell,,D77,2016-11-17T12:53:20+06:00,
1000000000280354,77773008898,mAltel,mKarTel,mKarTel,,D07,2016-11-17T12:54:24+06:00,
1000000000280355,77026322331,mMTS,mKcell,mKcell,,D77,2016-11-17T12:56:41+06:00,
1000000000280356,77777488469,mKarTel,mAltel,mKarTel,D07,D01,2016-11-17T12:57:09+06:00,
1000000000280357,77026553502,mMTS,mKcell,mKcell,,D77,2016-11-17T12:57:46+06:00,
1000000000280359,77071678467,mKarTel,mMTS,mMTS,,D01,2016-11-17T12:59:11+06:00,
1000000000280359,77071678494,mKarTel,mMTS,mMTS,,D01,2016-11-17T12:59:11+06:00,
1000000000280359,77471670525,mKarTel,mMTS,mMTS,,D01,2016-11-17T12:59:11+06:00,
1000000000280359,77471671212,mKarTel,mMTS,mMTS,,D01,2016-11-17T12:59:11+06:00,
1000000000280359,77471678262,mKarTel,mMTS,mMTS,,D01,2016-11-17T12:59:11+06:00,
1000000000280359,77471678333,mKarTel,mMTS,mMTS,,D01,2016-11-17T12:59:11+06:00,
1000000000280359,77471678555,mKarTel,mMTS,mMTS,,D01,2016-11-17T12:59:11+06:00,
1000000000280359,77471678567,mKarTel,mMTS,mMTS,,D01,2016-11-17T12:59:11+06:00,
