NPId,Number,RecipientId,DonorId,RangeHolderId,OldRoute,NewRoute,PortDate,RowCount
1000000000363348,77776516669,mKarTel,mMTS,mKarTel,D77,D01,2017-04-10T15:34:58+06:00,12
1000000000363349,77071248160,mAltel,mMTS,mMTS,,D07,2017-04-10T15:35:46+06:00,
1000000000363351,77753324418,mMTS,mKcell,mKcell,,D77,2017-04-10T15:36:26+06:00,
1000000000363353,77079391015,mKcell,mMTS,mMTS,,D02,2017-04-10T15:36:46+06:00,
1000000000363355,77472022192,mKarTel,mMTS,mMTS,,D01,2017-04-10T15:37:50+06:00,
1000000000363357,77017778760,mAltel,mKcell,mKcell,,D07,2017-04-10T15:40:01+06:00,
1000000000363358,77755957717,mAltel,mKcell,mKcell,,D07,2017-04-10T15:43:57+06:00,
1000000000363360,77019429701,mAltel,mKcell,mKcell,,D07,2017-04-10T15:50:54+06:00,
1000000000363361,77014484561,mKarTel,mKcell,mKcell,,D01,2017-04-10T15:53:07+06:00,
1000000000363362,77754915343,mMTS,mKcell,mKcell,,D77,2017-04-10T15:57:54+06:00,
1000000000363363,77019959990,mKarTel,mMTS,mKcell,D77,D01,2017-04-10T15:58:29+06:00,
1000000000363364,77779589199,mKarTel,mMTS,mKarTel,D77,D01,2017-04-10T15:59:19+06:00,
