NPId,Number,RecipientId,DonorId,RangeHolderId,OldRoute,NewRoute,PortDate,RowCount
1000000000363008,77005237959,mMTS,mKcell,mAltel,D02,D77,2017-04-10T09:09:39+06:00,8
1000000000363009,77711281402,mMTS,mKarTel,mKarTel,,D77,2017-04-10T09:11:27+06:00,
1000000000363010,77011350005,mKarTel,mKcell,mKcell,,D01,2017-04-10T09:24:28+06:00,
1000000000363011,77079707907,mKcell,mMTS,mMTS,,D02,2017-04-10T09:24:53+06:00,
1000000000363012,77052413742,mKarTel,mMTS,mKarTel,D77,D01,2017-04-10T09:25:36+06:00,
1000000000363013,77758043842,mAltel,mMTS,mKcell,D77,D07,2017-04-10T09:26:07+06:00,
1000000000363015,77476152495,mAltel,mMTS,mMTS,,D07,2017-04-10T09:28:26+06:00,
1000000000363016,77021688889,mMTS,mKcell,mKcell,,D77,2017-04-10T09:29:57+06:00,
