NPId,Number,RecipientId,DonorId,RangeHolderId,OldRoute,NewRoute,PortDate,RowCount
1000000000250702,77766666461,mMTS,mKarTel,mKarTel,,D77,2016-09-24T17:00:49+06:00,17
1000000000250707,77474364334,mKcell,mMTS,mMTS,,D02,2016-09-24T17:00:13+06:00,
1000000000250708,77005112193,mKcell,mAltel,mAltel,,D02,2016-09-24T17:01:20+06:00,
1000000000250709,77056653520,mMTS,mKarTel,mKarTel,,D77,2016-09-24T17:03:39+06:00,
1000000000250710,77058801000,mKcell,mKarTel,mKarTel,,D02,2016-09-24T17:05:37+06:00,
1000000000250711,77752231855,mMTS,mAltel,mKcell,D07,D77,2016-09-24T17:03:28+06:00,
1000000000250712,77768101144,mAltel,mKarTel,mKarTel,,D07,2016-09-24T17:09:17+06:00,
1000000000250713,77025788474,mMTS,mKcell,mKcell,,D77,2016-09-24T17:09:59+06:00,
1000000000250714,77478789445,mKarTel,mMTS,mMTS,,D01,2016-09-24T17:13:08+06:00,
1000000000250715,77751245222,mMTS,mKcell,mKcell,,D77,2016-09-24T17:12:29+06:00,
1000000000250716,77073046078,mKcell,mKarTel,mMTS,D01,D02,2016-09-24T17:16:23+06:00,
1000000000250717,77001386313,mKcell,mAltel,mAltel,,D02,2016-09-24T17:14:13+06:00,
1000000000250719,77011346983,mKcell,mKarTel,mKcell,D01,D02,2016-09-24T17:21:47+06:00,
1000000000250720,77077317338,mKarTel,mMTS,mMTS,,D01,2016-09-24T17:23:25+06:00,
1000000000250721,77072839988,mAltel,mMTS,mMTS,,D07,2016-09-24T17:23:06+06:00,
1000000000250722,77076070504,mKcell,mMTS,mMTS,,D02,2016-09-24T17:24:18+06:00,
1000000000250725,77081063307,mMTS,mAltel,mAltel,,D77,2016-09-24T17:28:30+06:00,
