NPId,Number,RecipientId,DonorId,RangeHolderId,OldRoute,NewRoute,PortDate,RowCount
1000000000328688,77773533086,mKarTel,mMTS,mKarTel,D77,D01,2017-02-14T13:05:38+06:00,10
1000000000328690,77784805858,mMTS,mKcell,mKcell,,D77,2017-02-14T13:15:57+06:00,
1000000000328691,77076771944,mAltel,mMTS,mMTS,,D07,2017-02-14T13:15:57+06:00,
1000000000328693,77021555535,mAltel,mKcell,mKcell,,D07,2017-02-14T13:17:00+06:00,
1000000000328694,77772592259,mKcell,mKarTel,mKarTel,,D02,2017-02-14T13:18:18+06:00,
1000000000328697,77712851103,mMTS,mKarTel,mKarTel,,D77,2017-02-14T13:23:04+06:00,
1000000000328699,77071111177,mKarTel,mKcell,mMTS,D02,D01,2017-02-14T13:26:23+06:00,
1000000000328700,77714556526,mMTS,mKarTel,mKarTel,,D77,2017-02-14T13:26:58+06:00,
1000000000328701,77082020728,mKarTel,mAltel,mAltel,,D01,2017-02-14T13:28:05+06:00,
1000000000328702,77004446867,mMTS,mAltel,mAltel,,D77,2017-02-14T13:28:11+06:00,
