NPId,Number,RecipientId,DonorId,RangeHolderId,OldRoute,NewRoute,PortDate,RowCount
1000000000133548,77757308952,mKarTel,mKcell,mKcell,,D01,2016-03-25T20:00:26+06:00,9
1000000000133549,77753734988,mKarTel,mAltel,mKcell,D07,D01,2016-03-25T20:01:41+06:00,
1000000000133550,77475000866,mAltel,mMTS,mMTS,,D07,2016-03-25T20:09:50+06:00,
1000000000133551,77054093939,mAltel,mKarTel,mKarTel,,D07,2016-03-25T20:11:39+06:00,
1000000000133552,77051924101,mMTS,mKarTel,mKarTel,,D77,2016-03-25T20:13:41+06:00,
1000000000133553,77079909878,mKcell,mMTS,mMTS,,D02,2016-03-25T20:15:32+06:00,
1000000000133554,77751863005,mAltel,mKcell,mKcell,,D07,2016-03-25T20:16:54+06:00,
1000000000133555,77025846444,mKarTel,mKcell,mKcell,,D01,2016-03-25T20:21:07+06:00,
1000000000133557,77772060110,mMTS,mKarTel,mKarTel,,D77,2016-03-25T20:28:58+06:00,
