NPId,Number,RecipientId,DonorId,RangeHolderId,OldRoute,NewRoute,PortDate,RowCount
1000000000369010,77751155511,mKcell,mAltel,mKcell,D07,D02,2017-04-20T15:03:35+06:00,23
1000000000369014,77789622188,mMTS,mKcell,mKcell,,D77,2017-04-20T15:07:20+06:00,
1000000000369016,77001113262,mKcell,mAltel,mAltel,,D02,2017-04-20T15:11:01+06:00,
1000000000369017,77001112494,mKcell,mAltel,mAltel,,D02,2017-04-20T15:12:14+06:00,
1000000000369018,77773573311,mKarTel,mAltel,mKarTel,D07,D01,2017-04-20T15:12:55+06:00,
1000000000369019,77073737267,mKcell,mMTS,mMTS,,D02,2017-04-20T15:13:06+06:00,
1000000000369022,77001115696,mKcell,mAltel,mAltel,,D02,2017-04-20T15:14:28+06:00,
1000000000369023,77012797601,mKarTel,mKcell,mKcell,,D01,2017-04-20T15:16:58+06:00,
1000000000369024,77085169928,mMTS,mAltel,mAltel,,D77,2017-04-20T15:16:57+06:00,
1000000000369027,77017583201,mKarTel,mKcell,mKcell,,D01,2017-04-20T15:19:39+06:00,
1000000000369029,77001116292,mKcell,mAltel,mAltel,,D02,2017-04-20T15:20:21+06:00,
1000000000369030,77015349795,mKcell,mMTS,mKcell,D77,D02,2017-04-20T15:21:47+06:00,
1000000000369032,77001115393,mKcell,mAltel,mAltel,,D02,2017-04-20T15:22:21+06:00,
1000000000369033,77081992205,mMTS,mAltel,mAltel,,D77,2017-04-20T15:23:25+06:00,
1000000000369034,77012224810,mAltel,mKcell,mKcell,D02,D07,2017-04-20T15:24:04+06:00,
1000000000369035,77760706098,mKcell,mKarTel,mKarTel,,D02,2017-04-20T15:26:18+06:00,
1000000000369036,77772525767,mKcell,mKarTel,mKarTel,,D02,2017-04-20T15:26:30+06:00,
1000000000369037,77774853696,mMTS,mKarTel,mKarTel,,D77,2017-04-20T15:26:14+06:00,
1000000000369039,77770949944,mKcell,mKarTel,mKarTel,,D02,2017-04-20T15:27:34+06:00,
1000000000369040,77760661166,mKcell,mKarTel,mKarTel,,D02,2017-04-20T15:28:05+06:00,
1000000000369042,77021559804,mAltel,mKcell,mKcell,,D07,2017-04-20T15:28:05+06:00,
1000000000369043,77752369262,mMTS,mKcell,mKcell,,D77,2017-04-20T15:28:37+06:00,
1000000000369044,77088080872,mKcell,mAltel,mAltel,,D02,2017-04-20T15:28:57+06:00,
