NPId,Number,RecipientId,DonorId,RangeHolderId,OldRoute,NewRoute,PortDate,RowCount
1000000000217159,77017869831,mMTS,mKcell,mKcell,,D77,2016-07-26T01:22:30+06:00,2
1000000000217160,77782165105,mMTS,mKcell,mKcell,,D77,2016-07-26T01:27:23+06:00,
