NPId,Number,RecipientId,DonorId,RangeHolderId,OldRoute,NewRoute,PortDate,RowCount
1000000000212832,77015552874,mKcell,mKarTel,mKcell,D01,D02,2016-07-18T10:45:45+06:00,13
1000000000212856,77783336267,mAltel,mKcell,mKcell,,D07,2016-07-18T10:42:01+06:00,
1000000000212857,77019590010,mAltel,mKcell,mKcell,,D07,2016-07-18T10:42:02+06:00,
1000000000212858,77016555529,mMTS,mKcell,mKcell,,D77,2016-07-18T10:42:00+06:00,
1000000000212860,77784461744,mMTS,mKcell,mKcell,,D77,2016-07-18T10:42:00+06:00,
1000000000212861,77081104125,mMTS,mAltel,mAltel,,D77,2016-07-18T10:42:07+06:00,
1000000000212862,77026867017,mMTS,mKcell,mKcell,,D77,2016-07-18T10:44:38+06:00,
1000000000212863,77014177807,mKcell,mMTS,mKcell,D77,D02,2016-07-18T10:48:10+06:00,
1000000000212865,77014028203,mMTS,mKcell,mKcell,,D77,2016-07-18T10:46:55+06:00,
1000000000212866,77004523292,mMTS,mAltel,mAltel,,D77,2016-07-18T10:46:00+06:00,
1000000000212867,77789014653,mMTS,mKcell,mKcell,,D77,2016-07-18T10:48:10+06:00,
1000000000212869,77055325053,mKarTel,mMTS,mKarTel,D77,D01,2016-07-18T10:49:22+06:00,
1000000000212873,77771666010,mMTS,mKarTel,mKarTel,,D77,2016-07-18T10:57:42+06:00,
