NPId,Number,RecipientId,DonorId,RangeHolderId,OldRoute,NewRoute,PortDate,RowCount
1000000000274531,77074343355,mAltel,mMTS,mMTS,,D07,2016-12-02T09:47:19+06:00,6
1000000000288182,77019699777,mKarTel,mKcell,mKcell,,D01,2016-12-02T09:40:38+06:00,
1000000000288184,77713131301,mMTS,mKarTel,mKarTel,,D77,2016-12-02T09:46:30+06:00,
1000000000288185,77077178722,mKarTel,mMTS,mMTS,,D01,2016-12-02T09:48:33+06:00,
1000000000288186,77768400888,mMTS,mKarTel,mKarTel,,D77,2016-12-02T09:54:31+06:00,
1000000000288188,77017244488,mMTS,mKcell,mKcell,,D77,2016-12-02T09:57:41+06:00,
