NPId,Number,RecipientId,DonorId,RangeHolderId,OldRoute,NewRoute,PortDate,RowCount
1000000000349574,77052626567,mMTS,mKarTel,mKarTel,,D77,2017-03-18T21:02:11+06:00,3
1000000000349575,77718360325,mMTS,mKarTel,mKarTel,,D77,2017-03-18T21:03:08+06:00,
1000000000349577,77017807205,mKarTel,mKcell,mKcell,,D01,2017-03-18T21:27:28+06:00,
