NPId,Number,RecipientId,DonorId,RangeHolderId,OldRoute,NewRoute,PortDate,RowCount
1000000000274898,77752694644,mMTS,mKcell,mKcell,,D77,2016-11-06T11:33:18+06:00,3
1000000000274901,77773020178,mAltel,mKarTel,mKarTel,,D07,2016-11-06T11:45:59+06:00,
1000000000274902,77012120177,mKarTel,mKcell,mKcell,,D01,2016-11-06T11:49:08+06:00,
