NPId,Number,RecipientId,DonorId,RangeHolderId,OldRoute,NewRoute,PortDate,RowCount
1000000000306328,77014692346,mKcell,mMTS,mKcell,D77,D02,2017-01-06T11:31:16+06:00,15
1000000000306330,77012666080,mKarTel,mKcell,mKcell,,D01,2017-01-06T11:34:23+06:00,
1000000000306331,77479526867,mKcell,mMTS,mMTS,,D02,2017-01-06T11:34:47+06:00,
1000000000306332,77015882503,mAltel,mMTS,mKcell,D77,D07,2017-01-06T11:38:08+06:00,
1000000000306333,77016133332,mKcell,mMTS,mKcell,D77,D02,2017-01-06T11:39:35+06:00,
1000000000306335,77476888363,mKarTel,mMTS,mMTS,,D01,2017-01-06T11:40:02+06:00,
1000000000306336,77022131234,mKarTel,mKcell,mKcell,,D01,2017-01-06T11:45:17+06:00,
1000000000306337,77076660866,mKarTel,mMTS,mMTS,,D01,2017-01-06T11:47:33+06:00,
1000000000306339,77024540345,mAltel,mKcell,mKcell,,D07,2017-01-06T11:50:50+06:00,
1000000000306340,77018052389,mMTS,mKcell,mKcell,,D77,2017-01-06T11:52:50+06:00,
1000000000306341,77078449718,mAltel,mKcell,mMTS,D02,D07,2017-01-06T11:53:09+06:00,
1000000000306342,77763727373,mMTS,mKarTel,mKarTel,,D77,2017-01-06T11:54:31+06:00,
1000000000306343,77478044148,mAltel,mMTS,mMTS,,D07,2017-01-06T11:56:32+06:00,
1000000000306344,77787773957,mKcell,mMTS,mKcell,D77,D02,2017-01-06T11:57:37+06:00,
1000000000306345,77083307030,mKarTel,mAltel,mAltel,,D01,2017-01-06T11:58:07+06:00,
