NPId,Number,RecipientId,DonorId,RangeHolderId,OldRoute,NewRoute,PortDate,RowCount
1000000000005309,77074488554,mKarTel,mMTS,mMTS,,D01,2016-01-08T19:30:32+06:00,16
1000000000005310,77026301717,mAltel,mKcell,mKcell,,D07,2016-01-08T19:30:33+06:00,
1000000000005312,77073033034,mAltel,mMTS,mMTS,,D07,2016-01-08T19:32:10+06:00,
1000000000005314,77015343633,mMTS,mKcell,mKcell,,D77,2016-01-08T19:34:12+06:00,
1000000000005315,77070599999,mKcell,mMTS,mMTS,,D02,2016-01-08T19:35:51+06:00,
1000000000005316,77012274759,mAltel,mKcell,mKcell,,D07,2016-01-08T19:38:21+06:00,
1000000000005320,77055825727,mAltel,mKarTel,mKarTel,,D07,2016-01-08T19:44:53+06:00,
1000000000005321,77017333007,mKarTel,mKcell,mKcell,,D01,2016-01-08T19:46:00+06:00,
1000000000005323,77077771222,mKcell,mMTS,mMTS,,D02,2016-01-08T19:46:25+06:00,
1000000000005324,77022564155,mAltel,mKcell,mKcell,,D07,2016-01-08T19:46:42+06:00,
1000000000005325,77017668065,mAltel,mKcell,mKcell,,D07,2016-01-08T19:50:46+06:00,
1000000000005326,77074207573,mAltel,mMTS,mMTS,,D07,2016-01-08T19:50:44+06:00,
1000000000005328,77472201730,mAltel,mMTS,mMTS,,D07,2016-01-08T19:51:20+06:00,
1000000000005330,77015009201,mAltel,mKcell,mKcell,,D07,2016-01-08T19:54:45+06:00,
1000000000005331,77777771787,mKcell,mKarTel,mKarTel,,D02,2016-01-08T19:58:32+06:00,
1000000000005332,77073878585,mAltel,mMTS,mMTS,,D07,2016-01-08T19:58:43+06:00,
