NPId,Number,RecipientId,DonorId,RangeHolderId,OldRoute,NewRoute,PortDate,RowCount
1000000000261114,77752247315,mMTS,mKcell,mKcell,,D77,2016-10-12T13:31:11+06:00,28
1000000000261115,77085230809,mMTS,mAltel,mAltel,,D77,2016-10-12T13:32:01+06:00,
1000000000261119,77077331001,mAltel,mMTS,mMTS,,D07,2016-10-12T13:35:12+06:00,
1000000000261120,77079897000,mKcell,mMTS,mMTS,,D02,2016-10-12T13:35:35+06:00,
1000000000261121,77770668840,mAltel,mKarTel,mKarTel,,D07,2016-10-12T13:40:39+06:00,
1000000000261122,77003002030,mAltel,mKcell,mAltel,D02,D07,2016-10-12T13:36:58+06:00,
1000000000261123,77055451595,mKarTel,mMTS,mKarTel,D77,D01,2016-10-12T13:40:35+06:00,
1000000000261125,77761112992,mMTS,mKarTel,mKarTel,,D77,2016-10-12T13:46:26+06:00,
1000000000261127,77772596269,mMTS,mKarTel,mKarTel,,D77,2016-10-12T13:48:23+06:00,
1000000000261128,77766757676,mMTS,mKarTel,mKarTel,,D77,2016-10-12T13:48:22+06:00,
1000000000261129,77078610866,mKcell,mMTS,mMTS,,D02,2016-10-12T13:42:54+06:00,
1000000000261130,77072400110,mKarTel,mMTS,mMTS,,D01,2016-10-12T13:44:26+06:00,
1000000000261131,77072597579,mKarTel,mMTS,mMTS,,D01,2016-10-12T13:44:25+06:00,
1000000000261132,77021119934,mKcell,mMTS,mKcell,D77,D02,2016-10-12T13:42:50+06:00,
1000000000261133,77013669941,mKcell,mKarTel,mKcell,D01,D02,2016-10-12T13:48:30+06:00,
1000000000261134,77015703737,mAltel,mKcell,mKcell,,D07,2016-10-12T13:45:00+06:00,
1000000000261135,77777011105,mMTS,mKarTel,mKarTel,,D77,2016-10-12T13:50:11+06:00,
1000000000261136,77055412184,mMTS,mKarTel,mKarTel,,D77,2016-10-12T13:50:11+06:00,
1000000000261137,77772745454,mMTS,mKarTel,mKarTel,,D77,2016-10-12T13:50:11+06:00,
1000000000261139,77076221285,mKcell,mMTS,mMTS,,D02,2016-10-12T13:47:26+06:00,
1000000000261141,77018878738,mKarTel,mKcell,mKcell,,D01,2016-10-12T13:50:11+06:00,
1000000000261142,77022530865,mMTS,mKcell,mKcell,,D77,2016-10-12T13:48:28+06:00,
1000000000261143,77019252950,mAltel,mKcell,mKcell,,D07,2016-10-12T13:50:42+06:00,
1000000000261145,77052052252,mMTS,mKarTel,mKarTel,,D77,2016-10-12T13:55:38+06:00,
1000000000261146,77023331166,mKarTel,mKcell,mKcell,,D01,2016-10-12T13:53:50+06:00,
1000000000261149,77071199824,mKcell,mMTS,mMTS,,D02,2016-10-12T13:55:51+06:00,
1000000000261150,77009844423,mKcell,mAltel,mAltel,,D02,2016-10-12T13:55:48+06:00,
1000000000261154,77088114223,mAltel,mMTS,mAltel,D77,D07,2016-10-12T13:58:18+06:00,
