NPId,Number,RecipientId,DonorId,RangeHolderId,OldRoute,NewRoute,PortDate,RowCount
1000000000174439,77755685391,mMTS,mKcell,mKcell,,D77,2016-05-15T10:32:11+06:00,3
1000000000174440,77711599555,mMTS,mKarTel,mKarTel,,D77,2016-05-15T10:35:29+06:00,
1000000000174442,77773165434,mMTS,mKarTel,mKarTel,,D77,2016-05-15T10:44:43+06:00,
