NPId,Number,RecipientId,DonorId,RangeHolderId,OldRoute,NewRoute,PortDate,RowCount
1000000000183172,77019995455,mMTS,mKcell,mKcell,,D77,2016-05-29T13:30:39+06:00,13
1000000000183173,77058022738,mMTS,mKarTel,mKarTel,,D77,2016-05-29T13:31:27+06:00,
1000000000183174,77078970384,mMTS,mAltel,mMTS,D07,D77,2016-05-29T13:32:50+06:00,
1000000000183175,77022807611,mKcell,mAltel,mKcell,D07,D02,2016-05-29T13:35:55+06:00,
1000000000183176,77086561683,mMTS,mAltel,mAltel,,D77,2016-05-29T13:37:11+06:00,
1000000000183177,77783026767,mMTS,mKcell,mKcell,,D77,2016-05-29T13:37:31+06:00,
1000000000183179,77779754496,mMTS,mKarTel,mKarTel,,D77,2016-05-29T13:40:00+06:00,
1000000000183180,77072765556,mKarTel,mMTS,mMTS,,D01,2016-05-29T13:40:42+06:00,
1000000000183182,77776665855,mMTS,mKarTel,mKarTel,,D77,2016-05-29T13:47:36+06:00,
1000000000183183,77757210555,mMTS,mKcell,mKcell,,D77,2016-05-29T13:47:44+06:00,
1000000000183184,77055555861,mMTS,mKarTel,mKarTel,,D77,2016-05-29T13:48:55+06:00,
1000000000183187,77003123333,mKcell,mAltel,mAltel,,D02,2016-05-29T13:57:08+06:00,
1000000000183188,77712558817,mKcell,mKarTel,mKarTel,,D02,2016-05-29T13:59:17+06:00,
