NPId,Number,RecipientId,DonorId,RangeHolderId,OldRoute,NewRoute,PortDate,RowCount
1000000000155645,77778082000,mKcell,mKarTel,mKarTel,,D02,2016-04-19T14:43:41+06:00,31
1000000000155649,77075550511,mKcell,mMTS,mMTS,,D02,2016-04-19T14:33:10+06:00,
1000000000155650,77081195547,mMTS,mAltel,mAltel,,D77,2016-04-19T14:30:12+06:00,
1000000000155651,77753739790,mMTS,mKcell,mKcell,,D77,2016-04-19T14:33:43+06:00,
1000000000155652,77017372273,mKarTel,mKcell,mKcell,,D01,2016-04-19T14:33:55+06:00,
1000000000155653,77017346547,mKarTel,mKcell,mKcell,,D01,2016-04-19T14:33:57+06:00,
1000000000155654,77027418867,mMTS,mKcell,mKcell,,D77,2016-04-19T14:33:42+06:00,
1000000000155655,77774498072,mMTS,mKarTel,mKarTel,,D77,2016-04-19T14:32:10+06:00,
1000000000155657,77015265138,mMTS,mKcell,mKcell,,D77,2016-04-19T14:36:19+06:00,
1000000000155658,77474440999,mKarTel,mAltel,mMTS,D07,D01,2016-04-19T14:35:32+06:00,
1000000000155659,77011138082,mKcell,mAltel,mKcell,D07,D02,2016-04-19T14:36:40+06:00,
1000000000155660,77019992059,mKcell,mAltel,mKcell,D07,D02,2016-04-19T14:37:11+06:00,
1000000000155661,77028000828,mKcell,mAltel,mKcell,D07,D02,2016-04-19T14:37:30+06:00,
1000000000155662,77778366445,mMTS,mAltel,mKarTel,D07,D77,2016-04-19T14:37:07+06:00,
1000000000155665,77009852715,mMTS,mAltel,mAltel,,D77,2016-04-19T14:39:14+06:00,
1000000000155666,77025186960,mKcell,mAltel,mKcell,D07,D02,2016-04-19T14:40:22+06:00,
1000000000155667,77025080792,mMTS,mKcell,mKcell,,D77,2016-04-19T14:41:19+06:00,
1000000000155668,77017744479,mAltel,mKcell,mKcell,,D07,2016-04-19T14:41:38+06:00,
1000000000155671,77081878088,mMTS,mAltel,mAltel,,D77,2016-04-19T14:42:26+06:00,
1000000000155672,77757518459,mKcell,mMTS,mKcell,D77,D02,2016-04-19T14:43:25+06:00,
1000000000155676,77085232881,mMTS,mAltel,mAltel,,D77,2016-04-19T14:47:56+06:00,
1000000000155678,77002503456,mMTS,mAltel,mAltel,,D77,2016-04-19T14:51:35+06:00,
1000000000155680,77070420303,mMTS,mAltel,mMTS,D07,D77,2016-04-19T14:52:38+06:00,
1000000000155681,77754444501,mAltel,mKcell,mKcell,,D07,2016-04-19T14:53:26+06:00,
1000000000155684,77017298471,mMTS,mKcell,mKcell,,D77,2016-04-19T14:54:44+06:00,
1000000000155685,77014143210,mKcell,mAltel,mKcell,D07,D02,2016-04-19T14:55:03+06:00,
1000000000155686,77767664466,mMTS,mKarTel,mKarTel,,D77,2016-04-19T14:55:30+06:00,
1000000000155689,77002229674,mKcell,mAltel,mAltel,,D02,2016-04-19T14:56:49+06:00,
1000000000155690,77022250300,mMTS,mKcell,mKcell,,D77,2016-04-19T14:57:14+06:00,
1000000000155692,77057669751,mAltel,mKarTel,mKarTel,,D07,2016-04-19T14:57:38+06:00,
1000000000155693,77017998575,mMTS,mKcell,mKcell,,D77,2016-04-19T14:58:06+06:00,
