NPId,Number,RecipientId,DonorId,RangeHolderId,OldRoute,NewRoute,PortDate,RowCount
1000000000442845,77071020667,mKarTel,mMTS,mMTS,,D01,2017-08-20T19:32:58+06:00,5
1000000000442846,77078239911,mKarTel,mMTS,mMTS,,D01,2017-08-20T19:35:25+06:00,
1000000000442847,77014531591,mKarTel,mMTS,mKcell,D77,D01,2017-08-20T19:35:36+06:00,
1000000000442848,77011773164,mKarTel,mMTS,mKcell,D77,D01,2017-08-20T19:41:21+06:00,
1000000000442849,77085577055,mKcell,mAltel,mAltel,,D02,2017-08-20T19:42:00+06:00,
