NPId,Number,RecipientId,DonorId,RangeHolderId,OldRoute,NewRoute,PortDate,RowCount
1000000000246179,77018889792,mKarTel,mKcell,mKcell,,D01,2016-09-15T18:30:13+06:00,14
1000000000246180,77025991030,mKcell,mMTS,mKcell,D77,D02,2016-09-15T18:31:07+06:00,
1000000000246181,77017672051,mKarTel,mKcell,mKcell,,D01,2016-09-15T18:32:34+06:00,
1000000000246182,77071070736,mKcell,mMTS,mMTS,,D02,2016-09-15T18:34:15+06:00,
1000000000246183,77017509750,mKarTel,mKcell,mKcell,,D01,2016-09-15T18:35:50+06:00,
1000000000246184,77751505034,mMTS,mKcell,mKcell,,D77,2016-09-15T18:37:09+06:00,
1000000000246185,77711662222,mKcell,mKarTel,mKarTel,,D02,2016-09-15T18:40:21+06:00,
1000000000246187,77773035157,mMTS,mKarTel,mKarTel,,D77,2016-09-15T18:42:28+06:00,
1000000000246188,77753411777,mMTS,mKcell,mKcell,,D77,2016-09-15T18:42:30+06:00,
1000000000246189,77021174168,mKarTel,mKcell,mKcell,,D01,2016-09-15T18:45:12+06:00,
1000000000246190,77015281700,mKarTel,mKcell,mKcell,,D01,2016-09-15T18:45:39+06:00,
1000000000246191,77760115999,mKcell,mMTS,mKarTel,D77,D02,2016-09-15T18:46:37+06:00,
1000000000246192,77769790000,mMTS,mKarTel,mKarTel,,D77,2016-09-15T18:48:29+06:00,
1000000000246195,77011646402,mMTS,mKcell,mKcell,,D77,2016-09-15T18:49:52+06:00,
