NPId,Number,RecipientId,DonorId,RangeHolderId,OldRoute,NewRoute,PortDate,RowCount
1000000000268666,77053007777,mKarTel,mMTS,mKarTel,D77,D01,2016-10-27T09:38:37+06:00,5
1000000000268667,77077774006,mKarTel,mMTS,mMTS,,D01,2016-10-27T09:46:17+06:00,
1000000000268670,77007006767,mMTS,mAltel,mAltel,,D77,2016-10-27T09:53:35+06:00,
1000000000268672,77089889300,mMTS,mAltel,mAltel,,D77,2016-10-27T09:57:38+06:00,
1000000000268673,77757195408,mKarTel,mMTS,mKcell,D77,D01,2016-10-27T09:59:24+06:00,
