NPId,Number,RecipientId,DonorId,RangeHolderId,OldRoute,NewRoute,PortDate,RowCount
1000000000381707,77007271984,mMTS,mAltel,mAltel,,D77,2017-05-11T19:32:44+06:00,6
1000000000381708,77013531953,mAltel,mKcell,mKcell,,D07,2017-05-11T19:33:01+06:00,
1000000000381709,77024743090,mKcell,mAltel,mKcell,D07,D02,2017-05-11T19:34:02+06:00,
1000000000381711,77083539203,mKarTel,mMTS,mAltel,D77,D01,2017-05-11T19:36:34+06:00,
1000000000381713,77008088817,mMTS,mAltel,mAltel,,D77,2017-05-11T19:39:06+06:00,
1000000000381714,77751601002,mKcell,mMTS,mKcell,D77,D02,2017-05-11T19:39:36+06:00,
