NPId,Number,RecipientId,DonorId,RangeHolderId,OldRoute,NewRoute,PortDate,RowCount
1000000000099275,77012109640,mMTS,mKcell,mKcell,,D77,2016-02-25T16:01:04+06:00,43
1000000000099276,77777718771,mKcell,mKarTel,mKarTel,,D02,2016-02-25T16:02:09+06:00,
1000000000099277,77028287635,mMTS,mKcell,mKcell,,D77,2016-02-25T16:01:32+06:00,
1000000000099279,77755770300,mKarTel,mKcell,mKcell,,D01,2016-02-25T16:03:27+06:00,
1000000000099280,77079930708,mAltel,mMTS,mMTS,,D07,2016-02-25T16:02:55+06:00,
1000000000099282,77073501333,mAltel,mMTS,mMTS,,D07,2016-02-25T16:03:41+06:00,
1000000000099283,77755774799,mKarTel,mKcell,mKcell,,D01,2016-02-25T16:04:57+06:00,
1000000000099284,77024901992,mMTS,mKcell,mKcell,,D77,2016-02-25T16:05:38+06:00,
1000000000099286,77089090290,mKcell,mAltel,mAltel,,D02,2016-02-25T16:06:11+06:00,
1000000000099287,77778927815,mMTS,mKarTel,mKarTel,,D77,2016-02-25T16:07:13+06:00,
1000000000099288,77000290900,mKcell,mAltel,mAltel,,D02,2016-02-25T16:09:19+06:00,
1000000000099290,77758209272,mAltel,mKcell,mKcell,,D07,2016-02-25T16:09:56+06:00,
1000000000099292,77051921645,mKcell,mKarTel,mKarTel,,D02,2016-02-25T16:10:36+06:00,
1000000000099293,77084983350,mKcell,mAltel,mAltel,,D02,2016-02-25T16:10:37+06:00,
1000000000099294,77004040479,mMTS,mAltel,mAltel,,D77,2016-02-25T16:10:59+06:00,
1000000000099295,77019856100,mMTS,mKcell,mKcell,,D77,2016-02-25T16:13:04+06:00,
1000000000099296,77016256028,mAltel,mKcell,mKcell,,D07,2016-02-25T16:14:05+06:00,
1000000000099297,77772988839,mKcell,mKarTel,mKarTel,,D02,2016-02-25T16:14:43+06:00,
1000000000099299,77084983414,mKcell,mAltel,mAltel,,D02,2016-02-25T16:15:14+06:00,
1000000000099301,77758584554,mMTS,mKcell,mKcell,,D77,2016-02-25T16:16:02+06:00,
1000000000099302,77015670303,mAltel,mKcell,mKcell,,D07,2016-02-25T16:16:30+06:00,
1000000000099303,77754703337,mAltel,mKcell,mKcell,,D07,2016-02-25T16:16:30+06:00,
1000000000099305,77077736736,mKarTel,mMTS,mMTS,,D01,2016-02-25T16:16:59+06:00,
1000000000099307,77781607090,mMTS,mKcell,mKcell,,D77,2016-02-25T16:18:39+06:00,
1000000000099308,77773988410,mMTS,mKarTel,mKarTel,,D77,2016-02-25T16:20:56+06:00,
1000000000099309,77473359328,mKarTel,mMTS,mMTS,,D01,2016-02-25T16:22:00+06:00,
1000000000099310,77472228188,mAltel,mMTS,mMTS,,D07,2016-02-25T16:21:53+06:00,
1000000000099311,77714059437,mAltel,mKarTel,mKarTel,,D07,2016-02-25T16:22:33+06:00,
1000000000099312,77753401900,mKarTel,mKcell,mKcell,,D01,2016-02-25T16:23:25+06:00,
1000000000099313,77774119436,mMTS,mKarTel,mKarTel,,D77,2016-02-25T16:23:28+06:00,
1000000000099315,77712408819,mKcell,mKarTel,mKarTel,,D02,2016-02-25T16:24:35+06:00,
1000000000099316,77015719324,mMTS,mKcell,mKcell,,D77,2016-02-25T16:24:16+06:00,
1000000000099317,77021717959,mMTS,mKcell,mKcell,,D77,2016-02-25T16:24:46+06:00,
1000000000099318,77473359347,mKarTel,mMTS,mMTS,,D01,2016-02-25T16:25:45+06:00,
1000000000099319,77007000004,mKcell,mAltel,mAltel,,D02,2016-02-25T16:26:00+06:00,
1000000000099320,77004040499,mMTS,mAltel,mAltel,,D77,2016-02-25T16:26:11+06:00,
1000000000099322,77017149841,mAltel,mKcell,mKcell,,D07,2016-02-25T16:27:22+06:00,
1000000000099323,77054051397,mAltel,mKarTel,mKarTel,,D07,2016-02-25T16:27:30+06:00,
1000000000099324,77473359291,mKarTel,mMTS,mMTS,,D01,2016-02-25T16:27:27+06:00,
1000000000099325,77051959303,mMTS,mKarTel,mKarTel,,D77,2016-02-25T16:27:54+06:00,
1000000000099326,77777282510,mMTS,mKarTel,mKarTel,,D77,2016-02-25T16:28:31+06:00,
1000000000099328,77073659035,mAltel,mMTS,mMTS,,D07,2016-02-25T16:28:21+06:00,
1000000000099329,77018356996,mAltel,mKcell,mKcell,,D07,2016-02-25T16:29:01+06:00,
