NPId,Number,RecipientId,DonorId,RangeHolderId,OldRoute,NewRoute,PortDate,RowCount
1000000000380751,77713438484,mKarTel,mMTS,mKarTel,D77,D01,2017-05-10T15:01:11+06:00,37
1000000000380752,77020978471,mMTS,mKcell,mKcell,,D77,2017-05-10T15:03:42+06:00,
1000000000380753,77475155191,mKcell,mMTS,mMTS,,D02,2017-05-10T15:04:29+06:00,
1000000000380754,77028777155,mMTS,mKcell,mKcell,,D77,2017-05-10T15:04:37+06:00,
1000000000380755,77059722037,mKcell,mKarTel,mKarTel,,D02,2017-05-10T15:07:04+06:00,
1000000000380756,77013632519,mKcell,mMTS,mKcell,D77,D02,2017-05-10T15:05:48+06:00,
1000000000380757,77762072007,mKcell,mKarTel,mKarTel,,D02,2017-05-10T15:07:35+06:00,
1000000000380758,77017706635,mAltel,mKcell,mKcell,,D07,2017-05-10T15:07:53+06:00,
1000000000380759,77022480833,mMTS,mKcell,mKcell,,D77,2017-05-10T15:08:00+06:00,
1000000000380760,77781118440,mMTS,mKcell,mKcell,,D77,2017-05-10T15:09:02+06:00,
1000000000380761,77023695106,mKcell,mMTS,mKcell,D77,D02,2017-05-10T15:10:13+06:00,
1000000000380762,77472402007,mMTS,mKcell,mMTS,D02,D77,2017-05-10T15:10:15+06:00,
1000000000380763,77789379797,mMTS,mKcell,mKcell,,D77,2017-05-10T15:10:39+06:00,
1000000000380765,77765499991,mKarTel,mAltel,mKarTel,D07,D01,2017-05-10T15:12:50+06:00,
1000000000380766,77017600772,mMTS,mKcell,mKcell,,D77,2017-05-10T15:12:52+06:00,
1000000000380767,77005005039,mKcell,mAltel,mAltel,,D02,2017-05-10T15:13:45+06:00,
1000000000380768,77776527252,mKcell,mKarTel,mKarTel,,D02,2017-05-10T15:14:49+06:00,
1000000000380769,77785954141,mMTS,mKcell,mKcell,,D77,2017-05-10T15:15:44+06:00,
1000000000380772,77058905225,mAltel,mKarTel,mKarTel,,D07,2017-05-10T15:17:22+06:00,
1000000000380773,77000222537,mKcell,mAltel,mAltel,,D02,2017-05-10T15:17:12+06:00,
1000000000380774,77000266601,mMTS,mAltel,mAltel,,D77,2017-05-10T15:17:42+06:00,
1000000000380775,77471508945,mKcell,mMTS,mMTS,,D02,2017-05-10T15:18:25+06:00,
1000000000380776,77014206085,mMTS,mKcell,mKcell,,D77,2017-05-10T15:18:48+06:00,
1000000000380778,77019596946,mMTS,mKcell,mKcell,,D77,2017-05-10T15:19:01+06:00,
1000000000380779,77005005037,mKcell,mAltel,mAltel,,D02,2017-05-10T15:21:02+06:00,
1000000000380780,77077707182,mAltel,mMTS,mMTS,,D07,2017-05-10T15:20:48+06:00,
1000000000380782,77770202822,mKarTel,mKcell,mKarTel,D02,D01,2017-05-10T15:22:06+06:00,
1000000000380783,77075828408,mAltel,mMTS,mMTS,,D07,2017-05-10T15:23:29+06:00,
1000000000380784,77012819792,mKcell,mAltel,mKcell,D07,D02,2017-05-10T15:23:53+06:00,
1000000000380786,77071969696,mKcell,mMTS,mMTS,,D02,2017-05-10T15:24:14+06:00,
1000000000380787,77076325890,mMTS,mKarTel,mMTS,D01,D77,2017-05-10T15:24:45+06:00,
1000000000380789,77053013759,mKarTel,mKcell,mKarTel,D02,D01,2017-05-10T15:26:02+06:00,
1000000000380790,77078265900,mKarTel,mAltel,mMTS,D07,D01,2017-05-10T15:25:51+06:00,
1000000000380791,77767769098,mKarTel,mAltel,mKarTel,D07,D01,2017-05-10T15:26:12+06:00,
1000000000380792,77071114031,mKarTel,mAltel,mMTS,D07,D01,2017-05-10T15:27:50+06:00,
1000000000380793,77017723637,mAltel,mKcell,mKcell,,D07,2017-05-10T15:27:55+06:00,
1000000000380794,77002002046,mKarTel,mAltel,mAltel,,D01,2017-05-10T15:28:49+06:00,
