NPId,Number,RecipientId,DonorId,RangeHolderId,OldRoute,NewRoute,PortDate,RowCount
1000000000273083,77018051311,mMTS,mKcell,mKcell,,D77,2016-11-03T13:54:22+06:00,31
1000000000273092,77019818051,mMTS,mKcell,mKcell,,D77,2016-11-03T13:54:19+06:00,
1000000000273094,77018059899,mMTS,mKcell,mKcell,,D77,2016-11-03T13:54:08+06:00,
1000000000273095,77018050377,mMTS,mKcell,mKcell,,D77,2016-11-03T13:54:01+06:00,
1000000000273096,77018058488,mMTS,mKcell,mKcell,,D77,2016-11-03T13:53:50+06:00,
1000000000273098,77018058288,mMTS,mKcell,mKcell,,D77,2016-11-03T13:53:44+06:00,
1000000000273101,77018055655,mMTS,mKcell,mKcell,,D77,2016-11-03T13:53:35+06:00,
1000000000273103,77018055955,mMTS,mKcell,mKcell,,D77,2016-11-03T13:53:30+06:00,
1000000000273105,77018055755,mMTS,mKcell,mKcell,,D77,2016-11-03T13:53:18+06:00,
1000000000273110,77018055255,mMTS,mKcell,mKcell,,D77,2016-11-03T13:53:17+06:00,
1000000000273241,77779691101,mMTS,mKarTel,mKarTel,,D77,2016-11-03T13:30:06+06:00,
1000000000273242,77753320454,mAltel,mKcell,mKcell,,D07,2016-11-03T13:30:29+06:00,
1000000000273243,77017996705,mMTS,mKcell,mKcell,,D77,2016-11-03T13:36:55+06:00,
1000000000273245,77761212144,mKarTel,mKcell,mKarTel,D02,D01,2016-11-03T13:39:55+06:00,
1000000000273247,77059994059,mMTS,mKarTel,mKarTel,,D77,2016-11-03T13:40:09+06:00,
1000000000273248,77015333339,mKarTel,mKcell,mKcell,,D01,2016-11-03T13:42:04+06:00,
1000000000273249,77059994089,mMTS,mKarTel,mKarTel,,D77,2016-11-03T13:42:22+06:00,
1000000000273250,77075550450,mKarTel,mMTS,mMTS,,D01,2016-11-03T13:43:12+06:00,
1000000000273252,77015133335,mKarTel,mKcell,mKcell,,D01,2016-11-03T13:45:43+06:00,
1000000000273253,77012228633,mKarTel,mKcell,mKcell,,D01,2016-11-03T13:46:44+06:00,
1000000000273254,77015033335,mKarTel,mKcell,mKcell,,D01,2016-11-03T13:50:34+06:00,
1000000000273255,77785320006,mMTS,mKcell,mKcell,,D77,2016-11-03T13:50:26+06:00,
1000000000273256,77776573386,mKcell,mKarTel,mKarTel,,D02,2016-11-03T13:51:15+06:00,
1000000000273258,77014422990,mMTS,mKcell,mKcell,,D77,2016-11-03T13:51:19+06:00,
1000000000273259,77001105747,mKarTel,mAltel,mAltel,,D01,2016-11-03T13:51:46+06:00,
1000000000273261,77019907181,mKarTel,mKcell,mKcell,,D01,2016-11-03T13:54:40+06:00,
1000000000273262,77761230389,mMTS,mKarTel,mKarTel,,D77,2016-11-03T13:55:26+06:00,
1000000000273263,77029699599,mAltel,mKcell,mKcell,,D07,2016-11-03T13:56:01+06:00,
1000000000273264,77015182969,mKcell,mMTS,mKcell,D77,D02,2016-11-03T13:57:05+06:00,
1000000000273265,77781333733,mKarTel,mKcell,mKcell,,D01,2016-11-03T13:57:19+06:00,
1000000000273267,77714740788,mMTS,mKarTel,mKarTel,,D77,2016-11-03T13:57:53+06:00,
