NPId,Number,RecipientId,DonorId,RangeHolderId,OldRoute,NewRoute,PortDate,RowCount
1000000000416356,77019623284,mKcell,mKarTel,mKcell,D01,D02,2017-07-04T18:01:47+06:00,28
1000000000416452,77089040238,mKcell,mAltel,mAltel,,D02,2017-07-04T18:00:17+06:00,
1000000000416453,77072222230,mKarTel,mMTS,mMTS,,D01,2017-07-04T18:00:45+06:00,
1000000000416455,77005177755,mMTS,mAltel,mAltel,,D77,2017-07-04T18:01:39+06:00,
1000000000416456,77015384019,mKarTel,mKcell,mKcell,,D01,2017-07-04T18:02:42+06:00,
1000000000416457,77001070217,mKarTel,mAltel,mAltel,,D01,2017-07-04T18:03:41+06:00,
1000000000416458,77052047872,mMTS,mKarTel,mKarTel,,D77,2017-07-04T18:04:04+06:00,
1000000000416459,77017423798,mKarTel,mKcell,mKcell,,D01,2017-07-04T18:04:16+06:00,
1000000000416460,77022510500,mMTS,mKcell,mKcell,,D77,2017-07-04T18:04:51+06:00,
1000000000416463,77018090414,mKarTel,mKcell,mKcell,,D01,2017-07-04T18:06:29+06:00,
1000000000416464,77754004030,mKcell,mMTS,mKcell,D77,D02,2017-07-04T18:07:03+06:00,
1000000000416465,77785802480,mAltel,mKcell,mKcell,,D07,2017-07-04T18:08:02+06:00,
1000000000416468,77027771804,mKcell,mMTS,mKcell,D77,D02,2017-07-04T18:08:48+06:00,
1000000000416469,77018888558,mKarTel,mKcell,mKcell,,D01,2017-07-04T18:10:17+06:00,
1000000000416470,77002170021,mKarTel,mAltel,mAltel,D07,D01,2017-07-04T18:12:03+06:00,
1000000000416471,77019282000,mKarTel,mKcell,mKcell,,D01,2017-07-04T18:12:53+06:00,
1000000000416472,77476198488,mKarTel,mMTS,mMTS,,D01,2017-07-04T18:14:19+06:00,
1000000000416473,77004547460,mMTS,mAltel,mAltel,,D77,2017-07-04T18:16:19+06:00,
1000000000416477,77755503959,mMTS,mKcell,mKcell,,D77,2017-07-04T18:21:56+06:00,
1000000000416478,77019067439,mKcell,mMTS,mKcell,D77,D02,2017-07-04T18:22:22+06:00,
1000000000416480,77003954948,mMTS,mAltel,mAltel,,D77,2017-07-04T18:23:38+06:00,
1000000000416482,77057430094,mKarTel,mKcell,mKarTel,D02,D01,2017-07-04T18:25:43+06:00,
1000000000416484,77017941195,mMTS,mKcell,mKcell,,D77,2017-07-04T18:27:26+06:00,
1000000000416485,77473668517,mAltel,mMTS,mMTS,,D07,2017-07-04T18:27:19+06:00,
1000000000416487,77757360090,mAltel,mKcell,mKcell,,D07,2017-07-04T18:27:48+06:00,
1000000000416488,77781095897,mMTS,mKcell,mKcell,,D77,2017-07-04T18:28:49+06:00,
1000000000416489,77078456967,mAltel,mMTS,mMTS,,D07,2017-07-04T18:28:58+06:00,
1000000000416490,77718504817,mKcell,mKarTel,mKarTel,,D02,2017-07-04T18:29:50+06:00,
