NPId,Number,RecipientId,DonorId,RangeHolderId,OldRoute,NewRoute,PortDate,RowCount
1000000000097938,77012220734,mMTS,mKcell,mKcell,,D77,2016-02-24T13:10:24+06:00,36
1000000000097940,77012261049,mMTS,mKcell,mKcell,,D77,2016-02-24T13:10:59+06:00,
1000000000097945,77758637218,mMTS,mKcell,mKcell,,D77,2016-02-24T13:01:12+06:00,
1000000000097946,77777700072,mMTS,mKarTel,mKarTel,,D77,2016-02-24T13:02:21+06:00,
1000000000097948,77011303112,mAltel,mKcell,mKcell,,D07,2016-02-24T13:02:27+06:00,
1000000000097951,77017749606,mMTS,mKcell,mKcell,,D77,2016-02-24T13:02:51+06:00,
1000000000097953,77754880822,mMTS,mKcell,mKcell,,D77,2016-02-24T13:04:20+06:00,
1000000000097954,77759363436,mMTS,mKcell,mKcell,,D77,2016-02-24T13:04:40+06:00,
1000000000097956,77471116584,mKcell,mMTS,mMTS,,D02,2016-02-24T13:06:04+06:00,
1000000000097957,77023566675,mAltel,mKcell,mKcell,,D07,2016-02-24T13:06:33+06:00,
1000000000097958,77017776857,mMTS,mKcell,mKcell,,D77,2016-02-24T13:06:33+06:00,
1000000000097962,77029199944,mMTS,mKcell,mKcell,,D77,2016-02-24T13:07:34+06:00,
1000000000097963,77017178727,mAltel,mKcell,mKcell,,D07,2016-02-24T13:09:01+06:00,
1000000000097964,77758286997,mAltel,mKcell,mKcell,,D07,2016-02-24T13:09:19+06:00,
1000000000097965,77057330925,mKcell,mKarTel,mKarTel,,D02,2016-02-24T13:10:11+06:00,
1000000000097967,77751771870,mMTS,mKcell,mKcell,,D77,2016-02-24T13:11:00+06:00,
1000000000097970,77053056645,mMTS,mKarTel,mKarTel,,D77,2016-02-24T13:12:43+06:00,
1000000000097972,77019901000,mMTS,mKcell,mKcell,,D77,2016-02-24T13:13:55+06:00,
1000000000097974,77019544444,mMTS,mKcell,mKcell,,D77,2016-02-24T13:15:13+06:00,
1000000000097976,77019134444,mMTS,mKcell,mKcell,,D77,2016-02-24T13:17:17+06:00,
1000000000097979,77057330973,mKcell,mKarTel,mKarTel,,D02,2016-02-24T13:20:12+06:00,
1000000000097980,77757824406,mAltel,mKcell,mKcell,,D07,2016-02-24T13:20:10+06:00,
1000000000097981,77014272771,mKarTel,mKcell,mKcell,,D01,2016-02-24T13:20:43+06:00,
1000000000097982,77786226220,mAltel,mKcell,mKcell,,D07,2016-02-24T13:20:46+06:00,
1000000000097983,77016144141,mMTS,mKcell,mKcell,,D77,2016-02-24T13:21:29+06:00,
1000000000097984,77026443063,mAltel,mKcell,mKcell,,D07,2016-02-24T13:21:41+06:00,
1000000000097985,77002222900,mKcell,mAltel,mAltel,,D02,2016-02-24T13:22:10+06:00,
1000000000097986,77759944447,mMTS,mKcell,mKcell,,D77,2016-02-24T13:23:24+06:00,
1000000000097988,77015121837,mKarTel,mKcell,mKcell,,D01,2016-02-24T13:25:42+06:00,
1000000000097989,77072191093,mKcell,mMTS,mMTS,,D02,2016-02-24T13:25:51+06:00,
1000000000097990,77056653030,mAltel,mKarTel,mKarTel,,D07,2016-02-24T13:26:05+06:00,
1000000000097992,77053020070,mMTS,mKarTel,mKarTel,,D77,2016-02-24T13:27:42+06:00,
1000000000097993,77001700300,mKcell,mAltel,mAltel,,D02,2016-02-24T13:27:36+06:00,
1000000000097994,77081007070,mMTS,mAltel,mAltel,,D77,2016-02-24T13:27:01+06:00,
1000000000097995,77073742292,mAltel,mMTS,mMTS,,D07,2016-02-24T13:29:06+06:00,
1000000000097996,77786088887,mKarTel,mKcell,mKcell,,D01,2016-02-24T13:29:40+06:00,
