NPId,Number,RecipientId,DonorId,RangeHolderId,OldRoute,NewRoute,PortDate,RowCount
1000000000362158,77015185719,mAltel,mMTS,mKcell,D77,D07,2017-04-08T11:32:01+06:00,21
1000000000362161,77081781700,mKcell,mMTS,mAltel,D77,D02,2017-04-08T11:37:00+06:00,
1000000000362162,77774529825,mMTS,mKarTel,mKarTel,,D77,2017-04-08T11:38:13+06:00,
1000000000362164,77779929476,mMTS,mKarTel,mKarTel,,D77,2017-04-08T11:42:22+06:00,
1000000000362166,77026143838,mAltel,mKcell,mKcell,D02,D07,2017-04-08T11:43:57+06:00,
1000000000362168,77775559222,mKcell,mKarTel,mKarTel,,D02,2017-04-08T11:45:43+06:00,
1000000000362169,77055000733,mMTS,mKarTel,mKarTel,,D77,2017-04-08T11:45:53+06:00,
1000000000362170,77024818084,mAltel,mKcell,mKcell,,D07,2017-04-08T11:45:48+06:00,
1000000000362171,77054583610,mMTS,mKarTel,mKarTel,D01,D77,2017-04-08T11:46:28+06:00,
1000000000362173,77774056359,mKcell,mMTS,mKarTel,D77,D02,2017-04-08T11:46:49+06:00,
1000000000362174,77078824046,mKcell,mMTS,mMTS,,D02,2017-04-08T11:46:59+06:00,
1000000000362175,77077378883,mAltel,mMTS,mMTS,D77,D07,2017-04-08T11:48:11+06:00,
1000000000362176,77714364033,mMTS,mKarTel,mKarTel,,D77,2017-04-08T11:50:20+06:00,
1000000000362177,77077970929,mKarTel,mMTS,mMTS,,D01,2017-04-08T11:51:50+06:00,
1000000000362179,77002081996,mMTS,mAltel,mAltel,,D77,2017-04-08T11:52:56+06:00,
1000000000362181,77017754242,mMTS,mKcell,mKcell,,D77,2017-04-08T11:57:58+06:00,
1000000000362182,77777353141,mMTS,mKarTel,mKarTel,,D77,2017-04-08T11:56:41+06:00,
1000000000362183,77771708830,mMTS,mKarTel,mKarTel,,D77,2017-04-08T11:57:02+06:00,
1000000000362184,77022452972,mMTS,mKcell,mKcell,,D77,2017-04-08T11:57:54+06:00,
1000000000362185,77782522932,mMTS,mKcell,mKcell,,D77,2017-04-08T11:57:58+06:00,
1000000000362187,77014335276,mKarTel,mKcell,mKcell,,D01,2017-04-08T11:59:27+06:00,
