NPId,Number,RecipientId,DonorId,RangeHolderId,OldRoute,NewRoute,PortDate,RowCount
1000000000240200,77012103829,mAltel,mKcell,mKcell,,D07,2016-09-04T18:01:21+06:00,10
1000000000240201,77079103039,mKarTel,mMTS,mMTS,,D01,2016-09-04T18:02:56+06:00,
1000000000240202,77088500102,mKarTel,mKcell,mAltel,D02,D01,2016-09-04T18:03:53+06:00,
1000000000240203,77085174713,mAltel,mMTS,mAltel,D77,D07,2016-09-04T18:06:30+06:00,
1000000000240206,77085174714,mAltel,mMTS,mAltel,D77,D07,2016-09-04T18:12:32+06:00,
1000000000240207,77019909688,mKcell,mMTS,mKcell,D77,D02,2016-09-04T18:16:40+06:00,
1000000000240208,77021490429,mKcell,mAltel,mKcell,D07,D02,2016-09-04T18:17:37+06:00,
1000000000240209,77018111815,mAltel,mKcell,mKcell,,D07,2016-09-04T18:20:12+06:00,
1000000000240214,77471490429,mKcell,mMTS,mMTS,,D02,2016-09-04T18:27:44+06:00,
1000000000240215,77025142042,mMTS,mKcell,mKcell,,D77,2016-09-04T18:29:36+06:00,
