NPId,Number,RecipientId,DonorId,RangeHolderId,OldRoute,NewRoute,PortDate,RowCount
1000000000420855,77017151549,mAltel,mKcell,mKcell,,D07,2017-07-13T14:39:00+06:00,25
1000000000421106,77001689800,mMTS,mAltel,mAltel,,D77,2017-07-13T14:32:54+06:00,
1000000000421107,77013782545,mMTS,mKcell,mKcell,,D77,2017-07-13T14:33:28+06:00,
1000000000421108,77770735777,mMTS,mKarTel,mKarTel,,D77,2017-07-13T14:33:47+06:00,
1000000000421109,77775825511,mMTS,mKarTel,mKarTel,,D77,2017-07-13T14:33:52+06:00,
1000000000421110,77474389640,mAltel,mMTS,mMTS,,D07,2017-07-13T14:36:41+06:00,
1000000000421111,77018502719,mMTS,mKcell,mKcell,,D77,2017-07-13T14:38:05+06:00,
1000000000421112,77772316789,mMTS,mKarTel,mKarTel,,D77,2017-07-13T14:38:47+06:00,
1000000000421114,77781094003,mKarTel,mKcell,mKcell,,D01,2017-07-13T14:40:14+06:00,
1000000000421115,77773381333,mKarTel,mKcell,mKarTel,D02,D01,2017-07-13T14:40:50+06:00,
1000000000421116,77022373082,mKcell,mAltel,mKcell,D07,D02,2017-07-13T14:41:39+06:00,
1000000000421117,77057972028,mAltel,mKarTel,mKarTel,,D07,2017-07-13T14:41:54+06:00,
1000000000421118,77014246520,mAltel,mKcell,mKcell,,D07,2017-07-13T14:42:32+06:00,
1000000000421119,77012862882,mKarTel,mKcell,mKcell,,D01,2017-07-13T14:46:51+06:00,
1000000000421120,77025504661,mMTS,mKcell,mKcell,,D77,2017-07-13T14:46:58+06:00,
1000000000421122,77021434542,mMTS,mKcell,mKcell,,D77,2017-07-13T14:48:09+06:00,
1000000000421125,77028144454,mMTS,mKcell,mKcell,,D77,2017-07-13T14:50:21+06:00,
1000000000421126,77077584477,mAltel,mMTS,mMTS,,D07,2017-07-13T14:51:09+06:00,
1000000000421127,77027711551,mKarTel,mKcell,mKcell,,D01,2017-07-13T14:54:11+06:00,
1000000000421128,77025504746,mMTS,mKcell,mKcell,,D77,2017-07-13T14:55:04+06:00,
1000000000421129,77759740868,mKarTel,mKcell,mKcell,,D01,2017-07-13T14:55:48+06:00,
1000000000421130,77015710379,mKarTel,mKcell,mKcell,,D01,2017-07-13T14:56:03+06:00,
1000000000421133,77071701551,mKcell,mMTS,mMTS,,D02,2017-07-13T14:58:12+06:00,
1000000000421134,77025504806,mMTS,mKcell,mKcell,,D77,2017-07-13T14:58:46+06:00,
1000000000421135,77718555333,mKcell,mKarTel,mKarTel,D01,D02,2017-07-13T14:59:35+06:00,
