NPId,Number,RecipientId,DonorId,RangeHolderId,OldRoute,NewRoute,PortDate,RowCount
1000000000375498,77772854747,mKcell,mKarTel,mKarTel,,D02,2017-05-01T12:31:41+06:00,34
1000000000375500,77012711111,mKcell,mMTS,mKcell,D77,D02,2017-05-01T12:30:01+06:00,
1000000000375501,77012777897,mKarTel,mKcell,mKcell,,D01,2017-05-01T12:31:01+06:00,
1000000000375504,77051912574,mAltel,mKarTel,mKarTel,,D07,2017-05-01T12:35:16+06:00,
1000000000375505,77783300770,mMTS,mKcell,mKcell,,D77,2017-05-01T12:33:56+06:00,
1000000000375506,77751372931,mMTS,mKcell,mKcell,,D77,2017-05-01T12:34:06+06:00,
1000000000375507,77477860010,mKarTel,mMTS,mMTS,D77,D01,2017-05-01T12:35:14+06:00,
1000000000375508,77012120417,mKarTel,mKcell,mKcell,,D01,2017-05-01T12:35:43+06:00,
1000000000375510,77079800115,mAltel,mMTS,mMTS,D77,D07,2017-05-01T12:36:03+06:00,
1000000000375511,77015330655,mKcell,mMTS,mKcell,D77,D02,2017-05-01T12:36:23+06:00,
1000000000375512,77778936646,mKcell,mMTS,mKarTel,D77,D02,2017-05-01T12:36:35+06:00,
1000000000375515,77478447632,mKcell,mMTS,mMTS,,D02,2017-05-01T12:38:42+06:00,
1000000000375517,77759141127,mMTS,mKcell,mKcell,,D77,2017-05-01T12:38:41+06:00,
1000000000375518,77759430108,mMTS,mKcell,mKcell,,D77,2017-05-01T12:40:17+06:00,
1000000000375519,77071201486,mKcell,mMTS,mMTS,,D02,2017-05-01T12:41:48+06:00,
1000000000375520,77019088295,mKarTel,mKcell,mKcell,,D01,2017-05-01T12:42:35+06:00,
1000000000375522,77057530075,mKcell,mKarTel,mKarTel,,D02,2017-05-01T12:46:05+06:00,
1000000000375524,77005251040,mMTS,mAltel,mAltel,,D77,2017-05-01T12:43:47+06:00,
1000000000375526,77779073633,mMTS,mKarTel,mKarTel,,D77,2017-05-01T12:49:12+06:00,
1000000000375527,77082020728,mAltel,mKarTel,mAltel,D01,D07,2017-05-01T12:50:14+06:00,
1000000000375528,77012129820,mMTS,mKcell,mKcell,,D77,2017-05-01T12:48:11+06:00,
1000000000375530,77017718810,mKcell,mKarTel,mKcell,D01,D02,2017-05-01T12:51:58+06:00,
1000000000375531,77712555500,mKcell,mKarTel,mKarTel,,D02,2017-05-01T12:51:45+06:00,
1000000000375532,77478626249,mAltel,mMTS,mMTS,,D07,2017-05-01T12:49:11+06:00,
1000000000375533,77774844040,mMTS,mKarTel,mKarTel,,D77,2017-05-01T12:52:24+06:00,
1000000000375534,77086196035,mMTS,mAltel,mAltel,,D77,2017-05-01T12:50:24+06:00,
1000000000375535,77772831817,mMTS,mKarTel,mKarTel,,D77,2017-05-01T12:54:37+06:00,
1000000000375537,77017181575,mKarTel,mKcell,mKcell,,D01,2017-05-01T12:53:18+06:00,
1000000000375538,77072288896,mAltel,mMTS,mMTS,,D07,2017-05-01T12:52:03+06:00,
1000000000375539,77778079177,mKarTel,mAltel,mKarTel,D07,D01,2017-05-01T12:55:21+06:00,
1000000000375540,77772232538,mMTS,mKarTel,mKarTel,,D77,2017-05-01T12:57:45+06:00,
1000000000375541,77022987715,mMTS,mKcell,mKcell,,D77,2017-05-01T12:57:51+06:00,
1000000000375542,77082028877,mKcell,mAltel,mAltel,,D02,2017-05-01T12:58:17+06:00,
1000000000375543,77012279390,mKarTel,mKcell,mKcell,,D01,2017-05-01T12:59:21+06:00,
