NPId,Number,RecipientId,DonorId,RangeHolderId,OldRoute,NewRoute,PortDate,RowCount
1000000000338043,77018006001,mKarTel,mKcell,mKcell,,D01,2017-03-01T17:04:15+06:00,43
1000000000338043,77028880098,mKarTel,mKcell,mKcell,,D01,2017-03-01T17:04:15+06:00,
1000000000338065,77010911590,mKarTel,mKcell,mKcell,,D01,2017-03-01T17:02:13+06:00,
1000000000338696,77051513101,mMTS,mKarTel,mKarTel,,D77,2017-03-01T17:00:04+06:00,
1000000000338704,77057505313,mMTS,mKarTel,mKarTel,D01,D77,2017-03-01T17:01:56+06:00,
1000000000338708,77021633313,mAltel,mKcell,mKcell,,D07,2017-03-01T17:03:06+06:00,
1000000000338711,77015431320,mMTS,mKarTel,mKcell,D01,D77,2017-03-01T17:04:32+06:00,
1000000000338712,77779993150,mKcell,mKarTel,mKarTel,,D02,2017-03-01T17:05:04+06:00,
1000000000338714,77788008899,mKarTel,mKcell,mKcell,,D01,2017-03-01T17:05:32+06:00,
1000000000338716,77785714298,mMTS,mKcell,mKcell,,D77,2017-03-01T17:05:49+06:00,
1000000000338717,77074553232,mKcell,mKarTel,mMTS,D01,D02,2017-03-01T17:07:09+06:00,
1000000000338718,77772325774,mKcell,mKarTel,mKarTel,,D02,2017-03-01T17:07:40+06:00,
1000000000338720,77714123595,mMTS,mKarTel,mKarTel,,D77,2017-03-01T17:08:46+06:00,
1000000000338721,77057057585,mMTS,mKarTel,mKarTel,,D77,2017-03-01T17:08:46+06:00,
1000000000338722,77025444447,mMTS,mKcell,mKcell,,D77,2017-03-01T17:09:17+06:00,
1000000000338723,77003417545,mAltel,mKarTel,mAltel,D01,D07,2017-03-01T17:09:33+06:00,
1000000000338724,77011750850,mKcell,mMTS,mKcell,D77,D02,2017-03-01T17:09:56+06:00,
1000000000338725,77055240076,mAltel,mKarTel,mKarTel,,D07,2017-03-01T17:10:51+06:00,
1000000000338726,77711331334,mMTS,mKarTel,mKarTel,,D77,2017-03-01T17:10:58+06:00,
1000000000338727,77017948810,mMTS,mKcell,mKcell,,D77,2017-03-01T17:10:31+06:00,
1000000000338729,77002450927,mMTS,mAltel,mAltel,,D77,2017-03-01T17:10:58+06:00,
1000000000338733,77013411144,mKcell,mKarTel,mKcell,D01,D02,2017-03-01T17:13:29+06:00,
1000000000338734,77022188707,mAltel,mKcell,mKcell,,D07,2017-03-01T17:13:37+06:00,
1000000000338735,77073751191,mKcell,mKarTel,mMTS,D01,D02,2017-03-01T17:14:18+06:00,
1000000000338736,77015218847,mKcell,mMTS,mKcell,D77,D02,2017-03-01T17:15:25+06:00,
1000000000338737,77754449186,mMTS,mKcell,mKcell,,D77,2017-03-01T17:15:32+06:00,
1000000000338741,77785503883,mMTS,mKcell,mKcell,,D77,2017-03-01T17:18:39+06:00,
1000000000338742,77761287868,mKcell,mKarTel,mKarTel,,D02,2017-03-01T17:20:53+06:00,
1000000000338744,77057054050,mKarTel,mKcell,mKarTel,D02,D01,2017-03-01T17:20:48+06:00,
1000000000338749,77020000550,mKcell,mKarTel,mKcell,D01,D02,2017-03-01T17:23:01+06:00,
1000000000338750,77779585858,mKarTel,mAltel,mKarTel,D07,D01,2017-03-01T17:22:41+06:00,
1000000000338752,77753481966,mMTS,mKcell,mKcell,,D77,2017-03-01T17:22:57+06:00,
1000000000338754,77017490833,mKarTel,mKcell,mKcell,,D01,2017-03-01T17:24:14+06:00,
1000000000338755,77012999715,mKarTel,mKcell,mKcell,,D01,2017-03-01T17:24:48+06:00,
1000000000338756,77051706855,mMTS,mKarTel,mKarTel,,D77,2017-03-01T17:25:38+06:00,
1000000000338757,77004842010,mKcell,mAltel,mAltel,,D02,2017-03-01T17:25:12+06:00,
1000000000338758,77019202819,mKcell,mAltel,mKcell,D07,D02,2017-03-01T17:25:46+06:00,
1000000000338759,77072062946,mAltel,mMTS,mMTS,,D07,2017-03-01T17:25:47+06:00,
1000000000338760,77015357296,mKarTel,mKcell,mKcell,,D01,2017-03-01T17:27:08+06:00,
1000000000338761,77018877110,mAltel,mKcell,mKcell,,D07,2017-03-01T17:26:59+06:00,
1000000000338762,77017777194,mKarTel,mKcell,mKcell,,D01,2017-03-01T17:27:36+06:00,
1000000000338763,77017420344,mMTS,mKcell,mKcell,,D77,2017-03-01T17:27:55+06:00,
1000000000338766,77013534185,mKarTel,mKcell,mKcell,,D01,2017-03-01T17:29:56+06:00,
