NPId,Number,RecipientId,DonorId,RangeHolderId,OldRoute,NewRoute,PortDate,RowCount
1000000000180938,77776284545,mMTS,mKarTel,mKarTel,,D77,2016-05-26T12:12:13+06:00,35
1000000000180942,77778154040,mMTS,mKarTel,mKarTel,,D77,2016-05-26T12:17:08+06:00,
1000000000181237,77021828812,mMTS,mKcell,mKcell,,D77,2016-05-26T12:01:58+06:00,
1000000000181240,77052431832,mMTS,mKarTel,mKarTel,,D77,2016-05-26T12:02:28+06:00,
1000000000181241,77777499779,mMTS,mKarTel,mKarTel,,D77,2016-05-26T12:02:28+06:00,
1000000000181242,77081040369,mMTS,mAltel,mAltel,,D77,2016-05-26T12:02:23+06:00,
1000000000181243,77762248234,mKcell,mKarTel,mKarTel,,D02,2016-05-26T12:04:38+06:00,
1000000000181246,77081040427,mMTS,mAltel,mAltel,,D77,2016-05-26T12:04:57+06:00,
1000000000181247,77770532764,mMTS,mKarTel,mKarTel,,D77,2016-05-26T12:05:52+06:00,
1000000000181249,77028305074,mMTS,mKcell,mKcell,,D77,2016-05-26T12:06:26+06:00,
1000000000181250,77077964964,mAltel,mKarTel,mMTS,D01,D07,2016-05-26T12:06:42+06:00,
1000000000181251,77081040432,mMTS,mAltel,mAltel,,D77,2016-05-26T12:07:25+06:00,
1000000000181252,77083228842,mMTS,mAltel,mAltel,,D77,2016-05-26T12:07:41+06:00,
1000000000181254,77081040454,mMTS,mAltel,mAltel,,D77,2016-05-26T12:10:26+06:00,
1000000000181255,77759081083,mAltel,mKcell,mKcell,,D07,2016-05-26T12:11:04+06:00,
1000000000181256,77021000106,mMTS,mKcell,mKcell,,D77,2016-05-26T12:12:34+06:00,
1000000000181257,77081040438,mMTS,mAltel,mAltel,,D77,2016-05-26T12:13:01+06:00,
1000000000181258,77019972325,mAltel,mKcell,mKcell,,D07,2016-05-26T12:14:10+06:00,
1000000000181259,77752186866,mKarTel,mKcell,mKcell,,D01,2016-05-26T12:15:21+06:00,
1000000000181260,77081040455,mMTS,mAltel,mAltel,,D77,2016-05-26T12:15:31+06:00,
1000000000181261,77005505015,mMTS,mAltel,mAltel,,D77,2016-05-26T12:17:11+06:00,
1000000000181262,77773447148,mAltel,mKarTel,mKarTel,,D07,2016-05-26T12:18:00+06:00,
1000000000181263,77078485507,mKarTel,mMTS,mMTS,,D01,2016-05-26T12:20:34+06:00,
1000000000181264,77026583132,mMTS,mKarTel,mKcell,D01,D77,2016-05-26T12:20:49+06:00,
1000000000181265,77781000739,mKarTel,mKcell,mKcell,,D01,2016-05-26T12:22:05+06:00,
1000000000181266,77086891015,mMTS,mAltel,mAltel,,D77,2016-05-26T12:21:27+06:00,
1000000000181267,77052952524,mMTS,mKarTel,mKarTel,,D77,2016-05-26T12:22:19+06:00,
1000000000181268,77005255015,mMTS,mAltel,mAltel,,D77,2016-05-26T12:22:01+06:00,
1000000000181269,77015663803,mMTS,mKcell,mKcell,,D77,2016-05-26T12:22:38+06:00,
1000000000181270,77053333063,mKcell,mKarTel,mKarTel,,D02,2016-05-26T12:24:21+06:00,
1000000000181271,77770656611,mMTS,mKarTel,mKarTel,,D77,2016-05-26T12:24:09+06:00,
1000000000181272,77021009089,mMTS,mKcell,mKcell,,D77,2016-05-26T12:25:55+06:00,
1000000000181274,77776432023,mMTS,mAltel,mKarTel,D07,D77,2016-05-26T12:26:39+06:00,
1000000000181275,77077438167,mKarTel,mMTS,mMTS,,D01,2016-05-26T12:27:32+06:00,
1000000000181276,77082809091,mKcell,mAltel,mAltel,,D02,2016-05-26T12:29:31+06:00,
