NPId,Number,RecipientId,DonorId,RangeHolderId,OldRoute,NewRoute,PortDate,RowCount
1000000000208342,77017256363,mMTS,mKcell,mKcell,,D77,2016-07-09T12:32:25+06:00,19
1000000000208346,77759389484,mMTS,mKcell,mKcell,,D77,2016-07-09T12:33:13+06:00,
1000000000208347,77001585790,mKarTel,mAltel,mAltel,,D01,2016-07-09T12:34:37+06:00,
1000000000208348,77079110409,mKcell,mMTS,mMTS,,D02,2016-07-09T12:35:42+06:00,
1000000000208349,77087077757,mAltel,mMTS,mAltel,D77,D07,2016-07-09T12:35:13+06:00,
1000000000208350,77004423232,mMTS,mAltel,mAltel,,D77,2016-07-09T12:37:13+06:00,
1000000000208351,77017455786,mMTS,mKcell,mKcell,,D77,2016-07-09T12:37:38+06:00,
1000000000208353,77027635714,mMTS,mKcell,mKcell,,D77,2016-07-09T12:37:53+06:00,
1000000000208354,77012485868,mMTS,mKcell,mKcell,,D77,2016-07-09T12:38:50+06:00,
1000000000208356,77071701199,mAltel,mMTS,mMTS,,D07,2016-07-09T12:39:28+06:00,
1000000000208359,77015918592,mAltel,mKcell,mKcell,,D07,2016-07-09T12:42:45+06:00,
1000000000208360,77018951467,mMTS,mKcell,mKcell,,D77,2016-07-09T12:47:41+06:00,
1000000000208361,77008888008,mKarTel,mAltel,mAltel,,D01,2016-07-09T12:51:03+06:00,
1000000000208362,77019159891,mKarTel,mKcell,mKcell,,D01,2016-07-09T12:52:15+06:00,
1000000000208363,77719049781,mMTS,mKarTel,mKarTel,,D77,2016-07-09T12:52:35+06:00,
1000000000208364,77053080439,mMTS,mKarTel,mKarTel,,D77,2016-07-09T12:53:09+06:00,
1000000000208365,77470817283,mKcell,mMTS,mMTS,,D02,2016-07-09T12:54:51+06:00,
1000000000208366,77021380774,mKarTel,mKcell,mKcell,,D01,2016-07-09T12:55:20+06:00,
1000000000208368,77013507976,mKarTel,mKcell,mKcell,,D01,2016-07-09T12:58:06+06:00,
