NPId,Number,RecipientId,DonorId,RangeHolderId,OldRoute,NewRoute,PortDate,RowCount
1000000000328508,77765234343,mAltel,mKarTel,mKarTel,,D07,2017-02-13T22:55:30+06:00,4
1000000000328561,77055322088,mMTS,mKarTel,mKarTel,,D77,2017-02-13T22:38:00+06:00,
1000000000328562,77052641846,mMTS,mKarTel,mKarTel,,D77,2017-02-13T22:47:59+06:00,
1000000000328563,77052641781,mMTS,mKarTel,mKarTel,,D77,2017-02-13T22:58:06+06:00,
