NPId,Number,RecipientId,DonorId,RangeHolderId,OldRoute,NewRoute,PortDate,RowCount
1000000000249861,77076612507,mAltel,mMTS,mMTS,,D07,2016-09-23T11:33:52+06:00,16
1000000000249862,77789388889,mKarTel,mKcell,mKcell,,D01,2016-09-23T11:37:32+06:00,
1000000000249863,77471262523,mKarTel,mKcell,mMTS,D02,D01,2016-09-23T11:35:40+06:00,
1000000000249865,77786704538,mMTS,mKcell,mKcell,,D77,2016-09-23T11:35:21+06:00,
1000000000249866,77777733332,mAltel,mKarTel,mKarTel,,D07,2016-09-23T11:38:27+06:00,
1000000000249867,77017579365,mMTS,mKcell,mKcell,,D77,2016-09-23T11:35:58+06:00,
1000000000249868,77474154600,mMTS,mKcell,mMTS,D02,D77,2016-09-23T11:36:06+06:00,
1000000000249870,77078023232,mKcell,mMTS,mMTS,,D02,2016-09-23T11:41:51+06:00,
1000000000249871,77012209912,mKcell,mMTS,mKcell,D77,D02,2016-09-23T11:43:20+06:00,
1000000000249872,77075658124,mKcell,mMTS,mMTS,,D02,2016-09-23T11:44:27+06:00,
1000000000249874,77055196189,mMTS,mKarTel,mKarTel,,D77,2016-09-23T11:48:26+06:00,
1000000000249876,77015939701,mAltel,mKcell,mKcell,,D07,2016-09-23T11:47:24+06:00,
1000000000249878,77074807807,mAltel,mMTS,mMTS,,D07,2016-09-23T11:49:28+06:00,
1000000000249880,77017719428,mKarTel,mKcell,mKcell,,D01,2016-09-23T11:53:50+06:00,
1000000000249881,77028862299,mMTS,mKcell,mKcell,,D77,2016-09-23T11:53:56+06:00,
1000000000249882,77771440097,mKarTel,mKcell,mKarTel,D02,D01,2016-09-23T11:55:44+06:00,
