NPId,Number,RecipientId,DonorId,RangeHolderId,OldRoute,NewRoute,PortDate,RowCount
1000000000290529,77019582860,mKarTel,mKcell,mKcell,,D01,2016-12-06T09:02:48+06:00,5
1000000000290530,77758220834,mKarTel,mKcell,mKcell,,D01,2016-12-06T09:02:49+06:00,
1000000000290531,77758220861,mKarTel,mKcell,mKcell,,D01,2016-12-06T09:11:04+06:00,
1000000000290532,77022090674,mKcell,mKarTel,mKcell,D01,D02,2016-12-06T09:10:04+06:00,
1000000000290535,77015990972,mKarTel,mMTS,mKcell,D77,D01,2016-12-06T09:20:32+06:00,
