NPId,Number,RecipientId,DonorId,RangeHolderId,OldRoute,NewRoute,PortDate,RowCount
1000000000212960,77011770848,mMTS,mKcell,mKcell,,D77,2016-07-18T12:48:53+06:00,21
1000000000212964,77782102788,mMTS,mKcell,mKcell,,D77,2016-07-18T12:50:42+06:00,
1000000000212965,77022273141,mKarTel,mKcell,mKcell,,D01,2016-07-18T12:50:59+06:00,
1000000000212967,77012700502,mAltel,mKcell,mKcell,,D07,2016-07-18T12:50:42+06:00,
1000000000212970,77789015275,mMTS,mKcell,mKcell,,D77,2016-07-18T12:50:42+06:00,
1000000000212971,77005500700,mMTS,mAltel,mAltel,,D77,2016-07-18T12:39:42+06:00,
1000000000212973,77054541081,mMTS,mKarTel,mKarTel,,D77,2016-07-18T12:43:39+06:00,
1000000000212974,77083341077,mKarTel,mAltel,mAltel,,D01,2016-07-18T12:46:30+06:00,
1000000000212975,77013207876,mMTS,mKcell,mKcell,,D77,2016-07-18T12:50:42+06:00,
1000000000212976,77767300112,mMTS,mKarTel,mKarTel,,D77,2016-07-18T12:47:56+06:00,
1000000000212977,77083551580,mKarTel,mAltel,mAltel,,D01,2016-07-18T12:48:21+06:00,
1000000000212978,77086308713,mKarTel,mAltel,mAltel,,D01,2016-07-18T12:49:05+06:00,
1000000000212979,77474282038,mAltel,mMTS,mMTS,,D07,2016-07-18T12:49:17+06:00,
1000000000212980,77014054041,mKarTel,mKcell,mKcell,,D01,2016-07-18T12:52:46+06:00,
1000000000212981,77713368396,mMTS,mKarTel,mKarTel,,D77,2016-07-18T12:50:55+06:00,
1000000000212984,77011339807,mKcell,mMTS,mKcell,D77,D02,2016-07-18T12:55:08+06:00,
1000000000212986,77001509991,mAltel,mMTS,mAltel,D77,D07,2016-07-18T12:51:10+06:00,
1000000000212987,77017318286,mMTS,mKcell,mKcell,,D77,2016-07-18T12:54:59+06:00,
1000000000212988,77761110500,mAltel,mKarTel,mKarTel,,D07,2016-07-18T12:52:02+06:00,
1000000000212990,77017774113,mKarTel,mKcell,mKcell,,D01,2016-07-18T12:59:25+06:00,
1000000000212992,77077521832,mKcell,mMTS,mMTS,,D02,2016-07-18T12:59:58+06:00,
