NPId,Number,RecipientId,DonorId,RangeHolderId,OldRoute,NewRoute,PortDate,RowCount
1000000000308325,77757040444,mMTS,mKcell,mKcell,,D77,2017-01-10T12:00:10+06:00,20
1000000000308326,77755411306,mKcell,mAltel,mKcell,D07,D02,2017-01-10T12:00:54+06:00,
1000000000308327,77089022880,mMTS,mAltel,mAltel,,D77,2017-01-10T12:01:12+06:00,
1000000000308328,77771905555,mAltel,mKcell,mKarTel,D02,D07,2017-01-10T12:01:55+06:00,
1000000000308329,77781000056,mKarTel,mAltel,mKcell,D07,D01,2017-01-10T12:04:23+06:00,
1000000000308330,77751415946,mKarTel,mKcell,mKcell,,D01,2017-01-10T12:05:15+06:00,
1000000000308331,77017401235,mMTS,mKcell,mKcell,,D77,2017-01-10T12:07:57+06:00,
1000000000308333,77019438461,mAltel,mKcell,mKcell,,D07,2017-01-10T12:09:07+06:00,
1000000000308334,77058406981,mKcell,mKarTel,mKarTel,,D02,2017-01-10T12:09:35+06:00,
1000000000308335,77022209994,mAltel,mKcell,mKcell,,D07,2017-01-10T12:10:05+06:00,
1000000000308336,77789927088,mMTS,mKcell,mKcell,,D77,2017-01-10T12:13:10+06:00,
1000000000308340,77017401899,mMTS,mKcell,mKcell,,D77,2017-01-10T12:17:30+06:00,
1000000000308341,77012424044,mKarTel,mKcell,mKcell,,D01,2017-01-10T12:22:25+06:00,
1000000000308342,77023544716,mKarTel,mMTS,mKcell,D77,D01,2017-01-10T12:20:25+06:00,
1000000000308344,77010000943,mMTS,mKcell,mKcell,D02,D77,2017-01-10T12:23:34+06:00,
1000000000308345,77019899776,mKarTel,mKcell,mKcell,,D01,2017-01-10T12:25:22+06:00,
1000000000308347,77018007408,mKarTel,mKcell,mKcell,,D01,2017-01-10T12:27:07+06:00,
1000000000308348,77758565293,mAltel,mKcell,mKcell,,D07,2017-01-10T12:27:22+06:00,
1000000000308349,77013399670,mMTS,mKcell,mKcell,,D77,2017-01-10T12:29:11+06:00,
1000000000308350,77010858808,mKarTel,mKcell,mKcell,,D01,2017-01-10T12:29:52+06:00,
