NPId,Number,RecipientId,DonorId,RangeHolderId,OldRoute,NewRoute,PortDate,RowCount
1000000000444173,77000951030,mKarTel,mAltel,mAltel,,D01,2017-08-23T11:00:39+06:00,19
1000000000444174,77078266680,mAltel,mMTS,mMTS,,D07,2017-08-23T11:02:01+06:00,
1000000000444175,77089890667,mKcell,mAltel,mAltel,,D02,2017-08-23T11:02:32+06:00,
1000000000444176,77764165556,mAltel,mKarTel,mKarTel,,D07,2017-08-23T11:02:54+06:00,
1000000000444181,77003374068,mKarTel,mAltel,mAltel,,D01,2017-08-23T11:05:48+06:00,
1000000000444184,77029574707,mKcell,mMTS,mKcell,D77,D02,2017-08-23T11:07:19+06:00,
1000000000444185,77013051021,mMTS,mKcell,mKcell,D02,D77,2017-08-23T11:09:00+06:00,
1000000000444187,77758859984,mMTS,mKcell,mKcell,,D77,2017-08-23T11:18:34+06:00,
1000000000444188,77019577771,mKcell,mKarTel,mKcell,D01,D02,2017-08-23T11:19:29+06:00,
1000000000444189,77006565446,mMTS,mAltel,mAltel,,D77,2017-08-23T11:20:03+06:00,
1000000000444191,77477262794,mKarTel,mKcell,mMTS,D02,D01,2017-08-23T11:20:43+06:00,
1000000000444192,77083020981,mKarTel,mAltel,mAltel,,D01,2017-08-23T11:20:43+06:00,
1000000000444193,77023808056,mKarTel,mKcell,mKcell,,D01,2017-08-23T11:21:08+06:00,
1000000000444194,77022533277,mAltel,mKcell,mKcell,,D07,2017-08-23T11:22:28+06:00,
1000000000444196,77082764246,mKcell,mAltel,mAltel,,D02,2017-08-23T11:24:08+06:00,
1000000000444197,77017453800,mKcell,mMTS,mKcell,D77,D02,2017-08-23T11:24:15+06:00,
1000000000444198,77028570745,mKarTel,mKcell,mKcell,,D01,2017-08-23T11:25:39+06:00,
1000000000444201,77752242396,mKarTel,mKcell,mKcell,,D01,2017-08-23T11:26:48+06:00,
1000000000444202,77055034900,mMTS,mKarTel,mKarTel,,D77,2017-08-23T11:27:43+06:00,
