NPId,Number,RecipientId,DonorId,RangeHolderId,OldRoute,NewRoute,PortDate,RowCount
1000000000307419,77085216885,mMTS,mAltel,mAltel,,D77,2017-01-08T16:32:36+06:00,10
1000000000307420,77786799998,mKcell,mAltel,mKcell,D07,D02,2017-01-08T16:34:16+06:00,
1000000000307423,77028704848,mMTS,mKcell,mKcell,,D77,2017-01-08T16:39:34+06:00,
1000000000307424,77785273901,mAltel,mKcell,mKcell,,D07,2017-01-08T16:38:04+06:00,
1000000000307425,77071111069,mAltel,mMTS,mMTS,,D07,2017-01-08T16:38:12+06:00,
1000000000307427,77015429229,mKarTel,mKcell,mKcell,,D01,2017-01-08T16:40:33+06:00,
1000000000307429,77012664080,mMTS,mKcell,mKcell,,D77,2017-01-08T16:42:44+06:00,
1000000000307430,77076878146,mAltel,mMTS,mMTS,,D07,2017-01-08T16:44:28+06:00,
1000000000307432,77082227272,mMTS,mAltel,mAltel,,D77,2017-01-08T16:48:51+06:00,
1000000000307433,77089168477,mMTS,mAltel,mAltel,,D77,2017-01-08T16:58:14+06:00,
