NPId,Number,RecipientId,DonorId,RangeHolderId,OldRoute,NewRoute,PortDate,RowCount
1000000000276975,77001001985,mKcell,mAltel,mAltel,,D02,2016-11-09T20:34:32+06:00,3
1000000000276976,77004040504,mKcell,mAltel,mAltel,,D02,2016-11-09T20:36:06+06:00,
1000000000276977,77000808039,mKcell,mAltel,mAltel,,D02,2016-11-09T20:38:40+06:00,
