NPId,Number,RecipientId,DonorId,RangeHolderId,OldRoute,NewRoute,PortDate,RowCount
1000000000126585,77759867950,mKarTel,mKcell,mKcell,,D01,2016-03-16T12:30:01+06:00,32
1000000000126586,77775815454,mAltel,mKarTel,mKarTel,,D07,2016-03-16T12:30:51+06:00,
1000000000126587,77014102537,mMTS,mKcell,mKcell,,D77,2016-03-16T12:30:19+06:00,
1000000000126588,77078023633,mKarTel,mMTS,mMTS,,D01,2016-03-16T12:30:50+06:00,
1000000000126591,77014046370,mMTS,mKcell,mKcell,,D77,2016-03-16T12:30:57+06:00,
1000000000126592,77751215500,mAltel,mKcell,mKcell,,D07,2016-03-16T12:31:15+06:00,
1000000000126593,77014726688,mMTS,mKcell,mKcell,,D77,2016-03-16T12:32:02+06:00,
1000000000126594,77762181779,mMTS,mKarTel,mKarTel,,D77,2016-03-16T12:34:16+06:00,
1000000000126596,77018819075,mMTS,mKcell,mKcell,,D77,2016-03-16T12:35:55+06:00,
1000000000126597,77777237053,mMTS,mKarTel,mKarTel,,D77,2016-03-16T12:39:08+06:00,
1000000000126598,77762181767,mMTS,mKarTel,mKarTel,,D77,2016-03-16T12:40:14+06:00,
1000000000126599,77755941000,mAltel,mKcell,mKcell,,D07,2016-03-16T12:39:45+06:00,
1000000000126601,77017262412,mMTS,mKcell,mKcell,,D77,2016-03-16T12:42:01+06:00,
1000000000126603,77023773498,mMTS,mKcell,mKcell,,D77,2016-03-16T12:42:50+06:00,
1000000000126604,77777112762,mMTS,mKarTel,mKarTel,,D77,2016-03-16T12:45:29+06:00,
1000000000126605,77059894228,mMTS,mKarTel,mKarTel,,D77,2016-03-16T12:46:17+06:00,
1000000000126606,77762181860,mMTS,mKarTel,mKarTel,,D77,2016-03-16T12:46:45+06:00,
1000000000126607,77016252510,mKarTel,mKcell,mKcell,,D01,2016-03-16T12:46:40+06:00,
1000000000126608,77022617337,mKarTel,mKcell,mKcell,,D01,2016-03-16T12:47:27+06:00,
1000000000126609,77782222225,mMTS,mKcell,mKcell,,D77,2016-03-16T12:47:11+06:00,
1000000000126610,77018570330,mMTS,mKcell,mKcell,,D77,2016-03-16T12:48:15+06:00,
1000000000126613,77018538730,mMTS,mKcell,mKcell,,D77,2016-03-16T12:49:46+06:00,
1000000000126614,77772121117,mMTS,mKarTel,mKarTel,,D77,2016-03-16T12:51:37+06:00,
1000000000126615,77762181769,mMTS,mKarTel,mKarTel,,D77,2016-03-16T12:52:25+06:00,
1000000000126616,77017694275,mAltel,mKcell,mKcell,,D07,2016-03-16T12:52:08+06:00,
1000000000126617,77089350735,mAltel,mKcell,mAltel,D02,D07,2016-03-16T12:53:40+06:00,
1000000000126618,77757307006,mMTS,mKcell,mKcell,,D77,2016-03-16T12:54:43+06:00,
1000000000126622,77716066664,mAltel,mKarTel,mKarTel,,D07,2016-03-16T12:56:17+06:00,
1000000000126623,77021702173,mMTS,mKcell,mKcell,,D77,2016-03-16T12:55:48+06:00,
1000000000126624,77077887800,mAltel,mMTS,mMTS,,D07,2016-03-16T12:55:33+06:00,
1000000000126627,77762181863,mMTS,mKarTel,mKarTel,,D77,2016-03-16T12:59:40+06:00,
1000000000126628,77754608952,mMTS,mKcell,mKcell,,D77,2016-03-16T12:59:21+06:00,
