NPId,Number,RecipientId,DonorId,RangeHolderId,OldRoute,NewRoute,PortDate,RowCount
1000000000274153,77779703918,mKarTel,mMTS,mKarTel,D77,D01,2016-11-04T16:31:50+06:00,28
1000000000274154,77011231429,mMTS,mKcell,mKcell,,D77,2016-11-04T16:31:56+06:00,
1000000000274156,77012424428,mAltel,mKcell,mKcell,,D07,2016-11-04T16:33:17+06:00,
1000000000274158,77785022803,mMTS,mKcell,mKcell,,D77,2016-11-04T16:33:55+06:00,
1000000000274159,77755606321,mMTS,mKcell,mKcell,,D77,2016-11-04T16:34:01+06:00,
1000000000274161,77012526865,mMTS,mKcell,mKcell,,D77,2016-11-04T16:35:27+06:00,
1000000000274162,77023584584,mMTS,mKcell,mKcell,,D77,2016-11-04T16:35:36+06:00,
1000000000274163,77015551332,mAltel,mKcell,mKcell,,D07,2016-11-04T16:36:11+06:00,
1000000000274164,77051863382,mMTS,mKarTel,mKarTel,,D77,2016-11-04T16:37:36+06:00,
1000000000274166,77011006538,mKarTel,mKcell,mKcell,,D01,2016-11-04T16:37:39+06:00,
1000000000274167,77016642414,mKcell,mMTS,mKcell,D77,D02,2016-11-04T16:37:33+06:00,
1000000000274168,77054821896,mMTS,mKarTel,mKarTel,,D77,2016-11-04T16:37:52+06:00,
1000000000274169,77027616561,mAltel,mKcell,mKcell,,D07,2016-11-04T16:38:38+06:00,
1000000000274170,77075070106,mKarTel,mMTS,mMTS,,D01,2016-11-04T16:41:16+06:00,
1000000000274171,77781060085,mMTS,mKcell,mKcell,,D77,2016-11-04T16:41:18+06:00,
1000000000274172,77017179495,mKarTel,mKcell,mKcell,,D01,2016-11-04T16:42:03+06:00,
1000000000274175,77770055363,mAltel,mKarTel,mKarTel,,D07,2016-11-04T16:44:50+06:00,
1000000000274178,77754444044,mKarTel,mKcell,mKcell,,D01,2016-11-04T16:48:06+06:00,
1000000000274181,77767692966,mKcell,mKarTel,mKarTel,,D02,2016-11-04T16:50:33+06:00,
1000000000274182,77023481486,mAltel,mKcell,mKcell,,D07,2016-11-04T16:50:45+06:00,
1000000000274183,77022570892,mMTS,mKcell,mKcell,,D77,2016-11-04T16:50:50+06:00,
1000000000274185,77781100098,mAltel,mKcell,mKcell,,D07,2016-11-04T16:51:16+06:00,
1000000000274186,77016831529,mMTS,mKcell,mKcell,,D77,2016-11-04T16:52:41+06:00,
1000000000274188,77754123826,mMTS,mKcell,mKcell,,D77,2016-11-04T16:54:28+06:00,
1000000000274191,77770300177,mAltel,mKarTel,mKarTel,,D07,2016-11-04T16:57:22+06:00,
1000000000274192,77772455837,mMTS,mKarTel,mKarTel,D01,D77,2016-11-04T16:58:00+06:00,
1000000000274193,77712964379,mMTS,mKarTel,mKarTel,,D77,2016-11-04T16:58:47+06:00,
1000000000274194,77770847001,mMTS,mKarTel,mKarTel,,D77,2016-11-04T16:58:53+06:00,
