NPId,Number,RecipientId,DonorId,RangeHolderId,OldRoute,NewRoute,PortDate,RowCount
1000000000203943,77055777933,mAltel,mKarTel,mKarTel,,D07,2016-07-11T09:01:49+06:00,9
1000000000204000,77051571166,mAltel,mKarTel,mKarTel,,D07,2016-07-11T09:03:38+06:00,
1000000000208942,77012244723,mKarTel,mKcell,mKcell,,D01,2016-07-11T09:03:24+06:00,
1000000000208942,77012244724,mKarTel,mKcell,mKcell,,D01,2016-07-11T09:03:24+06:00,
1000000000208943,77082181706,mKarTel,mAltel,mAltel,,D01,2016-07-11T09:12:09+06:00,
1000000000208944,77081503844,mKarTel,mAltel,mAltel,,D01,2016-07-11T09:13:39+06:00,
1000000000208946,77073331334,mKarTel,mMTS,mMTS,,D01,2016-07-11T09:17:29+06:00,
1000000000208947,77005592774,mAltel,mMTS,mAltel,D77,D07,2016-07-11T09:18:37+06:00,
1000000000208949,77715101665,mMTS,mKarTel,mKarTel,,D77,2016-07-11T09:25:24+06:00,
