NPId,Number,RecipientId,DonorId,RangeHolderId,OldRoute,NewRoute,PortDate,RowCount
1000000000094792,77784155408,mMTS,mKcell,mKcell,,D77,2016-02-21T10:02:05+06:00,11
1000000000094793,77017716030,mMTS,mKcell,mKcell,,D77,2016-02-21T10:02:03+06:00,
1000000000094794,77051657732,mMTS,mKarTel,mKarTel,,D77,2016-02-21T10:02:10+06:00,
1000000000094795,77776655888,mMTS,mKarTel,mKarTel,,D77,2016-02-21T10:02:09+06:00,
1000000000094796,77053334447,mMTS,mKarTel,mKarTel,,D77,2016-02-21T10:02:09+06:00,
1000000000094797,77751237755,mMTS,mKcell,mKcell,,D77,2016-02-21T10:02:05+06:00,
1000000000094798,77781237755,mMTS,mKcell,mKcell,,D77,2016-02-21T10:02:05+06:00,
1000000000094799,77788820619,mMTS,mKcell,mKcell,,D77,2016-02-21T10:02:05+06:00,
1000000000094800,77017727848,mMTS,mKcell,mKcell,,D77,2016-02-21T10:02:06+06:00,
1000000000094803,77017220852,mKarTel,mKcell,mKcell,,D01,2016-02-21T10:21:33+06:00,
1000000000094804,77751014964,mKarTel,mKcell,mKcell,,D01,2016-02-21T10:28:55+06:00,
