NPId,Number,RecipientId,DonorId,RangeHolderId,OldRoute,NewRoute,PortDate,RowCount
1000000000247318,77012228157,mKarTel,mKcell,mKcell,,D01,2016-09-17T19:31:00+06:00,2
1000000000247320,77017229051,mMTS,mKcell,mKcell,,D77,2016-09-17T19:37:33+06:00,
