NPId,Number,RecipientId,DonorId,RangeHolderId,OldRoute,NewRoute,PortDate,RowCount
1000000000197633,77014373000,mKcell,mAltel,mKcell,D07,D02,2016-06-22T12:04:52+06:00,33
1000000000197634,77053342280,mKcell,mKarTel,mKarTel,,D02,2016-06-22T12:05:32+06:00,
1000000000197635,77017116442,mMTS,mKcell,mKcell,,D77,2016-06-22T12:05:45+06:00,
1000000000197636,77024244300,mMTS,mKcell,mKcell,,D77,2016-06-22T12:06:34+06:00,
1000000000197638,77017844812,mMTS,mKcell,mKcell,,D77,2016-06-22T12:08:19+06:00,
1000000000197639,77071288288,mKcell,mKarTel,mMTS,D01,D02,2016-06-22T12:09:40+06:00,
1000000000197640,77015510736,mMTS,mKcell,mKcell,,D77,2016-06-22T12:11:37+06:00,
1000000000197641,77762500005,mMTS,mKarTel,mKarTel,,D77,2016-06-22T12:10:58+06:00,
1000000000197643,77016355792,mKarTel,mKcell,mKcell,,D01,2016-06-22T12:12:16+06:00,
1000000000197644,77089821192,mMTS,mAltel,mAltel,,D77,2016-06-22T12:11:06+06:00,
1000000000197646,77786264037,mKarTel,mKcell,mKcell,,D01,2016-06-22T12:15:28+06:00,
1000000000197647,77773871241,mKarTel,mAltel,mKarTel,D07,D01,2016-06-22T12:15:35+06:00,
1000000000197648,77776101033,mKcell,mKarTel,mKarTel,,D02,2016-06-22T12:16:59+06:00,
1000000000197649,77077490705,mKarTel,mMTS,mMTS,,D01,2016-06-22T12:16:33+06:00,
1000000000197650,77077490725,mKarTel,mMTS,mMTS,,D01,2016-06-22T12:16:45+06:00,
1000000000197651,77077490735,mKarTel,mMTS,mMTS,,D01,2016-06-22T12:16:56+06:00,
1000000000197652,77786264035,mKarTel,mKcell,mKcell,,D01,2016-06-22T12:17:49+06:00,
1000000000197653,77077490745,mKarTel,mMTS,mMTS,,D01,2016-06-22T12:17:09+06:00,
1000000000197654,77077490755,mKarTel,mMTS,mMTS,,D01,2016-06-22T12:17:26+06:00,
1000000000197655,77024402200,mMTS,mKcell,mKcell,,D77,2016-06-22T12:18:04+06:00,
1000000000197657,77018593267,mMTS,mAltel,mKcell,D07,D77,2016-06-22T12:18:02+06:00,
1000000000197659,77711007147,mKcell,mKarTel,mKarTel,,D02,2016-06-22T12:18:58+06:00,
1000000000197660,77786264034,mKarTel,mKcell,mKcell,,D01,2016-06-22T12:20:17+06:00,
1000000000197662,77052266777,mKarTel,mAltel,mKarTel,D07,D01,2016-06-22T12:20:58+06:00,
1000000000197664,77017459428,mMTS,mKcell,mKcell,,D77,2016-06-22T12:23:59+06:00,
1000000000197665,77087308587,mMTS,mAltel,mAltel,,D77,2016-06-22T12:23:41+06:00,
1000000000197666,77015441127,mMTS,mKcell,mKcell,,D77,2016-06-22T12:24:41+06:00,
1000000000197667,77767086363,mKarTel,mAltel,mKarTel,D07,D01,2016-06-22T12:25:09+06:00,
1000000000197669,77786264021,mKarTel,mKcell,mKcell,,D01,2016-06-22T12:26:01+06:00,
1000000000197670,77713602020,mMTS,mKarTel,mKarTel,,D77,2016-06-22T12:26:10+06:00,
1000000000197671,77051617532,mMTS,mKarTel,mKarTel,,D77,2016-06-22T12:27:28+06:00,
1000000000197672,77053209600,mMTS,mKarTel,mKarTel,,D77,2016-06-22T12:28:25+06:00,
1000000000197673,77776104997,mMTS,mKarTel,mKarTel,,D77,2016-06-22T12:28:31+06:00,
