NPId,Number,RecipientId,DonorId,RangeHolderId,OldRoute,NewRoute,PortDate,RowCount
1000000000386350,77787119474,mKcell,mMTS,mKcell,D77,D02,2017-05-20T15:32:02+06:00,28
1000000000386351,77775715556,mKcell,mAltel,mKarTel,D07,D02,2017-05-20T15:32:01+06:00,
1000000000386353,77756244008,mMTS,mKcell,mKcell,,D77,2017-05-20T15:32:41+06:00,
1000000000386354,77003001015,mAltel,mKarTel,mAltel,D01,D07,2017-05-20T15:33:16+06:00,
1000000000386356,77075547838,mAltel,mMTS,mMTS,,D07,2017-05-20T15:37:59+06:00,
1000000000386357,77760012277,mMTS,mKarTel,mKarTel,,D77,2017-05-20T15:39:35+06:00,
1000000000386358,77089879853,mKcell,mAltel,mAltel,,D02,2017-05-20T15:41:03+06:00,
1000000000386359,77019720700,mKcell,mMTS,mKcell,D77,D02,2017-05-20T15:41:28+06:00,
1000000000386360,77751055000,mMTS,mKcell,mKcell,,D77,2017-05-20T15:42:18+06:00,
1000000000386361,77787038956,mAltel,mKcell,mKcell,,D07,2017-05-20T15:42:50+06:00,
1000000000386362,77761299990,mMTS,mKarTel,mKarTel,,D77,2017-05-20T15:43:06+06:00,
1000000000386363,77770222122,mKarTel,mMTS,mKarTel,D77,D01,2017-05-20T15:43:01+06:00,
1000000000386364,77756161333,mMTS,mKcell,mKcell,,D77,2017-05-20T15:43:46+06:00,
1000000000386366,77013381703,mMTS,mKcell,mKcell,,D77,2017-05-20T15:46:35+06:00,
1000000000386367,77711307775,mAltel,mKarTel,mKarTel,,D07,2017-05-20T15:47:40+06:00,
1000000000386368,77780988898,mMTS,mKcell,mKcell,,D77,2017-05-20T15:49:50+06:00,
1000000000386371,77074628383,mKcell,mMTS,mMTS,,D02,2017-05-20T15:50:48+06:00,
1000000000386372,77479040494,mKcell,mMTS,mMTS,,D02,2017-05-20T15:50:58+06:00,
1000000000386373,77017369238,mAltel,mKcell,mKcell,,D07,2017-05-20T15:53:05+06:00,
1000000000386374,77052218690,mKarTel,mKcell,mKarTel,D02,D01,2017-05-20T15:53:29+06:00,
1000000000386375,77787979983,mKarTel,mKcell,mKcell,,D01,2017-05-20T15:53:40+06:00,
1000000000386377,77052218688,mKarTel,mKcell,mKarTel,D02,D01,2017-05-20T15:54:54+06:00,
1000000000386379,77052218676,mKarTel,mKcell,mKarTel,D02,D01,2017-05-20T15:56:28+06:00,
1000000000386380,77775555333,mAltel,mKcell,mKarTel,D02,D07,2017-05-20T15:56:19+06:00,
1000000000386382,77003535707,mKcell,mAltel,mAltel,,D02,2017-05-20T15:56:53+06:00,
1000000000386383,77052218673,mKarTel,mKcell,mKarTel,D02,D01,2017-05-20T15:57:43+06:00,
1000000000386384,77052218661,mKarTel,mKcell,mKarTel,D02,D01,2017-05-20T15:59:02+06:00,
1000000000386385,77752270161,mMTS,mKcell,mKcell,,D77,2017-05-20T15:59:23+06:00,
