NPId,Number,RecipientId,DonorId,RangeHolderId,OldRoute,NewRoute,PortDate,RowCount
1000000000200272,77472976917,mMTS,mKcell,mMTS,D02,D77,2016-06-26T17:01:45+06:00,17
1000000000200273,77029411625,mMTS,mKcell,mKcell,,D77,2016-06-26T17:01:46+06:00,
1000000000200274,77077418877,mAltel,mMTS,mMTS,,D07,2016-06-26T17:03:14+06:00,
1000000000200275,77025594937,mMTS,mKcell,mKcell,,D77,2016-06-26T17:04:40+06:00,
1000000000200278,77015106768,mMTS,mKcell,mKcell,,D77,2016-06-26T17:07:46+06:00,
1000000000200281,77751354414,mMTS,mKcell,mKcell,,D77,2016-06-26T17:10:06+06:00,
1000000000200283,77055557004,mKcell,mKarTel,mKarTel,,D02,2016-06-26T17:12:03+06:00,
1000000000200285,77716379999,mMTS,mKarTel,mKarTel,,D77,2016-06-26T17:14:24+06:00,
1000000000200286,77774460443,mMTS,mKarTel,mKarTel,,D77,2016-06-26T17:16:24+06:00,
1000000000200287,77073342169,mAltel,mMTS,mMTS,,D07,2016-06-26T17:17:00+06:00,
1000000000200288,77753386411,mAltel,mKcell,mKcell,,D07,2016-06-26T17:18:01+06:00,
1000000000200289,77053004507,mMTS,mKarTel,mKarTel,,D77,2016-06-26T17:18:39+06:00,
1000000000200290,77760501733,mMTS,mKarTel,mKarTel,,D77,2016-06-26T17:19:40+06:00,
1000000000200291,77758138383,mMTS,mKcell,mKcell,,D77,2016-06-26T17:22:11+06:00,
1000000000200293,77056111685,mMTS,mKarTel,mKarTel,,D77,2016-06-26T17:27:46+06:00,
1000000000200294,77024934030,mKarTel,mKcell,mKcell,,D01,2016-06-26T17:29:27+06:00,
1000000000200295,77782339969,mMTS,mKcell,mKcell,,D77,2016-06-26T17:29:39+06:00,
