NPId,Number,RecipientId,DonorId,RangeHolderId,OldRoute,NewRoute,PortDate,RowCount
1000000000318584,77785959696,mMTS,mKcell,mKcell,,D77,2017-01-29T15:40:01+06:00,25
1000000000318586,77785314398,mMTS,mKcell,mKcell,,D77,2017-01-29T15:40:01+06:00,
1000000000318592,77752965366,mMTS,mKcell,mKcell,,D77,2017-01-29T15:40:01+06:00,
1000000000318594,77025228228,mMTS,mKcell,mKcell,,D77,2017-01-29T15:40:11+06:00,
1000000000318596,77012577797,mMTS,mKcell,mKcell,,D77,2017-01-29T15:40:05+06:00,
1000000000318599,77021215987,mKarTel,mKcell,mKcell,,D01,2017-01-29T15:40:22+06:00,
1000000000318603,77078016789,mMTS,mKcell,mMTS,D02,D77,2017-01-29T15:40:07+06:00,
1000000000318604,77014449373,mMTS,mKcell,mKcell,,D77,2017-01-29T15:40:07+06:00,
1000000000318605,77784500080,mMTS,mKcell,mKcell,,D77,2017-01-29T15:40:11+06:00,
1000000000318606,77776565687,mMTS,mKarTel,mKarTel,,D77,2017-01-29T15:38:09+06:00,
1000000000318607,77770699303,mKarTel,mMTS,mKarTel,D77,D01,2017-01-29T15:38:46+06:00,
1000000000318611,77775980802,mKcell,mKarTel,mKarTel,,D02,2017-01-29T15:55:49+06:00,
1000000000318612,77475818118,mKcell,mMTS,mMTS,,D02,2017-01-29T15:55:49+06:00,
1000000000318613,77761002203,mKcell,mKarTel,mKarTel,,D02,2017-01-29T15:55:50+06:00,
1000000000318614,77077191405,mMTS,mAltel,mMTS,D07,D77,2017-01-29T15:41:28+06:00,
1000000000318615,77012242929,mMTS,mKcell,mKcell,,D77,2017-01-29T15:56:05+06:00,
1000000000318616,77013954452,mAltel,mKcell,mKcell,,D07,2017-01-29T15:56:05+06:00,
1000000000318617,77018210004,mMTS,mKcell,mKcell,,D77,2017-01-29T15:56:09+06:00,
1000000000318619,77017400376,mMTS,mKcell,mKcell,,D77,2017-01-29T15:56:09+06:00,
1000000000318621,77471172181,mAltel,mMTS,mMTS,,D07,2017-01-29T15:49:11+06:00,
1000000000318622,77017771902,mAltel,mKcell,mKcell,,D07,2017-01-29T15:56:12+06:00,
1000000000318623,77009997383,mMTS,mKcell,mAltel,D02,D77,2017-01-29T15:56:11+06:00,
1000000000318625,77076699256,mMTS,mAltel,mMTS,D07,D77,2017-01-29T15:54:26+06:00,
1000000000318626,77776572636,mAltel,mKarTel,mKarTel,D01,D07,2017-01-29T15:55:41+06:00,
1000000000318627,77074242004,mAltel,mMTS,mMTS,,D07,2017-01-29T15:56:41+06:00,
