NPId,Number,RecipientId,DonorId,RangeHolderId,OldRoute,NewRoute,PortDate,RowCount
1000000000248598,77715522730,mKcell,mKarTel,mKarTel,,D02,2016-09-20T17:18:02+06:00,29
1000000000248604,77750007805,mKcell,mKarTel,mKcell,D01,D02,2016-09-20T17:01:25+06:00,
1000000000248607,77760444333,mKcell,mKarTel,mKarTel,,D02,2016-09-20T17:02:17+06:00,
1000000000248609,77715522737,mKcell,mKarTel,mKarTel,,D02,2016-09-20T17:20:39+06:00,
1000000000248610,77089642794,mKcell,mAltel,mAltel,,D02,2016-09-20T17:00:43+06:00,
1000000000248611,77788517328,mMTS,mKcell,mKcell,,D77,2016-09-20T17:01:29+06:00,
1000000000248612,77051709966,mKcell,mKarTel,mKarTel,,D02,2016-09-20T17:03:52+06:00,
1000000000248613,77014286942,mMTS,mKcell,mKcell,,D77,2016-09-20T17:02:00+06:00,
1000000000248614,77779888393,mMTS,mKarTel,mKarTel,,D77,2016-09-20T17:04:36+06:00,
1000000000248615,77779998078,mKcell,mKarTel,mKarTel,,D02,2016-09-20T17:04:53+06:00,
1000000000248616,77084808780,mMTS,mAltel,mAltel,,D77,2016-09-20T17:02:44+06:00,
1000000000248617,77479354342,mKcell,mMTS,mMTS,,D02,2016-09-20T17:03:00+06:00,
1000000000248618,77715535083,mKcell,mKarTel,mKarTel,,D02,2016-09-20T17:23:41+06:00,
1000000000248619,77089898021,mAltel,mMTS,mAltel,D77,D07,2016-09-20T17:04:57+06:00,
1000000000248621,77003003030,mKcell,mAltel,mAltel,,D02,2016-09-20T17:05:45+06:00,
1000000000248622,77081269115,mKarTel,mAltel,mAltel,,D01,2016-09-20T17:07:46+06:00,
1000000000248623,77752220077,mMTS,mKcell,mKcell,D02,D77,2016-09-20T17:10:16+06:00,
1000000000248624,77774449060,mKarTel,mMTS,mKarTel,D77,D01,2016-09-20T17:12:38+06:00,
1000000000248625,77029603939,mAltel,mKcell,mKcell,,D07,2016-09-20T17:16:09+06:00,
1000000000248626,77011782751,mKcell,mKarTel,mKcell,D01,D02,2016-09-20T17:18:22+06:00,
1000000000248627,77014412900,mKcell,mMTS,mKcell,D77,D02,2016-09-20T17:18:23+06:00,
1000000000248628,77055974916,mKarTel,mMTS,mKarTel,D77,D01,2016-09-20T17:16:51+06:00,
1000000000248631,77759748918,mAltel,mKcell,mKcell,,D07,2016-09-20T17:19:23+06:00,
1000000000248632,77079188855,mKarTel,mAltel,mMTS,D07,D01,2016-09-20T17:20:53+06:00,
1000000000248633,77058699999,mKarTel,mKcell,mKarTel,D02,D01,2016-09-20T17:21:45+06:00,
1000000000248634,77071907070,mMTS,mAltel,mMTS,D07,D77,2016-09-20T17:21:10+06:00,
1000000000248636,77078279490,mKarTel,mMTS,mMTS,,D01,2016-09-20T17:24:12+06:00,
1000000000248644,77018027800,mMTS,mKcell,mKcell,,D77,2016-09-20T17:29:05+06:00,
1000000000248647,77758903424,mKcell,mAltel,mKcell,D07,D02,2016-09-20T17:29:35+06:00,
