NPId,Number,RecipientId,DonorId,RangeHolderId,OldRoute,NewRoute,PortDate,RowCount
1000000000409584,77015084840,mKarTel,mKcell,mKcell,,D01,2017-06-26T12:00:02+06:00,28
1000000000409585,77077050610,mKcell,mMTS,mMTS,,D02,2017-06-26T12:00:18+06:00,
1000000000409586,77072597571,mKcell,mMTS,mMTS,,D02,2017-06-26T12:01:49+06:00,
1000000000409587,77015455328,mKarTel,mKcell,mKcell,,D01,2017-06-26T12:02:13+06:00,
1000000000409588,77023760202,mMTS,mKcell,mKcell,,D77,2017-06-26T12:02:49+06:00,
1000000000409589,77011930005,mKcell,mAltel,mKcell,D07,D02,2017-06-26T12:03:09+06:00,
1000000000409591,77015302787,mKarTel,mKcell,mKcell,,D01,2017-06-26T12:06:11+06:00,
1000000000409592,77055454978,mMTS,mKarTel,mKarTel,,D77,2017-06-26T12:07:11+06:00,
1000000000409593,77019481729,mKcell,mMTS,mKcell,D77,D02,2017-06-26T12:07:36+06:00,
1000000000409594,77025482442,mKarTel,mKcell,mKcell,,D01,2017-06-26T12:08:06+06:00,
1000000000409598,77752758313,mAltel,mKcell,mKcell,,D07,2017-06-26T12:13:06+06:00,
1000000000409599,77054650642,mKarTel,mMTS,mKarTel,D77,D01,2017-06-26T12:13:35+06:00,
1000000000409600,77785299929,mMTS,mKcell,mKcell,,D77,2017-06-26T12:13:43+06:00,
1000000000409601,77759219088,mMTS,mKcell,mKcell,,D77,2017-06-26T12:13:50+06:00,
1000000000409604,77055454972,mMTS,mKarTel,mKarTel,,D77,2017-06-26T12:15:28+06:00,
1000000000409605,77756789987,mMTS,mAltel,mKcell,D07,D77,2017-06-26T12:16:02+06:00,
1000000000409606,77758936022,mMTS,mKcell,mKcell,,D77,2017-06-26T12:16:47+06:00,
1000000000409607,77715550179,mAltel,mKarTel,mKarTel,,D07,2017-06-26T12:17:20+06:00,
1000000000409609,77057051190,mAltel,mKcell,mKarTel,D02,D07,2017-06-26T12:17:32+06:00,
1000000000409610,77017091010,mKarTel,mKcell,mKcell,,D01,2017-06-26T12:18:13+06:00,
1000000000409613,77023164347,mKarTel,mKcell,mKcell,,D01,2017-06-26T12:22:08+06:00,
1000000000409614,77714597524,mKcell,mKarTel,mKarTel,,D02,2017-06-26T12:25:05+06:00,
1000000000409616,77783491145,mKarTel,mKcell,mKcell,,D01,2017-06-26T12:26:21+06:00,
1000000000409617,77017339788,mKcell,mKarTel,mKcell,D01,D02,2017-06-26T12:27:25+06:00,
1000000000409618,77018717999,mKcell,mAltel,mKcell,D07,D02,2017-06-26T12:27:32+06:00,
1000000000409619,77078784447,mKcell,mMTS,mMTS,,D02,2017-06-26T12:29:18+06:00,
1000000000409620,77479080394,mKarTel,mMTS,mMTS,,D01,2017-06-26T12:29:30+06:00,
1000000000409621,77075799155,mKarTel,mMTS,mMTS,D77,D01,2017-06-26T12:29:55+06:00,
