NPId,Number,RecipientId,DonorId,RangeHolderId,OldRoute,NewRoute,PortDate,RowCount
1000000000129932,77710509389,mAltel,mKarTel,mKarTel,,D07,2016-03-20T15:31:13+06:00,16
1000000000129935,77004966827,mMTS,mAltel,mAltel,,D77,2016-03-20T15:31:53+06:00,
1000000000129937,77016841752,mKarTel,mKcell,mKcell,,D01,2016-03-20T15:33:34+06:00,
1000000000129938,77025979777,mKcell,mAltel,mKcell,D07,D02,2016-03-20T15:34:26+06:00,
1000000000129940,77076838363,mMTS,mAltel,mMTS,D07,D77,2016-03-20T15:34:49+06:00,
1000000000129942,77016037956,mMTS,mKcell,mKcell,,D77,2016-03-20T15:39:13+06:00,
1000000000129943,77025733336,mMTS,mKcell,mKcell,,D77,2016-03-20T15:40:09+06:00,
1000000000129944,77018880397,mAltel,mKcell,mKcell,,D07,2016-03-20T15:42:05+06:00,
1000000000129946,77071777795,mKarTel,mMTS,mMTS,,D01,2016-03-20T15:43:40+06:00,
1000000000129948,77017905333,mKarTel,mKcell,mKcell,,D01,2016-03-20T15:50:31+06:00,
1000000000129949,77757444499,mMTS,mKcell,mKcell,,D77,2016-03-20T15:51:37+06:00,
1000000000129950,77013557719,mMTS,mKcell,mKcell,,D77,2016-03-20T15:52:56+06:00,
1000000000129952,77089077716,mMTS,mAltel,mAltel,,D77,2016-03-20T15:53:14+06:00,
1000000000129954,77003162940,mMTS,mAltel,mAltel,,D77,2016-03-20T15:58:00+06:00,
1000000000129955,77051635511,mMTS,mKarTel,mKarTel,,D77,2016-03-20T15:59:10+06:00,
1000000000129956,77758325353,mMTS,mKcell,mKcell,,D77,2016-03-20T15:58:54+06:00,
