NPId,Number,RecipientId,DonorId,RangeHolderId,OldRoute,NewRoute,PortDate,RowCount
1000000000243513,77052141505,mMTS,mKarTel,mKarTel,,D77,2016-09-10T10:04:24+06:00,10
1000000000243517,77053755057,mKarTel,mMTS,mKarTel,D77,D01,2016-09-10T10:09:38+06:00,
1000000000243518,77053002206,mMTS,mKarTel,mKarTel,,D77,2016-09-10T10:14:20+06:00,
1000000000243519,77771444848,mKarTel,mAltel,mKarTel,D07,D01,2016-09-10T10:14:59+06:00,
1000000000243521,77012225423,mMTS,mKcell,mKcell,,D77,2016-09-10T10:15:37+06:00,
1000000000243524,77766991144,mMTS,mKarTel,mKarTel,,D77,2016-09-10T10:22:17+06:00,
1000000000243526,77773000750,mMTS,mKarTel,mKarTel,,D77,2016-09-10T10:24:17+06:00,
1000000000243528,77054614914,mMTS,mKarTel,mKarTel,,D77,2016-09-10T10:28:55+06:00,
1000000000243530,77774356280,mMTS,mKarTel,mKarTel,,D77,2016-09-10T10:29:32+06:00,
1000000000243531,77478476175,mMTS,mAltel,mMTS,D07,D77,2016-09-10T10:28:37+06:00,
