NPId,Number,RecipientId,DonorId,RangeHolderId,OldRoute,NewRoute,PortDate,RowCount
1000000000195978,77773517500,mMTS,mKarTel,mKarTel,,D77,2016-06-19T10:02:26+06:00,4
1000000000195979,77773145830,mKarTel,mMTS,mKarTel,D77,D01,2016-06-19T10:21:12+06:00,
1000000000195980,77719190707,mMTS,mKarTel,mKarTel,,D77,2016-06-19T10:27:32+06:00,
1000000000195981,77083833038,mMTS,mAltel,mAltel,,D77,2016-06-19T10:27:15+06:00,
