NPId,Number,RecipientId,DonorId,RangeHolderId,OldRoute,NewRoute,PortDate,RowCount
1000000000205229,77752653580,mMTS,mKcell,mKcell,,D77,2016-07-05T18:00:14+06:00,9
1000000000205230,77772846481,mMTS,mKarTel,mKarTel,,D77,2016-07-05T18:01:42+06:00,
1000000000205231,77004002945,mKarTel,mAltel,mAltel,,D01,2016-07-05T18:07:32+06:00,
1000000000205232,77086350674,mKcell,mAltel,mAltel,,D02,2016-07-05T18:07:36+06:00,
1000000000205232,77086350675,mKcell,mAltel,mAltel,,D02,2016-07-05T18:07:36+06:00,
1000000000205233,77771377021,mAltel,mKarTel,mKarTel,,D07,2016-07-05T18:08:12+06:00,
1000000000205234,77075999967,mKcell,mMTS,mMTS,,D02,2016-07-05T18:12:53+06:00,
1000000000205235,77477777656,mKarTel,mAltel,mMTS,D07,D01,2016-07-05T18:18:29+06:00,
1000000000205237,77004008181,mKcell,mAltel,mAltel,,D02,2016-07-05T18:27:35+06:00,
