NPId,Number,RecipientId,DonorId,RangeHolderId,OldRoute,NewRoute,PortDate,RowCount
1000000000240757,77014208599,mKcell,mKarTel,mKcell,D01,D02,2016-09-06T16:29:02+06:00,21
1000000000240839,77786550500,mKcell,mMTS,mKcell,D77,D02,2016-09-06T16:09:07+06:00,
1000000000240933,77010346925,mKarTel,mKcell,mKcell,,D01,2016-09-06T16:25:15+06:00,
1000000000240933,77019688343,mKarTel,mKcell,mKcell,,D01,2016-09-06T16:25:15+06:00,
1000000000240949,77015247448,mKarTel,mKcell,mKcell,,D01,2016-09-06T16:25:13+06:00,
1000000000241259,77017451234,mKarTel,mKcell,mKcell,,D01,2016-09-06T16:04:32+06:00,
1000000000241260,77021499336,mAltel,mKcell,mKcell,,D07,2016-09-06T16:08:42+06:00,
1000000000241261,77052023232,mKarTel,mMTS,mKarTel,D77,D01,2016-09-06T16:11:41+06:00,
1000000000241262,77017255424,mAltel,mKcell,mKcell,,D07,2016-09-06T16:11:47+06:00,
1000000000241264,77770874949,mAltel,mKarTel,mKarTel,,D07,2016-09-06T16:15:59+06:00,
1000000000241265,77777116160,mKarTel,mAltel,mKarTel,D07,D01,2016-09-06T16:17:30+06:00,
1000000000241266,77777116161,mKarTel,mAltel,mKarTel,D07,D01,2016-09-06T16:17:39+06:00,
1000000000241267,77007116160,mKarTel,mAltel,mAltel,,D01,2016-09-06T16:18:04+06:00,
1000000000241268,77022997777,mKcell,mMTS,mKcell,D77,D02,2016-09-06T16:19:01+06:00,
1000000000241269,77756533397,mKarTel,mKcell,mKcell,,D01,2016-09-06T16:22:32+06:00,
1000000000241270,77774976565,mKcell,mKarTel,mKarTel,,D02,2016-09-06T16:23:56+06:00,
1000000000241271,77017377018,mKcell,mAltel,mKcell,D07,D02,2016-09-06T16:24:51+06:00,
1000000000241272,77079871143,mAltel,mMTS,mMTS,,D07,2016-09-06T16:25:59+06:00,
1000000000241273,77017015018,mKcell,mAltel,mKcell,D07,D02,2016-09-06T16:26:34+06:00,
1000000000241274,77783202026,mKcell,mAltel,mKcell,D07,D02,2016-09-06T16:28:10+06:00,
1000000000241276,77007711700,mKarTel,mAltel,mAltel,,D01,2016-09-06T16:28:38+06:00,
