NPId,Number,RecipientId,DonorId,RangeHolderId,OldRoute,NewRoute,PortDate,RowCount
1000000000222430,77711014177,mKcell,mKarTel,mKarTel,,D02,2016-08-03T09:32:56+06:00,11
1000000000222431,77079249198,mMTS,mKcell,mMTS,D02,D77,2016-08-03T09:33:03+06:00,
1000000000222433,77026102666,mKcell,mMTS,mKcell,D77,D02,2016-08-03T09:37:46+06:00,
1000000000222434,77017380105,mKarTel,mKcell,mKcell,,D01,2016-08-03T09:39:54+06:00,
1000000000222435,77711014176,mKcell,mKarTel,mKarTel,,D02,2016-08-03T09:39:53+06:00,
1000000000222436,77073883703,mKcell,mMTS,mMTS,,D02,2016-08-03T09:43:39+06:00,
1000000000222438,77711014178,mKcell,mKarTel,mKarTel,,D02,2016-08-03T09:45:07+06:00,
1000000000222442,77775047447,mMTS,mKarTel,mKarTel,,D77,2016-08-03T09:53:22+06:00,
1000000000222443,77083563656,mKcell,mAltel,mAltel,,D02,2016-08-03T09:53:01+06:00,
1000000000222444,77084808020,mAltel,mKarTel,mAltel,D01,D07,2016-08-03T09:54:17+06:00,
1000000000222446,77077784525,mKcell,mMTS,mMTS,,D02,2016-08-03T09:59:16+06:00,
