NPId,Number,RecipientId,DonorId,RangeHolderId,OldRoute,NewRoute,PortDate,RowCount
1000000000266259,77475380322,mKcell,mMTS,mMTS,,D02,2016-10-21T19:04:45+06:00,7
1000000000266260,77786000067,mAltel,mKcell,mKcell,,D07,2016-10-21T19:10:07+06:00,
1000000000266263,77476363883,mKcell,mMTS,mMTS,,D02,2016-10-21T19:17:10+06:00,
1000000000266264,77014137117,mMTS,mKcell,mKcell,,D77,2016-10-21T19:19:55+06:00,
1000000000266265,77025558881,mKarTel,mKcell,mKcell,,D01,2016-10-21T19:22:07+06:00,
1000000000266266,77070535657,mKcell,mMTS,mMTS,,D02,2016-10-21T19:23:38+06:00,
1000000000266268,77771555535,mKcell,mKarTel,mKarTel,,D02,2016-10-21T19:26:54+06:00,
