NPId,Number,RecipientId,DonorId,RangeHolderId,OldRoute,NewRoute,PortDate,RowCount
1000000000262677,77018015545,mMTS,mKcell,mKcell,,D77,2016-10-15T10:02:35+06:00,9
1000000000262679,77027220008,mMTS,mKcell,mKcell,,D77,2016-10-15T10:09:41+06:00,
1000000000262681,77059500105,mMTS,mKarTel,mKarTel,,D77,2016-10-15T10:13:39+06:00,
1000000000262682,77014333369,mKarTel,mKcell,mKcell,,D01,2016-10-15T10:17:09+06:00,
1000000000262683,77764110777,mMTS,mKarTel,mKarTel,,D77,2016-10-15T10:22:00+06:00,
1000000000262684,77788404629,mAltel,mKcell,mKcell,,D07,2016-10-15T10:21:48+06:00,
1000000000262685,77077728828,mKcell,mMTS,mMTS,,D02,2016-10-15T10:26:19+06:00,
1000000000262686,77071152505,mKarTel,mMTS,mMTS,,D01,2016-10-15T10:26:36+06:00,
1000000000262687,77021444405,mMTS,mKcell,mKcell,,D77,2016-10-15T10:28:03+06:00,
