NPId,Number,RecipientId,DonorId,RangeHolderId,OldRoute,NewRoute,PortDate,RowCount
1000000000308181,77011807711,mKcell,mMTS,mKcell,D77,D02,2017-01-09T19:34:04+06:00,10
1000000000308182,77016001139,mAltel,mKcell,mKcell,,D07,2017-01-09T19:35:17+06:00,
1000000000308183,77089079070,mKarTel,mAltel,mAltel,,D01,2017-01-09T19:36:39+06:00,
1000000000308184,77019076674,mKcell,mAltel,mKcell,D07,D02,2017-01-09T19:39:17+06:00,
1000000000308185,77022250303,mMTS,mKcell,mKcell,,D77,2017-01-09T19:42:45+06:00,
1000000000308186,77012525060,mKcell,mKarTel,mKcell,D01,D02,2017-01-09T19:44:37+06:00,
1000000000308187,77758262882,mMTS,mAltel,mKcell,D07,D77,2017-01-09T19:47:40+06:00,
1000000000308188,77086557041,mMTS,mAltel,mAltel,,D77,2017-01-09T19:48:53+06:00,
1000000000308189,77077772277,mMTS,mKcell,mMTS,D02,D77,2017-01-09T19:49:16+06:00,
1000000000308191,77005533993,mKarTel,mAltel,mAltel,,D01,2017-01-09T19:53:15+06:00,
