NPId,Number,RecipientId,DonorId,RangeHolderId,OldRoute,NewRoute,PortDate,RowCount
1000000000299752,77018868555,mKarTel,mKcell,mKcell,,D01,2016-12-23T19:32:10+06:00,7
1000000000299754,77715523030,mKcell,mKarTel,mKarTel,,D02,2016-12-23T19:52:24+06:00,
1000000000299755,77715523009,mKcell,mKarTel,mKarTel,,D02,2016-12-23T19:56:52+06:00,
1000000000299756,77754445526,mKarTel,mKcell,mKcell,,D01,2016-12-23T19:42:10+06:00,
1000000000299758,77710800605,mKcell,mKarTel,mKarTel,,D02,2016-12-23T19:50:04+06:00,
1000000000299760,77473648142,mKcell,mMTS,mMTS,,D02,2016-12-23T19:53:22+06:00,
1000000000299761,77022024195,mMTS,mKarTel,mKcell,D01,D77,2016-12-23T19:59:42+06:00,
