NPId,Number,RecipientId,DonorId,RangeHolderId,OldRoute,NewRoute,PortDate,RowCount
1000000000318185,77012234984,mKarTel,mKcell,mKcell,,D01,2017-01-28T15:39:36+06:00,46
1000000000318188,77017126340,mMTS,mKcell,mKcell,,D77,2017-01-28T15:39:18+06:00,
1000000000318189,77029008011,mMTS,mKcell,mKcell,,D77,2017-01-28T15:39:22+06:00,
1000000000318190,77787866642,mKarTel,mKcell,mKcell,,D01,2017-01-28T15:39:36+06:00,
1000000000318191,77785555556,mMTS,mKcell,mKcell,,D77,2017-01-28T15:39:22+06:00,
1000000000318192,77012166498,mMTS,mKcell,mKcell,,D77,2017-01-28T15:39:24+06:00,
1000000000318194,77788788222,mAltel,mKcell,mKcell,,D07,2017-01-28T15:39:24+06:00,
1000000000318199,77027673636,mMTS,mKcell,mKcell,,D77,2017-01-28T15:39:24+06:00,
1000000000318200,77786899237,mMTS,mKcell,mKcell,,D77,2017-01-28T15:39:24+06:00,
1000000000318205,77017116006,mAltel,mKcell,mKcell,,D07,2017-01-28T15:39:29+06:00,
1000000000318207,77756554488,mKarTel,mKcell,mKcell,,D01,2017-01-28T15:39:46+06:00,
1000000000318211,77011115984,mMTS,mKcell,mKcell,,D77,2017-01-28T15:39:28+06:00,
1000000000318212,77756594667,mAltel,mKcell,mKcell,,D07,2017-01-28T15:39:35+06:00,
1000000000318215,77017949395,mMTS,mKcell,mKcell,,D77,2017-01-28T15:39:34+06:00,
1000000000318216,77012859640,mMTS,mKcell,mKcell,,D77,2017-01-28T15:39:30+06:00,
1000000000318218,77016156151,mAltel,mKcell,mKcell,,D07,2017-01-28T15:39:35+06:00,
1000000000318220,77015566405,mAltel,mKcell,mKcell,,D07,2017-01-28T15:39:31+06:00,
1000000000318224,77015125385,mMTS,mKcell,mKcell,,D77,2017-01-28T15:39:30+06:00,
1000000000318226,77070459976,mKcell,mMTS,mMTS,,D02,2017-01-28T15:51:29+06:00,
1000000000318227,77764297901,mKcell,mKarTel,mKarTel,,D02,2017-01-28T15:51:48+06:00,
1000000000318229,77007124546,mKcell,mAltel,mAltel,,D02,2017-01-28T15:51:45+06:00,
1000000000318230,77001944939,mKcell,mAltel,mAltel,,D02,2017-01-28T15:51:45+06:00,
1000000000318231,77012225763,mKcell,mKarTel,mKcell,D01,D02,2017-01-28T15:51:45+06:00,
1000000000318233,77022354716,mKcell,mKarTel,mKcell,D01,D02,2017-01-28T15:51:45+06:00,
1000000000318235,77713000037,mKcell,mKarTel,mKarTel,,D02,2017-01-28T15:51:45+06:00,
1000000000318236,77075678033,mKcell,mMTS,mMTS,,D02,2017-01-28T15:51:45+06:00,
1000000000318237,77026834041,mAltel,mKcell,mKcell,,D07,2017-01-28T15:39:35+06:00,
1000000000318238,77087777577,mKcell,mAltel,mAltel,,D02,2017-01-28T15:51:45+06:00,
1000000000318239,77016158581,mKcell,mMTS,mKcell,D77,D02,2017-01-28T15:51:46+06:00,
1000000000318240,77004101987,mKcell,mAltel,mAltel,,D02,2017-01-28T15:51:46+06:00,
1000000000318241,77025010720,mKcell,mMTS,mKcell,D77,D02,2017-01-28T15:51:46+06:00,
1000000000318242,77789400004,mKcell,mMTS,mKcell,D77,D02,2017-01-28T15:51:46+06:00,
1000000000318243,77751757420,mKcell,mAltel,mKcell,D07,D02,2017-01-28T15:51:47+06:00,
1000000000318244,77025745378,mKcell,mMTS,mKcell,D77,D02,2017-01-28T15:51:48+06:00,
1000000000318247,77775352880,mKcell,mKarTel,mKarTel,,D02,2017-01-28T15:51:49+06:00,
1000000000318249,77071816471,mKcell,mMTS,mMTS,,D02,2017-01-28T15:51:49+06:00,
1000000000318250,77018638722,mMTS,mKcell,mKcell,,D77,2017-01-28T15:52:05+06:00,
1000000000318254,77071864755,mKarTel,mMTS,mMTS,,D01,2017-01-28T15:41:07+06:00,
1000000000318256,77753683828,mMTS,mKcell,mKcell,,D77,2017-01-28T15:52:06+06:00,
1000000000318258,77011003357,mKarTel,mKcell,mKcell,,D01,2017-01-28T15:52:10+06:00,
1000000000318259,77011003327,mKarTel,mKcell,mKcell,,D01,2017-01-28T15:52:10+06:00,
1000000000318261,77776699667,mMTS,mKarTel,mKarTel,,D77,2017-01-28T15:49:08+06:00,
1000000000318262,77017861956,mKarTel,mMTS,mKcell,D77,D01,2017-01-28T15:50:29+06:00,
1000000000318266,77772517305,mAltel,mKarTel,mKarTel,,D07,2017-01-28T15:54:29+06:00,
1000000000318267,77087779600,mKarTel,mAltel,mAltel,,D01,2017-01-28T15:55:33+06:00,
1000000000318268,77777111717,mMTS,mKarTel,mKarTel,,D77,2017-01-28T15:56:05+06:00,
