NPId,Number,RecipientId,DonorId,RangeHolderId,OldRoute,NewRoute,PortDate,RowCount
1000000000246843,77718327704,mMTS,mKarTel,mKarTel,,D77,2016-09-16T19:30:34+06:00,12
1000000000246844,77005557475,mMTS,mAltel,mAltel,,D77,2016-09-16T19:33:37+06:00,
1000000000246845,77773920200,mKarTel,mMTS,mKarTel,D77,D01,2016-09-16T19:35:42+06:00,
1000000000246847,77755833394,mMTS,mKcell,mKcell,,D77,2016-09-16T19:36:56+06:00,
1000000000246848,77012224959,mKarTel,mKcell,mKcell,,D01,2016-09-16T19:38:36+06:00,
1000000000246849,77018004959,mKarTel,mKcell,mKcell,,D01,2016-09-16T19:39:32+06:00,
1000000000246850,77027903424,mMTS,mKcell,mKcell,D02,D77,2016-09-16T19:43:41+06:00,
1000000000246851,77787304157,mMTS,mKcell,mKcell,,D77,2016-09-16T19:43:53+06:00,
1000000000246852,77767566565,mAltel,mKarTel,mKarTel,,D07,2016-09-16T19:42:24+06:00,
1000000000246853,77083338807,mAltel,mKcell,mAltel,D02,D07,2016-09-16T19:42:18+06:00,
1000000000246855,77019922779,mMTS,mKcell,mKcell,,D77,2016-09-16T19:46:12+06:00,
1000000000246856,77027221515,mKcell,mMTS,mKcell,D77,D02,2016-09-16T19:47:39+06:00,
