NPId,Number,RecipientId,DonorId,RangeHolderId,OldRoute,NewRoute,PortDate,RowCount
1000000000340495,77782298518,mAltel,mKcell,mKcell,,D07,2017-03-04T10:31:19+06:00,16
1000000000340497,77053850021,mAltel,mKarTel,mKarTel,,D07,2017-03-04T10:39:53+06:00,
1000000000340499,77000868286,mKcell,mAltel,mAltel,,D02,2017-03-04T10:41:04+06:00,
1000000000340500,77789109373,mKarTel,mKcell,mKcell,,D01,2017-03-04T10:42:08+06:00,
1000000000340501,77077022990,mKcell,mMTS,mMTS,,D02,2017-03-04T10:43:06+06:00,
1000000000340502,77081263511,mAltel,mKcell,mAltel,D02,D07,2017-03-04T10:44:41+06:00,
1000000000340503,77025544601,mAltel,mKcell,mKcell,,D07,2017-03-04T10:47:53+06:00,
1000000000340504,77018378883,mAltel,mKcell,mKcell,,D07,2017-03-04T10:49:11+06:00,
1000000000340505,77014330033,mAltel,mKcell,mKcell,,D07,2017-03-04T10:51:24+06:00,
1000000000340506,77077113215,mKarTel,mMTS,mMTS,,D01,2017-03-04T10:51:56+06:00,
1000000000340507,77017699121,mAltel,mKcell,mKcell,,D07,2017-03-04T10:53:21+06:00,
1000000000340508,77078355475,mAltel,mMTS,mMTS,,D07,2017-03-04T10:55:01+06:00,
1000000000340509,77015248591,mKarTel,mKcell,mKcell,,D01,2017-03-04T10:55:41+06:00,
1000000000340510,77012100610,mMTS,mKcell,mKcell,,D77,2017-03-04T10:57:28+06:00,
1000000000340512,77770465957,mMTS,mKarTel,mKarTel,,D77,2017-03-04T10:59:17+06:00,
1000000000340513,77017573627,mKcell,mMTS,mKcell,D77,D02,2017-03-04T10:59:40+06:00,
