NPId,Number,RecipientId,DonorId,RangeHolderId,OldRoute,NewRoute,PortDate,RowCount
1000000000281163,77762000017,mMTS,mKarTel,mKarTel,,D77,2016-11-18T21:17:59+06:00,2
1000000000281165,77472624147,mKcell,mMTS,mMTS,,D02,2016-11-18T21:29:21+06:00,
