NPId,Number,RecipientId,DonorId,RangeHolderId,OldRoute,NewRoute,PortDate,RowCount
1000000000246245,77019280200,mKcell,mKarTel,mKcell,D01,D02,2016-09-19T13:46:42+06:00,22
1000000000247748,77057012947,mKcell,mKarTel,mKarTel,,D02,2016-09-19T13:32:39+06:00,
1000000000247749,77473353359,mKcell,mMTS,mMTS,,D02,2016-09-19T13:31:04+06:00,
1000000000247750,77085300587,mKcell,mAltel,mAltel,,D02,2016-09-19T13:31:26+06:00,
1000000000247751,77783643959,mKarTel,mKcell,mKcell,,D01,2016-09-19T13:32:24+06:00,
1000000000247755,77770317638,mMTS,mKarTel,mKarTel,,D77,2016-09-19T13:36:31+06:00,
1000000000247756,77087070310,mAltel,mMTS,mAltel,D77,D07,2016-09-19T13:35:38+06:00,
1000000000247757,77026299720,mKarTel,mKcell,mKcell,,D01,2016-09-19T13:39:42+06:00,
1000000000247758,77774499896,mAltel,mKarTel,mKarTel,,D07,2016-09-19T13:39:45+06:00,
1000000000247759,77075514990,mKarTel,mMTS,mMTS,,D01,2016-09-19T13:40:41+06:00,
1000000000247761,77054513673,mMTS,mKarTel,mKarTel,,D77,2016-09-19T13:42:19+06:00,
1000000000247762,77024342688,mKarTel,mAltel,mKcell,D07,D01,2016-09-19T13:41:29+06:00,
1000000000247763,77713587710,mAltel,mKarTel,mKarTel,,D07,2016-09-19T13:43:08+06:00,
1000000000247764,77081901036,mKarTel,mAltel,mAltel,,D01,2016-09-19T13:42:17+06:00,
1000000000247765,77010747676,mAltel,mMTS,mKcell,D77,D07,2016-09-19T13:42:13+06:00,
1000000000247770,77021444446,mMTS,mKcell,mKcell,,D77,2016-09-19T13:45:07+06:00,
1000000000247771,77758281626,mMTS,mKcell,mKcell,,D77,2016-09-19T13:46:26+06:00,
1000000000247772,77077600358,mMTS,mKcell,mMTS,D02,D77,2016-09-19T13:46:26+06:00,
1000000000247773,77023838389,mMTS,mKcell,mKcell,,D77,2016-09-19T13:49:15+06:00,
1000000000247777,77753908310,mMTS,mKcell,mKcell,,D77,2016-09-19T13:54:42+06:00,
1000000000247778,77018387277,mAltel,mKcell,mKcell,,D07,2016-09-19T13:55:20+06:00,
1000000000247782,77013039937,mMTS,mKcell,mKcell,,D77,2016-09-19T13:59:44+06:00,
