NPId,Number,RecipientId,DonorId,RangeHolderId,OldRoute,NewRoute,PortDate,RowCount
1000000000348935,77010917288,mKarTel,mKcell,mKcell,,D01,2017-03-18T17:00:29+06:00,45
1000000000348935,77010917289,mKarTel,mKcell,mKcell,,D01,2017-03-18T17:00:29+06:00,
1000000000348935,77010917290,mKarTel,mKcell,mKcell,,D01,2017-03-18T17:00:29+06:00,
1000000000348935,77012030464,mKarTel,mKcell,mKcell,,D01,2017-03-18T17:00:29+06:00,
1000000000348935,77012030465,mKarTel,mKcell,mKcell,,D01,2017-03-18T17:00:29+06:00,
1000000000348935,77012030466,mKarTel,mKcell,mKcell,,D01,2017-03-18T17:00:29+06:00,
1000000000348935,77012030495,mKarTel,mKcell,mKcell,,D01,2017-03-18T17:00:29+06:00,
1000000000348935,77780495646,mKarTel,mKcell,mKcell,,D01,2017-03-18T17:00:29+06:00,
1000000000348935,77780495647,mKarTel,mKcell,mKcell,,D01,2017-03-18T17:00:29+06:00,
1000000000348935,77780495649,mKarTel,mKcell,mKcell,,D01,2017-03-18T17:00:29+06:00,
1000000000348935,77780495650,mKarTel,mKcell,mKcell,,D01,2017-03-18T17:00:29+06:00,
1000000000348935,77780495651,mKarTel,mKcell,mKcell,,D01,2017-03-18T17:00:29+06:00,
1000000000348935,77780495657,mKarTel,mKcell,mKcell,,D01,2017-03-18T17:00:29+06:00,
1000000000348935,77780495659,mKarTel,mKcell,mKcell,,D01,2017-03-18T17:00:29+06:00,
1000000000348935,77780495660,mKarTel,mKcell,mKcell,,D01,2017-03-18T17:00:29+06:00,
1000000000348935,77780495661,mKarTel,mKcell,mKcell,,D01,2017-03-18T17:00:29+06:00,
1000000000348935,77780495663,mKarTel,mKcell,mKcell,,D01,2017-03-18T17:00:29+06:00,
1000000000348935,77780495667,mKarTel,mKcell,mKcell,,D01,2017-03-18T17:00:29+06:00,
1000000000348935,77780495668,mKarTel,mKcell,mKcell,,D01,2017-03-18T17:00:29+06:00,
1000000000348935,77780495670,mKarTel,mKcell,mKcell,,D01,2017-03-18T17:00:29+06:00,
1000000000348935,77780495671,mKarTel,mKcell,mKcell,,D01,2017-03-18T17:00:29+06:00,
1000000000348935,77780495673,mKarTel,mKcell,mKcell,,D01,2017-03-18T17:00:29+06:00,
1000000000348935,77780495674,mKarTel,mKcell,mKcell,,D01,2017-03-18T17:00:29+06:00,
1000000000348935,77780495676,mKarTel,mKcell,mKcell,,D01,2017-03-18T17:00:29+06:00,
1000000000348935,77780495677,mKarTel,mKcell,mKcell,,D01,2017-03-18T17:00:29+06:00,
1000000000348935,77780495679,mKarTel,mKcell,mKcell,,D01,2017-03-18T17:00:29+06:00,
1000000000348935,77780495680,mKarTel,mKcell,mKcell,,D01,2017-03-18T17:00:29+06:00,
1000000000349440,77077777795,mMTS,mKcell,mMTS,D02,D77,2017-03-18T17:23:29+06:00,
1000000000349449,77754937370,mMTS,mKcell,mKcell,,D77,2017-03-18T17:04:19+06:00,
1000000000349450,77759891117,mKcell,mMTS,mKcell,D77,D02,2017-03-18T17:04:47+06:00,
1000000000349452,77718800088,mKarTel,mAltel,mKarTel,D07,D01,2017-03-18T17:05:25+06:00,
1000000000349454,77023097776,mAltel,mKcell,mKcell,D02,D07,2017-03-18T17:07:32+06:00,
1000000000349456,77028650797,mAltel,mKcell,mKcell,,D07,2017-03-18T17:09:42+06:00,
1000000000349457,77786673222,mKcell,mMTS,mKcell,D77,D02,2017-03-18T17:11:35+06:00,
1000000000349458,77013141084,mMTS,mKcell,mKcell,D02,D77,2017-03-18T17:11:45+06:00,
1000000000349459,77775630621,mMTS,mKarTel,mKarTel,,D77,2017-03-18T17:13:07+06:00,
1000000000349460,77017380585,mMTS,mKcell,mKcell,,D77,2017-03-18T17:12:56+06:00,
1000000000349461,77776778108,mKcell,mKarTel,mKarTel,,D02,2017-03-18T17:15:51+06:00,
1000000000349462,77776666066,mMTS,mKarTel,mKarTel,,D77,2017-03-18T17:15:41+06:00,
1000000000349463,77051627280,mAltel,mKarTel,mKarTel,,D07,2017-03-18T17:16:54+06:00,
1000000000349466,77017380595,mMTS,mKcell,mKcell,,D77,2017-03-18T17:22:50+06:00,
1000000000349467,77019996551,mKarTel,mKcell,mKcell,,D01,2017-03-18T17:24:27+06:00,
1000000000349469,77475521177,mKarTel,mMTS,mMTS,,D01,2017-03-18T17:25:24+06:00,
1000000000349473,77071091755,mKcell,mMTS,mMTS,,D02,2017-03-18T17:27:55+06:00,
1000000000349474,77026788885,mMTS,mKcell,mKcell,,D77,2017-03-18T17:28:35+06:00,
