NPId,Number,RecipientId,DonorId,RangeHolderId,OldRoute,NewRoute,PortDate,RowCount
1000000000324033,77075481616,mKarTel,mMTS,mMTS,,D01,2017-02-05T15:06:28+06:00,13
1000000000324035,77012139564,mKarTel,mKcell,mKcell,,D01,2017-02-05T15:07:59+06:00,
1000000000324036,77057830245,mMTS,mKarTel,mKarTel,,D77,2017-02-05T15:08:15+06:00,
1000000000324037,77071591924,mAltel,mMTS,mMTS,,D07,2017-02-05T15:08:28+06:00,
1000000000324038,77015285851,mMTS,mKcell,mKcell,,D77,2017-02-05T15:08:36+06:00,
1000000000324040,77772488898,mKcell,mKarTel,mKarTel,,D02,2017-02-05T15:12:03+06:00,
1000000000324041,77759644666,mMTS,mKcell,mKcell,,D77,2017-02-05T15:11:47+06:00,
1000000000324042,77015446446,mMTS,mKcell,mKcell,,D77,2017-02-05T15:13:50+06:00,
1000000000324046,77051395786,mMTS,mKarTel,mKarTel,,D77,2017-02-05T15:16:49+06:00,
1000000000324047,77012776789,mKcell,mMTS,mKcell,D77,D02,2017-02-05T15:19:07+06:00,
1000000000324048,77472499572,mKarTel,mKcell,mMTS,D02,D01,2017-02-05T15:20:01+06:00,
1000000000324049,77015395163,mAltel,mKcell,mKcell,,D07,2017-02-05T15:25:32+06:00,
1000000000324050,77753900296,mMTS,mKcell,mKcell,,D77,2017-02-05T15:27:39+06:00,
