NPId,Number,RecipientId,DonorId,RangeHolderId,OldRoute,NewRoute,PortDate,RowCount
1000000000377656,77759125144,mKcell,mMTS,mKcell,D77,D02,2017-05-03T19:35:22+06:00,9
1000000000377659,77710248083,mAltel,mKarTel,mKarTel,,D07,2017-05-03T19:39:28+06:00,
1000000000377660,77712365252,mMTS,mKarTel,mKarTel,,D77,2017-05-03T19:41:00+06:00,
1000000000377662,77019400813,mKcell,mAltel,mKcell,D07,D02,2017-05-03T19:43:30+06:00,
1000000000377664,77774195537,mMTS,mKarTel,mKarTel,,D77,2017-05-03T19:48:10+06:00,
1000000000377666,77022062006,mKarTel,mKcell,mKcell,,D01,2017-05-03T19:54:17+06:00,
1000000000377667,77776777746,mKcell,mKarTel,mKarTel,,D02,2017-05-03T19:56:06+06:00,
1000000000377668,77714488000,mKarTel,mMTS,mKarTel,D77,D01,2017-05-03T19:57:12+06:00,
1000000000377669,77785598934,mKcell,mMTS,mKcell,D77,D02,2017-05-03T19:59:00+06:00,
