NPId,Number,RecipientId,DonorId,RangeHolderId,OldRoute,NewRoute,PortDate,RowCount
1000000000443511,77010524972,mKarTel,mKcell,mKcell,,D01,2017-08-22T13:53:41+06:00,21
1000000000443511,77010524973,mKarTel,mKcell,mKcell,,D01,2017-08-22T13:53:41+06:00,
1000000000443511,77019785001,mKarTel,mKcell,mKcell,,D01,2017-08-22T13:53:41+06:00,
1000000000443511,77019785002,mKarTel,mKcell,mKcell,,D01,2017-08-22T13:53:41+06:00,
1000000000443511,77019785004,mKarTel,mKcell,mKcell,,D01,2017-08-22T13:53:41+06:00,
1000000000443642,77012266599,mKarTel,mKcell,mKcell,,D01,2017-08-22T13:45:44+06:00,
1000000000443708,77087613987,mKarTel,mAltel,mAltel,,D01,2017-08-22T13:30:59+06:00,
1000000000443709,77087177074,mKarTel,mAltel,mAltel,,D01,2017-08-22T13:31:44+06:00,
1000000000443710,77083578801,mKarTel,mKcell,mAltel,D02,D01,2017-08-22T13:31:59+06:00,
1000000000443711,77789991752,mKarTel,mKcell,mKcell,,D01,2017-08-22T13:32:04+06:00,
1000000000443712,77076076676,mKarTel,mMTS,mMTS,,D01,2017-08-22T13:34:26+06:00,
1000000000443713,77777011804,mAltel,mKarTel,mKarTel,,D07,2017-08-22T13:34:46+06:00,
1000000000443714,77756059089,mKarTel,mAltel,mKcell,D07,D01,2017-08-22T13:35:40+06:00,
1000000000443715,77077734030,mKarTel,mMTS,mMTS,,D01,2017-08-22T13:37:48+06:00,
1000000000443718,77026650806,mMTS,mKcell,mKcell,,D77,2017-08-22T13:39:24+06:00,
1000000000443719,77076127771,mMTS,mAltel,mMTS,D07,D77,2017-08-22T13:42:06+06:00,
1000000000443720,77473330630,mKcell,mMTS,mMTS,,D02,2017-08-22T13:46:26+06:00,
1000000000443722,77771814441,mKarTel,mKcell,mKarTel,D02,D01,2017-08-22T13:47:46+06:00,
1000000000443723,77712259827,mMTS,mKarTel,mKarTel,,D77,2017-08-22T13:49:05+06:00,
1000000000443725,77005180009,mKcell,mAltel,mAltel,,D02,2017-08-22T13:51:31+06:00,
1000000000443726,77026185505,mMTS,mKcell,mKcell,,D77,2017-08-22T13:52:47+06:00,
