NPId,Number,RecipientId,DonorId,RangeHolderId,OldRoute,NewRoute,PortDate,RowCount
1000000000192328,77773987467,mKcell,mKarTel,mKarTel,,D02,2016-06-13T10:38:10+06:00,13
1000000000192328,77777471074,mKcell,mKarTel,mKarTel,,D02,2016-06-13T10:38:10+06:00,
1000000000192337,77014210309,mMTS,mKcell,mKcell,,D77,2016-06-13T10:37:23+06:00,
1000000000192340,77077059255,mKarTel,mMTS,mMTS,,D01,2016-06-13T10:40:41+06:00,
1000000000192344,77017560836,mMTS,mKcell,mKcell,,D77,2016-06-13T10:47:23+06:00,
1000000000192346,77086733411,mMTS,mAltel,mAltel,,D77,2016-06-13T10:49:10+06:00,
1000000000192347,77052100343,mMTS,mAltel,mKarTel,D07,D77,2016-06-13T10:50:59+06:00,
1000000000192349,77007707020,mMTS,mAltel,mAltel,,D77,2016-06-13T10:53:14+06:00,
1000000000192350,77755468787,mMTS,mKcell,mKcell,,D77,2016-06-13T10:54:18+06:00,
1000000000192351,77766768888,mAltel,mKarTel,mKarTel,,D07,2016-06-13T10:55:03+06:00,
1000000000192352,77071516889,mKarTel,mMTS,mMTS,,D01,2016-06-13T10:55:02+06:00,
1000000000192354,77753948689,mMTS,mKcell,mKcell,,D77,2016-06-13T10:57:32+06:00,
1000000000192355,77759877385,mKcell,mAltel,mKcell,D07,D02,2016-06-13T10:59:29+06:00,
