NPId,Number,RecipientId,DonorId,RangeHolderId,OldRoute,NewRoute,PortDate,RowCount
1000000000375294,77776600677,mAltel,mMTS,mKarTel,D77,D07,2017-04-30T18:31:51+06:00,16
1000000000375295,77001553256,mMTS,mAltel,mAltel,,D77,2017-04-30T18:32:44+06:00,
1000000000375296,77002390999,mMTS,mAltel,mAltel,,D77,2017-04-30T18:32:44+06:00,
1000000000375297,77003330357,mKcell,mAltel,mAltel,,D02,2017-04-30T18:36:17+06:00,
1000000000375298,77003330361,mKcell,mAltel,mAltel,,D02,2017-04-30T18:36:48+06:00,
1000000000375299,77003330352,mKcell,mAltel,mAltel,,D02,2017-04-30T18:39:19+06:00,
1000000000375300,77005000897,mKcell,mAltel,mAltel,,D02,2017-04-30T18:39:58+06:00,
1000000000375301,77759335003,mMTS,mKcell,mKcell,,D77,2017-04-30T18:47:54+06:00,
1000000000375302,77013357375,mKarTel,mKcell,mKcell,,D01,2017-04-30T18:50:51+06:00,
1000000000375303,77051003009,mKcell,mKarTel,mKarTel,,D02,2017-04-30T18:53:12+06:00,
1000000000375304,77005000397,mKcell,mAltel,mAltel,,D02,2017-04-30T18:52:54+06:00,
1000000000375306,77018880384,mKarTel,mKcell,mKcell,,D01,2017-04-30T18:54:04+06:00,
1000000000375307,77005000625,mKcell,mAltel,mAltel,,D02,2017-04-30T18:55:24+06:00,
1000000000375308,77005000875,mKcell,mAltel,mAltel,,D02,2017-04-30T18:56:11+06:00,
1000000000375309,77005000675,mKcell,mAltel,mAltel,,D02,2017-04-30T18:57:42+06:00,
1000000000375310,77005000691,mKcell,mAltel,mAltel,,D02,2017-04-30T18:59:26+06:00,
