NPId,Number,RecipientId,DonorId,RangeHolderId,OldRoute,NewRoute,PortDate,RowCount
1000000000320734,77004802614,mKarTel,mAltel,mAltel,,D01,2017-02-01T09:02:55+06:00,5
1000000000320735,77080612756,mKarTel,mAltel,mAltel,,D01,2017-02-01T09:02:56+06:00,
1000000000320738,77718179595,mKcell,mKarTel,mKarTel,,D02,2017-02-01T09:13:32+06:00,
1000000000320741,77058305585,mMTS,mKarTel,mKarTel,,D77,2017-02-01T09:25:04+06:00,
1000000000320742,77018006729,mKarTel,mKcell,mKcell,,D01,2017-02-01T09:27:33+06:00,
