NPId,Number,RecipientId,DonorId,RangeHolderId,OldRoute,NewRoute,PortDate,RowCount
1000000000256779,77712353780,mKcell,mKarTel,mKarTel,,D02,2016-10-04T16:00:05+06:00,30
1000000000256780,77775473999,mAltel,mKarTel,mKarTel,,D07,2016-10-04T16:00:28+06:00,
1000000000256782,77027807194,mMTS,mKcell,mKcell,,D77,2016-10-04T16:00:11+06:00,
1000000000256783,77054624950,mKarTel,mMTS,mKarTel,D77,D01,2016-10-04T16:01:05+06:00,
1000000000256784,77077772886,mAltel,mMTS,mMTS,,D07,2016-10-04T16:01:13+06:00,
1000000000256786,77089699084,mMTS,mAltel,mAltel,,D77,2016-10-04T16:01:41+06:00,
1000000000256787,77774667003,mMTS,mKarTel,mKarTel,,D77,2016-10-04T16:03:17+06:00,
1000000000256788,77768888688,mKcell,mKarTel,mKarTel,,D02,2016-10-04T16:04:24+06:00,
1000000000256789,77002000247,mKcell,mAltel,mAltel,,D02,2016-10-04T16:03:57+06:00,
1000000000256790,77052317708,mAltel,mKarTel,mKarTel,,D07,2016-10-04T16:06:26+06:00,
1000000000256791,77017196779,mKarTel,mKcell,mKcell,,D01,2016-10-04T16:07:02+06:00,
1000000000256792,77002000267,mKcell,mAltel,mAltel,,D02,2016-10-04T16:07:22+06:00,
1000000000256793,77757990707,mKarTel,mKcell,mKcell,,D01,2016-10-04T16:07:55+06:00,
1000000000256794,77771524217,mKarTel,mMTS,mKarTel,D77,D01,2016-10-04T16:09:29+06:00,
1000000000256795,77753940000,mKcell,mAltel,mKcell,D07,D02,2016-10-04T16:09:23+06:00,
1000000000256797,77778999005,mKcell,mKarTel,mKarTel,,D02,2016-10-04T16:15:29+06:00,
1000000000256798,77010198019,mKarTel,mKcell,mKcell,,D01,2016-10-04T16:16:11+06:00,
1000000000256799,77071771789,mAltel,mMTS,mMTS,,D07,2016-10-04T16:16:35+06:00,
1000000000256800,77017712791,mMTS,mKcell,mKcell,,D77,2016-10-04T16:17:09+06:00,
1000000000256803,77770464518,mMTS,mKarTel,mKarTel,,D77,2016-10-04T16:19:46+06:00,
1000000000256804,77762650000,mMTS,mKarTel,mKarTel,,D77,2016-10-04T16:20:00+06:00,
1000000000256806,77019084180,mKarTel,mKcell,mKcell,,D01,2016-10-04T16:20:37+06:00,
1000000000256807,77002000231,mKcell,mAltel,mAltel,,D02,2016-10-04T16:20:37+06:00,
1000000000256810,77012100546,mKarTel,mKcell,mKcell,,D01,2016-10-04T16:23:41+06:00,
1000000000256812,77002000279,mKcell,mAltel,mAltel,,D02,2016-10-04T16:24:19+06:00,
1000000000256813,77015151030,mMTS,mKcell,mKcell,,D77,2016-10-04T16:24:13+06:00,
1000000000256814,77019976767,mKarTel,mKcell,mKcell,,D01,2016-10-04T16:29:56+06:00,
1000000000256815,77002000253,mKcell,mAltel,mAltel,,D02,2016-10-04T16:28:39+06:00,
1000000000256816,77761767000,mKarTel,mAltel,mKarTel,D07,D01,2016-10-04T16:28:51+06:00,
1000000000256817,77072233023,mKcell,mMTS,mMTS,,D02,2016-10-04T16:29:40+06:00,
