NPId,Number,RecipientId,DonorId,RangeHolderId,OldRoute,NewRoute,PortDate,RowCount
1000000000407985,77073457186,mMTS,mKcell,mMTS,D02,D77,2017-06-23T11:30:33+06:00,19
1000000000407987,77785959898,mMTS,mKcell,mKcell,,D77,2017-06-23T11:34:17+06:00,
1000000000407988,77012884350,mKarTel,mMTS,mKcell,D77,D01,2017-06-23T11:35:03+06:00,
1000000000407989,77058149772,mMTS,mKarTel,mKarTel,,D77,2017-06-23T11:36:18+06:00,
1000000000407991,77757642795,mMTS,mKcell,mKcell,,D77,2017-06-23T11:38:21+06:00,
1000000000407993,77024861100,mMTS,mKcell,mKcell,,D77,2017-06-23T11:42:32+06:00,
1000000000407995,77023564076,mMTS,mKcell,mKcell,,D77,2017-06-23T11:45:17+06:00,
1000000000407996,77073638298,mKcell,mMTS,mMTS,,D02,2017-06-23T11:46:15+06:00,
1000000000407998,77014906477,mAltel,mMTS,mKcell,D77,D07,2017-06-23T11:46:41+06:00,
1000000000408000,77751036639,mMTS,mKcell,mKcell,,D77,2017-06-23T11:47:23+06:00,
1000000000408001,77012901700,mKcell,mKarTel,mKcell,D01,D02,2017-06-23T11:48:29+06:00,
1000000000408002,77078267887,mKarTel,mMTS,mMTS,,D01,2017-06-23T11:49:10+06:00,
1000000000408003,77056039883,mAltel,mKarTel,mKarTel,,D07,2017-06-23T11:50:22+06:00,
1000000000408007,77017352224,mMTS,mKcell,mKcell,,D77,2017-06-23T11:53:20+06:00,
1000000000408008,77023403996,mMTS,mKcell,mKcell,,D77,2017-06-23T11:53:25+06:00,
1000000000408009,77786655443,mAltel,mMTS,mKcell,D77,D07,2017-06-23T11:54:00+06:00,
1000000000408010,77017826968,mMTS,mKcell,mKcell,,D77,2017-06-23T11:54:43+06:00,
1000000000408012,77015596505,mKarTel,mKcell,mKcell,,D01,2017-06-23T11:57:10+06:00,
1000000000408013,77076330493,mKcell,mMTS,mMTS,,D02,2017-06-23T11:58:13+06:00,
