NPId,Number,RecipientId,DonorId,RangeHolderId,OldRoute,NewRoute,PortDate,RowCount
1000000000093830,77071358383,mKcell,mMTS,mMTS,,D02,2016-02-19T18:31:37+06:00,22
1000000000093832,77475362859,mAltel,mMTS,mMTS,,D07,2016-02-19T18:32:23+06:00,
1000000000093833,77012705579,mMTS,mKcell,mKcell,,D77,2016-02-19T18:36:55+06:00,
1000000000093834,77003999300,mMTS,mAltel,mAltel,,D77,2016-02-19T18:37:05+06:00,
1000000000093837,77471324762,mKcell,mMTS,mMTS,,D02,2016-02-19T18:40:44+06:00,
1000000000093840,77015188821,mMTS,mKcell,mKcell,,D77,2016-02-19T18:42:03+06:00,
1000000000093842,77015535866,mAltel,mKcell,mKcell,,D07,2016-02-19T18:43:16+06:00,
1000000000093843,77011406962,mAltel,mKcell,mKcell,,D07,2016-02-19T18:43:17+06:00,
1000000000093844,77777779531,mAltel,mKarTel,mKarTel,,D07,2016-02-19T18:43:10+06:00,
1000000000093846,77772136707,mMTS,mKarTel,mKarTel,,D77,2016-02-19T18:44:34+06:00,
1000000000093849,77077441485,mKarTel,mMTS,mMTS,,D01,2016-02-19T18:47:14+06:00,
1000000000093852,77078541663,mAltel,mMTS,mMTS,,D07,2016-02-19T18:49:56+06:00,
1000000000093854,77757280696,mAltel,mKcell,mKcell,,D07,2016-02-19T18:53:03+06:00,
1000000000093855,77019404025,mKarTel,mKcell,mKcell,,D01,2016-02-19T18:53:19+06:00,
1000000000093856,77772288125,mKcell,mKarTel,mKarTel,,D02,2016-02-19T18:54:33+06:00,
1000000000093857,77760035078,mAltel,mKarTel,mKarTel,,D07,2016-02-19T18:54:33+06:00,
1000000000093858,77005999005,mKarTel,mAltel,mAltel,,D01,2016-02-19T18:54:38+06:00,
1000000000093859,77773155551,mKcell,mKarTel,mKarTel,,D02,2016-02-19T18:56:13+06:00,
1000000000093860,77777777627,mKcell,mKarTel,mKarTel,,D02,2016-02-19T18:55:19+06:00,
1000000000093861,77072223292,mAltel,mMTS,mMTS,,D07,2016-02-19T18:55:30+06:00,
1000000000093863,77027474485,mKarTel,mKcell,mKcell,,D01,2016-02-19T18:58:15+06:00,
1000000000093866,77071188115,mAltel,mMTS,mMTS,,D07,2016-02-19T18:59:18+06:00,
