NPId,Number,RecipientId,DonorId,RangeHolderId,OldRoute,NewRoute,PortDate,RowCount
1000000000243043,77776292773,mMTS,mKarTel,mKarTel,,D77,2016-09-09T12:02:17+06:00,22
1000000000243044,77752093929,mMTS,mKcell,mKcell,D02,D77,2016-09-09T12:03:36+06:00,
1000000000243045,77777028477,mKarTel,mKcell,mKarTel,D02,D01,2016-09-09T12:07:22+06:00,
1000000000243046,77786664742,mMTS,mKcell,mKcell,,D77,2016-09-09T12:07:03+06:00,
1000000000243047,77022134734,mMTS,mKcell,mKcell,,D77,2016-09-09T12:07:35+06:00,
1000000000243048,77757689443,mKarTel,mKcell,mKcell,,D01,2016-09-09T12:13:40+06:00,
1000000000243049,77775598045,mKarTel,mMTS,mKarTel,D77,D01,2016-09-09T12:14:18+06:00,
1000000000243050,77055633222,mAltel,mKarTel,mKarTel,,D07,2016-09-09T12:16:59+06:00,
1000000000243051,77013793918,mMTS,mKcell,mKcell,,D77,2016-09-09T12:15:07+06:00,
1000000000243052,77757689442,mKarTel,mKcell,mKcell,,D01,2016-09-09T12:17:39+06:00,
1000000000243053,77017094950,mKarTel,mKcell,mKcell,,D01,2016-09-09T12:17:39+06:00,
1000000000243054,77017278085,mKarTel,mKcell,mKcell,,D01,2016-09-09T12:18:19+06:00,
1000000000243057,77774808877,mMTS,mKarTel,mKarTel,,D77,2016-09-09T12:21:36+06:00,
1000000000243058,77029188888,mKcell,mMTS,mKcell,D77,D02,2016-09-09T12:20:47+06:00,
1000000000243059,77074014479,mKcell,mMTS,mMTS,,D02,2016-09-09T12:22:18+06:00,
1000000000243060,77024488633,mKarTel,mKcell,mKcell,,D01,2016-09-09T12:26:44+06:00,
1000000000243062,77026217465,mMTS,mKcell,mKcell,,D77,2016-09-09T12:24:27+06:00,
1000000000243064,77752664154,mMTS,mKcell,mKcell,,D77,2016-09-09T12:26:34+06:00,
1000000000243065,77772606111,mKarTel,mMTS,mKarTel,D77,D01,2016-09-09T12:27:23+06:00,
1000000000243067,77476857479,mMTS,mAltel,mMTS,D07,D77,2016-09-09T12:27:21+06:00,
1000000000243068,77052524488,mMTS,mKarTel,mKarTel,,D77,2016-09-09T12:29:19+06:00,
1000000000243069,77476139402,mKarTel,mMTS,mMTS,,D01,2016-09-09T12:28:39+06:00,
