NPId,Number,RecipientId,DonorId,RangeHolderId,OldRoute,NewRoute,PortDate,RowCount
1000000000142990,77021234568,mKcell,mAltel,mKcell,D07,D02,2016-04-05T12:30:02+06:00,38
1000000000142992,77019715816,mKarTel,mKcell,mKcell,,D01,2016-04-05T12:34:37+06:00,
1000000000142993,77058416571,mMTS,mKarTel,mKarTel,,D77,2016-04-05T12:34:40+06:00,
1000000000142994,77026740067,mKcell,mAltel,mKcell,D07,D02,2016-04-05T12:34:50+06:00,
1000000000142997,77014444891,mKarTel,mKcell,mKcell,,D01,2016-04-05T12:38:23+06:00,
1000000000143000,77782700173,mMTS,mKcell,mKcell,,D77,2016-04-05T12:38:40+06:00,
1000000000143001,77759738797,mMTS,mKcell,mKcell,,D77,2016-04-05T12:38:58+06:00,
1000000000143002,77085172930,mMTS,mAltel,mAltel,,D77,2016-04-05T12:38:48+06:00,
1000000000143003,77011811817,mKarTel,mKcell,mKcell,,D01,2016-04-05T12:39:34+06:00,
1000000000143004,77759861799,mKarTel,mKcell,mKcell,,D01,2016-04-05T12:40:37+06:00,
1000000000143005,77085545245,mMTS,mAltel,mAltel,,D77,2016-04-05T12:40:10+06:00,
1000000000143006,77004004008,mKarTel,mAltel,mAltel,,D01,2016-04-05T12:41:09+06:00,
1000000000143007,77757069309,mMTS,mKcell,mKcell,,D77,2016-04-05T12:42:09+06:00,
1000000000143008,77714401797,mMTS,mKarTel,mKarTel,,D77,2016-04-05T12:43:19+06:00,
1000000000143010,77013763981,mMTS,mKcell,mKcell,,D77,2016-04-05T12:43:07+06:00,
1000000000143013,77052099599,mKarTel,mKcell,mKarTel,D02,D01,2016-04-05T12:47:09+06:00,
1000000000143014,77021111999,mKcell,mAltel,mKcell,D07,D02,2016-04-05T12:48:11+06:00,
1000000000143015,77778707626,mKcell,mKarTel,mKarTel,,D02,2016-04-05T12:54:34+06:00,
1000000000143016,77024960167,mMTS,mKcell,mKcell,,D77,2016-04-05T12:48:27+06:00,
1000000000143017,77089051332,mMTS,mAltel,mAltel,,D77,2016-04-05T12:47:42+06:00,
1000000000143018,77016609692,mKcell,mAltel,mKcell,D07,D02,2016-04-05T12:53:36+06:00,
1000000000143019,77787788440,mKarTel,mKcell,mKcell,,D01,2016-04-05T12:54:00+06:00,
1000000000143021,77789358079,mMTS,mKcell,mKcell,,D77,2016-04-05T12:53:21+06:00,
1000000000143025,77017626465,mMTS,mKcell,mKcell,,D77,2016-04-05T12:53:19+06:00,
1000000000143026,77028080115,mKarTel,mKcell,mKcell,,D01,2016-04-05T12:53:59+06:00,
1000000000143027,77019724622,mMTS,mKcell,mKcell,,D77,2016-04-05T12:53:19+06:00,
1000000000143028,77770400808,mKcell,mKarTel,mKarTel,,D02,2016-04-05T12:55:23+06:00,
1000000000143031,77012101207,mMTS,mKcell,mKcell,,D77,2016-04-05T12:54:19+06:00,
1000000000143032,77019890185,mKcell,mMTS,mKcell,D77,D02,2016-04-05T12:55:02+06:00,
1000000000143034,77051414326,mMTS,mKarTel,mKarTel,,D77,2016-04-05T12:56:56+06:00,
1000000000143036,77017182945,mKarTel,mKcell,mKcell,,D01,2016-04-05T12:56:51+06:00,
1000000000143037,77005456006,mMTS,mAltel,mAltel,,D77,2016-04-05T12:55:52+06:00,
1000000000143038,77019890184,mKcell,mMTS,mKcell,D77,D02,2016-04-05T12:57:46+06:00,
1000000000143040,77029631026,mKarTel,mKcell,mKcell,,D01,2016-04-05T12:59:07+06:00,
1000000000143041,77055701496,mMTS,mKarTel,mKarTel,,D77,2016-04-05T12:59:46+06:00,
1000000000143042,77005268876,mKcell,mAltel,mAltel,,D02,2016-04-05T12:59:58+06:00,
1000000000143043,77012184666,mMTS,mKcell,mKcell,,D77,2016-04-05T12:59:54+06:00,
1000000000143044,77017136692,mAltel,mKcell,mKcell,,D07,2016-04-05T12:59:59+06:00,
