NPId,Number,RecipientId,DonorId,RangeHolderId,OldRoute,NewRoute,PortDate,RowCount
1000000000285240,77010992288,mMTS,mKcell,mKcell,,D77,2016-11-28T11:30:08+06:00,22
1000000000285241,77017429116,mKarTel,mKcell,mKcell,,D01,2016-11-28T11:30:32+06:00,
1000000000285242,77022851171,mAltel,mKcell,mKcell,,D07,2016-11-28T11:31:55+06:00,
1000000000285243,77027546969,mAltel,mKcell,mKcell,,D07,2016-11-28T11:32:26+06:00,
1000000000285244,77778648782,mMTS,mKarTel,mKarTel,,D77,2016-11-28T11:33:15+06:00,
1000000000285248,77024388887,mMTS,mKcell,mKcell,,D77,2016-11-28T11:34:45+06:00,
1000000000285249,77012422271,mMTS,mKarTel,mKcell,D01,D77,2016-11-28T11:35:30+06:00,
1000000000285250,77017378686,mAltel,mKcell,mKcell,,D07,2016-11-28T11:38:50+06:00,
1000000000285253,77075371737,mAltel,mMTS,mMTS,,D07,2016-11-28T11:39:59+06:00,
1000000000285254,77018124730,mMTS,mKcell,mKcell,,D77,2016-11-28T11:40:11+06:00,
1000000000285255,77757408572,mAltel,mKcell,mKcell,,D07,2016-11-28T11:42:58+06:00,
1000000000285256,77013006737,mAltel,mKcell,mKcell,,D07,2016-11-28T11:43:29+06:00,
1000000000285257,77757408562,mAltel,mKcell,mKcell,,D07,2016-11-28T11:44:51+06:00,
1000000000285259,77712418550,mKcell,mKarTel,mKarTel,,D02,2016-11-28T11:48:45+06:00,
1000000000285260,77072271777,mAltel,mKarTel,mMTS,D01,D07,2016-11-28T11:48:51+06:00,
1000000000285262,77473130158,mKarTel,mMTS,mMTS,,D01,2016-11-28T11:49:25+06:00,
1000000000285263,77075795079,mKcell,mMTS,mMTS,,D02,2016-11-28T11:50:02+06:00,
1000000000285265,77473130159,mKarTel,mMTS,mMTS,,D01,2016-11-28T11:52:16+06:00,
1000000000285269,77017766680,mMTS,mKcell,mKcell,,D77,2016-11-28T11:56:25+06:00,
1000000000285270,77765000036,mAltel,mKarTel,mKarTel,,D07,2016-11-28T11:58:30+06:00,
1000000000285271,77016497669,mMTS,mKcell,mKcell,,D77,2016-11-28T11:58:29+06:00,
1000000000285272,77073009596,mKcell,mMTS,mMTS,,D02,2016-11-28T11:59:19+06:00,
