NPId,Number,RecipientId,DonorId,RangeHolderId,OldRoute,NewRoute,PortDate,RowCount
1000000000291384,77758643188,mMTS,mKcell,mKcell,,D77,2016-12-07T13:00:58+06:00,35
1000000000291385,77014406701,mKcell,mKarTel,mKcell,D01,D02,2016-12-07T13:03:53+06:00,
1000000000291386,77015960354,mKcell,mMTS,mKcell,D77,D02,2016-12-07T13:03:21+06:00,
1000000000291387,77001681681,mKarTel,mAltel,mAltel,,D01,2016-12-07T13:05:44+06:00,
1000000000291388,77011488868,mAltel,mKcell,mKcell,,D07,2016-12-07T13:06:49+06:00,
1000000000291390,77758645792,mMTS,mKcell,mKcell,,D77,2016-12-07T13:08:12+06:00,
1000000000291391,77772545177,mKcell,mKarTel,mKarTel,,D02,2016-12-07T13:11:30+06:00,
1000000000291392,77072734519,mKcell,mMTS,mMTS,,D02,2016-12-07T13:11:30+06:00,
1000000000291393,77028888539,mKarTel,mKcell,mKcell,,D01,2016-12-07T13:11:41+06:00,
1000000000291394,77005258239,mMTS,mAltel,mAltel,,D77,2016-12-07T13:12:10+06:00,
1000000000291395,77077780672,mKarTel,mMTS,mMTS,,D01,2016-12-07T13:12:37+06:00,
1000000000291396,77772442856,mMTS,mKarTel,mKarTel,,D77,2016-12-07T13:12:51+06:00,
1000000000291397,77082678910,mMTS,mAltel,mAltel,,D77,2016-12-07T13:12:35+06:00,
1000000000291398,77055824485,mMTS,mKarTel,mKarTel,,D77,2016-12-07T13:12:57+06:00,
1000000000291399,77074933029,mAltel,mMTS,mMTS,,D07,2016-12-07T13:13:47+06:00,
1000000000291400,77008880192,mAltel,mKarTel,mAltel,D01,D07,2016-12-07T13:14:23+06:00,
1000000000291401,77017780672,mKarTel,mKcell,mKcell,,D01,2016-12-07T13:14:45+06:00,
1000000000291402,77015223277,mKarTel,mKcell,mKcell,,D01,2016-12-07T13:14:55+06:00,
1000000000291403,77758596522,mMTS,mKcell,mKcell,,D77,2016-12-07T13:15:45+06:00,
1000000000291404,77018541112,mMTS,mKcell,mKcell,,D77,2016-12-07T13:16:39+06:00,
1000000000291405,77017458034,mMTS,mKcell,mKcell,,D77,2016-12-07T13:17:40+06:00,
1000000000291406,77012830203,mMTS,mKcell,mKcell,,D77,2016-12-07T13:17:58+06:00,
1000000000291407,77775649696,mMTS,mKarTel,mKarTel,,D77,2016-12-07T13:18:47+06:00,
1000000000291408,77759162244,mMTS,mKcell,mKcell,,D77,2016-12-07T13:18:59+06:00,
1000000000291409,77015196284,mAltel,mKcell,mKcell,,D07,2016-12-07T13:19:43+06:00,
1000000000291411,77758597273,mMTS,mKcell,mKcell,,D77,2016-12-07T13:24:17+06:00,
1000000000291412,77478080678,mKarTel,mAltel,mMTS,D07,D01,2016-12-07T13:24:53+06:00,
1000000000291413,77012420085,mMTS,mKcell,mKcell,,D77,2016-12-07T13:25:35+06:00,
1000000000291414,77754444251,mMTS,mKcell,mKcell,,D77,2016-12-07T13:25:36+06:00,
1000000000291416,77079330138,mKcell,mMTS,mMTS,,D02,2016-12-07T13:26:34+06:00,
1000000000291417,77072373589,mAltel,mMTS,mMTS,,D07,2016-12-07T13:27:25+06:00,
1000000000291418,77758599010,mMTS,mKcell,mKcell,,D77,2016-12-07T13:27:49+06:00,
1000000000291419,77027477618,mAltel,mKcell,mKcell,,D07,2016-12-07T13:27:49+06:00,
1000000000291420,77078908840,mKarTel,mMTS,mMTS,,D01,2016-12-07T13:28:20+06:00,
1000000000291421,77752066598,mMTS,mKcell,mKcell,,D77,2016-12-07T13:29:43+06:00,
