NPId,Number,RecipientId,DonorId,RangeHolderId,OldRoute,NewRoute,PortDate,RowCount
1000000000310583,77014555570,mKcell,mAltel,mKcell,D07,D02,2017-01-14T14:30:01+06:00,20
1000000000310584,77070007008,mKcell,mKarTel,mMTS,D01,D02,2017-01-14T14:30:20+06:00,
1000000000310585,77027517028,mKarTel,mKcell,mKcell,,D01,2017-01-14T14:31:13+06:00,
1000000000310587,77753013215,mMTS,mKcell,mKcell,,D77,2017-01-14T14:32:33+06:00,
1000000000310588,77021080807,mMTS,mKcell,mKcell,,D77,2017-01-14T14:32:46+06:00,
1000000000310590,77018027800,mKcell,mMTS,mKcell,D77,D02,2017-01-14T14:33:28+06:00,
1000000000310592,77079111107,mAltel,mMTS,mMTS,,D07,2017-01-14T14:33:26+06:00,
1000000000310593,77012138202,mKarTel,mKcell,mKcell,,D01,2017-01-14T14:35:53+06:00,
1000000000310594,77078381440,mKarTel,mMTS,mMTS,,D01,2017-01-14T14:36:48+06:00,
1000000000310595,77051506043,mMTS,mKarTel,mKarTel,,D77,2017-01-14T14:38:30+06:00,
1000000000310596,77775110584,mKcell,mKarTel,mKarTel,,D02,2017-01-14T14:39:25+06:00,
1000000000310597,77021007879,mAltel,mKcell,mKcell,,D07,2017-01-14T14:41:04+06:00,
1000000000310598,77019517951,mKarTel,mKcell,mKcell,,D01,2017-01-14T14:42:12+06:00,
1000000000310599,77025847373,mKcell,mMTS,mKcell,D77,D02,2017-01-14T14:42:16+06:00,
1000000000310600,77007999929,mMTS,mAltel,mAltel,,D77,2017-01-14T14:43:16+06:00,
1000000000310604,77029236337,mKarTel,mKcell,mKcell,,D01,2017-01-14T14:54:20+06:00,
1000000000310605,77013836113,mMTS,mKcell,mKcell,,D77,2017-01-14T14:58:05+06:00,
1000000000310606,77055114323,mMTS,mKarTel,mKarTel,,D77,2017-01-14T14:58:54+06:00,
1000000000310607,77782140101,mMTS,mKcell,mKcell,,D77,2017-01-14T14:59:19+06:00,
1000000000310608,77080238888,mKarTel,mAltel,mAltel,,D01,2017-01-14T14:59:39+06:00,
