NPId,Number,RecipientId,DonorId,RangeHolderId,OldRoute,NewRoute,PortDate,RowCount
1000000000188016,77760990989,mKcell,mKarTel,mKarTel,,D02,2016-06-04T19:01:18+06:00,3
1000000000188018,77085616570,mMTS,mAltel,mAltel,,D77,2016-06-04T19:21:04+06:00,
1000000000188019,77012233949,mMTS,mKcell,mKcell,,D77,2016-06-04T19:28:29+06:00,
