NPId,Number,RecipientId,DonorId,RangeHolderId,OldRoute,NewRoute,PortDate,RowCount
1000000000362723,77783941187,mAltel,mKcell,mKcell,,D07,2017-04-09T12:30:08+06:00,12
1000000000362724,77017420003,mMTS,mKcell,mKcell,,D77,2017-04-09T12:31:52+06:00,
1000000000362725,77057301604,mKcell,mKarTel,mKarTel,,D02,2017-04-09T12:35:45+06:00,
1000000000362726,77020000125,mMTS,mKcell,mKcell,,D77,2017-04-09T12:37:56+06:00,
1000000000362730,77787934325,mAltel,mKcell,mKcell,,D07,2017-04-09T12:47:27+06:00,
1000000000362732,77012928615,mKarTel,mKcell,mKcell,,D01,2017-04-09T12:51:50+06:00,
1000000000362733,77016858902,mMTS,mKcell,mKcell,,D77,2017-04-09T12:52:47+06:00,
1000000000362734,77078610866,mMTS,mKcell,mMTS,D02,D77,2017-04-09T12:53:13+06:00,
1000000000362735,77059874278,mMTS,mKarTel,mKarTel,,D77,2017-04-09T12:54:45+06:00,
1000000000362737,77766700067,mMTS,mKarTel,mKarTel,,D77,2017-04-09T12:57:09+06:00,
1000000000362738,77024657503,mAltel,mKcell,mKcell,,D07,2017-04-09T12:58:33+06:00,
1000000000362739,77071443777,mMTS,mKarTel,mMTS,D01,D77,2017-04-09T12:59:55+06:00,
