NPId,Number,RecipientId,DonorId,RangeHolderId,OldRoute,NewRoute,PortDate,RowCount
1000000000435326,77012441434,mKcell,mMTS,mKcell,D77,D02,2017-08-05T14:00:06+06:00,16
1000000000435327,77007370248,mKcell,mAltel,mAltel,,D02,2017-08-05T14:02:30+06:00,
1000000000435328,77088064420,mMTS,mAltel,mAltel,,D77,2017-08-05T14:02:51+06:00,
1000000000435329,77022245102,mKarTel,mKcell,mKcell,,D01,2017-08-05T14:03:39+06:00,
1000000000435330,77750001242,mMTS,mKcell,mKcell,,D77,2017-08-05T14:04:03+06:00,
1000000000435334,77757614484,mMTS,mKcell,mKcell,,D77,2017-08-05T14:07:48+06:00,
1000000000435335,77085018736,mKarTel,mAltel,mAltel,,D01,2017-08-05T14:08:29+06:00,
1000000000435336,77055307340,mMTS,mKarTel,mKarTel,,D77,2017-08-05T14:10:41+06:00,
1000000000435339,77768888414,mMTS,mKarTel,mKarTel,,D77,2017-08-05T14:12:30+06:00,
1000000000435341,77754405808,mKarTel,mKcell,mKcell,D02,D01,2017-08-05T14:19:16+06:00,
1000000000435343,77053195203,mMTS,mKarTel,mKarTel,,D77,2017-08-05T14:20:56+06:00,
1000000000435347,77771173370,mMTS,mKarTel,mKarTel,,D77,2017-08-05T14:22:32+06:00,
1000000000435348,77767774111,mKcell,mKarTel,mKarTel,,D02,2017-08-05T14:27:06+06:00,
1000000000435351,77072125356,mKarTel,mMTS,mMTS,,D01,2017-08-05T14:27:35+06:00,
1000000000435352,77071426523,mKarTel,mMTS,mMTS,,D01,2017-08-05T14:28:52+06:00,
1000000000435353,77021773203,mKarTel,mKcell,mKcell,,D01,2017-08-05T14:29:31+06:00,
