NPId,Number,RecipientId,DonorId,RangeHolderId,OldRoute,NewRoute,PortDate,RowCount
1000000000100124,77010263140,mKarTel,mKcell,mKcell,,D01,2016-02-26T16:44:16+06:00,65
1000000000100124,77010280582,mKarTel,mKcell,mKcell,,D01,2016-02-26T16:44:16+06:00,
1000000000100124,77010280583,mKarTel,mKcell,mKcell,,D01,2016-02-26T16:44:16+06:00,
1000000000100124,77010280585,mKarTel,mKcell,mKcell,,D01,2016-02-26T16:44:16+06:00,
1000000000100124,77010280587,mKarTel,mKcell,mKcell,,D01,2016-02-26T16:44:16+06:00,
1000000000100124,77010343783,mKarTel,mKcell,mKcell,,D01,2016-02-26T16:44:16+06:00,
1000000000100124,77010347278,mKarTel,mKcell,mKcell,,D01,2016-02-26T16:44:16+06:00,
1000000000100124,77010352901,mKarTel,mKcell,mKcell,,D01,2016-02-26T16:44:16+06:00,
1000000000100124,77010355425,mKarTel,mKcell,mKcell,,D01,2016-02-26T16:44:16+06:00,
1000000000100124,77010910818,mKarTel,mKcell,mKcell,,D01,2016-02-26T16:44:16+06:00,
1000000000100124,77010918909,mKarTel,mKcell,mKcell,,D01,2016-02-26T16:44:16+06:00,
1000000000100124,77015438225,mKarTel,mKcell,mKcell,,D01,2016-02-26T16:44:16+06:00,
1000000000100124,77017263485,mKarTel,mKcell,mKcell,,D01,2016-02-26T16:44:16+06:00,
1000000000100124,77017263560,mKarTel,mKcell,mKcell,,D01,2016-02-26T16:44:16+06:00,
1000000000100124,77017263561,mKarTel,mKcell,mKcell,,D01,2016-02-26T16:44:16+06:00,
1000000000100124,77017263843,mKarTel,mKcell,mKcell,,D01,2016-02-26T16:44:16+06:00,
1000000000100124,77017263844,mKarTel,mKcell,mKcell,,D01,2016-02-26T16:44:16+06:00,
1000000000100124,77017264095,mKarTel,mKcell,mKcell,,D01,2016-02-26T16:44:16+06:00,
1000000000100124,77017264140,mKarTel,mKcell,mKcell,,D01,2016-02-26T16:44:16+06:00,
1000000000100124,77017264179,mKarTel,mKcell,mKcell,,D01,2016-02-26T16:44:16+06:00,
1000000000100124,77017264240,mKarTel,mKcell,mKcell,,D01,2016-02-26T16:44:16+06:00,
1000000000100124,77017264247,mKarTel,mKcell,mKcell,,D01,2016-02-26T16:44:16+06:00,
1000000000100124,77017264267,mKarTel,mKcell,mKcell,,D01,2016-02-26T16:44:16+06:00,
1000000000100124,77017279036,mKarTel,mKcell,mKcell,,D01,2016-02-26T16:44:16+06:00,
1000000000100124,77017409848,mKarTel,mKcell,mKcell,,D01,2016-02-26T16:44:16+06:00,
1000000000100124,77017409878,mKarTel,mKcell,mKcell,,D01,2016-02-26T16:44:16+06:00,
1000000000100124,77017419894,mKarTel,mKcell,mKcell,,D01,2016-02-26T16:44:16+06:00,
1000000000100124,77017419947,mKarTel,mKcell,mKcell,,D01,2016-02-26T16:44:16+06:00,
1000000000100124,77017436692,mKarTel,mKcell,mKcell,,D01,2016-02-26T16:44:16+06:00,
1000000000100124,77017602424,mKarTel,mKcell,mKcell,,D01,2016-02-26T16:44:16+06:00,
1000000000100124,77017969637,mKarTel,mKcell,mKcell,,D01,2016-02-26T16:44:16+06:00,
1000000000100140,77771166111,mKcell,mKarTel,mKarTel,,D02,2016-02-26T16:33:45+06:00,
1000000000100145,77079258087,mKcell,mMTS,mMTS,,D02,2016-02-26T16:35:54+06:00,
1000000000100224,77012702903,mAltel,mKcell,mKcell,,D07,2016-02-26T16:30:44+06:00,
1000000000100226,77014454956,mAltel,mKcell,mKcell,,D07,2016-02-26T16:31:09+06:00,
1000000000100227,77012227686,mMTS,mKcell,mKcell,,D77,2016-02-26T16:31:44+06:00,
1000000000100229,77717966807,mMTS,mKarTel,mKarTel,,D77,2016-02-26T16:33:01+06:00,
1000000000100230,77767979797,mKcell,mKarTel,mKarTel,,D02,2016-02-26T16:33:46+06:00,
1000000000100231,77001111666,mKarTel,mAltel,mAltel,,D01,2016-02-26T16:33:47+06:00,
1000000000100232,77789017953,mAltel,mKcell,mKcell,,D07,2016-02-26T16:34:04+06:00,
1000000000100233,77026228686,mMTS,mKcell,mKcell,,D77,2016-02-26T16:35:20+06:00,
1000000000100234,77473816247,mKcell,mMTS,mMTS,,D02,2016-02-26T16:35:40+06:00,
1000000000100235,77077677578,mAltel,mMTS,mMTS,,D07,2016-02-26T16:36:11+06:00,
1000000000100237,77013454357,mMTS,mKcell,mKcell,,D77,2016-02-26T16:36:57+06:00,
1000000000100238,77027011591,mMTS,mKcell,mKcell,,D77,2016-02-26T16:36:59+06:00,
1000000000100239,77017494520,mAltel,mKcell,mKcell,,D07,2016-02-26T16:37:34+06:00,
1000000000100241,77026088112,mKarTel,mKcell,mKcell,,D01,2016-02-26T16:38:14+06:00,
1000000000100242,77017202689,mMTS,mKcell,mKcell,,D77,2016-02-26T16:38:51+06:00,
1000000000100243,77010141459,mAltel,mKcell,mKcell,,D07,2016-02-26T16:38:50+06:00,
1000000000100245,77785652620,mAltel,mKcell,mKcell,,D07,2016-02-26T16:39:17+06:00,
1000000000100246,77756764449,mMTS,mKcell,mKcell,,D77,2016-02-26T16:39:22+06:00,
1000000000100249,77051633862,mKcell,mKarTel,mKarTel,,D02,2016-02-26T16:41:19+06:00,
1000000000100251,77071082313,mKcell,mMTS,mMTS,,D02,2016-02-26T16:43:47+06:00,
1000000000100252,77054630424,mMTS,mKarTel,mKarTel,,D77,2016-02-26T16:45:02+06:00,
1000000000100253,77016165372,mAltel,mKcell,mKcell,,D07,2016-02-26T16:45:56+06:00,
1000000000100255,77024446789,mAltel,mKcell,mKcell,,D07,2016-02-26T16:46:57+06:00,
1000000000100256,77751728308,mMTS,mKcell,mKcell,,D77,2016-02-26T16:47:05+06:00,
1000000000100257,77029004320,mMTS,mKcell,mKcell,,D77,2016-02-26T16:48:09+06:00,
1000000000100258,77015394890,mKarTel,mKcell,mKcell,,D01,2016-02-26T16:49:09+06:00,
1000000000100262,77019491106,mMTS,mKcell,mKcell,,D77,2016-02-26T16:51:49+06:00,
1000000000100264,77055558514,mKcell,mKarTel,mKarTel,,D02,2016-02-26T16:54:03+06:00,
1000000000100266,77756243535,mMTS,mKcell,mKcell,,D77,2016-02-26T16:54:50+06:00,
1000000000100267,77026224888,mMTS,mKcell,mKcell,,D77,2016-02-26T16:55:01+06:00,
1000000000100269,77782298980,mMTS,mKcell,mKcell,,D77,2016-02-26T16:57:06+06:00,
1000000000100272,77015264367,mAltel,mKcell,mKcell,,D07,2016-02-26T16:59:59+06:00,
