NPId,Number,RecipientId,DonorId,RangeHolderId,OldRoute,NewRoute,PortDate,RowCount
1000000000269737,77051114880,mMTS,mKarTel,mKarTel,,D77,2016-10-28T20:47:51+06:00,2
1000000000269738,77770262601,mMTS,mKarTel,mKarTel,,D77,2016-10-28T20:57:52+06:00,
