NPId,Number,RecipientId,DonorId,RangeHolderId,OldRoute,NewRoute,PortDate,RowCount
1000000000261086,77028144809,mMTS,mKcell,mKcell,,D77,2016-10-12T13:00:34+06:00,18
1000000000261091,77085191366,mMTS,mAltel,mAltel,,D77,2016-10-12T13:01:30+06:00,
1000000000261092,77013918422,mMTS,mKcell,mKcell,,D77,2016-10-12T13:01:31+06:00,
1000000000261093,77013165818,mMTS,mKcell,mKcell,,D77,2016-10-12T13:02:13+06:00,
1000000000261095,77015566335,mKcell,mKarTel,mKcell,D01,D02,2016-10-12T13:07:06+06:00,
1000000000261096,77002484828,mKarTel,mAltel,mAltel,,D01,2016-10-12T13:04:54+06:00,
1000000000261097,77020590904,mMTS,mKcell,mKcell,,D77,2016-10-12T13:13:38+06:00,
1000000000261099,77024499799,mMTS,mKcell,mKcell,,D77,2016-10-12T13:16:18+06:00,
1000000000261100,77014802659,mMTS,mKcell,mKcell,,D77,2016-10-12T13:16:32+06:00,
1000000000261102,77772263157,mKcell,mKarTel,mKarTel,,D02,2016-10-12T13:22:37+06:00,
1000000000261104,77774447768,mKcell,mKarTel,mKarTel,,D02,2016-10-12T13:28:23+06:00,
1000000000261105,77474781817,mKcell,mMTS,mMTS,,D02,2016-10-12T13:22:15+06:00,
1000000000261106,77086564023,mAltel,mKcell,mAltel,D02,D07,2016-10-12T13:23:07+06:00,
1000000000261108,77773915111,mKarTel,mMTS,mKarTel,D77,D01,2016-10-12T13:25:54+06:00,
1000000000261109,77059050000,mKcell,mKarTel,mKarTel,,D02,2016-10-12T13:29:37+06:00,
1000000000261110,77079897070,mKcell,mMTS,mMTS,,D02,2016-10-12T13:28:35+06:00,
1000000000261111,77022513000,mMTS,mKcell,mKcell,,D77,2016-10-12T13:27:10+06:00,
1000000000261112,77019992997,mKcell,mMTS,mKcell,D77,D02,2016-10-12T13:27:34+06:00,
