NPId,Number,RecipientId,DonorId,RangeHolderId,OldRoute,NewRoute,PortDate,RowCount
1000000000179165,77017758293,mKcell,mAltel,mKcell,D07,D02,2016-05-23T11:31:14+06:00,31
1000000000179168,77771517888,mAltel,mKarTel,mKarTel,,D07,2016-05-23T11:30:36+06:00,
1000000000179169,77010140001,mKcell,mMTS,mKcell,D77,D02,2016-05-23T11:31:39+06:00,
1000000000179170,77082044158,mMTS,mAltel,mAltel,,D77,2016-05-23T11:32:05+06:00,
1000000000179171,77051715015,mMTS,mKarTel,mKarTel,,D77,2016-05-23T11:34:45+06:00,
1000000000179175,77078808608,mMTS,mAltel,mMTS,D07,D77,2016-05-23T11:36:55+06:00,
1000000000179176,77755454575,mMTS,mKcell,mKcell,,D77,2016-05-23T11:37:31+06:00,
1000000000179177,77051716017,mMTS,mKarTel,mKarTel,,D77,2016-05-23T11:38:39+06:00,
1000000000179178,77475055005,mKcell,mMTS,mMTS,,D02,2016-05-23T11:39:02+06:00,
1000000000179179,77074339746,mKarTel,mMTS,mMTS,,D01,2016-05-23T11:38:56+06:00,
1000000000179181,77773989273,mMTS,mKarTel,mKarTel,,D77,2016-05-23T11:54:35+06:00,
1000000000179182,77772089124,mMTS,mKarTel,mKarTel,,D77,2016-05-23T11:39:52+06:00,
1000000000179184,77057124201,mMTS,mKarTel,mKarTel,,D77,2016-05-23T11:40:28+06:00,
1000000000179185,77776662272,mAltel,mKarTel,mKarTel,,D07,2016-05-23T11:40:41+06:00,
1000000000179186,77011019808,mKcell,mAltel,mKcell,D07,D02,2016-05-23T11:43:07+06:00,
1000000000179187,77051716222,mMTS,mKarTel,mKarTel,,D77,2016-05-23T11:42:45+06:00,
1000000000179188,77785004938,mKcell,mAltel,mKcell,D07,D02,2016-05-23T11:43:31+06:00,
1000000000179189,77013358866,mKcell,mAltel,mKcell,D07,D02,2016-05-23T11:43:31+06:00,
1000000000179190,77079593901,mKcell,mMTS,mMTS,,D02,2016-05-23T11:44:23+06:00,
1000000000179191,77754040018,mKcell,mAltel,mKcell,D07,D02,2016-05-23T11:44:24+06:00,
1000000000179192,77089081633,mKarTel,mMTS,mAltel,D77,D01,2016-05-23T11:44:04+06:00,
1000000000179194,77714219484,mMTS,mKarTel,mKarTel,,D77,2016-05-23T11:46:23+06:00,
1000000000179195,77017326829,mMTS,mKcell,mKcell,,D77,2016-05-23T11:46:29+06:00,
1000000000179196,77477631307,mKarTel,mMTS,mMTS,,D01,2016-05-23T11:47:03+06:00,
1000000000179197,77001870018,mKarTel,mAltel,mAltel,,D01,2016-05-23T11:50:55+06:00,
1000000000179198,77002959596,mMTS,mAltel,mAltel,,D77,2016-05-23T11:52:04+06:00,
1000000000179199,77015500098,mKcell,mMTS,mKcell,D77,D02,2016-05-23T11:52:59+06:00,
1000000000179200,77029266728,mMTS,mKcell,mKcell,,D77,2016-05-23T11:52:55+06:00,
1000000000179202,77076667060,mKarTel,mMTS,mMTS,,D01,2016-05-23T11:55:12+06:00,
1000000000179203,77782692369,mMTS,mKcell,mKcell,,D77,2016-05-23T11:55:51+06:00,
1000000000179204,77471118384,mKcell,mMTS,mMTS,,D02,2016-05-23T11:59:05+06:00,
