NPId,Number,RecipientId,DonorId,RangeHolderId,OldRoute,NewRoute,PortDate,RowCount
1000000000177846,77027052998,mMTS,mKcell,mKcell,,D77,2016-05-20T13:00:38+06:00,19
1000000000177850,77057092055,mMTS,mKarTel,mKarTel,,D77,2016-05-20T13:03:50+06:00,
1000000000177852,77021477726,mKarTel,mKcell,mKcell,,D01,2016-05-20T13:05:00+06:00,
1000000000177853,77055698286,mKarTel,mAltel,mKarTel,D07,D01,2016-05-20T13:07:58+06:00,
1000000000177854,77028827841,mMTS,mKcell,mKcell,,D77,2016-05-20T13:12:21+06:00,
1000000000177855,77081068303,mMTS,mAltel,mAltel,,D77,2016-05-20T13:11:04+06:00,
1000000000177856,77781177333,mMTS,mKcell,mKcell,,D77,2016-05-20T13:13:15+06:00,
1000000000177857,77771118134,mKcell,mKarTel,mKarTel,,D02,2016-05-20T13:15:33+06:00,
1000000000177858,77055097468,mMTS,mKarTel,mKarTel,,D77,2016-05-20T13:17:25+06:00,
1000000000177859,77713536237,mMTS,mKarTel,mKarTel,,D77,2016-05-20T13:17:43+06:00,
1000000000177860,77023290498,mMTS,mKcell,mKcell,,D77,2016-05-20T13:19:49+06:00,
1000000000177861,77021447659,mMTS,mKcell,mKcell,,D77,2016-05-20T13:20:33+06:00,
1000000000177862,77712888288,mKcell,mKarTel,mKarTel,,D02,2016-05-20T13:21:34+06:00,
1000000000177865,77781816939,mAltel,mKcell,mKcell,,D07,2016-05-20T13:22:56+06:00,
1000000000177866,77055858040,mMTS,mKarTel,mKarTel,,D77,2016-05-20T13:22:58+06:00,
1000000000177867,77753393555,mAltel,mKcell,mKcell,,D07,2016-05-20T13:25:50+06:00,
1000000000177869,77025438963,mMTS,mKcell,mKcell,,D77,2016-05-20T13:27:26+06:00,
1000000000177871,77751175122,mAltel,mKcell,mKcell,,D07,2016-05-20T13:29:33+06:00,
1000000000177872,77012527826,mMTS,mKcell,mKcell,,D77,2016-05-20T13:29:33+06:00,
