NPId,Number,RecipientId,DonorId,RangeHolderId,OldRoute,NewRoute,PortDate,RowCount
1000000000376856,77010541058,mKarTel,mKcell,mKcell,,D01,2017-05-03T14:06:42+06:00,69
1000000000376856,77010593295,mKarTel,mKcell,mKcell,,D01,2017-05-03T14:06:42+06:00,
1000000000376856,77052109415,mKarTel,mKcell,mKarTel,D02,D01,2017-05-03T14:06:42+06:00,
1000000000376856,77057878727,mKarTel,mKcell,mKarTel,D02,D01,2017-05-03T14:06:42+06:00,
1000000000376856,77717053982,mKarTel,mKcell,mKarTel,D02,D01,2017-05-03T14:06:42+06:00,
1000000000376856,77717053988,mKarTel,mKcell,mKarTel,D02,D01,2017-05-03T14:06:42+06:00,
1000000000376856,77717580155,mKarTel,mKcell,mKarTel,D02,D01,2017-05-03T14:06:42+06:00,
1000000000376856,77717580506,mKarTel,mKcell,mKarTel,D02,D01,2017-05-03T14:06:42+06:00,
1000000000376856,77717581262,mKarTel,mKcell,mKarTel,D02,D01,2017-05-03T14:06:42+06:00,
1000000000376856,77717581284,mKarTel,mKcell,mKarTel,D02,D01,2017-05-03T14:06:42+06:00,
1000000000376856,77717581287,mKarTel,mKcell,mKarTel,D02,D01,2017-05-03T14:06:42+06:00,
1000000000376856,77717581296,mKarTel,mKcell,mKarTel,D02,D01,2017-05-03T14:06:42+06:00,
1000000000376856,77717581900,mKarTel,mKcell,mKarTel,D02,D01,2017-05-03T14:06:42+06:00,
1000000000376856,77717582004,mKarTel,mKcell,mKarTel,D02,D01,2017-05-03T14:06:42+06:00,
1000000000376856,77717582020,mKarTel,mKcell,mKarTel,D02,D01,2017-05-03T14:06:42+06:00,
1000000000376856,77717582097,mKarTel,mKcell,mKarTel,D02,D01,2017-05-03T14:06:42+06:00,
1000000000376856,77717582120,mKarTel,mKcell,mKarTel,D02,D01,2017-05-03T14:06:42+06:00,
1000000000376856,77717582145,mKarTel,mKcell,mKarTel,D02,D01,2017-05-03T14:06:42+06:00,
1000000000376856,77717582151,mKarTel,mKcell,mKarTel,D02,D01,2017-05-03T14:06:42+06:00,
1000000000376856,77717582244,mKarTel,mKcell,mKarTel,D02,D01,2017-05-03T14:06:42+06:00,
1000000000376856,77717582323,mKarTel,mKcell,mKarTel,D02,D01,2017-05-03T14:06:42+06:00,
1000000000376856,77717582444,mKarTel,mKcell,mKarTel,D02,D01,2017-05-03T14:06:42+06:00,
1000000000376856,77717582707,mKarTel,mKcell,mKarTel,D02,D01,2017-05-03T14:06:42+06:00,
1000000000376856,77717582717,mKarTel,mKcell,mKarTel,D02,D01,2017-05-03T14:06:42+06:00,
1000000000376856,77717582808,mKarTel,mKcell,mKarTel,D02,D01,2017-05-03T14:06:42+06:00,
1000000000376856,77717582811,mKarTel,mKcell,mKarTel,D02,D01,2017-05-03T14:06:42+06:00,
1000000000376856,77717582822,mKarTel,mKcell,mKarTel,D02,D01,2017-05-03T14:06:42+06:00,
1000000000376856,77717582829,mKarTel,mKcell,mKarTel,D02,D01,2017-05-03T14:06:42+06:00,
1000000000376856,77717582848,mKarTel,mKcell,mKarTel,D02,D01,2017-05-03T14:06:42+06:00,
1000000000376856,77717582909,mKarTel,mKcell,mKarTel,D02,D01,2017-05-03T14:06:42+06:00,
1000000000376856,77717582910,mKarTel,mKcell,mKarTel,D02,D01,2017-05-03T14:06:42+06:00,
1000000000376856,77717582919,mKarTel,mKcell,mKarTel,D02,D01,2017-05-03T14:06:42+06:00,
1000000000376856,77717582981,mKarTel,mKcell,mKarTel,D02,D01,2017-05-03T14:06:42+06:00,
1000000000376856,77717583600,mKarTel,mKcell,mKarTel,D02,D01,2017-05-03T14:06:42+06:00,
1000000000376856,77717587111,mKarTel,mKcell,mKarTel,D02,D01,2017-05-03T14:06:42+06:00,
1000000000376856,77717587168,mKarTel,mKcell,mKarTel,D02,D01,2017-05-03T14:06:42+06:00,
1000000000376856,77717587276,mKarTel,mKcell,mKarTel,D02,D01,2017-05-03T14:06:42+06:00,
1000000000376856,77717587292,mKarTel,mKcell,mKarTel,D02,D01,2017-05-03T14:06:42+06:00,
1000000000376856,77717587390,mKarTel,mKcell,mKarTel,D02,D01,2017-05-03T14:06:42+06:00,
1000000000376856,77717587659,mKarTel,mKcell,mKarTel,D02,D01,2017-05-03T14:06:42+06:00,
1000000000376856,77717587685,mKarTel,mKcell,mKarTel,D02,D01,2017-05-03T14:06:42+06:00,
1000000000376856,77717587707,mKarTel,mKcell,mKarTel,D02,D01,2017-05-03T14:06:42+06:00,
1000000000376856,77717587783,mKarTel,mKcell,mKarTel,D02,D01,2017-05-03T14:06:42+06:00,
1000000000376856,77717587915,mKarTel,mKcell,mKarTel,D02,D01,2017-05-03T14:06:42+06:00,
1000000000376856,77773779121,mKarTel,mKcell,mKarTel,D02,D01,2017-05-03T14:06:42+06:00,
1000000000376856,77775020969,mKarTel,mKcell,mKarTel,D02,D01,2017-05-03T14:06:42+06:00,
1000000000376929,77717589559,mKarTel,mKcell,mKarTel,D02,D01,2017-05-03T14:16:29+06:00,
1000000000377220,77025358077,mKarTel,mKcell,mKcell,,D01,2017-05-03T14:02:30+06:00,
1000000000377221,77072220225,mKcell,mMTS,mMTS,,D02,2017-05-03T14:03:55+06:00,
1000000000377222,77027001987,mAltel,mMTS,mKcell,D77,D07,2017-05-03T14:04:49+06:00,
1000000000377223,77019955011,mMTS,mKcell,mKcell,,D77,2017-05-03T14:05:00+06:00,
1000000000377224,77081903076,mKarTel,mMTS,mAltel,D77,D01,2017-05-03T14:05:46+06:00,
1000000000377225,77022135198,mMTS,mKcell,mKcell,,D77,2017-05-03T14:06:47+06:00,
1000000000377228,77773893046,mAltel,mKarTel,mKarTel,,D07,2017-05-03T14:07:46+06:00,
1000000000377229,77758359703,mMTS,mKcell,mKcell,,D77,2017-05-03T14:09:18+06:00,
1000000000377230,77751823737,mKcell,mAltel,mKcell,D07,D02,2017-05-03T14:11:09+06:00,
1000000000377231,77004020205,mMTS,mAltel,mAltel,,D77,2017-05-03T14:13:00+06:00,
1000000000377232,77773960746,mKarTel,mMTS,mKarTel,D77,D01,2017-05-03T14:16:05+06:00,
1000000000377233,77472062126,mAltel,mMTS,mMTS,,D07,2017-05-03T14:16:26+06:00,
1000000000377234,77754604606,mKcell,mMTS,mKcell,D77,D02,2017-05-03T14:17:24+06:00,
1000000000377235,77073770700,mKcell,mMTS,mMTS,,D02,2017-05-03T14:17:17+06:00,
1000000000377238,77070390313,mAltel,mMTS,mMTS,,D07,2017-05-03T14:18:12+06:00,
1000000000377239,77759697773,mKarTel,mKcell,mKcell,,D01,2017-05-03T14:18:29+06:00,
1000000000377241,77776409545,mAltel,mKarTel,mKarTel,,D07,2017-05-03T14:19:26+06:00,
1000000000377244,77778793613,mMTS,mKarTel,mKarTel,,D77,2017-05-03T14:20:56+06:00,
1000000000377247,77774950121,mMTS,mKarTel,mKarTel,,D77,2017-05-03T14:21:29+06:00,
1000000000377251,77087010702,mMTS,mAltel,mAltel,,D77,2017-05-03T14:23:09+06:00,
1000000000377252,77015293671,mMTS,mKcell,mKcell,,D77,2017-05-03T14:23:22+06:00,
1000000000377255,77781457098,mMTS,mKcell,mKcell,,D77,2017-05-03T14:27:47+06:00,
