NPId,Number,RecipientId,DonorId,RangeHolderId,OldRoute,NewRoute,PortDate,RowCount
1000000000138852,77777778775,mMTS,mKarTel,mKarTel,,D77,2016-04-01T08:13:18+06:00,3
1000000000138853,77017075085,mAltel,mKcell,mKcell,,D07,2016-04-01T08:21:57+06:00,
1000000000138854,77019302339,mMTS,mKcell,mKcell,,D77,2016-04-01T08:22:03+06:00,
