NPId,Number,RecipientId,DonorId,RangeHolderId,OldRoute,NewRoute,PortDate,RowCount
1000000000098581,77715075444,mKcell,mKarTel,mKarTel,,D02,2016-02-24T20:31:57+06:00,5
1000000000098583,77788278281,mAltel,mKcell,mKcell,,D07,2016-02-24T20:45:36+06:00,
1000000000098585,77015555987,mAltel,mKcell,mKcell,,D07,2016-02-24T20:48:20+06:00,
1000000000098586,77784596151,mAltel,mKcell,mKcell,,D07,2016-02-24T20:52:17+06:00,
1000000000098588,77055998133,mKcell,mKarTel,mKarTel,,D02,2016-02-24T20:58:04+06:00,
