NPId,Number,RecipientId,DonorId,RangeHolderId,OldRoute,NewRoute,PortDate,RowCount
1000000000275939,77022221547,mKarTel,mKcell,mKcell,,D01,2016-11-08T17:44:05+06:00,31
1000000000276121,77012033896,mKarTel,mKcell,mKcell,,D01,2016-11-08T17:59:59+06:00,
1000000000276121,77012289096,mKarTel,mKcell,mKcell,,D01,2016-11-08T17:59:59+06:00,
1000000000276121,77015038028,mKarTel,mKcell,mKcell,,D01,2016-11-08T17:59:59+06:00,
1000000000276121,77015193544,mKarTel,mKcell,mKcell,,D01,2016-11-08T17:59:59+06:00,
1000000000276121,77015245971,mKarTel,mKcell,mKcell,,D01,2016-11-08T17:59:59+06:00,
1000000000276121,77017231762,mKarTel,mKcell,mKcell,,D01,2016-11-08T17:59:59+06:00,
1000000000276121,77017460489,mKarTel,mKcell,mKcell,,D01,2016-11-08T17:59:59+06:00,
1000000000276121,77017873497,mKarTel,mKcell,mKcell,,D01,2016-11-08T17:59:59+06:00,
1000000000276121,77017876044,mKarTel,mKcell,mKcell,,D01,2016-11-08T17:59:59+06:00,
1000000000276121,77017876046,mKarTel,mKcell,mKcell,,D01,2016-11-08T17:59:59+06:00,
1000000000276121,77018748890,mKarTel,mKcell,mKcell,,D01,2016-11-08T17:59:59+06:00,
1000000000276121,77018830604,mKarTel,mKcell,mKcell,,D01,2016-11-08T17:59:59+06:00,
1000000000276121,77019518237,mKarTel,mKcell,mKcell,,D01,2016-11-08T17:59:59+06:00,
1000000000276201,77019326362,mMTS,mKarTel,mKcell,D01,D77,2016-11-08T17:30:44+06:00,
1000000000276202,77051927392,mMTS,mKarTel,mKarTel,,D77,2016-11-08T17:32:54+06:00,
1000000000276203,77014084911,mAltel,mKcell,mKcell,,D07,2016-11-08T17:34:06+06:00,
1000000000276204,77715255519,mKcell,mKarTel,mKarTel,,D02,2016-11-08T17:35:09+06:00,
1000000000276207,77023599111,mMTS,mKcell,mKcell,,D77,2016-11-08T17:38:32+06:00,
1000000000276209,77057458847,mMTS,mKarTel,mKarTel,,D77,2016-11-08T17:40:29+06:00,
1000000000276210,77770131542,mMTS,mKarTel,mKarTel,,D77,2016-11-08T17:40:43+06:00,
1000000000276211,77019594554,mMTS,mKcell,mKcell,,D77,2016-11-08T17:40:48+06:00,
1000000000276214,77018875317,mMTS,mKcell,mKcell,,D77,2016-11-08T17:43:05+06:00,
1000000000276215,77758112688,mMTS,mKcell,mKcell,,D77,2016-11-08T17:43:14+06:00,
1000000000276216,77017552603,mKcell,mMTS,mKcell,D77,D02,2016-11-08T17:43:38+06:00,
1000000000276218,77025178509,mAltel,mKcell,mKcell,,D07,2016-11-08T17:57:34+06:00,
1000000000276220,77058264402,mKcell,mKarTel,mKarTel,,D02,2016-11-08T17:47:53+06:00,
1000000000276222,77082222062,mAltel,mKcell,mAltel,D02,D07,2016-11-08T17:57:39+06:00,
1000000000276223,77022952858,mMTS,mKcell,mKcell,,D77,2016-11-08T17:49:31+06:00,
1000000000276225,77010990515,mKcell,mKarTel,mKcell,D01,D02,2016-11-08T17:51:13+06:00,
1000000000276227,77750289198,mKcell,mAltel,mKcell,D07,D02,2016-11-08T17:58:01+06:00,
