NPId,Number,RecipientId,DonorId,RangeHolderId,OldRoute,NewRoute,PortDate,RowCount
1000000000344152,77754606565,mMTS,mKcell,mKcell,,D77,2017-03-10T11:01:52+06:00,16
1000000000344153,77023063066,mMTS,mKcell,mKcell,,D77,2017-03-10T11:02:49+06:00,
1000000000344154,77787025844,mMTS,mKcell,mKcell,,D77,2017-03-10T11:04:56+06:00,
1000000000344157,77013104433,mKarTel,mKcell,mKcell,,D01,2017-03-10T11:09:49+06:00,
1000000000344158,77001107001,mKcell,mAltel,mAltel,,D02,2017-03-10T11:10:08+06:00,
1000000000344159,77025086333,mAltel,mKcell,mKcell,,D07,2017-03-10T11:10:38+06:00,
1000000000344160,77073572560,mKarTel,mMTS,mMTS,,D01,2017-03-10T11:11:10+06:00,
1000000000344161,77758782888,mMTS,mKcell,mKcell,,D77,2017-03-10T11:11:40+06:00,
1000000000344163,77751090909,mMTS,mKcell,mKcell,,D77,2017-03-10T11:12:48+06:00,
1000000000344164,77012902460,mMTS,mKcell,mKcell,,D77,2017-03-10T11:14:04+06:00,
1000000000344165,77017539398,mKcell,mKarTel,mKcell,D01,D02,2017-03-10T11:22:10+06:00,
1000000000344166,77751505458,mMTS,mKcell,mKcell,,D77,2017-03-10T11:23:05+06:00,
1000000000344167,77772299803,mKcell,mKarTel,mKarTel,,D02,2017-03-10T11:24:46+06:00,
1000000000344168,77074515253,mKcell,mMTS,mMTS,,D02,2017-03-10T11:25:29+06:00,
1000000000344169,77477003590,mAltel,mMTS,mMTS,,D07,2017-03-10T11:25:22+06:00,
1000000000344170,77021214132,mMTS,mKcell,mKcell,,D77,2017-03-10T11:27:37+06:00,
