NPId,Number,RecipientId,DonorId,RangeHolderId,OldRoute,NewRoute,PortDate,RowCount
1000000000429987,77021877696,mKcell,mMTS,mKcell,D77,D02,2017-07-28T16:31:23+06:00,27
1000000000429988,77477235850,mKcell,mMTS,mMTS,,D02,2017-07-28T16:31:51+06:00,
1000000000429989,77789634308,mAltel,mKcell,mKcell,,D07,2017-07-28T16:32:59+06:00,
1000000000429992,77057373337,mMTS,mKarTel,mKarTel,,D77,2017-07-28T16:37:45+06:00,
1000000000429993,77712772029,mMTS,mAltel,mKarTel,D07,D77,2017-07-28T16:37:56+06:00,
1000000000429994,77022261991,mAltel,mKcell,mKcell,,D07,2017-07-28T16:38:45+06:00,
1000000000429997,77003390516,mAltel,mKcell,mAltel,D02,D07,2017-07-28T16:40:38+06:00,
1000000000429998,77071318191,mMTS,mKcell,mMTS,D02,D77,2017-07-28T16:41:22+06:00,
1000000000429999,77078680606,mAltel,mMTS,mMTS,,D07,2017-07-28T16:42:57+06:00,
1000000000430001,77071998911,mKcell,mKarTel,mMTS,D01,D02,2017-07-28T16:44:40+06:00,
1000000000430003,77472031521,mKarTel,mMTS,mMTS,,D01,2017-07-28T16:44:24+06:00,
1000000000430004,77752591051,mAltel,mKcell,mKcell,,D07,2017-07-28T16:45:28+06:00,
1000000000430006,77778155050,mMTS,mKarTel,mKarTel,,D77,2017-07-28T16:48:32+06:00,
1000000000430007,77776775102,mMTS,mKarTel,mKarTel,,D77,2017-07-28T16:48:57+06:00,
1000000000430008,77028766647,mKarTel,mKcell,mKcell,,D01,2017-07-28T16:49:59+06:00,
1000000000430009,77088285131,mMTS,mAltel,mAltel,,D77,2017-07-28T16:50:54+06:00,
1000000000430010,77075030657,mKarTel,mMTS,mMTS,,D01,2017-07-28T16:51:48+06:00,
1000000000430010,77075030660,mKarTel,mMTS,mMTS,,D01,2017-07-28T16:51:48+06:00,
1000000000430011,77014339909,mKarTel,mMTS,mKcell,D77,D01,2017-07-28T16:52:18+06:00,
1000000000430012,77014824682,mAltel,mKcell,mKcell,,D07,2017-07-28T16:52:37+06:00,
1000000000430013,77014824648,mAltel,mKcell,mKcell,,D07,2017-07-28T16:55:08+06:00,
1000000000430014,77005600000,mKcell,mAltel,mAltel,,D02,2017-07-28T16:56:12+06:00,
1000000000430015,77712772277,mKcell,mKarTel,mKarTel,,D02,2017-07-28T16:57:20+06:00,
1000000000430017,77079921992,mKarTel,mMTS,mMTS,,D01,2017-07-28T16:58:00+06:00,
1000000000430018,77007707869,mKarTel,mAltel,mAltel,,D01,2017-07-28T16:58:00+06:00,
1000000000430019,77052626636,mMTS,mKarTel,mKarTel,,D77,2017-07-28T16:58:16+06:00,
1000000000430020,77754005069,mKarTel,mKcell,mKcell,,D01,2017-07-28T16:59:48+06:00,
