NPId,Number,RecipientId,DonorId,RangeHolderId,OldRoute,NewRoute,PortDate,RowCount
1000000000390692,77478445152,mKcell,mMTS,mMTS,,D02,2017-05-27T12:00:16+06:00,17
1000000000390694,77071027330,mAltel,mMTS,mMTS,,D07,2017-05-27T12:02:50+06:00,
1000000000390695,77017566354,mMTS,mKcell,mKcell,,D77,2017-05-27T12:03:42+06:00,
1000000000390696,77017893250,mMTS,mKarTel,mKcell,D01,D77,2017-05-27T12:05:08+06:00,
1000000000390699,77018886928,mKcell,mKarTel,mKcell,D01,D02,2017-05-27T12:08:48+06:00,
1000000000390700,77001647010,mMTS,mAltel,mAltel,,D77,2017-05-27T12:11:13+06:00,
1000000000390703,77714672331,mKarTel,mAltel,mKarTel,D07,D01,2017-05-27T12:14:46+06:00,
1000000000390704,77772144735,mMTS,mKarTel,mKarTel,,D77,2017-05-27T12:15:24+06:00,
1000000000390705,77774971124,mMTS,mKarTel,mKarTel,,D77,2017-05-27T12:17:24+06:00,
1000000000390708,77052299931,mKcell,mKarTel,mKarTel,,D02,2017-05-27T12:22:08+06:00,
1000000000390709,77014809546,mMTS,mKcell,mKcell,,D77,2017-05-27T12:22:50+06:00,
1000000000390711,77013118824,mKcell,mAltel,mKcell,D07,D02,2017-05-27T12:24:31+06:00,
1000000000390712,77751993131,mMTS,mKcell,mKcell,,D77,2017-05-27T12:26:39+06:00,
1000000000390715,77014807162,mMTS,mKcell,mKcell,,D77,2017-05-27T12:27:51+06:00,
1000000000390716,77014806673,mMTS,mKcell,mKcell,,D77,2017-05-27T12:27:53+06:00,
1000000000390717,77003928677,mKcell,mAltel,mAltel,,D02,2017-05-27T12:28:00+06:00,
1000000000390718,77025448075,mAltel,mKcell,mKcell,,D07,2017-05-27T12:28:15+06:00,
