NPId,Number,RecipientId,DonorId,RangeHolderId,OldRoute,NewRoute,PortDate,RowCount
1000000000436208,77074962685,mKarTel,mMTS,mMTS,,D01,2017-08-07T15:32:32+06:00,30
1000000000436209,77013526434,mKcell,mKarTel,mKcell,D01,D02,2017-08-07T15:33:16+06:00,
1000000000436210,77073879591,mAltel,mMTS,mMTS,,D07,2017-08-07T15:32:49+06:00,
1000000000436211,77021387468,mMTS,mKcell,mKcell,,D77,2017-08-07T15:33:19+06:00,
1000000000436214,77075072605,mKarTel,mMTS,mMTS,,D01,2017-08-07T15:34:10+06:00,
1000000000436216,77753944361,mKarTel,mKcell,mKcell,,D01,2017-08-07T15:35:01+06:00,
1000000000436218,77710562087,mKcell,mKarTel,mKarTel,,D02,2017-08-07T15:36:24+06:00,
1000000000436221,77014308881,mKcell,mMTS,mKcell,D77,D02,2017-08-07T15:36:54+06:00,
1000000000436223,77012250903,mAltel,mKcell,mKcell,,D07,2017-08-07T15:38:10+06:00,
1000000000436224,77764046060,mAltel,mKarTel,mKarTel,,D07,2017-08-07T15:38:25+06:00,
1000000000436225,77017779964,mMTS,mKcell,mKcell,,D77,2017-08-07T15:38:18+06:00,
1000000000436226,77081020518,mMTS,mKarTel,mAltel,D01,D77,2017-08-07T15:38:40+06:00,
1000000000436227,77754087790,mKcell,mMTS,mKcell,D77,D02,2017-08-07T15:40:08+06:00,
1000000000436228,77772319426,mKarTel,mAltel,mKarTel,D07,D01,2017-08-07T15:40:08+06:00,
1000000000436230,77013636446,mKarTel,mKcell,mKcell,,D01,2017-08-07T15:42:35+06:00,
1000000000436231,77011577742,mMTS,mKcell,mKcell,,D77,2017-08-07T15:42:27+06:00,
1000000000436232,77078126590,mKcell,mMTS,mMTS,D77,D02,2017-08-07T15:42:39+06:00,
1000000000436234,77028535518,mMTS,mKcell,mKcell,,D77,2017-08-07T15:43:28+06:00,
1000000000436235,77010820303,mAltel,mKcell,mKcell,,D07,2017-08-07T15:45:16+06:00,
1000000000436236,77013809669,mKarTel,mKcell,mKcell,,D01,2017-08-07T15:46:29+06:00,
1000000000436237,77789990523,mKarTel,mKcell,mKcell,,D01,2017-08-07T15:47:19+06:00,
1000000000436238,77778507263,mKcell,mKarTel,mKarTel,,D02,2017-08-07T15:49:40+06:00,
1000000000436240,77772630964,mAltel,mKarTel,mKarTel,,D07,2017-08-07T15:51:56+06:00,
1000000000436241,77012126918,mKarTel,mKcell,mKcell,,D01,2017-08-07T15:52:40+06:00,
1000000000436243,77015241871,mKcell,mMTS,mKcell,D77,D02,2017-08-07T15:55:19+06:00,
1000000000436244,77473654557,mAltel,mMTS,mMTS,,D07,2017-08-07T15:55:05+06:00,
1000000000436245,77752914710,mKarTel,mKcell,mKcell,,D01,2017-08-07T15:56:39+06:00,
1000000000436246,77028771206,mAltel,mKcell,mKcell,,D07,2017-08-07T15:57:14+06:00,
1000000000436251,77024248498,mMTS,mKcell,mKcell,,D77,2017-08-07T15:59:43+06:00,
1000000000436252,77757925252,mAltel,mKcell,mKcell,,D07,2017-08-07T15:59:49+06:00,
