NPId,Number,RecipientId,DonorId,RangeHolderId,OldRoute,NewRoute,PortDate,RowCount
1000000000245343,77051170588,mKcell,mKarTel,mKarTel,,D02,2016-09-14T14:36:42+06:00,25
1000000000245352,77059773232,mKcell,mKarTel,mKarTel,,D02,2016-09-14T14:40:24+06:00,
1000000000245361,77715065592,mKcell,mKarTel,mKarTel,,D02,2016-09-14T14:45:45+06:00,
1000000000245363,77757013606,mMTS,mKcell,mKcell,,D77,2016-09-14T14:30:14+06:00,
1000000000245364,77715527210,mKcell,mKarTel,mKarTel,,D02,2016-09-14T14:48:38+06:00,
1000000000245365,77011118257,mKarTel,mKcell,mKcell,,D01,2016-09-14T14:31:28+06:00,
1000000000245366,77076242303,mKcell,mMTS,mMTS,,D02,2016-09-14T14:32:42+06:00,
1000000000245367,77477777010,mKcell,mMTS,mMTS,,D02,2016-09-14T14:33:20+06:00,
1000000000245369,77053668888,mKcell,mMTS,mKarTel,D77,D02,2016-09-14T14:35:15+06:00,
1000000000245370,77051894625,mMTS,mKarTel,mKarTel,,D77,2016-09-14T14:37:16+06:00,
1000000000245371,77779990202,mKcell,mKarTel,mKarTel,,D02,2016-09-14T14:38:17+06:00,
1000000000245373,77777488900,mMTS,mKarTel,mKarTel,,D77,2016-09-14T14:40:11+06:00,
1000000000245374,77753367357,mKcell,mAltel,mKcell,D07,D02,2016-09-14T14:39:57+06:00,
1000000000245375,77073215110,mKcell,mMTS,mMTS,,D02,2016-09-14T14:42:35+06:00,
1000000000245376,77083710915,mMTS,mAltel,mAltel,,D77,2016-09-14T14:44:33+06:00,
1000000000245377,77024053735,mKarTel,mKcell,mKcell,,D01,2016-09-14T14:46:56+06:00,
1000000000245379,77053285555,mKcell,mKarTel,mKarTel,,D02,2016-09-14T14:50:07+06:00,
1000000000245380,77752488187,mMTS,mKcell,mKcell,,D77,2016-09-14T14:48:12+06:00,
1000000000245381,77057421548,mKarTel,mMTS,mKarTel,D77,D01,2016-09-14T14:51:20+06:00,
1000000000245382,77023704128,mMTS,mKcell,mKcell,,D77,2016-09-14T14:52:31+06:00,
1000000000245385,77083516273,mKcell,mMTS,mAltel,D77,D02,2016-09-14T14:53:26+06:00,
1000000000245389,77757192996,mMTS,mKcell,mKcell,,D77,2016-09-14T14:57:35+06:00,
1000000000245391,77021203739,mMTS,mKcell,mKcell,,D77,2016-09-14T14:57:35+06:00,
1000000000245392,77759221922,mMTS,mKcell,mKcell,,D77,2016-09-14T14:58:45+06:00,
1000000000245393,77017800546,mKarTel,mKcell,mKcell,,D01,2016-09-14T14:59:45+06:00,
