NPId,Number,RecipientId,DonorId,RangeHolderId,OldRoute,NewRoute,PortDate,RowCount
1000000000327160,77018714545,mKarTel,mMTS,mKcell,D77,D01,2017-02-11T09:09:15+06:00,2
1000000000327160,77772125887,mKarTel,mMTS,mKarTel,D77,D01,2017-02-11T09:09:15+06:00,
