NPId,Number,RecipientId,DonorId,RangeHolderId,OldRoute,NewRoute,PortDate,RowCount
1000000000202449,77019550140,mKarTel,mKcell,mKcell,,D01,2016-06-29T17:04:13+06:00,76
1000000000202449,77019550143,mKarTel,mKcell,mKcell,,D01,2016-06-29T17:04:13+06:00,
1000000000202449,77019550150,mKarTel,mKcell,mKcell,,D01,2016-06-29T17:04:13+06:00,
1000000000202449,77019550153,mKarTel,mKcell,mKcell,,D01,2016-06-29T17:04:13+06:00,
1000000000202449,77019550154,mKarTel,mKcell,mKcell,,D01,2016-06-29T17:04:13+06:00,
1000000000202449,77019550156,mKarTel,mKcell,mKcell,,D01,2016-06-29T17:04:13+06:00,
1000000000202449,77019550251,mKarTel,mKcell,mKcell,,D01,2016-06-29T17:04:13+06:00,
1000000000202449,77019550252,mKarTel,mKcell,mKcell,,D01,2016-06-29T17:04:13+06:00,
1000000000202449,77019550254,mKarTel,mKcell,mKcell,,D01,2016-06-29T17:04:13+06:00,
1000000000202449,77019550255,mKarTel,mKcell,mKcell,,D01,2016-06-29T17:04:13+06:00,
1000000000202449,77019550256,mKarTel,mKcell,mKcell,,D01,2016-06-29T17:04:13+06:00,
1000000000202449,77019550257,mKarTel,mKcell,mKcell,,D01,2016-06-29T17:04:13+06:00,
1000000000202449,77019550283,mKarTel,mKcell,mKcell,,D01,2016-06-29T17:04:13+06:00,
1000000000202449,77019550296,mKarTel,mKcell,mKcell,,D01,2016-06-29T17:04:13+06:00,
1000000000202449,77019550516,mKarTel,mKcell,mKcell,,D01,2016-06-29T17:04:13+06:00,
1000000000202449,77019550520,mKarTel,mKcell,mKcell,,D01,2016-06-29T17:04:13+06:00,
1000000000202449,77019550541,mKarTel,mKcell,mKcell,,D01,2016-06-29T17:04:13+06:00,
1000000000202449,77019550549,mKarTel,mKcell,mKcell,,D01,2016-06-29T17:04:13+06:00,
1000000000202449,77019550945,mKarTel,mKcell,mKcell,,D01,2016-06-29T17:04:13+06:00,
1000000000202449,77019551257,mKarTel,mKcell,mKcell,,D01,2016-06-29T17:04:13+06:00,
1000000000202449,77019552124,mKarTel,mKcell,mKcell,,D01,2016-06-29T17:04:13+06:00,
1000000000202449,77019552420,mKarTel,mKcell,mKcell,,D01,2016-06-29T17:04:13+06:00,
1000000000202449,77019553166,mKarTel,mKcell,mKcell,,D01,2016-06-29T17:04:13+06:00,
1000000000202449,77019553170,mKarTel,mKcell,mKcell,,D01,2016-06-29T17:04:13+06:00,
1000000000202449,77019553210,mKarTel,mKcell,mKcell,,D01,2016-06-29T17:04:13+06:00,
1000000000202449,77019553459,mKarTel,mKcell,mKcell,,D01,2016-06-29T17:04:13+06:00,
1000000000202449,77019554901,mKarTel,mKcell,mKcell,,D01,2016-06-29T17:04:13+06:00,
1000000000202449,77019554902,mKarTel,mKcell,mKcell,,D01,2016-06-29T17:04:13+06:00,
1000000000202449,77019554903,mKarTel,mKcell,mKcell,,D01,2016-06-29T17:04:13+06:00,
1000000000202449,77019554905,mKarTel,mKcell,mKcell,,D01,2016-06-29T17:04:13+06:00,
1000000000202449,77019554907,mKarTel,mKcell,mKcell,,D01,2016-06-29T17:04:13+06:00,
1000000000202449,77019554910,mKarTel,mKcell,mKcell,,D01,2016-06-29T17:04:13+06:00,
1000000000202449,77019555097,mKarTel,mKcell,mKcell,,D01,2016-06-29T17:04:13+06:00,
1000000000202449,77019555526,mKarTel,mKcell,mKcell,,D01,2016-06-29T17:04:13+06:00,
1000000000202449,77019555537,mKarTel,mKcell,mKcell,,D01,2016-06-29T17:04:13+06:00,
1000000000202449,77019555582,mKarTel,mKcell,mKcell,,D01,2016-06-29T17:04:13+06:00,
1000000000202449,77019555586,mKarTel,mKcell,mKcell,,D01,2016-06-29T17:04:13+06:00,
1000000000202449,77019555596,mKarTel,mKcell,mKcell,,D01,2016-06-29T17:04:13+06:00,
1000000000202449,77019555621,mKarTel,mKcell,mKcell,,D01,2016-06-29T17:04:13+06:00,
1000000000202449,77019557570,mKarTel,mKcell,mKcell,,D01,2016-06-29T17:04:13+06:00,
1000000000202449,77019919934,mKarTel,mKcell,mKcell,,D01,2016-06-29T17:04:13+06:00,
1000000000202449,77019919943,mKarTel,mKcell,mKcell,,D01,2016-06-29T17:04:13+06:00,
1000000000202449,77019919946,mKarTel,mKcell,mKcell,,D01,2016-06-29T17:04:13+06:00,
1000000000202449,77019919947,mKarTel,mKcell,mKcell,,D01,2016-06-29T17:04:13+06:00,
1000000000202603,77019451001,mAltel,mKcell,mKcell,,D07,2016-06-29T17:03:08+06:00,
1000000000202604,77781066464,mMTS,mKcell,mKcell,,D77,2016-06-29T17:03:08+06:00,
1000000000202608,77473413042,mKcell,mMTS,mMTS,,D02,2016-06-29T17:08:10+06:00,
1000000000202610,77017140714,mKarTel,mKcell,mKcell,,D01,2016-06-29T17:03:27+06:00,
1000000000202611,77017765009,mKarTel,mKcell,mKcell,,D01,2016-06-29T17:03:26+06:00,
1000000000202612,77013600065,mMTS,mKcell,mKcell,,D77,2016-06-29T17:03:08+06:00,
1000000000202613,77077007555,mMTS,mAltel,mMTS,D07,D77,2016-06-29T17:02:06+06:00,
1000000000202614,77024989827,mKcell,mMTS,mKcell,D77,D02,2016-06-29T17:14:46+06:00,
1000000000202616,77758310000,mKcell,mMTS,mKcell,D77,D02,2016-06-29T17:14:45+06:00,
1000000000202619,77000001037,mMTS,mAltel,mAltel,,D77,2016-06-29T17:02:54+06:00,
1000000000202620,77471536566,mAltel,mMTS,mMTS,,D07,2016-06-29T17:03:33+06:00,
1000000000202621,77000007070,mMTS,mAltel,mAltel,,D77,2016-06-29T17:05:01+06:00,
1000000000202622,77012790304,mKcell,mMTS,mKcell,D77,D02,2016-06-29T17:16:21+06:00,
1000000000202627,77751600152,mKcell,mMTS,mKcell,D77,D02,2016-06-29T17:18:25+06:00,
1000000000202628,77051457599,mMTS,mKarTel,mKarTel,,D77,2016-06-29T17:15:33+06:00,
1000000000202629,77016138767,mMTS,mKcell,mKcell,,D77,2016-06-29T17:18:53+06:00,
1000000000202630,77088078007,mKarTel,mAltel,mAltel,,D01,2016-06-29T17:15:55+06:00,
1000000000202631,77075000474,mKcell,mMTS,mMTS,,D02,2016-06-29T17:18:26+06:00,
1000000000202632,77015835003,mKcell,mKarTel,mKcell,D01,D02,2016-06-29T17:18:27+06:00,
1000000000202634,77070440801,mKarTel,mMTS,mMTS,,D01,2016-06-29T17:17:09+06:00,
1000000000202634,77479807517,mKarTel,mMTS,mMTS,,D01,2016-06-29T17:17:09+06:00,
1000000000202635,77779435005,mKcell,mMTS,mKarTel,D77,D02,2016-06-29T17:18:28+06:00,
1000000000202636,77012161010,mKcell,mAltel,mKcell,D07,D02,2016-06-29T17:18:29+06:00,
1000000000202639,77018915810,mKarTel,mKcell,mKcell,,D01,2016-06-29T17:21:02+06:00,
1000000000202641,77058721968,mMTS,mKarTel,mKarTel,,D77,2016-06-29T17:19:51+06:00,
1000000000202644,77054455530,mMTS,mKarTel,mKarTel,,D77,2016-06-29T17:21:10+06:00,
1000000000202645,77087209937,mAltel,mKarTel,mAltel,D01,D07,2016-06-29T17:22:11+06:00,
1000000000202646,77713566717,mMTS,mKarTel,mKarTel,,D77,2016-06-29T17:22:35+06:00,
1000000000202653,77712162326,mKarTel,mMTS,mKarTel,D77,D01,2016-06-29T17:26:06+06:00,
1000000000202654,77770835920,mMTS,mKarTel,mKarTel,,D77,2016-06-29T17:26:27+06:00,
1000000000202656,77009923458,mMTS,mAltel,mAltel,,D77,2016-06-29T17:26:49+06:00,
1000000000202659,77053236723,mKarTel,mMTS,mKarTel,D77,D01,2016-06-29T17:29:53+06:00,
