NPId,Number,RecipientId,DonorId,RangeHolderId,OldRoute,NewRoute,PortDate,RowCount
1000000000446490,77001007838,mKcell,mAltel,mAltel,,D02,2017-08-26T19:00:33+06:00,9
1000000000446491,77001007323,mKcell,mAltel,mAltel,,D02,2017-08-26T19:00:57+06:00,
1000000000446492,77001003767,mKcell,mAltel,mAltel,,D02,2017-08-26T19:02:47+06:00,
1000000000446495,77001003252,mKcell,mAltel,mAltel,,D02,2017-08-26T19:14:33+06:00,
1000000000446496,77760171770,mKarTel,mMTS,mKarTel,D77,D01,2017-08-26T19:14:43+06:00,
1000000000446497,77008877668,mKcell,mAltel,mAltel,,D02,2017-08-26T19:14:39+06:00,
1000000000446498,77001002868,mKcell,mAltel,mAltel,,D02,2017-08-26T19:17:06+06:00,
1000000000446499,77752327599,mKcell,mMTS,mKcell,D77,D02,2017-08-26T19:18:58+06:00,
1000000000446500,77001004373,mKcell,mAltel,mAltel,,D02,2017-08-26T19:19:17+06:00,
