NPId,Number,RecipientId,DonorId,RangeHolderId,OldRoute,NewRoute,PortDate,RowCount
1000000000277378,77710004844,mKarTel,mMTS,mKarTel,D77,D01,2016-11-10T17:06:23+06:00,23
1000000000277379,77759005555,mKarTel,mKcell,mKcell,,D01,2016-11-10T17:08:05+06:00,
1000000000277380,77007601988,mKarTel,mAltel,mAltel,,D01,2016-11-10T17:09:29+06:00,
1000000000277381,77018480068,mMTS,mKarTel,mKcell,D01,D77,2016-11-10T17:09:47+06:00,
1000000000277382,77015887199,mKarTel,mMTS,mKcell,D77,D01,2016-11-10T17:09:45+06:00,
1000000000277383,77024743419,mKcell,mKarTel,mKcell,D01,D02,2016-11-10T17:11:04+06:00,
1000000000277385,77710003202,mKcell,mKarTel,mKarTel,,D02,2016-11-10T17:11:45+06:00,
1000000000277386,77029977262,mKcell,mMTS,mKcell,D77,D02,2016-11-10T17:11:14+06:00,
1000000000277387,77082952488,mKarTel,mAltel,mAltel,,D01,2016-11-10T17:11:55+06:00,
1000000000277388,77753939340,mMTS,mKcell,mKcell,,D77,2016-11-10T17:12:41+06:00,
1000000000277391,77020770071,mAltel,mKcell,mKcell,,D07,2016-11-10T17:14:01+06:00,
1000000000277392,77019144899,mKarTel,mKcell,mKcell,,D01,2016-11-10T17:15:52+06:00,
1000000000277393,77001231155,mKarTel,mAltel,mAltel,,D01,2016-11-10T17:15:57+06:00,
1000000000277396,77758493532,mKarTel,mKcell,mKcell,,D01,2016-11-10T17:17:59+06:00,
1000000000277397,77012319756,mKcell,mMTS,mKcell,D77,D02,2016-11-10T17:18:50+06:00,
1000000000277398,77087700058,mKcell,mAltel,mAltel,,D02,2016-11-10T17:18:46+06:00,
1000000000277399,77017314285,mAltel,mKcell,mKcell,,D07,2016-11-10T17:19:00+06:00,
1000000000277400,77029299299,mAltel,mKcell,mKcell,,D07,2016-11-10T17:20:03+06:00,
1000000000277401,77000808000,mKcell,mAltel,mAltel,,D02,2016-11-10T17:20:12+06:00,
1000000000277402,77025558962,mKcell,mMTS,mKcell,D77,D02,2016-11-10T17:21:12+06:00,
1000000000277404,77774499355,mKarTel,mMTS,mKarTel,D77,D01,2016-11-10T17:22:21+06:00,
1000000000277405,77754142223,mMTS,mKcell,mKcell,,D77,2016-11-10T17:22:56+06:00,
1000000000277408,77087566729,mKcell,mMTS,mAltel,D77,D02,2016-11-10T17:28:49+06:00,
