NPId,Number,RecipientId,DonorId,RangeHolderId,OldRoute,NewRoute,PortDate,RowCount
1000000000297274,77017752980,mMTS,mKcell,mKcell,,D77,2016-12-19T17:33:03+06:00,17
1000000000297275,77071666848,mKcell,mMTS,mMTS,,D02,2016-12-19T17:33:52+06:00,
1000000000297276,77085498484,mMTS,mAltel,mAltel,,D77,2016-12-19T17:36:32+06:00,
1000000000297280,77012516226,mMTS,mKcell,mKcell,,D77,2016-12-19T17:39:14+06:00,
1000000000297281,77017717771,mKarTel,mKcell,mKcell,,D01,2016-12-19T17:42:27+06:00,
1000000000297283,77052238951,mKarTel,mKcell,mKarTel,D02,D01,2016-12-19T17:44:20+06:00,
1000000000297284,77004608252,mMTS,mAltel,mAltel,,D77,2016-12-19T17:44:27+06:00,
1000000000297286,77089418947,mKcell,mAltel,mAltel,,D02,2016-12-19T17:46:02+06:00,
1000000000297287,77779601371,mKarTel,mMTS,mKarTel,D77,D01,2016-12-19T17:46:10+06:00,
1000000000297288,77772137049,mAltel,mKarTel,mKarTel,,D07,2016-12-19T17:46:19+06:00,
1000000000297289,77054849999,mKcell,mKarTel,mKarTel,,D02,2016-12-19T17:48:03+06:00,
1000000000297291,77054080103,mMTS,mKarTel,mKarTel,,D77,2016-12-19T17:49:03+06:00,
1000000000297293,77787099993,mKarTel,mAltel,mKcell,D07,D01,2016-12-19T17:51:05+06:00,
1000000000297294,77024004044,mKarTel,mKcell,mKcell,,D01,2016-12-19T17:51:25+06:00,
1000000000297295,77018013739,mMTS,mKcell,mKcell,,D77,2016-12-19T17:51:27+06:00,
1000000000297296,77779300004,mMTS,mKarTel,mKarTel,,D77,2016-12-19T17:53:01+06:00,
1000000000297297,77026463299,mAltel,mKcell,mKcell,,D07,2016-12-19T17:55:27+06:00,
