NPId,Number,RecipientId,DonorId,RangeHolderId,OldRoute,NewRoute,PortDate,RowCount
1000000000337156,77715585906,mMTS,mKarTel,mKarTel,,D77,2017-02-28T15:39:15+06:00,63
1000000000337161,77719933221,mMTS,mKarTel,mKarTel,,D77,2017-02-28T15:40:47+06:00,
1000000000337165,77012045774,mKcell,mKarTel,mKcell,D01,D02,2017-02-28T15:42:04+06:00,
1000000000337170,77717087917,mMTS,mKarTel,mKarTel,,D77,2017-02-28T15:42:56+06:00,
1000000000337180,77715585923,mMTS,mKarTel,mKarTel,,D77,2017-02-28T15:52:11+06:00,
1000000000337183,77719909140,mMTS,mKarTel,mKarTel,,D77,2017-02-28T15:52:11+06:00,
1000000000337187,77715585927,mMTS,mKarTel,mKarTel,,D77,2017-02-28T15:52:11+06:00,
1000000000337193,77715585922,mMTS,mKarTel,mKarTel,,D77,2017-02-28T15:52:11+06:00,
1000000000337204,77779501505,mMTS,mKarTel,mKarTel,,D77,2017-02-28T15:52:13+06:00,
1000000000337207,77717087910,mMTS,mKarTel,mKarTel,,D77,2017-02-28T15:52:13+06:00,
1000000000337208,77715585939,mMTS,mKarTel,mKarTel,,D77,2017-02-28T15:52:13+06:00,
1000000000337209,77719907844,mMTS,mKarTel,mKarTel,,D77,2017-02-28T15:52:13+06:00,
1000000000337212,77715585932,mMTS,mKarTel,mKarTel,,D77,2017-02-28T15:52:17+06:00,
1000000000337214,77012142615,mKcell,mKarTel,mKcell,D01,D02,2017-02-28T15:52:20+06:00,
1000000000337216,77715585912,mMTS,mKarTel,mKarTel,,D77,2017-02-28T15:52:17+06:00,
1000000000337224,77717087914,mMTS,mKarTel,mKarTel,,D77,2017-02-28T15:52:17+06:00,
1000000000337228,77719909136,mMTS,mKarTel,mKarTel,,D77,2017-02-28T15:52:17+06:00,
1000000000337231,77717087906,mMTS,mKarTel,mKarTel,,D77,2017-02-28T15:52:17+06:00,
1000000000337237,77719909138,mMTS,mKarTel,mKarTel,,D77,2017-02-28T15:52:19+06:00,
1000000000337239,77715585911,mMTS,mKarTel,mKarTel,,D77,2017-02-28T15:52:19+06:00,
1000000000337263,77012205804,mKcell,mKarTel,mKcell,D01,D02,2017-02-28T15:52:30+06:00,
1000000000337286,77756665381,mMTS,mKcell,mKcell,,D77,2017-02-28T15:31:22+06:00,
1000000000337287,77016953637,mMTS,mKcell,mKcell,,D77,2017-02-28T15:31:30+06:00,
1000000000337289,77757673820,mKarTel,mKcell,mKcell,,D01,2017-02-28T15:32:24+06:00,
1000000000337291,77783473503,mMTS,mKcell,mKcell,,D77,2017-02-28T15:32:50+06:00,
1000000000337292,77055792000,mKcell,mMTS,mKarTel,D77,D02,2017-02-28T15:33:27+06:00,
1000000000337293,77002470737,mMTS,mKarTel,mAltel,D01,D77,2017-02-28T15:34:29+06:00,
1000000000337294,77015243036,mAltel,mKcell,mKcell,,D07,2017-02-28T15:34:23+06:00,
1000000000337295,77004353565,mKcell,mAltel,mAltel,,D02,2017-02-28T15:35:16+06:00,
1000000000337296,77479136417,mMTS,mKarTel,mMTS,D01,D77,2017-02-28T15:36:02+06:00,
1000000000337298,77004252535,mKcell,mAltel,mAltel,,D02,2017-02-28T15:37:48+06:00,
1000000000337299,77766800437,mMTS,mKarTel,mKarTel,,D77,2017-02-28T15:38:09+06:00,
1000000000337300,77783476413,mMTS,mKcell,mKcell,,D77,2017-02-28T15:37:49+06:00,
1000000000337302,77017773239,mMTS,mKcell,mKcell,,D77,2017-02-28T15:38:42+06:00,
1000000000337303,77015309742,mMTS,mKarTel,mKcell,D01,D77,2017-02-28T15:39:48+06:00,
1000000000337305,77088012072,mMTS,mKarTel,mAltel,D01,D77,2017-02-28T15:40:40+06:00,
1000000000337307,77077311294,mKcell,mMTS,mMTS,,D02,2017-02-28T15:41:24+06:00,
1000000000337309,77028793732,mAltel,mKcell,mKcell,,D07,2017-02-28T15:41:37+06:00,
1000000000337313,77078038380,mKarTel,mMTS,mMTS,,D01,2017-02-28T15:43:41+06:00,
1000000000337314,77053344400,mKarTel,mKcell,mKarTel,D02,D01,2017-02-28T15:51:28+06:00,
1000000000337315,77025032291,mAltel,mKcell,mKcell,,D07,2017-02-28T15:46:04+06:00,
1000000000337316,77015166168,mMTS,mKarTel,mKcell,D01,D77,2017-02-28T15:52:01+06:00,
1000000000337317,77018855558,mMTS,mKcell,mKcell,,D77,2017-02-28T15:47:00+06:00,
1000000000337318,77782265827,mMTS,mKcell,mKcell,,D77,2017-02-28T15:47:51+06:00,
1000000000337319,77783474023,mMTS,mKcell,mKcell,,D77,2017-02-28T15:47:53+06:00,
1000000000337320,77004990029,mKcell,mAltel,mAltel,,D02,2017-02-28T15:48:26+06:00,
1000000000337322,77772148778,mMTS,mKarTel,mKarTel,,D77,2017-02-28T15:52:07+06:00,
1000000000337323,77006252595,mKcell,mAltel,mAltel,,D02,2017-02-28T15:49:24+06:00,
1000000000337324,77027211203,mMTS,mKarTel,mKcell,D01,D77,2017-02-28T15:52:11+06:00,
1000000000337325,77002050535,mKcell,mAltel,mAltel,,D02,2017-02-28T15:50:13+06:00,
1000000000337327,77760121102,mKcell,mKarTel,mKarTel,,D02,2017-02-28T15:52:48+06:00,
1000000000337328,77015889225,mKarTel,mKcell,mKcell,,D01,2017-02-28T15:52:42+06:00,
1000000000337329,77766800355,mMTS,mKarTel,mKarTel,,D77,2017-02-28T15:53:03+06:00,
1000000000337331,77753439039,mMTS,mKcell,mKcell,,D77,2017-02-28T15:53:33+06:00,
1000000000337332,77713137463,mMTS,mAltel,mKarTel,D07,D77,2017-02-28T15:53:29+06:00,
1000000000337335,77017522817,mMTS,mKcell,mKcell,,D77,2017-02-28T15:56:30+06:00,
1000000000337337,77073892089,mKcell,mMTS,mMTS,,D02,2017-02-28T15:57:20+06:00,
1000000000337338,77783476203,mMTS,mKcell,mKcell,,D77,2017-02-28T15:57:47+06:00,
1000000000337341,77089124409,mKarTel,mAltel,mAltel,,D01,2017-02-28T15:58:45+06:00,
1000000000337343,77070371445,mKarTel,mMTS,mMTS,,D01,2017-02-28T15:58:58+06:00,
1000000000337345,77718013757,mKarTel,mAltel,mKarTel,D07,D01,2017-02-28T15:59:10+06:00,
1000000000337346,77070371447,mKarTel,mMTS,mMTS,,D01,2017-02-28T15:59:49+06:00,
1000000000337347,77055252435,mMTS,mKarTel,mKarTel,,D77,2017-02-28T15:59:59+06:00,
