NPId,Number,RecipientId,DonorId,RangeHolderId,OldRoute,NewRoute,PortDate,RowCount
1000000000002299,77779992799,mKcell,mKarTel,mKarTel,,D02,2016-01-06T14:00:37+06:00,38
1000000000002300,77078075808,mAltel,mMTS,mMTS,,D07,2016-01-06T14:00:21+06:00,
1000000000002301,77022241164,mKarTel,mKcell,mKcell,,D01,2016-01-06T14:01:19+06:00,
1000000000002302,77000999909,mKcell,mAltel,mAltel,,D02,2016-01-06T14:02:06+06:00,
1000000000002303,77022700736,mAltel,mKcell,mKcell,,D07,2016-01-06T14:02:08+06:00,
1000000000002307,77077220315,mAltel,mMTS,mMTS,,D07,2016-01-06T14:04:47+06:00,
1000000000002309,77021753723,mAltel,mKcell,mKcell,,D07,2016-01-06T14:05:05+06:00,
1000000000002310,77077221799,mAltel,mMTS,mMTS,,D07,2016-01-06T14:05:17+06:00,
1000000000002315,77017767916,mMTS,mKcell,mKcell,,D77,2016-01-06T14:07:32+06:00,
1000000000002316,77052226602,mKcell,mKarTel,mKarTel,,D02,2016-01-06T14:07:58+06:00,
1000000000002318,77777077710,mAltel,mKarTel,mKarTel,,D07,2016-01-06T14:09:11+06:00,
1000000000002321,77784777077,mMTS,mKcell,mKcell,,D77,2016-01-06T14:11:00+06:00,
1000000000002322,77022200884,mAltel,mKcell,mKcell,,D07,2016-01-06T14:12:26+06:00,
1000000000002323,77015126151,mKarTel,mKcell,mKcell,,D01,2016-01-06T14:12:40+06:00,
1000000000002324,77007005151,mKarTel,mAltel,mAltel,,D01,2016-01-06T14:12:55+06:00,
1000000000002326,77769041541,mAltel,mKarTel,mKarTel,,D07,2016-01-06T14:13:30+06:00,
1000000000002329,77001115151,mKarTel,mAltel,mAltel,,D01,2016-01-06T14:14:49+06:00,
1000000000002331,77000515151,mKarTel,mAltel,mAltel,,D01,2016-01-06T14:15:59+06:00,
1000000000002333,77751111313,mKarTel,mKcell,mKcell,,D01,2016-01-06T14:16:11+06:00,
1000000000002334,77015913947,mKarTel,mKcell,mKcell,,D01,2016-01-06T14:16:05+06:00,
1000000000002336,77029929959,mMTS,mKcell,mKcell,,D77,2016-01-06T14:17:00+06:00,
1000000000002339,77016677779,mAltel,mKcell,mKcell,,D07,2016-01-06T14:18:51+06:00,
1000000000002341,77005588888,mKcell,mAltel,mAltel,,D02,2016-01-06T14:22:04+06:00,
1000000000002342,77015126161,mKarTel,mKcell,mKcell,,D01,2016-01-06T14:20:25+06:00,
1000000000002345,77015257685,mKarTel,mKcell,mKcell,,D01,2016-01-06T14:24:33+06:00,
1000000000002346,77761116787,mKcell,mKarTel,mKarTel,,D02,2016-01-06T14:25:14+06:00,
1000000000002348,77015257697,mKarTel,mKcell,mKcell,,D01,2016-01-06T14:25:16+06:00,
1000000000002349,77753916902,mAltel,mKcell,mKcell,,D07,2016-01-06T14:25:15+06:00,
1000000000002350,77024482365,mKarTel,mKcell,mKcell,,D01,2016-01-06T14:25:49+06:00,
1000000000002352,77018883214,mMTS,mKcell,mKcell,,D77,2016-01-06T14:25:48+06:00,
1000000000002353,77018097626,mKarTel,mKcell,mKcell,,D01,2016-01-06T14:26:05+06:00,
1000000000002355,77077775593,mAltel,mMTS,mMTS,,D07,2016-01-06T14:26:28+06:00,
1000000000002356,77004999959,mKcell,mAltel,mAltel,,D02,2016-01-06T14:26:57+06:00,
1000000000002357,77011114463,mKarTel,mKcell,mKcell,,D01,2016-01-06T14:27:25+06:00,
1000000000002358,77011114428,mKarTel,mKcell,mKcell,,D01,2016-01-06T14:28:17+06:00,
1000000000002359,77775773755,mAltel,mKarTel,mKarTel,,D07,2016-01-06T14:28:57+06:00,
1000000000002360,77011116744,mKarTel,mKcell,mKcell,,D01,2016-01-06T14:29:14+06:00,
1000000000002362,77011114766,mKarTel,mKcell,mKcell,,D01,2016-01-06T14:29:45+06:00,
