NPId,Number,RecipientId,DonorId,RangeHolderId,OldRoute,NewRoute,PortDate,RowCount
1000000000328574,77789392655,mKcell,mMTS,mKcell,D77,D02,2017-02-14T09:40:03+06:00,7
1000000000328575,77077222201,mKarTel,mMTS,mMTS,,D01,2017-02-14T09:45:58+06:00,
1000000000328576,77023082248,mKarTel,mKcell,mKcell,,D01,2017-02-14T09:50:39+06:00,
1000000000328577,77052723373,mMTS,mKarTel,mKarTel,,D77,2017-02-14T09:52:26+06:00,
1000000000328578,77073479767,mKcell,mMTS,mMTS,,D02,2017-02-14T09:52:41+06:00,
1000000000328579,77073479947,mKcell,mMTS,mMTS,,D02,2017-02-14T09:56:41+06:00,
1000000000328580,77755088880,mMTS,mAltel,mKcell,D07,D77,2017-02-14T09:57:37+06:00,
