NPId,Number,RecipientId,DonorId,RangeHolderId,OldRoute,NewRoute,PortDate,RowCount
1000000000242494,77003777000,mKcell,mAltel,mAltel,,D02,2016-09-08T13:31:30+06:00,24
1000000000242496,77761898898,mMTS,mKarTel,mKarTel,,D77,2016-09-08T13:32:56+06:00,
1000000000242497,77072005088,mAltel,mMTS,mMTS,,D07,2016-09-08T13:35:58+06:00,
1000000000242499,77087808585,mKarTel,mMTS,mAltel,D77,D01,2016-09-08T13:37:43+06:00,
1000000000242502,77759060339,mKarTel,mKcell,mKcell,,D01,2016-09-08T13:39:08+06:00,
1000000000242503,77010264701,mKarTel,mMTS,mKcell,D77,D01,2016-09-08T13:39:15+06:00,
1000000000242503,77010269808,mKarTel,mMTS,mKcell,D77,D01,2016-09-08T13:39:15+06:00,
1000000000242503,77017619974,mKarTel,mMTS,mKcell,D77,D01,2016-09-08T13:39:15+06:00,
1000000000242503,77019718434,mKarTel,mMTS,mKcell,D77,D01,2016-09-08T13:39:15+06:00,
1000000000242503,77019823686,mKarTel,mMTS,mKcell,D77,D01,2016-09-08T13:39:15+06:00,
1000000000242504,77772623951,mKcell,mKarTel,mKarTel,,D02,2016-09-08T13:40:39+06:00,
1000000000242505,77777021990,mMTS,mKcell,mKarTel,D02,D77,2016-09-08T13:40:11+06:00,
1000000000242506,77008889990,mKarTel,mAltel,mAltel,,D01,2016-09-08T13:41:13+06:00,
1000000000242507,77082152150,mKcell,mAltel,mAltel,,D02,2016-09-08T13:42:44+06:00,
1000000000242508,77028364741,mMTS,mKcell,mKcell,,D77,2016-09-08T13:46:14+06:00,
1000000000242509,77777601333,mAltel,mMTS,mKarTel,D77,D07,2016-09-08T13:46:21+06:00,
1000000000242510,77714558615,mMTS,mKarTel,mKarTel,,D77,2016-09-08T13:47:03+06:00,
1000000000242512,77078784822,mAltel,mMTS,mMTS,,D07,2016-09-08T13:48:51+06:00,
1000000000242513,77011912465,mKarTel,mKcell,mKcell,,D01,2016-09-08T13:50:04+06:00,
1000000000242514,77018419182,mMTS,mAltel,mKcell,D07,D77,2016-09-08T13:50:33+06:00,
1000000000242518,77714083747,mAltel,mKarTel,mKarTel,,D07,2016-09-08T13:52:15+06:00,
1000000000242520,77715765915,mMTS,mKarTel,mKarTel,,D77,2016-09-08T13:55:32+06:00,
1000000000242521,77753308584,mMTS,mKcell,mKcell,,D77,2016-09-08T13:55:32+06:00,
1000000000242523,77716876703,mKcell,mKarTel,mKarTel,,D02,2016-09-08T13:59:56+06:00,
