NPId,Number,RecipientId,DonorId,RangeHolderId,OldRoute,NewRoute,PortDate,RowCount
1000000000252271,77773271993,mMTS,mKarTel,mKarTel,,D77,2016-09-27T18:30:48+06:00,8
1000000000252272,77000200203,mKarTel,mAltel,mAltel,,D01,2016-09-27T18:31:18+06:00,
1000000000252273,77075958195,mKcell,mMTS,mMTS,,D02,2016-09-27T18:32:35+06:00,
1000000000252274,77071023383,mKarTel,mMTS,mMTS,,D01,2016-09-27T18:33:00+06:00,
1000000000252276,77073689089,mAltel,mMTS,mMTS,,D07,2016-09-27T18:38:55+06:00,
1000000000252277,77775505656,mMTS,mKarTel,mKarTel,,D77,2016-09-27T18:40:19+06:00,
1000000000252278,77015554971,mAltel,mKcell,mKcell,,D07,2016-09-27T18:43:53+06:00,
1000000000252280,77051413053,mMTS,mKarTel,mKarTel,,D77,2016-09-27T18:48:02+06:00,
