NPId,Number,RecipientId,DonorId,RangeHolderId,OldRoute,NewRoute,PortDate,RowCount
1000000000288937,77777775919,mKarTel,mKcell,mKarTel,D02,D01,2016-12-03T11:01:33+06:00,20
1000000000288941,77012451633,mAltel,mKcell,mKcell,,D07,2016-12-03T11:07:35+06:00,
1000000000288942,77012033090,mMTS,mKcell,mKcell,,D77,2016-12-03T11:07:44+06:00,
1000000000288943,77071016888,mKarTel,mKcell,mMTS,D02,D01,2016-12-03T11:08:11+06:00,
1000000000288944,77076912345,mMTS,mKarTel,mMTS,D01,D77,2016-12-03T11:09:55+06:00,
1000000000288947,77757226400,mMTS,mKcell,mKcell,,D77,2016-12-03T11:14:50+06:00,
1000000000288948,77712444400,mMTS,mKarTel,mKarTel,,D77,2016-12-03T11:17:22+06:00,
1000000000288950,77052345647,mMTS,mKarTel,mKarTel,,D77,2016-12-03T11:17:59+06:00,
1000000000288951,77475895600,mKarTel,mMTS,mMTS,,D01,2016-12-03T11:17:56+06:00,
1000000000288952,77017224573,mKarTel,mKcell,mKcell,,D01,2016-12-03T11:18:26+06:00,
1000000000288953,77074040900,mMTS,mKarTel,mMTS,D01,D77,2016-12-03T11:19:35+06:00,
1000000000288954,77759904180,mKcell,mMTS,mKcell,D77,D02,2016-12-03T11:22:15+06:00,
1000000000288955,77782179150,mKarTel,mKcell,mKcell,,D01,2016-12-03T11:22:30+06:00,
1000000000288956,77027766663,mKarTel,mKcell,mKcell,,D01,2016-12-03T11:24:18+06:00,
1000000000288957,77772462728,mMTS,mAltel,mKarTel,D07,D77,2016-12-03T11:24:19+06:00,
1000000000288958,77022156300,mKarTel,mKcell,mKcell,D02,D01,2016-12-03T11:27:13+06:00,
1000000000288959,77079057793,mAltel,mMTS,mMTS,,D07,2016-12-03T11:27:40+06:00,
1000000000288960,77083010514,mAltel,mKcell,mAltel,D02,D07,2016-12-03T11:28:04+06:00,
1000000000288962,77772232132,mMTS,mKarTel,mKarTel,,D77,2016-12-03T11:28:36+06:00,
1000000000288964,77071471770,mAltel,mMTS,mMTS,,D07,2016-12-03T11:29:23+06:00,
