NPId,Number,RecipientId,DonorId,RangeHolderId,OldRoute,NewRoute,PortDate,RowCount
1000000000400843,77776007025,mMTS,mKarTel,mKarTel,,D77,2017-06-10T11:03:53+06:00,14
1000000000400847,77017175652,mKarTel,mKcell,mKcell,,D01,2017-06-10T11:06:31+06:00,
1000000000400848,77017878197,mKcell,mKarTel,mKcell,D01,D02,2017-06-10T11:06:43+06:00,
1000000000400849,77072700174,mKarTel,mMTS,mMTS,,D01,2017-06-10T11:06:42+06:00,
1000000000400850,77072230489,mKarTel,mMTS,mMTS,,D01,2017-06-10T11:10:42+06:00,
1000000000400854,77072784643,mKarTel,mMTS,mMTS,,D01,2017-06-10T11:13:04+06:00,
1000000000400855,77053633636,mKarTel,mAltel,mKarTel,D07,D01,2017-06-10T11:13:14+06:00,
1000000000400856,77073996614,mKarTel,mMTS,mMTS,,D01,2017-06-10T11:14:25+06:00,
1000000000400857,77718855555,mMTS,mKarTel,mKarTel,,D77,2017-06-10T11:14:42+06:00,
1000000000400858,77011067825,mMTS,mKcell,mKcell,,D77,2017-06-10T11:17:20+06:00,
1000000000400859,77753120000,mKcell,mAltel,mKcell,D07,D02,2017-06-10T11:19:31+06:00,
1000000000400860,77052103580,mKarTel,mAltel,mKarTel,D07,D01,2017-06-10T11:20:55+06:00,
1000000000400861,77758684806,mKarTel,mKcell,mKcell,,D01,2017-06-10T11:25:00+06:00,
1000000000400862,77770234440,mKarTel,mAltel,mKarTel,D07,D01,2017-06-10T11:27:36+06:00,
