NPId,Number,RecipientId,DonorId,RangeHolderId,OldRoute,NewRoute,PortDate,RowCount
1000000000191460,77083629704,mMTS,mAltel,mAltel,,D77,2016-06-10T17:32:08+06:00,25
1000000000191463,77087565626,mKarTel,mAltel,mAltel,,D01,2016-06-10T17:36:16+06:00,
1000000000191464,77087565627,mKarTel,mAltel,mAltel,,D01,2016-06-10T17:36:59+06:00,
1000000000191465,77087565629,mKarTel,mAltel,mAltel,,D01,2016-06-10T17:37:36+06:00,
1000000000191466,77475062698,mAltel,mMTS,mMTS,,D07,2016-06-10T17:38:19+06:00,
1000000000191467,77087357272,mKarTel,mAltel,mAltel,,D01,2016-06-10T17:38:36+06:00,
1000000000191468,77087057272,mKarTel,mAltel,mAltel,,D01,2016-06-10T17:39:03+06:00,
1000000000191469,77086226655,mKarTel,mAltel,mAltel,,D01,2016-06-10T17:39:30+06:00,
1000000000191471,77088257272,mKarTel,mAltel,mAltel,,D01,2016-06-10T17:40:46+06:00,
1000000000191472,77087047272,mKarTel,mAltel,mAltel,,D01,2016-06-10T17:41:18+06:00,
1000000000191473,77024102310,mKcell,mAltel,mKcell,D07,D02,2016-06-10T17:41:38+06:00,
1000000000191474,77085757272,mKarTel,mAltel,mAltel,,D01,2016-06-10T17:42:08+06:00,
1000000000191475,77087565650,mKarTel,mAltel,mAltel,,D01,2016-06-10T17:42:40+06:00,
1000000000191476,77086226644,mKarTel,mAltel,mAltel,,D01,2016-06-10T17:43:12+06:00,
1000000000191477,77087137272,mKarTel,mAltel,mAltel,,D01,2016-06-10T17:43:42+06:00,
1000000000191478,77087573111,mKarTel,mAltel,mAltel,,D01,2016-06-10T17:44:56+06:00,
1000000000191479,77712968444,mMTS,mKarTel,mKarTel,,D77,2016-06-10T17:45:52+06:00,
1000000000191480,77072508492,mKarTel,mMTS,mMTS,,D01,2016-06-10T17:46:44+06:00,
1000000000191482,77052987614,mMTS,mKarTel,mKarTel,,D77,2016-06-10T17:52:37+06:00,
1000000000191483,77475556880,mKarTel,mMTS,mMTS,,D01,2016-06-10T17:53:07+06:00,
1000000000191485,77089044501,mKcell,mAltel,mAltel,,D02,2016-06-10T17:54:35+06:00,
1000000000191487,77472229121,mAltel,mMTS,mMTS,,D07,2016-06-10T17:56:42+06:00,
1000000000191488,77083300301,mMTS,mAltel,mAltel,,D77,2016-06-10T17:57:09+06:00,
1000000000191489,77753606006,mKcell,mMTS,mKcell,D77,D02,2016-06-10T17:58:07+06:00,
1000000000191492,77011325244,mKarTel,mKcell,mKcell,,D01,2016-06-10T17:59:41+06:00,
