NPId,Number,RecipientId,DonorId,RangeHolderId,OldRoute,NewRoute,PortDate,RowCount
1000000000429609,77773934910,mMTS,mKarTel,mKarTel,,D77,2017-07-28T00:32:28+06:00,3
1000000000429612,77773934890,mMTS,mKarTel,mKarTel,,D77,2017-07-28T00:42:31+06:00,
1000000000429613,77773935088,mMTS,mKarTel,mKarTel,,D77,2017-07-28T00:57:31+06:00,
