NPId,Number,RecipientId,DonorId,RangeHolderId,OldRoute,NewRoute,PortDate,RowCount
1000000000263810,77476476462,mMTS,mKarTel,mMTS,D01,D77,2016-10-17T17:00:00+06:00,59
1000000000263814,77476476500,mMTS,mKarTel,mMTS,D01,D77,2016-10-17T17:01:24+06:00,
1000000000263818,77476476497,mMTS,mKarTel,mMTS,D01,D77,2016-10-17T17:03:00+06:00,
1000000000263819,77476476507,mMTS,mKarTel,mMTS,D01,D77,2016-10-17T17:04:12+06:00,
1000000000263823,77476476508,mMTS,mKarTel,mMTS,D01,D77,2016-10-17T17:05:33+06:00,
1000000000263831,77476476510,mMTS,mKarTel,mMTS,D01,D77,2016-10-17T17:08:41+06:00,
1000000000263832,77476476504,mMTS,mKarTel,mMTS,D01,D77,2016-10-17T17:09:18+06:00,
1000000000263834,77476476506,mMTS,mKarTel,mMTS,D01,D77,2016-10-17T17:09:54+06:00,
1000000000263835,77476476513,mMTS,mKarTel,mMTS,D01,D77,2016-10-17T17:10:31+06:00,
1000000000263847,77476476516,mMTS,mKarTel,mMTS,D01,D77,2016-10-17T17:13:53+06:00,
1000000000263848,77476476517,mMTS,mKarTel,mMTS,D01,D77,2016-10-17T17:14:25+06:00,
1000000000263850,77476476527,mMTS,mKarTel,mMTS,D01,D77,2016-10-17T17:15:00+06:00,
1000000000263852,77476476531,mMTS,mKarTel,mMTS,D01,D77,2016-10-17T17:15:34+06:00,
1000000000263854,77476476534,mMTS,mKarTel,mMTS,D01,D77,2016-10-17T17:16:10+06:00,
1000000000263855,77059991116,mMTS,mKarTel,mKarTel,,D77,2016-10-17T17:01:45+06:00,
1000000000263856,77476476574,mMTS,mKarTel,mMTS,D01,D77,2016-10-17T17:16:49+06:00,
1000000000263857,77476476536,mMTS,mKarTel,mMTS,D01,D77,2016-10-17T17:17:22+06:00,
1000000000263859,77476476538,mMTS,mKarTel,mMTS,D01,D77,2016-10-17T17:17:55+06:00,
1000000000263860,77772123110,mKarTel,mAltel,mKarTel,D07,D01,2016-10-17T17:02:42+06:00,
1000000000263861,77476476539,mMTS,mKarTel,mMTS,D01,D77,2016-10-17T17:18:34+06:00,
1000000000263863,77476476541,mMTS,mKarTel,mMTS,D01,D77,2016-10-17T17:19:11+06:00,
1000000000263864,77057892278,mMTS,mKarTel,mKarTel,,D77,2016-10-17T17:04:06+06:00,
1000000000263865,77772322718,mMTS,mKarTel,mKarTel,,D77,2016-10-17T17:04:29+06:00,
1000000000263866,77476476543,mMTS,mKarTel,mMTS,D01,D77,2016-10-17T17:19:59+06:00,
1000000000263867,77476476544,mMTS,mKarTel,mMTS,D01,D77,2016-10-17T17:20:41+06:00,
1000000000263869,77476476546,mMTS,mKarTel,mMTS,D01,D77,2016-10-17T17:21:46+06:00,
1000000000263870,77003724711,mKcell,mAltel,mAltel,,D02,2016-10-17T17:06:49+06:00,
1000000000263871,77015557472,mKarTel,mKcell,mKcell,,D01,2016-10-17T17:14:07+06:00,
1000000000263872,77476476548,mMTS,mKarTel,mMTS,D01,D77,2016-10-17T17:22:33+06:00,
1000000000263874,77750004389,mMTS,mKcell,mKcell,,D77,2016-10-17T17:07:36+06:00,
1000000000263875,77476476489,mMTS,mKarTel,mMTS,D01,D77,2016-10-17T17:23:06+06:00,
1000000000263876,77052092994,mAltel,mKarTel,mKarTel,,D07,2016-10-17T17:08:11+06:00,
1000000000263877,77476476465,mMTS,mKarTel,mMTS,D01,D77,2016-10-17T17:23:46+06:00,
1000000000263878,77781800097,mAltel,mKcell,mKcell,,D07,2016-10-17T17:09:02+06:00,
1000000000263879,77016063031,mKarTel,mKcell,mKcell,,D01,2016-10-17T17:09:15+06:00,
1000000000263880,77476476512,mMTS,mKarTel,mMTS,D01,D77,2016-10-17T17:24:30+06:00,
1000000000263882,77022272929,mAltel,mMTS,mKcell,D77,D07,2016-10-17T17:10:01+06:00,
1000000000263884,77476476533,mMTS,mKarTel,mMTS,D01,D77,2016-10-17T17:26:15+06:00,
1000000000263886,77719933241,mMTS,mKarTel,mKarTel,,D77,2016-10-17T17:26:52+06:00,
1000000000263887,77476476589,mMTS,mKarTel,mMTS,D01,D77,2016-10-17T17:27:34+06:00,
1000000000263889,77476476592,mMTS,mKarTel,mMTS,D01,D77,2016-10-17T17:28:32+06:00,
1000000000263890,77476476593,mMTS,mKarTel,mMTS,D01,D77,2016-10-17T17:29:01+06:00,
1000000000263894,77000959585,mKcell,mAltel,mAltel,,D02,2016-10-17T17:16:45+06:00,
1000000000263895,77778180606,mMTS,mKarTel,mKarTel,,D77,2016-10-17T17:17:49+06:00,
1000000000263896,77013002524,mMTS,mKcell,mKcell,,D77,2016-10-17T17:17:45+06:00,
1000000000263897,77079582224,mAltel,mMTS,mMTS,,D07,2016-10-17T17:19:54+06:00,
1000000000263898,77000959575,mKcell,mAltel,mAltel,,D02,2016-10-17T17:21:05+06:00,
1000000000263899,77000909057,mKcell,mAltel,mAltel,,D02,2016-10-17T17:22:43+06:00,
1000000000263900,77000959565,mKcell,mAltel,mAltel,,D02,2016-10-17T17:22:52+06:00,
1000000000263902,77078888197,mKcell,mMTS,mMTS,,D02,2016-10-17T17:23:29+06:00,
1000000000263903,77000979747,mKcell,mAltel,mAltel,,D02,2016-10-17T17:23:41+06:00,
1000000000263905,77017996447,mKcell,mMTS,mKcell,D77,D02,2016-10-17T17:24:33+06:00,
1000000000263907,77000909017,mKcell,mAltel,mAltel,,D02,2016-10-17T17:25:22+06:00,
1000000000263910,77752606223,mAltel,mKcell,mKcell,,D07,2016-10-17T17:26:41+06:00,
1000000000263913,77000909037,mKcell,mAltel,mAltel,,D02,2016-10-17T17:27:53+06:00,
1000000000263914,77054227607,mMTS,mKarTel,mKarTel,,D77,2016-10-17T17:28:20+06:00,
1000000000263918,77000909084,mKcell,mAltel,mAltel,,D02,2016-10-17T17:29:53+06:00,
1000000000263919,77000979787,mKcell,mAltel,mAltel,,D02,2016-10-17T17:29:49+06:00,
1000000000263920,77472982829,mAltel,mMTS,mMTS,,D07,2016-10-17T17:29:42+06:00,
