NPId,Number,RecipientId,DonorId,RangeHolderId,OldRoute,NewRoute,PortDate,RowCount
1000000000386686,77078709007,mKcell,mMTS,mMTS,,D02,2017-05-21T16:02:10+06:00,16
1000000000386688,77779550161,mKarTel,mMTS,mKarTel,D77,D01,2017-05-21T16:06:22+06:00,
1000000000386689,77071706272,mKarTel,mMTS,mMTS,,D01,2017-05-21T16:07:21+06:00,
1000000000386691,77078709008,mKcell,mMTS,mMTS,,D02,2017-05-21T16:08:14+06:00,
1000000000386692,77775854065,mMTS,mKarTel,mKarTel,,D77,2017-05-21T16:11:45+06:00,
1000000000386693,77073666941,mKarTel,mMTS,mMTS,,D01,2017-05-21T16:11:57+06:00,
1000000000386695,77079013010,mKarTel,mMTS,mMTS,,D01,2017-05-21T16:13:30+06:00,
1000000000386697,77072068602,mKcell,mMTS,mMTS,,D02,2017-05-21T16:15:56+06:00,
1000000000386698,77057109383,mMTS,mKarTel,mKarTel,,D77,2017-05-21T16:19:06+06:00,
1000000000386699,77023804220,mMTS,mKcell,mKcell,,D77,2017-05-21T16:19:47+06:00,
1000000000386700,77769697969,mMTS,mKarTel,mKarTel,,D77,2017-05-21T16:20:25+06:00,
1000000000386701,77011555533,mMTS,mKcell,mKcell,,D77,2017-05-21T16:22:02+06:00,
1000000000386702,77077777182,mMTS,mKcell,mMTS,D02,D77,2017-05-21T16:22:15+06:00,
1000000000386703,77017749393,mMTS,mKcell,mKcell,,D77,2017-05-21T16:22:52+06:00,
1000000000386704,77755440757,mAltel,mKcell,mKcell,,D07,2017-05-21T16:24:28+06:00,
1000000000386705,77057500900,mAltel,mKarTel,mKarTel,,D07,2017-05-21T16:25:36+06:00,
