NPId,Number,RecipientId,DonorId,RangeHolderId,OldRoute,NewRoute,PortDate,RowCount
1000000000345541,77022177718,mMTS,mKcell,mKcell,,D77,2017-03-13T12:00:16+06:00,24
1000000000345545,77759081083,mKcell,mAltel,mKcell,D07,D02,2017-03-13T12:04:44+06:00,
1000000000345546,77017742930,mKcell,mMTS,mKcell,D77,D02,2017-03-13T12:05:45+06:00,
1000000000345547,77781056558,mMTS,mKcell,mKcell,,D77,2017-03-13T12:05:50+06:00,
1000000000345548,77053391746,mMTS,mKarTel,mKarTel,,D77,2017-03-13T12:11:08+06:00,
1000000000345549,77774444114,mMTS,mKarTel,mKarTel,,D77,2017-03-13T12:11:58+06:00,
1000000000345550,77766775656,mMTS,mKarTel,mKarTel,,D77,2017-03-13T12:13:12+06:00,
1000000000345551,77009455846,mMTS,mAltel,mAltel,,D77,2017-03-13T12:13:05+06:00,
1000000000345553,77012101476,mKarTel,mKcell,mKcell,,D01,2017-03-13T12:15:24+06:00,
1000000000345555,77753203769,mAltel,mMTS,mKcell,D77,D07,2017-03-13T12:15:18+06:00,
1000000000345556,77013903987,mMTS,mKcell,mKcell,D02,D77,2017-03-13T12:16:26+06:00,
1000000000345557,77781056482,mMTS,mKcell,mKcell,,D77,2017-03-13T12:16:50+06:00,
1000000000345558,77773774977,mKcell,mKarTel,mKarTel,,D02,2017-03-13T12:19:19+06:00,
1000000000345560,77027317578,mKarTel,mMTS,mKcell,D77,D01,2017-03-13T12:19:25+06:00,
1000000000345561,77015994916,mKarTel,mMTS,mKcell,D77,D01,2017-03-13T12:19:40+06:00,
1000000000345562,77473720472,mKarTel,mMTS,mMTS,,D01,2017-03-13T12:21:05+06:00,
1000000000345565,77053000701,mMTS,mKarTel,mKarTel,,D77,2017-03-13T12:23:54+06:00,
1000000000345566,77761776161,mKcell,mKarTel,mKarTel,,D02,2017-03-13T12:24:38+06:00,
1000000000345568,77781053574,mMTS,mKcell,mKcell,,D77,2017-03-13T12:25:25+06:00,
1000000000345569,77766999976,mKarTel,mAltel,mKarTel,D07,D01,2017-03-13T12:27:19+06:00,
1000000000345570,77005180007,mKcell,mAltel,mAltel,,D02,2017-03-13T12:29:09+06:00,
1000000000345571,77074767670,mKarTel,mMTS,mMTS,,D01,2017-03-13T12:29:28+06:00,
1000000000345572,77751211119,mKarTel,mKcell,mKcell,,D01,2017-03-13T12:29:55+06:00,
1000000000345573,77753458899,mMTS,mKcell,mKcell,,D77,2017-03-13T12:29:58+06:00,
