NPId,Number,RecipientId,DonorId,RangeHolderId,OldRoute,NewRoute,PortDate,RowCount
1000000000220590,77057252020,mAltel,mKarTel,mKarTel,,D07,2016-07-31T17:31:55+06:00,20
1000000000220592,77760033909,mMTS,mKarTel,mKarTel,,D77,2016-07-31T17:32:43+06:00,
1000000000220594,77753313799,mKarTel,mKcell,mKcell,,D01,2016-07-31T17:41:03+06:00,
1000000000220595,77012547841,mMTS,mKcell,mKcell,,D77,2016-07-31T17:42:24+06:00,
1000000000220596,77024743419,mKarTel,mKcell,mKcell,,D01,2016-07-31T17:46:20+06:00,
1000000000220597,77013216694,mAltel,mKcell,mKcell,,D07,2016-07-31T17:46:40+06:00,
1000000000220598,77710128888,mAltel,mKarTel,mKarTel,,D07,2016-07-31T17:47:15+06:00,
1000000000220599,77771859999,mMTS,mKarTel,mKarTel,,D77,2016-07-31T17:47:23+06:00,
1000000000220600,77772743325,mMTS,mKarTel,mKarTel,,D77,2016-07-31T17:49:48+06:00,
1000000000220601,77011116775,mMTS,mKcell,mKcell,,D77,2016-07-31T17:50:16+06:00,
1000000000220602,77774354074,mMTS,mKarTel,mKarTel,,D77,2016-07-31T17:52:43+06:00,
1000000000220603,77774606331,mMTS,mKarTel,mKarTel,,D77,2016-07-31T17:52:43+06:00,
1000000000220604,77054075754,mKarTel,mMTS,mKarTel,D77,D01,2016-07-31T17:54:37+06:00,
1000000000220605,77761112234,mAltel,mKcell,mKarTel,D02,D07,2016-07-31T17:55:15+06:00,
1000000000220606,77023442992,mMTS,mKcell,mKcell,D02,D77,2016-07-31T17:56:33+06:00,
1000000000220607,77775854162,mMTS,mKarTel,mKarTel,,D77,2016-07-31T17:57:09+06:00,
1000000000220608,77075116655,mKarTel,mMTS,mMTS,,D01,2016-07-31T17:57:22+06:00,
1000000000220609,77081702000,mMTS,mAltel,mAltel,,D77,2016-07-31T17:57:15+06:00,
1000000000220610,77770235680,mMTS,mKarTel,mKarTel,,D77,2016-07-31T17:57:43+06:00,
1000000000220611,77755712928,mMTS,mKcell,mKcell,,D77,2016-07-31T17:57:21+06:00,
