NPId,Number,RecipientId,DonorId,RangeHolderId,OldRoute,NewRoute,PortDate,RowCount
1000000000249569,77754455777,mMTS,mKcell,mKcell,,D77,2016-09-22T15:02:45+06:00,13
1000000000249570,77712020505,mKcell,mKarTel,mKarTel,,D02,2016-09-22T15:06:57+06:00,
1000000000249571,77016900203,mKarTel,mKcell,mKcell,,D01,2016-09-22T15:06:43+06:00,
1000000000249573,77767061194,mKarTel,mKcell,mKarTel,D02,D01,2016-09-22T15:10:29+06:00,
1000000000249574,77753933330,mKarTel,mKcell,mKcell,D02,D01,2016-09-22T15:10:19+06:00,
1000000000249575,77005559570,mKcell,mAltel,mAltel,,D02,2016-09-22T15:10:15+06:00,
1000000000249577,77005552570,mKcell,mAltel,mAltel,,D02,2016-09-22T15:13:05+06:00,
1000000000249578,77052126315,mAltel,mKarTel,mKarTel,,D07,2016-09-22T15:20:29+06:00,
1000000000249579,77071956676,mKarTel,mMTS,mMTS,,D01,2016-09-22T15:20:56+06:00,
1000000000249580,77711191177,mMTS,mKarTel,mKarTel,,D77,2016-09-22T15:21:57+06:00,
1000000000249582,77472739938,mKarTel,mMTS,mMTS,,D01,2016-09-22T15:23:23+06:00,
1000000000249585,77020777060,mMTS,mKcell,mKcell,,D77,2016-09-22T15:28:25+06:00,
1000000000249586,77052228889,mMTS,mKarTel,mKarTel,,D77,2016-09-22T15:29:32+06:00,
