NPId,Number,RecipientId,DonorId,RangeHolderId,OldRoute,NewRoute,PortDate,RowCount
1000000000267882,77072361150,mKarTel,mMTS,mMTS,,D01,2016-10-25T15:00:36+06:00,30
1000000000267883,77013689828,mMTS,mKcell,mKcell,,D77,2016-10-25T15:01:03+06:00,
1000000000267884,77025319468,mKarTel,mKcell,mKcell,,D01,2016-10-25T15:02:03+06:00,
1000000000267885,77053440011,mMTS,mKarTel,mKarTel,,D77,2016-10-25T15:02:10+06:00,
1000000000267886,77023428911,mMTS,mKcell,mKcell,,D77,2016-10-25T15:03:10+06:00,
1000000000267887,77076127776,mAltel,mMTS,mMTS,,D07,2016-10-25T15:03:52+06:00,
1000000000267889,77786505858,mKarTel,mKcell,mKcell,,D01,2016-10-25T15:06:46+06:00,
1000000000267890,77017564245,mKarTel,mKcell,mKcell,,D01,2016-10-25T15:06:45+06:00,
1000000000267891,77013400005,mKarTel,mKcell,mKcell,,D01,2016-10-25T15:06:56+06:00,
1000000000267893,77755718484,mAltel,mKcell,mKcell,,D07,2016-10-25T15:07:42+06:00,
1000000000267895,77019282811,mKarTel,mKcell,mKcell,,D01,2016-10-25T15:08:59+06:00,
1000000000267896,77029102093,mMTS,mKcell,mKcell,,D77,2016-10-25T15:10:46+06:00,
1000000000267897,77770023888,mKcell,mKarTel,mKarTel,,D02,2016-10-25T15:11:40+06:00,
1000000000267898,77001172000,mKarTel,mAltel,mAltel,,D01,2016-10-25T15:13:21+06:00,
1000000000267899,77051111614,mMTS,mKarTel,mKarTel,,D77,2016-10-25T15:14:07+06:00,
1000000000267900,77014306874,mKcell,mKarTel,mKcell,D01,D02,2016-10-25T15:16:42+06:00,
1000000000267901,77476441210,mAltel,mMTS,mMTS,,D07,2016-10-25T15:17:04+06:00,
1000000000267902,77012671979,mAltel,mKcell,mKcell,,D07,2016-10-25T15:17:27+06:00,
1000000000267903,77768027002,mKcell,mKarTel,mKarTel,,D02,2016-10-25T15:18:07+06:00,
1000000000267904,77078170197,mKcell,mMTS,mMTS,,D02,2016-10-25T15:20:26+06:00,
1000000000267906,77762140680,mKcell,mKarTel,mKarTel,,D02,2016-10-25T15:23:15+06:00,
1000000000267909,77751000656,mKarTel,mKcell,mKcell,,D01,2016-10-25T15:24:14+06:00,
1000000000267910,77027351015,mKarTel,mKcell,mKcell,,D01,2016-10-25T15:25:00+06:00,
1000000000267911,77027351016,mKarTel,mKcell,mKcell,,D01,2016-10-25T15:26:15+06:00,
1000000000267912,77013330880,mKarTel,mKcell,mKcell,,D01,2016-10-25T15:27:02+06:00,
1000000000267913,77027351045,mKarTel,mKcell,mKcell,,D01,2016-10-25T15:27:21+06:00,
1000000000267914,77027351065,mKarTel,mKcell,mKcell,,D01,2016-10-25T15:28:08+06:00,
1000000000267915,77027351095,mKarTel,mKcell,mKcell,,D01,2016-10-25T15:28:52+06:00,
1000000000267916,77783556489,mMTS,mKcell,mKcell,,D77,2016-10-25T15:28:58+06:00,
1000000000267918,77715812475,mAltel,mKarTel,mKarTel,,D07,2016-10-25T15:29:48+06:00,
