NPId,Number,RecipientId,DonorId,RangeHolderId,OldRoute,NewRoute,PortDate,RowCount
1000000000104491,77055230912,mKcell,mKarTel,mKarTel,,D02,2016-03-03T09:48:57+06:00,31
1000000000104491,77057904797,mKcell,mKarTel,mKarTel,,D02,2016-03-03T09:48:57+06:00,
1000000000104491,77710149835,mKcell,mKarTel,mKarTel,,D02,2016-03-03T09:48:57+06:00,
1000000000104491,77710149884,mKcell,mKarTel,mKarTel,,D02,2016-03-03T09:48:57+06:00,
1000000000104491,77710250446,mKcell,mKarTel,mKarTel,,D02,2016-03-03T09:48:57+06:00,
1000000000104491,77710250447,mKcell,mKarTel,mKarTel,,D02,2016-03-03T09:48:57+06:00,
1000000000104491,77710250449,mKcell,mKarTel,mKarTel,,D02,2016-03-03T09:48:57+06:00,
1000000000104491,77710252796,mKcell,mKarTel,mKarTel,,D02,2016-03-03T09:48:57+06:00,
1000000000104491,77710252797,mKcell,mKarTel,mKarTel,,D02,2016-03-03T09:48:57+06:00,
1000000000104491,77770752222,mKcell,mKarTel,mKarTel,,D02,2016-03-03T09:48:57+06:00,
1000000000104491,77770758888,mKcell,mKarTel,mKarTel,,D02,2016-03-03T09:48:57+06:00,
1000000000104491,77771560345,mKcell,mKarTel,mKarTel,,D02,2016-03-03T09:48:57+06:00,
1000000000104491,77772672924,mKcell,mKarTel,mKarTel,,D02,2016-03-03T09:48:57+06:00,
1000000000104491,77777954230,mKcell,mKarTel,mKarTel,,D02,2016-03-03T09:48:57+06:00,
1000000000104491,77779790700,mKcell,mKarTel,mKarTel,,D02,2016-03-03T09:48:57+06:00,
1000000000105408,77017381168,mKarTel,mKcell,mKcell,,D01,2016-03-03T09:30:02+06:00,
1000000000105410,77019859305,mKarTel,mKcell,mKcell,,D01,2016-03-03T09:32:18+06:00,
1000000000105411,77027282358,mKarTel,mKcell,mKcell,,D01,2016-03-03T09:33:48+06:00,
1000000000105412,77083366900,mMTS,mAltel,mAltel,,D77,2016-03-03T09:34:39+06:00,
1000000000105413,77019380540,mKarTel,mKcell,mKcell,,D01,2016-03-03T09:35:18+06:00,
1000000000105414,77019859304,mKarTel,mKcell,mKcell,,D01,2016-03-03T09:35:50+06:00,
1000000000105415,77004533159,mMTS,mAltel,mAltel,,D77,2016-03-03T09:36:46+06:00,
1000000000105416,77019896070,mMTS,mKcell,mKcell,,D77,2016-03-03T09:37:31+06:00,
1000000000105418,77754411909,mAltel,mKcell,mKcell,,D07,2016-03-03T09:41:07+06:00,
1000000000105419,77011551555,mAltel,mKcell,mKcell,,D07,2016-03-03T09:45:13+06:00,
1000000000105420,77017350838,mKarTel,mKcell,mKcell,,D01,2016-03-03T09:46:00+06:00,
1000000000105421,77051868745,mMTS,mKarTel,mKarTel,,D77,2016-03-03T09:50:10+06:00,
1000000000105422,77017888111,mMTS,mKcell,mKcell,,D77,2016-03-03T09:50:02+06:00,
1000000000105424,77475797218,mAltel,mMTS,mMTS,,D07,2016-03-03T09:55:32+06:00,
1000000000105425,77015334898,mMTS,mKcell,mKcell,,D77,2016-03-03T09:56:24+06:00,
1000000000105426,77779101974,mMTS,mKarTel,mKarTel,,D77,2016-03-03T09:59:04+06:00,
