NPId,Number,RecipientId,DonorId,RangeHolderId,OldRoute,NewRoute,PortDate,RowCount
1000000000267632,77016206959,mKarTel,mKcell,mKcell,,D01,2016-10-25T11:05:05+06:00,19
1000000000267633,77757461717,mKcell,mMTS,mKcell,D77,D02,2016-10-25T11:06:40+06:00,
1000000000267634,77772280860,mMTS,mKarTel,mKarTel,,D77,2016-10-25T11:07:51+06:00,
1000000000267635,77753220767,mMTS,mKcell,mKcell,,D77,2016-10-25T11:08:01+06:00,
1000000000267636,77058748321,mMTS,mKarTel,mKarTel,,D77,2016-10-25T11:09:51+06:00,
1000000000267639,77774350101,mMTS,mKarTel,mKarTel,D01,D77,2016-10-25T11:11:52+06:00,
1000000000267640,77015665870,mKarTel,mKcell,mKcell,,D01,2016-10-25T11:11:54+06:00,
1000000000267641,77017493057,mKcell,mMTS,mKcell,D77,D02,2016-10-25T11:12:05+06:00,
1000000000267642,77750273605,mKarTel,mKcell,mKcell,,D01,2016-10-25T11:12:23+06:00,
1000000000267643,77719732873,mKarTel,mMTS,mKarTel,D77,D01,2016-10-25T11:13:36+06:00,
1000000000267644,77786623550,mAltel,mKcell,mKcell,,D07,2016-10-25T11:15:25+06:00,
1000000000267645,77777760503,mMTS,mKarTel,mKarTel,,D77,2016-10-25T11:17:56+06:00,
1000000000267646,77771510111,mMTS,mKarTel,mKarTel,,D77,2016-10-25T11:17:56+06:00,
1000000000267647,77768007486,mMTS,mKarTel,mKarTel,,D77,2016-10-25T11:17:56+06:00,
1000000000267648,77015452949,mAltel,mKcell,mKcell,,D07,2016-10-25T11:18:14+06:00,
1000000000267649,77075005501,mKcell,mMTS,mMTS,,D02,2016-10-25T11:20:04+06:00,
1000000000267650,77051855577,mMTS,mKarTel,mKarTel,,D77,2016-10-25T11:22:50+06:00,
1000000000267651,77019078692,mAltel,mKcell,mKcell,,D07,2016-10-25T11:22:51+06:00,
1000000000267653,77010777771,mKarTel,mKcell,mKcell,,D01,2016-10-25T11:27:34+06:00,
