NPId,Number,RecipientId,DonorId,RangeHolderId,OldRoute,NewRoute,PortDate,RowCount
1000000000333758,77019493271,mKarTel,mKcell,mKcell,,D01,2017-02-23T17:01:29+06:00,25
1000000000333759,77765528888,mKcell,mKarTel,mKarTel,,D02,2017-02-23T17:01:55+06:00,
1000000000333760,77000800434,mMTS,mAltel,mAltel,,D77,2017-02-23T17:04:15+06:00,
1000000000333762,77012359433,mKarTel,mKcell,mKcell,,D01,2017-02-23T17:08:25+06:00,
1000000000333763,77751504685,mMTS,mKcell,mKcell,,D77,2017-02-23T17:08:38+06:00,
1000000000333764,77006007262,mKcell,mAltel,mAltel,,D02,2017-02-23T17:10:14+06:00,
1000000000333765,77012257008,mAltel,mKcell,mKcell,,D07,2017-02-23T17:11:05+06:00,
1000000000333766,77006002494,mKcell,mAltel,mAltel,,D02,2017-02-23T17:11:22+06:00,
1000000000333769,77014967749,mKcell,mKarTel,mKcell,D01,D02,2017-02-23T17:13:53+06:00,
1000000000333770,77006001262,mKcell,mAltel,mAltel,,D02,2017-02-23T17:13:34+06:00,
1000000000333771,77775061207,mKcell,mKarTel,mKarTel,,D02,2017-02-23T17:14:30+06:00,
1000000000333774,77767504050,mMTS,mKcell,mKarTel,D02,D77,2017-02-23T17:16:02+06:00,
1000000000333775,77006008747,mKcell,mAltel,mAltel,,D02,2017-02-23T17:16:23+06:00,
1000000000333776,77059528809,mAltel,mKarTel,mKarTel,,D07,2017-02-23T17:16:57+06:00,
1000000000333777,77006004686,mKcell,mAltel,mAltel,,D02,2017-02-23T17:16:54+06:00,
1000000000333778,77778557777,mKarTel,mMTS,mKarTel,D77,D01,2017-02-23T17:17:00+06:00,
1000000000333780,77015131215,mAltel,mKcell,mKcell,,D07,2017-02-23T17:17:24+06:00,
1000000000333781,77056000400,mMTS,mKarTel,mKarTel,,D77,2017-02-23T17:18:21+06:00,
1000000000333782,77006001474,mKcell,mAltel,mAltel,,D02,2017-02-23T17:20:11+06:00,
1000000000333783,77476104585,mKcell,mMTS,mMTS,,D02,2017-02-23T17:22:38+06:00,
1000000000333785,77006008919,mKcell,mAltel,mAltel,,D02,2017-02-23T17:22:49+06:00,
1000000000333786,77752862889,mMTS,mKcell,mKcell,,D77,2017-02-23T17:23:16+06:00,
1000000000333787,77476178440,mKarTel,mMTS,mMTS,,D01,2017-02-23T17:24:28+06:00,
1000000000333788,77006007919,mKcell,mAltel,mAltel,,D02,2017-02-23T17:25:50+06:00,
1000000000333790,77077177956,mKarTel,mMTS,mMTS,,D01,2017-02-23T17:29:33+06:00,
