NPId,Number,RecipientId,DonorId,RangeHolderId,OldRoute,NewRoute,PortDate,RowCount
1000000000249728,77077501011,mKarTel,mMTS,mMTS,,D01,2016-09-22T18:30:01+06:00,16
1000000000249729,77085327665,mMTS,mAltel,mAltel,,D77,2016-09-22T18:32:27+06:00,
1000000000249730,77003734487,mMTS,mAltel,mAltel,,D77,2016-09-22T18:32:26+06:00,
1000000000249731,77057656020,mMTS,mKarTel,mKarTel,,D77,2016-09-22T18:33:04+06:00,
1000000000249732,77078169150,mAltel,mMTS,mMTS,,D07,2016-09-22T18:35:18+06:00,
1000000000249733,77003095879,mKcell,mAltel,mAltel,,D02,2016-09-22T18:36:29+06:00,
1000000000249734,77023228903,mMTS,mKcell,mKcell,,D77,2016-09-22T18:36:49+06:00,
1000000000249735,77788210001,mKcell,mKarTel,mKcell,D01,D02,2016-09-22T18:38:19+06:00,
1000000000249736,77001901990,mKcell,mAltel,mAltel,,D02,2016-09-22T18:37:55+06:00,
1000000000249737,77013295531,mKcell,mMTS,mKcell,D77,D02,2016-09-22T18:42:37+06:00,
1000000000249738,77786486344,mKarTel,mKcell,mKcell,,D01,2016-09-22T18:45:40+06:00,
1000000000249739,77011235442,mAltel,mKcell,mKcell,,D07,2016-09-22T18:47:15+06:00,
1000000000249740,77089584858,mKcell,mAltel,mAltel,,D02,2016-09-22T18:47:43+06:00,
1000000000249741,77004444440,mKcell,mAltel,mAltel,,D02,2016-09-22T18:47:58+06:00,
1000000000249743,77083333383,mKcell,mAltel,mAltel,,D02,2016-09-22T18:50:43+06:00,
1000000000249744,77071209012,mKcell,mMTS,mMTS,,D02,2016-09-22T18:58:10+06:00,
