NPId,Number,RecipientId,DonorId,RangeHolderId,OldRoute,NewRoute,PortDate,RowCount
1000000000335656,77073136329,mKcell,mMTS,mMTS,,D02,2017-02-26T20:40:29+06:00,2
1000000000335657,77081991729,mMTS,mAltel,mAltel,,D77,2017-02-26T20:42:47+06:00,
