NPId,Number,RecipientId,DonorId,RangeHolderId,OldRoute,NewRoute,PortDate,RowCount
1000000000337428,77017880918,mKarTel,mKcell,mKcell,,D01,2017-03-01T10:15:35+06:00,34
1000000000337574,77012144051,mKarTel,mKcell,mKcell,,D01,2017-03-01T10:09:23+06:00,
1000000000337574,77012144052,mKarTel,mKcell,mKcell,,D01,2017-03-01T10:09:23+06:00,
1000000000337574,77012144058,mKarTel,mKcell,mKcell,,D01,2017-03-01T10:09:23+06:00,
1000000000337574,77012144065,mKarTel,mKcell,mKcell,,D01,2017-03-01T10:09:23+06:00,
1000000000337574,77012144075,mKarTel,mKcell,mKcell,,D01,2017-03-01T10:09:23+06:00,
1000000000337574,77012144080,mKarTel,mKcell,mKcell,,D01,2017-03-01T10:09:23+06:00,
1000000000337574,77012144087,mKarTel,mKcell,mKcell,,D01,2017-03-01T10:09:23+06:00,
1000000000337574,77012144093,mKarTel,mKcell,mKcell,,D01,2017-03-01T10:09:23+06:00,
1000000000337574,77012144095,mKarTel,mKcell,mKcell,,D01,2017-03-01T10:09:23+06:00,
1000000000337574,77012144097,mKarTel,mKcell,mKcell,,D01,2017-03-01T10:09:23+06:00,
1000000000337574,77012144099,mKarTel,mKcell,mKcell,,D01,2017-03-01T10:09:23+06:00,
1000000000337574,77012144120,mKarTel,mKcell,mKcell,,D01,2017-03-01T10:09:23+06:00,
1000000000337574,77012144128,mKarTel,mKcell,mKcell,,D01,2017-03-01T10:09:23+06:00,
1000000000337574,77012241194,mKarTel,mKcell,mKcell,,D01,2017-03-01T10:09:23+06:00,
1000000000337574,77017950837,mKarTel,mKcell,mKcell,,D01,2017-03-01T10:09:23+06:00,
1000000000337923,77054334218,mMTS,mKarTel,mKarTel,,D77,2017-03-01T10:03:15+06:00,
1000000000337924,77089777985,mAltel,mKarTel,mAltel,D01,D07,2017-03-01T10:03:16+06:00,
1000000000337926,77018870051,mMTS,mKcell,mKcell,,D77,2017-03-01T10:02:55+06:00,
1000000000337928,77087600648,mMTS,mKarTel,mAltel,D01,D77,2017-03-01T10:05:44+06:00,
1000000000337929,77078588139,mAltel,mKarTel,mMTS,D01,D07,2017-03-01T10:06:07+06:00,
1000000000337931,77058725560,mMTS,mKarTel,mKarTel,,D77,2017-03-01T10:09:46+06:00,
1000000000337934,77771677776,mKarTel,mMTS,mKarTel,D77,D01,2017-03-01T10:13:03+06:00,
1000000000337935,77759791999,mKarTel,mMTS,mKcell,D77,D01,2017-03-01T10:13:50+06:00,
1000000000337936,77777655557,mMTS,mKarTel,mKarTel,,D77,2017-03-01T10:15:21+06:00,
1000000000337937,77007007073,mKcell,mAltel,mAltel,,D02,2017-03-01T10:16:17+06:00,
1000000000337940,77088888081,mMTS,mAltel,mAltel,,D77,2017-03-01T10:17:48+06:00,
1000000000337942,77052265566,mKcell,mKarTel,mKarTel,,D02,2017-03-01T10:19:50+06:00,
1000000000337943,77761002044,mMTS,mKarTel,mKarTel,,D77,2017-03-01T10:22:12+06:00,
1000000000337945,77051780872,mMTS,mKarTel,mKarTel,,D77,2017-03-01T10:23:16+06:00,
1000000000337946,77017625801,mMTS,mKcell,mKcell,,D77,2017-03-01T10:25:22+06:00,
1000000000337947,77015774223,mMTS,mKcell,mKcell,,D77,2017-03-01T10:27:18+06:00,
1000000000337948,77015170300,mKarTel,mKcell,mKcell,,D01,2017-03-01T10:27:33+06:00,
1000000000337950,77019589330,mAltel,mKarTel,mKcell,D01,D07,2017-03-01T10:28:04+06:00,
