NPId,Number,RecipientId,DonorId,RangeHolderId,OldRoute,NewRoute,PortDate,RowCount
1000000000231112,77719990190,mKcell,mKarTel,mKarTel,,D02,2016-08-19T09:18:28+06:00,4
1000000000231113,77075139393,mKcell,mMTS,mMTS,,D02,2016-08-19T09:23:32+06:00,
1000000000231114,77719990185,mKcell,mKarTel,mKarTel,,D02,2016-08-19T09:26:16+06:00,
1000000000231115,77015325029,mMTS,mKcell,mKcell,,D77,2016-08-19T09:27:52+06:00,
