NPId,Number,RecipientId,DonorId,RangeHolderId,OldRoute,NewRoute,PortDate,RowCount
1000000000199032,77014927867,mMTS,mKcell,mKcell,,D77,2016-06-24T13:00:04+06:00,24
1000000000199033,77028188884,mMTS,mKcell,mKcell,,D77,2016-06-24T13:00:54+06:00,
1000000000199034,77013566116,mMTS,mKcell,mKcell,,D77,2016-06-24T13:02:12+06:00,
1000000000199035,77089288893,mMTS,mAltel,mAltel,,D77,2016-06-24T13:01:18+06:00,
1000000000199036,77004706080,mMTS,mAltel,mAltel,,D77,2016-06-24T13:01:22+06:00,
1000000000199037,77015563103,mKcell,mAltel,mKcell,D07,D02,2016-06-24T13:02:12+06:00,
1000000000199038,77001452160,mMTS,mAltel,mAltel,,D77,2016-06-24T13:02:37+06:00,
1000000000199039,77004686655,mKcell,mAltel,mAltel,,D02,2016-06-24T13:05:35+06:00,
1000000000199040,77014213438,mMTS,mKcell,mKcell,,D77,2016-06-24T13:06:01+06:00,
1000000000199043,77479974267,mKarTel,mMTS,mMTS,,D01,2016-06-24T13:08:30+06:00,
1000000000199044,77003467049,mMTS,mAltel,mAltel,,D77,2016-06-24T13:08:44+06:00,
1000000000199045,77027222223,mKcell,mMTS,mKcell,D77,D02,2016-06-24T13:11:55+06:00,
1000000000199046,77086233220,mKarTel,mAltel,mAltel,,D01,2016-06-24T13:09:05+06:00,
1000000000199048,77077446805,mAltel,mMTS,mMTS,,D07,2016-06-24T13:09:47+06:00,
1000000000199049,77077441337,mMTS,mAltel,mMTS,D07,D77,2016-06-24T13:11:28+06:00,
1000000000199050,77012922090,mMTS,mKcell,mKcell,,D77,2016-06-24T13:12:50+06:00,
1000000000199051,77014524903,mKcell,mMTS,mKcell,D77,D02,2016-06-24T13:13:35+06:00,
1000000000199052,77752286415,mMTS,mKcell,mKcell,,D77,2016-06-24T13:17:59+06:00,
1000000000199053,77079897788,mKcell,mMTS,mMTS,,D02,2016-06-24T13:19:40+06:00,
1000000000199055,77772771144,mKarTel,mKcell,mKarTel,D02,D01,2016-06-24T13:20:46+06:00,
1000000000199057,77072100666,mMTS,mAltel,mMTS,D07,D77,2016-06-24T13:22:08+06:00,
1000000000199058,77009665698,mMTS,mAltel,mAltel,,D77,2016-06-24T13:24:00+06:00,
1000000000199060,77083338807,mKcell,mAltel,mAltel,,D02,2016-06-24T13:24:58+06:00,
1000000000199062,77017680107,mMTS,mKcell,mKcell,,D77,2016-06-24T13:27:52+06:00,
