NPId,Number,RecipientId,DonorId,RangeHolderId,OldRoute,NewRoute,PortDate,RowCount
1000000000225178,77714444442,mAltel,mKarTel,mKarTel,,D07,2016-08-08T11:00:40+06:00,22
1000000000225180,77718828888,mAltel,mKarTel,mKarTel,,D07,2016-08-08T11:01:47+06:00,
1000000000225185,77768888888,mAltel,mKarTel,mKarTel,,D07,2016-08-08T11:03:37+06:00,
1000000000225195,77052427737,mMTS,mKarTel,mKarTel,,D77,2016-08-08T11:01:46+06:00,
1000000000225196,77016707617,mKcell,mMTS,mKcell,D77,D02,2016-08-08T11:01:54+06:00,
1000000000225198,77773811505,mKarTel,mAltel,mKarTel,D07,D01,2016-08-08T11:06:18+06:00,
1000000000225200,77753578008,mAltel,mKcell,mKcell,,D07,2016-08-08T11:07:43+06:00,
1000000000225202,77005178888,mMTS,mAltel,mAltel,,D77,2016-08-08T11:10:55+06:00,
1000000000225205,77753529009,mAltel,mKcell,mKcell,,D07,2016-08-08T11:11:27+06:00,
1000000000225206,77754445442,mKarTel,mKcell,mKcell,,D01,2016-08-08T11:12:14+06:00,
1000000000225211,77754135206,mMTS,mKcell,mKcell,,D77,2016-08-08T11:13:28+06:00,
1000000000225212,77011161513,mKarTel,mKcell,mKcell,,D01,2016-08-08T11:14:57+06:00,
1000000000225214,77023701031,mKarTel,mKcell,mKcell,,D01,2016-08-08T11:16:33+06:00,
1000000000225215,77773738873,mMTS,mKarTel,mKarTel,,D77,2016-08-08T11:17:39+06:00,
1000000000225217,77025550383,mAltel,mKcell,mKcell,,D07,2016-08-08T11:16:23+06:00,
1000000000225218,77059840568,mMTS,mKarTel,mKarTel,,D77,2016-08-08T11:17:39+06:00,
1000000000225219,77024864194,mMTS,mKcell,mKcell,,D77,2016-08-08T11:17:38+06:00,
1000000000225225,77025444461,mKarTel,mKcell,mKcell,,D01,2016-08-08T11:20:59+06:00,
1000000000225226,77021221415,mMTS,mKcell,mKcell,,D77,2016-08-08T11:20:51+06:00,
1000000000225232,77023536633,mMTS,mKcell,mKcell,,D77,2016-08-08T11:25:24+06:00,
1000000000225234,77088259686,mMTS,mAltel,mAltel,,D77,2016-08-08T11:27:18+06:00,
1000000000225235,77085491845,mMTS,mAltel,mAltel,,D77,2016-08-08T11:29:57+06:00,
