NPId,Number,RecipientId,DonorId,RangeHolderId,OldRoute,NewRoute,PortDate,RowCount
1000000000162928,77075077702,mKarTel,mMTS,mMTS,,D01,2016-04-29T09:02:20+06:00,15
1000000000162929,77078249551,mKarTel,mAltel,mMTS,D07,D01,2016-04-29T09:02:28+06:00,
1000000000162930,77753823336,mKarTel,mKcell,mKcell,,D01,2016-04-29T09:02:43+06:00,
1000000000162931,77755080908,mKarTel,mMTS,mKcell,D77,D01,2016-04-29T09:02:28+06:00,
1000000000162933,77051107625,mMTS,mAltel,mKarTel,D07,D77,2016-04-29T09:02:05+06:00,
1000000000162934,77015058881,mKcell,mAltel,mKcell,D07,D02,2016-04-29T09:06:49+06:00,
1000000000162936,77017553254,mKarTel,mKcell,mKcell,,D01,2016-04-29T09:12:10+06:00,
1000000000162937,77027002006,mKcell,mAltel,mKcell,D07,D02,2016-04-29T09:12:39+06:00,
1000000000162938,77079703090,mMTS,mAltel,mMTS,D07,D77,2016-04-29T09:13:18+06:00,
1000000000162939,77071529125,mMTS,mAltel,mMTS,D07,D77,2016-04-29T09:18:27+06:00,
1000000000162940,77012183494,mMTS,mKcell,mKcell,,D77,2016-04-29T09:21:00+06:00,
1000000000162941,77074314891,mMTS,mAltel,mMTS,D07,D77,2016-04-29T09:19:15+06:00,
1000000000162942,77019400944,mMTS,mKcell,mKcell,,D77,2016-04-29T09:20:03+06:00,
1000000000162943,77077700670,mAltel,mMTS,mMTS,,D07,2016-04-29T09:21:49+06:00,
1000000000162945,77017389992,mKarTel,mKcell,mKcell,,D01,2016-04-29T09:29:17+06:00,
