NPId,Number,RecipientId,DonorId,RangeHolderId,OldRoute,NewRoute,PortDate,RowCount
1000000000248419,77026662488,mKcell,mMTS,mKcell,D77,D02,2016-09-20T14:31:01+06:00,23
1000000000248421,77017176650,mKarTel,mKcell,mKcell,,D01,2016-09-20T14:31:17+06:00,
1000000000248422,77056970404,mKarTel,mMTS,mKarTel,D77,D01,2016-09-20T14:32:07+06:00,
1000000000248424,77026776697,mMTS,mKcell,mKcell,,D77,2016-09-20T14:33:40+06:00,
1000000000248425,77017891158,mKarTel,mKcell,mKcell,,D01,2016-09-20T14:34:37+06:00,
1000000000248426,77781741718,mAltel,mKcell,mKcell,,D07,2016-09-20T14:34:04+06:00,
1000000000248427,77071266650,mAltel,mMTS,mMTS,,D07,2016-09-20T14:34:46+06:00,
1000000000248428,77027288897,mKcell,mMTS,mKcell,D77,D02,2016-09-20T14:34:54+06:00,
1000000000248429,77019521810,mKcell,mMTS,mKcell,D77,D02,2016-09-20T14:35:34+06:00,
1000000000248430,77017605561,mKarTel,mKcell,mKcell,,D01,2016-09-20T14:37:49+06:00,
1000000000248431,77016289075,mKcell,mMTS,mKcell,D77,D02,2016-09-20T14:38:57+06:00,
1000000000248433,77072700505,mMTS,mAltel,mMTS,D07,D77,2016-09-20T14:41:04+06:00,
1000000000248434,77012183900,mAltel,mKcell,mKcell,,D07,2016-09-20T14:42:57+06:00,
1000000000248435,77028675500,mMTS,mKcell,mKcell,,D77,2016-09-20T14:43:17+06:00,
1000000000248436,77019250066,mKcell,mAltel,mKcell,D07,D02,2016-09-20T14:45:53+06:00,
1000000000248437,77017357575,mKarTel,mKcell,mKcell,,D01,2016-09-20T14:44:30+06:00,
1000000000248438,77017305109,mMTS,mKcell,mKcell,,D77,2016-09-20T14:48:13+06:00,
1000000000248440,77751528079,mMTS,mKcell,mKcell,,D77,2016-09-20T14:48:13+06:00,
1000000000248441,77767882192,mKarTel,mAltel,mKarTel,D07,D01,2016-09-20T14:50:15+06:00,
1000000000248442,77017071517,mMTS,mKcell,mKcell,,D77,2016-09-20T14:49:53+06:00,
1000000000248443,77079776577,mKarTel,mMTS,mMTS,,D01,2016-09-20T14:51:53+06:00,
1000000000248448,77077483926,mAltel,mMTS,mMTS,,D07,2016-09-20T14:56:58+06:00,
1000000000248450,77058377478,mKarTel,mMTS,mKarTel,D77,D01,2016-09-20T14:58:47+06:00,
