NPId,Number,RecipientId,DonorId,RangeHolderId,OldRoute,NewRoute,PortDate,RowCount
1000000000170560,77001377949,mMTS,mAltel,mAltel,,D77,2016-05-09T16:32:02+06:00,22
1000000000170561,77077771002,mAltel,mMTS,mMTS,,D07,2016-05-09T16:32:39+06:00,
1000000000170562,77789693363,mAltel,mKcell,mKcell,,D07,2016-05-09T16:33:34+06:00,
1000000000170563,77027990232,mKarTel,mKcell,mKcell,,D01,2016-05-09T16:33:44+06:00,
1000000000170564,77775541444,mMTS,mKarTel,mKarTel,,D77,2016-05-09T16:35:22+06:00,
1000000000170565,77005300500,mKcell,mAltel,mAltel,,D02,2016-05-09T16:35:48+06:00,
1000000000170566,77009695538,mMTS,mAltel,mAltel,,D77,2016-05-09T16:37:01+06:00,
1000000000170567,77087556895,mMTS,mAltel,mAltel,,D77,2016-05-09T16:39:01+06:00,
1000000000170568,77756898018,mMTS,mKcell,mKcell,,D77,2016-05-09T16:40:36+06:00,
1000000000170570,77015195766,mKcell,mAltel,mKcell,D07,D02,2016-05-09T16:43:22+06:00,
1000000000170571,77777027979,mKcell,mKarTel,mKarTel,,D02,2016-05-09T16:45:52+06:00,
1000000000170572,77082416967,mMTS,mAltel,mAltel,,D77,2016-05-09T16:46:02+06:00,
1000000000170574,77025525792,mKcell,mAltel,mKcell,D07,D02,2016-05-09T16:49:46+06:00,
1000000000170575,77057865867,mMTS,mKarTel,mKarTel,,D77,2016-05-09T16:51:15+06:00,
1000000000170576,77056336832,mAltel,mKarTel,mKarTel,,D07,2016-05-09T16:51:39+06:00,
1000000000170577,77007102028,mMTS,mAltel,mAltel,,D77,2016-05-09T16:52:04+06:00,
1000000000170580,77085336771,mMTS,mAltel,mAltel,,D77,2016-05-09T16:55:45+06:00,
1000000000170581,77017251586,mAltel,mKcell,mKcell,,D07,2016-05-09T16:56:59+06:00,
1000000000170582,77077997675,mKarTel,mMTS,mMTS,,D01,2016-05-09T16:56:34+06:00,
1000000000170583,77784124467,mMTS,mKcell,mKcell,,D77,2016-05-09T16:57:18+06:00,
1000000000170584,77077900004,mKarTel,mMTS,mMTS,,D01,2016-05-09T16:59:33+06:00,
1000000000170585,77017833132,mKarTel,mKcell,mKcell,,D01,2016-05-09T16:59:53+06:00,
