NPId,Number,RecipientId,DonorId,RangeHolderId,OldRoute,NewRoute,PortDate,RowCount
1000000000393081,77476660182,mMTS,mKcell,mMTS,D02,D77,2017-05-30T18:00:15+06:00,23
1000000000393082,77754299242,mMTS,mKcell,mKcell,,D77,2017-05-30T18:00:21+06:00,
1000000000393083,77054008485,mKarTel,mMTS,mKarTel,D77,D01,2017-05-30T18:02:02+06:00,
1000000000393084,77012140036,mKarTel,mKcell,mKcell,,D01,2017-05-30T18:03:39+06:00,
1000000000393087,77015558379,mKarTel,mKcell,mKcell,,D01,2017-05-30T18:05:40+06:00,
1000000000393088,77077544877,mKarTel,mMTS,mMTS,,D01,2017-05-30T18:06:02+06:00,
1000000000393089,77016252528,mKarTel,mAltel,mKcell,D07,D01,2017-05-30T18:06:29+06:00,
1000000000393090,77077544898,mKarTel,mMTS,mMTS,,D01,2017-05-30T18:06:38+06:00,
1000000000393091,77010710575,mKarTel,mKcell,mKcell,,D01,2017-05-30T18:07:45+06:00,
1000000000393095,77789329293,mKarTel,mKcell,mKcell,,D01,2017-05-30T18:12:22+06:00,
1000000000393096,77017674307,mKarTel,mKcell,mKcell,,D01,2017-05-30T18:14:17+06:00,
1000000000393097,77021220302,mKarTel,mKcell,mKcell,,D01,2017-05-30T18:14:46+06:00,
1000000000393099,77754089886,mMTS,mKcell,mKcell,,D77,2017-05-30T18:14:51+06:00,
1000000000393100,77029118098,mKarTel,mKcell,mKcell,,D01,2017-05-30T18:15:33+06:00,
1000000000393101,77022697475,mAltel,mKcell,mKcell,,D07,2017-05-30T18:17:21+06:00,
1000000000393103,77017674303,mKarTel,mKcell,mKcell,,D01,2017-05-30T18:21:08+06:00,
1000000000393106,77752920102,mMTS,mKcell,mKcell,,D77,2017-05-30T18:22:55+06:00,
1000000000393107,77784432421,mAltel,mKcell,mKcell,,D07,2017-05-30T18:23:23+06:00,
1000000000393108,77775975777,mMTS,mKarTel,mKarTel,,D77,2017-05-30T18:24:12+06:00,
1000000000393109,77058381971,mKarTel,mMTS,mKarTel,D77,D01,2017-05-30T18:24:26+06:00,
1000000000393110,77711910070,mMTS,mKarTel,mKarTel,,D77,2017-05-30T18:24:36+06:00,
1000000000393111,77019999537,mKarTel,mKcell,mKcell,,D01,2017-05-30T18:25:09+06:00,
1000000000393113,77774705550,mMTS,mKarTel,mKarTel,,D77,2017-05-30T18:29:44+06:00,
