NPId,Number,RecipientId,DonorId,RangeHolderId,OldRoute,NewRoute,PortDate,RowCount
1000000000357888,77004006574,mMTS,mAltel,mAltel,,D77,2017-04-02T11:30:39+06:00,11
1000000000357889,77056265722,mMTS,mKarTel,mKarTel,,D77,2017-04-02T11:37:07+06:00,
1000000000357890,77077066635,mKarTel,mMTS,mMTS,D77,D01,2017-04-02T11:37:56+06:00,
1000000000357892,77751842564,mMTS,mKcell,mKcell,,D77,2017-04-02T11:39:06+06:00,
1000000000357897,77777084677,mMTS,mKarTel,mKarTel,,D77,2017-04-02T11:45:14+06:00,
1000000000357898,77000801680,mMTS,mAltel,mAltel,,D77,2017-04-02T11:46:34+06:00,
1000000000357899,77056242588,mKarTel,mMTS,mKarTel,D77,D01,2017-04-02T11:46:50+06:00,
1000000000357900,77014217869,mKarTel,mKcell,mKcell,,D01,2017-04-02T11:49:47+06:00,
1000000000357905,77770382566,mAltel,mKarTel,mKarTel,,D07,2017-04-02T11:55:56+06:00,
1000000000357906,77016030342,mAltel,mKcell,mKcell,,D07,2017-04-02T11:56:14+06:00,
1000000000357907,77058093050,mMTS,mKarTel,mKarTel,,D77,2017-04-02T11:58:06+06:00,
