NPId,Number,RecipientId,DonorId,RangeHolderId,OldRoute,NewRoute,PortDate,RowCount
1000000000369285,77761622009,mKcell,mKarTel,mKarTel,,D02,2017-04-20T21:31:50+06:00,2
1000000000369286,77073166601,mKcell,mMTS,mMTS,,D02,2017-04-20T21:34:19+06:00,
