NPId,Number,RecipientId,DonorId,RangeHolderId,OldRoute,NewRoute,PortDate,RowCount
1000000000395584,77054727546,mKcell,mKarTel,mKarTel,,D02,2017-06-02T10:31:05+06:00,21
1000000000395585,77028266888,mMTS,mKcell,mKcell,,D77,2017-06-02T10:30:27+06:00,
1000000000395586,77072910304,mMTS,mKarTel,mMTS,D01,D77,2017-06-02T10:31:15+06:00,
1000000000395587,77716464003,mMTS,mKarTel,mKarTel,,D77,2017-06-02T10:34:16+06:00,
1000000000395590,77022678387,mKcell,mMTS,mKcell,D77,D02,2017-06-02T10:36:58+06:00,
1000000000395591,77775229512,mAltel,mKarTel,mKarTel,,D07,2017-06-02T10:37:36+06:00,
1000000000395592,77710224494,mAltel,mKarTel,mKarTel,,D07,2017-06-02T10:40:48+06:00,
1000000000395593,77710225594,mAltel,mKarTel,mKarTel,,D07,2017-06-02T10:42:01+06:00,
1000000000395594,77017156673,mKarTel,mKcell,mKcell,,D01,2017-06-02T10:45:16+06:00,
1000000000395595,77772473406,mMTS,mKarTel,mKarTel,,D77,2017-06-02T10:45:25+06:00,
1000000000395596,77014480632,mMTS,mKcell,mKcell,,D77,2017-06-02T10:46:06+06:00,
1000000000395597,77013104433,mKcell,mKarTel,mKcell,D01,D02,2017-06-02T10:48:12+06:00,
1000000000395598,77016662344,mKcell,mKarTel,mKcell,D01,D02,2017-06-02T10:48:41+06:00,
1000000000395599,77079381675,mAltel,mMTS,mMTS,,D07,2017-06-02T10:48:49+06:00,
1000000000395600,77012778625,mMTS,mKcell,mKcell,,D77,2017-06-02T10:49:53+06:00,
1000000000395601,77087681195,mKcell,mAltel,mAltel,,D02,2017-06-02T10:50:01+06:00,
1000000000395603,77751395050,mMTS,mKcell,mKcell,,D77,2017-06-02T10:52:58+06:00,
1000000000395604,77074881083,mAltel,mMTS,mMTS,,D07,2017-06-02T10:53:54+06:00,
1000000000395605,77477220797,mMTS,mKarTel,mMTS,D01,D77,2017-06-02T10:54:33+06:00,
1000000000395606,77017220711,mKarTel,mKcell,mKcell,,D01,2017-06-02T10:54:47+06:00,
1000000000395608,77024881945,mKarTel,mKcell,mKcell,,D01,2017-06-02T10:57:54+06:00,
