NPId,Number,RecipientId,DonorId,RangeHolderId,OldRoute,NewRoute,PortDate,RowCount
1000000000252435,77029474287,mAltel,mKarTel,mKcell,D01,D07,2016-09-28T11:32:40+06:00,27
1000000000252436,77077460227,mKarTel,mMTS,mMTS,,D01,2016-09-28T11:33:34+06:00,
1000000000252437,77471717273,mAltel,mMTS,mMTS,,D07,2016-09-28T11:33:58+06:00,
1000000000252438,77785455554,mKarTel,mKcell,mKcell,,D01,2016-09-28T11:36:18+06:00,
1000000000252439,77477771511,mKcell,mMTS,mMTS,,D02,2016-09-28T11:36:22+06:00,
1000000000252440,77004033056,mMTS,mAltel,mAltel,,D77,2016-09-28T11:37:46+06:00,
1000000000252441,77715019190,mMTS,mKarTel,mKarTel,,D77,2016-09-28T11:40:58+06:00,
1000000000252442,77025833696,mMTS,mKcell,mKcell,,D77,2016-09-28T11:39:16+06:00,
1000000000252443,77752222858,mKarTel,mKcell,mKcell,,D01,2016-09-28T11:40:02+06:00,
1000000000252444,77057693111,mMTS,mKarTel,mKarTel,,D77,2016-09-28T11:41:55+06:00,
1000000000252445,77758576576,mMTS,mAltel,mKcell,D07,D77,2016-09-28T11:42:25+06:00,
1000000000252446,77012689213,mMTS,mKcell,mKcell,,D77,2016-09-28T11:43:23+06:00,
1000000000252447,77077414208,mKcell,mMTS,mMTS,,D02,2016-09-28T11:45:01+06:00,
1000000000252448,77472020262,mKcell,mMTS,mMTS,,D02,2016-09-28T11:46:30+06:00,
1000000000252450,77015017681,mMTS,mKcell,mKcell,,D77,2016-09-28T11:47:23+06:00,
1000000000252451,77019621549,mKarTel,mKcell,mKcell,,D01,2016-09-28T11:48:18+06:00,
1000000000252453,77019829374,mMTS,mKcell,mKcell,,D77,2016-09-28T11:49:28+06:00,
1000000000252454,77004040400,mAltel,mKcell,mAltel,D02,D07,2016-09-28T11:50:25+06:00,
1000000000252455,77785055559,mMTS,mKcell,mKcell,,D77,2016-09-28T11:50:57+06:00,
1000000000252456,77017500583,mKarTel,mKcell,mKcell,,D01,2016-09-28T11:52:00+06:00,
1000000000252457,77773586501,mAltel,mKarTel,mKarTel,,D07,2016-09-28T11:53:53+06:00,
1000000000252458,77017296820,mMTS,mKcell,mKcell,,D77,2016-09-28T11:52:07+06:00,
1000000000252459,77012664010,mKcell,mKarTel,mKcell,D01,D02,2016-09-28T11:55:58+06:00,
1000000000252460,77758777732,mKcell,mMTS,mKcell,D77,D02,2016-09-28T11:54:21+06:00,
1000000000252462,77017188596,mKcell,mAltel,mKcell,D07,D02,2016-09-28T11:56:50+06:00,
1000000000252463,77072253597,mKcell,mMTS,mMTS,,D02,2016-09-28T11:58:02+06:00,
1000000000252465,77072272728,mKcell,mMTS,mMTS,,D02,2016-09-28T11:59:39+06:00,
