NPId,Number,RecipientId,DonorId,RangeHolderId,OldRoute,NewRoute,PortDate,RowCount
1000000000415382,77010525884,mKcell,mKarTel,mKcell,D01,D02,2017-07-03T16:17:54+06:00,32
1000000000415498,77479000201,mKcell,mMTS,mMTS,,D02,2017-07-03T16:01:34+06:00,
1000000000415501,77021819780,mKcell,mKarTel,mKcell,D01,D02,2017-07-03T16:03:43+06:00,
1000000000415502,77018886068,mKarTel,mKcell,mKcell,,D01,2017-07-03T16:03:49+06:00,
1000000000415503,77007555556,mKcell,mAltel,mAltel,,D02,2017-07-03T16:04:32+06:00,
1000000000415506,77767855511,mKarTel,mMTS,mKarTel,D77,D01,2017-07-03T16:05:25+06:00,
1000000000415508,77085333106,mKcell,mAltel,mAltel,,D02,2017-07-03T16:06:41+06:00,
1000000000415509,77005627292,mKcell,mAltel,mAltel,,D02,2017-07-03T16:06:54+06:00,
1000000000415511,77773380411,mMTS,mKarTel,mKarTel,,D77,2017-07-03T16:07:27+06:00,
1000000000415513,77007177001,mKarTel,mAltel,mAltel,,D01,2017-07-03T16:08:19+06:00,
1000000000415517,77055555720,mKarTel,mAltel,mKarTel,D07,D01,2017-07-03T16:11:56+06:00,
1000000000415518,77021595939,mMTS,mKcell,mKcell,D02,D77,2017-07-03T16:11:51+06:00,
1000000000415519,77770550000,mKcell,mKarTel,mKarTel,,D02,2017-07-03T16:12:31+06:00,
1000000000415521,77758203352,mKarTel,mKcell,mKcell,,D01,2017-07-03T16:12:53+06:00,
1000000000415522,77072263495,mAltel,mMTS,mMTS,,D07,2017-07-03T16:13:32+06:00,
1000000000415523,77771386252,mMTS,mKarTel,mKarTel,,D77,2017-07-03T16:13:52+06:00,
1000000000415524,77770059900,mKcell,mMTS,mKarTel,D77,D02,2017-07-03T16:14:28+06:00,
1000000000415525,77051488541,mMTS,mKarTel,mKarTel,,D77,2017-07-03T16:14:52+06:00,
1000000000415526,77079090119,mKcell,mMTS,mMTS,,D02,2017-07-03T16:14:55+06:00,
1000000000415527,77017187004,mKarTel,mKcell,mKcell,,D01,2017-07-03T16:15:05+06:00,
1000000000415528,77012108397,mKarTel,mKcell,mKcell,,D01,2017-07-03T16:15:24+06:00,
1000000000415529,77004627292,mKcell,mAltel,mAltel,,D02,2017-07-03T16:16:52+06:00,
1000000000415530,77717807893,mKcell,mMTS,mKarTel,D77,D02,2017-07-03T16:17:42+06:00,
1000000000415532,77755354336,mKarTel,mKcell,mKcell,,D01,2017-07-03T16:18:13+06:00,
1000000000415539,77757527676,mKarTel,mKcell,mKcell,,D01,2017-07-03T16:23:26+06:00,
1000000000415541,77019241997,mMTS,mKcell,mKcell,,D77,2017-07-03T16:25:55+06:00,
1000000000415543,77006000907,mMTS,mAltel,mAltel,,D77,2017-07-03T16:27:43+06:00,
1000000000415544,77751491063,mMTS,mKcell,mKcell,,D77,2017-07-03T16:27:54+06:00,
1000000000415545,77715205346,mMTS,mKarTel,mKarTel,,D77,2017-07-03T16:28:20+06:00,
1000000000415546,77076594056,mKcell,mMTS,mMTS,D77,D02,2017-07-03T16:28:26+06:00,
1000000000415547,77014281975,mMTS,mKcell,mKcell,,D77,2017-07-03T16:28:25+06:00,
1000000000415548,77786447773,mMTS,mKcell,mKcell,,D77,2017-07-03T16:28:35+06:00,
