NPId,Number,RecipientId,DonorId,RangeHolderId,OldRoute,NewRoute,PortDate,RowCount
1000000000286527,77784113678,mMTS,mKcell,mKcell,,D77,2016-11-29T19:30:13+06:00,13
1000000000286528,77714455999,mKcell,mKarTel,mKarTel,,D02,2016-11-29T19:34:33+06:00,
1000000000286529,77074707552,mKarTel,mMTS,mMTS,,D01,2016-11-29T19:34:28+06:00,
1000000000286530,77785148444,mAltel,mKcell,mKcell,,D07,2016-11-29T19:37:04+06:00,
1000000000286531,77015861076,mMTS,mKcell,mKcell,,D77,2016-11-29T19:37:44+06:00,
1000000000286532,77771755140,mMTS,mKarTel,mKarTel,,D77,2016-11-29T19:37:59+06:00,
1000000000286533,77760290089,mMTS,mKarTel,mKarTel,,D77,2016-11-29T19:39:11+06:00,
1000000000286534,77086467361,mMTS,mAltel,mAltel,,D77,2016-11-29T19:42:34+06:00,
1000000000286535,77772201197,mMTS,mKarTel,mKarTel,,D77,2016-11-29T19:42:53+06:00,
1000000000286539,77019993950,mMTS,mKcell,mKcell,,D77,2016-11-29T19:47:41+06:00,
1000000000286540,77753707531,mKarTel,mKcell,mKcell,,D01,2016-11-29T19:48:36+06:00,
1000000000286541,77782674633,mMTS,mKcell,mKcell,,D77,2016-11-29T19:55:24+06:00,
1000000000286542,77752722512,mMTS,mKcell,mKcell,,D77,2016-11-29T19:52:51+06:00,
