NPId,Number,RecipientId,DonorId,RangeHolderId,OldRoute,NewRoute,PortDate,RowCount
1000000000377693,77015665890,mKarTel,mKcell,mKcell,D02,D01,2017-05-04T09:03:09+06:00,5
1000000000377694,77771512270,mKcell,mKarTel,mKarTel,,D02,2017-05-04T09:11:23+06:00,
1000000000377695,77011281622,mMTS,mKcell,mKcell,,D77,2017-05-04T09:17:40+06:00,
1000000000377697,77013986849,mMTS,mKcell,mKcell,,D77,2017-05-04T09:24:34+06:00,
1000000000377698,77085080892,mKcell,mAltel,mAltel,,D02,2017-05-04T09:27:05+06:00,
