NPId,Number,RecipientId,DonorId,RangeHolderId,OldRoute,NewRoute,PortDate,RowCount
1000000000400069,77027023015,mKarTel,mKcell,mKcell,,D01,2017-06-08T18:00:05+06:00,29
1000000000400070,77479323640,mAltel,mMTS,mMTS,,D07,2017-06-08T18:00:41+06:00,
1000000000400073,77054149999,mMTS,mKarTel,mKarTel,,D77,2017-06-08T18:03:19+06:00,
1000000000400074,77764464446,mMTS,mKarTel,mKarTel,,D77,2017-06-08T18:04:16+06:00,
1000000000400076,77772304931,mMTS,mKarTel,mKarTel,,D77,2017-06-08T18:05:22+06:00,
1000000000400077,77056925055,mKcell,mKarTel,mKarTel,,D02,2017-06-08T18:05:54+06:00,
1000000000400078,77001008727,mMTS,mAltel,mAltel,,D77,2017-06-08T18:05:50+06:00,
1000000000400079,77019774974,mAltel,mKcell,mKcell,,D07,2017-06-08T18:06:16+06:00,
1000000000400080,77015556487,mMTS,mKarTel,mKcell,D01,D77,2017-06-08T18:08:00+06:00,
1000000000400081,77005553095,mMTS,mAltel,mAltel,,D77,2017-06-08T18:08:06+06:00,
1000000000400083,77077626186,mKarTel,mMTS,mMTS,,D01,2017-06-08T18:09:22+06:00,
1000000000400084,77059500023,mMTS,mKarTel,mKarTel,,D77,2017-06-08T18:09:47+06:00,
1000000000400085,77058759774,mAltel,mKarTel,mKarTel,,D07,2017-06-08T18:09:59+06:00,
1000000000400086,77029402317,mKcell,mKarTel,mKcell,D01,D02,2017-06-08T18:10:42+06:00,
1000000000400087,77003366101,mMTS,mAltel,mAltel,,D77,2017-06-08T18:10:19+06:00,
1000000000400091,77471511994,mKcell,mMTS,mMTS,,D02,2017-06-08T18:13:52+06:00,
1000000000400092,77001081971,mMTS,mAltel,mAltel,,D77,2017-06-08T18:13:56+06:00,
1000000000400093,77025956611,mAltel,mMTS,mKcell,D77,D07,2017-06-08T18:14:01+06:00,
1000000000400094,77781770855,mMTS,mKcell,mKcell,,D77,2017-06-08T18:15:09+06:00,
1000000000400095,77019587550,mKcell,mAltel,mKcell,D07,D02,2017-06-08T18:16:03+06:00,
1000000000400096,77024761775,mKcell,mMTS,mKcell,D77,D02,2017-06-08T18:16:46+06:00,
1000000000400097,77073381065,mMTS,mKarTel,mMTS,D01,D77,2017-06-08T18:18:21+06:00,
1000000000400098,77078933925,mKarTel,mMTS,mMTS,,D01,2017-06-08T18:18:18+06:00,
1000000000400099,77781577709,mMTS,mKcell,mKcell,,D77,2017-06-08T18:18:51+06:00,
1000000000400100,77070427034,mKcell,mMTS,mMTS,,D02,2017-06-08T18:20:39+06:00,
1000000000400103,77079504460,mKcell,mAltel,mMTS,D07,D02,2017-06-08T18:25:47+06:00,
1000000000400104,77012660240,mMTS,mKcell,mKcell,,D77,2017-06-08T18:27:20+06:00,
1000000000400105,77017958974,mKcell,mKarTel,mKcell,D01,D02,2017-06-08T18:28:08+06:00,
1000000000400107,77713454505,mKcell,mKarTel,mKarTel,,D02,2017-06-08T18:29:49+06:00,
