NPId,Number,RecipientId,DonorId,RangeHolderId,OldRoute,NewRoute,PortDate,RowCount
1000000000272795,77476186166,mKcell,mMTS,mMTS,,D02,2016-11-02T17:05:25+06:00,30
1000000000272796,77479982928,mKcell,mMTS,mMTS,,D02,2016-11-02T17:02:56+06:00,
1000000000272797,77753535358,mKarTel,mKcell,mKcell,,D01,2016-11-02T17:01:22+06:00,
1000000000272798,77082400001,mKarTel,mKcell,mAltel,D02,D01,2016-11-02T17:01:23+06:00,
1000000000272799,77019546667,mKcell,mAltel,mKcell,D07,D02,2016-11-02T17:01:37+06:00,
1000000000272801,77013131642,mMTS,mKcell,mKcell,,D77,2016-11-02T17:02:17+06:00,
1000000000272802,77479982938,mKcell,mMTS,mMTS,,D02,2016-11-02T17:04:33+06:00,
1000000000272803,77766911919,mMTS,mKarTel,mKarTel,,D77,2016-11-02T17:02:53+06:00,
1000000000272804,77784543132,mMTS,mKcell,mKcell,,D77,2016-11-02T17:03:28+06:00,
1000000000272805,77056317975,mMTS,mKarTel,mKarTel,,D77,2016-11-02T17:05:02+06:00,
1000000000272807,77014472787,mMTS,mKcell,mKcell,,D77,2016-11-02T17:06:37+06:00,
1000000000272810,77072020266,mKcell,mMTS,mMTS,,D02,2016-11-02T17:09:54+06:00,
1000000000272811,77757260815,mKcell,mMTS,mKcell,D77,D02,2016-11-02T17:10:06+06:00,
1000000000272812,77471577730,mMTS,mKarTel,mMTS,D01,D77,2016-11-02T17:12:51+06:00,
1000000000272814,77016680828,mMTS,mKcell,mKcell,,D77,2016-11-02T17:13:33+06:00,
1000000000272815,77026908587,mMTS,mKcell,mKcell,,D77,2016-11-02T17:13:39+06:00,
1000000000272816,77053043004,mKarTel,mKcell,mKarTel,D02,D01,2016-11-02T17:15:38+06:00,
1000000000272817,77075362105,mKarTel,mMTS,mMTS,,D01,2016-11-02T17:15:58+06:00,
1000000000272818,77778422229,mMTS,mKarTel,mKarTel,,D77,2016-11-02T17:17:32+06:00,
1000000000272819,77055766380,mMTS,mKarTel,mKarTel,,D77,2016-11-02T17:17:48+06:00,
1000000000272820,77021779575,mMTS,mKcell,mKcell,,D77,2016-11-02T17:17:50+06:00,
1000000000272821,77012603555,mKcell,mMTS,mKcell,D77,D02,2016-11-02T17:18:17+06:00,
1000000000272822,77051000011,mMTS,mKarTel,mKarTel,,D77,2016-11-02T17:21:17+06:00,
1000000000272823,77777372727,mKcell,mKarTel,mKarTel,,D02,2016-11-02T17:21:51+06:00,
1000000000272824,77017378444,mMTS,mKcell,mKcell,,D77,2016-11-02T17:21:38+06:00,
1000000000272826,77017050104,mMTS,mKcell,mKcell,,D77,2016-11-02T17:23:09+06:00,
1000000000272827,77087401050,mKcell,mAltel,mAltel,,D02,2016-11-02T17:24:17+06:00,
1000000000272828,77052119999,mMTS,mKarTel,mKarTel,,D77,2016-11-02T17:24:54+06:00,
1000000000272829,77010000630,mKarTel,mKcell,mKcell,,D01,2016-11-02T17:25:47+06:00,
1000000000272830,77054477772,mKarTel,mAltel,mKarTel,D07,D01,2016-11-02T17:26:22+06:00,
