NPId,Number,RecipientId,DonorId,RangeHolderId,OldRoute,NewRoute,PortDate,RowCount
1000000000201938,77025121262,mKarTel,mKcell,mKcell,D02,D01,2016-06-28T19:02:19+06:00,23
1000000000201940,77071144170,mKarTel,mMTS,mMTS,,D01,2016-06-28T19:03:54+06:00,
1000000000201941,77013319275,mKarTel,mKcell,mKcell,,D01,2016-06-28T19:06:50+06:00,
1000000000201942,77772416141,mMTS,mKarTel,mKarTel,,D77,2016-06-28T19:06:33+06:00,
1000000000201943,77071055553,mAltel,mMTS,mMTS,,D07,2016-06-28T19:06:38+06:00,
1000000000201944,77005953000,mKcell,mAltel,mAltel,,D02,2016-06-28T19:08:11+06:00,
1000000000201945,77781010066,mKarTel,mKcell,mKcell,,D01,2016-06-28T19:08:44+06:00,
1000000000201947,77012441429,mMTS,mKcell,mKcell,,D77,2016-06-28T19:13:06+06:00,
1000000000201948,77017541228,mKarTel,mKcell,mKcell,,D01,2016-06-28T19:11:19+06:00,
1000000000201949,77081466331,mKarTel,mAltel,mAltel,,D01,2016-06-28T19:11:37+06:00,
1000000000201950,77752231855,mAltel,mKcell,mKcell,,D07,2016-06-28T19:12:04+06:00,
1000000000201951,77075520000,mKcell,mMTS,mMTS,,D02,2016-06-28T19:16:27+06:00,
1000000000201952,77479972573,mKarTel,mMTS,mMTS,,D01,2016-06-28T19:16:13+06:00,
1000000000201953,77771513868,mKcell,mKarTel,mKarTel,,D02,2016-06-28T19:18:17+06:00,
1000000000201954,77015139005,mKarTel,mKcell,mKcell,,D01,2016-06-28T19:19:36+06:00,
1000000000201955,77055975555,mMTS,mKarTel,mKarTel,,D77,2016-06-28T19:20:33+06:00,
1000000000201956,77479972621,mKarTel,mMTS,mMTS,,D01,2016-06-28T19:22:10+06:00,
1000000000201957,77017870043,mMTS,mKcell,mKcell,,D77,2016-06-28T19:22:42+06:00,
1000000000201958,77015522907,mAltel,mKcell,mKcell,,D07,2016-06-28T19:25:36+06:00,
1000000000201959,77013251525,mAltel,mKcell,mKcell,,D07,2016-06-28T19:24:07+06:00,
1000000000201960,77015285854,mKcell,mAltel,mKcell,D07,D02,2016-06-28T19:25:47+06:00,
1000000000201961,77019350424,mKarTel,mKcell,mKcell,,D01,2016-06-28T19:26:05+06:00,
1000000000201962,77073366633,mMTS,mKcell,mMTS,D02,D77,2016-06-28T19:27:38+06:00,
