NPId,Number,RecipientId,DonorId,RangeHolderId,OldRoute,NewRoute,PortDate,RowCount
1000000000430836,77785916641,mMTS,mKcell,mKcell,,D77,2017-07-30T16:30:44+06:00,9
1000000000430837,77015336822,mAltel,mKcell,mKcell,,D07,2017-07-30T16:35:16+06:00,
1000000000430838,77016950009,mKarTel,mKcell,mKcell,,D01,2017-07-30T16:38:08+06:00,
1000000000430839,77013676318,mMTS,mKcell,mKcell,,D77,2017-07-30T16:39:50+06:00,
1000000000430840,77051006019,mAltel,mKarTel,mKarTel,,D07,2017-07-30T16:40:00+06:00,
1000000000430841,77019422220,mKarTel,mAltel,mKcell,D07,D01,2017-07-30T16:40:13+06:00,
1000000000430842,77479049710,mKarTel,mMTS,mMTS,,D01,2017-07-30T16:51:41+06:00,
1000000000430843,77717582800,mMTS,mKcell,mKarTel,D02,D77,2017-07-30T16:55:41+06:00,
1000000000430844,77011011525,mKarTel,mKcell,mKcell,,D01,2017-07-30T16:55:52+06:00,
