NPId,Number,RecipientId,DonorId,RangeHolderId,OldRoute,NewRoute,PortDate,RowCount
1000000000310063,77058184543,mKcell,mKarTel,mKarTel,,D02,2017-01-13T13:31:15+06:00,17
1000000000310064,77017200172,mMTS,mKcell,mKcell,,D77,2017-01-13T13:31:10+06:00,
1000000000310065,77022351002,mKarTel,mKcell,mKcell,,D01,2017-01-13T13:31:47+06:00,
1000000000310066,77019494405,mKcell,mMTS,mKcell,D77,D02,2017-01-13T13:32:52+06:00,
1000000000310067,77756465333,mKarTel,mKcell,mKcell,,D01,2017-01-13T13:34:46+06:00,
1000000000310068,77029040101,mMTS,mKcell,mKcell,,D77,2017-01-13T13:37:09+06:00,
1000000000310069,77712056077,mAltel,mKarTel,mKarTel,,D07,2017-01-13T13:38:12+06:00,
1000000000310070,77024460096,mKcell,mMTS,mKcell,D77,D02,2017-01-13T13:41:35+06:00,
1000000000310071,77016095483,mKarTel,mKcell,mKcell,,D01,2017-01-13T13:42:54+06:00,
1000000000310073,77772703126,mKcell,mKarTel,mKarTel,,D02,2017-01-13T13:46:14+06:00,
1000000000310074,77027105577,mKarTel,mKcell,mKcell,,D01,2017-01-13T13:46:39+06:00,
1000000000310075,77479124066,mKcell,mMTS,mMTS,,D02,2017-01-13T13:47:30+06:00,
1000000000310076,77022156571,mAltel,mKcell,mKcell,,D07,2017-01-13T13:48:10+06:00,
1000000000310077,77013213223,mMTS,mKcell,mKcell,,D77,2017-01-13T13:50:10+06:00,
1000000000310078,77012086000,mMTS,mKcell,mKcell,,D77,2017-01-13T13:50:52+06:00,
1000000000310080,77052952918,mMTS,mKarTel,mKarTel,,D77,2017-01-13T13:56:13+06:00,
1000000000310081,77056238855,mMTS,mKarTel,mKarTel,,D77,2017-01-13T13:58:58+06:00,
