NPId,Number,RecipientId,DonorId,RangeHolderId,OldRoute,NewRoute,PortDate,RowCount
1000000000405731,77074902010,mAltel,mMTS,mMTS,,D07,2017-06-19T16:30:27+06:00,43
1000000000405732,77001211111,mKcell,mKarTel,mAltel,D01,D02,2017-06-19T16:31:46+06:00,
1000000000405733,77005501111,mKcell,mKarTel,mAltel,D01,D02,2017-06-19T16:32:02+06:00,
1000000000405734,77073344272,mKarTel,mMTS,mMTS,,D01,2017-06-19T16:32:01+06:00,
1000000000405735,77026777570,mKcell,mMTS,mKcell,D77,D02,2017-06-19T16:35:31+06:00,
1000000000405736,77755042226,mKarTel,mKcell,mKcell,,D01,2017-06-19T16:36:06+06:00,
1000000000405739,77056525017,mKarTel,mMTS,mKarTel,D77,D01,2017-06-19T16:36:42+06:00,
1000000000405740,77000930074,mKcell,mAltel,mAltel,,D02,2017-06-19T16:37:15+06:00,
1000000000405742,77014169399,mMTS,mKcell,mKcell,,D77,2017-06-19T16:38:08+06:00,
1000000000405743,77765565358,mAltel,mKarTel,mKarTel,,D07,2017-06-19T16:38:24+06:00,
1000000000405744,77019038796,mKcell,mMTS,mKcell,D77,D02,2017-06-19T16:38:32+06:00,
1000000000405745,77021123771,mKarTel,mAltel,mKcell,D07,D01,2017-06-19T16:38:44+06:00,
1000000000405747,77075006115,mKarTel,mMTS,mMTS,,D01,2017-06-19T16:39:25+06:00,
1000000000405748,77757191765,mKarTel,mKcell,mKcell,,D01,2017-06-19T16:39:25+06:00,
1000000000405750,77017777285,mKarTel,mMTS,mKcell,D77,D01,2017-06-19T16:39:31+06:00,
1000000000405751,77012358758,mKarTel,mMTS,mKcell,D77,D01,2017-06-19T16:41:03+06:00,
1000000000405753,77024499799,mKcell,mMTS,mKcell,D77,D02,2017-06-19T16:41:43+06:00,
1000000000405755,77077313083,mKcell,mMTS,mMTS,,D02,2017-06-19T16:44:29+06:00,
1000000000405756,77054147888,mKcell,mKarTel,mKarTel,,D02,2017-06-19T16:45:42+06:00,
1000000000405757,77471282981,mKarTel,mMTS,mMTS,,D01,2017-06-19T16:45:43+06:00,
1000000000405761,77051259506,mMTS,mKarTel,mKarTel,,D77,2017-06-19T16:48:48+06:00,
1000000000405762,77087070093,mKarTel,mAltel,mAltel,,D01,2017-06-19T16:49:39+06:00,
1000000000405763,77026208880,mAltel,mKcell,mKcell,,D07,2017-06-19T16:50:11+06:00,
1000000000405764,77083338333,mAltel,mKarTel,mAltel,D01,D07,2017-06-19T16:50:57+06:00,
1000000000405765,77005771111,mKcell,mKarTel,mAltel,D01,D02,2017-06-19T16:51:37+06:00,
1000000000405766,77017365055,mKarTel,mMTS,mKcell,D77,D01,2017-06-19T16:51:15+06:00,
1000000000405767,77474409512,mAltel,mKcell,mMTS,D02,D07,2017-06-19T16:51:29+06:00,
1000000000405768,77053868001,mMTS,mKarTel,mKarTel,,D77,2017-06-19T16:51:58+06:00,
1000000000405769,77072343383,mKarTel,mMTS,mMTS,,D01,2017-06-19T16:52:01+06:00,
1000000000405770,77005680666,mKcell,mAltel,mAltel,,D02,2017-06-19T16:51:59+06:00,
1000000000405771,77775555591,mKcell,mKarTel,mKarTel,,D02,2017-06-19T16:52:24+06:00,
1000000000405772,77781450014,mKarTel,mKcell,mKcell,D02,D01,2017-06-19T16:52:26+06:00,
1000000000405773,77072179040,mAltel,mKcell,mMTS,D02,D07,2017-06-19T16:52:27+06:00,
1000000000405774,77478272378,mAltel,mMTS,mMTS,,D07,2017-06-19T16:52:52+06:00,
1000000000405775,77076984909,mAltel,mMTS,mMTS,,D07,2017-06-19T16:54:16+06:00,
1000000000405776,77007750000,mKcell,mKarTel,mAltel,D01,D02,2017-06-19T16:55:03+06:00,
1000000000405777,77014112211,mMTS,mKcell,mKcell,,D77,2017-06-19T16:55:45+06:00,
1000000000405778,77023335800,mMTS,mKcell,mKcell,,D77,2017-06-19T16:56:50+06:00,
1000000000405780,77072724842,mAltel,mMTS,mMTS,,D07,2017-06-19T16:56:57+06:00,
1000000000405781,77007790000,mKcell,mKarTel,mAltel,D01,D02,2017-06-19T16:58:01+06:00,
1000000000405782,77015098789,mMTS,mKcell,mKcell,,D77,2017-06-19T16:57:23+06:00,
1000000000405784,77022414348,mAltel,mKcell,mKcell,,D07,2017-06-19T16:58:53+06:00,
1000000000405786,77012332102,mMTS,mKcell,mKcell,,D77,2017-06-19T16:59:48+06:00,
