NPId,Number,RecipientId,DonorId,RangeHolderId,OldRoute,NewRoute,PortDate,RowCount
1000000000127966,77013723332,mMTS,mKcell,mKcell,,D77,2016-03-17T18:01:44+06:00,26
1000000000127967,77021945154,mMTS,mKcell,mKcell,,D77,2016-03-17T18:02:25+06:00,
1000000000127969,77012041995,mMTS,mKcell,mKcell,,D77,2016-03-17T18:04:52+06:00,
1000000000127971,77025174080,mKarTel,mMTS,mKcell,D77,D01,2016-03-17T18:06:09+06:00,
1000000000127972,77774777730,mMTS,mKarTel,mKarTel,,D77,2016-03-17T18:07:41+06:00,
1000000000127975,77754027562,mKcell,mMTS,mKcell,D77,D02,2016-03-17T18:11:41+06:00,
1000000000127977,77025100686,mAltel,mKcell,mKcell,,D07,2016-03-17T18:09:45+06:00,
1000000000127978,77778698222,mKarTel,mKcell,mKarTel,D02,D01,2016-03-17T18:10:13+06:00,
1000000000127980,77015885789,mKarTel,mKcell,mKcell,,D01,2016-03-17T18:11:39+06:00,
1000000000127982,77018112759,mMTS,mKcell,mKcell,,D77,2016-03-17T18:12:00+06:00,
1000000000127983,77017693532,mKarTel,mMTS,mKcell,D77,D01,2016-03-17T18:13:32+06:00,
1000000000127984,77773963616,mKcell,mKarTel,mKarTel,,D02,2016-03-17T18:14:57+06:00,
1000000000127986,77071115395,mAltel,mMTS,mMTS,,D07,2016-03-17T18:15:58+06:00,
1000000000127987,77019729593,mKarTel,mAltel,mKcell,D07,D01,2016-03-17T18:16:28+06:00,
1000000000127989,77007757751,mMTS,mAltel,mAltel,,D77,2016-03-17T18:17:52+06:00,
1000000000127990,77769391991,mAltel,mKarTel,mKarTel,,D07,2016-03-17T18:19:03+06:00,
1000000000127991,77028850007,mMTS,mKcell,mKcell,,D77,2016-03-17T18:18:45+06:00,
1000000000127993,77079871907,mKarTel,mMTS,mMTS,,D01,2016-03-17T18:20:29+06:00,
1000000000127994,77017991152,mKarTel,mKcell,mKcell,,D01,2016-03-17T18:20:51+06:00,
1000000000127996,77018005707,mAltel,mKcell,mKcell,,D07,2016-03-17T18:24:05+06:00,
1000000000127997,77773662040,mMTS,mKarTel,mKarTel,,D77,2016-03-17T18:24:53+06:00,
1000000000127998,77775667575,mMTS,mKarTel,mKarTel,,D77,2016-03-17T18:25:13+06:00,
1000000000127999,77079111503,mAltel,mMTS,mMTS,,D07,2016-03-17T18:25:11+06:00,
1000000000128000,77017322615,mAltel,mKcell,mKcell,,D07,2016-03-17T18:25:25+06:00,
1000000000128001,77082227961,mKcell,mAltel,mAltel,,D02,2016-03-17T18:26:16+06:00,
1000000000128003,77776030083,mAltel,mKarTel,mKarTel,,D07,2016-03-17T18:29:37+06:00,
