NPId,Number,RecipientId,DonorId,RangeHolderId,OldRoute,NewRoute,PortDate,RowCount
1000000000103625,77010140640,mKarTel,mKcell,mKcell,,D01,2016-03-01T14:13:00+06:00,54
1000000000103625,77010351486,mKarTel,mKcell,mKcell,,D01,2016-03-01T14:13:00+06:00,
1000000000103625,77010351487,mKarTel,mKcell,mKcell,,D01,2016-03-01T14:13:00+06:00,
1000000000103625,77010351488,mKarTel,mKcell,mKcell,,D01,2016-03-01T14:13:00+06:00,
1000000000103625,77010351490,mKarTel,mKcell,mKcell,,D01,2016-03-01T14:13:00+06:00,
1000000000103625,77010351491,mKarTel,mKcell,mKcell,,D01,2016-03-01T14:13:00+06:00,
1000000000103625,77010351492,mKarTel,mKcell,mKcell,,D01,2016-03-01T14:13:00+06:00,
1000000000103625,77010355821,mKarTel,mKcell,mKcell,,D01,2016-03-01T14:13:00+06:00,
1000000000103625,77010355822,mKarTel,mKcell,mKcell,,D01,2016-03-01T14:13:00+06:00,
1000000000103625,77010357066,mKarTel,mKcell,mKcell,,D01,2016-03-01T14:13:00+06:00,
1000000000103625,77012234436,mKarTel,mKcell,mKcell,,D01,2016-03-01T14:13:00+06:00,
1000000000103625,77015017684,mKarTel,mKcell,mKcell,,D01,2016-03-01T14:13:00+06:00,
1000000000103625,77015223632,mKarTel,mKcell,mKcell,,D01,2016-03-01T14:13:00+06:00,
1000000000103625,77017472444,mKarTel,mKcell,mKcell,,D01,2016-03-01T14:13:00+06:00,
1000000000103625,77019951562,mKarTel,mKcell,mKcell,,D01,2016-03-01T14:13:00+06:00,
1000000000103625,77019951569,mKarTel,mKcell,mKcell,,D01,2016-03-01T14:13:00+06:00,
1000000000103625,77022244888,mKarTel,mKcell,mKcell,,D01,2016-03-01T14:13:00+06:00,
1000000000103625,77027772243,mKarTel,mKcell,mKcell,,D01,2016-03-01T14:13:00+06:00,
1000000000103689,77024153910,mMTS,mKcell,mKcell,,D77,2016-03-01T14:00:25+06:00,
1000000000103690,77071368624,mAltel,mMTS,mMTS,,D07,2016-03-01T14:00:27+06:00,
1000000000103691,77027019570,mMTS,mKcell,mKcell,,D77,2016-03-01T14:01:21+06:00,
1000000000103696,77073519676,mKarTel,mMTS,mMTS,,D01,2016-03-01T14:04:40+06:00,
1000000000103698,77028374499,mKarTel,mKcell,mKcell,,D01,2016-03-01T14:05:26+06:00,
1000000000103700,77772252812,mAltel,mKarTel,mKarTel,,D07,2016-03-01T14:06:42+06:00,
1000000000103701,77017560394,mKarTel,mKcell,mKcell,,D01,2016-03-01T14:07:31+06:00,
1000000000103703,77057047719,mMTS,mKarTel,mKarTel,,D77,2016-03-01T14:08:12+06:00,
1000000000103704,77756179599,mMTS,mKcell,mKcell,,D77,2016-03-01T14:11:42+06:00,
1000000000103706,77777595146,mAltel,mKarTel,mKarTel,,D07,2016-03-01T14:13:49+06:00,
1000000000103707,77023846909,mKarTel,mKcell,mKcell,,D01,2016-03-01T14:14:24+06:00,
1000000000103708,77018423171,mAltel,mKcell,mKcell,,D07,2016-03-01T14:14:09+06:00,
1000000000103709,77773125003,mMTS,mKarTel,mKarTel,,D77,2016-03-01T14:14:19+06:00,
1000000000103710,77072090367,mAltel,mMTS,mMTS,,D07,2016-03-01T14:14:07+06:00,
1000000000103711,77779290000,mKcell,mKarTel,mKarTel,,D02,2016-03-01T14:15:10+06:00,
1000000000103714,77027146316,mMTS,mKcell,mKcell,,D77,2016-03-01T14:15:40+06:00,
1000000000103715,77015144387,mAltel,mKcell,mKcell,,D07,2016-03-01T14:15:51+06:00,
1000000000103717,77054438649,mMTS,mKarTel,mKarTel,,D77,2016-03-01T14:16:22+06:00,
1000000000103718,77012330396,mMTS,mKcell,mKcell,,D77,2016-03-01T14:18:48+06:00,
1000000000103719,77017464222,mMTS,mKcell,mKcell,,D77,2016-03-01T14:18:47+06:00,
1000000000103720,77017434152,mKarTel,mKcell,mKcell,,D01,2016-03-01T14:19:43+06:00,
1000000000103721,77053108818,mAltel,mKarTel,mKarTel,,D07,2016-03-01T14:19:40+06:00,
1000000000103722,77477009969,mKarTel,mMTS,mMTS,,D01,2016-03-01T14:20:21+06:00,
1000000000103723,77022101122,mMTS,mKcell,mKcell,,D77,2016-03-01T14:20:36+06:00,
1000000000103725,77018863388,mMTS,mKcell,mKcell,,D77,2016-03-01T14:21:49+06:00,
1000000000103727,77073406916,mKcell,mMTS,mMTS,,D02,2016-03-01T14:24:00+06:00,
1000000000103730,77055600599,mAltel,mKarTel,mKarTel,,D07,2016-03-01T14:25:11+06:00,
1000000000103731,77073406912,mKcell,mMTS,mMTS,,D02,2016-03-01T14:25:42+06:00,
1000000000103733,77770004050,mAltel,mKarTel,mKarTel,,D07,2016-03-01T14:27:47+06:00,
1000000000103735,77015228805,mKarTel,mKcell,mKcell,,D01,2016-03-01T14:26:52+06:00,
1000000000103737,77764669666,mMTS,mKarTel,mKarTel,,D77,2016-03-01T14:27:07+06:00,
1000000000103740,77789700800,mAltel,mKcell,mKcell,,D07,2016-03-01T14:29:08+06:00,
1000000000103741,77071988817,mKcell,mMTS,mMTS,,D02,2016-03-01T14:28:12+06:00,
1000000000103742,77019991189,mAltel,mKcell,mKcell,,D07,2016-03-01T14:29:08+06:00,
1000000000103743,77019445590,mAltel,mKcell,mKcell,,D07,2016-03-01T14:29:07+06:00,
1000000000103746,77474919889,mAltel,mMTS,mMTS,,D07,2016-03-01T14:29:07+06:00,
