NPId,Number,RecipientId,DonorId,RangeHolderId,OldRoute,NewRoute,PortDate,RowCount
1000000000129707,77016687002,mMTS,mKcell,mKcell,,D77,2016-03-20T10:42:02+06:00,5
1000000000129709,77011619996,mAltel,mKcell,mKcell,,D07,2016-03-20T10:50:33+06:00,
1000000000129710,77779988577,mMTS,mKarTel,mKarTel,,D77,2016-03-20T10:52:41+06:00,
1000000000129711,77753955565,mMTS,mKcell,mKcell,,D77,2016-03-20T10:56:48+06:00,
1000000000129712,77753538606,mMTS,mKcell,mKcell,,D77,2016-03-20T10:56:57+06:00,
