NPId,Number,RecipientId,DonorId,RangeHolderId,OldRoute,NewRoute,PortDate,RowCount
1000000000161483,77017305882,mKarTel,mKcell,mKcell,,D01,2016-04-27T13:00:58+06:00,28
1000000000161484,77015297499,mKarTel,mKcell,mKcell,,D01,2016-04-27T13:01:25+06:00,
1000000000161488,77012500558,mKarTel,mKcell,mKcell,,D01,2016-04-27T13:01:52+06:00,
1000000000161490,77015339561,mMTS,mKcell,mKcell,,D77,2016-04-27T13:01:59+06:00,
1000000000161492,77017349836,mMTS,mKcell,mKcell,,D77,2016-04-27T13:02:12+06:00,
1000000000161493,77712899434,mMTS,mKarTel,mKarTel,,D77,2016-04-27T13:02:30+06:00,
1000000000161494,77071011142,mKarTel,mMTS,mMTS,,D01,2016-04-27T13:02:37+06:00,
1000000000161495,77004518000,mKcell,mMTS,mAltel,D77,D02,2016-04-27T13:03:17+06:00,
1000000000161497,77015127301,mMTS,mKcell,mKcell,,D77,2016-04-27T13:03:34+06:00,
1000000000161498,77789924666,mMTS,mKcell,mKcell,,D77,2016-04-27T13:04:40+06:00,
1000000000161499,77004097000,mKcell,mMTS,mAltel,D77,D02,2016-04-27T13:06:20+06:00,
1000000000161500,77013246375,mMTS,mKcell,mKcell,,D77,2016-04-27T13:07:33+06:00,
1000000000161503,77759580565,mKcell,mMTS,mKcell,D77,D02,2016-04-27T13:08:23+06:00,
1000000000161505,77751383066,mMTS,mKcell,mKcell,,D77,2016-04-27T13:12:16+06:00,
1000000000161507,77016269723,mMTS,mKcell,mKcell,,D77,2016-04-27T13:13:22+06:00,
1000000000161510,77711121986,mMTS,mKarTel,mKarTel,,D77,2016-04-27T13:14:30+06:00,
1000000000161511,77027559665,mMTS,mKcell,mKcell,,D77,2016-04-27T13:15:09+06:00,
1000000000161512,77014045979,mMTS,mKcell,mKcell,,D77,2016-04-27T13:16:13+06:00,
1000000000161513,77024525261,mMTS,mKcell,mKcell,,D77,2016-04-27T13:16:44+06:00,
1000000000161514,77785888885,mMTS,mKcell,mKcell,,D77,2016-04-27T13:17:22+06:00,
1000000000161515,77027104343,mMTS,mKcell,mKcell,,D77,2016-04-27T13:17:22+06:00,
1000000000161517,77768425550,mMTS,mKarTel,mKarTel,,D77,2016-04-27T13:18:27+06:00,
1000000000161519,77024507820,mMTS,mKcell,mKcell,,D77,2016-04-27T13:21:08+06:00,
1000000000161520,77753933532,mMTS,mKcell,mKcell,,D77,2016-04-27T13:21:09+06:00,
1000000000161524,77013418935,mKarTel,mKcell,mKcell,,D01,2016-04-27T13:24:05+06:00,
1000000000161525,77025509063,mKarTel,mKcell,mKcell,,D01,2016-04-27T13:24:31+06:00,
1000000000161529,77017269361,mKarTel,mKcell,mKcell,,D01,2016-04-27T13:27:23+06:00,
1000000000161530,77025041622,mKarTel,mKcell,mKcell,,D01,2016-04-27T13:27:39+06:00,
