NPId,Number,RecipientId,DonorId,RangeHolderId,OldRoute,NewRoute,PortDate,RowCount
1000000000171345,77083160141,mMTS,mAltel,mAltel,,D77,2016-05-10T20:32:02+06:00,2
1000000000171346,77772922010,mKcell,mKarTel,mKarTel,,D02,2016-05-10T20:43:51+06:00,
