NPId,Number,RecipientId,DonorId,RangeHolderId,OldRoute,NewRoute,PortDate,RowCount
1000000000404900,77761111116,mKarTel,mAltel,mKarTel,D07,D01,2017-06-17T16:00:50+06:00,26
1000000000404901,77018001500,mKarTel,mKcell,mKcell,,D01,2017-06-17T16:00:56+06:00,
1000000000404902,77018002600,mKarTel,mKcell,mKcell,,D01,2017-06-17T16:01:06+06:00,
1000000000404903,77018001600,mKarTel,mKcell,mKcell,,D01,2017-06-17T16:01:12+06:00,
1000000000404905,77001115123,mMTS,mAltel,mAltel,,D77,2017-06-17T16:03:45+06:00,
1000000000404906,77077872033,mKarTel,mMTS,mMTS,,D01,2017-06-17T16:04:21+06:00,
1000000000404907,77017407514,mMTS,mKcell,mKcell,,D77,2017-06-17T16:06:21+06:00,
1000000000404908,77073380419,mKarTel,mMTS,mMTS,,D01,2017-06-17T16:06:45+06:00,
1000000000404910,77001510505,mKcell,mAltel,mAltel,,D02,2017-06-17T16:08:47+06:00,
1000000000404911,77014579813,mKarTel,mKcell,mKcell,,D01,2017-06-17T16:09:26+06:00,
1000000000404912,77013016182,mKcell,mAltel,mKcell,D07,D02,2017-06-17T16:11:21+06:00,
1000000000404913,77015291558,mKarTel,mKcell,mKcell,,D01,2017-06-17T16:12:28+06:00,
1000000000404914,77024095711,mKarTel,mKcell,mKcell,,D01,2017-06-17T16:13:41+06:00,
1000000000404915,77076288628,mKarTel,mMTS,mMTS,,D01,2017-06-17T16:15:29+06:00,
1000000000404916,77473766756,mAltel,mMTS,mMTS,,D07,2017-06-17T16:15:19+06:00,
1000000000404917,77017711666,mMTS,mKcell,mKcell,,D77,2017-06-17T16:16:40+06:00,
1000000000404918,77001774440,mKarTel,mAltel,mAltel,,D01,2017-06-17T16:17:27+06:00,
1000000000404920,77000252700,mMTS,mAltel,mAltel,,D77,2017-06-17T16:18:34+06:00,
1000000000404921,77768113311,mKarTel,mMTS,mKarTel,D77,D01,2017-06-17T16:18:48+06:00,
1000000000404922,77718222388,mMTS,mKarTel,mKarTel,,D77,2017-06-17T16:22:55+06:00,
1000000000404923,77772425980,mKcell,mKarTel,mKarTel,,D02,2017-06-17T16:24:29+06:00,
1000000000404925,77779976999,mKcell,mKarTel,mKarTel,,D02,2017-06-17T16:26:29+06:00,
1000000000404926,77075433251,mAltel,mMTS,mMTS,,D07,2017-06-17T16:27:41+06:00,
1000000000404927,77003862976,mMTS,mAltel,mAltel,,D77,2017-06-17T16:28:04+06:00,
1000000000404928,77015748339,mKarTel,mKcell,mKcell,,D01,2017-06-17T16:29:01+06:00,
1000000000404929,77476404497,mKarTel,mMTS,mMTS,,D01,2017-06-17T16:29:22+06:00,
