NPId,Number,RecipientId,DonorId,RangeHolderId,OldRoute,NewRoute,PortDate,RowCount
1000000000135884,77013210001,mMTS,mKcell,mKcell,,D77,2016-03-28T19:01:24+06:00,32
1000000000135886,77752500334,mMTS,mKcell,mKcell,,D77,2016-03-28T19:02:04+06:00,
1000000000135887,77017366236,mKcell,mKarTel,mKcell,D01,D02,2016-03-28T19:03:20+06:00,
1000000000135888,77022244733,mKarTel,mKcell,mKcell,,D01,2016-03-28T19:03:21+06:00,
1000000000135889,77713422613,mMTS,mKarTel,mKarTel,,D77,2016-03-28T19:03:49+06:00,
1000000000135890,77751862861,mAltel,mKcell,mKcell,,D07,2016-03-28T19:03:37+06:00,
1000000000135891,77773787300,mAltel,mKarTel,mKarTel,,D07,2016-03-28T19:05:56+06:00,
1000000000135892,77713425550,mMTS,mKarTel,mKarTel,,D77,2016-03-28T19:06:19+06:00,
1000000000135893,77771351541,mMTS,mKarTel,mKarTel,,D77,2016-03-28T19:08:02+06:00,
1000000000135894,77477054090,mKcell,mMTS,mMTS,,D02,2016-03-28T19:07:24+06:00,
1000000000135895,77018229496,mKcell,mAltel,mKcell,D07,D02,2016-03-28T19:07:54+06:00,
1000000000135896,77001117000,mKcell,mAltel,mAltel,,D02,2016-03-28T19:11:37+06:00,
1000000000135897,77076622579,mKarTel,mMTS,mMTS,,D01,2016-03-28T19:13:59+06:00,
1000000000135898,77714016948,mAltel,mKarTel,mKarTel,,D07,2016-03-28T19:14:55+06:00,
1000000000135899,77012150525,mKcell,mAltel,mKcell,D07,D02,2016-03-28T19:15:47+06:00,
1000000000135901,77076622581,mKarTel,mMTS,mMTS,,D01,2016-03-28T19:18:30+06:00,
1000000000135902,77057319720,mKcell,mKarTel,mKarTel,,D02,2016-03-28T19:19:50+06:00,
1000000000135905,77767777650,mAltel,mKarTel,mKarTel,,D07,2016-03-28T19:21:33+06:00,
1000000000135906,77012121236,mKcell,mKarTel,mKcell,D01,D02,2016-03-28T19:22:46+06:00,
1000000000135907,77773610005,mKcell,mKarTel,mKarTel,,D02,2016-03-28T19:23:08+06:00,
1000000000135908,77017177061,mKcell,mMTS,mKcell,D77,D02,2016-03-28T19:26:01+06:00,
1000000000135908,77017609511,mKcell,mMTS,mKcell,D77,D02,2016-03-28T19:26:01+06:00,
1000000000135908,77017609512,mKcell,mMTS,mKcell,D77,D02,2016-03-28T19:26:01+06:00,
1000000000135908,77017609514,mKcell,mMTS,mKcell,D77,D02,2016-03-28T19:26:01+06:00,
1000000000135908,77017609515,mKcell,mMTS,mKcell,D77,D02,2016-03-28T19:26:01+06:00,
1000000000135908,77017609516,mKcell,mMTS,mKcell,D77,D02,2016-03-28T19:26:01+06:00,
1000000000135908,77017609517,mKcell,mMTS,mKcell,D77,D02,2016-03-28T19:26:01+06:00,
1000000000135908,77017609518,mKcell,mMTS,mKcell,D77,D02,2016-03-28T19:26:01+06:00,
1000000000135908,77017609519,mKcell,mMTS,mKcell,D77,D02,2016-03-28T19:26:01+06:00,
1000000000135910,77715466664,mKcell,mKarTel,mKarTel,,D02,2016-03-28T19:28:53+06:00,
1000000000135911,77475556736,mAltel,mMTS,mMTS,,D07,2016-03-28T19:27:06+06:00,
1000000000135912,77081112173,mKcell,mAltel,mAltel,,D02,2016-03-28T19:28:15+06:00,
