NPId,Number,RecipientId,DonorId,RangeHolderId,OldRoute,NewRoute,PortDate,RowCount
1000000000309524,77765722223,mKarTel,mKcell,mKarTel,D02,D01,2017-01-12T13:36:37+06:00,21
1000000000309525,77785010508,mAltel,mKcell,mKcell,,D07,2017-01-12T13:37:05+06:00,
1000000000309526,77472500035,mKarTel,mMTS,mMTS,,D01,2017-01-12T13:37:20+06:00,
1000000000309527,77765722225,mKarTel,mKcell,mKarTel,D02,D01,2017-01-12T13:37:41+06:00,
1000000000309528,77022222676,mKarTel,mKcell,mKcell,,D01,2017-01-12T13:38:28+06:00,
1000000000309529,77076044499,mKcell,mMTS,mMTS,,D02,2017-01-12T13:38:26+06:00,
1000000000309531,77077212121,mAltel,mMTS,mMTS,,D07,2017-01-12T13:39:20+06:00,
1000000000309532,77001000847,mKcell,mAltel,mAltel,,D02,2017-01-12T13:42:43+06:00,
1000000000309533,77001000278,mKcell,mAltel,mAltel,,D02,2017-01-12T13:43:17+06:00,
1000000000309534,77769058888,mKcell,mKarTel,mKarTel,,D02,2017-01-12T13:44:12+06:00,
1000000000309535,77001000945,mKcell,mAltel,mAltel,,D02,2017-01-12T13:43:59+06:00,
1000000000309536,77001000379,mKcell,mAltel,mAltel,,D02,2017-01-12T13:45:34+06:00,
1000000000309537,77776724644,mKarTel,mAltel,mKarTel,D07,D01,2017-01-12T13:45:43+06:00,
1000000000309538,77001000879,mKcell,mAltel,mAltel,,D02,2017-01-12T13:46:01+06:00,
1000000000309539,77074757893,mAltel,mMTS,mMTS,,D07,2017-01-12T13:47:09+06:00,
1000000000309540,77780007784,mAltel,mKcell,mKcell,,D07,2017-01-12T13:47:17+06:00,
1000000000309542,77011829500,mKcell,mAltel,mKcell,D07,D02,2017-01-12T13:51:03+06:00,
1000000000309543,77058223888,mKcell,mKarTel,mKarTel,,D02,2017-01-12T13:52:46+06:00,
1000000000309544,77073587565,mMTS,mAltel,mMTS,D07,D77,2017-01-12T13:52:38+06:00,
1000000000309545,77056791166,mMTS,mKarTel,mKarTel,,D77,2017-01-12T13:54:30+06:00,
1000000000309546,77015553441,mMTS,mKcell,mKcell,,D77,2017-01-12T13:58:24+06:00,
