NPId,Number,RecipientId,DonorId,RangeHolderId,OldRoute,NewRoute,PortDate,RowCount
1000000000354013,77017320661,mKarTel,mKcell,mKcell,,D01,2017-03-29T13:00:25+06:00,67
1000000000354013,77017320662,mKarTel,mKcell,mKcell,,D01,2017-03-29T13:00:25+06:00,
1000000000354013,77017320663,mKarTel,mKcell,mKcell,,D01,2017-03-29T13:00:25+06:00,
1000000000354013,77017320664,mKarTel,mKcell,mKcell,,D01,2017-03-29T13:00:25+06:00,
1000000000354013,77017320665,mKarTel,mKcell,mKcell,,D01,2017-03-29T13:00:25+06:00,
1000000000354013,77017320667,mKarTel,mKcell,mKcell,,D01,2017-03-29T13:00:25+06:00,
1000000000354013,77017320668,mKarTel,mKcell,mKcell,,D01,2017-03-29T13:00:25+06:00,
1000000000354013,77017320681,mKarTel,mKcell,mKcell,,D01,2017-03-29T13:00:25+06:00,
1000000000354013,77017320682,mKarTel,mKcell,mKcell,,D01,2017-03-29T13:00:25+06:00,
1000000000354013,77017320683,mKarTel,mKcell,mKcell,,D01,2017-03-29T13:00:25+06:00,
1000000000354013,77017450579,mKarTel,mKcell,mKcell,,D01,2017-03-29T13:00:25+06:00,
1000000000354013,77017450582,mKarTel,mKcell,mKcell,,D01,2017-03-29T13:00:25+06:00,
1000000000354013,77017450584,mKarTel,mKcell,mKcell,,D01,2017-03-29T13:00:25+06:00,
1000000000354013,77017450586,mKarTel,mKcell,mKcell,,D01,2017-03-29T13:00:25+06:00,
1000000000354013,77017570232,mKarTel,mKcell,mKcell,,D01,2017-03-29T13:00:25+06:00,
1000000000354013,77017570233,mKarTel,mKcell,mKcell,,D01,2017-03-29T13:00:25+06:00,
1000000000354013,77017570234,mKarTel,mKcell,mKcell,,D01,2017-03-29T13:00:25+06:00,
1000000000354013,77017570235,mKarTel,mKcell,mKcell,,D01,2017-03-29T13:00:25+06:00,
1000000000354013,77017570241,mKarTel,mKcell,mKcell,,D01,2017-03-29T13:00:25+06:00,
1000000000354718,77771121747,mKarTel,mKcell,mKarTel,D02,D01,2017-03-29T13:01:07+06:00,
1000000000354719,77078763410,mKarTel,mMTS,mMTS,,D01,2017-03-29T13:01:18+06:00,
1000000000354720,77770316576,mKarTel,mKcell,mKarTel,D02,D01,2017-03-29T13:02:16+06:00,
1000000000354721,77472221970,mKcell,mMTS,mMTS,,D02,2017-03-29T13:03:05+06:00,
1000000000354722,77005554526,mKcell,mAltel,mAltel,,D02,2017-03-29T13:02:58+06:00,
1000000000354723,77771121778,mKarTel,mKcell,mKarTel,D02,D01,2017-03-29T13:03:30+06:00,
1000000000354724,77029647173,mMTS,mKcell,mKcell,,D77,2017-03-29T13:03:23+06:00,
1000000000354725,77057706777,mMTS,mKarTel,mKarTel,,D77,2017-03-29T13:05:00+06:00,
1000000000354726,77012120090,mAltel,mKcell,mKcell,,D07,2017-03-29T13:04:36+06:00,
1000000000354727,77770316409,mKarTel,mKcell,mKarTel,D02,D01,2017-03-29T13:05:11+06:00,
1000000000354729,77771121685,mKarTel,mKcell,mKarTel,D02,D01,2017-03-29T13:06:24+06:00,
1000000000354730,77007773714,mKcell,mAltel,mAltel,,D02,2017-03-29T13:06:58+06:00,
1000000000354731,77070355263,mKarTel,mMTS,mMTS,,D01,2017-03-29T13:07:15+06:00,
1000000000354732,77771121917,mKarTel,mKcell,mKarTel,D02,D01,2017-03-29T13:07:35+06:00,
1000000000354733,77055612661,mMTS,mKarTel,mKarTel,,D77,2017-03-29T13:07:59+06:00,
1000000000354734,77001681212,mKcell,mAltel,mAltel,,D02,2017-03-29T13:08:29+06:00,
1000000000354735,77007773761,mKcell,mAltel,mAltel,,D02,2017-03-29T13:08:41+06:00,
1000000000354736,77771121811,mKarTel,mKcell,mKarTel,D02,D01,2017-03-29T13:08:49+06:00,
1000000000354739,77771121694,mKarTel,mKcell,mKarTel,D02,D01,2017-03-29T13:10:17+06:00,
1000000000354740,77007773718,mKcell,mAltel,mAltel,,D02,2017-03-29T13:10:19+06:00,
1000000000354742,77771121782,mKarTel,mKcell,mKarTel,D02,D01,2017-03-29T13:12:07+06:00,
1000000000354743,77755643746,mMTS,mKcell,mKcell,,D77,2017-03-29T13:12:57+06:00,
1000000000354744,77779729222,mKarTel,mMTS,mKarTel,D77,D01,2017-03-29T13:13:15+06:00,
1000000000354745,77007773719,mKcell,mAltel,mAltel,,D02,2017-03-29T13:13:11+06:00,
1000000000354747,77783086668,mAltel,mKcell,mKcell,,D07,2017-03-29T13:14:30+06:00,
1000000000354748,77473130159,mMTS,mKarTel,mMTS,D01,D77,2017-03-29T13:14:51+06:00,
1000000000354749,77007773764,mKcell,mAltel,mAltel,,D02,2017-03-29T13:14:54+06:00,
1000000000354750,77071148719,mKarTel,mKcell,mMTS,D02,D01,2017-03-29T13:15:22+06:00,
1000000000354752,77017201190,mKarTel,mKcell,mKcell,,D01,2017-03-29T13:16:48+06:00,
1000000000354753,77071554321,mKarTel,mMTS,mMTS,,D01,2017-03-29T13:17:59+06:00,
1000000000354754,77755643651,mMTS,mKcell,mKcell,,D77,2017-03-29T13:17:52+06:00,
1000000000354755,77751772794,mMTS,mKcell,mKcell,,D77,2017-03-29T13:18:22+06:00,
1000000000354758,77780002807,mAltel,mKcell,mKcell,,D07,2017-03-29T13:19:55+06:00,
1000000000354759,77081690169,mKarTel,mAltel,mAltel,,D01,2017-03-29T13:20:54+06:00,
1000000000354761,77072161006,mKarTel,mMTS,mMTS,,D01,2017-03-29T13:21:24+06:00,
1000000000354762,77007773798,mKcell,mAltel,mAltel,,D02,2017-03-29T13:22:04+06:00,
1000000000354764,77001122742,mKcell,mAltel,mAltel,D07,D02,2017-03-29T13:22:53+06:00,
1000000000354765,77755642931,mMTS,mKcell,mKcell,,D77,2017-03-29T13:22:52+06:00,
1000000000354766,77007773754,mKcell,mAltel,mAltel,,D02,2017-03-29T13:23:24+06:00,
1000000000354768,77007773756,mKcell,mAltel,mAltel,,D02,2017-03-29T13:25:43+06:00,
1000000000354769,77075314321,mAltel,mMTS,mMTS,,D07,2017-03-29T13:25:35+06:00,
1000000000354770,77771207131,mKarTel,mMTS,mKarTel,D77,D01,2017-03-29T13:26:32+06:00,
1000000000354771,77081700170,mKarTel,mMTS,mAltel,D77,D01,2017-03-29T13:26:37+06:00,
1000000000354772,77073309161,mAltel,mMTS,mMTS,,D07,2017-03-29T13:26:43+06:00,
1000000000354773,77776041001,mAltel,mKarTel,mKarTel,,D07,2017-03-29T13:27:48+06:00,
1000000000354774,77788888136,mKarTel,mKcell,mKcell,,D01,2017-03-29T13:28:08+06:00,
1000000000354775,77755643971,mMTS,mKcell,mKcell,,D77,2017-03-29T13:27:55+06:00,
1000000000354776,77771910111,mMTS,mKarTel,mKarTel,,D77,2017-03-29T13:29:30+06:00,
