NPId,Number,RecipientId,DonorId,RangeHolderId,OldRoute,NewRoute,PortDate,RowCount
1000000000171554,77017430172,mKarTel,mKcell,mKcell,,D01,2016-05-11T12:00:45+06:00,37
1000000000171555,77028373975,mAltel,mKcell,mKcell,,D07,2016-05-11T12:00:27+06:00,
1000000000171556,77015598779,mKarTel,mKcell,mKcell,,D01,2016-05-11T12:00:45+06:00,
1000000000171557,77788885301,mMTS,mKcell,mKcell,,D77,2016-05-11T12:01:15+06:00,
1000000000171558,77788847299,mMTS,mKcell,mKcell,,D77,2016-05-11T12:01:36+06:00,
1000000000171559,77017430174,mKarTel,mKcell,mKcell,,D01,2016-05-11T12:02:35+06:00,
1000000000171562,77053044023,mMTS,mKarTel,mKarTel,,D77,2016-05-11T12:05:17+06:00,
1000000000171565,77019852821,mMTS,mKcell,mKcell,,D77,2016-05-11T12:06:53+06:00,
1000000000171566,77027141975,mKarTel,mKcell,mKcell,,D01,2016-05-11T12:07:15+06:00,
1000000000171567,77082221084,mKarTel,mAltel,mAltel,,D01,2016-05-11T12:07:44+06:00,
1000000000171569,77785005099,mMTS,mKcell,mKcell,,D77,2016-05-11T12:09:13+06:00,
1000000000171570,77074181940,mKarTel,mMTS,mMTS,,D01,2016-05-11T12:10:12+06:00,
1000000000171571,77016556666,mKcell,mMTS,mKcell,D77,D02,2016-05-11T12:12:58+06:00,
1000000000171572,77011910605,mMTS,mKcell,mKcell,,D77,2016-05-11T12:12:26+06:00,
1000000000171573,77086589837,mMTS,mAltel,mAltel,,D77,2016-05-11T12:12:05+06:00,
1000000000171574,77028620477,mMTS,mKcell,mKcell,,D77,2016-05-11T12:13:01+06:00,
1000000000171575,77055188881,mKcell,mKarTel,mKarTel,,D02,2016-05-11T12:14:57+06:00,
1000000000171576,77002150400,mMTS,mAltel,mAltel,,D77,2016-05-11T12:13:01+06:00,
1000000000171577,77017738899,mMTS,mKcell,mKcell,,D77,2016-05-11T12:14:58+06:00,
1000000000171578,77075351535,mKarTel,mAltel,mMTS,D07,D01,2016-05-11T12:14:17+06:00,
1000000000171579,77075456595,mMTS,mAltel,mMTS,D07,D77,2016-05-11T12:14:01+06:00,
1000000000171580,77081687238,mMTS,mAltel,mAltel,,D77,2016-05-11T12:15:02+06:00,
1000000000171581,77779020000,mKcell,mAltel,mKarTel,D07,D02,2016-05-11T12:17:01+06:00,
1000000000171583,77787333000,mMTS,mKcell,mKcell,,D77,2016-05-11T12:18:06+06:00,
1000000000171587,77021298305,mKarTel,mKcell,mKcell,,D01,2016-05-11T12:19:33+06:00,
1000000000171588,77024279944,mKcell,mAltel,mKcell,D07,D02,2016-05-11T12:19:57+06:00,
1000000000171589,77759222114,mKcell,mAltel,mKcell,D07,D02,2016-05-11T12:19:56+06:00,
1000000000171590,77757426310,mKarTel,mKcell,mKcell,,D01,2016-05-11T12:20:47+06:00,
1000000000171592,77786574507,mKarTel,mKcell,mKcell,,D01,2016-05-11T12:21:57+06:00,
1000000000171593,77779997727,mKarTel,mMTS,mKarTel,D77,D01,2016-05-11T12:22:26+06:00,
1000000000171594,77003240801,mMTS,mAltel,mAltel,,D77,2016-05-11T12:23:54+06:00,
1000000000171595,77779997177,mKarTel,mMTS,mKarTel,D77,D01,2016-05-11T12:24:21+06:00,
1000000000171596,77018188708,mMTS,mKcell,mKcell,,D77,2016-05-11T12:24:42+06:00,
1000000000171597,77750002103,mMTS,mKcell,mKcell,,D77,2016-05-11T12:25:15+06:00,
1000000000171598,77754826378,mMTS,mKcell,mKcell,,D77,2016-05-11T12:27:20+06:00,
1000000000171599,77086589838,mMTS,mAltel,mAltel,,D77,2016-05-11T12:27:03+06:00,
1000000000171600,77016721223,mMTS,mKcell,mKcell,,D77,2016-05-11T12:27:20+06:00,
