NPId,Number,RecipientId,DonorId,RangeHolderId,OldRoute,NewRoute,PortDate,RowCount
1000000000198980,77017622663,mMTS,mKcell,mKcell,,D77,2016-06-24T12:01:34+06:00,16
1000000000198981,77770733518,mMTS,mKarTel,mKarTel,,D77,2016-06-24T12:02:34+06:00,
1000000000198983,77477779308,mKarTel,mMTS,mMTS,,D01,2016-06-24T12:05:52+06:00,
1000000000198984,77012128460,mMTS,mKcell,mKcell,,D77,2016-06-24T12:06:48+06:00,
1000000000198985,77754258556,mMTS,mKcell,mKcell,,D77,2016-06-24T12:07:26+06:00,
1000000000198986,77772790900,mKcell,mMTS,mKarTel,D77,D02,2016-06-24T12:08:24+06:00,
1000000000198987,77775076215,mMTS,mKarTel,mKarTel,,D77,2016-06-24T12:10:52+06:00,
1000000000198990,77773910032,mMTS,mKarTel,mKarTel,,D77,2016-06-24T12:29:39+06:00,
1000000000198991,77058097374,mMTS,mKarTel,mKarTel,,D77,2016-06-24T12:16:54+06:00,
1000000000198993,77789551806,mMTS,mKcell,mKcell,,D77,2016-06-24T12:18:43+06:00,
1000000000198994,77011999093,mKcell,mAltel,mKcell,D07,D02,2016-06-24T12:20:53+06:00,
1000000000198997,77017243829,mMTS,mKcell,mKcell,,D77,2016-06-24T12:22:39+06:00,
1000000000198999,77017111316,mKcell,mKarTel,mKcell,D01,D02,2016-06-24T12:24:42+06:00,
1000000000199000,77081662206,mAltel,mMTS,mAltel,D77,D07,2016-06-24T12:23:55+06:00,
1000000000199001,77057540005,mKcell,mKarTel,mKarTel,,D02,2016-06-24T12:28:14+06:00,
1000000000199002,77079901749,mMTS,mAltel,mMTS,D07,D77,2016-06-24T12:27:12+06:00,
