NPId,Number,RecipientId,DonorId,RangeHolderId,OldRoute,NewRoute,PortDate,RowCount
1000000000365817,77782035700,mMTS,mKcell,mKcell,,D77,2017-04-14T14:00:59+06:00,19
1000000000365818,77011061220,mMTS,mKcell,mKcell,,D77,2017-04-14T14:01:56+06:00,
1000000000365819,77024999046,mKcell,mMTS,mKcell,D77,D02,2017-04-14T14:04:55+06:00,
1000000000365820,77054458066,mAltel,mKarTel,mKarTel,,D07,2017-04-14T14:06:27+06:00,
1000000000365821,77007772616,mKcell,mAltel,mAltel,,D02,2017-04-14T14:07:27+06:00,
1000000000365824,77029570907,mMTS,mKcell,mKcell,,D77,2017-04-14T14:09:25+06:00,
1000000000365825,77013810557,mAltel,mMTS,mKcell,D77,D07,2017-04-14T14:09:28+06:00,
1000000000365828,77058014516,mKarTel,mMTS,mKarTel,D77,D01,2017-04-14T14:12:47+06:00,
1000000000365829,77017326025,mKcell,mMTS,mKcell,D77,D02,2017-04-14T14:13:05+06:00,
1000000000365831,77007526423,mKarTel,mAltel,mAltel,,D01,2017-04-14T14:15:52+06:00,
1000000000365833,77773304554,mKarTel,mMTS,mKarTel,D77,D01,2017-04-14T14:17:14+06:00,
1000000000365834,77075095590,mKcell,mMTS,mMTS,,D02,2017-04-14T14:21:36+06:00,
1000000000365837,77776661818,mKarTel,mKcell,mKarTel,D02,D01,2017-04-14T14:22:44+06:00,
1000000000365840,77079930708,mKarTel,mAltel,mMTS,D07,D01,2017-04-14T14:26:03+06:00,
1000000000365842,77786500291,mAltel,mKcell,mKcell,,D07,2017-04-14T14:26:25+06:00,
1000000000365844,77077878762,mKcell,mMTS,mMTS,,D02,2017-04-14T14:27:29+06:00,
1000000000365846,77077085078,mKarTel,mMTS,mMTS,,D01,2017-04-14T14:27:37+06:00,
1000000000365847,77761004141,mAltel,mKarTel,mKarTel,,D07,2017-04-14T14:28:12+06:00,
1000000000365849,77017629347,mMTS,mAltel,mKcell,D07,D77,2017-04-14T14:29:39+06:00,
