NPId,Number,RecipientId,DonorId,RangeHolderId,OldRoute,NewRoute,PortDate,RowCount
1000000000297920,77777779911,mKcell,mKarTel,mKarTel,,D02,2016-12-20T18:30:10+06:00,18
1000000000297921,77017976550,mKarTel,mKcell,mKcell,,D01,2016-12-20T18:36:03+06:00,
1000000000297922,77021283878,mKarTel,mKcell,mKcell,,D01,2016-12-20T18:36:14+06:00,
1000000000297923,77014944993,mKarTel,mKcell,mKcell,,D01,2016-12-20T18:36:19+06:00,
1000000000297924,77017455939,mKarTel,mKcell,mKcell,,D01,2016-12-20T18:36:54+06:00,
1000000000297925,77074972473,mMTS,mKcell,mMTS,D02,D77,2016-12-20T18:39:15+06:00,
1000000000297926,77784737305,mMTS,mKcell,mKcell,,D77,2016-12-20T18:39:21+06:00,
1000000000297927,77007077030,mAltel,mKarTel,mAltel,D01,D07,2016-12-20T18:40:38+06:00,
1000000000297928,77475502499,mKarTel,mMTS,mMTS,,D01,2016-12-20T18:41:21+06:00,
1000000000297930,77758282257,mMTS,mKcell,mKcell,,D77,2016-12-20T18:41:35+06:00,
1000000000297931,77786204015,mKcell,mMTS,mKcell,D77,D02,2016-12-20T18:44:42+06:00,
1000000000297932,77777792625,mKarTel,mAltel,mKarTel,D07,D01,2016-12-20T18:45:40+06:00,
1000000000297933,77018770888,mMTS,mKcell,mKcell,,D77,2016-12-20T18:49:22+06:00,
1000000000297934,77006110010,mKcell,mAltel,mAltel,,D02,2016-12-20T18:50:33+06:00,
1000000000297935,77087430264,mKarTel,mAltel,mAltel,,D01,2016-12-20T18:50:54+06:00,
1000000000297936,77019990492,mAltel,mKarTel,mKcell,D01,D07,2016-12-20T18:53:50+06:00,
1000000000297937,77022705889,mMTS,mKcell,mKcell,,D77,2016-12-20T18:53:44+06:00,
1000000000297938,77018057771,mKarTel,mKcell,mKcell,,D01,2016-12-20T18:56:03+06:00,
