NPId,Number,RecipientId,DonorId,RangeHolderId,OldRoute,NewRoute,PortDate,RowCount
1000000000348503,77775525999,mMTS,mKarTel,mKarTel,,D77,2017-03-17T13:46:19+06:00,31
1000000000348505,77717654118,mMTS,mKarTel,mKarTel,,D77,2017-03-17T13:46:13+06:00,
1000000000348507,77717654127,mMTS,mKarTel,mKarTel,,D77,2017-03-17T13:46:24+06:00,
1000000000348509,77777719973,mMTS,mKarTel,mKarTel,,D77,2017-03-17T13:46:14+06:00,
1000000000348513,77717752093,mMTS,mKarTel,mKarTel,,D77,2017-03-17T13:46:20+06:00,
1000000000348514,77717752097,mMTS,mKarTel,mKarTel,,D77,2017-03-17T13:46:24+06:00,
1000000000348517,77717752105,mMTS,mKarTel,mKarTel,,D77,2017-03-17T13:46:24+06:00,
1000000000348520,77717752106,mMTS,mKarTel,mKarTel,,D77,2017-03-17T13:46:20+06:00,
1000000000348522,77717752107,mMTS,mKarTel,mKarTel,,D77,2017-03-17T13:46:20+06:00,
1000000000348524,77717755090,mMTS,mKarTel,mKarTel,,D77,2017-03-17T13:46:25+06:00,
1000000000348553,77083373111,mMTS,mAltel,mAltel,,D77,2017-03-17T13:31:17+06:00,
1000000000348554,77776172196,mKcell,mKarTel,mKarTel,,D02,2017-03-17T13:33:05+06:00,
1000000000348555,77777755005,mKcell,mKarTel,mKarTel,,D02,2017-03-17T13:33:36+06:00,
1000000000348556,77073366707,mKcell,mMTS,mMTS,,D02,2017-03-17T13:34:04+06:00,
1000000000348557,77776172197,mKcell,mKarTel,mKarTel,,D02,2017-03-17T13:36:08+06:00,
1000000000348558,77014001727,mKarTel,mKcell,mKcell,,D01,2017-03-17T13:37:03+06:00,
1000000000348559,77013454200,mMTS,mKcell,mKcell,,D77,2017-03-17T13:37:04+06:00,
1000000000348561,77775041777,mKcell,mKarTel,mKarTel,,D02,2017-03-17T13:39:32+06:00,
1000000000348562,77007772970,mKcell,mAltel,mAltel,,D02,2017-03-17T13:41:22+06:00,
1000000000348565,77007771270,mKcell,mAltel,mAltel,,D02,2017-03-17T13:46:16+06:00,
1000000000348567,77014667784,mKarTel,mKcell,mKcell,,D01,2017-03-17T13:46:30+06:00,
1000000000348569,77015445580,mKarTel,mKcell,mKcell,,D01,2017-03-17T13:48:25+06:00,
1000000000348570,77007773670,mKcell,mAltel,mAltel,,D02,2017-03-17T13:49:00+06:00,
1000000000348571,77015546424,mMTS,mKcell,mKcell,,D77,2017-03-17T13:49:38+06:00,
1000000000348572,77718099472,mMTS,mKarTel,mKarTel,,D77,2017-03-17T13:50:58+06:00,
1000000000348575,77081912956,mKarTel,mAltel,mAltel,,D01,2017-03-17T13:52:57+06:00,
1000000000348576,77007773170,mKcell,mAltel,mAltel,,D02,2017-03-17T13:53:28+06:00,
1000000000348577,77007771870,mKcell,mAltel,mAltel,,D02,2017-03-17T13:54:14+06:00,
1000000000348579,77005141998,mKcell,mAltel,mAltel,,D02,2017-03-17T13:55:02+06:00,
1000000000348580,77054451189,mAltel,mKarTel,mKarTel,,D07,2017-03-17T13:55:23+06:00,
1000000000348582,77756696569,mMTS,mKcell,mKcell,,D77,2017-03-17T13:57:09+06:00,
