NPId,Number,RecipientId,DonorId,RangeHolderId,OldRoute,NewRoute,PortDate,RowCount
1000000000229366,77018000799,mAltel,mKcell,mKcell,,D07,2016-08-16T09:59:54+06:00,2
1000000000229483,77056228996,mMTS,mKarTel,mKarTel,,D77,2016-08-16T09:50:56+06:00,
