NPId,Number,RecipientId,DonorId,RangeHolderId,OldRoute,NewRoute,PortDate,RowCount
1000000000388383,77015030460,mMTS,mKcell,mKcell,,D77,2017-05-24T16:35:20+06:00,8
1000000000388384,77052750055,mAltel,mKarTel,mKarTel,,D07,2017-05-24T16:35:36+06:00,
1000000000388385,77014635064,mKarTel,mKcell,mKcell,,D01,2017-05-24T16:35:38+06:00,
1000000000388390,77051111170,mMTS,mKarTel,mKarTel,,D77,2017-05-24T16:46:24+06:00,
1000000000388391,77051441616,mKcell,mKarTel,mKarTel,,D02,2017-05-24T16:48:42+06:00,
1000000000388395,77058070005,mAltel,mKarTel,mKarTel,,D07,2017-05-24T16:51:43+06:00,
1000000000388396,77757770034,mMTS,mKcell,mKcell,,D77,2017-05-24T16:53:40+06:00,
1000000000388399,77015298833,mKcell,mKarTel,mKcell,D01,D02,2017-05-24T16:58:51+06:00,
