NPId,Number,RecipientId,DonorId,RangeHolderId,OldRoute,NewRoute,PortDate,RowCount
1000000000416645,77789331883,mMTS,mKcell,mKcell,,D77,2017-07-05T11:00:01+06:00,29
1000000000416646,77075128880,mMTS,mKarTel,mMTS,D01,D77,2017-07-05T11:01:05+06:00,
1000000000416648,77024676747,mKarTel,mMTS,mKcell,D77,D01,2017-07-05T11:01:43+06:00,
1000000000416650,77015862858,mMTS,mKcell,mKcell,,D77,2017-07-05T11:02:45+06:00,
1000000000416653,77017200523,mKarTel,mMTS,mKcell,D77,D01,2017-07-05T11:08:13+06:00,
1000000000416655,77029368085,mAltel,mKcell,mKcell,,D07,2017-07-05T11:10:56+06:00,
1000000000416656,77004665176,mMTS,mAltel,mAltel,,D77,2017-07-05T11:11:03+06:00,
1000000000416658,77013170254,mAltel,mKcell,mKcell,,D07,2017-07-05T11:13:08+06:00,
1000000000416659,77775100530,mKarTel,mMTS,mKarTel,D77,D01,2017-07-05T11:13:24+06:00,
1000000000416661,77077427336,mMTS,mAltel,mMTS,D07,D77,2017-07-05T11:14:45+06:00,
1000000000416662,77473000533,mKarTel,mMTS,mMTS,,D01,2017-07-05T11:16:50+06:00,
1000000000416665,77477977097,mKarTel,mKcell,mMTS,D02,D01,2017-07-05T11:17:46+06:00,
1000000000416666,77021303694,mMTS,mKcell,mKcell,,D77,2017-07-05T11:17:47+06:00,
1000000000416667,77477982252,mKarTel,mMTS,mMTS,,D01,2017-07-05T11:17:57+06:00,
1000000000416668,77773310446,mKarTel,mMTS,mKarTel,D77,D01,2017-07-05T11:18:12+06:00,
1000000000416673,77022655551,mMTS,mKcell,mKcell,,D77,2017-07-05T11:20:48+06:00,
1000000000416674,77012665930,mKarTel,mKcell,mKcell,,D01,2017-07-05T11:21:14+06:00,
1000000000416675,77011067316,mKarTel,mKcell,mKcell,,D01,2017-07-05T11:21:14+06:00,
1000000000416676,77013117620,mKarTel,mKcell,mKcell,,D01,2017-07-05T11:23:41+06:00,
1000000000416677,77016951011,mAltel,mKcell,mKcell,,D07,2017-07-05T11:23:54+06:00,
1000000000416678,77055782730,mAltel,mKarTel,mKarTel,,D07,2017-07-05T11:25:02+06:00,
1000000000416679,77774884145,mAltel,mKarTel,mKarTel,,D07,2017-07-05T11:26:32+06:00,
1000000000416680,77473000522,mKarTel,mMTS,mMTS,,D01,2017-07-05T11:26:41+06:00,
1000000000416681,77760777737,mKcell,mKarTel,mKarTel,,D02,2017-07-05T11:27:21+06:00,
1000000000416682,77010251011,mKarTel,mKcell,mKcell,,D01,2017-07-05T11:27:07+06:00,
1000000000416683,77476265252,mKarTel,mMTS,mMTS,,D01,2017-07-05T11:27:33+06:00,
1000000000416684,77770012689,mMTS,mKarTel,mKarTel,,D77,2017-07-05T11:28:01+06:00,
1000000000416685,77019495960,mAltel,mKcell,mKcell,,D07,2017-07-05T11:28:36+06:00,
1000000000416686,77766200077,mKarTel,mAltel,mKarTel,D07,D01,2017-07-05T11:28:49+06:00,
