NPId,Number,RecipientId,DonorId,RangeHolderId,OldRoute,NewRoute,PortDate,RowCount
1000000000377003,77010327956,mKarTel,mKcell,mKcell,,D01,2017-05-03T16:32:39+06:00,29
1000000000377003,77017633527,mKarTel,mKcell,mKcell,,D01,2017-05-03T16:32:39+06:00,
1000000000377003,77017633528,mKarTel,mKcell,mKcell,,D01,2017-05-03T16:32:39+06:00,
1000000000377003,77017633556,mKarTel,mKcell,mKcell,,D01,2017-05-03T16:32:39+06:00,
1000000000377441,77779117979,mAltel,mKarTel,mKarTel,,D07,2017-05-03T16:31:05+06:00,
1000000000377442,77071110920,mKarTel,mMTS,mMTS,,D01,2017-05-03T16:32:27+06:00,
1000000000377443,77019569874,mMTS,mKcell,mKcell,,D77,2017-05-03T16:32:39+06:00,
1000000000377445,77019682010,mKarTel,mKcell,mKcell,,D01,2017-05-03T16:34:47+06:00,
1000000000377446,77779600000,mKarTel,mAltel,mKarTel,D07,D01,2017-05-03T16:35:02+06:00,
1000000000377447,77779930333,mKarTel,mMTS,mKarTel,D77,D01,2017-05-03T16:35:23+06:00,
1000000000377448,77788861195,mKarTel,mKcell,mKcell,,D01,2017-05-03T16:37:42+06:00,
1000000000377449,77017795731,mMTS,mKcell,mKcell,,D77,2017-05-03T16:38:55+06:00,
1000000000377450,77011340763,mAltel,mKcell,mKcell,,D07,2017-05-03T16:39:02+06:00,
1000000000377452,77774034663,mAltel,mKarTel,mKarTel,,D07,2017-05-03T16:41:09+06:00,
1000000000377453,77786796136,mMTS,mKcell,mKcell,,D77,2017-05-03T16:41:12+06:00,
1000000000377454,77772893919,mMTS,mKarTel,mKarTel,,D77,2017-05-03T16:42:06+06:00,
1000000000377455,77772123435,mMTS,mKarTel,mKarTel,,D77,2017-05-03T16:42:07+06:00,
1000000000377456,77753338394,mMTS,mKcell,mKcell,,D77,2017-05-03T16:41:59+06:00,
1000000000377458,77021927708,mKarTel,mMTS,mKcell,D77,D01,2017-05-03T16:44:30+06:00,
1000000000377459,77015183401,mKarTel,mKcell,mKcell,,D01,2017-05-03T16:45:56+06:00,
1000000000377460,77007704499,mMTS,mAltel,mAltel,,D77,2017-05-03T16:47:07+06:00,
1000000000377461,77078389478,mMTS,mKarTel,mMTS,D01,D77,2017-05-03T16:47:32+06:00,
1000000000377463,77026082698,mMTS,mKcell,mKcell,,D77,2017-05-03T16:48:25+06:00,
1000000000377465,77004104634,mMTS,mAltel,mAltel,,D77,2017-05-03T16:51:34+06:00,
1000000000377466,77775062715,mMTS,mKarTel,mKarTel,,D77,2017-05-03T16:55:12+06:00,
1000000000377467,77771422288,mMTS,mKarTel,mKarTel,,D77,2017-05-03T16:56:16+06:00,
1000000000377468,77081193431,mKarTel,mAltel,mAltel,,D01,2017-05-03T16:57:06+06:00,
1000000000377469,77012146868,mMTS,mKcell,mKcell,,D77,2017-05-03T16:57:55+06:00,
1000000000377471,77476998595,mMTS,mAltel,mMTS,D07,D77,2017-05-03T16:58:06+06:00,
