NPId,Number,RecipientId,DonorId,RangeHolderId,OldRoute,NewRoute,PortDate,RowCount
1000000000194175,77058602927,mKarTel,mMTS,mKarTel,D77,D01,2016-06-15T17:30:57+06:00,28
1000000000194177,77019101880,mKarTel,mKcell,mKcell,,D01,2016-06-15T17:35:24+06:00,
1000000000194179,77013131115,mKarTel,mKcell,mKcell,,D01,2016-06-15T17:39:55+06:00,
1000000000194180,77076828298,mKarTel,mMTS,mMTS,,D01,2016-06-15T17:40:46+06:00,
1000000000194181,77003519456,mMTS,mAltel,mAltel,,D77,2016-06-15T17:40:52+06:00,
1000000000194182,77015655588,mKarTel,mKcell,mKcell,,D01,2016-06-15T17:42:39+06:00,
1000000000194183,77076000407,mKcell,mMTS,mMTS,,D02,2016-06-15T17:42:44+06:00,
1000000000194185,77479977364,mKcell,mMTS,mMTS,,D02,2016-06-15T17:43:25+06:00,
1000000000194186,77755912938,mKarTel,mKcell,mKcell,,D01,2016-06-15T17:43:45+06:00,
1000000000194187,77003098789,mKarTel,mAltel,mAltel,,D01,2016-06-15T17:45:10+06:00,
1000000000194188,77089828288,mKcell,mAltel,mAltel,,D02,2016-06-15T17:45:50+06:00,
1000000000194189,77076622561,mKarTel,mMTS,mMTS,,D01,2016-06-15T17:45:53+06:00,
1000000000194190,77077690009,mMTS,mAltel,mMTS,D07,D77,2016-06-15T17:47:13+06:00,
1000000000194193,77479177749,mKcell,mMTS,mMTS,,D02,2016-06-15T17:51:11+06:00,
1000000000194194,77083142212,mMTS,mAltel,mAltel,,D77,2016-06-15T17:49:06+06:00,
1000000000194195,77016686747,mMTS,mKcell,mKcell,,D77,2016-06-15T17:53:08+06:00,
1000000000194196,77015312762,mMTS,mKcell,mKcell,,D77,2016-06-15T17:53:08+06:00,
1000000000194197,77075770701,mMTS,mAltel,mMTS,D07,D77,2016-06-15T17:50:15+06:00,
1000000000194199,77011710341,mMTS,mKcell,mKcell,,D77,2016-06-15T17:54:15+06:00,
1000000000194200,77771409060,mMTS,mKarTel,mKarTel,,D77,2016-06-15T17:51:50+06:00,
1000000000194202,77011260535,mMTS,mKcell,mKcell,,D77,2016-06-15T17:55:53+06:00,
1000000000194203,77019253480,mKarTel,mKcell,mKcell,,D01,2016-06-15T17:56:07+06:00,
1000000000194204,77023812409,mKarTel,mKcell,mKcell,,D01,2016-06-15T17:56:46+06:00,
1000000000194205,77712557075,mKarTel,mKcell,mKarTel,D02,D01,2016-06-15T17:56:45+06:00,
1000000000194207,77477879966,mKcell,mMTS,mMTS,,D02,2016-06-15T17:57:04+06:00,
1000000000194208,77754768403,mKcell,mMTS,mKcell,D77,D02,2016-06-15T17:57:37+06:00,
1000000000194209,77015776236,mMTS,mKcell,mKcell,,D77,2016-06-15T17:58:29+06:00,
1000000000194211,77769971111,mMTS,mKarTel,mKarTel,,D77,2016-06-15T17:58:53+06:00,
