NPId,Number,RecipientId,DonorId,RangeHolderId,OldRoute,NewRoute,PortDate,RowCount
1000000000230566,77052497154,mMTS,mKarTel,mKarTel,,D77,2016-08-17T21:01:51+06:00,3
1000000000230567,77007773030,mKcell,mAltel,mAltel,,D02,2016-08-17T21:17:16+06:00,
1000000000230569,77052202666,mKcell,mAltel,mKarTel,D07,D02,2016-08-17T21:18:01+06:00,
