NPId,Number,RecipientId,DonorId,RangeHolderId,OldRoute,NewRoute,PortDate,RowCount
1000000000268269,77007898789,mMTS,mAltel,mAltel,,D77,2016-10-26T12:01:11+06:00,12
1000000000268270,77021112445,mKcell,mMTS,mKcell,D77,D02,2016-10-26T12:02:33+06:00,
1000000000268271,77023907377,mMTS,mKcell,mKcell,,D77,2016-10-26T12:07:19+06:00,
1000000000268272,77770808008,mKarTel,mAltel,mKarTel,D07,D01,2016-10-26T12:07:54+06:00,
1000000000268275,77026000223,mMTS,mKcell,mKcell,,D77,2016-10-26T12:10:24+06:00,
1000000000268276,77074318109,mAltel,mMTS,mMTS,,D07,2016-10-26T12:12:22+06:00,
1000000000268282,77767711777,mMTS,mKarTel,mKarTel,,D77,2016-10-26T12:19:34+06:00,
1000000000268284,77073440007,mKarTel,mMTS,mMTS,,D01,2016-10-26T12:21:37+06:00,
1000000000268285,77012323052,mMTS,mKcell,mKcell,,D77,2016-10-26T12:23:05+06:00,
1000000000268287,77078023733,mKarTel,mMTS,mMTS,,D01,2016-10-26T12:24:27+06:00,
1000000000268289,77074844888,mKcell,mMTS,mMTS,,D02,2016-10-26T12:26:11+06:00,
1000000000268290,77015585858,mKarTel,mKcell,mKcell,,D01,2016-10-26T12:29:21+06:00,
