NPId,Number,RecipientId,DonorId,RangeHolderId,OldRoute,NewRoute,PortDate,RowCount
1000000000423183,77015273610,mKarTel,mKcell,mKcell,,D01,2017-07-18T09:41:02+06:00,6
1000000000423591,77018884823,mKarTel,mKcell,mKcell,,D01,2017-07-18T09:31:42+06:00,
1000000000423592,77059534196,mKarTel,mMTS,mKarTel,D77,D01,2017-07-18T09:31:59+06:00,
1000000000423593,77018887644,mKarTel,mKcell,mKcell,,D01,2017-07-18T09:33:54+06:00,
1000000000423595,77055616370,mAltel,mKarTel,mKarTel,,D07,2017-07-18T09:49:15+06:00,
1000000000423596,77478898664,mAltel,mMTS,mMTS,,D07,2017-07-18T09:50:21+06:00,
