NPId,Number,RecipientId,DonorId,RangeHolderId,OldRoute,NewRoute,PortDate,RowCount
1000000000269665,77774606671,mMTS,mKarTel,mKarTel,,D77,2016-10-28T18:01:56+06:00,20
1000000000269666,77017665496,mKarTel,mKcell,mKcell,,D01,2016-10-28T18:04:30+06:00,
1000000000269667,77019997997,mKcell,mAltel,mKcell,D07,D02,2016-10-28T18:04:43+06:00,
1000000000269668,77070420044,mKcell,mMTS,mMTS,,D02,2016-10-28T18:05:47+06:00,
1000000000269669,77021127272,mKarTel,mKcell,mKcell,,D01,2016-10-28T18:08:32+06:00,
1000000000269670,77710003392,mKcell,mKarTel,mKarTel,,D02,2016-10-28T18:09:45+06:00,
1000000000269671,77017665490,mKarTel,mKcell,mKcell,,D01,2016-10-28T18:10:40+06:00,
1000000000269672,77010940080,mKarTel,mKcell,mKcell,,D01,2016-10-28T18:10:45+06:00,
1000000000269673,77053261133,mMTS,mKarTel,mKarTel,,D77,2016-10-28T18:10:55+06:00,
1000000000269674,77029999487,mKarTel,mKcell,mKcell,,D01,2016-10-28T18:11:31+06:00,
1000000000269675,77010337779,mKarTel,mKcell,mKcell,,D01,2016-10-28T18:12:04+06:00,
1000000000269676,77022834501,mKarTel,mKcell,mKcell,,D01,2016-10-28T18:12:27+06:00,
1000000000269677,77075054121,mAltel,mMTS,mMTS,,D07,2016-10-28T18:14:16+06:00,
1000000000269678,77771480444,mKarTel,mMTS,mKarTel,D77,D01,2016-10-28T18:14:55+06:00,
1000000000269679,77015333509,mKarTel,mKcell,mKcell,,D01,2016-10-28T18:22:30+06:00,
1000000000269681,77077707126,mKarTel,mMTS,mMTS,,D01,2016-10-28T18:22:56+06:00,
1000000000269682,77007000079,mMTS,mAltel,mAltel,,D77,2016-10-28T18:23:31+06:00,
1000000000269684,77086616646,mKarTel,mAltel,mAltel,,D01,2016-10-28T18:25:39+06:00,
1000000000269685,77073714581,mKarTel,mMTS,mMTS,,D01,2016-10-28T18:25:49+06:00,
1000000000269686,77753279694,mMTS,mKcell,mKcell,,D77,2016-10-28T18:26:12+06:00,
