NPId,Number,RecipientId,DonorId,RangeHolderId,OldRoute,NewRoute,PortDate,RowCount
1000000000373414,77012202279,mKarTel,mKcell,mKcell,,D01,2017-04-28T09:03:01+06:00,8
1000000000373415,77017114238,mKcell,mKarTel,mKcell,D01,D02,2017-04-28T09:13:39+06:00,
1000000000373416,77029246162,mKcell,mMTS,mKcell,D77,D02,2017-04-28T09:16:09+06:00,
1000000000373418,77007788085,mKcell,mAltel,mAltel,,D02,2017-04-28T09:16:25+06:00,
1000000000373419,77017404730,mKarTel,mKcell,mKcell,,D01,2017-04-28T09:17:36+06:00,
1000000000373420,77054462200,mMTS,mKarTel,mKarTel,,D77,2017-04-28T09:19:11+06:00,
1000000000373421,77057931005,mMTS,mKarTel,mKarTel,,D77,2017-04-28T09:24:23+06:00,
1000000000373423,77770066172,mMTS,mKarTel,mKarTel,,D77,2017-04-28T09:28:06+06:00,
