NPId,Number,RecipientId,DonorId,RangeHolderId,OldRoute,NewRoute,PortDate,RowCount
1000000000322656,77473047414,mKcell,mMTS,mMTS,,D02,2017-02-02T20:38:51+06:00,2
1000000000322657,77007979780,mKcell,mAltel,mAltel,,D02,2017-02-02T20:59:40+06:00,
