NPId,Number,RecipientId,DonorId,RangeHolderId,OldRoute,NewRoute,PortDate,RowCount
1000000000395535,77013633393,mKarTel,mAltel,mKcell,D07,D01,2017-06-02T09:09:24+06:00,10
1000000000395536,77752372290,mKarTel,mKcell,mKcell,,D01,2017-06-02T09:11:45+06:00,
1000000000395538,77054072222,mMTS,mKarTel,mKarTel,,D77,2017-06-02T09:20:09+06:00,
1000000000395539,77472996095,mAltel,mMTS,mMTS,,D07,2017-06-02T09:21:26+06:00,
1000000000395540,77015006276,mMTS,mKcell,mKcell,,D77,2017-06-02T09:22:42+06:00,
1000000000395544,77011115747,mKarTel,mKcell,mKcell,,D01,2017-06-02T09:26:34+06:00,
1000000000395546,77018871221,mMTS,mKcell,mKcell,,D77,2017-06-02T09:28:00+06:00,
1000000000395547,77056016699,mMTS,mKarTel,mKarTel,,D77,2017-06-02T09:28:43+06:00,
1000000000395548,77072105050,mKarTel,mMTS,mMTS,,D01,2017-06-02T09:28:47+06:00,
1000000000395550,77079406060,mKarTel,mMTS,mMTS,,D01,2017-06-02T09:29:52+06:00,
