NPId,Number,RecipientId,DonorId,RangeHolderId,OldRoute,NewRoute,PortDate,RowCount
1000000000244765,77078814100,mKcell,mMTS,mMTS,,D02,2016-09-13T15:01:30+06:00,21
1000000000244766,77053803977,mMTS,mKarTel,mKarTel,,D77,2016-09-13T15:07:32+06:00,
1000000000244768,77077611507,mKarTel,mMTS,mMTS,,D01,2016-09-13T15:07:26+06:00,
1000000000244769,77015191110,mKcell,mKarTel,mKcell,D01,D02,2016-09-13T15:09:07+06:00,
1000000000244770,77001600916,mMTS,mAltel,mAltel,,D77,2016-09-13T15:07:25+06:00,
1000000000244772,77074154305,mKcell,mMTS,mMTS,,D02,2016-09-13T15:09:46+06:00,
1000000000244773,77023888081,mKarTel,mKcell,mKcell,,D01,2016-09-13T15:10:40+06:00,
1000000000244775,77087000522,mKcell,mAltel,mAltel,,D02,2016-09-13T15:13:51+06:00,
1000000000244776,77770070778,mMTS,mKarTel,mKarTel,,D77,2016-09-13T15:15:56+06:00,
1000000000244777,77017603515,mKcell,mKarTel,mKcell,D01,D02,2016-09-13T15:16:55+06:00,
1000000000244778,77072905770,mKcell,mMTS,mMTS,,D02,2016-09-13T15:14:49+06:00,
1000000000244779,77778981111,mKarTel,mMTS,mKarTel,D77,D01,2016-09-13T15:19:41+06:00,
1000000000244780,77478037107,mKcell,mMTS,mMTS,,D02,2016-09-13T15:20:00+06:00,
1000000000244781,77074154308,mKcell,mMTS,mMTS,,D02,2016-09-13T15:20:31+06:00,
1000000000244783,77761733344,mMTS,mKarTel,mKarTel,,D77,2016-09-13T15:22:23+06:00,
1000000000244784,77058110101,mAltel,mKarTel,mKarTel,,D07,2016-09-13T15:23:09+06:00,
1000000000244785,77020005501,mAltel,mKcell,mKcell,,D07,2016-09-13T15:22:05+06:00,
1000000000244786,77771749405,mAltel,mKarTel,mKarTel,,D07,2016-09-13T15:25:07+06:00,
1000000000244787,77013399748,mKarTel,mKcell,mKcell,,D01,2016-09-13T15:25:07+06:00,
1000000000244789,77005594405,mKarTel,mAltel,mAltel,,D01,2016-09-13T15:27:45+06:00,
1000000000244791,77025905778,mKcell,mMTS,mKcell,D77,D02,2016-09-13T15:29:12+06:00,
