NPId,Number,RecipientId,DonorId,RangeHolderId,OldRoute,NewRoute,PortDate,RowCount
1000000000422874,77014600492,mKcell,mAltel,mKcell,D07,D02,2017-07-17T10:00:04+06:00,15
1000000000422875,77053080444,mMTS,mKarTel,mKarTel,,D77,2017-07-17T10:02:21+06:00,
1000000000422876,77000202028,mAltel,mKcell,mAltel,D02,D07,2017-07-17T10:02:48+06:00,
1000000000422878,77081703307,mAltel,mMTS,mAltel,D77,D07,2017-07-17T10:05:38+06:00,
1000000000422879,77013240801,mMTS,mKcell,mKcell,,D77,2017-07-17T10:08:34+06:00,
1000000000422880,77081705507,mAltel,mMTS,mAltel,D77,D07,2017-07-17T10:09:17+06:00,
1000000000422881,77017129500,mMTS,mKcell,mKcell,,D77,2017-07-17T10:09:25+06:00,
1000000000422882,77004445444,mKcell,mAltel,mAltel,,D02,2017-07-17T10:10:00+06:00,
1000000000422884,77000882221,mMTS,mAltel,mAltel,,D77,2017-07-17T10:17:10+06:00,
1000000000422885,77718318039,mMTS,mAltel,mKarTel,D07,D77,2017-07-17T10:17:17+06:00,
1000000000422886,77074545555,mKcell,mAltel,mMTS,D07,D02,2017-07-17T10:17:48+06:00,
1000000000422887,77087048075,mAltel,mMTS,mAltel,D77,D07,2017-07-17T10:18:57+06:00,
1000000000422888,77757321926,mMTS,mKcell,mKcell,,D77,2017-07-17T10:19:42+06:00,
1000000000422889,77776930452,mKcell,mKarTel,mKarTel,,D02,2017-07-17T10:20:46+06:00,
1000000000422891,77071999112,mKarTel,mMTS,mMTS,,D01,2017-07-17T10:26:11+06:00,
