NPId,Number,RecipientId,DonorId,RangeHolderId,OldRoute,NewRoute,PortDate,RowCount
1000000000271588,77017775570,mKcell,mKarTel,mKcell,D01,D02,2016-10-31T20:17:36+06:00,7
1000000000271589,77059813912,mKcell,mKarTel,mKarTel,,D02,2016-10-31T20:08:39+06:00,
1000000000271590,77756888955,mKcell,mMTS,mKcell,D77,D02,2016-10-31T20:10:16+06:00,
1000000000271592,77762259522,mMTS,mKarTel,mKarTel,,D77,2016-10-31T20:12:47+06:00,
1000000000271593,77071200017,mKcell,mMTS,mMTS,,D02,2016-10-31T20:16:03+06:00,
1000000000271594,77007707038,mKcell,mAltel,mAltel,,D02,2016-10-31T20:25:15+06:00,
1000000000271595,77007707036,mKcell,mAltel,mAltel,,D02,2016-10-31T20:26:01+06:00,
