NPId,Number,RecipientId,DonorId,RangeHolderId,OldRoute,NewRoute,PortDate,RowCount
1000000000295425,77029515588,mKarTel,mKcell,mKcell,,D01,2016-12-15T09:30:37+06:00,3
1000000000295427,77754555000,mAltel,mKcell,mKcell,,D07,2016-12-15T09:41:44+06:00,
1000000000295428,77015019752,mMTS,mKcell,mKcell,,D77,2016-12-15T09:59:46+06:00,
