NPId,Number,RecipientId,DonorId,RangeHolderId,OldRoute,NewRoute,PortDate,RowCount
1000000000091803,77711908136,mMTS,mKarTel,mKarTel,,D77,2016-02-18T10:30:45+06:00,19
1000000000091806,77782242442,mAltel,mKcell,mKcell,,D07,2016-02-18T10:38:57+06:00,
1000000000091807,77027474761,mMTS,mKcell,mKcell,,D77,2016-02-18T10:39:34+06:00,
1000000000091808,77713743333,mMTS,mKarTel,mKarTel,,D77,2016-02-18T10:40:24+06:00,
1000000000091811,77779710055,mMTS,mKarTel,mKarTel,,D77,2016-02-18T10:40:42+06:00,
1000000000091812,77018075255,mMTS,mKcell,mKcell,,D77,2016-02-18T10:40:30+06:00,
1000000000091813,77017279723,mMTS,mKcell,mKcell,,D77,2016-02-18T10:41:18+06:00,
1000000000091814,77026888488,mAltel,mKcell,mKcell,,D07,2016-02-18T10:41:53+06:00,
1000000000091817,77714198889,mKcell,mKarTel,mKarTel,,D02,2016-02-18T10:45:46+06:00,
1000000000091818,77473000672,mAltel,mMTS,mMTS,,D07,2016-02-18T10:45:27+06:00,
1000000000091821,77002515474,mKcell,mAltel,mAltel,,D02,2016-02-18T10:46:44+06:00,
1000000000091822,77774448040,mKcell,mKarTel,mKarTel,,D02,2016-02-18T10:47:13+06:00,
1000000000091825,77013491398,mMTS,mKcell,mKcell,,D77,2016-02-18T10:49:58+06:00,
1000000000091826,77017243110,mMTS,mKcell,mKcell,,D77,2016-02-18T10:52:17+06:00,
1000000000091827,77753426088,mMTS,mKcell,mKcell,,D77,2016-02-18T10:52:17+06:00,
1000000000091828,77085591220,mKcell,mAltel,mAltel,,D02,2016-02-18T10:53:59+06:00,
1000000000091829,77477056395,mAltel,mMTS,mMTS,,D07,2016-02-18T10:55:11+06:00,
1000000000091830,77714198871,mKcell,mKarTel,mKarTel,,D02,2016-02-18T10:57:45+06:00,
1000000000091832,77013683243,mMTS,mKcell,mKcell,,D77,2016-02-18T10:59:46+06:00,
