NPId,Number,RecipientId,DonorId,RangeHolderId,OldRoute,NewRoute,PortDate,RowCount
1000000000048771,77019161244,mAltel,mKcell,mKcell,,D07,2016-02-15T14:30:24+06:00,68
1000000000048772,77002449476,mKarTel,mAltel,mAltel,,D01,2016-02-15T14:30:34+06:00,
1000000000048773,77017293436,mAltel,mKcell,mKcell,,D07,2016-02-15T14:30:34+06:00,
1000000000048774,77071270899,mKcell,mMTS,mMTS,,D02,2016-02-15T14:31:00+06:00,
1000000000048775,77015377615,mMTS,mKcell,mKcell,,D77,2016-02-15T14:30:58+06:00,
1000000000048778,77015377619,mMTS,mKcell,mKcell,,D77,2016-02-15T14:32:10+06:00,
1000000000048780,77084982608,mKarTel,mAltel,mAltel,,D01,2016-02-15T14:32:25+06:00,
1000000000048781,77767753777,mKcell,mKarTel,mKarTel,,D02,2016-02-15T14:32:42+06:00,
1000000000048782,77757846020,mMTS,mKcell,mKcell,,D77,2016-02-15T14:32:13+06:00,
1000000000048783,77759158154,mMTS,mKcell,mKcell,,D77,2016-02-15T14:32:21+06:00,
1000000000048784,77761116477,mMTS,mKarTel,mKarTel,,D77,2016-02-15T14:33:03+06:00,
1000000000048785,77011287060,mKarTel,mKcell,mKcell,,D01,2016-02-15T14:33:17+06:00,
1000000000048786,77015377613,mMTS,mKcell,mKcell,,D77,2016-02-15T14:33:07+06:00,
1000000000048788,77012276638,mMTS,mKcell,mKcell,,D77,2016-02-15T14:33:23+06:00,
1000000000048789,77015377614,mMTS,mKcell,mKcell,,D77,2016-02-15T14:34:12+06:00,
1000000000048791,77084982613,mKarTel,mAltel,mAltel,,D01,2016-02-15T14:34:30+06:00,
1000000000048792,77075557495,mAltel,mMTS,mMTS,,D07,2016-02-15T14:34:22+06:00,
1000000000048793,77014539959,mAltel,mKcell,mKcell,,D07,2016-02-15T14:35:02+06:00,
1000000000048794,77015377610,mMTS,mKcell,mKcell,,D77,2016-02-15T14:35:12+06:00,
1000000000048795,77015377620,mMTS,mKcell,mKcell,,D77,2016-02-15T14:36:10+06:00,
1000000000048797,77015249035,mMTS,mKcell,mKcell,,D77,2016-02-15T14:36:54+06:00,
1000000000048799,77011628156,mAltel,mKcell,mKcell,,D07,2016-02-15T14:38:08+06:00,
1000000000048800,77019161243,mAltel,mKcell,mKcell,,D07,2016-02-15T14:38:24+06:00,
1000000000048801,77084982564,mKarTel,mAltel,mAltel,,D01,2016-02-15T14:38:07+06:00,
1000000000048802,77023612072,mAltel,mKcell,mKcell,,D07,2016-02-15T14:38:45+06:00,
1000000000048803,77017630993,mKarTel,mKcell,mKcell,,D01,2016-02-15T14:38:59+06:00,
1000000000048805,77019954546,mMTS,mKcell,mKcell,,D77,2016-02-15T14:38:44+06:00,
1000000000048809,77071047774,mAltel,mMTS,mMTS,,D07,2016-02-15T14:39:53+06:00,
1000000000048810,77770662224,mAltel,mKarTel,mKarTel,,D07,2016-02-15T14:40:24+06:00,
1000000000048811,77057690644,mKcell,mKarTel,mKarTel,,D02,2016-02-15T14:40:46+06:00,
1000000000048812,77758259720,mKarTel,mKcell,mKcell,,D01,2016-02-15T14:40:29+06:00,
1000000000048815,77073622640,mKarTel,mMTS,mMTS,,D01,2016-02-15T14:40:53+06:00,
1000000000048817,77084982569,mKarTel,mAltel,mAltel,,D01,2016-02-15T14:41:05+06:00,
1000000000048818,77015180914,mKarTel,mKcell,mKcell,,D01,2016-02-15T14:41:31+06:00,
1000000000048819,77089440090,mMTS,mAltel,mAltel,,D77,2016-02-15T14:41:31+06:00,
1000000000048820,77028487848,mMTS,mKcell,mKcell,,D77,2016-02-15T14:42:03+06:00,
1000000000048822,77028569205,mAltel,mKcell,mKcell,,D07,2016-02-15T14:42:22+06:00,
1000000000048823,77719000040,mMTS,mKarTel,mKarTel,,D77,2016-02-15T14:42:43+06:00,
1000000000048826,77084982584,mKarTel,mAltel,mAltel,,D01,2016-02-15T14:43:23+06:00,
1000000000048827,77787771169,mAltel,mKcell,mKcell,,D07,2016-02-15T14:44:56+06:00,
1000000000048829,77776905310,mMTS,mKarTel,mKarTel,,D77,2016-02-15T14:46:25+06:00,
1000000000048830,77714198864,mKcell,mKarTel,mKarTel,,D02,2016-02-15T14:46:43+06:00,
1000000000048831,77777388893,mMTS,mKarTel,mKarTel,,D77,2016-02-15T14:46:37+06:00,
1000000000048833,77053924455,mAltel,mKarTel,mKarTel,,D07,2016-02-15T14:46:53+06:00,
1000000000048834,77015840945,mMTS,mKcell,mKcell,,D77,2016-02-15T14:46:57+06:00,
1000000000048835,77785535349,mMTS,mKcell,mKcell,,D77,2016-02-15T14:47:16+06:00,
1000000000048836,77075757570,mAltel,mMTS,mMTS,,D07,2016-02-15T14:47:17+06:00,
1000000000048837,77773563666,mAltel,mKarTel,mKarTel,,D07,2016-02-15T14:47:48+06:00,
1000000000048838,77051734746,mAltel,mKarTel,mKarTel,,D07,2016-02-15T14:48:44+06:00,
1000000000048839,77084982589,mKarTel,mAltel,mAltel,,D01,2016-02-15T14:48:41+06:00,
1000000000048841,77476281586,mAltel,mMTS,mMTS,,D07,2016-02-15T14:49:08+06:00,
1000000000048844,77028500206,mKarTel,mKcell,mKcell,,D01,2016-02-15T14:50:19+06:00,
1000000000048846,77758686868,mAltel,mKcell,mKcell,,D07,2016-02-15T14:50:52+06:00,
1000000000048847,77017515794,mAltel,mKcell,mKcell,,D07,2016-02-15T14:51:26+06:00,
1000000000048849,77013903987,mMTS,mKcell,mKcell,,D77,2016-02-15T14:51:32+06:00,
1000000000048850,77053248072,mAltel,mKarTel,mKarTel,,D07,2016-02-15T14:51:57+06:00,
1000000000048851,77473240015,mKcell,mMTS,mMTS,,D02,2016-02-15T14:51:59+06:00,
1000000000048852,77759550155,mMTS,mKcell,mKcell,,D77,2016-02-15T14:51:57+06:00,
1000000000048855,77014412269,mAltel,mKcell,mKcell,,D07,2016-02-15T14:53:10+06:00,
1000000000048856,77011803949,mKarTel,mKcell,mKcell,,D01,2016-02-15T14:53:38+06:00,
1000000000048857,77021000247,mMTS,mKcell,mKcell,,D77,2016-02-15T14:53:34+06:00,
1000000000048858,77021583111,mMTS,mKcell,mKcell,,D77,2016-02-15T14:54:33+06:00,
1000000000048860,77005000407,mKcell,mAltel,mAltel,,D02,2016-02-15T14:54:49+06:00,
1000000000048862,77084982568,mKarTel,mAltel,mAltel,,D01,2016-02-15T14:55:44+06:00,
1000000000048864,77017514534,mKarTel,mKcell,mKcell,,D01,2016-02-15T14:56:22+06:00,
1000000000048869,77714198912,mKcell,mKarTel,mKarTel,,D02,2016-02-15T14:58:40+06:00,
1000000000048870,77027202018,mAltel,mKcell,mKcell,,D07,2016-02-15T14:59:22+06:00,
1000000000048873,77771137058,mMTS,mKarTel,mKarTel,,D77,2016-02-15T14:59:58+06:00,
