NPId,Number,RecipientId,DonorId,RangeHolderId,OldRoute,NewRoute,PortDate,RowCount
1000000000193798,77012777727,mKarTel,mKcell,mKcell,,D01,2016-06-15T12:31:26+06:00,25
1000000000193841,77018248858,mKcell,mAltel,mKcell,D07,D02,2016-06-15T12:32:08+06:00,
1000000000193842,77475779887,mMTS,mKcell,mMTS,D02,D77,2016-06-15T12:32:11+06:00,
1000000000193844,77772333969,mMTS,mKarTel,mKarTel,,D77,2016-06-15T12:34:36+06:00,
1000000000193845,77713538890,mMTS,mKarTel,mKarTel,,D77,2016-06-15T12:35:06+06:00,
1000000000193846,77017292177,mKcell,mKarTel,mKcell,D01,D02,2016-06-15T12:36:26+06:00,
1000000000193847,77011141010,mMTS,mKcell,mKcell,,D77,2016-06-15T12:35:48+06:00,
1000000000193848,77014743021,mKarTel,mKcell,mKcell,,D01,2016-06-15T12:36:00+06:00,
1000000000193851,77754628189,mKcell,mMTS,mKcell,D77,D02,2016-06-15T12:36:27+06:00,
1000000000193853,77760707010,mKcell,mKarTel,mKarTel,,D02,2016-06-15T12:38:37+06:00,
1000000000193854,77089523814,mKarTel,mMTS,mAltel,D77,D01,2016-06-15T12:40:03+06:00,
1000000000193855,77710504646,mKarTel,mKcell,mKarTel,D02,D01,2016-06-15T12:43:30+06:00,
1000000000193856,77017441141,mKcell,mMTS,mKcell,D77,D02,2016-06-15T12:43:44+06:00,
1000000000193857,77718162222,mMTS,mKarTel,mKarTel,,D77,2016-06-15T12:45:53+06:00,
1000000000193858,77714089755,mMTS,mKarTel,mKarTel,,D77,2016-06-15T12:47:25+06:00,
1000000000193860,77015396298,mMTS,mKcell,mKcell,,D77,2016-06-15T12:50:27+06:00,
1000000000193862,77007852772,mKcell,mAltel,mAltel,,D02,2016-06-15T12:51:23+06:00,
1000000000193863,77074128332,mKcell,mMTS,mMTS,,D02,2016-06-15T12:51:24+06:00,
1000000000193864,77016534141,mKcell,mMTS,mKcell,D77,D02,2016-06-15T12:51:25+06:00,
1000000000193865,77013941331,mMTS,mKcell,mKcell,,D77,2016-06-15T12:51:26+06:00,
1000000000193868,77055370606,mKcell,mKarTel,mKarTel,,D02,2016-06-15T12:56:15+06:00,
1000000000193869,77770310500,mMTS,mKarTel,mKarTel,,D77,2016-06-15T12:56:00+06:00,
1000000000193870,77012632164,mMTS,mKcell,mKcell,,D77,2016-06-15T12:57:23+06:00,
1000000000193872,77072873310,mKarTel,mMTS,mMTS,,D01,2016-06-15T12:58:08+06:00,
1000000000193873,77089073477,mMTS,mAltel,mAltel,,D77,2016-06-15T12:59:08+06:00,
