NPId,Number,RecipientId,DonorId,RangeHolderId,OldRoute,NewRoute,PortDate,RowCount
1000000000094931,77015433100,mAltel,mKcell,mKcell,,D07,2016-02-21T13:30:04+06:00,29
1000000000094932,77773355155,mMTS,mKarTel,mKarTel,,D77,2016-02-21T13:32:05+06:00,
1000000000094933,77084983345,mKcell,mAltel,mAltel,,D02,2016-02-21T13:32:12+06:00,
1000000000094934,77014596060,mAltel,mKcell,mKcell,,D07,2016-02-21T13:32:29+06:00,
1000000000094935,77017840778,mMTS,mKcell,mKcell,,D77,2016-02-21T13:32:35+06:00,
1000000000094936,77011457121,mMTS,mKcell,mKcell,,D77,2016-02-21T13:32:53+06:00,
1000000000094938,77011113211,mAltel,mKcell,mKcell,,D07,2016-02-21T13:34:23+06:00,
1000000000094939,77011741319,mMTS,mKcell,mKcell,,D77,2016-02-21T13:35:35+06:00,
1000000000094942,77085835413,mKarTel,mAltel,mAltel,,D01,2016-02-21T13:36:51+06:00,
1000000000094943,77002922292,mKarTel,mAltel,mAltel,,D01,2016-02-21T13:37:45+06:00,
1000000000094944,77772447792,mAltel,mKarTel,mKarTel,,D07,2016-02-21T13:38:55+06:00,
1000000000094945,77014282952,mAltel,mKcell,mKcell,,D07,2016-02-21T13:41:03+06:00,
1000000000094946,77084983604,mKcell,mAltel,mAltel,,D02,2016-02-21T13:41:11+06:00,
1000000000094947,77759551042,mMTS,mKcell,mKcell,,D77,2016-02-21T13:42:02+06:00,
1000000000094948,77085835409,mKarTel,mAltel,mAltel,,D01,2016-02-21T13:42:55+06:00,
1000000000094949,77772569624,mAltel,mKarTel,mKarTel,,D07,2016-02-21T13:44:42+06:00,
1000000000094950,77785510587,mMTS,mKcell,mKcell,,D77,2016-02-21T13:46:52+06:00,
1000000000094952,77085835403,mKarTel,mAltel,mAltel,,D01,2016-02-21T13:49:47+06:00,
1000000000094954,77011072107,mAltel,mKcell,mKcell,,D07,2016-02-21T13:51:10+06:00,
1000000000094955,77084983234,mKcell,mAltel,mAltel,,D02,2016-02-21T13:51:30+06:00,
1000000000094956,77774473419,mAltel,mKarTel,mKarTel,,D07,2016-02-21T13:51:39+06:00,
1000000000094957,77752381405,mMTS,mKcell,mKcell,,D77,2016-02-21T13:51:43+06:00,
1000000000094958,77754351029,mMTS,mKcell,mKcell,,D77,2016-02-21T13:52:11+06:00,
1000000000094959,77774335326,mAltel,mKarTel,mKarTel,,D07,2016-02-21T13:52:36+06:00,
1000000000094961,77085836167,mKarTel,mAltel,mAltel,,D01,2016-02-21T13:54:08+06:00,
1000000000094965,77774358743,mMTS,mKarTel,mKarTel,,D77,2016-02-21T13:56:31+06:00,
1000000000094966,77056058085,mKcell,mKarTel,mKarTel,,D02,2016-02-21T13:56:46+06:00,
1000000000094968,77084983162,mKcell,mAltel,mAltel,,D02,2016-02-21T13:58:31+06:00,
1000000000094969,77017295249,mAltel,mKcell,mKcell,,D07,2016-02-21T13:59:32+06:00,
