NPId,Number,RecipientId,DonorId,RangeHolderId,OldRoute,NewRoute,PortDate,RowCount
1000000000213343,77789727305,mAltel,mKcell,mKcell,,D07,2016-07-19T12:50:59+06:00,41
1000000000213348,77014040939,mKarTel,mKcell,mKcell,,D01,2016-07-19T12:51:39+06:00,
1000000000213350,77759403889,mAltel,mKcell,mKcell,,D07,2016-07-19T12:50:51+06:00,
1000000000213354,77017129597,mAltel,mKcell,mKcell,,D07,2016-07-19T12:50:57+06:00,
1000000000213356,77021835927,mKarTel,mKcell,mKcell,,D01,2016-07-19T12:51:39+06:00,
1000000000213357,77782194258,mMTS,mKcell,mKcell,,D77,2016-07-19T12:50:52+06:00,
1000000000213359,77029407636,mKarTel,mKcell,mKcell,,D01,2016-07-19T12:51:39+06:00,
1000000000213361,77023030459,mMTS,mKcell,mKcell,,D77,2016-07-19T12:50:56+06:00,
1000000000213364,77786164464,mMTS,mKcell,mKcell,,D77,2016-07-19T12:50:53+06:00,
1000000000213367,77015771151,mMTS,mKcell,mKcell,,D77,2016-07-19T12:50:53+06:00,
1000000000213368,77751705290,mMTS,mKcell,mKcell,,D77,2016-07-19T12:50:59+06:00,
1000000000213373,77759579977,mMTS,mKcell,mKcell,,D77,2016-07-19T12:50:50+06:00,
1000000000213374,77017365293,mAltel,mKcell,mKcell,,D07,2016-07-19T12:50:57+06:00,
1000000000213376,77015799069,mMTS,mKcell,mKcell,,D77,2016-07-19T12:50:53+06:00,
1000000000213378,77022158907,mMTS,mKcell,mKcell,,D77,2016-07-19T12:50:57+06:00,
1000000000213380,77017440487,mKarTel,mKcell,mKcell,,D01,2016-07-19T12:51:39+06:00,
1000000000213386,77013469457,mAltel,mKcell,mKcell,,D07,2016-07-19T12:50:53+06:00,
1000000000213389,77015571948,mAltel,mKcell,mKcell,,D07,2016-07-19T12:50:51+06:00,
1000000000213391,77777870727,mKarTel,mKcell,mKarTel,D02,D01,2016-07-19T12:51:39+06:00,
1000000000213397,77015445080,mKarTel,mKcell,mKcell,,D01,2016-07-19T12:51:39+06:00,
1000000000213398,77017304876,mMTS,mKcell,mKcell,,D77,2016-07-19T12:51:03+06:00,
1000000000213400,77026855587,mMTS,mKcell,mKcell,,D77,2016-07-19T12:51:04+06:00,
1000000000213403,77012161182,mMTS,mKcell,mKcell,,D77,2016-07-19T12:51:05+06:00,
1000000000213404,77471208537,mMTS,mKcell,mMTS,D02,D77,2016-07-19T12:51:06+06:00,
1000000000213417,77017260875,mKarTel,mKcell,mKcell,,D01,2016-07-19T12:51:13+06:00,
1000000000213421,77017802222,mMTS,mKcell,mKcell,,D77,2016-07-19T12:51:05+06:00,
1000000000213422,77024869254,mKarTel,mKcell,mKcell,,D01,2016-07-19T12:51:39+06:00,
1000000000213423,77015242629,mMTS,mKcell,mKcell,,D77,2016-07-19T12:50:50+06:00,
1000000000213444,77773450512,mKarTel,mMTS,mKarTel,D77,D01,2016-07-19T12:30:42+06:00,
1000000000213446,77085343074,mAltel,mMTS,mAltel,D77,D07,2016-07-19T12:31:32+06:00,
1000000000213449,77073229282,mAltel,mMTS,mMTS,,D07,2016-07-19T12:33:43+06:00,
1000000000213455,77059636111,mKarTel,mAltel,mKarTel,D07,D01,2016-07-19T12:37:44+06:00,
1000000000213456,77779274802,mMTS,mKarTel,mKarTel,,D77,2016-07-19T12:38:05+06:00,
1000000000213461,77772727270,mMTS,mKarTel,mKarTel,,D77,2016-07-19T12:42:16+06:00,
1000000000213463,77770128068,mMTS,mKarTel,mKarTel,,D77,2016-07-19T12:43:15+06:00,
1000000000213464,77071229792,mMTS,mAltel,mMTS,D07,D77,2016-07-19T12:43:43+06:00,
1000000000213489,77007660916,mKarTel,mAltel,mAltel,,D01,2016-07-19T12:49:39+06:00,
1000000000213495,77777861047,mMTS,mKarTel,mKarTel,,D77,2016-07-19T12:54:43+06:00,
1000000000213497,77085515536,mMTS,mKarTel,mAltel,D01,D77,2016-07-19T12:56:21+06:00,
1000000000213498,77055795775,mMTS,mKarTel,mKarTel,,D77,2016-07-19T12:58:57+06:00,
1000000000213499,77019001227,mMTS,mKarTel,mKcell,D01,D77,2016-07-19T12:59:09+06:00,
