NPId,Number,RecipientId,DonorId,RangeHolderId,OldRoute,NewRoute,PortDate,RowCount
1000000000129910,77759061133,mMTS,mKcell,mKcell,,D77,2016-03-20T15:02:03+06:00,13
1000000000129912,77072107045,mKarTel,mMTS,mMTS,,D01,2016-03-20T15:07:12+06:00,
1000000000129915,77011399576,mKarTel,mKcell,mKcell,,D01,2016-03-20T15:12:12+06:00,
1000000000129917,77017862142,mMTS,mKcell,mKcell,,D77,2016-03-20T15:13:44+06:00,
1000000000129919,77753005582,mMTS,mKcell,mKcell,,D77,2016-03-20T15:14:56+06:00,
1000000000129920,77762060293,mAltel,mKarTel,mKarTel,,D07,2016-03-20T15:17:18+06:00,
1000000000129922,77027889696,mMTS,mKcell,mKcell,,D77,2016-03-20T15:17:09+06:00,
1000000000129924,77089008545,mKcell,mAltel,mAltel,,D02,2016-03-20T15:18:40+06:00,
1000000000129925,77751593310,mMTS,mKcell,mKcell,,D77,2016-03-20T15:20:48+06:00,
1000000000129926,77013240101,mKarTel,mKcell,mKcell,,D01,2016-03-20T15:21:56+06:00,
1000000000129928,77710509390,mAltel,mKarTel,mKarTel,,D07,2016-03-20T15:26:35+06:00,
1000000000129929,77787789171,mAltel,mKcell,mKcell,,D07,2016-03-20T15:26:03+06:00,
1000000000129930,77753991488,mKarTel,mKcell,mKcell,,D01,2016-03-20T15:26:59+06:00,
