NPId,Number,RecipientId,DonorId,RangeHolderId,OldRoute,NewRoute,PortDate,RowCount
1000000000193434,77773889425,mMTS,mKarTel,mKarTel,,D77,2016-06-14T15:32:13+06:00,26
1000000000193435,77029025016,mKcell,mMTS,mKcell,D77,D02,2016-06-14T15:32:49+06:00,
1000000000193436,77784444225,mKarTel,mKcell,mKcell,,D01,2016-06-14T15:32:45+06:00,
1000000000193438,77029025015,mKcell,mMTS,mKcell,D77,D02,2016-06-14T15:36:05+06:00,
1000000000193439,77770223194,mMTS,mKarTel,mKarTel,,D77,2016-06-14T15:37:28+06:00,
1000000000193440,77017999943,mKarTel,mKcell,mKcell,,D01,2016-06-14T15:38:59+06:00,
1000000000193441,77773142498,mMTS,mKarTel,mKarTel,,D77,2016-06-14T15:38:16+06:00,
1000000000193443,77776674844,mMTS,mKarTel,mKarTel,,D77,2016-06-14T15:39:27+06:00,
1000000000193444,77078226251,mKarTel,mMTS,mMTS,,D01,2016-06-14T15:39:48+06:00,
1000000000193445,77017654537,mKarTel,mKcell,mKcell,,D01,2016-06-14T15:41:45+06:00,
1000000000193446,77713357777,mKcell,mKarTel,mKarTel,,D02,2016-06-14T15:44:54+06:00,
1000000000193447,77479343783,mKcell,mMTS,mMTS,,D02,2016-06-14T15:44:14+06:00,
1000000000193448,77013254261,mKarTel,mKcell,mKcell,,D01,2016-06-14T15:44:58+06:00,
1000000000193450,77474228023,mKarTel,mMTS,mMTS,,D01,2016-06-14T15:45:42+06:00,
1000000000193451,77018345649,mMTS,mKcell,mKcell,,D77,2016-06-14T15:46:28+06:00,
1000000000193453,77017258302,mMTS,mKcell,mKcell,,D77,2016-06-14T15:50:24+06:00,
1000000000193454,77029047992,mKcell,mMTS,mKcell,D77,D02,2016-06-14T15:50:46+06:00,
1000000000193455,77014751046,mKarTel,mAltel,mKcell,D07,D01,2016-06-14T15:51:02+06:00,
1000000000193456,77789099979,mMTS,mKcell,mKcell,,D77,2016-06-14T15:51:20+06:00,
1000000000193458,77028204959,mAltel,mKcell,mKcell,,D07,2016-06-14T15:52:25+06:00,
1000000000193459,77072121083,mKarTel,mMTS,mMTS,,D01,2016-06-14T15:54:05+06:00,
1000000000193460,77012286728,mKcell,mAltel,mKcell,D07,D02,2016-06-14T15:55:38+06:00,
1000000000193461,77772205287,mKcell,mKarTel,mKarTel,,D02,2016-06-14T15:55:39+06:00,
1000000000193464,77073346526,mMTS,mAltel,mMTS,D07,D77,2016-06-14T15:58:00+06:00,
1000000000193465,77015705098,mKarTel,mKcell,mKcell,,D01,2016-06-14T15:59:05+06:00,
1000000000193467,77025135158,mMTS,mAltel,mKcell,D07,D77,2016-06-14T15:59:05+06:00,
