NPId,Number,RecipientId,DonorId,RangeHolderId,OldRoute,NewRoute,PortDate,RowCount
1000000000396974,77054422332,mMTS,mKarTel,mKarTel,,D77,2017-06-03T18:00:57+06:00,15
1000000000396975,77478316700,mKarTel,mMTS,mMTS,,D01,2017-06-03T18:03:27+06:00,
1000000000396976,77074512879,mKcell,mMTS,mMTS,,D02,2017-06-03T18:05:17+06:00,
1000000000396977,77078828863,mKarTel,mMTS,mMTS,D77,D01,2017-06-03T18:06:30+06:00,
1000000000396978,77781603481,mMTS,mKcell,mKcell,,D77,2017-06-03T18:07:45+06:00,
1000000000396980,77789844444,mMTS,mKcell,mKcell,D02,D77,2017-06-03T18:10:09+06:00,
1000000000396981,77754477702,mAltel,mKcell,mKcell,,D07,2017-06-03T18:13:01+06:00,
1000000000396982,77077979960,mKarTel,mMTS,mMTS,,D01,2017-06-03T18:13:26+06:00,
1000000000396983,77472501558,mKcell,mMTS,mMTS,,D02,2017-06-03T18:14:46+06:00,
1000000000396986,77767039696,mKcell,mKarTel,mKarTel,,D02,2017-06-03T18:18:24+06:00,
1000000000396987,77023547577,mKcell,mMTS,mKcell,D77,D02,2017-06-03T18:20:36+06:00,
1000000000396989,77767288080,mKcell,mKarTel,mKarTel,,D02,2017-06-03T18:24:54+06:00,
1000000000396990,77076770505,mKcell,mMTS,mMTS,,D02,2017-06-03T18:27:36+06:00,
1000000000396991,77014349476,mKarTel,mKcell,mKcell,,D01,2017-06-03T18:28:33+06:00,
1000000000396992,77077708881,mKarTel,mMTS,mMTS,D77,D01,2017-06-03T18:29:15+06:00,
