NPId,Number,RecipientId,DonorId,RangeHolderId,OldRoute,NewRoute,PortDate,RowCount
1000000000101928,77015294136,mMTS,mKcell,mKcell,,D77,2016-02-29T10:00:27+06:00,24
1000000000101929,77015237177,mAltel,mKcell,mKcell,,D07,2016-02-29T10:02:21+06:00,
1000000000101930,77003048586,mMTS,mAltel,mAltel,,D77,2016-02-29T10:01:49+06:00,
1000000000101931,77015446050,mMTS,mKcell,mKcell,,D77,2016-02-29T10:02:16+06:00,
1000000000101933,77753066610,mMTS,mKcell,mKcell,,D77,2016-02-29T10:02:20+06:00,
1000000000101934,77715592500,mMTS,mKarTel,mKarTel,,D77,2016-02-29T10:02:10+06:00,
1000000000101935,77011833930,mMTS,mKcell,mKcell,,D77,2016-02-29T10:02:08+06:00,
1000000000101936,77011227221,mMTS,mKcell,mKcell,,D77,2016-02-29T10:02:16+06:00,
1000000000101937,77021727132,mMTS,mKcell,mKcell,,D77,2016-02-29T10:02:20+06:00,
1000000000101938,77004840111,mMTS,mAltel,mAltel,,D77,2016-02-29T10:01:51+06:00,
1000000000101939,77751601002,mMTS,mKcell,mKcell,,D77,2016-02-29T10:02:16+06:00,
1000000000101940,77015745492,mKarTel,mKcell,mKcell,,D01,2016-02-29T10:03:01+06:00,
1000000000101941,77019520005,mMTS,mKcell,mKcell,,D77,2016-02-29T10:05:03+06:00,
1000000000101942,77715781006,mMTS,mKarTel,mKarTel,,D77,2016-02-29T10:04:29+06:00,
1000000000101944,77754749932,mMTS,mKcell,mKcell,,D77,2016-02-29T10:07:31+06:00,
1000000000101948,77029475968,mAltel,mKcell,mKcell,,D07,2016-02-29T10:13:28+06:00,
1000000000101952,77015751325,mMTS,mKcell,mKcell,,D77,2016-02-29T10:20:24+06:00,
1000000000101953,77000000846,mMTS,mAltel,mAltel,,D77,2016-02-29T10:20:39+06:00,
1000000000101954,77759139991,mAltel,mKcell,mKcell,,D07,2016-02-29T10:20:51+06:00,
1000000000101955,77017327967,mMTS,mKcell,mKcell,,D77,2016-02-29T10:21:19+06:00,
1000000000101956,77719040580,mMTS,mKarTel,mKarTel,,D77,2016-02-29T10:21:25+06:00,
1000000000101958,77017269487,mAltel,mKcell,mKcell,,D07,2016-02-29T10:22:30+06:00,
1000000000101961,77759486747,mMTS,mKcell,mKcell,,D77,2016-02-29T10:27:44+06:00,
1000000000101962,77072123455,mKarTel,mMTS,mMTS,,D01,2016-02-29T10:27:06+06:00,
