NPId,Number,RecipientId,DonorId,RangeHolderId,OldRoute,NewRoute,PortDate,RowCount
1000000000251352,77765822227,mKarTel,mKcell,mKarTel,D02,D01,2016-09-26T15:06:39+06:00,30
1000000000251353,77003095678,mKarTel,mAltel,mAltel,,D01,2016-09-26T15:00:22+06:00,
1000000000251354,77773521601,mAltel,mKarTel,mKarTel,,D07,2016-09-26T15:06:41+06:00,
1000000000251356,77011115509,mKcell,mMTS,mKcell,D77,D02,2016-09-26T15:04:07+06:00,
1000000000251357,77001060906,mMTS,mAltel,mAltel,,D77,2016-09-26T15:04:20+06:00,
1000000000251358,77071906095,mKcell,mMTS,mMTS,,D02,2016-09-26T15:04:50+06:00,
1000000000251359,77003518470,mKcell,mAltel,mAltel,,D02,2016-09-26T15:05:06+06:00,
1000000000251360,77015452077,mMTS,mKcell,mKcell,,D77,2016-09-26T15:06:30+06:00,
1000000000251362,77085283870,mMTS,mAltel,mAltel,,D77,2016-09-26T15:07:27+06:00,
1000000000251363,77024374950,mKarTel,mKcell,mKcell,,D01,2016-09-26T15:08:31+06:00,
1000000000251364,77781135135,mMTS,mAltel,mKcell,D07,D77,2016-09-26T15:08:23+06:00,
1000000000251365,77012528574,mAltel,mKcell,mKcell,,D07,2016-09-26T15:09:41+06:00,
1000000000251367,77074956405,mKarTel,mMTS,mMTS,,D01,2016-09-26T15:12:09+06:00,
1000000000251368,77080300300,mKarTel,mAltel,mAltel,,D01,2016-09-26T15:13:03+06:00,
1000000000251369,77012087444,mAltel,mKcell,mKcell,,D07,2016-09-26T15:12:55+06:00,
1000000000251372,77782242252,mMTS,mKcell,mKcell,,D77,2016-09-26T15:16:31+06:00,
1000000000251373,77001355236,mMTS,mAltel,mAltel,,D77,2016-09-26T15:17:26+06:00,
1000000000251376,77011892059,mMTS,mKcell,mKcell,,D77,2016-09-26T15:19:22+06:00,
1000000000251377,77053055002,mKarTel,mKcell,mKarTel,D02,D01,2016-09-26T15:20:16+06:00,
1000000000251378,77072925555,mKarTel,mMTS,mMTS,,D01,2016-09-26T15:21:11+06:00,
1000000000251380,77762003636,mKcell,mKarTel,mKarTel,,D02,2016-09-26T15:24:31+06:00,
1000000000251381,77019500500,mKarTel,mKcell,mKcell,,D01,2016-09-26T15:23:12+06:00,
1000000000251383,77078774786,mKcell,mMTS,mMTS,,D02,2016-09-26T15:23:24+06:00,
1000000000251384,77057723175,mMTS,mKarTel,mKarTel,,D77,2016-09-26T15:26:02+06:00,
1000000000251388,77474136713,mKarTel,mMTS,mMTS,,D01,2016-09-26T15:25:57+06:00,
1000000000251389,77017085050,mKcell,mMTS,mKcell,D77,D02,2016-09-26T15:25:22+06:00,
1000000000251390,77477400161,mAltel,mMTS,mMTS,,D07,2016-09-26T15:25:20+06:00,
1000000000251391,77003000316,mKcell,mAltel,mAltel,,D02,2016-09-26T15:26:17+06:00,
1000000000251395,77002000273,mKcell,mAltel,mAltel,,D02,2016-09-26T15:27:53+06:00,
1000000000251396,77004000421,mKcell,mAltel,mAltel,,D02,2016-09-26T15:29:17+06:00,
