NPId,Number,RecipientId,DonorId,RangeHolderId,OldRoute,NewRoute,PortDate,RowCount
1000000000176076,77024793638,mKarTel,mKcell,mKcell,,D01,2016-05-17T17:30:07+06:00,18
1000000000176079,77009992140,mKcell,mAltel,mAltel,,D02,2016-05-17T17:32:48+06:00,
1000000000176081,77770505959,mKcell,mKarTel,mKarTel,,D02,2016-05-17T17:35:09+06:00,
1000000000176082,77015713658,mMTS,mKcell,mKcell,,D77,2016-05-17T17:34:46+06:00,
1000000000176083,77759217730,mKarTel,mKcell,mKcell,,D01,2016-05-17T17:35:53+06:00,
1000000000176084,77024257398,mMTS,mKcell,mKcell,,D77,2016-05-17T17:37:17+06:00,
1000000000176085,77784818375,mKarTel,mKcell,mKcell,,D01,2016-05-17T17:37:49+06:00,
1000000000176087,77055362523,mMTS,mKarTel,mKarTel,,D77,2016-05-17T17:41:59+06:00,
1000000000176088,77078878800,mKarTel,mMTS,mMTS,,D01,2016-05-17T17:41:55+06:00,
1000000000176089,77711449996,mMTS,mAltel,mKarTel,D07,D77,2016-05-17T17:42:13+06:00,
1000000000176090,77718026121,mMTS,mKarTel,mKarTel,,D77,2016-05-17T17:42:44+06:00,
1000000000176091,77078878811,mKarTel,mMTS,mMTS,,D01,2016-05-17T17:43:40+06:00,
1000000000176092,77014000932,mKarTel,mKcell,mKcell,,D01,2016-05-17T17:44:08+06:00,
1000000000176095,77027822208,mKcell,mAltel,mKcell,D07,D02,2016-05-17T17:48:45+06:00,
1000000000176097,77754044403,mKarTel,mKcell,mKcell,,D01,2016-05-17T17:49:11+06:00,
1000000000176100,77788035006,mAltel,mKcell,mKcell,,D07,2016-05-17T17:58:33+06:00,
1000000000176101,77474088784,mMTS,mKarTel,mMTS,D01,D77,2016-05-17T17:59:02+06:00,
1000000000176102,77018809405,mKarTel,mKcell,mKcell,,D01,2016-05-17T17:59:45+06:00,
