NPId,Number,RecipientId,DonorId,RangeHolderId,OldRoute,NewRoute,PortDate,RowCount
1000000000319564,77085201522,mMTS,mKcell,mAltel,D02,D77,2017-01-31T09:20:41+06:00,63
1000000000319566,77024877371,mMTS,mKcell,mKcell,,D77,2017-01-31T09:20:41+06:00,
1000000000319569,77025568148,mAltel,mKcell,mKcell,,D07,2017-01-31T09:20:43+06:00,
1000000000319574,77077768800,mMTS,mKcell,mMTS,D02,D77,2017-01-31T09:20:43+06:00,
1000000000319575,77025555883,mAltel,mKcell,mKcell,,D07,2017-01-31T09:20:49+06:00,
1000000000319576,77022796199,mKarTel,mKcell,mKcell,,D01,2017-01-31T09:21:00+06:00,
1000000000319585,77015522672,mKarTel,mKcell,mKcell,,D01,2017-01-31T09:21:01+06:00,
1000000000319586,77029127292,mMTS,mKcell,mKcell,,D77,2017-01-31T09:20:49+06:00,
1000000000319588,77755363822,mMTS,mKcell,mKcell,,D77,2017-01-31T09:20:49+06:00,
1000000000319591,77026371035,mMTS,mKcell,mKcell,,D77,2017-01-31T09:20:49+06:00,
1000000000319592,77025511199,mKarTel,mKcell,mKcell,,D01,2017-01-31T09:21:15+06:00,
1000000000319593,77756555438,mMTS,mKcell,mKcell,,D77,2017-01-31T09:21:01+06:00,
1000000000319599,77089122115,mAltel,mKcell,mAltel,D02,D07,2017-01-31T09:20:55+06:00,
1000000000319601,77751797914,mAltel,mKcell,mKcell,,D07,2017-01-31T09:20:55+06:00,
1000000000319604,77013237278,mAltel,mKcell,mKcell,,D07,2017-01-31T09:21:06+06:00,
1000000000319606,77027772086,mKarTel,mKcell,mKcell,,D01,2017-01-31T09:21:07+06:00,
1000000000319608,77024385772,mKarTel,mKcell,mKcell,,D01,2017-01-31T09:21:14+06:00,
1000000000319616,77029994950,mAltel,mKcell,mKcell,,D07,2017-01-31T09:20:31+06:00,
1000000000319619,77776152344,mKcell,mMTS,mKarTel,D77,D02,2017-01-31T09:22:43+06:00,
1000000000319620,77774180680,mKcell,mKarTel,mKarTel,,D02,2017-01-31T09:21:20+06:00,
1000000000319621,77773035099,mKcell,mKarTel,mKarTel,,D02,2017-01-31T09:21:20+06:00,
1000000000319622,77773333372,mKcell,mKarTel,mKarTel,,D02,2017-01-31T09:21:20+06:00,
1000000000319623,77071286807,mKcell,mMTS,mMTS,,D02,2017-01-31T09:21:21+06:00,
1000000000319624,77003514616,mKcell,mAltel,mAltel,,D02,2017-01-31T09:21:21+06:00,
1000000000319625,77777007979,mKcell,mKarTel,mKarTel,,D02,2017-01-31T09:21:21+06:00,
1000000000319626,77479379090,mKcell,mMTS,mMTS,,D02,2017-01-31T09:22:43+06:00,
1000000000319627,77475952999,mKcell,mMTS,mMTS,,D02,2017-01-31T09:21:21+06:00,
1000000000319629,77083140308,mKcell,mAltel,mAltel,,D02,2017-01-31T09:21:22+06:00,
1000000000319630,77782306077,mKcell,mMTS,mKcell,D77,D02,2017-01-31T09:22:43+06:00,
1000000000319631,77772565070,mKcell,mKarTel,mKarTel,D01,D02,2017-01-31T09:21:22+06:00,
1000000000319632,77773056571,mKcell,mKarTel,mKarTel,,D02,2017-01-31T09:21:22+06:00,
1000000000319633,77051113913,mKcell,mKarTel,mKarTel,D01,D02,2017-01-31T09:20:54+06:00,
1000000000319634,77017961777,mKcell,mKarTel,mKcell,D01,D02,2017-01-31T09:20:55+06:00,
1000000000319635,77016366664,mKcell,mKarTel,mKcell,D01,D02,2017-01-31T09:21:26+06:00,
1000000000319636,77776766664,mKcell,mKarTel,mKarTel,,D02,2017-01-31T09:21:23+06:00,
1000000000319637,77475757588,mKcell,mMTS,mMTS,,D02,2017-01-31T09:22:43+06:00,
1000000000319638,77075500100,mKcell,mMTS,mMTS,,D02,2017-01-31T09:21:23+06:00,
1000000000319641,77771342424,mKcell,mKarTel,mKarTel,,D02,2017-01-31T09:21:26+06:00,
1000000000319642,77478354347,mKcell,mMTS,mMTS,,D02,2017-01-31T09:22:43+06:00,
1000000000319644,77719936003,mKcell,mKarTel,mKarTel,,D02,2017-01-31T09:20:55+06:00,
1000000000319645,77076402030,mKcell,mMTS,mMTS,,D02,2017-01-31T09:21:23+06:00,
1000000000319646,77772260888,mKcell,mKarTel,mKarTel,,D02,2017-01-31T09:20:55+06:00,
1000000000319647,77773144444,mKcell,mKarTel,mKarTel,,D02,2017-01-31T09:21:23+06:00,
1000000000319648,77003000765,mKcell,mAltel,mAltel,,D02,2017-01-31T09:21:24+06:00,
1000000000319649,77761869036,mKcell,mKarTel,mKarTel,,D02,2017-01-31T09:21:27+06:00,
1000000000319650,77082225501,mKcell,mAltel,mAltel,,D02,2017-01-31T09:21:27+06:00,
1000000000319652,77014525955,mKcell,mMTS,mKcell,D77,D02,2017-01-31T09:21:27+06:00,
1000000000319653,77752572132,mAltel,mKcell,mKcell,,D07,2017-01-31T09:20:31+06:00,
1000000000319657,77772318888,mKcell,mKarTel,mKarTel,,D02,2017-01-31T09:20:55+06:00,
1000000000319659,77752128788,mKcell,mMTS,mKcell,D77,D02,2017-01-31T09:21:30+06:00,
1000000000319662,77015333252,mKarTel,mKcell,mKcell,,D01,2017-01-31T09:20:49+06:00,
1000000000319664,77015531155,mKarTel,mKcell,mKcell,,D01,2017-01-31T09:20:49+06:00,
1000000000319666,77028847454,mKarTel,mKcell,mKcell,,D01,2017-01-31T09:20:49+06:00,
1000000000319667,77029198739,mMTS,mKcell,mKcell,,D77,2017-01-31T09:20:37+06:00,
1000000000319668,77012181471,mKcell,mMTS,mKcell,D77,D02,2017-01-31T09:21:30+06:00,
1000000000319669,77072100891,mKcell,mMTS,mMTS,,D02,2017-01-31T09:21:30+06:00,
1000000000319670,77016598848,mKcell,mMTS,mKcell,D77,D02,2017-01-31T09:21:33+06:00,
1000000000319672,77017711031,mMTS,mKcell,mKcell,,D77,2017-01-31T09:20:49+06:00,
1000000000319673,77025073535,mKcell,mMTS,mKcell,D77,D02,2017-01-31T09:21:30+06:00,
1000000000319679,77071689696,mKarTel,mMTS,mMTS,,D01,2017-01-31T09:02:50+06:00,
1000000000319680,77772955200,mAltel,mKarTel,mKarTel,,D07,2017-01-31T09:03:04+06:00,
1000000000319681,77014063626,mAltel,mKcell,mKcell,,D07,2017-01-31T09:20:53+06:00,
1000000000319683,77017772841,mKarTel,mKcell,mKcell,,D01,2017-01-31T09:22:36+06:00,
