NPId,Number,RecipientId,DonorId,RangeHolderId,OldRoute,NewRoute,PortDate,RowCount
1000000000397103,77018414871,mMTS,mKcell,mKcell,D02,D77,2017-06-04T13:36:29+06:00,11
1000000000397104,77714553555,mMTS,mKarTel,mKarTel,,D77,2017-06-04T13:38:08+06:00,
1000000000397105,77026643496,mMTS,mKcell,mKcell,,D77,2017-06-04T13:38:12+06:00,
1000000000397106,77013284439,mMTS,mKcell,mKcell,,D77,2017-06-04T13:42:52+06:00,
1000000000397107,77479138642,mAltel,mMTS,mMTS,,D07,2017-06-04T13:43:32+06:00,
1000000000397109,77017499673,mMTS,mKcell,mKcell,,D77,2017-06-04T13:45:59+06:00,
1000000000397110,77055031595,mMTS,mKarTel,mKarTel,,D77,2017-06-04T13:48:57+06:00,
1000000000397111,77075997940,mMTS,mKcell,mMTS,D02,D77,2017-06-04T13:51:31+06:00,
1000000000397112,77075997941,mMTS,mKcell,mMTS,D02,D77,2017-06-04T13:52:47+06:00,
1000000000397113,77017511333,mAltel,mKarTel,mKcell,D01,D07,2017-06-04T13:54:06+06:00,
1000000000397114,77018183778,mAltel,mKcell,mKcell,,D07,2017-06-04T13:54:37+06:00,
