NPId,Number,RecipientId,DonorId,RangeHolderId,OldRoute,NewRoute,PortDate,RowCount
1000000000435129,77789197676,mKcell,mMTS,mKcell,D77,D02,2017-08-04T20:04:18+06:00,3
1000000000435131,77787657755,mKcell,mAltel,mKcell,D07,D02,2017-08-04T20:12:00+06:00,
1000000000435132,77772602952,mKcell,mAltel,mKarTel,D07,D02,2017-08-04T20:14:43+06:00,
