NPId,Number,RecipientId,DonorId,RangeHolderId,OldRoute,NewRoute,PortDate,RowCount
1000000000103284,77010353023,mKarTel,mKcell,mKcell,,D01,2016-03-01T11:54:11+06:00,44
1000000000103284,77011119009,mKarTel,mKcell,mKcell,,D01,2016-03-01T11:54:11+06:00,
1000000000103284,77011119800,mKarTel,mKcell,mKcell,,D01,2016-03-01T11:54:11+06:00,
1000000000103284,77013547672,mKarTel,mKcell,mKcell,,D01,2016-03-01T11:54:11+06:00,
1000000000103284,77016157393,mKarTel,mKcell,mKcell,,D01,2016-03-01T11:54:11+06:00,
1000000000103284,77017109634,mKarTel,mKcell,mKcell,,D01,2016-03-01T11:54:11+06:00,
1000000000103284,77017125952,mKarTel,mKcell,mKcell,,D01,2016-03-01T11:54:11+06:00,
1000000000103284,77017389550,mKarTel,mKcell,mKcell,,D01,2016-03-01T11:54:11+06:00,
1000000000103284,77017886343,mKarTel,mKcell,mKcell,,D01,2016-03-01T11:54:11+06:00,
1000000000103284,77019869998,mKarTel,mKcell,mKcell,,D01,2016-03-01T11:54:11+06:00,
1000000000103284,77029993077,mKarTel,mKcell,mKcell,,D01,2016-03-01T11:54:11+06:00,
1000000000103400,77018000638,mAltel,mKcell,mKcell,,D07,2016-03-01T11:30:28+06:00,
1000000000103401,77775334657,mMTS,mKarTel,mKarTel,,D77,2016-03-01T11:33:09+06:00,
1000000000103402,77712455505,mMTS,mKarTel,mKarTel,,D77,2016-03-01T11:32:11+06:00,
1000000000103405,77022270369,mKarTel,mKcell,mKcell,,D01,2016-03-01T11:34:04+06:00,
1000000000103406,77016606465,mMTS,mKcell,mKcell,,D77,2016-03-01T11:34:16+06:00,
1000000000103407,77012214344,mAltel,mKcell,mKcell,,D07,2016-03-01T11:34:16+06:00,
1000000000103408,77779537777,mMTS,mKarTel,mKarTel,,D77,2016-03-01T11:36:38+06:00,
1000000000103410,77057051117,mMTS,mKarTel,mKarTel,,D77,2016-03-01T11:37:34+06:00,
1000000000103411,77017553771,mMTS,mKcell,mKcell,,D77,2016-03-01T11:37:50+06:00,
1000000000103413,77076271935,mKarTel,mMTS,mMTS,,D01,2016-03-01T11:38:27+06:00,
1000000000103414,77017733554,mAltel,mKcell,mKcell,,D07,2016-03-01T11:38:55+06:00,
1000000000103415,77057799030,mAltel,mKarTel,mKarTel,,D07,2016-03-01T11:39:27+06:00,
1000000000103417,77475391978,mKarTel,mMTS,mMTS,,D01,2016-03-01T11:41:24+06:00,
1000000000103419,77716770001,mMTS,mKarTel,mKarTel,,D77,2016-03-01T11:42:11+06:00,
1000000000103420,77017220570,mKarTel,mKcell,mKcell,,D01,2016-03-01T11:42:54+06:00,
1000000000103421,77777026010,mMTS,mKarTel,mKarTel,,D77,2016-03-01T11:45:52+06:00,
1000000000103422,77004995271,mKarTel,mAltel,mAltel,,D01,2016-03-01T11:45:50+06:00,
1000000000103423,77751766031,mMTS,mKcell,mKcell,,D77,2016-03-01T11:46:16+06:00,
1000000000103425,77477257333,mKarTel,mMTS,mMTS,,D01,2016-03-01T11:47:07+06:00,
1000000000103426,77052299078,mMTS,mKarTel,mKarTel,,D77,2016-03-01T11:48:19+06:00,
1000000000103427,77774695548,mMTS,mKarTel,mKarTel,,D77,2016-03-01T11:48:25+06:00,
1000000000103428,77016267373,mKarTel,mKcell,mKcell,,D01,2016-03-01T11:49:16+06:00,
1000000000103429,77778202929,mMTS,mKarTel,mKarTel,,D77,2016-03-01T11:49:56+06:00,
1000000000103430,77773695048,mMTS,mKarTel,mKarTel,,D77,2016-03-01T11:50:02+06:00,
1000000000103432,77015884025,mKarTel,mKcell,mKcell,,D01,2016-03-01T11:51:57+06:00,
1000000000103433,77079901749,mAltel,mMTS,mMTS,,D07,2016-03-01T11:51:39+06:00,
1000000000103434,77769969997,mMTS,mKarTel,mKarTel,,D77,2016-03-01T11:52:14+06:00,
1000000000103435,77012455045,mMTS,mKcell,mKcell,,D77,2016-03-01T11:53:32+06:00,
1000000000103436,77787121378,mKarTel,mKcell,mKcell,,D01,2016-03-01T11:54:52+06:00,
1000000000103438,77055754748,mMTS,mKarTel,mKarTel,,D77,2016-03-01T11:54:55+06:00,
1000000000103442,77775050749,mMTS,mKarTel,mKarTel,,D77,2016-03-01T11:57:46+06:00,
1000000000103443,77770117000,mAltel,mKarTel,mKarTel,,D07,2016-03-01T11:58:37+06:00,
1000000000103444,77012277800,mAltel,mKcell,mKcell,,D07,2016-03-01T11:59:19+06:00,
