NPId,Number,RecipientId,DonorId,RangeHolderId,OldRoute,NewRoute,PortDate,RowCount
1000000000234344,77012525606,mKarTel,mAltel,mKcell,D07,D01,2016-08-26T11:30:36+06:00,20
1000000000234345,77778989099,mKcell,mKarTel,mKarTel,,D02,2016-08-26T11:35:35+06:00,
1000000000234346,77779346672,mMTS,mKarTel,mKarTel,,D77,2016-08-26T11:35:47+06:00,
1000000000234348,77083651102,mMTS,mAltel,mAltel,,D77,2016-08-26T11:35:35+06:00,
1000000000234349,77477000310,mKcell,mMTS,mMTS,,D02,2016-08-26T11:36:12+06:00,
1000000000234350,77786553339,mMTS,mKcell,mKcell,,D77,2016-08-26T11:36:23+06:00,
1000000000234351,77003041978,mMTS,mAltel,mAltel,,D77,2016-08-26T11:37:44+06:00,
1000000000234352,77473135506,mAltel,mMTS,mMTS,,D07,2016-08-26T11:38:09+06:00,
1000000000234353,77052872938,mKarTel,mMTS,mKarTel,D77,D01,2016-08-26T11:39:29+06:00,
1000000000234354,77080373100,mMTS,mAltel,mAltel,,D77,2016-08-26T11:39:54+06:00,
1000000000234355,77017352740,mKarTel,mKcell,mKcell,,D01,2016-08-26T11:41:08+06:00,
1000000000234357,77012254019,mMTS,mKcell,mKcell,,D77,2016-08-26T11:44:12+06:00,
1000000000234359,77078242184,mAltel,mMTS,mMTS,,D07,2016-08-26T11:45:54+06:00,
1000000000234361,77714555514,mAltel,mKarTel,mKarTel,,D07,2016-08-26T11:47:38+06:00,
1000000000234363,77788833353,mMTS,mKcell,mKcell,,D77,2016-08-26T11:49:51+06:00,
1000000000234366,77017505875,mKarTel,mKcell,mKcell,,D01,2016-08-26T11:55:06+06:00,
1000000000234368,77757579655,mMTS,mKcell,mKcell,,D77,2016-08-26T11:56:38+06:00,
1000000000234369,77752785436,mKarTel,mKcell,mKcell,,D01,2016-08-26T11:57:12+06:00,
1000000000234370,77054935577,mMTS,mKarTel,mKarTel,,D77,2016-08-26T11:58:10+06:00,
1000000000234371,77002202050,mMTS,mAltel,mAltel,,D77,2016-08-26T11:59:02+06:00,
