NPId,Number,RecipientId,DonorId,RangeHolderId,OldRoute,NewRoute,PortDate,RowCount
1000000000314973,77017670863,mMTS,mKcell,mKcell,,D77,2017-01-23T12:32:51+06:00,21
1000000000314974,77073332775,mKarTel,mMTS,mMTS,,D01,2017-01-23T12:34:09+06:00,
1000000000314977,77785082577,mKarTel,mKcell,mKcell,,D01,2017-01-23T12:35:39+06:00,
1000000000314978,77025555946,mKcell,mAltel,mKcell,D07,D02,2017-01-23T12:35:38+06:00,
1000000000314979,77078523535,mKarTel,mMTS,mMTS,,D01,2017-01-23T12:36:48+06:00,
1000000000314980,77055581058,mAltel,mKarTel,mKarTel,,D07,2017-01-23T12:37:06+06:00,
1000000000314982,77079872639,mKarTel,mMTS,mMTS,,D01,2017-01-23T12:39:02+06:00,
1000000000314983,77077600507,mKarTel,mMTS,mMTS,,D01,2017-01-23T12:40:46+06:00,
1000000000314987,77024004378,mMTS,mKcell,mKcell,,D77,2017-01-23T12:41:40+06:00,
1000000000314990,77020007576,mMTS,mKcell,mKcell,,D77,2017-01-23T12:42:49+06:00,
1000000000314994,77023676599,mKcell,mMTS,mKcell,D77,D02,2017-01-23T12:46:11+06:00,
1000000000314996,77772200076,mMTS,mKarTel,mKarTel,,D77,2017-01-23T12:47:45+06:00,
1000000000314998,77029228806,mKcell,mAltel,mKcell,D07,D02,2017-01-23T12:49:02+06:00,
1000000000314999,77071396290,mKcell,mMTS,mMTS,,D02,2017-01-23T12:50:49+06:00,
1000000000315002,77015996967,mAltel,mKarTel,mKcell,D01,D07,2017-01-23T12:52:07+06:00,
1000000000315003,77077334454,mKarTel,mMTS,mMTS,,D01,2017-01-23T12:53:34+06:00,
1000000000315005,77776461331,mAltel,mKarTel,mKarTel,,D07,2017-01-23T12:54:49+06:00,
1000000000315006,77770201212,mAltel,mKarTel,mKarTel,,D07,2017-01-23T12:56:40+06:00,
1000000000315007,77778614949,mMTS,mKarTel,mKarTel,D01,D77,2017-01-23T12:56:50+06:00,
1000000000315008,77764264000,mAltel,mKarTel,mKarTel,,D07,2017-01-23T12:57:21+06:00,
1000000000315009,77078392945,mMTS,mKcell,mMTS,D02,D77,2017-01-23T12:57:50+06:00,
