NPId,Number,RecipientId,DonorId,RangeHolderId,OldRoute,NewRoute,PortDate,RowCount
1000000000188038,77053004448,mMTS,mKarTel,mKarTel,,D77,2016-06-05T10:47:24+06:00,2
1000000000188039,77025566082,mMTS,mKcell,mKcell,,D77,2016-06-05T10:48:49+06:00,
