NPId,Number,RecipientId,DonorId,RangeHolderId,OldRoute,NewRoute,PortDate,RowCount
1000000000108290,77058451985,mMTS,mKarTel,mKarTel,,D77,2016-03-05T18:01:22+06:00,24
1000000000108291,77017872332,mAltel,mKcell,mKcell,,D07,2016-03-05T18:02:29+06:00,
1000000000108293,77071201234,mAltel,mKcell,mMTS,D02,D07,2016-03-05T18:04:10+06:00,
1000000000108294,77077733190,mAltel,mMTS,mMTS,,D07,2016-03-05T18:04:15+06:00,
1000000000108296,77072060855,mKarTel,mMTS,mMTS,,D01,2016-03-05T18:05:57+06:00,
1000000000108297,77052222890,mAltel,mKarTel,mKarTel,,D07,2016-03-05T18:07:05+06:00,
1000000000108298,77762221985,mMTS,mKarTel,mKarTel,,D77,2016-03-05T18:07:13+06:00,
1000000000108299,77751702311,mAltel,mKcell,mKcell,,D07,2016-03-05T18:07:11+06:00,
1000000000108300,77711811141,mKcell,mKarTel,mKarTel,,D02,2016-03-05T18:08:10+06:00,
1000000000108301,77011817187,mAltel,mKcell,mKcell,,D07,2016-03-05T18:07:41+06:00,
1000000000108303,77762008103,mAltel,mKarTel,mKarTel,,D07,2016-03-05T18:08:14+06:00,
1000000000108304,77778509045,mMTS,mKarTel,mKarTel,,D77,2016-03-05T18:08:38+06:00,
1000000000108306,77777720271,mKcell,mKarTel,mKarTel,,D02,2016-03-05T18:13:03+06:00,
1000000000108307,77017129188,mAltel,mKcell,mKcell,,D07,2016-03-05T18:12:44+06:00,
1000000000108310,77051445107,mAltel,mKarTel,mKarTel,,D07,2016-03-05T18:15:39+06:00,
1000000000108312,77086532337,mMTS,mAltel,mAltel,,D77,2016-03-05T18:15:20+06:00,
1000000000108313,77056151985,mMTS,mKarTel,mKarTel,,D77,2016-03-05T18:17:21+06:00,
1000000000108314,77756569736,mAltel,mKcell,mKcell,,D07,2016-03-05T18:17:24+06:00,
1000000000108315,77773002053,mAltel,mKarTel,mKarTel,,D07,2016-03-05T18:18:07+06:00,
1000000000108316,77027053748,mAltel,mKcell,mKcell,,D07,2016-03-05T18:19:25+06:00,
1000000000108317,77051951950,mKcell,mKarTel,mKarTel,,D02,2016-03-05T18:20:28+06:00,
1000000000108318,77778008584,mAltel,mKarTel,mKarTel,,D07,2016-03-05T18:21:30+06:00,
1000000000108319,77011498849,mMTS,mKcell,mKcell,,D77,2016-03-05T18:22:07+06:00,
1000000000108320,77029660404,mMTS,mKcell,mKcell,,D77,2016-03-05T18:24:52+06:00,
