NPId,Number,RecipientId,DonorId,RangeHolderId,OldRoute,NewRoute,PortDate,RowCount
1000000000296062,77003031997,mAltel,mMTS,mAltel,D77,D07,2016-12-16T14:01:12+06:00,17
1000000000296066,77005450550,mMTS,mAltel,mAltel,,D77,2016-12-16T14:03:17+06:00,
1000000000296067,77777009000,mKcell,mKarTel,mKarTel,,D02,2016-12-16T14:04:09+06:00,
1000000000296068,77085449842,mMTS,mAltel,mAltel,,D77,2016-12-16T14:07:37+06:00,
1000000000296069,77018663256,mAltel,mKcell,mKcell,,D07,2016-12-16T14:08:59+06:00,
1000000000296070,77071019211,mKarTel,mMTS,mMTS,,D01,2016-12-16T14:12:04+06:00,
1000000000296071,77775557222,mMTS,mKarTel,mKarTel,D01,D77,2016-12-16T14:19:38+06:00,
1000000000296072,77773834411,mMTS,mKcell,mKarTel,D02,D77,2016-12-16T14:19:36+06:00,
1000000000296073,77471184907,mKcell,mMTS,mMTS,,D02,2016-12-16T14:19:57+06:00,
1000000000296074,77478734262,mKcell,mMTS,mMTS,,D02,2016-12-16T14:20:52+06:00,
1000000000296076,77017583077,mMTS,mKcell,mKcell,,D77,2016-12-16T14:21:39+06:00,
1000000000296077,77019628333,mAltel,mKcell,mKcell,,D07,2016-12-16T14:22:53+06:00,
1000000000296078,77017188890,mAltel,mKcell,mKcell,,D07,2016-12-16T14:24:32+06:00,
1000000000296080,77477364607,mKcell,mMTS,mMTS,,D02,2016-12-16T14:25:30+06:00,
1000000000296081,77775929999,mKcell,mKarTel,mKarTel,,D02,2016-12-16T14:26:38+06:00,
1000000000296082,77011116888,mKcell,mKarTel,mKcell,D01,D02,2016-12-16T14:27:24+06:00,
1000000000296083,77057663838,mKcell,mKarTel,mKarTel,,D02,2016-12-16T14:28:07+06:00,
