NPId,Number,RecipientId,DonorId,RangeHolderId,OldRoute,NewRoute,PortDate,RowCount
1000000000371197,77083333230,mKcell,mAltel,mAltel,,D02,2017-04-24T21:00:32+06:00,3
1000000000371198,77055917618,mMTS,mKarTel,mKarTel,,D77,2017-04-24T21:08:06+06:00,
1000000000371199,77772796634,mMTS,mKarTel,mKarTel,,D77,2017-04-24T21:18:04+06:00,
