NPId,Number,RecipientId,DonorId,RangeHolderId,OldRoute,NewRoute,PortDate,RowCount
1000000000442403,77075648385,mKarTel,mAltel,mMTS,D07,D01,2017-08-19T14:00:29+06:00,14
1000000000442404,77086646333,mKcell,mKarTel,mAltel,D01,D02,2017-08-19T14:02:48+06:00,
1000000000442406,77075113939,mKcell,mMTS,mMTS,,D02,2017-08-19T14:04:17+06:00,
1000000000442408,77005727273,mKcell,mAltel,mAltel,,D02,2017-08-19T14:08:59+06:00,
1000000000442409,77017502315,mKarTel,mKcell,mKcell,,D01,2017-08-19T14:11:47+06:00,
1000000000442412,77051666679,mAltel,mKarTel,mKarTel,,D07,2017-08-19T14:17:03+06:00,
1000000000442414,77751479440,mMTS,mKcell,mKcell,,D77,2017-08-19T14:18:43+06:00,
1000000000442415,77778761756,mKcell,mKarTel,mKarTel,D01,D02,2017-08-19T14:19:29+06:00,
1000000000442416,77014525014,mKcell,mMTS,mKcell,D77,D02,2017-08-19T14:19:13+06:00,
1000000000442417,77001451242,mKarTel,mAltel,mAltel,,D01,2017-08-19T14:19:52+06:00,
1000000000442418,77712320901,mMTS,mKarTel,mKarTel,,D77,2017-08-19T14:20:38+06:00,
1000000000442419,77023515453,mKcell,mAltel,mKcell,D07,D02,2017-08-19T14:21:11+06:00,
1000000000442422,77075597411,mKarTel,mMTS,mMTS,,D01,2017-08-19T14:26:47+06:00,
1000000000442423,77017606880,mMTS,mKcell,mKcell,,D77,2017-08-19T14:27:44+06:00,
