NPId,Number,RecipientId,DonorId,RangeHolderId,OldRoute,NewRoute,PortDate,RowCount
1000000000331181,77057408060,mMTS,mKarTel,mKarTel,,D77,2017-02-19T10:31:39+06:00,7
1000000000331182,77755536024,mMTS,mKcell,mKcell,,D77,2017-02-19T10:31:51+06:00,
1000000000331183,77085871972,mMTS,mAltel,mAltel,,D77,2017-02-19T10:34:35+06:00,
1000000000331184,77772460666,mAltel,mKarTel,mKarTel,,D07,2017-02-19T10:37:07+06:00,
1000000000331185,77755227231,mKarTel,mKcell,mKcell,,D01,2017-02-19T10:41:07+06:00,
1000000000331186,77005552284,mMTS,mKcell,mAltel,D02,D77,2017-02-19T10:41:16+06:00,
1000000000331190,77715361661,mMTS,mKarTel,mKarTel,,D77,2017-02-19T10:57:00+06:00,
