NPId,Number,RecipientId,DonorId,RangeHolderId,OldRoute,NewRoute,PortDate,RowCount
1000000000169460,77027341421,mMTS,mKcell,mKcell,,D77,2016-05-07T10:02:31+06:00,19
1000000000169461,77007737000,mMTS,mAltel,mAltel,,D77,2016-05-07T10:02:08+06:00,
1000000000169462,77075575757,mMTS,mKcell,mMTS,D02,D77,2016-05-07T10:02:34+06:00,
1000000000169463,77770641801,mMTS,mKarTel,mKarTel,,D77,2016-05-07T10:02:28+06:00,
1000000000169465,77075575797,mMTS,mKcell,mMTS,D02,D77,2016-05-07T10:02:34+06:00,
1000000000169466,77017306106,mMTS,mKarTel,mKcell,D01,D77,2016-05-07T10:02:27+06:00,
1000000000169467,77015173357,mMTS,mKcell,mKcell,,D77,2016-05-07T10:02:31+06:00,
1000000000169470,77773904000,mKcell,mKarTel,mKarTel,,D02,2016-05-07T10:09:32+06:00,
1000000000169471,77764777781,mKcell,mKarTel,mKarTel,,D02,2016-05-07T10:09:46+06:00,
1000000000169472,77713001269,mMTS,mKarTel,mKarTel,,D77,2016-05-07T10:11:55+06:00,
1000000000169473,77012071098,mMTS,mKcell,mKcell,,D77,2016-05-07T10:12:51+06:00,
1000000000169474,77754370202,mAltel,mKcell,mKcell,,D07,2016-05-07T10:13:17+06:00,
1000000000169476,77071210669,mMTS,mKcell,mMTS,D02,D77,2016-05-07T10:17:01+06:00,
1000000000169477,77772223388,mMTS,mKarTel,mKarTel,,D77,2016-05-07T10:18:01+06:00,
1000000000169478,77015171950,mKarTel,mKcell,mKcell,,D01,2016-05-07T10:20:34+06:00,
1000000000169480,77024425142,mMTS,mKcell,mKcell,,D77,2016-05-07T10:23:39+06:00,
1000000000169481,77053007294,mKarTel,mAltel,mKarTel,D07,D01,2016-05-07T10:27:06+06:00,
1000000000169482,77015526873,mKarTel,mKcell,mKcell,,D01,2016-05-07T10:27:15+06:00,
1000000000169483,77082020267,mMTS,mAltel,mAltel,,D77,2016-05-07T10:29:11+06:00,
