NPId,Number,RecipientId,DonorId,RangeHolderId,OldRoute,NewRoute,PortDate,RowCount
1000000000234667,77051688580,mKcell,mKarTel,mKarTel,,D02,2016-08-26T17:02:20+06:00,24
1000000000234668,77776077733,mAltel,mKarTel,mKarTel,D01,D07,2016-08-26T17:02:37+06:00,
1000000000234669,77718004567,mKcell,mKarTel,mKarTel,,D02,2016-08-26T17:21:24+06:00,
1000000000234670,77757456098,mAltel,mKcell,mKcell,,D07,2016-08-26T17:03:11+06:00,
1000000000234671,77017293324,mMTS,mKcell,mKcell,,D77,2016-08-26T17:03:45+06:00,
1000000000234672,77764444842,mMTS,mKarTel,mKarTel,,D77,2016-08-26T17:04:29+06:00,
1000000000234673,77789099979,mKcell,mMTS,mKcell,D77,D02,2016-08-26T17:04:30+06:00,
1000000000234674,77026050004,mKcell,mAltel,mKcell,D07,D02,2016-08-26T17:06:26+06:00,
1000000000234675,77711054431,mKcell,mKarTel,mKarTel,,D02,2016-08-26T17:08:36+06:00,
1000000000234676,77025917355,mMTS,mKcell,mKcell,,D77,2016-08-26T17:08:33+06:00,
1000000000234677,77718007697,mKcell,mKarTel,mKarTel,,D02,2016-08-26T17:25:14+06:00,
1000000000234678,77719904149,mKcell,mKarTel,mKarTel,,D02,2016-08-26T17:28:34+06:00,
1000000000234679,77762223113,mKarTel,mKcell,mKarTel,D02,D01,2016-08-26T17:14:33+06:00,
1000000000234680,77774884887,mMTS,mKarTel,mKarTel,,D77,2016-08-26T17:15:38+06:00,
1000000000234681,77787777628,mKcell,mMTS,mKcell,D77,D02,2016-08-26T17:16:09+06:00,
1000000000234682,77074090768,mKarTel,mMTS,mMTS,,D01,2016-08-26T17:16:32+06:00,
1000000000234683,77081500114,mAltel,mMTS,mAltel,D77,D07,2016-08-26T17:16:28+06:00,
1000000000234685,77016236654,mMTS,mAltel,mKcell,D07,D77,2016-08-26T17:18:09+06:00,
1000000000234686,77089999112,mKcell,mAltel,mAltel,,D02,2016-08-26T17:20:05+06:00,
1000000000234689,77763566070,mMTS,mKarTel,mKarTel,,D77,2016-08-26T17:22:02+06:00,
1000000000234690,77477773562,mKcell,mMTS,mMTS,,D02,2016-08-26T17:24:50+06:00,
1000000000234693,77016061076,mKarTel,mKcell,mKcell,D02,D01,2016-08-26T17:25:38+06:00,
1000000000234697,77083992088,mMTS,mAltel,mAltel,,D77,2016-08-26T17:28:53+06:00,
1000000000234698,77071400314,mKcell,mMTS,mMTS,,D02,2016-08-26T17:29:50+06:00,
