NPId,Number,RecipientId,DonorId,RangeHolderId,OldRoute,NewRoute,PortDate,RowCount
1000000000424961,77012145177,mKarTel,mKcell,mKcell,,D01,2017-07-19T20:32:36+06:00,3
1000000000424962,77015677722,mAltel,mMTS,mKcell,D77,D07,2017-07-19T20:51:41+06:00,
1000000000424963,77710404545,mKcell,mKarTel,mKarTel,,D02,2017-07-19T20:56:22+06:00,
