NPId,Number,RecipientId,DonorId,RangeHolderId,OldRoute,NewRoute,PortDate,RowCount
1000000000382288,77057004400,mKcell,mKarTel,mKarTel,,D02,2017-05-13T09:30:13+06:00,4
1000000000382289,77073297007,mKarTel,mMTS,mMTS,,D01,2017-05-13T09:36:08+06:00,
1000000000382290,77075051105,mKcell,mMTS,mMTS,,D02,2017-05-13T09:53:49+06:00,
1000000000382291,77079701208,mKcell,mMTS,mMTS,,D02,2017-05-13T09:57:58+06:00,
