NPId,Number,RecipientId,DonorId,RangeHolderId,OldRoute,NewRoute,PortDate,RowCount
1000000000309410,77077471505,mMTS,mAltel,mMTS,D07,D77,2017-01-12T12:00:21+06:00,25
1000000000309411,77758217516,mMTS,mKcell,mKcell,,D77,2017-01-12T12:00:33+06:00,
1000000000309412,77714365670,mMTS,mKarTel,mKarTel,,D77,2017-01-12T12:02:00+06:00,
1000000000309413,77714945635,mMTS,mKarTel,mKarTel,,D77,2017-01-12T12:02:18+06:00,
1000000000309414,77017792653,mMTS,mKcell,mKcell,,D77,2017-01-12T12:02:10+06:00,
1000000000309415,77022278999,mAltel,mMTS,mKcell,D77,D07,2017-01-12T12:02:16+06:00,
1000000000309416,77766007733,mMTS,mKarTel,mKarTel,,D77,2017-01-12T12:04:01+06:00,
1000000000309417,77715075754,mKarTel,mKcell,mKarTel,D02,D01,2017-01-12T12:04:07+06:00,
1000000000309418,77053217575,mMTS,mKarTel,mKarTel,,D77,2017-01-12T12:04:45+06:00,
1000000000309419,77763032332,mKcell,mKarTel,mKarTel,,D02,2017-01-12T12:07:31+06:00,
1000000000309420,77072144109,mKarTel,mMTS,mMTS,,D01,2017-01-12T12:07:36+06:00,
1000000000309421,77051646666,mAltel,mMTS,mKarTel,D77,D07,2017-01-12T12:09:22+06:00,
1000000000309422,77754331118,mKcell,mKarTel,mKcell,D01,D02,2017-01-12T12:12:24+06:00,
1000000000309423,77756538384,mAltel,mKcell,mKcell,,D07,2017-01-12T12:10:29+06:00,
1000000000309424,77775039500,mMTS,mKarTel,mKarTel,,D77,2017-01-12T12:11:18+06:00,
1000000000309425,77051929236,mMTS,mKarTel,mKarTel,,D77,2017-01-12T12:13:00+06:00,
1000000000309426,77027587030,mMTS,mAltel,mKcell,D07,D77,2017-01-12T12:15:19+06:00,
1000000000309428,77055227778,mMTS,mKcell,mKarTel,D02,D77,2017-01-12T12:17:00+06:00,
1000000000309429,77714365488,mMTS,mKarTel,mKarTel,,D77,2017-01-12T12:17:58+06:00,
1000000000309430,77015215015,mMTS,mKcell,mKcell,,D77,2017-01-12T12:21:55+06:00,
1000000000309433,77785448682,mMTS,mKcell,mKcell,,D77,2017-01-12T12:23:50+06:00,
1000000000309435,77007471505,mAltel,mMTS,mAltel,D77,D07,2017-01-12T12:24:55+06:00,
1000000000309436,77714365660,mMTS,mKarTel,mKarTel,,D77,2017-01-12T12:28:02+06:00,
1000000000309438,77772352936,mKcell,mKarTel,mKarTel,,D02,2017-01-12T12:29:22+06:00,
1000000000309439,77073201420,mKcell,mMTS,mMTS,,D02,2017-01-12T12:29:31+06:00,
