NPId,Number,RecipientId,DonorId,RangeHolderId,OldRoute,NewRoute,PortDate,RowCount
1000000000070046,77017420511,mKarTel,mKcell,mKcell,,D01,2016-02-16T15:42:17+06:00,53
1000000000070046,77017420512,mKarTel,mKcell,mKcell,,D01,2016-02-16T15:42:17+06:00,
1000000000070046,77017420516,mKarTel,mKcell,mKcell,,D01,2016-02-16T15:42:17+06:00,
1000000000070046,77017420521,mKarTel,mKcell,mKcell,,D01,2016-02-16T15:42:17+06:00,
1000000000070046,77017420559,mKarTel,mKcell,mKcell,,D01,2016-02-16T15:42:17+06:00,
1000000000070046,77017420599,mKarTel,mKcell,mKcell,,D01,2016-02-16T15:42:17+06:00,
1000000000070112,77779302162,mAltel,mKarTel,mKarTel,,D07,2016-02-16T15:30:21+06:00,
1000000000070113,77785746611,mKarTel,mKcell,mKcell,,D01,2016-02-16T15:37:26+06:00,
1000000000070116,77476381680,mKarTel,mMTS,mMTS,,D01,2016-02-16T15:37:25+06:00,
1000000000070118,77017699093,mMTS,mKcell,mKcell,,D77,2016-02-16T15:32:01+06:00,
1000000000070119,77019824086,mKarTel,mKcell,mKcell,,D01,2016-02-16T15:37:24+06:00,
1000000000070120,77005746611,mKarTel,mAltel,mAltel,,D01,2016-02-16T15:37:27+06:00,
1000000000070123,77768006088,mMTS,mKarTel,mKarTel,,D77,2016-02-16T15:36:32+06:00,
1000000000070125,77024659998,mMTS,mKcell,mKcell,,D77,2016-02-16T15:36:58+06:00,
1000000000070126,77015117507,mKarTel,mKcell,mKcell,,D01,2016-02-16T15:39:21+06:00,
1000000000070127,77070459010,mAltel,mMTS,mMTS,,D07,2016-02-16T15:37:57+06:00,
1000000000070130,77017129393,mMTS,mKcell,mKcell,,D77,2016-02-16T15:39:12+06:00,
1000000000070131,77017539383,mKarTel,mKcell,mKcell,,D01,2016-02-16T15:40:15+06:00,
1000000000070134,77014989858,mAltel,mKcell,mKcell,,D07,2016-02-16T15:40:21+06:00,
1000000000070136,77784333853,mMTS,mKcell,mKcell,,D77,2016-02-16T15:42:33+06:00,
1000000000070138,77754249679,mAltel,mKcell,mKcell,,D07,2016-02-16T15:43:16+06:00,
1000000000070139,77779458833,mMTS,mKarTel,mKarTel,,D77,2016-02-16T15:43:55+06:00,
1000000000070141,77789708336,mMTS,mKcell,mKcell,,D77,2016-02-16T15:44:19+06:00,
1000000000070143,77017268414,mAltel,mKcell,mKcell,,D07,2016-02-16T15:45:55+06:00,
1000000000070144,77018833960,mMTS,mKcell,mKcell,,D77,2016-02-16T15:46:33+06:00,
1000000000070145,77777972123,mKcell,mKarTel,mKarTel,,D02,2016-02-16T15:48:14+06:00,
1000000000070146,77012128185,mAltel,mKcell,mKcell,,D07,2016-02-16T15:47:49+06:00,
1000000000070148,77015281478,mKarTel,mKcell,mKcell,,D01,2016-02-16T15:48:10+06:00,
1000000000070149,77772227845,mAltel,mKarTel,mKarTel,,D07,2016-02-16T15:48:13+06:00,
1000000000070150,77777535356,mKcell,mKarTel,mKarTel,,D02,2016-02-16T15:48:58+06:00,
1000000000070152,77051693114,mMTS,mKarTel,mKarTel,,D77,2016-02-16T15:49:30+06:00,
1000000000070154,77070353005,mAltel,mMTS,mMTS,,D07,2016-02-16T15:51:11+06:00,
1000000000070155,77772767762,mMTS,mKarTel,mKarTel,,D77,2016-02-16T15:51:51+06:00,
1000000000070158,77751196202,mMTS,mKcell,mKcell,,D77,2016-02-16T15:52:33+06:00,
1000000000070159,77018833950,mMTS,mKcell,mKcell,,D77,2016-02-16T15:52:46+06:00,
1000000000070160,77007777577,mKarTel,mAltel,mAltel,,D01,2016-02-16T15:53:06+06:00,
1000000000070161,77078484559,mKarTel,mMTS,mMTS,,D01,2016-02-16T15:53:08+06:00,
1000000000070162,77055721211,mKcell,mKarTel,mKarTel,,D02,2016-02-16T15:53:45+06:00,
1000000000070163,77055070108,mMTS,mKarTel,mKarTel,,D77,2016-02-16T15:53:32+06:00,
1000000000070164,77477999430,mKcell,mMTS,mMTS,,D02,2016-02-16T15:53:58+06:00,
1000000000070165,77712095230,mAltel,mKarTel,mKarTel,,D07,2016-02-16T15:54:25+06:00,
1000000000070166,77017100183,mKarTel,mKcell,mKcell,,D01,2016-02-16T15:55:14+06:00,
1000000000070167,77018877025,mKarTel,mKcell,mKcell,,D01,2016-02-16T15:55:14+06:00,
1000000000070168,77714445999,mAltel,mKarTel,mKarTel,,D07,2016-02-16T15:54:46+06:00,
1000000000070170,77013666690,mKarTel,mKcell,mKcell,,D01,2016-02-16T15:55:26+06:00,
1000000000070171,77011115012,mAltel,mKcell,mKcell,,D07,2016-02-16T15:55:22+06:00,
1000000000070173,77025388883,mKarTel,mKcell,mKcell,,D01,2016-02-16T15:56:25+06:00,
1000000000070174,77753313001,mAltel,mKcell,mKcell,,D07,2016-02-16T15:56:19+06:00,
1000000000070175,77774700705,mMTS,mKarTel,mKarTel,,D77,2016-02-16T15:56:38+06:00,
1000000000070177,77051397712,mMTS,mKarTel,mKarTel,,D77,2016-02-16T15:57:29+06:00,
1000000000070179,77017125088,mKarTel,mKcell,mKcell,,D01,2016-02-16T15:58:12+06:00,
1000000000070180,77017003234,mAltel,mKcell,mKcell,,D07,2016-02-16T15:58:01+06:00,
1000000000070181,77052504153,mMTS,mKarTel,mKarTel,,D77,2016-02-16T15:58:38+06:00,
