NPId,Number,RecipientId,DonorId,RangeHolderId,OldRoute,NewRoute,PortDate,RowCount
1000000000361084,77474275414,mKcell,mMTS,mMTS,,D02,2017-04-06T16:02:02+06:00,25
1000000000361087,77079840108,mAltel,mMTS,mMTS,,D07,2017-04-06T16:03:50+06:00,
1000000000361090,77012441851,mKarTel,mKcell,mKcell,,D01,2017-04-06T16:12:59+06:00,
1000000000361092,77715538290,mKcell,mKarTel,mKarTel,,D02,2017-04-06T16:11:47+06:00,
1000000000361093,77028398888,mAltel,mKcell,mKcell,,D07,2017-04-06T16:11:19+06:00,
1000000000361094,77028736699,mKarTel,mKcell,mKcell,,D01,2017-04-06T16:12:44+06:00,
1000000000361096,77003853626,mMTS,mAltel,mAltel,,D77,2017-04-06T16:12:45+06:00,
1000000000361097,77753532248,mMTS,mKcell,mKcell,,D77,2017-04-06T16:14:16+06:00,
1000000000361098,77055565620,mMTS,mKarTel,mKarTel,,D77,2017-04-06T16:14:29+06:00,
1000000000361099,77076070074,mKarTel,mMTS,mMTS,,D01,2017-04-06T16:15:13+06:00,
1000000000361100,77022221424,mKarTel,mAltel,mKcell,D07,D01,2017-04-06T16:15:13+06:00,
1000000000361101,77757949433,mAltel,mKcell,mKcell,,D07,2017-04-06T16:15:44+06:00,
1000000000361103,77765555798,mMTS,mKarTel,mKarTel,D01,D77,2017-04-06T16:18:33+06:00,
1000000000361104,77025528528,mKarTel,mKcell,mKcell,,D01,2017-04-06T16:18:43+06:00,
1000000000361106,77029466966,mAltel,mKcell,mKcell,,D07,2017-04-06T16:18:53+06:00,
1000000000361107,77718050005,mMTS,mKarTel,mKarTel,,D77,2017-04-06T16:20:41+06:00,
1000000000361108,77025652670,mMTS,mKcell,mKcell,,D77,2017-04-06T16:20:47+06:00,
1000000000361109,77774779922,mMTS,mKarTel,mKarTel,,D77,2017-04-06T16:21:35+06:00,
1000000000361110,77718489305,mMTS,mKarTel,mKarTel,,D77,2017-04-06T16:21:47+06:00,
1000000000361111,77074399993,mMTS,mKcell,mMTS,D02,D77,2017-04-06T16:23:53+06:00,
1000000000361112,77004561856,mKarTel,mAltel,mAltel,,D01,2017-04-06T16:22:20+06:00,
1000000000361113,77783063898,mMTS,mKcell,mKcell,,D77,2017-04-06T16:23:47+06:00,
1000000000361114,77005533532,mKarTel,mAltel,mAltel,,D01,2017-04-06T16:23:01+06:00,
1000000000361115,77014443100,mAltel,mKcell,mKcell,,D07,2017-04-06T16:23:46+06:00,
1000000000361117,77003536456,mKarTel,mMTS,mAltel,D77,D01,2017-04-06T16:28:57+06:00,
