NPId,Number,RecipientId,DonorId,RangeHolderId,OldRoute,NewRoute,PortDate,RowCount
1000000000000661,77014682010,mAltel,mKcell,mKcell,,D07,2016-01-04T16:06:48+06:00,4
1000000000000662,77789990354,mAltel,mKcell,mKcell,,D07,2016-01-04T16:10:16+06:00,
1000000000000663,77471152716,mAltel,mMTS,mMTS,,D07,2016-01-04T16:16:51+06:00,
1000000000000664,77073130544,mKcell,mMTS,mMTS,,D02,2016-01-04T16:23:57+06:00,
