NPId,Number,RecipientId,DonorId,RangeHolderId,OldRoute,NewRoute,PortDate,RowCount
1000000000292363,77019951635,mKarTel,mKcell,mKcell,,D01,2016-12-08T19:36:30+06:00,6
1000000000292364,77015208590,mKarTel,mKcell,mKcell,,D01,2016-12-08T19:37:45+06:00,
1000000000292365,77054740883,mKcell,mKarTel,mKarTel,,D02,2016-12-08T19:39:46+06:00,
1000000000292366,77019798978,mKcell,mMTS,mKcell,D77,D02,2016-12-08T19:42:16+06:00,
1000000000292367,77076001777,mKcell,mMTS,mMTS,,D02,2016-12-08T19:45:12+06:00,
1000000000292368,77076001707,mKcell,mMTS,mMTS,,D02,2016-12-08T19:50:35+06:00,
