NPId,Number,RecipientId,DonorId,RangeHolderId,OldRoute,NewRoute,PortDate,RowCount
1000000000266322,77011121001,mKcell,mMTS,mKcell,D77,D02,2016-10-22T11:00:06+06:00,16
1000000000266323,77767003100,mMTS,mKarTel,mKarTel,,D77,2016-10-22T11:00:37+06:00,
1000000000266324,77473076767,mKarTel,mMTS,mMTS,,D01,2016-10-22T11:02:19+06:00,
1000000000266325,77015357985,mAltel,mKcell,mKcell,,D07,2016-10-22T11:03:30+06:00,
1000000000266326,77017656729,mAltel,mKcell,mKcell,,D07,2016-10-22T11:04:09+06:00,
1000000000266328,77001972708,mMTS,mAltel,mAltel,,D77,2016-10-22T11:04:47+06:00,
1000000000266329,77028463999,mMTS,mKcell,mKcell,,D77,2016-10-22T11:08:58+06:00,
1000000000266330,77714444164,mMTS,mKarTel,mKarTel,,D77,2016-10-22T11:11:09+06:00,
1000000000266331,77087004001,mKcell,mMTS,mAltel,D77,D02,2016-10-22T11:15:23+06:00,
1000000000266332,77477870701,mKarTel,mMTS,mMTS,,D01,2016-10-22T11:17:23+06:00,
1000000000266333,77782346285,mMTS,mKcell,mKcell,,D77,2016-10-22T11:17:43+06:00,
1000000000266334,77771543521,mKcell,mKarTel,mKarTel,,D02,2016-10-22T11:23:01+06:00,
1000000000266335,77057618761,mMTS,mKarTel,mKarTel,,D77,2016-10-22T11:27:55+06:00,
1000000000266336,77083031099,mAltel,mMTS,mAltel,D77,D07,2016-10-22T11:27:50+06:00,
1000000000266337,77019459404,mKcell,mMTS,mKcell,D77,D02,2016-10-22T11:28:12+06:00,
1000000000266338,77015304630,mKcell,mKarTel,mKcell,D01,D02,2016-10-22T11:29:13+06:00,
