NPId,Number,RecipientId,DonorId,RangeHolderId,OldRoute,NewRoute,PortDate,RowCount
1000000000331590,77079109432,mKcell,mMTS,mMTS,,D02,2017-02-20T12:30:58+06:00,26
1000000000331592,77072101234,mMTS,mKcell,mMTS,D02,D77,2017-02-20T12:31:52+06:00,
1000000000331593,77075429250,mKcell,mMTS,mMTS,,D02,2017-02-20T12:34:41+06:00,
1000000000331594,77073256607,mKcell,mMTS,mMTS,,D02,2017-02-20T12:35:30+06:00,
1000000000331595,77015667437,mKarTel,mKcell,mKcell,,D01,2017-02-20T12:36:28+06:00,
1000000000331597,77007300010,mKcell,mAltel,mAltel,,D02,2017-02-20T12:37:02+06:00,
1000000000331598,77015880204,mKarTel,mKcell,mKcell,,D01,2017-02-20T12:37:33+06:00,
1000000000331599,77015550205,mKarTel,mKcell,mKcell,,D01,2017-02-20T12:38:38+06:00,
1000000000331601,77001999069,mKcell,mAltel,mAltel,,D02,2017-02-20T12:40:36+06:00,
1000000000331603,77074975618,mKarTel,mMTS,mMTS,,D01,2017-02-20T12:42:03+06:00,
1000000000331604,77082244044,mAltel,mKcell,mAltel,D02,D07,2017-02-20T12:42:03+06:00,
1000000000331606,77022222230,mKarTel,mKcell,mKcell,,D01,2017-02-20T12:43:03+06:00,
1000000000331607,77075001175,mKcell,mKarTel,mMTS,D01,D02,2017-02-20T12:44:09+06:00,
1000000000331608,77785080317,mKarTel,mKcell,mKcell,,D01,2017-02-20T12:43:53+06:00,
1000000000331610,77012453800,mAltel,mKcell,mKcell,,D07,2017-02-20T12:45:00+06:00,
1000000000331611,77757777779,mKarTel,mKcell,mKcell,,D01,2017-02-20T12:47:16+06:00,
1000000000331613,77076045848,mKarTel,mMTS,mMTS,,D01,2017-02-20T12:49:42+06:00,
1000000000331614,77087566702,mMTS,mAltel,mAltel,,D77,2017-02-20T12:49:31+06:00,
1000000000331615,77079190985,mAltel,mMTS,mMTS,,D07,2017-02-20T12:49:48+06:00,
1000000000331617,77026382395,mMTS,mKcell,mKcell,,D77,2017-02-20T12:51:00+06:00,
1000000000331618,77775530308,mMTS,mKarTel,mKarTel,,D77,2017-02-20T12:52:12+06:00,
1000000000331620,77073530101,mAltel,mMTS,mMTS,,D07,2017-02-20T12:54:23+06:00,
1000000000331621,77027659299,mMTS,mKcell,mKcell,,D77,2017-02-20T12:56:02+06:00,
1000000000331622,77054846080,mMTS,mKarTel,mKarTel,,D77,2017-02-20T12:56:26+06:00,
1000000000331624,77019140818,mKarTel,mKcell,mKcell,,D01,2017-02-20T12:58:23+06:00,
1000000000331625,77028200100,mAltel,mKcell,mKcell,,D07,2017-02-20T12:59:13+06:00,
