NPId,Number,RecipientId,DonorId,RangeHolderId,OldRoute,NewRoute,PortDate,RowCount
1000000000374542,77020000418,mAltel,mKcell,mKcell,,D07,2017-04-29T14:30:32+06:00,33
1000000000374543,77055580195,mKcell,mKarTel,mKarTel,,D02,2017-04-29T14:32:35+06:00,
1000000000374544,77479870202,mMTS,mAltel,mMTS,D07,D77,2017-04-29T14:33:04+06:00,
1000000000374545,77778894888,mKcell,mKarTel,mKarTel,,D02,2017-04-29T14:34:48+06:00,
1000000000374546,77021434219,mKarTel,mMTS,mKcell,D77,D01,2017-04-29T14:34:26+06:00,
1000000000374547,77715303478,mMTS,mKarTel,mKarTel,,D77,2017-04-29T14:35:56+06:00,
1000000000374548,77019854579,mAltel,mKcell,mKcell,,D07,2017-04-29T14:39:35+06:00,
1000000000374552,77012222342,mAltel,mKcell,mKcell,,D07,2017-04-29T14:40:31+06:00,
1000000000374553,77073030202,mKcell,mMTS,mMTS,,D02,2017-04-29T14:41:00+06:00,
1000000000374554,77719052528,mMTS,mKarTel,mKarTel,,D77,2017-04-29T14:41:55+06:00,
1000000000374555,77710123666,mMTS,mKarTel,mKarTel,,D77,2017-04-29T14:41:50+06:00,
1000000000374559,77769999012,mKcell,mKarTel,mKarTel,,D02,2017-04-29T14:43:28+06:00,
1000000000374561,77715303467,mMTS,mKarTel,mKarTel,,D77,2017-04-29T14:43:53+06:00,
1000000000374562,77774850300,mMTS,mKarTel,mKarTel,,D77,2017-04-29T14:45:42+06:00,
1000000000374563,77017796979,mAltel,mKcell,mKcell,,D07,2017-04-29T14:45:52+06:00,
1000000000374564,77058733080,mMTS,mKarTel,mKarTel,,D77,2017-04-29T14:47:11+06:00,
1000000000374565,77022323177,mMTS,mKcell,mKcell,,D77,2017-04-29T14:48:23+06:00,
1000000000374566,77775746353,mMTS,mKarTel,mKarTel,,D77,2017-04-29T14:48:32+06:00,
1000000000374567,77772344144,mMTS,mKarTel,mKarTel,,D77,2017-04-29T14:49:26+06:00,
1000000000374568,77017503888,mKarTel,mMTS,mKcell,D77,D01,2017-04-29T14:49:51+06:00,
1000000000374569,77027103274,mKcell,mMTS,mKcell,D77,D02,2017-04-29T14:51:39+06:00,
1000000000374570,77785545455,mMTS,mKcell,mKcell,,D77,2017-04-29T14:53:18+06:00,
1000000000374571,77082792262,mMTS,mAltel,mAltel,,D77,2017-04-29T14:53:28+06:00,
1000000000374572,77018555588,mMTS,mKcell,mKcell,,D77,2017-04-29T14:54:28+06:00,
1000000000374573,77774162703,mKarTel,mMTS,mKarTel,D77,D01,2017-04-29T14:55:39+06:00,
1000000000374574,77025000228,mKarTel,mKcell,mKcell,,D01,2017-04-29T14:56:39+06:00,
1000000000374576,77470368997,mAltel,mMTS,mMTS,,D07,2017-04-29T14:56:31+06:00,
1000000000374577,77015206718,mAltel,mKcell,mKcell,,D07,2017-04-29T14:56:44+06:00,
1000000000374578,77017484078,mAltel,mKcell,mKcell,,D07,2017-04-29T14:57:52+06:00,
1000000000374580,77017692530,mMTS,mKcell,mKcell,,D77,2017-04-29T14:58:40+06:00,
1000000000374581,77474486810,mKarTel,mMTS,mMTS,,D01,2017-04-29T14:59:12+06:00,
1000000000374582,77077778153,mKcell,mAltel,mMTS,D07,D02,2017-04-29T14:59:29+06:00,
1000000000374583,77015120645,mKarTel,mKcell,mKcell,,D01,2017-04-29T14:59:37+06:00,
