NPId,Number,RecipientId,DonorId,RangeHolderId,OldRoute,NewRoute,PortDate,RowCount
1000000000314076,77057094966,mMTS,mKarTel,mKarTel,,D77,2017-01-21T11:34:08+06:00,14
1000000000314077,77760020266,mKarTel,mMTS,mKarTel,D77,D01,2017-01-21T11:34:29+06:00,
1000000000314078,77021239943,mMTS,mKcell,mKcell,,D77,2017-01-21T11:37:50+06:00,
1000000000314079,77017981332,mKarTel,mKcell,mKcell,,D01,2017-01-21T11:40:57+06:00,
1000000000314081,77071205880,mKarTel,mMTS,mMTS,,D01,2017-01-21T11:43:39+06:00,
1000000000314082,77017050714,mKarTel,mKcell,mKcell,,D01,2017-01-21T11:44:09+06:00,
1000000000314084,77776075533,mAltel,mKarTel,mKarTel,,D07,2017-01-21T11:44:44+06:00,
1000000000314089,77776426273,mAltel,mKarTel,mKarTel,,D07,2017-01-21T11:51:24+06:00,
1000000000314090,77077001221,mKcell,mMTS,mMTS,,D02,2017-01-21T11:51:25+06:00,
1000000000314091,77011815119,mKarTel,mKcell,mKcell,,D01,2017-01-21T11:51:42+06:00,
1000000000314092,77057778455,mKcell,mKarTel,mKarTel,,D02,2017-01-21T11:52:57+06:00,
1000000000314093,77023817187,mMTS,mKcell,mKcell,,D77,2017-01-21T11:53:10+06:00,
1000000000314094,77772805777,mKarTel,mAltel,mKarTel,D07,D01,2017-01-21T11:53:58+06:00,
1000000000314095,77022409780,mKarTel,mKcell,mKcell,,D01,2017-01-21T11:54:24+06:00,
