NPId,Number,RecipientId,DonorId,RangeHolderId,OldRoute,NewRoute,PortDate,RowCount
1000000000271839,77010290859,mKarTel,mKcell,mKcell,,D01,2016-11-01T17:33:52+06:00,59
1000000000271839,77015033281,mKarTel,mKcell,mKcell,,D01,2016-11-01T17:33:52+06:00,
1000000000271839,77015229361,mKarTel,mKcell,mKcell,,D01,2016-11-01T17:33:52+06:00,
1000000000271839,77017445329,mKarTel,mKcell,mKcell,,D01,2016-11-01T17:33:52+06:00,
1000000000271839,77017512311,mKarTel,mKcell,mKcell,,D01,2016-11-01T17:33:52+06:00,
1000000000271839,77017618511,mKarTel,mKcell,mKcell,,D01,2016-11-01T17:33:52+06:00,
1000000000271839,77017662456,mKarTel,mKcell,mKcell,,D01,2016-11-01T17:33:52+06:00,
1000000000271839,77017662461,mKarTel,mKcell,mKcell,,D01,2016-11-01T17:33:52+06:00,
1000000000271839,77017662465,mKarTel,mKcell,mKcell,,D01,2016-11-01T17:33:52+06:00,
1000000000271839,77017662466,mKarTel,mKcell,mKcell,,D01,2016-11-01T17:33:52+06:00,
1000000000271839,77017662468,mKarTel,mKcell,mKcell,,D01,2016-11-01T17:33:52+06:00,
1000000000271839,77017662470,mKarTel,mKcell,mKcell,,D01,2016-11-01T17:33:52+06:00,
1000000000271839,77017662471,mKarTel,mKcell,mKcell,,D01,2016-11-01T17:33:52+06:00,
1000000000271839,77017662473,mKarTel,mKcell,mKcell,,D01,2016-11-01T17:33:52+06:00,
1000000000271839,77017879304,mKarTel,mKcell,mKcell,,D01,2016-11-01T17:33:52+06:00,
1000000000271839,77019206704,mKarTel,mKcell,mKcell,,D01,2016-11-01T17:33:52+06:00,
1000000000271839,77019206706,mKarTel,mKcell,mKcell,,D01,2016-11-01T17:33:52+06:00,
1000000000271839,77019206707,mKarTel,mKcell,mKcell,,D01,2016-11-01T17:33:52+06:00,
1000000000271839,77019206708,mKarTel,mKcell,mKcell,,D01,2016-11-01T17:33:52+06:00,
1000000000271839,77019206709,mKarTel,mKcell,mKcell,,D01,2016-11-01T17:33:52+06:00,
1000000000271839,77019206710,mKarTel,mKcell,mKcell,,D01,2016-11-01T17:33:52+06:00,
1000000000271839,77019206711,mKarTel,mKcell,mKcell,,D01,2016-11-01T17:33:52+06:00,
1000000000271839,77019206712,mKarTel,mKcell,mKcell,,D01,2016-11-01T17:33:52+06:00,
1000000000271839,77019206713,mKarTel,mKcell,mKcell,,D01,2016-11-01T17:33:52+06:00,
1000000000271839,77019206714,mKarTel,mKcell,mKcell,,D01,2016-11-01T17:33:52+06:00,
1000000000271839,77019206715,mKarTel,mKcell,mKcell,,D01,2016-11-01T17:33:52+06:00,
1000000000271839,77019206716,mKarTel,mKcell,mKcell,,D01,2016-11-01T17:33:52+06:00,
1000000000271839,77019206717,mKarTel,mKcell,mKcell,,D01,2016-11-01T17:33:52+06:00,
1000000000271839,77019206718,mKarTel,mKcell,mKcell,,D01,2016-11-01T17:33:52+06:00,
1000000000271839,77019206727,mKarTel,mKcell,mKcell,,D01,2016-11-01T17:33:52+06:00,
1000000000271839,77019206729,mKarTel,mKcell,mKcell,,D01,2016-11-01T17:33:52+06:00,
1000000000271944,77017133538,mKarTel,mKcell,mKcell,,D01,2016-11-01T17:58:41+06:00,
1000000000271944,77017149027,mKarTel,mKcell,mKcell,,D01,2016-11-01T17:58:41+06:00,
1000000000271944,77017149039,mKarTel,mKcell,mKcell,,D01,2016-11-01T17:58:41+06:00,
1000000000271944,77017188573,mKarTel,mKcell,mKcell,,D01,2016-11-01T17:58:41+06:00,
1000000000271944,77019140344,mKarTel,mKcell,mKcell,,D01,2016-11-01T17:58:41+06:00,
1000000000271944,77019249936,mKarTel,mKcell,mKcell,,D01,2016-11-01T17:58:41+06:00,
1000000000271944,77019249938,mKarTel,mKcell,mKcell,,D01,2016-11-01T17:58:41+06:00,
1000000000271944,77019251086,mKarTel,mKcell,mKcell,,D01,2016-11-01T17:58:41+06:00,
1000000000271944,77019810390,mKarTel,mKcell,mKcell,,D01,2016-11-01T17:58:41+06:00,
1000000000271944,77019810391,mKarTel,mKcell,mKcell,,D01,2016-11-01T17:58:41+06:00,
1000000000272073,77027882295,mKarTel,mKcell,mKcell,,D01,2016-11-01T17:32:09+06:00,
1000000000272074,77081950813,mKarTel,mAltel,mAltel,,D01,2016-11-01T17:34:03+06:00,
1000000000272076,77058569090,mKcell,mKarTel,mKarTel,,D02,2016-11-01T17:38:19+06:00,
1000000000272077,77029683825,mKarTel,mKcell,mKcell,,D01,2016-11-01T17:34:34+06:00,
1000000000272080,77018849404,mKarTel,mKcell,mKcell,,D01,2016-11-01T17:38:58+06:00,
1000000000272081,77012273931,mKcell,mMTS,mKcell,D77,D02,2016-11-01T17:39:53+06:00,
1000000000272082,77017450465,mKcell,mMTS,mKcell,D77,D02,2016-11-01T17:40:12+06:00,
1000000000272084,77055835301,mKarTel,mMTS,mKarTel,D77,D01,2016-11-01T17:40:30+06:00,
1000000000272087,77015007008,mKcell,mMTS,mKcell,D77,D02,2016-11-01T17:42:05+06:00,
1000000000272089,77000812181,mKcell,mAltel,mAltel,,D02,2016-11-01T17:44:39+06:00,
1000000000272093,77000813181,mKcell,mAltel,mAltel,,D02,2016-11-01T17:48:21+06:00,
1000000000272094,77777815522,mKcell,mKarTel,mKarTel,,D02,2016-11-01T17:49:37+06:00,
1000000000272095,77087075737,mKarTel,mAltel,mAltel,,D01,2016-11-01T17:50:41+06:00,
1000000000272098,77766616156,mKarTel,mMTS,mKarTel,D77,D01,2016-11-01T17:53:39+06:00,
1000000000272099,77054163828,mKarTel,mMTS,mKarTel,D77,D01,2016-11-01T17:54:46+06:00,
1000000000272100,77017106238,mKarTel,mKcell,mKcell,,D01,2016-11-01T17:54:51+06:00,
1000000000272101,77753001776,mKarTel,mKcell,mKcell,,D01,2016-11-01T17:55:27+06:00,
1000000000272102,77472620000,mKarTel,mAltel,mMTS,D07,D01,2016-11-01T17:55:52+06:00,
