NPId,Number,RecipientId,DonorId,RangeHolderId,OldRoute,NewRoute,PortDate,RowCount
1000000000271815,77471118945,mAltel,mKarTel,mMTS,D01,D07,2016-11-11T11:55:28+06:00,20
1000000000277617,77757941426,mMTS,mKcell,mKcell,,D77,2016-11-11T11:33:35+06:00,
1000000000277618,77750001217,mAltel,mKcell,mKcell,,D07,2016-11-11T11:31:55+06:00,
1000000000277619,77072481658,mKarTel,mMTS,mMTS,,D01,2016-11-11T11:33:21+06:00,
1000000000277620,77770693637,mAltel,mKarTel,mKarTel,,D07,2016-11-11T11:34:47+06:00,
1000000000277621,77023559775,mAltel,mKcell,mKcell,,D07,2016-11-11T11:34:37+06:00,
1000000000277626,77076661947,mKcell,mMTS,mMTS,,D02,2016-11-11T11:44:05+06:00,
1000000000277627,77081885708,mKarTel,mKcell,mAltel,D02,D01,2016-11-11T11:45:19+06:00,
1000000000277628,77024369662,mAltel,mKcell,mKcell,,D07,2016-11-11T11:43:26+06:00,
1000000000277630,77753478082,mMTS,mKcell,mKcell,,D77,2016-11-11T11:45:56+06:00,
1000000000277631,77011820082,mMTS,mKcell,mKcell,,D77,2016-11-11T11:46:14+06:00,
1000000000277632,77015246768,mKarTel,mKcell,mKcell,,D01,2016-11-11T11:46:57+06:00,
1000000000277633,77019903559,mKarTel,mKcell,mKcell,,D01,2016-11-11T11:52:28+06:00,
1000000000277634,77076661945,mKcell,mMTS,mMTS,,D02,2016-11-11T11:52:57+06:00,
1000000000277635,77781414166,mAltel,mKcell,mKcell,,D07,2016-11-11T11:53:02+06:00,
1000000000277636,77011033373,mKarTel,mKcell,mKcell,,D01,2016-11-11T11:56:30+06:00,
1000000000277637,77782850247,mMTS,mKcell,mKcell,,D77,2016-11-11T11:57:40+06:00,
1000000000277638,77023722566,mMTS,mKcell,mKcell,,D77,2016-11-11T11:58:11+06:00,
1000000000277639,77009177836,mKcell,mAltel,mAltel,,D02,2016-11-11T11:58:43+06:00,
1000000000277640,77023334496,mMTS,mKcell,mKcell,,D77,2016-11-11T11:59:41+06:00,
