NPId,Number,RecipientId,DonorId,RangeHolderId,OldRoute,NewRoute,PortDate,RowCount
1000000000435152,77007111101,mKcell,mAltel,mAltel,,D02,2017-08-05T09:41:25+06:00,3
1000000000435153,77077740264,mKarTel,mMTS,mMTS,,D01,2017-08-05T09:48:02+06:00,
1000000000435154,77776505254,mKarTel,mKcell,mKarTel,D02,D01,2017-08-05T09:59:10+06:00,
