NPId,Number,RecipientId,DonorId,RangeHolderId,OldRoute,NewRoute,PortDate,RowCount
1000000000152227,77712959955,mKarTel,mKcell,mKarTel,D02,D01,2016-04-14T20:34:21+06:00,3
1000000000152228,77711183738,mKcell,mKarTel,mKarTel,,D02,2016-04-14T20:37:30+06:00,
1000000000152231,77774200226,mKarTel,mAltel,mKarTel,D07,D01,2016-04-14T20:54:54+06:00,
