NPId,Number,RecipientId,DonorId,RangeHolderId,OldRoute,NewRoute,PortDate,RowCount
1000000000280361,77076662136,mKarTel,mMTS,mMTS,,D01,2016-11-17T13:00:21+06:00,21
1000000000280362,77477330643,mKcell,mMTS,mMTS,,D02,2016-11-17T13:01:21+06:00,
1000000000280363,77013326551,mMTS,mKcell,mKcell,,D77,2016-11-17T13:01:26+06:00,
1000000000280364,77014098613,mAltel,mKcell,mKcell,,D07,2016-11-17T13:03:13+06:00,
1000000000280365,77071703080,mKcell,mMTS,mMTS,,D02,2016-11-17T13:05:27+06:00,
1000000000280366,77475990998,mKarTel,mMTS,mMTS,,D01,2016-11-17T13:06:23+06:00,
1000000000280367,77472808393,mMTS,mKarTel,mMTS,D01,D77,2016-11-17T13:07:52+06:00,
1000000000280368,77016117530,mKarTel,mKcell,mKcell,D02,D01,2016-11-17T13:08:37+06:00,
1000000000280369,77017077499,mKarTel,mKcell,mKcell,D02,D01,2016-11-17T13:09:46+06:00,
1000000000280370,77771020833,mMTS,mKarTel,mKarTel,,D77,2016-11-17T13:12:18+06:00,
1000000000280371,77775329398,mMTS,mKarTel,mKarTel,,D77,2016-11-17T13:12:18+06:00,
1000000000280372,77755524199,mMTS,mKcell,mKcell,,D77,2016-11-17T13:13:24+06:00,
1000000000280373,77052653706,mKarTel,mKcell,mKarTel,D02,D01,2016-11-17T13:14:58+06:00,
1000000000280374,77007909040,mKarTel,mMTS,mAltel,D77,D01,2016-11-17T13:15:09+06:00,
1000000000280375,77055233269,mKarTel,mAltel,mKarTel,D07,D01,2016-11-17T13:15:26+06:00,
1000000000280376,77754447768,mMTS,mKcell,mKcell,,D77,2016-11-17T13:17:40+06:00,
1000000000280377,77472024764,mKarTel,mMTS,mMTS,,D01,2016-11-17T13:20:42+06:00,
1000000000280378,77073177715,mKarTel,mMTS,mMTS,,D01,2016-11-17T13:21:22+06:00,
1000000000280380,77758220857,mKarTel,mKcell,mKcell,,D01,2016-11-17T13:26:09+06:00,
1000000000280381,77763357335,mMTS,mKarTel,mKarTel,,D77,2016-11-17T13:27:57+06:00,
1000000000280382,77772228835,mKarTel,mAltel,mKarTel,D07,D01,2016-11-17T13:29:22+06:00,
