NPId,Number,RecipientId,DonorId,RangeHolderId,OldRoute,NewRoute,PortDate,RowCount
1000000000374054,77010145951,mKarTel,mKcell,mKcell,,D01,2017-05-01T14:22:59+06:00,31
1000000000374054,77017520451,mKarTel,mKcell,mKcell,,D01,2017-05-01T14:22:59+06:00,
1000000000374054,77017530196,mKarTel,mKcell,mKcell,,D01,2017-05-01T14:22:59+06:00,
1000000000375614,77059000125,mAltel,mKarTel,mKarTel,,D07,2017-05-01T14:00:58+06:00,
1000000000375615,77710137182,mMTS,mKarTel,mKarTel,D01,D77,2017-05-01T14:01:56+06:00,
1000000000375616,77017744823,mMTS,mKcell,mKcell,,D77,2017-05-01T14:01:54+06:00,
1000000000375617,77057006862,mMTS,mKarTel,mKarTel,,D77,2017-05-01T14:02:12+06:00,
1000000000375619,77017711636,mKcell,mKarTel,mKcell,D01,D02,2017-05-01T14:03:26+06:00,
1000000000375620,77018004215,mMTS,mKcell,mKcell,,D77,2017-05-01T14:03:00+06:00,
1000000000375623,77777014777,mMTS,mKarTel,mKarTel,,D77,2017-05-01T14:05:30+06:00,
1000000000375624,77058115202,mMTS,mKarTel,mKarTel,,D77,2017-05-01T14:08:01+06:00,
1000000000375625,77085303201,mKcell,mAltel,mAltel,,D02,2017-05-01T14:08:14+06:00,
1000000000375626,77079366539,mKcell,mMTS,mMTS,,D02,2017-05-01T14:09:57+06:00,
1000000000375627,77772220990,mAltel,mKarTel,mKarTel,,D07,2017-05-01T14:10:49+06:00,
1000000000375629,77075785111,mKarTel,mMTS,mMTS,,D01,2017-05-01T14:14:47+06:00,
1000000000375630,77012330028,mKarTel,mKcell,mKcell,,D01,2017-05-01T14:14:58+06:00,
1000000000375632,77017774079,mAltel,mKcell,mKcell,,D07,2017-05-01T14:16:58+06:00,
1000000000375633,77777493866,mMTS,mKarTel,mKarTel,,D77,2017-05-01T14:17:23+06:00,
1000000000375634,77029991241,mKarTel,mKcell,mKcell,,D01,2017-05-01T14:18:03+06:00,
1000000000375635,77027330888,mKarTel,mKcell,mKcell,,D01,2017-05-01T14:19:31+06:00,
1000000000375636,77005556936,mKcell,mAltel,mAltel,,D02,2017-05-01T14:19:23+06:00,
1000000000375637,77055010404,mMTS,mKarTel,mKarTel,,D77,2017-05-01T14:19:36+06:00,
1000000000375638,77017686830,mMTS,mKcell,mKcell,,D77,2017-05-01T14:20:55+06:00,
1000000000375639,77056009112,mKcell,mKarTel,mKarTel,,D02,2017-05-01T14:22:43+06:00,
1000000000375641,77054546147,mMTS,mKarTel,mKarTel,,D77,2017-05-01T14:23:01+06:00,
1000000000375642,77016892999,mMTS,mKcell,mKcell,,D77,2017-05-01T14:23:15+06:00,
1000000000375643,77019904247,mKarTel,mKcell,mKcell,,D01,2017-05-01T14:24:05+06:00,
1000000000375644,77071979798,mKcell,mMTS,mMTS,,D02,2017-05-01T14:24:09+06:00,
1000000000375645,77716107070,mMTS,mKarTel,mKarTel,,D77,2017-05-01T14:26:06+06:00,
1000000000375646,77779823682,mMTS,mKarTel,mKarTel,,D77,2017-05-01T14:26:39+06:00,
1000000000375651,77758831887,mAltel,mKcell,mKcell,,D07,2017-05-01T14:28:27+06:00,
