NPId,Number,RecipientId,DonorId,RangeHolderId,OldRoute,NewRoute,PortDate,RowCount
1000000000235090,77057735801,mMTS,mKarTel,mKarTel,,D77,2016-08-27T14:32:07+06:00,24
1000000000235091,77712587000,mKarTel,mAltel,mKarTel,D07,D01,2016-08-27T14:31:24+06:00,
1000000000235092,77783036733,mMTS,mKcell,mKcell,,D77,2016-08-27T14:32:39+06:00,
1000000000235093,77759168455,mKarTel,mKcell,mKcell,,D01,2016-08-27T14:33:40+06:00,
1000000000235095,77082298227,mKarTel,mMTS,mAltel,D77,D01,2016-08-27T14:36:13+06:00,
1000000000235096,77755575628,mMTS,mKcell,mKcell,,D77,2016-08-27T14:37:25+06:00,
1000000000235097,77017005003,mMTS,mKcell,mKcell,,D77,2016-08-27T14:38:09+06:00,
1000000000235098,77753331066,mMTS,mKcell,mKcell,,D77,2016-08-27T14:38:13+06:00,
1000000000235099,77073612975,mKarTel,mKcell,mMTS,D02,D01,2016-08-27T14:39:49+06:00,
1000000000235100,77088860005,mMTS,mAltel,mAltel,,D77,2016-08-27T14:38:50+06:00,
1000000000235103,77015115757,mKcell,mKarTel,mKcell,D01,D02,2016-08-27T14:43:27+06:00,
1000000000235104,77779600000,mKarTel,mAltel,mKarTel,D07,D01,2016-08-27T14:41:48+06:00,
1000000000235105,77776681978,mKcell,mKarTel,mKarTel,,D02,2016-08-27T14:44:13+06:00,
1000000000235106,77002120017,mMTS,mAltel,mAltel,,D77,2016-08-27T14:41:54+06:00,
1000000000235107,77057983877,mKcell,mKarTel,mKarTel,,D02,2016-08-27T14:46:13+06:00,
1000000000235108,77073613148,mKarTel,mKcell,mMTS,D02,D01,2016-08-27T14:46:48+06:00,
1000000000235109,77019928149,mMTS,mKcell,mKcell,,D77,2016-08-27T14:46:37+06:00,
1000000000235110,77756696290,mAltel,mKcell,mKcell,,D07,2016-08-27T14:47:27+06:00,
1000000000235112,77758885593,mMTS,mKcell,mKcell,,D77,2016-08-27T14:52:24+06:00,
1000000000235114,77073613152,mKarTel,mKcell,mMTS,D02,D01,2016-08-27T14:54:06+06:00,
1000000000235115,77018881734,mAltel,mKcell,mKcell,,D07,2016-08-27T14:55:37+06:00,
1000000000235116,77776804637,mMTS,mKarTel,mKarTel,,D77,2016-08-27T14:58:02+06:00,
1000000000235117,77078356909,mKcell,mMTS,mMTS,,D02,2016-08-27T14:57:24+06:00,
1000000000235119,77056528935,mKarTel,mMTS,mKarTel,D77,D01,2016-08-27T14:59:30+06:00,
