NPId,Number,RecipientId,DonorId,RangeHolderId,OldRoute,NewRoute,PortDate,RowCount
1000000000350838,77717333323,mKcell,mMTS,mKarTel,D77,D02,2017-03-22T16:32:02+06:00,17
1000000000350839,77014461587,mMTS,mKcell,mKcell,,D77,2017-03-22T16:32:50+06:00,
1000000000350840,77017381500,mAltel,mKcell,mKcell,,D07,2017-03-22T16:36:43+06:00,
1000000000350841,77055083966,mMTS,mKarTel,mKarTel,,D77,2017-03-22T16:37:28+06:00,
1000000000350843,77012584350,mMTS,mKcell,mKcell,,D77,2017-03-22T16:42:55+06:00,
1000000000350844,77017309944,mMTS,mKcell,mKcell,,D77,2017-03-22T16:44:24+06:00,
1000000000350845,77015555823,mMTS,mKcell,mKcell,,D77,2017-03-22T16:46:07+06:00,
1000000000350846,77025964000,mMTS,mKcell,mKcell,,D77,2017-03-22T16:47:57+06:00,
1000000000350847,77755688312,mMTS,mKcell,mKcell,,D77,2017-03-22T16:47:57+06:00,
1000000000350848,77786009090,mKarTel,mKcell,mKcell,,D01,2017-03-22T16:50:44+06:00,
1000000000350849,77007774210,mKcell,mAltel,mAltel,,D02,2017-03-22T16:51:23+06:00,
1000000000350850,77752912188,mMTS,mKcell,mKcell,,D77,2017-03-22T16:52:57+06:00,
1000000000350851,77001115174,mKcell,mAltel,mAltel,,D02,2017-03-22T16:53:25+06:00,
1000000000350853,77007774260,mKcell,mAltel,mAltel,,D02,2017-03-22T16:55:37+06:00,
1000000000350854,77001115106,mKcell,mAltel,mAltel,,D02,2017-03-22T16:56:29+06:00,
1000000000350855,77771531322,mMTS,mKarTel,mKarTel,,D77,2017-03-22T16:58:03+06:00,
1000000000350856,77783576800,mMTS,mKcell,mKcell,,D77,2017-03-22T16:58:28+06:00,
