NPId,Number,RecipientId,DonorId,RangeHolderId,OldRoute,NewRoute,PortDate,RowCount
1000000000421476,77006636218,mMTS,mAltel,mAltel,,D77,2017-07-14T10:00:20+06:00,13
1000000000421477,77762987800,mMTS,mKarTel,mKarTel,,D77,2017-07-14T10:02:15+06:00,
1000000000421479,77071079749,mKarTel,mMTS,mMTS,,D01,2017-07-14T10:03:50+06:00,
1000000000421480,77014443326,mKarTel,mKcell,mKcell,,D01,2017-07-14T10:07:26+06:00,
1000000000421481,77053224212,mMTS,mKarTel,mKarTel,,D77,2017-07-14T10:09:08+06:00,
1000000000421484,77478120512,mMTS,mKarTel,mMTS,D01,D77,2017-07-14T10:11:31+06:00,
1000000000421486,77006265729,mMTS,mAltel,mAltel,,D77,2017-07-14T10:17:53+06:00,
1000000000421488,77012294343,mKcell,mMTS,mKcell,D77,D02,2017-07-14T10:19:54+06:00,
1000000000421490,77006636110,mMTS,mAltel,mAltel,,D77,2017-07-14T10:26:23+06:00,
1000000000421491,77006636701,mMTS,mAltel,mAltel,,D77,2017-07-14T10:27:52+06:00,
1000000000421492,77762255050,mKcell,mKarTel,mKarTel,,D02,2017-07-14T10:28:45+06:00,
1000000000421493,77013303334,mKarTel,mKcell,mKcell,,D01,2017-07-14T10:28:28+06:00,
1000000000421494,77006636252,mMTS,mAltel,mAltel,,D77,2017-07-14T10:29:12+06:00,
