NPId,Number,RecipientId,DonorId,RangeHolderId,OldRoute,NewRoute,PortDate,RowCount
1000000000159958,77018852000,mMTS,mKcell,mKcell,,D77,2016-04-25T15:45:02+06:00,41
1000000000159961,77026909369,mMTS,mKcell,mKcell,,D77,2016-04-25T15:30:22+06:00,
1000000000159962,77766679998,mMTS,mKarTel,mKarTel,,D77,2016-04-25T15:30:15+06:00,
1000000000159963,77083455574,mKcell,mAltel,mAltel,,D02,2016-04-25T15:30:43+06:00,
1000000000159964,77088613485,mMTS,mAltel,mAltel,,D77,2016-04-25T15:30:40+06:00,
1000000000159965,77783698655,mMTS,mKcell,mKcell,,D77,2016-04-25T15:32:26+06:00,
1000000000159966,77004071647,mKcell,mAltel,mAltel,,D02,2016-04-25T15:32:59+06:00,
1000000000159967,77076771969,mMTS,mAltel,mMTS,D07,D77,2016-04-25T15:33:53+06:00,
1000000000159968,77029920505,mKcell,mMTS,mKcell,D77,D02,2016-04-25T15:34:44+06:00,
1000000000159969,77752222777,mMTS,mKcell,mKcell,,D77,2016-04-25T15:35:15+06:00,
1000000000159970,77083063600,mMTS,mAltel,mAltel,,D77,2016-04-25T15:36:58+06:00,
1000000000159973,77003003808,mMTS,mAltel,mAltel,,D77,2016-04-25T15:37:35+06:00,
1000000000159974,77054262606,mMTS,mKarTel,mKarTel,,D77,2016-04-25T15:38:43+06:00,
1000000000159975,77079662669,mKarTel,mMTS,mMTS,,D01,2016-04-25T15:39:05+06:00,
1000000000159976,77017175423,mAltel,mKcell,mKcell,,D07,2016-04-25T15:39:12+06:00,
1000000000159978,77019978779,mMTS,mKcell,mKcell,,D77,2016-04-25T15:39:46+06:00,
1000000000159980,77712587000,mAltel,mKarTel,mKarTel,,D07,2016-04-25T15:40:10+06:00,
1000000000159981,77029999611,mMTS,mKcell,mKcell,,D77,2016-04-25T15:41:34+06:00,
1000000000159982,77003706371,mMTS,mAltel,mAltel,,D77,2016-04-25T15:42:04+06:00,
1000000000159983,77087608545,mMTS,mAltel,mAltel,,D77,2016-04-25T15:44:21+06:00,
1000000000159986,77017403892,mMTS,mKcell,mKcell,,D77,2016-04-25T15:47:27+06:00,
1000000000159987,77029543383,mKcell,mAltel,mKcell,D07,D02,2016-04-25T15:47:14+06:00,
1000000000159990,77087587268,mMTS,mAltel,mAltel,,D77,2016-04-25T15:47:17+06:00,
1000000000159993,77003302277,mMTS,mAltel,mAltel,,D77,2016-04-25T15:49:12+06:00,
1000000000159994,77716401004,mMTS,mKarTel,mKarTel,,D77,2016-04-25T15:50:37+06:00,
1000000000159999,77072129021,mAltel,mMTS,mMTS,,D07,2016-04-25T15:51:20+06:00,
1000000000160001,77072571818,mMTS,mAltel,mMTS,D07,D77,2016-04-25T15:53:03+06:00,
1000000000160003,77086694459,mMTS,mAltel,mAltel,,D77,2016-04-25T15:54:06+06:00,
1000000000160004,77019881085,mMTS,mKcell,mKcell,,D77,2016-04-25T15:54:43+06:00,
1000000000160005,77765002222,mMTS,mKarTel,mKarTel,,D77,2016-04-25T15:54:55+06:00,
1000000000160006,77778566269,mMTS,mKarTel,mKarTel,,D77,2016-04-25T15:55:34+06:00,
1000000000160007,77015896526,mKcell,mMTS,mKcell,D77,D02,2016-04-25T15:55:51+06:00,
1000000000160009,77015602007,mMTS,mKcell,mKcell,,D77,2016-04-25T15:56:32+06:00,
1000000000160010,77023844455,mMTS,mKcell,mKcell,,D77,2016-04-25T15:57:23+06:00,
1000000000160011,77477777101,mKarTel,mMTS,mMTS,,D01,2016-04-25T15:56:58+06:00,
1000000000160012,77007898888,mMTS,mAltel,mAltel,,D77,2016-04-25T15:57:35+06:00,
1000000000160013,77771105689,mKcell,mKarTel,mKarTel,,D02,2016-04-25T15:59:03+06:00,
1000000000160015,77088027962,mMTS,mAltel,mAltel,,D77,2016-04-25T15:58:21+06:00,
1000000000160016,77073379928,mMTS,mAltel,mMTS,D07,D77,2016-04-25T15:58:29+06:00,
1000000000160017,77472999162,mKcell,mMTS,mMTS,,D02,2016-04-25T15:59:03+06:00,
1000000000160019,77085586941,mMTS,mAltel,mAltel,,D77,2016-04-25T15:59:54+06:00,
