NPId,Number,RecipientId,DonorId,RangeHolderId,OldRoute,NewRoute,PortDate,RowCount
1000000000197980,77073578888,mKcell,mMTS,mMTS,,D02,2016-06-22T17:01:36+06:00,27
1000000000197981,77089277911,mMTS,mAltel,mAltel,,D77,2016-06-22T17:00:08+06:00,
1000000000197985,77785004544,mKcell,mAltel,mKcell,D07,D02,2016-06-22T17:05:56+06:00,
1000000000197986,77752485019,mKarTel,mKcell,mKcell,,D01,2016-06-22T17:07:45+06:00,
1000000000197987,77758778077,mKcell,mMTS,mKcell,D77,D02,2016-06-22T17:09:09+06:00,
1000000000197989,77054447976,mKcell,mKarTel,mKarTel,,D02,2016-06-22T17:11:14+06:00,
1000000000197990,77776036464,mKcell,mKarTel,mKarTel,,D02,2016-06-22T17:11:14+06:00,
1000000000197991,77019821938,mMTS,mKarTel,mKcell,D01,D77,2016-06-22T17:25:48+06:00,
1000000000197992,77057452488,mKarTel,mMTS,mKarTel,D77,D01,2016-06-22T17:11:00+06:00,
1000000000197994,77001379652,mMTS,mAltel,mAltel,,D77,2016-06-22T17:11:32+06:00,
1000000000197995,77017508810,mMTS,mKcell,mKcell,,D77,2016-06-22T17:13:44+06:00,
1000000000197996,77019821933,mMTS,mKarTel,mKcell,D01,D77,2016-06-22T17:28:19+06:00,
1000000000197997,77052924925,mMTS,mKarTel,mKarTel,,D77,2016-06-22T17:14:21+06:00,
1000000000197998,77017118383,mKcell,mAltel,mKcell,D07,D02,2016-06-22T17:14:50+06:00,
1000000000197999,77014009966,mKarTel,mKcell,mKcell,,D01,2016-06-22T17:16:51+06:00,
1000000000198000,77000007124,mMTS,mAltel,mAltel,,D77,2016-06-22T17:16:32+06:00,
1000000000198001,77085686173,mMTS,mAltel,mAltel,,D77,2016-06-22T17:17:10+06:00,
1000000000198002,77078793866,mKarTel,mMTS,mMTS,,D01,2016-06-22T17:17:50+06:00,
1000000000198003,77055300021,mKcell,mKarTel,mKarTel,,D02,2016-06-22T17:18:51+06:00,
1000000000198004,77055360076,mKcell,mKarTel,mKarTel,,D02,2016-06-22T17:20:15+06:00,
1000000000198005,77012664010,mKarTel,mKcell,mKcell,,D01,2016-06-22T17:19:42+06:00,
1000000000198006,77777095006,mKcell,mKarTel,mKarTel,,D02,2016-06-22T17:20:38+06:00,
1000000000198010,77019821935,mMTS,mKcell,mKcell,,D77,2016-06-22T17:25:35+06:00,
1000000000198011,77756622664,mMTS,mKcell,mKcell,,D77,2016-06-22T17:25:35+06:00,
1000000000198013,77081000211,mKarTel,mAltel,mAltel,,D01,2016-06-22T17:26:17+06:00,
1000000000198014,77714353373,mMTS,mKarTel,mKarTel,,D77,2016-06-22T17:27:16+06:00,
1000000000198015,77017275517,mKcell,mAltel,mKcell,D07,D02,2016-06-22T17:28:36+06:00,
