NPId,Number,RecipientId,DonorId,RangeHolderId,OldRoute,NewRoute,PortDate,RowCount
1000000000002049,77017002222,mAltel,mKcell,mKcell,,D07,2016-01-06T11:56:02+06:00,28
1000000000002066,77005511993,mKarTel,mAltel,mAltel,,D01,2016-01-06T11:32:24+06:00,
1000000000002067,77777730282,mAltel,mKarTel,mKarTel,,D07,2016-01-06T11:33:45+06:00,
1000000000002068,77015580760,mKarTel,mKcell,mKcell,,D01,2016-01-06T11:33:46+06:00,
1000000000002069,77475509970,mAltel,mMTS,mMTS,,D07,2016-01-06T11:33:53+06:00,
1000000000002071,77755366603,mKarTel,mKcell,mKcell,,D01,2016-01-06T11:35:59+06:00,
1000000000002072,77024774437,mMTS,mKcell,mKcell,,D77,2016-01-06T11:36:46+06:00,
1000000000002073,77766099977,mAltel,mKarTel,mKarTel,,D07,2016-01-06T11:37:34+06:00,
1000000000002075,77055895773,mAltel,mKarTel,mKarTel,,D07,2016-01-06T11:37:52+06:00,
1000000000002077,77771311414,mMTS,mKarTel,mKarTel,,D77,2016-01-06T11:38:47+06:00,
1000000000002078,77057200547,mAltel,mKarTel,mKarTel,,D07,2016-01-06T11:41:18+06:00,
1000000000002080,77011115270,mAltel,mKcell,mKcell,,D07,2016-01-06T11:41:56+06:00,
1000000000002081,77711805050,mAltel,mKarTel,mKarTel,,D07,2016-01-06T11:42:54+06:00,
1000000000002083,77770177757,mMTS,mKarTel,mKarTel,,D77,2016-01-06T11:44:05+06:00,
1000000000002084,77019532258,mKarTel,mKcell,mKcell,,D01,2016-01-06T11:44:17+06:00,
1000000000002087,77018009990,mKarTel,mKcell,mKcell,,D01,2016-01-06T11:48:18+06:00,
1000000000002088,77057595555,mAltel,mKarTel,mKarTel,,D07,2016-01-06T11:48:53+06:00,
1000000000002090,77789000960,mKarTel,mKcell,mKcell,,D01,2016-01-06T11:50:05+06:00,
1000000000002092,77053021199,mAltel,mKarTel,mKarTel,,D07,2016-01-06T11:51:18+06:00,
1000000000002094,77013660330,mMTS,mKcell,mKcell,,D77,2016-01-06T11:53:03+06:00,
1000000000002095,77077775009,mAltel,mMTS,mMTS,,D07,2016-01-06T11:53:12+06:00,
1000000000002097,77015123398,mAltel,mKcell,mKcell,,D07,2016-01-06T11:53:59+06:00,
1000000000002099,77028826361,mAltel,mKcell,mKcell,,D07,2016-01-06T11:56:01+06:00,
1000000000002103,77071511149,mAltel,mMTS,mMTS,,D07,2016-01-06T11:57:44+06:00,
1000000000002104,77077777071,mKcell,mMTS,mMTS,,D02,2016-01-06T11:58:31+06:00,
1000000000002105,77075381213,mAltel,mMTS,mMTS,,D07,2016-01-06T11:58:35+06:00,
1000000000002107,77054036113,mAltel,mKarTel,mKarTel,,D07,2016-01-06T11:59:17+06:00,
1000000000002108,77015351096,mKarTel,mKcell,mKcell,,D01,2016-01-06T11:59:18+06:00,
