NPId,Number,RecipientId,DonorId,RangeHolderId,OldRoute,NewRoute,PortDate,RowCount
1000000000090597,77026232410,mKarTel,mKcell,mKcell,,D01,2016-02-17T09:01:59+06:00,12
1000000000090598,77071112832,mKarTel,mMTS,mMTS,,D01,2016-02-17T09:01:58+06:00,
1000000000090600,77028234908,mMTS,mKcell,mKcell,,D77,2016-02-17T09:07:04+06:00,
1000000000090601,77002669993,mKarTel,mAltel,mAltel,,D01,2016-02-17T09:11:22+06:00,
1000000000090602,77075001090,mKarTel,mMTS,mMTS,,D01,2016-02-17T09:11:44+06:00,
1000000000090603,77015393199,mKarTel,mKcell,mKcell,,D01,2016-02-17T09:14:24+06:00,
1000000000090605,77714198502,mKcell,mKarTel,mKarTel,,D02,2016-02-17T09:19:46+06:00,
1000000000090607,77017236047,mKarTel,mKcell,mKcell,,D01,2016-02-17T09:19:40+06:00,
1000000000090609,77752716592,mKarTel,mKcell,mKcell,,D01,2016-02-17T09:22:41+06:00,
1000000000090610,77752722986,mKarTel,mKcell,mKcell,,D01,2016-02-17T09:25:14+06:00,
1000000000090611,77014486996,mKarTel,mKcell,mKcell,,D01,2016-02-17T09:27:11+06:00,
1000000000090612,77714198527,mKcell,mKarTel,mKarTel,,D02,2016-02-17T09:27:38+06:00,
