NPId,Number,RecipientId,DonorId,RangeHolderId,OldRoute,NewRoute,PortDate,RowCount
1000000000151342,77757586550,mMTS,mKcell,mKcell,,D77,2016-04-13T19:00:57+06:00,16
1000000000151343,77752784807,mAltel,mKcell,mKcell,,D07,2016-04-13T19:02:42+06:00,
1000000000151344,77007975050,mMTS,mAltel,mAltel,,D77,2016-04-13T19:03:18+06:00,
1000000000151345,77013710807,mKarTel,mKcell,mKcell,,D01,2016-04-13T19:05:05+06:00,
1000000000151348,77023151502,mKarTel,mKcell,mKcell,,D01,2016-04-13T19:07:51+06:00,
1000000000151349,77017322044,mKarTel,mKcell,mKcell,,D01,2016-04-13T19:08:34+06:00,
1000000000151351,77081817081,mMTS,mAltel,mAltel,,D77,2016-04-13T19:08:38+06:00,
1000000000151352,77754799364,mMTS,mKcell,mKcell,,D77,2016-04-13T19:10:17+06:00,
1000000000151353,77077880802,mKcell,mMTS,mMTS,,D02,2016-04-13T19:11:15+06:00,
1000000000151355,77081309393,mKcell,mAltel,mAltel,,D02,2016-04-13T19:14:48+06:00,
1000000000151359,77023798320,mKcell,mAltel,mKcell,D07,D02,2016-04-13T19:18:33+06:00,
1000000000151361,77476514146,mKcell,mMTS,mMTS,,D02,2016-04-13T19:20:52+06:00,
1000000000151362,77052444607,mMTS,mKarTel,mKarTel,,D77,2016-04-13T19:23:50+06:00,
1000000000151363,77085245449,mMTS,mAltel,mAltel,,D77,2016-04-13T19:22:00+06:00,
1000000000151364,77019442626,mKarTel,mAltel,mKcell,D07,D01,2016-04-13T19:23:47+06:00,
1000000000151365,77079555545,mKcell,mMTS,mMTS,,D02,2016-04-13T19:25:48+06:00,
