NPId,Number,RecipientId,DonorId,RangeHolderId,OldRoute,NewRoute,PortDate,RowCount
1000000000406585,77077564411,mKcell,mMTS,mMTS,,D02,2017-06-20T19:35:10+06:00,9
1000000000406586,77003626242,mMTS,mAltel,mAltel,,D77,2017-06-20T19:37:20+06:00,
1000000000406587,77012228028,mKarTel,mKcell,mKcell,,D01,2017-06-20T19:38:59+06:00,
1000000000406588,77784996660,mKarTel,mKcell,mKcell,,D01,2017-06-20T19:40:24+06:00,
1000000000406589,77012997496,mAltel,mKcell,mKcell,,D07,2017-06-20T19:44:22+06:00,
1000000000406590,77073300007,mKarTel,mMTS,mMTS,,D01,2017-06-20T19:46:15+06:00,
1000000000406591,77071234954,mKcell,mMTS,mMTS,,D02,2017-06-20T19:46:57+06:00,
1000000000406592,77029331631,mAltel,mKcell,mKcell,,D07,2017-06-20T19:47:04+06:00,
1000000000406593,77778000937,mMTS,mKarTel,mKarTel,,D77,2017-06-20T19:52:07+06:00,
