NPId,Number,RecipientId,DonorId,RangeHolderId,OldRoute,NewRoute,PortDate,RowCount
1000000000317268,77017310056,mKarTel,mKcell,mKcell,,D01,2017-01-26T19:01:43+06:00,17
1000000000317269,77074645510,mKcell,mMTS,mMTS,,D02,2017-01-26T19:01:58+06:00,
1000000000317270,77718593567,mMTS,mKarTel,mKarTel,,D77,2017-01-26T19:02:01+06:00,
1000000000317271,77012673431,mKcell,mAltel,mKcell,D07,D02,2017-01-26T19:01:52+06:00,
1000000000317272,77753066344,mAltel,mKcell,mKcell,,D07,2017-01-26T19:02:09+06:00,
1000000000317273,77057051616,mMTS,mKarTel,mKarTel,D01,D77,2017-01-26T19:03:05+06:00,
1000000000317275,77755707990,mKarTel,mKcell,mKcell,,D01,2017-01-26T19:06:34+06:00,
1000000000317276,77787328089,mAltel,mKcell,mKcell,,D07,2017-01-26T19:06:39+06:00,
1000000000317277,77026669669,mMTS,mKcell,mKcell,,D77,2017-01-26T19:07:46+06:00,
1000000000317278,77022183006,mMTS,mKcell,mKcell,,D77,2017-01-26T19:10:03+06:00,
1000000000317279,77072104003,mAltel,mMTS,mMTS,,D07,2017-01-26T19:10:59+06:00,
1000000000317280,77026643930,mMTS,mKcell,mKcell,,D77,2017-01-26T19:12:27+06:00,
1000000000317281,77772481769,mMTS,mKarTel,mKarTel,,D77,2017-01-26T19:13:02+06:00,
1000000000317282,77772211514,mMTS,mKarTel,mKarTel,D01,D77,2017-01-26T19:13:02+06:00,
1000000000317283,77772481743,mMTS,mKarTel,mKarTel,,D77,2017-01-26T19:18:02+06:00,
1000000000317284,77022261555,mAltel,mKcell,mKcell,,D07,2017-01-26T19:20:31+06:00,
1000000000317287,77772481741,mMTS,mKarTel,mKarTel,,D77,2017-01-26T19:28:01+06:00,
