NPId,Number,RecipientId,DonorId,RangeHolderId,OldRoute,NewRoute,PortDate,RowCount
1000000000286433,77017599069,mKarTel,mKcell,mKcell,,D01,2016-11-30T12:27:55+06:00,172
1000000000286635,77010262366,mKarTel,mKcell,mKcell,,D01,2016-11-30T12:14:28+06:00,
1000000000286635,77010262367,mKarTel,mKcell,mKcell,,D01,2016-11-30T12:14:28+06:00,
1000000000286635,77010262368,mKarTel,mKcell,mKcell,,D01,2016-11-30T12:14:28+06:00,
1000000000286635,77010262369,mKarTel,mKcell,mKcell,,D01,2016-11-30T12:14:28+06:00,
1000000000286635,77010262370,mKarTel,mKcell,mKcell,,D01,2016-11-30T12:14:28+06:00,
1000000000286635,77010524700,mKarTel,mKcell,mKcell,,D01,2016-11-30T12:14:28+06:00,
1000000000286635,77010570984,mKarTel,mKcell,mKcell,,D01,2016-11-30T12:14:28+06:00,
1000000000286635,77010590452,mKarTel,mKcell,mKcell,,D01,2016-11-30T12:14:28+06:00,
1000000000286635,77010591848,mKarTel,mKcell,mKcell,,D01,2016-11-30T12:14:28+06:00,
1000000000286635,77010918003,mKarTel,mKcell,mKcell,,D01,2016-11-30T12:14:28+06:00,
1000000000286635,77010918004,mKarTel,mKcell,mKcell,,D01,2016-11-30T12:14:28+06:00,
1000000000286635,77010918006,mKarTel,mKcell,mKcell,,D01,2016-11-30T12:14:28+06:00,
1000000000286635,77010918007,mKarTel,mKcell,mKcell,,D01,2016-11-30T12:14:28+06:00,
1000000000286635,77012184166,mKarTel,mKcell,mKcell,,D01,2016-11-30T12:14:28+06:00,
1000000000286635,77012186680,mKarTel,mKcell,mKcell,,D01,2016-11-30T12:14:28+06:00,
1000000000286635,77012186700,mKarTel,mKcell,mKcell,,D01,2016-11-30T12:14:28+06:00,
1000000000286635,77015203536,mKarTel,mKcell,mKcell,,D01,2016-11-30T12:14:28+06:00,
1000000000286635,77015347416,mKarTel,mKcell,mKcell,,D01,2016-11-30T12:14:28+06:00,
1000000000286635,77015347420,mKarTel,mKcell,mKcell,,D01,2016-11-30T12:14:28+06:00,
1000000000286635,77015347430,mKarTel,mKcell,mKcell,,D01,2016-11-30T12:14:28+06:00,
1000000000286635,77015438465,mKarTel,mKcell,mKcell,,D01,2016-11-30T12:14:28+06:00,
1000000000286635,77015438469,mKarTel,mKcell,mKcell,,D01,2016-11-30T12:14:28+06:00,
1000000000286635,77015714115,mKarTel,mKcell,mKcell,,D01,2016-11-30T12:14:28+06:00,
1000000000286635,77015714116,mKarTel,mKcell,mKcell,,D01,2016-11-30T12:14:28+06:00,
1000000000286635,77015717898,mKarTel,mKcell,mKcell,,D01,2016-11-30T12:14:28+06:00,
1000000000286635,77017303328,mKarTel,mKcell,mKcell,,D01,2016-11-30T12:14:28+06:00,
1000000000286635,77017454355,mKarTel,mKcell,mKcell,,D01,2016-11-30T12:14:28+06:00,
1000000000286635,77017811519,mKarTel,mKcell,mKcell,,D01,2016-11-30T12:14:28+06:00,
1000000000286635,77017811524,mKarTel,mKcell,mKcell,,D01,2016-11-30T12:14:28+06:00,
1000000000286635,77017811552,mKarTel,mKcell,mKcell,,D01,2016-11-30T12:14:28+06:00,
1000000000286635,77017811586,mKarTel,mKcell,mKcell,,D01,2016-11-30T12:14:28+06:00,
1000000000286635,77017811615,mKarTel,mKcell,mKcell,,D01,2016-11-30T12:14:28+06:00,
1000000000286635,77019084722,mKarTel,mKcell,mKcell,,D01,2016-11-30T12:14:28+06:00,
1000000000286635,77019084724,mKarTel,mKcell,mKcell,,D01,2016-11-30T12:14:28+06:00,
1000000000286635,77019084725,mKarTel,mKcell,mKcell,,D01,2016-11-30T12:14:28+06:00,
1000000000286635,77019084726,mKarTel,mKcell,mKcell,,D01,2016-11-30T12:14:28+06:00,
1000000000286635,77019530847,mKarTel,mKcell,mKcell,,D01,2016-11-30T12:14:28+06:00,
1000000000286635,77019530998,mKarTel,mKcell,mKcell,,D01,2016-11-30T12:14:28+06:00,
1000000000286635,77019531985,mKarTel,mKcell,mKcell,,D01,2016-11-30T12:14:28+06:00,
1000000000286635,77019543150,mKarTel,mKcell,mKcell,,D01,2016-11-30T12:14:28+06:00,
1000000000286635,77019620204,mKarTel,mKcell,mKcell,,D01,2016-11-30T12:14:28+06:00,
1000000000286635,77019685496,mKarTel,mKcell,mKcell,,D01,2016-11-30T12:14:28+06:00,
1000000000286635,77019842500,mKarTel,mKcell,mKcell,,D01,2016-11-30T12:14:28+06:00,
1000000000286635,77019842501,mKarTel,mKcell,mKcell,,D01,2016-11-30T12:14:28+06:00,
1000000000286635,77022145260,mKarTel,mKcell,mKcell,,D01,2016-11-30T12:14:28+06:00,
1000000000286635,77022145261,mKarTel,mKcell,mKcell,,D01,2016-11-30T12:14:28+06:00,
1000000000286635,77022145262,mKarTel,mKcell,mKcell,,D01,2016-11-30T12:14:28+06:00,
1000000000286635,77022145264,mKarTel,mKcell,mKcell,,D01,2016-11-30T12:14:28+06:00,
1000000000286635,77022145265,mKarTel,mKcell,mKcell,,D01,2016-11-30T12:14:28+06:00,
1000000000286636,77012183687,mKarTel,mKcell,mKcell,,D01,2016-11-30T12:11:26+06:00,
1000000000286636,77012216713,mKarTel,mKcell,mKcell,,D01,2016-11-30T12:11:26+06:00,
1000000000286636,77012230715,mKarTel,mKcell,mKcell,,D01,2016-11-30T12:11:26+06:00,
1000000000286636,77012230716,mKarTel,mKcell,mKcell,,D01,2016-11-30T12:11:26+06:00,
1000000000286636,77012230718,mKarTel,mKcell,mKcell,,D01,2016-11-30T12:11:26+06:00,
1000000000286636,77012230724,mKarTel,mKcell,mKcell,,D01,2016-11-30T12:11:26+06:00,
1000000000286636,77012230726,mKarTel,mKcell,mKcell,,D01,2016-11-30T12:11:26+06:00,
1000000000286636,77012245002,mKarTel,mKcell,mKcell,,D01,2016-11-30T12:11:26+06:00,
1000000000286636,77012245003,mKarTel,mKcell,mKcell,,D01,2016-11-30T12:11:26+06:00,
1000000000286636,77012245004,mKarTel,mKcell,mKcell,,D01,2016-11-30T12:11:26+06:00,
1000000000286636,77012273264,mKarTel,mKcell,mKcell,,D01,2016-11-30T12:11:26+06:00,
1000000000286636,77015037617,mKarTel,mKcell,mKcell,,D01,2016-11-30T12:11:26+06:00,
1000000000286636,77017100535,mKarTel,mKcell,mKcell,,D01,2016-11-30T12:11:26+06:00,
1000000000286636,77017141615,mKarTel,mKcell,mKcell,,D01,2016-11-30T12:11:26+06:00,
1000000000286636,77017145756,mKarTel,mKcell,mKcell,,D01,2016-11-30T12:11:26+06:00,
1000000000286636,77017149584,mKarTel,mKcell,mKcell,,D01,2016-11-30T12:11:26+06:00,
1000000000286636,77017155620,mKarTel,mKcell,mKcell,,D01,2016-11-30T12:11:26+06:00,
1000000000286636,77017181355,mKarTel,mKcell,mKcell,,D01,2016-11-30T12:11:26+06:00,
1000000000286636,77017380541,mKarTel,mKcell,mKcell,,D01,2016-11-30T12:11:26+06:00,
1000000000286636,77017447624,mKarTel,mKcell,mKcell,,D01,2016-11-30T12:11:26+06:00,
1000000000286636,77017450889,mKarTel,mKcell,mKcell,,D01,2016-11-30T12:11:26+06:00,
1000000000286636,77017549561,mKarTel,mKcell,mKcell,,D01,2016-11-30T12:11:26+06:00,
1000000000286636,77017549562,mKarTel,mKcell,mKcell,,D01,2016-11-30T12:11:26+06:00,
1000000000286636,77017549563,mKarTel,mKcell,mKcell,,D01,2016-11-30T12:11:26+06:00,
1000000000286636,77017549611,mKarTel,mKcell,mKcell,,D01,2016-11-30T12:11:26+06:00,
1000000000286636,77017549617,mKarTel,mKcell,mKcell,,D01,2016-11-30T12:11:26+06:00,
1000000000286636,77017549688,mKarTel,mKcell,mKcell,,D01,2016-11-30T12:11:26+06:00,
1000000000286636,77017549690,mKarTel,mKcell,mKcell,,D01,2016-11-30T12:11:26+06:00,
1000000000286636,77017591053,mKarTel,mKcell,mKcell,,D01,2016-11-30T12:11:26+06:00,
1000000000286636,77017616342,mKarTel,mKcell,mKcell,,D01,2016-11-30T12:11:26+06:00,
1000000000286636,77017624046,mKarTel,mKcell,mKcell,,D01,2016-11-30T12:11:26+06:00,
1000000000286636,77017624049,mKarTel,mKcell,mKcell,,D01,2016-11-30T12:11:26+06:00,
1000000000286636,77017624079,mKarTel,mKcell,mKcell,,D01,2016-11-30T12:11:26+06:00,
1000000000286636,77017624223,mKarTel,mKcell,mKcell,,D01,2016-11-30T12:11:26+06:00,
1000000000286636,77017624229,mKarTel,mKcell,mKcell,,D01,2016-11-30T12:11:26+06:00,
1000000000286636,77017624233,mKarTel,mKcell,mKcell,,D01,2016-11-30T12:11:26+06:00,
1000000000286636,77017624738,mKarTel,mKcell,mKcell,,D01,2016-11-30T12:11:26+06:00,
1000000000286636,77017624739,mKarTel,mKcell,mKcell,,D01,2016-11-30T12:11:26+06:00,
1000000000286636,77017655897,mKarTel,mKcell,mKcell,,D01,2016-11-30T12:11:26+06:00,
1000000000286636,77017678330,mKarTel,mKcell,mKcell,,D01,2016-11-30T12:11:26+06:00,
1000000000286636,77017678332,mKarTel,mKcell,mKcell,,D01,2016-11-30T12:11:26+06:00,
1000000000286636,77017860102,mKarTel,mKcell,mKcell,,D01,2016-11-30T12:11:26+06:00,
1000000000286636,77019610018,mKarTel,mKcell,mKcell,,D01,2016-11-30T12:11:26+06:00,
1000000000286636,77019610206,mKarTel,mKcell,mKcell,,D01,2016-11-30T12:11:26+06:00,
1000000000286636,77019610212,mKarTel,mKcell,mKcell,,D01,2016-11-30T12:11:26+06:00,
1000000000286640,77010543072,mKarTel,mKcell,mKcell,,D01,2016-11-30T12:09:48+06:00,
1000000000286640,77010570985,mKarTel,mKcell,mKcell,,D01,2016-11-30T12:09:48+06:00,
1000000000286640,77010590453,mKarTel,mKcell,mKcell,,D01,2016-11-30T12:09:48+06:00,
1000000000286640,77010918005,mKarTel,mKcell,mKcell,,D01,2016-11-30T12:09:48+06:00,
1000000000286640,77012182371,mKarTel,mKcell,mKcell,,D01,2016-11-30T12:09:48+06:00,
1000000000286640,77012186416,mKarTel,mKcell,mKcell,,D01,2016-11-30T12:09:48+06:00,
1000000000286640,77015203489,mKarTel,mKcell,mKcell,,D01,2016-11-30T12:09:48+06:00,
1000000000286640,77015203491,mKarTel,mKcell,mKcell,,D01,2016-11-30T12:09:48+06:00,
1000000000286640,77015203495,mKarTel,mKcell,mKcell,,D01,2016-11-30T12:09:48+06:00,
1000000000286640,77015264631,mKarTel,mKcell,mKcell,,D01,2016-11-30T12:09:48+06:00,
1000000000286640,77015347412,mKarTel,mKcell,mKcell,,D01,2016-11-30T12:09:48+06:00,
1000000000286640,77015347425,mKarTel,mKcell,mKcell,,D01,2016-11-30T12:09:48+06:00,
1000000000286640,77015438464,mKarTel,mKcell,mKcell,,D01,2016-11-30T12:09:48+06:00,
1000000000286640,77015714107,mKarTel,mKcell,mKcell,,D01,2016-11-30T12:09:48+06:00,
1000000000286640,77015717903,mKarTel,mKcell,mKcell,,D01,2016-11-30T12:09:48+06:00,
1000000000286640,77015717905,mKarTel,mKcell,mKcell,,D01,2016-11-30T12:09:48+06:00,
1000000000286640,77015717906,mKarTel,mKcell,mKcell,,D01,2016-11-30T12:09:48+06:00,
1000000000286640,77015717907,mKarTel,mKcell,mKcell,,D01,2016-11-30T12:09:48+06:00,
1000000000286640,77019084723,mKarTel,mKcell,mKcell,,D01,2016-11-30T12:09:48+06:00,
1000000000286640,77019200054,mKarTel,mKcell,mKcell,,D01,2016-11-30T12:09:48+06:00,
1000000000286640,77019527221,mKarTel,mKcell,mKcell,,D01,2016-11-30T12:09:48+06:00,
1000000000286640,77019530846,mKarTel,mKcell,mKcell,,D01,2016-11-30T12:09:48+06:00,
1000000000286640,77019925197,mKarTel,mKcell,mKcell,,D01,2016-11-30T12:09:48+06:00,
1000000000286640,77022145263,mKarTel,mKcell,mKcell,,D01,2016-11-30T12:09:48+06:00,
1000000000286640,77022145266,mKarTel,mKcell,mKcell,,D01,2016-11-30T12:09:48+06:00,
1000000000286640,77022145267,mKarTel,mKcell,mKcell,,D01,2016-11-30T12:09:48+06:00,
1000000000286640,77022145268,mKarTel,mKcell,mKcell,,D01,2016-11-30T12:09:48+06:00,
1000000000286640,77022145269,mKarTel,mKcell,mKcell,,D01,2016-11-30T12:09:48+06:00,
1000000000286640,77022145270,mKarTel,mKcell,mKcell,,D01,2016-11-30T12:09:48+06:00,
1000000000286640,77022145271,mKarTel,mKcell,mKcell,,D01,2016-11-30T12:09:48+06:00,
1000000000286640,77022145272,mKarTel,mKcell,mKcell,,D01,2016-11-30T12:09:48+06:00,
1000000000286640,77022145273,mKarTel,mKcell,mKcell,,D01,2016-11-30T12:09:48+06:00,
1000000000286640,77022145274,mKarTel,mKcell,mKcell,,D01,2016-11-30T12:09:48+06:00,
1000000000286640,77022145275,mKarTel,mKcell,mKcell,,D01,2016-11-30T12:09:48+06:00,
1000000000286640,77022145340,mKarTel,mKcell,mKcell,,D01,2016-11-30T12:09:48+06:00,
1000000000286640,77022145341,mKarTel,mKcell,mKcell,,D01,2016-11-30T12:09:48+06:00,
1000000000286640,77022145342,mKarTel,mKcell,mKcell,,D01,2016-11-30T12:09:48+06:00,
1000000000286640,77022145343,mKarTel,mKcell,mKcell,,D01,2016-11-30T12:09:48+06:00,
1000000000286640,77022145344,mKarTel,mKcell,mKcell,,D01,2016-11-30T12:09:48+06:00,
1000000000286640,77022145345,mKarTel,mKcell,mKcell,,D01,2016-11-30T12:09:48+06:00,
1000000000286640,77022145346,mKarTel,mKcell,mKcell,,D01,2016-11-30T12:09:48+06:00,
1000000000286640,77022145347,mKarTel,mKcell,mKcell,,D01,2016-11-30T12:09:48+06:00,
1000000000286640,77022145384,mKarTel,mKcell,mKcell,,D01,2016-11-30T12:09:48+06:00,
1000000000286640,77022247032,mKarTel,mKcell,mKcell,,D01,2016-11-30T12:09:48+06:00,
1000000000286712,77775504005,mAltel,mKarTel,mKarTel,,D07,2016-11-30T12:00:14+06:00,
1000000000286714,77019383902,mKcell,mAltel,mKcell,D07,D02,2016-11-30T12:00:58+06:00,
1000000000286716,77711060109,mKcell,mKarTel,mKarTel,,D02,2016-11-30T12:05:04+06:00,
1000000000286717,77019567635,mKarTel,mKcell,mKcell,,D01,2016-11-30T12:03:30+06:00,
1000000000286718,77751777771,mKarTel,mKcell,mKcell,,D01,2016-11-30T12:04:32+06:00,
1000000000286719,77079505957,mKarTel,mMTS,mMTS,,D01,2016-11-30T12:04:38+06:00,
1000000000286721,77019167979,mKarTel,mKcell,mKcell,,D01,2016-11-30T12:07:33+06:00,
1000000000286722,77029064999,mMTS,mKcell,mKcell,,D77,2016-11-30T12:07:23+06:00,
1000000000286723,77054967249,mMTS,mKarTel,mKarTel,,D77,2016-11-30T12:07:54+06:00,
1000000000286724,77077701932,mKcell,mMTS,mMTS,,D02,2016-11-30T12:09:43+06:00,
1000000000286726,77019796015,mKcell,mKarTel,mKcell,D01,D02,2016-11-30T12:26:05+06:00,
1000000000286728,77026939222,mAltel,mKcell,mKcell,,D07,2016-11-30T12:10:48+06:00,
1000000000286730,77015285286,mKarTel,mKcell,mKcell,,D01,2016-11-30T12:13:31+06:00,
1000000000286733,77018941288,mMTS,mKcell,mKcell,,D77,2016-11-30T12:15:21+06:00,
1000000000286734,77053794940,mMTS,mKarTel,mKarTel,,D77,2016-11-30T12:16:16+06:00,
1000000000286735,77715122201,mMTS,mKarTel,mKarTel,,D77,2016-11-30T12:17:40+06:00,
1000000000286736,77083211357,mKarTel,mAltel,mAltel,,D01,2016-11-30T12:17:48+06:00,
1000000000286737,77028112490,mKcell,mKarTel,mKcell,D01,D02,2016-11-30T12:18:42+06:00,
1000000000286738,77000800070,mMTS,mAltel,mAltel,,D77,2016-11-30T12:18:36+06:00,
1000000000286740,77013070291,mMTS,mKcell,mKcell,,D77,2016-11-30T12:20:39+06:00,
1000000000286741,77753994419,mKcell,mMTS,mKcell,D77,D02,2016-11-30T12:22:14+06:00,
1000000000286742,77059781689,mMTS,mKarTel,mKarTel,,D77,2016-11-30T12:22:56+06:00,
1000000000286743,77782407459,mMTS,mKcell,mKcell,,D77,2016-11-30T12:22:46+06:00,
1000000000286745,77001312345,mKarTel,mAltel,mAltel,,D01,2016-11-30T12:23:58+06:00,
1000000000286746,77772400500,mMTS,mKarTel,mKarTel,,D77,2016-11-30T12:24:18+06:00,
1000000000286747,77017051486,mMTS,mKcell,mKcell,,D77,2016-11-30T12:24:21+06:00,
1000000000286748,77018507212,mMTS,mKcell,mKcell,,D77,2016-11-30T12:24:30+06:00,
1000000000286749,77761510859,mMTS,mKarTel,mKarTel,,D77,2016-11-30T12:25:34+06:00,
1000000000286750,77017327979,mAltel,mKcell,mKcell,,D07,2016-11-30T12:25:41+06:00,
1000000000286751,77766256447,mMTS,mKarTel,mKarTel,,D77,2016-11-30T12:26:48+06:00,
1000000000286752,77007478717,mKcell,mAltel,mAltel,,D02,2016-11-30T12:27:06+06:00,
1000000000286753,77054966897,mMTS,mKarTel,mKarTel,,D77,2016-11-30T12:27:53+06:00,
1000000000286754,77024850555,mAltel,mKcell,mKcell,,D07,2016-11-30T12:29:30+06:00,
