NPId,Number,RecipientId,DonorId,RangeHolderId,OldRoute,NewRoute,PortDate,RowCount
1000000000341318,77073982000,mKarTel,mMTS,mMTS,,D01,2017-03-05T17:34:54+06:00,8
1000000000341320,77011459990,mMTS,mKcell,mKcell,,D77,2017-03-05T17:37:51+06:00,
1000000000341321,77021302516,mKarTel,mKcell,mKcell,,D01,2017-03-05T17:38:56+06:00,
1000000000341322,77781888173,mMTS,mKcell,mKcell,,D77,2017-03-05T17:40:05+06:00,
1000000000341325,77763121093,mMTS,mKarTel,mKarTel,,D77,2017-03-05T17:48:28+06:00,
1000000000341326,77019955700,mMTS,mKcell,mKcell,,D77,2017-03-05T17:48:14+06:00,
1000000000341327,77027939292,mKarTel,mAltel,mKcell,D07,D01,2017-03-05T17:56:33+06:00,
1000000000341328,77025622525,mAltel,mKcell,mKcell,,D07,2017-03-05T17:56:44+06:00,
