NPId,Number,RecipientId,DonorId,RangeHolderId,OldRoute,NewRoute,PortDate,RowCount
1000000000164134,77003179519,mKcell,mAltel,mAltel,,D02,2016-04-30T13:30:37+06:00,42
1000000000164135,77773109844,mKarTel,mKcell,mKarTel,D02,D01,2016-04-30T13:31:46+06:00,
1000000000164136,77717795252,mKarTel,mKcell,mKarTel,D02,D01,2016-04-30T13:31:58+06:00,
1000000000164137,77017402648,mKarTel,mKcell,mKcell,,D01,2016-04-30T13:32:39+06:00,
1000000000164138,77012182187,mMTS,mKcell,mKcell,,D77,2016-04-30T13:32:27+06:00,
1000000000164139,77005885511,mMTS,mAltel,mAltel,,D77,2016-04-30T13:33:49+06:00,
1000000000164140,77053104106,mKcell,mKarTel,mKarTel,,D02,2016-04-30T13:35:26+06:00,
1000000000164141,77778370101,mKcell,mAltel,mKarTel,D07,D02,2016-04-30T13:35:25+06:00,
1000000000164142,77086988215,mMTS,mAltel,mAltel,,D77,2016-04-30T13:36:59+06:00,
1000000000164143,77019731010,mMTS,mKcell,mKcell,,D77,2016-04-30T13:38:05+06:00,
1000000000164145,77015364054,mAltel,mKcell,mKcell,,D07,2016-04-30T13:38:42+06:00,
1000000000164147,77789446665,mMTS,mKcell,mKcell,,D77,2016-04-30T13:40:31+06:00,
1000000000164148,77764562121,mAltel,mKarTel,mKarTel,,D07,2016-04-30T13:40:31+06:00,
1000000000164150,77052584337,mMTS,mKarTel,mKarTel,,D77,2016-04-30T13:42:42+06:00,
1000000000164151,77784311746,mMTS,mKcell,mKcell,,D77,2016-04-30T13:43:06+06:00,
1000000000164152,77016691510,mAltel,mKcell,mKcell,,D07,2016-04-30T13:44:39+06:00,
1000000000164153,77718660333,mMTS,mKarTel,mKarTel,,D77,2016-04-30T13:45:49+06:00,
1000000000164154,77755317473,mAltel,mKcell,mKcell,,D07,2016-04-30T13:48:04+06:00,
1000000000164155,77010731010,mMTS,mKcell,mKcell,,D77,2016-04-30T13:48:02+06:00,
1000000000164156,77026076516,mMTS,mKcell,mKcell,,D77,2016-04-30T13:48:04+06:00,
1000000000164157,77010770842,mKarTel,mKcell,mKcell,,D01,2016-04-30T13:48:15+06:00,
1000000000164158,77078174144,mKcell,mMTS,mMTS,,D02,2016-04-30T13:49:03+06:00,
1000000000164159,77085216392,mMTS,mAltel,mAltel,,D77,2016-04-30T13:48:20+06:00,
1000000000164160,77003674142,mMTS,mAltel,mAltel,,D77,2016-04-30T13:49:04+06:00,
1000000000164162,77776664949,mKcell,mAltel,mKarTel,D07,D02,2016-04-30T13:49:58+06:00,
1000000000164163,77017074071,mAltel,mKcell,mKcell,,D07,2016-04-30T13:49:51+06:00,
1000000000164167,77083200016,mKcell,mAltel,mAltel,,D02,2016-04-30T13:50:46+06:00,
1000000000164168,77089161082,mMTS,mAltel,mAltel,,D77,2016-04-30T13:51:59+06:00,
1000000000164169,77081828210,mMTS,mAltel,mAltel,,D77,2016-04-30T13:51:59+06:00,
1000000000164170,77004842619,mMTS,mAltel,mAltel,,D77,2016-04-30T13:52:00+06:00,
1000000000164171,77775577992,mMTS,mKarTel,mKarTel,,D77,2016-04-30T13:52:31+06:00,
1000000000164172,77087587249,mMTS,mAltel,mAltel,,D77,2016-04-30T13:52:40+06:00,
1000000000164173,77017202689,mKcell,mMTS,mKcell,D77,D02,2016-04-30T13:53:27+06:00,
1000000000164174,77014463390,mKarTel,mKcell,mKcell,,D01,2016-04-30T13:53:13+06:00,
1000000000164175,77015160786,mMTS,mKcell,mKcell,,D77,2016-04-30T13:53:18+06:00,
1000000000164178,77002200788,mKarTel,mAltel,mAltel,,D01,2016-04-30T13:55:12+06:00,
1000000000164182,77053138774,mMTS,mKarTel,mKarTel,,D77,2016-04-30T13:56:29+06:00,
1000000000164183,77012332870,mAltel,mKcell,mKcell,,D07,2016-04-30T13:57:11+06:00,
1000000000164184,77475063633,mMTS,mAltel,mMTS,D07,D77,2016-04-30T13:57:31+06:00,
1000000000164185,77071929191,mMTS,mAltel,mMTS,D07,D77,2016-04-30T13:57:42+06:00,
1000000000164187,77015290153,mKcell,mAltel,mKcell,D07,D02,2016-04-30T13:59:19+06:00,
1000000000164188,77010770832,mKarTel,mKcell,mKcell,,D01,2016-04-30T13:59:46+06:00,
