NPId,Number,RecipientId,DonorId,RangeHolderId,OldRoute,NewRoute,PortDate,RowCount
1000000000419655,77085358044,mMTS,mAltel,mAltel,,D77,2017-07-11T13:31:27+06:00,19
1000000000419656,77757162978,mMTS,mKcell,mKcell,,D77,2017-07-11T13:31:59+06:00,
1000000000419658,77783771916,mMTS,mKcell,mKcell,,D77,2017-07-11T13:37:06+06:00,
1000000000419659,77772824783,mMTS,mKarTel,mKarTel,,D77,2017-07-11T13:37:24+06:00,
1000000000419661,77471980356,mAltel,mMTS,mMTS,,D07,2017-07-11T13:39:12+06:00,
1000000000419662,77758847502,mKarTel,mKcell,mKcell,,D01,2017-07-11T13:40:18+06:00,
1000000000419665,77015002021,mKarTel,mKcell,mKcell,,D01,2017-07-11T13:43:56+06:00,
1000000000419666,77753511755,mMTS,mKcell,mKcell,,D77,2017-07-11T13:45:25+06:00,
1000000000419667,77783888568,mKarTel,mKcell,mKcell,,D01,2017-07-11T13:45:50+06:00,
1000000000419669,77768368866,mMTS,mKarTel,mKarTel,,D77,2017-07-11T13:46:22+06:00,
1000000000419670,77013922317,mKarTel,mKcell,mKcell,,D01,2017-07-11T13:47:16+06:00,
1000000000419673,77017441308,mKarTel,mKcell,mKcell,,D01,2017-07-11T13:49:10+06:00,
1000000000419674,77012552030,mKarTel,mKcell,mKcell,,D01,2017-07-11T13:49:14+06:00,
1000000000419675,77025101349,mMTS,mKcell,mKcell,,D77,2017-07-11T13:50:07+06:00,
1000000000419676,77029998701,mKarTel,mKcell,mKcell,,D01,2017-07-11T13:52:37+06:00,
1000000000419677,77020009353,mKarTel,mKcell,mKcell,,D01,2017-07-11T13:55:05+06:00,
1000000000419678,77019995390,mKarTel,mKcell,mKcell,,D01,2017-07-11T13:55:35+06:00,
1000000000419679,77071517728,mKarTel,mMTS,mMTS,,D01,2017-07-11T13:56:55+06:00,
1000000000419680,77005551010,mKarTel,mAltel,mAltel,,D01,2017-07-11T13:57:16+06:00,
