NPId,Number,RecipientId,DonorId,RangeHolderId,OldRoute,NewRoute,PortDate,RowCount
1000000000391378,77755531882,mKcell,mKarTel,mKcell,D01,D02,2017-05-28T16:30:00+06:00,19
1000000000391379,77077774557,mKarTel,mMTS,mMTS,,D01,2017-05-28T16:30:58+06:00,
1000000000391380,77017559985,mKarTel,mKcell,mKcell,,D01,2017-05-28T16:34:46+06:00,
1000000000391381,77005554801,mKcell,mAltel,mAltel,,D02,2017-05-28T16:37:02+06:00,
1000000000391383,77077717006,mKarTel,mMTS,mMTS,,D01,2017-05-28T16:37:44+06:00,
1000000000391384,77018566576,mMTS,mKcell,mKcell,,D77,2017-05-28T16:38:35+06:00,
1000000000391385,77005559280,mKcell,mAltel,mAltel,,D02,2017-05-28T16:40:17+06:00,
1000000000391386,77014578603,mMTS,mKcell,mKcell,,D77,2017-05-28T16:40:55+06:00,
1000000000391388,77029995523,mMTS,mKcell,mKcell,,D77,2017-05-28T16:41:20+06:00,
1000000000391389,77755050403,mAltel,mKarTel,mKcell,D01,D07,2017-05-28T16:42:58+06:00,
1000000000391391,77075577334,mKarTel,mMTS,mMTS,,D01,2017-05-28T16:44:09+06:00,
1000000000391394,77005556820,mKcell,mAltel,mAltel,,D02,2017-05-28T16:45:25+06:00,
1000000000391395,77479610028,mMTS,mAltel,mMTS,D07,D77,2017-05-28T16:45:54+06:00,
1000000000391397,77077730215,mAltel,mKcell,mMTS,D02,D07,2017-05-28T16:48:22+06:00,
1000000000391398,77005556301,mKcell,mAltel,mAltel,,D02,2017-05-28T16:49:25+06:00,
1000000000391401,77000102006,mMTS,mAltel,mAltel,,D77,2017-05-28T16:55:09+06:00,
1000000000391402,77770599992,mAltel,mKarTel,mKarTel,,D07,2017-05-28T16:56:08+06:00,
1000000000391403,77005559204,mKcell,mAltel,mAltel,,D02,2017-05-28T16:56:22+06:00,
1000000000391404,77026711176,mMTS,mKcell,mKcell,,D77,2017-05-28T16:57:49+06:00,
