NPId,Number,RecipientId,DonorId,RangeHolderId,OldRoute,NewRoute,PortDate,RowCount
1000000000323706,77009181373,mMTS,mAltel,mAltel,,D77,2017-02-04T16:00:04+06:00,28
1000000000323707,77003000645,mMTS,mAltel,mAltel,,D77,2017-02-04T16:00:17+06:00,
1000000000323708,77029867046,mAltel,mMTS,mKcell,D77,D07,2017-02-04T16:00:59+06:00,
1000000000323710,77028877033,mAltel,mKcell,mKcell,,D07,2017-02-04T16:01:36+06:00,
1000000000323712,77071016987,mKarTel,mMTS,mMTS,,D01,2017-02-04T16:02:07+06:00,
1000000000323714,77015200825,mKarTel,mKcell,mKcell,,D01,2017-02-04T16:03:52+06:00,
1000000000323717,77017660045,mAltel,mKcell,mKcell,,D07,2017-02-04T16:04:57+06:00,
1000000000323718,77026116006,mMTS,mKcell,mKcell,,D77,2017-02-04T16:05:18+06:00,
1000000000323720,77772692004,mMTS,mKarTel,mKarTel,,D77,2017-02-04T16:08:28+06:00,
1000000000323724,77751743331,mMTS,mKcell,mKcell,,D77,2017-02-04T16:12:33+06:00,
1000000000323726,77029995957,mKcell,mAltel,mKcell,D07,D02,2017-02-04T16:13:52+06:00,
1000000000323727,77057646975,mMTS,mKarTel,mKarTel,,D77,2017-02-04T16:14:40+06:00,
1000000000323728,77001010525,mMTS,mAltel,mAltel,,D77,2017-02-04T16:14:44+06:00,
1000000000323729,77788881171,mKcell,mMTS,mKcell,D77,D02,2017-02-04T16:15:35+06:00,
1000000000323730,77775522698,mKarTel,mKcell,mKarTel,D02,D01,2017-02-04T16:15:57+06:00,
1000000000323732,77784211230,mMTS,mKcell,mKcell,,D77,2017-02-04T16:17:44+06:00,
1000000000323734,77770530011,mKcell,mKarTel,mKarTel,,D02,2017-02-04T16:19:14+06:00,
1000000000323735,77714651111,mMTS,mKarTel,mKarTel,,D77,2017-02-04T16:20:54+06:00,
1000000000323736,77770430011,mKcell,mKarTel,mKarTel,,D02,2017-02-04T16:21:37+06:00,
1000000000323738,77001330824,mMTS,mAltel,mAltel,,D77,2017-02-04T16:22:35+06:00,
1000000000323739,77759631439,mMTS,mKcell,mKcell,,D77,2017-02-04T16:22:48+06:00,
1000000000323740,77014544584,mAltel,mKcell,mKcell,,D07,2017-02-04T16:22:55+06:00,
1000000000323741,77472349082,mAltel,mMTS,mMTS,,D07,2017-02-04T16:23:01+06:00,
1000000000323743,77024726660,mKarTel,mKcell,mKcell,,D01,2017-02-04T16:24:18+06:00,
1000000000323747,77759043401,mMTS,mKcell,mKcell,,D77,2017-02-04T16:25:25+06:00,
1000000000323749,77028331654,mKarTel,mKcell,mKcell,,D01,2017-02-04T16:26:08+06:00,
1000000000323750,77774116555,mMTS,mKarTel,mKarTel,,D77,2017-02-04T16:26:54+06:00,
1000000000323751,77787001234,mKarTel,mKcell,mKcell,,D01,2017-02-04T16:26:56+06:00,
