NPId,Number,RecipientId,DonorId,RangeHolderId,OldRoute,NewRoute,PortDate,RowCount
1000000000318355,77012501521,mKarTel,mKcell,mKcell,,D01,2017-01-28T17:49:01+06:00,23
1000000000318359,77017893250,mKarTel,mKcell,mKcell,,D01,2017-01-28T17:48:43+06:00,
1000000000318366,77018874820,mKarTel,mKcell,mKcell,D02,D01,2017-01-28T17:48:43+06:00,
1000000000318367,77785323619,mMTS,mKcell,mKcell,,D77,2017-01-28T17:48:31+06:00,
1000000000318372,77017738959,mMTS,mKcell,mKcell,,D77,2017-01-28T17:48:30+06:00,
1000000000318376,77071666142,mAltel,mMTS,mMTS,,D07,2017-01-28T17:31:20+06:00,
1000000000318377,77758238231,mKarTel,mKcell,mKcell,,D01,2017-01-28T17:49:04+06:00,
1000000000318378,77056271830,mAltel,mKarTel,mKarTel,,D07,2017-01-28T17:35:47+06:00,
1000000000318379,77477784152,mAltel,mMTS,mMTS,,D07,2017-01-28T17:35:30+06:00,
1000000000318380,77015387138,mAltel,mKcell,mKcell,,D07,2017-01-28T17:48:46+06:00,
1000000000318381,77075214924,mAltel,mMTS,mMTS,,D07,2017-01-28T17:39:19+06:00,
1000000000318383,77476335355,mKarTel,mMTS,mMTS,,D01,2017-01-28T17:41:27+06:00,
1000000000318385,77018003013,mKarTel,mKcell,mKcell,,D01,2017-01-28T17:49:00+06:00,
1000000000318387,77786689008,mKarTel,mKcell,mKcell,,D01,2017-01-28T17:49:00+06:00,
1000000000318388,77082229126,mMTS,mAltel,mAltel,,D77,2017-01-28T17:43:31+06:00,
1000000000318389,77753142326,mAltel,mKcell,mKcell,,D07,2017-01-28T17:48:48+06:00,
1000000000318390,77788093999,mAltel,mKcell,mKcell,,D07,2017-01-28T17:48:48+06:00,
1000000000318391,77017882060,mAltel,mKcell,mKcell,,D07,2017-01-28T17:48:48+06:00,
1000000000318393,77766161186,mMTS,mKarTel,mKarTel,,D77,2017-01-28T17:47:58+06:00,
1000000000318394,77071225830,mAltel,mMTS,mMTS,,D07,2017-01-28T17:49:51+06:00,
1000000000318395,77076938272,mAltel,mMTS,mMTS,,D07,2017-01-28T17:50:24+06:00,
1000000000318396,77051888835,mAltel,mKarTel,mKarTel,,D07,2017-01-28T17:51:59+06:00,
1000000000318400,77779666643,mAltel,mKarTel,mKarTel,,D07,2017-01-28T17:56:56+06:00,
