NPId,Number,RecipientId,DonorId,RangeHolderId,OldRoute,NewRoute,PortDate,RowCount
1000000000248182,77778028023,mKarTel,mAltel,mKarTel,D07,D01,2016-09-20T09:49:15+06:00,2
1000000000248185,77783865593,mKarTel,mKcell,mKcell,,D01,2016-09-20T09:54:15+06:00,
