NPId,Number,RecipientId,DonorId,RangeHolderId,OldRoute,NewRoute,PortDate,RowCount
1000000000370307,77073463443,mKcell,mMTS,mMTS,,D02,2017-04-22T20:38:00+06:00,2
1000000000370309,77073001799,mKcell,mMTS,mMTS,,D02,2017-04-22T20:51:02+06:00,
